xof 0302txt 0064
template Header {
 <3D82AB43-62DA-11cf-AB39-0020AF71E433>
 WORD major;
 WORD minor;
 DWORD flags;
}

template Vector {
 <3D82AB5E-62DA-11cf-AB39-0020AF71E433>
 FLOAT x;
 FLOAT y;
 FLOAT z;
}

template Coords2d {
 <F6F23F44-7686-11cf-8F52-0040333594A3>
 FLOAT u;
 FLOAT v;
}

template Matrix4x4 {
 <F6F23F45-7686-11cf-8F52-0040333594A3>
 array FLOAT matrix[16];
}

template ColorRGBA {
 <35FF44E0-6C7C-11cf-8F52-0040333594A3>
 FLOAT red;
 FLOAT green;
 FLOAT blue;
 FLOAT alpha;
}

template ColorRGB {
 <D3E16E81-7835-11cf-8F52-0040333594A3>
 FLOAT red;
 FLOAT green;
 FLOAT blue;
}

template IndexedColor {
 <1630B820-7842-11cf-8F52-0040333594A3>
 DWORD index;
 ColorRGBA indexColor;
}

template Boolean {
 <4885AE61-78E8-11cf-8F52-0040333594A3>
 WORD truefalse;
}

template Boolean2d {
 <4885AE63-78E8-11cf-8F52-0040333594A3>
 Boolean u;
 Boolean v;
}

template MaterialWrap {
 <4885AE60-78E8-11cf-8F52-0040333594A3>
 Boolean u;
 Boolean v;
}

template TextureFilename {
 <A42790E1-7810-11cf-8F52-0040333594A3>
 STRING filename;
}

template Material {
 <3D82AB4D-62DA-11cf-AB39-0020AF71E433>
 ColorRGBA faceColor;
 FLOAT power;
 ColorRGB specularColor;
 ColorRGB emissiveColor;
 [...]
}

template MeshFace {
 <3D82AB5F-62DA-11cf-AB39-0020AF71E433>
 DWORD nFaceVertexIndices;
 array DWORD faceVertexIndices[nFaceVertexIndices];
}

template MeshFaceWraps {
 <4885AE62-78E8-11cf-8F52-0040333594A3>
 DWORD nFaceWrapValues;
 Boolean2d faceWrapValues;
}

template MeshTextureCoords {
 <F6F23F40-7686-11cf-8F52-0040333594A3>
 DWORD nTextureCoords;
 array Coords2d textureCoords[nTextureCoords];
}

template MeshMaterialList {
 <F6F23F42-7686-11cf-8F52-0040333594A3>
 DWORD nMaterials;
 DWORD nFaceIndexes;
 array DWORD faceIndexes[nFaceIndexes];
 [Material]
}

template MeshNormals {
 <F6F23F43-7686-11cf-8F52-0040333594A3>
 DWORD nNormals;
 array Vector normals[nNormals];
 DWORD nFaceNormals;
 array MeshFace faceNormals[nFaceNormals];
}

template MeshVertexColors {
 <1630B821-7842-11cf-8F52-0040333594A3>
 DWORD nVertexColors;
 array IndexedColor vertexColors[nVertexColors];
}

template Mesh {
 <3D82AB44-62DA-11cf-AB39-0020AF71E433>
 DWORD nVertices;
 array Vector vertices[nVertices];
 DWORD nFaces;
 array MeshFace faces[nFaces];
 [...]
}

Header{
1;
0;
1;
}

Mesh {
 354;
 -2.87399;5.48566;-2.87399;,
 2.87399;5.48566;-2.87399;,
 2.87399;4.80237;-2.87399;,
 -2.87399;4.80237;-2.87399;,
 2.87399;5.48566;2.87399;,
 2.87399;4.80237;2.87399;,
 -2.87399;5.48566;2.87399;,
 -2.87399;4.80237;2.87399;,
 -2.87399;11.21917;3.56014;,
 2.87399;11.21917;3.56014;,
 2.87399;11.21917;2.87685;,
 -2.87399;11.21917;2.87685;,
 2.87399;5.47121;3.56014;,
 2.87399;5.47121;2.87685;,
 -2.87399;5.47121;3.56014;,
 -2.87399;5.47121;2.87685;,
 -2.87399;5.48566;2.87369;,
 2.87399;5.48566;2.87369;,
 2.87399;4.80237;2.87369;,
 -2.87399;4.80237;2.87369;,
 2.87399;5.48566;3.56040;,
 2.87399;4.80237;3.56040;,
 -2.87399;5.48566;3.56040;,
 -2.87399;4.80237;3.56040;,
 0.00000;4.82936;-0.87692;,
 0.62008;4.82936;-0.62008;,
 0.62008;1.14184;-0.62008;,
 0.00000;1.14184;-0.87692;,
 0.87692;4.82936;0.00000;,
 0.87692;1.14184;0.00000;,
 0.62008;4.82936;0.62008;,
 0.62008;1.14184;0.62008;,
 -0.00000;4.82936;0.87692;,
 -0.00000;1.14184;0.87692;,
 -0.62008;4.82936;0.62008;,
 -0.62008;1.14184;0.62008;,
 -0.87692;4.82936;-0.00000;,
 -0.87692;1.14184;-0.00000;,
 -0.62008;4.82936;-0.62008;,
 -0.62008;1.14184;-0.62008;,
 0.00000;4.82936;0.00000;,
 0.00000;1.14184;0.00000;,
 -1.98810;0.74123;-2.32176;,
 -1.66729;0.74123;-2.53815;,
 -1.63450;0.54331;-2.48955;,
 -1.95531;0.54331;-2.27316;,
 -0.17941;1.52938;-0.33229;,
 -0.14663;1.33146;-0.28368;,
 -0.50022;1.52938;-0.11590;,
 -0.46744;1.33146;-0.06729;,
 1.75557;0.74123;-2.51081;,
 2.06664;0.74123;-2.28063;,
 2.03177;0.54331;-2.23350;,
 1.72070;0.54331;-2.46368;,
 0.48396;1.52938;-0.14177;,
 0.44909;1.33146;-0.09464;,
 0.17290;1.52938;-0.37194;,
 0.13803;1.33146;-0.32482;,
 2.22180;0.74123;1.94763;,
 1.95543;0.74123;2.22833;,
 1.91290;0.54331;2.18797;,
 2.17927;0.54331;1.90728;,
 0.02538;1.52938;0.39679;,
 -0.01714;1.33146;0.35643;,
 0.29176;1.52938;0.11609;,
 0.24923;1.33146;0.07574;,
 1.82273;0.67500;-2.23179;,
 1.90598;0.65158;-2.31505;,
 1.82273;0.65158;-2.34953;,
 1.94047;0.65158;-2.23179;,
 1.90598;0.65158;-2.14854;,
 1.82273;0.65158;-2.11405;,
 1.73947;0.65158;-2.14854;,
 1.70499;0.65158;-2.23179;,
 1.73947;0.65158;-2.31505;,
 1.97656;0.58488;-2.38563;,
 1.82273;0.58488;-2.44935;,
 2.04028;0.58488;-2.23179;,
 1.97656;0.58488;-2.07796;,
 1.82273;0.58488;-2.01423;,
 1.66889;0.58488;-2.07796;,
 1.60517;0.58488;-2.23179;,
 1.66889;0.58488;-2.38563;,
 2.02372;0.48507;-2.43279;,
 1.82273;0.48507;-2.51604;,
 2.10698;0.48507;-2.23179;,
 2.02372;0.48507;-2.03080;,
 1.82273;0.48507;-1.94754;,
 1.62173;0.48507;-2.03080;,
 1.53847;0.48507;-2.23179;,
 1.62173;0.48507;-2.43279;,
 2.04028;0.36732;-2.44935;,
 1.82273;0.36732;-2.53946;,
 2.13040;0.36732;-2.23179;,
 2.04028;0.36732;-2.01423;,
 1.82273;0.36732;-1.92412;,
 1.60517;0.36732;-2.01424;,
 1.51505;0.36732;-2.23179;,
 1.60517;0.36732;-2.44935;,
 2.02372;0.24958;-2.43279;,
 1.82273;0.24958;-2.51604;,
 2.10698;0.24958;-2.23179;,
 2.02372;0.24958;-2.03080;,
 1.82273;0.24958;-1.94754;,
 1.62173;0.24958;-2.03080;,
 1.53847;0.24958;-2.23179;,
 1.62173;0.24958;-2.43279;,
 1.97656;0.14977;-2.38563;,
 1.82273;0.14977;-2.44935;,
 2.04028;0.14977;-2.23179;,
 1.97656;0.14977;-2.07796;,
 1.82273;0.14977;-2.01423;,
 1.66889;0.14977;-2.07796;,
 1.60517;0.14977;-2.23179;,
 1.66889;0.14977;-2.38563;,
 1.90598;0.08307;-2.31505;,
 1.82273;0.08307;-2.34953;,
 1.94047;0.08307;-2.23179;,
 1.90598;0.08307;-2.14854;,
 1.82273;0.08307;-2.11405;,
 1.73947;0.08307;-2.14854;,
 1.70499;0.08307;-2.23179;,
 1.73947;0.08307;-2.31505;,
 1.82273;0.05965;-2.23179;,
 -1.85198;0.74123;2.34853;,
 -2.15899;0.74123;2.11296;,
 -2.12329;0.54331;2.06645;,
 -1.81629;0.54331;2.30202;,
 -0.53922;1.52938;0.00204;,
 -0.50353;1.33146;-0.04447;,
 -0.23222;1.52938;0.23762;,
 -0.19653;1.33146;0.19110;,
 -1.74180;0.67500;-2.23179;,
 -1.65854;0.65158;-2.31505;,
 -1.74180;0.65158;-2.34953;,
 -1.62406;0.65158;-2.23179;,
 -1.65854;0.65158;-2.14854;,
 -1.74180;0.65158;-2.11405;,
 -1.82506;0.65158;-2.14854;,
 -1.85954;0.65158;-2.23179;,
 -1.82506;0.65158;-2.31505;,
 -1.58796;0.58488;-2.38563;,
 -1.74180;0.58488;-2.44935;,
 -1.52424;0.58488;-2.23179;,
 -1.58796;0.58488;-2.07796;,
 -1.74180;0.58488;-2.01423;,
 -1.89564;0.58488;-2.07796;,
 -1.95936;0.58488;-2.23179;,
 -1.89564;0.58488;-2.38563;,
 -1.54080;0.48507;-2.43279;,
 -1.74180;0.48507;-2.51604;,
 -1.45755;0.48507;-2.23179;,
 -1.54080;0.48507;-2.03080;,
 -1.74180;0.48507;-1.94754;,
 -1.94280;0.48507;-2.03080;,
 -2.02605;0.48507;-2.23179;,
 -1.94280;0.48507;-2.43279;,
 -1.52424;0.36732;-2.44935;,
 -1.74180;0.36732;-2.53946;,
 -1.43413;0.36732;-2.23179;,
 -1.52424;0.36732;-2.01423;,
 -1.74180;0.36732;-1.92412;,
 -1.95936;0.36732;-2.01424;,
 -2.04947;0.36732;-2.23179;,
 -1.95936;0.36732;-2.44935;,
 -1.54080;0.24958;-2.43279;,
 -1.74180;0.24958;-2.51604;,
 -1.45755;0.24958;-2.23179;,
 -1.54080;0.24958;-2.03080;,
 -1.74180;0.24958;-1.94754;,
 -1.94280;0.24958;-2.03080;,
 -2.02605;0.24958;-2.23179;,
 -1.94280;0.24958;-2.43279;,
 -1.58796;0.14977;-2.38563;,
 -1.74180;0.14977;-2.44935;,
 -1.52424;0.14977;-2.23179;,
 -1.58796;0.14977;-2.07796;,
 -1.74180;0.14977;-2.01423;,
 -1.89564;0.14977;-2.07796;,
 -1.95936;0.14977;-2.23179;,
 -1.89564;0.14977;-2.38563;,
 -1.65854;0.08307;-2.31505;,
 -1.74180;0.08307;-2.34953;,
 -1.62406;0.08307;-2.23179;,
 -1.65854;0.08307;-2.14854;,
 -1.74180;0.08307;-2.11405;,
 -1.82506;0.08307;-2.14854;,
 -1.85954;0.08307;-2.23179;,
 -1.82506;0.08307;-2.31505;,
 -1.74180;0.05965;-2.23179;,
 -1.92680;0.67500;2.12408;,
 -1.84354;0.65158;2.04082;,
 -1.92680;0.65158;2.00634;,
 -1.80906;0.65158;2.12408;,
 -1.84354;0.65158;2.20733;,
 -1.92680;0.65158;2.24182;,
 -2.01005;0.65158;2.20733;,
 -2.04454;0.65158;2.12408;,
 -2.01005;0.65158;2.04082;,
 -1.77296;0.58488;1.97024;,
 -1.92680;0.58488;1.90652;,
 -1.70924;0.58488;2.12408;,
 -1.77296;0.58488;2.27791;,
 -1.92680;0.58488;2.34164;,
 -2.08064;0.58488;2.27791;,
 -2.14436;0.58488;2.12408;,
 -2.08064;0.58488;1.97024;,
 -1.72580;0.48507;1.92308;,
 -1.92680;0.48507;1.83983;,
 -1.64255;0.48507;2.12408;,
 -1.72580;0.48507;2.32507;,
 -1.92680;0.48507;2.40833;,
 -2.12780;0.48507;2.32507;,
 -2.21105;0.48507;2.12408;,
 -2.12780;0.48507;1.92308;,
 -1.70924;0.36732;1.90652;,
 -1.92680;0.36732;1.81641;,
 -1.61913;0.36732;2.12408;,
 -1.70924;0.36732;2.34164;,
 -1.92680;0.36732;2.43175;,
 -2.14436;0.36732;2.34163;,
 -2.23447;0.36732;2.12408;,
 -2.14436;0.36732;1.90652;,
 -1.72580;0.24958;1.92308;,
 -1.92680;0.24958;1.83983;,
 -1.64255;0.24958;2.12408;,
 -1.72580;0.24958;2.32507;,
 -1.92680;0.24958;2.40833;,
 -2.12780;0.24958;2.32507;,
 -2.21105;0.24958;2.12408;,
 -2.12780;0.24958;1.92308;,
 -1.77296;0.14977;1.97024;,
 -1.92680;0.14977;1.90652;,
 -1.70924;0.14977;2.12408;,
 -1.77296;0.14977;2.27791;,
 -1.92680;0.14977;2.34164;,
 -2.08064;0.14977;2.27791;,
 -2.14436;0.14977;2.12408;,
 -2.08064;0.14977;1.97024;,
 -1.84354;0.08307;2.04082;,
 -1.92680;0.08307;2.00634;,
 -1.80906;0.08307;2.12408;,
 -1.84354;0.08307;2.20733;,
 -1.92680;0.08307;2.24182;,
 -2.01005;0.08307;2.20733;,
 -2.04454;0.08307;2.12408;,
 -2.01005;0.08307;2.04082;,
 -1.92680;0.05965;2.12408;,
 2.02900;0.67500;1.98569;,
 2.11225;0.65158;1.90244;,
 2.02900;0.65158;1.86795;,
 2.14674;0.65158;1.98569;,
 2.11225;0.65158;2.06895;,
 2.02900;0.65158;2.10343;,
 1.94574;0.65158;2.06895;,
 1.91126;0.65158;1.98569;,
 1.94574;0.65158;1.90244;,
 2.18283;0.58488;1.83186;,
 2.02900;0.58488;1.76813;,
 2.24655;0.58488;1.98569;,
 2.18283;0.58488;2.13953;,
 2.02900;0.58488;2.20325;,
 1.87516;0.58488;2.13953;,
 1.81144;0.58488;1.98569;,
 1.87516;0.58488;1.83186;,
 2.22999;0.48507;1.78469;,
 2.02900;0.48507;1.70144;,
 2.31325;0.48507;1.98569;,
 2.22999;0.48507;2.18669;,
 2.02900;0.48507;2.26994;,
 1.82800;0.48507;2.18669;,
 1.74474;0.48507;1.98569;,
 1.82800;0.48507;1.78469;,
 2.24655;0.36732;1.76813;,
 2.02900;0.36732;1.67802;,
 2.33667;0.36732;1.98569;,
 2.24655;0.36732;2.20325;,
 2.02900;0.36732;2.29336;,
 1.81144;0.36732;2.20325;,
 1.72132;0.36732;1.98569;,
 1.81144;0.36732;1.76813;,
 2.22999;0.24958;1.78469;,
 2.02900;0.24958;1.70144;,
 2.31325;0.24958;1.98569;,
 2.22999;0.24958;2.18669;,
 2.02900;0.24958;2.26994;,
 1.82800;0.24958;2.18669;,
 1.74474;0.24958;1.98569;,
 1.82800;0.24958;1.78469;,
 2.18283;0.14977;1.83186;,
 2.02900;0.14977;1.76813;,
 2.24655;0.14977;1.98569;,
 2.18283;0.14977;2.13953;,
 2.02900;0.14977;2.20325;,
 1.87516;0.14977;2.13953;,
 1.81144;0.14977;1.98569;,
 1.87516;0.14977;1.83186;,
 2.11225;0.08307;1.90244;,
 2.02900;0.08307;1.86795;,
 2.14674;0.08307;1.98569;,
 2.11225;0.08307;2.06895;,
 2.02900;0.08307;2.10343;,
 1.94574;0.08307;2.06895;,
 1.91126;0.08307;1.98569;,
 1.94574;0.08307;1.90244;,
 2.02900;0.05965;1.98569;,
 2.87770;7.49712;-1.20667;,
 3.38427;7.49712;-1.20667;,
 3.38427;7.01759;-1.20667;,
 2.87770;7.01759;-1.20667;,
 3.38427;7.49712;1.20667;,
 3.38427;7.01759;1.20667;,
 2.87770;7.49712;1.20667;,
 2.87770;7.01759;1.20667;,
 2.87770;7.50001;-1.53741;,
 3.38427;7.50001;-1.53741;,
 3.38427;4.80679;-1.53741;,
 2.87770;4.80679;-1.53741;,
 3.38427;7.50001;-1.20917;,
 3.38427;4.80679;-1.20917;,
 2.87770;7.50001;-1.20917;,
 2.87770;4.80679;-1.20917;,
 2.87770;7.50001;1.20557;,
 3.38427;7.50001;1.20557;,
 3.38427;4.80679;1.20557;,
 2.87770;4.80679;1.20557;,
 3.38427;7.50001;1.53381;,
 3.38427;4.80679;1.53381;,
 2.87770;7.50001;1.53381;,
 2.87770;4.80679;1.53381;,
 -3.34994;7.50098;-1.20667;,
 -2.84337;7.50098;-1.20667;,
 -2.84337;7.02383;-1.20667;,
 -3.34994;7.02383;-1.20667;,
 -2.84337;7.50098;1.20667;,
 -2.84337;7.02383;1.20667;,
 -3.34994;7.50098;1.20667;,
 -3.34994;7.02383;1.20667;,
 -3.34795;7.50001;-1.53741;,
 -2.84138;7.50001;-1.53741;,
 -2.84138;4.80679;-1.53741;,
 -3.34795;4.80679;-1.53741;,
 -2.84138;7.50001;-1.20917;,
 -2.84138;4.80679;-1.20917;,
 -3.34795;7.50001;-1.20917;,
 -3.34795;4.80679;-1.20917;,
 -3.35168;7.50001;1.20557;,
 -2.84511;7.50001;1.20557;,
 -2.84511;4.80679;1.20557;,
 -3.35168;4.80679;1.20557;,
 -2.84511;7.50001;1.53381;,
 -2.84511;4.80679;1.53381;,
 -3.35168;7.50001;1.53381;,
 -3.35168;4.80679;1.53381;;
 
 358;
 4;0,1,2,3;,
 4;1,4,5,2;,
 4;4,6,7,5;,
 4;6,0,3,7;,
 4;6,4,1,0;,
 4;3,2,5,7;,
 4;8,9,10,11;,
 4;9,12,13,10;,
 4;12,14,15,13;,
 4;14,8,11,15;,
 4;14,12,9,8;,
 4;11,10,13,15;,
 4;16,17,18,19;,
 4;17,20,21,18;,
 4;20,22,23,21;,
 4;22,16,19,23;,
 4;22,20,17,16;,
 4;19,18,21,23;,
 4;24,25,26,27;,
 4;25,28,29,26;,
 4;28,30,31,29;,
 4;30,32,33,31;,
 4;32,34,35,33;,
 4;34,36,37,35;,
 4;36,38,39,37;,
 4;38,24,27,39;,
 3;40,25,24;,
 3;40,28,25;,
 3;40,30,28;,
 3;40,32,30;,
 3;40,34,32;,
 3;40,36,34;,
 3;40,38,36;,
 3;40,24,38;,
 3;41,27,26;,
 3;41,26,29;,
 3;41,29,31;,
 3;41,31,33;,
 3;41,33,35;,
 3;41,35,37;,
 3;41,37,39;,
 3;41,39,27;,
 4;42,43,44,45;,
 4;43,46,47,44;,
 4;46,48,49,47;,
 4;48,42,45,49;,
 4;48,46,43,42;,
 4;45,44,47,49;,
 4;50,51,52,53;,
 4;51,54,55,52;,
 4;54,56,57,55;,
 4;56,50,53,57;,
 4;56,54,51,50;,
 4;53,52,55,57;,
 4;58,59,60,61;,
 4;59,62,63,60;,
 4;62,64,65,63;,
 4;64,58,61,65;,
 4;64,62,59,58;,
 4;61,60,63,65;,
 3;66,67,68;,
 3;66,69,67;,
 3;66,70,69;,
 3;66,71,70;,
 3;66,72,71;,
 3;66,73,72;,
 3;66,74,73;,
 3;66,68,74;,
 4;68,67,75,76;,
 4;67,69,77,75;,
 4;69,70,78,77;,
 4;70,71,79,78;,
 4;71,72,80,79;,
 4;72,73,81,80;,
 4;73,74,82,81;,
 4;74,68,76,82;,
 4;76,75,83,84;,
 4;75,77,85,83;,
 4;77,78,86,85;,
 4;78,79,87,86;,
 4;79,80,88,87;,
 4;80,81,89,88;,
 4;81,82,90,89;,
 4;82,76,84,90;,
 4;84,83,91,92;,
 4;83,85,93,91;,
 4;85,86,94,93;,
 4;86,87,95,94;,
 4;87,88,96,95;,
 4;88,89,97,96;,
 4;89,90,98,97;,
 4;90,84,92,98;,
 4;92,91,99,100;,
 4;91,93,101,99;,
 4;93,94,102,101;,
 4;94,95,103,102;,
 4;95,96,104,103;,
 4;96,97,105,104;,
 4;97,98,106,105;,
 4;98,92,100,106;,
 4;100,99,107,108;,
 4;99,101,109,107;,
 4;101,102,110,109;,
 4;102,103,111,110;,
 4;103,104,112,111;,
 4;104,105,113,112;,
 4;105,106,114,113;,
 4;106,100,108,114;,
 4;108,107,115,116;,
 4;107,109,117,115;,
 4;109,110,118,117;,
 4;110,111,119,118;,
 4;111,112,120,119;,
 4;112,113,121,120;,
 4;113,114,122,121;,
 4;114,108,116,122;,
 3;116,115,123;,
 3;115,117,123;,
 3;117,118,123;,
 3;118,119,123;,
 3;119,120,123;,
 3;120,121,123;,
 3;121,122,123;,
 3;122,116,123;,
 4;124,125,126,127;,
 4;125,128,129,126;,
 4;128,130,131,129;,
 4;130,124,127,131;,
 4;130,128,125,124;,
 4;127,126,129,131;,
 3;132,133,134;,
 3;132,135,133;,
 3;132,136,135;,
 3;132,137,136;,
 3;132,138,137;,
 3;132,139,138;,
 3;132,140,139;,
 3;132,134,140;,
 4;134,133,141,142;,
 4;133,135,143,141;,
 4;135,136,144,143;,
 4;136,137,145,144;,
 4;137,138,146,145;,
 4;138,139,147,146;,
 4;139,140,148,147;,
 4;140,134,142,148;,
 4;142,141,149,150;,
 4;141,143,151,149;,
 4;143,144,152,151;,
 4;144,145,153,152;,
 4;145,146,154,153;,
 4;146,147,155,154;,
 4;147,148,156,155;,
 4;148,142,150,156;,
 4;150,149,157,158;,
 4;149,151,159,157;,
 4;151,152,160,159;,
 4;152,153,161,160;,
 4;153,154,162,161;,
 4;154,155,163,162;,
 4;155,156,164,163;,
 4;156,150,158,164;,
 4;158,157,165,166;,
 4;157,159,167,165;,
 4;159,160,168,167;,
 4;160,161,169,168;,
 4;161,162,170,169;,
 4;162,163,171,170;,
 4;163,164,172,171;,
 4;164,158,166,172;,
 4;166,165,173,174;,
 4;165,167,175,173;,
 4;167,168,176,175;,
 4;168,169,177,176;,
 4;169,170,178,177;,
 4;170,171,179,178;,
 4;171,172,180,179;,
 4;172,166,174,180;,
 4;174,173,181,182;,
 4;173,175,183,181;,
 4;175,176,184,183;,
 4;176,177,185,184;,
 4;177,178,186,185;,
 4;178,179,187,186;,
 4;179,180,188,187;,
 4;180,174,182,188;,
 3;182,181,189;,
 3;181,183,189;,
 3;183,184,189;,
 3;184,185,189;,
 3;185,186,189;,
 3;186,187,189;,
 3;187,188,189;,
 3;188,182,189;,
 3;190,191,192;,
 3;190,193,191;,
 3;190,194,193;,
 3;190,195,194;,
 3;190,196,195;,
 3;190,197,196;,
 3;190,198,197;,
 3;190,192,198;,
 4;192,191,199,200;,
 4;191,193,201,199;,
 4;193,194,202,201;,
 4;194,195,203,202;,
 4;195,196,204,203;,
 4;196,197,205,204;,
 4;197,198,206,205;,
 4;198,192,200,206;,
 4;200,199,207,208;,
 4;199,201,209,207;,
 4;201,202,210,209;,
 4;202,203,211,210;,
 4;203,204,212,211;,
 4;204,205,213,212;,
 4;205,206,214,213;,
 4;206,200,208,214;,
 4;208,207,215,216;,
 4;207,209,217,215;,
 4;209,210,218,217;,
 4;210,211,219,218;,
 4;211,212,220,219;,
 4;212,213,221,220;,
 4;213,214,222,221;,
 4;214,208,216,222;,
 4;216,215,223,224;,
 4;215,217,225,223;,
 4;217,218,226,225;,
 4;218,219,227,226;,
 4;219,220,228,227;,
 4;220,221,229,228;,
 4;221,222,230,229;,
 4;222,216,224,230;,
 4;224,223,231,232;,
 4;223,225,233,231;,
 4;225,226,234,233;,
 4;226,227,235,234;,
 4;227,228,236,235;,
 4;228,229,237,236;,
 4;229,230,238,237;,
 4;230,224,232,238;,
 4;232,231,239,240;,
 4;231,233,241,239;,
 4;233,234,242,241;,
 4;234,235,243,242;,
 4;235,236,244,243;,
 4;236,237,245,244;,
 4;237,238,246,245;,
 4;238,232,240,246;,
 3;240,239,247;,
 3;239,241,247;,
 3;241,242,247;,
 3;242,243,247;,
 3;243,244,247;,
 3;244,245,247;,
 3;245,246,247;,
 3;246,240,247;,
 3;248,249,250;,
 3;248,251,249;,
 3;248,252,251;,
 3;248,253,252;,
 3;248,254,253;,
 3;248,255,254;,
 3;248,256,255;,
 3;248,250,256;,
 4;250,249,257,258;,
 4;249,251,259,257;,
 4;251,252,260,259;,
 4;252,253,261,260;,
 4;253,254,262,261;,
 4;254,255,263,262;,
 4;255,256,264,263;,
 4;256,250,258,264;,
 4;258,257,265,266;,
 4;257,259,267,265;,
 4;259,260,268,267;,
 4;260,261,269,268;,
 4;261,262,270,269;,
 4;262,263,271,270;,
 4;263,264,272,271;,
 4;264,258,266,272;,
 4;266,265,273,274;,
 4;265,267,275,273;,
 4;267,268,276,275;,
 4;268,269,277,276;,
 4;269,270,278,277;,
 4;270,271,279,278;,
 4;271,272,280,279;,
 4;272,266,274,280;,
 4;274,273,281,282;,
 4;273,275,283,281;,
 4;275,276,284,283;,
 4;276,277,285,284;,
 4;277,278,286,285;,
 4;278,279,287,286;,
 4;279,280,288,287;,
 4;280,274,282,288;,
 4;282,281,289,290;,
 4;281,283,291,289;,
 4;283,284,292,291;,
 4;284,285,293,292;,
 4;285,286,294,293;,
 4;286,287,295,294;,
 4;287,288,296,295;,
 4;288,282,290,296;,
 4;290,289,297,298;,
 4;289,291,299,297;,
 4;291,292,300,299;,
 4;292,293,301,300;,
 4;293,294,302,301;,
 4;294,295,303,302;,
 4;295,296,304,303;,
 4;296,290,298,304;,
 3;298,297,305;,
 3;297,299,305;,
 3;299,300,305;,
 3;300,301,305;,
 3;301,302,305;,
 3;302,303,305;,
 3;303,304,305;,
 3;304,298,305;,
 4;306,307,308,309;,
 4;307,310,311,308;,
 4;310,312,313,311;,
 4;312,306,309,313;,
 4;312,310,307,306;,
 4;309,308,311,313;,
 4;314,315,316,317;,
 4;315,318,319,316;,
 4;318,320,321,319;,
 4;320,314,317,321;,
 4;320,318,315,314;,
 4;317,316,319,321;,
 4;322,323,324,325;,
 4;323,326,327,324;,
 4;326,328,329,327;,
 4;328,322,325,329;,
 4;328,326,323,322;,
 4;325,324,327,329;,
 4;330,331,332,333;,
 4;331,334,335,332;,
 4;334,336,337,335;,
 4;336,330,333,337;,
 4;336,334,331,330;,
 4;333,332,335,337;,
 4;338,339,340,341;,
 4;339,342,343,340;,
 4;342,344,345,343;,
 4;344,338,341,345;,
 4;344,342,339,338;,
 4;341,340,343,345;,
 4;346,347,348,349;,
 4;347,350,351,348;,
 4;350,352,353,351;,
 4;352,346,349,353;,
 4;352,350,347,346;,
 4;349,348,351,353;;
 
 MeshMaterialList {
  1;
  358;
  0,
  0,
  0,
  0,
  0,
  0,
  0,
  0,
  0,
  0,
  0,
  0,
  0,
  0,
  0,
  0,
  0,
  0,
  0,
  0,
  0,
  0,
  0,
  0,
  0,
  0,
  0,
  0,
  0,
  0,
  0,
  0,
  0,
  0,
  0,
  0,
  0,
  0,
  0,
  0,
  0,
  0,
  0,
  0,
  0,
  0,
  0,
  0,
  0,
  0,
  0,
  0,
  0,
  0,
  0,
  0,
  0,
  0,
  0,
  0,
  0,
  0,
  0,
  0,
  0,
  0,
  0,
  0,
  0,
  0,
  0,
  0,
  0,
  0,
  0,
  0,
  0,
  0,
  0,
  0,
  0,
  0,
  0,
  0,
  0,
  0,
  0,
  0,
  0,
  0,
  0,
  0,
  0,
  0,
  0,
  0,
  0,
  0,
  0,
  0,
  0,
  0,
  0,
  0,
  0,
  0,
  0,
  0,
  0,
  0,
  0,
  0,
  0,
  0,
  0,
  0,
  0,
  0,
  0,
  0,
  0,
  0,
  0,
  0,
  0,
  0,
  0,
  0,
  0,
  0,
  0,
  0,
  0,
  0,
  0,
  0,
  0,
  0,
  0,
  0,
  0,
  0,
  0,
  0,
  0,
  0,
  0,
  0,
  0,
  0,
  0,
  0,
  0,
  0,
  0,
  0,
  0,
  0,
  0,
  0,
  0,
  0,
  0,
  0,
  0,
  0,
  0,
  0,
  0,
  0,
  0,
  0,
  0,
  0,
  0,
  0,
  0,
  0,
  0,
  0,
  0,
  0,
  0,
  0,
  0,
  0,
  0,
  0,
  0,
  0,
  0,
  0,
  0,
  0,
  0,
  0,
  0,
  0,
  0,
  0,
  0,
  0,
  0,
  0,
  0,
  0,
  0,
  0,
  0,
  0,
  0,
  0,
  0,
  0,
  0,
  0,
  0,
  0,
  0,
  0,
  0,
  0,
  0,
  0,
  0,
  0,
  0,
  0,
  0,
  0,
  0,
  0,
  0,
  0,
  0,
  0,
  0,
  0,
  0,
  0,
  0,
  0,
  0,
  0,
  0,
  0,
  0,
  0,
  0,
  0,
  0,
  0,
  0,
  0,
  0,
  0,
  0,
  0,
  0,
  0,
  0,
  0,
  0,
  0,
  0,
  0,
  0,
  0,
  0,
  0,
  0,
  0,
  0,
  0,
  0,
  0,
  0,
  0,
  0,
  0,
  0,
  0,
  0,
  0,
  0,
  0,
  0,
  0,
  0,
  0,
  0,
  0,
  0,
  0,
  0,
  0,
  0,
  0,
  0,
  0,
  0,
  0,
  0,
  0,
  0,
  0,
  0,
  0,
  0,
  0,
  0,
  0,
  0,
  0,
  0,
  0,
  0,
  0,
  0,
  0,
  0,
  0,
  0,
  0,
  0,
  0,
  0,
  0,
  0,
  0,
  0,
  0,
  0,
  0,
  0,
  0,
  0,
  0,
  0,
  0,
  0,
  0,
  0,
  0,
  0,
  0,
  0,
  0,
  0,
  0,
  0,
  0,
  0,
  0,
  0,
  0,
  0,
  0;;
  Material {
   1.000000;1.000000;1.000000;1.000000;;
   0.000000;
   0.000000;0.000000;0.000000;;
   0.000000;0.000000;0.000000;;
  }
 }
 MeshNormals {
  320;
  0.000000;0.000000;-1.000000;,
  1.000000;0.000000;0.000000;,
  0.000000;0.000000;1.000000;,
  -1.000000;0.000000;0.000000;,
  0.000000;1.000000;0.000000;,
  0.000000;-1.000000;-0.000000;,
  0.000000;1.000000;-0.000002;,
  1.000000;0.000000;0.000000;,
  0.000000;-1.000000;0.000001;,
  -1.000000;0.000000;0.000000;,
  0.000000;0.000000;1.000000;,
  0.000000;-0.000000;-1.000000;,
  0.000000;0.000000;-1.000000;,
  1.000000;0.000000;0.000000;,
  0.000000;0.000000;1.000000;,
  -1.000000;0.000000;0.000000;,
  0.000000;1.000000;0.000000;,
  0.000000;-1.000000;-0.000000;,
  0.000000;1.000000;0.000000;,
  -0.000000;0.000000;-1.000000;,
  0.707107;0.000000;-0.707107;,
  1.000000;0.000000;0.000000;,
  0.707107;0.000000;0.707107;,
  -0.000000;0.000000;1.000000;,
  -0.707107;0.000000;0.707107;,
  -1.000000;0.000000;0.000000;,
  -0.707107;0.000000;-0.707107;,
  0.000000;-1.000000;-0.000000;,
  -0.536161;-0.284021;-0.794899;,
  0.829037;0.000000;-0.559193;,
  0.536165;0.284017;0.794897;,
  -0.829037;-0.000004;0.559194;,
  -0.158819;0.958820;-0.235460;,
  0.158819;-0.958820;0.235461;,
  0.570329;-0.284026;-0.770749;,
  0.803857;-0.000001;0.594822;,
  -0.570329;0.284017;0.770752;,
  -0.803858;-0.000006;-0.594821;,
  0.168940;0.958819;-0.228308;,
  -0.168940;-0.958819;0.228308;,
  0.695497;-0.284032;0.660007;,
  -0.688355;-0.000005;0.725374;,
  -0.695497;0.284017;-0.660014;,
  -0.000000;1.000000;-0.000000;,
  -0.000000;0.924734;-0.380614;,
  0.269135;0.924734;-0.269135;,
  0.380614;0.924734;-0.000000;,
  0.269135;0.924734;0.269134;,
  -0.000000;0.924734;0.380613;,
  -0.269134;0.924734;0.269134;,
  -0.380614;0.924734;-0.000000;,
  -0.269135;0.924734;-0.269135;,
  -0.000000;0.709225;-0.704983;,
  0.498498;0.709225;-0.498498;,
  0.704983;0.709225;-0.000000;,
  0.498498;0.709225;0.498498;,
  -0.000000;0.709224;0.704983;,
  -0.498499;0.709224;0.498498;,
  -0.704983;0.709224;-0.000000;,
  -0.498498;0.709224;-0.498498;,
  -0.000000;0.384550;-0.923104;,
  0.652733;0.384551;-0.652733;,
  0.923104;0.384550;-0.000000;,
  0.652733;0.384551;0.652733;,
  -0.000001;0.384550;0.923104;,
  -0.652733;0.384550;0.652733;,
  -0.923104;0.384550;-0.000000;,
  -0.652733;0.384550;-0.652733;,
  -0.000001;-0.000002;-1.000000;,
  0.707107;-0.000002;-0.707107;,
  1.000000;-0.000002;-0.000000;,
  0.707107;-0.000002;0.707107;,
  -0.000001;-0.000002;1.000000;,
  -0.707107;-0.000002;0.707107;,
  -1.000000;-0.000002;-0.000000;,
  -0.707107;-0.000002;-0.707107;,
  -0.000000;-0.384552;-0.923103;,
  0.652732;-0.384552;-0.652733;,
  0.923103;-0.384552;-0.000000;,
  0.652732;-0.384553;0.652732;,
  -0.000001;-0.384552;0.923103;,
  -0.652733;-0.384552;0.652732;,
  -0.923103;-0.384552;-0.000000;,
  -0.652733;-0.384552;-0.652733;,
  -0.000000;-0.709223;-0.704984;,
  0.498499;-0.709224;-0.498499;,
  0.704984;-0.709223;-0.000000;,
  0.498499;-0.709223;0.498499;,
  -0.000000;-0.709223;0.704984;,
  -0.498500;-0.709223;0.498499;,
  -0.704985;-0.709223;-0.000000;,
  -0.498499;-0.709223;-0.498499;,
  -0.000000;-0.924734;-0.380614;,
  0.269135;-0.924734;-0.269135;,
  0.380614;-0.924734;-0.000000;,
  0.269134;-0.924734;0.269134;,
  -0.000000;-0.924734;0.380613;,
  -0.269134;-0.924734;0.269134;,
  -0.380613;-0.924734;-0.000000;,
  -0.269134;-0.924734;-0.269135;,
  -0.000000;-1.000000;0.000000;,
  0.688351;-0.000014;-0.725378;,
  0.206017;0.958819;0.195505;,
  -0.206016;-0.958819;-0.195506;,
  -0.583692;-0.284031;0.760678;,
  -0.793352;-0.000003;-0.608763;,
  0.583699;0.284016;-0.760677;,
  0.793356;-0.000014;0.608758;,
  -0.172898;0.958820;0.225325;,
  0.172901;-0.958820;-0.225323;,
  -0.000000;1.000000;0.000000;,
  -0.000000;0.924734;-0.380614;,
  0.269135;0.924734;-0.269135;,
  0.380614;0.924734;-0.000000;,
  0.269134;0.924734;0.269134;,
  -0.000000;0.924734;0.380613;,
  -0.269134;0.924734;0.269135;,
  -0.380613;0.924734;-0.000000;,
  -0.269135;0.924734;-0.269135;,
  -0.000000;0.709225;-0.704983;,
  0.498498;0.709225;-0.498498;,
  0.704983;0.709224;-0.000000;,
  0.498498;0.709224;0.498498;,
  -0.000001;0.709224;0.704983;,
  -0.498499;0.709224;0.498498;,
  -0.704983;0.709224;-0.000000;,
  -0.498498;0.709224;-0.498498;,
  -0.000001;0.384550;-0.923104;,
  0.652733;0.384551;-0.652733;,
  0.923104;0.384551;-0.000000;,
  0.652733;0.384551;0.652733;,
  -0.000001;0.384550;0.923104;,
  -0.652734;0.384550;0.652733;,
  -0.923104;0.384550;-0.000000;,
  -0.652733;0.384550;-0.652733;,
  -0.000001;-0.000002;-1.000000;,
  0.707106;-0.000002;-0.707107;,
  1.000000;-0.000002;-0.000000;,
  0.707106;-0.000002;0.707107;,
  -0.000001;-0.000002;1.000000;,
  -0.707107;-0.000002;0.707106;,
  -1.000000;-0.000002;-0.000000;,
  -0.707107;-0.000002;-0.707107;,
  -0.000001;-0.384552;-0.923103;,
  0.652732;-0.384552;-0.652733;,
  0.923103;-0.384552;-0.000000;,
  0.652732;-0.384552;0.652733;,
  -0.000001;-0.384552;0.923103;,
  -0.652733;-0.384552;0.652732;,
  -0.923103;-0.384552;-0.000000;,
  -0.652733;-0.384552;-0.652732;,
  -0.000001;-0.709223;-0.704984;,
  0.498499;-0.709224;-0.498499;,
  0.704984;-0.709223;-0.000000;,
  0.498499;-0.709223;0.498499;,
  -0.000001;-0.709223;0.704984;,
  -0.498500;-0.709223;0.498499;,
  -0.704985;-0.709223;-0.000000;,
  -0.498499;-0.709223;-0.498499;,
  -0.000000;-0.924734;-0.380614;,
  0.269134;-0.924734;-0.269135;,
  0.380614;-0.924734;-0.000000;,
  0.269134;-0.924734;0.269134;,
  -0.000000;-0.924735;0.380613;,
  -0.269134;-0.924734;0.269134;,
  -0.380613;-0.924734;-0.000000;,
  -0.269134;-0.924734;-0.269135;,
  -0.000000;-1.000000;0.000000;,
  -0.000000;1.000000;0.000000;,
  -0.000000;0.924734;-0.380614;,
  0.269135;0.924734;-0.269135;,
  0.380615;0.924734;-0.000000;,
  0.269135;0.924734;0.269134;,
  -0.000000;0.924734;0.380613;,
  -0.269134;0.924734;0.269134;,
  -0.380613;0.924734;-0.000000;,
  -0.269135;0.924734;-0.269135;,
  -0.000000;0.709224;-0.704983;,
  0.498499;0.709224;-0.498498;,
  0.704984;0.709223;-0.000000;,
  0.498499;0.709224;0.498498;,
  -0.000001;0.709224;0.704983;,
  -0.498499;0.709224;0.498498;,
  -0.704983;0.709224;-0.000000;,
  -0.498498;0.709224;-0.498498;,
  -0.000000;0.384550;-0.923104;,
  0.652734;0.384550;-0.652733;,
  0.923104;0.384549;-0.000000;,
  0.652734;0.384550;0.652733;,
  -0.000001;0.384550;0.923104;,
  -0.652734;0.384550;0.652733;,
  -0.923104;0.384550;0.000000;,
  -0.652733;0.384550;-0.652733;,
  -0.000000;-0.000002;-1.000000;,
  0.707107;-0.000002;-0.707107;,
  1.000000;-0.000002;-0.000000;,
  0.707107;-0.000002;0.707106;,
  -0.000001;-0.000002;1.000000;,
  -0.707107;-0.000002;0.707106;,
  -1.000000;-0.000002;-0.000000;,
  -0.707107;-0.000002;-0.707107;,
  -0.000000;-0.384551;-0.923104;,
  0.652733;-0.384552;-0.652732;,
  0.923104;-0.384551;-0.000000;,
  0.652733;-0.384552;0.652732;,
  -0.000001;-0.384551;0.923104;,
  -0.652733;-0.384552;0.652732;,
  -0.923103;-0.384552;0.000000;,
  -0.652733;-0.384552;-0.652732;,
  -0.000000;-0.709223;-0.704984;,
  0.498500;-0.709223;-0.498498;,
  0.704985;-0.709222;-0.000000;,
  0.498500;-0.709223;0.498499;,
  -0.000001;-0.709222;0.704985;,
  -0.498500;-0.709222;0.498499;,
  -0.704985;-0.709223;-0.000000;,
  -0.498499;-0.709223;-0.498499;,
  -0.000000;-0.924734;-0.380614;,
  0.269135;-0.924734;-0.269134;,
  0.380614;-0.924734;-0.000000;,
  0.269134;-0.924734;0.269134;,
  -0.000000;-0.924735;0.380613;,
  -0.269134;-0.924734;0.269134;,
  -0.380613;-0.924734;-0.000000;,
  -0.269134;-0.924734;-0.269135;,
  -0.000000;-1.000000;0.000000;,
  -0.000000;1.000000;0.000000;,
  -0.000000;0.924734;-0.380614;,
  0.269135;0.924734;-0.269134;,
  0.380615;0.924734;-0.000000;,
  0.269135;0.924734;0.269134;,
  -0.000000;0.924734;0.380613;,
  -0.269134;0.924734;0.269134;,
  -0.380612;0.924735;-0.000000;,
  -0.269134;0.924734;-0.269135;,
  -0.000000;0.709224;-0.704983;,
  0.498499;0.709224;-0.498497;,
  0.704984;0.709223;-0.000000;,
  0.498499;0.709224;0.498497;,
  -0.000000;0.709224;0.704983;,
  -0.498498;0.709224;0.498498;,
  -0.704983;0.709225;-0.000000;,
  -0.498498;0.709225;-0.498498;,
  0.000000;0.384550;-0.923104;,
  0.652734;0.384550;-0.652733;,
  0.923105;0.384549;-0.000000;,
  0.652734;0.384550;0.652732;,
  -0.000000;0.384550;0.923104;,
  -0.652733;0.384550;0.652733;,
  -0.923104;0.384550;0.000000;,
  -0.652733;0.384550;-0.652733;,
  0.000000;-0.000002;-1.000000;,
  0.707107;-0.000002;-0.707106;,
  1.000000;-0.000002;-0.000000;,
  0.707107;-0.000002;0.707106;,
  -0.000000;-0.000002;1.000000;,
  -0.707107;-0.000002;0.707106;,
  -1.000000;-0.000002;-0.000000;,
  -0.707107;-0.000002;-0.707107;,
  0.000000;-0.384551;-0.923104;,
  0.652733;-0.384551;-0.652732;,
  0.923104;-0.384551;-0.000000;,
  0.652733;-0.384552;0.652732;,
  -0.000000;-0.384552;0.923104;,
  -0.652733;-0.384552;0.652732;,
  -0.923104;-0.384552;0.000000;,
  -0.652733;-0.384552;-0.652733;,
  -0.000000;-0.709223;-0.704984;,
  0.498500;-0.709223;-0.498498;,
  0.704986;-0.709222;-0.000000;,
  0.498500;-0.709223;0.498498;,
  -0.000000;-0.709223;0.704985;,
  -0.498499;-0.709223;0.498499;,
  -0.704984;-0.709223;-0.000000;,
  -0.498499;-0.709223;-0.498499;,
  -0.000000;-0.924734;-0.380614;,
  0.269135;-0.924734;-0.269134;,
  0.380615;-0.924734;-0.000000;,
  0.269135;-0.924734;0.269134;,
  -0.000000;-0.924735;0.380613;,
  -0.269134;-0.924734;0.269134;,
  -0.380612;-0.924735;-0.000000;,
  -0.269134;-0.924734;-0.269135;,
  -0.000000;-1.000000;0.000000;,
  0.000000;0.000000;-1.000000;,
  1.000000;0.000000;0.000000;,
  0.000000;0.000000;1.000000;,
  -1.000000;0.000000;0.000000;,
  0.000000;1.000000;0.000000;,
  0.000000;-1.000000;-0.000000;,
  0.000000;0.000000;-1.000000;,
  1.000000;0.000000;0.000000;,
  0.000000;0.000000;1.000000;,
  -1.000000;0.000000;0.000000;,
  0.000000;1.000000;0.000000;,
  0.000000;-1.000000;-0.000000;,
  0.000000;0.000000;-1.000000;,
  1.000000;0.000000;0.000000;,
  0.000000;0.000000;1.000000;,
  -1.000000;0.000000;0.000000;,
  0.000000;1.000000;0.000000;,
  0.000000;-1.000000;-0.000000;,
  0.000000;0.000000;-1.000000;,
  1.000000;0.000000;0.000000;,
  0.000000;0.000000;1.000000;,
  -1.000000;0.000000;0.000000;,
  0.000000;1.000000;0.000000;,
  0.000000;-1.000000;-0.000000;,
  0.000000;0.000000;-1.000000;,
  1.000000;0.000000;0.000000;,
  0.000000;0.000000;1.000000;,
  -1.000000;0.000000;0.000000;,
  0.000000;1.000000;0.000000;,
  0.000000;-1.000000;-0.000000;,
  0.000000;0.000000;-1.000000;,
  1.000000;0.000000;0.000000;,
  0.000000;0.000000;1.000000;,
  -1.000000;0.000000;0.000000;,
  0.000000;1.000000;0.000000;,
  0.000000;-1.000000;-0.000000;;
  358;
  4;0,0,0,0;,
  4;1,1,1,1;,
  4;2,2,2,2;,
  4;3,3,3,3;,
  4;4,4,4,4;,
  4;5,5,5,5;,
  4;6,6,6,6;,
  4;7,7,7,7;,
  4;8,8,8,8;,
  4;9,9,9,9;,
  4;10,10,10,10;,
  4;11,11,11,11;,
  4;12,12,12,12;,
  4;13,13,13,13;,
  4;14,14,14,14;,
  4;15,15,15,15;,
  4;16,16,16,16;,
  4;17,17,17,17;,
  4;19,20,20,19;,
  4;20,21,21,20;,
  4;21,22,22,21;,
  4;22,23,23,22;,
  4;23,24,24,23;,
  4;24,25,25,24;,
  4;25,26,26,25;,
  4;26,19,19,26;,
  3;18,18,18;,
  3;18,18,18;,
  3;18,18,18;,
  3;18,18,18;,
  3;18,18,18;,
  3;18,18,18;,
  3;18,18,18;,
  3;18,18,18;,
  3;27,27,27;,
  3;27,27,27;,
  3;27,27,27;,
  3;27,27,27;,
  3;27,27,27;,
  3;27,27,27;,
  3;27,27,27;,
  3;27,27,27;,
  4;28,28,28,28;,
  4;29,29,29,29;,
  4;30,30,30,30;,
  4;31,31,31,31;,
  4;32,32,32,32;,
  4;33,33,33,33;,
  4;34,34,34,34;,
  4;35,35,35,35;,
  4;36,36,36,36;,
  4;37,37,37,37;,
  4;38,38,38,38;,
  4;39,39,39,39;,
  4;40,40,40,40;,
  4;41,41,41,41;,
  4;42,42,42,42;,
  4;101,101,101,101;,
  4;102,102,102,102;,
  4;103,103,103,103;,
  3;43,45,44;,
  3;43,46,45;,
  3;43,47,46;,
  3;43,48,47;,
  3;43,49,48;,
  3;43,50,49;,
  3;43,51,50;,
  3;43,44,51;,
  4;44,45,53,52;,
  4;45,46,54,53;,
  4;46,47,55,54;,
  4;47,48,56,55;,
  4;48,49,57,56;,
  4;49,50,58,57;,
  4;50,51,59,58;,
  4;51,44,52,59;,
  4;52,53,61,60;,
  4;53,54,62,61;,
  4;54,55,63,62;,
  4;55,56,64,63;,
  4;56,57,65,64;,
  4;57,58,66,65;,
  4;58,59,67,66;,
  4;59,52,60,67;,
  4;60,61,69,68;,
  4;61,62,70,69;,
  4;62,63,71,70;,
  4;63,64,72,71;,
  4;64,65,73,72;,
  4;65,66,74,73;,
  4;66,67,75,74;,
  4;67,60,68,75;,
  4;68,69,77,76;,
  4;69,70,78,77;,
  4;70,71,79,78;,
  4;71,72,80,79;,
  4;72,73,81,80;,
  4;73,74,82,81;,
  4;74,75,83,82;,
  4;75,68,76,83;,
  4;76,77,85,84;,
  4;77,78,86,85;,
  4;78,79,87,86;,
  4;79,80,88,87;,
  4;80,81,89,88;,
  4;81,82,90,89;,
  4;82,83,91,90;,
  4;83,76,84,91;,
  4;84,85,93,92;,
  4;85,86,94,93;,
  4;86,87,95,94;,
  4;87,88,96,95;,
  4;88,89,97,96;,
  4;89,90,98,97;,
  4;90,91,99,98;,
  4;91,84,92,99;,
  3;92,93,100;,
  3;93,94,100;,
  3;94,95,100;,
  3;95,96,100;,
  3;96,97,100;,
  3;97,98,100;,
  3;98,99,100;,
  3;99,92,100;,
  4;104,104,104,104;,
  4;105,105,105,105;,
  4;106,106,106,106;,
  4;107,107,107,107;,
  4;108,108,108,108;,
  4;109,109,109,109;,
  3;110,112,111;,
  3;110,113,112;,
  3;110,114,113;,
  3;110,115,114;,
  3;110,116,115;,
  3;110,117,116;,
  3;110,118,117;,
  3;110,111,118;,
  4;111,112,120,119;,
  4;112,113,121,120;,
  4;113,114,122,121;,
  4;114,115,123,122;,
  4;115,116,124,123;,
  4;116,117,125,124;,
  4;117,118,126,125;,
  4;118,111,119,126;,
  4;119,120,128,127;,
  4;120,121,129,128;,
  4;121,122,130,129;,
  4;122,123,131,130;,
  4;123,124,132,131;,
  4;124,125,133,132;,
  4;125,126,134,133;,
  4;126,119,127,134;,
  4;127,128,136,135;,
  4;128,129,137,136;,
  4;129,130,138,137;,
  4;130,131,139,138;,
  4;131,132,140,139;,
  4;132,133,141,140;,
  4;133,134,142,141;,
  4;134,127,135,142;,
  4;135,136,144,143;,
  4;136,137,145,144;,
  4;137,138,146,145;,
  4;138,139,147,146;,
  4;139,140,148,147;,
  4;140,141,149,148;,
  4;141,142,150,149;,
  4;142,135,143,150;,
  4;143,144,152,151;,
  4;144,145,153,152;,
  4;145,146,154,153;,
  4;146,147,155,154;,
  4;147,148,156,155;,
  4;148,149,157,156;,
  4;149,150,158,157;,
  4;150,143,151,158;,
  4;151,152,160,159;,
  4;152,153,161,160;,
  4;153,154,162,161;,
  4;154,155,163,162;,
  4;155,156,164,163;,
  4;156,157,165,164;,
  4;157,158,166,165;,
  4;158,151,159,166;,
  3;159,160,167;,
  3;160,161,167;,
  3;161,162,167;,
  3;162,163,167;,
  3;163,164,167;,
  3;164,165,167;,
  3;165,166,167;,
  3;166,159,167;,
  3;168,170,169;,
  3;168,171,170;,
  3;168,172,171;,
  3;168,173,172;,
  3;168,174,173;,
  3;168,175,174;,
  3;168,176,175;,
  3;168,169,176;,
  4;169,170,178,177;,
  4;170,171,179,178;,
  4;171,172,180,179;,
  4;172,173,181,180;,
  4;173,174,182,181;,
  4;174,175,183,182;,
  4;175,176,184,183;,
  4;176,169,177,184;,
  4;177,178,186,185;,
  4;178,179,187,186;,
  4;179,180,188,187;,
  4;180,181,189,188;,
  4;181,182,190,189;,
  4;182,183,191,190;,
  4;183,184,192,191;,
  4;184,177,185,192;,
  4;185,186,194,193;,
  4;186,187,195,194;,
  4;187,188,196,195;,
  4;188,189,197,196;,
  4;189,190,198,197;,
  4;190,191,199,198;,
  4;191,192,200,199;,
  4;192,185,193,200;,
  4;193,194,202,201;,
  4;194,195,203,202;,
  4;195,196,204,203;,
  4;196,197,205,204;,
  4;197,198,206,205;,
  4;198,199,207,206;,
  4;199,200,208,207;,
  4;200,193,201,208;,
  4;201,202,210,209;,
  4;202,203,211,210;,
  4;203,204,212,211;,
  4;204,205,213,212;,
  4;205,206,214,213;,
  4;206,207,215,214;,
  4;207,208,216,215;,
  4;208,201,209,216;,
  4;209,210,218,217;,
  4;210,211,219,218;,
  4;211,212,220,219;,
  4;212,213,221,220;,
  4;213,214,222,221;,
  4;214,215,223,222;,
  4;215,216,224,223;,
  4;216,209,217,224;,
  3;217,218,225;,
  3;218,219,225;,
  3;219,220,225;,
  3;220,221,225;,
  3;221,222,225;,
  3;222,223,225;,
  3;223,224,225;,
  3;224,217,225;,
  3;226,228,227;,
  3;226,229,228;,
  3;226,230,229;,
  3;226,231,230;,
  3;226,232,231;,
  3;226,233,232;,
  3;226,234,233;,
  3;226,227,234;,
  4;227,228,236,235;,
  4;228,229,237,236;,
  4;229,230,238,237;,
  4;230,231,239,238;,
  4;231,232,240,239;,
  4;232,233,241,240;,
  4;233,234,242,241;,
  4;234,227,235,242;,
  4;235,236,244,243;,
  4;236,237,245,244;,
  4;237,238,246,245;,
  4;238,239,247,246;,
  4;239,240,248,247;,
  4;240,241,249,248;,
  4;241,242,250,249;,
  4;242,235,243,250;,
  4;243,244,252,251;,
  4;244,245,253,252;,
  4;245,246,254,253;,
  4;246,247,255,254;,
  4;247,248,256,255;,
  4;248,249,257,256;,
  4;249,250,258,257;,
  4;250,243,251,258;,
  4;251,252,260,259;,
  4;252,253,261,260;,
  4;253,254,262,261;,
  4;254,255,263,262;,
  4;255,256,264,263;,
  4;256,257,265,264;,
  4;257,258,266,265;,
  4;258,251,259,266;,
  4;259,260,268,267;,
  4;260,261,269,268;,
  4;261,262,270,269;,
  4;262,263,271,270;,
  4;263,264,272,271;,
  4;264,265,273,272;,
  4;265,266,274,273;,
  4;266,259,267,274;,
  4;267,268,276,275;,
  4;268,269,277,276;,
  4;269,270,278,277;,
  4;270,271,279,278;,
  4;271,272,280,279;,
  4;272,273,281,280;,
  4;273,274,282,281;,
  4;274,267,275,282;,
  3;275,276,283;,
  3;276,277,283;,
  3;277,278,283;,
  3;278,279,283;,
  3;279,280,283;,
  3;280,281,283;,
  3;281,282,283;,
  3;282,275,283;,
  4;284,284,284,284;,
  4;285,285,285,285;,
  4;286,286,286,286;,
  4;287,287,287,287;,
  4;288,288,288,288;,
  4;289,289,289,289;,
  4;290,290,290,290;,
  4;291,291,291,291;,
  4;292,292,292,292;,
  4;293,293,293,293;,
  4;294,294,294,294;,
  4;295,295,295,295;,
  4;296,296,296,296;,
  4;297,297,297,297;,
  4;298,298,298,298;,
  4;299,299,299,299;,
  4;300,300,300,300;,
  4;301,301,301,301;,
  4;302,302,302,302;,
  4;303,303,303,303;,
  4;304,304,304,304;,
  4;305,305,305,305;,
  4;306,306,306,306;,
  4;307,307,307,307;,
  4;308,308,308,308;,
  4;309,309,309,309;,
  4;310,310,310,310;,
  4;311,311,311,311;,
  4;312,312,312,312;,
  4;313,313,313,313;,
  4;314,314,314,314;,
  4;315,315,315,315;,
  4;316,316,316,316;,
  4;317,317,317,317;,
  4;318,318,318,318;,
  4;319,319,319,319;;
 }
}
