xof 0302txt 0064
template Header {
 <3D82AB43-62DA-11cf-AB39-0020AF71E433>
 WORD major;
 WORD minor;
 DWORD flags;
}

template Vector {
 <3D82AB5E-62DA-11cf-AB39-0020AF71E433>
 FLOAT x;
 FLOAT y;
 FLOAT z;
}

template Coords2d {
 <F6F23F44-7686-11cf-8F52-0040333594A3>
 FLOAT u;
 FLOAT v;
}

template Matrix4x4 {
 <F6F23F45-7686-11cf-8F52-0040333594A3>
 array FLOAT matrix[16];
}

template ColorRGBA {
 <35FF44E0-6C7C-11cf-8F52-0040333594A3>
 FLOAT red;
 FLOAT green;
 FLOAT blue;
 FLOAT alpha;
}

template ColorRGB {
 <D3E16E81-7835-11cf-8F52-0040333594A3>
 FLOAT red;
 FLOAT green;
 FLOAT blue;
}

template IndexedColor {
 <1630B820-7842-11cf-8F52-0040333594A3>
 DWORD index;
 ColorRGBA indexColor;
}

template Boolean {
 <4885AE61-78E8-11cf-8F52-0040333594A3>
 WORD truefalse;
}

template Boolean2d {
 <4885AE63-78E8-11cf-8F52-0040333594A3>
 Boolean u;
 Boolean v;
}

template MaterialWrap {
 <4885AE60-78E8-11cf-8F52-0040333594A3>
 Boolean u;
 Boolean v;
}

template TextureFilename {
 <A42790E1-7810-11cf-8F52-0040333594A3>
 STRING filename;
}

template Material {
 <3D82AB4D-62DA-11cf-AB39-0020AF71E433>
 ColorRGBA faceColor;
 FLOAT power;
 ColorRGB specularColor;
 ColorRGB emissiveColor;
 [...]
}

template MeshFace {
 <3D82AB5F-62DA-11cf-AB39-0020AF71E433>
 DWORD nFaceVertexIndices;
 array DWORD faceVertexIndices[nFaceVertexIndices];
}

template MeshFaceWraps {
 <4885AE62-78E8-11cf-8F52-0040333594A3>
 DWORD nFaceWrapValues;
 Boolean2d faceWrapValues;
}

template MeshTextureCoords {
 <F6F23F40-7686-11cf-8F52-0040333594A3>
 DWORD nTextureCoords;
 array Coords2d textureCoords[nTextureCoords];
}

template MeshMaterialList {
 <F6F23F42-7686-11cf-8F52-0040333594A3>
 DWORD nMaterials;
 DWORD nFaceIndexes;
 array DWORD faceIndexes[nFaceIndexes];
 [Material]
}

template MeshNormals {
 <F6F23F43-7686-11cf-8F52-0040333594A3>
 DWORD nNormals;
 array Vector normals[nNormals];
 DWORD nFaceNormals;
 array MeshFace faceNormals[nFaceNormals];
}

template MeshVertexColors {
 <1630B821-7842-11cf-8F52-0040333594A3>
 DWORD nVertexColors;
 array IndexedColor vertexColors[nVertexColors];
}

template Mesh {
 <3D82AB44-62DA-11cf-AB39-0020AF71E433>
 DWORD nVertices;
 array Vector vertices[nVertices];
 DWORD nFaces;
 array MeshFace faces[nFaces];
 [...]
}

Header{
1;
0;
1;
}

Mesh {
 36;
 -18.06331;90.39659;-11.52144;,
 -15.05275;90.39659;-11.52144;,
 -15.05275;82.82186;-11.61367;,
 -18.06331;82.82186;-11.61367;,
 15.05275;90.39659;-11.56754;,
 15.05275;82.82186;-11.65980;,
 18.06331;90.39659;-11.52144;,
 18.06331;82.82186;-11.61367;,
 -15.05275;7.07441;-11.56754;,
 -18.06331;7.07441;-11.56754;,
 18.06331;7.07441;-11.56754;,
 15.05275;7.07441;-11.61367;,
 -15.05275;-0.50029;-11.52144;,
 -18.06331;-0.50029;-11.52144;,
 15.05275;-0.50029;-11.56754;,
 18.06331;-0.50029;-11.52144;,
 18.06331;90.39659;11.53980;,
 18.06331;82.82186;11.44756;,
 18.06331;7.07441;11.49367;,
 18.06331;-0.50029;11.53980;,
 15.05275;90.39659;11.49367;,
 15.05275;82.82186;11.40144;,
 -15.05275;90.39659;11.53980;,
 -15.05275;82.82186;11.44756;,
 -18.06331;90.39659;11.53980;,
 -18.06331;82.82186;11.44756;,
 15.05275;7.07441;11.44756;,
 -15.05275;7.07441;11.49367;,
 -18.06331;7.07441;11.49367;,
 15.05275;-0.50029;11.49367;,
 -15.05275;-0.50029;11.53980;,
 -18.06331;-0.50029;11.53980;,
 15.08734;82.83560;10.90884;,
 -15.01818;82.83560;10.95497;,
 15.08734;7.08819;10.95497;,
 -15.01818;7.08819;11.00108;;
 
 34;
 4;0,1,2,3;,
 4;1,4,5,2;,
 4;4,6,7,5;,
 4;3,2,8,9;,
 4;5,7,10,11;,
 4;9,8,12,13;,
 4;8,11,14,12;,
 4;11,10,15,14;,
 4;6,16,17,7;,
 4;7,17,18,10;,
 4;10,18,19,15;,
 4;16,20,21,17;,
 4;20,22,23,21;,
 4;22,24,25,23;,
 4;17,21,26,18;,
 4;21,23,27,26;,
 4;23,25,28,27;,
 4;18,26,29,19;,
 4;26,27,30,29;,
 4;27,28,31,30;,
 4;24,0,3,25;,
 4;25,3,9,28;,
 4;28,9,13,31;,
 4;24,22,1,0;,
 4;22,20,4,1;,
 4;20,16,6,4;,
 4;13,12,30,31;,
 4;12,14,29,30;,
 4;14,15,19,29;,
 4;32,33,2,5;,
 4;34,32,5,11;,
 4;35,34,11,8;,
 4;33,35,8,2;,
 4;33,32,34,35;;
 
 MeshMaterialList {
  4;
  34;
  0,
  0,
  0,
  0,
  0,
  0,
  0,
  0,
  0,
  0,
  0,
  0,
  0,
  0,
  0,
  0,
  0,
  0,
  0,
  0,
  0,
  0,
  0,
  0,
  0,
  0,
  0,
  0,
  0,
  3,
  3,
  3,
  3,
  3;;
  Material {
   0.530400;0.530400;0.530400;1.000000;;
   5.000000;
   0.000000;0.000000;0.000000;;
   0.000000;0.000000;0.000000;;
  }
  Material {
   0.800000;0.800000;0.800000;1.000000;;
   5.000000;
   0.000000;0.000000;0.000000;;
   0.000000;0.000000;0.000000;;
  }
  Material {
   0.000000;0.000000;0.000000;1.000000;;
   5.000000;
   0.000000;0.000000;0.000000;;
   0.000000;0.000000;0.000000;;
  }
  Material {
   0.269804;0.269804;0.269804;1.000000;;
   5.000000;
   0.000000;0.000000;0.000000;;
   0.000000;0.000000;0.000000;;
  }
 }
 MeshNormals {
  41;
  0.000000;0.012175;-0.999926;,
  -0.000766;0.012176;-0.999926;,
  0.006892;0.012177;-0.999902;,
  0.000000;0.005783;-0.999983;,
  -0.000511;0.007915;-0.999969;,
  0.009702;0.007915;-0.999922;,
  0.000000;-0.003348;-0.999994;,
  -0.000511;-0.004261;-0.999991;,
  0.009702;-0.004262;-0.999944;,
  0.000000;-0.006087;-0.999981;,
  -0.000766;-0.006087;-0.999981;,
  0.006892;-0.006088;-0.999958;,
  0.015315;0.012176;-0.999809;,
  0.015318;0.005783;-0.999866;,
  0.015318;-0.003348;-0.999877;,
  0.015316;-0.006087;-0.999864;,
  1.000000;0.000000;0.000000;,
  -0.006893;-0.012176;0.999902;,
  0.000766;-0.012177;0.999926;,
  -0.006893;-0.005784;0.999960;,
  0.000766;-0.005784;0.999983;,
  -0.006893;0.003349;0.999971;,
  0.000766;0.003349;0.999994;,
  -0.006893;0.006089;0.999958;,
  0.000766;0.006089;0.999981;,
  0.000000;-0.012177;0.999926;,
  0.000000;-0.005784;0.999983;,
  0.000000;0.003349;0.999994;,
  0.000000;0.006090;0.999981;,
  0.000001;-1.000000;0.000609;,
  -0.000001;1.000000;-0.000610;,
  -0.999999;0.000001;0.001532;,
  -0.015317;-0.012175;0.999809;,
  -0.015317;-0.005783;0.999866;,
  -0.015317;0.003348;0.999877;,
  -0.015318;0.006088;0.999864;,
  -1.000000;0.000000;0.000000;,
  0.000000;1.000000;0.000000;,
  0.000000;-1.000000;-0.000000;,
  0.999999;-0.000001;-0.001532;,
  -0.001532;-0.000609;-0.999999;;
  34;
  4;0,1,4,3;,
  4;1,2,5,4;,
  4;2,12,13,5;,
  4;3,4,7,6;,
  4;5,13,14,8;,
  4;6,7,10,9;,
  4;7,8,11,10;,
  4;8,14,15,11;,
  4;16,16,16,16;,
  4;16,16,16,16;,
  4;16,16,16,16;,
  4;32,17,19,33;,
  4;17,18,20,19;,
  4;18,25,26,20;,
  4;33,19,21,34;,
  4;19,20,22,21;,
  4;20,26,27,22;,
  4;34,21,23,35;,
  4;21,22,24,23;,
  4;22,27,28,24;,
  4;36,36,36,36;,
  4;36,36,36,36;,
  4;36,36,36,36;,
  4;37,37,37,37;,
  4;37,37,37,37;,
  4;37,37,37,37;,
  4;38,38,38,38;,
  4;38,38,38,38;,
  4;38,38,38,38;,
  4;29,29,29,29;,
  4;31,31,31,31;,
  4;30,30,30,30;,
  4;39,39,39,39;,
  4;40,40,40,40;;
 }
}
