xof 0302txt 0064
template Header {
 <3D82AB43-62DA-11cf-AB39-0020AF71E433>
 WORD major;
 WORD minor;
 DWORD flags;
}

template Vector {
 <3D82AB5E-62DA-11cf-AB39-0020AF71E433>
 FLOAT x;
 FLOAT y;
 FLOAT z;
}

template Coords2d {
 <F6F23F44-7686-11cf-8F52-0040333594A3>
 FLOAT u;
 FLOAT v;
}

template Matrix4x4 {
 <F6F23F45-7686-11cf-8F52-0040333594A3>
 array FLOAT matrix[16];
}

template ColorRGBA {
 <35FF44E0-6C7C-11cf-8F52-0040333594A3>
 FLOAT red;
 FLOAT green;
 FLOAT blue;
 FLOAT alpha;
}

template ColorRGB {
 <D3E16E81-7835-11cf-8F52-0040333594A3>
 FLOAT red;
 FLOAT green;
 FLOAT blue;
}

template IndexedColor {
 <1630B820-7842-11cf-8F52-0040333594A3>
 DWORD index;
 ColorRGBA indexColor;
}

template Boolean {
 <4885AE61-78E8-11cf-8F52-0040333594A3>
 WORD truefalse;
}

template Boolean2d {
 <4885AE63-78E8-11cf-8F52-0040333594A3>
 Boolean u;
 Boolean v;
}

template MaterialWrap {
 <4885AE60-78E8-11cf-8F52-0040333594A3>
 Boolean u;
 Boolean v;
}

template TextureFilename {
 <A42790E1-7810-11cf-8F52-0040333594A3>
 STRING filename;
}

template Material {
 <3D82AB4D-62DA-11cf-AB39-0020AF71E433>
 ColorRGBA faceColor;
 FLOAT power;
 ColorRGB specularColor;
 ColorRGB emissiveColor;
 [...]
}

template MeshFace {
 <3D82AB5F-62DA-11cf-AB39-0020AF71E433>
 DWORD nFaceVertexIndices;
 array DWORD faceVertexIndices[nFaceVertexIndices];
}

template MeshFaceWraps {
 <4885AE62-78E8-11cf-8F52-0040333594A3>
 DWORD nFaceWrapValues;
 Boolean2d faceWrapValues;
}

template MeshTextureCoords {
 <F6F23F40-7686-11cf-8F52-0040333594A3>
 DWORD nTextureCoords;
 array Coords2d textureCoords[nTextureCoords];
}

template MeshMaterialList {
 <F6F23F42-7686-11cf-8F52-0040333594A3>
 DWORD nMaterials;
 DWORD nFaceIndexes;
 array DWORD faceIndexes[nFaceIndexes];
 [Material]
}

template MeshNormals {
 <F6F23F43-7686-11cf-8F52-0040333594A3>
 DWORD nNormals;
 array Vector normals[nNormals];
 DWORD nFaceNormals;
 array MeshFace faceNormals[nFaceNormals];
}

template MeshVertexColors {
 <1630B821-7842-11cf-8F52-0040333594A3>
 DWORD nVertexColors;
 array IndexedColor vertexColors[nVertexColors];
}

template Mesh {
 <3D82AB44-62DA-11cf-AB39-0020AF71E433>
 DWORD nVertices;
 array Vector vertices[nVertices];
 DWORD nFaces;
 array MeshFace faces[nFaces];
 [...]
}

Header{
1;
0;
1;
}

Mesh {
 330;
 -10.00000;1.46007;-10.00000;,
 10.00000;1.46007;-10.00000;,
 10.00000;0.07963;-10.00000;,
 -10.00000;0.07963;-10.00000;,
 10.00000;1.46007;10.00000;,
 10.00000;0.07963;10.00000;,
 -10.00000;1.46007;10.00000;,
 -10.00000;0.07963;10.00000;,
 -10.00000;12.02955;-10.00000;,
 10.00000;12.02955;-10.00000;,
 10.00000;10.64911;-10.00000;,
 -10.00000;10.64911;-10.00000;,
 10.00000;12.02955;10.00000;,
 10.00000;10.64911;10.00000;,
 -10.00000;12.02955;10.00000;,
 -10.00000;10.64911;10.00000;,
 8.66066;10.68111;-10.00398;,
 10.00041;10.68111;-10.00398;,
 10.00041;1.44922;-10.00398;,
 8.66066;1.44922;-10.00398;,
 10.00041;10.68111;-8.66423;,
 10.00041;1.44922;-8.66423;,
 8.66066;10.68111;-8.66423;,
 8.66066;1.44922;-8.66423;,
 -10.00505;10.68111;-10.00398;,
 -8.66530;10.68111;-10.00398;,
 -8.66530;1.44922;-10.00398;,
 -10.00505;1.44922;-10.00398;,
 -8.66530;10.68111;-8.66423;,
 -8.66530;1.44922;-8.66423;,
 -10.00505;10.68111;-8.66423;,
 -10.00505;1.44922;-8.66423;,
 -10.00505;10.68111;8.64287;,
 -8.66530;10.68111;8.64287;,
 -8.66530;1.44922;8.64287;,
 -10.00505;1.44922;8.64287;,
 -8.66530;10.68111;9.98262;,
 -8.66530;1.44922;9.98262;,
 -10.00505;10.68111;9.98262;,
 -10.00505;1.44922;9.98262;,
 8.65145;10.68111;8.64287;,
 9.99120;10.68111;8.64287;,
 9.99120;1.44922;8.64287;,
 8.65145;1.44922;8.64287;,
 9.99120;10.68111;9.98262;,
 9.99120;1.44922;9.98262;,
 8.65145;10.68111;9.98262;,
 8.65145;1.44922;9.98262;,
 8.92140;10.68372;3.94568;,
 9.61685;10.68372;4.23374;,
 9.61685;1.45182;4.23374;,
 8.92140;1.45182;3.94568;,
 9.90491;10.68372;4.92919;,
 9.90491;1.45182;4.92919;,
 9.61685;10.68372;5.62464;,
 9.61685;1.45182;5.62464;,
 8.92140;10.68372;5.91271;,
 8.92140;1.45182;5.91271;,
 8.22595;10.68372;5.62464;,
 8.22595;1.45182;5.62464;,
 7.93788;10.68372;4.92919;,
 7.93788;1.45182;4.92919;,
 8.22595;10.68372;4.23374;,
 8.22595;1.45182;4.23374;,
 8.92140;10.68372;4.92919;,
 8.92140;1.45182;4.92919;,
 8.92140;10.68372;-1.22251;,
 9.61685;10.68372;-0.93444;,
 9.61685;1.45182;-0.93444;,
 8.92140;1.45182;-1.22251;,
 9.90491;10.68372;-0.23899;,
 9.90491;1.45182;-0.23899;,
 9.61685;10.68372;0.45646;,
 9.61685;1.45182;0.45646;,
 8.92140;10.68372;0.74453;,
 8.92140;1.45182;0.74453;,
 8.22595;10.68372;0.45646;,
 8.22595;1.45182;0.45646;,
 7.93788;10.68372;-0.23899;,
 7.93788;1.45182;-0.23899;,
 8.22595;10.68372;-0.93444;,
 8.22595;1.45182;-0.93444;,
 8.92140;10.68372;-0.23899;,
 8.92140;1.45182;-0.23899;,
 5.05227;10.68372;-9.92142;,
 5.74772;10.68372;-9.63336;,
 5.74772;1.45182;-9.63336;,
 5.05227;1.45182;-9.92142;,
 6.03579;10.68372;-8.93791;,
 6.03579;1.45182;-8.93791;,
 5.74772;10.68372;-8.24246;,
 5.74772;1.45182;-8.24246;,
 5.05227;10.68372;-7.95439;,
 5.05227;1.45182;-7.95439;,
 4.35682;10.68372;-8.24246;,
 4.35682;1.45182;-8.24246;,
 4.06876;10.68372;-8.93791;,
 4.06876;1.45182;-8.93791;,
 4.35682;10.68372;-9.63336;,
 4.35682;1.45182;-9.63336;,
 5.05227;10.68372;-8.93791;,
 5.05227;1.45182;-8.93791;,
 0.06239;10.68372;-9.92142;,
 0.75784;10.68372;-9.63336;,
 0.75784;1.45182;-9.63336;,
 0.06239;1.45182;-9.92142;,
 1.04590;10.68372;-8.93791;,
 1.04590;1.45182;-8.93791;,
 0.75784;10.68372;-8.24246;,
 0.75784;1.45182;-8.24246;,
 0.06239;10.68372;-7.95439;,
 0.06239;1.45182;-7.95439;,
 -0.63306;10.68372;-8.24246;,
 -0.63306;1.45182;-8.24246;,
 -0.92113;10.68372;-8.93791;,
 -0.92113;1.45182;-8.93791;,
 -0.63306;10.68372;-9.63336;,
 -0.63306;1.45182;-9.63336;,
 0.06239;10.68372;-8.93791;,
 0.06239;1.45182;-8.93791;,
 -4.69282;10.68372;-9.92142;,
 -3.99737;10.68372;-9.63336;,
 -3.99737;1.45182;-9.63336;,
 -4.69282;1.45182;-9.92142;,
 -3.70931;10.68372;-8.93791;,
 -3.70931;1.45182;-8.93791;,
 -3.99737;10.68372;-8.24246;,
 -3.99737;1.45182;-8.24246;,
 -4.69282;10.68372;-7.95439;,
 -4.69282;1.45182;-7.95439;,
 -5.38827;10.68372;-8.24246;,
 -5.38827;1.45182;-8.24246;,
 -5.67634;10.68372;-8.93791;,
 -5.67634;1.45182;-8.93791;,
 -5.38827;10.68372;-9.63336;,
 -5.38827;1.45182;-9.63336;,
 -4.69282;10.68372;-8.93791;,
 -4.69282;1.45182;-8.93791;,
 -8.96228;10.68372;-5.46389;,
 -8.26683;10.68372;-5.17582;,
 -8.26683;1.45182;-5.17582;,
 -8.96228;1.45182;-5.46389;,
 -7.97876;10.68372;-4.48037;,
 -7.97876;1.45182;-4.48037;,
 -8.26683;10.68372;-3.78492;,
 -8.26683;1.45182;-3.78492;,
 -8.96228;10.68372;-3.49685;,
 -8.96228;1.45182;-3.49685;,
 -9.65772;10.68372;-3.78492;,
 -9.65772;1.45182;-3.78492;,
 -9.94579;10.68372;-4.48037;,
 -9.94579;1.45182;-4.48037;,
 -9.65772;10.68372;-5.17582;,
 -9.65772;1.45182;-5.17582;,
 -8.96228;10.68372;-4.48037;,
 -8.96228;1.45182;-4.48037;,
 -8.96228;10.68372;-1.20862;,
 -8.26683;10.68372;-0.92056;,
 -8.26683;1.45182;-0.92056;,
 -8.96228;1.45182;-1.20862;,
 -7.97876;10.68372;-0.22511;,
 -7.97876;1.45182;-0.22511;,
 -8.26683;10.68372;0.47034;,
 -8.26683;1.45182;0.47034;,
 -8.96228;10.68372;0.75841;,
 -8.96228;1.45182;0.75841;,
 -9.65772;10.68372;0.47034;,
 -9.65772;1.45182;0.47034;,
 -9.94579;10.68372;-0.22511;,
 -9.94579;1.45182;-0.22511;,
 -9.65772;10.68372;-0.92056;,
 -9.65772;1.45182;-0.92056;,
 -8.96228;10.68372;-0.22511;,
 -8.96228;1.45182;-0.22511;,
 -4.70991;10.68372;7.92631;,
 -4.01446;10.68372;8.21438;,
 -4.01446;1.45182;8.21438;,
 -4.70991;1.45182;7.92631;,
 -3.72639;10.68372;8.90983;,
 -3.72639;1.45182;8.90983;,
 -4.01446;10.68372;9.60528;,
 -4.01446;1.45182;9.60528;,
 -4.70991;10.68372;9.89335;,
 -4.70991;1.45182;9.89335;,
 -5.40535;10.68372;9.60528;,
 -5.40535;1.45182;9.60528;,
 -5.69342;10.68372;8.90983;,
 -5.69342;1.45182;8.90983;,
 -5.40535;10.68372;8.21438;,
 -5.40535;1.45182;8.21438;,
 -4.70991;10.68372;8.90983;,
 -4.70991;1.45182;8.90983;,
 0.09363;10.68372;7.92631;,
 0.78908;10.68372;8.21438;,
 0.78908;1.45182;8.21438;,
 0.09363;1.45182;7.92631;,
 1.07715;10.68372;8.90983;,
 1.07715;1.45182;8.90983;,
 0.78908;10.68372;9.60528;,
 0.78908;1.45182;9.60528;,
 0.09363;10.68372;9.89335;,
 0.09363;1.45182;9.89335;,
 -0.60182;10.68372;9.60528;,
 -0.60182;1.45182;9.60528;,
 -0.88988;10.68372;8.90983;,
 -0.88988;1.45182;8.90983;,
 -0.60182;10.68372;8.21438;,
 -0.60182;1.45182;8.21438;,
 0.09363;10.68372;8.90983;,
 0.09363;1.45182;8.90983;,
 5.04896;10.68372;7.92631;,
 5.74441;10.68372;8.21438;,
 5.74441;1.45182;8.21438;,
 5.04896;1.45182;7.92631;,
 6.03247;10.68372;8.90983;,
 6.03247;1.45182;8.90983;,
 5.74441;10.68372;9.60528;,
 5.74441;1.45182;9.60528;,
 5.04896;10.68372;9.89335;,
 5.04896;1.45182;9.89335;,
 4.35351;10.68372;9.60528;,
 4.35351;1.45182;9.60528;,
 4.06545;10.68372;8.90983;,
 4.06545;1.45182;8.90983;,
 4.35351;10.68372;8.21438;,
 4.35351;1.45182;8.21438;,
 5.04896;10.68372;8.90983;,
 5.04896;1.45182;8.90983;,
 -8.96228;10.68372;3.71707;,
 -8.26683;10.68372;4.00514;,
 -8.26683;1.45182;4.00514;,
 -8.96228;1.45182;3.71707;,
 -7.97876;10.68372;4.70059;,
 -7.97876;1.45182;4.70059;,
 -8.26683;10.68372;5.39604;,
 -8.26683;1.45182;5.39604;,
 -8.96228;10.68372;5.68411;,
 -8.96228;1.45182;5.68411;,
 -9.65772;10.68372;5.39604;,
 -9.65772;1.45182;5.39604;,
 -9.94579;10.68372;4.70059;,
 -9.94579;1.45182;4.70059;,
 -9.65772;10.68372;4.00514;,
 -9.65772;1.45182;4.00514;,
 -8.96228;10.68372;4.70059;,
 -8.96228;1.45182;4.70059;,
 8.62391;10.72559;-7.61439;,
 9.95353;10.72559;-7.61439;,
 9.95353;1.30766;-7.61439;,
 8.62391;1.30766;-7.61439;,
 9.95353;10.72559;-1.92347;,
 9.95353;1.30766;-1.92347;,
 8.62391;10.72559;-1.92347;,
 8.62391;1.30766;-1.92347;,
 10.51402;5.94098;-2.84085;,
 10.51230;5.78288;-2.77536;,
 9.95260;5.78678;-2.77536;,
 9.95433;5.94488;-2.84085;,
 10.51158;5.71739;-2.61725;,
 9.95189;5.72129;-2.61725;,
 10.51230;5.78288;-2.45915;,
 9.95260;5.78678;-2.45915;,
 10.51402;5.94098;-2.39366;,
 9.95433;5.94488;-2.39366;,
 10.51575;6.09907;-2.45915;,
 9.95605;6.10297;-2.45915;,
 10.51646;6.16456;-2.61725;,
 9.95677;6.16846;-2.61725;,
 10.51575;6.09907;-2.77536;,
 9.95605;6.10297;-2.77536;,
 10.51402;5.94098;-2.61725;,
 9.95433;5.94488;-2.61725;,
 11.02805;5.93196;-2.61169;,
 11.00383;5.84292;-2.70052;,
 11.00306;5.93175;-2.73732;,
 11.00416;5.80612;-2.61169;,
 11.00383;5.84292;-2.52286;,
 11.00306;5.93175;-2.48606;,
 11.00228;6.02058;-2.52286;,
 11.00196;6.05737;-2.61169;,
 11.00228;6.02058;-2.70052;,
 10.93333;5.76699;-2.77583;,
 10.93190;5.93113;-2.84382;,
 10.93393;5.69900;-2.61169;,
 10.93333;5.76699;-2.44755;,
 10.93190;5.93113;-2.37956;,
 10.93047;6.09526;-2.44755;,
 10.92988;6.16325;-2.61169;,
 10.93047;6.09526;-2.77583;,
 10.82727;5.71575;-2.82615;,
 10.82540;5.93020;-2.91498;,
 10.82805;5.62691;-2.61169;,
 10.82727;5.71575;-2.39723;,
 10.82540;5.93020;-2.30840;,
 10.82353;6.14465;-2.39723;,
 10.82275;6.23348;-2.61169;,
 10.82353;6.14465;-2.82615;,
 10.70180;5.69698;-2.84382;,
 10.69978;5.92910;-2.93997;,
 10.70264;5.60083;-2.61169;,
 10.70180;5.69698;-2.37956;,
 10.69978;5.92910;-2.28341;,
 10.69775;6.16122;-2.37956;,
 10.69691;6.25737;-2.61169;,
 10.69775;6.16122;-2.84382;,
 10.57602;5.71356;-2.82615;,
 10.57416;5.92801;-2.91498;,
 10.57680;5.62472;-2.61169;,
 10.57602;5.71356;-2.39723;,
 10.57416;5.92801;-2.30840;,
 10.57228;6.14246;-2.39723;,
 10.57150;6.23129;-2.61169;,
 10.57228;6.14246;-2.82615;,
 10.46909;5.76294;-2.77583;,
 10.46765;5.92708;-2.84382;,
 10.46968;5.69495;-2.61169;,
 10.46909;5.76294;-2.44755;,
 10.46765;5.92708;-2.37956;,
 10.46622;6.09121;-2.44755;,
 10.46563;6.15920;-2.61169;,
 10.46622;6.09121;-2.77583;,
 10.39727;5.83762;-2.70052;,
 10.39650;5.92645;-2.73732;,
 10.39759;5.80083;-2.61169;,
 10.39727;5.83762;-2.52286;,
 10.39650;5.92645;-2.48606;,
 10.39572;6.01529;-2.52286;,
 10.39540;6.05208;-2.61169;,
 10.39572;6.01529;-2.70052;,
 10.37151;5.92624;-2.61169;;
 
 394;
 4;0,1,2,3;,
 4;1,4,5,2;,
 4;4,6,7,5;,
 4;6,0,3,7;,
 4;6,4,1,0;,
 4;3,2,5,7;,
 4;8,9,10,11;,
 4;9,12,13,10;,
 4;12,14,15,13;,
 4;14,8,11,15;,
 4;14,12,9,8;,
 4;11,10,13,15;,
 4;16,17,18,19;,
 4;17,20,21,18;,
 4;20,22,23,21;,
 4;22,16,19,23;,
 4;22,20,17,16;,
 4;19,18,21,23;,
 4;24,25,26,27;,
 4;25,28,29,26;,
 4;28,30,31,29;,
 4;30,24,27,31;,
 4;30,28,25,24;,
 4;27,26,29,31;,
 4;32,33,34,35;,
 4;33,36,37,34;,
 4;36,38,39,37;,
 4;38,32,35,39;,
 4;38,36,33,32;,
 4;35,34,37,39;,
 4;40,41,42,43;,
 4;41,44,45,42;,
 4;44,46,47,45;,
 4;46,40,43,47;,
 4;46,44,41,40;,
 4;43,42,45,47;,
 4;48,49,50,51;,
 4;49,52,53,50;,
 4;52,54,55,53;,
 4;54,56,57,55;,
 4;56,58,59,57;,
 4;58,60,61,59;,
 4;60,62,63,61;,
 4;62,48,51,63;,
 3;64,49,48;,
 3;64,52,49;,
 3;64,54,52;,
 3;64,56,54;,
 3;64,58,56;,
 3;64,60,58;,
 3;64,62,60;,
 3;64,48,62;,
 3;65,51,50;,
 3;65,50,53;,
 3;65,53,55;,
 3;65,55,57;,
 3;65,57,59;,
 3;65,59,61;,
 3;65,61,63;,
 3;65,63,51;,
 4;66,67,68,69;,
 4;67,70,71,68;,
 4;70,72,73,71;,
 4;72,74,75,73;,
 4;74,76,77,75;,
 4;76,78,79,77;,
 4;78,80,81,79;,
 4;80,66,69,81;,
 3;82,67,66;,
 3;82,70,67;,
 3;82,72,70;,
 3;82,74,72;,
 3;82,76,74;,
 3;82,78,76;,
 3;82,80,78;,
 3;82,66,80;,
 3;83,69,68;,
 3;83,68,71;,
 3;83,71,73;,
 3;83,73,75;,
 3;83,75,77;,
 3;83,77,79;,
 3;83,79,81;,
 3;83,81,69;,
 4;84,85,86,87;,
 4;85,88,89,86;,
 4;88,90,91,89;,
 4;90,92,93,91;,
 4;92,94,95,93;,
 4;94,96,97,95;,
 4;96,98,99,97;,
 4;98,84,87,99;,
 3;100,85,84;,
 3;100,88,85;,
 3;100,90,88;,
 3;100,92,90;,
 3;100,94,92;,
 3;100,96,94;,
 3;100,98,96;,
 3;100,84,98;,
 3;101,87,86;,
 3;101,86,89;,
 3;101,89,91;,
 3;101,91,93;,
 3;101,93,95;,
 3;101,95,97;,
 3;101,97,99;,
 3;101,99,87;,
 4;102,103,104,105;,
 4;103,106,107,104;,
 4;106,108,109,107;,
 4;108,110,111,109;,
 4;110,112,113,111;,
 4;112,114,115,113;,
 4;114,116,117,115;,
 4;116,102,105,117;,
 3;118,103,102;,
 3;118,106,103;,
 3;118,108,106;,
 3;118,110,108;,
 3;118,112,110;,
 3;118,114,112;,
 3;118,116,114;,
 3;118,102,116;,
 3;119,105,104;,
 3;119,104,107;,
 3;119,107,109;,
 3;119,109,111;,
 3;119,111,113;,
 3;119,113,115;,
 3;119,115,117;,
 3;119,117,105;,
 4;120,121,122,123;,
 4;121,124,125,122;,
 4;124,126,127,125;,
 4;126,128,129,127;,
 4;128,130,131,129;,
 4;130,132,133,131;,
 4;132,134,135,133;,
 4;134,120,123,135;,
 3;136,121,120;,
 3;136,124,121;,
 3;136,126,124;,
 3;136,128,126;,
 3;136,130,128;,
 3;136,132,130;,
 3;136,134,132;,
 3;136,120,134;,
 3;137,123,122;,
 3;137,122,125;,
 3;137,125,127;,
 3;137,127,129;,
 3;137,129,131;,
 3;137,131,133;,
 3;137,133,135;,
 3;137,135,123;,
 4;138,139,140,141;,
 4;139,142,143,140;,
 4;142,144,145,143;,
 4;144,146,147,145;,
 4;146,148,149,147;,
 4;148,150,151,149;,
 4;150,152,153,151;,
 4;152,138,141,153;,
 3;154,139,138;,
 3;154,142,139;,
 3;154,144,142;,
 3;154,146,144;,
 3;154,148,146;,
 3;154,150,148;,
 3;154,152,150;,
 3;154,138,152;,
 3;155,141,140;,
 3;155,140,143;,
 3;155,143,145;,
 3;155,145,147;,
 3;155,147,149;,
 3;155,149,151;,
 3;155,151,153;,
 3;155,153,141;,
 4;156,157,158,159;,
 4;157,160,161,158;,
 4;160,162,163,161;,
 4;162,164,165,163;,
 4;164,166,167,165;,
 4;166,168,169,167;,
 4;168,170,171,169;,
 4;170,156,159,171;,
 3;172,157,156;,
 3;172,160,157;,
 3;172,162,160;,
 3;172,164,162;,
 3;172,166,164;,
 3;172,168,166;,
 3;172,170,168;,
 3;172,156,170;,
 3;173,159,158;,
 3;173,158,161;,
 3;173,161,163;,
 3;173,163,165;,
 3;173,165,167;,
 3;173,167,169;,
 3;173,169,171;,
 3;173,171,159;,
 4;174,175,176,177;,
 4;175,178,179,176;,
 4;178,180,181,179;,
 4;180,182,183,181;,
 4;182,184,185,183;,
 4;184,186,187,185;,
 4;186,188,189,187;,
 4;188,174,177,189;,
 3;190,175,174;,
 3;190,178,175;,
 3;190,180,178;,
 3;190,182,180;,
 3;190,184,182;,
 3;190,186,184;,
 3;190,188,186;,
 3;190,174,188;,
 3;191,177,176;,
 3;191,176,179;,
 3;191,179,181;,
 3;191,181,183;,
 3;191,183,185;,
 3;191,185,187;,
 3;191,187,189;,
 3;191,189,177;,
 4;192,193,194,195;,
 4;193,196,197,194;,
 4;196,198,199,197;,
 4;198,200,201,199;,
 4;200,202,203,201;,
 4;202,204,205,203;,
 4;204,206,207,205;,
 4;206,192,195,207;,
 3;208,193,192;,
 3;208,196,193;,
 3;208,198,196;,
 3;208,200,198;,
 3;208,202,200;,
 3;208,204,202;,
 3;208,206,204;,
 3;208,192,206;,
 3;209,195,194;,
 3;209,194,197;,
 3;209,197,199;,
 3;209,199,201;,
 3;209,201,203;,
 3;209,203,205;,
 3;209,205,207;,
 3;209,207,195;,
 4;210,211,212,213;,
 4;211,214,215,212;,
 4;214,216,217,215;,
 4;216,218,219,217;,
 4;218,220,221,219;,
 4;220,222,223,221;,
 4;222,224,225,223;,
 4;224,210,213,225;,
 3;226,211,210;,
 3;226,214,211;,
 3;226,216,214;,
 3;226,218,216;,
 3;226,220,218;,
 3;226,222,220;,
 3;226,224,222;,
 3;226,210,224;,
 3;227,213,212;,
 3;227,212,215;,
 3;227,215,217;,
 3;227,217,219;,
 3;227,219,221;,
 3;227,221,223;,
 3;227,223,225;,
 3;227,225,213;,
 4;228,229,230,231;,
 4;229,232,233,230;,
 4;232,234,235,233;,
 4;234,236,237,235;,
 4;236,238,239,237;,
 4;238,240,241,239;,
 4;240,242,243,241;,
 4;242,228,231,243;,
 3;244,229,228;,
 3;244,232,229;,
 3;244,234,232;,
 3;244,236,234;,
 3;244,238,236;,
 3;244,240,238;,
 3;244,242,240;,
 3;244,228,242;,
 3;245,231,230;,
 3;245,230,233;,
 3;245,233,235;,
 3;245,235,237;,
 3;245,237,239;,
 3;245,239,241;,
 3;245,241,243;,
 3;245,243,231;,
 4;246,247,248,249;,
 4;247,250,251,248;,
 4;250,252,253,251;,
 4;252,246,249,253;,
 4;252,250,247,246;,
 4;249,248,251,253;,
 4;254,255,256,257;,
 4;255,258,259,256;,
 4;258,260,261,259;,
 4;260,262,263,261;,
 4;262,264,265,263;,
 4;264,266,267,265;,
 4;266,268,269,267;,
 4;268,254,257,269;,
 3;270,255,254;,
 3;270,258,255;,
 3;270,260,258;,
 3;270,262,260;,
 3;270,264,262;,
 3;270,266,264;,
 3;270,268,266;,
 3;270,254,268;,
 3;271,257,256;,
 3;271,256,259;,
 3;271,259,261;,
 3;271,261,263;,
 3;271,263,265;,
 3;271,265,267;,
 3;271,267,269;,
 3;271,269,257;,
 3;272,273,274;,
 3;272,275,273;,
 3;272,276,275;,
 3;272,277,276;,
 3;272,278,277;,
 3;272,279,278;,
 3;272,280,279;,
 3;272,274,280;,
 4;274,273,281,282;,
 4;273,275,283,281;,
 4;275,276,284,283;,
 4;276,277,285,284;,
 4;277,278,286,285;,
 4;278,279,287,286;,
 4;279,280,288,287;,
 4;280,274,282,288;,
 4;282,281,289,290;,
 4;281,283,291,289;,
 4;283,284,292,291;,
 4;284,285,293,292;,
 4;285,286,294,293;,
 4;286,287,295,294;,
 4;287,288,296,295;,
 4;288,282,290,296;,
 4;290,289,297,298;,
 4;289,291,299,297;,
 4;291,292,300,299;,
 4;292,293,301,300;,
 4;293,294,302,301;,
 4;294,295,303,302;,
 4;295,296,304,303;,
 4;296,290,298,304;,
 4;298,297,305,306;,
 4;297,299,307,305;,
 4;299,300,308,307;,
 4;300,301,309,308;,
 4;301,302,310,309;,
 4;302,303,311,310;,
 4;303,304,312,311;,
 4;304,298,306,312;,
 4;306,305,313,314;,
 4;305,307,315,313;,
 4;307,308,316,315;,
 4;308,309,317,316;,
 4;309,310,318,317;,
 4;310,311,319,318;,
 4;311,312,320,319;,
 4;312,306,314,320;,
 4;314,313,321,322;,
 4;313,315,323,321;,
 4;315,316,324,323;,
 4;316,317,325,324;,
 4;317,318,326,325;,
 4;318,319,327,326;,
 4;319,320,328,327;,
 4;320,314,322,328;,
 3;322,321,329;,
 3;321,323,329;,
 3;323,324,329;,
 3;324,325,329;,
 3;325,326,329;,
 3;326,327,329;,
 3;327,328,329;,
 3;328,322,329;;
 
 MeshMaterialList {
  1;
  394;
  0,
  0,
  0,
  0,
  0,
  0,
  0,
  0,
  0,
  0,
  0,
  0,
  0,
  0,
  0,
  0,
  0,
  0,
  0,
  0,
  0,
  0,
  0,
  0,
  0,
  0,
  0,
  0,
  0,
  0,
  0,
  0,
  0,
  0,
  0,
  0,
  0,
  0,
  0,
  0,
  0,
  0,
  0,
  0,
  0,
  0,
  0,
  0,
  0,
  0,
  0,
  0,
  0,
  0,
  0,
  0,
  0,
  0,
  0,
  0,
  0,
  0,
  0,
  0,
  0,
  0,
  0,
  0,
  0,
  0,
  0,
  0,
  0,
  0,
  0,
  0,
  0,
  0,
  0,
  0,
  0,
  0,
  0,
  0,
  0,
  0,
  0,
  0,
  0,
  0,
  0,
  0,
  0,
  0,
  0,
  0,
  0,
  0,
  0,
  0,
  0,
  0,
  0,
  0,
  0,
  0,
  0,
  0,
  0,
  0,
  0,
  0,
  0,
  0,
  0,
  0,
  0,
  0,
  0,
  0,
  0,
  0,
  0,
  0,
  0,
  0,
  0,
  0,
  0,
  0,
  0,
  0,
  0,
  0,
  0,
  0,
  0,
  0,
  0,
  0,
  0,
  0,
  0,
  0,
  0,
  0,
  0,
  0,
  0,
  0,
  0,
  0,
  0,
  0,
  0,
  0,
  0,
  0,
  0,
  0,
  0,
  0,
  0,
  0,
  0,
  0,
  0,
  0,
  0,
  0,
  0,
  0,
  0,
  0,
  0,
  0,
  0,
  0,
  0,
  0,
  0,
  0,
  0,
  0,
  0,
  0,
  0,
  0,
  0,
  0,
  0,
  0,
  0,
  0,
  0,
  0,
  0,
  0,
  0,
  0,
  0,
  0,
  0,
  0,
  0,
  0,
  0,
  0,
  0,
  0,
  0,
  0,
  0,
  0,
  0,
  0,
  0,
  0,
  0,
  0,
  0,
  0,
  0,
  0,
  0,
  0,
  0,
  0,
  0,
  0,
  0,
  0,
  0,
  0,
  0,
  0,
  0,
  0,
  0,
  0,
  0,
  0,
  0,
  0,
  0,
  0,
  0,
  0,
  0,
  0,
  0,
  0,
  0,
  0,
  0,
  0,
  0,
  0,
  0,
  0,
  0,
  0,
  0,
  0,
  0,
  0,
  0,
  0,
  0,
  0,
  0,
  0,
  0,
  0,
  0,
  0,
  0,
  0,
  0,
  0,
  0,
  0,
  0,
  0,
  0,
  0,
  0,
  0,
  0,
  0,
  0,
  0,
  0,
  0,
  0,
  0,
  0,
  0,
  0,
  0,
  0,
  0,
  0,
  0,
  0,
  0,
  0,
  0,
  0,
  0,
  0,
  0,
  0,
  0,
  0,
  0,
  0,
  0,
  0,
  0,
  0,
  0,
  0,
  0,
  0,
  0,
  0,
  0,
  0,
  0,
  0,
  0,
  0,
  0,
  0,
  0,
  0,
  0,
  0,
  0,
  0,
  0,
  0,
  0,
  0,
  0,
  0,
  0,
  0,
  0,
  0,
  0,
  0,
  0,
  0,
  0,
  0,
  0,
  0,
  0,
  0,
  0,
  0,
  0,
  0,
  0,
  0,
  0,
  0,
  0,
  0,
  0,
  0,
  0,
  0,
  0,
  0,
  0,
  0,
  0,
  0,
  0,
  0,
  0,
  0,
  0,
  0,
  0,
  0,
  0,
  0,
  0,
  0,
  0;;
  Material {
   1.000000;1.000000;1.000000;1.000000;;
   0.000000;
   0.000000;0.000000;0.000000;;
   0.000000;0.000000;0.000000;;
  }
 }
 MeshNormals {
  236;
  0.000000;0.000000;-1.000000;,
  1.000000;0.000000;0.000000;,
  0.000000;0.000000;1.000000;,
  -1.000000;0.000000;0.000000;,
  0.000000;1.000000;0.000000;,
  0.000000;-1.000000;-0.000000;,
  0.000000;0.000000;-1.000000;,
  1.000000;0.000000;0.000000;,
  0.000000;0.000000;1.000000;,
  -1.000000;0.000000;0.000000;,
  0.000000;1.000000;0.000000;,
  0.000000;-1.000000;-0.000000;,
  0.000000;0.000000;-1.000000;,
  1.000000;0.000000;0.000000;,
  0.000000;0.000000;1.000000;,
  -1.000000;0.000000;0.000000;,
  0.000000;1.000000;0.000000;,
  0.000000;-1.000000;-0.000000;,
  0.000000;0.000000;-1.000000;,
  1.000000;0.000000;0.000000;,
  0.000000;0.000000;1.000000;,
  -1.000000;0.000000;0.000000;,
  0.000000;1.000000;0.000000;,
  0.000000;-1.000000;-0.000000;,
  0.000000;0.000000;-1.000000;,
  1.000000;0.000000;0.000000;,
  0.000000;0.000000;1.000000;,
  -1.000000;0.000000;0.000000;,
  0.000000;1.000000;0.000000;,
  0.000000;-1.000000;-0.000000;,
  0.000000;0.000000;-1.000000;,
  1.000000;0.000000;0.000000;,
  0.000000;0.000000;1.000000;,
  -1.000000;0.000000;0.000000;,
  0.000000;1.000000;0.000000;,
  0.000000;-1.000000;-0.000000;,
  0.000000;1.000000;0.000000;,
  0.000000;0.000000;-1.000000;,
  0.707107;0.000000;-0.707107;,
  1.000000;0.000000;-0.000000;,
  0.707107;0.000000;0.707107;,
  0.000000;0.000000;1.000000;,
  -0.707107;0.000000;0.707107;,
  -1.000000;0.000000;-0.000000;,
  -0.707107;0.000000;-0.707107;,
  0.000000;-1.000000;-0.000000;,
  0.000000;1.000000;0.000000;,
  0.000000;0.000000;-1.000000;,
  0.707107;0.000000;-0.707107;,
  1.000000;0.000000;-0.000000;,
  0.707107;0.000000;0.707107;,
  0.000000;0.000000;1.000000;,
  -0.707107;0.000000;0.707107;,
  -1.000000;0.000000;-0.000000;,
  -0.707107;0.000000;-0.707107;,
  0.000000;-1.000000;-0.000000;,
  0.000000;1.000000;0.000000;,
  0.000000;0.000000;-1.000000;,
  0.707107;0.000000;-0.707107;,
  1.000000;0.000000;-0.000000;,
  0.707107;0.000000;0.707107;,
  0.000000;0.000000;1.000000;,
  -0.707107;0.000000;0.707107;,
  -1.000000;0.000000;-0.000000;,
  -0.707107;0.000000;-0.707107;,
  0.000000;-1.000000;-0.000000;,
  0.000000;1.000000;0.000000;,
  0.000000;0.000000;-1.000000;,
  0.707107;0.000000;-0.707107;,
  1.000000;0.000000;-0.000000;,
  0.707107;0.000000;0.707107;,
  0.000000;0.000000;1.000000;,
  -0.707107;0.000000;0.707107;,
  -1.000000;0.000000;-0.000000;,
  -0.707107;0.000000;-0.707107;,
  0.000000;-1.000000;-0.000000;,
  0.000000;1.000000;0.000000;,
  0.000000;0.000000;-1.000000;,
  0.707107;0.000000;-0.707107;,
  1.000000;0.000000;-0.000000;,
  0.707107;0.000000;0.707107;,
  0.000000;0.000000;1.000000;,
  -0.707107;0.000000;0.707107;,
  -1.000000;0.000000;-0.000000;,
  -0.707107;0.000000;-0.707107;,
  0.000000;-1.000000;-0.000000;,
  0.000000;1.000000;0.000000;,
  -0.000000;0.000000;-1.000000;,
  0.707108;0.000000;-0.707106;,
  1.000000;0.000000;-0.000000;,
  0.707108;0.000000;0.707106;,
  -0.000000;0.000000;1.000000;,
  -0.707107;0.000000;0.707106;,
  -1.000000;0.000000;-0.000000;,
  -0.707107;0.000000;-0.707106;,
  0.000000;-1.000000;-0.000000;,
  0.000000;1.000000;0.000000;,
  -0.000000;0.000000;-1.000000;,
  0.707108;0.000000;-0.707106;,
  1.000000;0.000000;-0.000000;,
  0.707108;0.000000;0.707106;,
  -0.000000;0.000000;1.000000;,
  -0.707107;0.000000;0.707106;,
  -1.000000;0.000000;-0.000000;,
  -0.707107;0.000000;-0.707106;,
  0.000000;-1.000000;-0.000000;,
  0.000000;1.000000;0.000000;,
  -0.000001;0.000000;-1.000000;,
  0.707108;0.000000;-0.707106;,
  1.000000;0.000000;-0.000001;,
  0.707108;0.000000;0.707106;,
  -0.000001;0.000000;1.000000;,
  -0.707109;0.000000;0.707105;,
  -1.000000;0.000000;-0.000001;,
  -0.707109;0.000000;-0.707105;,
  0.000000;-1.000000;-0.000000;,
  0.000000;1.000000;0.000000;,
  -0.000001;0.000000;-1.000000;,
  0.707108;0.000000;-0.707106;,
  1.000000;0.000000;-0.000001;,
  0.707108;0.000000;0.707106;,
  -0.000001;0.000000;1.000000;,
  -0.707109;0.000000;0.707105;,
  -1.000000;0.000000;-0.000001;,
  -0.707109;0.000000;-0.707105;,
  0.000000;-1.000000;-0.000000;,
  0.000000;1.000000;0.000000;,
  -0.000001;0.000000;-1.000000;,
  0.707108;0.000000;-0.707106;,
  1.000000;0.000000;-0.000001;,
  0.707108;0.000000;0.707106;,
  -0.000000;0.000000;1.000000;,
  -0.707108;0.000000;0.707105;,
  -1.000000;0.000000;-0.000001;,
  -0.707109;0.000000;-0.707105;,
  0.000000;-1.000000;-0.000000;,
  0.000000;1.000000;0.000000;,
  -0.000000;0.000000;-1.000000;,
  0.707108;0.000000;-0.707105;,
  1.000000;0.000000;-0.000000;,
  0.707108;0.000000;0.707106;,
  -0.000000;0.000000;1.000000;,
  -0.707107;0.000000;0.707106;,
  -1.000000;0.000000;-0.000000;,
  -0.707108;0.000000;-0.707106;,
  0.000000;-1.000000;-0.000000;,
  0.000000;0.000000;-1.000000;,
  1.000000;0.000000;0.000000;,
  0.000000;0.000000;1.000000;,
  -1.000000;0.000000;0.000000;,
  0.000000;1.000000;0.000000;,
  0.000000;-1.000000;-0.000000;,
  0.999940;-0.010916;0.000000;,
  -0.000001;-0.000000;-1.000000;,
  -0.004928;-0.707090;-0.707106;,
  -0.006969;-0.999976;-0.000000;,
  -0.004928;-0.707090;0.707106;,
  -0.000001;-0.000000;1.000000;,
  0.004926;0.707082;0.707114;,
  0.006966;0.999976;-0.000000;,
  0.004926;0.707082;-0.707115;,
  -0.999940;0.010920;0.000000;,
  0.999940;-0.010930;0.000010;,
  0.999941;-0.010915;-0.000000;,
  0.999940;-0.010939;0.000000;,
  0.999940;-0.010930;-0.000010;,
  0.999941;-0.010915;-0.000000;,
  0.999941;-0.010902;-0.000008;,
  0.999941;-0.010895;0.000000;,
  0.999941;-0.010902;0.000008;,
  -0.999940;0.010923;0.000000;,
  -0.999941;0.010907;0.000018;,
  -0.999941;0.010888;0.000000;,
  -0.999941;0.010907;-0.000018;,
  -0.999940;0.010923;0.000000;,
  -0.999940;0.010933;-0.000013;,
  -0.999940;0.010946;0.000000;,
  -0.999940;0.010933;0.000013;,
  0.999962;0.008728;0.000000;,
  0.924697;0.008073;-0.380619;,
  0.927047;-0.261047;-0.269142;,
  0.928020;-0.372530;-0.000000;,
  0.927048;-0.261047;0.269142;,
  0.924697;0.008073;0.380619;,
  0.922352;0.277183;0.269138;,
  0.921382;0.388657;0.000000;,
  0.922352;0.277183;-0.269138;,
  0.709204;0.006187;-0.704976;,
  0.713551;-0.492284;-0.498499;,
  0.715352;-0.698764;-0.000000;,
  0.713551;-0.492284;0.498499;,
  0.709204;0.006187;0.704976;,
  0.704855;0.504660;0.498495;,
  0.703053;0.711137;0.000000;,
  0.704856;0.504660;-0.498495;,
  0.384534;0.003352;-0.923105;,
  0.390231;-0.649350;-0.652736;,
  0.392595;-0.919712;-0.000000;,
  0.390231;-0.649350;0.652736;,
  0.384534;0.003352;0.923105;,
  0.378838;0.656061;0.652737;,
  0.376480;0.926425;0.000000;,
  0.378838;0.656061;-0.652737;,
  -0.000001;-0.000001;-1.000000;,
  0.006166;-0.707078;-0.707108;,
  0.008718;-0.999962;-0.000000;,
  0.006166;-0.707078;0.707108;,
  -0.000001;-0.000001;1.000000;,
  -0.006167;0.707075;0.707111;,
  -0.008719;0.999962;0.000000;,
  -0.006167;0.707075;-0.707111;,
  -0.384534;-0.003354;-0.923105;,
  -0.378845;-0.656060;-0.652734;,
  -0.376487;-0.926422;0.000000;,
  -0.378845;-0.656060;0.652734;,
  -0.384534;-0.003354;0.923105;,
  -0.390229;0.649348;0.652740;,
  -0.392595;0.919711;0.000000;,
  -0.390229;0.649348;-0.652740;,
  -0.709207;-0.006188;-0.704973;,
  -0.704858;-0.504659;-0.498493;,
  -0.703054;-0.711137;0.000000;,
  -0.704858;-0.504659;0.498493;,
  -0.709207;-0.006188;0.704973;,
  -0.713555;0.492281;0.498496;,
  -0.715358;0.698758;0.000000;,
  -0.713555;0.492281;-0.498496;,
  -0.924699;-0.008073;-0.380614;,
  -0.922353;-0.277183;-0.269136;,
  -0.921382;-0.388658;0.000000;,
  -0.922353;-0.277183;0.269136;,
  -0.924699;-0.008073;0.380614;,
  -0.927049;0.261044;0.269138;,
  -0.928021;0.372528;0.000000;,
  -0.927049;0.261044;-0.269138;,
  -0.999962;-0.008728;-0.000000;;
  394;
  4;0,0,0,0;,
  4;1,1,1,1;,
  4;2,2,2,2;,
  4;3,3,3,3;,
  4;4,4,4,4;,
  4;5,5,5,5;,
  4;6,6,6,6;,
  4;7,7,7,7;,
  4;8,8,8,8;,
  4;9,9,9,9;,
  4;10,10,10,10;,
  4;11,11,11,11;,
  4;12,12,12,12;,
  4;13,13,13,13;,
  4;14,14,14,14;,
  4;15,15,15,15;,
  4;16,16,16,16;,
  4;17,17,17,17;,
  4;18,18,18,18;,
  4;19,19,19,19;,
  4;20,20,20,20;,
  4;21,21,21,21;,
  4;22,22,22,22;,
  4;23,23,23,23;,
  4;24,24,24,24;,
  4;25,25,25,25;,
  4;26,26,26,26;,
  4;27,27,27,27;,
  4;28,28,28,28;,
  4;29,29,29,29;,
  4;30,30,30,30;,
  4;31,31,31,31;,
  4;32,32,32,32;,
  4;33,33,33,33;,
  4;34,34,34,34;,
  4;35,35,35,35;,
  4;37,38,38,37;,
  4;38,39,39,38;,
  4;39,40,40,39;,
  4;40,41,41,40;,
  4;41,42,42,41;,
  4;42,43,43,42;,
  4;43,44,44,43;,
  4;44,37,37,44;,
  3;36,36,36;,
  3;36,36,36;,
  3;36,36,36;,
  3;36,36,36;,
  3;36,36,36;,
  3;36,36,36;,
  3;36,36,36;,
  3;36,36,36;,
  3;45,45,45;,
  3;45,45,45;,
  3;45,45,45;,
  3;45,45,45;,
  3;45,45,45;,
  3;45,45,45;,
  3;45,45,45;,
  3;45,45,45;,
  4;47,48,48,47;,
  4;48,49,49,48;,
  4;49,50,50,49;,
  4;50,51,51,50;,
  4;51,52,52,51;,
  4;52,53,53,52;,
  4;53,54,54,53;,
  4;54,47,47,54;,
  3;46,46,46;,
  3;46,46,46;,
  3;46,46,46;,
  3;46,46,46;,
  3;46,46,46;,
  3;46,46,46;,
  3;46,46,46;,
  3;46,46,46;,
  3;55,55,55;,
  3;55,55,55;,
  3;55,55,55;,
  3;55,55,55;,
  3;55,55,55;,
  3;55,55,55;,
  3;55,55,55;,
  3;55,55,55;,
  4;57,58,58,57;,
  4;58,59,59,58;,
  4;59,60,60,59;,
  4;60,61,61,60;,
  4;61,62,62,61;,
  4;62,63,63,62;,
  4;63,64,64,63;,
  4;64,57,57,64;,
  3;56,56,56;,
  3;56,56,56;,
  3;56,56,56;,
  3;56,56,56;,
  3;56,56,56;,
  3;56,56,56;,
  3;56,56,56;,
  3;56,56,56;,
  3;65,65,65;,
  3;65,65,65;,
  3;65,65,65;,
  3;65,65,65;,
  3;65,65,65;,
  3;65,65,65;,
  3;65,65,65;,
  3;65,65,65;,
  4;67,68,68,67;,
  4;68,69,69,68;,
  4;69,70,70,69;,
  4;70,71,71,70;,
  4;71,72,72,71;,
  4;72,73,73,72;,
  4;73,74,74,73;,
  4;74,67,67,74;,
  3;66,66,66;,
  3;66,66,66;,
  3;66,66,66;,
  3;66,66,66;,
  3;66,66,66;,
  3;66,66,66;,
  3;66,66,66;,
  3;66,66,66;,
  3;75,75,75;,
  3;75,75,75;,
  3;75,75,75;,
  3;75,75,75;,
  3;75,75,75;,
  3;75,75,75;,
  3;75,75,75;,
  3;75,75,75;,
  4;77,78,78,77;,
  4;78,79,79,78;,
  4;79,80,80,79;,
  4;80,81,81,80;,
  4;81,82,82,81;,
  4;82,83,83,82;,
  4;83,84,84,83;,
  4;84,77,77,84;,
  3;76,76,76;,
  3;76,76,76;,
  3;76,76,76;,
  3;76,76,76;,
  3;76,76,76;,
  3;76,76,76;,
  3;76,76,76;,
  3;76,76,76;,
  3;85,85,85;,
  3;85,85,85;,
  3;85,85,85;,
  3;85,85,85;,
  3;85,85,85;,
  3;85,85,85;,
  3;85,85,85;,
  3;85,85,85;,
  4;87,88,88,87;,
  4;88,89,89,88;,
  4;89,90,90,89;,
  4;90,91,91,90;,
  4;91,92,92,91;,
  4;92,93,93,92;,
  4;93,94,94,93;,
  4;94,87,87,94;,
  3;86,86,86;,
  3;86,86,86;,
  3;86,86,86;,
  3;86,86,86;,
  3;86,86,86;,
  3;86,86,86;,
  3;86,86,86;,
  3;86,86,86;,
  3;95,95,95;,
  3;95,95,95;,
  3;95,95,95;,
  3;95,95,95;,
  3;95,95,95;,
  3;95,95,95;,
  3;95,95,95;,
  3;95,95,95;,
  4;97,98,98,97;,
  4;98,99,99,98;,
  4;99,100,100,99;,
  4;100,101,101,100;,
  4;101,102,102,101;,
  4;102,103,103,102;,
  4;103,104,104,103;,
  4;104,97,97,104;,
  3;96,96,96;,
  3;96,96,96;,
  3;96,96,96;,
  3;96,96,96;,
  3;96,96,96;,
  3;96,96,96;,
  3;96,96,96;,
  3;96,96,96;,
  3;105,105,105;,
  3;105,105,105;,
  3;105,105,105;,
  3;105,105,105;,
  3;105,105,105;,
  3;105,105,105;,
  3;105,105,105;,
  3;105,105,105;,
  4;107,108,108,107;,
  4;108,109,109,108;,
  4;109,110,110,109;,
  4;110,111,111,110;,
  4;111,112,112,111;,
  4;112,113,113,112;,
  4;113,114,114,113;,
  4;114,107,107,114;,
  3;106,106,106;,
  3;106,106,106;,
  3;106,106,106;,
  3;106,106,106;,
  3;106,106,106;,
  3;106,106,106;,
  3;106,106,106;,
  3;106,106,106;,
  3;115,115,115;,
  3;115,115,115;,
  3;115,115,115;,
  3;115,115,115;,
  3;115,115,115;,
  3;115,115,115;,
  3;115,115,115;,
  3;115,115,115;,
  4;117,118,118,117;,
  4;118,119,119,118;,
  4;119,120,120,119;,
  4;120,121,121,120;,
  4;121,122,122,121;,
  4;122,123,123,122;,
  4;123,124,124,123;,
  4;124,117,117,124;,
  3;116,116,116;,
  3;116,116,116;,
  3;116,116,116;,
  3;116,116,116;,
  3;116,116,116;,
  3;116,116,116;,
  3;116,116,116;,
  3;116,116,116;,
  3;125,125,125;,
  3;125,125,125;,
  3;125,125,125;,
  3;125,125,125;,
  3;125,125,125;,
  3;125,125,125;,
  3;125,125,125;,
  3;125,125,125;,
  4;127,128,128,127;,
  4;128,129,129,128;,
  4;129,130,130,129;,
  4;130,131,131,130;,
  4;131,132,132,131;,
  4;132,133,133,132;,
  4;133,134,134,133;,
  4;134,127,127,134;,
  3;126,126,126;,
  3;126,126,126;,
  3;126,126,126;,
  3;126,126,126;,
  3;126,126,126;,
  3;126,126,126;,
  3;126,126,126;,
  3;126,126,126;,
  3;135,135,135;,
  3;135,135,135;,
  3;135,135,135;,
  3;135,135,135;,
  3;135,135,135;,
  3;135,135,135;,
  3;135,135,135;,
  3;135,135,135;,
  4;137,138,138,137;,
  4;138,139,139,138;,
  4;139,140,140,139;,
  4;140,141,141,140;,
  4;141,142,142,141;,
  4;142,143,143,142;,
  4;143,144,144,143;,
  4;144,137,137,144;,
  3;136,136,136;,
  3;136,136,136;,
  3;136,136,136;,
  3;136,136,136;,
  3;136,136,136;,
  3;136,136,136;,
  3;136,136,136;,
  3;136,136,136;,
  3;145,145,145;,
  3;145,145,145;,
  3;145,145,145;,
  3;145,145,145;,
  3;145,145,145;,
  3;145,145,145;,
  3;145,145,145;,
  3;145,145,145;,
  4;146,146,146,146;,
  4;147,147,147,147;,
  4;148,148,148,148;,
  4;149,149,149,149;,
  4;150,150,150,150;,
  4;151,151,151,151;,
  4;153,154,154,153;,
  4;154,155,155,154;,
  4;155,156,156,155;,
  4;156,157,157,156;,
  4;157,158,158,157;,
  4;158,159,159,158;,
  4;159,160,160,159;,
  4;160,153,153,160;,
  3;152,162,163;,
  3;152,164,162;,
  3;152,165,164;,
  3;152,166,165;,
  3;152,167,166;,
  3;152,168,167;,
  3;152,169,168;,
  3;152,163,169;,
  3;161,170,171;,
  3;161,171,172;,
  3;161,172,173;,
  3;161,173,174;,
  3;161,174,175;,
  3;161,175,176;,
  3;161,176,177;,
  3;161,177,170;,
  3;178,180,179;,
  3;178,181,180;,
  3;178,182,181;,
  3;178,183,182;,
  3;178,184,183;,
  3;178,185,184;,
  3;178,186,185;,
  3;178,179,186;,
  4;179,180,188,187;,
  4;180,181,189,188;,
  4;181,182,190,189;,
  4;182,183,191,190;,
  4;183,184,192,191;,
  4;184,185,193,192;,
  4;185,186,194,193;,
  4;186,179,187,194;,
  4;187,188,196,195;,
  4;188,189,197,196;,
  4;189,190,198,197;,
  4;190,191,199,198;,
  4;191,192,200,199;,
  4;192,193,201,200;,
  4;193,194,202,201;,
  4;194,187,195,202;,
  4;195,196,204,203;,
  4;196,197,205,204;,
  4;197,198,206,205;,
  4;198,199,207,206;,
  4;199,200,208,207;,
  4;200,201,209,208;,
  4;201,202,210,209;,
  4;202,195,203,210;,
  4;203,204,212,211;,
  4;204,205,213,212;,
  4;205,206,214,213;,
  4;206,207,215,214;,
  4;207,208,216,215;,
  4;208,209,217,216;,
  4;209,210,218,217;,
  4;210,203,211,218;,
  4;211,212,220,219;,
  4;212,213,221,220;,
  4;213,214,222,221;,
  4;214,215,223,222;,
  4;215,216,224,223;,
  4;216,217,225,224;,
  4;217,218,226,225;,
  4;218,211,219,226;,
  4;219,220,228,227;,
  4;220,221,229,228;,
  4;221,222,230,229;,
  4;222,223,231,230;,
  4;223,224,232,231;,
  4;224,225,233,232;,
  4;225,226,234,233;,
  4;226,219,227,234;,
  3;227,228,235;,
  3;228,229,235;,
  3;229,230,235;,
  3;230,231,235;,
  3;231,232,235;,
  3;232,233,235;,
  3;233,234,235;,
  3;234,227,235;;
 }
}
