xof 0302txt 0064
template Header {
 <3D82AB43-62DA-11cf-AB39-0020AF71E433>
 WORD major;
 WORD minor;
 DWORD flags;
}

template Vector {
 <3D82AB5E-62DA-11cf-AB39-0020AF71E433>
 FLOAT x;
 FLOAT y;
 FLOAT z;
}

template Coords2d {
 <F6F23F44-7686-11cf-8F52-0040333594A3>
 FLOAT u;
 FLOAT v;
}

template Matrix4x4 {
 <F6F23F45-7686-11cf-8F52-0040333594A3>
 array FLOAT matrix[16];
}

template ColorRGBA {
 <35FF44E0-6C7C-11cf-8F52-0040333594A3>
 FLOAT red;
 FLOAT green;
 FLOAT blue;
 FLOAT alpha;
}

template ColorRGB {
 <D3E16E81-7835-11cf-8F52-0040333594A3>
 FLOAT red;
 FLOAT green;
 FLOAT blue;
}

template IndexedColor {
 <1630B820-7842-11cf-8F52-0040333594A3>
 DWORD index;
 ColorRGBA indexColor;
}

template Boolean {
 <4885AE61-78E8-11cf-8F52-0040333594A3>
 WORD truefalse;
}

template Boolean2d {
 <4885AE63-78E8-11cf-8F52-0040333594A3>
 Boolean u;
 Boolean v;
}

template MaterialWrap {
 <4885AE60-78E8-11cf-8F52-0040333594A3>
 Boolean u;
 Boolean v;
}

template TextureFilename {
 <A42790E1-7810-11cf-8F52-0040333594A3>
 STRING filename;
}

template Material {
 <3D82AB4D-62DA-11cf-AB39-0020AF71E433>
 ColorRGBA faceColor;
 FLOAT power;
 ColorRGB specularColor;
 ColorRGB emissiveColor;
 [...]
}

template MeshFace {
 <3D82AB5F-62DA-11cf-AB39-0020AF71E433>
 DWORD nFaceVertexIndices;
 array DWORD faceVertexIndices[nFaceVertexIndices];
}

template MeshFaceWraps {
 <4885AE62-78E8-11cf-8F52-0040333594A3>
 DWORD nFaceWrapValues;
 Boolean2d faceWrapValues;
}

template MeshTextureCoords {
 <F6F23F40-7686-11cf-8F52-0040333594A3>
 DWORD nTextureCoords;
 array Coords2d textureCoords[nTextureCoords];
}

template MeshMaterialList {
 <F6F23F42-7686-11cf-8F52-0040333594A3>
 DWORD nMaterials;
 DWORD nFaceIndexes;
 array DWORD faceIndexes[nFaceIndexes];
 [Material]
}

template MeshNormals {
 <F6F23F43-7686-11cf-8F52-0040333594A3>
 DWORD nNormals;
 array Vector normals[nNormals];
 DWORD nFaceNormals;
 array MeshFace faceNormals[nFaceNormals];
}

template MeshVertexColors {
 <1630B821-7842-11cf-8F52-0040333594A3>
 DWORD nVertexColors;
 array IndexedColor vertexColors[nVertexColors];
}

template Mesh {
 <3D82AB44-62DA-11cf-AB39-0020AF71E433>
 DWORD nVertices;
 array Vector vertices[nVertices];
 DWORD nFaces;
 array MeshFace faces[nFaces];
 [...]
}

Header{
1;
0;
1;
}

Mesh {
 314;
 0.00000;7.85558;-3.87658;,
 2.74115;7.85558;-2.74115;,
 2.74115;0.10243;-2.74115;,
 0.00000;0.10243;-3.87658;,
 3.87658;7.85558;0.00000;,
 3.87658;0.10243;0.00000;,
 2.74115;7.85558;2.74115;,
 2.74115;0.10243;2.74115;,
 -0.00000;7.85558;3.87658;,
 -0.00000;0.10243;3.87658;,
 -2.74115;7.85558;2.74115;,
 -2.74115;0.10243;2.74115;,
 -3.87658;7.85558;-0.00000;,
 -3.87658;0.10243;-0.00000;,
 -2.74115;7.85558;-2.74115;,
 -2.74115;0.10243;-2.74115;,
 0.00000;7.85558;0.00000;,
 0.00000;0.10243;0.00000;,
 0.00000;14.61594;0.00000;,
 1.24906;14.26458;-1.24906;,
 0.00000;14.26458;-1.76645;,
 1.76645;14.26458;0.00000;,
 1.24906;14.26458;1.24906;,
 -0.00000;14.26458;1.76645;,
 -1.24907;14.26458;1.24906;,
 -1.76645;14.26458;-0.00000;,
 -1.24907;14.26458;-1.24906;,
 2.30797;13.26396;-2.30797;,
 0.00000;13.26396;-3.26396;,
 3.26396;13.26396;0.00000;,
 2.30797;13.26396;2.30797;,
 -0.00000;13.26396;3.26396;,
 -2.30797;13.26396;2.30797;,
 -3.26396;13.26396;-0.00000;,
 -2.30797;13.26396;-2.30797;,
 3.01551;11.76644;-3.01551;,
 0.00000;11.76644;-4.26457;,
 4.26457;11.76644;0.00000;,
 3.01551;11.76644;3.01551;,
 -0.00000;11.76644;4.26457;,
 -3.01551;11.76644;3.01551;,
 -4.26457;11.76644;-0.00000;,
 -3.01551;11.76644;-3.01551;,
 3.26396;10.00000;-3.26396;,
 0.00000;10.00000;-4.61595;,
 4.61595;10.00000;0.00000;,
 3.26396;10.00000;3.26396;,
 -0.00000;10.00000;4.61595;,
 -3.26396;10.00000;3.26396;,
 -4.61595;10.00000;-0.00000;,
 -3.26396;10.00000;-3.26396;,
 3.01551;8.23355;-3.01551;,
 0.00000;8.23355;-4.26457;,
 4.26457;8.23355;0.00000;,
 3.01551;8.23355;3.01551;,
 -0.00000;8.23355;4.26457;,
 -3.01551;8.23355;3.01551;,
 -4.26457;8.23355;-0.00000;,
 -3.01551;8.23355;-3.01551;,
 2.30797;6.73604;-2.30797;,
 0.00000;6.73604;-3.26396;,
 3.26396;6.73604;0.00000;,
 2.30797;6.73604;2.30797;,
 -0.00000;6.73604;3.26396;,
 -2.30797;6.73604;2.30797;,
 -3.26396;6.73604;-0.00000;,
 -2.30797;6.73604;-2.30797;,
 1.24906;5.73543;-1.24906;,
 0.00000;5.73543;-1.76645;,
 1.76645;5.73543;0.00000;,
 1.24906;5.73543;1.24906;,
 -0.00000;5.73543;1.76645;,
 -1.24907;5.73543;1.24906;,
 -1.76645;5.73543;-0.00000;,
 -1.24907;5.73543;-1.24906;,
 0.00000;5.38405;0.00000;,
 0.00000;12.65355;0.00000;,
 0.71805;12.45156;-0.71805;,
 0.00000;12.45156;-1.01547;,
 1.01547;12.45156;0.00000;,
 0.71805;12.45156;0.71805;,
 -0.00000;12.45156;1.01547;,
 -0.71805;12.45156;0.71805;,
 -1.01547;12.45156;-0.00000;,
 -0.71805;12.45156;-0.71805;,
 1.32678;11.87635;-1.32678;,
 0.00000;11.87635;-1.87635;,
 1.87635;11.87635;0.00000;,
 1.32678;11.87635;1.32678;,
 -0.00000;11.87635;1.87635;,
 -1.32678;11.87635;1.32678;,
 -1.87635;11.87635;-0.00000;,
 -1.32678;11.87635;-1.32678;,
 1.73352;11.01547;-1.73352;,
 0.00000;11.01547;-2.45156;,
 2.45156;11.01547;0.00000;,
 1.73352;11.01547;1.73352;,
 -0.00000;11.01547;2.45156;,
 -1.73352;11.01547;1.73352;,
 -2.45156;11.01547;-0.00000;,
 -1.73352;11.01547;-1.73352;,
 1.87635;10.00000;-1.87635;,
 0.00000;10.00000;-2.65355;,
 2.65355;10.00000;0.00000;,
 1.87635;10.00000;1.87635;,
 -0.00000;10.00000;2.65355;,
 -1.87635;10.00000;1.87635;,
 -2.65355;10.00000;-0.00000;,
 -1.87635;10.00000;-1.87635;,
 1.73352;8.98453;-1.73352;,
 0.00000;8.98453;-2.45156;,
 2.45156;8.98453;0.00000;,
 1.73352;8.98453;1.73352;,
 -0.00000;8.98453;2.45156;,
 -1.73352;8.98453;1.73352;,
 -2.45156;8.98453;-0.00000;,
 -1.73352;8.98453;-1.73352;,
 1.32678;8.12366;-1.32678;,
 0.00000;8.12366;-1.87635;,
 1.87635;8.12366;0.00000;,
 1.32678;8.12366;1.32678;,
 -0.00000;8.12366;1.87635;,
 -1.32678;8.12366;1.32678;,
 -1.87635;8.12366;-0.00000;,
 -1.32678;8.12366;-1.32678;,
 0.71805;7.54844;-0.71805;,
 0.00000;7.54844;-1.01547;,
 1.01547;7.54844;0.00000;,
 0.71805;7.54844;0.71805;,
 -0.00000;7.54844;1.01547;,
 -0.71805;7.54844;0.71805;,
 -1.01547;7.54844;-0.00000;,
 -0.71805;7.54844;-0.71805;,
 0.00000;7.34645;0.00000;,
 3.09929;13.06749;-1.53773;,
 3.44596;12.96998;-1.88439;,
 3.09929;12.96998;-2.02798;,
 3.58955;12.96998;-1.53773;,
 3.44596;12.96998;-1.19107;,
 3.09929;12.96998;-1.04747;,
 2.75263;12.96998;-1.19107;,
 2.60903;12.96998;-1.53773;,
 2.75263;12.96998;-1.88439;,
 3.73984;12.69227;-2.17827;,
 3.09929;12.69227;-2.44360;,
 4.00517;12.69227;-1.53773;,
 3.73984;12.69227;-0.89718;,
 3.09929;12.69227;-0.63186;,
 2.45874;12.69227;-0.89718;,
 2.19342;12.69227;-1.53773;,
 2.45874;12.69227;-2.17827;,
 3.93621;12.27666;-2.37464;,
 3.09929;12.27666;-2.72130;,
 4.28287;12.27666;-1.53773;,
 3.93621;12.27666;-0.70081;,
 3.09929;12.27666;-0.35415;,
 2.26237;12.27666;-0.70081;,
 1.91571;12.27666;-1.53773;,
 2.26237;12.27666;-2.37464;,
 4.00517;11.78640;-2.44360;,
 3.09929;11.78640;-2.81882;,
 4.38039;11.78640;-1.53773;,
 4.00517;11.78640;-0.63186;,
 3.09929;11.78640;-0.25663;,
 2.19342;11.78640;-0.63186;,
 1.81820;11.78640;-1.53773;,
 2.19342;11.78640;-2.44360;,
 3.93621;11.29614;-2.37464;,
 3.09929;11.29614;-2.72130;,
 4.28287;11.29614;-1.53773;,
 3.93621;11.29614;-0.70081;,
 3.09929;11.29614;-0.35415;,
 2.26237;11.29614;-0.70081;,
 1.91571;11.29614;-1.53773;,
 2.26237;11.29614;-2.37464;,
 3.73984;10.88053;-2.17827;,
 3.09929;10.88053;-2.44360;,
 4.00517;10.88053;-1.53773;,
 3.73984;10.88053;-0.89718;,
 3.09929;10.88053;-0.63186;,
 2.45874;10.88053;-0.89718;,
 2.19342;10.88053;-1.53773;,
 2.45874;10.88053;-2.17827;,
 3.44596;10.60282;-1.88439;,
 3.09929;10.60282;-2.02798;,
 3.58955;10.60282;-1.53773;,
 3.44596;10.60282;-1.19106;,
 3.09929;10.60282;-1.04747;,
 2.75263;10.60282;-1.19107;,
 2.60903;10.60282;-1.53773;,
 2.75263;10.60282;-1.88439;,
 3.09929;10.50530;-1.53773;,
 3.09929;13.06749;1.33274;,
 3.44596;12.96998;0.98608;,
 3.09929;12.96998;0.84249;,
 3.58955;12.96998;1.33274;,
 3.44596;12.96998;1.67941;,
 3.09929;12.96998;1.82300;,
 2.75263;12.96998;1.67941;,
 2.60903;12.96998;1.33274;,
 2.75263;12.96998;0.98608;,
 3.73984;12.69227;0.69220;,
 3.09929;12.69227;0.42687;,
 4.00517;12.69227;1.33274;,
 3.73984;12.69227;1.97329;,
 3.09929;12.69227;2.23862;,
 2.45874;12.69227;1.97329;,
 2.19342;12.69227;1.33274;,
 2.45874;12.69227;0.69220;,
 3.93621;12.27666;0.49583;,
 3.09929;12.27666;0.14917;,
 4.28287;12.27666;1.33274;,
 3.93621;12.27666;2.16966;,
 3.09929;12.27666;2.51632;,
 2.26237;12.27666;2.16966;,
 1.91571;12.27666;1.33274;,
 2.26237;12.27666;0.49583;,
 4.00517;11.78640;0.42687;,
 3.09929;11.78640;0.05165;,
 4.38039;11.78640;1.33274;,
 4.00517;11.78640;2.23862;,
 3.09929;11.78640;2.61384;,
 2.19342;11.78640;2.23862;,
 1.81820;11.78640;1.33274;,
 2.19342;11.78640;0.42687;,
 3.93621;11.29614;0.49583;,
 3.09929;11.29614;0.14917;,
 4.28287;11.29614;1.33274;,
 3.93621;11.29614;2.16966;,
 3.09929;11.29614;2.51632;,
 2.26237;11.29614;2.16966;,
 1.91571;11.29614;1.33274;,
 2.26237;11.29614;0.49583;,
 3.73984;10.88053;0.69220;,
 3.09929;10.88053;0.42687;,
 4.00517;10.88053;1.33274;,
 3.73984;10.88053;1.97329;,
 3.09929;10.88053;2.23862;,
 2.45874;10.88053;1.97329;,
 2.19342;10.88053;1.33274;,
 2.45874;10.88053;0.69220;,
 3.44596;10.60282;0.98608;,
 3.09929;10.60282;0.84249;,
 3.58955;10.60282;1.33274;,
 3.44596;10.60282;1.67941;,
 3.09929;10.60282;1.82300;,
 2.75263;10.60282;1.67941;,
 2.60903;10.60282;1.33274;,
 2.75263;10.60282;0.98608;,
 3.09929;10.50530;1.33274;,
 4.03961;7.42500;0.00000;,
 4.18750;7.78206;0.00000;,
 2.96101;7.78206;-2.96101;,
 2.85643;7.42500;-2.85643;,
 4.54456;7.92995;0.00000;,
 3.21349;7.92995;-3.21349;,
 4.90161;7.78206;0.00000;,
 3.46596;7.78206;-3.46596;,
 5.04951;7.42500;0.00000;,
 3.57054;7.42500;-3.57054;,
 4.90161;7.06794;0.00000;,
 3.46596;7.06794;-3.46596;,
 4.54456;6.92005;0.00000;,
 3.21349;6.92005;-3.21349;,
 4.18750;7.06794;0.00000;,
 2.96101;7.06794;-2.96101;,
 -0.00000;7.78206;-4.18750;,
 -0.00000;7.42500;-4.03961;,
 -0.00000;7.92995;-4.54456;,
 -0.00000;7.78206;-4.90161;,
 -0.00000;7.42500;-5.04951;,
 -0.00000;7.06794;-4.90161;,
 -0.00000;6.92005;-4.54456;,
 -0.00000;7.06794;-4.18750;,
 -2.96101;7.78206;-2.96101;,
 -2.85643;7.42500;-2.85643;,
 -3.21349;7.92995;-3.21349;,
 -3.46596;7.78206;-3.46596;,
 -3.57054;7.42500;-3.57054;,
 -3.46596;7.06794;-3.46596;,
 -3.21349;6.92005;-3.21349;,
 -2.96101;7.06794;-2.96101;,
 -4.18750;7.78206;0.00000;,
 -4.03961;7.42500;0.00000;,
 -4.54456;7.92995;0.00000;,
 -4.90161;7.78206;0.00000;,
 -5.04951;7.42500;0.00000;,
 -4.90161;7.06794;0.00000;,
 -4.54456;6.92005;0.00000;,
 -4.18750;7.06794;0.00000;,
 -2.96101;7.78206;2.96101;,
 -2.85643;7.42500;2.85643;,
 -3.21349;7.92995;3.21349;,
 -3.46596;7.78206;3.46596;,
 -3.57054;7.42500;3.57054;,
 -3.46596;7.06794;3.46596;,
 -3.21349;6.92005;3.21349;,
 -2.96101;7.06794;2.96101;,
 0.00000;7.78206;4.18750;,
 0.00000;7.42500;4.03961;,
 0.00000;7.92995;4.54456;,
 0.00000;7.78206;4.90161;,
 0.00000;7.42500;5.04951;,
 0.00000;7.06794;4.90161;,
 0.00000;6.92005;4.54456;,
 0.00000;7.06794;4.18750;,
 2.96101;7.78206;2.96101;,
 2.85643;7.42500;2.85643;,
 3.21349;7.92995;3.21349;,
 3.46596;7.78206;3.46596;,
 3.57054;7.42500;3.57054;,
 3.46596;7.06794;3.46596;,
 3.21349;6.92005;3.21349;,
 2.96101;7.06794;2.96101;;
 
 344;
 4;0,1,2,3;,
 4;1,4,5,2;,
 4;4,6,7,5;,
 4;6,8,9,7;,
 4;8,10,11,9;,
 4;10,12,13,11;,
 4;12,14,15,13;,
 4;14,0,3,15;,
 3;16,1,0;,
 3;16,4,1;,
 3;16,6,4;,
 3;16,8,6;,
 3;16,10,8;,
 3;16,12,10;,
 3;16,14,12;,
 3;16,0,14;,
 3;17,3,2;,
 3;17,2,5;,
 3;17,5,7;,
 3;17,7,9;,
 3;17,9,11;,
 3;17,11,13;,
 3;17,13,15;,
 3;17,15,3;,
 3;18,19,20;,
 3;18,21,19;,
 3;18,22,21;,
 3;18,23,22;,
 3;18,24,23;,
 3;18,25,24;,
 3;18,26,25;,
 3;18,20,26;,
 4;20,19,27,28;,
 4;19,21,29,27;,
 4;21,22,30,29;,
 4;22,23,31,30;,
 4;23,24,32,31;,
 4;24,25,33,32;,
 4;25,26,34,33;,
 4;26,20,28,34;,
 4;28,27,35,36;,
 4;27,29,37,35;,
 4;29,30,38,37;,
 4;30,31,39,38;,
 4;31,32,40,39;,
 4;32,33,41,40;,
 4;33,34,42,41;,
 4;34,28,36,42;,
 4;36,35,43,44;,
 4;35,37,45,43;,
 4;37,38,46,45;,
 4;38,39,47,46;,
 4;39,40,48,47;,
 4;40,41,49,48;,
 4;41,42,50,49;,
 4;42,36,44,50;,
 4;44,43,51,52;,
 4;43,45,53,51;,
 4;45,46,54,53;,
 4;46,47,55,54;,
 4;47,48,56,55;,
 4;48,49,57,56;,
 4;49,50,58,57;,
 4;50,44,52,58;,
 4;52,51,59,60;,
 4;51,53,61,59;,
 4;53,54,62,61;,
 4;54,55,63,62;,
 4;55,56,64,63;,
 4;56,57,65,64;,
 4;57,58,66,65;,
 4;58,52,60,66;,
 4;60,59,67,68;,
 4;59,61,69,67;,
 4;61,62,70,69;,
 4;62,63,71,70;,
 4;63,64,72,71;,
 4;64,65,73,72;,
 4;65,66,74,73;,
 4;66,60,68,74;,
 3;68,67,75;,
 3;67,69,75;,
 3;69,70,75;,
 3;70,71,75;,
 3;71,72,75;,
 3;72,73,75;,
 3;73,74,75;,
 3;74,68,75;,
 3;76,77,78;,
 3;76,79,77;,
 3;76,80,79;,
 3;76,81,80;,
 3;76,82,81;,
 3;76,83,82;,
 3;76,84,83;,
 3;76,78,84;,
 4;78,77,85,86;,
 4;77,79,87,85;,
 4;79,80,88,87;,
 4;80,81,89,88;,
 4;81,82,90,89;,
 4;82,83,91,90;,
 4;83,84,92,91;,
 4;84,78,86,92;,
 4;86,85,93,94;,
 4;85,87,95,93;,
 4;87,88,96,95;,
 4;88,89,97,96;,
 4;89,90,98,97;,
 4;90,91,99,98;,
 4;91,92,100,99;,
 4;92,86,94,100;,
 4;94,93,101,102;,
 4;93,95,103,101;,
 4;95,96,104,103;,
 4;96,97,105,104;,
 4;97,98,106,105;,
 4;98,99,107,106;,
 4;99,100,108,107;,
 4;100,94,102,108;,
 4;102,101,109,110;,
 4;101,103,111,109;,
 4;103,104,112,111;,
 4;104,105,113,112;,
 4;105,106,114,113;,
 4;106,107,115,114;,
 4;107,108,116,115;,
 4;108,102,110,116;,
 4;110,109,117,118;,
 4;109,111,119,117;,
 4;111,112,120,119;,
 4;112,113,121,120;,
 4;113,114,122,121;,
 4;114,115,123,122;,
 4;115,116,124,123;,
 4;116,110,118,124;,
 4;118,117,125,126;,
 4;117,119,127,125;,
 4;119,120,128,127;,
 4;120,121,129,128;,
 4;121,122,130,129;,
 4;122,123,131,130;,
 4;123,124,132,131;,
 4;124,118,126,132;,
 3;126,125,133;,
 3;125,127,133;,
 3;127,128,133;,
 3;128,129,133;,
 3;129,130,133;,
 3;130,131,133;,
 3;131,132,133;,
 3;132,126,133;,
 3;134,135,136;,
 3;134,137,135;,
 3;134,138,137;,
 3;134,139,138;,
 3;134,140,139;,
 3;134,141,140;,
 3;134,142,141;,
 3;134,136,142;,
 4;136,135,143,144;,
 4;135,137,145,143;,
 4;137,138,146,145;,
 4;138,139,147,146;,
 4;139,140,148,147;,
 4;140,141,149,148;,
 4;141,142,150,149;,
 4;142,136,144,150;,
 4;144,143,151,152;,
 4;143,145,153,151;,
 4;145,146,154,153;,
 4;146,147,155,154;,
 4;147,148,156,155;,
 4;148,149,157,156;,
 4;149,150,158,157;,
 4;150,144,152,158;,
 4;152,151,159,160;,
 4;151,153,161,159;,
 4;153,154,162,161;,
 4;154,155,163,162;,
 4;155,156,164,163;,
 4;156,157,165,164;,
 4;157,158,166,165;,
 4;158,152,160,166;,
 4;160,159,167,168;,
 4;159,161,169,167;,
 4;161,162,170,169;,
 4;162,163,171,170;,
 4;163,164,172,171;,
 4;164,165,173,172;,
 4;165,166,174,173;,
 4;166,160,168,174;,
 4;168,167,175,176;,
 4;167,169,177,175;,
 4;169,170,178,177;,
 4;170,171,179,178;,
 4;171,172,180,179;,
 4;172,173,181,180;,
 4;173,174,182,181;,
 4;174,168,176,182;,
 4;176,175,183,184;,
 4;175,177,185,183;,
 4;177,178,186,185;,
 4;178,179,187,186;,
 4;179,180,188,187;,
 4;180,181,189,188;,
 4;181,182,190,189;,
 4;182,176,184,190;,
 3;184,183,191;,
 3;183,185,191;,
 3;185,186,191;,
 3;186,187,191;,
 3;187,188,191;,
 3;188,189,191;,
 3;189,190,191;,
 3;190,184,191;,
 3;192,193,194;,
 3;192,195,193;,
 3;192,196,195;,
 3;192,197,196;,
 3;192,198,197;,
 3;192,199,198;,
 3;192,200,199;,
 3;192,194,200;,
 4;194,193,201,202;,
 4;193,195,203,201;,
 4;195,196,204,203;,
 4;196,197,205,204;,
 4;197,198,206,205;,
 4;198,199,207,206;,
 4;199,200,208,207;,
 4;200,194,202,208;,
 4;202,201,209,210;,
 4;201,203,211,209;,
 4;203,204,212,211;,
 4;204,205,213,212;,
 4;205,206,214,213;,
 4;206,207,215,214;,
 4;207,208,216,215;,
 4;208,202,210,216;,
 4;210,209,217,218;,
 4;209,211,219,217;,
 4;211,212,220,219;,
 4;212,213,221,220;,
 4;213,214,222,221;,
 4;214,215,223,222;,
 4;215,216,224,223;,
 4;216,210,218,224;,
 4;218,217,225,226;,
 4;217,219,227,225;,
 4;219,220,228,227;,
 4;220,221,229,228;,
 4;221,222,230,229;,
 4;222,223,231,230;,
 4;223,224,232,231;,
 4;224,218,226,232;,
 4;226,225,233,234;,
 4;225,227,235,233;,
 4;227,228,236,235;,
 4;228,229,237,236;,
 4;229,230,238,237;,
 4;230,231,239,238;,
 4;231,232,240,239;,
 4;232,226,234,240;,
 4;234,233,241,242;,
 4;233,235,243,241;,
 4;235,236,244,243;,
 4;236,237,245,244;,
 4;237,238,246,245;,
 4;238,239,247,246;,
 4;239,240,248,247;,
 4;240,234,242,248;,
 3;242,241,249;,
 3;241,243,249;,
 3;243,244,249;,
 3;244,245,249;,
 3;245,246,249;,
 3;246,247,249;,
 3;247,248,249;,
 3;248,242,249;,
 4;250,251,252,253;,
 4;251,254,255,252;,
 4;254,256,257,255;,
 4;256,258,259,257;,
 4;258,260,261,259;,
 4;260,262,263,261;,
 4;262,264,265,263;,
 4;264,250,253,265;,
 4;253,252,266,267;,
 4;252,255,268,266;,
 4;255,257,269,268;,
 4;257,259,270,269;,
 4;259,261,271,270;,
 4;261,263,272,271;,
 4;263,265,273,272;,
 4;265,253,267,273;,
 4;267,266,274,275;,
 4;266,268,276,274;,
 4;268,269,277,276;,
 4;269,270,278,277;,
 4;270,271,279,278;,
 4;271,272,280,279;,
 4;272,273,281,280;,
 4;273,267,275,281;,
 4;275,274,282,283;,
 4;274,276,284,282;,
 4;276,277,285,284;,
 4;277,278,286,285;,
 4;278,279,287,286;,
 4;279,280,288,287;,
 4;280,281,289,288;,
 4;281,275,283,289;,
 4;283,282,290,291;,
 4;282,284,292,290;,
 4;284,285,293,292;,
 4;285,286,294,293;,
 4;286,287,295,294;,
 4;287,288,296,295;,
 4;288,289,297,296;,
 4;289,283,291,297;,
 4;291,290,298,299;,
 4;290,292,300,298;,
 4;292,293,301,300;,
 4;293,294,302,301;,
 4;294,295,303,302;,
 4;295,296,304,303;,
 4;296,297,305,304;,
 4;297,291,299,305;,
 4;299,298,306,307;,
 4;298,300,308,306;,
 4;300,301,309,308;,
 4;301,302,310,309;,
 4;302,303,311,310;,
 4;303,304,312,311;,
 4;304,305,313,312;,
 4;305,299,307,313;,
 4;307,306,251,250;,
 4;306,308,254,251;,
 4;308,309,256,254;,
 4;309,310,258,256;,
 4;310,311,260,258;,
 4;311,312,262,260;,
 4;312,313,264,262;,
 4;313,307,250,264;;
 
 MeshMaterialList {
  3;
  344;
  0,
  0,
  0,
  0,
  0,
  0,
  0,
  0,
  0,
  0,
  0,
  0,
  0,
  0,
  0,
  0,
  0,
  0,
  0,
  0,
  0,
  0,
  0,
  0,
  0,
  0,
  0,
  0,
  0,
  0,
  0,
  0,
  0,
  0,
  0,
  0,
  0,
  0,
  0,
  0,
  0,
  0,
  0,
  0,
  0,
  0,
  0,
  0,
  0,
  0,
  0,
  0,
  0,
  0,
  0,
  0,
  0,
  0,
  0,
  0,
  0,
  0,
  0,
  0,
  0,
  0,
  0,
  0,
  0,
  0,
  0,
  0,
  0,
  0,
  0,
  0,
  0,
  0,
  0,
  0,
  0,
  0,
  0,
  0,
  0,
  0,
  0,
  0,
  0,
  0,
  0,
  0,
  0,
  0,
  0,
  0,
  0,
  0,
  0,
  0,
  0,
  0,
  0,
  0,
  0,
  0,
  0,
  0,
  0,
  0,
  0,
  0,
  0,
  0,
  0,
  0,
  0,
  0,
  0,
  0,
  0,
  0,
  0,
  0,
  0,
  0,
  0,
  0,
  0,
  0,
  0,
  0,
  0,
  0,
  0,
  0,
  0,
  0,
  0,
  0,
  0,
  0,
  0,
  0,
  0,
  0,
  0,
  0,
  0,
  0,
  0,
  0,
  1,
  1,
  1,
  1,
  1,
  1,
  1,
  1,
  1,
  1,
  1,
  1,
  1,
  1,
  1,
  1,
  1,
  1,
  1,
  1,
  1,
  1,
  1,
  1,
  1,
  1,
  1,
  1,
  1,
  1,
  1,
  1,
  1,
  1,
  1,
  1,
  1,
  1,
  1,
  1,
  1,
  1,
  1,
  1,
  1,
  1,
  1,
  1,
  1,
  1,
  1,
  1,
  1,
  1,
  1,
  1,
  1,
  1,
  1,
  1,
  1,
  1,
  1,
  1,
  1,
  1,
  1,
  1,
  1,
  1,
  1,
  1,
  1,
  1,
  1,
  1,
  1,
  1,
  1,
  1,
  1,
  1,
  1,
  1,
  1,
  1,
  1,
  1,
  1,
  1,
  1,
  1,
  1,
  1,
  1,
  1,
  1,
  1,
  1,
  1,
  1,
  1,
  1,
  1,
  1,
  1,
  1,
  1,
  1,
  1,
  1,
  1,
  1,
  1,
  1,
  1,
  1,
  1,
  1,
  1,
  1,
  1,
  1,
  1,
  1,
  1,
  1,
  1,
  2,
  2,
  2,
  2,
  2,
  2,
  2,
  2,
  2,
  2,
  2,
  2,
  2,
  2,
  2,
  2,
  2,
  2,
  2,
  2,
  2,
  2,
  2,
  2,
  2,
  2,
  2,
  2,
  2,
  2,
  2,
  2,
  2,
  2,
  2,
  2,
  2,
  2,
  2,
  2,
  2,
  2,
  2,
  2,
  2,
  2,
  2,
  2,
  2,
  2,
  2,
  2,
  2,
  2,
  2,
  2,
  2,
  2,
  2,
  2,
  2,
  2,
  2,
  2;;
  Material {
   0.454902;0.454902;0.454902;1.000000;;
   5.000000;
   0.000000;0.000000;0.000000;;
   0.000000;0.000000;0.000000;;
  }
  Material {
   0.800000;0.000000;0.000000;1.000000;;
   5.000000;
   0.000000;0.000000;0.000000;;
   0.000000;0.000000;0.000000;;
  }
  Material {
   0.000000;0.000000;0.000000;1.000000;;
   5.000000;
   0.000000;0.000000;0.000000;;
   0.000000;0.000000;0.000000;;
  }
 }
 MeshNormals {
  306;
  0.000000;1.000000;0.000000;,
  0.000000;0.000000;-1.000000;,
  0.707107;0.000000;-0.707107;,
  1.000000;0.000000;0.000000;,
  0.707107;0.000000;0.707107;,
  -0.000000;0.000000;1.000000;,
  -0.707107;0.000000;0.707107;,
  -1.000000;0.000000;0.000000;,
  -0.707107;0.000000;-0.707107;,
  0.000000;-1.000000;-0.000000;,
  -0.000000;1.000000;0.000000;,
  0.000000;0.924736;-0.380610;,
  0.269132;0.924736;-0.269132;,
  0.380610;0.924736;0.000000;,
  0.269132;0.924736;0.269132;,
  -0.000000;0.924736;0.380610;,
  -0.269132;0.924736;0.269132;,
  -0.380610;0.924736;0.000000;,
  -0.269132;0.924736;-0.269132;,
  -0.000000;0.709229;-0.704978;,
  0.498495;0.709229;-0.498495;,
  0.704978;0.709229;0.000000;,
  0.498495;0.709229;0.498495;,
  -0.000000;0.709229;0.704978;,
  -0.498495;0.709229;0.498495;,
  -0.704978;0.709229;0.000000;,
  -0.498495;0.709229;-0.498495;,
  -0.000000;0.384551;-0.923104;,
  0.652733;0.384551;-0.652733;,
  0.923104;0.384551;0.000000;,
  0.652733;0.384551;0.652733;,
  -0.000000;0.384551;0.923104;,
  -0.652733;0.384551;0.652733;,
  -0.923104;0.384551;0.000000;,
  -0.652733;0.384551;-0.652733;,
  -0.000000;0.000000;-1.000000;,
  0.707107;0.000000;-0.707107;,
  1.000000;0.000000;0.000000;,
  0.707107;0.000000;0.707107;,
  -0.000000;0.000000;1.000000;,
  -0.707107;0.000000;0.707107;,
  -1.000000;0.000000;0.000000;,
  -0.707107;0.000000;-0.707107;,
  -0.000000;-0.384551;-0.923104;,
  0.652733;-0.384551;-0.652733;,
  0.923104;-0.384551;0.000000;,
  0.652733;-0.384551;0.652733;,
  -0.000000;-0.384551;0.923104;,
  -0.652733;-0.384551;0.652733;,
  -0.923104;-0.384551;-0.000000;,
  -0.652733;-0.384551;-0.652733;,
  0.000000;-0.709230;-0.704977;,
  0.498494;-0.709230;-0.498494;,
  0.704977;-0.709230;0.000000;,
  0.498494;-0.709230;0.498494;,
  -0.000000;-0.709230;0.704977;,
  -0.498494;-0.709231;0.498494;,
  -0.704977;-0.709230;-0.000000;,
  -0.498494;-0.709230;-0.498494;,
  0.000000;-0.924735;-0.380612;,
  0.269133;-0.924735;-0.269133;,
  0.380612;-0.924735;-0.000000;,
  0.269133;-0.924735;0.269133;,
  -0.000000;-0.924735;0.380612;,
  -0.269133;-0.924735;0.269133;,
  -0.380612;-0.924735;-0.000000;,
  -0.269133;-0.924735;-0.269133;,
  -0.000000;-1.000000;-0.000000;,
  0.000000;1.000000;0.000000;,
  0.000000;0.924735;-0.380611;,
  0.269133;0.924735;-0.269133;,
  0.380611;0.924735;0.000000;,
  0.269133;0.924735;0.269133;,
  0.000000;0.924735;0.380611;,
  -0.269133;0.924735;0.269133;,
  -0.380611;0.924735;-0.000000;,
  -0.269133;0.924735;-0.269133;,
  0.000000;0.709230;-0.704977;,
  0.498494;0.709230;-0.498494;,
  0.704977;0.709230;0.000000;,
  0.498494;0.709230;0.498494;,
  -0.000000;0.709230;0.704977;,
  -0.498494;0.709230;0.498494;,
  -0.704977;0.709230;-0.000000;,
  -0.498494;0.709230;-0.498494;,
  -0.000000;0.384551;-0.923104;,
  0.652733;0.384551;-0.652733;,
  0.923104;0.384551;0.000000;,
  0.652733;0.384551;0.652733;,
  -0.000000;0.384551;0.923104;,
  -0.652733;0.384551;0.652733;,
  -0.923104;0.384551;0.000000;,
  -0.652733;0.384551;-0.652733;,
  -0.000000;-0.000000;-1.000000;,
  0.707107;-0.000000;-0.707107;,
  1.000000;-0.000000;0.000000;,
  0.707107;-0.000000;0.707107;,
  -0.000000;-0.000000;1.000000;,
  -0.707107;-0.000000;0.707107;,
  -1.000000;-0.000000;0.000000;,
  -0.707107;-0.000000;-0.707107;,
  -0.000000;-0.384552;-0.923104;,
  0.652733;-0.384552;-0.652733;,
  0.923104;-0.384552;0.000000;,
  0.652733;-0.384552;0.652733;,
  -0.000000;-0.384552;0.923104;,
  -0.652733;-0.384552;0.652733;,
  -0.923103;-0.384552;-0.000000;,
  -0.652733;-0.384552;-0.652733;,
  0.000000;-0.709231;-0.704976;,
  0.498494;-0.709231;-0.498494;,
  0.704976;-0.709231;-0.000000;,
  0.498493;-0.709231;0.498494;,
  -0.000000;-0.709231;0.704976;,
  -0.498494;-0.709231;0.498493;,
  -0.704976;-0.709231;-0.000000;,
  -0.498494;-0.709231;-0.498494;,
  -0.000000;-0.924735;-0.380611;,
  0.269133;-0.924735;-0.269133;,
  0.380611;-0.924735;-0.000000;,
  0.269133;-0.924735;0.269133;,
  0.000000;-0.924735;0.380611;,
  -0.269133;-0.924735;0.269133;,
  -0.380611;-0.924735;-0.000000;,
  -0.269133;-0.924735;-0.269133;,
  -0.000000;-1.000000;-0.000000;,
  0.000000;1.000000;0.000000;,
  0.000000;0.924736;-0.380608;,
  0.269130;0.924737;-0.269130;,
  0.380608;0.924737;-0.000000;,
  0.269130;0.924737;0.269130;,
  0.000000;0.924737;0.380608;,
  -0.269130;0.924737;0.269131;,
  -0.380607;0.924737;-0.000000;,
  -0.269130;0.924736;-0.269131;,
  -0.000000;0.709230;-0.704978;,
  0.498494;0.709230;-0.498494;,
  0.704978;0.709230;-0.000000;,
  0.498494;0.709230;0.498494;,
  -0.000000;0.709229;0.704978;,
  -0.498494;0.709230;0.498494;,
  -0.704978;0.709229;-0.000000;,
  -0.498494;0.709230;-0.498494;,
  -0.000000;0.384551;-0.923104;,
  0.652733;0.384552;-0.652732;,
  0.923104;0.384551;-0.000000;,
  0.652733;0.384552;0.652733;,
  -0.000000;0.384551;0.923104;,
  -0.652733;0.384551;0.652732;,
  -0.923104;0.384551;-0.000000;,
  -0.652733;0.384551;-0.652732;,
  -0.000000;-0.000000;-1.000000;,
  0.707107;-0.000000;-0.707107;,
  1.000000;-0.000000;-0.000000;,
  0.707107;-0.000000;0.707107;,
  -0.000001;-0.000000;1.000000;,
  -0.707107;-0.000000;0.707106;,
  -1.000000;-0.000000;-0.000000;,
  -0.707107;-0.000000;-0.707106;,
  -0.000000;-0.384550;-0.923104;,
  0.652733;-0.384551;-0.652733;,
  0.923104;-0.384550;-0.000000;,
  0.652733;-0.384551;0.652733;,
  -0.000000;-0.384551;0.923104;,
  -0.652734;-0.384551;0.652733;,
  -0.923104;-0.384550;-0.000000;,
  -0.652734;-0.384550;-0.652733;,
  -0.000000;-0.709231;-0.704976;,
  0.498493;-0.709231;-0.498493;,
  0.704976;-0.709231;-0.000000;,
  0.498493;-0.709231;0.498493;,
  -0.000000;-0.709231;0.704977;,
  -0.498494;-0.709231;0.498494;,
  -0.704977;-0.709231;-0.000000;,
  -0.498494;-0.709231;-0.498493;,
  0.000000;-0.924735;-0.380611;,
  0.269133;-0.924735;-0.269133;,
  0.380611;-0.924735;-0.000000;,
  0.269132;-0.924735;0.269133;,
  -0.000000;-0.924735;0.380611;,
  -0.269132;-0.924735;0.269133;,
  -0.380611;-0.924735;-0.000000;,
  -0.269133;-0.924735;-0.269133;,
  0.000000;-1.000000;0.000000;,
  0.000000;1.000000;0.000000;,
  0.000000;0.924736;-0.380608;,
  0.269130;0.924737;-0.269130;,
  0.380608;0.924737;-0.000000;,
  0.269130;0.924737;0.269130;,
  -0.000000;0.924737;0.380608;,
  -0.269130;0.924736;0.269131;,
  -0.380608;0.924737;0.000000;,
  -0.269130;0.924736;-0.269131;,
  -0.000000;0.709230;-0.704978;,
  0.498494;0.709230;-0.498494;,
  0.704978;0.709229;-0.000000;,
  0.498494;0.709230;0.498494;,
  -0.000000;0.709229;0.704978;,
  -0.498495;0.709229;0.498495;,
  -0.704978;0.709229;0.000000;,
  -0.498494;0.709230;-0.498494;,
  -0.000000;0.384551;-0.923104;,
  0.652733;0.384552;-0.652732;,
  0.923104;0.384551;-0.000000;,
  0.652733;0.384552;0.652733;,
  -0.000000;0.384551;0.923104;,
  -0.652733;0.384551;0.652732;,
  -0.923104;0.384551;-0.000000;,
  -0.652733;0.384551;-0.652732;,
  -0.000000;-0.000000;-1.000000;,
  0.707107;-0.000000;-0.707107;,
  1.000000;-0.000000;-0.000000;,
  0.707107;-0.000000;0.707107;,
  -0.000000;-0.000000;1.000000;,
  -0.707107;-0.000000;0.707106;,
  -1.000000;-0.000000;-0.000000;,
  -0.707107;-0.000000;-0.707106;,
  -0.000000;-0.384550;-0.923104;,
  0.652733;-0.384551;-0.652733;,
  0.923104;-0.384550;-0.000000;,
  0.652733;-0.384551;0.652733;,
  -0.000000;-0.384551;0.923104;,
  -0.652733;-0.384551;0.652733;,
  -0.923104;-0.384550;-0.000000;,
  -0.652734;-0.384550;-0.652733;,
  -0.000000;-0.709231;-0.704976;,
  0.498493;-0.709231;-0.498493;,
  0.704976;-0.709231;-0.000000;,
  0.498493;-0.709231;0.498493;,
  -0.000000;-0.709231;0.704976;,
  -0.498493;-0.709231;0.498493;,
  -0.704976;-0.709231;-0.000000;,
  -0.498494;-0.709231;-0.498493;,
  0.000000;-0.924735;-0.380611;,
  0.269133;-0.924735;-0.269133;,
  0.380611;-0.924735;-0.000000;,
  0.269132;-0.924735;0.269133;,
  -0.000000;-0.924735;0.380611;,
  -0.269132;-0.924735;0.269133;,
  -0.380611;-0.924735;-0.000000;,
  -0.269133;-0.924735;-0.269133;,
  0.000000;-1.000000;0.000000;,
  -1.000000;0.000000;-0.000000;,
  -0.698872;0.715247;-0.000000;,
  -0.000002;1.000000;0.000000;,
  0.698872;0.715247;0.000000;,
  1.000000;0.000000;-0.000000;,
  0.698872;-0.715247;0.000000;,
  -0.000002;-1.000000;0.000000;,
  -0.698872;-0.715247;-0.000000;,
  -0.707107;0.000000;0.707107;,
  -0.494177;0.715247;0.494177;,
  -0.000002;1.000000;0.000002;,
  0.494177;0.715247;-0.494177;,
  0.707107;0.000000;-0.707107;,
  0.494177;-0.715247;-0.494177;,
  -0.000002;-1.000000;0.000002;,
  -0.494177;-0.715247;0.494177;,
  0.000000;0.000000;1.000000;,
  0.000000;0.715247;0.698872;,
  -0.000000;1.000000;0.000002;,
  -0.000000;0.715247;-0.698872;,
  -0.000000;0.000000;-1.000000;,
  -0.000000;-0.715247;-0.698872;,
  -0.000000;-1.000000;0.000002;,
  0.000000;-0.715247;0.698872;,
  0.707107;0.000000;0.707107;,
  0.494177;0.715247;0.494177;,
  0.000001;1.000000;0.000001;,
  -0.494177;0.715247;-0.494177;,
  -0.707107;0.000000;-0.707107;,
  -0.494177;-0.715247;-0.494177;,
  0.000001;-1.000000;0.000001;,
  0.494177;-0.715247;0.494177;,
  1.000000;0.000000;-0.000000;,
  0.698872;0.715247;-0.000000;,
  0.000002;1.000000;0.000000;,
  -0.698872;0.715247;0.000000;,
  -1.000000;0.000000;0.000000;,
  -0.698872;-0.715247;0.000000;,
  0.000002;-1.000000;0.000000;,
  0.698872;-0.715247;-0.000000;,
  0.707107;0.000000;-0.707107;,
  0.494177;0.715247;-0.494177;,
  0.000001;1.000000;-0.000002;,
  -0.494177;0.715247;0.494177;,
  -0.707107;0.000000;0.707107;,
  -0.494177;-0.715247;0.494177;,
  0.000001;-1.000000;-0.000002;,
  0.494177;-0.715247;-0.494177;,
  -0.000000;0.000000;-1.000000;,
  -0.000000;0.715247;-0.698872;,
  0.000000;1.000000;-0.000002;,
  0.000000;0.715247;0.698872;,
  0.000000;0.000000;1.000000;,
  0.000000;-0.715247;0.698872;,
  0.000000;-1.000000;-0.000002;,
  -0.000000;-0.715247;-0.698872;,
  -0.707107;0.000000;-0.707107;,
  -0.494177;0.715247;-0.494177;,
  -0.000001;1.000000;-0.000001;,
  0.494177;0.715247;0.494177;,
  0.707107;0.000000;0.707107;,
  0.494177;-0.715247;0.494177;,
  -0.000001;-1.000000;-0.000001;,
  -0.494177;-0.715247;-0.494177;;
  344;
  4;1,2,2,1;,
  4;2,3,3,2;,
  4;3,4,4,3;,
  4;4,5,5,4;,
  4;5,6,6,5;,
  4;6,7,7,6;,
  4;7,8,8,7;,
  4;8,1,1,8;,
  3;0,0,0;,
  3;0,0,0;,
  3;0,0,0;,
  3;0,0,0;,
  3;0,0,0;,
  3;0,0,0;,
  3;0,0,0;,
  3;0,0,0;,
  3;9,9,9;,
  3;9,9,9;,
  3;9,9,9;,
  3;9,9,9;,
  3;9,9,9;,
  3;9,9,9;,
  3;9,9,9;,
  3;9,9,9;,
  3;10,12,11;,
  3;10,13,12;,
  3;10,14,13;,
  3;10,15,14;,
  3;10,16,15;,
  3;10,17,16;,
  3;10,18,17;,
  3;10,11,18;,
  4;11,12,20,19;,
  4;12,13,21,20;,
  4;13,14,22,21;,
  4;14,15,23,22;,
  4;15,16,24,23;,
  4;16,17,25,24;,
  4;17,18,26,25;,
  4;18,11,19,26;,
  4;19,20,28,27;,
  4;20,21,29,28;,
  4;21,22,30,29;,
  4;22,23,31,30;,
  4;23,24,32,31;,
  4;24,25,33,32;,
  4;25,26,34,33;,
  4;26,19,27,34;,
  4;27,28,36,35;,
  4;28,29,37,36;,
  4;29,30,38,37;,
  4;30,31,39,38;,
  4;31,32,40,39;,
  4;32,33,41,40;,
  4;33,34,42,41;,
  4;34,27,35,42;,
  4;35,36,44,43;,
  4;36,37,45,44;,
  4;37,38,46,45;,
  4;38,39,47,46;,
  4;39,40,48,47;,
  4;40,41,49,48;,
  4;41,42,50,49;,
  4;42,35,43,50;,
  4;43,44,52,51;,
  4;44,45,53,52;,
  4;45,46,54,53;,
  4;46,47,55,54;,
  4;47,48,56,55;,
  4;48,49,57,56;,
  4;49,50,58,57;,
  4;50,43,51,58;,
  4;51,52,60,59;,
  4;52,53,61,60;,
  4;53,54,62,61;,
  4;54,55,63,62;,
  4;55,56,64,63;,
  4;56,57,65,64;,
  4;57,58,66,65;,
  4;58,51,59,66;,
  3;59,60,67;,
  3;60,61,67;,
  3;61,62,67;,
  3;62,63,67;,
  3;63,64,67;,
  3;64,65,67;,
  3;65,66,67;,
  3;66,59,67;,
  3;68,70,69;,
  3;68,71,70;,
  3;68,72,71;,
  3;68,73,72;,
  3;68,74,73;,
  3;68,75,74;,
  3;68,76,75;,
  3;68,69,76;,
  4;69,70,78,77;,
  4;70,71,79,78;,
  4;71,72,80,79;,
  4;72,73,81,80;,
  4;73,74,82,81;,
  4;74,75,83,82;,
  4;75,76,84,83;,
  4;76,69,77,84;,
  4;77,78,86,85;,
  4;78,79,87,86;,
  4;79,80,88,87;,
  4;80,81,89,88;,
  4;81,82,90,89;,
  4;82,83,91,90;,
  4;83,84,92,91;,
  4;84,77,85,92;,
  4;85,86,94,93;,
  4;86,87,95,94;,
  4;87,88,96,95;,
  4;88,89,97,96;,
  4;89,90,98,97;,
  4;90,91,99,98;,
  4;91,92,100,99;,
  4;92,85,93,100;,
  4;93,94,102,101;,
  4;94,95,103,102;,
  4;95,96,104,103;,
  4;96,97,105,104;,
  4;97,98,106,105;,
  4;98,99,107,106;,
  4;99,100,108,107;,
  4;100,93,101,108;,
  4;101,102,110,109;,
  4;102,103,111,110;,
  4;103,104,112,111;,
  4;104,105,113,112;,
  4;105,106,114,113;,
  4;106,107,115,114;,
  4;107,108,116,115;,
  4;108,101,109,116;,
  4;109,110,118,117;,
  4;110,111,119,118;,
  4;111,112,120,119;,
  4;112,113,121,120;,
  4;113,114,122,121;,
  4;114,115,123,122;,
  4;115,116,124,123;,
  4;116,109,117,124;,
  3;117,118,125;,
  3;118,119,125;,
  3;119,120,125;,
  3;120,121,125;,
  3;121,122,125;,
  3;122,123,125;,
  3;123,124,125;,
  3;124,117,125;,
  3;126,128,127;,
  3;126,129,128;,
  3;126,130,129;,
  3;126,131,130;,
  3;126,132,131;,
  3;126,133,132;,
  3;126,134,133;,
  3;126,127,134;,
  4;127,128,136,135;,
  4;128,129,137,136;,
  4;129,130,138,137;,
  4;130,131,139,138;,
  4;131,132,140,139;,
  4;132,133,141,140;,
  4;133,134,142,141;,
  4;134,127,135,142;,
  4;135,136,144,143;,
  4;136,137,145,144;,
  4;137,138,146,145;,
  4;138,139,147,146;,
  4;139,140,148,147;,
  4;140,141,149,148;,
  4;141,142,150,149;,
  4;142,135,143,150;,
  4;143,144,152,151;,
  4;144,145,153,152;,
  4;145,146,154,153;,
  4;146,147,155,154;,
  4;147,148,156,155;,
  4;148,149,157,156;,
  4;149,150,158,157;,
  4;150,143,151,158;,
  4;151,152,160,159;,
  4;152,153,161,160;,
  4;153,154,162,161;,
  4;154,155,163,162;,
  4;155,156,164,163;,
  4;156,157,165,164;,
  4;157,158,166,165;,
  4;158,151,159,166;,
  4;159,160,168,167;,
  4;160,161,169,168;,
  4;161,162,170,169;,
  4;162,163,171,170;,
  4;163,164,172,171;,
  4;164,165,173,172;,
  4;165,166,174,173;,
  4;166,159,167,174;,
  4;167,168,176,175;,
  4;168,169,177,176;,
  4;169,170,178,177;,
  4;170,171,179,178;,
  4;171,172,180,179;,
  4;172,173,181,180;,
  4;173,174,182,181;,
  4;174,167,175,182;,
  3;175,176,183;,
  3;176,177,183;,
  3;177,178,183;,
  3;178,179,183;,
  3;179,180,183;,
  3;180,181,183;,
  3;181,182,183;,
  3;182,175,183;,
  3;184,186,185;,
  3;184,187,186;,
  3;184,188,187;,
  3;184,189,188;,
  3;184,190,189;,
  3;184,191,190;,
  3;184,192,191;,
  3;184,185,192;,
  4;185,186,194,193;,
  4;186,187,195,194;,
  4;187,188,196,195;,
  4;188,189,197,196;,
  4;189,190,198,197;,
  4;190,191,199,198;,
  4;191,192,200,199;,
  4;192,185,193,200;,
  4;193,194,202,201;,
  4;194,195,203,202;,
  4;195,196,204,203;,
  4;196,197,205,204;,
  4;197,198,206,205;,
  4;198,199,207,206;,
  4;199,200,208,207;,
  4;200,193,201,208;,
  4;201,202,210,209;,
  4;202,203,211,210;,
  4;203,204,212,211;,
  4;204,205,213,212;,
  4;205,206,214,213;,
  4;206,207,215,214;,
  4;207,208,216,215;,
  4;208,201,209,216;,
  4;209,210,218,217;,
  4;210,211,219,218;,
  4;211,212,220,219;,
  4;212,213,221,220;,
  4;213,214,222,221;,
  4;214,215,223,222;,
  4;215,216,224,223;,
  4;216,209,217,224;,
  4;217,218,226,225;,
  4;218,219,227,226;,
  4;219,220,228,227;,
  4;220,221,229,228;,
  4;221,222,230,229;,
  4;222,223,231,230;,
  4;223,224,232,231;,
  4;224,217,225,232;,
  4;225,226,234,233;,
  4;226,227,235,234;,
  4;227,228,236,235;,
  4;228,229,237,236;,
  4;229,230,238,237;,
  4;230,231,239,238;,
  4;231,232,240,239;,
  4;232,225,233,240;,
  3;233,234,241;,
  3;234,235,241;,
  3;235,236,241;,
  3;236,237,241;,
  3;237,238,241;,
  3;238,239,241;,
  3;239,240,241;,
  3;240,233,241;,
  4;242,243,251,250;,
  4;243,244,252,251;,
  4;244,245,253,252;,
  4;245,246,254,253;,
  4;246,247,255,254;,
  4;247,248,256,255;,
  4;248,249,257,256;,
  4;249,242,250,257;,
  4;250,251,259,258;,
  4;251,252,260,259;,
  4;252,253,261,260;,
  4;253,254,262,261;,
  4;254,255,263,262;,
  4;255,256,264,263;,
  4;256,257,265,264;,
  4;257,250,258,265;,
  4;258,259,267,266;,
  4;259,260,268,267;,
  4;260,261,269,268;,
  4;261,262,270,269;,
  4;262,263,271,270;,
  4;263,264,272,271;,
  4;264,265,273,272;,
  4;265,258,266,273;,
  4;266,267,275,274;,
  4;267,268,276,275;,
  4;268,269,277,276;,
  4;269,270,278,277;,
  4;270,271,279,278;,
  4;271,272,280,279;,
  4;272,273,281,280;,
  4;273,266,274,281;,
  4;274,275,283,282;,
  4;275,276,284,283;,
  4;276,277,285,284;,
  4;277,278,286,285;,
  4;278,279,287,286;,
  4;279,280,288,287;,
  4;280,281,289,288;,
  4;281,274,282,289;,
  4;282,283,291,290;,
  4;283,284,292,291;,
  4;284,285,293,292;,
  4;285,286,294,293;,
  4;286,287,295,294;,
  4;287,288,296,295;,
  4;288,289,297,296;,
  4;289,282,290,297;,
  4;290,291,299,298;,
  4;291,292,300,299;,
  4;292,293,301,300;,
  4;293,294,302,301;,
  4;294,295,303,302;,
  4;295,296,304,303;,
  4;296,297,305,304;,
  4;297,290,298,305;,
  4;298,299,243,242;,
  4;299,300,244,243;,
  4;300,301,245,244;,
  4;301,302,246,245;,
  4;302,303,247,246;,
  4;303,304,248,247;,
  4;304,305,249,248;,
  4;305,298,242,249;;
 }
}
