xof 0302txt 0064
template Header {
 <3D82AB43-62DA-11cf-AB39-0020AF71E433>
 WORD major;
 WORD minor;
 DWORD flags;
}

template Vector {
 <3D82AB5E-62DA-11cf-AB39-0020AF71E433>
 FLOAT x;
 FLOAT y;
 FLOAT z;
}

template Coords2d {
 <F6F23F44-7686-11cf-8F52-0040333594A3>
 FLOAT u;
 FLOAT v;
}

template Matrix4x4 {
 <F6F23F45-7686-11cf-8F52-0040333594A3>
 array FLOAT matrix[16];
}

template ColorRGBA {
 <35FF44E0-6C7C-11cf-8F52-0040333594A3>
 FLOAT red;
 FLOAT green;
 FLOAT blue;
 FLOAT alpha;
}

template ColorRGB {
 <D3E16E81-7835-11cf-8F52-0040333594A3>
 FLOAT red;
 FLOAT green;
 FLOAT blue;
}

template IndexedColor {
 <1630B820-7842-11cf-8F52-0040333594A3>
 DWORD index;
 ColorRGBA indexColor;
}

template Boolean {
 <4885AE61-78E8-11cf-8F52-0040333594A3>
 WORD truefalse;
}

template Boolean2d {
 <4885AE63-78E8-11cf-8F52-0040333594A3>
 Boolean u;
 Boolean v;
}

template MaterialWrap {
 <4885AE60-78E8-11cf-8F52-0040333594A3>
 Boolean u;
 Boolean v;
}

template TextureFilename {
 <A42790E1-7810-11cf-8F52-0040333594A3>
 STRING filename;
}

template Material {
 <3D82AB4D-62DA-11cf-AB39-0020AF71E433>
 ColorRGBA faceColor;
 FLOAT power;
 ColorRGB specularColor;
 ColorRGB emissiveColor;
 [...]
}

template MeshFace {
 <3D82AB5F-62DA-11cf-AB39-0020AF71E433>
 DWORD nFaceVertexIndices;
 array DWORD faceVertexIndices[nFaceVertexIndices];
}

template MeshFaceWraps {
 <4885AE62-78E8-11cf-8F52-0040333594A3>
 DWORD nFaceWrapValues;
 Boolean2d faceWrapValues;
}

template MeshTextureCoords {
 <F6F23F40-7686-11cf-8F52-0040333594A3>
 DWORD nTextureCoords;
 array Coords2d textureCoords[nTextureCoords];
}

template MeshMaterialList {
 <F6F23F42-7686-11cf-8F52-0040333594A3>
 DWORD nMaterials;
 DWORD nFaceIndexes;
 array DWORD faceIndexes[nFaceIndexes];
 [Material]
}

template MeshNormals {
 <F6F23F43-7686-11cf-8F52-0040333594A3>
 DWORD nNormals;
 array Vector normals[nNormals];
 DWORD nFaceNormals;
 array MeshFace faceNormals[nFaceNormals];
}

template MeshVertexColors {
 <1630B821-7842-11cf-8F52-0040333594A3>
 DWORD nVertexColors;
 array IndexedColor vertexColors[nVertexColors];
}

template Mesh {
 <3D82AB44-62DA-11cf-AB39-0020AF71E433>
 DWORD nVertices;
 array Vector vertices[nVertices];
 DWORD nFaces;
 array MeshFace faces[nFaces];
 [...]
}

Header{
1;
0;
1;
}

Mesh {
 790;
 504.57699;318.04154;-2322.03173;,
 524.20406;318.04154;-2322.03173;,
 524.20406;6.38511;-2322.03173;,
 504.57699;6.38511;-2322.03173;,
 524.20406;318.04154;-2302.40136;,
 524.20406;6.38511;-2302.40136;,
 504.57699;318.04154;-2302.40136;,
 504.57699;6.38511;-2302.40136;,
 112.96760;318.04154;-2322.03173;,
 112.96760;6.38511;-2322.03173;,
 93.34091;6.38511;-2322.03173;,
 93.34091;318.04154;-2322.03173;,
 93.34091;6.38511;-2302.40136;,
 93.34091;318.04154;-2302.40136;,
 112.96760;6.38511;-2302.40136;,
 112.96760;318.04154;-2302.40136;,
 94.88958;26.85601;-2312.21904;,
 522.65598;26.85601;-2312.21904;,
 522.65598;1.54548;-2312.21904;,
 94.88958;1.54548;-2312.21904;,
 522.65598;26.85601;-1962.66658;,
 522.65598;1.54548;-1962.66658;,
 94.88958;26.85601;-1962.66658;,
 94.88958;1.54548;-1962.66658;,
 79.16628;295.08033;-2149.27216;,
 106.58039;295.08033;-2149.27216;,
 106.58039;0.62490;-2149.27216;,
 79.16628;0.62490;-2149.27216;,
 106.58039;295.08033;-1981.67850;,
 106.58039;0.62490;-1981.67850;,
 79.16628;295.08033;-1981.67850;,
 79.16628;0.62490;-1981.67850;,
 538.37873;295.08033;-2149.27216;,
 538.37873;0.62490;-2149.27216;,
 510.96469;0.62490;-2149.27216;,
 510.96469;295.08033;-2149.27216;,
 510.96469;0.62490;-1981.67850;,
 510.96469;295.08033;-1981.67850;,
 538.37873;0.62490;-1981.67850;,
 538.37873;295.08033;-1981.67850;,
 103.15432;298.04730;-1985.35057;,
 103.15432;298.04730;-1960.54227;,
 103.15432;-2.34075;-1960.54227;,
 103.15432;-2.34075;-1985.35057;,
 -628.41624;298.04730;-1960.54227;,
 -628.41624;298.04730;-1985.35057;,
 -628.41624;-2.34075;-1985.35057;,
 -628.41624;-2.34075;-1960.54227;,
 514.39089;298.04730;-1985.35057;,
 514.39089;-2.34075;-1985.35057;,
 514.39089;-2.34075;-1960.54227;,
 514.39089;298.04730;-1960.54227;,
 1289.04116;298.04730;-1960.54227;,
 1289.04116;-2.34075;-1960.54227;,
 1289.04116;-2.34075;-1985.35057;,
 1289.04116;298.04730;-1985.35057;,
 -608.30452;298.04730;-1960.54227;,
 -608.30452;298.04730;-1985.35057;,
 -608.30452;-2.34075;-1960.54227;,
 -608.30452;-2.34075;-1985.35057;,
 -607.44978;-2.34075;-2174.17684;,
 -607.44978;298.04730;-2174.17684;,
 -627.56091;-2.34075;-2174.17684;,
 -627.56091;298.04730;-2174.17684;,
 -923.70216;298.81810;-2168.71766;,
 -898.38995;298.81810;-2168.71766;,
 -898.38995;-3.24155;-2168.71766;,
 -923.70216;-3.24155;-2168.71766;,
 -898.38995;298.81810;-1958.81111;,
 -923.70216;298.81810;-1958.81111;,
 -923.70216;-3.24155;-1958.81111;,
 -898.38995;-3.24155;-1958.81111;,
 -923.70216;298.81810;-1985.34031;,
 -898.38995;298.81810;-1985.34031;,
 -923.70216;-3.24155;-1985.34031;,
 -898.38995;-3.24155;-1985.34031;,
 -1593.22199;298.81810;-1985.34031;,
 -1593.22199;-3.24155;-1985.34031;,
 -1593.22199;-3.24155;-1958.81111;,
 -1593.22199;298.81810;-1958.81111;,
 1273.58853;298.04730;-1985.35057;,
 1216.14746;298.04730;-1960.54227;,
 1273.58853;-2.34075;-1985.35057;,
 1216.14746;-2.34075;-1960.54227;,
 1216.14746;298.04730;1438.17545;,
 1216.14746;-2.34075;1438.17545;,
 1289.04116;-2.34075;1438.17545;,
 1289.04116;298.04730;1438.17545;,
 -1456.80973;298.81810;-1985.34031;,
 -1456.80973;298.81810;-1958.81111;,
 -1456.80973;-3.24155;-1985.34031;,
 -1456.80973;-3.24155;-1958.81111;,
 -1593.22199;298.81810;-1844.81580;,
 -1456.80973;298.81810;-1844.81580;,
 -1593.22199;-3.24155;-1844.81580;,
 -1456.80973;-3.24155;-1844.81580;,
 1244.86748;500.67497;-1960.54227;,
 1273.58853;511.37053;-1985.35057;,
 1289.04116;511.37053;-1985.35057;,
 1289.04116;511.37053;-1960.54227;,
 1289.04116;511.37053;-732.51807;,
 1244.86748;500.67497;-732.51807;,
 1244.86748;298.04730;-732.51807;,
 1289.04116;298.04730;-748.67881;,
 1244.86748;529.39455;-1822.84138;,
 1289.04116;540.09077;-1822.84138;,
 1244.86748;298.04730;-1803.04021;,
 1289.04116;298.04730;-1803.04021;,
 1244.86748;529.39455;-920.65331;,
 1289.04116;540.09077;-920.65331;,
 1244.86748;298.04730;-940.45419;,
 1289.04116;298.04730;-940.45419;,
 1238.59663;777.14681;-1186.09165;,
 1194.42236;766.45052;-1186.09165;,
 1238.59663;777.14681;-1557.40260;,
 1194.42236;766.45052;-1557.40260;,
 1195.42080;998.54389;-1330.98726;,
 1151.24587;987.84804;-1330.98726;,
 1195.42080;998.54389;-1412.50611;,
 1151.24587;987.84804;-1412.50611;,
 1289.04116;-2.34075;-748.67881;,
 1216.14746;298.04730;-748.67881;,
 1216.14746;-2.34075;-748.67881;,
 1244.86748;400.35719;-748.67881;,
 1289.04116;400.35719;-748.67881;,
 1216.14746;400.35719;1438.17545;,
 1289.04116;400.35719;1438.17545;,
 112.96760;318.04154;-2322.03173;,
 112.96760;6.38511;-2322.03173;,
 93.34091;6.38511;-2322.03173;,
 93.34091;318.04154;-2322.03173;,
 93.34091;6.38511;-2302.40136;,
 93.34091;318.04154;-2302.40136;,
 112.96760;6.38511;-2302.40136;,
 112.96760;318.04154;-2302.40136;,
 -16.27359;303.68190;-2494.35244;,
 -16.27359;6.38511;-2494.35244;,
 -35.90017;6.38511;-2494.35244;,
 -35.90017;303.68190;-2494.35244;,
 -35.90017;6.38511;-2474.72441;,
 -35.90017;303.68190;-2474.72441;,
 -16.27359;6.38511;-2474.72441;,
 -16.27359;303.68190;-2474.72441;,
 633.81829;303.68190;-2494.35244;,
 653.44507;303.68190;-2494.35244;,
 653.44507;6.38511;-2494.35244;,
 633.81829;6.38511;-2494.35244;,
 653.44507;303.68190;-2474.72441;,
 653.44507;6.38511;-2474.72441;,
 633.81829;303.68190;-2474.72441;,
 633.81829;6.38511;-2474.72441;,
 90.20873;316.65719;-2538.00098;,
 540.67876;316.65719;-2538.00098;,
 540.67876;294.97172;-2538.00098;,
 90.20873;294.97172;-2538.00098;,
 743.30606;316.65719;-1963.83201;,
 743.30606;294.97172;-1963.83201;,
 743.30606;294.97172;-2370.29980;,
 743.30606;316.65719;-2370.29980;,
 540.67876;309.33209;-1960.64598;,
 540.67876;388.45768;-1957.47928;,
 540.67876;388.45768;-2250.79609;,
 540.67876;309.33209;-2250.79609;,
 -125.76116;294.97172;-1963.83201;,
 -125.76116;316.65719;-1963.83201;,
 -125.76116;316.65719;-2370.29980;,
 -125.76116;294.97172;-2370.29980;,
 90.20873;388.45768;-1960.64598;,
 90.20873;309.33209;-1957.47928;,
 90.20873;309.33209;-2250.79609;,
 90.20873;388.45768;-2250.79609;,
 90.20873;333.42702;-2370.29980;,
 540.67876;333.42702;-2370.29980;,
 -125.76116;316.65719;-2538.00098;,
 -125.76116;294.97172;-2538.00098;,
 743.30606;294.97172;-2538.00098;,
 743.30606;316.65719;-2538.00098;,
 90.20873;303.35641;-2370.29980;,
 540.67876;303.35641;-2370.29980;,
 15.70981;335.47069;-2250.79609;,
 15.70981;327.64205;-2370.29980;,
 15.70981;335.47069;-1956.47527;,
 615.64990;327.22186;-2370.29980;,
 615.64990;334.75072;-2250.79609;,
 615.64990;334.75072;-1956.47527;,
 -901.86149;24.90637;-1879.74734;,
 -614.65974;24.90637;-1879.74734;,
 -614.65974;24.90637;-2166.94930;,
 -901.86149;24.90637;-2166.94930;,
 -901.86149;-2.92119;-2166.94930;,
 -614.65974;-2.92119;-2166.94930;,
 -614.65974;-2.92119;-1879.74734;,
 -901.86149;-2.92119;-1879.74734;,
 -901.86149;11.33782;-2166.94930;,
 -614.65974;11.33782;-2166.94930;,
 -901.86149;11.33782;-1879.74734;,
 -614.65974;11.33782;-1879.74734;,
 -614.65974;11.33782;-2237.92655;,
 -901.86149;11.33782;-2237.92655;,
 -614.65974;-2.92119;-2237.92655;,
 -901.86149;-2.92119;-2237.92655;,
 52.66560;502.04050;-1925.90984;,
 564.87933;502.04050;-1925.90984;,
 564.87933;502.04050;-2259.46620;,
 52.66560;502.04050;-2259.46620;,
 88.25677;357.64074;-2236.28769;,
 529.28861;357.64074;-2236.28769;,
 529.28861;357.64074;-1949.08514;,
 88.25677;357.64074;-1949.08514;,
 88.25677;461.76096;-2236.28769;,
 529.28861;461.76096;-2236.28769;,
 88.25677;461.76096;-1949.08514;,
 529.28861;461.76096;-1949.08514;,
 766.52420;518.45246;-1517.49147;,
 766.52420;485.55236;-1517.49147;,
 776.19429;485.55236;-2376.02998;,
 776.19429;528.05407;-2376.02998;,
 -145.91910;485.55236;-1516.92340;,
 -145.91910;518.45246;-1516.92340;,
 -154.02320;528.05407;-2376.02998;,
 -154.02320;485.55236;-2376.02998;,
 307.63104;647.86672;-1518.42985;,
 551.20761;647.86672;-1518.42985;,
 551.20761;647.86672;-2004.48026;,
 307.63104;647.86672;-2004.48026;,
 66.33772;647.86672;-2004.48026;,
 66.33772;647.86672;-1518.42985;,
 -22.08620;493.12341;-1517.80289;,
 307.63104;498.53000;-1518.42985;,
 640.90557;493.12341;-1518.03903;,
 308.89641;509.39145;-2376.02998;,
 308.89641;485.55236;-2376.02998;,
 308.15802;539.63645;-2180.30282;,
 644.93506;493.12341;-2118.72079;,
 -25.46223;493.12341;-2118.72079;,
 308.15802;493.12341;-2118.72079;,
 -943.62828;317.02889;-2445.92266;,
 -611.32458;317.02889;-2445.92266;,
 -604.56082;295.66591;-2445.92266;,
 -950.39205;295.66591;-2445.92266;,
 -449.00143;317.02889;-1968.51189;,
 -449.00143;295.66591;-1968.51189;,
 -449.00143;295.66591;-2306.48154;,
 -449.00143;317.02889;-2306.48154;,
 -604.56082;309.81285;-1965.86199;,
 -604.56082;387.76335;-1963.22850;,
 -604.56082;387.76335;-2207.11620;,
 -604.56082;309.81285;-2207.11620;,
 -1116.19458;295.66591;-1968.51189;,
 -1116.19458;317.02889;-1968.51189;,
 -1116.19458;317.02889;-2306.48154;,
 -1116.19458;295.66591;-2306.48154;,
 -950.39205;387.76335;-1965.86199;,
 -950.39205;309.81285;-1963.22850;,
 -950.39205;309.81285;-2207.11620;,
 -950.39205;387.76335;-2207.11620;,
 -950.39205;333.55014;-2306.48154;,
 -604.56082;333.55014;-2306.48154;,
 -1116.19458;317.02889;-2445.92266;,
 -1116.19458;295.66591;-2445.92266;,
 -449.00143;295.66591;-2445.92266;,
 -449.00143;317.02889;-2445.92266;,
 -950.39205;303.92587;-2306.48154;,
 -604.56082;303.92587;-2306.48154;,
 -1007.58461;335.56276;-2207.11620;,
 -1007.58461;327.85131;-2306.48154;,
 -1007.58461;335.56276;-1962.39061;,
 -547.00505;327.43712;-2306.48154;,
 -547.00505;334.85451;-2207.11620;,
 -547.00505;334.85451;-1962.39061;,
 -929.87201;551.80996;-2182.67030;,
 -893.80624;551.80996;-2182.67030;,
 -893.80624;-11.98206;-2182.67030;,
 -929.87201;-11.98206;-2182.67030;,
 -893.80624;551.80996;-2146.60468;,
 -893.80624;-11.98206;-2146.60468;,
 -929.87201;551.80996;-2146.60468;,
 -929.87201;-11.98206;-2146.60468;,
 -628.30886;551.80996;-2182.67030;,
 -592.24353;551.80996;-2182.67030;,
 -592.24353;-11.98206;-2182.67030;,
 -628.30886;-11.98206;-2182.67030;,
 -592.24353;551.80996;-2146.60468;,
 -592.24353;-11.98206;-2146.60468;,
 -628.30886;551.80996;-2146.60468;,
 -628.30886;-11.98206;-2146.60468;,
 -521.09541;303.63085;-2391.37920;,
 -498.41523;303.63085;-2391.37920;,
 -498.41523;-36.64666;-2391.37920;,
 -521.09541;-36.64666;-2391.37920;,
 -498.41523;303.63085;-2368.69726;,
 -498.41523;-36.64666;-2368.69726;,
 -521.09541;303.63085;-2368.69726;,
 -521.09541;-36.64666;-2368.69726;,
 -1066.77983;303.63085;-2391.37920;,
 -1044.09994;303.63085;-2391.37920;,
 -1044.09994;-36.64666;-2391.37920;,
 -1066.77983;-36.64666;-2391.37920;,
 -1044.09994;303.63085;-2368.69726;,
 -1044.09994;-36.64666;-2368.69726;,
 -1066.77983;303.63085;-2368.69726;,
 -1066.77983;-36.64666;-2368.69726;,
 -926.90197;492.25930;-2175.64374;,
 -609.57351;492.25930;-2175.64374;,
 -609.57351;464.01242;-2175.64374;,
 -926.90197;464.01242;-2175.64374;,
 -609.57351;492.25930;-2153.63094;,
 -609.57351;464.01242;-2153.63094;,
 -926.90197;492.25930;-2153.63094;,
 -926.90197;464.01242;-2153.63094;,
 -761.28790;643.75183;-1934.87498;,
 -1058.35522;543.23147;-1934.87498;,
 -1058.35522;499.20134;-1934.87498;,
 -761.28790;599.72244;-1934.87498;,
 -478.12136;499.20134;-1934.87498;,
 -478.12136;543.23147;-1934.87498;,
 -761.28790;615.03196;-2236.43739;,
 -478.12136;514.51115;-2236.43739;,
 -478.12136;470.48117;-2236.43739;,
 -761.28790;571.00190;-2236.43739;,
 -1058.35522;470.48117;-2236.43739;,
 -1058.35522;514.51115;-2236.43739;,
 -1058.35522;543.23147;-2137.47050;,
 -761.28790;643.75183;-2137.47050;,
 -1058.35522;499.20134;-2137.47050;,
 -478.12136;543.23147;-2137.47050;,
 -761.28790;599.72244;-2137.47050;,
 -478.12136;499.20134;-2137.47050;,
 -1653.16486;319.94679;-2104.42215;,
 1295.59693;319.94679;-2104.42215;,
 1295.59693;289.04737;-2104.42215;,
 -1653.16486;289.04737;-2104.42215;,
 1291.10088;363.25512;-1967.95730;,
 -1653.16486;367.91288;-1941.77146;,
 -1653.16486;337.01281;-1941.77146;,
 1295.59693;337.01281;-1941.77146;,
 -1653.16486;319.94679;-2028.67215;,
 1295.59693;319.94679;-2028.67215;,
 -1653.16486;289.04737;-2028.67215;,
 1295.59693;289.04737;-2028.67215;,
 308.99342;897.96991;-2131.68348;,
 404.64779;805.41229;-2131.68348;,
 404.64779;757.00667;-2131.68348;,
 308.99342;849.56400;-2131.68348;,
 212.89745;757.00667;-2131.68348;,
 212.89745;805.41229;-2131.68348;,
 212.89745;805.41229;-1522.66354;,
 308.99342;897.96991;-1522.66354;,
 404.64779;805.41229;-1522.66354;,
 404.64779;757.00667;-1522.66354;,
 308.99342;849.56400;-1522.66354;,
 212.89745;757.00667;-1522.66354;,
 613.22354;662.75488;-1522.66354;,
 613.22354;662.75488;-2131.68348;,
 613.22354;614.34978;-1522.66354;,
 613.22354;614.34978;-2131.68348;,
 4.32153;662.75488;-2131.68348;,
 4.32153;662.75488;-1522.66354;,
 4.32153;614.34978;-2131.68348;,
 4.32153;614.34978;-1522.66354;,
 -1473.60445;500.70017;-1944.70730;,
 1263.22988;500.70017;-1944.70730;,
 1263.22988;320.59945;-1944.70730;,
 -1473.60445;320.59945;-1944.70730;,
 1263.22988;500.70017;-1891.22234;,
 1263.22988;320.59945;-1891.22234;,
 -1473.60445;500.70017;-1891.22234;,
 -1473.60445;320.59945;-1891.22234;,
 1344.84454;319.94679;-2014.31112;,
 1344.84454;289.04737;-2014.31112;,
 1416.64517;289.04737;-2104.42215;,
 1416.64517;319.94679;-2104.42215;,
 -1476.61778;528.85051;-2030.05584;,
 1345.69795;528.85051;-2030.05584;,
 1345.69795;473.46550;-2030.05584;,
 -1476.61778;473.46550;-2030.05584;,
 1345.69795;587.08296;-1801.39460;,
 1345.69795;531.69846;-1801.39460;,
 -1476.61778;587.08296;-1801.39460;,
 -1476.61778;531.69846;-1801.39460;,
 -1476.61778;813.51082;-1537.10045;,
 1345.69795;813.51082;-1537.10045;,
 -1476.61778;758.12610;-1537.10045;,
 1345.69795;758.12610;-1537.10045;,
 -1476.61778;1098.07797;-1369.53990;,
 1345.69795;1098.07797;-1369.53990;,
 -1476.61778;999.14301;-1366.30831;,
 1345.69795;999.14301;-1369.53990;,
 -1476.61778;528.85051;-705.79002;,
 -1476.61778;473.46550;-705.79002;,
 1345.69795;473.46550;-705.79002;,
 1345.69795;528.85051;-705.79002;,
 1345.69795;531.69846;-934.45243;,
 1345.69795;587.08296;-934.45243;,
 -1476.61778;587.08296;-934.45243;,
 -1476.61778;531.69846;-934.45243;,
 -1476.61778;813.51082;-1198.74702;,
 1345.69795;813.51082;-1198.74702;,
 -1476.61778;758.12610;-1198.74702;,
 1345.69795;758.12610;-1198.74702;,
 -1454.77242;637.09507;-1632.49049;,
 -1454.77242;637.09507;-1058.01611;,
 -1454.77242;574.04211;-1083.98618;,
 -1454.77242;587.71511;-1606.52057;,
 -1741.97746;493.93757;-700.82420;,
 -1741.97746;488.71188;-2030.42030;,
 -1741.97746;457.75402;-2030.42030;,
 -1741.97746;462.98088;-700.82420;,
 -1487.83482;527.32985;-2030.33299;,
 -1487.83482;477.94997;-2030.33299;,
 -1430.26280;473.12448;-703.29275;,
 -1430.26280;521.21941;-703.29275;,
 -1653.16486;367.91288;-1941.77146;,
 -1460.45675;368.38976;-1944.92234;,
 -1458.93551;338.51991;-1941.55408;,
 -1653.16486;337.01281;-1941.77146;,
 -1458.93551;328.49269;-1749.71052;,
 -1646.22135;328.49269;-1749.71052;,
 -1646.22135;298.94862;-1749.71052;,
 -1458.93551;298.94862;-1749.71052;,
 -1646.22135;328.49269;-1843.11921;,
 -1646.22135;298.94862;-1843.11921;,
 -1458.93551;328.49269;-1843.11921;,
 -1458.93551;298.94862;-1843.11921;,
 -1442.44224;483.31950;-771.70264;,
 -1415.16612;483.31950;-771.70264;,
 -1415.16612;483.31950;-1906.15554;,
 -1442.44224;483.31950;-1906.15554;,
 -1442.44224;314.99086;-1906.15554;,
 -1415.16612;314.99086;-1906.15554;,
 -1415.16612;314.99086;-872.22381;,
 -1442.44224;314.99086;-771.70264;,
 -1415.16612;334.38517;-771.70264;,
 -1442.44224;334.38517;-771.70264;,
 -1415.16612;334.38517;-1906.15554;,
 -1442.44224;334.38517;-1906.15554;,
 -1523.06813;334.38517;-1906.15554;,
 -1523.06813;334.38517;-771.70264;,
 -1523.06813;314.99086;-1906.15554;,
 -1523.06813;314.99086;-771.70264;,
 -1681.76242;291.22611;1742.08132;,
 -1681.76301;291.22611;-1882.31257;,
 -1681.76301;260.32684;-1882.31257;,
 -1681.76242;260.32684;1742.08132;,
 -1519.11320;339.19235;-1882.31257;,
 -1519.11217;339.19235;1742.08132;,
 -1519.11217;308.29227;1742.08132;,
 -1519.11320;308.29227;-1882.31257;,
 -1606.01271;291.22611;1742.08249;,
 -1606.01271;291.22611;-1882.31316;,
 -1606.01271;260.32684;1742.08249;,
 -1606.01271;260.32684;-1882.31316;,
 -1647.41403;40.54365;-1848.71169;,
 -1439.95597;40.54365;-1848.71169;,
 -1439.95597;25.40017;-1848.71169;,
 -1647.41403;25.40017;-1848.71169;,
 -1439.95597;40.54365;1568.99830;,
 -1439.95597;25.40017;1568.99830;,
 -1647.41403;40.54365;1568.99830;,
 -1647.41403;25.40017;1568.99830;,
 -1471.27301;334.53473;-1949.23396;,
 -1415.05421;334.53473;-1949.23396;,
 -1415.05421;18.61216;-1949.23396;,
 -1471.27301;18.61216;-1949.23396;,
 -1415.05421;334.53473;1525.91813;,
 -1415.05421;18.61216;1525.91813;,
 -1471.27301;334.53473;1525.91813;,
 -1471.27301;18.61216;1525.91813;,
 -1586.76510;427.59516;-742.98189;,
 -1299.56270;470.67556;-742.98189;,
 -1299.56270;428.15612;-742.98189;,
 -1586.76510;385.07565;-742.98189;,
 -1299.56270;470.67556;1612.07877;,
 -1586.76510;427.59516;1612.07877;,
 -1586.76510;385.07565;1612.07877;,
 -1299.56270;428.15612;1612.07877;,
 -1026.55976;585.55637;1612.07877;,
 -1026.55976;585.55637;-742.98189;,
 -1026.55976;543.03723;1612.07877;,
 -1026.55976;543.03723;-742.98189;,
 -123.62176;973.27973;1612.07877;,
 -123.62176;973.27973;-742.98189;,
 -123.62176;902.04144;1612.07877;,
 -123.62176;902.04144;-742.98189;,
 1342.70162;427.59516;-800.42274;,
 1342.70162;385.07565;-800.42274;,
 1055.50002;428.15612;-800.42274;,
 1055.50002;470.67556;-800.42274;,
 1055.50002;470.67556;1554.64166;,
 1055.50002;428.15612;1554.64166;,
 1342.70162;385.07565;1554.64166;,
 1342.70162;427.59516;1554.64166;,
 782.49671;585.55637;1554.64166;,
 782.49671;585.55637;-800.42274;,
 782.49671;543.03723;1554.64166;,
 782.49671;543.03723;-800.42274;,
 -1170.32085;456.87643;-810.77559;,
 -1026.55976;543.03723;-1112.33852;,
 -1170.32085;499.39572;-810.77559;,
 -1026.55976;585.55637;-1112.33852;,
 -125.76644;902.04144;-1112.27187;,
 -125.76644;973.27973;-1298.95376;,
 825.73751;298.35353;-868.21688;,
 780.35211;585.55637;-1169.71220;,
 825.73751;255.83475;-868.21688;,
 780.35211;543.03723;-1169.71220;,
 1408.63043;319.94679;1475.08072;,
 1408.63043;289.04737;1475.08072;,
 1408.63101;289.04737;-1959.95955;,
 1408.63101;319.94679;-1959.95955;,
 1275.39907;367.91288;-1959.95955;,
 1275.39907;337.01281;-1959.95955;,
 1275.39805;337.01281;1475.08072;,
 1275.39805;367.91288;1475.08072;,
 1346.58184;319.94679;1475.08189;,
 1346.58184;319.94679;-1959.96014;,
 1346.58184;289.04737;1475.08189;,
 1346.58184;289.04737;-1959.96014;,
 1344.84454;319.94679;-2014.31112;,
 1344.84454;289.04737;-2014.31112;,
 1416.64517;319.94679;-2104.42215;,
 1416.64517;289.04737;-2104.42215;,
 -1275.42647;1210.50342;-1422.04869;,
 1074.44440;1210.50342;-1422.04869;,
 1074.44440;880.21878;-1490.71119;,
 -1275.42647;880.21878;-1490.71119;,
 1074.44440;1210.50342;-1327.60845;,
 -1275.42647;1210.50342;-1327.60845;,
 -1275.42647;880.21878;-1258.94712;,
 1074.44440;880.21878;-1258.94712;,
 -1275.42647;1210.50342;-1372.66749;,
 -1275.42647;995.10048;-1372.66749;,
 1074.44440;1210.50342;-1372.66749;,
 1074.44440;995.10048;-1372.66749;,
 76.02451;1370.17388;-1406.53380;,
 426.63935;1370.17388;-1406.53380;,
 584.92971;747.66390;-1564.82467;,
 -82.26574;747.66390;-1564.82467;,
 426.63935;1370.17388;-1055.91992;,
 584.92971;747.66390;-897.62948;,
 76.02451;1370.17388;-1055.91992;,
 -82.26574;747.66390;-897.62948;,
 74.26687;1429.58180;-1054.16181;,
 428.39749;1429.58180;-1054.16181;,
 428.39749;1429.58180;-1408.29278;,
 74.26687;1429.58180;-1408.29278;,
 74.26687;1358.86558;-1408.29278;,
 428.39749;1358.86558;-1408.29278;,
 428.39749;1358.86558;-1054.16181;,
 74.26687;1358.86558;-1054.16181;,
 539.83728;1351.56978;-1519.73268;,
 -37.17316;1351.56978;-1519.73268;,
 -37.17316;1300.94112;-1519.73268;,
 539.83728;1300.94112;-1519.73268;,
 539.83728;1351.56978;-942.72162;,
 539.83728;1300.94112;-942.72162;,
 -37.17316;1351.56978;-942.72162;,
 -37.17316;1300.94112;-942.72162;,
 629.16353;1359.57603;-1609.05768;,
 -126.49915;1359.57603;-1609.05768;,
 -126.49915;1320.12163;-1609.05768;,
 629.16353;1320.12163;-1609.05768;,
 629.16353;1359.57603;-853.39515;,
 629.16353;1320.12163;-853.39515;,
 -126.49915;1359.57603;-853.39515;,
 -126.49915;1320.12163;-853.39515;,
 173.18757;1891.76170;-1153.08286;,
 329.47651;1891.76170;-1153.08286;,
 329.47651;1891.76170;-1309.37290;,
 173.18757;1891.76170;-1309.37290;,
 118.08208;1821.04402;-1364.47740;,
 384.58207;1821.04402;-1364.47740;,
 384.58207;1821.04402;-1097.97734;,
 118.08208;1821.04402;-1097.97734;,
 539.83728;1705.00217;-1519.73268;,
 -37.17316;1705.00217;-1519.73268;,
 -37.17316;1654.37321;-1519.73268;,
 539.83728;1654.37321;-1519.73268;,
 539.83728;1705.00217;-942.72162;,
 539.83728;1654.37321;-942.72162;,
 -37.17316;1705.00217;-942.72162;,
 -37.17316;1654.37321;-942.72162;,
 629.16353;1713.00783;-1609.05768;,
 -126.49915;1713.00783;-1609.05768;,
 -126.49915;1673.55417;-1609.05768;,
 629.16353;1673.55417;-1609.05768;,
 629.16353;1713.00783;-853.39515;,
 629.16353;1673.55417;-853.39515;,
 -126.49915;1713.00783;-853.39515;,
 -126.49915;1673.55417;-853.39515;,
 109.86339;1800.81658;-1372.69561;,
 392.80080;1800.81658;-1372.69561;,
 377.46846;1197.42266;-1357.36441;,
 125.19549;1197.42266;-1357.36441;,
 392.80080;1800.81658;-1089.75839;,
 377.46846;1197.42266;-1105.09121;,
 109.86339;1800.81658;-1089.75839;,
 125.19549;1197.42266;-1105.09121;,
 1221.57881;406.33500;1355.20025;,
 1221.57881;406.33500;1438.15377;,
 1221.57881;-77.38784;1438.15377;,
 1221.57881;-77.38784;1355.20025;,
 -1408.20064;420.69538;1438.15377;,
 -1408.20064;420.69538;1355.20025;,
 -1408.20064;-77.38784;1355.20025;,
 -1408.20064;-77.38784;1438.15377;,
 -1015.40248;557.38464;1438.15494;,
 -1015.40248;-77.38784;1438.15494;,
 -1015.40248;557.38464;1355.19966;,
 -1015.40248;-77.38784;1355.19966;,
 783.57293;-77.38784;1438.15377;,
 783.57293;543.02412;1438.15377;,
 783.57293;-77.38784;1355.20025;,
 783.57293;543.02412;1355.20025;,
 -119.01867;-77.38784;1438.15494;,
 -119.01867;932.10590;1438.15494;,
 -119.01867;-77.38784;1355.19966;,
 -119.01867;932.10590;1355.19966;,
 1227.82124;291.45411;-1808.20173;,
 1586.82399;291.45411;-1808.20173;,
 1586.82399;4.25061;-1808.20173;,
 1227.82124;4.25061;-1808.20173;,
 1586.82399;291.45411;-912.73246;,
 1227.82124;291.45411;-912.73246;,
 1227.82124;4.25061;-912.73246;,
 1586.82399;4.25061;-912.73246;,
 1586.82399;492.49631;-1356.21319;,
 1586.82399;4.25061;-1356.21319;,
 1227.82124;492.49631;-1356.21319;,
 1227.82124;4.25061;-1356.21319;,
 1189.06514;284.42220;-1845.39822;,
 1668.66291;284.42220;-1845.39822;,
 1668.66291;241.04547;-1845.39822;,
 1189.06514;241.04547;-1845.39822;,
 1668.66291;284.42220;-875.53905;,
 1189.06514;284.42220;-875.53905;,
 1189.06514;241.04547;-875.53905;,
 1668.66291;241.04547;-875.53905;,
 1668.66291;528.54480;-1353.29625;,
 1668.66291;485.16828;-1353.29625;,
 1189.06514;528.54480;-1353.29625;,
 1189.06514;485.16828;-1353.29625;,
 328.54004;716.27127;2717.34503;,
 -385.66679;426.21425;2717.34503;,
 -385.66679;-63.02842;2717.34503;,
 328.54004;-63.02842;2717.34503;,
 1003.21117;-63.02842;2717.34503;,
 1003.21117;426.21425;2717.34503;,
 328.54004;716.27127;1396.04244;,
 1003.21117;426.21425;1396.04244;,
 1003.21117;-63.02842;1396.04244;,
 328.54004;-63.02842;1396.04244;,
 -385.66679;-63.02842;1396.04244;,
 -385.66679;426.21425;1396.04244;,
 328.54004;716.27127;2035.83055;,
 1003.21117;426.21425;2035.83055;,
 -385.66679;426.21425;2035.83055;,
 1003.21117;-63.02842;2035.83055;,
 -385.66679;-63.02842;2035.83055;,
 328.54004;-63.02842;2035.83055;,
 1123.25769;408.72599;1403.10386;,
 1123.25769;408.72599;2791.97941;,
 1123.25769;357.07816;2791.97941;,
 1123.25769;357.07816;1403.10386;,
 -489.78664;408.72599;2791.97941;,
 -489.78664;408.72599;1403.10386;,
 -489.78664;357.07816;1403.10386;,
 -489.78664;357.07816;2791.97941;,
 335.62761;686.97937;2791.97941;,
 335.62761;738.62815;2791.97941;,
 335.62761;686.97937;1403.10386;,
 335.62761;738.62815;1403.10386;,
 327.52315;810.77142;2459.97842;,
 -243.29891;807.37313;2459.97842;,
 -243.29891;348.19975;2459.97842;,
 327.52315;348.19975;2459.97842;,
 860.84388;348.19975;2459.97842;,
 860.84388;807.37313;2459.97842;,
 327.52315;810.77142;1355.85181;,
 860.84388;807.37313;1355.85181;,
 860.84388;348.19975;1355.85181;,
 327.52315;348.19975;1355.85181;,
 -243.29891;348.19975;1355.85181;,
 -243.29891;807.37313;1355.85181;,
 327.52315;1124.10107;1874.62507;,
 -243.29891;810.77142;1874.62507;,
 860.84388;810.77142;1874.62507;,
 -243.29891;348.19975;1874.62507;,
 860.84388;348.19975;1874.62507;,
 327.52315;348.19975;1874.62507;,
 263.39942;1177.86582;1924.40926;,
 354.14536;1177.86582;1924.40926;,
 354.14536;1177.86582;1833.65720;,
 263.39942;1177.86582;1833.65720;,
 263.39942;1153.54341;1833.65720;,
 354.14536;1153.54341;1833.65720;,
 354.14536;1153.54341;1924.40926;,
 263.39942;1153.54341;1924.40926;,
 990.99540;773.75613;1196.80991;,
 -373.45006;773.75613;1196.80991;,
 -373.45006;728.61624;1196.80991;,
 990.99540;728.61624;1196.80991;,
 990.99540;773.75613;2561.25303;,
 990.99540;728.61624;2561.25303;,
 -373.45006;773.75613;2561.25303;,
 -373.45006;728.61624;2561.25303;,
 -1276.62442;852.44754;-1535.11442;,
 -1276.62442;1161.40244;-1351.87374;,
 -1276.62442;1095.43964;-1349.60528;,
 -1276.62442;786.48343;-1535.11442;,
 -1321.76651;1161.40244;-1351.87374;,
 -1321.76651;1095.43964;-1351.87374;,
 -1321.76651;852.44754;-1535.11442;,
 -1321.76651;786.48343;-1535.11442;,
 -1276.62442;592.58337;-1817.88640;,
 -1321.76651;592.58337;-1817.88640;,
 -1276.62442;540.97971;-1817.88640;,
 -1321.76651;540.97971;-1817.88640;,
 -1280.37046;869.87245;-1192.56787;,
 -1280.37046;806.24608;-1192.56787;,
 -1322.67779;806.24608;-1192.56787;,
 -1322.67779;869.87245;-1192.56787;,
 -1280.37046;625.42070;-927.54877;,
 -1322.67779;625.42070;-927.54877;,
 -1280.37046;576.15486;-927.54877;,
 -1322.67779;576.15486;-927.54877;,
 1107.15803;852.44754;-1185.82300;,
 1107.15803;786.48343;-1185.82300;,
 1107.15803;1095.43964;-1371.33155;,
 1107.15803;1161.40244;-1369.06338;,
 1062.01696;1095.43964;-1369.06338;,
 1062.01696;1161.40244;-1369.06338;,
 1062.01696;786.48343;-1185.82300;,
 1062.01696;852.44754;-1185.82300;,
 1107.15803;592.58337;-903.04882;,
 1062.01696;592.58337;-903.04882;,
 1107.15803;540.97971;-903.04882;,
 1062.01696;540.97971;-903.04882;,
 1103.41191;869.87245;-1528.36940;,
 1103.41191;806.24608;-1528.36940;,
 1061.10407;869.87245;-1528.36940;,
 1061.10407;806.24608;-1528.36940;,
 1103.41191;625.42070;-1793.39040;,
 1061.10407;625.42070;-1793.39040;,
 1103.41191;576.15486;-1793.39040;,
 1061.10407;576.15486;-1793.39040;,
 -1465.84210;693.53806;-1676.75632;,
 -1363.04537;693.53806;-1676.75632;,
 -1363.04537;406.33500;-1676.75632;,
 -1465.84210;406.33500;-1676.75632;,
 -1363.04537;693.53806;-1072.90141;,
 -1465.84210;693.53806;-1072.90141;,
 -1465.84210;406.33500;-1072.90141;,
 -1363.04537;406.33500;-1072.90141;,
 -1363.04537;794.05960;-1534.79303;,
 -1465.84210;794.05960;-1534.79303;,
 -1363.04537;406.33500;-1534.79303;,
 -1465.84210;406.33500;-1534.79303;,
 -1363.04537;794.05960;-1189.72563;,
 -1465.84210;794.05960;-1189.72563;,
 -1363.04537;406.33500;-1189.72563;,
 -1465.84210;406.33500;-1189.72563;,
 -1363.04537;1009.46020;-1356.69922;,
 -1465.84210;1009.46020;-1356.69922;,
 -1363.04537;406.33500;-1356.69922;,
 -1465.84210;406.33500;-1356.69922;,
 -1253.45835;435.76628;-728.62239;,
 -1202.06636;435.76628;-728.62239;,
 -1202.06636;290.74257;-728.62239;,
 -1253.45835;290.74257;-728.62239;,
 -1202.06636;435.76628;1339.23492;,
 -1202.06636;290.74257;1339.23492;,
 -1253.45835;435.76628;1339.23492;,
 -1253.45835;290.74257;1339.23492;,
 25.80082;360.84596;-1945.82850;,
 591.74416;360.84596;-1945.82850;,
 591.74416;-7.70046;-1945.82850;,
 25.80082;-7.70046;-1945.82850;,
 591.74416;360.84596;-1895.20056;,
 591.74416;-7.70046;-1895.20056;,
 25.80082;360.84596;-1895.20056;,
 25.80082;-7.70046;-1895.20056;,
 -993.76996;360.84596;-1945.82850;,
 -427.82536;360.84596;-1945.82850;,
 -427.82536;-7.70046;-1945.82850;,
 -993.76996;-7.70046;-1945.82850;,
 -427.82536;360.84596;-1895.20056;,
 -427.82536;-7.70046;-1895.20056;,
 -993.76996;360.84596;-1895.20056;,
 -993.76996;-7.70046;-1895.20056;;
 
 726;
 4;0,1,2,3;,
 4;1,4,5,2;,
 4;4,6,7,5;,
 4;6,0,3,7;,
 4;6,4,1,0;,
 4;3,2,5,7;,
 4;8,9,10,11;,
 4;11,10,12,13;,
 4;13,12,14,15;,
 4;15,14,9,8;,
 4;15,8,11,13;,
 4;9,14,12,10;,
 4;16,17,18,19;,
 4;17,20,21,18;,
 4;20,22,23,21;,
 4;22,16,19,23;,
 4;22,20,17,16;,
 4;19,18,21,23;,
 4;24,25,26,27;,
 4;25,28,29,26;,
 4;28,30,31,29;,
 4;30,24,27,31;,
 4;30,28,25,24;,
 4;27,26,29,31;,
 4;32,33,34,35;,
 4;35,34,36,37;,
 4;37,36,38,39;,
 4;39,38,33,32;,
 4;39,32,35,37;,
 4;33,38,36,34;,
 4;40,41,42,43;,
 4;44,45,46,47;,
 4;48,49,50,51;,
 4;52,53,54,55;,
 4;56,41,40,57;,
 4;56,57,45,44;,
 4;56,44,47,58;,
 4;56,58,42,41;,
 4;57,40,43,59;,
 4;58,47,46,59;,
 4;58,59,43,42;,
 4;60,61,57,59;,
 4;62,60,59,46;,
 4;63,62,46,45;,
 4;61,63,45,57;,
 4;61,60,62,63;,
 4;64,65,66,67;,
 4;68,69,70,71;,
 4;72,69,68,73;,
 4;72,73,65,64;,
 4;72,64,67,74;,
 4;73,68,71,75;,
 4;73,75,66,65;,
 4;74,67,66,75;,
 4;74,75,71,70;,
 4;76,77,78,79;,
 4;80,48,51,81;,
 4;80,55,54,82;,
 4;80,82,49,48;,
 4;81,51,50,83;,
 4;82,54,53,83;,
 4;82,83,50,49;,
 4;84,85,86,87;,
 4;88,76,79,89;,
 4;88,89,69,72;,
 4;88,72,74,90;,
 4;88,90,77,76;,
 4;89,91,70,69;,
 4;90,74,70,91;,
 4;90,91,78,77;,
 4;92,93,89,79;,
 4;94,92,79,78;,
 4;95,94,78,91;,
 4;93,95,91,89;,
 4;93,92,94,95;,
 4;96,97,80,81;,
 4;98,99,52,55;,
 4;97,98,55,80;,
 4;97,96,99,98;,
 4;100,101,102,103;,
 4;104,105,99,96;,
 4;104,96,81,106;,
 4;105,107,52,99;,
 4;106,81,52,107;,
 4;108,101,100,109;,
 4;108,104,106,110;,
 4;108,110,102,101;,
 4;109,100,103,111;,
 4;109,111,107,105;,
 4;110,106,107,111;,
 4;110,111,103,102;,
 4;112,113,108,109;,
 4;114,112,109,105;,
 4;115,114,105,104;,
 4;113,115,104,108;,
 4;116,117,113,112;,
 4;118,116,112,114;,
 4;119,118,114,115;,
 4;117,119,115,113;,
 4;117,116,118,119;,
 4;103,87,86,120;,
 4;103,120,53,52;,
 4;103,52,81,121;,
 4;120,86,85,122;,
 4;120,122,83,53;,
 4;121,81,83,122;,
 4;121,122,85,84;,
 4;123,124,103,121;,
 4;125,123,121,84;,
 4;126,125,84,87;,
 4;124,126,87,103;,
 4;124,123,125,126;,
 4;127,128,129,130;,
 4;130,129,131,132;,
 4;132,131,133,134;,
 4;134,133,128,127;,
 4;134,127,130,132;,
 4;128,133,131,129;,
 4;135,136,137,138;,
 4;138,137,139,140;,
 4;140,139,141,142;,
 4;142,141,136,135;,
 4;142,135,138,140;,
 4;136,141,139,137;,
 4;143,144,145,146;,
 4;144,147,148,145;,
 4;147,149,150,148;,
 4;149,143,146,150;,
 4;149,147,144,143;,
 4;146,145,148,150;,
 4;151,152,153,154;,
 4;155,156,157,158;,
 4;159,160,161,162;,
 4;163,164,165,166;,
 4;167,168,169,170;,
 4;171,170,161,172;,
 4;171,172,152,151;,
 4;165,173,174,166;,
 4;158,157,175,176;,
 4;177,154,153,178;,
 4;177,178,162,169;,
 4;179,170,171,180;,
 4;179,165,164,181;,
 4;179,181,167,170;,
 4;180,171,151,173;,
 4;181,164,163,168;,
 4;173,151,154,174;,
 4;168,163,166,169;,
 4;182,172,161,183;,
 4;182,176,152,172;,
 4;183,161,160,184;,
 4;183,184,155,158;,
 4;176,175,153,152;,
 4;184,159,156,155;,
 4;159,162,157,156;,
 3;178,153,175;,
 3;177,174,154;,
 3;159,184,160;,
 3;168,167,181;,
 3;176,182,158;,
 3;173,165,180;,
 3;174,177,166;,
 3;175,157,178;,
 3;165,179,180;,
 3;166,177,169;,
 3;158,182,183;,
 3;157,162,178;,
 4;168,167,170,169;,
 4;159,168,169,162;,
 4;160,159,162,161;,
 4;167,160,161,170;,
 4;167,168,159,160;,
 4;185,186,187,188;,
 4;189,190,191,192;,
 4;193,188,187,194;,
 4;193,189,192,195;,
 4;193,195,185,188;,
 4;194,187,186,196;,
 4;194,196,191,190;,
 4;195,192,191,196;,
 4;195,196,186,185;,
 4;197,198,193,194;,
 4;199,197,194,190;,
 4;200,199,190,189;,
 4;198,200,189,193;,
 4;198,197,199,200;,
 4;201,202,203,204;,
 4;205,206,207,208;,
 4;209,204,203,210;,
 4;209,210,206,205;,
 4;209,205,208,211;,
 4;209,211,201,204;,
 4;210,203,202,212;,
 4;210,212,207,206;,
 4;211,208,207,212;,
 4;211,212,202,201;,
 4;213,214,215,216;,
 4;217,218,219,220;,
 4;221,222,223,224;,
 4;221,224,225,226;,
 4;221,226,227,228;,
 4;221,228,229,222;,
 4;230,216,215,231;,
 4;230,231,220,219;,
 4;232,223,216,230;,
 4;232,230,219,225;,
 4;223,222,213,216;,
 4;225,219,218,226;,
 4;222,229,214,213;,
 4;226,218,217,227;,
 4;229,233,215,214;,
 4;227,217,220,234;,
 4;233,229,228,235;,
 4;233,235,231,215;,
 4;234,220,231,235;,
 4;234,235,228,227;,
 3;223,232,224;,
 3;225,224,232;,
 3;227,226,225;,
 3;227,225,226;,
 3;229,223,222;,
 3;229,222,223;,
 4;236,237,238,239;,
 4;240,241,242,243;,
 4;244,245,246,247;,
 4;248,249,250,251;,
 4;252,253,254,255;,
 4;256,255,246,257;,
 4;256,257,237,236;,
 4;250,258,259,251;,
 4;243,242,260,261;,
 4;262,239,238,263;,
 4;262,263,247,254;,
 4;264,255,256,265;,
 4;264,250,249,266;,
 4;264,266,252,255;,
 4;265,256,236,258;,
 4;266,249,248,253;,
 4;258,236,239,259;,
 4;253,248,251,254;,
 4;267,257,246,268;,
 4;267,261,237,257;,
 4;268,246,245,269;,
 4;268,269,240,243;,
 4;261,260,238,237;,
 4;269,244,241,240;,
 4;244,247,242,241;,
 3;263,238,260;,
 3;262,259,239;,
 3;244,269,245;,
 3;253,252,266;,
 3;261,267,243;,
 3;258,250,265;,
 3;259,262,251;,
 3;260,242,263;,
 3;250,264,265;,
 3;251,262,254;,
 3;243,267,268;,
 3;242,247,263;,
 4;253,252,255,254;,
 4;244,253,254,247;,
 4;245,244,247,246;,
 4;252,245,246,255;,
 4;252,253,244,245;,
 4;270,271,272,273;,
 4;271,274,275,272;,
 4;274,276,277,275;,
 4;276,270,273,277;,
 4;276,274,271,270;,
 4;273,272,275,277;,
 4;278,279,280,281;,
 4;279,282,283,280;,
 4;282,284,285,283;,
 4;284,278,281,285;,
 4;284,282,279,278;,
 4;281,280,283,285;,
 4;286,287,288,289;,
 4;287,290,291,288;,
 4;290,292,293,291;,
 4;292,286,289,293;,
 4;292,290,287,286;,
 4;289,288,291,293;,
 4;294,295,296,297;,
 4;295,298,299,296;,
 4;298,300,301,299;,
 4;300,294,297,301;,
 4;300,298,295,294;,
 4;297,296,299,301;,
 4;302,303,304,305;,
 4;303,306,307,304;,
 4;306,308,309,307;,
 4;308,302,305,309;,
 4;308,306,303,302;,
 4;305,304,307,309;,
 4;310,311,312,313;,
 4;310,313,314,315;,
 4;316,317,318,319;,
 4;316,319,320,321;,
 4;322,311,310,323;,
 4;322,323,316,321;,
 4;322,321,320,324;,
 4;322,324,312,311;,
 4;323,310,315,325;,
 4;323,325,317,316;,
 4;324,320,319,326;,
 4;324,326,313,312;,
 4;325,315,314,327;,
 4;325,327,318,317;,
 4;326,319,318,327;,
 4;326,327,314,313;,
 4;328,329,330,331;,
 4;332,333,334,335;,
 4;336,333,332,337;,
 4;336,337,329,328;,
 4;336,328,331,338;,
 4;336,338,334,333;,
 4;338,331,330,339;,
 4;338,339,335,334;,
 4;340,341,342,343;,
 4;340,343,344,345;,
 4;340,345,346,347;,
 4;340,347,348,341;,
 4;343,342,349,350;,
 4;343,350,351,344;,
 4;347,346,351,350;,
 4;347,350,349,348;,
 4;352,353,341,348;,
 4;354,352,348,349;,
 4;355,354,349,342;,
 4;353,355,342,341;,
 4;353,352,354,355;,
 4;356,357,346,345;,
 4;358,356,345,344;,
 4;359,358,344,351;,
 4;357,359,351,346;,
 4;357,356,358,359;,
 4;360,361,362,363;,
 4;361,364,365,362;,
 4;364,366,367,365;,
 4;366,360,363,367;,
 4;366,364,361,360;,
 4;363,362,365,367;,
 4;368,332,335,369;,
 4;370,369,339,330;,
 4;371,370,330,329;,
 4;368,371,329,337;,
 4;368,369,370,371;,
 3;332,368,337;,
 3;335,339,369;,
 4;372,373,374,375;,
 4;373,376,377,374;,
 4;378,372,375,379;,
 4;378,376,373,372;,
 4;375,374,377,379;,
 4;380,381,376,378;,
 4;382,380,378,379;,
 4;383,382,379,377;,
 4;381,383,377,376;,
 4;384,385,381,380;,
 4;386,384,380,382;,
 4;387,386,382,383;,
 4;385,387,383,381;,
 4;385,384,386,387;,
 4;388,389,390,391;,
 4;391,390,392,393;,
 4;394,395,389,388;,
 4;394,388,391,393;,
 4;389,395,392,390;,
 4;396,394,393,397;,
 4;398,395,394,396;,
 4;399,392,395,398;,
 4;397,393,392,399;,
 4;384,396,397,385;,
 4;386,398,396,384;,
 4;387,399,398,386;,
 4;385,397,399,387;,
 4;385,387,386,384;,
 4;400,401,402,403;,
 4;404,405,406,407;,
 4;404,401,400,405;,
 4;406,403,402,407;,
 4;408,409,406,405;,
 4;408,400,403,409;,
 3;400,408,405;,
 3;403,406,409;,
 4;410,411,404,407;,
 4;401,411,410,402;,
 3;401,404,411;,
 3;402,410,407;,
 4;412,413,414,415;,
 4;416,417,418,419;,
 4;420,412,415,421;,
 4;420,421,418,417;,
 4;420,417,416,422;,
 4;420,422,413,412;,
 4;421,415,414,423;,
 4;421,423,419,418;,
 4;422,416,419,423;,
 4;422,423,414,413;,
 4;424,425,426,427;,
 4;428,429,430,431;,
 4;432,425,424,433;,
 4;432,433,431,430;,
 4;432,430,429,434;,
 4;432,434,426,425;,
 4;433,424,427,435;,
 4;434,429,428,435;,
 4;434,435,427,426;,
 4;436,437,433,435;,
 4;438,436,435,428;,
 4;439,438,428,431;,
 4;437,439,431,433;,
 4;437,436,438,439;,
 4;440,441,442,443;,
 4;444,445,446,447;,
 4;448,445,444,449;,
 4;448,449,441,440;,
 4;448,440,443,450;,
 4;448,450,446,445;,
 4;449,444,447,451;,
 4;449,451,442,441;,
 4;450,443,442,451;,
 4;450,451,447,446;,
 4;452,453,454,455;,
 4;453,456,457,454;,
 4;456,458,459,457;,
 4;458,452,455,459;,
 4;458,456,453,452;,
 4;455,454,457,459;,
 4;460,461,462,463;,
 4;461,464,465,462;,
 4;464,466,467,465;,
 4;466,460,463,467;,
 4;466,464,461,460;,
 4;463,462,465,467;,
 4;468,469,470,471;,
 4;472,473,474,475;,
 4;473,468,471,474;,
 4;473,472,469,468;,
 4;471,470,475,474;,
 4;476,477,469,472;,
 4;478,476,472,475;,
 4;479,478,475,470;,
 4;480,481,477,476;,
 4;482,480,476,478;,
 4;483,482,478,479;,
 4;481,480,482,483;,
 4;484,485,486,487;,
 4;488,489,490,491;,
 4;491,490,485,484;,
 4;491,484,487,488;,
 4;485,490,489,486;,
 4;492,488,487,493;,
 4;494,489,488,492;,
 4;495,486,489,494;,
 4;480,492,493,481;,
 4;482,494,492,480;,
 4;483,495,494,482;,
 4;481,483,482,480;,
 4;496,497,479,470;,
 4;498,496,470,469;,
 4;499,498,469,477;,
 4;499,497,496,498;,
 4;500,501,481,483;,
 4;497,500,483,479;,
 4;501,499,477,481;,
 4;501,500,497,499;,
 4;502,503,493,487;,
 4;504,502,487,486;,
 4;505,504,486,495;,
 4;503,502,504,505;,
 4;503,501,481,493;,
 4;500,505,495,483;,
 4;501,500,483,481;,
 4;501,503,505,500;,
 4;506,507,508,509;,
 4;510,511,512,513;,
 4;514,515,510,513;,
 4;514,506,509,515;,
 4;514,516,507,506;,
 4;514,513,512,516;,
 4;516,517,508,507;,
 4;516,512,511,517;,
 4;518,519,511,510;,
 4;520,518,515,509;,
 4;521,520,509,508;,
 4;519,521,508,517;,
 4;518,520,521,519;,
 3;510,515,518;,
 3;511,519,517;,
 4;522,523,524,525;,
 4;526,527,528,529;,
 4;530,522,525,531;,
 4;530,531,528,527;,
 4;530,527,526,532;,
 4;530,532,523,522;,
 4;531,525,524,533;,
 4;531,533,529,528;,
 4;532,526,529,533;,
 4;532,533,524,523;,
 4;534,535,536,537;,
 4;535,538,539,536;,
 4;538,540,541,539;,
 4;540,534,537,541;,
 4;540,538,535,534;,
 4;537,536,539,541;,
 4;542,543,544,545;,
 4;546,547,548,549;,
 4;550,551,545,544;,
 4;552,553,547,546;,
 4;554,550,544,543;,
 4;553,555,548,547;,
 4;556,554,543,542;,
 4;555,557,549,548;,
 4;551,556,542,545;,
 4;557,552,546,549;,
 4;558,559,551,550;,
 4;560,561,553,552;,
 4;559,558,561,560;,
 4;562,558,550,554;,
 4;561,563,555,553;,
 4;558,562,563,561;,
 4;564,562,554,556;,
 4;563,565,557,555;,
 4;562,564,565,563;,
 4;559,564,556,551;,
 4;565,560,552,557;,
 4;564,559,560,565;,
 4;566,567,568,569;,
 4;570,571,572,573;,
 4;574,575,569,568;,
 4;576,577,571,570;,
 4;578,574,568,567;,
 4;577,579,572,571;,
 4;580,578,567,566;,
 4;579,581,573,572;,
 4;575,580,566,569;,
 4;581,576,570,573;,
 4;582,583,575,574;,
 4;584,585,577,576;,
 4;583,582,585,584;,
 4;586,582,574,578;,
 4;585,587,579,577;,
 4;582,586,587,585;,
 4;588,586,578,580;,
 4;587,589,581,579;,
 4;586,588,589,587;,
 4;583,588,580,575;,
 4;589,584,576,581;,
 4;588,583,584,589;,
 4;590,591,592,593;,
 4;591,594,595,592;,
 4;594,596,597,595;,
 4;596,590,593,597;,
 4;596,594,591,590;,
 4;593,592,595,597;,
 4;598,599,600,601;,
 4;602,603,604,605;,
 4;606,602,605,607;,
 4;606,608,603,602;,
 4;607,605,604,609;,
 4;608,609,604,603;,
 4;610,600,599,611;,
 4;610,612,601,600;,
 4;611,599,598,613;,
 4;612,613,598,601;,
 4;614,610,611,615;,
 4;614,615,606,607;,
 4;614,607,609,616;,
 4;614,616,612,610;,
 4;615,611,613,617;,
 4;615,617,608,606;,
 4;616,609,608,617;,
 4;616,617,613,612;,
 4;618,619,620,621;,
 4;622,623,624,625;,
 4;626,622,625,627;,
 4;626,627,620,619;,
 4;626,619,618,628;,
 4;626,628,623,622;,
 4;627,625,624,629;,
 4;627,629,621,620;,
 4;628,618,621,629;,
 4;628,629,624,623;,
 4;630,631,632,633;,
 4;634,635,636,637;,
 4;638,634,637,639;,
 4;638,639,632,631;,
 4;638,631,630,640;,
 4;638,640,635,634;,
 4;639,637,636,641;,
 4;639,641,633,632;,
 4;640,630,633,641;,
 4;640,641,636,635;,
 4;642,643,644,645;,
 4;642,645,646,647;,
 4;648,649,650,651;,
 4;648,651,652,653;,
 4;654,642,647,655;,
 4;654,655,649,648;,
 4;654,648,653,656;,
 4;654,656,643,642;,
 4;655,647,646,657;,
 4;655,657,650,649;,
 4;656,653,652,658;,
 4;656,658,644,643;,
 4;657,646,645,659;,
 4;657,659,651,650;,
 4;658,652,651,659;,
 4;658,659,645,644;,
 4;660,661,662,663;,
 4;664,665,666,667;,
 4;668,662,661,669;,
 4;668,669,664,667;,
 4;668,667,666,670;,
 4;668,670,663,662;,
 4;669,661,660,671;,
 4;669,671,665,664;,
 4;670,666,665,671;,
 4;670,671,660,663;,
 4;672,673,674,675;,
 4;672,675,676,677;,
 4;678,679,680,681;,
 4;678,681,682,683;,
 4;684,678,683,685;,
 4;684,685,673,672;,
 4;684,672,677,686;,
 4;684,686,679,678;,
 4;685,683,682,687;,
 4;685,687,674,673;,
 4;686,677,676,688;,
 4;686,688,680,679;,
 4;687,682,681,689;,
 4;687,689,675,674;,
 4;688,676,675,689;,
 4;688,689,681,680;,
 4;690,691,692,693;,
 4;694,695,696,697;,
 4;698,699,693,692;,
 4;700,701,695,694;,
 4;699,698,701,700;,
 4;702,698,692,691;,
 4;701,703,696,695;,
 4;698,702,703,701;,
 4;704,702,691,690;,
 4;703,705,697,696;,
 4;702,704,705,703;,
 4;699,704,690,693;,
 4;705,700,694,697;,
 4;704,699,700,705;,
 4;706,707,708,709;,
 4;707,710,711,708;,
 4;710,712,713,711;,
 4;710,707,706,712;,
 4;713,709,708,711;,
 4;714,715,712,706;,
 4;716,714,706,709;,
 4;717,716,709,713;,
 4;715,717,713,712;,
 4;715,714,716,717;,
 4;718,719,708,707;,
 4;707,708,711,710;,
 4;710,711,720,721;,
 4;710,721,718,707;,
 4;720,711,708,719;,
 4;722,718,721,723;,
 4;724,719,718,722;,
 4;725,720,719,724;,
 4;723,721,720,725;,
 4;723,725,724,722;,
 4;726,727,728,729;,
 4;729,728,730,731;,
 4;731,730,732,733;,
 4;731,733,726,729;,
 4;732,730,728,727;,
 4;734,726,733,735;,
 4;736,727,726,734;,
 4;737,732,727,736;,
 4;735,733,732,737;,
 4;735,737,736,734;,
 4;738,729,728,739;,
 4;729,731,730,728;,
 4;731,740,741,730;,
 4;731,729,738,740;,
 4;741,739,728,730;,
 4;742,743,740,738;,
 4;744,742,738,739;,
 4;745,744,739,741;,
 4;743,745,741,740;,
 4;743,742,744,745;,
 4;746,747,748,749;,
 4;750,751,752,753;,
 4;754,747,746,755;,
 4;754,756,748,747;,
 4;755,746,749,757;,
 4;756,757,749,748;,
 4;758,759,751,750;,
 4;758,750,753,760;,
 4;759,761,752,751;,
 4;760,753,752,761;,
 4;762,754,755,763;,
 4;762,763,759,758;,
 4;762,758,760,764;,
 4;762,764,756,754;,
 4;763,755,757,765;,
 4;763,765,761,759;,
 4;764,760,761,765;,
 4;764,765,757,756;,
 4;766,767,768,769;,
 4;767,770,771,768;,
 4;770,772,773,771;,
 4;772,766,769,773;,
 4;772,770,767,766;,
 4;769,768,771,773;,
 4;774,775,776,777;,
 4;775,778,779,776;,
 4;778,780,781,779;,
 4;780,774,777,781;,
 4;780,778,775,774;,
 4;777,776,779,781;,
 4;782,783,784,785;,
 4;783,786,787,784;,
 4;786,788,789,787;,
 4;788,782,785,789;,
 4;788,786,783,782;,
 4;785,784,787,789;;
 
 MeshMaterialList {
  10;
  726;
  1,
  1,
  1,
  1,
  1,
  1,
  1,
  1,
  1,
  1,
  1,
  1,
  0,
  0,
  0,
  0,
  0,
  0,
  0,
  0,
  0,
  0,
  0,
  0,
  0,
  0,
  0,
  0,
  0,
  0,
  0,
  0,
  0,
  0,
  0,
  0,
  0,
  0,
  0,
  0,
  0,
  0,
  0,
  0,
  0,
  0,
  0,
  0,
  0,
  0,
  0,
  0,
  0,
  0,
  0,
  0,
  0,
  0,
  0,
  0,
  0,
  0,
  0,
  0,
  0,
  0,
  0,
  0,
  0,
  0,
  0,
  0,
  0,
  0,
  0,
  0,
  0,
  0,
  0,
  0,
  0,
  0,
  0,
  0,
  0,
  0,
  0,
  0,
  0,
  0,
  0,
  0,
  0,
  0,
  0,
  0,
  0,
  0,
  0,
  0,
  0,
  0,
  0,
  0,
  0,
  0,
  0,
  0,
  0,
  0,
  0,
  0,
  1,
  1,
  1,
  1,
  1,
  1,
  1,
  1,
  1,
  1,
  1,
  1,
  1,
  1,
  1,
  1,
  1,
  1,
  3,
  3,
  3,
  3,
  3,
  3,
  3,
  3,
  3,
  3,
  3,
  3,
  3,
  3,
  3,
  3,
  3,
  3,
  3,
  3,
  3,
  3,
  3,
  3,
  3,
  3,
  3,
  3,
  3,
  3,
  3,
  3,
  3,
  3,
  3,
  3,
  3,
  3,
  3,
  3,
  3,
  3,
  0,
  0,
  0,
  0,
  0,
  0,
  0,
  0,
  0,
  0,
  0,
  0,
  0,
  0,
  0,
  0,
  0,
  0,
  0,
  0,
  0,
  0,
  0,
  0,
  4,
  4,
  4,
  4,
  4,
  4,
  4,
  4,
  4,
  4,
  4,
  4,
  4,
  4,
  4,
  4,
  4,
  4,
  4,
  4,
  4,
  4,
  4,
  4,
  4,
  4,
  3,
  3,
  3,
  3,
  3,
  3,
  3,
  3,
  3,
  3,
  3,
  3,
  3,
  3,
  3,
  3,
  3,
  3,
  3,
  3,
  3,
  3,
  3,
  3,
  3,
  3,
  3,
  3,
  3,
  3,
  3,
  3,
  3,
  3,
  3,
  3,
  3,
  3,
  3,
  3,
  3,
  3,
  1,
  1,
  1,
  1,
  1,
  1,
  1,
  1,
  1,
  1,
  1,
  1,
  1,
  1,
  1,
  1,
  1,
  1,
  1,
  1,
  1,
  1,
  1,
  1,
  1,
  1,
  1,
  1,
  1,
  1,
  4,
  4,
  4,
  4,
  4,
  4,
  4,
  4,
  4,
  4,
  4,
  4,
  4,
  4,
  4,
  4,
  5,
  5,
  5,
  5,
  5,
  5,
  5,
  5,
  4,
  4,
  4,
  4,
  4,
  4,
  4,
  4,
  4,
  4,
  4,
  4,
  4,
  4,
  4,
  4,
  4,
  4,
  3,
  3,
  3,
  3,
  3,
  3,
  5,
  5,
  5,
  5,
  5,
  5,
  5,
  4,
  4,
  4,
  4,
  4,
  4,
  4,
  4,
  4,
  4,
  4,
  4,
  4,
  4,
  4,
  4,
  4,
  4,
  4,
  4,
  4,
  4,
  4,
  4,
  4,
  4,
  4,
  4,
  4,
  4,
  4,
  4,
  4,
  4,
  4,
  4,
  4,
  4,
  4,
  4,
  5,
  5,
  5,
  5,
  5,
  5,
  5,
  5,
  5,
  5,
  6,
  6,
  6,
  6,
  6,
  6,
  6,
  6,
  6,
  6,
  6,
  6,
  6,
  6,
  5,
  5,
  5,
  5,
  5,
  5,
  5,
  5,
  5,
  5,
  1,
  1,
  1,
  1,
  1,
  1,
  1,
  1,
  1,
  1,
  1,
  1,
  4,
  4,
  4,
  4,
  4,
  4,
  4,
  4,
  4,
  4,
  4,
  4,
  4,
  4,
  4,
  4,
  4,
  4,
  4,
  4,
  4,
  4,
  4,
  4,
  4,
  4,
  4,
  4,
  4,
  4,
  4,
  4,
  4,
  4,
  4,
  4,
  4,
  4,
  4,
  4,
  5,
  5,
  5,
  5,
  5,
  5,
  5,
  5,
  5,
  5,
  5,
  5,
  5,
  5,
  5,
  7,
  7,
  7,
  7,
  7,
  7,
  7,
  7,
  7,
  7,
  7,
  7,
  7,
  7,
  7,
  7,
  8,
  8,
  8,
  8,
  8,
  8,
  8,
  8,
  8,
  8,
  8,
  8,
  8,
  8,
  8,
  8,
  8,
  8,
  8,
  8,
  8,
  8,
  8,
  8,
  8,
  8,
  8,
  8,
  8,
  8,
  8,
  8,
  8,
  8,
  8,
  8,
  8,
  8,
  8,
  8,
  8,
  8,
  8,
  8,
  2,
  2,
  2,
  2,
  2,
  2,
  5,
  5,
  5,
  5,
  5,
  5,
  5,
  5,
  5,
  5,
  5,
  5,
  5,
  5,
  5,
  5,
  5,
  5,
  0,
  0,
  0,
  0,
  0,
  0,
  0,
  0,
  0,
  0,
  4,
  4,
  4,
  4,
  4,
  4,
  4,
  4,
  4,
  4,
  5,
  5,
  5,
  5,
  5,
  5,
  5,
  5,
  5,
  5,
  5,
  5,
  5,
  5,
  5,
  5,
  4,
  4,
  4,
  4,
  4,
  4,
  4,
  4,
  4,
  4,
  5,
  5,
  5,
  5,
  5,
  5,
  5,
  5,
  5,
  5,
  5,
  5,
  5,
  5,
  5,
  5,
  4,
  4,
  4,
  4,
  4,
  4,
  4,
  4,
  4,
  4,
  4,
  4,
  4,
  4,
  7,
  7,
  7,
  7,
  7,
  7,
  7,
  7,
  7,
  7,
  7,
  7,
  7,
  7,
  7,
  7,
  7,
  7,
  7,
  7,
  7,
  7,
  7,
  7,
  7,
  7,
  7,
  7,
  7,
  7,
  7,
  7,
  7,
  7,
  7,
  7,
  7,
  7,
  7,
  7,
  1,
  1,
  1,
  1,
  1,
  1,
  1,
  1,
  1,
  1,
  1,
  1,
  1,
  1,
  1,
  1,
  1,
  1,
  1,
  1,
  1,
  1,
  1,
  1,
  9,
  9,
  9,
  9,
  9,
  9,
  9,
  9,
  9,
  9,
  9,
  9;;
  Material {
   0.380000;0.228800;0.188000;1.000000;;
   5.000000;
   0.000000;0.000000;0.000000;;
   0.000000;0.000000;0.000000;;
  }
  Material {
   0.536800;0.470400;0.292000;1.000000;;
   5.000000;
   0.000000;0.000000;0.000000;;
   0.000000;0.000000;0.000000;;
  }
  Material {
   0.605600;0.605600;0.605600;1.000000;;
   5.000000;
   0.000000;0.000000;0.000000;;
   0.000000;0.000000;0.000000;;
  }
  Material {
   0.524000;0.580000;0.580000;1.000000;;
   5.000000;
   0.000000;0.000000;0.000000;;
   0.000000;0.000000;0.000000;;
  }
  Material {
   0.367200;0.194400;0.244800;1.000000;;
   5.000000;
   0.000000;0.000000;0.000000;;
   0.000000;0.000000;0.000000;;
  }
  Material {
   0.103200;0.062400;0.060000;1.000000;;
   5.000000;
   0.000000;0.000000;0.000000;;
   0.000000;0.000000;0.000000;;
  }
  Material {
   0.448800;0.388800;0.323200;1.000000;;
   5.000000;
   0.000000;0.000000;0.000000;;
   0.000000;0.000000;0.000000;;
  }
  Material {
   0.138400;0.060000;0.068800;1.000000;;
   5.000000;
   0.210000;0.210000;0.210000;;
   0.000000;0.000000;0.000000;;
  }
  Material {
   0.200800;0.060000;0.100000;1.000000;;
   5.000000;
   0.000000;0.000000;0.000000;;
   0.000000;0.000000;0.000000;;
  }
  Material {
   0.000000;0.000000;0.000000;1.000000;;
   5.000000;
   0.000000;0.000000;0.000000;;
   0.000000;0.000000;0.000000;;
  }
 }
 MeshNormals {
  598;
  0.000000;0.000000;-1.000000;,
  1.000000;0.000000;0.000000;,
  0.000000;0.000000;1.000000;,
  -1.000000;0.000000;0.000000;,
  -0.999997;0.000000;-0.002265;,
  0.000000;1.000000;0.000000;,
  -0.999990;0.000000;-0.004530;,
  0.000000;-1.000000;-0.000000;,
  0.999990;0.000000;0.004527;,
  -0.276358;0.014774;-0.960941;,
  -0.531128;0.028395;-0.846816;,
  0.183586;-0.038318;0.982256;,
  -0.209828;0.866573;-0.452795;,
  -0.998390;0.034805;0.044777;,
  -0.212563;0.877868;0.429144;,
  -0.151828;0.627034;-0.764053;,
  0.979841;0.199780;0.000000;,
  -0.151827;0.627033;0.764054;,
  -0.206556;0.853088;-0.479140;,
  0.981510;0.191410;0.000000;,
  -0.206556;0.853088;0.479141;,
  -0.990633;0.136401;-0.006381;,
  -0.136768;0.007312;-0.990576;,
  -0.874965;0.016226;-0.483914;,
  -0.117551;0.990364;0.073221;,
  -0.176047;0.982336;-0.063427;,
  -0.998463;-0.046582;0.030041;,
  -0.993567;0.069498;0.089410;,
  0.997567;0.069719;0.000000;,
  -0.232784;0.961391;0.146762;,
  -0.997567;-0.069719;0.000000;,
  -0.979840;-0.199782;0.000000;,
  -0.981510;-0.191412;0.000000;,
  -0.998959;0.045562;-0.002132;,
  -0.997656;0.068361;-0.003198;,
  0.000000;0.000000;-1.000000;,
  -1.000000;0.000000;0.000000;,
  0.000000;-0.000000;1.000000;,
  1.000000;0.000000;0.000000;,
  0.000000;1.000000;0.000000;,
  0.000000;-1.000000;-0.000000;,
  0.000000;0.000000;-1.000000;,
  -1.000000;0.000000;0.000000;,
  0.000000;-0.000000;1.000000;,
  1.000000;0.000000;0.000000;,
  0.000000;1.000000;0.000000;,
  0.000000;-1.000000;-0.000000;,
  1.000000;0.000000;0.000000;,
  -1.000000;0.000000;0.000000;,
  0.000000;0.000000;-1.000000;,
  -0.092561;0.973619;-0.208564;,
  0.094267;0.973606;-0.207859;,
  -0.285836;0.955515;-0.072728;,
  -0.130782;0.987101;-0.092345;,
  -0.366478;0.930427;0.000000;,
  0.015514;-0.999081;0.039959;,
  0.135005;0.986661;-0.090958;,
  0.290975;0.954047;-0.071617;,
  0.372047;0.928214;0.000000;,
  -0.016534;-0.999065;0.039959;,
  -0.237460;0.956913;-0.167125;,
  0.239351;0.956509;-0.166740;,
  0.020546;0.995700;-0.090325;,
  -0.019281;0.995669;-0.090950;,
  0.000000;-0.998752;0.049935;,
  0.000000;-0.998753;0.049935;,
  -0.028018;-0.999295;0.024979;,
  0.026291;-0.999342;0.024979;,
  -0.095573;0.995185;-0.021742;,
  -0.131824;0.991273;0.000000;,
  -0.888706;0.458478;0.000000;,
  -0.058044;0.997463;-0.041222;,
  -0.004888;-0.005610;0.999972;,
  -0.037247;-0.051176;0.997995;,
  -0.003257;-0.003738;0.999988;,
  0.033191;-0.999449;-0.000000;,
  0.066346;-0.997797;-0.000000;,
  0.047979;-0.998710;0.016641;,
  0.061843;0.997260;-0.040593;,
  0.889483;0.456969;0.000000;,
  0.140334;0.990104;0.000000;,
  0.101791;0.994586;-0.020905;,
  -0.005721;-0.063083;0.997992;,
  -0.003814;-0.042061;0.999108;,
  0.030560;-0.086096;0.995818;,
  -0.035369;-0.999374;0.000000;,
  -0.051129;-0.998553;0.016639;,
  -0.070694;-0.997498;0.000000;,
  -0.020683;-0.999474;0.024981;,
  0.019407;-0.999500;0.024980;,
  -0.021004;-0.019985;0.999580;,
  0.013747;0.019993;0.999706;,
  0.000000;1.000000;0.000000;,
  0.000000;1.000000;0.000000;,
  0.000000;-1.000000;-0.000000;,
  0.000000;0.000000;-1.000000;,
  -1.000000;0.000000;0.000000;,
  1.000000;0.000000;0.000000;,
  0.000000;-0.258127;-0.966111;,
  -0.935247;-0.353997;0.000000;,
  0.935248;-0.353994;-0.000000;,
  0.000000;0.000000;1.000000;,
  0.000000;-0.498759;-0.866741;,
  -0.749373;-0.662149;0.000000;,
  0.749377;-0.662144;-0.000000;,
  0.000000;-0.258098;0.966119;,
  0.000000;-0.498707;0.866771;,
  -0.868428;0.495724;0.009571;,
  -0.999956;0.000000;0.009433;,
  0.999937;0.000000;0.011263;,
  -0.002465;0.000466;0.999997;,
  0.004014;0.000747;0.999992;,
  0.000000;1.000000;0.000000;,
  0.000000;0.962182;-0.272406;,
  0.000000;0.000000;-1.000000;,
  0.000177;0.001214;0.999999;,
  0.000220;0.916406;-0.400250;,
  0.288282;0.941125;-0.176571;,
  -0.290537;0.940392;-0.176779;,
  0.500407;0.865786;0.002793;,
  -0.504330;0.863507;0.002635;,
  -0.022555;-0.999684;0.011129;,
  0.022902;-0.999675;0.011161;,
  0.000023;-0.999856;0.016959;,
  0.219430;0.965902;-0.137416;,
  0.000437;0.963440;-0.267925;,
  0.088847;0.959706;-0.266591;,
  0.502398;0.864603;0.007633;,
  -0.004359;-0.000000;0.999990;,
  0.007101;-0.000003;0.999975;,
  -0.349616;-0.936892;0.001485;,
  -0.029776;-0.999452;0.014447;,
  -0.059520;-0.998227;-0.000533;,
  0.351641;-0.936134;0.001522;,
  0.060469;-0.998170;-0.000454;,
  0.030252;-0.999437;0.014487;,
  0.000045;-0.999990;0.004503;,
  0.000000;-0.999567;0.029411;,
  -0.868245;0.496135;0.000000;,
  0.868245;-0.496135;-0.000000;,
  0.865160;0.501496;0.000000;,
  -0.865160;-0.501496;0.000000;,
  1.000000;0.000000;0.000000;,
  -1.000000;0.000000;0.000000;,
  0.000000;0.000000;-1.000000;,
  -0.111452;0.964286;-0.240273;,
  0.113548;0.964246;-0.239452;,
  -0.343821;0.935441;-0.082077;,
  -0.160212;0.981428;-0.105507;,
  -0.438930;0.898521;0.000000;,
  0.019897;-0.998681;0.047323;,
  0.165507;0.980725;-0.103854;,
  0.349991;0.933271;-0.080690;,
  0.445415;0.895324;0.000000;,
  -0.021204;-0.998655;0.047322;,
  -0.283609;0.939435;-0.192426;,
  0.285743;0.938888;-0.191939;,
  0.026261;0.993797;-0.108069;,
  -0.024648;0.993765;-0.108734;,
  0.000000;-0.998250;0.059133;,
  -0.035917;-0.998917;0.029585;,
  0.033708;-0.998994;0.029585;,
  -0.122222;0.992170;-0.025696;,
  -0.168214;0.985750;0.000000;,
  -0.914915;0.403647;0.000000;,
  -0.074332;0.995982;-0.049944;,
  -0.005270;-0.004781;0.999975;,
  -0.040356;-0.043298;0.998247;,
  -0.003512;-0.003186;0.999989;,
  0.042546;-0.999094;-0.000000;,
  0.085015;-0.996380;-0.000000;,
  0.061513;-0.997912;0.019700;,
  0.079179;0.995642;-0.049274;,
  0.915632;0.402018;0.000000;,
  0.178951;0.983858;0.000000;,
  0.130118;0.991191;-0.024706;,
  -0.006235;-0.053398;0.998554;,
  -0.004157;-0.035599;0.999358;,
  0.033083;-0.072964;0.996786;,
  -0.045331;-0.998972;0.000000;,
  -0.065544;-0.997655;0.019697;,
  -0.090569;-0.995890;0.000000;,
  -0.026533;-0.999210;0.029590;,
  0.024897;-0.999252;0.029588;,
  -0.022780;-0.016872;0.999598;,
  0.014919;0.016879;0.999746;,
  0.000000;1.000000;0.000000;,
  0.000000;0.000000;-1.000000;,
  1.000000;0.000000;0.000000;,
  0.000000;0.000000;1.000000;,
  -1.000000;0.000000;0.000000;,
  0.000000;1.000000;0.000000;,
  0.000000;-1.000000;-0.000000;,
  0.000000;0.000000;-1.000000;,
  1.000000;0.000000;0.000000;,
  0.000000;0.000000;1.000000;,
  -1.000000;0.000000;0.000000;,
  0.000000;1.000000;0.000000;,
  0.000000;-1.000000;-0.000000;,
  0.000000;0.000000;-1.000000;,
  1.000000;0.000000;0.000000;,
  0.000000;0.000000;1.000000;,
  -1.000000;0.000000;0.000000;,
  0.000000;1.000000;0.000000;,
  0.000000;-1.000000;-0.000000;,
  0.000000;0.000000;-1.000000;,
  1.000000;0.000000;0.000000;,
  0.000000;0.000000;1.000000;,
  -1.000000;0.000000;0.000000;,
  0.000000;1.000000;0.000000;,
  0.000000;-1.000000;-0.000000;,
  0.000000;0.000000;-1.000000;,
  -0.000000;0.000000;1.000000;,
  -0.317645;0.938732;-0.133729;,
  0.007370;0.989976;-0.141042;,
  -1.000000;0.000000;0.000000;,
  0.331558;0.934002;-0.133080;,
  -0.007370;-0.989976;0.141043;,
  1.000000;0.000000;0.000000;,
  0.004812;0.382189;0.924072;,
  -0.000759;0.960782;-0.277305;,
  0.042728;0.956876;-0.287339;,
  -0.036088;-0.967899;0.248734;,
  0.632218;0.774790;0.000000;,
  -0.632217;-0.774791;0.000000;,
  -0.631326;0.775518;0.000000;,
  0.631325;-0.775519;-0.000000;,
  -0.693722;0.720243;0.000000;,
  -0.695377;-0.718645;0.000000;,
  -0.884461;0.466614;0.000000;,
  0.884461;0.466614;0.000000;,
  -0.564542;-0.825405;0.000000;,
  0.564541;-0.825405;-0.000000;,
  0.000000;-1.000000;-0.000000;,
  0.468764;0.369134;0.802496;,
  0.812791;0.137128;0.566186;,
  -0.320523;0.947241;0.000000;,
  0.007414;0.999972;0.000000;,
  0.007180;0.960353;-0.278694;,
  -0.309060;0.913360;-0.265056;,
  0.334534;0.942384;0.000000;,
  0.322685;0.909004;-0.263792;,
  0.317646;-0.938732;0.133730;,
  0.309060;-0.913360;0.265058;,
  -0.007180;-0.960353;0.278696;,
  -0.007414;-0.999972;0.000000;,
  0.320525;-0.947240;-0.000000;,
  -0.322686;-0.909003;0.263794;,
  -0.331560;-0.934001;0.133081;,
  -0.334536;-0.942383;0.000000;,
  -0.001459;0.846203;-0.532859;,
  0.081910;0.830584;-0.550836;,
  0.000000;1.000000;0.000000;,
  0.000000;-0.968373;0.249508;,
  -0.069940;-0.873348;0.482050;,
  0.000000;-0.875491;0.483234;,
  0.695378;0.718644;0.000000;,
  0.693721;-0.720244;-0.000000;,
  -0.072212;-0.966159;0.247633;,
  0.086576;0.950979;-0.296890;,
  0.782087;0.000000;0.623169;,
  0.000000;0.000000;-1.000000;,
  1.000000;0.000000;0.000000;,
  -1.000000;0.000000;0.000000;,
  0.000000;0.642140;-0.766588;,
  0.000235;-0.672223;0.740349;,
  0.000000;-0.000000;1.000000;,
  0.000000;0.645351;0.763886;,
  -0.000235;-0.672224;-0.740348;,
  -0.000297;0.255068;-0.966923;,
  0.000547;-0.293455;0.955973;,
  0.000000;0.887513;-0.460782;,
  0.000000;0.969069;-0.246790;,
  0.000000;-0.969069;0.246792;,
  0.000000;-0.887513;0.460783;,
  0.000296;0.274857;0.961485;,
  0.000000;0.887514;0.460781;,
  0.000000;0.969069;0.246789;,
  0.000000;-0.969069;-0.246791;,
  0.000000;-0.887513;-0.460782;,
  -0.000544;-0.309023;-0.951054;,
  -1.000000;0.000000;0.000000;,
  0.000344;0.000000;-1.000000;,
  0.999249;-0.009519;-0.037562;,
  0.999491;0.006261;-0.031273;,
  0.007919;0.000000;0.999969;,
  -0.007195;-0.056068;-0.998401;,
  0.000000;0.000000;1.000000;,
  -0.999383;0.000000;0.035127;,
  0.000958;0.982313;0.187241;,
  0.001944;-0.982426;-0.186642;,
  -0.273810;0.948162;0.161301;,
  -0.304113;0.943801;-0.129440;,
  0.227826;-0.966378;0.119202;,
  0.204383;-0.969211;-0.137326;,
  0.996997;-0.019024;-0.075067;,
  -0.145300;0.956783;-0.251902;,
  0.076732;-0.966642;0.244369;,
  0.997966;0.012516;-0.062514;,
  -0.080292;0.945848;0.314523;,
  0.029384;-0.965726;-0.257895;,
  -0.997532;0.000000;0.070210;,
  0.000000;1.000000;0.000000;,
  0.001883;0.929880;0.367859;,
  0.003821;-0.930322;-0.366725;,
  0.000000;-1.000000;-0.000000;,
  0.999916;0.012868;0.001311;,
  1.000000;0.000000;0.000000;,
  0.999665;0.025735;0.002621;,
  0.000000;1.000000;0.000000;,
  0.000000;-1.000000;-0.000000;,
  0.215308;-0.874539;0.434540;,
  0.141148;-0.948118;0.284868;,
  0.200721;-0.282293;0.938095;,
  0.132812;-0.186786;0.973382;,
  1.000000;0.000000;0.000000;,
  -1.000000;0.000000;0.000000;,
  0.000000;0.000000;-1.000000;,
  0.000000;0.000000;1.000000;,
  -1.000000;0.000000;0.000000;,
  1.000000;0.000000;-0.000000;,
  -0.249513;0.968371;0.000000;,
  -0.000001;0.000000;1.000000;,
  -0.000000;0.000000;-1.000000;,
  0.000000;0.000000;-1.000000;,
  1.000000;0.000000;0.000000;,
  0.000000;0.000000;1.000000;,
  -0.239205;0.000000;-0.970969;,
  -0.407450;0.912270;-0.041811;,
  0.395004;-0.917730;0.041745;,
  -0.391216;0.920299;0.000000;,
  0.358720;0.092888;-0.928812;,
  0.142969;0.000000;-0.989727;,
  0.523223;0.833484;-0.177601;,
  -0.510569;-0.841192;0.178089;,
  0.390630;0.920548;0.000000;,
  0.031646;0.000000;0.999499;,
  -0.000700;1.000000;-0.000310;,
  0.000737;-1.000000;0.000287;,
  -0.000637;1.000000;0.000000;,
  -0.720498;0.000000;-0.693457;,
  0.447506;-0.878457;0.167487;,
  -0.422899;0.902303;-0.083706;,
  0.410578;-0.907985;0.083595;,
  0.747955;0.097598;-0.656535;,
  0.283000;0.000000;-0.959120;,
  0.899191;0.136747;-0.415639;,
  -0.627291;-0.684932;0.370640;,
  0.999976;-0.005054;-0.004832;,
  1.000000;0.000000;0.000000;,
  0.999616;0.000000;0.027706;,
  -1.000000;0.000000;-0.000000;,
  -0.882838;-0.469677;-0.000000;,
  0.292152;0.956372;0.000000;,
  0.292138;0.956365;-0.004669;,
  0.000001;0.000000;1.000000;,
  -0.292135;-0.956366;0.004669;,
  0.000000;1.000000;0.000000;,
  0.998465;0.000000;0.055391;,
  -0.898980;0.000000;-0.437990;,
  -0.831240;-0.504262;-0.234009;,
  -0.704019;0.000000;-0.710181;,
  -0.483243;0.875486;0.000000;,
  -0.000015;0.000000;1.000000;,
  0.000013;0.000000;1.000000;,
  0.000007;0.000000;-1.000000;,
  -0.000008;0.000000;-1.000000;,
  0.249510;-0.968372;-0.000000;,
  0.000000;-1.000000;-0.000000;,
  0.483236;-0.875490;-0.000000;,
  -1.000000;0.000000;0.000000;,
  -0.148341;0.988936;0.000000;,
  -0.270200;0.962804;0.000000;,
  -0.332083;0.941554;-0.056541;,
  0.148341;-0.988936;-0.000000;,
  0.332083;-0.941554;0.056541;,
  0.270201;-0.962804;-0.000000;,
  0.378682;-0.925527;-0.000000;,
  0.000603;-1.000000;-0.000000;,
  0.999994;-0.002527;-0.002416;,
  0.148341;0.988936;0.000000;,
  0.270200;0.962804;0.000000;,
  -0.148341;-0.988936;0.000000;,
  -0.270201;-0.962804;0.000000;,
  -0.378124;-0.925755;0.000000;,
  -0.999994;0.002527;0.002416;,
  -0.447505;0.878457;-0.167487;,
  -0.902675;0.000000;-0.430323;,
  -0.013735;-0.874618;-0.484619;,
  -0.000764;0.999999;-0.000620;,
  -0.024439;-0.551850;-0.833585;,
  0.190658;-0.542486;-0.818143;,
  -0.721481;-0.260104;0.641724;,
  0.988859;0.000000;-0.148857;,
  0.393423;0.919356;-0.001901;,
  -0.999976;0.005054;0.004832;,
  -0.238397;-0.535501;-0.810188;,
  0.558790;0.829261;-0.008930;,
  0.558811;0.829295;0.000000;,
  0.000019;0.000000;1.000000;,
  -0.000016;0.000000;1.000000;,
  -0.292149;-0.956373;-0.000000;,
  0.292117;0.956337;-0.009337;,
  -0.292114;-0.956338;0.009337;,
  -0.782087;0.000000;-0.623169;,
  0.000000;0.203537;-0.979067;,
  0.000000;0.203534;0.979068;,
  -1.000000;0.000000;0.000000;,
  0.000000;1.000000;0.000000;,
  0.000000;-0.716640;0.697443;,
  0.000000;0.246436;-0.969159;,
  0.969159;0.246435;0.000000;,
  0.000000;0.246436;0.969159;,
  -0.207763;0.955860;-0.207763;,
  0.161812;-0.973465;0.161812;,
  0.207763;0.955860;-0.207763;,
  -0.161812;-0.973465;0.161812;,
  0.207763;0.955860;0.207763;,
  -0.161812;-0.973465;-0.161812;,
  -0.207763;0.955861;0.207763;,
  0.161812;-0.973465;-0.161812;,
  -0.131064;0.982672;-0.131064;,
  0.067058;-0.995493;0.067058;,
  0.131064;0.982672;-0.131064;,
  -0.067058;-0.995493;0.067058;,
  0.131064;0.982672;0.131064;,
  -0.067058;-0.995493;-0.067058;,
  -0.131064;0.982672;0.131064;,
  0.067058;-0.995493;-0.067058;,
  0.044725;0.997998;0.044726;,
  -0.106146;-0.988669;-0.106147;,
  -0.044725;0.997998;0.044726;,
  0.106146;-0.988669;-0.106147;,
  -0.044725;0.997998;-0.044725;,
  0.106146;-0.988669;0.106145;,
  0.044725;0.997998;-0.044725;,
  -0.106146;-0.988669;0.106145;,
  0.000000;-0.703506;-0.710690;,
  1.000000;0.000000;0.000000;,
  -0.969159;0.246435;0.000000;,
  0.000000;-1.000000;-0.000000;,
  0.000000;0.000000;-1.000000;,
  0.000000;0.000000;1.000000;,
  -0.248992;0.935952;-0.248992;,
  0.283630;-0.916028;0.283630;,
  0.248992;0.935952;-0.248992;,
  -0.283630;-0.916028;0.283630;,
  0.248992;0.935952;0.248991;,
  -0.283630;-0.916028;-0.283630;,
  -0.248992;0.935952;0.248991;,
  0.283630;-0.916028;-0.283630;,
  -0.160468;0.973910;-0.160468;,
  -0.077863;-0.978003;0.193512;,
  0.160468;0.973910;-0.160468;,
  0.077862;-0.978003;0.193512;,
  0.160468;0.973910;0.160468;,
  -0.193513;-0.978003;0.077862;,
  -0.160468;0.973910;0.160468;,
  -0.077863;-0.978003;-0.193513;,
  0.044722;0.997998;0.044722;,
  -0.106148;-0.988668;-0.106149;,
  -0.044722;0.997998;0.044722;,
  0.106148;-0.988668;-0.106149;,
  -0.044722;0.997998;-0.044722;,
  0.106148;-0.988668;0.106148;,
  0.044722;0.997998;-0.044722;,
  -0.106148;-0.988668;0.106148;,
  0.000000;-0.025400;-0.999677;,
  0.999677;-0.025402;-0.000000;,
  0.000000;-0.025403;0.999677;,
  -1.000000;0.000000;0.000000;,
  1.000000;0.000000;0.000000;,
  -0.000001;0.000000;1.000000;,
  -0.357341;0.933974;0.000000;,
  0.000000;-1.000000;-0.000000;,
  0.000001;0.000000;1.000000;,
  0.347354;0.937734;0.000000;,
  0.005522;0.999985;0.000000;,
  -0.731721;-0.681604;0.000000;,
  0.000000;-0.681605;-0.731720;,
  0.731721;-0.681604;-0.000000;,
  0.000000;0.000000;-1.000000;,
  0.000000;0.000000;1.000000;,
  -0.999677;-0.025402;0.000000;,
  0.000000;1.000000;0.000000;,
  -0.000003;0.000000;1.000000;,
  -0.328658;0.944449;0.000000;,
  -0.000001;0.000000;-1.000000;,
  -0.000001;0.000000;-1.000000;,
  0.297902;0.954596;0.000000;,
  0.000000;0.000000;-1.000000;,
  0.000000;0.000000;-1.000000;,
  0.000000;0.000000;1.000000;,
  1.000000;0.000000;0.000000;,
  0.000000;0.999994;0.003551;,
  0.000000;-1.000000;-0.000000;,
  0.000000;0.999982;0.005941;,
  0.000000;-0.999982;-0.005941;,
  0.000000;0.913693;-0.406406;,
  0.000000;0.910784;0.412884;,
  -1.000000;0.000000;0.000000;,
  0.000000;0.895827;-0.444403;,
  0.000000;0.890483;0.455016;,
  0.000000;-0.890483;-0.455016;,
  0.000000;-0.895827;0.444403;,
  0.000000;0.000000;-1.000000;,
  0.000000;-0.000000;1.000000;,
  0.010129;0.999949;0.000000;,
  0.394969;0.918695;0.000000;,
  -0.376277;0.926507;0.000000;,
  1.000000;0.000000;0.000000;,
  -1.000000;0.000000;0.000000;,
  0.000000;-1.000000;-0.000000;,
  -0.008211;-0.999966;0.000000;,
  0.008211;0.999966;0.000000;,
  0.007267;0.999890;-0.012924;,
  -0.237568;0.971290;-0.012573;,
  0.251510;0.967774;-0.012491;,
  -0.191800;0.962510;-0.191801;,
  0.199872;-0.959220;0.199873;,
  0.191800;0.962510;-0.191801;,
  -0.199872;-0.959220;0.199873;,
  0.191800;0.962510;0.191802;,
  -0.199872;-0.959219;-0.199873;,
  -0.191800;0.962510;0.191802;,
  0.199872;-0.959219;-0.199873;,
  0.000000;0.481776;-0.876294;,
  0.301721;-0.904394;0.301722;,
  -0.301721;-0.904394;0.301722;,
  0.876294;0.481777;0.000000;,
  -0.301721;-0.904394;-0.301723;,
  0.000000;0.481775;0.876295;,
  0.301721;-0.904393;-0.301723;,
  0.010129;0.999949;0.000000;,
  0.394968;0.918695;0.000000;,
  0.394969;0.918695;0.000000;,
  0.010129;0.999949;0.000000;,
  0.371134;-0.928579;-0.000000;,
  -0.386333;-0.922359;0.000000;,
  0.386334;0.922359;0.000000;,
  -0.371135;0.928579;0.000000;,
  0.007005;0.966275;-0.257418;,
  -0.228522;0.940506;-0.251449;,
  -0.232814;0.945650;0.227034;,
  0.007087;0.972540;0.232627;,
  0.246574;0.942725;0.224656;,
  0.242138;0.937766;-0.248928;,
  -0.876294;0.481777;0.000000;,
  -1.000000;0.000000;0.000000;,
  1.000000;0.000000;0.000000;,
  0.999925;0.000216;0.012234;,
  0.000000;0.402086;-0.915602;,
  0.000000;-0.755114;0.655593;,
  -0.999996;0.000000;-0.002860;,
  -0.012921;0.255787;0.966647;,
  -0.024236;-0.257430;0.965993;,
  0.000000;0.401243;0.915972;,
  0.000000;-0.755113;-0.655594;,
  0.999925;0.000216;-0.012235;,
  0.000000;0.402088;0.915601;,
  0.000000;-0.755117;-0.655590;,
  -0.999996;0.000000;0.002865;,
  -0.012920;0.255786;-0.966647;,
  -0.024233;-0.257430;-0.965993;,
  0.000000;0.401244;-0.915971;,
  0.000000;-0.755116;0.655591;,
  0.013041;0.256209;-0.966533;,
  0.000000;0.629927;-0.776654;,
  -0.010901;-0.641843;0.766758;,
  0.000000;0.000000;-1.000000;,
  0.024245;-0.255914;-0.966396;,
  0.000000;0.615428;0.788193;,
  0.011172;-0.627359;-0.778650;,
  0.000000;-0.000000;1.000000;,
  0.013039;0.256210;0.966533;,
  0.000000;0.629928;0.776653;,
  -0.010900;-0.641844;-0.766757;,
  0.024242;-0.255913;0.966396;,
  0.000000;0.615430;-0.788192;,
  0.011170;-0.627361;0.778648;,
  0.000000;0.459413;-0.888223;,
  0.000000;0.000000;-1.000000;,
  0.000000;0.416992;0.908910;,
  0.000000;0.000000;1.000000;,
  0.000000;0.733032;-0.680194;,
  1.000000;0.000000;0.000000;,
  -1.000000;0.000000;0.000000;,
  0.000000;0.688808;0.724944;,
  0.000000;0.637209;-0.770691;,
  0.000000;-1.000000;0.000000;,
  0.000000;0.612659;0.790347;,
  0.000000;1.000000;0.000000;,
  0.000000;0.000000;-1.000000;,
  1.000000;0.000000;0.000000;,
  0.000000;0.000000;1.000000;,
  -1.000000;0.000000;0.000000;,
  0.000000;1.000000;0.000000;,
  0.000000;-1.000000;-0.000000;;
  726;
  4;0,0,0,0;,
  4;1,1,1,1;,
  4;2,2,2,2;,
  4;3,3,3,3;,
  4;5,5,5,5;,
  4;7,7,7,7;,
  4;0,0,0,0;,
  4;3,3,3,3;,
  4;2,2,2,2;,
  4;1,1,1,1;,
  4;5,5,5,5;,
  4;7,7,7,7;,
  4;0,0,0,0;,
  4;1,1,1,1;,
  4;2,2,2,2;,
  4;3,3,3,3;,
  4;5,5,5,5;,
  4;7,7,7,7;,
  4;0,0,0,0;,
  4;1,1,1,1;,
  4;2,2,2,2;,
  4;3,3,3,3;,
  4;5,5,5,5;,
  4;7,7,7,7;,
  4;0,0,0,0;,
  4;3,3,3,3;,
  4;2,2,2,2;,
  4;1,1,1,1;,
  4;5,5,5,5;,
  4;7,7,7,7;,
  4;1,1,1,1;,
  4;3,4,4,3;,
  4;3,3,3,3;,
  4;1,1,1,1;,
  4;5,5,5,5;,
  4;5,5,5,5;,
  4;2,2,2,2;,
  4;2,2,2,2;,
  4;0,0,0,0;,
  4;7,7,7,7;,
  4;7,7,7,7;,
  4;8,8,8,8;,
  4;7,7,7,7;,
  4;6,6,4,4;,
  4;5,5,5,5;,
  4;0,0,0,0;,
  4;0,0,0,0;,
  4;2,2,2,2;,
  4;5,5,5,5;,
  4;5,5,5,5;,
  4;3,3,3,3;,
  4;1,1,1,1;,
  4;1,1,1,1;,
  4;7,7,7,7;,
  4;7,7,7,7;,
  4;3,3,3,3;,
  4;5,5,5,5;,
  4;22,0,0,0;,
  4;22,0,0,0;,
  4;2,2,2,2;,
  4;7,7,7,7;,
  4;7,7,7,7;,
  4;2,2,2,2;,
  4;5,5,5,5;,
  4;5,5,5,5;,
  4;0,0,0,0;,
  4;0,0,0,0;,
  4;2,2,2,2;,
  4;7,7,7,7;,
  4;7,7,7,7;,
  4;5,5,5,5;,
  4;3,3,3,3;,
  4;7,7,7,7;,
  4;1,1,1,1;,
  4;2,2,2,2;,
  4;10,9,22,23;,
  4;1,1,1,1;,
  4;9,0,0,22;,
  4;24,25,25,24;,
  4;11,11,11,11;,
  4;12,12,25,25;,
  4;26,27,27,13;,
  4;28,1,1,1;,
  4;7,7,7,7;,
  4;14,29,29,14;,
  4;30,26,13,3;,
  4;30,3,3,3;,
  4;28,1,1,1;,
  4;28,1,1,28;,
  4;7,7,7,7;,
  4;7,7,7,7;,
  4;17,17,14,14;,
  4;16,16,28,28;,
  4;15,15,12,12;,
  4;31,31,26,30;,
  4;20,20,17,17;,
  4;19,19,16,16;,
  4;18,18,15,15;,
  4;32,32,31,31;,
  4;20,20,18,18;,
  4;1,1,1,1;,
  4;1,1,1,1;,
  4;5,5,5,5;,
  4;7,7,7,7;,
  4;7,7,7,7;,
  4;33,23,3,3;,
  4;33,3,3,34;,
  4;0,0,0,0;,
  4;21,21,33,34;,
  4;2,2,2,2;,
  4;1,1,1,1;,
  4;5,5,5,5;,
  4;35,35,35,35;,
  4;36,36,36,36;,
  4;37,37,37,37;,
  4;38,38,38,38;,
  4;39,39,39,39;,
  4;40,40,40,40;,
  4;41,41,41,41;,
  4;42,42,42,42;,
  4;43,43,43,43;,
  4;44,44,44,44;,
  4;45,45,45,45;,
  4;46,46,46,46;,
  4;41,41,41,41;,
  4;44,44,44,44;,
  4;43,43,43,43;,
  4;42,42,42,42;,
  4;45,45,45,45;,
  4;46,46,46,46;,
  4;49,49,49,49;,
  4;47,47,47,47;,
  4;48,48,48,48;,
  4;48,48,48,48;,
  4;47,47,47,47;,
  4;50,60,61,51;,
  4;50,51,62,63;,
  4;48,48,48,48;,
  4;47,47,47,47;,
  4;55,64,65,59;,
  4;55,59,66,67;,
  4;52,60,50,53;,
  4;52,68,69,54;,
  4;52,54,70,60;,
  4;53,50,63,71;,
  4;72,73,73,74;,
  4;49,49,49,49;,
  4;75,76,77,67;,
  4;56,51,61,57;,
  4;56,78,62,51;,
  4;57,61,79,58;,
  4;57,58,80,81;,
  4;49,49,49,49;,
  4;82,83,84,84;,
  4;85,66,86,87;,
  3;59,65,88;,
  3;55,89,64;,
  3;83,82,90;,
  3;74,91,72;,
  3;78,56,81;,
  3;71,68,53;,
  3;89,55,77;,
  3;88,86,59;,
  3;68,52,53;,
  3;77,55,67;,
  3;81,56,57;,
  3;86,66,59;,
  4;48,70,48,48;,
  4;85,75,67,66;,
  4;79,47,47,47;,
  4;92,92,61,60;,
  4;91,74,83,90;,
  4;93,93,93,93;,
  4;94,94,94,94;,
  4;95,95,95,95;,
  4;96,96,96,96;,
  4;96,96,96,96;,
  4;97,97,97,97;,
  4;97,97,97,97;,
  4;101,101,101,101;,
  4;101,101,101,101;,
  4;93,93,93,93;,
  4;97,97,97,97;,
  4;94,94,94,94;,
  4;96,96,96,96;,
  4;95,95,95,95;,
  4;93,93,93,93;,
  4;94,94,94,94;,
  4;98,102,102,98;,
  4;98,98,95,95;,
  4;99,96,96,99;,
  4;99,99,103,103;,
  4;100,104,104,100;,
  4;100,100,97,97;,
  4;105,101,101,105;,
  4;105,105,106,106;,
  4;109,109,109,109;,
  4;108,107,107,108;,
  4;112,119,117,113;,
  4;112,113,118,120;,
  4;115,111,111,115;,
  4;115,115,110,110;,
  4;114,114,114,114;,
  4;114,114,114,114;,
  4;116,117,124,125;,
  4;116,125,126,118;,
  4;117,119,127,124;,
  4;118,107,107,120;,
  4;110,110,128,128;,
  4;111,129,129,111;,
  4;130,121,131,132;,
  4;133,134,135,122;,
  4;121,130,136,123;,
  4;121,123,137,131;,
  4;122,135,137,123;,
  4;122,123,136,133;,
  3;117,116,113;,
  3;118,113,116;,
  3;138,120,118;,
  3;133,139,139;,
  3;140,117,119;,
  3;130,141,141;,
  4;144,144,144,144;,
  4;142,142,142,142;,
  4;143,143,143,143;,
  4;143,143,143,143;,
  4;142,142,142,142;,
  4;145,155,156,146;,
  4;145,146,157,158;,
  4;143,143,143,143;,
  4;142,142,142,142;,
  4;150,159,159,154;,
  4;150,154,160,161;,
  4;147,155,145,148;,
  4;147,162,163,149;,
  4;147,149,164,155;,
  4;148,145,158,165;,
  4;166,167,167,168;,
  4;144,144,144,144;,
  4;169,170,171,161;,
  4;151,146,156,152;,
  4;151,172,157,146;,
  4;152,156,173,153;,
  4;152,153,174,175;,
  4;144,144,144,144;,
  4;176,177,178,178;,
  4;179,160,180,181;,
  3;154,159,182;,
  3;150,183,159;,
  3;177,176,184;,
  3;168,185,166;,
  3;172,151,175;,
  3;165,162,148;,
  3;183,150,171;,
  3;182,180,154;,
  3;162,147,148;,
  3;171,150,161;,
  3;175,151,152;,
  3;180,160,154;,
  4;143,164,143,143;,
  4;179,169,161,160;,
  4;173,142,142,142;,
  4;186,186,156,155;,
  4;185,168,177,184;,
  4;187,187,187,187;,
  4;188,188,188,188;,
  4;189,189,189,189;,
  4;190,190,190,190;,
  4;191,191,191,191;,
  4;192,192,192,192;,
  4;193,193,193,193;,
  4;194,194,194,194;,
  4;195,195,195,195;,
  4;196,196,196,196;,
  4;197,197,197,197;,
  4;198,198,198,198;,
  4;199,199,199,199;,
  4;200,200,200,200;,
  4;201,201,201,201;,
  4;202,202,202,202;,
  4;203,203,203,203;,
  4;204,204,204,204;,
  4;205,205,205,205;,
  4;206,206,206,206;,
  4;207,207,207,207;,
  4;208,208,208,208;,
  4;209,209,209,209;,
  4;210,210,210,210;,
  4;205,205,205,205;,
  4;206,206,206,206;,
  4;207,207,207,207;,
  4;208,208,208,208;,
  4;209,209,209,209;,
  4;210,210,210,210;,
  4;212,212,212,212;,
  4;212,212,212,212;,
  4;211,211,211,211;,
  4;211,211,211,211;,
  4;213,236,237,214;,
  4;213,214,238,239;,
  4;215,215,215,215;,
  4;215,215,215,215;,
  4;214,237,240,216;,
  4;214,216,241,238;,
  4;242,243,244,217;,
  4;242,217,245,246;,
  4;218,218,218,218;,
  4;218,218,218,218;,
  4;217,244,247,248;,
  4;217,248,249,245;,
  4;211,211,211,211;,
  4;234,219,219,234;,
  4;220,250,251,221;,
  4;220,221,252,252;,
  4;215,215,215,215;,
  4;215,215,215,215;,
  4;253,233,233,222;,
  4;253,222,254,255;,
  4;211,211,211,211;,
  4;211,211,211,211;,
  4;227,225,225,227;,
  4;256,256,223,223;,
  4;228,224,224,228;,
  4;257,257,226,226;,
  4;212,212,212,212;,
  4;212,212,212,212;,
  4;230,230,223,223;,
  4;212,212,212,212;,
  4;231,231,224,224;,
  4;211,211,211,211;,
  4;230,230,218,218;,
  4;229,229,225,225;,
  4;211,211,211,211;,
  4;232,232,226,226;,
  4;212,212,212,212;,
  4;229,229,215,215;,
  4;211,211,211,211;,
  4;218,218,218,218;,
  4;212,212,212,212;,
  4;215,215,215,215;,
  4;252,252,252,252;,
  4;233,233,233,233;,
  4;235,234,234,235;,
  4;233,258,222,233;,
  4;211,211,211,211;,
  4;259,252,252,221;,
  4;235,235,260,260;,
  3;251,259,221;,
  3;254,222,258;,
  4;261,261,261,261;,
  4;262,262,262,262;,
  4;263,263,263,263;,
  4;271,271,272,272;,
  4;273,273,274,274;,
  4;264,264,271,271;,
  4;263,263,263,263;,
  4;265,265,274,274;,
  4;262,262,262,262;,
  4;269,269,264,264;,
  4;263,263,263,263;,
  4;270,270,265,265;,
  4;262,262,262,262;,
  4;275,275,270,270;,
  4;266,266,266,266;,
  4;262,262,262,262;,
  4;263,263,263,263;,
  4;276,277,277,276;,
  4;278,279,279,278;,
  4;267,276,276,267;,
  4;263,263,263,263;,
  4;268,279,279,268;,
  4;262,262,262,262;,
  4;275,267,267,275;,
  4;263,263,263,263;,
  4;280,268,268,280;,
  4;262,262,262,262;,
  4;269,280,280,269;,
  4;283,284,284,283;,
  4;281,281,281,281;,
  4;291,291,292,292;,
  4;293,293,294,294;,
  4;282,282,282,282;,
  4;295,283,283,295;,
  3;292,296,292;,
  3;293,293,297;,
  4;285,285,285,285;,
  4;284,298,298,284;,
  3;291,291,299;,
  3;294,300,294;,
  4;286,286,286,286;,
  4;287,287,287,287;,
  4;288,301,301,288;,
  4;288,288,281,281;,
  4;289,302,302,289;,
  4;289,289,303,303;,
  4;290,304,304,290;,
  4;290,290,305,305;,
  4;306,307,307,306;,
  4;306,306,308,308;,
  4;309,309,309,309;,
  4;310,310,311,312;,
  4;313,318,318,314;,
  4;313,314,312,311;,
  4;315,315,315,315;,
  4;315,315,315,315;,
  4;316,316,316,316;,
  4;317,317,317,317;,
  4;317,317,317,317;,
  4;309,309,309,309;,
  4;317,317,317,317;,
  4;310,310,310,312;,
  4;318,318,318,314;,
  4;316,316,316,316;,
  4;319,319,319,319;,
  4;320,320,320,320;,
  4;321,362,362,321;,
  4;321,321,357,357;,
  4;322,363,363,322;,
  4;322,322,364,364;,
  4;323,365,365,323;,
  4;323,323,366,366;,
  4;367,368,368,367;,
  4;367,367,369,369;,
  4;324,324,324,324;,
  4;325,325,325,325;,
  4;326,326,326,326;,
  4;370,370,370,370;,
  4;357,357,357,357;,
  4;368,368,368,368;,
  4;324,324,324,324;,
  4;325,325,325,325;,
  4;326,326,326,326;,
  4;370,370,370,370;,
  4;357,357,357,357;,
  4;368,368,368,368;,
  4;324,327,327,324;,
  4;326,326,326,326;,
  4;370,370,370,370;,
  4;371,372,373,371;,
  4;374,375,376,374;,
  4;330,328,373,372;,
  4;326,326,326,326;,
  4;329,377,376,375;,
  4;339,337,328,330;,
  4;336,336,326,326;,
  4;338,378,377,329;,
  4;379,325,325,379;,
  4;324,324,332,331;,
  4;326,326,326,326;,
  4;325,325,325,325;,
  4;380,380,381,381;,
  4;382,382,383,383;,
  4;335,381,381,333;,
  4;336,326,326,336;,
  4;334,383,383,384;,
  4;339,335,333,337;,
  4;336,336,336,336;,
  4;338,334,384,378;,
  4;385,385,370,370;,
  4;341,343,329,375;,
  4;340,340,327,327;,
  4;342,386,373,328;,
  4;387,387,340,340;,
  4;348,348,379,379;,
  4;343,388,338,329;,
  4;389,342,328,337;,
  4;390,388,391,391;,
  4;344,346,333,331;,
  4;345,344,331,332;,
  4;347,392,392,334;,
  4;346,344,393,393;,
  4;394,389,337,333;,
  4;388,347,334,338;,
  4;395,395,385,385;,
  4;390,396,396,388;,
  4;349,349,350,350;,
  4;359,360,352,351;,
  4;353,354,397,398;,
  4;353,357,357,354;,
  4;355,355,399,399;,
  4;355,400,400,355;,
  4;401,356,368,368;,
  4;401,352,360,356;,
  4;361,361,360,359;,
  4;357,402,354,357;,
  4;358,358,350,350;,
  4;403,368,368,356;,
  4;361,404,404,361;,
  3;397,354,402;,
  3;360,403,356;,
  4;405,405,405,405;,
  4;406,406,406,406;,
  4;407,407,407,407;,
  4;407,407,407,407;,
  4;408,408,408,408;,
  4;408,408,408,408;,
  4;409,409,409,409;,
  4;437,437,437,437;,
  4;438,438,438,438;,
  4;438,438,438,438;,
  4;410,410,410,410;,
  4;411,411,411,411;,
  4;412,412,412,412;,
  4;439,439,439,439;,
  4;408,408,408,408;,
  4;440,440,440,440;,
  4;419,417,415,413;,
  4;414,416,418,420;,
  4;423,421,413,415;,
  4;422,424,416,414;,
  4;425,423,415,417;,
  4;424,426,418,416;,
  4;427,425,417,419;,
  4;426,428,420,418;,
  4;421,427,419,413;,
  4;428,422,414,420;,
  4;431,429,421,423;,
  4;430,432,424,422;,
  4;441,441,441,441;,
  4;433,431,423,425;,
  4;432,434,426,424;,
  4;438,438,438,438;,
  4;435,433,425,427;,
  4;434,436,428,426;,
  4;442,442,442,442;,
  4;429,435,427,421;,
  4;436,430,422,428;,
  4;407,407,407,407;,
  4;449,447,445,443;,
  4;444,446,448,450;,
  4;453,451,443,445;,
  4;452,454,446,444;,
  4;455,453,445,447;,
  4;478,456,448,446;,
  4;457,455,447,449;,
  4;479,458,450,448;,
  4;451,457,449,443;,
  4;480,480,444,450;,
  4;461,459,451,453;,
  4;460,462,454,452;,
  4;481,481,481,481;,
  4;463,461,453,455;,
  4;462,464,456,454;,
  4;471,471,471,471;,
  4;465,463,455,457;,
  4;464,466,458,456;,
  4;482,482,482,482;,
  4;459,465,457,451;,
  4;466,460,452,458;,
  4;470,470,470,470;,
  4;467,467,467,467;,
  4;468,468,468,468;,
  4;469,469,469,469;,
  4;483,483,483,483;,
  4;484,484,484,484;,
  4;474,474,474,474;,
  4;471,471,471,471;,
  4;470,470,470,470;,
  4;472,485,485,472;,
  4;473,473,486,486;,
  4;474,474,474,474;,
  4;487,487,488,488;,
  4;475,482,482,475;,
  4;474,474,474,474;,
  4;476,489,489,476;,
  4;490,490,481,481;,
  4;475,475,475,475;,
  4;475,475,472,472;,
  4;474,474,474,474;,
  4;474,474,474,474;,
  4;477,476,476,477;,
  4;477,477,473,473;,
  4;490,487,487,490;,
  4;490,490,490,490;,
  4;491,491,491,491;,
  4;492,492,492,492;,
  4;493,493,493,493;,
  4;493,493,493,493;,
  4;494,498,498,494;,
  4;494,494,499,499;,
  4;495,495,495,495;,
  4;495,495,495,495;,
  4;500,500,500,500;,
  4;500,500,500,500;,
  4;491,491,491,491;,
  4;492,492,492,492;,
  4;493,493,493,493;,
  4;493,493,493,493;,
  4;496,501,501,496;,
  4;496,496,502,502;,
  4;497,503,503,497;,
  4;497,497,504,504;,
  4;500,500,500,500;,
  4;500,500,500,500;,
  4;506,506,506,506;,
  4;506,506,506,506;,
  4;505,505,505,505;,
  4;505,505,505,505;,
  4;507,533,534,508;,
  4;507,508,535,536;,
  4;507,536,509,509;,
  4;507,509,509,533;,
  4;510,510,510,510;,
  4;510,510,510,510;,
  4;511,511,511,511;,
  4;511,511,511,511;,
  4;512,512,512,512;,
  4;512,512,512,512;,
  4;512,512,512,512;,
  4;512,512,512,512;,
  4;510,510,510,510;,
  4;511,511,511,511;,
  4;506,506,506,506;,
  4;506,506,506,506;,
  4;513,537,537,513;,
  4;513,513,538,538;,
  4;514,539,539,514;,
  4;514,514,540,540;,
  4;505,505,505,505;,
  4;505,505,505,505;,
  4;506,506,506,506;,
  4;506,506,506,506;,
  4;505,505,505,505;,
  4;505,505,505,505;,
  4;515,541,542,516;,
  4;515,516,543,544;,
  4;515,544,545,517;,
  4;515,517,546,541;,
  4;511,511,511,511;,
  4;511,511,511,511;,
  4;510,510,510,510;,
  4;510,510,510,510;,
  4;512,512,512,512;,
  4;512,512,512,512;,
  4;512,512,512,512;,
  4;512,512,512,512;,
  4;524,522,520,518;,
  4;519,521,523,525;,
  4;526,526,518,520;,
  4;527,528,521,519;,
  4;526,526,505,505;,
  4;529,529,520,522;,
  4;528,530,523,521;,
  4;529,529,510,510;,
  4;531,531,522,524;,
  4;530,532,525,523;,
  4;531,531,506,506;,
  4;547,547,524,518;,
  4;532,527,519,525;,
  4;547,547,511,511;,
  4;549,550,550,549;,
  4;554,554,555,555;,
  4;553,548,548,553;,
  4;566,566,567,567;,
  4;568,568,555,555;,
  4;551,551,567,567;,
  4;549,549,549,549;,
  4;552,552,568,568;,
  4;548,548,548,548;,
  4;551,551,569,569;,
  4;550,550,550,550;,
  4;566,570,570,566;,
  4;553,553,553,553;,
  4;554,571,571,554;,
  4;572,570,570,572;,
  4;556,571,571,556;,
  4;549,550,550,549;,
  4;557,572,572,557;,
  4;548,553,553,548;,
  4;556,573,573,556;,
  4;549,549,558,558;,
  4;562,563,563,562;,
  4;561,561,548,548;,
  4;574,575,575,574;,
  4;576,563,563,576;,
  4;559,575,575,559;,
  4;549,549,549,549;,
  4;560,576,576,560;,
  4;548,548,548,548;,
  4;559,573,573,559;,
  4;558,558,558,558;,
  4;574,574,577,577;,
  4;561,561,561,561;,
  4;562,562,578,578;,
  4;579,579,577,577;,
  4;564,564,578,578;,
  4;549,549,558,558;,
  4;565,565,579,579;,
  4;548,548,561,561;,
  4;564,564,569,569;,
  4;580,580,581,581;,
  4;582,582,583,583;,
  4;584,580,580,584;,
  4;585,585,585,585;,
  4;586,586,586,586;,
  4;589,589,589,589;,
  4;587,587,582,582;,
  4;585,585,585,585;,
  4;586,586,586,586;,
  4;589,589,589,589;,
  4;588,584,584,588;,
  4;590,590,587,587;,
  4;585,585,585,585;,
  4;585,585,585,585;,
  4;586,586,586,586;,
  4;586,586,586,586;,
  4;589,589,589,589;,
  4;589,589,589,589;,
  4;581,581,581,581;,
  4;585,585,585,585;,
  4;583,583,583,583;,
  4;586,586,586,586;,
  4;591,591,591,591;,
  4;589,589,589,589;,
  4;581,581,581,581;,
  4;585,585,585,585;,
  4;583,583,583,583;,
  4;586,586,586,586;,
  4;591,591,591,591;,
  4;589,589,589,589;,
  4;592,592,592,592;,
  4;593,593,593,593;,
  4;594,594,594,594;,
  4;595,595,595,595;,
  4;596,596,596,596;,
  4;597,597,597,597;;
 }
}
