xof 0302txt 0064
template Header {
 <3D82AB43-62DA-11cf-AB39-0020AF71E433>
 WORD major;
 WORD minor;
 DWORD flags;
}

template Vector {
 <3D82AB5E-62DA-11cf-AB39-0020AF71E433>
 FLOAT x;
 FLOAT y;
 FLOAT z;
}

template Coords2d {
 <F6F23F44-7686-11cf-8F52-0040333594A3>
 FLOAT u;
 FLOAT v;
}

template Matrix4x4 {
 <F6F23F45-7686-11cf-8F52-0040333594A3>
 array FLOAT matrix[16];
}

template ColorRGBA {
 <35FF44E0-6C7C-11cf-8F52-0040333594A3>
 FLOAT red;
 FLOAT green;
 FLOAT blue;
 FLOAT alpha;
}

template ColorRGB {
 <D3E16E81-7835-11cf-8F52-0040333594A3>
 FLOAT red;
 FLOAT green;
 FLOAT blue;
}

template IndexedColor {
 <1630B820-7842-11cf-8F52-0040333594A3>
 DWORD index;
 ColorRGBA indexColor;
}

template Boolean {
 <4885AE61-78E8-11cf-8F52-0040333594A3>
 WORD truefalse;
}

template Boolean2d {
 <4885AE63-78E8-11cf-8F52-0040333594A3>
 Boolean u;
 Boolean v;
}

template MaterialWrap {
 <4885AE60-78E8-11cf-8F52-0040333594A3>
 Boolean u;
 Boolean v;
}

template TextureFilename {
 <A42790E1-7810-11cf-8F52-0040333594A3>
 STRING filename;
}

template Material {
 <3D82AB4D-62DA-11cf-AB39-0020AF71E433>
 ColorRGBA faceColor;
 FLOAT power;
 ColorRGB specularColor;
 ColorRGB emissiveColor;
 [...]
}

template MeshFace {
 <3D82AB5F-62DA-11cf-AB39-0020AF71E433>
 DWORD nFaceVertexIndices;
 array DWORD faceVertexIndices[nFaceVertexIndices];
}

template MeshFaceWraps {
 <4885AE62-78E8-11cf-8F52-0040333594A3>
 DWORD nFaceWrapValues;
 Boolean2d faceWrapValues;
}

template MeshTextureCoords {
 <F6F23F40-7686-11cf-8F52-0040333594A3>
 DWORD nTextureCoords;
 array Coords2d textureCoords[nTextureCoords];
}

template MeshMaterialList {
 <F6F23F42-7686-11cf-8F52-0040333594A3>
 DWORD nMaterials;
 DWORD nFaceIndexes;
 array DWORD faceIndexes[nFaceIndexes];
 [Material]
}

template MeshNormals {
 <F6F23F43-7686-11cf-8F52-0040333594A3>
 DWORD nNormals;
 array Vector normals[nNormals];
 DWORD nFaceNormals;
 array MeshFace faceNormals[nFaceNormals];
}

template MeshVertexColors {
 <1630B821-7842-11cf-8F52-0040333594A3>
 DWORD nVertexColors;
 array IndexedColor vertexColors[nVertexColors];
}

template Mesh {
 <3D82AB44-62DA-11cf-AB39-0020AF71E433>
 DWORD nVertices;
 array Vector vertices[nVertices];
 DWORD nFaces;
 array MeshFace faces[nFaces];
 [...]
}

Header{
1;
0;
1;
}

Mesh {
 73;
 13.48851;7.65592;-9.27917;,
 13.48851;7.65592;9.27917;,
 13.48851;2.37523;9.27917;,
 13.48851;2.37523;-9.27917;,
 -13.48851;7.65592;9.27917;,
 -13.48851;7.65592;-9.27917;,
 -13.48851;2.37523;-9.27917;,
 -13.48851;2.37523;9.27917;,
 -11.14076;7.65592;-9.27917;,
 -11.14076;2.37523;-9.27917;,
 -10.91337;7.65592;9.27917;,
 -11.07684;7.65592;-8.77246;,
 -11.07684;2.37523;-8.77246;,
 -5.86892;7.65592;-8.77246;,
 -5.86892;2.37523;-8.77246;,
 -5.79816;7.65592;9.27917;,
 -5.79816;2.37523;9.27917;,
 -5.79816;7.65591;-9.27917;,
 -5.79816;2.37523;-9.27917;,
 -6.01258;13.61282;7.97352;,
 6.01258;13.61282;7.97352;,
 6.01258;15.98771;0.54486;,
 -6.01258;15.98771;0.54486;,
 -6.02956;7.28966;9.21526;,
 -6.01258;7.50011;9.15549;,
 -6.01258;7.50011;-1.16656;,
 -4.64048;7.50011;-1.16656;,
 4.53544;7.50011;-1.16656;,
 6.01258;7.50011;9.15549;,
 -4.64048;14.84978;0.31541;,
 4.53544;14.84978;0.31541;,
 -4.64048;8.65288;-0.93412;,
 -6.01258;8.65288;-0.93412;,
 4.53544;8.65288;-0.93412;,
 6.01258;8.65288;-0.93412;,
 -4.64048;14.75086;0.80587;,
 -4.64048;8.92036;-0.44366;,
 4.53544;14.75086;0.80587;,
 4.53544;8.92036;-0.44366;,
 4.53544;8.72131;-1.97645;,
 -4.64048;8.72131;-1.97645;,
 -4.64048;7.56854;-2.20889;,
 4.53544;7.56854;-2.20889;,
 -6.01258;7.56854;-2.20889;,
 -6.01258;8.72131;-1.97645;,
 6.01258;8.72131;-1.97645;,
 6.01258;7.56854;-2.20889;,
 6.01258;7.50011;-1.16656;,
 4.53544;7.73390;-7.21161;,
 -4.64048;7.73390;-7.21161;,
 -4.64048;6.58114;-7.44406;,
 4.53544;6.58114;-7.44406;,
 -6.01258;6.58114;-7.44406;,
 -6.01258;7.73390;-7.21161;,
 6.01258;7.73390;-7.21161;,
 6.01258;6.58114;-7.44406;,
 -13.37681;9.62020;0.83192;,
 -6.02956;9.62020;0.83192;,
 -6.02956;7.28966;-0.94929;,
 -13.37681;7.28966;-0.94929;,
 -6.02956;9.62020;9.21526;,
 -13.37681;9.62020;9.21526;,
 -13.37681;7.28966;9.21526;,
 -10.91337;-0.12631;9.27917;,
 -11.14076;-0.12631;-9.27917;,
 -13.48851;-0.12631;-9.27917;,
 -13.48851;-0.12631;9.27917;,
 -5.79816;-0.12631;9.27917;,
 -5.86892;-0.12631;-8.77246;,
 -11.07684;-0.12631;-8.77246;,
 13.48851;-0.12631;-9.27917;,
 -5.79816;-0.12631;-9.27917;,
 13.48851;-0.12631;9.27917;;
 
 74;
 4;0,1,2,3;,
 4;4,5,6,7;,
 4;8,9,6,5;,
 4;8,5,4,10;,
 4;11,12,9,8;,
 4;13,14,12,11;,
 4;13,11,10,15;,
 4;15,10,7,16;,
 4;17,0,3,18;,
 4;17,18,14,13;,
 4;17,15,1,0;,
 4;15,16,2,1;,
 3;16,14,18;,
 3;7,9,12;,
 3;10,11,8;,
 3;15,17,13;,
 4;19,20,21,22;,
 4;23,24,25,26;,
 4;23,26,27,28;,
 4;29,22,21,30;,
 4;31,32,22,29;,
 4;33,30,21,34;,
 4;32,25,24,23;,
 4;32,23,19,22;,
 4;34,21,20,28;,
 4;23,28,20,19;,
 4;35,36,31,29;,
 4;37,35,29,30;,
 4;38,37,30,33;,
 4;36,38,33,31;,
 4;36,35,37,38;,
 4;39,40,31,33;,
 4;41,42,27,26;,
 4;43,41,26,25;,
 4;44,43,25,32;,
 4;40,44,32,31;,
 4;45,39,33,34;,
 4;46,45,34,47;,
 4;42,46,47,27;,
 4;48,49,40,39;,
 4;50,51,42,41;,
 4;49,48,51,50;,
 4;52,50,41,43;,
 4;53,52,43,44;,
 4;49,53,44,40;,
 4;49,50,52,53;,
 4;54,48,39,45;,
 4;55,54,45,46;,
 4;51,55,46,42;,
 4;48,54,55,51;,
 4;56,57,58,59;,
 4;57,60,23,58;,
 4;60,61,62,23;,
 4;61,56,59,62;,
 4;61,60,57,56;,
 4;59,58,23,62;,
 4;63,64,9,7;,
 4;65,66,7,6;,
 4;64,65,6,9;,
 4;64,63,66,65;,
 4;67,68,14,16;,
 4;63,67,16,7;,
 4;69,63,7,12;,
 4;68,69,12,14;,
 4;68,67,63,69;,
 4;70,71,18,3;,
 4;72,70,3,2;,
 4;67,72,2,16;,
 4;71,67,16,18;,
 4;71,70,72,67;,
 3;28,27,47;,
 3;28,47,34;,
 3;7,10,4;,
 3;7,66,63;;
 
 MeshMaterialList {
  2;
  74;
  0,
  0,
  0,
  0,
  0,
  0,
  0,
  0,
  0,
  0,
  0,
  0,
  1,
  1,
  0,
  0,
  0,
  0,
  0,
  0,
  0,
  0,
  0,
  0,
  0,
  0,
  0,
  0,
  0,
  0,
  1,
  0,
  0,
  0,
  0,
  0,
  0,
  0,
  0,
  0,
  0,
  0,
  0,
  0,
  0,
  0,
  0,
  0,
  0,
  0,
  0,
  0,
  0,
  0,
  0,
  0,
  1,
  1,
  1,
  1,
  1,
  1,
  1,
  1,
  1,
  1,
  1,
  1,
  1,
  1,
  0,
  0,
  0,
  1;;
  Material {
   0.627200;0.612000;0.536800;1.000000;;
   10.000000;
   0.000000;0.000000;0.000000;;
   0.000000;0.000000;0.000000;;
  }
  Material {
   0.109600;0.109600;0.109600;1.000000;;
   5.000000;
   0.000000;0.000000;0.000000;;
   0.000000;0.000000;0.000000;;
  }
 }
 MeshNormals {
  55;
  -1.000000;0.000000;0.000000;,
  1.000000;0.000000;0.000000;,
  0.000000;0.000000;-1.000000;,
  0.000000;1.000000;0.000000;,
  -0.991166;-0.131728;-0.015425;,
  0.992137;0.000000;-0.125153;,
  0.000035;1.000000;-0.000000;,
  0.000000;0.000000;1.000000;,
  -0.270476;-0.957741;-0.097851;,
  -0.407544;-0.906267;-0.112196;,
  0.002184;-0.999363;-0.035617;,
  0.000000;0.952509;0.304511;,
  -0.198824;-0.978294;-0.058397;,
  -0.187912;-0.980154;-0.063139;,
  -0.000000;0.197660;-0.980271;,
  0.000000;0.197661;-0.980271;,
  -0.000000;0.917865;-0.396893;,
  0.000000;0.917865;-0.396893;,
  -0.000001;0.197660;-0.980271;,
  0.000001;0.197660;-0.980271;,
  0.004366;-0.999974;-0.005692;,
  0.000000;-0.980262;-0.197703;,
  0.000000;-0.998175;0.060395;,
  0.000000;-0.998175;0.060395;,
  0.000000;0.998174;-0.060396;,
  0.000000;0.998174;-0.060396;,
  0.000000;0.998174;-0.060396;,
  0.000000;-0.982674;0.185343;,
  0.000000;0.982674;-0.185343;,
  0.000000;0.982674;-0.185343;,
  0.000000;0.896449;-0.443147;,
  0.000000;0.607242;-0.794517;,
  0.920616;0.388303;0.041060;,
  -0.920480;-0.388136;-0.045451;,
  0.999992;0.000000;-0.003919;,
  0.979101;0.198765;-0.043045;,
  0.000052;1.000000;-0.000000;,
  -0.990392;0.000000;-0.138291;,
  -0.997595;0.000000;-0.069312;,
  0.000052;1.000000;-0.000000;,
  -0.000000;1.000000;-0.000000;,
  0.000000;-1.000000;0.000000;,
  -0.041858;-0.992666;-0.113415;,
  -1.000000;0.000605;-0.000337;,
  -0.999999;0.001210;-0.000674;,
  0.000377;0.096080;0.995373;,
  0.000751;0.191271;0.981537;,
  0.000000;0.598248;-0.801311;,
  0.000000;0.209551;-0.977798;,
  0.000000;0.997852;0.065508;,
  0.000000;0.997852;0.065508;,
  0.000000;-0.999463;-0.032773;,
  0.000000;0.197663;-0.980270;,
  0.000000;0.197663;-0.980270;,
  0.000000;-0.000000;1.000000;;
  74;
  4;1,1,1,1;,
  4;0,0,0,4;,
  4;2,2,2,2;,
  4;3,3,3,3;,
  4;5,5,35,5;,
  4;2,2,2,2;,
  4;36,3,3,6;,
  4;7,7,7,7;,
  4;2,2,2,2;,
  4;37,38,37,37;,
  4;39,6,40,40;,
  4;7,7,7,7;,
  3;41,41,41;,
  3;41,41,41;,
  3;3,3,3;,
  3;6,39,36;,
  4;11,11,11,11;,
  4;12,9,8,13;,
  4;12,13,10,20;,
  4;14,14,15,15;,
  4;16,18,14,14;,
  4;17,15,15,19;,
  4;42,8,9,12;,
  4;43,44,44,44;,
  4;1,1,1,1;,
  4;45,46,46,46;,
  4;1,1,1,1;,
  4;21,21,21,21;,
  4;0,0,0,0;,
  4;47,47,17,16;,
  4;47,48,48,47;,
  4;25,24,16,17;,
  4;23,23,10,13;,
  4;22,23,13,8;,
  4;0,0,0,43;,
  4;24,25,49,16;,
  4;26,25,17,50;,
  4;1,1,1,1;,
  4;23,23,51,10;,
  4;28,28,24,25;,
  4;27,27,23,23;,
  4;52,52,52,52;,
  4;27,27,23,22;,
  4;0,0,0,0;,
  4;28,29,25,24;,
  4;52,52,53,53;,
  4;29,28,25,26;,
  4;1,1,1,1;,
  4;27,27,23,23;,
  4;52,53,53,52;,
  4;30,30,31,31;,
  4;1,1,1,1;,
  4;7,7,7,45;,
  4;0,0,0,0;,
  4;3,3,30,30;,
  4;41,41,12,41;,
  4;32,32,35,32;,
  4;0,0,4,0;,
  4;2,2,2,2;,
  4;41,41,41,41;,
  4;34,34,34,34;,
  4;7,7,7,7;,
  4;33,33,4,33;,
  4;2,2,2,2;,
  4;41,41,41,41;,
  4;2,2,2,2;,
  4;1,1,1,1;,
  4;7,7,7,7;,
  4;0,0,0,38;,
  4;41,41,41,41;,
  3;20,10,51;,
  3;1,1,1;,
  3;7,7,54;,
  3;7,7,7;;
 }
}
