xof 0302txt 0064
template Header {
 <3D82AB43-62DA-11cf-AB39-0020AF71E433>
 WORD major;
 WORD minor;
 DWORD flags;
}

template Vector {
 <3D82AB5E-62DA-11cf-AB39-0020AF71E433>
 FLOAT x;
 FLOAT y;
 FLOAT z;
}

template Coords2d {
 <F6F23F44-7686-11cf-8F52-0040333594A3>
 FLOAT u;
 FLOAT v;
}

template Matrix4x4 {
 <F6F23F45-7686-11cf-8F52-0040333594A3>
 array FLOAT matrix[16];
}

template ColorRGBA {
 <35FF44E0-6C7C-11cf-8F52-0040333594A3>
 FLOAT red;
 FLOAT green;
 FLOAT blue;
 FLOAT alpha;
}

template ColorRGB {
 <D3E16E81-7835-11cf-8F52-0040333594A3>
 FLOAT red;
 FLOAT green;
 FLOAT blue;
}

template IndexedColor {
 <1630B820-7842-11cf-8F52-0040333594A3>
 DWORD index;
 ColorRGBA indexColor;
}

template Boolean {
 <4885AE61-78E8-11cf-8F52-0040333594A3>
 WORD truefalse;
}

template Boolean2d {
 <4885AE63-78E8-11cf-8F52-0040333594A3>
 Boolean u;
 Boolean v;
}

template MaterialWrap {
 <4885AE60-78E8-11cf-8F52-0040333594A3>
 Boolean u;
 Boolean v;
}

template TextureFilename {
 <A42790E1-7810-11cf-8F52-0040333594A3>
 STRING filename;
}

template Material {
 <3D82AB4D-62DA-11cf-AB39-0020AF71E433>
 ColorRGBA faceColor;
 FLOAT power;
 ColorRGB specularColor;
 ColorRGB emissiveColor;
 [...]
}

template MeshFace {
 <3D82AB5F-62DA-11cf-AB39-0020AF71E433>
 DWORD nFaceVertexIndices;
 array DWORD faceVertexIndices[nFaceVertexIndices];
}

template MeshFaceWraps {
 <4885AE62-78E8-11cf-8F52-0040333594A3>
 DWORD nFaceWrapValues;
 Boolean2d faceWrapValues;
}

template MeshTextureCoords {
 <F6F23F40-7686-11cf-8F52-0040333594A3>
 DWORD nTextureCoords;
 array Coords2d textureCoords[nTextureCoords];
}

template MeshMaterialList {
 <F6F23F42-7686-11cf-8F52-0040333594A3>
 DWORD nMaterials;
 DWORD nFaceIndexes;
 array DWORD faceIndexes[nFaceIndexes];
 [Material]
}

template MeshNormals {
 <F6F23F43-7686-11cf-8F52-0040333594A3>
 DWORD nNormals;
 array Vector normals[nNormals];
 DWORD nFaceNormals;
 array MeshFace faceNormals[nFaceNormals];
}

template MeshVertexColors {
 <1630B821-7842-11cf-8F52-0040333594A3>
 DWORD nVertexColors;
 array IndexedColor vertexColors[nVertexColors];
}

template Mesh {
 <3D82AB44-62DA-11cf-AB39-0020AF71E433>
 DWORD nVertices;
 array Vector vertices[nVertices];
 DWORD nFaces;
 array MeshFace faces[nFaces];
 [...]
}

Header{
1;
0;
1;
}

Mesh {
 126;
 0.13486;2.32469;-3.74357;,
 9.60885;1.74591;-2.43783;,
 9.60885;0.55326;-2.43783;,
 0.13486;0.55326;-3.74357;,
 -9.60885;0.55326;-2.43783;,
 -9.60885;1.74591;-2.43783;,
 -9.60885;1.74591;2.43783;,
 0.13486;2.32469;3.74357;,
 9.60885;1.74591;2.43783;,
 9.60885;0.55326;2.43783;,
 0.13486;0.55326;3.74357;,
 -9.60885;0.55326;2.43783;,
 12.57493;1.10282;0.92177;,
 12.57493;1.10282;-0.92177;,
 12.57493;0.55326;0.92177;,
 12.57493;0.55326;-0.92177;,
 -12.57493;1.10282;-0.92177;,
 -12.57493;1.10282;0.92177;,
 -12.57493;0.55326;-0.92177;,
 -12.57493;0.55326;0.92177;,
 3.25564;3.76637;-0.44280;,
 3.25564;3.76637;0.44280;,
 3.25564;2.07270;0.44280;,
 3.25564;2.07270;-0.44280;,
 -3.25564;3.76637;0.44280;,
 -3.25564;3.76637;-0.44280;,
 -3.25564;2.07270;-0.44280;,
 -3.25564;2.07270;0.44280;,
 2.13069;5.09757;-0.98843;,
 2.13069;5.09757;0.98843;,
 -2.13069;5.09757;0.44280;,
 -2.13069;5.09757;-0.44280;,
 1.55617;6.36996;-0.98843;,
 1.55617;6.36996;0.98843;,
 -1.55617;6.36996;0.98843;,
 -1.55617;6.36996;-0.98843;,
 1.98699;7.25084;-0.98843;,
 1.98699;7.25084;0.98843;,
 -1.98699;7.25084;0.98843;,
 -1.98699;7.25084;-0.44280;,
 3.38815;8.37642;-0.44280;,
 3.38815;8.37642;0.44280;,
 -3.38815;8.37642;0.44280;,
 -3.38815;8.37642;-0.44280;,
 3.38815;9.35518;-0.44280;,
 3.38815;9.35518;0.44280;,
 -3.38815;9.35518;0.44280;,
 -3.38815;9.35518;-0.44280;,
 0.15637;9.35518;1.67706;,
 0.15637;9.35518;-1.67706;,
 0.15637;8.37642;1.67706;,
 0.15637;8.37642;-1.67706;,
 0.09171;7.25084;1.67706;,
 0.09171;7.25084;-1.67706;,
 0.07182;6.36996;1.67706;,
 0.07182;6.36996;-1.67706;,
 0.09834;5.09757;1.67706;,
 0.09834;5.09757;-1.67706;,
 0.15026;3.76637;1.67706;,
 0.15026;3.76637;-1.67706;,
 0.15026;2.07270;1.67706;,
 0.15026;2.07270;-1.67706;,
 -10.00000;37.32838;2.27342;,
 10.00000;37.32838;2.27342;,
 10.00000;37.32838;-2.27342;,
 -10.00000;37.32838;-2.27342;,
 -10.00000;8.68749;-2.27342;,
 10.00000;8.68749;-2.27342;,
 10.00000;8.68749;2.27342;,
 -10.00000;8.68749;2.27342;,
 17.90225;37.32838;3.70513;,
 17.90225;37.32838;-0.84170;,
 17.90225;8.68749;-0.84170;,
 17.90225;8.68749;3.70513;,
 -17.90225;37.32838;-0.84170;,
 -17.90225;37.32838;3.70513;,
 -17.90225;8.68749;3.70513;,
 -17.90225;8.68749;-0.84170;,
 25.14598;37.32838;6.39351;,
 25.14598;37.32838;1.84667;,
 25.14598;8.68749;1.84667;,
 25.14598;8.68749;6.39351;,
 -25.14598;37.32838;1.84667;,
 -25.14598;37.32838;6.39351;,
 -25.14598;8.68749;6.39351;,
 -25.14598;8.68749;1.84667;,
 17.90225;34.83526;3.70513;,
 25.14598;34.83526;6.39351;,
 10.00000;34.83526;2.27342;,
 -10.00000;34.83526;2.27342;,
 -17.90225;34.83526;3.70513;,
 -25.14598;34.83526;6.39351;,
 25.14598;10.34224;6.39351;,
 17.90225;10.34224;3.70513;,
 10.00000;10.34224;2.27342;,
 35.52776;8.68749;11.21363;,
 35.52776;8.68749;6.66679;,
 35.52776;37.32838;6.66679;,
 35.52776;37.32838;11.21363;,
 -10.00000;10.34224;2.27342;,
 -17.90225;10.34224;3.70513;,
 -25.14598;10.34224;6.39351;,
 -35.52776;8.68749;11.21363;,
 -35.52776;37.32838;11.21363;,
 -35.52776;37.32838;6.66679;,
 -35.52776;8.68749;6.66679;,
 33.83769;34.83526;10.42895;,
 33.83769;10.34224;10.42895;,
 -32.64707;34.83526;9.87616;,
 -32.64707;10.34224;9.87616;,
 18.46535;34.83526;1.64895;,
 25.96895;34.83526;4.41969;,
 25.96894;10.34224;4.41969;,
 18.46535;10.34224;1.64895;,
 10.19077;34.83526;0.15037;,
 10.19077;10.34224;0.15037;,
 -10.19077;34.83526;0.15037;,
 -10.19077;10.34224;0.15037;,
 -18.46535;34.83526;1.64895;,
 -18.46535;10.34224;1.64895;,
 -25.96895;34.83526;4.41969;,
 -25.96894;10.34224;4.41969;,
 34.73895;34.83526;8.48778;,
 34.73895;10.34224;8.48778;,
 -33.54833;10.34224;7.93499;,
 -33.54833;34.83526;7.93499;;
 
 127;
 4;0,1,2,3;,
 4;0,3,4,5;,
 4;0,5,6,7;,
 4;0,7,8,1;,
 4;3,2,9,10;,
 4;3,10,11,4;,
 4;7,6,11,10;,
 4;7,10,9,8;,
 4;12,13,1,8;,
 4;14,12,8,9;,
 4;15,14,9,2;,
 4;13,15,2,1;,
 4;13,12,14,15;,
 4;16,17,6,5;,
 4;18,16,5,4;,
 4;19,18,4,11;,
 4;17,19,11,6;,
 4;17,16,18,19;,
 4;20,21,22,23;,
 4;24,25,26,27;,
 4;28,29,21,20;,
 4;30,31,25,24;,
 4;32,33,29,28;,
 4;34,35,31,30;,
 4;36,37,33,32;,
 4;38,39,35,34;,
 4;40,41,37,36;,
 4;42,43,39,38;,
 4;44,45,41,40;,
 4;46,47,43,42;,
 4;48,45,44,49;,
 4;48,49,47,46;,
 4;48,46,42,50;,
 4;48,50,41,45;,
 4;49,44,40,51;,
 4;49,51,43,47;,
 4;50,42,38,52;,
 4;50,52,37,41;,
 4;51,40,36,53;,
 4;51,53,39,43;,
 4;52,38,34,54;,
 4;52,54,33,37;,
 4;53,36,32,55;,
 4;53,55,35,39;,
 4;54,34,30,56;,
 4;54,56,29,33;,
 4;55,32,28,57;,
 4;55,57,31,35;,
 4;56,30,24,58;,
 4;56,58,21,29;,
 4;57,28,20,59;,
 4;57,59,25,31;,
 4;58,24,27,60;,
 4;58,60,22,21;,
 4;59,20,23,61;,
 4;59,61,26,25;,
 4;60,27,26,61;,
 4;60,61,23,22;,
 4;62,63,64,65;,
 4;66,67,68,69;,
 4;70,71,64,63;,
 4;72,73,68,67;,
 4;74,75,62,65;,
 4;76,77,66,69;,
 4;78,79,71,70;,
 4;80,81,73,72;,
 4;82,83,75,74;,
 4;84,85,77,76;,
 4;86,87,78,70;,
 4;86,70,63,88;,
 4;88,63,62,89;,
 4;89,62,75,90;,
 4;90,75,83,91;,
 4;92,93,73,81;,
 4;93,94,68,73;,
 4;95,96,97,98;,
 4;94,99,69,68;,
 4;99,100,76,69;,
 4;100,101,84,76;,
 4;102,103,104,105;,
 4;98,78,87,106;,
 4;98,97,79,78;,
 4;106,107,95,98;,
 4;107,92,81,95;,
 4;95,81,80,96;,
 4;103,108,91,83;,
 4;103,83,82,104;,
 4;108,103,102,109;,
 4;109,102,84,101;,
 4;102,105,85,84;,
 4;110,111,87,86;,
 4;112,113,93,92;,
 4;112,111,110,113;,
 4;114,110,86,88;,
 4;113,115,94,93;,
 4;113,110,114,115;,
 4;116,114,88,89;,
 4;115,117,99,94;,
 4;115,114,116,117;,
 4;118,116,89,90;,
 4;117,119,100,99;,
 4;117,116,118,119;,
 4;120,118,90,91;,
 4;119,121,101,100;,
 4;119,118,120,121;,
 4;111,122,106,87;,
 4;123,112,92,107;,
 4;122,123,107,106;,
 4;122,111,112,123;,
 4;124,125,108,109;,
 4;121,124,109,101;,
 4;125,120,91,108;,
 4;125,124,121,120;,
 3;97,80,79;,
 3;80,72,71;,
 3;80,97,96;,
 3;71,79,80;,
 3;71,67,64;,
 3;67,71,72;,
 3;67,66,65;,
 3;65,64,67;,
 3;65,77,74;,
 3;77,65,66;,
 3;77,85,82;,
 3;82,74,77;,
 3;82,105,104;,
 3;105,82,85;;
 
 MeshMaterialList {
  2;
  127;
  0,
  0,
  0,
  0,
  0,
  0,
  0,
  0,
  0,
  0,
  0,
  0,
  0,
  0,
  0,
  0,
  0,
  0,
  0,
  0,
  0,
  0,
  0,
  0,
  0,
  0,
  0,
  0,
  0,
  0,
  0,
  0,
  0,
  0,
  0,
  0,
  0,
  0,
  0,
  0,
  0,
  0,
  0,
  0,
  0,
  0,
  0,
  0,
  0,
  0,
  0,
  0,
  0,
  0,
  0,
  0,
  0,
  0,
  0,
  0,
  0,
  0,
  0,
  0,
  0,
  0,
  0,
  0,
  0,
  0,
  0,
  0,
  0,
  0,
  0,
  0,
  0,
  0,
  0,
  0,
  0,
  0,
  0,
  0,
  0,
  0,
  0,
  0,
  0,
  0,
  0,
  0,
  1,
  0,
  0,
  1,
  0,
  0,
  1,
  0,
  0,
  1,
  0,
  0,
  1,
  0,
  0,
  0,
  1,
  0,
  0,
  0,
  1,
  0,
  0,
  0,
  0,
  0,
  0,
  0,
  0,
  0,
  0,
  0,
  0,
  0,
  0;;
  Material {
   0.690400;0.690400;0.690400;1.000000;;
   23.000000;
   0.750000;0.750000;0.750000;;
   0.000000;0.000000;0.000000;;
  }
  Material {
   0.097600;0.097600;0.097600;1.000000;;
   5.000000;
   0.000000;0.000000;0.000000;;
   0.000000;0.000000;0.000000;;
  }
 }
 MeshNormals {
  107;
  -0.298255;0.000000;-0.954486;,
  0.300043;0.000000;-0.953926;,
  0.136832;0.990594;0.000000;,
  0.000000;-1.000000;-0.000000;,
  -0.135998;0.990709;0.000000;,
  0.001873;0.000000;-0.999998;,
  0.000842;1.000000;0.000000;,
  -0.211892;0.977293;0.000000;,
  -0.455126;0.000000;-0.890427;,
  0.211892;0.977293;0.000000;,
  0.455126;0.000000;0.890427;,
  -0.939094;0.343659;0.000000;,
  -1.000000;0.000000;0.000000;,
  0.939094;0.343659;0.000000;,
  1.000000;0.000000;0.000000;,
  -0.845726;0.533618;0.000000;,
  0.845726;0.533618;0.000000;,
  -0.999882;-0.015374;0.000000;,
  0.999882;-0.015374;-0.000000;,
  -0.781048;-0.624471;0.000000;,
  0.781048;-0.624471;-0.000000;,
  -0.901741;-0.432278;0.000000;,
  0.901741;-0.432278;-0.000000;,
  0.000000;1.000000;0.000000;,
  0.014774;0.007382;0.999864;,
  -0.011143;-0.049847;-0.998695;,
  0.015072;-0.035182;0.999267;,
  -0.036931;-0.035840;-0.998675;,
  -0.009933;-0.044745;0.998949;,
  -0.035903;0.013592;-0.999263;,
  -0.035982;0.026566;0.998999;,
  -0.035982;0.026566;-0.998999;,
  -0.010235;0.027667;0.999565;,
  -0.010235;0.027667;-0.999565;,
  0.015322;0.000000;0.999883;,
  0.015322;0.000000;-0.999883;,
  0.001873;0.000000;0.999998;,
  -0.298255;0.000000;0.954486;,
  0.300043;0.000000;0.953926;,
  0.455126;0.000000;-0.890427;,
  -0.455126;0.000000;0.890427;,
  0.014866;0.000000;0.999889;,
  -0.328849;0.000000;0.944382;,
  -0.325216;0.016614;0.945494;,
  0.352966;-0.002724;0.935632;,
  0.356779;0.000000;0.934189;,
  0.014866;0.000000;-0.999889;,
  0.356779;0.000000;-0.934189;,
  0.352966;-0.002724;-0.935632;,
  -0.375670;-0.090251;-0.922349;,
  -0.328849;0.000000;-0.944382;,
  -0.337063;-0.019368;0.941283;,
  0.365102;-0.046502;0.929806;,
  0.365102;-0.046502;-0.929806;,
  -0.437634;-0.018967;-0.898953;,
  -0.394158;-0.076865;0.915823;,
  0.376732;-0.005566;0.926306;,
  0.376732;-0.005566;-0.926306;,
  -0.443410;0.030404;-0.895803;,
  -0.426230;0.024685;0.904278;,
  0.358362;0.024182;0.933269;,
  0.358362;0.024182;-0.933269;,
  -0.426230;0.024685;-0.904278;,
  -0.377326;0.065570;0.923756;,
  0.357284;-0.014041;0.933890;,
  0.357284;-0.014041;-0.933890;,
  -0.377326;0.065570;-0.923756;,
  -0.340707;0.000000;0.940170;,
  0.369354;0.000000;0.929289;,
  0.369354;0.000000;-0.929289;,
  -0.340707;0.000000;-0.940170;,
  0.000000;1.000000;0.000000;,
  0.000000;-1.000000;-0.000000;,
  -0.264132;0.000000;0.964486;,
  -0.384829;-0.000000;0.922988;,
  -0.089497;0.000000;0.995987;,
  1.000000;0.000000;0.000000;,
  0.089497;0.000000;0.995987;,
  0.264132;0.000000;0.964486;,
  0.384829;-0.000001;0.922988;,
  -0.384829;0.000001;0.922988;,
  0.384829;0.000001;0.922988;,
  -0.421113;-0.000000;0.907008;,
  -0.421113;0.000001;0.907008;,
  -1.000000;0.000000;0.000000;,
  0.421113;-0.000001;0.907009;,
  0.421113;0.000001;0.907009;,
  0.907008;0.000000;-0.421112;,
  -0.383907;0.000000;0.923372;,
  -0.263303;0.000000;0.964713;,
  -0.089462;0.000000;0.995990;,
  0.089462;0.000000;0.995990;,
  0.263303;0.000000;0.964713;,
  0.383882;0.000000;0.923382;,
  -0.907008;0.000000;-0.421112;,
  -0.420797;0.000000;0.907155;,
  0.420747;0.000000;0.907178;,
  0.421112;0.000000;-0.907009;,
  0.384829;0.000000;-0.922988;,
  0.264132;0.000000;-0.964486;,
  0.421112;0.000000;-0.907009;,
  0.089497;0.000000;-0.995987;,
  -0.089497;0.000000;-0.995987;,
  -0.264132;0.000000;-0.964486;,
  -0.384829;0.000000;-0.922988;,
  -0.421112;0.000000;-0.907009;,
  -0.421112;0.000000;-0.907009;;
  127;
  4;5,1,1,5;,
  4;5,5,0,0;,
  4;6,4,4,6;,
  4;6,6,2,2;,
  4;3,3,3,3;,
  4;3,3,3,3;,
  4;36,37,37,36;,
  4;36,36,38,38;,
  4;9,9,2,2;,
  4;10,10,38,38;,
  4;3,3,3,3;,
  4;39,39,1,1;,
  4;14,14,14,14;,
  4;7,7,4,4;,
  4;8,8,0,0;,
  4;3,3,3,3;,
  4;40,40,37,37;,
  4;12,12,12,12;,
  4;13,13,14,14;,
  4;11,11,12,12;,
  4;16,16,13,13;,
  4;15,15,11,11;,
  4;18,18,16,16;,
  4;17,17,15,15;,
  4;20,20,18,18;,
  4;19,19,17,17;,
  4;22,22,20,20;,
  4;21,21,19,19;,
  4;14,14,22,22;,
  4;12,12,21,21;,
  4;23,23,23,23;,
  4;23,23,23,23;,
  4;41,42,43,24;,
  4;41,24,44,45;,
  4;46,47,48,25;,
  4;46,25,49,50;,
  4;24,43,51,26;,
  4;24,26,52,44;,
  4;25,48,53,27;,
  4;25,27,54,49;,
  4;26,51,55,28;,
  4;26,28,56,52;,
  4;27,53,57,29;,
  4;27,29,58,54;,
  4;28,55,59,30;,
  4;28,30,60,56;,
  4;29,57,61,31;,
  4;29,31,62,58;,
  4;30,59,63,32;,
  4;30,32,64,60;,
  4;31,61,65,33;,
  4;31,33,66,62;,
  4;32,63,67,34;,
  4;32,34,68,64;,
  4;33,65,69,35;,
  4;33,35,70,66;,
  4;3,3,3,3;,
  4;3,3,3,3;,
  4;71,71,71,71;,
  4;72,72,72,72;,
  4;71,71,71,71;,
  4;72,72,72,72;,
  4;71,71,71,71;,
  4;72,72,72,72;,
  4;71,71,71,71;,
  4;72,72,72,72;,
  4;71,71,71,71;,
  4;72,72,72,72;,
  4;73,74,74,73;,
  4;73,73,75,75;,
  4;75,75,77,77;,
  4;77,77,78,78;,
  4;78,78,79,79;,
  4;80,73,73,80;,
  4;73,75,75,73;,
  4;76,76,76,76;,
  4;75,77,77,75;,
  4;77,78,78,77;,
  4;78,81,81,78;,
  4;84,84,84,84;,
  4;82,74,74,82;,
  4;71,71,71,71;,
  4;82,83,83,82;,
  4;83,80,80,83;,
  4;72,72,72,72;,
  4;85,85,79,79;,
  4;71,71,71,71;,
  4;85,85,86,86;,
  4;86,86,81,81;,
  4;72,72,72,72;,
  4;72,72,72,72;,
  4;71,71,71,71;,
  4;88,88,89,89;,
  4;72,72,72,72;,
  4;71,71,71,71;,
  4;89,89,90,90;,
  4;72,72,72,72;,
  4;71,71,71,71;,
  4;90,90,91,91;,
  4;72,72,72,72;,
  4;71,71,71,71;,
  4;91,91,92,92;,
  4;72,72,72,72;,
  4;71,71,71,71;,
  4;92,92,93,93;,
  4;72,72,72,72;,
  4;71,71,71,71;,
  4;94,94,94,94;,
  4;95,88,88,95;,
  4;87,87,87,87;,
  4;71,71,71,71;,
  4;72,72,72,72;,
  4;96,96,93,93;,
  3;97,98,98;,
  3;98,99,99;,
  3;98,97,100;,
  3;99,98,98;,
  3;99,101,101;,
  3;101,99,99;,
  3;101,102,102;,
  3;102,101,101;,
  3;102,103,103;,
  3;103,102,102;,
  3;103,104,104;,
  3;104,103,103;,
  3;104,105,106;,
  3;105,104,104;;
 }
}
