xof 0302txt 0064
template Header {
 <3D82AB43-62DA-11cf-AB39-0020AF71E433>
 WORD major;
 WORD minor;
 DWORD flags;
}

template Vector {
 <3D82AB5E-62DA-11cf-AB39-0020AF71E433>
 FLOAT x;
 FLOAT y;
 FLOAT z;
}

template Coords2d {
 <F6F23F44-7686-11cf-8F52-0040333594A3>
 FLOAT u;
 FLOAT v;
}

template Matrix4x4 {
 <F6F23F45-7686-11cf-8F52-0040333594A3>
 array FLOAT matrix[16];
}

template ColorRGBA {
 <35FF44E0-6C7C-11cf-8F52-0040333594A3>
 FLOAT red;
 FLOAT green;
 FLOAT blue;
 FLOAT alpha;
}

template ColorRGB {
 <D3E16E81-7835-11cf-8F52-0040333594A3>
 FLOAT red;
 FLOAT green;
 FLOAT blue;
}

template IndexedColor {
 <1630B820-7842-11cf-8F52-0040333594A3>
 DWORD index;
 ColorRGBA indexColor;
}

template Boolean {
 <4885AE61-78E8-11cf-8F52-0040333594A3>
 WORD truefalse;
}

template Boolean2d {
 <4885AE63-78E8-11cf-8F52-0040333594A3>
 Boolean u;
 Boolean v;
}

template MaterialWrap {
 <4885AE60-78E8-11cf-8F52-0040333594A3>
 Boolean u;
 Boolean v;
}

template TextureFilename {
 <A42790E1-7810-11cf-8F52-0040333594A3>
 STRING filename;
}

template Material {
 <3D82AB4D-62DA-11cf-AB39-0020AF71E433>
 ColorRGBA faceColor;
 FLOAT power;
 ColorRGB specularColor;
 ColorRGB emissiveColor;
 [...]
}

template MeshFace {
 <3D82AB5F-62DA-11cf-AB39-0020AF71E433>
 DWORD nFaceVertexIndices;
 array DWORD faceVertexIndices[nFaceVertexIndices];
}

template MeshFaceWraps {
 <4885AE62-78E8-11cf-8F52-0040333594A3>
 DWORD nFaceWrapValues;
 Boolean2d faceWrapValues;
}

template MeshTextureCoords {
 <F6F23F40-7686-11cf-8F52-0040333594A3>
 DWORD nTextureCoords;
 array Coords2d textureCoords[nTextureCoords];
}

template MeshMaterialList {
 <F6F23F42-7686-11cf-8F52-0040333594A3>
 DWORD nMaterials;
 DWORD nFaceIndexes;
 array DWORD faceIndexes[nFaceIndexes];
 [Material]
}

template MeshNormals {
 <F6F23F43-7686-11cf-8F52-0040333594A3>
 DWORD nNormals;
 array Vector normals[nNormals];
 DWORD nFaceNormals;
 array MeshFace faceNormals[nFaceNormals];
}

template MeshVertexColors {
 <1630B821-7842-11cf-8F52-0040333594A3>
 DWORD nVertexColors;
 array IndexedColor vertexColors[nVertexColors];
}

template Mesh {
 <3D82AB44-62DA-11cf-AB39-0020AF71E433>
 DWORD nVertices;
 array Vector vertices[nVertices];
 DWORD nFaces;
 array MeshFace faces[nFaces];
 [...]
}

Header{
1;
0;
1;
}

Mesh {
 28;
 -26.82687;48.80473;-0.20643;,
 26.42059;48.80473;-0.20643;,
 26.42059;11.34269;-4.80620;,
 -26.82687;11.34269;-4.80620;,
 26.42059;48.16011;5.04359;,
 26.42059;10.69805;0.44383;,
 -26.82687;48.16011;5.04359;,
 -26.82687;10.69805;0.44383;,
 -26.82687;11.34269;-4.80620;,
 26.42059;11.34269;-4.80620;,
 26.42059;10.69805;0.44383;,
 -26.82687;10.69805;0.44383;,
 -10.00000;11.19520;-3.52238;,
 10.00000;11.19520;-3.52238;,
 10.00000;2.79799;-3.52238;,
 -10.00000;2.79799;-3.52238;,
 10.00000;11.19520;-0.10066;,
 10.00000;2.79799;-0.10066;,
 -10.00000;11.19520;-0.10066;,
 -10.00000;2.79799;-0.10066;,
 -17.83459;3.15365;-5.14937;,
 17.83459;3.15365;-5.14937;,
 17.83459;0.01009;-5.14937;,
 -17.83459;0.01009;-5.14937;,
 17.83459;3.15365;1.52633;,
 17.83459;0.01009;1.52633;,
 -17.83459;3.15365;1.52633;,
 -17.83459;0.01009;1.52633;;
 
 18;
 4;0,1,2,3;,
 4;1,4,5,2;,
 4;4,6,7,5;,
 4;6,0,3,7;,
 4;6,4,1,0;,
 4;8,9,10,11;,
 4;12,13,14,15;,
 4;13,16,17,14;,
 4;16,18,19,17;,
 4;18,12,15,19;,
 4;18,16,13,12;,
 4;15,14,17,19;,
 4;20,21,22,23;,
 4;21,24,25,22;,
 4;24,26,27,25;,
 4;26,20,23,27;,
 4;26,24,21,20;,
 4;23,22,25,27;;
 
 MeshMaterialList {
  5;
  18;
  1,
  0,
  0,
  0,
  0,
  0,
  2,
  2,
  2,
  2,
  2,
  2,
  2,
  2,
  2,
  2,
  2,
  2;;
  Material {
   0.000000;0.000000;0.000000;1.000000;;
   5.000000;
   0.000000;0.000000;0.000000;;
   0.000000;0.000000;0.000000;;
  }
  Material {
   0.800000;0.800000;0.800000;1.000000;;
   5.000000;
   0.000000;0.000000;0.000000;;
   0.000000;0.000000;0.000000;;
   TextureFilename {
    "C:\\Users\\student\\Desktop\\babel\\date\\MODEL\\mqo\\texture\\PC_gamen.png";
   }
  }
  Material {
   0.524000;0.524000;0.524000;1.000000;;
   5.000000;
   0.000000;0.000000;0.000000;;
   0.000000;0.000000;0.000000;;
  }
  Material {
   0.800000;0.800000;0.800000;1.000000;;
   5.000000;
   0.000000;0.000000;0.000000;;
   0.000000;0.000000;0.000000;;
   TextureFilename {
    "C:\\Users\\student\\Desktop\\babel\\date\\MODEL\\mqo\\texture\\woos1.jpg";
   }
  }
  Material {
   0.800000;0.800000;0.800000;1.000000;;
   5.000000;
   0.000000;0.000000;0.000000;;
   0.000000;0.000000;0.000000;;
   TextureFilename {
    "C:\\Users\\student\\Desktop\\babel\\date\\MODEL\\mqo\\texture\\パソ\コン　縦画像.png";
   }
  }
 }
 MeshNormals {
  10;
  0.000000;0.121870;-0.992546;,
  1.000000;0.000000;0.000000;,
  0.000000;-0.121869;0.992546;,
  0.000000;-0.992546;-0.121873;,
  0.000000;0.000000;-1.000000;,
  0.000000;0.000000;1.000000;,
  -1.000000;0.000000;0.000000;,
  0.000000;0.992546;0.121869;,
  0.000000;1.000000;0.000000;,
  0.000000;-1.000000;-0.000000;;
  18;
  4;0,0,0,0;,
  4;1,1,1,1;,
  4;2,2,2,2;,
  4;6,6,6,6;,
  4;7,7,7,7;,
  4;3,3,3,3;,
  4;4,4,4,4;,
  4;1,1,1,1;,
  4;5,5,5,5;,
  4;6,6,6,6;,
  4;8,8,8,8;,
  4;9,9,9,9;,
  4;4,4,4,4;,
  4;1,1,1,1;,
  4;5,5,5,5;,
  4;6,6,6,6;,
  4;8,8,8,8;,
  4;9,9,9,9;;
 }
}
