xof 0302txt 0064
template Header {
 <3D82AB43-62DA-11cf-AB39-0020AF71E433>
 WORD major;
 WORD minor;
 DWORD flags;
}

template Vector {
 <3D82AB5E-62DA-11cf-AB39-0020AF71E433>
 FLOAT x;
 FLOAT y;
 FLOAT z;
}

template Coords2d {
 <F6F23F44-7686-11cf-8F52-0040333594A3>
 FLOAT u;
 FLOAT v;
}

template Matrix4x4 {
 <F6F23F45-7686-11cf-8F52-0040333594A3>
 array FLOAT matrix[16];
}

template ColorRGBA {
 <35FF44E0-6C7C-11cf-8F52-0040333594A3>
 FLOAT red;
 FLOAT green;
 FLOAT blue;
 FLOAT alpha;
}

template ColorRGB {
 <D3E16E81-7835-11cf-8F52-0040333594A3>
 FLOAT red;
 FLOAT green;
 FLOAT blue;
}

template IndexedColor {
 <1630B820-7842-11cf-8F52-0040333594A3>
 DWORD index;
 ColorRGBA indexColor;
}

template Boolean {
 <4885AE61-78E8-11cf-8F52-0040333594A3>
 WORD truefalse;
}

template Boolean2d {
 <4885AE63-78E8-11cf-8F52-0040333594A3>
 Boolean u;
 Boolean v;
}

template MaterialWrap {
 <4885AE60-78E8-11cf-8F52-0040333594A3>
 Boolean u;
 Boolean v;
}

template TextureFilename {
 <A42790E1-7810-11cf-8F52-0040333594A3>
 STRING filename;
}

template Material {
 <3D82AB4D-62DA-11cf-AB39-0020AF71E433>
 ColorRGBA faceColor;
 FLOAT power;
 ColorRGB specularColor;
 ColorRGB emissiveColor;
 [...]
}

template MeshFace {
 <3D82AB5F-62DA-11cf-AB39-0020AF71E433>
 DWORD nFaceVertexIndices;
 array DWORD faceVertexIndices[nFaceVertexIndices];
}

template MeshFaceWraps {
 <4885AE62-78E8-11cf-8F52-0040333594A3>
 DWORD nFaceWrapValues;
 Boolean2d faceWrapValues;
}

template MeshTextureCoords {
 <F6F23F40-7686-11cf-8F52-0040333594A3>
 DWORD nTextureCoords;
 array Coords2d textureCoords[nTextureCoords];
}

template MeshMaterialList {
 <F6F23F42-7686-11cf-8F52-0040333594A3>
 DWORD nMaterials;
 DWORD nFaceIndexes;
 array DWORD faceIndexes[nFaceIndexes];
 [Material]
}

template MeshNormals {
 <F6F23F43-7686-11cf-8F52-0040333594A3>
 DWORD nNormals;
 array Vector normals[nNormals];
 DWORD nFaceNormals;
 array MeshFace faceNormals[nFaceNormals];
}

template MeshVertexColors {
 <1630B821-7842-11cf-8F52-0040333594A3>
 DWORD nVertexColors;
 array IndexedColor vertexColors[nVertexColors];
}

template Mesh {
 <3D82AB44-62DA-11cf-AB39-0020AF71E433>
 DWORD nVertices;
 array Vector vertices[nVertices];
 DWORD nFaces;
 array MeshFace faces[nFaces];
 [...]
}

Header{
1;
0;
1;
}

Mesh {
 230;
 0.01595;0.52202;-0.41590;,
 0.01595;0.52202;-2.38317;,
 1.40702;0.52202;-1.80697;,
 1.98322;0.52202;-0.41590;,
 1.40702;0.52202;0.97517;,
 0.01595;0.52202;1.55137;,
 -1.37512;0.52202;0.97516;,
 -1.95131;0.52202;-0.41590;,
 -1.37512;0.52202;-1.80697;,
 0.01595;1.10415;-2.98369;,
 1.83166;1.10415;-2.23161;,
 2.58375;1.10415;-0.41590;,
 1.83166;1.10415;1.39981;,
 0.01595;1.10415;2.15189;,
 -1.79975;1.10415;1.39981;,
 -2.55184;1.10415;-0.41590;,
 -1.79975;1.10415;-2.23161;,
 0.01595;2.08777;-3.71070;,
 2.34573;2.08777;-2.74568;,
 3.31077;2.08777;-0.41590;,
 2.34573;2.08777;1.91388;,
 0.01595;2.08777;2.87891;,
 -2.31382;2.08777;1.91388;,
 -3.27885;2.08777;-0.41590;,
 -2.31382;2.08777;-2.74568;,
 0.01595;3.09517;-3.79715;,
 2.40686;3.09517;-2.80680;,
 3.39720;3.09517;-0.41590;,
 2.40686;3.09517;1.97500;,
 0.01595;3.09517;2.96534;,
 -2.37494;3.09517;1.97500;,
 -3.36529;3.09517;-0.41590;,
 -2.37494;3.09517;-2.80680;,
 0.01595;4.21742;-3.54822;,
 2.23084;4.21742;-2.63078;,
 3.14828;4.21742;-0.41590;,
 2.23084;4.21742;1.79898;,
 0.01595;4.21742;2.71642;,
 -2.19894;4.21742;1.79898;,
 -3.11637;4.21742;-0.41590;,
 -2.19894;4.21742;-2.63078;,
 0.01605;4.64485;-0.41602;,
 0.01595;0.72948;-0.41590;,
 1.40702;0.72948;-1.80697;,
 0.01595;0.72948;-2.38317;,
 1.98322;0.72948;-0.41590;,
 1.40702;0.72948;0.97517;,
 0.01595;0.72948;1.55137;,
 -1.37512;0.72948;0.97516;,
 -1.95131;0.72948;-0.41590;,
 -1.37512;0.72948;-1.80697;,
 1.83166;1.32771;-2.23161;,
 0.01595;1.32771;-2.98369;,
 2.58375;1.32771;-0.41590;,
 1.83166;1.32771;1.39981;,
 0.01595;1.32771;2.15189;,
 -1.79975;1.32771;1.39981;,
 -2.55184;1.32771;-0.41590;,
 -1.79975;1.32771;-2.23161;,
 2.12455;2.11461;-2.52449;,
 0.01595;2.11461;-3.39790;,
 2.99796;2.11461;-0.41590;,
 2.12455;2.11461;1.69269;,
 0.01595;2.11461;2.56610;,
 -2.09264;2.11461;1.69269;,
 -2.96606;2.11461;-0.41590;,
 -2.09264;2.11461;-2.52449;,
 2.18567;3.12202;-2.58562;,
 0.01595;3.12202;-3.48434;,
 3.08440;3.12202;-0.41590;,
 2.18567;3.12202;1.75382;,
 0.01595;3.12202;2.65254;,
 -2.15377;3.12202;1.75382;,
 -3.05249;3.12202;-0.41590;,
 -2.15377;3.12202;-2.58562;,
 2.02965;4.24183;-2.42960;,
 0.01595;4.24183;-3.26371;,
 2.86376;4.24183;-0.41590;,
 2.02965;4.24183;1.59780;,
 0.01595;4.24183;2.43191;,
 -1.99775;4.24183;1.59780;,
 -2.83186;4.24183;-0.41590;,
 -1.99775;4.24183;-2.42960;,
 0.01605;4.64485;-0.41602;,
 0.01595;0.59221;-0.41590;,
 1.52259;0.59221;-1.92253;,
 0.01595;0.59221;-2.54659;,
 2.14664;0.59221;-0.41590;,
 1.52259;0.59221;1.09073;,
 0.01595;0.59221;1.71479;,
 -1.49068;0.59221;1.09073;,
 -2.11474;0.59221;-0.41590;,
 -1.49068;0.59221;-1.92253;,
 0.01595;0.36752;-0.41590;,
 0.01595;0.36752;-2.54659;,
 1.52259;0.36752;-1.92253;,
 2.14664;0.36752;-0.41590;,
 1.52259;0.36752;1.09073;,
 0.01595;0.36752;1.71479;,
 -1.49068;0.36752;1.09073;,
 -2.11474;0.36752;-0.41590;,
 -1.49068;0.36752;-1.92253;,
 1.98249;1.24014;-2.38244;,
 0.01595;1.24014;-3.19701;,
 0.01595;0.99799;-3.19701;,
 1.98249;0.99799;-2.38244;,
 2.79706;1.24014;-0.41590;,
 2.79706;0.99799;-0.41590;,
 1.98249;1.24014;1.55064;,
 1.98249;0.99799;1.55064;,
 0.01595;1.24014;2.36520;,
 0.01595;0.99799;2.36520;,
 -1.95058;1.24014;1.55064;,
 -1.95058;0.99799;1.55064;,
 -2.76515;1.24014;-0.41590;,
 -2.76515;0.99799;-0.41590;,
 -1.95058;1.24014;-2.38244;,
 -1.95058;0.99799;-2.38244;,
 2.29971;2.09243;-2.69966;,
 0.01595;2.09243;-3.64563;,
 0.01595;2.06333;-3.98441;,
 2.53927;2.06333;-2.93922;,
 3.24568;2.09243;-0.41590;,
 3.58447;2.06333;-0.41590;,
 2.29971;2.09243;1.86786;,
 2.53927;2.06333;2.10742;,
 0.01595;2.09243;2.81382;,
 0.01595;2.06333;3.15261;,
 -2.26781;2.09243;1.86786;,
 -2.50736;2.06333;2.10742;,
 -3.21377;2.09243;-0.41590;,
 -3.55256;2.06333;-0.41590;,
 -2.26781;2.09243;-2.69966;,
 -2.50736;2.06333;-2.93922;,
 2.36591;3.18351;-2.76586;,
 0.01595;3.18351;-3.73925;,
 0.01595;3.15444;-4.07803;,
 2.60547;3.15444;-3.00542;,
 3.33930;3.18351;-0.41590;,
 3.67808;3.15444;-0.41590;,
 2.36591;3.18351;1.93406;,
 2.60547;3.15444;2.17362;,
 0.01595;3.18351;2.90744;,
 0.01595;3.15444;3.24622;,
 -2.33400;3.18351;1.93406;,
 -2.57356;3.15444;2.17362;,
 -3.30739;3.18351;-0.41590;,
 -3.64617;3.15444;-0.41590;,
 -2.33400;3.18351;-2.76586;,
 -2.57356;3.15444;-3.00542;,
 2.19694;4.39633;-2.59688;,
 0.01595;4.39633;-3.50028;,
 0.01595;4.36990;-3.80843;,
 2.41483;4.36990;-2.81478;,
 3.10033;4.39633;-0.41590;,
 3.40848;4.36990;-0.41590;,
 2.19694;4.39633;1.76508;,
 2.41483;4.36990;1.98298;,
 0.01595;4.39633;2.66848;,
 0.01595;4.36990;2.97662;,
 -2.16503;4.39633;1.76508;,
 -2.38293;4.36990;1.98298;,
 -3.06843;4.39633;-0.41590;,
 -3.37658;4.36990;-0.41590;,
 -2.16503;4.39633;-2.59688;,
 -2.38293;4.36990;-2.81478;,
 1.11186;5.83401;-1.51180;,
 0.01595;5.83401;-1.96574;,
 0.01595;5.82120;-2.11526;,
 1.21758;5.82120;-1.61753;,
 1.56579;5.83401;-0.41590;,
 1.71531;5.82120;-0.41590;,
 1.11186;5.83401;0.68000;,
 1.21758;5.82120;0.78573;,
 0.01595;5.83401;1.13394;,
 0.01595;5.82120;1.28346;,
 -1.07995;5.83401;0.68000;,
 -1.18568;5.82120;0.78573;,
 -1.53389;5.83401;-0.41590;,
 -1.68341;5.82120;-0.41590;,
 -1.07995;5.83401;-1.51180;,
 -1.18568;5.82120;-1.61753;,
 0.67522;6.80074;-1.07517;,
 0.01595;6.80074;-1.34825;,
 0.01595;6.79348;-1.43292;,
 0.73510;6.79348;-1.13504;,
 0.94830;6.80074;-0.41590;,
 1.03297;6.79348;-0.41590;,
 0.67522;6.80074;0.24337;,
 0.73510;6.79348;0.30324;,
 0.01595;6.80074;0.51645;,
 0.01595;6.79348;0.60112;,
 -0.64332;6.80074;0.24337;,
 -0.70319;6.79348;0.30324;,
 -0.91640;6.80074;-0.41590;,
 -1.00107;6.79348;-0.41590;,
 -0.64332;6.80074;-1.07517;,
 -0.70319;6.79348;-1.13504;,
 0.66837;7.98992;-1.06832;,
 0.01595;7.98992;-1.33855;,
 0.01595;7.98306;-1.41831;,
 0.72476;7.98306;-1.12471;,
 0.93861;7.98992;-0.41590;,
 1.01836;7.98306;-0.41590;,
 0.66837;7.98992;0.23653;,
 0.72476;7.98306;0.29291;,
 0.01595;7.98992;0.50675;,
 0.01595;7.98306;0.58651;,
 -0.63646;7.98992;0.23653;,
 -0.69286;7.98306;0.29291;,
 -0.90670;7.98992;-0.41590;,
 -0.98646;7.98306;-0.41590;,
 -0.63646;7.98992;-1.06832;,
 -0.69286;7.98306;-1.12471;,
 0.76217;9.53527;-1.16211;,
 0.01595;9.53527;-1.47120;,
 0.01595;9.52842;-1.55095;,
 0.81856;9.52842;-1.21851;,
 1.07125;9.53527;-0.41590;,
 1.15101;9.52842;-0.41590;,
 0.76217;9.53527;0.33030;,
 0.81856;9.52842;0.38671;,
 0.01595;9.53527;0.63940;,
 0.01595;9.52842;0.71915;,
 -0.73026;9.53527;0.33030;,
 -0.78666;9.52842;0.38671;,
 -1.03935;9.53527;-0.41590;,
 -1.11910;9.52842;-0.41590;,
 -0.73026;9.53527;-1.16211;,
 -0.78666;9.52842;-1.21851;;
 
 248;
 3;0,1,2;,
 3;0,2,3;,
 3;0,3,4;,
 3;0,4,5;,
 3;0,5,6;,
 3;0,6,7;,
 3;0,7,8;,
 3;0,8,1;,
 4;9,10,2,1;,
 4;10,11,3,2;,
 4;11,12,4,3;,
 4;12,13,5,4;,
 4;13,14,6,5;,
 4;14,15,7,6;,
 4;15,16,8,7;,
 4;16,9,1,8;,
 4;17,18,10,9;,
 4;18,19,11,10;,
 4;19,20,12,11;,
 4;20,21,13,12;,
 4;21,22,14,13;,
 4;22,23,15,14;,
 4;23,24,16,15;,
 4;24,17,9,16;,
 4;25,26,18,17;,
 4;26,27,19,18;,
 4;27,28,20,19;,
 4;28,29,21,20;,
 4;29,30,22,21;,
 4;30,31,23,22;,
 4;31,32,24,23;,
 4;32,25,17,24;,
 4;33,34,26,25;,
 4;34,35,27,26;,
 4;35,36,28,27;,
 4;36,37,29,28;,
 4;37,38,30,29;,
 4;38,39,31,30;,
 4;39,40,32,31;,
 4;40,33,25,32;,
 3;41,40,39;,
 3;41,38,37;,
 3;41,37,36;,
 3;41,33,40;,
 3;41,36,35;,
 3;41,34,33;,
 3;41,35,34;,
 3;41,39,38;,
 3;42,43,44;,
 3;42,45,43;,
 3;42,46,45;,
 3;42,47,46;,
 3;42,48,47;,
 3;42,49,48;,
 3;42,50,49;,
 3;42,44,50;,
 4;51,52,44,43;,
 4;53,51,43,45;,
 4;54,53,45,46;,
 4;55,54,46,47;,
 4;56,55,47,48;,
 4;57,56,48,49;,
 4;58,57,49,50;,
 4;52,58,50,44;,
 4;59,60,52,51;,
 4;61,59,51,53;,
 4;62,61,53,54;,
 4;63,62,54,55;,
 4;64,63,55,56;,
 4;65,64,56,57;,
 4;66,65,57,58;,
 4;60,66,58,52;,
 4;67,68,60,59;,
 4;69,67,59,61;,
 4;70,69,61,62;,
 4;71,70,62,63;,
 4;72,71,63,64;,
 4;73,72,64,65;,
 4;74,73,65,66;,
 4;68,74,66,60;,
 4;75,76,68,67;,
 4;77,75,67,69;,
 4;78,77,69,70;,
 4;79,78,70,71;,
 4;80,79,71,72;,
 4;81,80,72,73;,
 4;82,81,73,74;,
 4;76,82,74,68;,
 3;83,79,80;,
 3;83,81,82;,
 3;83,78,79;,
 3;83,82,76;,
 3;83,77,78;,
 3;83,76,75;,
 3;83,75,77;,
 3;83,80,81;,
 3;84,85,86;,
 3;84,87,85;,
 3;84,88,87;,
 3;84,89,88;,
 3;84,90,89;,
 3;84,91,90;,
 3;84,92,91;,
 3;84,86,92;,
 3;93,94,95;,
 3;93,95,96;,
 3;93,96,97;,
 3;93,97,98;,
 3;93,98,99;,
 3;93,99,100;,
 3;93,100,101;,
 3;93,101,94;,
 4;102,103,86,85;,
 4;104,105,95,94;,
 4;106,102,85,87;,
 4;105,107,96,95;,
 4;108,106,87,88;,
 4;107,109,97,96;,
 4;110,108,88,89;,
 4;109,111,98,97;,
 4;112,110,89,90;,
 4;111,113,99,98;,
 4;114,112,90,91;,
 4;113,115,100,99;,
 4;116,114,91,92;,
 4;115,117,101,100;,
 4;103,116,92,86;,
 4;117,104,94,101;,
 4;118,119,103,102;,
 4;120,121,105,104;,
 4;122,118,102,106;,
 4;121,123,107,105;,
 4;124,122,106,108;,
 4;123,125,109,107;,
 4;126,124,108,110;,
 4;125,127,111,109;,
 4;128,126,110,112;,
 4;127,129,113,111;,
 4;130,128,112,114;,
 4;129,131,115,113;,
 4;132,130,114,116;,
 4;131,133,117,115;,
 4;119,132,116,103;,
 4;133,120,104,117;,
 4;134,135,119,118;,
 4;136,137,121,120;,
 4;138,134,118,122;,
 4;137,139,123,121;,
 4;140,138,122,124;,
 4;139,141,125,123;,
 4;142,140,124,126;,
 4;141,143,127,125;,
 4;144,142,126,128;,
 4;143,145,129,127;,
 4;146,144,128,130;,
 4;145,147,131,129;,
 4;148,146,130,132;,
 4;147,149,133,131;,
 4;135,148,132,119;,
 4;149,136,120,133;,
 4;150,151,135,134;,
 4;152,153,137,136;,
 4;154,150,134,138;,
 4;153,155,139,137;,
 4;156,154,138,140;,
 4;155,157,141,139;,
 4;158,156,140,142;,
 4;157,159,143,141;,
 4;160,158,142,144;,
 4;159,161,145,143;,
 4;162,160,144,146;,
 4;161,163,147,145;,
 4;164,162,146,148;,
 4;163,165,149,147;,
 4;151,164,148,135;,
 4;165,152,136,149;,
 4;166,167,151,150;,
 4;168,169,153,152;,
 4;170,166,150,154;,
 4;169,171,155,153;,
 4;172,170,154,156;,
 4;171,173,157,155;,
 4;174,172,156,158;,
 4;173,175,159,157;,
 4;176,174,158,160;,
 4;175,177,161,159;,
 4;178,176,160,162;,
 4;177,179,163,161;,
 4;180,178,162,164;,
 4;179,181,165,163;,
 4;167,180,164,151;,
 4;181,168,152,165;,
 4;182,183,167,166;,
 4;184,185,169,168;,
 4;186,182,166,170;,
 4;185,187,171,169;,
 4;188,186,170,172;,
 4;187,189,173,171;,
 4;190,188,172,174;,
 4;189,191,175,173;,
 4;192,190,174,176;,
 4;191,193,177,175;,
 4;194,192,176,178;,
 4;193,195,179,177;,
 4;196,194,178,180;,
 4;195,197,181,179;,
 4;183,196,180,167;,
 4;197,184,168,181;,
 4;198,199,183,182;,
 4;200,201,185,184;,
 4;202,198,182,186;,
 4;201,203,187,185;,
 4;204,202,186,188;,
 4;203,205,189,187;,
 4;206,204,188,190;,
 4;205,207,191,189;,
 4;208,206,190,192;,
 4;207,209,193,191;,
 4;210,208,192,194;,
 4;209,211,195,193;,
 4;212,210,194,196;,
 4;211,213,197,195;,
 4;199,212,196,183;,
 4;213,200,184,197;,
 4;214,215,199,198;,
 4;216,217,201,200;,
 4;215,214,217,216;,
 4;218,214,198,202;,
 4;217,219,203,201;,
 4;214,218,219,217;,
 4;220,218,202,204;,
 4;219,221,205,203;,
 4;218,220,221,219;,
 4;222,220,204,206;,
 4;221,223,207,205;,
 4;220,222,223,221;,
 4;224,222,206,208;,
 4;223,225,209,207;,
 4;222,224,225,223;,
 4;226,224,208,210;,
 4;225,227,211,209;,
 4;224,226,227,225;,
 4;228,226,210,212;,
 4;227,229,213,211;,
 4;226,228,229,227;,
 4;215,228,212,199;,
 4;229,216,200,213;,
 4;228,215,216,229;;
 
 MeshMaterialList {
  6;
  248;
  5,
  5,
  5,
  5,
  5,
  5,
  5,
  5,
  5,
  5,
  5,
  5,
  5,
  5,
  5,
  5,
  5,
  5,
  5,
  5,
  5,
  5,
  5,
  5,
  5,
  5,
  5,
  5,
  5,
  5,
  5,
  5,
  5,
  5,
  5,
  5,
  5,
  5,
  5,
  5,
  5,
  5,
  5,
  5,
  5,
  5,
  5,
  5,
  5,
  5,
  5,
  5,
  5,
  5,
  5,
  5,
  5,
  5,
  5,
  5,
  5,
  5,
  5,
  5,
  5,
  5,
  5,
  5,
  5,
  5,
  5,
  5,
  5,
  5,
  5,
  5,
  5,
  5,
  5,
  5,
  5,
  5,
  5,
  5,
  5,
  5,
  5,
  5,
  5,
  5,
  5,
  5,
  5,
  5,
  5,
  5,
  3,
  3,
  3,
  3,
  3,
  3,
  3,
  3,
  3,
  3,
  3,
  3,
  3,
  3,
  3,
  3,
  3,
  3,
  3,
  3,
  3,
  3,
  3,
  3,
  3,
  3,
  3,
  3,
  3,
  3,
  3,
  3,
  3,
  3,
  3,
  3,
  3,
  3,
  3,
  3,
  3,
  3,
  3,
  3,
  3,
  3,
  3,
  3,
  3,
  3,
  3,
  3,
  3,
  3,
  3,
  3,
  3,
  3,
  3,
  3,
  3,
  3,
  3,
  3,
  3,
  3,
  3,
  3,
  3,
  3,
  3,
  3,
  3,
  3,
  3,
  3,
  3,
  3,
  3,
  3,
  3,
  3,
  3,
  3,
  3,
  3,
  3,
  3,
  3,
  3,
  3,
  3,
  3,
  3,
  3,
  3,
  3,
  3,
  3,
  3,
  3,
  3,
  3,
  3,
  3,
  3,
  3,
  3,
  3,
  3,
  3,
  3,
  3,
  3,
  3,
  3,
  3,
  3,
  3,
  3,
  3,
  3,
  3,
  3,
  3,
  3,
  3,
  3,
  3,
  3,
  3,
  3,
  3,
  3,
  3,
  3,
  3,
  3,
  3,
  3,
  3,
  3,
  3,
  3,
  3,
  3,
  3,
  3,
  3,
  3,
  3,
  3;;
  Material {
   0.674400;0.674400;0.674400;1.000000;;
   20.000000;
   0.560000;0.560000;0.560000;;
   0.000000;0.000000;0.000000;;
  }
  Material {
   0.075200;0.075200;0.075200;1.000000;;
   9.000000;
   0.790000;0.790000;0.790000;;
   0.000000;0.000000;0.000000;;
  }
  Material {
   0.571200;0.775200;0.800000;0.510000;;
   5.000000;
   0.530000;0.530000;0.530000;;
   0.035700;0.048450;0.050000;;
  }
  Material {
   0.668000;0.668000;0.668000;0.370000;;
   5.000000;
   0.000000;0.000000;0.000000;;
   0.000000;0.000000;0.000000;;
  }
  Material {
   0.408000;0.106000;0.584000;1.000000;;
   5.000000;
   0.390000;0.390000;0.390000;;
   0.285600;0.074200;0.408800;;
  }
  Material {
   0.000000;0.460800;0.800000;1.000000;;
   5.000000;
   0.000000;0.000000;0.000000;;
   0.000000;0.576000;1.000000;;
  }
 }
 MeshNormals {
  252;
  -0.000000;-0.929833;-0.367983;,
  0.260201;-0.929833;-0.260202;,
  0.367980;-0.929834;-0.000000;,
  0.260201;-0.929833;0.260202;,
  -0.000000;-0.929833;0.367981;,
  -0.260202;-0.929833;0.260201;,
  -0.367982;-0.929833;0.000000;,
  -0.260203;-0.929833;-0.260202;,
  0.000000;-1.000000;-0.000000;,
  -0.000001;-0.658816;-0.752304;,
  0.531956;-0.658818;-0.531959;,
  0.752301;-0.658820;-0.000000;,
  0.531956;-0.658819;0.531959;,
  -0.000001;-0.658818;0.752302;,
  -0.531958;-0.658818;0.531957;,
  -0.752304;-0.658817;0.000000;,
  -0.531959;-0.658817;-0.531959;,
  -0.000001;-0.356692;-0.934222;,
  0.660593;-0.356692;-0.660596;,
  0.934222;-0.356692;-0.000000;,
  0.660594;-0.356691;0.660596;,
  -0.000001;-0.356689;0.934223;,
  -0.660596;-0.356689;0.660596;,
  -0.934223;-0.356690;0.000000;,
  -0.660595;-0.356691;-0.660595;,
  -0.000001;0.066512;-0.997786;,
  0.705541;0.066513;-0.705541;,
  0.997786;0.066514;0.000000;,
  0.705540;0.066515;0.705542;,
  -0.000001;0.066515;0.997785;,
  -0.705541;0.066512;0.705541;,
  -0.997786;0.066509;0.000000;,
  -0.705541;0.066510;-0.705541;,
  -0.000001;0.216548;-0.976272;,
  0.690329;0.216548;-0.690328;,
  0.976272;0.216546;0.000000;,
  0.690328;0.216546;0.690329;,
  -0.000001;0.216544;0.976273;,
  -0.690330;0.216540;0.690330;,
  -0.976274;0.216537;0.000000;,
  -0.690330;0.216542;-0.690329;,
  0.000002;1.000000;-0.000003;,
  0.000000;1.000000;0.000000;,
  0.000000;0.927445;0.373960;,
  -0.264428;0.927446;0.264429;,
  -0.373957;0.927446;0.000000;,
  -0.264428;0.927446;-0.264429;,
  0.000001;0.927445;-0.373958;,
  0.264429;0.927446;-0.264428;,
  0.373959;0.927445;-0.000000;,
  0.264429;0.927445;0.264429;,
  0.000001;0.595266;0.803529;,
  -0.568178;0.595268;0.568181;,
  -0.803526;0.595269;0.000000;,
  -0.568178;0.595268;-0.568181;,
  0.000001;0.595267;-0.803528;,
  0.568179;0.595269;-0.568179;,
  0.803526;0.595270;-0.000000;,
  0.568179;0.595268;0.568180;,
  0.000001;0.282728;0.959200;,
  -0.678256;0.282728;0.678258;,
  -0.959200;0.282728;0.000000;,
  -0.678256;0.282728;-0.678258;,
  0.000001;0.282728;-0.959200;,
  0.678255;0.282730;-0.678258;,
  0.959199;0.282731;0.000000;,
  0.678255;0.282730;0.678258;,
  0.000000;-0.054598;0.998508;,
  -0.706051;-0.054601;0.706053;,
  -0.998508;-0.054602;0.000000;,
  -0.706051;-0.054600;-0.706053;,
  0.000000;-0.054598;-0.998508;,
  0.706052;-0.054599;-0.706052;,
  0.998508;-0.054600;0.000000;,
  0.706052;-0.054599;0.706052;,
  0.000000;-0.193314;0.981137;,
  -0.693767;-0.193316;0.693769;,
  -0.981136;-0.193319;0.000000;,
  -0.693767;-0.193316;-0.693769;,
  0.000000;-0.193315;-0.981137;,
  0.693769;-0.193314;-0.693769;,
  0.981137;-0.193314;-0.000000;,
  0.693769;-0.193314;0.693769;,
  -0.000003;-1.000000;0.000003;,
  0.000000;0.927445;0.373961;,
  -0.264431;0.927444;0.264430;,
  -0.373963;0.927444;0.000000;,
  -0.264431;0.927444;-0.264431;,
  0.000000;0.927444;-0.373963;,
  0.264432;0.927444;-0.264432;,
  0.373964;0.927443;0.000000;,
  0.264431;0.927444;0.264430;,
  -0.000000;-0.929836;-0.367974;,
  0.260197;-0.929836;-0.260197;,
  0.367975;-0.929836;-0.000000;,
  0.260197;-0.929836;0.260197;,
  -0.000000;-0.929835;0.367976;,
  -0.260198;-0.929835;0.260198;,
  -0.367977;-0.929835;0.000000;,
  -0.260198;-0.929836;-0.260197;,
  0.000000;0.595265;0.803529;,
  -0.568182;0.595264;0.568181;,
  -0.803531;0.595263;0.000000;,
  -0.568181;0.595264;-0.568183;,
  0.000001;0.595263;-0.803531;,
  0.568181;0.595264;-0.568182;,
  0.803530;0.595264;-0.000000;,
  0.568182;0.595265;0.568180;,
  -0.000001;-0.658824;-0.752297;,
  0.531954;-0.658824;-0.531954;,
  0.752297;-0.658824;-0.000000;,
  0.531954;-0.658824;0.531955;,
  -0.000001;-0.658823;0.752298;,
  -0.531955;-0.658823;0.531955;,
  -0.752298;-0.658823;0.000000;,
  -0.531955;-0.658823;-0.531955;,
  0.000000;0.282727;0.959201;,
  -0.678257;0.282726;0.678257;,
  -0.959201;0.282727;0.000000;,
  -0.678256;0.282726;-0.678259;,
  0.000000;0.282726;-0.959201;,
  0.678257;0.282726;-0.678258;,
  0.959201;0.282726;-0.000000;,
  0.678258;0.282726;0.678256;,
  -0.000001;-0.356689;-0.934223;,
  0.660595;-0.356689;-0.660596;,
  0.934223;-0.356689;-0.000000;,
  0.660594;-0.356689;0.660597;,
  -0.000001;-0.356688;0.934224;,
  -0.660595;-0.356689;0.660596;,
  -0.934223;-0.356689;0.000000;,
  -0.660596;-0.356689;-0.660596;,
  0.000001;-0.054603;0.998508;,
  -0.706052;-0.054602;0.706052;,
  -0.998508;-0.054601;0.000000;,
  -0.706051;-0.054601;-0.706053;,
  0.000001;-0.054601;-0.998508;,
  0.706052;-0.054601;-0.706052;,
  0.998508;-0.054601;-0.000000;,
  0.706053;-0.054602;0.706051;,
  -0.000001;0.066515;-0.997785;,
  0.705540;0.066517;-0.705541;,
  0.997785;0.066518;0.000000;,
  0.705539;0.066518;0.705542;,
  -0.000001;0.066517;0.997785;,
  -0.705540;0.066516;0.705542;,
  -0.997786;0.066514;0.000000;,
  -0.705541;0.066514;-0.705541;,
  0.000001;-0.490235;0.871590;,
  -0.616309;-0.490234;0.616307;,
  -0.871592;-0.490233;0.000000;,
  -0.616309;-0.490233;-0.616308;,
  0.000001;-0.490233;-0.871592;,
  0.616309;-0.490232;-0.616309;,
  0.871592;-0.490232;0.000000;,
  0.616309;-0.490232;0.616308;,
  -0.000000;0.520127;-0.854089;,
  0.603932;0.520128;-0.603932;,
  0.854088;0.520128;0.000000;,
  0.603931;0.520128;0.603933;,
  -0.000000;0.520126;0.854089;,
  -0.603932;0.520126;0.603933;,
  -0.854090;0.520125;0.000000;,
  -0.603933;0.520126;-0.603932;,
  0.000001;-0.639913;0.768447;,
  -0.543375;-0.639914;0.543373;,
  -0.768447;-0.639913;-0.000000;,
  -0.543375;-0.639914;-0.543373;,
  0.000001;-0.639913;-0.768447;,
  0.543375;-0.639912;-0.543375;,
  0.768447;-0.639913;0.000000;,
  0.543375;-0.639912;0.543375;,
  -0.000000;0.673005;-0.739638;,
  0.523004;0.673004;-0.523003;,
  0.739640;0.673003;0.000000;,
  0.523004;0.673004;0.523003;,
  -0.000000;0.673004;0.739639;,
  -0.523003;0.673005;0.523004;,
  -0.739638;0.673005;0.000000;,
  -0.523003;0.673005;-0.523003;,
  0.000001;-0.287297;0.957842;,
  -0.677295;-0.287297;0.677297;,
  -0.957842;-0.287296;0.000001;,
  -0.677295;-0.287296;-0.677298;,
  0.000001;-0.287295;-0.957842;,
  0.677295;-0.287297;-0.677298;,
  0.957841;-0.287298;0.000001;,
  0.677295;-0.287298;0.677297;,
  -0.000001;0.310703;-0.950507;,
  0.672111;0.310703;-0.672109;,
  0.950507;0.310702;0.000000;,
  0.672111;0.310703;0.672109;,
  -0.000001;0.310703;0.950507;,
  -0.672110;0.310702;0.672110;,
  -0.950507;0.310703;0.000000;,
  -0.672110;0.310702;-0.672110;,
  0.000002;0.038740;0.999249;,
  -0.706574;0.038741;0.706578;,
  -0.999249;0.038741;0.000001;,
  -0.706573;0.038740;-0.706579;,
  0.000002;0.038738;-0.999249;,
  0.706574;0.038739;-0.706578;,
  0.999249;0.038739;0.000001;,
  0.706574;0.038739;0.706577;,
  -0.000001;-0.036677;-0.999327;,
  0.706631;-0.036677;-0.706631;,
  0.999327;-0.036677;-0.000000;,
  0.706631;-0.036677;0.706631;,
  -0.000001;-0.036677;0.999327;,
  -0.706631;-0.036677;0.706631;,
  -0.999327;-0.036677;0.000000;,
  -0.706631;-0.036677;-0.706631;,
  0.000002;0.085521;0.996336;,
  -0.704515;0.085521;0.704517;,
  -0.996337;0.085518;0.000000;,
  -0.704515;0.085516;-0.704518;,
  0.000002;0.085515;-0.996337;,
  0.704515;0.085518;-0.704518;,
  0.996336;0.085522;0.000000;,
  0.704515;0.085522;0.704518;,
  0.000000;-0.085521;-0.996336;,
  0.704514;-0.085523;-0.704518;,
  0.996336;-0.085524;-0.000000;,
  0.704514;-0.085523;0.704518;,
  0.000000;-0.085521;0.996336;,
  -0.704516;-0.085522;0.704516;,
  -0.996336;-0.085521;0.000000;,
  -0.704516;-0.085522;-0.704516;,
  -0.095604;0.990818;-0.095605;,
  -0.135200;0.990818;-0.000001;,
  -0.095600;0.990819;0.095599;,
  0.000001;0.990818;0.135200;,
  0.095604;0.990818;0.095603;,
  0.000001;0.990817;-0.135210;,
  0.135209;0.990817;-0.000001;,
  0.095609;0.990817;-0.095609;,
  -0.000001;-0.990135;-0.140117;,
  0.099077;-0.990135;-0.099076;,
  0.140118;-0.990135;0.000001;,
  0.099081;-0.990134;0.099083;,
  -0.099082;-0.990134;-0.099080;,
  -0.000001;-0.990133;0.140128;,
  -0.140127;-0.990134;0.000001;,
  -0.099087;-0.990133;0.099087;,
  0.000000;0.996331;-0.085588;,
  0.060519;0.996331;-0.060520;,
  0.085586;0.996331;-0.000000;,
  0.060517;0.996331;0.060517;,
  0.000000;0.996331;0.085582;,
  -0.060517;0.996331;0.060515;,
  -0.085586;0.996331;-0.000000;,
  -0.060519;0.996331;-0.060519;;
  248;
  3;8,0,1;,
  3;8,1,2;,
  3;8,2,3;,
  3;8,3,4;,
  3;8,4,5;,
  3;8,5,6;,
  3;8,6,7;,
  3;8,7,0;,
  4;9,10,1,0;,
  4;10,11,2,1;,
  4;11,12,3,2;,
  4;12,13,4,3;,
  4;13,14,5,4;,
  4;14,15,6,5;,
  4;15,16,7,6;,
  4;16,9,0,7;,
  4;17,18,10,9;,
  4;18,19,11,10;,
  4;19,20,12,11;,
  4;20,21,13,12;,
  4;21,22,14,13;,
  4;22,23,15,14;,
  4;23,24,16,15;,
  4;24,17,9,16;,
  4;25,26,18,17;,
  4;26,27,19,18;,
  4;27,28,20,19;,
  4;28,29,21,20;,
  4;29,30,22,21;,
  4;30,31,23,22;,
  4;31,32,24,23;,
  4;32,25,17,24;,
  4;33,34,26,25;,
  4;34,35,27,26;,
  4;35,36,28,27;,
  4;36,37,29,28;,
  4;37,38,30,29;,
  4;38,39,31,30;,
  4;39,40,32,31;,
  4;40,33,25,32;,
  3;41,228,229;,
  3;41,230,231;,
  3;41,231,232;,
  3;41,233,228;,
  3;41,232,234;,
  3;41,235,233;,
  3;41,234,235;,
  3;41,229,230;,
  3;42,44,43;,
  3;42,45,44;,
  3;42,46,45;,
  3;42,47,46;,
  3;42,48,47;,
  3;42,49,48;,
  3;42,50,49;,
  3;42,43,50;,
  4;52,51,43,44;,
  4;53,52,44,45;,
  4;54,53,45,46;,
  4;55,54,46,47;,
  4;56,55,47,48;,
  4;57,56,48,49;,
  4;58,57,49,50;,
  4;51,58,50,43;,
  4;60,59,51,52;,
  4;61,60,52,53;,
  4;62,61,53,54;,
  4;63,62,54,55;,
  4;64,63,55,56;,
  4;65,64,56,57;,
  4;66,65,57,58;,
  4;59,66,58,51;,
  4;68,67,59,60;,
  4;69,68,60,61;,
  4;70,69,61,62;,
  4;71,70,62,63;,
  4;72,71,63,64;,
  4;73,72,64,65;,
  4;74,73,65,66;,
  4;67,74,66,59;,
  4;76,75,67,68;,
  4;77,76,68,69;,
  4;78,77,69,70;,
  4;79,78,70,71;,
  4;80,79,71,72;,
  4;81,80,72,73;,
  4;82,81,73,74;,
  4;75,82,74,67;,
  3;83,236,237;,
  3;83,238,239;,
  3;83,240,236;,
  3;83,239,241;,
  3;83,242,240;,
  3;83,241,243;,
  3;83,243,242;,
  3;83,237,238;,
  3;42,85,84;,
  3;42,86,85;,
  3;42,87,86;,
  3;42,88,87;,
  3;42,89,88;,
  3;42,90,89;,
  3;42,91,90;,
  3;42,84,91;,
  3;8,92,93;,
  3;8,93,94;,
  3;8,94,95;,
  3;8,95,96;,
  3;8,96,97;,
  3;8,97,98;,
  3;8,98,99;,
  3;8,99,92;,
  4;101,100,84,85;,
  4;108,109,93,92;,
  4;102,101,85,86;,
  4;109,110,94,93;,
  4;103,102,86,87;,
  4;110,111,95,94;,
  4;104,103,87,88;,
  4;111,112,96,95;,
  4;105,104,88,89;,
  4;112,113,97,96;,
  4;106,105,89,90;,
  4;113,114,98,97;,
  4;107,106,90,91;,
  4;114,115,99,98;,
  4;100,107,91,84;,
  4;115,108,92,99;,
  4;117,116,100,101;,
  4;124,125,109,108;,
  4;118,117,101,102;,
  4;125,126,110,109;,
  4;119,118,102,103;,
  4;126,127,111,110;,
  4;120,119,103,104;,
  4;127,128,112,111;,
  4;121,120,104,105;,
  4;128,129,113,112;,
  4;122,121,105,106;,
  4;129,130,114,113;,
  4;123,122,106,107;,
  4;130,131,115,114;,
  4;116,123,107,100;,
  4;131,124,108,115;,
  4;133,132,116,117;,
  4;140,141,125,124;,
  4;134,133,117,118;,
  4;141,142,126,125;,
  4;135,134,118,119;,
  4;142,143,127,126;,
  4;136,135,119,120;,
  4;143,144,128,127;,
  4;137,136,120,121;,
  4;144,145,129,128;,
  4;138,137,121,122;,
  4;145,146,130,129;,
  4;139,138,122,123;,
  4;146,147,131,130;,
  4;132,139,123,116;,
  4;147,140,124,131;,
  4;149,148,132,133;,
  4;156,157,141,140;,
  4;150,149,133,134;,
  4;157,158,142,141;,
  4;151,150,134,135;,
  4;158,159,143,142;,
  4;152,151,135,136;,
  4;159,160,144,143;,
  4;153,152,136,137;,
  4;160,161,145,144;,
  4;154,153,137,138;,
  4;161,162,146,145;,
  4;155,154,138,139;,
  4;162,163,147,146;,
  4;148,155,139,132;,
  4;163,156,140,147;,
  4;165,164,148,149;,
  4;172,173,157,156;,
  4;166,165,149,150;,
  4;173,174,158,157;,
  4;167,166,150,151;,
  4;174,175,159,158;,
  4;168,167,151,152;,
  4;175,176,160,159;,
  4;169,168,152,153;,
  4;176,177,161,160;,
  4;170,169,153,154;,
  4;177,178,162,161;,
  4;171,170,154,155;,
  4;178,179,163,162;,
  4;164,171,155,148;,
  4;179,172,156,163;,
  4;181,180,164,165;,
  4;188,189,173,172;,
  4;182,181,165,166;,
  4;189,190,174,173;,
  4;183,182,166,167;,
  4;190,191,175,174;,
  4;184,183,167,168;,
  4;191,192,176,175;,
  4;185,184,168,169;,
  4;192,193,177,176;,
  4;186,185,169,170;,
  4;193,194,178,177;,
  4;187,186,170,171;,
  4;194,195,179,178;,
  4;180,187,171,164;,
  4;195,188,172,179;,
  4;197,196,180,181;,
  4;204,205,189,188;,
  4;198,197,181,182;,
  4;205,206,190,189;,
  4;199,198,182,183;,
  4;206,207,191,190;,
  4;200,199,183,184;,
  4;207,208,192,191;,
  4;201,200,184,185;,
  4;208,209,193,192;,
  4;202,201,185,186;,
  4;209,210,194,193;,
  4;203,202,186,187;,
  4;210,211,195,194;,
  4;196,203,187,180;,
  4;211,204,188,195;,
  4;213,212,196,197;,
  4;220,221,205,204;,
  4;244,245,245,244;,
  4;214,213,197,198;,
  4;221,222,206,205;,
  4;245,246,246,245;,
  4;215,214,198,199;,
  4;222,223,207,206;,
  4;246,247,247,246;,
  4;216,215,199,200;,
  4;223,224,208,207;,
  4;247,248,248,247;,
  4;217,216,200,201;,
  4;224,225,209,208;,
  4;248,249,249,248;,
  4;218,217,201,202;,
  4;225,226,210,209;,
  4;249,250,250,249;,
  4;219,218,202,203;,
  4;226,227,211,210;,
  4;250,251,251,250;,
  4;212,219,203,196;,
  4;227,220,204,211;,
  4;251,244,244,251;;
 }
}
