xof 0302txt 0064
template Header {
 <3D82AB43-62DA-11cf-AB39-0020AF71E433>
 WORD major;
 WORD minor;
 DWORD flags;
}

template Vector {
 <3D82AB5E-62DA-11cf-AB39-0020AF71E433>
 FLOAT x;
 FLOAT y;
 FLOAT z;
}

template Coords2d {
 <F6F23F44-7686-11cf-8F52-0040333594A3>
 FLOAT u;
 FLOAT v;
}

template Matrix4x4 {
 <F6F23F45-7686-11cf-8F52-0040333594A3>
 array FLOAT matrix[16];
}

template ColorRGBA {
 <35FF44E0-6C7C-11cf-8F52-0040333594A3>
 FLOAT red;
 FLOAT green;
 FLOAT blue;
 FLOAT alpha;
}

template ColorRGB {
 <D3E16E81-7835-11cf-8F52-0040333594A3>
 FLOAT red;
 FLOAT green;
 FLOAT blue;
}

template IndexedColor {
 <1630B820-7842-11cf-8F52-0040333594A3>
 DWORD index;
 ColorRGBA indexColor;
}

template Boolean {
 <4885AE61-78E8-11cf-8F52-0040333594A3>
 WORD truefalse;
}

template Boolean2d {
 <4885AE63-78E8-11cf-8F52-0040333594A3>
 Boolean u;
 Boolean v;
}

template MaterialWrap {
 <4885AE60-78E8-11cf-8F52-0040333594A3>
 Boolean u;
 Boolean v;
}

template TextureFilename {
 <A42790E1-7810-11cf-8F52-0040333594A3>
 STRING filename;
}

template Material {
 <3D82AB4D-62DA-11cf-AB39-0020AF71E433>
 ColorRGBA faceColor;
 FLOAT power;
 ColorRGB specularColor;
 ColorRGB emissiveColor;
 [...]
}

template MeshFace {
 <3D82AB5F-62DA-11cf-AB39-0020AF71E433>
 DWORD nFaceVertexIndices;
 array DWORD faceVertexIndices[nFaceVertexIndices];
}

template MeshFaceWraps {
 <4885AE62-78E8-11cf-8F52-0040333594A3>
 DWORD nFaceWrapValues;
 Boolean2d faceWrapValues;
}

template MeshTextureCoords {
 <F6F23F40-7686-11cf-8F52-0040333594A3>
 DWORD nTextureCoords;
 array Coords2d textureCoords[nTextureCoords];
}

template MeshMaterialList {
 <F6F23F42-7686-11cf-8F52-0040333594A3>
 DWORD nMaterials;
 DWORD nFaceIndexes;
 array DWORD faceIndexes[nFaceIndexes];
 [Material]
}

template MeshNormals {
 <F6F23F43-7686-11cf-8F52-0040333594A3>
 DWORD nNormals;
 array Vector normals[nNormals];
 DWORD nFaceNormals;
 array MeshFace faceNormals[nFaceNormals];
}

template MeshVertexColors {
 <1630B821-7842-11cf-8F52-0040333594A3>
 DWORD nVertexColors;
 array IndexedColor vertexColors[nVertexColors];
}

template Mesh {
 <3D82AB44-62DA-11cf-AB39-0020AF71E433>
 DWORD nVertices;
 array Vector vertices[nVertices];
 DWORD nFaces;
 array MeshFace faces[nFaces];
 [...]
}

Header{
1;
0;
1;
}

Mesh {
 229;
 0.06596;0.36081;-0.41590;,
 1.45703;0.36081;-1.80697;,
 0.06596;0.36081;-2.38317;,
 2.03322;0.36081;-0.41590;,
 1.45703;0.36081;0.97517;,
 0.06596;0.36081;1.55137;,
 -1.32511;0.36081;0.97516;,
 -1.90131;0.36081;-0.41590;,
 -1.32511;0.36081;-1.80697;,
 0.06596;0.15334;-0.41590;,
 0.06596;0.15334;-2.38317;,
 1.45703;0.15334;-1.80697;,
 2.03322;0.15334;-0.41590;,
 1.45703;0.15334;0.97517;,
 0.06596;0.15334;1.55137;,
 -1.32511;0.15334;0.97516;,
 -1.90131;0.15334;-0.41590;,
 -1.32511;0.15334;-1.80697;,
 1.88166;0.95904;-2.23161;,
 0.06596;0.95904;-2.98369;,
 0.06596;0.73548;-2.98369;,
 1.88166;0.73548;-2.23161;,
 2.63375;0.95904;-0.41590;,
 2.63375;0.73548;-0.41590;,
 1.88166;0.95904;1.39981;,
 1.88166;0.73548;1.39981;,
 0.06596;0.95904;2.15189;,
 0.06596;0.73548;2.15189;,
 -1.74974;0.95904;1.39981;,
 -1.74974;0.73548;1.39981;,
 -2.50184;0.95904;-0.41590;,
 -2.50184;0.73548;-0.41590;,
 -1.74974;0.95904;-2.23161;,
 -1.74974;0.73548;-2.23161;,
 2.17455;1.74594;-2.52449;,
 0.06596;1.74594;-3.39790;,
 0.06596;1.71910;-3.71070;,
 2.39574;1.71910;-2.74568;,
 3.04797;1.74594;-0.41590;,
 3.36077;1.71910;-0.41590;,
 2.17455;1.74594;1.69269;,
 2.39574;1.71910;1.91388;,
 0.06596;1.74594;2.56610;,
 0.06596;1.71910;2.87891;,
 -2.04263;1.74594;1.69269;,
 -2.26382;1.71910;1.91388;,
 -2.91605;1.74594;-0.41590;,
 -3.22885;1.71910;-0.41590;,
 -2.04263;1.74594;-2.52449;,
 -2.26382;1.71910;-2.74568;,
 2.23568;2.75334;-2.58562;,
 0.06596;2.75334;-3.48434;,
 0.06596;2.72650;-3.79715;,
 2.45686;2.72650;-2.80680;,
 3.13441;2.75334;-0.41590;,
 3.44720;2.72650;-0.41590;,
 2.23568;2.75334;1.75382;,
 2.45686;2.72650;1.97500;,
 0.06596;2.75334;2.65254;,
 0.06596;2.72650;2.96534;,
 -2.10376;2.75334;1.75382;,
 -2.32494;2.72650;1.97500;,
 -3.00248;2.75334;-0.41590;,
 -3.31529;2.72650;-0.41590;,
 -2.10376;2.75334;-2.58562;,
 -2.32494;2.72650;-2.80680;,
 2.07966;3.87315;-2.42960;,
 0.06596;3.87315;-3.26371;,
 0.06596;3.84875;-3.54822;,
 2.28084;3.84875;-2.63078;,
 2.91376;3.87315;-0.41590;,
 3.19828;3.84875;-0.41590;,
 2.07966;3.87315;1.59780;,
 2.28084;3.84875;1.79898;,
 0.06596;3.87315;2.43191;,
 0.06596;3.84875;2.71642;,
 -1.94774;3.87315;1.59780;,
 -2.14893;3.84875;1.79898;,
 -2.78185;3.87315;-0.41590;,
 -3.06636;3.84875;-0.41590;,
 -1.94774;3.87315;-2.42960;,
 -2.14893;3.84875;-2.63078;,
 0.06606;4.27617;-0.41602;,
 0.06596;0.22354;-0.41590;,
 1.57259;0.22354;-1.92253;,
 0.06596;0.22354;-2.54659;,
 2.19665;0.22354;-0.41590;,
 1.57259;0.22354;1.09073;,
 0.06596;0.22354;1.71479;,
 -1.44067;0.22354;1.09073;,
 -2.06473;0.22354;-0.41590;,
 -1.44067;0.22354;-1.92253;,
 0.06596;-0.00115;-0.41590;,
 0.06596;-0.00115;-2.54659;,
 1.57259;-0.00115;-1.92253;,
 2.19665;-0.00115;-0.41590;,
 1.57259;-0.00115;1.09073;,
 0.06596;-0.00115;1.71479;,
 -1.44067;-0.00115;1.09073;,
 -2.06473;-0.00115;-0.41590;,
 -1.44067;-0.00115;-1.92253;,
 2.03250;0.87147;-2.38244;,
 0.06596;0.87147;-3.19701;,
 0.06596;0.62932;-3.19701;,
 2.03250;0.62932;-2.38244;,
 2.84707;0.87147;-0.41590;,
 2.84707;0.62932;-0.41590;,
 2.03250;0.87147;1.55064;,
 2.03250;0.62932;1.55064;,
 0.06596;0.87147;2.36520;,
 0.06596;0.62932;2.36520;,
 -1.90058;0.87147;1.55064;,
 -1.90058;0.62932;1.55064;,
 -2.71515;0.87147;-0.41590;,
 -2.71515;0.62932;-0.41590;,
 -1.90058;0.87147;-2.38244;,
 -1.90058;0.62932;-2.38244;,
 2.34972;1.72375;-2.69966;,
 0.06596;1.72375;-3.64563;,
 0.06596;1.69466;-3.98441;,
 2.58928;1.69466;-2.93922;,
 3.29569;1.72375;-0.41590;,
 3.63447;1.69466;-0.41590;,
 2.34972;1.72375;1.86786;,
 2.58928;1.69466;2.10742;,
 0.06596;1.72375;2.81382;,
 0.06596;1.69466;3.15261;,
 -2.21780;1.72375;1.86786;,
 -2.45736;1.69466;2.10742;,
 -3.16376;1.72375;-0.41590;,
 -3.50255;1.69466;-0.41590;,
 -2.21780;1.72375;-2.69966;,
 -2.45736;1.69466;-2.93922;,
 2.41592;2.81484;-2.76586;,
 0.06596;2.81484;-3.73925;,
 0.06596;2.78576;-4.07803;,
 2.65548;2.78576;-3.00542;,
 3.38931;2.81484;-0.41590;,
 3.72809;2.78576;-0.41590;,
 2.41592;2.81484;1.93406;,
 2.65548;2.78576;2.17362;,
 0.06596;2.81484;2.90744;,
 0.06596;2.78576;3.24622;,
 -2.28400;2.81484;1.93406;,
 -2.52356;2.78576;2.17362;,
 -3.25739;2.81484;-0.41590;,
 -3.59617;2.78576;-0.41590;,
 -2.28400;2.81484;-2.76586;,
 -2.52356;2.78576;-3.00542;,
 2.24694;4.02766;-2.59688;,
 0.06596;4.02766;-3.50028;,
 0.06596;4.00123;-3.80843;,
 2.46484;4.00123;-2.81478;,
 3.15033;4.02766;-0.41590;,
 3.45849;4.00123;-0.41590;,
 2.24694;4.02766;1.76508;,
 2.46484;4.00123;1.98298;,
 0.06596;4.02766;2.66848;,
 0.06596;4.00123;2.97662;,
 -2.11502;4.02766;1.76508;,
 -2.33293;4.00123;1.98298;,
 -3.01842;4.02766;-0.41590;,
 -3.32657;4.00123;-0.41590;,
 -2.11502;4.02766;-2.59688;,
 -2.33293;4.00123;-2.81478;,
 1.16186;5.46534;-1.51180;,
 0.06596;5.46534;-1.96574;,
 0.06596;5.45253;-2.11526;,
 1.26759;5.45253;-1.61753;,
 1.61580;5.46534;-0.41590;,
 1.76531;5.45253;-0.41590;,
 1.16186;5.46534;0.68000;,
 1.26759;5.45253;0.78573;,
 0.06596;5.46534;1.13394;,
 0.06596;5.45253;1.28346;,
 -1.02995;5.46534;0.68000;,
 -1.13567;5.45253;0.78573;,
 -1.48388;5.46534;-0.41590;,
 -1.63340;5.45253;-0.41590;,
 -1.02995;5.46534;-1.51180;,
 -1.13567;5.45253;-1.61753;,
 0.72523;6.43207;-1.07517;,
 0.06596;6.43207;-1.34825;,
 0.06596;6.42480;-1.43292;,
 0.78510;6.42480;-1.13504;,
 0.99830;6.43207;-0.41590;,
 1.08298;6.42480;-0.41590;,
 0.72523;6.43207;0.24337;,
 0.78510;6.42480;0.30324;,
 0.06596;6.43207;0.51645;,
 0.06596;6.42480;0.60112;,
 -0.59331;6.43207;0.24337;,
 -0.65318;6.42480;0.30324;,
 -0.86639;6.43207;-0.41590;,
 -0.95106;6.42480;-0.41590;,
 -0.59331;6.43207;-1.07517;,
 -0.65318;6.42480;-1.13504;,
 0.71837;7.62125;-1.06832;,
 0.06596;7.62125;-1.33855;,
 0.06596;7.61438;-1.41831;,
 0.77477;7.61438;-1.12471;,
 0.98861;7.62125;-0.41590;,
 1.06837;7.61438;-0.41590;,
 0.71837;7.62125;0.23653;,
 0.77477;7.61438;0.29291;,
 0.06596;7.62125;0.50675;,
 0.06596;7.61438;0.58651;,
 -0.58645;7.62125;0.23653;,
 -0.64286;7.61438;0.29291;,
 -0.85670;7.62125;-0.41590;,
 -0.93645;7.61438;-0.41590;,
 -0.58645;7.62125;-1.06832;,
 -0.64286;7.61438;-1.12471;,
 0.81217;9.16660;-1.16211;,
 0.06596;9.16660;-1.47120;,
 0.06596;9.15975;-1.55095;,
 0.86856;9.15975;-1.21851;,
 1.12126;9.16660;-0.41590;,
 1.20101;9.15975;-0.41590;,
 0.81217;9.16660;0.33030;,
 0.86856;9.15975;0.38671;,
 0.06596;9.16660;0.63940;,
 0.06596;9.15975;0.71915;,
 -0.68026;9.16660;0.33030;,
 -0.73665;9.15975;0.38671;,
 -0.98934;9.16660;-0.41590;,
 -1.06910;9.15975;-0.41590;,
 -0.68026;9.16660;-1.16211;,
 -0.73665;9.15975;-1.21851;;
 
 248;
 3;0,1,2;,
 3;0,3,1;,
 3;0,4,3;,
 3;0,5,4;,
 3;0,6,5;,
 3;0,7,6;,
 3;0,8,7;,
 3;0,2,8;,
 3;9,10,11;,
 3;9,11,12;,
 3;9,12,13;,
 3;9,13,14;,
 3;9,14,15;,
 3;9,15,16;,
 3;9,16,17;,
 3;9,17,10;,
 4;18,19,2,1;,
 4;20,21,11,10;,
 4;22,18,1,3;,
 4;21,23,12,11;,
 4;24,22,3,4;,
 4;23,25,13,12;,
 4;26,24,4,5;,
 4;25,27,14,13;,
 4;28,26,5,6;,
 4;27,29,15,14;,
 4;30,28,6,7;,
 4;29,31,16,15;,
 4;32,30,7,8;,
 4;31,33,17,16;,
 4;19,32,8,2;,
 4;33,20,10,17;,
 4;34,35,19,18;,
 4;36,37,21,20;,
 4;38,34,18,22;,
 4;37,39,23,21;,
 4;40,38,22,24;,
 4;39,41,25,23;,
 4;42,40,24,26;,
 4;41,43,27,25;,
 4;44,42,26,28;,
 4;43,45,29,27;,
 4;46,44,28,30;,
 4;45,47,31,29;,
 4;48,46,30,32;,
 4;47,49,33,31;,
 4;35,48,32,19;,
 4;49,36,20,33;,
 4;50,51,35,34;,
 4;52,53,37,36;,
 4;54,50,34,38;,
 4;53,55,39,37;,
 4;56,54,38,40;,
 4;55,57,41,39;,
 4;58,56,40,42;,
 4;57,59,43,41;,
 4;60,58,42,44;,
 4;59,61,45,43;,
 4;62,60,44,46;,
 4;61,63,47,45;,
 4;64,62,46,48;,
 4;63,65,49,47;,
 4;51,64,48,35;,
 4;65,52,36,49;,
 4;66,67,51,50;,
 4;68,69,53,52;,
 4;70,66,50,54;,
 4;69,71,55,53;,
 4;72,70,54,56;,
 4;71,73,57,55;,
 4;74,72,56,58;,
 4;73,75,59,57;,
 4;76,74,58,60;,
 4;75,77,61,59;,
 4;78,76,60,62;,
 4;77,79,63,61;,
 4;80,78,62,64;,
 4;79,81,65,63;,
 4;67,80,64,51;,
 4;81,68,52,65;,
 3;82,74,76;,
 3;82,78,80;,
 3;82,81,79;,
 3;82,77,75;,
 3;82,72,74;,
 3;82,80,67;,
 3;82,75,73;,
 3;82,68,81;,
 3;82,70,72;,
 3;82,73,71;,
 3;82,67,66;,
 3;82,69,68;,
 3;82,66,70;,
 3;82,71,69;,
 3;82,76,78;,
 3;82,79,77;,
 3;83,84,85;,
 3;83,86,84;,
 3;83,87,86;,
 3;83,88,87;,
 3;83,89,88;,
 3;83,90,89;,
 3;83,91,90;,
 3;83,85,91;,
 3;92,93,94;,
 3;92,94,95;,
 3;92,95,96;,
 3;92,96,97;,
 3;92,97,98;,
 3;92,98,99;,
 3;92,99,100;,
 3;92,100,93;,
 4;101,102,85,84;,
 4;103,104,94,93;,
 4;105,101,84,86;,
 4;104,106,95,94;,
 4;107,105,86,87;,
 4;106,108,96,95;,
 4;109,107,87,88;,
 4;108,110,97,96;,
 4;111,109,88,89;,
 4;110,112,98,97;,
 4;113,111,89,90;,
 4;112,114,99,98;,
 4;115,113,90,91;,
 4;114,116,100,99;,
 4;102,115,91,85;,
 4;116,103,93,100;,
 4;117,118,102,101;,
 4;119,120,104,103;,
 4;121,117,101,105;,
 4;120,122,106,104;,
 4;123,121,105,107;,
 4;122,124,108,106;,
 4;125,123,107,109;,
 4;124,126,110,108;,
 4;127,125,109,111;,
 4;126,128,112,110;,
 4;129,127,111,113;,
 4;128,130,114,112;,
 4;131,129,113,115;,
 4;130,132,116,114;,
 4;118,131,115,102;,
 4;132,119,103,116;,
 4;133,134,118,117;,
 4;135,136,120,119;,
 4;137,133,117,121;,
 4;136,138,122,120;,
 4;139,137,121,123;,
 4;138,140,124,122;,
 4;141,139,123,125;,
 4;140,142,126,124;,
 4;143,141,125,127;,
 4;142,144,128,126;,
 4;145,143,127,129;,
 4;144,146,130,128;,
 4;147,145,129,131;,
 4;146,148,132,130;,
 4;134,147,131,118;,
 4;148,135,119,132;,
 4;149,150,134,133;,
 4;151,152,136,135;,
 4;153,149,133,137;,
 4;152,154,138,136;,
 4;155,153,137,139;,
 4;154,156,140,138;,
 4;157,155,139,141;,
 4;156,158,142,140;,
 4;159,157,141,143;,
 4;158,160,144,142;,
 4;161,159,143,145;,
 4;160,162,146,144;,
 4;163,161,145,147;,
 4;162,164,148,146;,
 4;150,163,147,134;,
 4;164,151,135,148;,
 4;165,166,150,149;,
 4;167,168,152,151;,
 4;169,165,149,153;,
 4;168,170,154,152;,
 4;171,169,153,155;,
 4;170,172,156,154;,
 4;173,171,155,157;,
 4;172,174,158,156;,
 4;175,173,157,159;,
 4;174,176,160,158;,
 4;177,175,159,161;,
 4;176,178,162,160;,
 4;179,177,161,163;,
 4;178,180,164,162;,
 4;166,179,163,150;,
 4;180,167,151,164;,
 4;181,182,166,165;,
 4;183,184,168,167;,
 4;185,181,165,169;,
 4;184,186,170,168;,
 4;187,185,169,171;,
 4;186,188,172,170;,
 4;189,187,171,173;,
 4;188,190,174,172;,
 4;191,189,173,175;,
 4;190,192,176,174;,
 4;193,191,175,177;,
 4;192,194,178,176;,
 4;195,193,177,179;,
 4;194,196,180,178;,
 4;182,195,179,166;,
 4;196,183,167,180;,
 4;197,198,182,181;,
 4;199,200,184,183;,
 4;201,197,181,185;,
 4;200,202,186,184;,
 4;203,201,185,187;,
 4;202,204,188,186;,
 4;205,203,187,189;,
 4;204,206,190,188;,
 4;207,205,189,191;,
 4;206,208,192,190;,
 4;209,207,191,193;,
 4;208,210,194,192;,
 4;211,209,193,195;,
 4;210,212,196,194;,
 4;198,211,195,182;,
 4;212,199,183,196;,
 4;213,214,198,197;,
 4;215,216,200,199;,
 4;214,213,216,215;,
 4;217,213,197,201;,
 4;216,218,202,200;,
 4;213,217,218,216;,
 4;219,217,201,203;,
 4;218,220,204,202;,
 4;217,219,220,218;,
 4;221,219,203,205;,
 4;220,222,206,204;,
 4;219,221,222,220;,
 4;223,221,205,207;,
 4;222,224,208,206;,
 4;221,223,224,222;,
 4;225,223,207,209;,
 4;224,226,210,208;,
 4;223,225,226,224;,
 4;227,225,209,211;,
 4;226,228,212,210;,
 4;225,227,228,226;,
 4;214,227,211,198;,
 4;228,215,199,212;,
 4;227,214,215,228;;
 
 MeshMaterialList {
  6;
  248;
  4,
  4,
  4,
  4,
  4,
  4,
  4,
  4,
  4,
  4,
  4,
  4,
  4,
  4,
  4,
  4,
  4,
  4,
  4,
  4,
  4,
  4,
  4,
  4,
  4,
  4,
  4,
  4,
  4,
  4,
  4,
  4,
  4,
  4,
  4,
  4,
  4,
  4,
  4,
  4,
  4,
  4,
  4,
  4,
  4,
  4,
  4,
  4,
  4,
  4,
  4,
  4,
  4,
  4,
  4,
  4,
  4,
  4,
  4,
  4,
  4,
  4,
  4,
  4,
  4,
  4,
  4,
  4,
  4,
  4,
  4,
  4,
  4,
  4,
  4,
  4,
  4,
  4,
  4,
  4,
  4,
  4,
  4,
  4,
  4,
  4,
  4,
  4,
  4,
  4,
  4,
  4,
  4,
  4,
  4,
  4,
  3,
  3,
  3,
  3,
  3,
  3,
  3,
  3,
  3,
  3,
  3,
  3,
  3,
  3,
  3,
  3,
  3,
  3,
  3,
  3,
  3,
  3,
  3,
  3,
  3,
  3,
  3,
  3,
  3,
  3,
  3,
  3,
  3,
  3,
  3,
  3,
  3,
  3,
  3,
  3,
  3,
  3,
  3,
  3,
  3,
  3,
  3,
  3,
  3,
  3,
  3,
  3,
  3,
  3,
  3,
  3,
  3,
  3,
  3,
  3,
  3,
  3,
  3,
  3,
  3,
  3,
  3,
  3,
  3,
  3,
  3,
  3,
  3,
  3,
  3,
  3,
  3,
  3,
  3,
  3,
  3,
  3,
  3,
  3,
  3,
  3,
  3,
  3,
  3,
  3,
  3,
  3,
  3,
  3,
  3,
  3,
  3,
  3,
  3,
  3,
  3,
  3,
  3,
  3,
  3,
  3,
  3,
  3,
  3,
  3,
  3,
  3,
  3,
  3,
  3,
  3,
  3,
  3,
  3,
  3,
  3,
  3,
  3,
  3,
  3,
  3,
  3,
  3,
  3,
  3,
  3,
  3,
  3,
  3,
  3,
  3,
  3,
  3,
  3,
  3,
  3,
  3,
  3,
  3,
  3,
  3,
  3,
  3,
  3,
  3,
  3,
  3;;
  Material {
   0.674400;0.674400;0.674400;1.000000;;
   20.000000;
   0.560000;0.560000;0.560000;;
   0.000000;0.000000;0.000000;;
  }
  Material {
   0.075200;0.075200;0.075200;1.000000;;
   9.000000;
   0.790000;0.790000;0.790000;;
   0.000000;0.000000;0.000000;;
  }
  Material {
   0.571200;0.775200;0.800000;0.510000;;
   5.000000;
   0.530000;0.530000;0.530000;;
   0.035700;0.048450;0.050000;;
  }
  Material {
   0.668000;0.668000;0.668000;0.370000;;
   5.000000;
   0.000000;0.000000;0.000000;;
   0.000000;0.000000;0.000000;;
  }
  Material {
   0.408000;0.106000;0.584000;1.000000;;
   5.000000;
   0.390000;0.390000;0.390000;;
   0.285600;0.074200;0.408800;;
  }
  Material {
   0.000000;0.460800;0.800000;1.000000;;
   5.000000;
   0.000000;0.000000;0.000000;;
   0.000000;0.576000;1.000000;;
  }
 }
 MeshNormals {
  252;
  0.000000;1.000000;0.000000;,
  -0.000000;0.927445;0.373960;,
  -0.264429;0.927445;0.264429;,
  -0.373959;0.927445;0.000000;,
  -0.264429;0.927445;-0.264429;,
  0.000000;0.927445;-0.373959;,
  0.264428;0.927446;-0.264429;,
  0.373959;0.927445;-0.000000;,
  0.264429;0.927445;0.264430;,
  0.000000;-0.929831;-0.367986;,
  0.260205;-0.929832;-0.260205;,
  0.367986;-0.929832;0.000000;,
  0.260205;-0.929832;0.260205;,
  -0.000000;-0.929832;0.367985;,
  -0.260204;-0.929832;0.260204;,
  -0.367984;-0.929832;0.000000;,
  -0.260204;-0.929832;-0.260206;,
  0.000000;-1.000000;-0.000000;,
  -0.000000;0.595267;0.803528;,
  -0.568178;0.595269;0.568179;,
  -0.803525;0.595271;0.000000;,
  -0.568178;0.595269;-0.568179;,
  0.000000;0.595268;-0.803527;,
  0.568178;0.595269;-0.568180;,
  0.803526;0.595270;-0.000000;,
  0.568178;0.595268;0.568181;,
  0.000000;-0.658814;-0.752306;,
  0.531959;-0.658816;-0.531960;,
  0.752303;-0.658817;0.000000;,
  0.531959;-0.658817;0.531959;,
  -0.000000;-0.658817;0.752303;,
  -0.531958;-0.658817;0.531959;,
  -0.752303;-0.658817;0.000000;,
  -0.531958;-0.658815;-0.531961;,
  -0.000000;0.282731;0.959199;,
  -0.678254;0.282733;0.678257;,
  -0.959198;0.282735;0.000000;,
  -0.678254;0.282733;-0.678257;,
  -0.000000;0.282730;-0.959199;,
  0.678255;0.282730;-0.678258;,
  0.959200;0.282730;0.000000;,
  0.678255;0.282730;0.678258;,
  0.000000;-0.356694;-0.934221;,
  0.660594;-0.356693;-0.660595;,
  0.934222;-0.356692;0.000000;,
  0.660595;-0.356691;0.660595;,
  0.000000;-0.356691;0.934223;,
  -0.660594;-0.356692;0.660596;,
  -0.934222;-0.356692;-0.000000;,
  -0.660593;-0.356693;-0.660596;,
  -0.000000;-0.054598;0.998508;,
  -0.706051;-0.054600;0.706053;,
  -0.998508;-0.054602;0.000000;,
  -0.706051;-0.054600;-0.706053;,
  -0.000000;-0.054598;-0.998508;,
  0.706052;-0.054599;-0.706052;,
  0.998508;-0.054601;-0.000000;,
  0.706052;-0.054599;0.706052;,
  0.000000;0.066514;-0.997786;,
  0.705541;0.066516;-0.705540;,
  0.997785;0.066517;0.000000;,
  0.705541;0.066517;0.705541;,
  0.000000;0.066517;0.997785;,
  -0.705540;0.066515;0.705541;,
  -0.997785;0.066514;0.000000;,
  -0.705541;0.066514;-0.705541;,
  -0.000000;-0.193314;0.981137;,
  -0.693768;-0.193319;0.693768;,
  -0.981135;-0.193323;0.000000;,
  -0.693768;-0.193319;-0.693768;,
  -0.000000;-0.193314;-0.981137;,
  0.693769;-0.193314;-0.693769;,
  0.981137;-0.193315;-0.000000;,
  0.693769;-0.193314;0.693769;,
  0.000000;0.216550;-0.976272;,
  0.690329;0.216549;-0.690328;,
  0.976272;0.216547;0.000000;,
  0.690329;0.216546;0.690329;,
  0.000000;0.216546;0.976273;,
  -0.690329;0.216545;0.690329;,
  -0.976272;0.216546;0.000000;,
  -0.690329;0.216547;-0.690328;,
  -0.000003;-1.000000;0.000003;,
  -0.000000;0.927445;0.373959;,
  -0.264429;0.927445;0.264429;,
  -0.373959;0.927445;0.000000;,
  -0.264429;0.927445;-0.264430;,
  -0.000000;0.927444;-0.373961;,
  0.264428;0.927445;-0.264430;,
  0.373958;0.927445;0.000000;,
  0.264428;0.927446;0.264429;,
  0.000000;-0.929836;-0.367974;,
  0.260197;-0.929836;-0.260197;,
  0.367974;-0.929836;-0.000000;,
  0.260197;-0.929836;0.260198;,
  0.000000;-0.929835;0.367976;,
  -0.260197;-0.929836;0.260198;,
  -0.367974;-0.929836;0.000000;,
  -0.260197;-0.929836;-0.260197;,
  -0.000000;0.595268;0.803527;,
  -0.568180;0.595268;0.568179;,
  -0.803527;0.595268;0.000000;,
  -0.568179;0.595267;-0.568181;,
  -0.000000;0.595266;-0.803529;,
  0.568179;0.595267;-0.568181;,
  0.803528;0.595267;0.000000;,
  0.568180;0.595268;0.568179;,
  0.000000;-0.658824;-0.752297;,
  0.531955;-0.658824;-0.531955;,
  0.752297;-0.658824;0.000000;,
  0.531954;-0.658824;0.531955;,
  0.000000;-0.658823;0.752298;,
  -0.531954;-0.658824;0.531955;,
  -0.752297;-0.658824;0.000000;,
  -0.531954;-0.658824;-0.531954;,
  -0.000000;0.282728;0.959200;,
  -0.678257;0.282728;0.678257;,
  -0.959200;0.282728;0.000000;,
  -0.678256;0.282728;-0.678258;,
  -0.000000;0.282728;-0.959200;,
  0.678256;0.282728;-0.678258;,
  0.959200;0.282728;0.000000;,
  0.678258;0.282728;0.678256;,
  0.000000;-0.356690;-0.934223;,
  0.660595;-0.356690;-0.660595;,
  0.934223;-0.356690;0.000000;,
  0.660595;-0.356690;0.660596;,
  0.000000;-0.356689;0.934223;,
  -0.660595;-0.356690;0.660596;,
  -0.934223;-0.356690;-0.000000;,
  -0.660595;-0.356690;-0.660595;,
  -0.000000;-0.054604;0.998508;,
  -0.706052;-0.054605;0.706051;,
  -0.998508;-0.054606;0.000000;,
  -0.706051;-0.054604;-0.706052;,
  -0.000000;-0.054602;-0.998508;,
  0.706051;-0.054602;-0.706053;,
  0.998508;-0.054602;-0.000000;,
  0.706052;-0.054603;0.706052;,
  0.000000;0.066514;-0.997786;,
  0.705541;0.066514;-0.705541;,
  0.997786;0.066514;0.000000;,
  0.705540;0.066516;0.705542;,
  0.000000;0.066516;0.997785;,
  -0.705540;0.066514;0.705542;,
  -0.997786;0.066512;-0.000000;,
  -0.705541;0.066513;-0.705541;,
  -0.000000;-0.490234;0.871591;,
  -0.616308;-0.490234;0.616307;,
  -0.871590;-0.490235;0.000000;,
  -0.616308;-0.490233;-0.616308;,
  -0.000000;-0.490232;-0.871592;,
  0.616308;-0.490232;-0.616309;,
  0.871591;-0.490234;-0.000000;,
  0.616308;-0.490233;0.616308;,
  0.000000;0.520127;-0.854089;,
  0.603932;0.520128;-0.603931;,
  0.854089;0.520128;0.000000;,
  0.603931;0.520127;0.603932;,
  0.000000;0.520126;0.854090;,
  -0.603932;0.520127;0.603933;,
  -0.854090;0.520126;-0.000000;,
  -0.603932;0.520127;-0.603932;,
  -0.000001;-0.639912;0.768448;,
  -0.543376;-0.639912;0.543374;,
  -0.768448;-0.639913;0.000000;,
  -0.543376;-0.639912;-0.543374;,
  -0.000001;-0.639912;-0.768448;,
  0.543375;-0.639912;-0.543374;,
  0.768448;-0.639912;0.000000;,
  0.543375;-0.639912;0.543374;,
  0.000000;0.673007;-0.739636;,
  0.523003;0.673007;-0.523001;,
  0.739637;0.673006;0.000000;,
  0.523003;0.673007;0.523001;,
  0.000000;0.673006;0.739637;,
  -0.523001;0.673007;0.523002;,
  -0.739636;0.673007;0.000000;,
  -0.523001;0.673007;-0.523002;,
  -0.000001;-0.287298;0.957841;,
  -0.677297;-0.287299;0.677294;,
  -0.957841;-0.287298;0.000001;,
  -0.677297;-0.287298;-0.677295;,
  -0.000001;-0.287295;-0.957842;,
  0.677294;-0.287297;-0.677299;,
  0.957841;-0.287298;0.000001;,
  0.677294;-0.287298;0.677298;,
  0.000001;0.310705;-0.950506;,
  0.672110;0.310704;-0.672109;,
  0.950507;0.310704;0.000000;,
  0.672110;0.310704;0.672109;,
  0.000001;0.310705;0.950507;,
  -0.672110;0.310704;0.672109;,
  -0.950507;0.310703;0.000000;,
  -0.672110;0.310704;-0.672109;,
  -0.000001;0.038739;0.999249;,
  -0.706576;0.038740;0.706576;,
  -0.999249;0.038741;0.000001;,
  -0.706575;0.038740;-0.706577;,
  -0.000001;0.038739;-0.999249;,
  0.706572;0.038740;-0.706580;,
  0.999249;0.038741;0.000001;,
  0.706573;0.038740;0.706579;,
  0.000002;-0.036677;-0.999327;,
  0.706630;-0.036676;-0.706632;,
  0.999327;-0.036675;-0.000000;,
  0.706630;-0.036676;0.706632;,
  0.000002;-0.036677;0.999327;,
  -0.706631;-0.036678;0.706631;,
  -0.999327;-0.036679;0.000000;,
  -0.706631;-0.036678;-0.706631;,
  -0.000001;0.085522;0.996336;,
  -0.704515;0.085523;0.704517;,
  -0.996336;0.085522;0.000000;,
  -0.704515;0.085518;-0.704518;,
  -0.000001;0.085516;-0.996337;,
  0.704513;0.085519;-0.704519;,
  0.996336;0.085522;0.000000;,
  0.704513;0.085523;0.704519;,
  0.000003;-0.085519;-0.996337;,
  0.704515;-0.085518;-0.704518;,
  0.996337;-0.085517;-0.000000;,
  0.704515;-0.085518;0.704518;,
  0.000003;-0.085519;0.996337;,
  -0.704516;-0.085520;0.704517;,
  -0.996337;-0.085520;0.000000;,
  -0.704516;-0.085520;-0.704517;,
  -0.000001;-0.990135;-0.140117;,
  0.099077;-0.990135;-0.099076;,
  0.140118;-0.990135;0.000001;,
  0.099081;-0.990134;0.099083;,
  0.000003;1.000000;-0.000003;,
  -0.095602;0.990818;-0.095603;,
  -0.135198;0.990819;-0.000001;,
  -0.095598;0.990819;0.095597;,
  0.000001;0.990819;0.135197;,
  -0.099082;-0.990134;-0.099080;,
  -0.000001;-0.990133;0.140128;,
  0.095603;0.990818;0.095601;,
  0.000001;0.990817;-0.135207;,
  -0.140128;-0.990133;0.000001;,
  0.135206;0.990817;-0.000001;,
  -0.099087;-0.990133;0.099087;,
  0.095607;0.990817;-0.095607;,
  0.000000;0.996334;-0.085552;,
  0.060496;0.996334;-0.060495;,
  0.085554;0.996334;-0.000000;,
  0.060494;0.996334;0.060492;,
  0.000000;0.996334;0.085546;,
  -0.060491;0.996334;0.060490;,
  -0.085549;0.996334;-0.000000;,
  -0.060493;0.996334;-0.060493;;
  248;
  3;0,2,1;,
  3;0,3,2;,
  3;0,4,3;,
  3;0,5,4;,
  3;0,6,5;,
  3;0,7,6;,
  3;0,8,7;,
  3;0,1,8;,
  3;17,9,10;,
  3;17,10,11;,
  3;17,11,12;,
  3;17,12,13;,
  3;17,13,14;,
  3;17,14,15;,
  3;17,15,16;,
  3;17,16,9;,
  4;19,18,1,2;,
  4;26,27,10,9;,
  4;20,19,2,3;,
  4;27,28,11,10;,
  4;21,20,3,4;,
  4;28,29,12,11;,
  4;22,21,4,5;,
  4;29,30,13,12;,
  4;23,22,5,6;,
  4;30,31,14,13;,
  4;24,23,6,7;,
  4;31,32,15,14;,
  4;25,24,7,8;,
  4;32,33,16,15;,
  4;18,25,8,1;,
  4;33,26,9,16;,
  4;35,34,18,19;,
  4;42,43,27,26;,
  4;36,35,19,20;,
  4;43,44,28,27;,
  4;37,36,20,21;,
  4;44,45,29,28;,
  4;38,37,21,22;,
  4;45,46,30,29;,
  4;39,38,22,23;,
  4;46,47,31,30;,
  4;40,39,23,24;,
  4;47,48,32,31;,
  4;41,40,24,25;,
  4;48,49,33,32;,
  4;34,41,25,18;,
  4;49,42,26,33;,
  4;51,50,34,35;,
  4;58,59,43,42;,
  4;52,51,35,36;,
  4;59,60,44,43;,
  4;53,52,36,37;,
  4;60,61,45,44;,
  4;54,53,37,38;,
  4;61,62,46,45;,
  4;55,54,38,39;,
  4;62,63,47,46;,
  4;56,55,39,40;,
  4;63,64,48,47;,
  4;57,56,40,41;,
  4;64,65,49,48;,
  4;50,57,41,34;,
  4;65,58,42,49;,
  4;67,66,50,51;,
  4;74,75,59,58;,
  4;68,67,51,52;,
  4;75,76,60,59;,
  4;69,68,52,53;,
  4;76,77,61,60;,
  4;70,69,53,54;,
  4;77,78,62,61;,
  4;71,70,54,55;,
  4;78,79,63,62;,
  4;72,71,55,56;,
  4;79,80,64,63;,
  4;73,72,56,57;,
  4;80,81,65,64;,
  4;66,73,57,50;,
  4;81,74,58,65;,
  3;82,227,228;,
  3;82,229,230;,
  3;231,232,233;,
  3;231,234,235;,
  3;82,236,227;,
  3;82,230,237;,
  3;231,235,238;,
  3;231,239,232;,
  3;82,240,236;,
  3;231,238,241;,
  3;82,237,242;,
  3;231,243,239;,
  3;82,242,240;,
  3;231,241,243;,
  3;82,228,229;,
  3;231,233,234;,
  3;0,84,83;,
  3;0,85,84;,
  3;0,86,85;,
  3;0,87,86;,
  3;0,88,87;,
  3;0,89,88;,
  3;0,90,89;,
  3;0,83,90;,
  3;17,91,92;,
  3;17,92,93;,
  3;17,93,94;,
  3;17,94,95;,
  3;17,95,96;,
  3;17,96,97;,
  3;17,97,98;,
  3;17,98,91;,
  4;100,99,83,84;,
  4;107,108,92,91;,
  4;101,100,84,85;,
  4;108,109,93,92;,
  4;102,101,85,86;,
  4;109,110,94,93;,
  4;103,102,86,87;,
  4;110,111,95,94;,
  4;104,103,87,88;,
  4;111,112,96,95;,
  4;105,104,88,89;,
  4;112,113,97,96;,
  4;106,105,89,90;,
  4;113,114,98,97;,
  4;99,106,90,83;,
  4;114,107,91,98;,
  4;116,115,99,100;,
  4;123,124,108,107;,
  4;117,116,100,101;,
  4;124,125,109,108;,
  4;118,117,101,102;,
  4;125,126,110,109;,
  4;119,118,102,103;,
  4;126,127,111,110;,
  4;120,119,103,104;,
  4;127,128,112,111;,
  4;121,120,104,105;,
  4;128,129,113,112;,
  4;122,121,105,106;,
  4;129,130,114,113;,
  4;115,122,106,99;,
  4;130,123,107,114;,
  4;132,131,115,116;,
  4;139,140,124,123;,
  4;133,132,116,117;,
  4;140,141,125,124;,
  4;134,133,117,118;,
  4;141,142,126,125;,
  4;135,134,118,119;,
  4;142,143,127,126;,
  4;136,135,119,120;,
  4;143,144,128,127;,
  4;137,136,120,121;,
  4;144,145,129,128;,
  4;138,137,121,122;,
  4;145,146,130,129;,
  4;131,138,122,115;,
  4;146,139,123,130;,
  4;148,147,131,132;,
  4;155,156,140,139;,
  4;149,148,132,133;,
  4;156,157,141,140;,
  4;150,149,133,134;,
  4;157,158,142,141;,
  4;151,150,134,135;,
  4;158,159,143,142;,
  4;152,151,135,136;,
  4;159,160,144,143;,
  4;153,152,136,137;,
  4;160,161,145,144;,
  4;154,153,137,138;,
  4;161,162,146,145;,
  4;147,154,138,131;,
  4;162,155,139,146;,
  4;164,163,147,148;,
  4;171,172,156,155;,
  4;165,164,148,149;,
  4;172,173,157,156;,
  4;166,165,149,150;,
  4;173,174,158,157;,
  4;167,166,150,151;,
  4;174,175,159,158;,
  4;168,167,151,152;,
  4;175,176,160,159;,
  4;169,168,152,153;,
  4;176,177,161,160;,
  4;170,169,153,154;,
  4;177,178,162,161;,
  4;163,170,154,147;,
  4;178,171,155,162;,
  4;180,179,163,164;,
  4;187,188,172,171;,
  4;181,180,164,165;,
  4;188,189,173,172;,
  4;182,181,165,166;,
  4;189,190,174,173;,
  4;183,182,166,167;,
  4;190,191,175,174;,
  4;184,183,167,168;,
  4;191,192,176,175;,
  4;185,184,168,169;,
  4;192,193,177,176;,
  4;186,185,169,170;,
  4;193,194,178,177;,
  4;179,186,170,163;,
  4;194,187,171,178;,
  4;196,195,179,180;,
  4;203,204,188,187;,
  4;197,196,180,181;,
  4;204,205,189,188;,
  4;198,197,181,182;,
  4;205,206,190,189;,
  4;199,198,182,183;,
  4;206,207,191,190;,
  4;200,199,183,184;,
  4;207,208,192,191;,
  4;201,200,184,185;,
  4;208,209,193,192;,
  4;202,201,185,186;,
  4;209,210,194,193;,
  4;195,202,186,179;,
  4;210,203,187,194;,
  4;212,211,195,196;,
  4;219,220,204,203;,
  4;244,245,245,244;,
  4;213,212,196,197;,
  4;220,221,205,204;,
  4;245,246,246,245;,
  4;214,213,197,198;,
  4;221,222,206,205;,
  4;246,247,247,246;,
  4;215,214,198,199;,
  4;222,223,207,206;,
  4;247,248,248,247;,
  4;216,215,199,200;,
  4;223,224,208,207;,
  4;248,249,249,248;,
  4;217,216,200,201;,
  4;224,225,209,208;,
  4;249,250,250,249;,
  4;218,217,201,202;,
  4;225,226,210,209;,
  4;250,251,251,250;,
  4;211,218,202,195;,
  4;226,219,203,210;,
  4;251,244,244,251;;
 }
}
