xof 0302txt 0064
template Header {
 <3D82AB43-62DA-11cf-AB39-0020AF71E433>
 WORD major;
 WORD minor;
 DWORD flags;
}

template Vector {
 <3D82AB5E-62DA-11cf-AB39-0020AF71E433>
 FLOAT x;
 FLOAT y;
 FLOAT z;
}

template Coords2d {
 <F6F23F44-7686-11cf-8F52-0040333594A3>
 FLOAT u;
 FLOAT v;
}

template Matrix4x4 {
 <F6F23F45-7686-11cf-8F52-0040333594A3>
 array FLOAT matrix[16];
}

template ColorRGBA {
 <35FF44E0-6C7C-11cf-8F52-0040333594A3>
 FLOAT red;
 FLOAT green;
 FLOAT blue;
 FLOAT alpha;
}

template ColorRGB {
 <D3E16E81-7835-11cf-8F52-0040333594A3>
 FLOAT red;
 FLOAT green;
 FLOAT blue;
}

template IndexedColor {
 <1630B820-7842-11cf-8F52-0040333594A3>
 DWORD index;
 ColorRGBA indexColor;
}

template Boolean {
 <4885AE61-78E8-11cf-8F52-0040333594A3>
 WORD truefalse;
}

template Boolean2d {
 <4885AE63-78E8-11cf-8F52-0040333594A3>
 Boolean u;
 Boolean v;
}

template MaterialWrap {
 <4885AE60-78E8-11cf-8F52-0040333594A3>
 Boolean u;
 Boolean v;
}

template TextureFilename {
 <A42790E1-7810-11cf-8F52-0040333594A3>
 STRING filename;
}

template Material {
 <3D82AB4D-62DA-11cf-AB39-0020AF71E433>
 ColorRGBA faceColor;
 FLOAT power;
 ColorRGB specularColor;
 ColorRGB emissiveColor;
 [...]
}

template MeshFace {
 <3D82AB5F-62DA-11cf-AB39-0020AF71E433>
 DWORD nFaceVertexIndices;
 array DWORD faceVertexIndices[nFaceVertexIndices];
}

template MeshFaceWraps {
 <4885AE62-78E8-11cf-8F52-0040333594A3>
 DWORD nFaceWrapValues;
 Boolean2d faceWrapValues;
}

template MeshTextureCoords {
 <F6F23F40-7686-11cf-8F52-0040333594A3>
 DWORD nTextureCoords;
 array Coords2d textureCoords[nTextureCoords];
}

template MeshMaterialList {
 <F6F23F42-7686-11cf-8F52-0040333594A3>
 DWORD nMaterials;
 DWORD nFaceIndexes;
 array DWORD faceIndexes[nFaceIndexes];
 [Material]
}

template MeshNormals {
 <F6F23F43-7686-11cf-8F52-0040333594A3>
 DWORD nNormals;
 array Vector normals[nNormals];
 DWORD nFaceNormals;
 array MeshFace faceNormals[nFaceNormals];
}

template MeshVertexColors {
 <1630B821-7842-11cf-8F52-0040333594A3>
 DWORD nVertexColors;
 array IndexedColor vertexColors[nVertexColors];
}

template Mesh {
 <3D82AB44-62DA-11cf-AB39-0020AF71E433>
 DWORD nVertices;
 array Vector vertices[nVertices];
 DWORD nFaces;
 array MeshFace faces[nFaces];
 [...]
}

Header{
1;
0;
1;
}

Mesh {
 100;
 31.64896;3.27058;-10.83071;,
 31.64896;3.27058;10.83071;,
 31.64896;0.69558;10.83071;,
 31.64896;0.69558;-10.83071;,
 -31.64896;3.27058;10.83071;,
 -31.64896;3.27058;-10.83071;,
 -31.64896;0.69558;-10.83071;,
 -31.64896;0.69558;10.83071;,
 -29.26541;3.27058;-10.83071;,
 -29.26541;0.69558;-10.83071;,
 -29.26541;0.69558;10.83071;,
 -29.26541;3.27058;10.83071;,
 29.29915;3.27058;-10.83071;,
 29.29915;0.69558;-10.83071;,
 29.29915;0.69558;10.83071;,
 29.29915;3.27058;10.83071;,
 -15.90355;3.27058;10.83071;,
 -15.90355;3.27058;-10.83071;,
 -15.90355;0.69558;10.83071;,
 -15.90355;0.69558;-10.83071;,
 -14.32130;3.27058;10.83071;,
 -14.32130;0.69558;10.83071;,
 -14.32130;3.27058;-10.83071;,
 -14.32130;0.69558;-10.83071;,
 -1.08628;3.27058;10.83071;,
 -1.08628;3.27058;-10.83071;,
 -1.08628;0.69558;10.83071;,
 -1.08628;0.69558;-10.83071;,
 0.79796;3.27058;10.83071;,
 0.79796;0.69558;10.83071;,
 0.79796;3.27058;-10.83071;,
 0.79796;0.69558;-10.83071;,
 14.02889;3.27058;10.83071;,
 14.02889;3.27058;-10.83071;,
 14.02889;0.69558;10.83071;,
 14.02889;0.69558;-10.83071;,
 15.77091;3.27058;10.83071;,
 15.77091;3.27058;-10.83071;,
 15.77091;0.69558;10.83071;,
 15.77091;0.69558;-10.83071;,
 -31.64896;67.06710;-10.83071;,
 -29.26541;67.06710;-10.83071;,
 -31.64896;67.06710;10.83071;,
 -29.26541;67.06710;10.83071;,
 29.29915;66.98975;10.83071;,
 29.29915;66.98975;-10.83071;,
 31.64896;66.98975;10.83071;,
 31.64896;66.98975;-10.83071;,
 -14.32130;66.68295;-10.83071;,
 -14.32130;66.68295;10.83071;,
 -15.90355;66.68295;-10.83071;,
 -15.90355;66.68295;10.83071;,
 0.79796;66.68295;-10.83071;,
 0.79796;66.68295;10.83071;,
 -1.08628;66.68295;-10.83071;,
 -1.08628;66.68295;10.83071;,
 15.77091;66.68295;-10.83071;,
 15.77091;66.68295;10.83071;,
 14.02889;66.68295;-10.83071;,
 14.02889;66.68295;10.83071;,
 -31.19829;67.05639;8.79696;,
 29.62329;67.05639;8.79696;,
 29.62329;1.84592;8.79696;,
 -31.19829;1.84592;8.79696;,
 29.62329;67.05639;10.77383;,
 29.62329;1.84592;10.77383;,
 -31.19829;67.05639;10.77383;,
 -31.19829;1.84592;10.77383;,
 -29.81038;18.13424;-10.00000;,
 29.81038;18.13424;-10.00000;,
 29.81038;16.64656;-10.00000;,
 -29.81038;16.64656;-10.00000;,
 29.81038;18.13424;10.00000;,
 29.81038;16.64656;10.00000;,
 -29.81038;18.13424;10.00000;,
 -29.81038;16.64656;10.00000;,
 -29.81038;34.95464;-10.00000;,
 29.81038;34.95464;-10.00000;,
 29.81038;33.46695;-10.00000;,
 -29.81038;33.46695;-10.00000;,
 29.81038;34.95464;10.00000;,
 29.81038;33.46695;10.00000;,
 -29.81038;34.95464;10.00000;,
 -29.81038;33.46695;10.00000;,
 -29.81038;50.75561;-10.00000;,
 29.81038;50.75561;-10.00000;,
 29.81038;49.26792;-10.00000;,
 -29.81038;49.26792;-10.00000;,
 29.81038;50.75561;10.00000;,
 29.81038;49.26792;10.00000;,
 -29.81038;50.75561;10.00000;,
 -29.81038;49.26792;10.00000;,
 -29.81038;67.06629;-10.00000;,
 29.81038;67.06629;-10.00000;,
 29.81038;65.57860;-10.00000;,
 -29.81038;65.57860;-10.00000;,
 29.81038;67.06629;10.00000;,
 29.81038;65.57860;10.00000;,
 -29.81038;67.06629;10.00000;,
 -29.81038;65.57860;10.00000;;
 
 88;
 4;0,1,2,3;,
 4;4,5,6,7;,
 4;8,9,6,5;,
 4;9,10,7,6;,
 4;11,4,7,10;,
 4;12,0,3,13;,
 4;13,3,2,14;,
 4;15,14,2,1;,
 4;16,17,8,11;,
 4;16,11,10,18;,
 4;17,19,9,8;,
 4;18,10,9,19;,
 4;20,16,18,21;,
 4;22,23,19,17;,
 4;21,18,19,23;,
 4;24,25,22,20;,
 4;24,20,21,26;,
 4;25,27,23,22;,
 4;26,21,23,27;,
 4;28,24,26,29;,
 4;30,31,27,25;,
 4;29,26,27,31;,
 4;32,33,30,28;,
 4;32,28,29,34;,
 4;33,35,31,30;,
 4;34,29,31,35;,
 4;36,15,12,37;,
 4;36,32,34,38;,
 4;36,38,14,15;,
 4;37,12,13,39;,
 4;37,39,35,33;,
 4;38,34,35,39;,
 4;38,39,13,14;,
 4;40,41,8,5;,
 4;42,40,5,4;,
 4;43,42,4,11;,
 4;41,43,11,8;,
 4;41,40,42,43;,
 4;44,45,12,15;,
 4;46,44,15,1;,
 4;47,46,1,0;,
 4;45,47,0,12;,
 4;45,44,46,47;,
 4;48,49,20,22;,
 4;50,48,22,17;,
 4;51,50,17,16;,
 4;49,51,16,20;,
 4;49,48,50,51;,
 4;52,53,28,30;,
 4;54,52,30,25;,
 4;55,54,25,24;,
 4;53,55,24,28;,
 4;53,52,54,55;,
 4;56,57,36,37;,
 4;58,56,37,33;,
 4;59,58,33,32;,
 4;57,59,32,36;,
 4;57,56,58,59;,
 4;60,61,62,63;,
 4;61,64,65,62;,
 4;64,66,67,65;,
 4;66,60,63,67;,
 4;66,64,61,60;,
 4;63,62,65,67;,
 4;68,69,70,71;,
 4;69,72,73,70;,
 4;72,74,75,73;,
 4;74,68,71,75;,
 4;74,72,69,68;,
 4;71,70,73,75;,
 4;76,77,78,79;,
 4;77,80,81,78;,
 4;80,82,83,81;,
 4;82,76,79,83;,
 4;82,80,77,76;,
 4;79,78,81,83;,
 4;84,85,86,87;,
 4;85,88,89,86;,
 4;88,90,91,89;,
 4;90,84,87,91;,
 4;90,88,85,84;,
 4;87,86,89,91;,
 4;92,93,94,95;,
 4;93,96,97,94;,
 4;96,98,99,97;,
 4;98,92,95,99;,
 4;98,96,93,92;,
 4;95,94,97,99;;
 
 MeshMaterialList {
  4;
  88;
  3,
  3,
  3,
  3,
  3,
  3,
  3,
  3,
  3,
  3,
  3,
  3,
  3,
  3,
  3,
  3,
  3,
  3,
  3,
  3,
  3,
  3,
  3,
  3,
  3,
  3,
  3,
  3,
  3,
  3,
  3,
  3,
  3,
  3,
  3,
  3,
  3,
  3,
  3,
  3,
  3,
  3,
  3,
  3,
  3,
  3,
  3,
  3,
  3,
  3,
  3,
  3,
  3,
  3,
  3,
  3,
  3,
  3,
  3,
  3,
  3,
  3,
  3,
  3,
  3,
  3,
  3,
  3,
  3,
  3,
  3,
  3,
  3,
  3,
  3,
  3,
  3,
  3,
  3,
  3,
  3,
  3,
  3,
  3,
  3,
  3,
  3,
  3;;
  Material {
   0.501600;0.501600;0.501600;1.000000;;
   12.000000;
   0.370000;0.370000;0.370000;;
   0.000000;0.000000;0.000000;;
  }
  Material {
   0.545600;0.452000;0.292000;1.000000;;
   5.000000;
   0.000000;0.000000;0.000000;;
   0.000000;0.000000;0.000000;;
  }
  Material {
   0.715200;0.731200;0.605600;1.000000;;
   5.000000;
   0.000000;0.000000;0.000000;;
   0.000000;0.000000;0.000000;;
  }
  Material {
   0.800000;0.800000;0.800000;1.000000;;
   5.000000;
   0.000000;0.000000;0.000000;;
   0.000000;0.000000;0.000000;;
  }
 }
 MeshNormals {
  6;
  -1.000000;0.000000;0.000000;,
  1.000000;0.000000;0.000000;,
  0.000000;0.000000;-1.000000;,
  0.000000;0.000000;1.000000;,
  0.000000;-1.000000;-0.000000;,
  0.000000;1.000000;0.000000;;
  88;
  4;1,1,1,1;,
  4;0,0,0,0;,
  4;2,2,2,2;,
  4;4,4,4,4;,
  4;3,3,3,3;,
  4;2,2,2,2;,
  4;4,4,4,4;,
  4;3,3,3,3;,
  4;5,5,5,5;,
  4;3,3,3,3;,
  4;2,2,2,2;,
  4;4,4,4,4;,
  4;3,3,3,3;,
  4;2,2,2,2;,
  4;4,4,4,4;,
  4;5,5,5,5;,
  4;3,3,3,3;,
  4;2,2,2,2;,
  4;4,4,4,4;,
  4;3,3,3,3;,
  4;2,2,2,2;,
  4;4,4,4,4;,
  4;5,5,5,5;,
  4;3,3,3,3;,
  4;2,2,2,2;,
  4;4,4,4,4;,
  4;5,5,5,5;,
  4;3,3,3,3;,
  4;3,3,3,3;,
  4;2,2,2,2;,
  4;2,2,2,2;,
  4;4,4,4,4;,
  4;4,4,4,4;,
  4;2,2,2,2;,
  4;0,0,0,0;,
  4;3,3,3,3;,
  4;1,1,1,1;,
  4;5,5,5,5;,
  4;0,0,0,0;,
  4;3,3,3,3;,
  4;1,1,1,1;,
  4;2,2,2,2;,
  4;5,5,5,5;,
  4;1,1,1,1;,
  4;2,2,2,2;,
  4;0,0,0,0;,
  4;3,3,3,3;,
  4;5,5,5,5;,
  4;1,1,1,1;,
  4;2,2,2,2;,
  4;0,0,0,0;,
  4;3,3,3,3;,
  4;5,5,5,5;,
  4;1,1,1,1;,
  4;2,2,2,2;,
  4;0,0,0,0;,
  4;3,3,3,3;,
  4;5,5,5,5;,
  4;2,2,2,2;,
  4;1,1,1,1;,
  4;3,3,3,3;,
  4;0,0,0,0;,
  4;5,5,5,5;,
  4;4,4,4,4;,
  4;2,2,2,2;,
  4;1,1,1,1;,
  4;3,3,3,3;,
  4;0,0,0,0;,
  4;5,5,5,5;,
  4;4,4,4,4;,
  4;2,2,2,2;,
  4;1,1,1,1;,
  4;3,3,3,3;,
  4;0,0,0,0;,
  4;5,5,5,5;,
  4;4,4,4,4;,
  4;2,2,2,2;,
  4;1,1,1,1;,
  4;3,3,3,3;,
  4;0,0,0,0;,
  4;5,5,5,5;,
  4;4,4,4,4;,
  4;2,2,2,2;,
  4;1,1,1,1;,
  4;3,3,3,3;,
  4;0,0,0,0;,
  4;5,5,5,5;,
  4;4,4,4,4;;
 }
}
