xof 0302txt 0064
template Header {
 <3D82AB43-62DA-11cf-AB39-0020AF71E433>
 WORD major;
 WORD minor;
 DWORD flags;
}

template Vector {
 <3D82AB5E-62DA-11cf-AB39-0020AF71E433>
 FLOAT x;
 FLOAT y;
 FLOAT z;
}

template Coords2d {
 <F6F23F44-7686-11cf-8F52-0040333594A3>
 FLOAT u;
 FLOAT v;
}

template Matrix4x4 {
 <F6F23F45-7686-11cf-8F52-0040333594A3>
 array FLOAT matrix[16];
}

template ColorRGBA {
 <35FF44E0-6C7C-11cf-8F52-0040333594A3>
 FLOAT red;
 FLOAT green;
 FLOAT blue;
 FLOAT alpha;
}

template ColorRGB {
 <D3E16E81-7835-11cf-8F52-0040333594A3>
 FLOAT red;
 FLOAT green;
 FLOAT blue;
}

template IndexedColor {
 <1630B820-7842-11cf-8F52-0040333594A3>
 DWORD index;
 ColorRGBA indexColor;
}

template Boolean {
 <4885AE61-78E8-11cf-8F52-0040333594A3>
 WORD truefalse;
}

template Boolean2d {
 <4885AE63-78E8-11cf-8F52-0040333594A3>
 Boolean u;
 Boolean v;
}

template MaterialWrap {
 <4885AE60-78E8-11cf-8F52-0040333594A3>
 Boolean u;
 Boolean v;
}

template TextureFilename {
 <A42790E1-7810-11cf-8F52-0040333594A3>
 STRING filename;
}

template Material {
 <3D82AB4D-62DA-11cf-AB39-0020AF71E433>
 ColorRGBA faceColor;
 FLOAT power;
 ColorRGB specularColor;
 ColorRGB emissiveColor;
 [...]
}

template MeshFace {
 <3D82AB5F-62DA-11cf-AB39-0020AF71E433>
 DWORD nFaceVertexIndices;
 array DWORD faceVertexIndices[nFaceVertexIndices];
}

template MeshFaceWraps {
 <4885AE62-78E8-11cf-8F52-0040333594A3>
 DWORD nFaceWrapValues;
 Boolean2d faceWrapValues;
}

template MeshTextureCoords {
 <F6F23F40-7686-11cf-8F52-0040333594A3>
 DWORD nTextureCoords;
 array Coords2d textureCoords[nTextureCoords];
}

template MeshMaterialList {
 <F6F23F42-7686-11cf-8F52-0040333594A3>
 DWORD nMaterials;
 DWORD nFaceIndexes;
 array DWORD faceIndexes[nFaceIndexes];
 [Material]
}

template MeshNormals {
 <F6F23F43-7686-11cf-8F52-0040333594A3>
 DWORD nNormals;
 array Vector normals[nNormals];
 DWORD nFaceNormals;
 array MeshFace faceNormals[nFaceNormals];
}

template MeshVertexColors {
 <1630B821-7842-11cf-8F52-0040333594A3>
 DWORD nVertexColors;
 array IndexedColor vertexColors[nVertexColors];
}

template Mesh {
 <3D82AB44-62DA-11cf-AB39-0020AF71E433>
 DWORD nVertices;
 array Vector vertices[nVertices];
 DWORD nFaces;
 array MeshFace faces[nFaces];
 [...]
}

Header{
1;
0;
1;
}

Mesh {
 178;
 16.58278;90.03705;0.00000;,
 22.62468;86.44800;-6.76495;,
 16.09023;88.19892;-9.56707;,
 25.33130;85.72278;0.00000;,
 22.62468;86.44800;6.76495;,
 16.09023;88.19892;9.56707;,
 9.55580;89.94980;6.76495;,
 6.84915;90.67505;0.00000;,
 9.55580;89.94980;-6.76495;,
 26.76167;79.72900;-12.50000;,
 14.68762;82.96423;-17.67768;,
 31.76292;78.38892;0.00000;,
 26.76167;79.72900;12.50000;,
 14.68760;82.96425;17.67768;,
 2.61355;86.19945;12.50000;,
 -2.38770;87.53953;0.00000;,
 2.61355;86.19945;-12.50000;,
 28.36398;70.90298;-16.33203;,
 12.58842;75.13005;-23.09698;,
 34.89840;69.15210;0.00000;,
 28.36398;70.90298;16.33203;,
 12.58842;75.13005;23.09698;,
 -3.18710;79.35705;16.33203;,
 -9.72153;81.10795;0.00000;,
 -3.18710;79.35705;-16.33203;,
 27.18760;61.31363;-17.67768;,
 10.11230;65.88895;-25.00000;,
 34.26043;59.41850;0.00000;,
 27.18760;61.31363;17.67768;,
 10.11230;65.88895;25.00000;,
 -6.96303;70.46425;17.67768;,
 -14.03582;72.35940;0.00000;,
 -6.96303;70.46425;-17.67768;,
 23.41167;52.42083;-16.33203;,
 7.63615;56.64780;-23.09698;,
 29.94610;50.66993;0.00000;,
 23.41167;52.42083;16.33203;,
 7.63615;56.64780;23.09698;,
 -8.13937;60.87487;16.33203;,
 -14.67380;62.62575;0.00000;,
 -8.13937;60.87487;-16.33203;,
 17.61105;45.57838;-12.50000;,
 5.53697;48.81363;-17.67768;,
 22.61227;44.23835;0.00000;,
 17.61105;45.57838;12.50000;,
 5.53697;48.81363;17.67768;,
 -6.53710;52.04885;12.50000;,
 -11.53833;53.38892;0.00000;,
 -6.53710;52.04885;-12.50000;,
 10.66880;41.82810;-6.76495;,
 4.13435;43.57898;-9.56707;,
 13.37545;41.10283;0.00000;,
 10.66880;41.82810;6.76495;,
 4.13435;43.57898;9.56707;,
 -2.40007;45.32985;6.76495;,
 -5.10673;46.05513;0.00000;,
 -2.40007;45.32985;-6.76495;,
 3.64182;41.74083;0.00000;,
 39.54367;94.03315;0.00000;,
 39.54435;94.03385;0.00228;,
 10.66848;102.51382;3.20027;,
 10.68003;101.18830;0.00000;,
 39.54595;94.03542;0.00323;,
 10.64055;105.71400;4.52588;,
 39.54755;94.03710;0.00228;,
 10.61263;108.91412;3.20027;,
 39.54820;94.03777;0.00000;,
 10.60105;110.23965;0.00000;,
 39.54755;94.03710;-0.00228;,
 10.61263;108.91412;-3.20027;,
 39.54595;94.03542;-0.00323;,
 10.64055;105.71400;-4.52585;,
 39.54435;94.03385;-0.00228;,
 10.66848;102.51382;-3.20027;,
 -15.77407;91.28965;3.20027;,
 -14.82858;90.36053;0.00000;,
 -18.05665;93.53272;4.52588;,
 -20.33925;95.77590;3.20027;,
 -21.28470;96.70500;0.00000;,
 -20.33925;95.77590;-3.20027;,
 -18.05665;93.53272;-4.52585;,
 -15.77407;91.28965;-3.20027;,
 -26.53507;64.65527;3.20027;,
 -25.20950;64.66685;0.00000;,
 -29.73525;64.62735;4.52588;,
 -32.93538;64.59943;3.20027;,
 -34.26093;64.58785;0.00000;,
 -32.93538;64.59943;-3.20027;,
 -29.73525;64.62735;-4.52588;,
 -26.53507;64.65527;-3.20027;,
 -15.31087;38.21273;3.20027;,
 -14.38175;39.15820;0.00000;,
 -17.55397;35.93018;4.52585;,
 -19.79705;33.64755;3.20027;,
 -20.72618;32.70208;0.00000;,
 -19.79705;33.64755;-3.20027;,
 -17.55397;35.93018;-4.52588;,
 -15.31087;38.21273;-3.20027;,
 11.35020;24.39473;0.14312;,
 11.34970;24.45398;0.00000;,
 11.35145;24.25160;0.20243;,
 11.35270;24.10847;0.14312;,
 11.35322;24.04918;0.00000;,
 11.35270;24.10847;-0.14312;,
 11.35145;24.25160;-0.20243;,
 11.35020;24.39473;-0.14312;,
 4.47858;43.49105;-1.90657;,
 5.77768;43.13078;-1.34815;,
 1.97560;29.42090;-1.34815;,
 0.67647;29.78118;-1.90657;,
 6.31577;42.98158;0.00000;,
 2.51370;29.27170;0.00000;,
 5.77768;43.13078;1.34815;,
 1.97560;29.42090;1.34815;,
 4.47858;43.49105;1.90657;,
 0.67647;29.78118;1.90657;,
 3.17945;43.85133;1.34815;,
 -0.62262;30.14148;1.34815;,
 2.64135;44.00055;0.00000;,
 -1.16072;30.29070;0.00000;,
 3.17945;43.85133;-1.34815;,
 -0.62262;30.14148;-1.34815;,
 4.47858;43.49105;0.00000;,
 0.67647;29.78118;0.00000;,
 19.98223;99.53465;-1.90657;,
 21.28135;99.17438;-1.34815;,
 17.47925;85.46455;-1.34815;,
 16.18015;85.82478;-1.90657;,
 21.81945;99.02515;0.00000;,
 18.01738;85.31530;0.00000;,
 21.28135;99.17438;1.34815;,
 17.47925;85.46455;1.34815;,
 19.98223;99.53465;1.90657;,
 16.18015;85.82478;1.90657;,
 18.68312;99.89493;1.34815;,
 14.88103;86.18507;1.34815;,
 18.14500;100.04415;0.00000;,
 14.34293;86.33430;0.00000;,
 18.68312;99.89493;-1.34815;,
 14.88103;86.18507;-1.34815;,
 19.98223;99.53465;0.00000;,
 16.18015;85.82478;0.00000;,
 0.00000;28.11995;-1.66635;,
 1.17830;28.11995;-1.17830;,
 1.17830;1.88000;-1.17830;,
 0.00000;1.88000;-1.66635;,
 1.66635;28.11995;0.00000;,
 1.66635;1.88000;0.00000;,
 1.17830;28.11995;1.17830;,
 1.17830;1.88000;1.17830;,
 0.00000;28.11995;1.66635;,
 0.00000;1.88000;1.66635;,
 -1.17830;28.11995;1.17830;,
 -1.17830;1.88000;1.17830;,
 -1.66635;28.11995;0.00000;,
 -1.66635;1.88000;0.00000;,
 -1.17830;28.11995;-1.17830;,
 -1.17830;1.88000;-1.17830;,
 0.00000;28.11995;0.00000;,
 0.00000;1.88000;0.00000;,
 0.00000;9.42910;-31.75833;,
 22.45650;9.42910;-22.45650;,
 22.45650;0.57090;-22.45650;,
 0.00000;0.57090;-31.75833;,
 31.75833;9.42910;0.00000;,
 31.75833;0.57090;0.00000;,
 22.45650;9.42910;22.45650;,
 22.45650;0.57090;22.45650;,
 0.00000;9.42910;31.75833;,
 0.00000;0.57090;31.75833;,
 -22.45653;9.42910;22.45650;,
 -22.45653;0.57090;22.45650;,
 -31.75833;9.42910;0.00000;,
 -31.75833;0.57090;0.00000;,
 -22.45653;9.42910;-22.45650;,
 -22.45653;0.57090;-22.45650;,
 0.00000;9.42910;0.00000;,
 0.00000;0.57090;0.00000;;
 
 200;
 3;0,1,2;,
 3;0,3,1;,
 3;0,4,3;,
 3;0,5,4;,
 3;0,6,5;,
 3;0,7,6;,
 3;0,8,7;,
 3;0,2,8;,
 4;2,1,9,10;,
 4;1,3,11,9;,
 4;3,4,12,11;,
 4;4,5,13,12;,
 4;5,6,14,13;,
 4;6,7,15,14;,
 4;7,8,16,15;,
 4;8,2,10,16;,
 4;10,9,17,18;,
 4;9,11,19,17;,
 4;11,12,20,19;,
 4;12,13,21,20;,
 4;13,14,22,21;,
 4;14,15,23,22;,
 4;15,16,24,23;,
 4;16,10,18,24;,
 4;18,17,25,26;,
 4;17,19,27,25;,
 4;19,20,28,27;,
 4;20,21,29,28;,
 4;21,22,30,29;,
 4;22,23,31,30;,
 4;23,24,32,31;,
 4;24,18,26,32;,
 4;26,25,33,34;,
 4;25,27,35,33;,
 4;27,28,36,35;,
 4;28,29,37,36;,
 4;29,30,38,37;,
 4;30,31,39,38;,
 4;31,32,40,39;,
 4;32,26,34,40;,
 4;34,33,41,42;,
 4;33,35,43,41;,
 4;35,36,44,43;,
 4;36,37,45,44;,
 4;37,38,46,45;,
 4;38,39,47,46;,
 4;39,40,48,47;,
 4;40,34,42,48;,
 4;42,41,49,50;,
 4;41,43,51,49;,
 4;43,44,52,51;,
 4;44,45,53,52;,
 4;45,46,54,53;,
 4;46,47,55,54;,
 4;47,48,56,55;,
 4;48,42,50,56;,
 3;50,49,57;,
 3;49,51,57;,
 3;51,52,57;,
 3;52,53,57;,
 3;53,54,57;,
 3;54,55,57;,
 3;55,56,57;,
 3;56,50,57;,
 4;58,59,60,61;,
 4;59,62,63,60;,
 4;62,64,65,63;,
 4;64,66,67,65;,
 4;66,68,69,67;,
 4;68,70,71,69;,
 4;70,72,73,71;,
 4;72,58,61,73;,
 4;61,60,74,75;,
 4;60,63,76,74;,
 4;63,65,77,76;,
 4;65,67,78,77;,
 4;67,69,79,78;,
 4;69,71,80,79;,
 4;71,73,81,80;,
 4;73,61,75,81;,
 4;75,74,82,83;,
 4;74,76,84,82;,
 4;76,77,85,84;,
 4;77,78,86,85;,
 4;78,79,87,86;,
 4;79,80,88,87;,
 4;80,81,89,88;,
 4;81,75,83,89;,
 4;83,82,90,91;,
 4;82,84,92,90;,
 4;84,85,93,92;,
 4;85,86,94,93;,
 4;86,87,95,94;,
 4;87,88,96,95;,
 4;88,89,97,96;,
 4;89,83,91,97;,
 4;91,90,98,99;,
 4;90,92,100,98;,
 4;92,93,101,100;,
 4;93,94,102,101;,
 4;94,95,103,102;,
 4;95,96,104,103;,
 4;96,97,105,104;,
 4;97,91,99,105;,
 4;106,107,108,109;,
 4;107,110,111,108;,
 4;110,112,113,111;,
 4;112,114,115,113;,
 4;114,116,117,115;,
 4;116,118,119,117;,
 4;118,120,121,119;,
 4;120,106,109,121;,
 3;122,107,106;,
 3;122,110,107;,
 3;122,112,110;,
 3;122,114,112;,
 3;122,116,114;,
 3;122,118,116;,
 3;122,120,118;,
 3;122,106,120;,
 3;123,109,108;,
 3;123,108,111;,
 3;123,111,113;,
 3;123,113,115;,
 3;123,115,117;,
 3;123,117,119;,
 3;123,119,121;,
 3;123,121,109;,
 4;124,125,126,127;,
 4;125,128,129,126;,
 4;128,130,131,129;,
 4;130,132,133,131;,
 4;132,134,135,133;,
 4;134,136,137,135;,
 4;136,138,139,137;,
 4;138,124,127,139;,
 3;140,125,124;,
 3;140,128,125;,
 3;140,130,128;,
 3;140,132,130;,
 3;140,134,132;,
 3;140,136,134;,
 3;140,138,136;,
 3;140,124,138;,
 3;141,127,126;,
 3;141,126,129;,
 3;141,129,131;,
 3;141,131,133;,
 3;141,133,135;,
 3;141,135,137;,
 3;141,137,139;,
 3;141,139,127;,
 4;142,143,144,145;,
 4;143,146,147,144;,
 4;146,148,149,147;,
 4;148,150,151,149;,
 4;150,152,153,151;,
 4;152,154,155,153;,
 4;154,156,157,155;,
 4;156,142,145,157;,
 3;158,143,142;,
 3;158,146,143;,
 3;158,148,146;,
 3;158,150,148;,
 3;158,152,150;,
 3;158,154,152;,
 3;158,156,154;,
 3;158,142,156;,
 3;159,145,144;,
 3;159,144,147;,
 3;159,147,149;,
 3;159,149,151;,
 3;159,151,153;,
 3;159,153,155;,
 3;159,155,157;,
 3;159,157,145;,
 4;160,161,162,163;,
 4;161,164,165,162;,
 4;164,166,167,165;,
 4;166,168,169,167;,
 4;168,170,171,169;,
 4;170,172,173,171;,
 4;172,174,175,173;,
 4;174,160,163,175;,
 3;176,161,160;,
 3;176,164,161;,
 3;176,166,164;,
 3;176,168,166;,
 3;176,170,168;,
 3;176,172,170;,
 3;176,174,172;,
 3;176,160,174;,
 3;177,163,162;,
 3;177,162,165;,
 3;177,165,167;,
 3;177,167,169;,
 3;177,169,171;,
 3;177,171,173;,
 3;177,173,175;,
 3;177,175,163;;
 
 MeshMaterialList {
  4;
  200;
  0,
  0,
  0,
  0,
  0,
  0,
  0,
  0,
  0,
  0,
  0,
  0,
  0,
  0,
  0,
  0,
  0,
  0,
  0,
  0,
  0,
  0,
  0,
  0,
  0,
  0,
  0,
  0,
  0,
  0,
  0,
  0,
  0,
  0,
  0,
  0,
  0,
  0,
  0,
  0,
  0,
  0,
  0,
  0,
  0,
  0,
  0,
  0,
  0,
  0,
  0,
  0,
  0,
  0,
  0,
  0,
  0,
  0,
  0,
  0,
  0,
  0,
  0,
  0,
  1,
  1,
  1,
  1,
  1,
  1,
  1,
  1,
  1,
  1,
  1,
  1,
  1,
  1,
  1,
  1,
  1,
  1,
  1,
  1,
  1,
  1,
  1,
  1,
  1,
  1,
  1,
  1,
  1,
  1,
  1,
  1,
  1,
  1,
  1,
  1,
  1,
  1,
  1,
  1,
  3,
  3,
  3,
  3,
  3,
  3,
  3,
  3,
  3,
  3,
  3,
  3,
  3,
  3,
  3,
  3,
  3,
  3,
  3,
  3,
  3,
  3,
  3,
  3,
  3,
  3,
  3,
  3,
  3,
  3,
  3,
  3,
  3,
  3,
  3,
  3,
  3,
  3,
  3,
  3,
  3,
  3,
  3,
  3,
  3,
  3,
  3,
  3,
  3,
  3,
  3,
  3,
  3,
  3,
  3,
  3,
  3,
  3,
  3,
  3,
  3,
  3,
  3,
  3,
  3,
  3,
  3,
  3,
  3,
  3,
  3,
  3,
  2,
  2,
  2,
  2,
  2,
  2,
  2,
  2,
  2,
  2,
  2,
  2,
  2,
  2,
  2,
  2,
  2,
  2,
  2,
  2,
  2,
  2,
  2,
  2;;
  Material {
   0.329600;0.542400;0.800000;1.000000;;
   5.000000;
   0.000000;0.000000;0.000000;;
   0.000000;0.000000;0.000000;;
  }
  Material {
   0.432800;0.300800;0.248000;1.000000;;
   5.000000;
   0.000000;0.000000;0.000000;;
   0.000000;0.000000;0.000000;;
  }
  Material {
   0.599200;0.599200;0.599200;1.000000;;
   5.000000;
   0.000000;0.000000;0.000000;;
   0.000000;0.000000;0.000000;;
  }
  Material {
   1.000000;1.000000;1.000000;1.000000;;
   0.000000;
   0.000000;0.000000;0.000000;;
   0.000000;0.000000;0.000000;;
  }
 }
 MeshNormals {
  174;
  0.258819;0.965926;0.000000;,
  0.239339;0.893226;-0.380610;,
  0.499301;0.823569;-0.269132;,
  0.606980;0.794717;0.000000;,
  0.499301;0.823569;0.269132;,
  0.239339;0.893226;0.380609;,
  -0.020624;0.962883;0.269132;,
  -0.128303;0.991735;0.000000;,
  -0.020624;0.962882;-0.269132;,
  0.183562;0.685064;-0.704977;,
  0.665071;0.556044;-0.498494;,
  0.864518;0.502603;0.000000;,
  0.665071;0.556044;0.498494;,
  0.183562;0.685064;0.704977;,
  -0.297947;0.814083;0.498494;,
  -0.497394;0.867525;0.000000;,
  -0.297947;0.814083;-0.498494;,
  0.099529;0.371449;-0.923103;,
  0.730021;0.202508;-0.652733;,
  0.991179;0.132531;0.000000;,
  0.730021;0.202508;0.652733;,
  0.099529;0.371448;0.923104;,
  -0.530963;0.540388;0.652732;,
  -0.792120;0.610365;0.000000;,
  -0.530962;0.540388;-0.652732;,
  0.000000;0.000000;-1.000000;,
  0.683013;-0.183013;-0.707106;,
  0.965926;-0.258820;-0.000000;,
  0.683013;-0.183013;0.707106;,
  0.000000;0.000000;1.000000;,
  -0.683013;0.183013;0.707106;,
  -0.965926;0.258819;0.000000;,
  -0.683013;0.183013;-0.707106;,
  -0.099529;-0.371448;-0.923104;,
  0.530963;-0.540388;-0.652732;,
  0.792121;-0.610364;-0.000000;,
  0.530963;-0.540388;0.652732;,
  -0.099529;-0.371448;0.923104;,
  -0.730021;-0.202508;0.652732;,
  -0.991179;-0.132531;0.000000;,
  -0.730021;-0.202508;-0.652733;,
  -0.183562;-0.685065;-0.704976;,
  0.297947;-0.814084;-0.498493;,
  0.497395;-0.867525;-0.000000;,
  0.297947;-0.814084;0.498493;,
  -0.183562;-0.685065;0.704976;,
  -0.665070;-0.556045;0.498493;,
  -0.864518;-0.502602;0.000000;,
  -0.665071;-0.556045;-0.498493;,
  -0.239337;-0.893227;-0.380609;,
  0.020623;-0.962882;-0.269132;,
  0.128302;-0.991735;-0.000000;,
  0.020623;-0.962882;0.269132;,
  -0.239337;-0.893227;0.380609;,
  -0.499300;-0.823571;0.269130;,
  -0.606980;-0.794717;0.000000;,
  -0.499300;-0.823571;-0.269130;,
  -0.258818;-0.965926;0.000000;,
  -0.242149;-0.970239;0.000000;,
  -0.139196;-0.719347;0.680562;,
  0.129372;-0.055744;0.990028;,
  0.392239;0.618521;0.680867;,
  0.488409;0.872615;0.000000;,
  0.392239;0.618520;-0.680869;,
  0.129372;-0.055743;-0.990028;,
  -0.139196;-0.719345;-0.680564;,
  0.078544;-0.996911;-0.000000;,
  0.073645;-0.710467;0.699866;,
  0.064873;-0.027953;0.997502;,
  0.057701;0.684202;0.727007;,
  0.054767;0.998499;0.000000;,
  0.057701;0.684200;-0.727008;,
  0.064873;-0.027953;-0.997502;,
  0.073645;-0.710466;-0.699868;,
  0.713250;-0.700910;-0.000000;,
  0.498470;-0.489846;0.715247;,
  0.000001;-0.000001;1.000000;,
  -0.498472;0.489848;0.715245;,
  -0.713249;0.700910;0.000000;,
  -0.498470;0.489846;-0.715247;,
  0.000001;-0.000001;-1.000000;,
  0.498469;-0.489845;-0.715249;,
  0.999962;0.008726;0.000000;,
  0.698843;0.006098;0.715249;,
  -0.000000;-0.000001;1.000000;,
  -0.698846;-0.006099;0.715246;,
  -0.999962;-0.008726;0.000000;,
  -0.698846;-0.006099;-0.715246;,
  -0.000000;-0.000000;-1.000000;,
  0.698843;0.006099;-0.715249;,
  0.746614;0.665258;0.000000;,
  0.544507;0.461221;0.700562;,
  0.062570;-0.025855;0.997706;,
  -0.436323;-0.531027;0.726383;,
  -0.656480;-0.754343;0.000000;,
  -0.436324;-0.531028;-0.726382;,
  0.062570;-0.025855;-0.997706;,
  0.544508;0.461222;-0.700561;,
  0.494195;0.869351;0.000000;,
  0.394706;0.616649;0.681140;,
  0.124756;-0.051550;0.990847;,
  -0.153280;-0.715979;0.681087;,
  -0.260346;-0.965515;0.000000;,
  -0.153281;-0.715980;-0.681086;,
  0.124756;-0.051550;-0.990847;,
  0.394707;0.616650;-0.681138;,
  0.267234;0.963632;0.000000;,
  0.000000;-0.000000;-1.000000;,
  0.681395;-0.188967;-0.707101;,
  0.963631;-0.267238;-0.000000;,
  0.681395;-0.188967;0.707101;,
  0.000000;-0.000000;1.000000;,
  -0.681393;0.188967;0.707103;,
  -0.963630;0.267238;0.000000;,
  -0.681393;0.188967;-0.707103;,
  -0.267242;-0.963630;0.000000;,
  0.267233;0.963632;-0.000007;,
  0.267238;0.963631;0.000000;,
  0.267226;0.963634;0.000000;,
  0.267233;0.963632;0.000007;,
  0.267235;0.963631;-0.000001;,
  0.267234;0.963632;0.000000;,
  0.267235;0.963631;0.000001;,
  -0.267247;-0.963628;0.000000;,
  -0.267229;-0.963633;0.000007;,
  -0.267223;-0.963635;0.000000;,
  -0.267229;-0.963633;-0.000007;,
  -0.267254;-0.963626;0.000004;,
  -0.267250;-0.963627;0.000000;,
  -0.267254;-0.963626;-0.000004;,
  0.267237;0.963631;0.000000;,
  0.000001;-0.000000;-1.000000;,
  0.681391;-0.188967;-0.707106;,
  0.963630;-0.267239;-0.000000;,
  0.681391;-0.188967;0.707106;,
  0.000001;-0.000000;1.000000;,
  -0.681391;0.188967;0.707105;,
  -0.963630;0.267239;0.000000;,
  -0.681391;0.188967;-0.707105;,
  -0.267232;-0.963632;0.000000;,
  0.267237;0.963631;0.000001;,
  0.267238;0.963631;0.000000;,
  0.267238;0.963631;0.000000;,
  0.267237;0.963631;-0.000001;,
  0.267237;0.963631;-0.000003;,
  0.267234;0.963632;0.000000;,
  0.267237;0.963631;0.000003;,
  -0.267230;-0.963633;0.000000;,
  -0.267216;-0.963637;-0.000007;,
  -0.267223;-0.963635;0.000000;,
  -0.267216;-0.963637;0.000007;,
  -0.267248;-0.963628;0.000003;,
  -0.267245;-0.963629;0.000000;,
  -0.267248;-0.963628;-0.000003;,
  0.000000;1.000000;0.000000;,
  0.000000;0.000000;-1.000000;,
  0.707107;0.000000;-0.707107;,
  1.000000;0.000000;0.000000;,
  0.707107;0.000000;0.707107;,
  0.000000;0.000000;1.000000;,
  -0.707107;0.000000;0.707107;,
  -1.000000;0.000000;0.000000;,
  -0.707107;0.000000;-0.707107;,
  0.000000;-1.000000;-0.000000;,
  0.000000;1.000000;0.000000;,
  0.000000;0.000000;-1.000000;,
  0.707107;0.000000;-0.707107;,
  1.000000;0.000000;0.000000;,
  0.707107;0.000000;0.707107;,
  0.000000;0.000000;1.000000;,
  -0.707107;0.000000;0.707107;,
  -1.000000;0.000000;0.000000;,
  -0.707107;0.000000;-0.707107;,
  0.000000;-1.000000;-0.000000;;
  200;
  3;0,2,1;,
  3;0,3,2;,
  3;0,4,3;,
  3;0,5,4;,
  3;0,6,5;,
  3;0,7,6;,
  3;0,8,7;,
  3;0,1,8;,
  4;1,2,10,9;,
  4;2,3,11,10;,
  4;3,4,12,11;,
  4;4,5,13,12;,
  4;5,6,14,13;,
  4;6,7,15,14;,
  4;7,8,16,15;,
  4;8,1,9,16;,
  4;9,10,18,17;,
  4;10,11,19,18;,
  4;11,12,20,19;,
  4;12,13,21,20;,
  4;13,14,22,21;,
  4;14,15,23,22;,
  4;15,16,24,23;,
  4;16,9,17,24;,
  4;17,18,26,25;,
  4;18,19,27,26;,
  4;19,20,28,27;,
  4;20,21,29,28;,
  4;21,22,30,29;,
  4;22,23,31,30;,
  4;23,24,32,31;,
  4;24,17,25,32;,
  4;25,26,34,33;,
  4;26,27,35,34;,
  4;27,28,36,35;,
  4;28,29,37,36;,
  4;29,30,38,37;,
  4;30,31,39,38;,
  4;31,32,40,39;,
  4;32,25,33,40;,
  4;33,34,42,41;,
  4;34,35,43,42;,
  4;35,36,44,43;,
  4;36,37,45,44;,
  4;37,38,46,45;,
  4;38,39,47,46;,
  4;39,40,48,47;,
  4;40,33,41,48;,
  4;41,42,50,49;,
  4;42,43,51,50;,
  4;43,44,52,51;,
  4;44,45,53,52;,
  4;45,46,54,53;,
  4;46,47,55,54;,
  4;47,48,56,55;,
  4;48,41,49,56;,
  3;49,50,57;,
  3;50,51,57;,
  3;51,52,57;,
  3;52,53,57;,
  3;53,54,57;,
  3;54,55,57;,
  3;55,56,57;,
  3;56,49,57;,
  4;58,59,67,66;,
  4;59,60,68,67;,
  4;60,61,69,68;,
  4;61,62,70,69;,
  4;62,63,71,70;,
  4;63,64,72,71;,
  4;64,65,73,72;,
  4;65,58,66,73;,
  4;66,67,75,74;,
  4;67,68,76,75;,
  4;68,69,77,76;,
  4;69,70,78,77;,
  4;70,71,79,78;,
  4;71,72,80,79;,
  4;72,73,81,80;,
  4;73,66,74,81;,
  4;74,75,83,82;,
  4;75,76,84,83;,
  4;76,77,85,84;,
  4;77,78,86,85;,
  4;78,79,87,86;,
  4;79,80,88,87;,
  4;80,81,89,88;,
  4;81,74,82,89;,
  4;82,83,91,90;,
  4;83,84,92,91;,
  4;84,85,93,92;,
  4;85,86,94,93;,
  4;86,87,95,94;,
  4;87,88,96,95;,
  4;88,89,97,96;,
  4;89,82,90,97;,
  4;90,91,99,98;,
  4;91,92,100,99;,
  4;92,93,101,100;,
  4;93,94,102,101;,
  4;94,95,103,102;,
  4;95,96,104,103;,
  4;96,97,105,104;,
  4;97,90,98,105;,
  4;107,108,108,107;,
  4;108,109,109,108;,
  4;109,110,110,109;,
  4;110,111,111,110;,
  4;111,112,112,111;,
  4;112,113,113,112;,
  4;113,114,114,113;,
  4;114,107,107,114;,
  3;106,116,117;,
  3;106,118,116;,
  3;106,119,118;,
  3;106,117,119;,
  3;106,120,117;,
  3;106,121,120;,
  3;106,122,121;,
  3;106,117,122;,
  3;115,123,124;,
  3;115,124,125;,
  3;115,125,126;,
  3;115,126,123;,
  3;115,123,127;,
  3;115,127,128;,
  3;115,128,129;,
  3;115,129,123;,
  4;131,132,132,131;,
  4;132,133,133,132;,
  4;133,134,134,133;,
  4;134,135,135,134;,
  4;135,136,136,135;,
  4;136,137,137,136;,
  4;137,138,138,137;,
  4;138,131,131,138;,
  3;130,140,141;,
  3;130,142,140;,
  3;130,143,142;,
  3;130,141,143;,
  3;130,144,141;,
  3;130,145,144;,
  3;130,146,145;,
  3;130,141,146;,
  3;139,147,148;,
  3;139,148,149;,
  3;139,149,150;,
  3;139,150,147;,
  3;139,147,151;,
  3;139,151,152;,
  3;139,152,153;,
  3;139,153,147;,
  4;155,156,156,155;,
  4;156,157,157,156;,
  4;157,158,158,157;,
  4;158,159,159,158;,
  4;159,160,160,159;,
  4;160,161,161,160;,
  4;161,162,162,161;,
  4;162,155,155,162;,
  3;154,154,154;,
  3;154,154,154;,
  3;154,154,154;,
  3;154,154,154;,
  3;154,154,154;,
  3;154,154,154;,
  3;154,154,154;,
  3;154,154,154;,
  3;163,163,163;,
  3;163,163,163;,
  3;163,163,163;,
  3;163,163,163;,
  3;163,163,163;,
  3;163,163,163;,
  3;163,163,163;,
  3;163,163,163;,
  4;165,166,166,165;,
  4;166,167,167,166;,
  4;167,168,168,167;,
  4;168,169,169,168;,
  4;169,170,170,169;,
  4;170,171,171,170;,
  4;171,172,172,171;,
  4;172,165,165,172;,
  3;164,164,164;,
  3;164,164,164;,
  3;164,164,164;,
  3;164,164,164;,
  3;164,164,164;,
  3;164,164,164;,
  3;164,164,164;,
  3;164,164,164;,
  3;173,173,173;,
  3;173,173,173;,
  3;173,173,173;,
  3;173,173,173;,
  3;173,173,173;,
  3;173,173,173;,
  3;173,173,173;,
  3;173,173,173;;
 }
}
