xof 0302txt 0064
template Header {
 <3D82AB43-62DA-11cf-AB39-0020AF71E433>
 WORD major;
 WORD minor;
 DWORD flags;
}

template Vector {
 <3D82AB5E-62DA-11cf-AB39-0020AF71E433>
 FLOAT x;
 FLOAT y;
 FLOAT z;
}

template Coords2d {
 <F6F23F44-7686-11cf-8F52-0040333594A3>
 FLOAT u;
 FLOAT v;
}

template Matrix4x4 {
 <F6F23F45-7686-11cf-8F52-0040333594A3>
 array FLOAT matrix[16];
}

template ColorRGBA {
 <35FF44E0-6C7C-11cf-8F52-0040333594A3>
 FLOAT red;
 FLOAT green;
 FLOAT blue;
 FLOAT alpha;
}

template ColorRGB {
 <D3E16E81-7835-11cf-8F52-0040333594A3>
 FLOAT red;
 FLOAT green;
 FLOAT blue;
}

template IndexedColor {
 <1630B820-7842-11cf-8F52-0040333594A3>
 DWORD index;
 ColorRGBA indexColor;
}

template Boolean {
 <4885AE61-78E8-11cf-8F52-0040333594A3>
 WORD truefalse;
}

template Boolean2d {
 <4885AE63-78E8-11cf-8F52-0040333594A3>
 Boolean u;
 Boolean v;
}

template MaterialWrap {
 <4885AE60-78E8-11cf-8F52-0040333594A3>
 Boolean u;
 Boolean v;
}

template TextureFilename {
 <A42790E1-7810-11cf-8F52-0040333594A3>
 STRING filename;
}

template Material {
 <3D82AB4D-62DA-11cf-AB39-0020AF71E433>
 ColorRGBA faceColor;
 FLOAT power;
 ColorRGB specularColor;
 ColorRGB emissiveColor;
 [...]
}

template MeshFace {
 <3D82AB5F-62DA-11cf-AB39-0020AF71E433>
 DWORD nFaceVertexIndices;
 array DWORD faceVertexIndices[nFaceVertexIndices];
}

template MeshFaceWraps {
 <4885AE62-78E8-11cf-8F52-0040333594A3>
 DWORD nFaceWrapValues;
 Boolean2d faceWrapValues;
}

template MeshTextureCoords {
 <F6F23F40-7686-11cf-8F52-0040333594A3>
 DWORD nTextureCoords;
 array Coords2d textureCoords[nTextureCoords];
}

template MeshMaterialList {
 <F6F23F42-7686-11cf-8F52-0040333594A3>
 DWORD nMaterials;
 DWORD nFaceIndexes;
 array DWORD faceIndexes[nFaceIndexes];
 [Material]
}

template MeshNormals {
 <F6F23F43-7686-11cf-8F52-0040333594A3>
 DWORD nNormals;
 array Vector normals[nNormals];
 DWORD nFaceNormals;
 array MeshFace faceNormals[nFaceNormals];
}

template MeshVertexColors {
 <1630B821-7842-11cf-8F52-0040333594A3>
 DWORD nVertexColors;
 array IndexedColor vertexColors[nVertexColors];
}

template Mesh {
 <3D82AB44-62DA-11cf-AB39-0020AF71E433>
 DWORD nVertices;
 array Vector vertices[nVertices];
 DWORD nFaces;
 array MeshFace faces[nFaces];
 [...]
}

Header{
1;
0;
1;
}

Mesh {
 26;
 0.00000;50.00000;-64.48203;,
 45.59571;50.00000;-45.59572;,
 63.37001;0.00000;-63.36998;,
 0.00000;0.00000;-89.61869;,
 64.48199;50.00000;0.00000;,
 89.61869;0.00000;0.00000;,
 45.59571;50.00000;45.59572;,
 63.37001;0.00000;63.36998;,
 -0.00001;50.00000;64.48203;,
 -0.00001;0.00000;89.61869;,
 -45.59571;50.00000;45.59570;,
 -63.37004;0.00000;63.36996;,
 -64.48199;50.00000;-0.00000;,
 -89.61869;0.00000;-0.00000;,
 -45.59571;50.00000;-45.59571;,
 -63.37004;0.00000;-63.36998;,
 0.00000;0.00000;0.00000;,
 0.00000;42.36404;-52.03526;,
 36.79452;42.36404;-36.79453;,
 0.00000;42.36404;0.00000;,
 52.03524;42.36404;0.00000;,
 36.79452;42.36404;36.79453;,
 -0.00000;42.36404;52.03526;,
 -36.79452;42.36404;36.79451;,
 -52.03524;42.36404;-0.00000;,
 -36.79452;42.36404;-36.79452;;
 
 32;
 4;0,1,2,3;,
 4;1,4,5,2;,
 4;4,6,7,5;,
 4;6,8,9,7;,
 4;8,10,11,9;,
 4;10,12,13,11;,
 4;12,14,15,13;,
 4;14,0,3,15;,
 3;16,3,2;,
 3;16,2,5;,
 3;16,5,7;,
 3;16,7,9;,
 3;16,9,11;,
 3;16,11,13;,
 3;16,13,15;,
 3;16,15,3;,
 4;17,18,1,0;,
 3;19,18,17;,
 4;18,20,4,1;,
 3;19,20,18;,
 4;20,21,6,4;,
 3;19,21,20;,
 4;21,22,8,6;,
 3;19,22,21;,
 4;22,23,10,8;,
 3;19,23,22;,
 4;23,24,12,10;,
 3;19,24,23;,
 4;24,25,14,12;,
 3;19,25,24;,
 4;25,17,0,14;,
 3;19,17,25;;
 
 MeshMaterialList {
  3;
  32;
  0,
  0,
  0,
  0,
  0,
  0,
  0,
  0,
  0,
  0,
  0,
  0,
  0,
  0,
  0,
  0,
  0,
  2,
  0,
  2,
  0,
  2,
  0,
  2,
  0,
  2,
  0,
  2,
  0,
  2,
  0,
  2;;
  Material {
   0.000000;0.000000;0.000000;1.000000;;
   5.000000;
   0.000000;0.000000;0.000000;;
   0.000000;0.000000;0.000000;;
  }
  Material {
   0.800000;0.800000;0.800000;1.000000;;
   5.000000;
   0.000000;0.000000;0.000000;;
   0.000000;0.000000;0.000000;;
  }
  Material {
   1.000000;1.000000;1.000000;1.000000;;
   0.000000;
   0.000000;0.000000;0.000000;;
   0.000000;0.000000;0.000000;;
  }
 }
 MeshNormals {
  26;
  0.000000;0.449166;-0.893448;,
  0.631763;0.449166;-0.631763;,
  0.893448;0.449166;0.000000;,
  0.631763;0.449166;0.631763;,
  -0.000000;0.449166;0.893448;,
  -0.631763;0.449166;0.631763;,
  -0.893448;0.449166;0.000000;,
  -0.631763;0.449166;-0.631763;,
  0.000000;-1.000000;-0.000000;,
  0.000000;1.000000;-0.000000;,
  0.000000;0.963261;0.268566;,
  -0.189905;0.963261;0.189905;,
  -0.268566;0.963261;-0.000000;,
  -0.189905;0.963261;-0.189905;,
  0.000000;0.963261;-0.268566;,
  0.189905;0.963261;-0.189905;,
  0.268566;0.963261;-0.000000;,
  0.189905;0.963261;0.189905;,
  -0.369764;0.852379;0.369764;,
  0.000000;0.852378;0.522925;,
  -0.522926;0.852378;-0.000000;,
  -0.369764;0.852379;-0.369764;,
  0.000000;0.852378;-0.522925;,
  0.369764;0.852379;-0.369764;,
  0.522926;0.852378;-0.000000;,
  0.369764;0.852379;0.369764;;
  32;
  4;0,1,1,0;,
  4;1,2,2,1;,
  4;2,3,3,2;,
  4;3,4,4,3;,
  4;4,5,5,4;,
  4;5,6,6,5;,
  4;6,7,7,6;,
  4;7,0,0,7;,
  3;8,8,8;,
  3;8,8,8;,
  3;8,8,8;,
  3;8,8,8;,
  3;8,8,8;,
  3;8,8,8;,
  3;8,8,8;,
  3;8,8,8;,
  4;10,11,18,19;,
  3;9,11,10;,
  4;11,12,20,18;,
  3;9,12,11;,
  4;12,13,21,20;,
  3;9,13,12;,
  4;13,14,22,21;,
  3;9,14,13;,
  4;14,15,23,22;,
  3;9,15,14;,
  4;15,16,24,23;,
  3;9,16,15;,
  4;16,17,25,24;,
  3;9,17,16;,
  4;17,10,19,25;,
  3;9,10,17;;
 }
}
