xof 0302txt 0064
template Header {
 <3D82AB43-62DA-11cf-AB39-0020AF71E433>
 WORD major;
 WORD minor;
 DWORD flags;
}

template Vector {
 <3D82AB5E-62DA-11cf-AB39-0020AF71E433>
 FLOAT x;
 FLOAT y;
 FLOAT z;
}

template Coords2d {
 <F6F23F44-7686-11cf-8F52-0040333594A3>
 FLOAT u;
 FLOAT v;
}

template Matrix4x4 {
 <F6F23F45-7686-11cf-8F52-0040333594A3>
 array FLOAT matrix[16];
}

template ColorRGBA {
 <35FF44E0-6C7C-11cf-8F52-0040333594A3>
 FLOAT red;
 FLOAT green;
 FLOAT blue;
 FLOAT alpha;
}

template ColorRGB {
 <D3E16E81-7835-11cf-8F52-0040333594A3>
 FLOAT red;
 FLOAT green;
 FLOAT blue;
}

template IndexedColor {
 <1630B820-7842-11cf-8F52-0040333594A3>
 DWORD index;
 ColorRGBA indexColor;
}

template Boolean {
 <4885AE61-78E8-11cf-8F52-0040333594A3>
 WORD truefalse;
}

template Boolean2d {
 <4885AE63-78E8-11cf-8F52-0040333594A3>
 Boolean u;
 Boolean v;
}

template MaterialWrap {
 <4885AE60-78E8-11cf-8F52-0040333594A3>
 Boolean u;
 Boolean v;
}

template TextureFilename {
 <A42790E1-7810-11cf-8F52-0040333594A3>
 STRING filename;
}

template Material {
 <3D82AB4D-62DA-11cf-AB39-0020AF71E433>
 ColorRGBA faceColor;
 FLOAT power;
 ColorRGB specularColor;
 ColorRGB emissiveColor;
 [...]
}

template MeshFace {
 <3D82AB5F-62DA-11cf-AB39-0020AF71E433>
 DWORD nFaceVertexIndices;
 array DWORD faceVertexIndices[nFaceVertexIndices];
}

template MeshFaceWraps {
 <4885AE62-78E8-11cf-8F52-0040333594A3>
 DWORD nFaceWrapValues;
 Boolean2d faceWrapValues;
}

template MeshTextureCoords {
 <F6F23F40-7686-11cf-8F52-0040333594A3>
 DWORD nTextureCoords;
 array Coords2d textureCoords[nTextureCoords];
}

template MeshMaterialList {
 <F6F23F42-7686-11cf-8F52-0040333594A3>
 DWORD nMaterials;
 DWORD nFaceIndexes;
 array DWORD faceIndexes[nFaceIndexes];
 [Material]
}

template MeshNormals {
 <F6F23F43-7686-11cf-8F52-0040333594A3>
 DWORD nNormals;
 array Vector normals[nNormals];
 DWORD nFaceNormals;
 array MeshFace faceNormals[nFaceNormals];
}

template MeshVertexColors {
 <1630B821-7842-11cf-8F52-0040333594A3>
 DWORD nVertexColors;
 array IndexedColor vertexColors[nVertexColors];
}

template Mesh {
 <3D82AB44-62DA-11cf-AB39-0020AF71E433>
 DWORD nVertices;
 array Vector vertices[nVertices];
 DWORD nFaces;
 array MeshFace faces[nFaces];
 [...]
}

Header{
1;
0;
1;
}

Mesh {
 300;
 0.00000;31.40015;-16.46668;,
 11.64372;31.40015;-11.64372;,
 11.64372;27.65332;-11.64372;,
 0.00000;27.65332;-16.46668;,
 16.46668;31.40015;0.00000;,
 16.46668;27.65332;0.00000;,
 11.64372;31.40015;11.64372;,
 11.64372;27.65332;11.64372;,
 0.00000;31.40015;16.46668;,
 0.00000;27.65332;16.46668;,
 -11.64372;31.40015;11.64372;,
 -11.64372;27.65332;11.64372;,
 -16.46668;31.40015;0.00000;,
 -16.46668;27.65332;0.00000;,
 -11.64372;31.40015;-11.64372;,
 -11.64372;27.65332;-11.64372;,
 0.00000;31.40015;0.00000;,
 0.00000;27.65332;0.00000;,
 0.00000;28.76312;-4.01479;,
 2.83888;28.76312;-2.83888;,
 3.53553;3.20775;-3.53553;,
 0.00000;3.20775;-5.00000;,
 4.01479;28.76312;0.00000;,
 5.00000;3.20775;0.00000;,
 2.83888;28.76312;2.83888;,
 3.53553;3.20775;3.53553;,
 0.00000;28.76312;4.01479;,
 0.00000;3.20775;5.00000;,
 -2.83888;28.76312;2.83888;,
 -3.53553;3.20775;3.53553;,
 -4.01479;28.76312;0.00000;,
 -5.00000;3.20775;0.00000;,
 -2.83888;28.76312;-2.83888;,
 -3.53553;3.20775;-3.53553;,
 0.00000;28.76312;0.00000;,
 0.00000;3.20775;0.00000;,
 9.73952;2.90474;-10.64705;,
 11.46202;3.13047;-8.79736;,
 11.33255;1.35471;-8.46009;,
 9.61005;1.12897;-10.30975;,
 2.63491;5.28545;-0.84014;,
 2.50544;3.50969;-0.50285;,
 0.91241;5.05972;-2.68981;,
 0.78294;3.28396;-2.35252;,
 -10.99560;2.90474;-9.19200;,
 -9.14591;3.13047;-10.91449;,
 -8.80864;1.35471;-10.78502;,
 -10.65831;1.12897;-9.06252;,
 -1.18869;5.28545;-2.08739;,
 -0.85141;3.50969;-1.95791;,
 -3.03836;5.05972;-0.36488;,
 -2.70108;3.28396;-0.23541;,
 -9.78124;2.90474;11.01125;,
 -11.50374;3.13047;9.16157;,
 -11.37427;1.35471;8.82429;,
 -9.65177;1.12897;10.67396;,
 -2.67663;5.28545;1.20434;,
 -2.54716;3.50969;0.86706;,
 -0.95413;5.05972;3.05401;,
 -0.82466;3.28396;2.71673;,
 11.66912;2.90474;9.55620;,
 9.81943;3.13047;11.27870;,
 9.48215;1.35471;11.14923;,
 11.33182;1.12897;9.42672;,
 1.86221;5.28545;2.45159;,
 1.52492;3.50969;2.32212;,
 3.71188;5.05972;0.72909;,
 3.37459;3.28396;0.59961;,
 -8.32237;2.15006;-8.71797;,
 -7.94315;2.04339;-9.09720;,
 -8.32237;2.04339;-9.25427;,
 -7.78607;2.04339;-8.71797;,
 -7.94315;2.04339;-8.33874;,
 -8.32237;2.04339;-8.18167;,
 -8.70160;2.04339;-8.33874;,
 -8.85868;2.04339;-8.71797;,
 -8.70160;2.04339;-9.09720;,
 -7.62166;1.73959;-9.41868;,
 -8.32237;1.73959;-9.70893;,
 -7.33142;1.73959;-8.71797;,
 -7.62166;1.73959;-8.01726;,
 -8.32237;1.73959;-7.72701;,
 -9.02309;1.73959;-8.01726;,
 -9.31333;1.73959;-8.71797;,
 -9.02309;1.73959;-9.41868;,
 -7.40684;1.28494;-9.63351;,
 -8.32237;1.28494;-10.01272;,
 -7.02762;1.28494;-8.71797;,
 -7.40684;1.28494;-7.80243;,
 -8.32237;1.28494;-7.42322;,
 -9.23791;1.28494;-7.80243;,
 -9.61713;1.28494;-8.71797;,
 -9.23791;1.28494;-9.63351;,
 -7.33142;0.74864;-9.70893;,
 -8.32237;0.74864;-10.11940;,
 -6.92095;0.74864;-8.71797;,
 -7.33142;0.74864;-7.72701;,
 -8.32237;0.74864;-7.31654;,
 -9.31333;0.74864;-7.72701;,
 -9.72380;0.74864;-8.71797;,
 -9.31333;0.74864;-9.70893;,
 -7.40684;0.21233;-9.63351;,
 -8.32237;0.21233;-10.01272;,
 -7.02762;0.21233;-8.71797;,
 -7.40684;0.21233;-7.80243;,
 -8.32237;0.21233;-7.42322;,
 -9.23791;0.21233;-7.80243;,
 -9.61713;0.21233;-8.71797;,
 -9.23791;0.21233;-9.63351;,
 -7.62166;-0.24232;-9.41868;,
 -8.32237;-0.24232;-9.70893;,
 -7.33142;-0.24232;-8.71797;,
 -7.62166;-0.24232;-8.01726;,
 -8.32237;-0.24232;-7.72701;,
 -9.02309;-0.24232;-8.01726;,
 -9.31333;-0.24232;-8.71797;,
 -9.02309;-0.24232;-9.41868;,
 -7.94315;-0.54611;-9.09720;,
 -8.32237;-0.54611;-9.25427;,
 -7.78607;-0.54611;-8.71797;,
 -7.94315;-0.54611;-8.33874;,
 -8.32237;-0.54611;-8.18167;,
 -8.70160;-0.54611;-8.33874;,
 -8.85868;-0.54611;-8.71797;,
 -8.70160;-0.54611;-9.09720;,
 -8.32237;-0.65279;-8.71797;,
 9.44696;2.15006;-8.71797;,
 9.82618;2.04339;-9.09720;,
 9.44696;2.04339;-9.25427;,
 9.98326;2.04339;-8.71797;,
 9.82618;2.04339;-8.33874;,
 9.44696;2.04339;-8.18167;,
 9.06773;2.04339;-8.33874;,
 8.91065;2.04339;-8.71797;,
 9.06773;2.04339;-9.09720;,
 10.14767;1.73959;-9.41868;,
 9.44696;1.73959;-9.70893;,
 10.43791;1.73959;-8.71797;,
 10.14767;1.73959;-8.01726;,
 9.44696;1.73959;-7.72701;,
 8.74624;1.73959;-8.01726;,
 8.45600;1.73959;-8.71797;,
 8.74624;1.73959;-9.41868;,
 10.36249;1.28494;-9.63351;,
 9.44696;1.28494;-10.01272;,
 10.74171;1.28494;-8.71797;,
 10.36249;1.28494;-7.80243;,
 9.44696;1.28494;-7.42322;,
 8.53142;1.28494;-7.80243;,
 8.15220;1.28494;-8.71797;,
 8.53142;1.28494;-9.63351;,
 10.43791;0.74864;-9.70893;,
 9.44696;0.74864;-10.11940;,
 10.84838;0.74864;-8.71797;,
 10.43791;0.74864;-7.72701;,
 9.44696;0.74864;-7.31654;,
 8.45600;0.74864;-7.72701;,
 8.04553;0.74864;-8.71797;,
 8.45600;0.74864;-9.70893;,
 10.36249;0.21233;-9.63351;,
 9.44696;0.21233;-10.01272;,
 10.74171;0.21233;-8.71797;,
 10.36249;0.21233;-7.80243;,
 9.44696;0.21233;-7.42322;,
 8.53142;0.21233;-7.80243;,
 8.15220;0.21233;-8.71797;,
 8.53142;0.21233;-9.63351;,
 10.14767;-0.24232;-9.41868;,
 9.44696;-0.24232;-9.70893;,
 10.43791;-0.24232;-8.71797;,
 10.14767;-0.24232;-8.01726;,
 9.44696;-0.24232;-7.72701;,
 8.74624;-0.24232;-8.01726;,
 8.45600;-0.24232;-8.71797;,
 8.74624;-0.24232;-9.41868;,
 9.82618;-0.54611;-9.09720;,
 9.44696;-0.54611;-9.25427;,
 9.98326;-0.54611;-8.71797;,
 9.82618;-0.54611;-8.33874;,
 9.44696;-0.54611;-8.18167;,
 9.06773;-0.54611;-8.33874;,
 8.91065;-0.54611;-8.71797;,
 9.06773;-0.54611;-9.09720;,
 9.44696;-0.65279;-8.71797;,
 9.44696;2.15006;9.27947;,
 9.82618;2.04339;8.90024;,
 9.44696;2.04339;8.74316;,
 9.98326;2.04339;9.27947;,
 9.82618;2.04339;9.65869;,
 9.44696;2.04339;9.81577;,
 9.06773;2.04339;9.65869;,
 8.91065;2.04339;9.27947;,
 9.06773;2.04339;8.90024;,
 10.14767;1.73959;8.57875;,
 9.44696;1.73959;8.28851;,
 10.43791;1.73959;9.27947;,
 10.14767;1.73959;9.98018;,
 9.44696;1.73959;10.27043;,
 8.74624;1.73959;9.98018;,
 8.45600;1.73959;9.27947;,
 8.74624;1.73959;8.57875;,
 10.36249;1.28494;8.36393;,
 9.44696;1.28494;7.98471;,
 10.74171;1.28494;9.27947;,
 10.36249;1.28494;10.19500;,
 9.44696;1.28494;10.57422;,
 8.53142;1.28494;10.19500;,
 8.15220;1.28494;9.27947;,
 8.53142;1.28494;8.36393;,
 10.43791;0.74864;8.28851;,
 9.44696;0.74864;7.87804;,
 10.84838;0.74864;9.27947;,
 10.43791;0.74864;10.27043;,
 9.44696;0.74864;10.68090;,
 8.45600;0.74864;10.27042;,
 8.04553;0.74864;9.27947;,
 8.45600;0.74864;8.28851;,
 10.36249;0.21233;8.36393;,
 9.44696;0.21233;7.98471;,
 10.74171;0.21233;9.27947;,
 10.36249;0.21233;10.19500;,
 9.44696;0.21233;10.57422;,
 8.53142;0.21233;10.19500;,
 8.15220;0.21233;9.27947;,
 8.53142;0.21233;8.36393;,
 10.14767;-0.24232;8.57875;,
 9.44696;-0.24232;8.28851;,
 10.43791;-0.24232;9.27947;,
 10.14767;-0.24232;9.98018;,
 9.44696;-0.24232;10.27043;,
 8.74624;-0.24232;9.98018;,
 8.45600;-0.24232;9.27947;,
 8.74624;-0.24232;8.57875;,
 9.82618;-0.54611;8.90024;,
 9.44696;-0.54611;8.74316;,
 9.98326;-0.54611;9.27947;,
 9.82618;-0.54611;9.65869;,
 9.44696;-0.54611;9.81577;,
 9.06773;-0.54611;9.65869;,
 8.91065;-0.54611;9.27947;,
 9.06773;-0.54611;8.90024;,
 9.44696;-0.65279;9.27947;,
 -9.71438;2.15006;9.27947;,
 -9.33515;2.04339;8.90024;,
 -9.71438;2.04339;8.74316;,
 -9.17807;2.04339;9.27947;,
 -9.33515;2.04339;9.65869;,
 -9.71438;2.04339;9.81577;,
 -10.09360;2.04339;9.65869;,
 -10.25068;2.04339;9.27947;,
 -10.09360;2.04339;8.90024;,
 -9.01366;1.73959;8.57875;,
 -9.71438;1.73959;8.28851;,
 -8.72342;1.73959;9.27947;,
 -9.01366;1.73959;9.98018;,
 -9.71438;1.73959;10.27043;,
 -10.41509;1.73959;9.98018;,
 -10.70534;1.73959;9.27947;,
 -10.41509;1.73959;8.57875;,
 -8.79884;1.28494;8.36393;,
 -9.71438;1.28494;7.98471;,
 -8.41963;1.28494;9.27947;,
 -8.79884;1.28494;10.19500;,
 -9.71438;1.28494;10.57422;,
 -10.62991;1.28494;10.19500;,
 -11.00913;1.28494;9.27947;,
 -10.62991;1.28494;8.36393;,
 -8.72342;0.74864;8.28851;,
 -9.71438;0.74864;7.87804;,
 -8.31295;0.74864;9.27947;,
 -8.72342;0.74864;10.27043;,
 -9.71438;0.74864;10.68090;,
 -10.70534;0.74864;10.27042;,
 -11.11580;0.74864;9.27947;,
 -10.70534;0.74864;8.28851;,
 -8.79884;0.21233;8.36393;,
 -9.71438;0.21233;7.98471;,
 -8.41963;0.21233;9.27947;,
 -8.79884;0.21233;10.19500;,
 -9.71438;0.21233;10.57422;,
 -10.62991;0.21233;10.19500;,
 -11.00913;0.21233;9.27947;,
 -10.62991;0.21233;8.36393;,
 -9.01366;-0.24232;8.57875;,
 -9.71438;-0.24232;8.28851;,
 -8.72342;-0.24232;9.27947;,
 -9.01366;-0.24232;9.98018;,
 -9.71438;-0.24232;10.27043;,
 -10.41509;-0.24232;9.98018;,
 -10.70534;-0.24232;9.27947;,
 -10.41509;-0.24232;8.57875;,
 -9.33515;-0.54611;8.90024;,
 -9.71438;-0.54611;8.74316;,
 -9.17807;-0.54611;9.27947;,
 -9.33515;-0.54611;9.65869;,
 -9.71438;-0.54611;9.81577;,
 -10.09360;-0.54611;9.65869;,
 -10.25068;-0.54611;9.27947;,
 -10.09360;-0.54611;8.90024;,
 -9.71438;-0.65279;9.27947;;
 
 328;
 4;0,1,2,3;,
 4;1,4,5,2;,
 4;4,6,7,5;,
 4;6,8,9,7;,
 4;8,10,11,9;,
 4;10,12,13,11;,
 4;12,14,15,13;,
 4;14,0,3,15;,
 3;16,1,0;,
 3;16,4,1;,
 3;16,6,4;,
 3;16,8,6;,
 3;16,10,8;,
 3;16,12,10;,
 3;16,14,12;,
 3;16,0,14;,
 3;17,3,2;,
 3;17,2,5;,
 3;17,5,7;,
 3;17,7,9;,
 3;17,9,11;,
 3;17,11,13;,
 3;17,13,15;,
 3;17,15,3;,
 4;18,19,20,21;,
 4;19,22,23,20;,
 4;22,24,25,23;,
 4;24,26,27,25;,
 4;26,28,29,27;,
 4;28,30,31,29;,
 4;30,32,33,31;,
 4;32,18,21,33;,
 3;34,19,18;,
 3;34,22,19;,
 3;34,24,22;,
 3;34,26,24;,
 3;34,28,26;,
 3;34,30,28;,
 3;34,32,30;,
 3;34,18,32;,
 3;35,21,20;,
 3;35,20,23;,
 3;35,23,25;,
 3;35,25,27;,
 3;35,27,29;,
 3;35,29,31;,
 3;35,31,33;,
 3;35,33,21;,
 4;36,37,38,39;,
 4;37,40,41,38;,
 4;40,42,43,41;,
 4;42,36,39,43;,
 4;42,40,37,36;,
 4;39,38,41,43;,
 4;44,45,46,47;,
 4;45,48,49,46;,
 4;48,50,51,49;,
 4;50,44,47,51;,
 4;50,48,45,44;,
 4;47,46,49,51;,
 4;52,53,54,55;,
 4;53,56,57,54;,
 4;56,58,59,57;,
 4;58,52,55,59;,
 4;58,56,53,52;,
 4;55,54,57,59;,
 4;60,61,62,63;,
 4;61,64,65,62;,
 4;64,66,67,65;,
 4;66,60,63,67;,
 4;66,64,61,60;,
 4;63,62,65,67;,
 3;68,69,70;,
 3;68,71,69;,
 3;68,72,71;,
 3;68,73,72;,
 3;68,74,73;,
 3;68,75,74;,
 3;68,76,75;,
 3;68,70,76;,
 4;70,69,77,78;,
 4;69,71,79,77;,
 4;71,72,80,79;,
 4;72,73,81,80;,
 4;73,74,82,81;,
 4;74,75,83,82;,
 4;75,76,84,83;,
 4;76,70,78,84;,
 4;78,77,85,86;,
 4;77,79,87,85;,
 4;79,80,88,87;,
 4;80,81,89,88;,
 4;81,82,90,89;,
 4;82,83,91,90;,
 4;83,84,92,91;,
 4;84,78,86,92;,
 4;86,85,93,94;,
 4;85,87,95,93;,
 4;87,88,96,95;,
 4;88,89,97,96;,
 4;89,90,98,97;,
 4;90,91,99,98;,
 4;91,92,100,99;,
 4;92,86,94,100;,
 4;94,93,101,102;,
 4;93,95,103,101;,
 4;95,96,104,103;,
 4;96,97,105,104;,
 4;97,98,106,105;,
 4;98,99,107,106;,
 4;99,100,108,107;,
 4;100,94,102,108;,
 4;102,101,109,110;,
 4;101,103,111,109;,
 4;103,104,112,111;,
 4;104,105,113,112;,
 4;105,106,114,113;,
 4;106,107,115,114;,
 4;107,108,116,115;,
 4;108,102,110,116;,
 4;110,109,117,118;,
 4;109,111,119,117;,
 4;111,112,120,119;,
 4;112,113,121,120;,
 4;113,114,122,121;,
 4;114,115,123,122;,
 4;115,116,124,123;,
 4;116,110,118,124;,
 3;118,117,125;,
 3;117,119,125;,
 3;119,120,125;,
 3;120,121,125;,
 3;121,122,125;,
 3;122,123,125;,
 3;123,124,125;,
 3;124,118,125;,
 3;126,127,128;,
 3;126,129,127;,
 3;126,130,129;,
 3;126,131,130;,
 3;126,132,131;,
 3;126,133,132;,
 3;126,134,133;,
 3;126,128,134;,
 4;128,127,135,136;,
 4;127,129,137,135;,
 4;129,130,138,137;,
 4;130,131,139,138;,
 4;131,132,140,139;,
 4;132,133,141,140;,
 4;133,134,142,141;,
 4;134,128,136,142;,
 4;136,135,143,144;,
 4;135,137,145,143;,
 4;137,138,146,145;,
 4;138,139,147,146;,
 4;139,140,148,147;,
 4;140,141,149,148;,
 4;141,142,150,149;,
 4;142,136,144,150;,
 4;144,143,151,152;,
 4;143,145,153,151;,
 4;145,146,154,153;,
 4;146,147,155,154;,
 4;147,148,156,155;,
 4;148,149,157,156;,
 4;149,150,158,157;,
 4;150,144,152,158;,
 4;152,151,159,160;,
 4;151,153,161,159;,
 4;153,154,162,161;,
 4;154,155,163,162;,
 4;155,156,164,163;,
 4;156,157,165,164;,
 4;157,158,166,165;,
 4;158,152,160,166;,
 4;160,159,167,168;,
 4;159,161,169,167;,
 4;161,162,170,169;,
 4;162,163,171,170;,
 4;163,164,172,171;,
 4;164,165,173,172;,
 4;165,166,174,173;,
 4;166,160,168,174;,
 4;168,167,175,176;,
 4;167,169,177,175;,
 4;169,170,178,177;,
 4;170,171,179,178;,
 4;171,172,180,179;,
 4;172,173,181,180;,
 4;173,174,182,181;,
 4;174,168,176,182;,
 3;176,175,183;,
 3;175,177,183;,
 3;177,178,183;,
 3;178,179,183;,
 3;179,180,183;,
 3;180,181,183;,
 3;181,182,183;,
 3;182,176,183;,
 3;184,185,186;,
 3;184,187,185;,
 3;184,188,187;,
 3;184,189,188;,
 3;184,190,189;,
 3;184,191,190;,
 3;184,192,191;,
 3;184,186,192;,
 4;186,185,193,194;,
 4;185,187,195,193;,
 4;187,188,196,195;,
 4;188,189,197,196;,
 4;189,190,198,197;,
 4;190,191,199,198;,
 4;191,192,200,199;,
 4;192,186,194,200;,
 4;194,193,201,202;,
 4;193,195,203,201;,
 4;195,196,204,203;,
 4;196,197,205,204;,
 4;197,198,206,205;,
 4;198,199,207,206;,
 4;199,200,208,207;,
 4;200,194,202,208;,
 4;202,201,209,210;,
 4;201,203,211,209;,
 4;203,204,212,211;,
 4;204,205,213,212;,
 4;205,206,214,213;,
 4;206,207,215,214;,
 4;207,208,216,215;,
 4;208,202,210,216;,
 4;210,209,217,218;,
 4;209,211,219,217;,
 4;211,212,220,219;,
 4;212,213,221,220;,
 4;213,214,222,221;,
 4;214,215,223,222;,
 4;215,216,224,223;,
 4;216,210,218,224;,
 4;218,217,225,226;,
 4;217,219,227,225;,
 4;219,220,228,227;,
 4;220,221,229,228;,
 4;221,222,230,229;,
 4;222,223,231,230;,
 4;223,224,232,231;,
 4;224,218,226,232;,
 4;226,225,233,234;,
 4;225,227,235,233;,
 4;227,228,236,235;,
 4;228,229,237,236;,
 4;229,230,238,237;,
 4;230,231,239,238;,
 4;231,232,240,239;,
 4;232,226,234,240;,
 3;234,233,241;,
 3;233,235,241;,
 3;235,236,241;,
 3;236,237,241;,
 3;237,238,241;,
 3;238,239,241;,
 3;239,240,241;,
 3;240,234,241;,
 3;242,243,244;,
 3;242,245,243;,
 3;242,246,245;,
 3;242,247,246;,
 3;242,248,247;,
 3;242,249,248;,
 3;242,250,249;,
 3;242,244,250;,
 4;244,243,251,252;,
 4;243,245,253,251;,
 4;245,246,254,253;,
 4;246,247,255,254;,
 4;247,248,256,255;,
 4;248,249,257,256;,
 4;249,250,258,257;,
 4;250,244,252,258;,
 4;252,251,259,260;,
 4;251,253,261,259;,
 4;253,254,262,261;,
 4;254,255,263,262;,
 4;255,256,264,263;,
 4;256,257,265,264;,
 4;257,258,266,265;,
 4;258,252,260,266;,
 4;260,259,267,268;,
 4;259,261,269,267;,
 4;261,262,270,269;,
 4;262,263,271,270;,
 4;263,264,272,271;,
 4;264,265,273,272;,
 4;265,266,274,273;,
 4;266,260,268,274;,
 4;268,267,275,276;,
 4;267,269,277,275;,
 4;269,270,278,277;,
 4;270,271,279,278;,
 4;271,272,280,279;,
 4;272,273,281,280;,
 4;273,274,282,281;,
 4;274,268,276,282;,
 4;276,275,283,284;,
 4;275,277,285,283;,
 4;277,278,286,285;,
 4;278,279,287,286;,
 4;279,280,288,287;,
 4;280,281,289,288;,
 4;281,282,290,289;,
 4;282,276,284,290;,
 4;284,283,291,292;,
 4;283,285,293,291;,
 4;285,286,294,293;,
 4;286,287,295,294;,
 4;287,288,296,295;,
 4;288,289,297,296;,
 4;289,290,298,297;,
 4;290,284,292,298;,
 3;292,291,299;,
 3;291,293,299;,
 3;293,294,299;,
 3;294,295,299;,
 3;295,296,299;,
 3;296,297,299;,
 3;297,298,299;,
 3;298,292,299;;
 
 MeshMaterialList {
  2;
  328;
  0,
  0,
  0,
  0,
  0,
  0,
  0,
  0,
  0,
  0,
  0,
  0,
  0,
  0,
  0,
  0,
  0,
  0,
  0,
  0,
  0,
  0,
  0,
  0,
  1,
  1,
  1,
  1,
  1,
  1,
  1,
  1,
  1,
  1,
  1,
  1,
  1,
  1,
  1,
  1,
  1,
  1,
  1,
  1,
  1,
  1,
  1,
  1,
  1,
  1,
  1,
  1,
  1,
  1,
  1,
  1,
  1,
  1,
  1,
  1,
  1,
  1,
  1,
  1,
  1,
  1,
  1,
  1,
  1,
  1,
  1,
  1,
  0,
  0,
  0,
  0,
  0,
  0,
  0,
  0,
  0,
  0,
  0,
  0,
  0,
  0,
  0,
  0,
  0,
  0,
  0,
  0,
  0,
  0,
  0,
  0,
  0,
  0,
  0,
  0,
  0,
  0,
  0,
  0,
  0,
  0,
  0,
  0,
  0,
  0,
  0,
  0,
  0,
  0,
  0,
  0,
  0,
  0,
  0,
  0,
  0,
  0,
  0,
  0,
  0,
  0,
  0,
  0,
  0,
  0,
  0,
  0,
  0,
  0,
  0,
  0,
  0,
  0,
  0,
  0,
  0,
  0,
  0,
  0,
  0,
  0,
  0,
  0,
  0,
  0,
  0,
  0,
  0,
  0,
  0,
  0,
  0,
  0,
  0,
  0,
  0,
  0,
  0,
  0,
  0,
  0,
  0,
  0,
  0,
  0,
  0,
  0,
  0,
  0,
  0,
  0,
  0,
  0,
  0,
  0,
  0,
  0,
  0,
  0,
  0,
  0,
  0,
  0,
  0,
  0,
  0,
  0,
  0,
  0,
  0,
  0,
  0,
  0,
  0,
  0,
  0,
  0,
  0,
  0,
  0,
  0,
  0,
  0,
  0,
  0,
  0,
  0,
  0,
  0,
  0,
  0,
  0,
  0,
  0,
  0,
  0,
  0,
  0,
  0,
  0,
  0,
  0,
  0,
  0,
  0,
  0,
  0,
  0,
  0,
  0,
  0,
  0,
  0,
  0,
  0,
  0,
  0,
  0,
  0,
  0,
  0,
  0,
  0,
  0,
  0,
  0,
  0,
  0,
  0,
  0,
  0,
  0,
  0,
  0,
  0,
  0,
  0,
  0,
  0,
  0,
  0,
  0,
  0,
  0,
  0,
  0,
  0,
  0,
  0,
  0,
  0,
  0,
  0,
  0,
  0,
  0,
  0,
  0,
  0,
  0,
  0,
  0,
  0,
  0,
  0,
  0,
  0,
  0,
  0,
  0,
  0,
  0,
  0,
  0,
  0,
  0,
  0,
  0,
  0,
  0,
  0,
  0,
  0,
  0,
  0,
  0,
  0,
  0,
  0,
  0,
  0,
  0,
  0,
  0,
  0,
  0,
  0,
  0,
  0,
  0,
  0,
  0,
  0;;
  Material {
   0.000000;0.000000;0.000000;1.000000;;
   5.000000;
   0.000000;0.000000;0.000000;;
   0.000000;0.000000;0.000000;;
  }
  Material {
   0.800000;0.800000;0.800000;1.000000;;
   5.000000;
   0.000000;0.000000;0.000000;;
   0.000000;0.000000;0.000000;;
  }
 }
 MeshNormals {
  272;
  0.000000;1.000000;0.000000;,
  0.000000;0.000000;-1.000000;,
  0.707107;0.000000;-0.707107;,
  1.000000;0.000000;0.000000;,
  0.707107;0.000000;0.707107;,
  0.000000;0.000000;1.000000;,
  -0.707107;0.000000;0.707107;,
  -1.000000;0.000000;0.000000;,
  -0.707107;0.000000;-0.707107;,
  0.000000;-1.000000;-0.000000;,
  0.000000;0.038523;-0.999258;,
  0.706582;0.038523;-0.706582;,
  0.999258;0.038523;0.000000;,
  0.706582;0.038523;0.706582;,
  0.000000;0.038523;0.999258;,
  -0.706582;0.038523;0.706582;,
  -0.999258;0.038523;0.000000;,
  -0.706582;0.038523;-0.706582;,
  0.730840;-0.178419;-0.658817;,
  0.678800;0.088956;0.728915;,
  -0.730839;0.178422;0.658817;,
  -0.658814;-0.178419;-0.730842;,
  0.728916;0.088952;-0.678800;,
  0.658819;0.178420;0.730838;,
  -0.730840;-0.178419;0.658816;,
  -0.678800;0.088956;-0.728915;,
  0.730839;0.178418;-0.658818;,
  0.658816;-0.178423;0.730840;,
  -0.728915;0.088958;0.678800;,
  -0.658818;0.178424;-0.730838;,
  0.000001;1.000000;-0.000000;,
  0.000002;0.924735;-0.380612;,
  0.269133;0.924735;-0.269133;,
  0.380614;0.924734;-0.000000;,
  0.269133;0.924735;0.269134;,
  0.000002;0.924734;0.380613;,
  -0.269130;0.924736;0.269133;,
  -0.380612;0.924735;-0.000000;,
  -0.269130;0.924736;-0.269133;,
  0.000002;0.709231;-0.704976;,
  0.498493;0.709233;-0.498491;,
  0.704976;0.709231;-0.000000;,
  0.498493;0.709232;0.498492;,
  0.000002;0.709230;0.704977;,
  -0.498491;0.709233;0.498493;,
  -0.704977;0.709231;-0.000000;,
  -0.498491;0.709233;-0.498493;,
  0.000002;0.384555;-0.923102;,
  0.652732;0.384555;-0.652731;,
  0.923104;0.384551;-0.000000;,
  0.652732;0.384555;0.652731;,
  0.000002;0.384554;0.923103;,
  -0.652731;0.384554;0.652733;,
  -0.923104;0.384551;-0.000000;,
  -0.652731;0.384554;-0.652733;,
  0.000002;0.000002;-1.000000;,
  0.707107;0.000002;-0.707107;,
  1.000000;0.000002;-0.000000;,
  0.707107;0.000002;0.707107;,
  0.000002;0.000001;1.000000;,
  -0.707105;0.000001;0.707108;,
  -1.000000;0.000002;-0.000000;,
  -0.707105;0.000002;-0.707108;,
  0.000002;-0.384554;-0.923103;,
  0.652733;-0.384553;-0.652732;,
  0.923104;-0.384550;-0.000000;,
  0.652733;-0.384553;0.652732;,
  0.000002;-0.384553;0.923103;,
  -0.652731;-0.384553;0.652733;,
  -0.923104;-0.384550;-0.000000;,
  -0.652731;-0.384553;-0.652733;,
  0.000002;-0.709237;-0.704971;,
  0.498489;-0.709238;-0.498488;,
  0.704971;-0.709236;-0.000000;,
  0.498489;-0.709238;0.498488;,
  0.000002;-0.709236;0.704972;,
  -0.498487;-0.709238;0.498490;,
  -0.704971;-0.709236;-0.000000;,
  -0.498487;-0.709239;-0.498488;,
  0.000002;-0.924734;-0.380615;,
  0.269134;-0.924734;-0.269135;,
  0.380615;-0.924733;-0.000000;,
  0.269134;-0.924734;0.269135;,
  0.000002;-0.924733;0.380616;,
  -0.269132;-0.924735;0.269135;,
  -0.380614;-0.924734;-0.000000;,
  -0.269131;-0.924735;-0.269134;,
  0.000001;-1.000000;-0.000000;,
  0.000001;1.000000;-0.000000;,
  0.000001;0.924735;-0.380612;,
  0.269133;0.924735;-0.269133;,
  0.380614;0.924734;-0.000000;,
  0.269133;0.924735;0.269134;,
  0.000001;0.924734;0.380615;,
  -0.269131;0.924735;0.269134;,
  -0.380612;0.924735;-0.000000;,
  -0.269130;0.924736;-0.269133;,
  0.000002;0.709231;-0.704976;,
  0.498493;0.709233;-0.498491;,
  0.704976;0.709231;-0.000000;,
  0.498493;0.709232;0.498492;,
  0.000002;0.709229;0.704978;,
  -0.498492;0.709232;0.498494;,
  -0.704977;0.709230;-0.000000;,
  -0.498492;0.709232;-0.498493;,
  0.000002;0.384555;-0.923102;,
  0.652732;0.384555;-0.652731;,
  0.923103;0.384552;-0.000000;,
  0.652732;0.384555;0.652731;,
  0.000002;0.384554;0.923103;,
  -0.652731;0.384554;0.652733;,
  -0.923104;0.384552;-0.000000;,
  -0.652731;0.384554;-0.652733;,
  0.707107;0.000002;-0.707107;,
  1.000000;0.000002;-0.000000;,
  0.707107;0.000002;0.707107;,
  -0.707106;0.000001;0.707108;,
  -1.000000;0.000002;-0.000000;,
  -0.707105;0.000002;-0.707108;,
  0.000002;-0.384554;-0.923103;,
  0.652733;-0.384553;-0.652732;,
  0.923104;-0.384550;-0.000000;,
  0.652733;-0.384553;0.652732;,
  0.000002;-0.384554;0.923103;,
  -0.652731;-0.384554;0.652733;,
  -0.923104;-0.384550;-0.000000;,
  -0.652731;-0.384553;-0.652733;,
  0.000002;-0.709237;-0.704971;,
  0.498489;-0.709237;-0.498488;,
  0.704971;-0.709236;-0.000000;,
  0.498489;-0.709239;0.498487;,
  0.000002;-0.709238;0.704970;,
  -0.498487;-0.709239;0.498488;,
  -0.704971;-0.709236;-0.000000;,
  -0.498487;-0.709239;-0.498489;,
  0.000002;-0.924734;-0.380615;,
  0.269134;-0.924734;-0.269135;,
  0.380616;-0.924733;-0.000000;,
  0.269133;-0.924735;0.269134;,
  0.000001;-0.924734;0.380614;,
  -0.269131;-0.924735;0.269134;,
  -0.380614;-0.924734;-0.000000;,
  -0.269131;-0.924735;-0.269134;,
  0.000001;-1.000000;-0.000000;,
  0.000001;1.000000;0.000001;,
  0.000002;0.924735;-0.380611;,
  0.269134;0.924735;-0.269132;,
  0.380613;0.924734;0.000002;,
  0.269134;0.924735;0.269132;,
  0.000001;0.924736;0.380610;,
  -0.269132;0.924736;0.269132;,
  -0.380611;0.924735;0.000002;,
  -0.269132;0.924736;-0.269132;,
  0.000002;0.709231;-0.704976;,
  0.498494;0.709232;-0.498491;,
  0.704977;0.709230;0.000002;,
  0.498495;0.709231;0.498492;,
  0.000002;0.709231;0.704976;,
  -0.498493;0.709231;0.498493;,
  -0.704977;0.709231;0.000002;,
  -0.498492;0.709233;-0.498492;,
  0.000002;0.384550;-0.923104;,
  0.652734;0.384551;-0.652731;,
  0.923104;0.384551;0.000001;,
  0.652733;0.384554;0.652731;,
  0.000000;0.384553;0.923103;,
  -0.652733;0.384551;0.652733;,
  -0.923104;0.384551;0.000002;,
  -0.652733;0.384552;-0.652733;,
  0.000002;0.000002;-1.000000;,
  0.707108;0.000002;-0.707106;,
  1.000000;0.000002;0.000001;,
  0.707108;0.000002;0.707106;,
  -0.000001;0.000002;1.000000;,
  -0.707107;0.000001;0.707106;,
  -1.000000;0.000002;0.000002;,
  -0.707107;0.000002;-0.707107;,
  0.000002;-0.384548;-0.923105;,
  0.652735;-0.384550;-0.652732;,
  0.923104;-0.384550;0.000001;,
  0.652734;-0.384553;0.652731;,
  0.000000;-0.384552;0.923103;,
  -0.652734;-0.384550;0.652733;,
  -0.923105;-0.384549;0.000002;,
  -0.652733;-0.384550;-0.652733;,
  0.000002;-0.709236;-0.704971;,
  0.498490;-0.709238;-0.498487;,
  0.704971;-0.709236;0.000002;,
  0.498491;-0.709237;0.498488;,
  0.000002;-0.709236;0.704971;,
  -0.498489;-0.709237;0.498489;,
  -0.704971;-0.709236;0.000002;,
  -0.498488;-0.709238;-0.498488;,
  0.000001;-0.924735;-0.380612;,
  0.269135;-0.924735;-0.269132;,
  0.380614;-0.924734;0.000002;,
  0.269135;-0.924734;0.269133;,
  0.000001;-0.924735;0.380611;,
  -0.269133;-0.924735;0.269134;,
  -0.380613;-0.924735;0.000002;,
  -0.269133;-0.924735;-0.269133;,
  0.000001;-1.000000;0.000001;,
  -0.000001;1.000000;0.000001;,
  -0.000002;0.924735;-0.380611;,
  0.269132;0.924736;-0.269132;,
  0.380611;0.924735;0.000002;,
  0.269132;0.924735;0.269132;,
  -0.000002;0.924736;0.380610;,
  -0.269133;0.924735;0.269133;,
  -0.380610;0.924736;0.000002;,
  -0.269132;0.924735;-0.269132;,
  -0.000002;0.709230;-0.704977;,
  0.498494;0.709231;-0.498492;,
  0.704980;0.709227;0.000002;,
  0.498495;0.709230;0.498493;,
  -0.000002;0.709231;0.704976;,
  -0.498494;0.709230;0.498494;,
  -0.704977;0.709231;0.000002;,
  -0.498493;0.709231;-0.498493;,
  -0.000001;0.384551;-0.923104;,
  0.652734;0.384552;-0.652731;,
  0.923104;0.384551;0.000002;,
  0.652733;0.384555;0.652730;,
  -0.000002;0.384554;0.923102;,
  -0.652734;0.384552;0.652731;,
  -0.923104;0.384550;0.000002;,
  -0.652734;0.384552;-0.652732;,
  -0.000001;0.000002;-1.000000;,
  0.707108;0.000002;-0.707105;,
  1.000000;0.000002;0.000001;,
  0.707108;0.000002;0.707106;,
  -0.000003;0.000002;1.000000;,
  -0.707109;0.000002;0.707104;,
  -1.000000;0.000002;0.000002;,
  -0.707109;0.000002;-0.707105;,
  -0.000001;-0.384549;-0.923105;,
  0.652735;-0.384551;-0.652731;,
  0.923104;-0.384549;0.000002;,
  0.652734;-0.384553;0.652731;,
  -0.000002;-0.384552;0.923103;,
  -0.652735;-0.384550;0.652732;,
  -0.923105;-0.384549;0.000002;,
  -0.652734;-0.384551;-0.652732;,
  -0.000002;-0.709236;-0.704971;,
  0.498490;-0.709237;-0.498488;,
  0.704974;-0.709233;0.000002;,
  0.498491;-0.709236;0.498489;,
  -0.000002;-0.709236;0.704971;,
  -0.498490;-0.709236;0.498490;,
  -0.704971;-0.709237;0.000002;,
  -0.498489;-0.709238;-0.498489;,
  -0.000002;-0.924735;-0.380612;,
  0.269133;-0.924735;-0.269133;,
  0.380612;-0.924735;0.000002;,
  0.269133;-0.924735;0.269133;,
  -0.000002;-0.924735;0.380611;,
  -0.269134;-0.924735;0.269134;,
  -0.380611;-0.924735;0.000002;,
  -0.269133;-0.924735;-0.269133;,
  -0.000001;-1.000000;0.000001;,
  -0.678801;-0.088961;-0.728914;,
  0.071449;0.979925;-0.186124;,
  -0.071447;-0.979925;0.186126;,
  -0.728915;-0.088956;0.678800;,
  -0.186124;0.979925;-0.071449;,
  0.186126;-0.979925;0.071448;,
  0.678801;-0.088958;0.728914;,
  -0.071449;0.979925;0.186124;,
  0.071448;-0.979925;-0.186126;,
  0.728914;-0.088958;-0.678801;,
  0.186124;0.979925;0.071449;,
  -0.186126;-0.979925;-0.071447;;
  328;
  4;1,2,2,1;,
  4;2,3,3,2;,
  4;3,4,4,3;,
  4;4,5,5,4;,
  4;5,6,6,5;,
  4;6,7,7,6;,
  4;7,8,8,7;,
  4;8,1,1,8;,
  3;0,0,0;,
  3;0,0,0;,
  3;0,0,0;,
  3;0,0,0;,
  3;0,0,0;,
  3;0,0,0;,
  3;0,0,0;,
  3;0,0,0;,
  3;9,9,9;,
  3;9,9,9;,
  3;9,9,9;,
  3;9,9,9;,
  3;9,9,9;,
  3;9,9,9;,
  3;9,9,9;,
  3;9,9,9;,
  4;10,11,11,10;,
  4;11,12,12,11;,
  4;12,13,13,12;,
  4;13,14,14,13;,
  4;14,15,15,14;,
  4;15,16,16,15;,
  4;16,17,17,16;,
  4;17,10,10,17;,
  3;0,0,0;,
  3;0,0,0;,
  3;0,0,0;,
  3;0,0,0;,
  3;0,0,0;,
  3;0,0,0;,
  3;0,0,0;,
  3;0,0,0;,
  3;9,9,9;,
  3;9,9,9;,
  3;9,9,9;,
  3;9,9,9;,
  3;9,9,9;,
  3;9,9,9;,
  3;9,9,9;,
  3;9,9,9;,
  4;18,18,18,18;,
  4;19,19,19,19;,
  4;20,20,20,20;,
  4;260,260,260,260;,
  4;261,261,261,261;,
  4;262,262,262,262;,
  4;21,21,21,21;,
  4;22,22,22,22;,
  4;23,23,23,23;,
  4;263,263,263,263;,
  4;264,264,264,264;,
  4;265,265,265,265;,
  4;24,24,24,24;,
  4;25,25,25,25;,
  4;26,26,26,26;,
  4;266,266,266,266;,
  4;267,267,267,267;,
  4;268,268,268,268;,
  4;27,27,27,27;,
  4;28,28,28,28;,
  4;29,29,29,29;,
  4;269,269,269,269;,
  4;270,270,270,270;,
  4;271,271,271,271;,
  3;30,32,31;,
  3;30,33,32;,
  3;30,34,33;,
  3;30,35,34;,
  3;30,36,35;,
  3;30,37,36;,
  3;30,38,37;,
  3;30,31,38;,
  4;31,32,40,39;,
  4;32,33,41,40;,
  4;33,34,42,41;,
  4;34,35,43,42;,
  4;35,36,44,43;,
  4;36,37,45,44;,
  4;37,38,46,45;,
  4;38,31,39,46;,
  4;39,40,48,47;,
  4;40,41,49,48;,
  4;41,42,50,49;,
  4;42,43,51,50;,
  4;43,44,52,51;,
  4;44,45,53,52;,
  4;45,46,54,53;,
  4;46,39,47,54;,
  4;47,48,56,55;,
  4;48,49,57,56;,
  4;49,50,58,57;,
  4;50,51,59,58;,
  4;51,52,60,59;,
  4;52,53,61,60;,
  4;53,54,62,61;,
  4;54,47,55,62;,
  4;55,56,64,63;,
  4;56,57,65,64;,
  4;57,58,66,65;,
  4;58,59,67,66;,
  4;59,60,68,67;,
  4;60,61,69,68;,
  4;61,62,70,69;,
  4;62,55,63,70;,
  4;63,64,72,71;,
  4;64,65,73,72;,
  4;65,66,74,73;,
  4;66,67,75,74;,
  4;67,68,76,75;,
  4;68,69,77,76;,
  4;69,70,78,77;,
  4;70,63,71,78;,
  4;71,72,80,79;,
  4;72,73,81,80;,
  4;73,74,82,81;,
  4;74,75,83,82;,
  4;75,76,84,83;,
  4;76,77,85,84;,
  4;77,78,86,85;,
  4;78,71,79,86;,
  3;79,80,87;,
  3;80,81,87;,
  3;81,82,87;,
  3;82,83,87;,
  3;83,84,87;,
  3;84,85,87;,
  3;85,86,87;,
  3;86,79,87;,
  3;88,90,89;,
  3;88,91,90;,
  3;88,92,91;,
  3;88,93,92;,
  3;88,94,93;,
  3;88,95,94;,
  3;88,96,95;,
  3;88,89,96;,
  4;89,90,98,97;,
  4;90,91,99,98;,
  4;91,92,100,99;,
  4;92,93,101,100;,
  4;93,94,102,101;,
  4;94,95,103,102;,
  4;95,96,104,103;,
  4;96,89,97,104;,
  4;97,98,106,105;,
  4;98,99,107,106;,
  4;99,100,108,107;,
  4;100,101,109,108;,
  4;101,102,110,109;,
  4;102,103,111,110;,
  4;103,104,112,111;,
  4;104,97,105,112;,
  4;105,106,113,55;,
  4;106,107,114,113;,
  4;107,108,115,114;,
  4;108,109,59,115;,
  4;109,110,116,59;,
  4;110,111,117,116;,
  4;111,112,118,117;,
  4;112,105,55,118;,
  4;55,113,120,119;,
  4;113,114,121,120;,
  4;114,115,122,121;,
  4;115,59,123,122;,
  4;59,116,124,123;,
  4;116,117,125,124;,
  4;117,118,126,125;,
  4;118,55,119,126;,
  4;119,120,128,127;,
  4;120,121,129,128;,
  4;121,122,130,129;,
  4;122,123,131,130;,
  4;123,124,132,131;,
  4;124,125,133,132;,
  4;125,126,134,133;,
  4;126,119,127,134;,
  4;127,128,136,135;,
  4;128,129,137,136;,
  4;129,130,138,137;,
  4;130,131,139,138;,
  4;131,132,140,139;,
  4;132,133,141,140;,
  4;133,134,142,141;,
  4;134,127,135,142;,
  3;135,136,143;,
  3;136,137,143;,
  3;137,138,143;,
  3;138,139,143;,
  3;139,140,143;,
  3;140,141,143;,
  3;141,142,143;,
  3;142,135,143;,
  3;144,146,145;,
  3;144,147,146;,
  3;144,148,147;,
  3;144,149,148;,
  3;144,150,149;,
  3;144,151,150;,
  3;144,152,151;,
  3;144,145,152;,
  4;145,146,154,153;,
  4;146,147,155,154;,
  4;147,148,156,155;,
  4;148,149,157,156;,
  4;149,150,158,157;,
  4;150,151,159,158;,
  4;151,152,160,159;,
  4;152,145,153,160;,
  4;153,154,162,161;,
  4;154,155,163,162;,
  4;155,156,164,163;,
  4;156,157,165,164;,
  4;157,158,166,165;,
  4;158,159,167,166;,
  4;159,160,168,167;,
  4;160,153,161,168;,
  4;161,162,170,169;,
  4;162,163,171,170;,
  4;163,164,172,171;,
  4;164,165,173,172;,
  4;165,166,174,173;,
  4;166,167,175,174;,
  4;167,168,176,175;,
  4;168,161,169,176;,
  4;169,170,178,177;,
  4;170,171,179,178;,
  4;171,172,180,179;,
  4;172,173,181,180;,
  4;173,174,182,181;,
  4;174,175,183,182;,
  4;175,176,184,183;,
  4;176,169,177,184;,
  4;177,178,186,185;,
  4;178,179,187,186;,
  4;179,180,188,187;,
  4;180,181,189,188;,
  4;181,182,190,189;,
  4;182,183,191,190;,
  4;183,184,192,191;,
  4;184,177,185,192;,
  4;185,186,194,193;,
  4;186,187,195,194;,
  4;187,188,196,195;,
  4;188,189,197,196;,
  4;189,190,198,197;,
  4;190,191,199,198;,
  4;191,192,200,199;,
  4;192,185,193,200;,
  3;193,194,201;,
  3;194,195,201;,
  3;195,196,201;,
  3;196,197,201;,
  3;197,198,201;,
  3;198,199,201;,
  3;199,200,201;,
  3;200,193,201;,
  3;202,204,203;,
  3;202,205,204;,
  3;202,206,205;,
  3;202,207,206;,
  3;202,208,207;,
  3;202,209,208;,
  3;202,210,209;,
  3;202,203,210;,
  4;203,204,212,211;,
  4;204,205,213,212;,
  4;205,206,214,213;,
  4;206,207,215,214;,
  4;207,208,216,215;,
  4;208,209,217,216;,
  4;209,210,218,217;,
  4;210,203,211,218;,
  4;211,212,220,219;,
  4;212,213,221,220;,
  4;213,214,222,221;,
  4;214,215,223,222;,
  4;215,216,224,223;,
  4;216,217,225,224;,
  4;217,218,226,225;,
  4;218,211,219,226;,
  4;219,220,228,227;,
  4;220,221,229,228;,
  4;221,222,230,229;,
  4;222,223,231,230;,
  4;223,224,232,231;,
  4;224,225,233,232;,
  4;225,226,234,233;,
  4;226,219,227,234;,
  4;227,228,236,235;,
  4;228,229,237,236;,
  4;229,230,238,237;,
  4;230,231,239,238;,
  4;231,232,240,239;,
  4;232,233,241,240;,
  4;233,234,242,241;,
  4;234,227,235,242;,
  4;235,236,244,243;,
  4;236,237,245,244;,
  4;237,238,246,245;,
  4;238,239,247,246;,
  4;239,240,248,247;,
  4;240,241,249,248;,
  4;241,242,250,249;,
  4;242,235,243,250;,
  4;243,244,252,251;,
  4;244,245,253,252;,
  4;245,246,254,253;,
  4;246,247,255,254;,
  4;247,248,256,255;,
  4;248,249,257,256;,
  4;249,250,258,257;,
  4;250,243,251,258;,
  3;251,252,259;,
  3;252,253,259;,
  3;253,254,259;,
  3;254,255,259;,
  3;255,256,259;,
  3;256,257,259;,
  3;257,258,259;,
  3;258,251,259;;
 }
}
