xof 0302txt 0064
template Header {
 <3D82AB43-62DA-11cf-AB39-0020AF71E433>
 WORD major;
 WORD minor;
 DWORD flags;
}

template Vector {
 <3D82AB5E-62DA-11cf-AB39-0020AF71E433>
 FLOAT x;
 FLOAT y;
 FLOAT z;
}

template Coords2d {
 <F6F23F44-7686-11cf-8F52-0040333594A3>
 FLOAT u;
 FLOAT v;
}

template Matrix4x4 {
 <F6F23F45-7686-11cf-8F52-0040333594A3>
 array FLOAT matrix[16];
}

template ColorRGBA {
 <35FF44E0-6C7C-11cf-8F52-0040333594A3>
 FLOAT red;
 FLOAT green;
 FLOAT blue;
 FLOAT alpha;
}

template ColorRGB {
 <D3E16E81-7835-11cf-8F52-0040333594A3>
 FLOAT red;
 FLOAT green;
 FLOAT blue;
}

template IndexedColor {
 <1630B820-7842-11cf-8F52-0040333594A3>
 DWORD index;
 ColorRGBA indexColor;
}

template Boolean {
 <4885AE61-78E8-11cf-8F52-0040333594A3>
 WORD truefalse;
}

template Boolean2d {
 <4885AE63-78E8-11cf-8F52-0040333594A3>
 Boolean u;
 Boolean v;
}

template MaterialWrap {
 <4885AE60-78E8-11cf-8F52-0040333594A3>
 Boolean u;
 Boolean v;
}

template TextureFilename {
 <A42790E1-7810-11cf-8F52-0040333594A3>
 STRING filename;
}

template Material {
 <3D82AB4D-62DA-11cf-AB39-0020AF71E433>
 ColorRGBA faceColor;
 FLOAT power;
 ColorRGB specularColor;
 ColorRGB emissiveColor;
 [...]
}

template MeshFace {
 <3D82AB5F-62DA-11cf-AB39-0020AF71E433>
 DWORD nFaceVertexIndices;
 array DWORD faceVertexIndices[nFaceVertexIndices];
}

template MeshFaceWraps {
 <4885AE62-78E8-11cf-8F52-0040333594A3>
 DWORD nFaceWrapValues;
 Boolean2d faceWrapValues;
}

template MeshTextureCoords {
 <F6F23F40-7686-11cf-8F52-0040333594A3>
 DWORD nTextureCoords;
 array Coords2d textureCoords[nTextureCoords];
}

template MeshMaterialList {
 <F6F23F42-7686-11cf-8F52-0040333594A3>
 DWORD nMaterials;
 DWORD nFaceIndexes;
 array DWORD faceIndexes[nFaceIndexes];
 [Material]
}

template MeshNormals {
 <F6F23F43-7686-11cf-8F52-0040333594A3>
 DWORD nNormals;
 array Vector normals[nNormals];
 DWORD nFaceNormals;
 array MeshFace faceNormals[nFaceNormals];
}

template MeshVertexColors {
 <1630B821-7842-11cf-8F52-0040333594A3>
 DWORD nVertexColors;
 array IndexedColor vertexColors[nVertexColors];
}

template Mesh {
 <3D82AB44-62DA-11cf-AB39-0020AF71E433>
 DWORD nVertices;
 array Vector vertices[nVertices];
 DWORD nFaces;
 array MeshFace faces[nFaces];
 [...]
}

Header{
1;
0;
1;
}

Mesh {
 352;
 -3.16374;10.33189;0.02089;,
 3.16374;10.33189;0.02089;,
 3.16374;10.33189;-4.01822;,
 -3.16374;10.33189;-4.01822;,
 -3.16374;10.21304;-4.52311;,
 3.16374;10.21304;-4.52311;,
 3.16374;9.26215;-4.52311;,
 -3.16374;9.26215;-4.52311;,
 -3.16374;9.14328;-4.01822;,
 3.16374;9.14328;-4.01822;,
 3.16374;9.14328;0.02089;,
 -3.16374;9.14328;0.02089;,
 3.95468;10.21304;0.02089;,
 3.95468;9.26215;0.02089;,
 3.95468;9.26215;-4.01822;,
 3.95468;10.21304;-4.01822;,
 -3.95468;9.26215;0.02089;,
 -3.95468;10.21304;0.02089;,
 -3.95468;10.21304;-4.01822;,
 -3.95468;9.26215;-4.01822;,
 3.16374;10.32284;-4.21143;,
 -3.16374;10.32284;-4.21143;,
 3.16374;10.29708;-4.37523;,
 -3.16374;10.29708;-4.37523;,
 3.16374;10.25850;-4.48468;,
 -3.16374;10.25850;-4.48468;,
 -3.16374;9.15234;-4.21143;,
 3.16374;9.15234;-4.21143;,
 -3.16374;9.17810;-4.37523;,
 3.16374;9.17810;-4.37523;,
 -3.16374;9.21666;-4.48468;,
 3.16374;9.21666;-4.48468;,
 -3.16374;10.32284;0.21410;,
 3.16374;10.32284;0.21410;,
 -3.16374;10.29708;0.37790;,
 3.16374;10.29708;0.37790;,
 -3.16374;10.25850;0.48735;,
 3.16374;10.25850;0.48735;,
 -3.16374;10.21304;0.52578;,
 3.16374;10.21304;0.52578;,
 3.16374;9.15234;0.21410;,
 -3.16374;9.15234;0.21410;,
 3.16374;9.17810;0.37790;,
 -3.16374;9.17810;0.37790;,
 3.16374;9.21666;0.48735;,
 -3.16374;9.21666;0.48735;,
 3.16374;9.26215;0.52578;,
 -3.16374;9.26215;0.52578;,
 3.46642;10.32284;0.02089;,
 3.46642;10.32284;-4.01822;,
 3.72302;10.29708;0.02089;,
 3.72302;10.29708;-4.01822;,
 3.89447;10.25850;0.02089;,
 3.89447;10.25850;-4.01822;,
 3.46642;9.15234;-4.01822;,
 3.46642;9.15234;0.02089;,
 3.72302;9.17810;-4.01822;,
 3.72302;9.17810;0.02089;,
 3.89447;9.21666;-4.01822;,
 3.89447;9.21666;0.02089;,
 -3.46642;10.32284;-4.01822;,
 -3.46642;10.32284;0.02089;,
 -3.72302;10.29708;-4.01822;,
 -3.72302;10.29708;0.02089;,
 -3.89447;10.25850;-4.01822;,
 -3.89447;10.25850;0.02089;,
 -3.46642;9.15234;0.02089;,
 -3.46642;9.15234;-4.01822;,
 -3.72302;9.17810;0.02089;,
 -3.72302;9.17810;-4.01822;,
 -3.89447;9.21666;0.02089;,
 -3.89447;9.21666;-4.01822;,
 3.46642;10.21304;-4.48468;,
 3.46642;9.26215;-4.48468;,
 3.72302;10.21304;-4.37523;,
 3.72302;9.26215;-4.37523;,
 3.89447;10.21304;-4.21143;,
 3.89447;9.26215;-4.21143;,
 3.46642;9.26215;0.48735;,
 3.46642;10.21304;0.48735;,
 3.72302;9.26215;0.37790;,
 3.72302;10.21304;0.37790;,
 3.89447;9.26215;0.21410;,
 3.89447;10.21304;0.21410;,
 -3.46642;9.26215;-4.48468;,
 -3.46642;10.21304;-4.48468;,
 -3.72302;9.26215;-4.37523;,
 -3.72302;10.21304;-4.37523;,
 -3.89447;9.26215;-4.21143;,
 -3.89447;10.21304;-4.21143;,
 -3.46642;10.21304;0.48735;,
 -3.46642;9.26215;0.48735;,
 -3.72302;10.21304;0.37790;,
 -3.72302;9.26215;0.37790;,
 -3.89447;10.21304;0.21410;,
 -3.89447;9.26215;0.21410;,
 3.55921;10.29708;-4.27066;,
 3.79657;10.25850;-4.25145;,
 3.52911;10.25850;-4.42218;,
 -3.55921;10.29708;-4.27066;,
 -3.79657;10.25850;-4.25145;,
 -3.52911;10.25850;-4.42218;,
 3.55921;9.17810;-4.27066;,
 3.79657;9.21666;-4.25145;,
 3.52911;9.21666;-4.42218;,
 3.55921;10.29708;0.27334;,
 3.79657;10.25850;0.25412;,
 3.52911;10.25850;0.42485;,
 -3.55921;9.17810;-4.27066;,
 -3.79657;9.21666;-4.25145;,
 -3.52911;9.21666;-4.42218;,
 3.55921;9.17810;0.27334;,
 3.79657;9.21666;0.25412;,
 3.52911;9.21666;0.42485;,
 -3.55921;10.29708;0.27334;,
 -3.79657;10.25850;0.25412;,
 -3.52911;10.25850;0.42485;,
 -3.55921;9.17810;0.27334;,
 -3.79657;9.21666;0.25412;,
 -3.52911;9.21666;0.42485;,
 3.16374;9.26215;2.83408;,
 -3.16374;9.26215;2.83408;,
 3.16374;10.21304;2.83408;,
 -3.16374;10.21304;2.83408;,
 2.57865;10.24556;2.35678;,
 -2.57865;10.24556;2.35678;,
 2.57865;10.24556;1.00308;,
 -2.57865;10.24556;1.00308;,
 -5.49630;10.65507;4.83442;,
 5.49630;10.65507;4.83442;,
 5.49630;10.65507;2.01049;,
 -5.49630;10.65507;2.01049;,
 -5.49630;9.14962;2.01049;,
 5.49630;9.14962;2.01049;,
 5.49630;9.14962;4.83442;,
 -5.49630;9.14962;4.83442;,
 5.70427;10.17087;4.42830;,
 5.70427;10.17087;2.41661;,
 5.70427;9.35559;4.42830;,
 5.70427;9.35559;2.41661;,
 -5.70427;10.17087;2.41661;,
 -5.70427;10.17087;4.42830;,
 -5.70427;9.35559;2.41661;,
 -5.70427;9.35559;4.42830;,
 4.63900;10.24139;1.70936;,
 -4.63900;10.24139;1.70936;,
 4.63900;9.28508;1.70936;,
 -4.63900;9.28508;1.70936;,
 -3.54370;10.65507;5.15733;,
 3.54370;10.65507;5.15733;,
 -3.54370;9.14962;5.15733;,
 3.54370;9.14962;5.15733;,
 -3.54370;9.14962;5.86772;,
 -3.54370;10.65507;5.86772;,
 3.54370;10.65507;5.86772;,
 3.54370;9.14962;5.86772;,
 3.54370;10.83955;5.15733;,
 3.54370;11.26627;5.40660;,
 -3.54370;10.83955;5.15733;,
 -3.54370;11.26627;5.40660;,
 -3.54370;11.35885;5.86451;,
 3.54370;11.35885;5.86451;,
 -3.54370;6.57112;5.86772;,
 3.54370;6.57112;5.86772;,
 -3.54370;6.57112;5.15733;,
 3.54370;6.57112;5.15733;,
 -2.77537;3.56682;-4.35887;,
 2.77537;3.56682;-4.35887;,
 3.76227;0.58195;-5.48242;,
 -3.76227;0.58195;-5.48242;,
 2.77537;3.56682;1.96042;,
 3.76227;0.58195;3.08396;,
 -2.77537;3.56682;1.96042;,
 -3.76227;0.58195;3.08396;,
 2.05758;4.05350;1.14325;,
 -2.05758;4.05350;1.14325;,
 2.05758;4.05350;-3.54170;,
 -2.05758;4.05350;-3.54170;,
 3.47370;0.16253;-5.15389;,
 -3.47370;0.16253;-5.15389;,
 3.47370;0.16253;2.75544;,
 -3.47370;0.16253;2.75544;,
 -2.77537;3.66134;5.22756;,
 2.77537;3.66134;5.22756;,
 -3.47370;-0.00291;6.25074;,
 3.47370;-0.00291;6.25074;,
 -3.03605;2.34562;7.76592;,
 3.03605;2.34562;7.76592;,
 -3.47370;0.00055;10.11401;,
 3.47370;0.00055;10.11401;,
 -2.57531;5.99787;5.69318;,
 2.57531;5.99787;5.69318;,
 2.57531;0.10479;5.69318;,
 -2.57531;0.10479;5.69318;,
 2.57531;2.61093;9.80869;,
 3.15964;0.10479;10.03108;,
 -2.57531;2.61093;9.80869;,
 -3.15964;0.10479;10.03108;,
 2.57531;4.87923;10.00736;,
 -2.57531;4.87923;10.00736;,
 2.57531;7.39255;5.71178;,
 -2.57531;7.39255;5.71178;,
 2.57531;8.47537;10.82665;,
 -2.57531;8.47537;10.82665;,
 2.57531;8.49206;5.70094;,
 -2.57531;8.49206;5.70094;,
 2.57531;12.26602;11.70997;,
 -2.57531;12.26602;11.70997;,
 2.57531;12.28270;5.72009;,
 -2.57531;12.28270;5.72009;,
 2.57531;15.87724;11.72151;,
 -2.57531;15.87724;11.72151;,
 2.57531;14.61145;5.73164;,
 -2.57531;14.61145;5.73164;,
 2.57531;18.41460;9.94080;,
 -2.57531;18.41460;9.94080;,
 2.57531;19.75392;6.87449;,
 -2.57531;19.75392;6.87449;,
 2.57531;20.15464;5.07122;,
 -2.57531;20.15464;5.07122;,
 2.57531;16.22455;4.29190;,
 -2.57531;16.22455;4.29190;,
 2.57531;20.15564;1.45921;,
 -2.57531;20.15564;1.45921;,
 2.57531;16.37679;1.99262;,
 -2.57531;16.37679;1.99262;,
 2.57531;20.04314;-1.26501;,
 -2.57531;20.04314;-1.26501;,
 2.57531;17.20076;-0.73162;,
 -2.57531;17.20076;-0.73162;,
 0.00000;20.05105;-7.53764;,
 2.96885;20.05567;-6.40150;,
 2.96885;13.89270;-5.03879;,
 0.00000;13.42210;-6.17492;,
 4.19859;20.06806;-3.65864;,
 4.19859;15.02883;-2.29592;,
 2.96885;20.11282;-0.91577;,
 2.96885;16.16496;0.44693;,
 0.00000;20.09007;0.22036;,
 0.00000;16.63557;1.58307;,
 -2.96885;20.11282;-0.91577;,
 -2.96885;16.16496;0.44693;,
 -4.19859;20.06806;-3.65864;,
 -4.19859;15.02883;-2.29592;,
 -2.96885;20.05567;-6.40150;,
 -2.96885;13.89270;-5.03879;,
 0.00000;20.06806;-3.65864;,
 0.00000;15.02883;-2.29592;,
 0.00000;14.76017;-5.53655;,
 0.56967;14.85429;-5.32016;,
 0.56967;12.38441;-4.24624;,
 0.00000;12.29032;-4.46263;,
 0.80563;15.08142;-4.79774;,
 0.80563;12.61157;-3.72382;,
 0.56967;15.30859;-4.27532;,
 0.56967;12.83873;-3.20140;,
 0.00000;15.40268;-4.05893;,
 0.00000;12.93281;-2.98500;,
 -0.56967;15.30859;-4.27532;,
 -0.56967;12.83873;-3.20140;,
 -0.80563;15.08142;-4.79774;,
 -0.80563;12.61157;-3.72382;,
 -0.56967;14.85429;-5.32016;,
 -0.56967;12.38441;-4.24624;,
 0.00000;15.08142;-4.79774;,
 0.00000;12.61157;-3.72382;,
 2.27078;15.80044;-2.17828;,
 2.72141;15.87486;-2.00710;,
 2.72141;13.92114;-1.15759;,
 2.27078;13.84668;-1.32877;,
 2.90806;16.05455;-1.59385;,
 2.90806;14.10082;-0.74434;,
 2.72141;16.23423;-1.18060;,
 2.72141;14.28048;-0.33109;,
 2.27078;16.30865;-1.00942;,
 2.27078;14.35492;-0.15992;,
 1.82015;16.23423;-1.18060;,
 1.82015;14.28048;-0.33109;,
 1.63350;16.05455;-1.59385;,
 1.63350;14.10082;-0.74434;,
 1.82015;15.87486;-2.00710;,
 1.82015;13.92114;-1.15759;,
 2.27078;16.05455;-1.59385;,
 2.27078;14.10082;-0.74434;,
 -1.87145;16.25014;-2.80620;,
 -1.14043;16.37088;-2.52852;,
 -1.14043;13.20151;-1.15043;,
 -1.87145;13.08077;-1.42811;,
 -0.83764;16.66239;-1.85813;,
 -0.83764;13.49299;-0.48005;,
 -1.14043;16.95387;-1.18776;,
 -1.14043;13.78450;0.19033;,
 -1.87145;17.07459;-0.91007;,
 -1.87145;13.90524;0.46801;,
 -2.60246;16.95387;-1.18776;,
 -2.60246;13.78450;0.19033;,
 -2.90526;16.66239;-1.85813;,
 -2.90526;13.49299;-0.48005;,
 -2.60246;16.37088;-2.52852;,
 -2.60246;13.20151;-1.15043;,
 -1.87145;16.66239;-1.85813;,
 -1.87145;13.49299;-0.48005;,
 -4.47984;22.47259;-7.74709;,
 4.47984;22.47259;-7.74709;,
 4.47984;19.57021;-7.74709;,
 -4.47984;19.57021;-7.74709;,
 4.47984;24.11184;-1.85399;,
 4.47984;19.57021;-1.85399;,
 -4.47984;24.11184;-1.85399;,
 -4.47984;19.57021;-1.85399;,
 -2.25085;22.47259;0.01846;,
 2.25085;22.47259;0.01846;,
 -2.25085;19.57021;0.01846;,
 2.25085;19.57021;0.01846;,
 -4.47984;24.98713;-7.74709;,
 4.47984;24.98713;-7.74709;,
 2.22547;21.48296;-11.75086;,
 3.89012;22.17252;-11.75087;,
 3.89012;21.29946;-7.53094;,
 2.22547;20.60987;-7.53095;,
 4.57965;23.83715;-11.75086;,
 4.57965;22.96413;-7.53095;,
 3.89012;25.50183;-11.75086;,
 3.89012;24.62879;-7.53094;,
 2.22547;26.19137;-11.75086;,
 2.22547;25.31827;-7.53095;,
 0.56080;25.50183;-11.75086;,
 0.56080;24.62879;-7.53094;,
 -0.12872;23.83715;-11.75086;,
 -0.12872;22.96413;-7.53095;,
 0.56080;22.17252;-11.75087;,
 0.56080;21.29946;-7.53094;,
 2.22547;23.83715;-11.75086;,
 2.22547;22.96413;-7.53095;,
 -2.73165;21.48296;-11.75086;,
 -1.06699;22.17252;-11.75087;,
 -1.06699;21.29946;-7.53094;,
 -2.73165;20.60987;-7.53095;,
 -0.37746;23.83715;-11.75086;,
 -0.37746;22.96413;-7.53095;,
 -1.06699;25.50183;-11.75086;,
 -1.06699;24.62879;-7.53094;,
 -2.73165;26.19137;-11.75086;,
 -2.73165;25.31827;-7.53095;,
 -4.39631;25.50183;-11.75086;,
 -4.39631;24.62879;-7.53094;,
 -5.08583;23.83715;-11.75086;,
 -5.08583;22.96413;-7.53095;,
 -4.39631;22.17252;-11.75087;,
 -4.39631;21.29946;-7.53094;,
 -2.73165;23.83715;-11.75086;,
 -2.73165;22.96413;-7.53095;;
 
 447;
 4;0,1,2,3;,
 4;4,5,6,7;,
 4;8,9,10,11;,
 4;12,13,14,15;,
 4;16,17,18,19;,
 4;3,2,20,21;,
 4;21,20,22,23;,
 4;23,22,24,25;,
 4;25,24,5,4;,
 4;26,27,9,8;,
 4;28,29,27,26;,
 4;30,31,29,28;,
 4;7,6,31,30;,
 4;32,33,1,0;,
 4;34,35,33,32;,
 4;36,37,35,34;,
 4;38,39,37,36;,
 4;11,10,40,41;,
 4;41,40,42,43;,
 4;43,42,44,45;,
 4;45,44,46,47;,
 4;2,1,48,49;,
 4;49,48,50,51;,
 4;51,50,52,53;,
 4;53,52,12,15;,
 4;10,9,54,55;,
 4;55,54,56,57;,
 4;57,56,58,59;,
 4;59,58,14,13;,
 4;0,3,60,61;,
 4;61,60,62,63;,
 4;63,62,64,65;,
 4;65,64,18,17;,
 4;8,11,66,67;,
 4;67,66,68,69;,
 4;69,68,70,71;,
 4;71,70,16,19;,
 4;6,5,72,73;,
 4;73,72,74,75;,
 4;75,74,76,77;,
 4;77,76,15,14;,
 4;39,46,78,79;,
 4;79,78,80,81;,
 4;81,80,82,83;,
 4;83,82,13,12;,
 4;4,7,84,85;,
 4;85,84,86,87;,
 4;87,86,88,89;,
 4;89,88,19,18;,
 4;47,38,90,91;,
 4;91,90,92,93;,
 4;93,92,94,95;,
 4;95,94,17,16;,
 3;2,49,20;,
 3;49,51,96;,
 3;96,20,49;,
 3;20,96,22;,
 3;51,53,97;,
 3;97,96,51;,
 3;96,97,98;,
 3;98,22,96;,
 3;22,98,24;,
 3;53,15,76;,
 3;76,97,53;,
 3;97,76,74;,
 3;74,98,97;,
 3;98,74,72;,
 3;72,24,98;,
 3;24,72,5;,
 3;21,60,3;,
 3;99,62,60;,
 3;60,21,99;,
 3;23,99,21;,
 3;100,64,62;,
 3;62,99,100;,
 3;101,100,99;,
 3;99,23,101;,
 3;25,101,23;,
 3;89,18,64;,
 3;64,100,89;,
 3;87,89,100;,
 3;100,101,87;,
 3;85,87,101;,
 3;101,25,85;,
 3;4,85,25;,
 3;27,54,9;,
 3;102,56,54;,
 3;54,27,102;,
 3;29,102,27;,
 3;103,58,56;,
 3;56,102,103;,
 3;104,103,102;,
 3;102,29,104;,
 3;31,104,29;,
 3;77,14,58;,
 3;58,103,77;,
 3;75,77,103;,
 3;103,104,75;,
 3;73,75,104;,
 3;104,31,73;,
 3;6,73,31;,
 3;33,48,1;,
 3;105,50,48;,
 3;48,33,105;,
 3;35,105,33;,
 3;106,52,50;,
 3;50,105,106;,
 3;107,106,105;,
 3;105,35,107;,
 3;37,107,35;,
 3;83,12,52;,
 3;52,106,83;,
 3;81,83,106;,
 3;106,107,81;,
 3;79,81,107;,
 3;107,37,79;,
 3;39,79,37;,
 3;8,67,26;,
 3;67,69,108;,
 3;108,26,67;,
 3;26,108,28;,
 3;69,71,109;,
 3;109,108,69;,
 3;108,109,110;,
 3;110,28,108;,
 3;28,110,30;,
 3;71,19,88;,
 3;88,109,71;,
 3;109,88,86;,
 3;86,110,109;,
 3;110,86,84;,
 3;84,30,110;,
 3;30,84,7;,
 3;10,55,40;,
 3;55,57,111;,
 3;111,40,55;,
 3;40,111,42;,
 3;57,59,112;,
 3;112,111,57;,
 3;111,112,113;,
 3;113,42,111;,
 3;42,113,44;,
 3;59,13,82;,
 3;82,112,59;,
 3;112,82,80;,
 3;80,113,112;,
 3;113,80,78;,
 3;78,44,113;,
 3;44,78,46;,
 3;0,61,32;,
 3;61,63,114;,
 3;114,32,61;,
 3;32,114,34;,
 3;63,65,115;,
 3;115,114,63;,
 3;114,115,116;,
 3;116,34,114;,
 3;34,116,36;,
 3;65,17,94;,
 3;94,115,65;,
 3;115,94,92;,
 3;92,116,115;,
 3;116,92,90;,
 3;90,36,116;,
 3;36,90,38;,
 3;41,66,11;,
 3;117,68,66;,
 3;66,41,117;,
 3;43,117,41;,
 3;118,70,68;,
 3;68,117,118;,
 3;119,118,117;,
 3;117,43,119;,
 3;45,119,43;,
 3;95,16,70;,
 3;70,118,95;,
 3;93,95,118;,
 3;118,119,93;,
 3;91,93,119;,
 3;119,45,91;,
 3;47,91,45;,
 4;120,121,47,46;,
 4;122,120,46,39;,
 4;121,123,38,47;,
 4;121,120,122,123;,
 4;124,125,123,122;,
 4;126,124,122,39;,
 4;127,126,39,38;,
 4;125,127,38,123;,
 4;125,124,126,127;,
 4;128,129,130,131;,
 4;132,133,134,135;,
 4;136,137,130,129;,
 4;138,136,129,134;,
 4;139,138,134,133;,
 4;137,139,133,130;,
 4;137,136,138,139;,
 4;140,141,128,131;,
 4;142,140,131,132;,
 4;143,142,132,135;,
 4;141,143,135,128;,
 4;141,140,142,143;,
 4;144,145,131,130;,
 4;146,144,130,133;,
 4;147,146,133,132;,
 4;145,147,132,131;,
 4;145,144,146,147;,
 4;148,149,129,128;,
 4;150,148,128,135;,
 4;151,150,135,134;,
 4;149,151,134,129;,
 4;152,153,148,150;,
 4;154,155,151,149;,
 4;154,153,152,155;,
 4;156,157,154,149;,
 4;158,156,149,148;,
 4;159,158,148,153;,
 4;159,157,156,158;,
 4;160,161,157,159;,
 4;161,160,153,154;,
 3;153,160,159;,
 3;154,157,161;,
 4;162,163,155,152;,
 4;164,162,152,150;,
 4;165,164,150,151;,
 4;163,165,151,155;,
 4;163,162,164,165;,
 4;166,167,168,169;,
 4;167,170,171,168;,
 4;172,166,169,173;,
 4;174,175,172,170;,
 4;176,174,170,167;,
 4;177,176,167,166;,
 4;175,177,166,172;,
 4;175,174,176,177;,
 4;178,179,169,168;,
 4;180,178,168,171;,
 4;179,181,173,169;,
 4;179,178,180,181;,
 4;182,183,170,172;,
 4;184,182,172,173;,
 4;183,185,171,170;,
 4;185,184,181,180;,
 3;184,173,181;,
 3;185,180,171;,
 4;186,187,183,182;,
 4;188,186,182,184;,
 4;189,188,184,185;,
 4;187,189,185,183;,
 4;187,186,188,189;,
 4;190,191,192,193;,
 4;191,194,195,192;,
 4;194,196,197,195;,
 4;196,190,193,197;,
 4;193,192,195,197;,
 4;198,199,196,194;,
 4;200,198,194,191;,
 4;201,200,191,190;,
 4;199,201,190,196;,
 4;202,203,199,198;,
 4;204,202,198,200;,
 4;205,204,200,201;,
 4;203,205,201,199;,
 4;206,207,203,202;,
 4;208,206,202,204;,
 4;209,208,204,205;,
 4;207,209,205,203;,
 4;210,211,207,206;,
 4;212,210,206,208;,
 4;213,212,208,209;,
 4;211,213,209,207;,
 4;214,215,211,210;,
 3;212,214,210;,
 3;213,211,215;,
 4;216,217,215,214;,
 3;212,216,214;,
 3;213,215,217;,
 4;218,219,217,216;,
 4;220,218,216,212;,
 4;221,220,212,213;,
 4;219,221,213,217;,
 4;222,223,219,218;,
 4;224,222,218,220;,
 4;225,224,220,221;,
 4;223,225,221,219;,
 4;226,227,223,222;,
 4;228,226,222,224;,
 4;229,228,224,225;,
 4;227,229,225,223;,
 4;227,226,228,229;,
 4;230,231,232,233;,
 4;231,234,235,232;,
 4;234,236,237,235;,
 4;236,238,239,237;,
 4;238,240,241,239;,
 4;240,242,243,241;,
 4;242,244,245,243;,
 4;244,230,233,245;,
 3;246,231,230;,
 3;246,234,231;,
 3;246,236,234;,
 3;246,238,236;,
 3;246,240,238;,
 3;246,242,240;,
 3;246,244,242;,
 3;246,230,244;,
 3;247,233,232;,
 3;247,232,235;,
 3;247,235,237;,
 3;247,237,239;,
 3;247,239,241;,
 3;247,241,243;,
 3;247,243,245;,
 3;247,245,233;,
 4;248,249,250,251;,
 4;249,252,253,250;,
 4;252,254,255,253;,
 4;254,256,257,255;,
 4;256,258,259,257;,
 4;258,260,261,259;,
 4;260,262,263,261;,
 4;262,248,251,263;,
 3;264,249,248;,
 3;264,252,249;,
 3;264,254,252;,
 3;264,256,254;,
 3;264,258,256;,
 3;264,260,258;,
 3;264,262,260;,
 3;264,248,262;,
 3;265,251,250;,
 3;265,250,253;,
 3;265,253,255;,
 3;265,255,257;,
 3;265,257,259;,
 3;265,259,261;,
 3;265,261,263;,
 3;265,263,251;,
 4;266,267,268,269;,
 4;267,270,271,268;,
 4;270,272,273,271;,
 4;272,274,275,273;,
 4;274,276,277,275;,
 4;276,278,279,277;,
 4;278,280,281,279;,
 4;280,266,269,281;,
 3;282,267,266;,
 3;282,270,267;,
 3;282,272,270;,
 3;282,274,272;,
 3;282,276,274;,
 3;282,278,276;,
 3;282,280,278;,
 3;282,266,280;,
 3;283,269,268;,
 3;283,268,271;,
 3;283,271,273;,
 3;283,273,275;,
 3;283,275,277;,
 3;283,277,279;,
 3;283,279,281;,
 3;283,281,269;,
 4;284,285,286,287;,
 4;285,288,289,286;,
 4;288,290,291,289;,
 4;290,292,293,291;,
 4;292,294,295,293;,
 4;294,296,297,295;,
 4;296,298,299,297;,
 4;298,284,287,299;,
 3;300,285,284;,
 3;300,288,285;,
 3;300,290,288;,
 3;300,292,290;,
 3;300,294,292;,
 3;300,296,294;,
 3;300,298,296;,
 3;300,284,298;,
 3;301,287,286;,
 3;301,286,289;,
 3;301,289,291;,
 3;301,291,293;,
 3;301,293,295;,
 3;301,295,297;,
 3;301,297,299;,
 3;301,299,287;,
 4;302,303,304,305;,
 4;303,306,307,304;,
 4;308,302,305,309;,
 4;305,304,307,309;,
 4;310,311,306,308;,
 4;312,310,308,309;,
 4;313,312,309,307;,
 4;311,313,307,306;,
 4;311,310,312,313;,
 4;314,315,303,302;,
 4;308,306,315,314;,
 3;308,314,302;,
 3;306,303,315;,
 4;316,317,318,319;,
 4;317,320,321,318;,
 4;320,322,323,321;,
 4;322,324,325,323;,
 4;324,326,327,325;,
 4;326,328,329,327;,
 4;328,330,331,329;,
 4;330,316,319,331;,
 3;332,317,316;,
 3;332,320,317;,
 3;332,322,320;,
 3;332,324,322;,
 3;332,326,324;,
 3;332,328,326;,
 3;332,330,328;,
 3;332,316,330;,
 3;333,319,318;,
 3;333,318,321;,
 3;333,321,323;,
 3;333,323,325;,
 3;333,325,327;,
 3;333,327,329;,
 3;333,329,331;,
 3;333,331,319;,
 4;334,335,336,337;,
 4;335,338,339,336;,
 4;338,340,341,339;,
 4;340,342,343,341;,
 4;342,344,345,343;,
 4;344,346,347,345;,
 4;346,348,349,347;,
 4;348,334,337,349;,
 3;350,335,334;,
 3;350,338,335;,
 3;350,340,338;,
 3;350,342,340;,
 3;350,344,342;,
 3;350,346,344;,
 3;350,348,346;,
 3;350,334,348;,
 3;351,337,336;,
 3;351,336,339;,
 3;351,339,341;,
 3;351,341,343;,
 3;351,343,345;,
 3;351,345,347;,
 3;351,347,349;,
 3;351,349,337;;
 
 MeshMaterialList {
  3;
  447;
  0,
  0,
  0,
  0,
  0,
  0,
  0,
  0,
  0,
  0,
  0,
  0,
  0,
  0,
  0,
  0,
  0,
  0,
  0,
  0,
  0,
  0,
  0,
  0,
  0,
  0,
  0,
  0,
  0,
  0,
  0,
  0,
  0,
  0,
  0,
  0,
  0,
  0,
  0,
  0,
  0,
  0,
  0,
  0,
  0,
  0,
  0,
  0,
  0,
  0,
  0,
  0,
  0,
  0,
  0,
  0,
  0,
  0,
  0,
  0,
  0,
  0,
  0,
  0,
  0,
  0,
  0,
  0,
  0,
  0,
  0,
  0,
  0,
  0,
  0,
  0,
  0,
  0,
  0,
  0,
  0,
  0,
  0,
  0,
  0,
  0,
  0,
  0,
  0,
  0,
  0,
  0,
  0,
  0,
  0,
  0,
  0,
  0,
  0,
  0,
  0,
  0,
  0,
  0,
  0,
  0,
  0,
  0,
  0,
  0,
  0,
  0,
  0,
  0,
  0,
  0,
  0,
  0,
  0,
  0,
  0,
  0,
  0,
  0,
  0,
  0,
  0,
  0,
  0,
  0,
  0,
  0,
  0,
  0,
  0,
  0,
  0,
  0,
  0,
  0,
  0,
  0,
  0,
  0,
  0,
  0,
  0,
  0,
  0,
  0,
  0,
  0,
  0,
  0,
  0,
  0,
  0,
  0,
  0,
  0,
  0,
  0,
  0,
  0,
  0,
  0,
  0,
  0,
  0,
  0,
  0,
  0,
  0,
  0,
  0,
  0,
  0,
  0,
  0,
  0,
  0,
  0,
  0,
  0,
  0,
  0,
  0,
  0,
  0,
  0,
  0,
  0,
  0,
  0,
  0,
  0,
  0,
  0,
  0,
  0,
  0,
  0,
  0,
  0,
  0,
  0,
  0,
  0,
  0,
  0,
  0,
  0,
  0,
  0,
  0,
  0,
  0,
  0,
  0,
  0,
  0,
  0,
  0,
  0,
  0,
  0,
  0,
  1,
  1,
  1,
  1,
  1,
  1,
  1,
  1,
  1,
  1,
  1,
  1,
  1,
  1,
  1,
  1,
  1,
  1,
  1,
  1,
  1,
  1,
  1,
  1,
  1,
  1,
  1,
  1,
  1,
  1,
  1,
  1,
  1,
  1,
  1,
  1,
  1,
  1,
  1,
  1,
  1,
  1,
  1,
  1,
  1,
  1,
  1,
  1,
  1,
  1,
  1,
  1,
  1,
  1,
  1,
  1,
  1,
  1,
  1,
  1,
  1,
  1,
  1,
  1,
  1,
  1,
  1,
  1,
  1,
  1,
  1,
  1,
  1,
  1,
  1,
  1,
  1,
  1,
  1,
  1,
  1,
  1,
  1,
  1,
  1,
  1,
  1,
  2,
  2,
  2,
  2,
  2,
  2,
  2,
  2,
  2,
  2,
  2,
  2,
  2,
  2,
  2,
  2,
  2,
  2,
  2,
  2,
  2,
  2,
  2,
  2,
  2,
  2,
  2,
  2,
  2,
  2,
  2,
  2,
  2,
  2,
  2,
  2,
  2,
  2,
  2,
  2,
  2,
  2,
  2,
  2,
  2,
  2,
  2,
  2,
  2,
  2,
  2,
  2,
  2,
  2,
  2,
  2,
  2,
  2,
  2,
  2,
  2,
  2,
  2,
  2,
  2,
  2,
  2,
  2,
  2,
  2,
  2,
  2,
  1,
  1,
  1,
  1,
  1,
  1,
  1,
  1,
  1,
  1,
  1,
  1,
  1,
  0,
  0,
  0,
  0,
  0,
  0,
  0,
  0,
  0,
  0,
  0,
  0,
  0,
  0,
  0,
  0,
  0,
  0,
  0,
  0,
  0,
  0,
  0,
  0,
  0,
  0,
  0,
  0,
  0,
  0,
  0,
  0,
  0,
  0,
  0,
  0,
  0,
  0,
  0,
  0,
  0,
  0,
  0,
  0,
  0,
  0,
  0,
  0;;
  Material {
   0.081600;0.081600;0.081600;1.000000;;
   66.000000;
   0.470000;0.470000;0.470000;;
   0.000000;0.000000;0.000000;;
  }
  Material {
   0.627200;0.627200;0.627200;1.000000;;
   67.000000;
   0.240000;0.240000;0.240000;;
   0.000000;0.000000;0.000000;;
  }
  Material {
   0.385600;0.385600;0.385600;1.000000;;
   20.000000;
   0.740000;0.740000;0.740000;;
   0.000000;0.000000;0.000000;;
  }
 }
 MeshNormals {
  385;
  -0.014938;0.999615;0.023394;,
  0.014938;0.999615;0.023394;,
  -0.014938;0.999615;-0.023394;,
  0.014938;0.999615;-0.023394;,
  -0.059313;0.343429;-0.937304;,
  0.059313;0.343429;-0.937304;,
  -0.059316;-0.343304;-0.937349;,
  0.059316;-0.343304;-0.937349;,
  -0.014958;-0.999614;-0.023425;,
  0.014958;-0.999614;-0.023425;,
  -0.014958;-0.999614;0.023425;,
  0.014958;-0.999614;0.023425;,
  -0.078474;-0.454187;0.887443;,
  0.078474;-0.454187;0.887443;,
  -0.078470;0.454349;0.887361;,
  0.078470;0.454349;0.887361;,
  0.885330;0.444782;0.135494;,
  0.885388;-0.444665;0.135502;,
  0.885330;0.444782;-0.135493;,
  0.885388;-0.444665;-0.135502;,
  -0.885388;-0.444665;0.135502;,
  -0.885330;0.444782;0.135494;,
  -0.885388;-0.444665;-0.135502;,
  -0.885330;0.444782;-0.135493;,
  -0.024711;0.994938;-0.097400;,
  0.024711;0.994938;-0.097400;,
  -0.033381;0.968261;-0.247704;,
  0.033381;0.968261;-0.247704;,
  -0.054733;0.808188;-0.586376;,
  0.054733;0.808188;-0.586376;,
  -0.024726;-0.994933;-0.097453;,
  0.024726;-0.994933;-0.097453;,
  -0.033369;-0.968283;-0.247618;,
  0.033369;-0.968283;-0.247618;,
  -0.054740;-0.808140;-0.586442;,
  0.054740;-0.808140;-0.586442;,
  -0.024711;0.994939;0.097397;,
  0.024711;0.994939;0.097397;,
  -0.033383;0.968259;0.247709;,
  0.033383;0.968259;0.247709;,
  -0.054733;0.808181;0.586386;,
  0.054733;0.808181;0.586386;,
  -0.024726;-0.994933;0.097450;,
  0.024726;-0.994933;0.097450;,
  -0.033371;-0.968282;0.247623;,
  0.033371;-0.968282;0.247623;,
  -0.054741;-0.808132;0.586452;,
  0.054741;-0.808132;0.586452;,
  0.062416;0.997297;0.038773;,
  0.062416;0.997297;-0.038773;,
  0.161560;0.985426;0.053234;,
  0.161559;0.985426;-0.053234;,
  0.431951;0.896597;0.097631;,
  0.431951;0.896597;-0.097631;,
  0.062450;-0.997294;0.038796;,
  0.062450;-0.997294;-0.038796;,
  0.161500;-0.985437;0.053214;,
  0.161499;-0.985437;-0.053214;,
  0.432034;-0.896555;0.097653;,
  0.432034;-0.896555;-0.097652;,
  -0.062416;0.997297;0.038773;,
  -0.062416;0.997297;-0.038773;,
  -0.161560;0.985426;0.053234;,
  -0.161559;0.985426;-0.053234;,
  -0.431951;0.896597;0.097631;,
  -0.431951;0.896597;-0.097631;,
  -0.062450;-0.997294;0.038796;,
  -0.062450;-0.997294;-0.038796;,
  -0.161500;-0.985437;0.053214;,
  -0.161499;-0.985437;-0.053214;,
  -0.432034;-0.896555;0.097653;,
  -0.432034;-0.896555;-0.097652;,
  0.224926;-0.425069;-0.876769;,
  0.224912;0.425215;-0.876702;,
  0.488810;-0.448525;-0.748258;,
  0.488770;0.448668;-0.748199;,
  0.733014;-0.516764;-0.442319;,
  0.732939;0.516901;-0.442283;,
  0.224916;-0.425075;0.876769;,
  0.224902;0.425222;0.876702;,
  0.488805;-0.448547;0.748249;,
  0.488765;0.448689;0.748189;,
  0.733016;-0.516767;0.442311;,
  0.732942;0.516904;0.442274;,
  -0.224926;-0.425069;-0.876769;,
  -0.224912;0.425215;-0.876702;,
  -0.488810;-0.448525;-0.748258;,
  -0.488770;0.448668;-0.748199;,
  -0.733014;-0.516764;-0.442319;,
  -0.732939;0.516901;-0.442283;,
  -0.224916;-0.425075;0.876769;,
  -0.224902;0.425222;0.876702;,
  -0.488805;-0.448547;0.748249;,
  -0.488765;0.448689;0.748189;,
  -0.733016;-0.516767;0.442311;,
  -0.732942;0.516904;0.442274;,
  0.101451;0.982148;-0.158410;,
  0.323417;0.899066;-0.295097;,
  0.179300;0.861947;-0.474235;,
  -0.101451;0.982148;-0.158410;,
  -0.323417;0.899066;-0.295097;,
  -0.179300;0.861947;-0.474235;,
  0.101421;-0.982158;-0.158363;,
  0.323446;-0.899046;-0.295127;,
  0.179314;-0.861929;-0.474261;,
  0.101453;0.982147;0.158411;,
  0.323414;0.899070;0.295088;,
  0.179294;0.861952;0.474228;,
  -0.101421;-0.982158;-0.158363;,
  -0.323446;-0.899046;-0.295127;,
  -0.179314;-0.861929;-0.474261;,
  0.101423;-0.982158;0.158364;,
  0.323442;-0.899050;0.295118;,
  0.179308;-0.861935;0.474255;,
  -0.101453;0.982147;0.158411;,
  -0.323414;0.899070;0.295088;,
  -0.179294;0.861952;0.474228;,
  -0.101423;-0.982158;0.158364;,
  -0.323442;-0.899050;0.295118;,
  -0.179308;-0.861935;0.474255;,
  0.000000;-1.000000;0.000000;,
  -1.000000;0.000000;0.000000;,
  1.000000;0.000000;0.000000;,
  -0.018512;0.999572;-0.022676;,
  0.018512;0.999572;-0.022676;,
  -0.018512;0.999572;0.022676;,
  0.018512;0.999572;0.022676;,
  0.000000;0.891213;-0.453586;,
  -0.256249;-0.954997;-0.149386;,
  0.256249;-0.954997;-0.149386;,
  -0.977731;0.137370;-0.158654;,
  -0.950908;-0.260484;-0.167101;,
  0.977731;0.137370;-0.158654;,
  0.950908;-0.260484;-0.167101;,
  0.977731;0.137370;0.158656;,
  0.950907;-0.260484;0.167103;,
  -0.977731;0.137370;0.158656;,
  -0.950907;-0.260484;0.167103;,
  -0.116952;0.207690;-0.971178;,
  0.000000;-0.911984;-0.410227;,
  0.116952;0.207690;-0.971178;,
  0.168092;0.000000;-0.985771;,
  0.000000;1.000000;0.000000;,
  0.251282;-0.967914;-0.000000;,
  -0.251282;-0.967914;0.000000;,
  -0.163161;0.000000;0.986599;,
  0.000000;0.261276;-0.965264;,
  0.000000;0.980168;-0.198167;,
  0.000000;0.000000;-1.000000;,
  0.000000;0.000000;1.000000;,
  -0.027771;0.999035;0.034017;,
  0.027771;0.999035;0.034017;,
  0.027771;0.999035;-0.034017;,
  -0.027771;0.999035;-0.034017;,
  0.827203;0.152527;-0.540805;,
  0.948693;0.206976;0.239047;,
  0.589717;0.000000;0.807610;,
  0.657622;0.000000;-0.753348;,
  -0.948693;0.206976;0.239047;,
  -0.827203;0.152527;-0.540805;,
  -0.657622;0.000000;-0.753348;,
  -0.589717;0.000000;0.807610;,
  -0.168092;0.000000;-0.985771;,
  0.163161;0.000000;0.986599;,
  0.000000;0.002285;0.999997;,
  0.000000;0.813414;-0.581685;,
  0.000000;0.004569;0.999990;,
  -0.218966;0.795634;-0.564819;,
  0.000000;-0.151644;-0.988435;,
  0.000000;0.641789;-0.766881;,
  0.716426;0.697604;0.009036;,
  0.988736;-0.149374;0.009405;,
  -0.716426;0.697604;0.009036;,
  -0.988736;-0.149374;0.009405;,
  -0.200991;0.962298;-0.183261;,
  0.200991;0.962298;-0.183261;,
  0.200991;0.962298;0.183261;,
  -0.200991;0.962298;0.183261;,
  0.000000;-0.899067;-0.437811;,
  0.469105;-0.882898;-0.020792;,
  -0.469105;-0.882898;-0.020792;,
  0.000000;0.974874;0.222758;,
  0.999268;-0.036524;0.011372;,
  -0.999268;-0.036524;0.011372;,
  0.000000;0.807155;0.590340;,
  0.000000;-1.000000;0.000896;,
  -0.982802;0.184649;-0.002331;,
  0.000000;0.006667;-0.999978;,
  0.000000;0.000000;-1.000000;,
  0.997994;0.054077;-0.032930;,
  0.991983;0.107937;-0.065728;,
  0.000000;0.000572;1.000000;,
  0.000000;0.088389;0.996086;,
  0.000000;0.001737;-0.999999;,
  1.000000;0.000000;0.000000;,
  0.000000;-0.155053;0.987906;,
  0.000000;-0.002404;-0.999997;,
  0.000000;-0.224541;0.974465;,
  0.000000;0.005005;-0.999987;,
  0.000000;-0.115808;0.993272;,
  0.000000;0.299689;0.954037;,
  0.000000;0.774205;0.632935;,
  0.000000;-0.354012;-0.935241;,
  0.000000;0.950723;0.310042;,
  0.000000;-0.898647;-0.438671;,
  0.000000;0.994014;0.109252;,
  0.000000;-0.983859;-0.178945;,
  0.000000;0.999790;-0.020496;,
  0.000000;-0.957175;-0.289508;,
  0.000000;0.999148;-0.041260;,
  0.000000;0.999970;-0.007723;,
  0.000000;-0.208594;-0.978002;,
  0.692983;-0.156708;-0.703716;,
  0.999923;0.012016;-0.003169;,
  0.691442;0.238643;0.681877;,
  0.000000;0.346513;0.938045;,
  -0.691442;0.238643;0.681877;,
  -0.999923;0.012016;-0.003169;,
  -0.692983;-0.156708;-0.703716;,
  0.000000;-0.923880;0.382684;,
  0.000000;0.917060;-0.398750;,
  0.000000;-0.398748;-0.917061;,
  0.707108;-0.281957;-0.648459;,
  1.000000;-0.000000;-0.000001;,
  0.707107;0.281957;0.648459;,
  0.000000;0.398748;0.917061;,
  -0.707107;0.281957;0.648459;,
  -1.000000;-0.000000;-0.000001;,
  -0.707108;-0.281957;-0.648459;,
  0.000000;-0.917058;0.398753;,
  0.000000;0.917062;-0.398744;,
  0.000002;-0.398750;-0.917060;,
  0.707110;-0.281957;-0.648456;,
  1.000000;0.000001;0.000004;,
  0.707107;0.281956;0.648460;,
  0.000002;0.398747;0.917061;,
  -0.707106;0.281957;0.648461;,
  -1.000000;0.000000;0.000003;,
  -0.707109;-0.281958;-0.648457;,
  0.000000;-0.917067;0.398734;,
  -0.000000;0.917061;-0.398748;,
  0.000000;-0.398750;-0.917059;,
  0.707108;-0.281958;-0.648458;,
  1.000000;0.000000;0.000001;,
  0.707107;0.281958;0.648459;,
  0.000000;0.398750;0.917060;,
  -0.707105;0.281959;0.648461;,
  -1.000000;0.000000;0.000001;,
  -0.707106;-0.281959;-0.648459;,
  0.000000;-0.917058;0.398753;,
  0.906424;0.000000;0.422368;,
  -0.906424;0.000000;0.422368;,
  0.000000;0.413098;0.910687;,
  0.000000;-1.000000;0.000000;,
  -0.342279;0.000000;0.939598;,
  0.960511;0.000000;0.278243;,
  -0.960511;0.000000;0.278243;,
  -0.000000;0.000000;-1.000000;,
  0.000000;-0.979261;-0.202603;,
  0.701856;-0.697546;-0.144316;,
  1.000000;-0.000003;-0.000001;,
  0.701847;0.697556;0.144317;,
  0.000000;0.979261;0.202602;,
  -0.701847;0.697556;0.144317;,
  -1.000000;-0.000003;-0.000001;,
  -0.701856;-0.697546;-0.144316;,
  -0.000000;-0.000001;1.000000;,
  0.000000;0.000000;-1.000000;,
  -0.000000;-0.979261;-0.202603;,
  0.701856;-0.697546;-0.144316;,
  1.000000;-0.000003;-0.000001;,
  0.701847;0.697556;0.144317;,
  -0.000000;0.979261;0.202602;,
  -0.701847;0.697555;0.144317;,
  -1.000000;-0.000003;-0.000001;,
  -0.701856;-0.697546;-0.144316;,
  0.000000;-0.000001;1.000000;,
  0.797808;0.602912;0.000000;,
  0.989983;-0.141188;-0.000000;,
  -0.949449;0.313921;0.000000;,
  -0.989983;-0.141188;0.000000;,
  0.000000;0.859171;0.511688;,
  0.823841;-0.566821;-0.000000;,
  -0.823841;-0.566821;0.000000;,
  -0.973729;0.225867;0.028925;,
  0.973729;0.225867;0.028925;,
  0.000000;-0.999731;-0.023199;,
  0.982802;0.184649;-0.002331;,
  0.000000;0.707562;0.706651;,
  -0.997994;0.054077;-0.032930;,
  -0.991983;0.107937;-0.065728;,
  -1.000000;0.000000;0.000000;,
  0.000000;-0.184438;-0.982844;,
  0.000061;0.999990;-0.004451;,
  0.000000;0.999990;-0.004384;,
  0.000000;0.999946;-0.010416;,
  -0.004916;0.999928;-0.010995;,
  0.000000;0.999984;-0.005675;,
  0.004916;0.999928;-0.010995;,
  -0.000061;0.999990;-0.004451;,
  0.000000;-0.923880;0.382682;,
  -0.000000;-0.923880;0.382683;,
  0.000000;-0.923879;0.382684;,
  0.000000;-0.923879;0.382684;,
  0.000000;-0.923879;0.382684;,
  -0.000000;-0.923879;0.382684;,
  0.000000;-0.923880;0.382683;,
  -0.000019;0.917066;-0.398736;,
  0.000000;0.917058;-0.398753;,
  0.000000;0.917062;-0.398745;,
  -0.000009;0.917053;-0.398765;,
  0.000000;0.917057;-0.398757;,
  0.000009;0.917053;-0.398765;,
  0.000019;0.917066;-0.398736;,
  0.000000;-0.917056;0.398758;,
  -0.000002;-0.917055;0.398760;,
  0.000000;-0.917057;0.398756;,
  0.000004;-0.917061;0.398746;,
  0.000000;-0.917063;0.398742;,
  -0.000004;-0.917061;0.398746;,
  0.000002;-0.917055;0.398760;,
  0.000010;0.917060;-0.398749;,
  0.000000;0.917064;-0.398740;,
  0.000000;0.917060;-0.398750;,
  -0.000003;0.917064;-0.398739;,
  -0.000000;0.917066;-0.398736;,
  0.000004;0.917065;-0.398738;,
  0.000002;0.917060;-0.398750;,
  -0.000009;0.917060;-0.398750;,
  0.000000;-0.917050;0.398771;,
  0.000020;-0.917059;0.398752;,
  0.000000;-0.917074;0.398717;,
  -0.000017;-0.917075;0.398716;,
  -0.000000;-0.917068;0.398732;,
  0.000017;-0.917075;0.398716;,
  -0.000020;-0.917059;0.398752;,
  -0.000003;0.917054;-0.398764;,
  -0.000000;0.917053;-0.398766;,
  0.000000;0.917061;-0.398748;,
  -0.000003;0.917068;-0.398732;,
  -0.000000;0.917069;-0.398729;,
  0.000003;0.917068;-0.398732;,
  0.000000;0.917061;-0.398748;,
  0.000003;0.917054;-0.398764;,
  0.000000;-0.917063;0.398742;,
  0.000006;-0.917066;0.398736;,
  0.000000;-0.917059;0.398751;,
  0.000002;-0.917051;0.398770;,
  0.000000;-0.917052;0.398769;,
  -0.000002;-0.917051;0.398771;,
  -0.000006;-0.917066;0.398736;,
  0.000000;0.907598;0.419841;,
  -0.643210;0.000000;0.765690;,
  0.643210;0.000000;0.765690;,
  0.342279;0.000000;0.939598;,
  0.000000;0.989149;0.146916;,
  -0.000002;0.000002;-1.000000;,
  -0.000000;0.000000;-1.000000;,
  0.000000;0.000001;-1.000000;,
  -0.000001;-0.000001;-1.000000;,
  -0.000000;0.000000;-1.000000;,
  0.000001;-0.000001;-1.000000;,
  0.000000;0.000001;-1.000000;,
  0.000002;0.000002;-1.000000;,
  -0.000000;0.000000;1.000000;,
  -0.000002;0.000002;1.000000;,
  0.000000;-0.000001;1.000000;,
  -0.000003;-0.000003;1.000000;,
  -0.000000;0.000000;1.000000;,
  0.000003;-0.000003;1.000000;,
  0.000000;-0.000001;1.000000;,
  0.000002;0.000002;1.000000;,
  -0.000002;0.000002;-1.000000;,
  0.000000;0.000000;-1.000000;,
  -0.000001;-0.000001;-1.000000;,
  0.000000;0.000000;-1.000000;,
  0.000001;-0.000001;-1.000000;,
  0.000002;0.000002;-1.000000;,
  0.000000;0.000000;1.000000;,
  -0.000002;0.000002;1.000000;,
  0.000000;-0.000001;1.000000;,
  -0.000003;-0.000003;1.000000;,
  0.000000;0.000000;1.000000;,
  0.000003;-0.000003;1.000000;,
  0.000002;0.000002;1.000000;;
  447;
  4;0,1,3,2;,
  4;4,5,7,6;,
  4;8,9,11,10;,
  4;16,17,19,18;,
  4;20,21,23,22;,
  4;2,3,25,24;,
  4;24,25,27,26;,
  4;26,27,29,28;,
  4;28,29,5,4;,
  4;30,31,9,8;,
  4;32,33,31,30;,
  4;34,35,33,32;,
  4;6,7,35,34;,
  4;36,37,1,0;,
  4;38,39,37,36;,
  4;40,41,39,38;,
  4;14,15,41,40;,
  4;10,11,43,42;,
  4;42,43,45,44;,
  4;44,45,47,46;,
  4;46,47,13,12;,
  4;3,1,48,49;,
  4;49,48,50,51;,
  4;51,50,52,53;,
  4;53,52,16,18;,
  4;11,9,55,54;,
  4;54,55,57,56;,
  4;56,57,59,58;,
  4;58,59,19,17;,
  4;0,2,61,60;,
  4;60,61,63,62;,
  4;62,63,65,64;,
  4;64,65,23,21;,
  4;8,10,66,67;,
  4;67,66,68,69;,
  4;69,68,70,71;,
  4;71,70,20,22;,
  4;7,5,73,72;,
  4;72,73,75,74;,
  4;74,75,77,76;,
  4;76,77,18,19;,
  4;15,13,78,79;,
  4;79,78,80,81;,
  4;81,80,82,83;,
  4;83,82,17,16;,
  4;4,6,84,85;,
  4;85,84,86,87;,
  4;87,86,88,89;,
  4;89,88,22,23;,
  4;12,14,91,90;,
  4;90,91,93,92;,
  4;92,93,95,94;,
  4;94,95,21,20;,
  3;3,49,25;,
  3;49,51,96;,
  3;96,25,49;,
  3;25,96,27;,
  3;51,53,97;,
  3;97,96,51;,
  3;96,97,98;,
  3;98,27,96;,
  3;27,98,29;,
  3;53,18,77;,
  3;77,97,53;,
  3;97,77,75;,
  3;75,98,97;,
  3;98,75,73;,
  3;73,29,98;,
  3;29,73,5;,
  3;24,61,2;,
  3;99,63,61;,
  3;61,24,99;,
  3;26,99,24;,
  3;100,65,63;,
  3;63,99,100;,
  3;101,100,99;,
  3;99,26,101;,
  3;28,101,26;,
  3;89,23,65;,
  3;65,100,89;,
  3;87,89,100;,
  3;100,101,87;,
  3;85,87,101;,
  3;101,28,85;,
  3;4,85,28;,
  3;31,55,9;,
  3;102,57,55;,
  3;55,31,102;,
  3;33,102,31;,
  3;103,59,57;,
  3;57,102,103;,
  3;104,103,102;,
  3;102,33,104;,
  3;35,104,33;,
  3;76,19,59;,
  3;59,103,76;,
  3;74,76,103;,
  3;103,104,74;,
  3;72,74,104;,
  3;104,35,72;,
  3;7,72,35;,
  3;37,48,1;,
  3;105,50,48;,
  3;48,37,105;,
  3;39,105,37;,
  3;106,52,50;,
  3;50,105,106;,
  3;107,106,105;,
  3;105,39,107;,
  3;41,107,39;,
  3;83,16,52;,
  3;52,106,83;,
  3;81,83,106;,
  3;106,107,81;,
  3;79,81,107;,
  3;107,41,79;,
  3;15,79,41;,
  3;8,67,30;,
  3;67,69,108;,
  3;108,30,67;,
  3;30,108,32;,
  3;69,71,109;,
  3;109,108,69;,
  3;108,109,110;,
  3;110,32,108;,
  3;32,110,34;,
  3;71,22,88;,
  3;88,109,71;,
  3;109,88,86;,
  3;86,110,109;,
  3;110,86,84;,
  3;84,34,110;,
  3;34,84,6;,
  3;11,54,43;,
  3;54,56,111;,
  3;111,43,54;,
  3;43,111,45;,
  3;56,58,112;,
  3;112,111,56;,
  3;111,112,113;,
  3;113,45,111;,
  3;45,113,47;,
  3;58,17,82;,
  3;82,112,58;,
  3;112,82,80;,
  3;80,113,112;,
  3;113,80,78;,
  3;78,47,113;,
  3;47,78,13;,
  3;0,60,36;,
  3;60,62,114;,
  3;114,36,60;,
  3;36,114,38;,
  3;62,64,115;,
  3;115,114,62;,
  3;114,115,116;,
  3;116,38,114;,
  3;38,116,40;,
  3;64,21,95;,
  3;95,115,64;,
  3;115,95,93;,
  3;93,116,115;,
  3;116,93,91;,
  3;91,40,116;,
  3;40,91,14;,
  3;42,66,10;,
  3;117,68,66;,
  3;66,42,117;,
  3;44,117,42;,
  3;118,70,68;,
  3;68,117,118;,
  3;119,118,117;,
  3;117,44,119;,
  3;46,119,44;,
  3;94,20,70;,
  3;70,118,94;,
  3;92,94,118;,
  3;118,119,92;,
  3;90,92,119;,
  3;119,46,90;,
  3;12,90,46;,
  4;120,120,120,120;,
  4;122,122,122,122;,
  4;121,121,121,121;,
  4;149,149,149,149;,
  4;126,125,150,151;,
  4;124,126,151,152;,
  4;123,124,152,153;,
  4;125,123,153,150;,
  4;125,126,124,123;,
  4;142,142,127,127;,
  4;128,129,143,144;,
  4;134,132,154,155;,
  4;135,134,155,156;,
  4;133,135,143,129;,
  4;132,133,157,154;,
  4;132,134,135,133;,
  4;130,136,158,159;,
  4;131,130,159,160;,
  4;137,131,128,144;,
  4;136,137,161,158;,
  4;136,130,131,137;,
  4;140,138,127,127;,
  4;141,140,154,157;,
  4;139,139,129,128;,
  4;138,162,160,159;,
  4;138,140,141,162;,
  4;142,142,142,142;,
  4;145,145,145,161;,
  4;120,120,144,143;,
  4;163,163,156,163;,
  4;121,121,121,121;,
  4;122,122,122,122;,
  4;164,164,149,149;,
  4;122,122,122,122;,
  4;146,146,148,148;,
  4;121,121,121,121;,
  4;165,165,146,146;,
  4;147,147,165,165;,
  4;166,166,164,164;,
  3;121,121,121;,
  3;122,122,122;,
  4;149,149,149,149;,
  4;121,121,121,121;,
  4;148,148,148,148;,
  4;122,122,122,122;,
  4;120,120,120,120;,
  4;167,169,168,168;,
  4;277,170,171,278;,
  4;172,279,280,173;,
  4;176,177,281,281;,
  4;175,176,170,277;,
  4;174,175,169,167;,
  4;177,174,167,172;,
  4;177,176,175,174;,
  4;178,178,168,168;,
  4;179,282,278,171;,
  4;283,180,173,280;,
  4;178,178,179,180;,
  4;181,181,170,172;,
  4;183,284,172,173;,
  4;285,182,171,170;,
  4;286,286,180,179;,
  3;183,173,180;,
  3;182,179,171;,
  4;184,184,181,181;,
  4;186,186,284,183;,
  4;185,185,286,286;,
  4;287,287,182,285;,
  4;184,184,288,288;,
  4;187,187,188,188;,
  4;189,189,190,190;,
  4;191,191,192,192;,
  4;289,289,290,290;,
  4;253,253,253,253;,
  4;195,195,191,191;,
  4;194,194,189,189;,
  4;193,193,187,187;,
  4;291,291,289,289;,
  4;197,197,195,195;,
  4;194,194,194,194;,
  4;196,196,193,193;,
  4;291,291,291,291;,
  4;199,199,197,197;,
  4;194,194,194,194;,
  4;198,198,196,196;,
  4;291,291,291,291;,
  4;200,200,199,199;,
  4;194,194,194,194;,
  4;202,202,198,198;,
  4;291,291,291,291;,
  4;201,201,200,200;,
  3;194,194,194;,
  3;291,291,291;,
  4;203,203,201,201;,
  3;194,194,194;,
  3;291,291,291;,
  4;205,205,203,203;,
  4;194,194,194,194;,
  4;204,204,202,202;,
  4;291,291,291,291;,
  4;207,207,205,205;,
  4;194,194,194,194;,
  4;206,206,204,204;,
  4;291,291,291,291;,
  4;209,209,207,207;,
  4;194,194,194,194;,
  4;208,208,206,206;,
  4;291,291,291,291;,
  4;292,292,292,292;,
  4;211,212,212,211;,
  4;212,213,213,212;,
  4;213,214,214,213;,
  4;214,215,215,214;,
  4;215,216,216,215;,
  4;216,217,217,216;,
  4;217,218,218,217;,
  4;218,211,211,218;,
  3;210,293,294;,
  3;210,295,293;,
  3;210,296,295;,
  3;210,297,296;,
  3;210,298,297;,
  3;210,295,298;,
  3;210,299,295;,
  3;210,294,299;,
  3;219,300,301;,
  3;219,301,302;,
  3;219,302,303;,
  3;219,303,304;,
  3;219,304,305;,
  3;219,305,302;,
  3;219,302,306;,
  3;219,306,300;,
  4;221,222,222,221;,
  4;222,223,223,222;,
  4;223,224,224,223;,
  4;224,225,225,224;,
  4;225,226,226,225;,
  4;226,227,227,226;,
  4;227,228,228,227;,
  4;228,221,221,228;,
  3;220,307,308;,
  3;220,309,307;,
  3;220,310,309;,
  3;220,311,310;,
  3;220,312,311;,
  3;220,309,312;,
  3;220,313,309;,
  3;220,308,313;,
  3;229,314,315;,
  3;229,315,316;,
  3;229,316,317;,
  3;229,317,318;,
  3;229,318,319;,
  3;229,319,316;,
  3;229,316,320;,
  3;229,320,314;,
  4;231,232,232,231;,
  4;232,233,233,232;,
  4;233,234,234,233;,
  4;234,235,235,234;,
  4;235,236,236,235;,
  4;236,237,237,236;,
  4;237,238,238,237;,
  4;238,231,231,238;,
  3;230,321,322;,
  3;230,323,321;,
  3;230,324,323;,
  3;230,325,324;,
  3;230,326,325;,
  3;230,327,326;,
  3;230,328,327;,
  3;230,322,328;,
  3;239,329,330;,
  3;239,330,331;,
  3;239,331,332;,
  3;239,332,333;,
  3;239,333,334;,
  3;239,334,331;,
  3;239,331,335;,
  3;239,335,329;,
  4;241,242,242,241;,
  4;242,243,243,242;,
  4;243,244,244,243;,
  4;244,245,245,244;,
  4;245,246,246,245;,
  4;246,247,247,246;,
  4;247,248,248,247;,
  4;248,241,241,248;,
  3;240,336,337;,
  3;240,338,336;,
  3;240,339,338;,
  3;240,340,339;,
  3;240,341,340;,
  3;240,342,341;,
  3;240,343,342;,
  3;240,337,343;,
  3;249,344,345;,
  3;249,345,346;,
  3;249,346,347;,
  3;249,347,348;,
  3;249,348,349;,
  3;249,349,346;,
  3;249,346,350;,
  3;249,350,344;,
  4;188,188,188,188;,
  4;194,255,250,194;,
  4;256,291,291,251;,
  4;253,253,253,253;,
  4;252,252,351,351;,
  4;254,352,256,251;,
  4;253,253,253,253;,
  4;353,354,250,255;,
  4;252,252,254,354;,
  4;188,188,188,188;,
  4;351,351,355,355;,
  3;256,291,291;,
  3;255,194,194;,
  4;258,259,259,258;,
  4;259,260,260,259;,
  4;260,261,261,260;,
  4;261,262,262,261;,
  4;262,263,263,262;,
  4;263,264,264,263;,
  4;264,265,265,264;,
  4;265,258,258,265;,
  3;257,356,357;,
  3;257,358,356;,
  3;257,359,358;,
  3;257,360,359;,
  3;257,361,360;,
  3;257,362,361;,
  3;257,363,362;,
  3;257,357,363;,
  3;266,364,365;,
  3;266,365,366;,
  3;266,366,367;,
  3;266,367,368;,
  3;266,368,369;,
  3;266,369,370;,
  3;266,370,371;,
  3;266,371,364;,
  4;268,269,269,268;,
  4;269,270,270,269;,
  4;270,271,271,270;,
  4;271,272,272,271;,
  4;272,273,273,272;,
  4;273,274,274,273;,
  4;274,275,275,274;,
  4;275,268,268,275;,
  3;267,372,373;,
  3;267,362,372;,
  3;267,374,362;,
  3;267,375,374;,
  3;267,376,375;,
  3;267,358,376;,
  3;267,377,358;,
  3;267,373,377;,
  3;276,378,379;,
  3;276,379,380;,
  3;276,380,381;,
  3;276,381,382;,
  3;276,382,383;,
  3;276,383,370;,
  3;276,370,384;,
  3;276,384,378;;
 }
}
