xof 0302txt 0064
template Header {
 <3D82AB43-62DA-11cf-AB39-0020AF71E433>
 WORD major;
 WORD minor;
 DWORD flags;
}

template Vector {
 <3D82AB5E-62DA-11cf-AB39-0020AF71E433>
 FLOAT x;
 FLOAT y;
 FLOAT z;
}

template Coords2d {
 <F6F23F44-7686-11cf-8F52-0040333594A3>
 FLOAT u;
 FLOAT v;
}

template Matrix4x4 {
 <F6F23F45-7686-11cf-8F52-0040333594A3>
 array FLOAT matrix[16];
}

template ColorRGBA {
 <35FF44E0-6C7C-11cf-8F52-0040333594A3>
 FLOAT red;
 FLOAT green;
 FLOAT blue;
 FLOAT alpha;
}

template ColorRGB {
 <D3E16E81-7835-11cf-8F52-0040333594A3>
 FLOAT red;
 FLOAT green;
 FLOAT blue;
}

template IndexedColor {
 <1630B820-7842-11cf-8F52-0040333594A3>
 DWORD index;
 ColorRGBA indexColor;
}

template Boolean {
 <4885AE61-78E8-11cf-8F52-0040333594A3>
 WORD truefalse;
}

template Boolean2d {
 <4885AE63-78E8-11cf-8F52-0040333594A3>
 Boolean u;
 Boolean v;
}

template MaterialWrap {
 <4885AE60-78E8-11cf-8F52-0040333594A3>
 Boolean u;
 Boolean v;
}

template TextureFilename {
 <A42790E1-7810-11cf-8F52-0040333594A3>
 STRING filename;
}

template Material {
 <3D82AB4D-62DA-11cf-AB39-0020AF71E433>
 ColorRGBA faceColor;
 FLOAT power;
 ColorRGB specularColor;
 ColorRGB emissiveColor;
 [...]
}

template MeshFace {
 <3D82AB5F-62DA-11cf-AB39-0020AF71E433>
 DWORD nFaceVertexIndices;
 array DWORD faceVertexIndices[nFaceVertexIndices];
}

template MeshFaceWraps {
 <4885AE62-78E8-11cf-8F52-0040333594A3>
 DWORD nFaceWrapValues;
 Boolean2d faceWrapValues;
}

template MeshTextureCoords {
 <F6F23F40-7686-11cf-8F52-0040333594A3>
 DWORD nTextureCoords;
 array Coords2d textureCoords[nTextureCoords];
}

template MeshMaterialList {
 <F6F23F42-7686-11cf-8F52-0040333594A3>
 DWORD nMaterials;
 DWORD nFaceIndexes;
 array DWORD faceIndexes[nFaceIndexes];
 [Material]
}

template MeshNormals {
 <F6F23F43-7686-11cf-8F52-0040333594A3>
 DWORD nNormals;
 array Vector normals[nNormals];
 DWORD nFaceNormals;
 array MeshFace faceNormals[nFaceNormals];
}

template MeshVertexColors {
 <1630B821-7842-11cf-8F52-0040333594A3>
 DWORD nVertexColors;
 array IndexedColor vertexColors[nVertexColors];
}

template Mesh {
 <3D82AB44-62DA-11cf-AB39-0020AF71E433>
 DWORD nVertices;
 array Vector vertices[nVertices];
 DWORD nFaces;
 array MeshFace faces[nFaces];
 [...]
}

Header{
1;
0;
1;
}

Mesh {
 143;
 -2.32735;143.27769;-2.33950;,
 9.79890;139.86121;-6.27955;,
 -2.32735;139.86121;-15.08980;,
 5.16710;139.86121;7.97575;,
 -17.96825;139.86121;7.97575;,
 -22.60005;139.86121;-6.27955;,
 23.30645;130.52734;-9.16390;,
 -2.32735;130.52734;-24.42370;,
 10.65340;130.52734;15.52705;,
 -23.45455;130.52734;15.52705;,
 -31.47710;130.52734;-9.16390;,
 26.55565;121.85100;-10.21960;,
 -2.32735;121.85100;-27.84015;,
 12.66155;121.85100;18.29100;,
 -25.46270;121.85100;18.29100;,
 -34.72635;121.85100;-10.21960;,
 25.63380;109.10070;-9.16390;,
 0.00000;109.10070;-24.42370;,
 12.98080;109.10070;15.52705;,
 -21.12720;109.10070;15.52705;,
 -29.14975;109.10070;-9.16390;,
 -7.49445;99.76680;7.97575;,
 7.49445;99.76680;7.97575;,
 -12.12630;99.76680;-6.27955;,
 -7.58525;92.15815;-15.08980;,
 -11.99010;88.74175;-2.33950;,
 21.09150;97.62805;-10.14640;,
 -3.84560;97.69790;-21.85970;,
 -5.90315;87.57485;-12.79640;,
 6.74705;87.53995;-6.01730;,
 10.58435;97.55820;10.99795;,
 2.63910;87.50500;4.25495;,
 -6.21620;83.36930;-2.78430;,
 -0.24110;12.25155;-75.09315;,
 53.21965;11.96480;-52.69140;,
 53.21965;0.25385;-52.69140;,
 -0.33195;0.25385;-75.31035;,
 75.26395;11.96480;0.00000;,
 75.26395;0.25385;0.00000;,
 53.46070;12.25155;53.26765;,
 53.55160;0.25385;53.48485;,
 0.24110;12.25155;75.09315;,
 -53.21965;11.96480;52.69140;,
 -53.21965;0.25385;52.69140;,
 0.33195;0.25385;75.31035;,
 -75.26395;11.96480;0.00000;,
 -75.26395;0.25385;0.00000;,
 -53.46075;12.25155;-53.26765;,
 -53.55160;0.25385;-53.48485;,
 0.00000;0.25385;0.00000;,
 -0.16680;21.23280;-54.81710;,
 39.45560;20.65935;-38.48380;,
 55.79860;20.65935;0.00000;,
 39.62235;21.23280;38.87660;,
 0.16680;21.23280;54.81710;,
 -39.45560;20.65935;38.48375;,
 -55.79860;20.65935;0.00000;,
 -39.62235;21.23280;-38.87660;,
 0.00000;32.53045;-54.42430;,
 39.45560;32.53045;-38.48380;,
 0.00000;32.53045;0.00000;,
 55.79860;32.53045;0.00000;,
 39.45560;32.53045;38.48380;,
 0.00000;32.53045;54.42430;,
 -39.45560;32.53045;38.48375;,
 -55.79860;32.53045;0.00000;,
 -39.45560;32.53045;-38.48375;,
 -3.98300;0.35760;-84.03725;,
 -2.90750;15.44295;-81.46655;,
 -57.20265;0.35760;-62.21175;,
 -56.12710;15.44295;-59.64100;,
 -2.03425;27.51185;-59.21450;,
 -41.48980;27.51185;-43.27395;,
 3.98300;0.35760;84.03725;,
 2.90750;15.44295;81.46655;,
 57.20265;0.35760;62.21180;,
 56.12710;15.44295;59.64105;,
 2.03425;27.51185;59.21450;,
 41.48980;27.51185;43.27395;,
 -0.24110;231.94530;-75.09315;,
 -0.33195;243.94305;-75.31035;,
 53.21965;243.94305;-52.69140;,
 53.21965;232.23206;-52.69140;,
 75.26395;243.94305;0.00000;,
 75.26395;232.23206;0.00000;,
 53.55160;243.94305;53.48485;,
 53.46070;231.94530;53.26765;,
 0.24110;231.94530;75.09315;,
 0.33195;243.94305;75.31035;,
 -53.21965;243.94305;52.69140;,
 -53.21965;232.23206;52.69140;,
 -75.26395;243.94305;0.00000;,
 -75.26395;232.23206;0.00000;,
 -53.55160;243.94305;-53.48485;,
 -53.46075;231.94530;-53.26765;,
 0.00000;243.94305;0.00000;,
 -0.16680;222.96405;-54.81710;,
 39.45560;223.53751;-38.48380;,
 55.79860;223.53751;0.00000;,
 39.62235;222.96405;38.87660;,
 0.16680;222.96405;54.81710;,
 -39.45560;223.53751;38.48375;,
 -55.79860;223.53751;0.00000;,
 -39.62235;222.96405;-38.87660;,
 0.00000;211.66644;-54.42430;,
 39.45560;211.66644;-38.48380;,
 0.00000;211.66644;0.00000;,
 55.79860;211.66644;0.00000;,
 39.45560;211.66644;38.48380;,
 0.00000;211.66644;54.42430;,
 -39.45560;211.66644;38.48375;,
 -55.79860;211.66644;0.00000;,
 -39.45560;211.66644;-38.48375;,
 -3.98300;243.83925;-84.03725;,
 -2.90750;228.75391;-81.46655;,
 -57.20265;243.83925;-62.21175;,
 -56.12710;228.75391;-59.64100;,
 -2.03425;216.68504;-59.21450;,
 -41.48980;216.68504;-43.27395;,
 3.98300;243.83925;84.03725;,
 2.90750;228.75391;81.46655;,
 57.20265;243.83925;62.21180;,
 56.12710;228.75391;59.64105;,
 2.03425;216.68504;59.21450;,
 41.48980;216.68504;43.27395;,
 0.00000;211.87590;-51.51880;,
 36.42930;211.87590;-36.42930;,
 36.42930;32.63860;-36.42930;,
 0.00000;32.63860;-51.51880;,
 51.51880;211.87590;0.00000;,
 51.51880;32.63860;0.00000;,
 36.42930;211.87590;36.42930;,
 36.42930;32.63860;36.42930;,
 0.00000;211.87590;51.51880;,
 0.00000;32.63860;51.51880;,
 -36.42930;211.87590;36.42930;,
 -36.42930;32.63860;36.42930;,
 -51.51880;211.87590;0.00000;,
 -51.51880;32.63860;0.00000;,
 -36.42930;211.87590;-36.42930;,
 -36.42930;32.63860;-36.42930;,
 0.00000;211.87590;0.00000;,
 0.00000;32.63860;0.00000;;
 
 164;
 3;0,1,2;,
 3;0,3,1;,
 3;0,4,3;,
 3;0,5,4;,
 3;0,2,5;,
 4;2,1,6,7;,
 4;1,3,8,6;,
 4;3,4,9,8;,
 4;4,5,10,9;,
 4;5,2,7,10;,
 4;7,6,11,12;,
 4;6,8,13,11;,
 4;8,9,14,13;,
 4;9,10,15,14;,
 4;10,7,12,15;,
 4;12,11,16,17;,
 4;11,13,18,16;,
 4;13,14,19,18;,
 4;14,15,20,19;,
 4;15,12,17,20;,
 4;18,19,21,22;,
 4;19,20,23,21;,
 4;20,17,24,23;,
 3;22,21,25;,
 3;21,23,25;,
 3;23,24,25;,
 4;26,27,17,16;,
 4;27,28,24,17;,
 4;27,26,29,28;,
 4;30,26,16,18;,
 4;31,30,18,22;,
 4;26,30,31,29;,
 4;28,32,25,24;,
 3;28,29,32;,
 4;32,31,22,25;,
 3;29,31,32;,
 4;33,34,35,36;,
 4;34,37,38,35;,
 4;37,39,40,38;,
 4;41,42,43,44;,
 4;42,45,46,43;,
 4;45,47,48,46;,
 3;49,36,35;,
 3;49,35,38;,
 3;49,38,40;,
 3;49,40,44;,
 3;49,44,43;,
 3;49,43,46;,
 3;49,46,48;,
 3;49,48,36;,
 4;50,51,34,33;,
 4;51,52,37,34;,
 4;52,53,39,37;,
 4;54,55,42,41;,
 4;55,56,45,42;,
 4;56,57,47,45;,
 4;58,59,51,50;,
 3;60,59,58;,
 4;59,61,52,51;,
 3;60,61,59;,
 4;61,62,53,52;,
 3;60,62,61;,
 4;62,63,54,53;,
 3;60,63,62;,
 4;63,64,55,54;,
 3;60,64,63;,
 4;64,65,56,55;,
 3;60,65,64;,
 4;65,66,57,56;,
 3;60,66,65;,
 4;66,58,50,57;,
 3;60,58,66;,
 4;67,68,33,36;,
 4;69,67,36,48;,
 4;70,69,48,47;,
 4;70,68,67,69;,
 4;71,72,57,50;,
 4;68,71,50,33;,
 4;72,70,47,57;,
 4;72,71,68,70;,
 4;73,74,41,44;,
 4;75,73,44,40;,
 4;76,75,40,39;,
 4;76,74,73,75;,
 4;77,78,53,54;,
 4;74,77,54,41;,
 4;78,76,39,53;,
 4;78,77,74,76;,
 4;79,80,81,82;,
 4;82,81,83,84;,
 4;84,83,85,86;,
 4;87,88,89,90;,
 4;90,89,91,92;,
 4;92,91,93,94;,
 3;95,81,80;,
 3;95,83,81;,
 3;95,85,83;,
 3;95,88,85;,
 3;95,89,88;,
 3;95,91,89;,
 3;95,93,91;,
 3;95,80,93;,
 4;96,79,82,97;,
 4;97,82,84,98;,
 4;98,84,86,99;,
 4;100,87,90,101;,
 4;101,90,92,102;,
 4;102,92,94,103;,
 4;104,96,97,105;,
 3;106,104,105;,
 4;105,97,98,107;,
 3;106,105,107;,
 4;107,98,99,108;,
 3;106,107,108;,
 4;108,99,100,109;,
 3;106,108,109;,
 4;109,100,101,110;,
 3;106,109,110;,
 4;110,101,102,111;,
 3;106,110,111;,
 4;111,102,103,112;,
 3;106,111,112;,
 4;112,103,96,104;,
 3;106,112,104;,
 4;113,80,79,114;,
 4;115,93,80,113;,
 4;116,94,93,115;,
 4;116,115,113,114;,
 4;117,96,103,118;,
 4;114,79,96,117;,
 4;118,103,94,116;,
 4;118,116,114,117;,
 4;119,88,87,120;,
 4;121,85,88,119;,
 4;122,86,85,121;,
 4;122,121,119,120;,
 4;123,100,99,124;,
 4;120,87,100,123;,
 4;124,99,86,122;,
 4;124,122,120,123;,
 4;125,126,127,128;,
 4;126,129,130,127;,
 4;129,131,132,130;,
 4;131,133,134,132;,
 4;133,135,136,134;,
 4;135,137,138,136;,
 4;137,139,140,138;,
 4;139,125,128,140;,
 3;141,126,125;,
 3;141,129,126;,
 3;141,131,129;,
 3;141,133,131;,
 3;141,135,133;,
 3;141,137,135;,
 3;141,139,137;,
 3;141,125,139;,
 3;142,128,127;,
 3;142,127,130;,
 3;142,130,132;,
 3;142,132,134;,
 3;142,134,136;,
 3;142,136,138;,
 3;142,138,140;,
 3;142,140,128;;
 
 MeshMaterialList {
  4;
  164;
  2,
  2,
  2,
  2,
  2,
  2,
  2,
  2,
  2,
  2,
  2,
  2,
  2,
  2,
  2,
  2,
  2,
  2,
  2,
  2,
  2,
  2,
  2,
  2,
  2,
  2,
  2,
  2,
  2,
  2,
  2,
  2,
  2,
  2,
  2,
  2,
  0,
  0,
  0,
  0,
  0,
  0,
  0,
  0,
  0,
  0,
  0,
  0,
  0,
  0,
  0,
  0,
  0,
  0,
  0,
  0,
  0,
  0,
  0,
  0,
  0,
  0,
  0,
  0,
  0,
  0,
  0,
  0,
  0,
  0,
  0,
  0,
  1,
  0,
  1,
  1,
  0,
  1,
  1,
  1,
  1,
  0,
  1,
  1,
  0,
  1,
  1,
  1,
  0,
  0,
  0,
  0,
  0,
  0,
  0,
  0,
  0,
  0,
  0,
  0,
  0,
  0,
  0,
  0,
  0,
  0,
  0,
  0,
  0,
  0,
  0,
  0,
  0,
  0,
  0,
  0,
  0,
  0,
  0,
  0,
  0,
  0,
  0,
  0,
  1,
  0,
  1,
  1,
  0,
  1,
  1,
  1,
  1,
  0,
  1,
  1,
  0,
  1,
  1,
  1,
  3,
  3,
  3,
  3,
  3,
  3,
  3,
  3,
  3,
  3,
  3,
  3,
  3,
  3,
  3,
  3,
  3,
  3,
  3,
  3,
  3,
  3,
  3,
  3;;
  Material {
   0.047200;0.047200;0.047200;1.000000;;
   12.000000;
   0.620000;0.620000;0.620000;;
   0.000000;0.000000;0.000000;;
  }
  Material {
   0.605600;0.605600;0.605600;1.000000;;
   5.000000;
   0.400000;0.400000;0.400000;;
   0.000000;0.000000;0.000000;;
  }
  Material {
   0.800000;0.429600;0.455200;1.000000;;
   5.000000;
   0.000000;0.000000;0.000000;;
   0.000000;0.000000;0.000000;;
  }
  Material {
   0.251200;0.615200;0.568000;0.750000;;
   5.000000;
   0.000000;0.000000;0.000000;;
   0.147580;0.361430;0.333700;;
  }
 }
 MeshNormals {
  160;
  0.040735;0.999131;-0.008878;,
  0.039593;0.868030;-0.494931;,
  0.426896;0.893692;-0.138110;,
  0.263063;0.878753;0.398235;,
  -0.254632;0.886572;0.386203;,
  -0.385146;0.903882;-0.186170;,
  0.032915;0.539147;-0.841568;,
  0.754568;0.614645;-0.229866;,
  0.439728;0.558851;0.703082;,
  -0.489182;0.554408;0.673300;,
  -0.837213;0.474423;0.272026;,
  0.031162;0.058587;-0.997796;,
  0.513899;0.093890;-0.852697;,
  0.887102;0.128399;0.443354;,
  0.000000;0.047445;0.998874;,
  -0.950573;-0.031886;0.308859;,
  -0.234009;-0.289933;-0.927997;,
  0.485665;-0.174940;-0.856461;,
  0.874960;-0.204068;0.439091;,
  -0.190140;-0.650452;0.735363;,
  -0.787400;-0.612017;-0.073734;,
  -0.803670;-0.326842;-0.497281;,
  -0.306814;-0.450148;0.838589;,
  -0.178268;-0.779480;0.600526;,
  -0.793068;-0.519804;-0.317564;,
  -0.215466;-0.515383;0.829430;,
  0.405970;-0.470444;-0.783499;,
  0.753470;-0.550367;0.359694;,
  -0.786316;-0.388193;-0.480639;,
  0.412443;-0.894799;-0.170956;,
  -0.575117;-0.171813;0.799826;,
  -0.077311;-0.967861;-0.239307;,
  -0.399617;0.474572;-0.784275;,
  -0.470836;0.006976;-0.882193;,
  -0.262765;-0.322691;0.909299;,
  -0.885943;-0.363650;0.287860;,
  -0.450758;-0.288902;-0.844602;,
  -0.946459;0.098209;0.307524;,
  -0.960793;-0.233205;-0.149973;,
  -0.800647;-0.163802;-0.576310;,
  0.267933;-0.808089;-0.524599;,
  -0.710287;-0.031458;0.703209;,
  0.493736;-0.843978;0.209584;,
  -0.412740;-0.304041;0.858606;,
  0.833953;0.104837;-0.541785;,
  0.707808;0.003708;-0.706396;,
  0.999982;0.003740;-0.004589;,
  0.973309;0.097287;-0.207859;,
  -0.833953;0.104837;0.541785;,
  -0.707808;0.003708;0.706396;,
  -0.999982;0.003739;0.004590;,
  -0.973309;0.097287;0.207858;,
  0.707808;0.003709;-0.706395;,
  0.999982;0.003742;-0.004589;,
  -0.707808;0.003709;0.706395;,
  -0.999982;0.003740;0.004589;,
  0.000000;-1.000000;-0.000000;,
  0.172441;0.903112;-0.393260;,
  0.289913;0.913764;-0.284582;,
  0.409146;0.912456;-0.004849;,
  0.407308;0.899341;0.159016;,
  -0.172441;0.903112;0.393260;,
  -0.289535;0.913936;0.284411;,
  -0.408765;0.912628;0.004685;,
  -0.407307;0.899341;-0.159016;,
  0.000000;1.000000;0.000000;,
  0.001974;0.027519;-0.999619;,
  0.702157;0.007166;-0.711986;,
  0.999971;0.007319;-0.001933;,
  0.702031;0.027743;0.711606;,
  -0.001975;0.027518;0.999619;,
  -0.702157;0.007166;0.711986;,
  -0.999971;0.007319;0.001934;,
  -0.702031;0.027745;-0.711605;,
  0.950484;0.140773;-0.277062;,
  -0.869022;0.130298;0.477309;,
  0.922520;0.000000;-0.385951;,
  -0.004161;-0.999940;-0.010147;,
  0.298132;0.605457;0.737929;,
  0.869022;0.130298;-0.477309;,
  -0.950484;0.140773;0.277062;,
  0.004161;-0.999940;0.010147;,
  -0.922520;0.000000;0.385951;,
  -0.298132;0.605457;-0.737929;,
  0.833953;-0.104838;-0.541785;,
  0.707808;-0.003708;-0.706396;,
  0.999982;-0.003740;-0.004589;,
  0.973309;-0.097288;-0.207858;,
  -0.833953;-0.104838;0.541785;,
  -0.707808;-0.003708;0.706396;,
  -0.999982;-0.003739;0.004590;,
  -0.973309;-0.097287;0.207858;,
  0.707808;-0.003709;-0.706395;,
  0.999982;-0.003742;-0.004589;,
  -0.707808;-0.003709;0.706395;,
  -0.999982;-0.003740;0.004589;,
  0.172441;-0.903112;-0.393260;,
  0.289913;-0.913764;-0.284582;,
  0.409146;-0.912456;-0.004849;,
  0.407308;-0.899341;0.159016;,
  -0.172441;-0.903112;0.393260;,
  -0.289535;-0.913936;0.284411;,
  -0.408765;-0.912628;0.004685;,
  -0.407307;-0.899341;-0.159015;,
  0.001974;-0.027520;-0.999619;,
  0.702157;-0.007166;-0.711986;,
  0.999971;-0.007319;-0.001933;,
  0.702031;-0.027743;0.711606;,
  -0.001975;-0.027518;0.999619;,
  -0.702157;-0.007166;0.711986;,
  -0.999971;-0.007319;0.001934;,
  -0.702031;-0.027745;-0.711605;,
  0.950484;-0.140774;-0.277061;,
  -0.869022;-0.130298;0.477309;,
  0.922520;-0.000001;-0.385950;,
  -0.004163;0.999940;-0.010152;,
  0.298131;-0.605460;0.737927;,
  0.869022;-0.130298;-0.477309;,
  -0.950484;-0.140774;0.277061;,
  0.004163;0.999940;0.010152;,
  -0.922520;-0.000001;0.385950;,
  -0.298131;-0.605460;-0.737927;,
  -0.001387;-0.999993;-0.003382;,
  0.001387;-0.999993;0.003382;,
  -0.922520;0.000001;0.385949;,
  -0.309438;0.576252;-0.756427;,
  -0.373122;0.181647;-0.909826;,
  0.947600;0.276977;-0.159180;,
  -0.791029;0.256922;0.555215;,
  -0.189033;0.865230;-0.464375;,
  0.922520;0.000002;-0.385950;,
  0.309437;0.576252;0.756427;,
  0.373122;0.181647;0.909827;,
  -0.947600;0.276977;0.159180;,
  0.791030;0.256920;-0.555215;,
  0.189033;0.865230;0.464375;,
  -0.001388;0.999993;-0.003384;,
  0.001388;0.999993;0.003384;,
  -0.922520;-0.000001;0.385949;,
  -0.309519;-0.575919;-0.756647;,
  -0.373122;-0.181647;-0.909826;,
  0.947599;-0.276978;-0.159180;,
  -0.791029;-0.256923;0.555215;,
  -0.189287;-0.864821;-0.465032;,
  0.922520;-0.000002;-0.385950;,
  0.309519;-0.575919;0.756647;,
  0.373122;-0.181647;0.909827;,
  -0.947599;-0.276978;0.159180;,
  0.791030;-0.256921;-0.555215;,
  0.189287;-0.864821;0.465032;,
  0.000000;1.000000;0.000000;,
  0.000000;0.000000;-1.000000;,
  0.707107;0.000000;-0.707107;,
  1.000000;0.000000;0.000000;,
  0.707107;0.000000;0.707107;,
  0.000000;0.000000;1.000000;,
  -0.707107;0.000000;0.707107;,
  -1.000000;0.000000;0.000000;,
  -0.707107;0.000000;-0.707107;,
  0.000000;-1.000000;-0.000000;;
  164;
  3;0,2,1;,
  3;0,3,2;,
  3;0,4,3;,
  3;0,5,4;,
  3;0,1,5;,
  4;1,2,7,6;,
  4;2,3,8,7;,
  4;3,4,9,8;,
  4;4,5,10,9;,
  4;5,1,6,32;,
  4;6,7,12,11;,
  4;7,8,13,13;,
  4;8,9,14,14;,
  4;9,10,15,15;,
  4;32,6,11,33;,
  4;11,12,17,16;,
  4;13,13,18,18;,
  4;14,14,19,34;,
  4;15,15,20,35;,
  4;33,11,16,36;,
  4;34,19,23,22;,
  4;19,20,24,23;,
  4;20,16,21,24;,
  3;22,23,25;,
  3;37,37,38;,
  3;24,21,38;,
  4;26,26,16,17;,
  4;39,28,21,16;,
  4;26,26,29,40;,
  4;27,27,18,18;,
  4;30,41,34,22;,
  4;27,27,42,29;,
  4;28,31,38,21;,
  3;40,29,31;,
  4;43,30,22,25;,
  3;29,42,31;,
  4;44,45,45,52;,
  4;45,46,46,45;,
  4;46,47,53,46;,
  4;48,49,49,54;,
  4;49,50,50,49;,
  4;50,51,55,50;,
  3;56,122,56;,
  3;56,56,56;,
  3;56,56,123;,
  3;56,123,123;,
  3;56,123,56;,
  3;56,56,56;,
  3;56,56,122;,
  3;56,122,122;,
  4;57,58,58,57;,
  4;58,59,59,58;,
  4;59,60,60,59;,
  4;61,62,62,61;,
  4;62,63,63,62;,
  4;63,64,64,63;,
  4;66,67,67,66;,
  3;65,65,65;,
  4;67,68,68,67;,
  3;65,65,65;,
  4;68,69,69,68;,
  3;65,65,65;,
  4;69,70,70,69;,
  3;65,65,65;,
  4;70,71,71,70;,
  3;65,65,65;,
  4;71,72,72,71;,
  3;65,65,65;,
  4;72,73,73,72;,
  3;65,65,65;,
  4;73,66,66,73;,
  3;65,65,65;,
  4;76,74,44,52;,
  4;77,77,122,122;,
  4;75,124,55,51;,
  4;125,125,126,126;,
  4;78,78,78,78;,
  4;74,127,127,44;,
  4;128,75,51,128;,
  4;129,129,125,125;,
  4;82,80,48,54;,
  4;81,81,123,123;,
  4;79,130,53,47;,
  4;131,131,132,132;,
  4;83,83,83,83;,
  4;80,133,133,48;,
  4;134,79,47,134;,
  4;135,135,131,131;,
  4;84,92,85,85;,
  4;85,85,86,86;,
  4;86,86,93,87;,
  4;88,94,89,89;,
  4;89,89,90,90;,
  4;90,90,95,91;,
  3;65,65,136;,
  3;65,65,65;,
  3;65,137,65;,
  3;65,137,137;,
  3;65,65,137;,
  3;65,65,65;,
  3;65,136,65;,
  3;65,136,136;,
  4;96,96,97,97;,
  4;97,97,98,98;,
  4;98,98,99,99;,
  4;100,100,101,101;,
  4;101,101,102,102;,
  4;102,102,103,103;,
  4;104,104,105,105;,
  3;56,56,56;,
  4;105,105,106,106;,
  3;56,56,56;,
  4;106,106,107,107;,
  3;56,56,56;,
  4;107,107,108,108;,
  3;56,56,56;,
  4;108,108,109,109;,
  3;56,56,56;,
  4;109,109,110,110;,
  3;56,56,56;,
  4;110,110,111,111;,
  3;56,56,56;,
  4;111,111,104,104;,
  3;56,56,56;,
  4;114,92,84,112;,
  4;115,136,136,115;,
  4;113,91,95,138;,
  4;139,140,140,139;,
  4;116,116,116,116;,
  4;112,84,141,141;,
  4;142,142,91,113;,
  4;143,139,139,143;,
  4;120,94,88,118;,
  4;119,137,137,119;,
  4;117,87,93,144;,
  4;145,146,146,145;,
  4;121,121,121,121;,
  4;118,88,147,147;,
  4;148,148,87,117;,
  4;149,145,145,149;,
  4;151,152,152,151;,
  4;152,153,153,152;,
  4;153,154,154,153;,
  4;154,155,155,154;,
  4;155,156,156,155;,
  4;156,157,157,156;,
  4;157,158,158,157;,
  4;158,151,151,158;,
  3;150,150,150;,
  3;150,150,150;,
  3;150,150,150;,
  3;150,150,150;,
  3;150,150,150;,
  3;150,150,150;,
  3;150,150,150;,
  3;150,150,150;,
  3;159,159,159;,
  3;159,159,159;,
  3;159,159,159;,
  3;159,159,159;,
  3;159,159,159;,
  3;159,159,159;,
  3;159,159,159;,
  3;159,159,159;;
 }
}
