xof 0302txt 0064
template Header {
 <3D82AB43-62DA-11cf-AB39-0020AF71E433>
 WORD major;
 WORD minor;
 DWORD flags;
}

template Vector {
 <3D82AB5E-62DA-11cf-AB39-0020AF71E433>
 FLOAT x;
 FLOAT y;
 FLOAT z;
}

template Coords2d {
 <F6F23F44-7686-11cf-8F52-0040333594A3>
 FLOAT u;
 FLOAT v;
}

template Matrix4x4 {
 <F6F23F45-7686-11cf-8F52-0040333594A3>
 array FLOAT matrix[16];
}

template ColorRGBA {
 <35FF44E0-6C7C-11cf-8F52-0040333594A3>
 FLOAT red;
 FLOAT green;
 FLOAT blue;
 FLOAT alpha;
}

template ColorRGB {
 <D3E16E81-7835-11cf-8F52-0040333594A3>
 FLOAT red;
 FLOAT green;
 FLOAT blue;
}

template IndexedColor {
 <1630B820-7842-11cf-8F52-0040333594A3>
 DWORD index;
 ColorRGBA indexColor;
}

template Boolean {
 <4885AE61-78E8-11cf-8F52-0040333594A3>
 WORD truefalse;
}

template Boolean2d {
 <4885AE63-78E8-11cf-8F52-0040333594A3>
 Boolean u;
 Boolean v;
}

template MaterialWrap {
 <4885AE60-78E8-11cf-8F52-0040333594A3>
 Boolean u;
 Boolean v;
}

template TextureFilename {
 <A42790E1-7810-11cf-8F52-0040333594A3>
 STRING filename;
}

template Material {
 <3D82AB4D-62DA-11cf-AB39-0020AF71E433>
 ColorRGBA faceColor;
 FLOAT power;
 ColorRGB specularColor;
 ColorRGB emissiveColor;
 [...]
}

template MeshFace {
 <3D82AB5F-62DA-11cf-AB39-0020AF71E433>
 DWORD nFaceVertexIndices;
 array DWORD faceVertexIndices[nFaceVertexIndices];
}

template MeshFaceWraps {
 <4885AE62-78E8-11cf-8F52-0040333594A3>
 DWORD nFaceWrapValues;
 Boolean2d faceWrapValues;
}

template MeshTextureCoords {
 <F6F23F40-7686-11cf-8F52-0040333594A3>
 DWORD nTextureCoords;
 array Coords2d textureCoords[nTextureCoords];
}

template MeshMaterialList {
 <F6F23F42-7686-11cf-8F52-0040333594A3>
 DWORD nMaterials;
 DWORD nFaceIndexes;
 array DWORD faceIndexes[nFaceIndexes];
 [Material]
}

template MeshNormals {
 <F6F23F43-7686-11cf-8F52-0040333594A3>
 DWORD nNormals;
 array Vector normals[nNormals];
 DWORD nFaceNormals;
 array MeshFace faceNormals[nFaceNormals];
}

template MeshVertexColors {
 <1630B821-7842-11cf-8F52-0040333594A3>
 DWORD nVertexColors;
 array IndexedColor vertexColors[nVertexColors];
}

template Mesh {
 <3D82AB44-62DA-11cf-AB39-0020AF71E433>
 DWORD nVertices;
 array Vector vertices[nVertices];
 DWORD nFaces;
 array MeshFace faces[nFaces];
 [...]
}

Header{
1;
0;
1;
}

Mesh {
 130;
 0.00000;0.52726;0.00000;,
 7.07107;0.52726;-7.07107;,
 0.00000;0.52726;-10.00000;,
 10.00000;0.52726;0.00000;,
 7.07107;0.52726;7.07107;,
 0.00000;0.52726;10.00000;,
 -7.07107;0.52726;7.07107;,
 -10.00000;0.52726;0.00000;,
 -7.07107;0.52726;-7.07107;,
 0.00000;-0.52726;-0.00000;,
 0.00000;-0.52726;-10.00000;,
 7.07107;-0.52726;-7.07107;,
 10.00000;-0.52726;0.00000;,
 7.07107;-0.52726;7.07107;,
 -0.00000;-0.52726;10.00000;,
 -7.07107;-0.52726;7.07107;,
 -10.00000;-0.52726;0.00000;,
 -7.07107;-0.52726;-7.07107;,
 9.22958;3.56822;-9.22958;,
 0.00000;3.56822;-13.05260;,
 0.00000;2.43178;-13.05260;,
 9.22958;2.43178;-9.22958;,
 13.05260;3.56822;0.00000;,
 13.05260;2.43178;0.00000;,
 9.22958;3.56822;9.22958;,
 9.22958;2.43178;9.22958;,
 0.00000;3.56822;13.05259;,
 0.00000;2.43178;13.05259;,
 -9.22958;3.56822;9.22958;,
 -9.22958;2.43178;9.22958;,
 -13.05260;3.56822;0.00000;,
 -13.05260;2.43178;0.00000;,
 -9.22958;3.56822;-9.22958;,
 -9.22958;2.43178;-9.22958;,
 10.71839;7.56822;-10.71839;,
 0.00000;7.56822;-15.15810;,
 0.00000;7.43178;-16.74812;,
 11.84271;7.43178;-11.84271;,
 15.15809;7.56822;0.00000;,
 16.74811;7.43178;0.00000;,
 10.71839;7.56822;10.71839;,
 11.84270;7.43178;11.84270;,
 0.00000;7.56822;15.15809;,
 0.00000;7.43178;16.74811;,
 -10.71839;7.56822;10.71839;,
 -11.84271;7.43178;11.84270;,
 -15.15809;7.56822;0.00000;,
 -16.74811;7.43178;0.00000;,
 -10.71839;7.56822;-10.71839;,
 -11.84271;7.43178;-11.84270;,
 11.02909;12.68904;-11.02909;,
 0.00000;12.68904;-15.59749;,
 0.00000;12.55260;-17.18751;,
 12.15341;12.55260;-12.15341;,
 15.59749;12.68904;0.00000;,
 17.18751;12.55260;0.00000;,
 11.02909;12.68904;11.02909;,
 12.15341;12.55260;12.15341;,
 0.00000;12.68904;15.59749;,
 0.00000;12.55260;17.18751;,
 -11.02909;12.68904;11.02909;,
 -12.15341;12.55260;12.15340;,
 -15.59749;12.68904;0.00000;,
 -17.18751;12.55260;0.00000;,
 -11.02909;12.68904;-11.02909;,
 -12.15341;12.55260;-12.15340;,
 10.23603;18.38124;-10.23603;,
 0.00000;18.38124;-14.47594;,
 0.00000;18.25714;-15.92220;,
 11.25870;18.25714;-11.25870;,
 14.47594;18.38124;0.00000;,
 15.92220;18.25714;0.00000;,
 10.23603;18.38124;10.23603;,
 11.25869;18.25714;11.25869;,
 0.00000;18.38124;14.47594;,
 0.00000;18.25714;15.92220;,
 -10.23603;18.38124;10.23603;,
 -11.25870;18.25714;11.25869;,
 -14.47594;18.38124;0.00000;,
 -15.92220;18.25714;0.00000;,
 -10.23603;18.38124;-10.23603;,
 -11.25870;18.25714;-11.25869;,
 6.12440;24.36347;-6.12440;,
 0.00000;24.36347;-8.66122;,
 0.00000;24.29176;-9.49678;,
 6.71524;24.29176;-6.71524;,
 8.66122;24.36347;0.00000;,
 9.49678;24.29176;0.00000;,
 6.12440;24.36347;6.12440;,
 6.71524;24.29176;6.71524;,
 0.00000;24.36347;8.66122;,
 0.00000;24.29176;9.49678;,
 -6.12440;24.36347;6.12440;,
 -6.71524;24.29176;6.71524;,
 -8.66122;24.36347;0.00000;,
 -9.49678;24.29176;0.00000;,
 -6.12440;24.36347;-6.12440;,
 -6.71524;24.29176;-6.71524;,
 6.40896;28.64447;-6.40896;,
 0.00000;28.64447;-9.06365;,
 0.00000;28.57383;-9.88679;,
 6.99101;28.57383;-6.99102;,
 9.06365;28.64447;0.00000;,
 9.88679;28.57383;0.00000;,
 6.40896;28.64447;6.40896;,
 6.99101;28.57383;6.99101;,
 0.00000;28.64447;9.06365;,
 0.00000;28.57383;9.88678;,
 -6.40896;28.64447;6.40896;,
 -6.99101;28.57383;6.99101;,
 -9.06365;28.64447;0.00000;,
 -9.88679;28.57383;0.00000;,
 -6.40896;28.64447;-6.40896;,
 -6.99101;28.57383;-6.99102;,
 8.77091;34.00356;-8.77091;,
 0.00000;34.00356;-12.40395;,
 0.00000;33.91153;-13.47614;,
 9.52907;33.91153;-9.52907;,
 12.40394;34.00356;0.00000;,
 13.47614;33.91153;0.00000;,
 8.77090;34.00356;8.77090;,
 9.52907;33.91153;9.52907;,
 0.00000;34.00356;12.40394;,
 0.00000;33.91153;13.47614;,
 -8.77090;34.00356;8.77090;,
 -9.52907;33.91153;9.52907;,
 -12.40394;34.00356;0.00000;,
 -13.47614;33.91153;0.00000;,
 -8.77090;34.00356;-8.77091;,
 -9.52907;33.91153;-9.52907;;
 
 136;
 3;0,1,2;,
 3;0,3,1;,
 3;0,4,3;,
 3;0,5,4;,
 3;0,6,5;,
 3;0,7,6;,
 3;0,8,7;,
 3;0,2,8;,
 3;9,10,11;,
 3;9,11,12;,
 3;9,12,13;,
 3;9,13,14;,
 3;9,14,15;,
 3;9,15,16;,
 3;9,16,17;,
 3;9,17,10;,
 4;18,19,2,1;,
 4;20,21,11,10;,
 4;22,18,1,3;,
 4;21,23,12,11;,
 4;24,22,3,4;,
 4;23,25,13,12;,
 4;26,24,4,5;,
 4;25,27,14,13;,
 4;28,26,5,6;,
 4;27,29,15,14;,
 4;30,28,6,7;,
 4;29,31,16,15;,
 4;32,30,7,8;,
 4;31,33,17,16;,
 4;19,32,8,2;,
 4;33,20,10,17;,
 4;34,35,19,18;,
 4;36,37,21,20;,
 4;38,34,18,22;,
 4;37,39,23,21;,
 4;40,38,22,24;,
 4;39,41,25,23;,
 4;42,40,24,26;,
 4;41,43,27,25;,
 4;44,42,26,28;,
 4;43,45,29,27;,
 4;46,44,28,30;,
 4;45,47,31,29;,
 4;48,46,30,32;,
 4;47,49,33,31;,
 4;35,48,32,19;,
 4;49,36,20,33;,
 4;50,51,35,34;,
 4;52,53,37,36;,
 4;54,50,34,38;,
 4;53,55,39,37;,
 4;56,54,38,40;,
 4;55,57,41,39;,
 4;58,56,40,42;,
 4;57,59,43,41;,
 4;60,58,42,44;,
 4;59,61,45,43;,
 4;62,60,44,46;,
 4;61,63,47,45;,
 4;64,62,46,48;,
 4;63,65,49,47;,
 4;51,64,48,35;,
 4;65,52,36,49;,
 4;66,67,51,50;,
 4;68,69,53,52;,
 4;70,66,50,54;,
 4;69,71,55,53;,
 4;72,70,54,56;,
 4;71,73,57,55;,
 4;74,72,56,58;,
 4;73,75,59,57;,
 4;76,74,58,60;,
 4;75,77,61,59;,
 4;78,76,60,62;,
 4;77,79,63,61;,
 4;80,78,62,64;,
 4;79,81,65,63;,
 4;67,80,64,51;,
 4;81,68,52,65;,
 4;82,83,67,66;,
 4;84,85,69,68;,
 4;86,82,66,70;,
 4;85,87,71,69;,
 4;88,86,70,72;,
 4;87,89,73,71;,
 4;90,88,72,74;,
 4;89,91,75,73;,
 4;92,90,74,76;,
 4;91,93,77,75;,
 4;94,92,76,78;,
 4;93,95,79,77;,
 4;96,94,78,80;,
 4;95,97,81,79;,
 4;83,96,80,67;,
 4;97,84,68,81;,
 4;98,99,83,82;,
 4;100,101,85,84;,
 4;102,98,82,86;,
 4;101,103,87,85;,
 4;104,102,86,88;,
 4;103,105,89,87;,
 4;106,104,88,90;,
 4;105,107,91,89;,
 4;108,106,90,92;,
 4;107,109,93,91;,
 4;110,108,92,94;,
 4;109,111,95,93;,
 4;112,110,94,96;,
 4;111,113,97,95;,
 4;99,112,96,83;,
 4;113,100,84,97;,
 4;114,115,99,98;,
 4;116,117,101,100;,
 4;115,114,117,116;,
 4;118,114,98,102;,
 4;117,119,103,101;,
 4;114,118,119,117;,
 4;120,118,102,104;,
 4;119,121,105,103;,
 4;118,120,121,119;,
 4;122,120,104,106;,
 4;121,123,107,105;,
 4;120,122,123,121;,
 4;124,122,106,108;,
 4;123,125,109,107;,
 4;122,124,125,123;,
 4;126,124,108,110;,
 4;125,127,111,109;,
 4;124,126,127,125;,
 4;128,126,110,112;,
 4;127,129,113,111;,
 4;126,128,129,127;,
 4;115,128,112,99;,
 4;129,116,100,113;,
 4;128,115,116,129;;
 
 MeshMaterialList {
  1;
  136;
  0,
  0,
  0,
  0,
  0,
  0,
  0,
  0,
  0,
  0,
  0,
  0,
  0,
  0,
  0,
  0,
  0,
  0,
  0,
  0,
  0,
  0,
  0,
  0,
  0,
  0,
  0,
  0,
  0,
  0,
  0,
  0,
  0,
  0,
  0,
  0,
  0,
  0,
  0,
  0,
  0,
  0,
  0,
  0,
  0,
  0,
  0,
  0,
  0,
  0,
  0,
  0,
  0,
  0,
  0,
  0,
  0,
  0,
  0,
  0,
  0,
  0,
  0,
  0,
  0,
  0,
  0,
  0,
  0,
  0,
  0,
  0,
  0,
  0,
  0,
  0,
  0,
  0,
  0,
  0,
  0,
  0,
  0,
  0,
  0,
  0,
  0,
  0,
  0,
  0,
  0,
  0,
  0,
  0,
  0,
  0,
  0,
  0,
  0,
  0,
  0,
  0,
  0,
  0,
  0,
  0,
  0,
  0,
  0,
  0,
  0,
  0,
  0,
  0,
  0,
  0,
  0,
  0,
  0,
  0,
  0,
  0,
  0,
  0,
  0,
  0,
  0,
  0,
  0,
  0,
  0,
  0,
  0,
  0,
  0,
  0;;
  Material {
   0.408000;0.232000;0.244800;1.000000;;
   5.000000;
   0.000000;0.000000;0.000000;;
   0.000000;0.000000;0.000000;;
  }
 }
 MeshNormals {
  138;
  0.000000;1.000000;0.000000;,
  0.000000;0.927444;0.373962;,
  -0.264431;0.927444;0.264431;,
  -0.373962;0.927444;0.000000;,
  -0.264431;0.927444;-0.264431;,
  0.000000;0.927444;-0.373962;,
  0.264431;0.927444;-0.264431;,
  0.373962;0.927444;0.000000;,
  0.264431;0.927444;0.264431;,
  0.000000;-0.929835;-0.367978;,
  0.260199;-0.929835;-0.260199;,
  0.367978;-0.929835;-0.000000;,
  0.260199;-0.929835;0.260200;,
  0.000000;-0.929834;0.367978;,
  -0.260199;-0.929835;0.260200;,
  -0.367978;-0.929835;0.000000;,
  -0.260199;-0.929835;-0.260199;,
  0.000000;-1.000000;-0.000000;,
  0.000000;0.595266;0.803529;,
  -0.568181;0.595265;0.568181;,
  -0.803529;0.595265;0.000000;,
  -0.568181;0.595265;-0.568181;,
  0.000000;0.595265;-0.803529;,
  0.568181;0.595265;-0.568181;,
  0.803529;0.595265;0.000000;,
  0.568181;0.595265;0.568181;,
  -0.000000;-0.658819;-0.752301;,
  0.531957;-0.658819;-0.531957;,
  0.752301;-0.658819;0.000000;,
  0.531957;-0.658819;0.531958;,
  0.000000;-0.658819;0.752302;,
  -0.531957;-0.658819;0.531958;,
  -0.752302;-0.658819;0.000000;,
  -0.531958;-0.658819;-0.531957;,
  0.000000;0.282728;0.959200;,
  -0.678257;0.282728;0.678257;,
  -0.959200;0.282728;0.000000;,
  -0.678257;0.282729;-0.678257;,
  0.000000;0.282729;-0.959200;,
  0.678257;0.282729;-0.678257;,
  0.959200;0.282728;0.000000;,
  0.678257;0.282728;0.678257;,
  -0.000000;-0.356689;-0.934223;,
  0.660596;-0.356689;-0.660595;,
  0.934223;-0.356689;0.000000;,
  0.660595;-0.356689;0.660595;,
  -0.000000;-0.356689;0.934223;,
  -0.660596;-0.356689;0.660595;,
  -0.934223;-0.356689;0.000000;,
  -0.660596;-0.356689;-0.660595;,
  0.000000;-0.054601;0.998508;,
  -0.706052;-0.054601;0.706052;,
  -0.998508;-0.054601;0.000000;,
  -0.706052;-0.054601;-0.706052;,
  0.000000;-0.054601;-0.998508;,
  0.706052;-0.054601;-0.706052;,
  0.998508;-0.054601;-0.000000;,
  0.706052;-0.054601;0.706052;,
  -0.000000;0.066513;-0.997786;,
  0.705541;0.066513;-0.705541;,
  0.997786;0.066512;0.000000;,
  0.705541;0.066512;0.705541;,
  -0.000000;0.066512;0.997786;,
  -0.705541;0.066512;0.705541;,
  -0.997786;0.066512;0.000000;,
  -0.705541;0.066513;-0.705541;,
  0.000000;-0.468803;0.883303;,
  -0.624589;-0.468803;0.624589;,
  -0.883303;-0.468803;0.000000;,
  -0.624589;-0.468803;-0.624589;,
  0.000000;-0.468803;-0.883303;,
  0.624589;-0.468803;-0.624589;,
  0.883303;-0.468803;-0.000000;,
  0.624589;-0.468803;0.624589;,
  -0.000000;0.499679;-0.866211;,
  0.612503;0.499679;-0.612503;,
  0.866210;0.499680;0.000000;,
  0.612503;0.499680;0.612503;,
  -0.000000;0.499679;0.866210;,
  -0.612503;0.499679;0.612503;,
  -0.866210;0.499679;0.000000;,
  -0.612503;0.499679;-0.612503;,
  0.000000;-0.340176;0.940362;,
  -0.664936;-0.340175;0.664936;,
  -0.940362;-0.340176;0.000000;,
  -0.664936;-0.340175;-0.664936;,
  0.000000;-0.340176;-0.940362;,
  0.664936;-0.340175;-0.664936;,
  0.940362;-0.340176;-0.000000;,
  0.664936;-0.340175;0.664936;,
  -0.000000;0.364122;-0.931351;,
  0.658565;0.364123;-0.658565;,
  0.931351;0.364123;0.000000;,
  0.658564;0.364123;0.658565;,
  0.000000;0.364123;0.931351;,
  -0.658564;0.364123;0.658565;,
  -0.931351;0.364123;0.000000;,
  -0.658565;0.364123;-0.658565;,
  0.000000;0.322097;0.946707;,
  -0.669423;0.322097;0.669423;,
  -0.946707;0.322097;-0.000000;,
  -0.669423;0.322096;-0.669423;,
  0.000000;0.322097;-0.946707;,
  0.669423;0.322096;-0.669423;,
  0.946707;0.322097;-0.000000;,
  0.669423;0.322097;0.669423;,
  0.000000;-0.337559;-0.941304;,
  0.665603;-0.337559;-0.665603;,
  0.941304;-0.337559;0.000000;,
  0.665603;-0.337559;0.665603;,
  0.000000;-0.337559;0.941304;,
  -0.665603;-0.337559;0.665603;,
  -0.941304;-0.337559;0.000000;,
  -0.665603;-0.337559;-0.665603;,
  0.000000;0.528959;0.848647;,
  -0.600085;0.528958;0.600084;,
  -0.848648;0.528958;-0.000000;,
  -0.600085;0.528957;-0.600085;,
  0.000000;0.528958;-0.848648;,
  0.600085;0.528957;-0.600085;,
  0.848648;0.528958;-0.000000;,
  0.600085;0.528958;0.600085;,
  0.000000;-0.558020;-0.829828;,
  0.586777;-0.558020;-0.586777;,
  0.829827;-0.558020;0.000000;,
  0.586776;-0.558021;0.586776;,
  0.000000;-0.558021;0.829827;,
  -0.586776;-0.558021;0.586776;,
  -0.829827;-0.558020;0.000000;,
  -0.586777;-0.558020;-0.586777;,
  0.000000;0.996336;-0.085520;,
  0.060472;0.996336;-0.060472;,
  0.085520;0.996337;-0.000000;,
  0.060471;0.996336;0.060471;,
  0.000000;0.996336;0.085520;,
  -0.060471;0.996336;0.060471;,
  -0.085520;0.996337;-0.000000;,
  -0.060472;0.996336;-0.060472;;
  136;
  3;0,2,1;,
  3;0,3,2;,
  3;0,4,3;,
  3;0,5,4;,
  3;0,6,5;,
  3;0,7,6;,
  3;0,8,7;,
  3;0,1,8;,
  3;17,9,10;,
  3;17,10,11;,
  3;17,11,12;,
  3;17,12,13;,
  3;17,13,14;,
  3;17,14,15;,
  3;17,15,16;,
  3;17,16,9;,
  4;19,18,1,2;,
  4;26,27,10,9;,
  4;20,19,2,3;,
  4;27,28,11,10;,
  4;21,20,3,4;,
  4;28,29,12,11;,
  4;22,21,4,5;,
  4;29,30,13,12;,
  4;23,22,5,6;,
  4;30,31,14,13;,
  4;24,23,6,7;,
  4;31,32,15,14;,
  4;25,24,7,8;,
  4;32,33,16,15;,
  4;18,25,8,1;,
  4;33,26,9,16;,
  4;35,34,18,19;,
  4;42,43,27,26;,
  4;36,35,19,20;,
  4;43,44,28,27;,
  4;37,36,20,21;,
  4;44,45,29,28;,
  4;38,37,21,22;,
  4;45,46,30,29;,
  4;39,38,22,23;,
  4;46,47,31,30;,
  4;40,39,23,24;,
  4;47,48,32,31;,
  4;41,40,24,25;,
  4;48,49,33,32;,
  4;34,41,25,18;,
  4;49,42,26,33;,
  4;51,50,34,35;,
  4;58,59,43,42;,
  4;52,51,35,36;,
  4;59,60,44,43;,
  4;53,52,36,37;,
  4;60,61,45,44;,
  4;54,53,37,38;,
  4;61,62,46,45;,
  4;55,54,38,39;,
  4;62,63,47,46;,
  4;56,55,39,40;,
  4;63,64,48,47;,
  4;57,56,40,41;,
  4;64,65,49,48;,
  4;50,57,41,34;,
  4;65,58,42,49;,
  4;67,66,50,51;,
  4;74,75,59,58;,
  4;68,67,51,52;,
  4;75,76,60,59;,
  4;69,68,52,53;,
  4;76,77,61,60;,
  4;70,69,53,54;,
  4;77,78,62,61;,
  4;71,70,54,55;,
  4;78,79,63,62;,
  4;72,71,55,56;,
  4;79,80,64,63;,
  4;73,72,56,57;,
  4;80,81,65,64;,
  4;66,73,57,50;,
  4;81,74,58,65;,
  4;83,82,66,67;,
  4;90,91,75,74;,
  4;84,83,67,68;,
  4;91,92,76,75;,
  4;85,84,68,69;,
  4;92,93,77,76;,
  4;86,85,69,70;,
  4;93,94,78,77;,
  4;87,86,70,71;,
  4;94,95,79,78;,
  4;88,87,71,72;,
  4;95,96,80,79;,
  4;89,88,72,73;,
  4;96,97,81,80;,
  4;82,89,73,66;,
  4;97,90,74,81;,
  4;99,98,82,83;,
  4;106,107,91,90;,
  4;100,99,83,84;,
  4;107,108,92,91;,
  4;101,100,84,85;,
  4;108,109,93,92;,
  4;102,101,85,86;,
  4;109,110,94,93;,
  4;103,102,86,87;,
  4;110,111,95,94;,
  4;104,103,87,88;,
  4;111,112,96,95;,
  4;105,104,88,89;,
  4;112,113,97,96;,
  4;98,105,89,82;,
  4;113,106,90,97;,
  4;115,114,98,99;,
  4;122,123,107,106;,
  4;130,131,131,130;,
  4;116,115,99,100;,
  4;123,124,108,107;,
  4;131,132,132,131;,
  4;117,116,100,101;,
  4;124,125,109,108;,
  4;132,133,133,132;,
  4;118,117,101,102;,
  4;125,126,110,109;,
  4;133,134,134,133;,
  4;119,118,102,103;,
  4;126,127,111,110;,
  4;134,135,135,134;,
  4;120,119,103,104;,
  4;127,128,112,111;,
  4;135,136,136,135;,
  4;121,120,104,105;,
  4;128,129,113,112;,
  4;136,137,137,136;,
  4;114,121,105,98;,
  4;129,122,106,113;,
  4;137,130,130,137;;
 }
}
