xof 0302txt 0064
template Header {
 <3D82AB43-62DA-11cf-AB39-0020AF71E433>
 WORD major;
 WORD minor;
 DWORD flags;
}

template Vector {
 <3D82AB5E-62DA-11cf-AB39-0020AF71E433>
 FLOAT x;
 FLOAT y;
 FLOAT z;
}

template Coords2d {
 <F6F23F44-7686-11cf-8F52-0040333594A3>
 FLOAT u;
 FLOAT v;
}

template Matrix4x4 {
 <F6F23F45-7686-11cf-8F52-0040333594A3>
 array FLOAT matrix[16];
}

template ColorRGBA {
 <35FF44E0-6C7C-11cf-8F52-0040333594A3>
 FLOAT red;
 FLOAT green;
 FLOAT blue;
 FLOAT alpha;
}

template ColorRGB {
 <D3E16E81-7835-11cf-8F52-0040333594A3>
 FLOAT red;
 FLOAT green;
 FLOAT blue;
}

template IndexedColor {
 <1630B820-7842-11cf-8F52-0040333594A3>
 DWORD index;
 ColorRGBA indexColor;
}

template Boolean {
 <4885AE61-78E8-11cf-8F52-0040333594A3>
 WORD truefalse;
}

template Boolean2d {
 <4885AE63-78E8-11cf-8F52-0040333594A3>
 Boolean u;
 Boolean v;
}

template MaterialWrap {
 <4885AE60-78E8-11cf-8F52-0040333594A3>
 Boolean u;
 Boolean v;
}

template TextureFilename {
 <A42790E1-7810-11cf-8F52-0040333594A3>
 STRING filename;
}

template Material {
 <3D82AB4D-62DA-11cf-AB39-0020AF71E433>
 ColorRGBA faceColor;
 FLOAT power;
 ColorRGB specularColor;
 ColorRGB emissiveColor;
 [...]
}

template MeshFace {
 <3D82AB5F-62DA-11cf-AB39-0020AF71E433>
 DWORD nFaceVertexIndices;
 array DWORD faceVertexIndices[nFaceVertexIndices];
}

template MeshFaceWraps {
 <4885AE62-78E8-11cf-8F52-0040333594A3>
 DWORD nFaceWrapValues;
 Boolean2d faceWrapValues;
}

template MeshTextureCoords {
 <F6F23F40-7686-11cf-8F52-0040333594A3>
 DWORD nTextureCoords;
 array Coords2d textureCoords[nTextureCoords];
}

template MeshMaterialList {
 <F6F23F42-7686-11cf-8F52-0040333594A3>
 DWORD nMaterials;
 DWORD nFaceIndexes;
 array DWORD faceIndexes[nFaceIndexes];
 [Material]
}

template MeshNormals {
 <F6F23F43-7686-11cf-8F52-0040333594A3>
 DWORD nNormals;
 array Vector normals[nNormals];
 DWORD nFaceNormals;
 array MeshFace faceNormals[nFaceNormals];
}

template MeshVertexColors {
 <1630B821-7842-11cf-8F52-0040333594A3>
 DWORD nVertexColors;
 array IndexedColor vertexColors[nVertexColors];
}

template Mesh {
 <3D82AB44-62DA-11cf-AB39-0020AF71E433>
 DWORD nVertices;
 array Vector vertices[nVertices];
 DWORD nFaces;
 array MeshFace faces[nFaces];
 [...]
}

Header{
1;
0;
1;
}

Mesh {
 56;
 29.40992;4.27265;-12.14720;,
 32.03681;4.27265;-12.14720;,
 32.03681;2.59579;-12.14720;,
 29.40992;2.59579;-12.14720;,
 32.03681;4.27265;12.14720;,
 32.03681;2.59579;12.14720;,
 29.40992;4.27265;12.14720;,
 29.40992;2.59579;12.14720;,
 -29.40992;4.27265;-12.14720;,
 -29.40992;2.59579;-12.14720;,
 -32.03681;2.59579;-12.14720;,
 -32.03681;4.27265;-12.14720;,
 -32.03681;2.59579;12.14720;,
 -32.03681;4.27265;12.14720;,
 -29.40992;2.59579;12.14720;,
 -29.40992;4.27265;12.14720;,
 -30.71594;28.81016;-0.76640;,
 30.71594;28.81016;-0.76640;,
 30.71594;25.74400;-0.76640;,
 -30.71594;25.74400;-0.76640;,
 30.71594;28.81016;0.76648;,
 30.71594;25.74400;0.76648;,
 -30.71594;28.81016;0.76648;,
 -30.71594;25.74400;0.76648;,
 30.04313;40.75595;-2.05759;,
 31.67870;40.75595;-2.05759;,
 31.67870;3.74410;-2.05759;,
 30.04313;3.74410;-2.05759;,
 31.67870;40.75595;2.05759;,
 31.67870;3.74410;2.05759;,
 30.04313;40.75595;2.05759;,
 30.04313;3.74410;2.05759;,
 -30.04313;40.75595;-2.05759;,
 -30.04313;3.74410;-2.05759;,
 -31.67870;3.74410;-2.05759;,
 -31.67870;40.75595;-2.05759;,
 -31.67870;3.74410;2.05759;,
 -31.67870;40.75595;2.05759;,
 -30.04313;3.74410;2.05759;,
 -30.04313;40.75595;2.05759;,
 -30.95314;69.35257;5.21485;,
 31.09417;69.07831;5.17325;,
 31.09445;69.54214;3.51474;,
 -30.95284;69.81639;3.55634;,
 -31.09417;22.65978;-6.69208;,
 30.95314;22.38553;-6.73369;,
 30.95284;21.92171;-4.40186;,
 -31.09445;22.19596;-4.36026;,
 30.95870;24.27993;-5.68356;,
 30.95840;23.81611;-4.02505;,
 -31.08860;24.55419;-5.64195;,
 -31.08889;24.09037;-3.98344;,
 30.95363;23.40780;-9.76865;,
 30.95919;25.30221;-9.39184;,
 -31.09368;23.68205;-9.72704;,
 -31.08812;25.57646;-9.35023;;
 
 44;
 4;0,1,2,3;,
 4;1,4,5,2;,
 4;4,6,7,5;,
 4;6,0,3,7;,
 4;6,4,1,0;,
 4;3,2,5,7;,
 4;8,9,10,11;,
 4;11,10,12,13;,
 4;13,12,14,15;,
 4;15,14,9,8;,
 4;15,8,11,13;,
 4;9,14,12,10;,
 4;16,17,18,19;,
 4;17,20,21,18;,
 4;20,22,23,21;,
 4;22,16,19,23;,
 4;22,20,17,16;,
 4;19,18,21,23;,
 4;24,25,26,27;,
 4;25,28,29,26;,
 4;28,30,31,29;,
 4;30,24,27,31;,
 4;30,28,25,24;,
 4;27,26,29,31;,
 4;32,33,34,35;,
 4;35,34,36,37;,
 4;37,36,38,39;,
 4;39,38,33,32;,
 4;39,32,35,37;,
 4;33,38,36,34;,
 4;40,41,42,43;,
 4;44,45,46,47;,
 4;48,42,41,49;,
 4;48,49,46,45;,
 4;48,50,43,42;,
 4;49,41,40,51;,
 4;49,51,47,46;,
 4;50,44,47,51;,
 4;50,51,40,43;,
 4;52,53,48,45;,
 4;54,52,45,44;,
 4;55,54,44,50;,
 4;53,55,50,48;,
 4;53,52,54,55;;
 
 MeshMaterialList {
  1;
  44;
  0,
  0,
  0,
  0,
  0,
  0,
  0,
  0,
  0,
  0,
  0,
  0,
  0,
  0,
  0,
  0,
  0,
  0,
  0,
  0,
  0,
  0,
  0,
  0,
  0,
  0,
  0,
  0,
  0,
  0,
  0,
  0,
  0,
  0,
  0,
  0,
  0,
  0,
  0,
  0,
  0,
  0,
  0,
  0;;
  Material {
   0.580000;0.633600;0.615200;1.000000;;
   5.000000;
   0.560000;0.560000;0.560000;;
   0.000000;0.000000;0.000000;;
  }
 }
 MeshNormals {
  28;
  0.000000;0.000000;-1.000000;,
  1.000000;0.000000;0.000000;,
  0.000000;0.000000;1.000000;,
  -1.000000;0.000000;0.000000;,
  0.000000;1.000000;0.000000;,
  0.000000;-1.000000;-0.000000;,
  0.004437;0.963038;0.269327;,
  -0.004443;-0.966221;-0.257678;,
  -0.004466;-0.980776;-0.195085;,
  0.999996;-0.002768;-0.000602;,
  0.999996;-0.002805;-0.000563;,
  0.000223;0.199151;-0.979969;,
  -0.000214;-0.197119;0.980380;,
  -0.004403;-0.947675;-0.319207;,
  0.999996;-0.002695;-0.000682;,
  -0.999996;0.002681;0.000672;,
  0.999996;-0.002872;-0.000629;,
  0.999996;-0.002738;-0.000496;,
  0.999996;-0.002716;-0.000589;,
  -0.000223;-0.199151;0.979969;,
  -0.000205;-0.195087;0.980786;,
  -0.999996;0.002764;0.000600;,
  -0.999996;0.002710;0.000588;,
  -0.999996;0.002738;0.000504;,
  -0.999996;0.002805;0.000565;,
  -0.999996;0.002872;0.000626;,
  0.004439;0.964030;0.265758;,
  0.000205;0.195084;-0.980787;;
  44;
  4;0,0,0,0;,
  4;1,1,1,1;,
  4;2,2,2,2;,
  4;3,3,3,3;,
  4;4,4,4,4;,
  4;5,5,5,5;,
  4;0,0,0,0;,
  4;3,3,3,3;,
  4;2,2,2,2;,
  4;1,1,1,1;,
  4;4,4,4,4;,
  4;5,5,5,5;,
  4;0,0,0,0;,
  4;1,1,1,1;,
  4;2,2,2,2;,
  4;3,3,3,3;,
  4;4,4,4,4;,
  4;5,5,5,5;,
  4;0,0,0,0;,
  4;1,1,1,1;,
  4;2,2,2,2;,
  4;3,3,3,3;,
  4;4,4,4,4;,
  4;5,5,5,5;,
  4;0,0,0,0;,
  4;3,3,3,3;,
  4;2,2,2,2;,
  4;1,1,1,1;,
  4;4,4,4,4;,
  4;5,5,5,5;,
  4;6,6,6,6;,
  4;7,7,8,8;,
  4;9,16,16,10;,
  4;9,10,17,18;,
  4;11,11,11,11;,
  4;12,19,19,12;,
  4;12,12,20,20;,
  4;21,22,23,24;,
  4;21,24,25,25;,
  4;14,14,9,18;,
  4;13,13,7,7;,
  4;15,15,22,21;,
  4;26,26,26,26;,
  4;27,27,27,27;;
 }
}
