xof 0302txt 0064
template Header {
 <3D82AB43-62DA-11cf-AB39-0020AF71E433>
 WORD major;
 WORD minor;
 DWORD flags;
}

template Vector {
 <3D82AB5E-62DA-11cf-AB39-0020AF71E433>
 FLOAT x;
 FLOAT y;
 FLOAT z;
}

template Coords2d {
 <F6F23F44-7686-11cf-8F52-0040333594A3>
 FLOAT u;
 FLOAT v;
}

template Matrix4x4 {
 <F6F23F45-7686-11cf-8F52-0040333594A3>
 array FLOAT matrix[16];
}

template ColorRGBA {
 <35FF44E0-6C7C-11cf-8F52-0040333594A3>
 FLOAT red;
 FLOAT green;
 FLOAT blue;
 FLOAT alpha;
}

template ColorRGB {
 <D3E16E81-7835-11cf-8F52-0040333594A3>
 FLOAT red;
 FLOAT green;
 FLOAT blue;
}

template IndexedColor {
 <1630B820-7842-11cf-8F52-0040333594A3>
 DWORD index;
 ColorRGBA indexColor;
}

template Boolean {
 <4885AE61-78E8-11cf-8F52-0040333594A3>
 WORD truefalse;
}

template Boolean2d {
 <4885AE63-78E8-11cf-8F52-0040333594A3>
 Boolean u;
 Boolean v;
}

template MaterialWrap {
 <4885AE60-78E8-11cf-8F52-0040333594A3>
 Boolean u;
 Boolean v;
}

template TextureFilename {
 <A42790E1-7810-11cf-8F52-0040333594A3>
 STRING filename;
}

template Material {
 <3D82AB4D-62DA-11cf-AB39-0020AF71E433>
 ColorRGBA faceColor;
 FLOAT power;
 ColorRGB specularColor;
 ColorRGB emissiveColor;
 [...]
}

template MeshFace {
 <3D82AB5F-62DA-11cf-AB39-0020AF71E433>
 DWORD nFaceVertexIndices;
 array DWORD faceVertexIndices[nFaceVertexIndices];
}

template MeshFaceWraps {
 <4885AE62-78E8-11cf-8F52-0040333594A3>
 DWORD nFaceWrapValues;
 Boolean2d faceWrapValues;
}

template MeshTextureCoords {
 <F6F23F40-7686-11cf-8F52-0040333594A3>
 DWORD nTextureCoords;
 array Coords2d textureCoords[nTextureCoords];
}

template MeshMaterialList {
 <F6F23F42-7686-11cf-8F52-0040333594A3>
 DWORD nMaterials;
 DWORD nFaceIndexes;
 array DWORD faceIndexes[nFaceIndexes];
 [Material]
}

template MeshNormals {
 <F6F23F43-7686-11cf-8F52-0040333594A3>
 DWORD nNormals;
 array Vector normals[nNormals];
 DWORD nFaceNormals;
 array MeshFace faceNormals[nFaceNormals];
}

template MeshVertexColors {
 <1630B821-7842-11cf-8F52-0040333594A3>
 DWORD nVertexColors;
 array IndexedColor vertexColors[nVertexColors];
}

template Mesh {
 <3D82AB44-62DA-11cf-AB39-0020AF71E433>
 DWORD nVertices;
 array Vector vertices[nVertices];
 DWORD nFaces;
 array MeshFace faces[nFaces];
 [...]
}

Header{
1;
0;
1;
}

Mesh {
 58;
 -0.81778;62.93456;-6.07285;,
 0.81778;62.93456;-6.07285;,
 0.81778;25.06543;-6.07285;,
 -0.81778;25.06543;-6.07285;,
 0.81778;62.93456;6.07285;,
 0.81778;25.06543;6.07285;,
 -0.81778;62.93456;6.07285;,
 -0.81778;25.06543;6.07285;,
 -26.84596;23.42674;-8.04371;,
 -26.84596;1.64000;10.04371;,
 -26.84596;63.57303;10.04371;,
 -26.84596;26.70354;-8.04371;,
 26.84596;23.42674;-8.04371;,
 26.84596;26.70354;-8.04371;,
 26.84596;63.57303;10.04371;,
 26.84596;1.64000;10.04371;,
 -26.84596;26.70354;-13.63414;,
 -26.84596;23.42674;-13.63414;,
 26.84596;23.42674;-13.63414;,
 26.84596;26.70354;-13.63414;,
 26.84596;63.57303;-8.04371;,
 -26.84596;63.57303;-8.04371;,
 -24.77583;26.70354;-8.04371;,
 24.62207;26.70354;-8.04371;,
 24.62207;60.58586;-8.04371;,
 -24.77583;60.58586;-8.04371;,
 24.62207;26.70354;6.07691;,
 24.62207;60.58586;6.07691;,
 -24.77583;26.70354;6.07691;,
 -24.77583;60.58586;6.07691;,
 -26.84596;1.64000;-11.55002;,
 26.84596;1.64000;-11.55002;,
 -26.44733;38.80723;-6.27542;,
 26.44733;38.80723;-6.27542;,
 26.44733;37.34164;-6.27542;,
 -26.44733;37.34164;-6.27542;,
 26.44733;38.80723;6.42790;,
 26.44733;37.34164;6.42790;,
 -26.44733;38.80723;6.42790;,
 -26.44733;37.34164;6.42790;,
 -26.44733;50.39906;-6.27542;,
 26.44733;50.39906;-6.27542;,
 26.44733;48.93346;-6.27542;,
 -26.44733;48.93346;-6.27542;,
 26.44733;50.39906;6.42790;,
 26.44733;48.93346;6.42790;,
 -26.44733;50.39906;6.42790;,
 -26.44733;48.93346;6.42790;,
 -24.29728;2.09174;-9.18965;,
 -24.29728;2.09174;8.18965;,
 24.29728;2.09174;-9.18965;,
 24.29728;2.09174;8.18965;,
 -24.29728;0.19382;-9.18965;,
 -24.29728;0.19382;8.18965;,
 24.29728;0.19382;-9.18965;,
 24.29728;0.19382;8.18965;,
 26.84596;23.42674;-11.55002;,
 -26.84596;23.42674;-11.55002;;
 
 54;
 4;0,1,2,3;,
 4;1,4,5,2;,
 4;4,6,7,5;,
 4;6,0,3,7;,
 4;6,4,1,0;,
 4;3,2,5,7;,
 4;8,9,10,11;,
 4;12,13,14,15;,
 4;16,17,8,11;,
 4;18,19,13,12;,
 4;10,14,20,21;,
 4;10,9,15,14;,
 4;22,23,19,16;,
 4;16,19,18,17;,
 4;17,18,12,8;,
 4;24,20,13,23;,
 4;24,25,21,20;,
 4;25,22,11,21;,
 4;26,27,24,23;,
 4;28,26,23,22;,
 4;29,28,22,25;,
 4;27,29,25,24;,
 4;27,26,28,29;,
 3;9,8,30;,
 3;15,31,12;,
 3;14,13,20;,
 3;10,21,11;,
 3;19,23,13;,
 3;16,11,22;,
 4;32,33,34,35;,
 4;33,36,37,34;,
 4;36,38,39,37;,
 4;38,32,35,39;,
 4;38,36,33,32;,
 4;35,34,37,39;,
 4;40,41,42,43;,
 4;41,44,45,42;,
 4;44,46,47,45;,
 4;46,40,43,47;,
 4;46,44,41,40;,
 4;43,42,45,47;,
 4;48,49,9,30;,
 4;50,48,30,31;,
 4;51,50,31,15;,
 4;49,51,15,9;,
 4;52,53,49,48;,
 4;54,52,48,50;,
 4;55,54,50,51;,
 4;53,55,51,49;,
 4;53,52,54,55;,
 4;56,57,8,12;,
 4;30,57,56,31;,
 3;31,56,12;,
 3;30,8,57;;
 
 MeshMaterialList {
  6;
  54;
  0,
  0,
  0,
  0,
  0,
  0,
  0,
  0,
  1,
  1,
  0,
  0,
  1,
  1,
  1,
  0,
  0,
  0,
  0,
  1,
  0,
  0,
  0,
  0,
  0,
  0,
  0,
  1,
  1,
  0,
  0,
  0,
  0,
  0,
  0,
  0,
  0,
  0,
  0,
  0,
  0,
  0,
  0,
  0,
  0,
  1,
  1,
  1,
  1,
  1,
  0,
  0,
  0,
  0;;
  Material {
   0.674400;0.674400;0.674400;1.000000;;
   20.000000;
   0.560000;0.560000;0.560000;;
   0.000000;0.000000;0.000000;;
  }
  Material {
   0.075200;0.075200;0.075200;1.000000;;
   9.000000;
   0.790000;0.790000;0.790000;;
   0.000000;0.000000;0.000000;;
  }
  Material {
   0.571200;0.775200;0.800000;0.510000;;
   5.000000;
   0.530000;0.530000;0.530000;;
   0.035700;0.048450;0.050000;;
  }
  Material {
   0.668000;0.668000;0.668000;0.370000;;
   5.000000;
   0.000000;0.000000;0.000000;;
   0.000000;0.000000;0.000000;;
  }
  Material {
   0.408000;0.106000;0.584000;1.000000;;
   5.000000;
   0.390000;0.390000;0.390000;;
   0.285600;0.074200;0.408800;;
  }
  Material {
   0.000000;0.460800;0.800000;1.000000;;
   5.000000;
   0.000000;0.000000;0.000000;;
   0.000000;0.576000;1.000000;;
  }
 }
 MeshNormals {
  10;
  0.000000;0.000000;-1.000000;,
  1.000000;0.000000;0.000000;,
  0.000000;0.000000;1.000000;,
  -1.000000;0.000000;0.000000;,
  0.000000;1.000000;0.000000;,
  -0.088223;-0.988887;-0.119665;,
  -0.087989;-0.991603;0.094770;,
  0.088223;-0.988887;-0.119665;,
  0.087989;-0.991603;0.094770;,
  0.000000;-1.000000;-0.000000;;
  54;
  4;0,0,0,0;,
  4;1,1,1,1;,
  4;2,2,2,2;,
  4;3,3,3,3;,
  4;4,4,4,4;,
  4;9,9,9,9;,
  4;3,3,3,3;,
  4;1,1,1,1;,
  4;3,3,3,3;,
  4;1,1,1,1;,
  4;4,4,4,4;,
  4;2,2,2,2;,
  4;4,4,4,4;,
  4;0,0,0,0;,
  4;9,9,9,9;,
  4;0,0,0,0;,
  4;0,0,0,0;,
  4;0,0,0,0;,
  4;3,3,3,3;,
  4;4,4,4,4;,
  4;1,1,1,1;,
  4;9,9,9,9;,
  4;0,0,0,0;,
  3;3,3,3;,
  3;1,1,1;,
  3;1,1,1;,
  3;3,3,3;,
  3;4,4,4;,
  3;4,4,4;,
  4;0,0,0,0;,
  4;1,1,1,1;,
  4;2,2,2,2;,
  4;3,3,3,3;,
  4;4,4,4,4;,
  4;9,9,9,9;,
  4;0,0,0,0;,
  4;1,1,1,1;,
  4;2,2,2,2;,
  4;3,3,3,3;,
  4;4,4,4,4;,
  4;9,9,9,9;,
  4;8,7,7,8;,
  4;6,8,8,6;,
  4;5,6,6,5;,
  4;7,5,5,7;,
  4;3,3,3,3;,
  4;0,0,0,0;,
  4;1,1,1,1;,
  4;2,2,2,2;,
  4;9,9,9,9;,
  4;4,4,4,4;,
  4;0,0,0,0;,
  3;1,1,1;,
  3;3,3,3;;
 }
}
