#==============================================================================
#
# 『モーションビューワ』スクリプトファイル [motion_weapon.txt]
# Author : AKIRA TANAKA
#
#==============================================================================
SCRIPT			# この行は絶対消さないこと！

#------------------------------------------------------------------------------
# モデル数
#------------------------------------------------------------------------------
NUM_MODEL = 5

#------------------------------------------------------------------------------
# モデルファイル名
#------------------------------------------------------------------------------
MODEL_FILENAME = data/MODEL/Drone/drone_body.x		# [0]体
MODEL_FILENAME = data/MODEL/Drone/drone_wingA.x		# [1]頭
MODEL_FILENAME = data/MODEL/Drone/drone_wingB.x		# [2]右腕
MODEL_FILENAME = data/MODEL/Drone/drone_wingC.x		# [3]右手
MODEL_FILENAME = data/MODEL/Drone/drone_wingD.x		# [4]左腕


#------------------------------------------------------------------------------
# キャラクター情報
#------------------------------------------------------------------------------
CHARACTERSET
	NUM_PARTS = 5					# パーツ数
	
	MOVE = 3.0						# 移動量
	JUMP = 10.25					# ジャンプ量
	RADIUS = 20.0					# 半径
	HEIGHT = 40.0					# 高さ

	PARTSSET
		INDEX = 0
		PARENT = -1
		POS = 0.0 20.0 0.0
		ROT = 0.0 0.0 0.0
	END_PARTSSET
	
	PARTSSET
		INDEX = 1
		PARENT = 0
		POS = 37.0 10.0 28.5
		ROT = 0.0 0.0 0.0
	END_PARTSSET
	
	PARTSSET
		INDEX = 2
		PARENT = 0
		POS = -37.0 10.0 28.5
		ROT = 0.0 0.0 0.0
	END_PARTSSET
	
	PARTSSET
		INDEX = 3
		PARENT = 0
		POS = 37.0 10.0 -28.5
		ROT = 0.0 0.0 0.0
	END_PARTSSET
	
	PARTSSET
		INDEX = 4
		PARENT = 0
		POS = -37.0 10.0 -28.5
		ROT = 0.0 0.0 0.0
	END_PARTSSET

END_CHARACTERSET

#------------------------------------------------------------------------------
# モーション情報
#------------------------------------------------------------------------------
#---------------------------------------
# [0] ニュートラルモーション
#---------------------------------------
MOTIONSET
	LOOP = 1		# ループするかどうか[0:ループしない / 1:ループする]
	NUM_KEY = 3		# キー数

	KEYSET			# --- << KEY : 0 / 3 >> ---
		FRAME = 40
		KEY	# ----- [ 0 ] -----
			POS = 5.00 0.00 0.00
			ROT = 0.00 0.00 0.1
		END_KEY

		KEY	# ----- [ 1 ] -----
			POS = 0.00 0.00 0.00
			ROT = 0.00 12.5 0.00
		END_KEY

		KEY	# ----- [ 2 ] -----
			POS = 0.00 0.00 0.00
			ROT = 0.00 12.5 0.00
		END_KEY

		KEY	# ----- [ 3 ] -----
			POS = 0.00 0.00 0.00
			ROT = 0.00 12.5 0.00
		END_KEY

		KEY	# ----- [ 4 ] -----
			POS = 0.00 0.00 0.00
			ROT = 0.00 12.5 0.00
		END_KEY
	END_KEYSET

	KEYSET			# --- << KEY : 1 / 3 >> ---
		FRAME = 20
		KEY	# ----- [ 0 ] -----
			POS = -5.00 0.00 0.00
			ROT = 0.00 0.00 -0.1
		END_KEY

		KEY	# ----- [ 1 ] -----
			POS = 0.00 0.00 0.00
			ROT = 0.00 -12.5 0.00
		END_KEY

		KEY	# ----- [ 2 ] -----
			POS = 0.00 0.00 0.00
			ROT = 0.00 -12.5 0.00
		END_KEY

		KEY	# ----- [ 3 ] -----
			POS = 0.00 0.00 0.00
			ROT = 0.00 -12.5 0.00
		END_KEY

		KEY	# ----- [ 4 ] -----
			POS = 0.00 0.00 0.00
			ROT = 0.00 -12.5 0.00
		END_KEY
	END_KEYSET
	
	KEYSET			# --- << KEY : 2 / 3 >> ---
		FRAME = 0
		KEY	# ----- [ 0 ] -----
			POS = 5.00 0.00 0.00
			ROT = 0.00 0.00 0.1
		END_KEY

		KEY	# ----- [ 1 ] -----
			POS = 0.00 0.00 0.00
			ROT = 0.00 12.5 0.00
		END_KEY

		KEY	# ----- [ 2 ] -----
			POS = 0.00 0.00 0.00
			ROT = 0.00 12.5 0.00
		END_KEY

		KEY	# ----- [ 3 ] -----
			POS = 0.00 0.00 0.00
			ROT = 0.00 12.5 0.00
		END_KEY

		KEY	# ----- [ 4 ] -----
			POS = 0.00 0.00 0.00
			ROT = 0.00 12.5 0.00
		END_KEY
		
	END_KEYSET
	
END_MOTIONSET

#---------------------------------------
# [1] 移動モーション
#---------------------------------------
MOTIONSET
	LOOP = 1		# ループするかどうか[0:ループしない / 1:ループする]
	NUM_KEY = 2		# キー数

	KEYSET			# --- << KEY : 0 / 2 >> ---
		FRAME = 37
		KEY	# ----- [ 0 ] -----
			POS = 0.00 0.00 0.00
			ROT = -0.3 0.00 0.00
		END_KEY

		KEY	# ----- [ 1 ] -----
			POS = 0.00 0.00 0.00
			ROT = 0.00 12.5 0.00
		END_KEY

		KEY	# ----- [ 2 ] -----
			POS = 0.00 0.00 0.00
			ROT = 0.00 12.5 0.00
		END_KEY

		KEY	# ----- [ 3 ] -----
			POS = 0.00 0.00 0.00
			ROT = 0.00 12.5 0.00
		END_KEY

		KEY	# ----- [ 4 ] -----
			POS = 0.00 0.00 0.00
			ROT = 0.00 12.5 0.00
		END_KEY
		
	END_KEYSET

	KEYSET			# --- << KEY : 1 / 2 >> ---
		FRAME = 0
		KEY	# ----- [ 0 ] -----
			POS = 0.00 0.00 0.00
			ROT = -0.3 0.00 0.00
		END_KEY

		KEY	# ----- [ 1 ] -----
			POS = 0.00 0.00 0.00
			ROT = 0.00 -12.5 0.00
		END_KEY

		KEY	# ----- [ 2 ] -----
			POS = 0.00 0.00 0.00
			ROT = 0.00 -12.5 0.00
		END_KEY

		KEY	# ----- [ 3 ] -----
			POS = 0.00 0.00 0.00
			ROT = 0.00 -12.5 0.00
		END_KEY

		KEY	# ----- [ 4 ] -----
			POS = 0.00 0.00 0.00
			ROT = 0.00 -12.5 0.00
		END_KEY

	END_KEYSET
END_MOTIONSET

END_SCRIPT		# この行は絶対消さないこと！
