#==============================================================================
#
# 『モーションビューワ』スクリプトファイル [motion_weapon.txt]
# Author : AKIRA TANAKA
#
#==============================================================================
SCRIPT			# この行は絶対消さないこと！

#------------------------------------------------------------------------------
# モデル数
#------------------------------------------------------------------------------
NUM_MODEL = 5

#------------------------------------------------------------------------------
# モデルファイル名
#------------------------------------------------------------------------------
MODEL_FILENAME = data/MODEL/Drone/hontai.x		# [0]本体
MODEL_FILENAME = data/MODEL/Drone/hane_1.x		# [1]羽_1
MODEL_FILENAME = data/MODEL/Drone/hane_2.x		# [2]羽_2
MODEL_FILENAME = data/MODEL/Drone/hane_3.x		# [3]羽_3
MODEL_FILENAME = data/MODEL/Drone/hane_4.x		# [4]羽_4

#------------------------------------------------------------------------------
# キャラクター情報
#------------------------------------------------------------------------------
CHARACTERSET
	NUM_PARTS = 5					# パーツ数
	MOVE = 3.0						# 移動量
	JUMP = 10.25					# ジャンプ量
	RADIUS = 20.0					# 半径
	HEIGHT = 40.0					# 高さ

	PARTSSET
		INDEX = 0					# [0]本体
		PARENT = -1					# (親)NULL
		POS = 0.0 0.0 0.0
		ROT = 0.0 0.0 0.0
	END_PARTSSET

	PARTSSET
		INDEX = 1					# [1]羽_1
		PARENT = 0					# (親)体
		POS = 16.5 -0.50 32.50
		ROT = 0.00 0.00 0.00
	END_PARTSSET

	PARTSSET
		INDEX = 2					# [1]羽_2
		PARENT = 0					# (親)体
		POS = -16.5 -0.50 32.50
		ROT = 0.00 0.00 0.00
	END_PARTSSET

	PARTSSET
		INDEX = 3					# [1]羽_3
		PARENT = 0					# (親)右腕
		POS = 16.5 -0.5 -10.00
		ROT = 0.0 0.0 0.0
	END_PARTSSET

	PARTSSET
		INDEX = 4					# [1]羽_4
		PARENT = 0					# (親)体
		POS = -16.5 -0.5 -10.00
		ROT = 0.0 0.0 0.0
	END_PARTSSET
END_CHARACTERSET

#------------------------------------------------------------------------------
# モーション情報
#------------------------------------------------------------------------------
MOTIONSET
	LOOP = 1		# ループするかどうか[0:ループしない / 1:ループする]
	NUM_KEY = 3		# キー数

	KEYSET			# --- << KEY : 0 / 3 >> ---
		FRAME = 40
		KEY	# ----- [ 0 ] -----
			POS = 5.00 0.00 0.00
			ROT = 0.00 0.00 0.1
		END_KEY

		KEY	# ----- [ 1 ] -----
			POS = 0.00 0.00 0.00
			ROT = 0.00 12.5 0.00
		END_KEY

		KEY	# ----- [ 2 ] -----
			POS = 0.00 0.00 0.00
			ROT = 0.00 12.5 0.00
		END_KEY

		KEY	# ----- [ 3 ] -----
			POS = 0.00 0.00 0.00
			ROT = 0.00 12.5 0.00
		END_KEY

		KEY	# ----- [ 4 ] -----
			POS = 0.00 0.00 0.00
			ROT = 0.00 12.5 0.00
		END_KEY
	END_KEYSET

	KEYSET			# --- << KEY : 1 / 3 >> ---
		FRAME = 20
		KEY	# ----- [ 0 ] -----
			POS = -5.00 0.00 0.00
			ROT = 0.00 0.00 -0.1
		END_KEY

		KEY	# ----- [ 1 ] -----
			POS = 0.00 0.00 0.00
			ROT = 0.00 -12.5 0.00
		END_KEY

		KEY	# ----- [ 2 ] -----
			POS = 0.00 0.00 0.00
			ROT = 0.00 -12.5 0.00
		END_KEY

		KEY	# ----- [ 3 ] -----
			POS = 0.00 0.00 0.00
			ROT = 0.00 -12.5 0.00
		END_KEY

		KEY	# ----- [ 4 ] -----
			POS = 0.00 0.00 0.00
			ROT = 0.00 -12.5 0.00
		END_KEY
	END_KEYSET
	
	KEYSET			# --- << KEY : 2 / 3 >> ---
		FRAME = 0
		KEY	# ----- [ 0 ] -----
			POS = 5.00 0.00 0.00
			ROT = 0.00 0.00 0.1
		END_KEY

		KEY	# ----- [ 1 ] -----
			POS = 0.00 0.00 0.00
			ROT = 0.00 12.5 0.00
		END_KEY

		KEY	# ----- [ 2 ] -----
			POS = 0.00 0.00 0.00
			ROT = 0.00 12.5 0.00
		END_KEY

		KEY	# ----- [ 3 ] -----
			POS = 0.00 0.00 0.00
			ROT = 0.00 12.5 0.00
		END_KEY

		KEY	# ----- [ 4 ] -----
			POS = 0.00 0.00 0.00
			ROT = 0.00 12.5 0.00
		END_KEY
		
	END_KEYSET
	
END_MOTIONSET
#---------------------------------------
# [1] 移動モーション
#---------------------------------------
MOTIONSET
	LOOP = 1		# ループするかどうか[0:ループしない / 1:ループする]
	NUM_KEY = 2		# キー数

	KEYSET			# --- << KEY : 0 / 2 >> ---
		FRAME = 37
		KEY	# ----- [ 0 ] -----
			POS = 0.00 0.00 0.00
			ROT = 0.00 0.00 0.00
		END_KEY

		KEY	# ----- [ 1 ] -----
			POS = 0.00 0.00 0.00
			ROT = 0.00 12.00 0.00
		END_KEY

		KEY	# ----- [ 2 ] -----
			POS = 0.00 0.00 0.00
			ROT = 0.00 12.00 0.00
		END_KEY

		KEY	# ----- [ 3 ] -----
			POS = 0.00 0.00 0.00
			ROT = 0.00 12.00 0.00
		END_KEY

		KEY	# ----- [ 4 ] -----
			POS = 0.00 0.00 0.00
			ROT = 0.00 12.00 0.00
		END_KEY
	END_KEYSET

	KEYSET			# --- << KEY : 1 / 2 >> ---
		FRAME = 0
		KEY	# ----- [ 0 ] -----
			POS = 0.00 0.00 0.00
			ROT = 0.00 0.00 0.00
		END_KEY

		KEY	# ----- [ 1 ] -----
			POS = 0.00 0.00 0.00
			ROT = 0.00 -12.00 0.00
		END_KEY

		KEY	# ----- [ 2 ] -----
			POS = 0.00 0.00 0.00
			ROT = 0.00 -12.00 0.00
		END_KEY

		KEY	# ----- [ 3 ] -----
			POS = 0.00 0.00 0.00
			ROT = 0.00 -12.00 0.00
		END_KEY

		KEY	# ----- [ 4 ] -----
			POS = 0.00 0.00 0.00
			ROT = 0.00 -12.00 0.00
		END_KEY
	END_KEYSET
END_MOTIONSET

END_SCRIPT		# この行は絶対消さないこと！
