xof 0302txt 0064
template Header {
 <3D82AB43-62DA-11cf-AB39-0020AF71E433>
 WORD major;
 WORD minor;
 DWORD flags;
}

template Vector {
 <3D82AB5E-62DA-11cf-AB39-0020AF71E433>
 FLOAT x;
 FLOAT y;
 FLOAT z;
}

template Coords2d {
 <F6F23F44-7686-11cf-8F52-0040333594A3>
 FLOAT u;
 FLOAT v;
}

template Matrix4x4 {
 <F6F23F45-7686-11cf-8F52-0040333594A3>
 array FLOAT matrix[16];
}

template ColorRGBA {
 <35FF44E0-6C7C-11cf-8F52-0040333594A3>
 FLOAT red;
 FLOAT green;
 FLOAT blue;
 FLOAT alpha;
}

template ColorRGB {
 <D3E16E81-7835-11cf-8F52-0040333594A3>
 FLOAT red;
 FLOAT green;
 FLOAT blue;
}

template IndexedColor {
 <1630B820-7842-11cf-8F52-0040333594A3>
 DWORD index;
 ColorRGBA indexColor;
}

template Boolean {
 <4885AE61-78E8-11cf-8F52-0040333594A3>
 WORD truefalse;
}

template Boolean2d {
 <4885AE63-78E8-11cf-8F52-0040333594A3>
 Boolean u;
 Boolean v;
}

template MaterialWrap {
 <4885AE60-78E8-11cf-8F52-0040333594A3>
 Boolean u;
 Boolean v;
}

template TextureFilename {
 <A42790E1-7810-11cf-8F52-0040333594A3>
 STRING filename;
}

template Material {
 <3D82AB4D-62DA-11cf-AB39-0020AF71E433>
 ColorRGBA faceColor;
 FLOAT power;
 ColorRGB specularColor;
 ColorRGB emissiveColor;
 [...]
}

template MeshFace {
 <3D82AB5F-62DA-11cf-AB39-0020AF71E433>
 DWORD nFaceVertexIndices;
 array DWORD faceVertexIndices[nFaceVertexIndices];
}

template MeshFaceWraps {
 <4885AE62-78E8-11cf-8F52-0040333594A3>
 DWORD nFaceWrapValues;
 Boolean2d faceWrapValues;
}

template MeshTextureCoords {
 <F6F23F40-7686-11cf-8F52-0040333594A3>
 DWORD nTextureCoords;
 array Coords2d textureCoords[nTextureCoords];
}

template MeshMaterialList {
 <F6F23F42-7686-11cf-8F52-0040333594A3>
 DWORD nMaterials;
 DWORD nFaceIndexes;
 array DWORD faceIndexes[nFaceIndexes];
 [Material]
}

template MeshNormals {
 <F6F23F43-7686-11cf-8F52-0040333594A3>
 DWORD nNormals;
 array Vector normals[nNormals];
 DWORD nFaceNormals;
 array MeshFace faceNormals[nFaceNormals];
}

template MeshVertexColors {
 <1630B821-7842-11cf-8F52-0040333594A3>
 DWORD nVertexColors;
 array IndexedColor vertexColors[nVertexColors];
}

template Mesh {
 <3D82AB44-62DA-11cf-AB39-0020AF71E433>
 DWORD nVertices;
 array Vector vertices[nVertices];
 DWORD nFaces;
 array MeshFace faces[nFaces];
 [...]
}

Header{
1;
0;
1;
}

Mesh {
 514;
 5.08234;15.76978;-1.13657;,
 5.64691;16.57608;-0.56828;,
 27.52570;1.25637;-0.56828;,
 26.96113;0.45009;-1.13657;,
 5.64691;16.57608;0.56828;,
 27.52570;1.25637;0.56828;,
 5.08234;15.76978;1.13657;,
 26.96113;0.45009;1.13657;,
 4.51778;14.96350;0.56828;,
 26.39658;-0.35621;0.56828;,
 4.51778;14.96350;-0.56828;,
 26.39658;-0.35621;-0.56828;,
 5.08234;15.76978;0.00000;,
 26.96113;0.45009;0.00000;,
 -1.72350;15.76978;-4.76448;,
 -13.79920;0.45009;-23.00887;,
 -14.58470;1.25637;-23.16600;,
 -2.50899;16.57608;-4.92161;,
 -15.53245;1.25637;-22.53868;,
 -3.45676;16.57608;-4.29429;,
 -15.69474;0.45009;-21.75425;,
 -3.61904;15.76978;-3.50985;,
 -14.90925;-0.35621;-21.59712;,
 -2.83355;14.96350;-3.35272;,
 -13.96149;-0.35621;-22.22444;,
 -1.88578;14.96350;-3.98004;,
 -2.67127;15.76978;-4.13717;,
 -14.74696;0.45009;-22.38155;,
 -1.48135;15.76978;4.95195;,
 -2.25666;16.57608;5.15340;,
 -13.27719;1.25637;24.05398;,
 -12.50189;0.45009;23.85252;,
 -3.23851;16.57608;4.58091;,
 -14.25906;1.25637;23.48149;,
 -3.44506;15.76978;3.80695;,
 -14.46560;0.45009;22.70752;,
 -2.66977;14.96350;3.60550;,
 -13.69030;-0.35621;22.50606;,
 -1.68791;14.96350;4.17800;,
 -12.70844;-0.35621;23.07857;,
 -2.46321;15.76978;4.37944;,
 -13.48375;0.45009;23.28002;,
 0.00000;17.98481;-3.54371;,
 3.06894;17.98481;-1.77185;,
 3.06894;14.40140;-1.77185;,
 0.00000;14.40140;-3.54371;,
 3.06894;17.98481;1.77185;,
 0.00000;17.98481;3.54371;,
 0.00000;14.40140;3.54371;,
 3.06894;14.40140;1.77185;,
 -3.06894;17.98481;1.77185;,
 -3.06894;17.98481;-1.77185;,
 -3.06894;14.40140;-1.77185;,
 -3.06894;14.40140;1.77185;,
 0.00000;14.40140;0.00000;,
 5.63951;17.98481;1.77185;,
 5.63951;17.98481;-1.77185;,
 5.63951;14.40140;1.77185;,
 5.63951;14.40140;-1.77185;,
 -4.35423;17.98481;3.99803;,
 -1.28529;17.98481;5.76989;,
 -4.35423;14.40140;3.99803;,
 -1.28529;14.40140;5.76989;,
 -1.28529;17.98481;-5.76989;,
 -4.35423;17.98481;-3.99803;,
 -1.28529;14.40140;-5.76989;,
 -4.35423;14.40140;-3.99803;,
 0.00000;19.10066;-3.54371;,
 3.06894;19.10066;-1.77185;,
 0.00000;19.10066;0.00000;,
 3.06894;19.10066;1.77185;,
 0.00000;19.10066;3.54371;,
 -3.06894;19.10066;1.77185;,
 -3.06894;19.10066;-1.77185;,
 0.00000;50.61004;-2.58819;,
 2.24144;50.61004;-1.29410;,
 2.24144;17.75215;-1.29410;,
 0.00000;17.75215;-2.58819;,
 2.24144;50.61004;1.29410;,
 2.24144;17.75215;1.29410;,
 0.00000;50.61004;2.58819;,
 0.00000;17.75215;2.58819;,
 -2.24144;50.61004;1.29410;,
 -2.24144;17.75215;1.29410;,
 -2.24144;50.61004;-1.29410;,
 -2.24144;17.75215;-1.29410;,
 0.00000;50.61004;0.00000;,
 0.00000;17.75215;0.00000;,
 0.00000;52.95071;-3.99433;,
 3.45919;52.95071;-1.99716;,
 3.45919;49.02379;-1.99716;,
 0.00000;49.02379;-3.99433;,
 3.45919;52.95071;1.99716;,
 3.45919;49.02379;1.99716;,
 0.00000;52.95071;3.99433;,
 0.00000;49.02379;3.99433;,
 -3.45919;52.95071;1.99716;,
 -3.45919;49.02379;1.99716;,
 -3.45919;52.95071;-1.99716;,
 -3.45919;49.02379;-1.99716;,
 0.00000;49.02379;0.00000;,
 0.00000;53.37642;-3.11272;,
 2.69570;53.37642;-1.55636;,
 2.69570;53.37642;1.55636;,
 0.00000;53.37642;3.11272;,
 -2.69570;53.37642;1.55636;,
 -2.69570;53.37642;-1.55636;,
 0.00000;55.23409;-3.11272;,
 2.69570;55.23409;-1.55636;,
 0.00000;55.23409;0.00000;,
 2.69570;55.23409;1.55636;,
 0.00000;55.23409;3.11272;,
 -2.69570;55.23409;1.55636;,
 -2.69570;55.23409;-1.55636;,
 -6.67650;57.45639;-6.26292;,
 6.67650;57.45639;-6.26292;,
 6.67650;48.31375;-6.26292;,
 -6.67650;48.31375;-6.26292;,
 6.67650;57.45639;-2.74238;,
 6.67650;48.31375;-2.74238;,
 -6.67650;57.45639;-2.74238;,
 -6.67650;48.31375;-2.74238;,
 24.41881;54.88380;-1.68545;,
 24.41878;53.42418;-0.84272;,
 -24.41882;53.42418;-0.84272;,
 -24.41885;54.88380;-1.68545;,
 24.41878;53.42418;0.84272;,
 -24.41882;53.42418;0.84272;,
 24.41881;54.88380;1.68545;,
 -24.41885;54.88380;1.68545;,
 24.41883;56.34342;0.84272;,
 -24.41885;56.34342;0.84272;,
 24.41883;56.34342;-0.84272;,
 -24.41885;56.34342;-0.84272;,
 24.41881;54.88380;0.00000;,
 -24.41885;54.88380;0.00000;,
 0.00000;57.49387;-3.50018;,
 2.73634;57.49387;-1.92035;,
 2.73634;56.00620;-1.92035;,
 0.00000;56.00620;-3.50018;,
 2.73634;57.49387;1.23930;,
 2.73634;56.00620;1.23930;,
 0.00000;57.49387;2.81913;,
 0.00000;56.00620;2.81913;,
 -2.73634;57.49387;1.23930;,
 -2.73634;56.00620;1.23930;,
 -2.73634;57.49387;-1.92035;,
 -2.73634;56.00620;-1.92035;,
 0.00000;57.49387;-0.34052;,
 0.00000;56.00620;-0.34052;,
 26.82999;0.71294;-1.49530;,
 28.12497;0.98724;-0.74765;,
 28.12497;-2.44911;-0.74765;,
 26.82999;-2.44911;-1.49530;,
 28.12497;0.98724;0.74765;,
 28.12497;-2.44911;0.74765;,
 26.82999;0.71294;1.49530;,
 26.82999;-2.44911;1.49530;,
 25.53501;-0.03602;0.74765;,
 25.53501;-2.44911;0.74765;,
 25.53501;-0.03602;-0.74765;,
 25.53501;-2.44911;-0.74765;,
 26.82999;-2.44911;-0.00000;,
 26.82999;0.95580;-1.49530;,
 28.12497;1.85271;-0.74765;,
 28.12497;1.85271;0.74765;,
 26.82999;0.95580;1.49530;,
 25.53501;0.20684;0.74765;,
 25.53501;0.20684;-0.74765;,
 20.83210;4.73288;-1.49530;,
 22.04864;5.58006;-0.74765;,
 20.83210;4.73288;0.00000;,
 22.04864;5.58006;0.74765;,
 20.83210;4.73288;1.49530;,
 19.61557;4.03366;0.74765;,
 19.61557;4.03366;-0.74765;,
 5.08234;15.76978;-1.13657;,
 5.64691;16.57608;-0.56828;,
 27.52570;1.25637;-0.56828;,
 26.96113;0.45009;-1.13657;,
 5.64691;16.57608;0.56828;,
 27.52570;1.25637;0.56828;,
 5.08234;15.76978;1.13657;,
 26.96113;0.45009;1.13657;,
 4.51778;14.96350;0.56828;,
 26.39658;-0.35621;0.56828;,
 4.51778;14.96350;-0.56828;,
 26.39658;-0.35621;-0.56828;,
 5.08234;15.76978;0.00000;,
 26.96113;0.45009;0.00000;,
 -15.91644;0.71294;-21.25782;,
 -16.03376;0.98724;-22.74851;,
 -16.03376;-2.44911;-22.74851;,
 -15.91644;-2.44911;-21.25782;,
 -14.80143;0.98724;-23.59546;,
 -14.80143;-2.44911;-23.59546;,
 -13.45178;0.71294;-22.95171;,
 -13.45178;-2.44911;-22.95171;,
 -13.33447;-0.03602;-21.46102;,
 -13.33447;-2.44911;-21.46102;,
 -14.56679;-0.03602;-20.61407;,
 -14.56679;-2.44911;-20.61407;,
 -14.68411;-2.44911;-22.10476;,
 -15.91644;0.95580;-21.25782;,
 -16.03376;1.85271;-22.74851;,
 -14.80143;1.85271;-23.59546;,
 -13.45178;0.95580;-22.95171;,
 -13.33447;0.20684;-21.46102;,
 -14.56679;0.20684;-20.61407;,
 -12.51919;4.73288;-16.31479;,
 -12.59208;5.58006;-17.74084;,
 -11.28688;4.73288;-17.16174;,
 -11.35977;5.58006;-18.58779;,
 -10.05455;4.73288;-18.00869;,
 -9.98165;4.03366;-16.58264;,
 -11.21398;4.03366;-15.73569;,
 -12.03361;0.71294;24.01931;,
 -13.30857;0.98724;24.80061;,
 -13.30857;-2.44911;24.80061;,
 -12.03361;-2.44911;24.01931;,
 -14.62268;0.98724;24.08710;,
 -14.62268;-2.44911;24.08710;,
 -14.66181;0.71294;22.59229;,
 -14.66181;-2.44911;22.59229;,
 -13.38686;-0.03602;21.81102;,
 -13.38686;-2.44911;21.81102;,
 -12.07275;-0.03602;22.52451;,
 -12.07275;-2.44911;22.52451;,
 -13.34772;-2.44911;23.30580;,
 -12.03361;0.95580;24.01931;,
 -13.30857;1.85271;24.80061;,
 -14.62268;1.85271;24.08710;,
 -14.66181;0.95580;22.59229;,
 -13.38686;0.20684;21.81102;,
 -12.07275;0.20684;22.52451;,
 -9.17167;4.73288;18.74826;,
 -10.40918;5.58006;19.46062;,
 -10.48576;4.73288;18.03477;,
 -11.72329;5.58006;18.74713;,
 -11.79986;4.73288;17.32126;,
 -10.56233;4.03366;16.60889;,
 -9.24822;4.03366;17.32241;,
 27.99745;54.86763;-2.52445;,
 27.99745;52.68141;-1.26222;,
 23.79934;52.68141;-1.26222;,
 23.79934;54.86763;-2.52445;,
 27.99745;52.68141;1.26222;,
 23.79934;52.68141;1.26222;,
 27.99745;54.86763;2.52445;,
 23.79934;54.86763;2.52445;,
 27.99745;57.05386;1.26222;,
 23.79934;57.05386;1.26222;,
 27.99745;57.05386;-1.26222;,
 23.79934;57.05386;-1.26222;,
 27.99745;54.86763;0.00000;,
 23.79934;54.86763;0.00000;,
 -21.25702;54.86763;-2.52445;,
 -21.25702;52.68141;-1.26222;,
 -25.45513;52.68141;-1.26222;,
 -25.45513;54.86763;-2.52445;,
 -21.25702;52.68141;1.26222;,
 -25.45513;52.68141;1.26222;,
 -21.25702;54.86763;2.52445;,
 -25.45513;54.86763;2.52445;,
 -21.25702;57.05386;1.26222;,
 -25.45513;57.05386;1.26222;,
 -21.25702;57.05386;-1.26222;,
 -25.45513;57.05386;-1.26222;,
 -21.25702;54.86763;0.00000;,
 -25.45513;54.86763;0.00000;,
 -24.94934;74.84637;1.21271;,
 -21.62851;74.84637;1.21271;,
 -21.62851;74.84637;-1.21271;,
 -24.94934;74.84637;-1.21271;,
 -24.94934;56.23513;-1.21271;,
 -21.62851;56.23513;-1.21271;,
 -21.62851;56.23513;1.21271;,
 -24.94934;56.23513;1.21271;,
 -21.62851;58.62567;-1.21271;,
 -21.62851;58.62567;1.21271;,
 -24.94934;58.62567;-1.21271;,
 -24.94934;58.62567;1.21271;,
 -11.08486;58.62567;-1.21271;,
 -11.08486;58.62567;1.21271;,
 -11.08486;56.23513;1.21271;,
 -11.08486;56.23513;-1.21271;,
 -14.80134;58.62567;-1.21271;,
 -14.80134;58.62567;1.21271;,
 -14.80134;56.23513;-1.21271;,
 -14.80134;56.23513;1.21271;,
 -14.80134;74.89743;1.21271;,
 -14.80134;74.89743;-1.21271;,
 -11.08486;74.89743;1.21271;,
 -11.08486;74.89743;-1.21271;,
 12.97256;74.84637;1.21271;,
 16.29340;74.84637;1.21271;,
 16.29340;74.84637;-1.21271;,
 12.97256;74.84637;-1.21271;,
 12.97256;56.23513;-1.21271;,
 16.29340;56.23513;-1.21271;,
 16.29340;56.23513;1.21271;,
 12.97256;56.23513;1.21271;,
 16.29340;58.62567;-1.21271;,
 16.29340;58.62567;1.21271;,
 12.97256;58.62567;-1.21271;,
 12.97256;58.62567;1.21271;,
 26.83705;58.62567;-1.21271;,
 26.83705;58.62567;1.21271;,
 26.83705;56.23513;1.21271;,
 26.83705;56.23513;-1.21271;,
 23.12057;58.62567;-1.21271;,
 23.12057;58.62567;1.21271;,
 23.12057;56.23513;-1.21271;,
 23.12057;56.23513;1.21271;,
 23.12057;74.89743;1.21271;,
 23.12057;74.89743;-1.21271;,
 26.83705;74.89743;1.21271;,
 26.83705;74.89743;-1.21271;,
 -27.43615;88.99685;-9.42822;,
 -27.43615;88.99685;7.79236;,
 -27.43615;91.36301;7.79236;,
 -27.43615;91.36301;-9.42822;,
 -10.21556;88.99685;-9.42822;,
 -10.21556;91.36301;-9.42822;,
 -10.21556;91.36301;7.79236;,
 -10.21556;88.99685;7.79236;,
 -24.40503;86.79872;11.59313;,
 -24.40503;88.33188;11.59313;,
 -13.24667;88.33188;11.59313;,
 -13.24667;86.79872;11.59313;,
 -27.43615;76.68409;-9.42822;,
 -27.43615;74.14243;-9.42822;,
 -27.43615;74.14243;7.79236;,
 -27.43615;76.68409;7.79236;,
 -10.21556;76.68409;-9.42822;,
 -10.21556;76.68409;7.79236;,
 -10.21556;74.14243;7.79236;,
 -10.21556;74.14243;-9.42822;,
 -24.40503;77.17355;11.59313;,
 -24.40503;78.82044;11.59313;,
 -13.24667;78.82044;11.59313;,
 -13.24667;77.17355;11.59313;,
 -25.09597;91.36301;-9.42822;,
 -25.09597;91.36301;7.79236;,
 -22.88867;88.33188;11.59313;,
 -22.88867;86.79872;11.59313;,
 -25.09597;74.14243;-9.42822;,
 -25.09597;74.14243;7.79236;,
 -22.88867;78.82044;11.59313;,
 -22.88867;77.17355;11.59313;,
 -13.11168;91.36301;-9.42822;,
 -13.11168;91.36301;7.79236;,
 -13.11168;89.08966;-9.42822;,
 -13.11168;76.59128;-9.42822;,
 -25.09597;76.68409;-9.42822;,
 -25.09597;88.99685;-9.42822;,
 -15.12326;88.33188;11.59313;,
 -15.12326;86.79872;11.59313;,
 -13.11168;74.14243;-9.42822;,
 -13.11168;74.14243;7.79236;,
 -15.12326;78.82044;11.59313;,
 -15.12326;77.17355;11.59313;,
 -32.65493;96.58182;-23.36438;,
 -32.65493;92.78151;-23.36438;,
 -28.89637;96.58182;-23.36438;,
 -29.90588;93.81870;-23.36438;,
 -29.90588;71.96862;-23.36438;,
 -32.65493;73.00580;-23.36438;,
 -32.65493;68.92361;-23.36438;,
 -28.89637;68.92361;-23.36438;,
 -4.99678;96.58182;-23.36438;,
 -9.64825;96.58182;-23.36438;,
 -4.99678;92.78151;-23.36438;,
 -8.63873;93.81870;-23.36438;,
 -4.99678;73.00580;-23.36438;,
 -8.63873;71.96862;-23.36438;,
 -4.99678;68.92361;-23.36438;,
 -9.64825;68.92361;-23.36438;,
 -19.46174;83.25944;-32.43233;,
 -15.13161;80.75942;-31.09263;,
 -19.46174;78.25944;-31.09260;,
 -15.13161;85.75941;-31.09260;,
 -19.46174;88.25941;-31.09260;,
 -23.79186;85.75941;-31.09260;,
 -23.79186;80.75942;-31.09263;,
 -11.96174;78.92930;-27.43235;,
 -19.46174;74.59911;-27.43230;,
 -11.96174;87.58952;-27.43232;,
 -19.46174;91.91965;-27.43233;,
 -26.96174;87.58952;-27.43232;,
 -26.96174;78.92930;-27.43235;,
 -10.80149;78.25941;-22.43233;,
 -19.46174;73.25945;-22.43236;,
 -10.80149;88.25941;-22.43235;,
 -19.46174;93.25936;-22.43232;,
 -28.12199;88.25941;-22.43235;,
 -28.12199;78.25941;-22.43233;,
 -11.96174;78.92930;-17.43232;,
 -19.46174;74.59915;-17.43235;,
 -11.96174;87.58954;-17.43233;,
 -19.46174;91.91964;-17.43236;,
 -26.96174;87.58954;-17.43233;,
 -26.96174;78.92930;-17.43232;,
 -15.13161;80.75941;-13.77208;,
 -19.46174;78.25944;-13.77211;,
 -15.13161;85.75941;-13.77205;,
 -19.46174;88.25941;-13.77211;,
 -23.79186;85.75941;-13.77205;,
 -23.79186;80.75941;-13.77208;,
 -15.90361;81.20509;-9.06925;,
 -19.46174;79.15083;-9.06927;,
 -19.46174;83.25941;-8.64986;,
 -15.90361;85.31367;-9.06926;,
 -19.46174;87.36799;-9.06926;,
 -23.01986;85.31367;-9.06926;,
 -23.01986;81.20509;-9.06925;,
 11.19690;88.99685;-9.42822;,
 11.19690;88.99685;7.79236;,
 11.19690;91.36301;7.79236;,
 11.19690;91.36301;-9.42822;,
 28.41748;88.99685;-9.42822;,
 28.41748;91.36301;-9.42822;,
 28.41748;91.36301;7.79236;,
 28.41748;88.99685;7.79236;,
 14.22802;86.79872;11.59313;,
 14.22802;88.33188;11.59313;,
 25.38637;88.33188;11.59313;,
 25.38637;86.79872;11.59313;,
 11.19690;76.68409;-9.42822;,
 11.19690;74.14243;-9.42822;,
 11.19690;74.14243;7.79236;,
 11.19690;76.68409;7.79236;,
 28.41748;76.68409;-9.42822;,
 28.41748;76.68409;7.79236;,
 28.41748;74.14243;7.79236;,
 28.41748;74.14243;-9.42822;,
 14.22802;77.17355;11.59313;,
 14.22802;78.82044;11.59313;,
 25.38637;78.82044;11.59313;,
 25.38637;77.17355;11.59313;,
 13.53708;91.36301;-9.42822;,
 13.53708;91.36301;7.79236;,
 15.74437;88.33188;11.59313;,
 15.74437;86.79872;11.59313;,
 13.53708;74.14243;-9.42822;,
 13.53708;74.14243;7.79236;,
 15.74437;78.82044;11.59313;,
 15.74437;77.17355;11.59313;,
 25.52137;91.36301;-9.42822;,
 25.52137;91.36301;7.79236;,
 25.52137;89.08966;-9.42822;,
 25.52137;76.59128;-9.42822;,
 13.53708;76.68409;-9.42822;,
 13.53708;88.99685;-9.42822;,
 23.50979;88.33188;11.59313;,
 23.50979;86.79872;11.59313;,
 25.52137;74.14243;-9.42822;,
 25.52137;74.14243;7.79236;,
 23.50979;78.82044;11.59313;,
 23.50979;77.17355;11.59313;,
 5.97812;96.58182;-23.36438;,
 5.97812;92.78151;-23.36438;,
 9.73668;96.58182;-23.36438;,
 8.72717;93.81870;-23.36438;,
 8.72717;71.96862;-23.36438;,
 5.97812;73.00580;-23.36438;,
 5.97812;68.92361;-23.36438;,
 9.73668;68.92361;-23.36438;,
 33.63626;96.58182;-23.36438;,
 28.98479;96.58182;-23.36438;,
 33.63626;92.78151;-23.36438;,
 29.99431;93.81870;-23.36438;,
 33.63626;73.00580;-23.36438;,
 29.99431;71.96862;-23.36438;,
 33.63626;68.92361;-23.36438;,
 28.98479;68.92361;-23.36438;,
 19.17131;83.25944;-32.43233;,
 23.50143;80.75942;-31.09263;,
 19.17131;78.25944;-31.09260;,
 23.50143;85.75941;-31.09260;,
 19.17131;88.25941;-31.09260;,
 14.84118;85.75941;-31.09260;,
 14.84118;80.75942;-31.09263;,
 26.67130;78.92930;-27.43235;,
 19.17131;74.59911;-27.43230;,
 26.67130;87.58952;-27.43232;,
 19.17131;91.91965;-27.43233;,
 11.67132;87.58952;-27.43232;,
 11.67132;78.92930;-27.43235;,
 27.83156;78.25941;-22.43233;,
 19.17131;73.25945;-22.43236;,
 27.83156;88.25941;-22.43235;,
 19.17131;93.25936;-22.43232;,
 10.51106;88.25941;-22.43235;,
 10.51106;78.25941;-22.43233;,
 26.67130;78.92930;-17.43232;,
 19.17131;74.59915;-17.43235;,
 26.67130;87.58954;-17.43233;,
 19.17131;91.91964;-17.43236;,
 11.67132;87.58954;-17.43233;,
 11.67132;78.92930;-17.43232;,
 23.50143;80.75941;-13.77208;,
 19.17131;78.25944;-13.77211;,
 23.50143;85.75941;-13.77205;,
 19.17131;88.25941;-13.77211;,
 14.84118;85.75941;-13.77205;,
 14.84118;80.75941;-13.77208;,
 22.72943;81.20509;-9.06925;,
 19.17131;79.15083;-9.06927;,
 19.17131;83.25941;-8.64986;,
 22.72943;85.31367;-9.06926;,
 19.17131;87.36799;-9.06926;,
 15.61318;85.31367;-9.06926;,
 15.61318;81.20509;-9.06925;;
 
 568;
 4;0,1,2,3;,
 4;1,4,5,2;,
 4;4,6,7,5;,
 4;6,8,9,7;,
 4;8,10,11,9;,
 4;10,0,3,11;,
 3;12,1,0;,
 3;12,4,1;,
 3;12,6,4;,
 3;12,8,6;,
 3;12,10,8;,
 3;12,0,10;,
 3;13,3,2;,
 3;13,2,5;,
 3;13,5,7;,
 3;13,7,9;,
 3;13,9,11;,
 3;13,11,3;,
 4;14,15,16,17;,
 4;17,16,18,19;,
 4;19,18,20,21;,
 4;21,20,22,23;,
 4;23,22,24,25;,
 4;25,24,15,14;,
 3;26,14,17;,
 3;26,17,19;,
 3;26,19,21;,
 3;26,21,23;,
 3;26,23,25;,
 3;26,25,14;,
 3;27,16,15;,
 3;27,18,16;,
 3;27,20,18;,
 3;27,22,20;,
 3;27,24,22;,
 3;27,15,24;,
 4;28,29,30,31;,
 4;29,32,33,30;,
 4;32,34,35,33;,
 4;34,36,37,35;,
 4;36,38,39,37;,
 4;38,28,31,39;,
 3;40,29,28;,
 3;40,32,29;,
 3;40,34,32;,
 3;40,36,34;,
 3;40,38,36;,
 3;40,28,38;,
 3;41,31,30;,
 3;41,30,33;,
 3;41,33,35;,
 3;41,35,37;,
 3;41,37,39;,
 3;41,39,31;,
 4;42,43,44,45;,
 4;46,47,48,49;,
 4;50,51,52,53;,
 3;54,45,44;,
 3;54,44,49;,
 3;54,49,48;,
 3;54,48,53;,
 3;54,53,52;,
 3;54,52,45;,
 4;55,56,43,46;,
 4;57,55,46,49;,
 4;58,57,49,44;,
 4;56,58,44,43;,
 4;56,55,57,58;,
 4;59,60,47,50;,
 4;61,59,50,53;,
 4;62,61,53,48;,
 4;60,62,48,47;,
 4;60,59,61,62;,
 4;63,64,51,42;,
 4;65,63,42,45;,
 4;66,65,45,52;,
 4;64,66,52,51;,
 4;64,63,65,66;,
 4;67,68,43,42;,
 3;69,68,67;,
 4;68,70,46,43;,
 3;69,70,68;,
 4;70,71,47,46;,
 3;69,71,70;,
 4;71,72,50,47;,
 3;69,72,71;,
 4;72,73,51,50;,
 3;69,73,72;,
 4;73,67,42,51;,
 3;69,67,73;,
 4;74,75,76,77;,
 4;75,78,79,76;,
 4;78,80,81,79;,
 4;80,82,83,81;,
 4;82,84,85,83;,
 4;84,74,77,85;,
 3;86,75,74;,
 3;86,78,75;,
 3;86,80,78;,
 3;86,82,80;,
 3;86,84,82;,
 3;86,74,84;,
 3;87,77,76;,
 3;87,76,79;,
 3;87,79,81;,
 3;87,81,83;,
 3;87,83,85;,
 3;87,85,77;,
 4;88,89,90,91;,
 4;89,92,93,90;,
 4;92,94,95,93;,
 4;94,96,97,95;,
 4;96,98,99,97;,
 4;98,88,91,99;,
 3;100,91,90;,
 3;100,90,93;,
 3;100,93,95;,
 3;100,95,97;,
 3;100,97,99;,
 3;100,99,91;,
 4;101,102,89,88;,
 4;102,103,92,89;,
 4;103,104,94,92;,
 4;104,105,96,94;,
 4;105,106,98,96;,
 4;106,101,88,98;,
 4;107,108,102,101;,
 3;109,108,107;,
 4;108,110,103,102;,
 3;109,110,108;,
 4;110,111,104,103;,
 3;109,111,110;,
 4;111,112,105,104;,
 3;109,112,111;,
 4;112,113,106,105;,
 3;109,113,112;,
 4;113,107,101,106;,
 3;109,107,113;,
 4;114,115,116,117;,
 4;115,118,119,116;,
 4;118,120,121,119;,
 4;120,114,117,121;,
 4;120,118,115,114;,
 4;117,116,119,121;,
 4;122,123,124,125;,
 4;123,126,127,124;,
 4;126,128,129,127;,
 4;128,130,131,129;,
 4;130,132,133,131;,
 4;132,122,125,133;,
 3;134,123,122;,
 3;134,126,123;,
 3;134,128,126;,
 3;134,130,128;,
 3;134,132,130;,
 3;134,122,132;,
 3;135,125,124;,
 3;135,124,127;,
 3;135,127,129;,
 3;135,129,131;,
 3;135,131,133;,
 3;135,133,125;,
 4;136,137,138,139;,
 4;137,140,141,138;,
 4;140,142,143,141;,
 4;142,144,145,143;,
 4;144,146,147,145;,
 4;146,136,139,147;,
 3;148,137,136;,
 3;148,140,137;,
 3;148,142,140;,
 3;148,144,142;,
 3;148,146,144;,
 3;148,136,146;,
 3;149,139,138;,
 3;149,138,141;,
 3;149,141,143;,
 3;149,143,145;,
 3;149,145,147;,
 3;149,147,139;,
 4;150,151,152,153;,
 4;151,154,155,152;,
 4;154,156,157,155;,
 4;156,158,159,157;,
 4;158,160,161,159;,
 4;160,150,153,161;,
 3;162,153,152;,
 3;162,152,155;,
 3;162,155,157;,
 3;162,157,159;,
 3;162,159,161;,
 3;162,161,153;,
 4;163,164,151,150;,
 4;164,165,154,151;,
 4;165,166,156,154;,
 4;166,167,158,156;,
 4;167,168,160,158;,
 4;168,163,150,160;,
 4;169,170,164,163;,
 3;171,170,169;,
 4;170,172,165,164;,
 3;171,172,170;,
 4;172,173,166,165;,
 3;171,173,172;,
 4;173,174,167,166;,
 3;171,174,173;,
 4;174,175,168,167;,
 3;171,175,174;,
 4;175,169,163,168;,
 3;171,169,175;,
 4;176,177,178,179;,
 4;177,180,181,178;,
 4;180,182,183,181;,
 4;182,184,185,183;,
 4;184,186,187,185;,
 4;186,176,179,187;,
 3;188,177,176;,
 3;188,180,177;,
 3;188,182,180;,
 3;188,184,182;,
 3;188,186,184;,
 3;188,176,186;,
 3;189,179,178;,
 3;189,178,181;,
 3;189,181,183;,
 3;189,183,185;,
 3;189,185,187;,
 3;189,187,179;,
 4;190,191,192,193;,
 4;191,194,195,192;,
 4;194,196,197,195;,
 4;196,198,199,197;,
 4;198,200,201,199;,
 4;200,190,193,201;,
 3;202,193,192;,
 3;202,192,195;,
 3;202,195,197;,
 3;202,197,199;,
 3;202,199,201;,
 3;202,201,193;,
 4;203,204,191,190;,
 4;204,205,194,191;,
 4;205,206,196,194;,
 4;206,207,198,196;,
 4;207,208,200,198;,
 4;208,203,190,200;,
 4;209,210,204,203;,
 3;211,210,209;,
 4;210,212,205,204;,
 3;211,212,210;,
 4;212,213,206,205;,
 3;211,213,212;,
 4;213,214,207,206;,
 3;211,214,213;,
 4;214,215,208,207;,
 3;211,215,214;,
 4;215,209,203,208;,
 3;211,209,215;,
 4;216,217,218,219;,
 4;217,220,221,218;,
 4;220,222,223,221;,
 4;222,224,225,223;,
 4;224,226,227,225;,
 4;226,216,219,227;,
 3;228,219,218;,
 3;228,218,221;,
 3;228,221,223;,
 3;228,223,225;,
 3;228,225,227;,
 3;228,227,219;,
 4;229,230,217,216;,
 4;230,231,220,217;,
 4;231,232,222,220;,
 4;232,233,224,222;,
 4;233,234,226,224;,
 4;234,229,216,226;,
 4;235,236,230,229;,
 3;237,236,235;,
 4;236,238,231,230;,
 3;237,238,236;,
 4;238,239,232,231;,
 3;237,239,238;,
 4;239,240,233,232;,
 3;237,240,239;,
 4;240,241,234,233;,
 3;237,241,240;,
 4;241,235,229,234;,
 3;237,235,241;,
 4;242,243,244,245;,
 4;243,246,247,244;,
 4;246,248,249,247;,
 4;248,250,251,249;,
 4;250,252,253,251;,
 4;252,242,245,253;,
 3;254,243,242;,
 3;254,246,243;,
 3;254,248,246;,
 3;254,250,248;,
 3;254,252,250;,
 3;254,242,252;,
 3;255,245,244;,
 3;255,244,247;,
 3;255,247,249;,
 3;255,249,251;,
 3;255,251,253;,
 3;255,253,245;,
 4;256,257,258,259;,
 4;257,260,261,258;,
 4;260,262,263,261;,
 4;262,264,265,263;,
 4;264,266,267,265;,
 4;266,256,259,267;,
 3;268,257,256;,
 3;268,260,257;,
 3;268,262,260;,
 3;268,264,262;,
 3;268,266,264;,
 3;268,256,266;,
 3;269,259,258;,
 3;269,258,261;,
 3;269,261,263;,
 3;269,263,265;,
 3;269,265,267;,
 3;269,267,259;,
 4;270,271,272,273;,
 4;274,275,276,277;,
 4;278,272,271,279;,
 4;278,275,274,280;,
 4;278,280,273,272;,
 4;279,271,270,281;,
 4;279,281,277,276;,
 4;280,274,277,281;,
 4;280,281,270,273;,
 4;282,283,284,285;,
 4;286,278,279,287;,
 4;286,282,285,288;,
 4;286,288,275,278;,
 4;287,279,276,289;,
 4;287,289,284,283;,
 4;288,285,284,289;,
 4;288,289,276,275;,
 4;290,291,286,287;,
 4;292,290,287,283;,
 4;293,292,283,282;,
 4;291,293,282,286;,
 4;291,290,292,293;,
 4;294,295,296,297;,
 4;298,299,300,301;,
 4;302,296,295,303;,
 4;302,299,298,304;,
 4;302,304,297,296;,
 4;303,295,294,305;,
 4;303,305,301,300;,
 4;304,298,301,305;,
 4;304,305,294,297;,
 4;306,307,308,309;,
 4;310,302,303,311;,
 4;310,306,309,312;,
 4;310,312,299,302;,
 4;311,303,300,313;,
 4;311,313,308,307;,
 4;312,309,308,313;,
 4;312,313,300,299;,
 4;314,315,310,311;,
 4;316,314,311,307;,
 4;317,316,307,306;,
 4;315,317,306,310;,
 4;315,314,316,317;,
 4;318,319,320,321;,
 4;322,323,324,325;,
 4;319,326,327,320;,
 4;325,324,328,329;,
 4;330,331,332,333;,
 4;330,333,319,318;,
 4;334,322,325,335;,
 4;334,335,336,337;,
 4;333,332,338,339;,
 4;333,339,326,319;,
 4;335,325,329,340;,
 4;335,340,341,336;,
 4;342,321,320,343;,
 4;343,320,327,344;,
 4;344,327,326,345;,
 4;346,347,332,331;,
 4;345,326,339,348;,
 4;347,349,338,332;,
 4;348,339,338,349;,
 4;350,342,343,351;,
 4;350,351,324,323;,
 4;352,353,354,355;,
 4;351,343,344,356;,
 4;351,356,328,324;,
 4;356,344,345,357;,
 4;356,357,329,328;,
 4;358,337,336,359;,
 4;358,359,347,346;,
 4;357,345,348,360;,
 4;357,360,340,329;,
 4;359,336,341,361;,
 4;359,361,349,347;,
 4;360,348,349,361;,
 4;360,361,341,340;,
 4;362,363,318,321;,
 4;364,362,321,342;,
 4;364,365,363,362;,
 4;366,365,355,354;,
 4;363,367,330,318;,
 4;365,366,367,363;,
 4;368,369,346,331;,
 4;367,368,331,330;,
 4;366,369,368,367;,
 4;370,371,350,323;,
 4;372,370,323,322;,
 4;371,370,372,373;,
 4;365,373,352,355;,
 4;371,364,342,350;,
 4;371,373,365,364;,
 4;374,372,322,334;,
 4;373,375,353,352;,
 4;373,372,374,375;,
 4;376,374,334,337;,
 4;377,376,337,358;,
 4;375,374,376,377;,
 4;369,377,358,346;,
 4;375,366,354,353;,
 4;375,377,369,366;,
 3;378,379,380;,
 3;378,381,379;,
 3;378,382,381;,
 3;378,383,382;,
 3;378,384,383;,
 3;378,380,384;,
 4;380,379,385,386;,
 4;379,381,387,385;,
 4;381,382,388,387;,
 4;382,383,389,388;,
 4;383,384,390,389;,
 4;384,380,386,390;,
 4;386,385,391,392;,
 4;385,387,393,391;,
 4;387,388,394,393;,
 4;388,389,395,394;,
 4;389,390,396,395;,
 4;390,386,392,396;,
 4;392,391,397,398;,
 4;391,393,399,397;,
 4;393,394,400,399;,
 4;394,395,401,400;,
 4;395,396,402,401;,
 4;396,392,398,402;,
 4;398,397,403,404;,
 4;397,399,405,403;,
 4;399,400,406,405;,
 4;400,401,407,406;,
 4;401,402,408,407;,
 4;402,398,404,408;,
 4;409,410,404,403;,
 3;410,409,411;,
 4;412,409,403,405;,
 3;409,412,411;,
 4;413,412,405,406;,
 3;412,413,411;,
 4;414,413,406,407;,
 3;413,414,411;,
 4;415,414,407,408;,
 3;414,415,411;,
 4;410,415,408,404;,
 3;415,410,411;,
 4;416,417,418,419;,
 4;420,421,422,423;,
 4;417,424,425,418;,
 4;423,422,426,427;,
 4;428,429,430,431;,
 4;428,431,417,416;,
 4;432,420,423,433;,
 4;432,433,434,435;,
 4;431,430,436,437;,
 4;431,437,424,417;,
 4;433,423,427,438;,
 4;433,438,439,434;,
 4;440,419,418,441;,
 4;441,418,425,442;,
 4;442,425,424,443;,
 4;444,445,430,429;,
 4;443,424,437,446;,
 4;445,447,436,430;,
 4;446,437,436,447;,
 4;448,440,441,449;,
 4;448,449,422,421;,
 4;450,451,452,453;,
 4;449,441,442,454;,
 4;449,454,426,422;,
 4;454,442,443,455;,
 4;454,455,427,426;,
 4;456,435,434,457;,
 4;456,457,445,444;,
 4;455,443,446,458;,
 4;455,458,438,427;,
 4;457,434,439,459;,
 4;457,459,447,445;,
 4;458,446,447,459;,
 4;458,459,439,438;,
 4;460,461,416,419;,
 4;462,460,419,440;,
 4;462,463,461,460;,
 4;464,463,453,452;,
 4;461,465,428,416;,
 4;463,464,465,461;,
 4;466,467,444,429;,
 4;465,466,429,428;,
 4;464,467,466,465;,
 4;468,469,448,421;,
 4;470,468,421,420;,
 4;469,468,470,471;,
 4;463,471,450,453;,
 4;469,462,440,448;,
 4;469,471,463,462;,
 4;472,470,420,432;,
 4;471,473,451,450;,
 4;471,470,472,473;,
 4;474,472,432,435;,
 4;475,474,435,456;,
 4;473,472,474,475;,
 4;467,475,456,444;,
 4;473,464,452,451;,
 4;473,475,467,464;,
 3;476,477,478;,
 3;476,479,477;,
 3;476,480,479;,
 3;476,481,480;,
 3;476,482,481;,
 3;476,478,482;,
 4;478,477,483,484;,
 4;477,479,485,483;,
 4;479,480,486,485;,
 4;480,481,487,486;,
 4;481,482,488,487;,
 4;482,478,484,488;,
 4;484,483,489,490;,
 4;483,485,491,489;,
 4;485,486,492,491;,
 4;486,487,493,492;,
 4;487,488,494,493;,
 4;488,484,490,494;,
 4;490,489,495,496;,
 4;489,491,497,495;,
 4;491,492,498,497;,
 4;492,493,499,498;,
 4;493,494,500,499;,
 4;494,490,496,500;,
 4;496,495,501,502;,
 4;495,497,503,501;,
 4;497,498,504,503;,
 4;498,499,505,504;,
 4;499,500,506,505;,
 4;500,496,502,506;,
 4;507,508,502,501;,
 3;508,507,509;,
 4;510,507,501,503;,
 3;507,510,509;,
 4;511,510,503,504;,
 3;510,511,509;,
 4;512,511,504,505;,
 3;511,512,509;,
 4;513,512,505,506;,
 3;512,513,509;,
 4;508,513,506,502;,
 3;513,508,509;;
 
 MeshMaterialList {
  4;
  568;
  0,
  0,
  0,
  0,
  0,
  0,
  0,
  0,
  0,
  0,
  0,
  0,
  0,
  0,
  0,
  0,
  0,
  0,
  0,
  0,
  0,
  0,
  0,
  0,
  0,
  0,
  0,
  0,
  0,
  0,
  0,
  0,
  0,
  0,
  0,
  0,
  0,
  0,
  0,
  0,
  0,
  0,
  0,
  0,
  0,
  0,
  0,
  0,
  0,
  0,
  0,
  0,
  0,
  0,
  1,
  1,
  1,
  1,
  1,
  1,
  1,
  1,
  1,
  1,
  1,
  1,
  1,
  1,
  1,
  1,
  1,
  1,
  1,
  1,
  1,
  1,
  1,
  1,
  1,
  1,
  1,
  1,
  1,
  1,
  1,
  1,
  1,
  1,
  1,
  1,
  0,
  0,
  0,
  0,
  0,
  0,
  0,
  0,
  0,
  0,
  0,
  0,
  0,
  0,
  0,
  0,
  0,
  0,
  1,
  1,
  1,
  1,
  1,
  1,
  1,
  1,
  1,
  1,
  1,
  1,
  1,
  1,
  1,
  1,
  1,
  1,
  1,
  1,
  1,
  1,
  1,
  1,
  1,
  1,
  1,
  1,
  1,
  1,
  1,
  1,
  1,
  1,
  1,
  1,
  0,
  0,
  0,
  0,
  0,
  0,
  0,
  0,
  0,
  0,
  0,
  0,
  0,
  0,
  0,
  0,
  0,
  0,
  1,
  1,
  1,
  1,
  1,
  1,
  1,
  1,
  1,
  1,
  1,
  1,
  1,
  1,
  1,
  1,
  1,
  1,
  1,
  1,
  1,
  1,
  1,
  1,
  1,
  1,
  1,
  1,
  1,
  1,
  1,
  1,
  1,
  1,
  1,
  1,
  1,
  1,
  1,
  1,
  1,
  1,
  1,
  1,
  1,
  1,
  1,
  1,
  0,
  0,
  0,
  0,
  0,
  0,
  0,
  0,
  0,
  0,
  0,
  0,
  0,
  0,
  0,
  0,
  0,
  0,
  1,
  1,
  1,
  1,
  1,
  1,
  1,
  1,
  1,
  1,
  1,
  1,
  1,
  1,
  1,
  1,
  1,
  1,
  1,
  1,
  1,
  1,
  1,
  1,
  1,
  1,
  1,
  1,
  1,
  1,
  1,
  1,
  1,
  1,
  1,
  1,
  1,
  1,
  1,
  1,
  1,
  1,
  1,
  1,
  1,
  1,
  1,
  1,
  1,
  1,
  1,
  1,
  1,
  1,
  1,
  1,
  1,
  1,
  1,
  1,
  1,
  1,
  1,
  1,
  1,
  1,
  1,
  1,
  1,
  1,
  1,
  1,
  1,
  1,
  1,
  1,
  1,
  1,
  1,
  1,
  1,
  1,
  1,
  1,
  1,
  1,
  1,
  1,
  1,
  1,
  1,
  1,
  1,
  1,
  1,
  1,
  2,
  2,
  2,
  2,
  2,
  2,
  2,
  2,
  2,
  2,
  2,
  2,
  2,
  2,
  2,
  2,
  2,
  2,
  2,
  2,
  2,
  2,
  2,
  2,
  2,
  2,
  2,
  2,
  2,
  2,
  2,
  2,
  2,
  2,
  2,
  2,
  2,
  2,
  2,
  2,
  2,
  2,
  2,
  2,
  0,
  0,
  0,
  0,
  0,
  0,
  0,
  0,
  0,
  0,
  0,
  0,
  0,
  0,
  0,
  0,
  0,
  0,
  0,
  0,
  0,
  0,
  0,
  0,
  0,
  0,
  0,
  0,
  0,
  0,
  0,
  0,
  0,
  0,
  0,
  0,
  0,
  0,
  0,
  0,
  0,
  0,
  0,
  0,
  0,
  0,
  0,
  0,
  0,
  0,
  0,
  0,
  0,
  0,
  0,
  0,
  0,
  0,
  3,
  3,
  3,
  3,
  3,
  3,
  3,
  3,
  3,
  3,
  3,
  3,
  3,
  3,
  3,
  3,
  3,
  3,
  3,
  3,
  3,
  3,
  3,
  3,
  3,
  3,
  3,
  3,
  3,
  3,
  3,
  3,
  3,
  3,
  3,
  3,
  3,
  3,
  3,
  3,
  3,
  3,
  0,
  0,
  0,
  0,
  0,
  0,
  0,
  0,
  0,
  0,
  0,
  0,
  0,
  0,
  0,
  0,
  0,
  0,
  0,
  0,
  0,
  0,
  0,
  0,
  0,
  0,
  0,
  0,
  0,
  0,
  0,
  0,
  0,
  0,
  0,
  0,
  0,
  0,
  0,
  0,
  0,
  0,
  0,
  0,
  0,
  0,
  0,
  0,
  0,
  0,
  0,
  0,
  0,
  0,
  0,
  0,
  0,
  0,
  3,
  3,
  3,
  3,
  3,
  3,
  3,
  3,
  3,
  3,
  3,
  3,
  3,
  3,
  3,
  3,
  3,
  3,
  3,
  3,
  3,
  3,
  3,
  3,
  3,
  3,
  3,
  3,
  3,
  3,
  3,
  3,
  3,
  3,
  3,
  3,
  3,
  3,
  3,
  3,
  3,
  3;;
  Material {
   0.620800;0.571200;0.040800;1.000000;;
   9.000000;
   0.720000;0.720000;0.720000;;
   0.000000;0.000000;0.000000;;
  }
  Material {
   0.150400;0.150400;0.150400;1.000000;;
   13.000000;
   0.560000;0.560000;0.560000;;
   0.000000;0.000000;0.000000;;
  }
  Material {
   0.103200;0.103200;0.103200;1.000000;;
   12.000000;
   0.350000;0.350000;0.350000;;
   0.000000;0.000000;0.000000;;
  }
  Material {
   0.912950;0.950000;0.607050;1.000000;;
   5.000000;
   0.000000;0.000000;0.000000;;
   0.701530;0.730000;0.466470;;
  }
 }
 MeshNormals {
  383;
  -0.819155;0.573573;0.000000;,
  0.286790;0.409579;-0.866023;,
  0.573577;0.819152;0.000000;,
  0.286790;0.409579;0.866023;,
  -0.286792;-0.409581;0.866022;,
  -0.573577;-0.819152;0.000000;,
  0.819157;-0.573569;-0.000000;,
  0.452122;0.573574;0.683080;,
  0.563876;0.409576;-0.717141;,
  -0.316583;0.819151;-0.478295;,
  -0.880455;0.409579;0.238840;,
  -0.563878;-0.409575;0.717140;,
  0.316581;-0.819152;0.478296;,
  -0.452123;-0.573570;-0.683082;,
  0.412616;0.573565;-0.707652;,
  0.603674;0.409582;0.683973;,
  -0.288909;0.819152;0.495500;,
  -0.892595;0.409574;-0.188477;,
  -0.603678;-0.409578;-0.683973;,
  0.288916;-0.819152;-0.495497;,
  -0.412614;-0.573572;0.707648;,
  0.641398;0.000000;-0.767208;,
  0.343725;0.000000;-0.939070;,
  0.343725;0.000000;0.939070;,
  0.641398;0.000000;0.767208;,
  -0.985121;0.000000;-0.171862;,
  -0.985121;0.000000;0.171862;,
  0.707107;0.000000;-0.707107;,
  0.258820;0.000000;-0.965926;,
  0.258820;0.000000;0.965926;,
  0.707107;0.000000;0.707107;,
  -0.965926;0.000000;-0.258820;,
  -0.965926;0.000000;0.258820;,
  0.000000;-1.000000;-0.000000;,
  0.000000;1.000000;0.000000;,
  0.866025;0.000000;-0.500001;,
  0.000000;0.000000;1.000000;,
  -0.866025;0.000000;-0.500001;,
  0.500001;0.000000;-0.866025;,
  1.000000;0.000000;0.000000;,
  0.500001;0.000000;0.866025;,
  -0.500001;0.000000;0.866025;,
  -1.000000;0.000000;0.000000;,
  0.499998;0.000000;-0.866026;,
  0.499998;0.000000;0.866026;,
  -0.499998;0.000000;0.866026;,
  0.500001;0.000000;-0.866025;,
  0.500001;0.000000;0.866025;,
  -0.500001;0.000000;0.866025;,
  0.000000;0.900507;-0.434842;,
  0.376585;0.900507;-0.217421;,
  0.376585;0.900507;0.217421;,
  0.000000;0.900507;0.434842;,
  -0.376585;0.900507;0.217421;,
  -0.376585;0.900507;-0.217421;,
  0.499999;0.000000;-0.866026;,
  0.499999;0.000000;0.866026;,
  -0.499999;0.000000;0.866026;,
  0.000000;0.000000;-1.000000;,
  1.000000;-0.000017;-0.000000;,
  0.000000;-0.500008;-0.866021;,
  0.000000;-0.500008;0.866021;,
  0.000000;0.500008;0.866021;,
  -1.000000;-0.000010;0.000000;,
  0.500001;0.000000;-0.866025;,
  0.500001;0.000000;0.866025;,
  -0.500001;0.000000;0.866025;,
  0.499997;0.000000;-0.866027;,
  0.499997;0.000000;0.866027;,
  -0.499997;0.000000;0.866027;,
  0.499997;0.000000;-0.866027;,
  0.499997;0.000000;0.866027;,
  0.179870;-0.009207;-0.983647;,
  0.385076;0.205554;-0.899702;,
  0.872606;0.488424;0.000000;,
  0.179870;-0.009207;0.983647;,
  -0.396991;-0.218404;0.891459;,
  -0.878325;-0.478063;0.000000;,
  -0.535396;0.844601;0.000000;,
  -0.012716;-0.013997;-0.999821;,
  0.248363;0.399476;-0.882460;,
  0.522883;0.852404;0.000000;,
  -0.012716;-0.013997;0.999821;,
  -0.270579;-0.423931;0.864332;,
  -0.542911;-0.839791;0.000000;,
  -0.996917;0.000000;0.078459;,
  -0.566403;0.000000;-0.824129;,
  0.430511;0.000000;-0.902585;,
  0.996918;0.000000;-0.078453;,
  0.566406;0.000000;0.824126;,
  0.430511;0.000000;-0.902585;,
  0.996918;0.000000;-0.078453;,
  0.566406;0.000000;0.824126;,
  -0.912530;-0.009207;0.408907;,
  -0.959578;0.205556;0.192243;,
  -0.494248;0.488425;-0.719139;,
  0.708769;-0.009205;-0.705381;,
  0.959533;-0.218404;-0.177752;,
  0.497488;-0.478064;0.723851;,
  0.303252;0.844601;0.441235;,
  -0.816776;-0.013998;0.576785;,
  -0.867932;0.399478;0.295147;,
  -0.296164;0.852405;-0.430921;,
  0.831181;-0.013995;-0.555825;,
  0.865576;-0.423931;-0.266571;,
  0.307507;-0.839791;0.447427;,
  0.522501;0.000000;0.852639;,
  -0.477162;0.000000;0.878816;,
  -0.999658;0.000000;0.026168;,
  -0.522489;0.000000;-0.852646;,
  0.477152;0.000000;-0.878821;,
  -0.477162;0.000000;0.878815;,
  0.477152;0.000000;-0.878821;,
  0.778619;-0.009206;0.627429;,
  0.606931;0.205554;0.767712;,
  -0.416373;0.488425;0.766861;,
  -0.950272;-0.009207;-0.311286;,
  -0.593994;-0.218405;-0.774255;,
  0.419097;-0.478064;-0.771889;,
  0.255470;0.844601;-0.470515;,
  0.884727;-0.013996;0.465899;,
  0.657013;0.399474;0.639338;,
  -0.249497;0.852405;0.459519;,
  -0.872591;-0.013998;-0.488250;,
  -0.630478;-0.423933;-0.650214;,
  0.259055;-0.839791;-0.477118;,
  0.000000;-0.500005;-0.866023;,
  0.000000;-0.500005;0.866023;,
  0.000000;0.500003;0.866024;,
  -0.286792;-0.409581;-0.866022;,
  -0.819156;0.573572;0.000000;,
  -0.819155;0.573573;0.000000;,
  -0.819154;0.573574;0.000000;,
  0.819157;-0.573569;-0.000000;,
  0.819149;-0.573580;-0.000000;,
  0.819165;-0.573558;-0.000000;,
  0.880455;-0.409578;-0.238840;,
  0.452119;0.573574;0.683082;,
  0.452123;0.573568;0.683084;,
  0.452126;0.573567;0.683084;,
  0.452124;0.573574;0.683079;,
  0.452121;0.573582;0.683075;,
  0.452119;0.573580;0.683077;,
  -0.452124;-0.573586;-0.683069;,
  -0.452128;-0.573572;-0.683079;,
  -0.452119;-0.573579;-0.683078;,
  -0.452113;-0.573569;-0.683090;,
  -0.452124;-0.573560;-0.683090;,
  -0.452134;-0.573556;-0.683088;,
  0.892594;-0.409578;0.188473;,
  0.412617;0.573567;-0.707650;,
  0.412621;0.573565;-0.707649;,
  0.412612;0.573569;-0.707651;,
  0.412613;0.573566;-0.707653;,
  0.412615;0.573562;-0.707654;,
  0.412619;0.573563;-0.707652;,
  -0.412615;-0.573568;0.707650;,
  -0.412608;-0.573576;0.707648;,
  -0.412607;-0.573582;0.707644;,
  -0.412615;-0.573576;0.707644;,
  -0.412620;-0.573566;0.707649;,
  -0.412620;-0.573563;0.707651;,
  0.866025;0.000000;0.500001;,
  -0.500001;0.000000;0.866025;,
  -0.866025;0.000000;0.500001;,
  -0.500001;0.000000;-0.866025;,
  -0.500001;0.000000;-0.866025;,
  -0.499998;0.000000;-0.866026;,
  -0.500001;0.000000;-0.866025;,
  -0.499999;0.000000;-0.866026;,
  0.000000;0.500008;-0.866021;,
  1.000000;-0.000020;-0.000000;,
  1.000000;-0.000014;-0.000000;,
  -1.000000;-0.000010;0.000000;,
  -1.000000;-0.000021;0.000000;,
  -0.500001;0.000000;-0.866025;,
  -0.499997;0.000000;-0.866027;,
  0.385076;0.205554;0.899702;,
  -0.499997;0.000000;0.866027;,
  -0.396991;-0.218404;-0.891459;,
  -0.499997;0.000000;-0.866027;,
  -0.571469;0.820623;0.000000;,
  -0.535396;0.844601;0.000000;,
  0.248363;0.399476;0.882460;,
  -0.498319;0.866994;0.000000;,
  -0.270579;-0.423931;-0.864332;,
  -0.430511;0.000000;0.902585;,
  0.523356;0.205557;-0.826949;,
  0.996918;0.000000;-0.078453;,
  -0.509814;-0.218405;0.832099;,
  -0.430511;0.000000;0.902585;,
  0.323688;0.820621;0.470965;,
  0.303254;0.844600;0.441234;,
  0.323686;0.820621;0.470965;,
  0.586581;0.399481;-0.704512;,
  0.303250;0.844601;0.441235;,
  0.282248;0.866996;0.410676;,
  0.282250;0.866995;0.410676;,
  -0.559059;-0.423933;0.712554;,
  0.999657;0.000000;-0.026175;,
  0.999657;0.000000;-0.026175;,
  -0.974416;0.205555;-0.090892;,
  -0.522489;0.000000;-0.852646;,
  0.972857;-0.218402;0.076486;,
  0.272682;0.820620;-0.502223;,
  0.255469;0.844600;-0.470518;,
  0.272683;0.820622;-0.502219;,
  -0.894028;0.399478;-0.202809;,
  0.255471;0.844602;-0.470512;,
  0.237779;0.866997;-0.437925;,
  0.237778;0.866996;-0.437927;,
  0.888700;-0.423928;0.174638;,
  0.000000;0.500003;-0.866024;,
  -0.983994;0.000000;0.178199;,
  -0.983994;0.000000;0.178199;,
  0.983994;0.000000;0.178199;,
  0.943881;0.000000;0.330286;,
  -0.943880;0.000000;0.330287;,
  0.433877;0.000000;0.900972;,
  0.433877;0.000000;0.900972;,
  -0.433876;0.000000;0.900973;,
  0.983994;0.000000;0.178199;,
  -0.943880;0.000000;0.330287;,
  -0.433876;0.000000;0.900973;,
  0.000000;0.983994;0.178200;,
  0.000000;0.000000;-1.000000;,
  0.000000;0.943880;0.330288;,
  0.000000;0.433875;0.900973;,
  0.000000;-0.983994;0.178201;,
  0.000000;0.000000;1.000000;,
  0.000000;-0.943881;0.330287;,
  0.000000;-0.433876;0.900973;,
  0.000000;0.983994;0.178200;,
  0.000000;-0.983994;0.178201;,
  -0.936490;0.000000;0.350694;,
  0.000000;-0.936489;0.350697;,
  0.000000;0.936489;0.350696;,
  0.936490;0.000000;0.350695;,
  -0.936490;0.000000;0.350694;,
  0.936490;0.000000;0.350695;,
  0.000000;0.936489;0.350696;,
  0.945282;0.000000;-0.326254;,
  0.000000;-0.936489;0.350697;,
  0.000000;0.936489;0.350696;,
  -0.952158;0.000000;-0.305605;,
  0.000000;-0.936489;0.350697;,
  -0.000000;0.000002;-1.000000;,
  0.000000;-0.492321;-0.870414;,
  0.426360;-0.246159;-0.870415;,
  0.426363;0.246164;-0.870413;,
  -0.000000;0.492323;-0.870412;,
  -0.426363;0.246164;-0.870413;,
  -0.426360;-0.246159;-0.870416;,
  0.000000;-0.862095;-0.506747;,
  0.746596;-0.431047;-0.506747;,
  0.746595;0.431049;-0.506747;,
  -0.000000;0.862095;-0.506746;,
  -0.746595;0.431049;-0.506748;,
  -0.746596;-0.431046;-0.506748;,
  -0.000000;-1.000000;0.000001;,
  0.866025;-0.500000;0.000000;,
  0.866025;0.500001;-0.000001;,
  0.000000;1.000000;-0.000001;,
  -0.866025;0.500001;-0.000001;,
  -0.866025;-0.500000;0.000000;,
  -0.000000;-0.862093;0.506750;,
  0.746594;-0.431048;0.506750;,
  0.746594;0.431049;0.506748;,
  0.000000;0.862095;0.506746;,
  -0.746594;0.431049;0.506749;,
  -0.746594;-0.431048;0.506750;,
  -0.000000;-0.879504;0.475892;,
  0.761670;-0.439754;0.475894;,
  0.761671;0.439752;0.475894;,
  -0.000000;0.879503;0.475893;,
  -0.761671;0.439752;0.475895;,
  -0.761670;-0.439753;0.475894;,
  -0.000001;-0.982507;0.186227;,
  0.850873;-0.491256;0.186232;,
  0.850875;0.491251;0.186237;,
  -0.000001;0.982505;0.186238;,
  -0.850875;0.491251;0.186237;,
  -0.850873;-0.491256;0.186232;,
  -0.000000;-0.000000;1.000000;,
  0.000000;0.781819;0.623505;,
  0.000000;-0.943881;0.330287;,
  0.000000;-0.781821;0.623503;,
  0.000000;0.983994;0.178200;,
  0.000000;0.781819;0.623505;,
  0.000000;-0.983994;0.178201;,
  0.000000;0.936489;0.350696;,
  -0.936490;0.000000;0.350694;,
  0.003670;-0.946357;-0.323102;,
  0.000000;-0.936489;0.350697;,
  0.003678;0.948549;-0.316610;,
  -0.000000;-0.101554;0.994830;,
  0.087943;-0.050776;0.994831;,
  0.087946;0.050777;0.994830;,
  -0.000000;0.101551;0.994830;,
  -0.087946;0.050777;0.994830;,
  -0.087943;-0.050776;0.994831;,
  -0.983994;0.000000;0.178199;,
  0.983994;0.000000;0.178199;,
  0.943881;0.000000;0.330287;,
  -0.943880;0.000000;0.330287;,
  0.433877;0.000000;0.900972;,
  -0.433876;0.000000;0.900973;,
  -0.983994;0.000000;0.178199;,
  0.983994;0.000000;0.178199;,
  0.943881;0.000000;0.330287;,
  0.000000;0.983994;0.178200;,
  0.000000;0.000000;-1.000000;,
  0.000000;0.943880;0.330288;,
  0.000000;0.433875;0.900973;,
  0.000000;-0.983994;0.178201;,
  0.000000;0.000000;1.000000;,
  0.000000;-0.943881;0.330287;,
  0.000000;-0.433876;0.900973;,
  0.000000;-0.983994;0.178201;,
  -0.936490;0.000000;0.350695;,
  0.000000;-0.936489;0.350697;,
  0.000000;0.936489;0.350696;,
  0.936490;0.000000;0.350695;,
  -0.936490;0.000000;0.350695;,
  0.936490;0.000000;0.350695;,
  0.000000;0.936489;0.350696;,
  0.945282;0.000000;-0.326254;,
  0.000000;-0.936489;0.350697;,
  -0.952159;0.000000;-0.305604;,
  0.000000;0.000002;-1.000000;,
  0.000000;-0.492321;-0.870414;,
  0.426360;-0.246159;-0.870415;,
  0.426363;0.246164;-0.870413;,
  0.000000;0.492323;-0.870412;,
  -0.426363;0.246164;-0.870412;,
  -0.426360;-0.246159;-0.870415;,
  0.000000;-0.862095;-0.506747;,
  0.746596;-0.431046;-0.506748;,
  0.746595;0.431048;-0.506748;,
  0.000000;0.862095;-0.506747;,
  -0.746595;0.431048;-0.506747;,
  -0.746596;-0.431046;-0.506748;,
  -0.000000;-1.000000;0.000002;,
  0.866025;-0.500000;0.000001;,
  0.866025;0.500001;-0.000001;,
  -0.000000;1.000000;-0.000001;,
  -0.866025;0.500001;-0.000001;,
  -0.866025;-0.500000;0.000000;,
  0.000000;-0.862094;0.506748;,
  0.746594;-0.431048;0.506749;,
  0.746594;0.431049;0.506748;,
  0.000000;0.862095;0.506746;,
  -0.746594;0.431049;0.506748;,
  -0.746595;-0.431048;0.506749;,
  0.000000;-0.879505;0.475890;,
  0.761671;-0.439754;0.475893;,
  0.761672;0.439752;0.475894;,
  0.000000;0.879503;0.475893;,
  -0.761672;0.439752;0.475893;,
  -0.761671;-0.439754;0.475892;,
  0.000001;-0.982507;0.186227;,
  0.850873;-0.491256;0.186232;,
  0.850875;0.491251;0.186237;,
  0.000001;0.982505;0.186238;,
  -0.850875;0.491251;0.186237;,
  -0.850873;-0.491256;0.186232;,
  0.000000;-0.000000;1.000000;,
  0.000000;0.983994;0.178200;,
  0.000000;0.781819;0.623505;,
  0.000000;-0.943881;0.330287;,
  0.000000;-0.781821;0.623503;,
  0.000000;0.983994;0.178200;,
  0.000000;0.781819;0.623505;,
  0.000000;-0.983994;0.178201;,
  0.000000;0.936489;0.350696;,
  0.003670;-0.946357;-0.323102;,
  0.003678;0.948549;-0.316610;,
  0.000000;-0.101554;0.994830;,
  0.087943;-0.050776;0.994831;,
  0.087946;0.050777;0.994830;,
  0.000000;0.101551;0.994830;,
  -0.087946;0.050777;0.994830;,
  -0.087943;-0.050776;0.994831;;
  568;
  4;1,1,1,1;,
  4;2,2,2,2;,
  4;3,3,3,3;,
  4;4,4,4,4;,
  4;5,5,5,5;,
  4;129,129,129,129;,
  3;0,130,131;,
  3;0,130,130;,
  3;0,131,130;,
  3;0,132,131;,
  3;0,132,132;,
  3;0,131,132;,
  3;6,133,134;,
  3;6,134,134;,
  3;6,134,133;,
  3;6,133,135;,
  3;6,135,135;,
  3;6,135,133;,
  4;8,8,8,8;,
  4;9,9,9,9;,
  4;10,10,10,10;,
  4;11,11,11,11;,
  4;12,12,12,12;,
  4;136,136,136,136;,
  3;7,137,138;,
  3;7,138,139;,
  3;7,139,140;,
  3;7,140,141;,
  3;7,141,142;,
  3;7,142,137;,
  3;13,143,144;,
  3;13,145,143;,
  3;13,146,145;,
  3;13,147,146;,
  3;13,148,147;,
  3;13,144,148;,
  4;15,15,15,15;,
  4;16,16,16,16;,
  4;17,17,17,17;,
  4;18,18,18,18;,
  4;19,19,19,19;,
  4;149,149,149,149;,
  3;14,150,151;,
  3;14,152,150;,
  3;14,153,152;,
  3;14,154,153;,
  3;14,155,154;,
  3;14,151,155;,
  3;20,156,157;,
  3;20,157,158;,
  3;20,158,159;,
  3;20,159,160;,
  3;20,160,161;,
  3;20,161,156;,
  4;21,22,28,27;,
  4;23,24,30,29;,
  4;25,26,32,31;,
  3;33,33,33;,
  3;33,33,33;,
  3;33,33,33;,
  3;33,33,33;,
  3;33,33,33;,
  3;33,33,33;,
  4;34,34,34,34;,
  4;36,36,23,29;,
  4;33,33,33,33;,
  4;58,58,28,22;,
  4;39,39,39,39;,
  4;34,34,34,34;,
  4;37,37,25,31;,
  4;33,33,33,33;,
  4;162,162,30,24;,
  4;163,163,163,163;,
  4;34,34,34,34;,
  4;35,35,21,27;,
  4;33,33,33,33;,
  4;164,164,32,26;,
  4;165,165,165,165;,
  4;38,38,22,21;,
  3;34,34,34;,
  4;39,39,39,39;,
  3;34,34,34;,
  4;40,40,24,23;,
  3;34,34,34;,
  4;41,41,41,41;,
  3;34,34,34;,
  4;42,42,26,25;,
  3;34,34,34;,
  4;166,166,166,166;,
  3;34,34,34;,
  4;43,43,43,43;,
  4;39,39,39,39;,
  4;44,44,44,44;,
  4;45,45,45,45;,
  4;42,42,42,42;,
  4;167,167,167,167;,
  3;34,34,34;,
  3;34,34,34;,
  3;34,34,34;,
  3;34,34,34;,
  3;34,34,34;,
  3;34,34,34;,
  3;33,33,33;,
  3;33,33,33;,
  3;33,33,33;,
  3;33,33,33;,
  3;33,33,33;,
  3;33,33,33;,
  4;46,46,46,46;,
  4;39,39,39,39;,
  4;47,47,47,47;,
  4;48,48,48,48;,
  4;42,42,42,42;,
  4;168,168,168,168;,
  3;33,33,33;,
  3;33,33,33;,
  3;33,33,33;,
  3;33,33,33;,
  3;33,33,33;,
  3;33,33,33;,
  4;49,50,50,49;,
  4;50,51,51,50;,
  4;51,52,52,51;,
  4;52,53,53,52;,
  4;53,54,54,53;,
  4;54,49,49,54;,
  4;55,55,55,55;,
  3;34,34,34;,
  4;39,39,39,39;,
  3;34,34,34;,
  4;56,56,56,56;,
  3;34,34,34;,
  4;57,57,57,57;,
  3;34,34,34;,
  4;42,42,42,42;,
  3;34,34,34;,
  4;169,169,169,169;,
  3;34,34,34;,
  4;58,58,58,58;,
  4;39,39,39,39;,
  4;36,36,36,36;,
  4;42,42,42,42;,
  4;34,34,34,34;,
  4;33,33,33,33;,
  4;60,60,60,60;,
  4;33,33,33,33;,
  4;61,61,61,61;,
  4;62,62,62,62;,
  4;34,34,34,34;,
  4;170,170,170,170;,
  3;59,171,59;,
  3;59,171,171;,
  3;59,59,171;,
  3;59,172,59;,
  3;59,172,172;,
  3;59,59,172;,
  3;63,173,174;,
  3;63,174,174;,
  3;63,174,173;,
  3;63,173,42;,
  3;63,42,42;,
  3;63,42,173;,
  4;64,64,64,64;,
  4;39,39,39,39;,
  4;65,65,65,65;,
  4;66,66,66,66;,
  4;42,42,42,42;,
  4;175,175,175,175;,
  3;34,34,34;,
  3;34,34,34;,
  3;34,34,34;,
  3;34,34,34;,
  3;34,34,34;,
  3;34,34,34;,
  3;33,33,33;,
  3;33,33,33;,
  3;33,33,33;,
  3;33,33,33;,
  3;33,33,33;,
  3;33,33,33;,
  4;67,67,70,70;,
  4;39,39,39,39;,
  4;68,68,71,71;,
  4;69,69,69,69;,
  4;42,42,42,42;,
  4;176,176,176,176;,
  3;33,33,33;,
  3;33,33,33;,
  3;33,33,33;,
  3;33,33,33;,
  3;33,33,33;,
  3;33,33,33;,
  4;72,73,67,67;,
  4;74,74,39,39;,
  4;177,75,68,68;,
  4;178,76,69,69;,
  4;77,77,42,42;,
  4;179,180,176,176;,
  4;79,80,73,72;,
  3;78,181,182;,
  4;81,81,74,74;,
  3;78,181,181;,
  4;183,82,75,177;,
  3;78,182,181;,
  4;82,83,76,75;,
  3;78,184,182;,
  4;84,84,77,77;,
  3;78,184,184;,
  4;185,79,72,179;,
  3;78,182,184;,
  4;1,1,1,1;,
  4;2,2,2,2;,
  4;3,3,3,3;,
  4;4,4,4,4;,
  4;5,5,5,5;,
  4;129,129,129,129;,
  3;0,130,131;,
  3;0,130,130;,
  3;0,131,130;,
  3;0,132,131;,
  3;0,132,132;,
  3;0,131,132;,
  3;6,133,134;,
  3;6,134,134;,
  3;6,134,133;,
  3;6,133,135;,
  3;6,135,135;,
  3;6,135,133;,
  4;85,85,85,85;,
  4;86,86,86,86;,
  4;87,87,90,90;,
  4;88,88,91,91;,
  4;89,89,92,92;,
  4;186,186,186,186;,
  3;33,33,33;,
  3;33,33,33;,
  3;33,33,33;,
  3;33,33,33;,
  3;33,33,33;,
  3;33,33,33;,
  4;93,94,85,85;,
  4;95,95,86,86;,
  4;187,96,87,87;,
  4;188,97,88,88;,
  4;98,98,89,89;,
  4;189,190,186,186;,
  4;100,101,94,93;,
  3;99,191,192;,
  4;102,102,95,95;,
  3;99,193,191;,
  4;194,103,96,187;,
  3;99,195,193;,
  4;103,104,97,96;,
  3;99,196,195;,
  4;105,105,98,98;,
  3;99,197,196;,
  4;198,100,93,189;,
  3;99,192,197;,
  4;106,106,106,106;,
  4;107,107,111,111;,
  4;108,108,108,108;,
  4;109,109,109,109;,
  4;110,110,112,112;,
  4;199,199,200,200;,
  3;33,33,33;,
  3;33,33,33;,
  3;33,33,33;,
  3;33,33,33;,
  3;33,33,33;,
  3;33,33,33;,
  4;113,114,106,106;,
  4;115,115,107,107;,
  4;201,116,108,108;,
  4;202,117,109,109;,
  4;118,118,110,110;,
  4;203,200,199,199;,
  4;120,121,114,113;,
  3;119,204,205;,
  4;122,122,115,115;,
  3;119,206,204;,
  4;207,123,116,201;,
  3;119,208,206;,
  4;123,124,117,116;,
  3;119,209,208;,
  4;125,125,118,118;,
  3;119,210,209;,
  4;211,120,113,203;,
  3;119,205,210;,
  4;126,126,126,126;,
  4;33,33,33,33;,
  4;127,127,127,127;,
  4;128,128,128,128;,
  4;34,34,34,34;,
  4;212,212,212,212;,
  3;39,39,39;,
  3;39,39,39;,
  3;39,39,39;,
  3;39,39,39;,
  3;39,39,39;,
  3;39,39,39;,
  3;42,42,42;,
  3;42,42,42;,
  3;42,42,42;,
  3;42,42,42;,
  3;42,42,42;,
  3;42,42,42;,
  4;126,126,126,126;,
  4;33,33,33,33;,
  4;127,127,127,127;,
  4;128,128,128,128;,
  4;34,34,34,34;,
  4;212,212,212,212;,
  3;39,39,39;,
  3;39,39,39;,
  3;39,39,39;,
  3;39,39,39;,
  3;39,39,39;,
  3;39,39,39;,
  3;42,42,42;,
  3;42,42,42;,
  3;42,42,42;,
  3;42,42,42;,
  3;42,42,42;,
  3;42,42,42;,
  4;34,34,34,34;,
  4;33,33,33,33;,
  4;39,39,39,39;,
  4;58,58,58,58;,
  4;58,58,58,58;,
  4;36,36,36,36;,
  4;36,36,36,36;,
  4;42,42,42,42;,
  4;42,42,42,42;,
  4;39,39,39,39;,
  4;34,34,34,34;,
  4;58,58,58,58;,
  4;58,58,58,58;,
  4;36,36,36,36;,
  4;36,36,36,36;,
  4;33,33,33,33;,
  4;33,33,33,33;,
  4;42,42,42,42;,
  4;36,36,36,36;,
  4;39,39,39,39;,
  4;58,58,58,58;,
  4;34,34,34,34;,
  4;34,34,34,34;,
  4;33,33,33,33;,
  4;39,39,39,39;,
  4;58,58,58,58;,
  4;58,58,58,58;,
  4;36,36,36,36;,
  4;36,36,36,36;,
  4;42,42,42,42;,
  4;42,42,42,42;,
  4;39,39,39,39;,
  4;34,34,34,34;,
  4;58,58,58,58;,
  4;58,58,58,58;,
  4;36,36,36,36;,
  4;36,36,36,36;,
  4;33,33,33,33;,
  4;33,33,33,33;,
  4;42,42,42,42;,
  4;36,36,36,36;,
  4;39,39,39,39;,
  4;58,58,58,58;,
  4;34,34,34,34;,
  4;213,222,217,213;,
  4;221,215,216,216;,
  4;222,223,220,217;,
  4;216,216,218,218;,
  4;213,214,217,222;,
  4;213,222,222,213;,
  4;221,221,216,216;,
  4;221,216,216,215;,
  4;222,217,220,223;,
  4;222,223,223,222;,
  4;216,216,218,218;,
  4;216,218,219,216;,
  4;224,224,226,226;,
  4;226,226,284,227;,
  4;227,220,223,229;,
  4;228,230,285,228;,
  4;229,223,223,229;,
  4;230,231,286,285;,
  4;229,223,220,231;,
  4;232,224,226,226;,
  4;232,226,226,287;,
  4;225,225,225,225;,
  4;226,226,227,227;,
  4;226,227,288,226;,
  4;227,227,229,229;,
  4;227,229,218,218;,
  4;233,289,285,230;,
  4;233,230,230,228;,
  4;229,229,229,229;,
  4;229,229,218,218;,
  4;230,285,286,231;,
  4;230,231,231,230;,
  4;229,229,231,231;,
  4;229,231,219,218;,
  4;234,238,213,213;,
  4;240,290,224,224;,
  4;225,225,225,225;,
  4;241,241,241,241;,
  4;238,238,213,213;,
  4;225,225,225,225;,
  4;235,242,228,228;,
  4;238,291,214,213;,
  4;225,225,225,225;,
  4;236,243,232,287;,
  4;239,237,215,221;,
  4;225,225,225,225;,
  4;292,292,292,292;,
  4;243,240,224,232;,
  4;225,225,225,225;,
  4;239,239,221,221;,
  4;244,244,244,244;,
  4;225,225,225,225;,
  4;237,239,221,215;,
  4;245,293,289,233;,
  4;225,225,225,225;,
  4;242,245,233,228;,
  4;294,294,294,294;,
  4;225,225,225,225;,
  3;246,248,247;,
  3;246,249,248;,
  3;246,250,249;,
  3;246,251,250;,
  3;246,252,251;,
  3;246,247,252;,
  4;247,248,254,253;,
  4;248,249,255,254;,
  4;249,250,256,255;,
  4;250,251,257,256;,
  4;251,252,258,257;,
  4;252,247,253,258;,
  4;253,254,260,259;,
  4;254,255,261,260;,
  4;255,256,262,261;,
  4;256,257,263,262;,
  4;257,258,264,263;,
  4;258,253,259,264;,
  4;259,260,266,265;,
  4;260,261,267,266;,
  4;261,262,268,267;,
  4;262,263,269,268;,
  4;263,264,270,269;,
  4;264,259,265,270;,
  4;265,266,272,271;,
  4;266,267,273,272;,
  4;267,268,274,273;,
  4;268,269,275,274;,
  4;269,270,276,275;,
  4;270,265,271,276;,
  4;278,277,271,272;,
  3;295,296,283;,
  4;279,278,272,273;,
  3;296,297,283;,
  4;280,279,273,274;,
  3;297,298,283;,
  4;281,280,274,275;,
  3;298,299,283;,
  4;282,281,275,276;,
  3;299,300,283;,
  4;277,282,276,271;,
  3;300,295,283;,
  4;307,304,304,301;,
  4;308,302,303,309;,
  4;304,306,306,304;,
  4;309,303,305,305;,
  4;307,301,304,304;,
  4;307,304,304,307;,
  4;308,308,309,309;,
  4;308,309,303,302;,
  4;304,304,306,306;,
  4;304,306,306,304;,
  4;309,309,305,305;,
  4;309,305,305,303;,
  4;310,367,312,312;,
  4;312,312,368,313;,
  4;313,306,306,315;,
  4;314,316,369,314;,
  4;315,306,306,315;,
  4;316,317,370,369;,
  4;315,306,306,317;,
  4;310,310,312,312;,
  4;310,312,312,371;,
  4;311,311,311,311;,
  4;312,312,313,313;,
  4;312,313,372,312;,
  4;313,313,315,315;,
  4;313,315,305,305;,
  4;318,373,369,316;,
  4;318,316,316,314;,
  4;315,315,315,315;,
  4;315,315,305,305;,
  4;316,369,370,317;,
  4;316,317,317,316;,
  4;315,315,317,317;,
  4;315,317,305,305;,
  4;319,323,307,301;,
  4;325,374,367,310;,
  4;311,311,311,311;,
  4;326,326,326,326;,
  4;323,323,307,307;,
  4;311,311,311,311;,
  4;320,327,314,314;,
  4;323,319,301,307;,
  4;311,311,311,311;,
  4;321,325,310,371;,
  4;324,322,302,308;,
  4;311,311,311,311;,
  4;375,375,375,375;,
  4;325,325,310,310;,
  4;311,311,311,311;,
  4;324,324,308,308;,
  4;328,328,328,328;,
  4;311,311,311,311;,
  4;322,324,308,302;,
  4;327,327,373,318;,
  4;311,311,311,311;,
  4;327,327,318,314;,
  4;376,376,376,376;,
  4;311,311,311,311;,
  3;329,331,330;,
  3;329,332,331;,
  3;329,333,332;,
  3;329,334,333;,
  3;329,335,334;,
  3;329,330,335;,
  4;330,331,337,336;,
  4;331,332,338,337;,
  4;332,333,339,338;,
  4;333,334,340,339;,
  4;334,335,341,340;,
  4;335,330,336,341;,
  4;336,337,343,342;,
  4;337,338,344,343;,
  4;338,339,345,344;,
  4;339,340,346,345;,
  4;340,341,347,346;,
  4;341,336,342,347;,
  4;342,343,349,348;,
  4;343,344,350,349;,
  4;344,345,351,350;,
  4;345,346,352,351;,
  4;346,347,353,352;,
  4;347,342,348,353;,
  4;348,349,355,354;,
  4;349,350,356,355;,
  4;350,351,357,356;,
  4;351,352,358,357;,
  4;352,353,359,358;,
  4;353,348,354,359;,
  4;361,360,354,355;,
  3;377,378,366;,
  4;362,361,355,356;,
  3;378,379,366;,
  4;363,362,356,357;,
  3;379,380,366;,
  4;364,363,357,358;,
  3;380,381,366;,
  4;365,364,358,359;,
  3;381,382,366;,
  4;360,365,359,354;,
  3;382,377,366;;
 }
}
