xof 0302txt 0064
template Header {
 <3D82AB43-62DA-11cf-AB39-0020AF71E433>
 WORD major;
 WORD minor;
 DWORD flags;
}

template Vector {
 <3D82AB5E-62DA-11cf-AB39-0020AF71E433>
 FLOAT x;
 FLOAT y;
 FLOAT z;
}

template Coords2d {
 <F6F23F44-7686-11cf-8F52-0040333594A3>
 FLOAT u;
 FLOAT v;
}

template Matrix4x4 {
 <F6F23F45-7686-11cf-8F52-0040333594A3>
 array FLOAT matrix[16];
}

template ColorRGBA {
 <35FF44E0-6C7C-11cf-8F52-0040333594A3>
 FLOAT red;
 FLOAT green;
 FLOAT blue;
 FLOAT alpha;
}

template ColorRGB {
 <D3E16E81-7835-11cf-8F52-0040333594A3>
 FLOAT red;
 FLOAT green;
 FLOAT blue;
}

template IndexedColor {
 <1630B820-7842-11cf-8F52-0040333594A3>
 DWORD index;
 ColorRGBA indexColor;
}

template Boolean {
 <4885AE61-78E8-11cf-8F52-0040333594A3>
 WORD truefalse;
}

template Boolean2d {
 <4885AE63-78E8-11cf-8F52-0040333594A3>
 Boolean u;
 Boolean v;
}

template MaterialWrap {
 <4885AE60-78E8-11cf-8F52-0040333594A3>
 Boolean u;
 Boolean v;
}

template TextureFilename {
 <A42790E1-7810-11cf-8F52-0040333594A3>
 STRING filename;
}

template Material {
 <3D82AB4D-62DA-11cf-AB39-0020AF71E433>
 ColorRGBA faceColor;
 FLOAT power;
 ColorRGB specularColor;
 ColorRGB emissiveColor;
 [...]
}

template MeshFace {
 <3D82AB5F-62DA-11cf-AB39-0020AF71E433>
 DWORD nFaceVertexIndices;
 array DWORD faceVertexIndices[nFaceVertexIndices];
}

template MeshFaceWraps {
 <4885AE62-78E8-11cf-8F52-0040333594A3>
 DWORD nFaceWrapValues;
 Boolean2d faceWrapValues;
}

template MeshTextureCoords {
 <F6F23F40-7686-11cf-8F52-0040333594A3>
 DWORD nTextureCoords;
 array Coords2d textureCoords[nTextureCoords];
}

template MeshMaterialList {
 <F6F23F42-7686-11cf-8F52-0040333594A3>
 DWORD nMaterials;
 DWORD nFaceIndexes;
 array DWORD faceIndexes[nFaceIndexes];
 [Material]
}

template MeshNormals {
 <F6F23F43-7686-11cf-8F52-0040333594A3>
 DWORD nNormals;
 array Vector normals[nNormals];
 DWORD nFaceNormals;
 array MeshFace faceNormals[nFaceNormals];
}

template MeshVertexColors {
 <1630B821-7842-11cf-8F52-0040333594A3>
 DWORD nVertexColors;
 array IndexedColor vertexColors[nVertexColors];
}

template Mesh {
 <3D82AB44-62DA-11cf-AB39-0020AF71E433>
 DWORD nVertices;
 array Vector vertices[nVertices];
 DWORD nFaces;
 array MeshFace faces[nFaces];
 [...]
}

Header{
1;
0;
1;
}

Mesh {
 452;
 0.00000;50.00000;-50.00000;,
 35.35535;50.00000;-35.35535;,
 35.35535;-50.00000;-35.35535;,
 0.00000;-50.00000;-50.00000;,
 50.00000;50.00000;0.00000;,
 50.00000;-50.00000;0.00000;,
 35.35535;50.00000;35.35535;,
 35.35535;-50.00000;35.35535;,
 0.00000;50.00000;50.00000;,
 -0.00000;-50.00000;50.00000;,
 -35.35535;50.00000;35.35535;,
 -35.35535;-50.00000;35.35535;,
 -50.00000;50.00000;0.00000;,
 -50.00000;-50.00000;0.00000;,
 -35.35535;50.00000;-35.35535;,
 -35.35535;-50.00000;-35.35535;,
 0.00000;50.00000;-50.00000;,
 0.00000;-50.00000;-50.00000;,
 0.00000;70.24940;-24.62570;,
 17.41300;70.24940;-17.41300;,
 0.00000;70.24940;0.00000;,
 24.62570;70.24940;0.00000;,
 0.00000;70.24940;0.00000;,
 17.41300;70.24940;17.41300;,
 0.00000;70.24940;0.00000;,
 0.00000;70.24940;24.62570;,
 0.00000;70.24940;0.00000;,
 -17.41300;70.24940;17.41300;,
 0.00000;70.24940;0.00000;,
 -24.62570;70.24940;0.00000;,
 0.00000;70.24940;0.00000;,
 -17.41300;70.24940;-17.41300;,
 0.00000;70.24940;0.00000;,
 0.00000;70.24940;-24.62570;,
 0.00000;70.24940;0.00000;,
 17.41300;-70.24940;-17.41300;,
 0.00000;-70.24940;-24.62570;,
 0.00000;-70.24940;-0.00000;,
 24.62570;-70.24940;0.00000;,
 0.00000;-70.24940;-0.00000;,
 17.41300;-70.24940;17.41300;,
 0.00000;-70.24940;-0.00000;,
 -0.00000;-70.24940;24.62570;,
 0.00000;-70.24940;-0.00000;,
 -17.41300;-70.24940;17.41300;,
 0.00000;-70.24940;-0.00000;,
 -24.62570;-70.24940;0.00000;,
 0.00000;-70.24940;-0.00000;,
 -17.41300;-70.24940;-17.41300;,
 0.00000;-70.24940;-0.00000;,
 0.00000;-70.24940;-24.62570;,
 0.00000;-70.24940;-0.00000;,
 -3.75470;93.54715;-3.39545;,
 3.90970;93.54715;-3.39545;,
 3.90970;85.36940;-3.39545;,
 -3.75470;85.36940;-3.39545;,
 3.90970;93.54715;4.26895;,
 -3.75470;93.54715;4.26895;,
 -3.75470;85.36940;4.26895;,
 3.90970;85.36940;4.26895;,
 -3.75470;93.54715;4.26895;,
 3.90970;93.54715;4.26895;,
 3.90970;93.54715;-3.39545;,
 -3.75470;93.54715;-3.39545;,
 -3.75470;85.36940;-3.39545;,
 3.90970;85.36940;-3.39545;,
 3.90970;85.36940;4.26895;,
 -3.75470;85.36940;4.26895;,
 27.86770;87.73560;4.26895;,
 27.86770;87.73560;-3.39545;,
 3.90970;93.54715;-3.39545;,
 27.86770;79.55785;4.26895;,
 27.86770;79.55785;-3.39545;,
 3.90970;85.36940;-3.39545;,
 -27.71270;87.73560;-3.39545;,
 -27.71270;87.73560;4.26895;,
 -3.75470;93.54715;-3.39545;,
 -27.71270;79.55785;-3.39545;,
 -3.75470;85.36940;-3.39545;,
 -27.71270;79.55785;4.26895;,
 58.17070;61.11690;4.26895;,
 58.17070;61.11690;-3.39545;,
 52.13365;58.04510;4.26895;,
 52.13365;58.04510;-3.39545;,
 -58.01570;61.11690;-3.39545;,
 -58.01570;61.11690;4.26895;,
 -51.97865;58.04510;-3.39545;,
 -51.97865;58.04510;4.26895;,
 58.67555;0.74180;4.26895;,
 58.67555;0.74180;-3.39545;,
 53.26585;0.90455;4.26895;,
 53.26585;0.90455;-3.39545;,
 -58.52055;0.74180;-3.39545;,
 -58.52055;0.74180;4.26895;,
 -53.11085;0.90455;-3.39545;,
 -53.11085;0.90455;4.26895;,
 -3.75470;-91.60775;-3.39545;,
 -3.75470;-83.43000;-3.39545;,
 3.90970;-83.43000;-3.39545;,
 3.90970;-91.60775;-3.39545;,
 3.90970;-91.60775;4.26895;,
 3.90970;-83.43000;4.26895;,
 -3.75470;-83.43000;4.26895;,
 -3.75470;-91.60775;4.26895;,
 -3.75470;-91.60775;4.26895;,
 -3.75470;-91.60775;-3.39545;,
 3.90970;-91.60775;-3.39545;,
 3.90970;-91.60775;4.26895;,
 -3.75470;-83.43000;-3.39545;,
 -3.75470;-83.43000;4.26895;,
 3.90970;-83.43000;4.26895;,
 3.90970;-83.43000;-3.39545;,
 27.86770;-85.79620;4.26895;,
 3.90970;-91.60775;-3.39545;,
 27.86770;-85.79620;-3.39545;,
 27.86770;-77.61845;4.26895;,
 27.86770;-77.61845;-3.39545;,
 3.90970;-83.43000;-3.39545;,
 -27.71270;-85.79620;-3.39545;,
 -3.75470;-91.60775;-3.39545;,
 -27.71270;-85.79620;4.26895;,
 -27.71270;-77.61845;-3.39545;,
 -3.75470;-83.43000;-3.39545;,
 -27.71270;-77.61845;4.26895;,
 58.17070;-59.17755;4.26895;,
 58.17070;-59.17755;-3.39545;,
 52.13365;-56.10570;4.26895;,
 52.13365;-56.10570;-3.39545;,
 -58.01570;-59.17755;-3.39545;,
 -58.01570;-59.17755;4.26895;,
 -51.97865;-56.10570;-3.39545;,
 -51.97865;-56.10570;4.26895;,
 -3.75470;93.54715;4.26900;,
 -3.75470;93.54715;-3.39545;,
 -3.75470;85.36940;-3.39545;,
 -3.75470;85.36940;4.26900;,
 3.90970;93.54715;-3.39545;,
 3.90970;93.54715;4.26900;,
 3.90970;85.36940;4.26900;,
 3.90970;85.36940;-3.39545;,
 3.90970;93.54715;4.26900;,
 3.90970;93.54715;-3.39545;,
 -3.75470;93.54715;-3.39545;,
 -3.75470;93.54715;4.26900;,
 -3.75470;85.36940;4.26900;,
 -3.75470;85.36940;-3.39545;,
 3.90970;85.36940;-3.39545;,
 3.90970;85.36940;4.26900;,
 3.90970;87.73560;-27.35340;,
 -3.75470;87.73560;-27.35340;,
 -3.75470;93.54715;-3.39545;,
 3.90970;79.55785;-27.35340;,
 -3.75470;79.55785;-27.35340;,
 -3.75470;85.36940;-3.39545;,
 -3.75470;87.73560;28.22695;,
 3.90970;87.73560;28.22695;,
 -3.75470;93.54715;4.26900;,
 -3.75470;79.55785;28.22695;,
 -3.75470;85.36940;4.26900;,
 3.90970;79.55785;28.22695;,
 3.90970;61.11690;-57.65645;,
 -3.75470;61.11690;-57.65645;,
 3.90970;58.04510;-51.61940;,
 -3.75470;58.04510;-51.61940;,
 -3.75470;61.11690;58.53000;,
 3.90970;61.11690;58.53000;,
 -3.75470;58.04510;52.49290;,
 3.90970;58.04510;52.49295;,
 3.90970;0.74180;-58.16130;,
 -3.75470;0.74180;-58.16125;,
 3.90970;0.90455;-52.75155;,
 -3.75470;0.90455;-52.75155;,
 -3.75470;0.74180;59.03480;,
 3.90970;0.74180;59.03480;,
 -3.75470;0.90455;53.62510;,
 3.90970;0.90455;53.62510;,
 -3.75470;-91.60775;4.26900;,
 -3.75470;-83.43000;4.26900;,
 -3.75470;-83.43000;-3.39545;,
 -3.75470;-91.60775;-3.39545;,
 3.90970;-91.60775;-3.39545;,
 3.90970;-83.43000;-3.39545;,
 3.90970;-83.43000;4.26900;,
 3.90970;-91.60775;4.26900;,
 3.90970;-91.60775;4.26900;,
 -3.75470;-91.60775;4.26900;,
 -3.75470;-91.60775;-3.39545;,
 3.90970;-91.60775;-3.39545;,
 -3.75470;-83.43000;4.26900;,
 3.90970;-83.43000;4.26900;,
 3.90970;-83.43000;-3.39545;,
 -3.75470;-83.43000;-3.39545;,
 3.90970;-85.79620;-27.35340;,
 -3.75470;-91.60775;-3.39545;,
 -3.75470;-85.79620;-27.35340;,
 3.90970;-77.61845;-27.35340;,
 -3.75470;-77.61845;-27.35340;,
 -3.75470;-83.43000;-3.39545;,
 -3.75470;-85.79620;28.22695;,
 -3.75470;-91.60775;4.26900;,
 3.90970;-85.79620;28.22695;,
 -3.75470;-77.61845;28.22695;,
 -3.75470;-83.43000;4.26900;,
 3.90970;-77.61845;28.22695;,
 3.90970;-59.17755;-57.65645;,
 -3.75470;-59.17755;-57.65645;,
 3.90970;-56.10570;-51.61940;,
 -3.75470;-56.10570;-51.61940;,
 -3.75470;-59.17755;58.53000;,
 3.90970;-59.17755;58.53000;,
 -3.75470;-56.10570;52.49290;,
 3.90970;-56.10570;52.49295;,
 0.07750;93.54715;5.85630;,
 -5.34205;93.54715;0.43675;,
 -5.34205;85.36940;0.43675;,
 0.07750;85.36940;5.85630;,
 0.07750;93.54715;-4.98280;,
 5.49705;93.54715;0.43680;,
 5.49705;85.36940;0.43680;,
 0.07750;85.36940;-4.98280;,
 5.49705;93.54715;0.43680;,
 0.07750;93.54715;-4.98280;,
 -5.34205;93.54715;0.43675;,
 0.07750;93.54715;5.85630;,
 0.07750;85.36940;5.85630;,
 -5.34205;85.36940;0.43675;,
 0.07750;85.36940;-4.98280;,
 5.49705;85.36940;0.43680;,
 -16.86335;87.73560;-21.92365;,
 -22.28290;87.73560;-16.50410;,
 -5.34205;93.54715;0.43675;,
 -16.86335;79.55785;-21.92365;,
 -22.28290;79.55785;-16.50410;,
 -5.34205;85.36940;0.43675;,
 17.01835;87.73560;22.79715;,
 22.43790;87.73560;17.37760;,
 0.07750;93.54715;5.85630;,
 17.01835;79.55785;22.79715;,
 0.07750;85.36940;5.85630;,
 22.43790;79.55785;17.37760;,
 -38.29080;61.11690;-43.35105;,
 -43.71035;61.11690;-37.93155;,
 -34.02195;58.04510;-39.08225;,
 -39.44150;58.04510;-33.66270;,
 38.44585;61.11690;44.22460;,
 43.86535;61.11690;38.80510;,
 34.17695;58.04510;39.95575;,
 39.59655;58.04510;34.53625;,
 -38.64775;0.74180;-43.70805;,
 -44.06730;0.74180;-38.28850;,
 -34.82255;0.90455;-39.88280;,
 -40.24205;0.90455;-34.46325;,
 38.80280;0.74180;44.58160;,
 44.22235;0.74180;39.16205;,
 34.97755;0.90455;40.75635;,
 40.39705;0.90455;35.33680;,
 0.07750;-91.60775;5.85630;,
 0.07750;-83.43000;5.85630;,
 -5.34205;-83.43000;0.43675;,
 -5.34205;-91.60775;0.43675;,
 0.07750;-91.60775;-4.98280;,
 0.07750;-83.43000;-4.98280;,
 5.49705;-83.43000;0.43680;,
 5.49705;-91.60775;0.43680;,
 5.49705;-91.60775;0.43680;,
 0.07750;-91.60775;5.85630;,
 -5.34205;-91.60775;0.43675;,
 0.07750;-91.60775;-4.98280;,
 0.07750;-83.43000;5.85630;,
 5.49705;-83.43000;0.43680;,
 0.07750;-83.43000;-4.98280;,
 -5.34205;-83.43000;0.43675;,
 -16.86335;-85.79620;-21.92365;,
 -5.34205;-91.60775;0.43675;,
 -22.28290;-85.79620;-16.50410;,
 -16.86335;-77.61845;-21.92365;,
 -22.28290;-77.61845;-16.50410;,
 -5.34205;-83.43000;0.43675;,
 17.01835;-85.79620;22.79715;,
 0.07750;-91.60775;5.85630;,
 22.43790;-85.79620;17.37760;,
 17.01835;-77.61845;22.79715;,
 0.07750;-83.43000;5.85630;,
 22.43790;-77.61845;17.37760;,
 -38.29080;-59.17755;-43.35105;,
 -43.71035;-59.17755;-37.93155;,
 -34.02195;-56.10570;-39.08225;,
 -39.44150;-56.10570;-33.66270;,
 38.44585;-59.17755;44.22460;,
 43.86535;-59.17755;38.80510;,
 34.17695;-56.10570;39.95575;,
 39.59655;-56.10570;34.53625;,
 -5.34205;93.54715;0.43675;,
 0.07750;93.54715;-4.98280;,
 0.07750;85.36940;-4.98280;,
 -5.34205;85.36940;0.43675;,
 5.49705;93.54715;0.43675;,
 0.07750;93.54715;5.85630;,
 0.07750;85.36940;5.85630;,
 5.49705;85.36940;0.43675;,
 0.07750;93.54715;5.85630;,
 5.49705;93.54715;0.43675;,
 0.07750;93.54715;-4.98280;,
 -5.34205;93.54715;0.43675;,
 -5.34205;85.36940;0.43675;,
 0.07750;85.36940;-4.98280;,
 5.49705;85.36940;0.43675;,
 0.07750;85.36940;5.85630;,
 22.43790;87.73560;-16.50405;,
 17.01835;87.73560;-21.92360;,
 0.07750;93.54715;-4.98280;,
 22.43790;79.55785;-16.50405;,
 17.01835;79.55785;-21.92360;,
 0.07750;85.36940;-4.98280;,
 -22.28290;87.73560;17.37760;,
 -16.86335;87.73560;22.79715;,
 -5.34205;93.54715;0.43675;,
 -22.28290;79.55785;17.37760;,
 -5.34205;85.36940;0.43675;,
 -16.86335;79.55785;22.79715;,
 43.86535;61.11690;-37.93155;,
 38.44585;61.11690;-43.35105;,
 39.59650;58.04510;-33.66270;,
 34.17695;58.04510;-39.08225;,
 -43.71035;61.11690;38.80510;,
 -38.29080;61.11690;44.22460;,
 -39.44150;58.04510;34.53625;,
 -34.02195;58.04510;39.95575;,
 44.22230;0.74180;-38.28850;,
 38.80280;0.74180;-43.70805;,
 40.39710;0.90455;-34.46325;,
 34.97755;0.90455;-39.88280;,
 -44.06730;0.74180;39.16205;,
 -38.64775;0.74180;44.58160;,
 -40.24210;0.90455;35.33680;,
 -34.82250;0.90455;40.75630;,
 -5.34205;-91.60775;0.43675;,
 -5.34205;-83.43000;0.43675;,
 0.07750;-83.43000;-4.98280;,
 0.07750;-91.60775;-4.98280;,
 5.49705;-91.60775;0.43675;,
 5.49705;-83.43000;0.43675;,
 0.07750;-83.43000;5.85630;,
 0.07750;-91.60775;5.85630;,
 0.07750;-91.60775;5.85630;,
 -5.34205;-91.60775;0.43675;,
 0.07750;-91.60775;-4.98280;,
 5.49705;-91.60775;0.43675;,
 -5.34205;-83.43000;0.43675;,
 0.07750;-83.43000;5.85630;,
 5.49705;-83.43000;0.43675;,
 0.07750;-83.43000;-4.98280;,
 22.43790;-85.79620;-16.50405;,
 0.07750;-91.60775;-4.98280;,
 17.01835;-85.79620;-21.92360;,
 22.43790;-77.61845;-16.50405;,
 17.01835;-77.61845;-21.92360;,
 0.07750;-83.43000;-4.98280;,
 -22.28290;-85.79620;17.37760;,
 -5.34205;-91.60775;0.43675;,
 -16.86335;-85.79620;22.79715;,
 -22.28290;-77.61845;17.37760;,
 -5.34205;-83.43000;0.43675;,
 -16.86335;-77.61845;22.79715;,
 43.86535;-59.17755;-37.93155;,
 38.44585;-59.17755;-43.35105;,
 39.59650;-56.10570;-33.66270;,
 34.17695;-56.10570;-39.08225;,
 -43.71035;-59.17755;38.80510;,
 -38.29080;-59.17755;44.22460;,
 -39.44150;-56.10570;34.53625;,
 -34.02195;-56.10570;39.95575;,
 -4.29800;89.61855;-4.29800;,
 4.29800;89.61855;-4.29800;,
 4.29800;-89.61855;-4.29800;,
 -4.29800;-89.61855;-4.29800;,
 4.29800;89.61855;-4.29800;,
 4.29800;89.61855;4.29800;,
 4.29800;-89.61855;4.29800;,
 4.29800;-89.61855;-4.29800;,
 4.29800;89.61855;4.29800;,
 -4.29800;89.61855;4.29800;,
 -4.29800;-89.61855;4.29800;,
 4.29800;-89.61855;4.29800;,
 -4.29800;89.61855;4.29800;,
 -4.29800;89.61855;-4.29800;,
 -4.29800;-89.61855;-4.29800;,
 -4.29800;-89.61855;4.29800;,
 4.29800;89.61855;-4.29800;,
 -4.29800;89.61855;-4.29800;,
 -4.29800;-89.61855;-4.29800;,
 4.29800;-89.61855;-4.29800;,
 -3.62760;42.71705;42.40805;,
 3.62760;42.71705;42.40805;,
 3.62760;35.46180;42.40805;,
 -3.62760;35.46180;42.40805;,
 3.62760;42.71705;42.40805;,
 3.62760;42.71705;91.90590;,
 3.62760;35.46180;91.90590;,
 3.62760;35.46180;42.40805;,
 3.62760;42.71705;91.90590;,
 -3.62760;42.71705;91.90590;,
 -3.62760;35.46180;91.90590;,
 3.62760;35.46180;91.90590;,
 -3.62760;42.71705;91.90590;,
 -3.62760;42.71705;42.40805;,
 -3.62760;35.46180;42.40805;,
 -3.62760;35.46180;91.90590;,
 3.62760;42.71705;42.40805;,
 -3.62760;42.71705;42.40805;,
 -3.62760;35.46180;42.40805;,
 3.62760;35.46180;42.40805;,
 -3.62760;42.71705;42.40805;,
 3.62760;42.71705;42.40805;,
 3.62760;35.46180;42.40805;,
 -3.62760;35.46180;42.40805;,
 3.62760;42.71705;42.40805;,
 3.62760;42.71705;91.90590;,
 3.62760;35.46180;91.90590;,
 3.62760;35.46180;42.40805;,
 3.62760;42.71705;91.90590;,
 -3.62760;42.71705;91.90590;,
 -3.62760;35.46180;91.90590;,
 3.62760;35.46180;91.90590;,
 -3.62760;42.71705;91.90590;,
 -3.62760;42.71705;42.40805;,
 -3.62760;35.46180;42.40805;,
 -3.62760;35.46180;91.90590;,
 3.62760;42.71705;42.40805;,
 -3.62760;42.71705;42.40805;,
 -3.62760;35.46180;42.40805;,
 3.62760;35.46180;42.40805;,
 -3.62760;-42.71705;42.40805;,
 -3.62760;-35.46180;42.40805;,
 3.62760;-35.46180;42.40805;,
 3.62760;-42.71705;42.40805;,
 3.62760;-42.71705;42.40805;,
 3.62760;-35.46180;42.40805;,
 3.62760;-35.46180;91.90590;,
 3.62760;-42.71705;91.90590;,
 3.62760;-42.71705;91.90590;,
 3.62760;-35.46180;91.90590;,
 -3.62760;-35.46180;91.90590;,
 -3.62760;-42.71705;91.90590;,
 -3.62760;-42.71705;91.90590;,
 -3.62760;-35.46180;91.90590;,
 -3.62760;-35.46180;42.40805;,
 -3.62760;-42.71705;42.40805;,
 -3.62760;-42.71705;42.40805;,
 3.62760;-42.71705;42.40805;,
 -3.62760;-35.46180;42.40805;,
 3.62760;-35.46180;42.40805;;
 
 304;
 4;0,1,2,3;,
 4;1,4,5,2;,
 4;4,6,7,5;,
 4;6,8,9,7;,
 4;8,10,11,9;,
 4;10,12,13,11;,
 4;12,14,15,13;,
 4;14,16,17,15;,
 4;18,19,1,0;,
 3;20,19,18;,
 4;19,21,4,1;,
 3;22,21,19;,
 4;21,23,6,4;,
 3;24,23,21;,
 4;23,25,8,6;,
 3;26,25,23;,
 4;25,27,10,8;,
 3;28,27,25;,
 4;27,29,12,10;,
 3;30,29,27;,
 4;29,31,14,12;,
 3;32,31,29;,
 4;31,33,16,14;,
 3;34,33,31;,
 4;35,36,3,2;,
 3;37,36,35;,
 4;38,35,2,5;,
 3;39,35,38;,
 4;40,38,5,7;,
 3;41,38,40;,
 4;42,40,7,9;,
 3;43,40,42;,
 4;44,42,9,11;,
 3;45,42,44;,
 4;46,44,11,13;,
 3;47,44,46;,
 4;48,46,13,15;,
 3;49,46,48;,
 4;50,48,15,17;,
 3;51,48,50;,
 4;52,53,54,55;,
 4;56,57,58,59;,
 4;60,61,62,63;,
 4;64,65,66,67;,
 4;68,69,70,61;,
 4;71,68,61,66;,
 4;72,71,66,73;,
 4;69,72,73,70;,
 4;74,75,60,76;,
 4;77,74,76,78;,
 4;79,77,78,67;,
 4;75,79,67,60;,
 4;80,81,69,68;,
 4;82,80,68,71;,
 4;83,82,71,72;,
 4;81,83,72,69;,
 4;84,85,75,74;,
 4;86,84,74,77;,
 4;87,86,77,79;,
 4;85,87,79,75;,
 4;88,89,81,80;,
 4;90,88,80,82;,
 4;91,90,82,83;,
 4;89,91,83,81;,
 4;89,88,90,91;,
 4;92,93,85,84;,
 4;94,92,84,86;,
 4;95,94,86,87;,
 4;93,95,87,85;,
 4;93,92,94,95;,
 4;96,97,98,99;,
 4;100,101,102,103;,
 4;104,105,106,107;,
 4;108,109,110,111;,
 4;112,107,113,114;,
 4;115,110,107,112;,
 4;116,117,110,115;,
 4;114,113,117,116;,
 4;118,119,104,120;,
 4;121,122,119,118;,
 4;123,109,122,121;,
 4;120,104,109,123;,
 4;124,112,114,125;,
 4;126,115,112,124;,
 4;127,116,115,126;,
 4;125,114,116,127;,
 4;128,118,120,129;,
 4;130,121,118,128;,
 4;131,123,121,130;,
 4;129,120,123,131;,
 4;88,124,125,89;,
 4;90,126,124,88;,
 4;91,127,126,90;,
 4;89,125,127,91;,
 4;89,91,90,88;,
 4;92,128,129,93;,
 4;94,130,128,92;,
 4;95,131,130,94;,
 4;93,129,131,95;,
 4;93,95,94,92;,
 4;132,133,134,135;,
 4;136,137,138,139;,
 4;140,141,142,143;,
 4;144,145,146,147;,
 4;148,149,150,141;,
 4;151,148,141,146;,
 4;152,151,146,153;,
 4;149,152,153,150;,
 4;154,155,140,156;,
 4;157,154,156,158;,
 4;159,157,158,147;,
 4;155,159,147,140;,
 4;160,161,149,148;,
 4;162,160,148,151;,
 4;163,162,151,152;,
 4;161,163,152,149;,
 4;164,165,155,154;,
 4;166,164,154,157;,
 4;167,166,157,159;,
 4;165,167,159,155;,
 4;168,169,161,160;,
 4;170,168,160,162;,
 4;171,170,162,163;,
 4;169,171,163,161;,
 4;169,168,170,171;,
 4;172,173,165,164;,
 4;174,172,164,166;,
 4;175,174,166,167;,
 4;173,175,167,165;,
 4;173,172,174,175;,
 4;176,177,178,179;,
 4;180,181,182,183;,
 4;184,185,186,187;,
 4;188,189,190,191;,
 4;192,187,193,194;,
 4;195,190,187,192;,
 4;196,197,190,195;,
 4;194,193,197,196;,
 4;198,199,184,200;,
 4;201,202,199,198;,
 4;203,189,202,201;,
 4;200,184,189,203;,
 4;204,192,194,205;,
 4;206,195,192,204;,
 4;207,196,195,206;,
 4;205,194,196,207;,
 4;208,198,200,209;,
 4;210,201,198,208;,
 4;211,203,201,210;,
 4;209,200,203,211;,
 4;168,204,205,169;,
 4;170,206,204,168;,
 4;171,207,206,170;,
 4;169,205,207,171;,
 4;169,171,170,168;,
 4;172,208,209,173;,
 4;174,210,208,172;,
 4;175,211,210,174;,
 4;173,209,211,175;,
 4;173,175,174,172;,
 4;212,213,214,215;,
 4;216,217,218,219;,
 4;220,221,222,223;,
 4;224,225,226,227;,
 4;228,229,230,221;,
 4;231,228,221,226;,
 4;232,231,226,233;,
 4;229,232,233,230;,
 4;234,235,220,236;,
 4;237,234,236,238;,
 4;239,237,238,227;,
 4;235,239,227,220;,
 4;240,241,229,228;,
 4;242,240,228,231;,
 4;243,242,231,232;,
 4;241,243,232,229;,
 4;244,245,235,234;,
 4;246,244,234,237;,
 4;247,246,237,239;,
 4;245,247,239,235;,
 4;248,249,241,240;,
 4;250,248,240,242;,
 4;251,250,242,243;,
 4;249,251,243,241;,
 4;249,248,250,251;,
 4;252,253,245,244;,
 4;254,252,244,246;,
 4;255,254,246,247;,
 4;253,255,247,245;,
 4;253,252,254,255;,
 4;256,257,258,259;,
 4;260,261,262,263;,
 4;264,265,266,267;,
 4;268,269,270,271;,
 4;272,267,273,274;,
 4;275,270,267,272;,
 4;276,277,270,275;,
 4;274,273,277,276;,
 4;278,279,264,280;,
 4;281,282,279,278;,
 4;283,269,282,281;,
 4;280,264,269,283;,
 4;284,272,274,285;,
 4;286,275,272,284;,
 4;287,276,275,286;,
 4;285,274,276,287;,
 4;288,278,280,289;,
 4;290,281,278,288;,
 4;291,283,281,290;,
 4;289,280,283,291;,
 4;248,284,285,249;,
 4;250,286,284,248;,
 4;251,287,286,250;,
 4;249,285,287,251;,
 4;249,251,250,248;,
 4;252,288,289,253;,
 4;254,290,288,252;,
 4;255,291,290,254;,
 4;253,289,291,255;,
 4;253,255,254,252;,
 4;292,293,294,295;,
 4;296,297,298,299;,
 4;300,301,302,303;,
 4;304,305,306,307;,
 4;308,309,310,301;,
 4;311,308,301,306;,
 4;312,311,306,313;,
 4;309,312,313,310;,
 4;314,315,300,316;,
 4;317,314,316,318;,
 4;319,317,318,307;,
 4;315,319,307,300;,
 4;320,321,309,308;,
 4;322,320,308,311;,
 4;323,322,311,312;,
 4;321,323,312,309;,
 4;324,325,315,314;,
 4;326,324,314,317;,
 4;327,326,317,319;,
 4;325,327,319,315;,
 4;328,329,321,320;,
 4;330,328,320,322;,
 4;331,330,322,323;,
 4;329,331,323,321;,
 4;329,328,330,331;,
 4;332,333,325,324;,
 4;334,332,324,326;,
 4;335,334,326,327;,
 4;333,335,327,325;,
 4;333,332,334,335;,
 4;336,337,338,339;,
 4;340,341,342,343;,
 4;344,345,346,347;,
 4;348,349,350,351;,
 4;352,347,353,354;,
 4;355,350,347,352;,
 4;356,357,350,355;,
 4;354,353,357,356;,
 4;358,359,344,360;,
 4;361,362,359,358;,
 4;363,349,362,361;,
 4;360,344,349,363;,
 4;364,352,354,365;,
 4;366,355,352,364;,
 4;367,356,355,366;,
 4;365,354,356,367;,
 4;368,358,360,369;,
 4;370,361,358,368;,
 4;371,363,361,370;,
 4;369,360,363,371;,
 4;328,364,365,329;,
 4;330,366,364,328;,
 4;331,367,366,330;,
 4;329,365,367,331;,
 4;329,331,330,328;,
 4;332,368,369,333;,
 4;334,370,368,332;,
 4;335,371,370,334;,
 4;333,369,371,335;,
 4;333,335,334,332;,
 4;372,373,374,375;,
 4;376,377,378,379;,
 4;380,381,382,383;,
 4;384,385,386,387;,
 4;384,377,388,389;,
 4;390,391,378,387;,
 4;392,393,394,395;,
 4;396,397,398,399;,
 4;400,401,402,403;,
 4;404,405,406,407;,
 4;404,397,408,409;,
 4;410,411,398,407;,
 4;412,413,414,415;,
 4;416,417,418,419;,
 4;420,421,422,423;,
 4;424,425,426,427;,
 4;424,417,428,429;,
 4;430,431,418,427;,
 4;432,433,434,435;,
 4;436,437,438,439;,
 4;440,441,442,443;,
 4;444,445,446,447;,
 4;444,448,449,439;,
 4;450,445,438,451;;
 
 MeshMaterialList {
  2;
  304;
  0,
  0,
  0,
  0,
  0,
  0,
  0,
  0,
  0,
  0,
  0,
  0,
  0,
  0,
  0,
  0,
  0,
  0,
  0,
  0,
  0,
  0,
  0,
  0,
  0,
  0,
  0,
  0,
  0,
  0,
  0,
  0,
  0,
  0,
  0,
  0,
  0,
  0,
  0,
  0,
  1,
  1,
  1,
  1,
  1,
  1,
  1,
  1,
  1,
  1,
  1,
  1,
  1,
  1,
  1,
  1,
  1,
  1,
  1,
  1,
  1,
  1,
  1,
  1,
  1,
  1,
  1,
  1,
  1,
  1,
  1,
  1,
  1,
  1,
  1,
  1,
  1,
  1,
  1,
  1,
  1,
  1,
  1,
  1,
  1,
  1,
  1,
  1,
  1,
  1,
  1,
  1,
  1,
  1,
  1,
  1,
  1,
  1,
  1,
  1,
  1,
  1,
  1,
  1,
  1,
  1,
  1,
  1,
  1,
  1,
  1,
  1,
  1,
  1,
  1,
  1,
  1,
  1,
  1,
  1,
  1,
  1,
  1,
  1,
  1,
  1,
  1,
  1,
  1,
  1,
  1,
  1,
  1,
  1,
  1,
  1,
  1,
  1,
  1,
  1,
  1,
  1,
  1,
  1,
  1,
  1,
  1,
  1,
  1,
  1,
  1,
  1,
  1,
  1,
  1,
  1,
  1,
  1,
  1,
  1,
  1,
  1,
  1,
  1,
  1,
  1,
  1,
  1,
  1,
  1,
  1,
  1,
  1,
  1,
  1,
  1,
  1,
  1,
  1,
  1,
  1,
  1,
  1,
  1,
  1,
  1,
  1,
  1,
  1,
  1,
  1,
  1,
  1,
  1,
  1,
  1,
  1,
  1,
  1,
  1,
  1,
  1,
  1,
  1,
  1,
  1,
  1,
  1,
  1,
  1,
  1,
  1,
  1,
  1,
  1,
  1,
  1,
  1,
  1,
  1,
  1,
  1,
  1,
  1,
  1,
  1,
  1,
  1,
  1,
  1,
  1,
  1,
  1,
  1,
  1,
  1,
  1,
  1,
  1,
  1,
  1,
  1,
  1,
  1,
  1,
  1,
  1,
  1,
  1,
  1,
  1,
  1,
  1,
  1,
  1,
  1,
  1,
  1,
  1,
  1,
  1,
  1,
  1,
  1,
  1,
  1,
  1,
  1,
  1,
  1,
  1,
  1,
  1,
  1,
  1,
  1,
  1,
  1,
  1,
  1,
  1,
  1,
  1,
  1,
  1,
  1,
  1,
  1,
  1,
  1,
  1,
  1,
  1,
  1,
  1,
  1,
  1,
  1,
  1,
  1,
  1,
  1,
  1,
  1;;
  Material {
   0.718400;0.677600;0.555200;1.000000;;
   5.000000;
   0.000000;0.000000;0.000000;;
   0.466960;0.440440;0.360880;;
  }
  Material {
   0.564800;0.564800;0.564800;1.000000;;
   5.000000;
   0.370000;0.370000;0.370000;;
   0.000000;0.000000;0.000000;;
  }
 }
 MeshNormals {
  223;
  0.000000;0.443864;-0.896094;,
  0.633634;0.443864;-0.633634;,
  0.896094;0.443864;0.000000;,
  0.633634;0.443864;0.633634;,
  0.000000;0.443864;0.896094;,
  -0.633634;0.443864;0.633634;,
  -0.896094;0.443864;0.000000;,
  -0.633634;0.443864;-0.633634;,
  0.000000;-0.443864;-0.896094;,
  0.633634;-0.443864;-0.633634;,
  0.896094;-0.443864;-0.000000;,
  0.633634;-0.443864;0.633634;,
  0.000000;-0.443864;0.896094;,
  -0.633634;-0.443864;0.633634;,
  -0.896094;-0.443864;0.000000;,
  -0.633634;-0.443864;-0.633634;,
  0.000000;1.000000;0.000000;,
  0.000000;0.945681;-0.325096;,
  0.229878;0.945681;-0.229878;,
  0.325096;0.945681;0.000000;,
  0.229878;0.945681;0.229878;,
  0.000000;0.945681;0.325096;,
  -0.229878;0.945681;0.229878;,
  -0.325096;0.945681;0.000000;,
  -0.229878;0.945681;-0.229878;,
  0.000000;-0.945681;-0.325096;,
  0.229878;-0.945681;-0.229878;,
  0.325096;-0.945681;-0.000000;,
  0.229878;-0.945681;0.229878;,
  0.000000;-0.945681;0.325096;,
  -0.229878;-0.945681;0.229878;,
  -0.325096;-0.945681;0.000000;,
  -0.229878;-0.945681;-0.229878;,
  0.000000;-1.000000;-0.000000;,
  0.000000;0.000000;-1.000000;,
  0.000000;0.000000;1.000000;,
  -0.461220;0.887286;0.000000;,
  0.461220;0.887286;0.000000;,
  -0.463244;-0.886231;0.000000;,
  0.463244;-0.886231;-0.000000;,
  -0.909300;0.416141;0.000000;,
  0.909300;0.416141;0.000000;,
  -0.907862;-0.419269;0.000000;,
  0.907862;-0.419269;-0.000000;,
  -1.000000;-0.000032;0.000000;,
  1.000000;-0.000032;-0.000000;,
  -1.000000;0.000023;0.000000;,
  1.000000;0.000023;0.000000;,
  -0.461219;-0.887286;0.000000;,
  0.461219;-0.887286;-0.000000;,
  -0.463244;0.886231;0.000000;,
  0.463244;0.886231;0.000000;,
  -0.909286;-0.416171;0.000000;,
  0.909286;-0.416171;-0.000000;,
  -0.907853;0.419289;0.000000;,
  0.907853;0.419289;0.000000;,
  -0.118707;0.992929;0.000000;,
  0.118707;0.992929;0.000000;,
  0.118707;-0.992929;-0.000000;,
  -0.118707;-0.992929;0.000000;,
  -0.030071;-0.999548;0.000000;,
  0.030071;-0.999548;-0.000000;,
  0.118707;0.992929;0.000000;,
  -0.118707;0.992929;0.000000;,
  0.030071;0.999548;0.000000;,
  -0.030071;0.999548;0.000000;,
  -1.000000;0.000000;0.000000;,
  1.000000;0.000000;0.000000;,
  0.000000;0.887286;0.461219;,
  0.000000;0.887286;-0.461219;,
  0.000000;-0.886231;0.463244;,
  0.000001;-0.886231;-0.463244;,
  0.000000;0.416141;0.909300;,
  -0.000002;0.416142;-0.909300;,
  0.000000;-0.419269;0.907862;,
  0.000003;-0.419269;-0.907862;,
  0.000000;-0.000032;1.000000;,
  -0.000003;-0.000032;-1.000000;,
  0.000000;0.000023;1.000000;,
  0.000003;0.000023;-1.000000;,
  0.000000;-0.887286;0.461219;,
  0.000000;-0.887286;-0.461219;,
  0.000000;0.886231;0.463244;,
  0.000001;0.886231;-0.463244;,
  0.000000;-0.416171;0.909286;,
  -0.000002;-0.416171;-0.909286;,
  0.000000;0.419289;0.907853;,
  0.000003;0.419289;-0.907853;,
  0.000000;0.992929;0.118708;,
  0.000000;0.992929;-0.118708;,
  0.000000;-0.992929;-0.118708;,
  0.000000;-0.992929;0.118708;,
  0.000000;-0.999548;0.030071;,
  0.000000;-0.999548;-0.030071;,
  0.000000;0.992929;-0.118708;,
  0.000000;0.992929;0.118708;,
  -0.000000;0.999548;-0.030071;,
  0.000000;0.999548;0.030071;,
  -0.707107;0.000000;0.707107;,
  -0.707107;0.000000;0.707107;,
  0.707108;0.000000;-0.707105;,
  0.707108;0.000000;-0.707106;,
  0.326131;0.887286;0.326132;,
  -0.707106;0.000001;0.707108;,
  -0.326131;0.887286;-0.326132;,
  0.327563;-0.886230;0.327563;,
  0.707106;0.000001;-0.707108;,
  -0.327562;-0.886231;-0.327565;,
  0.642972;0.416142;0.642972;,
  -0.707105;0.000001;0.707109;,
  -0.642971;0.416141;-0.642974;,
  0.641957;-0.419268;0.641955;,
  0.707106;0.000001;-0.707107;,
  -0.641953;-0.419268;-0.641958;,
  0.707107;-0.000032;0.707107;,
  -0.707105;0.000000;0.707109;,
  -0.707105;-0.000032;-0.707108;,
  0.707108;0.000023;0.707105;,
  0.707107;-0.000000;-0.707107;,
  -0.707105;0.000023;-0.707108;,
  0.707108;0.000000;-0.707105;,
  0.326131;-0.887286;0.326131;,
  -0.707106;-0.000001;0.707108;,
  -0.326131;-0.887286;-0.326132;,
  0.327563;0.886231;0.327563;,
  0.707106;-0.000001;-0.707108;,
  -0.327562;0.886231;-0.327565;,
  0.642963;-0.416171;0.642963;,
  -0.707105;-0.000001;0.707109;,
  -0.642961;-0.416170;-0.642964;,
  0.641950;0.419289;0.641948;,
  0.707106;-0.000001;-0.707107;,
  -0.641947;0.419289;-0.641951;,
  0.083939;0.992929;0.083939;,
  -0.083939;0.992929;-0.083939;,
  -0.083939;-0.992929;-0.083939;,
  0.083939;-0.992929;0.083939;,
  -0.707107;0.000000;0.707107;,
  0.707107;0.000001;-0.707107;,
  -0.707107;-0.000000;0.707107;,
  0.707107;0.000001;-0.707106;,
  -0.707107;-0.000000;0.707107;,
  0.021264;-0.999548;0.021264;,
  0.707106;-0.000000;-0.707107;,
  -0.021263;-0.999548;-0.021263;,
  0.083939;-0.992929;0.083939;,
  -0.083939;-0.992929;-0.083939;,
  -0.083939;0.992929;-0.083939;,
  0.083939;0.992929;0.083939;,
  -0.707107;-0.000000;0.707107;,
  0.707107;-0.000001;-0.707106;,
  -0.707107;0.000000;0.707107;,
  0.707108;-0.000001;-0.707106;,
  -0.021264;0.999548;-0.021264;,
  0.021263;0.999548;0.021263;,
  -0.707107;0.000000;-0.707107;,
  -0.707106;0.000000;-0.707107;,
  0.707106;0.000000;0.707107;,
  0.707107;0.000000;0.707107;,
  -0.326131;0.887286;0.326132;,
  -0.707107;-0.000000;-0.707107;,
  0.326132;0.887286;-0.326131;,
  -0.327563;-0.886231;0.327563;,
  0.707107;-0.000000;0.707107;,
  0.327563;-0.886231;-0.327564;,
  -0.642971;0.416141;0.642974;,
  -0.707108;-0.000000;-0.707105;,
  0.642973;0.416141;-0.642971;,
  -0.641955;-0.419269;0.641956;,
  0.707108;-0.000000;0.707105;,
  0.641952;-0.419268;-0.641959;,
  -0.707105;-0.000032;0.707108;,
  -0.707109;-0.000000;-0.707105;,
  0.707108;-0.000032;-0.707105;,
  -0.707107;0.000023;0.707107;,
  0.707109;-0.000000;0.707105;,
  0.707102;0.000023;-0.707112;,
  -0.326131;-0.887286;0.326132;,
  -0.707107;0.000000;-0.707107;,
  0.326131;-0.887286;-0.326131;,
  -0.327563;0.886231;0.327563;,
  0.707107;0.000000;0.707107;,
  0.327563;0.886231;-0.327564;,
  -0.642961;-0.416171;0.642964;,
  -0.707108;0.000000;-0.707105;,
  0.642964;-0.416171;-0.642962;,
  -0.641949;0.419289;0.641949;,
  0.707108;0.000000;0.707105;,
  0.641946;0.419289;-0.641952;,
  -0.083939;0.992929;0.083939;,
  0.083939;0.992929;-0.083939;,
  0.083939;-0.992929;-0.083939;,
  -0.083939;-0.992929;0.083939;,
  -0.707105;0.000002;-0.707109;,
  0.707107;-0.000000;0.707107;,
  -0.707103;0.000002;-0.707110;,
  0.707108;0.000000;0.707106;,
  -0.707103;-0.000000;-0.707111;,
  -0.021264;-0.999548;0.021264;,
  0.707109;-0.000000;0.707105;,
  0.021263;-0.999548;-0.021264;,
  -0.083939;-0.992929;0.083939;,
  0.083939;-0.992929;-0.083939;,
  0.083939;0.992929;-0.083939;,
  -0.083939;0.992929;0.083939;,
  -0.707105;-0.000002;-0.707109;,
  0.707107;0.000000;0.707107;,
  -0.707103;-0.000002;-0.707110;,
  0.707108;-0.000000;0.707106;,
  0.021264;0.999548;-0.021264;,
  -0.021263;0.999548;0.021264;,
  0.000000;0.000000;-1.000000;,
  1.000000;0.000000;0.000000;,
  0.000000;0.000000;1.000000;,
  -1.000000;0.000000;0.000000;,
  0.000000;1.000000;0.000000;,
  0.000000;-1.000000;-0.000000;,
  0.000000;0.000000;-1.000000;,
  1.000000;0.000000;0.000000;,
  0.000000;0.000000;1.000000;,
  -1.000000;0.000000;0.000000;,
  0.000000;1.000000;0.000000;,
  0.000000;-1.000000;-0.000000;;
  304;
  4;0,1,9,8;,
  4;1,2,10,9;,
  4;2,3,11,10;,
  4;3,4,12,11;,
  4;4,5,13,12;,
  4;5,6,14,13;,
  4;6,7,15,14;,
  4;7,0,8,15;,
  4;17,18,1,0;,
  3;16,18,17;,
  4;18,19,2,1;,
  3;16,19,18;,
  4;19,20,3,2;,
  3;16,20,19;,
  4;20,21,4,3;,
  3;16,21,20;,
  4;21,22,5,4;,
  3;16,22,21;,
  4;22,23,6,5;,
  3;16,23,22;,
  4;23,24,7,6;,
  3;16,24,23;,
  4;24,17,0,7;,
  3;16,17,24;,
  4;26,25,8,9;,
  3;33,25,26;,
  4;27,26,9,10;,
  3;33,26,27;,
  4;28,27,10,11;,
  3;33,27,28;,
  4;29,28,11,12;,
  3;33,28,29;,
  4;30,29,12,13;,
  3;33,29,30;,
  4;31,30,13,14;,
  3;33,30,31;,
  4;32,31,14,15;,
  3;33,31,32;,
  4;25,32,15,8;,
  3;33,32,25;,
  4;34,34,34,34;,
  4;35,35,35,35;,
  4;56,57,57,56;,
  4;58,59,59,58;,
  4;37,37,57,57;,
  4;35,35,35,35;,
  4;38,38,59,59;,
  4;34,34,34,34;,
  4;36,36,56,56;,
  4;34,34,34,34;,
  4;39,39,58,58;,
  4;35,35,35,35;,
  4;41,41,37,37;,
  4;35,35,35,35;,
  4;42,42,38,38;,
  4;34,34,34,34;,
  4;40,40,36,36;,
  4;34,34,34,34;,
  4;43,43,39,39;,
  4;35,35,35,35;,
  4;45,45,41,41;,
  4;35,35,35,35;,
  4;46,46,42,42;,
  4;34,34,34,34;,
  4;60,60,60,60;,
  4;44,44,40,40;,
  4;34,34,34,34;,
  4;47,47,43,43;,
  4;35,35,35,35;,
  4;61,61,61,61;,
  4;34,34,34,34;,
  4;35,35,35,35;,
  4;59,59,58,58;,
  4;62,62,63,63;,
  4;49,58,58,49;,
  4;35,35,35,35;,
  4;50,63,63,50;,
  4;34,34,34,34;,
  4;48,59,59,48;,
  4;34,34,34,34;,
  4;51,62,62,51;,
  4;35,35,35,35;,
  4;53,49,49,53;,
  4;35,35,35,35;,
  4;54,50,50,54;,
  4;34,34,34,34;,
  4;52,48,48,52;,
  4;34,34,34,34;,
  4;55,51,51,55;,
  4;35,35,35,35;,
  4;45,53,53,45;,
  4;35,35,35,35;,
  4;46,54,54,46;,
  4;34,34,34,34;,
  4;64,64,64,64;,
  4;44,52,52,44;,
  4;34,34,34,34;,
  4;47,55,55,47;,
  4;35,35,35,35;,
  4;65,65,65,65;,
  4;66,66,66,66;,
  4;67,67,67,67;,
  4;88,89,89,88;,
  4;90,91,91,90;,
  4;69,69,89,89;,
  4;67,67,67,67;,
  4;70,70,91,91;,
  4;66,66,66,66;,
  4;68,68,88,88;,
  4;66,66,66,66;,
  4;71,71,90,90;,
  4;67,67,67,67;,
  4;73,73,69,69;,
  4;67,67,67,67;,
  4;74,74,70,70;,
  4;66,66,66,66;,
  4;72,72,68,68;,
  4;66,66,66,66;,
  4;75,75,71,71;,
  4;67,67,67,67;,
  4;77,77,73,73;,
  4;67,67,67,67;,
  4;78,78,74,74;,
  4;66,66,66,66;,
  4;92,92,92,92;,
  4;76,76,72,72;,
  4;66,66,66,66;,
  4;79,79,75,75;,
  4;67,67,67,67;,
  4;93,93,93,93;,
  4;66,66,66,66;,
  4;67,67,67,67;,
  4;91,91,90,90;,
  4;94,94,95,95;,
  4;81,90,90,81;,
  4;67,67,67,67;,
  4;82,95,95,82;,
  4;66,66,66,66;,
  4;80,91,91,80;,
  4;66,66,66,66;,
  4;83,94,94,83;,
  4;67,67,67,67;,
  4;85,81,81,85;,
  4;67,67,67,67;,
  4;86,82,82,86;,
  4;66,66,66,66;,
  4;84,80,80,84;,
  4;66,66,66,66;,
  4;87,83,83,87;,
  4;67,67,67,67;,
  4;77,85,85,77;,
  4;67,67,67,67;,
  4;78,86,86,78;,
  4;66,66,66,66;,
  4;96,96,96,96;,
  4;76,84,84,76;,
  4;66,66,66,66;,
  4;79,87,87,79;,
  4;67,67,67,67;,
  4;97,97,97,97;,
  4;98,99,99,98;,
  4;100,101,101,100;,
  4;133,134,134,133;,
  4;135,136,136,135;,
  4;104,104,134,134;,
  4;106,106,100,100;,
  4;105,105,136,136;,
  4;137,137,99,99;,
  4;102,102,133,133;,
  4;103,103,98,98;,
  4;107,107,135,135;,
  4;138,138,101,101;,
  4;110,110,104,104;,
  4;112,112,106,106;,
  4;111,111,105,105;,
  4;139,139,137,137;,
  4;108,108,102,102;,
  4;109,109,103,103;,
  4;113,113,107,107;,
  4;140,140,138,138;,
  4;116,116,110,110;,
  4;118,118,112,112;,
  4;117,117,111,111;,
  4;141,141,139,139;,
  4;142,142,142,142;,
  4;114,114,108,108;,
  4;115,115,109,109;,
  4;119,119,113,113;,
  4;143,143,140,140;,
  4;144,144,144,144;,
  4;98,98,98,98;,
  4;120,120,101,101;,
  4;145,145,146,146;,
  4;147,147,148,148;,
  4;123,146,146,123;,
  4;125,120,120,125;,
  4;124,148,148,124;,
  4;149,98,98,149;,
  4;121,145,145,121;,
  4;122,98,98,122;,
  4;126,147,147,126;,
  4;150,101,101,150;,
  4;129,123,123,129;,
  4;131,125,125,131;,
  4;130,124,124,130;,
  4;151,149,149,151;,
  4;127,121,121,127;,
  4;128,122,122,128;,
  4;132,126,126,132;,
  4;152,150,150,152;,
  4;116,129,129,116;,
  4;118,131,131,118;,
  4;117,130,130,117;,
  4;141,151,151,141;,
  4;153,153,153,153;,
  4;114,127,127,114;,
  4;115,128,128,115;,
  4;119,132,132,119;,
  4;143,152,152,143;,
  4;154,154,154,154;,
  4;155,156,156,155;,
  4;157,158,158,157;,
  4;189,190,190,189;,
  4;191,192,192,191;,
  4;161,161,190,190;,
  4;163,163,157,157;,
  4;162,162,192,192;,
  4;193,193,156,156;,
  4;159,159,189,189;,
  4;160,160,155,155;,
  4;164,164,191,191;,
  4;194,194,158,158;,
  4;167,167,161,161;,
  4;169,169,163,163;,
  4;168,168,162,162;,
  4;195,195,193,193;,
  4;165,165,159,159;,
  4;166,166,160,160;,
  4;170,170,164,164;,
  4;196,196,194,194;,
  4;173,173,167,167;,
  4;175,175,169,169;,
  4;174,174,168,168;,
  4;197,197,195,195;,
  4;198,198,198,198;,
  4;171,171,165,165;,
  4;172,172,166,166;,
  4;176,176,170,170;,
  4;199,199,196,196;,
  4;200,200,200,200;,
  4;155,155,156,156;,
  4;157,157,158,158;,
  4;201,201,202,202;,
  4;203,203,204,204;,
  4;179,202,202,179;,
  4;181,157,157,181;,
  4;180,204,204,180;,
  4;205,156,156,205;,
  4;177,201,201,177;,
  4;178,155,155,178;,
  4;182,203,203,182;,
  4;206,158,158,206;,
  4;185,179,179,185;,
  4;187,181,181,187;,
  4;186,180,180,186;,
  4;207,205,205,207;,
  4;183,177,177,183;,
  4;184,178,178,184;,
  4;188,182,182,188;,
  4;208,206,206,208;,
  4;173,185,185,173;,
  4;175,187,187,175;,
  4;174,186,186,174;,
  4;197,207,207,197;,
  4;209,209,209,209;,
  4;171,183,183,171;,
  4;172,184,184,172;,
  4;176,188,188,176;,
  4;199,208,208,199;,
  4;210,210,210,210;,
  4;211,211,211,211;,
  4;212,212,212,212;,
  4;213,213,213,213;,
  4;214,214,214,214;,
  4;215,215,215,215;,
  4;216,216,216,216;,
  4;211,211,211,211;,
  4;212,212,212,212;,
  4;213,213,213,213;,
  4;214,214,214,214;,
  4;215,215,215,215;,
  4;216,216,216,216;,
  4;217,217,217,217;,
  4;218,218,218,218;,
  4;219,219,219,219;,
  4;220,220,220,220;,
  4;221,221,221,221;,
  4;222,222,222,222;,
  4;217,217,217,217;,
  4;218,218,218,218;,
  4;219,219,219,219;,
  4;220,220,220,220;,
  4;222,222,222,222;,
  4;221,221,221,221;;
 }
 MeshTextureCoords {
  452;
  0.000000;0.000000;,
  0.125000;0.000000;,
  0.125000;1.000000;,
  0.000000;1.000000;,
  0.250000;0.000000;,
  0.250000;1.000000;,
  0.375000;0.000000;,
  0.375000;1.000000;,
  0.500000;0.000000;,
  0.500000;1.000000;,
  0.625000;0.000000;,
  0.625000;1.000000;,
  0.750000;0.000000;,
  0.750000;1.000000;,
  0.875000;0.000000;,
  0.875000;1.000000;,
  1.000000;0.000000;,
  1.000000;1.000000;,
  0.000000;0.000000;,
  0.125000;0.000000;,
  0.062500;0.000000;,
  0.250000;0.000000;,
  0.187500;0.000000;,
  0.375000;0.000000;,
  0.312500;0.000000;,
  0.500000;0.000000;,
  0.437500;0.000000;,
  0.625000;0.000000;,
  0.562500;0.000000;,
  0.750000;0.000000;,
  0.687500;0.000000;,
  0.875000;0.000000;,
  0.812500;0.000000;,
  1.000000;0.000000;,
  0.937500;0.000000;,
  0.125000;1.000000;,
  0.000000;1.000000;,
  0.062500;1.000000;,
  0.250000;1.000000;,
  0.187500;1.000000;,
  0.375000;1.000000;,
  0.312500;1.000000;,
  0.500000;1.000000;,
  0.437500;1.000000;,
  0.625000;1.000000;,
  0.562500;1.000000;,
  0.750000;1.000000;,
  0.687500;1.000000;,
  0.875000;1.000000;,
  0.812500;1.000000;,
  1.000000;1.000000;,
  0.937500;1.000000;,
  0.000000;0.000000;,
  1.000000;0.000000;,
  1.000000;1.000000;,
  0.000000;1.000000;,
  0.000000;0.000000;,
  1.000000;0.000000;,
  1.000000;1.000000;,
  0.000000;1.000000;,
  0.000000;0.000000;,
  1.000000;0.000000;,
  1.000000;1.000000;,
  0.000000;1.000000;,
  0.000000;0.000000;,
  1.000000;0.000000;,
  1.000000;1.000000;,
  0.000000;1.000000;,
  1.000000;0.000000;,
  0.000000;0.000000;,
  0.000000;0.000000;,
  1.000000;1.000000;,
  0.000000;1.000000;,
  0.000000;1.000000;,
  1.000000;0.000000;,
  0.000000;0.000000;,
  1.000000;0.000000;,
  1.000000;1.000000;,
  1.000000;1.000000;,
  0.000000;1.000000;,
  1.000000;0.000000;,
  0.000000;0.000000;,
  1.000000;1.000000;,
  0.000000;1.000000;,
  1.000000;0.000000;,
  0.000000;0.000000;,
  1.000000;1.000000;,
  0.000000;1.000000;,
  1.000000;0.000000;,
  0.000000;0.000000;,
  1.000000;1.000000;,
  0.000000;1.000000;,
  1.000000;0.000000;,
  0.000000;0.000000;,
  1.000000;1.000000;,
  0.000000;1.000000;,
  0.000000;0.000000;,
  0.000000;1.000000;,
  1.000000;1.000000;,
  1.000000;0.000000;,
  0.000000;0.000000;,
  0.000000;1.000000;,
  1.000000;1.000000;,
  1.000000;0.000000;,
  0.000000;0.000000;,
  0.000000;1.000000;,
  1.000000;1.000000;,
  1.000000;0.000000;,
  0.000000;0.000000;,
  0.000000;1.000000;,
  1.000000;1.000000;,
  1.000000;0.000000;,
  1.000000;0.000000;,
  0.000000;0.000000;,
  0.000000;0.000000;,
  1.000000;1.000000;,
  0.000000;1.000000;,
  0.000000;1.000000;,
  1.000000;0.000000;,
  1.000000;0.000000;,
  0.000000;0.000000;,
  1.000000;1.000000;,
  1.000000;1.000000;,
  0.000000;1.000000;,
  1.000000;0.000000;,
  0.000000;0.000000;,
  1.000000;1.000000;,
  0.000000;1.000000;,
  1.000000;0.000000;,
  0.000000;0.000000;,
  1.000000;1.000000;,
  0.000000;1.000000;,
  0.000000;0.000000;,
  1.000000;0.000000;,
  1.000000;1.000000;,
  0.000000;1.000000;,
  0.000000;0.000000;,
  1.000000;0.000000;,
  1.000000;1.000000;,
  0.000000;1.000000;,
  0.000000;0.000000;,
  1.000000;0.000000;,
  1.000000;1.000000;,
  0.000000;1.000000;,
  0.000000;0.000000;,
  1.000000;0.000000;,
  1.000000;1.000000;,
  0.000000;1.000000;,
  1.000000;0.000000;,
  0.000000;0.000000;,
  0.000000;0.000000;,
  1.000000;1.000000;,
  0.000000;1.000000;,
  0.000000;1.000000;,
  1.000000;0.000000;,
  0.000000;0.000000;,
  1.000000;0.000000;,
  1.000000;1.000000;,
  1.000000;1.000000;,
  0.000000;1.000000;,
  1.000000;0.000000;,
  0.000000;0.000000;,
  1.000000;1.000000;,
  0.000000;1.000000;,
  1.000000;0.000000;,
  0.000000;0.000000;,
  1.000000;1.000000;,
  0.000000;1.000000;,
  1.000000;0.000000;,
  0.000000;0.000000;,
  1.000000;1.000000;,
  0.000000;1.000000;,
  1.000000;0.000000;,
  0.000000;0.000000;,
  1.000000;1.000000;,
  0.000000;1.000000;,
  0.000000;0.000000;,
  0.000000;1.000000;,
  1.000000;1.000000;,
  1.000000;0.000000;,
  0.000000;0.000000;,
  0.000000;1.000000;,
  1.000000;1.000000;,
  1.000000;0.000000;,
  0.000000;0.000000;,
  0.000000;1.000000;,
  1.000000;1.000000;,
  1.000000;0.000000;,
  0.000000;0.000000;,
  0.000000;1.000000;,
  1.000000;1.000000;,
  1.000000;0.000000;,
  1.000000;0.000000;,
  0.000000;0.000000;,
  0.000000;0.000000;,
  1.000000;1.000000;,
  0.000000;1.000000;,
  0.000000;1.000000;,
  1.000000;0.000000;,
  1.000000;0.000000;,
  0.000000;0.000000;,
  1.000000;1.000000;,
  1.000000;1.000000;,
  0.000000;1.000000;,
  1.000000;0.000000;,
  0.000000;0.000000;,
  1.000000;1.000000;,
  0.000000;1.000000;,
  1.000000;0.000000;,
  0.000000;0.000000;,
  1.000000;1.000000;,
  0.000000;1.000000;,
  0.000000;0.000000;,
  1.000000;0.000000;,
  1.000000;1.000000;,
  0.000000;1.000000;,
  0.000000;0.000000;,
  1.000000;0.000000;,
  1.000000;1.000000;,
  0.000000;1.000000;,
  0.000000;0.000000;,
  1.000000;0.000000;,
  1.000000;1.000000;,
  0.000000;1.000000;,
  0.000000;0.000000;,
  1.000000;0.000000;,
  1.000000;1.000000;,
  0.000000;1.000000;,
  1.000000;0.000000;,
  0.000000;0.000000;,
  0.000000;0.000000;,
  1.000000;1.000000;,
  0.000000;1.000000;,
  0.000000;1.000000;,
  1.000000;0.000000;,
  0.000000;0.000000;,
  1.000000;0.000000;,
  1.000000;1.000000;,
  1.000000;1.000000;,
  0.000000;1.000000;,
  1.000000;0.000000;,
  0.000000;0.000000;,
  1.000000;1.000000;,
  0.000000;1.000000;,
  1.000000;0.000000;,
  0.000000;0.000000;,
  1.000000;1.000000;,
  0.000000;1.000000;,
  1.000000;0.000000;,
  0.000000;0.000000;,
  1.000000;1.000000;,
  0.000000;1.000000;,
  1.000000;0.000000;,
  0.000000;0.000000;,
  1.000000;1.000000;,
  0.000000;1.000000;,
  0.000000;0.000000;,
  0.000000;1.000000;,
  1.000000;1.000000;,
  1.000000;0.000000;,
  0.000000;0.000000;,
  0.000000;1.000000;,
  1.000000;1.000000;,
  1.000000;0.000000;,
  0.000000;0.000000;,
  0.000000;1.000000;,
  1.000000;1.000000;,
  1.000000;0.000000;,
  0.000000;0.000000;,
  0.000000;1.000000;,
  1.000000;1.000000;,
  1.000000;0.000000;,
  1.000000;0.000000;,
  0.000000;0.000000;,
  0.000000;0.000000;,
  1.000000;1.000000;,
  0.000000;1.000000;,
  0.000000;1.000000;,
  1.000000;0.000000;,
  1.000000;0.000000;,
  0.000000;0.000000;,
  1.000000;1.000000;,
  1.000000;1.000000;,
  0.000000;1.000000;,
  1.000000;0.000000;,
  0.000000;0.000000;,
  1.000000;1.000000;,
  0.000000;1.000000;,
  1.000000;0.000000;,
  0.000000;0.000000;,
  1.000000;1.000000;,
  0.000000;1.000000;,
  0.000000;0.000000;,
  1.000000;0.000000;,
  1.000000;1.000000;,
  0.000000;1.000000;,
  0.000000;0.000000;,
  1.000000;0.000000;,
  1.000000;1.000000;,
  0.000000;1.000000;,
  0.000000;0.000000;,
  1.000000;0.000000;,
  1.000000;1.000000;,
  0.000000;1.000000;,
  0.000000;0.000000;,
  1.000000;0.000000;,
  1.000000;1.000000;,
  0.000000;1.000000;,
  1.000000;0.000000;,
  0.000000;0.000000;,
  0.000000;0.000000;,
  1.000000;1.000000;,
  0.000000;1.000000;,
  0.000000;1.000000;,
  1.000000;0.000000;,
  0.000000;0.000000;,
  1.000000;0.000000;,
  1.000000;1.000000;,
  1.000000;1.000000;,
  0.000000;1.000000;,
  1.000000;0.000000;,
  0.000000;0.000000;,
  1.000000;1.000000;,
  0.000000;1.000000;,
  1.000000;0.000000;,
  0.000000;0.000000;,
  1.000000;1.000000;,
  0.000000;1.000000;,
  1.000000;0.000000;,
  0.000000;0.000000;,
  1.000000;1.000000;,
  0.000000;1.000000;,
  1.000000;0.000000;,
  0.000000;0.000000;,
  1.000000;1.000000;,
  0.000000;1.000000;,
  0.000000;0.000000;,
  0.000000;1.000000;,
  1.000000;1.000000;,
  1.000000;0.000000;,
  0.000000;0.000000;,
  0.000000;1.000000;,
  1.000000;1.000000;,
  1.000000;0.000000;,
  0.000000;0.000000;,
  0.000000;1.000000;,
  1.000000;1.000000;,
  1.000000;0.000000;,
  0.000000;0.000000;,
  0.000000;1.000000;,
  1.000000;1.000000;,
  1.000000;0.000000;,
  1.000000;0.000000;,
  0.000000;0.000000;,
  0.000000;0.000000;,
  1.000000;1.000000;,
  0.000000;1.000000;,
  0.000000;1.000000;,
  1.000000;0.000000;,
  1.000000;0.000000;,
  0.000000;0.000000;,
  1.000000;1.000000;,
  1.000000;1.000000;,
  0.000000;1.000000;,
  1.000000;0.000000;,
  0.000000;0.000000;,
  1.000000;1.000000;,
  0.000000;1.000000;,
  1.000000;0.000000;,
  0.000000;0.000000;,
  1.000000;1.000000;,
  0.000000;1.000000;,
  0.000000;0.000000;,
  1.000000;0.000000;,
  1.000000;1.000000;,
  0.000000;1.000000;,
  0.000000;0.000000;,
  1.000000;0.000000;,
  1.000000;1.000000;,
  0.000000;1.000000;,
  0.000000;0.000000;,
  1.000000;0.000000;,
  1.000000;1.000000;,
  0.000000;1.000000;,
  0.000000;0.000000;,
  1.000000;0.000000;,
  1.000000;1.000000;,
  0.000000;1.000000;,
  1.000000;1.000000;,
  0.000000;1.000000;,
  0.000000;0.000000;,
  1.000000;0.000000;,
  0.000000;0.000000;,
  1.000000;0.000000;,
  1.000000;1.000000;,
  0.000000;1.000000;,
  0.000000;0.000000;,
  1.000000;0.000000;,
  1.000000;1.000000;,
  0.000000;1.000000;,
  0.000000;0.000000;,
  1.000000;0.000000;,
  1.000000;1.000000;,
  0.000000;1.000000;,
  0.000000;0.000000;,
  1.000000;0.000000;,
  1.000000;1.000000;,
  0.000000;1.000000;,
  1.000000;1.000000;,
  0.000000;1.000000;,
  0.000000;0.000000;,
  1.000000;0.000000;,
  0.000000;0.000000;,
  1.000000;0.000000;,
  1.000000;1.000000;,
  0.000000;1.000000;,
  0.000000;0.000000;,
  1.000000;0.000000;,
  1.000000;1.000000;,
  0.000000;1.000000;,
  0.000000;0.000000;,
  1.000000;0.000000;,
  1.000000;1.000000;,
  0.000000;1.000000;,
  0.000000;0.000000;,
  1.000000;0.000000;,
  1.000000;1.000000;,
  0.000000;1.000000;,
  1.000000;1.000000;,
  0.000000;1.000000;,
  0.000000;0.000000;,
  1.000000;0.000000;,
  0.000000;0.000000;,
  0.000000;1.000000;,
  1.000000;1.000000;,
  1.000000;0.000000;,
  0.000000;0.000000;,
  0.000000;1.000000;,
  1.000000;1.000000;,
  1.000000;0.000000;,
  0.000000;0.000000;,
  0.000000;1.000000;,
  1.000000;1.000000;,
  1.000000;0.000000;,
  0.000000;0.000000;,
  0.000000;1.000000;,
  1.000000;1.000000;,
  1.000000;0.000000;,
  0.000000;1.000000;,
  1.000000;1.000000;,
  0.000000;0.000000;,
  1.000000;0.000000;;
 }
}
