xof 0302txt 0064
template Header {
 <3D82AB43-62DA-11cf-AB39-0020AF71E433>
 WORD major;
 WORD minor;
 DWORD flags;
}

template Vector {
 <3D82AB5E-62DA-11cf-AB39-0020AF71E433>
 FLOAT x;
 FLOAT y;
 FLOAT z;
}

template Coords2d {
 <F6F23F44-7686-11cf-8F52-0040333594A3>
 FLOAT u;
 FLOAT v;
}

template Matrix4x4 {
 <F6F23F45-7686-11cf-8F52-0040333594A3>
 array FLOAT matrix[16];
}

template ColorRGBA {
 <35FF44E0-6C7C-11cf-8F52-0040333594A3>
 FLOAT red;
 FLOAT green;
 FLOAT blue;
 FLOAT alpha;
}

template ColorRGB {
 <D3E16E81-7835-11cf-8F52-0040333594A3>
 FLOAT red;
 FLOAT green;
 FLOAT blue;
}

template IndexedColor {
 <1630B820-7842-11cf-8F52-0040333594A3>
 DWORD index;
 ColorRGBA indexColor;
}

template Boolean {
 <4885AE61-78E8-11cf-8F52-0040333594A3>
 WORD truefalse;
}

template Boolean2d {
 <4885AE63-78E8-11cf-8F52-0040333594A3>
 Boolean u;
 Boolean v;
}

template MaterialWrap {
 <4885AE60-78E8-11cf-8F52-0040333594A3>
 Boolean u;
 Boolean v;
}

template TextureFilename {
 <A42790E1-7810-11cf-8F52-0040333594A3>
 STRING filename;
}

template Material {
 <3D82AB4D-62DA-11cf-AB39-0020AF71E433>
 ColorRGBA faceColor;
 FLOAT power;
 ColorRGB specularColor;
 ColorRGB emissiveColor;
 [...]
}

template MeshFace {
 <3D82AB5F-62DA-11cf-AB39-0020AF71E433>
 DWORD nFaceVertexIndices;
 array DWORD faceVertexIndices[nFaceVertexIndices];
}

template MeshFaceWraps {
 <4885AE62-78E8-11cf-8F52-0040333594A3>
 DWORD nFaceWrapValues;
 Boolean2d faceWrapValues;
}

template MeshTextureCoords {
 <F6F23F40-7686-11cf-8F52-0040333594A3>
 DWORD nTextureCoords;
 array Coords2d textureCoords[nTextureCoords];
}

template MeshMaterialList {
 <F6F23F42-7686-11cf-8F52-0040333594A3>
 DWORD nMaterials;
 DWORD nFaceIndexes;
 array DWORD faceIndexes[nFaceIndexes];
 [Material]
}

template MeshNormals {
 <F6F23F43-7686-11cf-8F52-0040333594A3>
 DWORD nNormals;
 array Vector normals[nNormals];
 DWORD nFaceNormals;
 array MeshFace faceNormals[nFaceNormals];
}

template MeshVertexColors {
 <1630B821-7842-11cf-8F52-0040333594A3>
 DWORD nVertexColors;
 array IndexedColor vertexColors[nVertexColors];
}

template Mesh {
 <3D82AB44-62DA-11cf-AB39-0020AF71E433>
 DWORD nVertices;
 array Vector vertices[nVertices];
 DWORD nFaces;
 array MeshFace faces[nFaces];
 [...]
}

Header{
1;
0;
1;
}

Mesh {
 705;
 0.00000;-2.48570;-0.00000;,
 0.00000;-2.48570;-12.95932;,
 9.16362;-2.48570;-9.16362;,
 0.00000;-2.48570;-0.00000;,
 12.95932;-2.48570;-0.00000;,
 0.00000;-2.48570;-0.00000;,
 9.16362;-2.48570;9.16362;,
 0.00000;-2.48570;-0.00000;,
 0.00000;-2.48570;12.95932;,
 0.00000;-2.48570;-0.00000;,
 -9.16362;-2.48570;9.16362;,
 0.00000;-2.48570;-0.00000;,
 -12.95932;-2.48570;0.00000;,
 0.00000;-2.48570;-0.00000;,
 -9.16362;-2.48570;-9.16362;,
 0.00000;-2.48570;-0.00000;,
 0.00000;-2.48570;-12.95932;,
 9.32440;21.26780;0.00000;,
 6.59336;21.26780;-6.59336;,
 6.59336;278.31184;-6.59336;,
 9.32440;278.31184;0.00000;,
 6.59336;278.31184;6.59336;,
 6.59336;21.26780;6.59336;,
 0.00000;21.26780;-9.32440;,
 0.00000;278.31184;-9.32440;,
 0.00000;278.31184;9.32440;,
 0.00000;21.26780;9.32440;,
 0.00000;21.26780;-9.32440;,
 -6.59336;21.26780;-6.59336;,
 -6.59336;278.31184;-6.59336;,
 0.00000;278.31184;-9.32440;,
 -6.59336;278.31184;6.59336;,
 -6.59336;21.26780;6.59336;,
 -9.32440;21.26780;0.00000;,
 -9.32440;278.31184;0.00000;,
 0.00000;298.94600;-10.61546;,
 7.50626;298.94600;-7.50626;,
 10.61546;298.94600;0.00000;,
 7.50626;298.94600;7.50626;,
 0.00000;298.94600;10.61546;,
 -7.50626;298.94600;7.50626;,
 -10.61546;298.94600;0.00000;,
 -7.50626;298.94600;-7.50626;,
 0.00000;298.94600;-10.61546;,
 0.00000;307.32457;-6.84424;,
 4.83960;307.32457;-4.83960;,
 0.00000;307.32457;0.00000;,
 6.84424;307.32457;0.00000;,
 0.00000;307.32457;0.00000;,
 4.83960;307.32457;4.83960;,
 0.00000;307.32457;0.00000;,
 0.00000;307.32457;6.84424;,
 0.00000;307.32457;0.00000;,
 -4.83960;307.32457;4.83960;,
 0.00000;307.32457;0.00000;,
 -6.84424;307.32457;0.00000;,
 0.00000;307.32457;0.00000;,
 -4.83960;307.32457;-4.83960;,
 0.00000;307.32457;0.00000;,
 0.00000;307.32457;-6.84424;,
 0.00000;307.32457;0.00000;,
 -123.45392;480.96802;-33.82644;,
 103.45392;480.96802;-33.82644;,
 103.45392;255.75191;-6.17348;,
 -123.45392;255.75191;-6.17348;,
 -223.14554;319.90689;-33.82644;,
 -85.01286;499.92496;-33.82644;,
 93.66302;362.82208;-6.17348;,
 -44.46966;182.80410;-6.17348;,
 65.01290;27.89121;-33.82644;,
 -113.66292;235.89803;-6.17348;,
 24.46966;415.91588;-6.17348;,
 203.14555;278.81319;-33.82644;,
 -128.20740;-3.55000;-33.82644;,
 -222.30452;327.28721;-33.82644;,
 -17.36670;420.68267;-6.17348;,
 76.73030;214.20557;-6.17348;,
 202.30458;271.43313;-33.82644;,
 -2.63306;178.03756;-6.17348;,
 -96.73008;384.51465;-6.17348;,
 108.20761;477.91011;-33.82644;,
 -123.45392;480.96802;33.82644;,
 -123.45392;255.75191;6.17348;,
 103.45392;255.75191;6.17348;,
 103.45392;480.96802;33.82644;,
 -223.14554;319.90689;33.82644;,
 -44.46966;182.80410;6.17348;,
 93.66302;362.82208;6.17348;,
 -85.01286;499.92496;33.82644;,
 65.01290;27.89121;33.82644;,
 203.14555;278.81319;33.82644;,
 24.46966;415.91588;6.17348;,
 -113.66292;235.89803;6.17348;,
 -128.20740;-3.55000;33.82644;,
 76.73030;214.20557;6.17348;,
 -17.36670;420.68267;6.17348;,
 -222.30452;327.28721;33.82644;,
 202.30458;271.43313;33.82644;,
 108.20761;477.91011;33.82644;,
 -96.73008;384.51465;6.17348;,
 -2.63306;178.03756;6.17348;,
 -48.51690;480.96802;90.67856;,
 -18.89948;480.96802;-134.28794;,
 8.51692;255.75191;-130.67846;,
 -21.10052;255.75191;94.28802;,
 -61.52926;319.90689;189.51729;,
 -43.49936;499.92496;52.56642;,
 7.23890;362.82208;-120.97143;,
 -10.79100;182.80410;15.97952;,
 -23.91704;27.89121;-96.17584;,
 -19.82252;235.89803;84.58080;,
 -1.79262;415.91588;-52.37000;,
 -5.88716;278.81319;-233.12735;,
 -49.13736;-3.55000;95.39138;,
 -61.41950;327.28721;188.68350;,
 -7.25336;420.68267;-10.89158;,
 5.02874;214.20557;-104.18356;,
 -5.99698;271.43313;-232.29356;,
 -5.33024;178.03756;-25.49916;,
 -17.61236;384.51465;67.79282;,
 -18.27898;477.91011;-139.00092;,
 48.51690;480.96802;90.67856;,
 21.10052;255.75191;94.28802;,
 -8.51692;255.75191;-130.67846;,
 18.89948;480.96802;-134.28794;,
 61.52926;319.90689;189.51729;,
 10.79100;182.80410;15.97952;,
 -7.23890;362.82208;-120.97143;,
 43.49936;499.92496;52.56642;,
 23.91704;27.89121;-96.17584;,
 5.88716;278.81319;-233.12735;,
 1.79262;415.91588;-52.37000;,
 19.82252;235.89803;84.58080;,
 49.13736;-3.55000;95.39138;,
 -5.02874;214.20557;-104.18356;,
 7.25336;420.68267;-10.89158;,
 61.41950;327.28721;188.68350;,
 5.99698;271.43313;-232.29356;,
 18.27898;477.91011;-139.00092;,
 17.61236;384.51465;67.79282;,
 5.33024;178.03756;-25.49916;,
 -130.00000;-2.48570;-108.00000;,
 -130.00000;-2.48570;-120.95933;,
 -120.83638;-2.48570;-117.16362;,
 -130.00000;-2.48570;-108.00000;,
 -117.04070;-2.48570;-108.00000;,
 -130.00000;-2.48570;-108.00000;,
 -120.83638;-2.48570;-98.83638;,
 -130.00000;-2.48570;-108.00000;,
 -130.00000;-2.48570;-95.04068;,
 -130.00000;-2.48570;-108.00000;,
 -139.16363;-2.48570;-98.83638;,
 -130.00000;-2.48570;-108.00000;,
 -142.95933;-2.48570;-108.00000;,
 -130.00000;-2.48570;-108.00000;,
 -139.16363;-2.48570;-117.16362;,
 -130.00000;-2.48570;-108.00000;,
 -130.00000;-2.48570;-120.95933;,
 -120.67561;21.26780;-108.00000;,
 -123.40664;21.26780;-114.59336;,
 -123.40664;120.56609;-114.59336;,
 -120.67561;120.56609;-108.00000;,
 -123.40664;120.56609;-101.40664;,
 -123.40664;21.26780;-101.40664;,
 -130.00000;21.26780;-117.32440;,
 -130.00000;120.56609;-117.32440;,
 -130.00000;120.56609;-98.67560;,
 -130.00000;21.26780;-98.67560;,
 -130.00000;21.26780;-117.32440;,
 -136.59336;21.26780;-114.59336;,
 -136.59336;120.56609;-114.59336;,
 -130.00000;120.56609;-117.32440;,
 -136.59336;120.56609;-101.40664;,
 -136.59336;21.26780;-101.40664;,
 -139.32442;21.26780;-108.00000;,
 -139.32442;120.56609;-108.00000;,
 -130.00000;141.20025;-118.61546;,
 -122.49375;141.20025;-115.50626;,
 -119.38455;141.20025;-108.00000;,
 -122.49375;141.20025;-100.49374;,
 -130.00000;141.20025;-97.38455;,
 -137.50628;141.20025;-100.49374;,
 -140.61546;141.20025;-108.00000;,
 -137.50628;141.20025;-115.50626;,
 -130.00000;141.20025;-118.61546;,
 -130.00000;149.57881;-114.84424;,
 -125.16040;149.57881;-112.83960;,
 -130.00000;149.57881;-108.00000;,
 -123.15576;149.57881;-108.00000;,
 -130.00000;149.57881;-108.00000;,
 -125.16040;149.57881;-103.16040;,
 -130.00000;149.57881;-108.00000;,
 -130.00000;149.57881;-101.15576;,
 -130.00000;149.57881;-108.00000;,
 -134.83960;149.57881;-103.16040;,
 -130.00000;149.57881;-108.00000;,
 -136.84424;149.57881;-108.00000;,
 -130.00000;149.57881;-108.00000;,
 -134.83960;149.57881;-112.83960;,
 -130.00000;149.57881;-108.00000;,
 -130.00000;149.57881;-114.84424;,
 -130.00000;149.57881;-108.00000;,
 -253.45391;323.22232;-141.82644;,
 -26.54606;323.22232;-141.82644;,
 -26.54606;98.00615;-114.17349;,
 -253.45391;98.00615;-114.17349;,
 -353.14554;162.16115;-141.82644;,
 -215.01287;342.17925;-141.82644;,
 -36.33696;205.07632;-114.17349;,
 -174.46966;25.05835;-114.17349;,
 -64.98710;-58.95043;-141.82644;,
 -243.66292;78.15227;-114.17349;,
 -105.53035;258.17015;-114.17349;,
 73.14556;121.06745;-141.82644;,
 -258.20740;-36.93569;-141.82644;,
 -352.30452;169.54145;-141.82644;,
 -147.36670;262.93692;-114.17349;,
 -53.26969;56.45983;-114.17349;,
 72.30459;113.68739;-141.82644;,
 -132.63306;20.29181;-114.17349;,
 -226.73008;226.76890;-114.17349;,
 -21.79238;320.16446;-141.82644;,
 -253.45391;323.22232;-74.17356;,
 -253.45391;98.00615;-101.82652;,
 -26.54606;98.00615;-101.82652;,
 -26.54606;323.22232;-74.17356;,
 -353.14554;162.16115;-74.17356;,
 -174.46966;25.05835;-101.82652;,
 -36.33696;205.07632;-101.82652;,
 -215.01287;342.17925;-74.17356;,
 -64.98710;-58.95043;-74.17356;,
 73.14556;121.06745;-74.17356;,
 -105.53035;258.17015;-101.82652;,
 -243.66292;78.15227;-101.82652;,
 -258.20740;-36.93569;-74.17356;,
 -53.26969;56.45983;-101.82652;,
 -147.36670;262.93692;-101.82652;,
 -352.30452;169.54145;-74.17356;,
 72.30459;113.68739;-74.17356;,
 -21.79238;320.16446;-74.17356;,
 -226.73008;226.76890;-101.82652;,
 -132.63306;20.29181;-101.82652;,
 -178.51690;323.22232;-17.32144;,
 -148.89949;323.22232;-242.28794;,
 -121.48308;98.00615;-238.67847;,
 -151.10051;98.00615;-13.71198;,
 -191.52928;162.16115;81.51729;,
 -173.49937;342.17925;-55.43358;,
 -122.76111;205.07632;-228.97144;,
 -140.79102;25.05835;-92.02048;,
 -153.91704;-58.95043;-204.17583;,
 -149.82254;78.15227;-23.41920;,
 -131.79263;258.17015;-160.37000;,
 -135.88716;121.06745;-341.12735;,
 -179.13736;-36.93569;-12.60862;,
 -191.41951;169.54145;80.68350;,
 -137.25337;262.93692;-118.89158;,
 -124.97127;56.45983;-212.18355;,
 -135.99700;113.68739;-340.29356;,
 -135.33025;20.29181;-133.49916;,
 -147.61236;226.76890;-40.20718;,
 -148.27898;320.16446;-247.00093;,
 -81.48311;323.22232;-17.32144;,
 -108.89949;98.00615;-13.71198;,
 -138.51692;98.00615;-238.67847;,
 -111.10054;323.22232;-242.28794;,
 -68.47074;162.16115;81.51729;,
 -119.20901;25.05835;-92.02048;,
 -137.23892;205.07632;-228.97144;,
 -86.50064;342.17925;-55.43358;,
 -106.08296;-58.95043;-204.17583;,
 -124.11284;121.06745;-341.12735;,
 -128.20740;258.17015;-160.37000;,
 -110.17749;78.15227;-23.41920;,
 -80.86265;-36.93569;-12.60862;,
 -135.02876;56.45983;-212.18355;,
 -122.74666;262.93692;-118.89158;,
 -68.58048;169.54145;80.68350;,
 -124.00303;113.68739;-340.29356;,
 -111.72102;320.16446;-247.00093;,
 -112.38765;226.76890;-40.20718;,
 -124.66978;20.29181;-133.49916;,
 76.00000;-2.48570;-60.00000;,
 76.00000;-2.48570;-72.95932;,
 85.16362;-2.48570;-69.16362;,
 76.00000;-2.48570;-60.00000;,
 88.95933;-2.48570;-60.00000;,
 76.00000;-2.48570;-60.00000;,
 85.16362;-2.48570;-50.83638;,
 76.00000;-2.48570;-60.00000;,
 76.00000;-2.48570;-47.04068;,
 76.00000;-2.48570;-60.00000;,
 66.83638;-2.48570;-50.83638;,
 76.00000;-2.48570;-60.00000;,
 63.04068;-2.48570;-60.00000;,
 76.00000;-2.48570;-60.00000;,
 66.83638;-2.48570;-69.16362;,
 76.00000;-2.48570;-60.00000;,
 76.00000;-2.48570;-72.95932;,
 85.32440;21.26780;-60.00000;,
 82.59336;21.26780;-66.59336;,
 82.59336;153.95178;-66.59336;,
 85.32440;153.95178;-60.00000;,
 82.59336;153.95178;-53.40664;,
 82.59336;21.26780;-53.40664;,
 76.00000;21.26780;-69.32440;,
 76.00000;153.95178;-69.32440;,
 76.00000;153.95178;-50.67560;,
 76.00000;21.26780;-50.67560;,
 76.00000;21.26780;-69.32440;,
 69.40664;21.26780;-66.59336;,
 69.40664;153.95178;-66.59336;,
 76.00000;153.95178;-69.32440;,
 69.40664;153.95178;-53.40664;,
 69.40664;21.26780;-53.40664;,
 66.67560;21.26780;-60.00000;,
 66.67560;153.95178;-60.00000;,
 76.00000;174.58594;-70.61546;,
 83.50626;174.58594;-67.50626;,
 86.61546;174.58594;-60.00000;,
 83.50626;174.58594;-52.49374;,
 76.00000;174.58594;-49.38454;,
 68.49374;174.58594;-52.49374;,
 65.38454;174.58594;-60.00000;,
 68.49374;174.58594;-67.50626;,
 76.00000;174.58594;-70.61546;,
 76.00000;182.96450;-66.84424;,
 80.83960;182.96450;-64.83960;,
 76.00000;182.96450;-60.00000;,
 82.84424;182.96450;-60.00000;,
 76.00000;182.96450;-60.00000;,
 80.83960;182.96450;-55.16040;,
 76.00000;182.96450;-60.00000;,
 76.00000;182.96450;-53.15576;,
 76.00000;182.96450;-60.00000;,
 71.16040;182.96450;-55.16040;,
 76.00000;182.96450;-60.00000;,
 69.15576;182.96450;-60.00000;,
 76.00000;182.96450;-60.00000;,
 71.16040;182.96450;-64.83960;,
 76.00000;182.96450;-60.00000;,
 76.00000;182.96450;-66.84424;,
 76.00000;182.96450;-60.00000;,
 -47.45392;356.60801;-93.82644;,
 179.45391;356.60801;-93.82644;,
 179.45391;131.39185;-66.17348;,
 -47.45392;131.39185;-66.17348;,
 -147.14553;195.54684;-93.82644;,
 -9.01286;375.56495;-93.82644;,
 169.66302;238.46202;-66.17348;,
 31.53034;58.44404;-66.17348;,
 141.01290;-25.56474;-93.82644;,
 -37.66292;111.53797;-66.17348;,
 100.46965;291.55584;-66.17348;,
 279.14556;154.45314;-93.82644;,
 -52.20740;-3.55000;-93.82644;,
 -146.30452;202.92714;-93.82644;,
 58.63330;296.32261;-66.17348;,
 152.73030;89.84552;-66.17348;,
 278.30459;147.07309;-93.82644;,
 73.36694;53.67750;-66.17348;,
 -20.73008;260.15459;-66.17348;,
 184.20762;353.55015;-93.82644;,
 -47.45392;356.60801;-26.17356;,
 -47.45392;131.39185;-53.82652;,
 179.45391;131.39185;-53.82652;,
 179.45391;356.60801;-26.17356;,
 -147.14553;195.54684;-26.17356;,
 31.53034;58.44404;-53.82652;,
 169.66302;238.46202;-53.82652;,
 -9.01286;375.56495;-26.17356;,
 141.01290;-25.56474;-26.17356;,
 279.14556;154.45314;-26.17356;,
 100.46965;291.55584;-53.82652;,
 -37.66292;111.53797;-53.82652;,
 -52.20740;-3.55000;-26.17356;,
 152.73030;89.84552;-53.82652;,
 58.63330;296.32261;-53.82652;,
 -146.30452;202.92714;-26.17356;,
 278.30459;147.07309;-26.17356;,
 184.20762;353.55015;-26.17356;,
 -20.73008;260.15459;-53.82652;,
 73.36694;53.67750;-53.82652;,
 27.48310;356.60801;30.67856;,
 57.10052;356.60801;-194.28794;,
 84.51692;131.39185;-190.67846;,
 54.89948;131.39185;34.28802;,
 14.47074;195.54684;129.51729;,
 32.50064;375.56495;-7.43358;,
 83.23891;238.46202;-180.97143;,
 65.20900;58.44404;-44.02048;,
 52.08296;-25.56474;-156.17584;,
 56.17748;111.53797;24.58080;,
 74.20737;291.55584;-112.37000;,
 70.11284;154.45314;-293.12735;,
 26.86264;-3.55000;35.39138;,
 14.58050;202.92714;128.68350;,
 68.74664;296.32261;-70.89158;,
 81.02874;89.84552;-164.18356;,
 70.00302;147.07309;-292.29356;,
 70.66976;53.67750;-85.49916;,
 58.38764;260.15459;7.79282;,
 57.72102;353.55015;-199.00093;,
 124.51690;356.60801;30.67856;,
 97.10051;131.39185;34.28802;,
 67.48308;131.39185;-190.67846;,
 94.89949;356.60801;-194.28794;,
 137.52926;195.54684;129.51729;,
 86.79100;58.44404;-44.02048;,
 68.76110;238.46202;-180.97143;,
 119.49937;375.56495;-7.43358;,
 99.91704;-25.56474;-156.17584;,
 81.88716;154.45314;-293.12735;,
 77.79263;291.55584;-112.37000;,
 95.82252;111.53797;24.58080;,
 125.13736;-3.55000;35.39138;,
 70.97126;89.84552;-164.18356;,
 83.25336;296.32261;-70.89158;,
 137.41951;202.92714;128.68350;,
 81.99697;147.07309;-292.29356;,
 94.27898;353.55015;-199.00093;,
 93.61235;260.15459;7.79282;,
 81.33024;53.67750;-85.49916;,
 -284.99856;-2.48570;-46.03276;,
 -284.99856;-2.48570;-58.99206;,
 -275.83489;-2.48570;-55.19639;,
 -284.99856;-2.48570;-46.03276;,
 -272.03929;-2.48570;-46.03276;,
 -284.99856;-2.48570;-46.03276;,
 -275.83489;-2.48570;-36.86914;,
 -284.99856;-2.48570;-46.03276;,
 -284.99856;-2.48570;-33.07344;,
 -284.99856;-2.48570;-46.03276;,
 -294.16214;-2.48570;-36.86914;,
 -284.99856;-2.48570;-46.03276;,
 -297.95789;-2.48570;-46.03276;,
 -284.99856;-2.48570;-46.03276;,
 -294.16214;-2.48570;-55.19639;,
 -284.99856;-2.48570;-46.03276;,
 -284.99856;-2.48570;-58.99206;,
 -275.67415;21.26780;-46.03276;,
 -278.40520;21.26780;-52.62612;,
 -278.40520;232.71145;-52.62612;,
 -275.67415;232.71145;-46.03276;,
 -278.40520;232.71145;-39.43940;,
 -278.40520;21.26780;-39.43940;,
 -284.99856;21.26780;-55.35715;,
 -284.99856;232.71145;-55.35715;,
 -284.99856;232.71145;-36.70835;,
 -284.99856;21.26780;-36.70835;,
 -284.99856;21.26780;-55.35715;,
 -291.59192;21.26780;-52.62612;,
 -291.59192;232.71145;-52.62612;,
 -284.99856;232.71145;-55.35715;,
 -291.59192;232.71145;-39.43940;,
 -291.59192;21.26780;-39.43940;,
 -294.32298;21.26780;-46.03276;,
 -294.32298;232.71145;-46.03276;,
 -284.99856;253.34561;-56.64822;,
 -277.49231;253.34561;-53.53901;,
 -274.38313;253.34561;-46.03276;,
 -277.49231;253.34561;-38.52649;,
 -284.99856;253.34561;-35.41731;,
 -292.50481;253.34561;-38.52649;,
 -295.61399;253.34561;-46.03276;,
 -292.50481;253.34561;-53.53901;,
 -284.99856;253.34561;-56.64822;,
 -284.99856;261.72417;-52.87700;,
 -280.15892;261.72417;-50.87236;,
 -284.99856;261.72417;-46.03276;,
 -278.15433;261.72417;-46.03276;,
 -284.99856;261.72417;-46.03276;,
 -280.15892;261.72417;-41.19316;,
 -284.99856;261.72417;-46.03276;,
 -284.99856;261.72417;-39.18853;,
 -284.99856;261.72417;-46.03276;,
 -289.83811;261.72417;-41.19316;,
 -284.99856;261.72417;-46.03276;,
 -291.84280;261.72417;-46.03276;,
 -284.99856;261.72417;-46.03276;,
 -289.83811;261.72417;-50.87236;,
 -284.99856;261.72417;-46.03276;,
 -284.99856;261.72417;-52.87700;,
 -284.99856;261.72417;-46.03276;,
 -408.45220;435.36763;-79.85917;,
 -181.54444;435.36763;-79.85917;,
 -181.54444;210.15152;-52.20623;,
 -408.45220;210.15152;-52.20623;,
 -508.14381;274.30650;-79.85917;,
 -370.01126;454.32457;-79.85917;,
 -191.33542;317.22168;-52.20623;,
 -329.46814;182.80410;-52.20623;,
 -219.98553;27.89121;-79.85917;,
 -398.66126;190.29763;-52.20623;,
 -260.52889;370.31548;-52.20623;,
 -81.85285;233.21280;-79.85917;,
 -413.20572;21.38279;-79.85917;,
 -507.30279;281.68682;-79.85917;,
 -302.36526;375.08228;-52.20623;,
 -208.26809;168.60518;-52.20623;,
 -82.69381;225.83274;-79.85917;,
 -287.63157;178.03756;-52.20623;,
 -381.72845;338.91426;-52.20623;,
 -176.79086;432.30972;-79.85917;,
 -408.45220;435.36763;-12.20632;,
 -408.45220;210.15152;-39.85928;,
 -181.54444;210.15152;-39.85928;,
 -181.54444;435.36763;-12.20632;,
 -508.14381;274.30650;-12.20632;,
 -329.46814;182.80410;-39.85928;,
 -191.33542;317.22168;-39.85928;,
 -370.01126;454.32457;-12.20632;,
 -219.98553;27.89121;-12.20632;,
 -81.85285;233.21280;-12.20632;,
 -260.52889;370.31548;-39.85928;,
 -398.66126;190.29763;-39.85928;,
 -413.20572;21.38279;-12.20632;,
 -208.26809;168.60518;-39.85928;,
 -302.36526;375.08228;-39.85928;,
 -507.30279;281.68682;-12.20632;,
 -82.69381;225.83274;-12.20632;,
 -176.79086;432.30972;-12.20632;,
 -381.72845;338.91426;-39.85928;,
 -287.63157;178.03756;-39.85928;,
 -333.51541;435.36763;44.64583;,
 -303.89808;435.36763;-180.32068;,
 -276.48167;210.15152;-176.71118;,
 -306.09915;210.15152;48.25530;,
 -346.52762;274.30650;143.48455;,
 -328.49783;454.32457;6.53367;,
 -277.75970;317.22168;-167.00415;,
 -295.78958;182.80410;-30.05325;,
 -308.91565;27.89121;-142.20857;,
 -304.82112;190.29763;38.54807;,
 -286.79114;370.31548;-98.40274;,
 -290.88567;233.21280;-279.16014;,
 -334.13582;-3.55000;49.35867;,
 -346.41785;281.68682;142.65076;,
 -292.25188;375.08228;-56.92432;,
 -279.96985;168.60518;-150.21629;,
 -290.99554;225.83274;-278.32635;,
 -290.32884;178.03756;-71.53190;,
 -302.61097;338.91426;21.76006;,
 -303.27757;432.30972;-185.03365;,
 -236.48157;435.36763;44.64583;,
 -263.89812;210.15152;48.25530;,
 -293.51546;210.15152;-176.71118;,
 -266.09910;435.36763;-180.32068;,
 -223.46922;274.30650;143.48455;,
 -274.20755;182.80410;-30.05325;,
 -292.23743;317.22168;-167.00415;,
 -241.49920;454.32457;6.53367;,
 -261.08152;27.89121;-142.20857;,
 -279.11136;233.21280;-279.16014;,
 -283.20599;370.31548;-98.40274;,
 -265.17605;190.29763;38.54807;,
 -235.86116;-3.55000;49.35867;,
 -290.02727;168.60518;-150.21629;,
 -277.74524;375.08228;-56.92432;,
 -223.57898;281.68682;142.65076;,
 -279.00159;225.83274;-278.32635;,
 -266.71961;432.30972;-185.03365;,
 -267.38621;338.91426;21.76006;,
 -279.66829;178.03756;-71.53190;,
 177.23609;-5.78236;72.05418;,
 177.23609;-5.78236;59.09489;,
 185.61289;-5.78236;62.89056;,
 177.23609;-5.78236;72.05418;,
 189.08262;-5.78236;72.05418;,
 177.23609;-5.78236;72.05418;,
 185.61289;-5.78236;81.21781;,
 177.23609;-5.78236;72.05418;,
 177.23609;-5.78236;85.01351;,
 177.23609;-5.78236;72.05418;,
 168.85930;-5.78236;81.21781;,
 177.23609;-5.78236;72.05418;,
 165.38948;-5.78236;72.05418;,
 177.23609;-5.78236;72.05418;,
 168.85930;-5.78236;62.89056;,
 177.23609;-5.78236;72.05418;,
 177.23609;-5.78236;59.09489;,
 185.75984;14.67013;72.05418;,
 183.26331;14.67013;65.46082;,
 183.26331;196.72935;65.46082;,
 185.75984;196.72935;72.05418;,
 183.26331;196.72935;78.64754;,
 183.26331;14.67013;78.64754;,
 177.23609;14.67013;62.72979;,
 177.23609;196.72935;62.72979;,
 177.23609;196.72935;81.37860;,
 177.23609;14.67013;81.37860;,
 177.23609;14.67013;62.72979;,
 171.20884;14.67013;65.46082;,
 171.20884;196.72935;65.46082;,
 177.23609;196.72935;62.72979;,
 171.20884;196.72935;78.64754;,
 171.20884;14.67013;78.64754;,
 168.71226;14.67013;72.05418;,
 168.71226;196.72935;72.05418;,
 177.23609;214.49597;61.43873;,
 184.09783;214.49597;64.54793;,
 186.93997;214.49597;72.05418;,
 184.09783;214.49597;79.56046;,
 177.23609;214.49597;82.66964;,
 170.37432;214.49597;79.56046;,
 167.53213;214.49597;72.05418;,
 170.37432;214.49597;64.54793;,
 177.23609;214.49597;61.43873;,
 177.23609;221.71014;65.20994;,
 181.66018;221.71014;67.21458;,
 177.23609;221.71014;72.05418;,
 183.49268;221.71014;72.05418;,
 177.23609;221.71014;72.05418;,
 181.66018;221.71014;76.89378;,
 177.23609;221.71014;72.05418;,
 177.23609;221.71014;78.89842;,
 177.23609;221.71014;72.05418;,
 172.81206;221.71014;76.89378;,
 177.23609;221.71014;72.05418;,
 170.97945;221.71014;72.05418;,
 177.23609;221.71014;72.05418;,
 172.81206;221.71014;67.21458;,
 177.23609;221.71014;72.05418;,
 177.23609;221.71014;65.20994;,
 177.23609;221.71014;72.05418;,
 64.38270;371.22227;38.22777;,
 271.80726;371.22227;38.22777;,
 271.80726;177.30452;65.88072;,
 64.38270;177.30452;65.88072;,
 -26.74891;232.54395;38.22777;,
 99.52289;387.54483;38.22777;,
 262.85696;269.49519;65.88072;,
 136.58484;153.75764;65.88072;,
 236.66687;20.37311;38.22777;,
 73.33294;160.20982;65.88072;,
 199.60474;315.21045;65.88072;,
 362.93899;197.16096;38.22777;,
 60.03733;14.76917;38.22777;,
 -25.98004;238.89864;38.22777;,
 161.36055;319.31485;65.88072;,
 247.37813;141.53196;65.88072;,
 362.17029;190.80657;38.22777;,
 174.82915;149.65355;65.88072;,
 88.81182;288.17312;65.88072;,
 276.15267;368.58936;38.22777;,
 64.38270;371.22227;105.88062;,
 64.38270;177.30452;78.22767;,
 271.80726;177.30452;78.22767;,
 271.80726;371.22227;105.88062;,
 -26.74891;232.54395;105.88062;,
 136.58484;153.75764;78.22767;,
 262.85696;269.49519;78.22767;,
 99.52289;387.54483;105.88062;,
 236.66687;20.37311;105.88062;,
 362.93899;197.16096;105.88062;,
 199.60474;315.21045;78.22767;,
 73.33294;160.20982;78.22767;,
 60.03733;14.76917;105.88062;,
 247.37813;141.53196;78.22767;,
 161.36055;319.31485;78.22767;,
 -25.98004;238.89864;105.88062;,
 362.17029;190.80657;105.88062;,
 276.15267;368.58936;105.88062;,
 88.81182;288.17312;78.22767;,
 174.82915;149.65355;78.22767;,
 132.88507;371.22227;162.73264;,
 159.95935;371.22227;-62.23375;,
 185.02166;177.30452;-58.62425;,
 157.94726;177.30452;166.34212;,
 120.99018;232.54395;261.57134;,
 137.47183;387.54483;124.62051;,
 183.85342;269.49519;-48.91721;,
 167.37161;153.75764;88.03370;,
 155.37259;20.37311;-24.12163;,
 159.11557;160.20982;156.63489;,
 175.59744;315.21045;19.68421;,
 171.85449;197.16096;-161.07337;,
 132.31795;-6.69875;167.44549;,
 121.09049;238.89864;260.73755;,
 170.60554;319.31485;61.16263;,
 181.83299;141.53196;-32.12934;,
 171.75396;190.80657;-160.23958;,
 172.36348;149.65355;46.55505;,
 161.13592;288.17312;139.84688;,
 160.52656;368.58936;-66.94671;,
 221.58723;371.22227;162.73264;,
 196.52473;177.30452;166.34212;,
 169.45047;177.30452;-58.62425;,
 194.51270;371.22227;-62.23375;,
 233.48233;232.54395;261.57134;,
 187.10049;153.75764;88.03370;,
 170.61875;269.49519;-48.91721;,
 217.00037;387.54483;124.62051;,
 199.09954;20.37311;-24.12163;,
 182.61785;197.16096;-161.07337;,
 178.87471;315.21045;19.68421;,
 195.35655;160.20982;156.63489;,
 222.15437;-6.69875;167.44549;,
 172.63914;141.53196;-32.12934;,
 183.86660;319.31485;61.16263;,
 233.38186;238.89864;260.73755;,
 182.71812;190.80657;-160.23958;,
 193.94549;368.58936;-66.94671;,
 193.33616;288.17312;139.84688;,
 182.10867;149.65355;46.55505;;
 
 340;
 3;0,1,2;,
 3;3,2,4;,
 3;5,4,6;,
 3;7,6,8;,
 3;9,8,10;,
 3;11,10,12;,
 3;13,12,14;,
 3;15,14,16;,
 4;17,4,2,18;,
 4;17,18,19,20;,
 4;17,20,21,22;,
 4;17,22,6,4;,
 4;18,2,1,23;,
 4;18,23,24,19;,
 4;22,21,25,26;,
 4;22,26,8,6;,
 4;27,16,14,28;,
 4;27,28,29,30;,
 4;26,25,31,32;,
 4;26,32,10,8;,
 4;28,14,12,33;,
 4;28,33,34,29;,
 4;32,31,34,33;,
 4;32,33,12,10;,
 4;35,36,19,24;,
 4;36,37,20,19;,
 4;37,38,21,20;,
 4;38,39,25,21;,
 4;39,40,31,25;,
 4;40,41,34,31;,
 4;41,42,29,34;,
 4;42,43,30,29;,
 4;44,45,36,35;,
 3;46,45,44;,
 4;45,47,37,36;,
 3;48,47,45;,
 4;47,49,38,37;,
 3;50,49,47;,
 4;49,51,39,38;,
 3;52,51,49;,
 4;51,53,40,39;,
 3;54,53,51;,
 4;53,55,41,40;,
 3;56,55,53;,
 4;55,57,42,41;,
 3;58,57,55;,
 4;57,59,43,42;,
 3;60,59,57;,
 4;61,62,63,64;,
 4;65,66,67,68;,
 4;69,70,71,72;,
 4;73,74,75,76;,
 4;77,78,79,80;,
 4;81,82,83,84;,
 4;85,86,87,88;,
 4;89,90,91,92;,
 4;93,94,95,96;,
 4;97,98,99,100;,
 4;101,102,103,104;,
 4;105,106,107,108;,
 4;109,110,111,112;,
 4;113,114,115,116;,
 4;117,118,119,120;,
 4;121,122,123,124;,
 4;125,126,127,128;,
 4;129,130,131,132;,
 4;133,134,135,136;,
 4;137,138,139,140;,
 3;141,142,143;,
 3;144,143,145;,
 3;146,145,147;,
 3;148,147,149;,
 3;150,149,151;,
 3;152,151,153;,
 3;154,153,155;,
 3;156,155,157;,
 4;158,145,143,159;,
 4;158,159,160,161;,
 4;158,161,162,163;,
 4;158,163,147,145;,
 4;159,143,142,164;,
 4;159,164,165,160;,
 4;163,162,166,167;,
 4;163,167,149,147;,
 4;168,157,155,169;,
 4;168,169,170,171;,
 4;167,166,172,173;,
 4;167,173,151,149;,
 4;169,155,153,174;,
 4;169,174,175,170;,
 4;173,172,175,174;,
 4;173,174,153,151;,
 4;176,177,160,165;,
 4;177,178,161,160;,
 4;178,179,162,161;,
 4;179,180,166,162;,
 4;180,181,172,166;,
 4;181,182,175,172;,
 4;182,183,170,175;,
 4;183,184,171,170;,
 4;185,186,177,176;,
 3;187,186,185;,
 4;186,188,178,177;,
 3;189,188,186;,
 4;188,190,179,178;,
 3;191,190,188;,
 4;190,192,180,179;,
 3;193,192,190;,
 4;192,194,181,180;,
 3;195,194,192;,
 4;194,196,182,181;,
 3;197,196,194;,
 4;196,198,183,182;,
 3;199,198,196;,
 4;198,200,184,183;,
 3;201,200,198;,
 4;202,203,204,205;,
 4;206,207,208,209;,
 4;210,211,212,213;,
 4;214,215,216,217;,
 4;218,219,220,221;,
 4;222,223,224,225;,
 4;226,227,228,229;,
 4;230,231,232,233;,
 4;234,235,236,237;,
 4;238,239,240,241;,
 4;242,243,244,245;,
 4;246,247,248,249;,
 4;250,251,252,253;,
 4;254,255,256,257;,
 4;258,259,260,261;,
 4;262,263,264,265;,
 4;266,267,268,269;,
 4;270,271,272,273;,
 4;274,275,276,277;,
 4;278,279,280,281;,
 3;282,283,284;,
 3;285,284,286;,
 3;287,286,288;,
 3;289,288,290;,
 3;291,290,292;,
 3;293,292,294;,
 3;295,294,296;,
 3;297,296,298;,
 4;299,286,284,300;,
 4;299,300,301,302;,
 4;299,302,303,304;,
 4;299,304,288,286;,
 4;300,284,283,305;,
 4;300,305,306,301;,
 4;304,303,307,308;,
 4;304,308,290,288;,
 4;309,298,296,310;,
 4;309,310,311,312;,
 4;308,307,313,314;,
 4;308,314,292,290;,
 4;310,296,294,315;,
 4;310,315,316,311;,
 4;314,313,316,315;,
 4;314,315,294,292;,
 4;317,318,301,306;,
 4;318,319,302,301;,
 4;319,320,303,302;,
 4;320,321,307,303;,
 4;321,322,313,307;,
 4;322,323,316,313;,
 4;323,324,311,316;,
 4;324,325,312,311;,
 4;326,327,318,317;,
 3;328,327,326;,
 4;327,329,319,318;,
 3;330,329,327;,
 4;329,331,320,319;,
 3;332,331,329;,
 4;331,333,321,320;,
 3;334,333,331;,
 4;333,335,322,321;,
 3;336,335,333;,
 4;335,337,323,322;,
 3;338,337,335;,
 4;337,339,324,323;,
 3;340,339,337;,
 4;339,341,325,324;,
 3;342,341,339;,
 4;343,344,345,346;,
 4;347,348,349,350;,
 4;351,352,353,354;,
 4;355,356,357,358;,
 4;359,360,361,362;,
 4;363,364,365,366;,
 4;367,368,369,370;,
 4;371,372,373,374;,
 4;375,376,377,378;,
 4;379,380,381,382;,
 4;383,384,385,386;,
 4;387,388,389,390;,
 4;391,392,393,394;,
 4;395,396,397,398;,
 4;399,400,401,402;,
 4;403,404,405,406;,
 4;407,408,409,410;,
 4;411,412,413,414;,
 4;415,416,417,418;,
 4;419,420,421,422;,
 3;423,424,425;,
 3;426,425,427;,
 3;428,427,429;,
 3;430,429,431;,
 3;432,431,433;,
 3;434,433,435;,
 3;436,435,437;,
 3;438,437,439;,
 4;440,427,425,441;,
 4;440,441,442,443;,
 4;440,443,444,445;,
 4;440,445,429,427;,
 4;441,425,424,446;,
 4;441,446,447,442;,
 4;445,444,448,449;,
 4;445,449,431,429;,
 4;450,439,437,451;,
 4;450,451,452,453;,
 4;449,448,454,455;,
 4;449,455,433,431;,
 4;451,437,435,456;,
 4;451,456,457,452;,
 4;455,454,457,456;,
 4;455,456,435,433;,
 4;458,459,442,447;,
 4;459,460,443,442;,
 4;460,461,444,443;,
 4;461,462,448,444;,
 4;462,463,454,448;,
 4;463,464,457,454;,
 4;464,465,452,457;,
 4;465,466,453,452;,
 4;467,468,459,458;,
 3;469,468,467;,
 4;468,470,460,459;,
 3;471,470,468;,
 4;470,472,461,460;,
 3;473,472,470;,
 4;472,474,462,461;,
 3;475,474,472;,
 4;474,476,463,462;,
 3;477,476,474;,
 4;476,478,464,463;,
 3;479,478,476;,
 4;478,480,465,464;,
 3;481,480,478;,
 4;480,482,466,465;,
 3;483,482,480;,
 4;484,485,486,487;,
 4;488,489,490,491;,
 4;492,493,494,495;,
 4;496,497,498,499;,
 4;500,501,502,503;,
 4;504,505,506,507;,
 4;508,509,510,511;,
 4;512,513,514,515;,
 4;516,517,518,519;,
 4;520,521,522,523;,
 4;524,525,526,527;,
 4;528,529,530,531;,
 4;532,533,534,535;,
 4;536,537,538,539;,
 4;540,541,542,543;,
 4;544,545,546,547;,
 4;548,549,550,551;,
 4;552,553,554,555;,
 4;556,557,558,559;,
 4;560,561,562,563;,
 3;564,565,566;,
 3;567,566,568;,
 3;569,568,570;,
 3;571,570,572;,
 3;573,572,574;,
 3;575,574,576;,
 3;577,576,578;,
 3;579,578,580;,
 4;581,568,566,582;,
 4;581,582,583,584;,
 4;581,584,585,586;,
 4;581,586,570,568;,
 4;582,566,565,587;,
 4;582,587,588,583;,
 4;586,585,589,590;,
 4;586,590,572,570;,
 4;591,580,578,592;,
 4;591,592,593,594;,
 4;590,589,595,596;,
 4;590,596,574,572;,
 4;592,578,576,597;,
 4;592,597,598,593;,
 4;596,595,598,597;,
 4;596,597,576,574;,
 4;599,600,583,588;,
 4;600,601,584,583;,
 4;601,602,585,584;,
 4;602,603,589,585;,
 4;603,604,595,589;,
 4;604,605,598,595;,
 4;605,606,593,598;,
 4;606,607,594,593;,
 4;608,609,600,599;,
 3;610,609,608;,
 4;609,611,601,600;,
 3;612,611,609;,
 4;611,613,602,601;,
 3;614,613,611;,
 4;613,615,603,602;,
 3;616,615,613;,
 4;615,617,604,603;,
 3;618,617,615;,
 4;617,619,605,604;,
 3;620,619,617;,
 4;619,621,606,605;,
 3;622,621,619;,
 4;621,623,607,606;,
 3;624,623,621;,
 4;625,626,627,628;,
 4;629,630,631,632;,
 4;633,634,635,636;,
 4;637,638,639,640;,
 4;641,642,643,644;,
 4;645,646,647,648;,
 4;649,650,651,652;,
 4;653,654,655,656;,
 4;657,658,659,660;,
 4;661,662,663,664;,
 4;665,666,667,668;,
 4;669,670,671,672;,
 4;673,674,675,676;,
 4;677,678,679,680;,
 4;681,682,683,684;,
 4;685,686,687,688;,
 4;689,690,691,692;,
 4;693,694,695,696;,
 4;697,698,699,700;,
 4;701,702,703,704;;
 
 MeshMaterialList {
  2;
  340;
  0,
  0,
  0,
  0,
  0,
  0,
  0,
  0,
  0,
  0,
  0,
  0,
  0,
  0,
  0,
  0,
  0,
  0,
  0,
  0,
  0,
  0,
  0,
  0,
  0,
  0,
  0,
  0,
  0,
  0,
  0,
  0,
  0,
  0,
  0,
  0,
  0,
  0,
  0,
  0,
  0,
  0,
  0,
  0,
  0,
  0,
  0,
  0,
  1,
  1,
  1,
  1,
  1,
  1,
  1,
  1,
  1,
  1,
  1,
  1,
  1,
  1,
  1,
  1,
  1,
  1,
  1,
  1,
  0,
  0,
  0,
  0,
  0,
  0,
  0,
  0,
  0,
  0,
  0,
  0,
  0,
  0,
  0,
  0,
  0,
  0,
  0,
  0,
  0,
  0,
  0,
  0,
  0,
  0,
  0,
  0,
  0,
  0,
  0,
  0,
  0,
  0,
  0,
  0,
  0,
  0,
  0,
  0,
  0,
  0,
  0,
  0,
  0,
  0,
  0,
  0,
  1,
  1,
  1,
  1,
  1,
  1,
  1,
  1,
  1,
  1,
  1,
  1,
  1,
  1,
  1,
  1,
  1,
  1,
  1,
  1,
  0,
  0,
  0,
  0,
  0,
  0,
  0,
  0,
  0,
  0,
  0,
  0,
  0,
  0,
  0,
  0,
  0,
  0,
  0,
  0,
  0,
  0,
  0,
  0,
  0,
  0,
  0,
  0,
  0,
  0,
  0,
  0,
  0,
  0,
  0,
  0,
  0,
  0,
  0,
  0,
  0,
  0,
  0,
  0,
  0,
  0,
  0,
  0,
  1,
  1,
  1,
  1,
  1,
  1,
  1,
  1,
  1,
  1,
  1,
  1,
  1,
  1,
  1,
  1,
  1,
  1,
  1,
  1,
  0,
  0,
  0,
  0,
  0,
  0,
  0,
  0,
  0,
  0,
  0,
  0,
  0,
  0,
  0,
  0,
  0,
  0,
  0,
  0,
  0,
  0,
  0,
  0,
  0,
  0,
  0,
  0,
  0,
  0,
  0,
  0,
  0,
  0,
  0,
  0,
  0,
  0,
  0,
  0,
  0,
  0,
  0,
  0,
  0,
  0,
  0,
  0,
  1,
  1,
  1,
  1,
  1,
  1,
  1,
  1,
  1,
  1,
  1,
  1,
  1,
  1,
  1,
  1,
  1,
  1,
  1,
  1,
  0,
  0,
  0,
  0,
  0,
  0,
  0,
  0,
  0,
  0,
  0,
  0,
  0,
  0,
  0,
  0,
  0,
  0,
  0,
  0,
  0,
  0,
  0,
  0,
  0,
  0,
  0,
  0,
  0,
  0,
  0,
  0,
  0,
  0,
  0,
  0,
  0,
  0,
  0,
  0,
  0,
  0,
  0,
  0,
  0,
  0,
  0,
  0,
  1,
  1,
  1,
  1,
  1,
  1,
  1,
  1,
  1,
  1,
  1,
  1,
  1,
  1,
  1,
  1,
  1,
  1,
  1,
  1;;
  Material {
   0.385600;0.238400;0.197600;1.000000;;
   0.000000;
   0.000000;0.000000;0.000000;;
   0.000000;0.000000;0.000000;;
  }
  Material {
   1.000000;1.000000;1.000000;1.000000;;
   0.000000;
   0.000000;0.000000;0.000000;;
   0.000000;0.000000;0.000000;;
   TextureFilename {
    "data/TEXTURE/treeleaf.png";
   }
  }
 }
 MeshNormals {
  310;
  0.000000;-0.031243;-0.999512;,
  0.706762;-0.031243;-0.706762;,
  0.999512;-0.031243;-0.000000;,
  0.706762;-0.031243;0.706762;,
  0.000000;-0.031243;0.999512;,
  -0.706762;-0.031243;0.706762;,
  -0.999512;-0.031243;0.000000;,
  -0.706762;-0.031243;-0.706762;,
  0.000000;-1.000000;0.000000;,
  0.997114;0.075915;0.000000;,
  0.705066;0.075915;-0.705066;,
  0.705066;0.075915;0.705066;,
  0.000000;0.075915;-0.997114;,
  0.000000;0.075915;0.997114;,
  -0.705066;0.075915;-0.705066;,
  -0.705066;0.075915;0.705066;,
  -0.997114;0.075915;0.000000;,
  0.000000;0.180739;-0.983531;,
  0.695462;0.180739;-0.695462;,
  0.983531;0.180739;0.000000;,
  0.695462;0.180739;0.695462;,
  0.000000;0.180739;0.983531;,
  -0.695462;0.180739;0.695462;,
  -0.983531;0.180739;0.000000;,
  -0.695462;0.180739;-0.695462;,
  0.000000;1.000000;0.000000;,
  0.000000;0.410443;-0.911886;,
  0.644801;0.410443;-0.644801;,
  0.911886;0.410443;0.000000;,
  0.644801;0.410443;0.644801;,
  0.000000;0.410443;0.911886;,
  -0.644801;0.410443;0.644801;,
  -0.911886;0.410443;0.000000;,
  -0.644801;0.410443;-0.644801;,
  0.000000;-0.121869;-0.992546;,
  0.096685;-0.074189;-0.992546;,
  -0.095238;0.062911;-0.993465;,
  0.106966;0.039923;-0.993461;,
  -0.110896;-0.050538;-0.992546;,
  0.000000;-0.121869;0.992546;,
  0.096685;-0.074189;0.992546;,
  -0.095238;0.062911;0.993465;,
  0.106966;0.039923;0.993461;,
  -0.110896;-0.050538;0.992546;,
  -0.984055;-0.121869;-0.129553;,
  -0.971435;-0.074189;-0.225411;,
  -0.997396;0.062911;-0.035250;,
  -0.971000;0.039923;-0.235724;,
  -0.998530;-0.050538;-0.019606;,
  0.984055;-0.121869;-0.129553;,
  0.971435;-0.074189;-0.225411;,
  0.997396;0.062911;-0.035250;,
  0.971000;0.039923;-0.235724;,
  0.998530;-0.050538;-0.019606;,
  0.988493;0.151265;0.000000;,
  0.698970;0.151265;-0.698970;,
  0.698970;0.151265;0.698970;,
  0.000000;0.151265;-0.988493;,
  0.000000;0.151265;0.988493;,
  -0.698970;0.151265;-0.698970;,
  -0.698970;0.151265;0.698970;,
  -0.988493;0.151265;0.000000;,
  0.000000;-0.031243;-0.999512;,
  0.706762;-0.031243;-0.706761;,
  0.999512;-0.031243;-0.000000;,
  0.706762;-0.031243;0.706761;,
  0.000000;-0.031243;0.999512;,
  -0.706761;-0.031243;0.706762;,
  -0.999512;-0.031243;0.000000;,
  -0.706761;-0.031243;-0.706762;,
  0.000000;-1.000000;0.000000;,
  0.997114;0.075915;0.000000;,
  0.705067;0.075915;-0.705066;,
  0.705067;0.075915;0.705066;,
  -0.000000;0.075915;-0.997114;,
  -0.000000;0.075915;0.997114;,
  -0.705066;0.075915;-0.705067;,
  -0.705066;0.075915;0.705067;,
  -0.997114;0.075915;-0.000000;,
  0.000000;0.180739;-0.983531;,
  0.695462;0.180738;-0.695462;,
  0.983531;0.180738;0.000000;,
  0.695462;0.180738;0.695462;,
  0.000000;0.180739;0.983531;,
  -0.695461;0.180739;0.695462;,
  -0.983531;0.180739;0.000000;,
  -0.695462;0.180739;-0.695462;,
  0.000000;1.000000;0.000000;,
  0.000000;0.410443;-0.911886;,
  0.644801;0.410443;-0.644801;,
  0.911886;0.410443;0.000000;,
  0.644801;0.410443;0.644801;,
  0.000000;0.410443;0.911886;,
  -0.644801;0.410444;0.644801;,
  -0.911886;0.410444;0.000000;,
  -0.644801;0.410444;-0.644801;,
  0.000000;-0.121869;-0.992546;,
  0.096685;-0.074189;-0.992546;,
  -0.096685;0.074189;-0.992546;,
  0.110896;0.050538;-0.992546;,
  -0.110896;-0.050538;-0.992546;,
  0.000000;-0.121869;0.992546;,
  0.096685;-0.074189;0.992546;,
  -0.096685;0.074189;0.992546;,
  0.110896;0.050538;0.992546;,
  -0.110896;-0.050538;0.992546;,
  -0.984055;-0.121869;-0.129553;,
  -0.971435;-0.074189;-0.225411;,
  -0.996675;0.074189;-0.033695;,
  -0.969580;0.050538;-0.239501;,
  -0.998530;-0.050538;-0.019606;,
  0.984055;-0.121869;-0.129553;,
  0.971435;-0.074189;-0.225411;,
  0.996675;0.074189;-0.033695;,
  0.969580;0.050538;-0.239501;,
  0.998530;-0.050538;-0.019606;,
  0.988493;0.151265;0.000000;,
  0.698971;0.151265;-0.698970;,
  0.698971;0.151265;0.698970;,
  0.000000;0.151265;-0.988493;,
  0.000000;0.151265;0.988493;,
  -0.698970;0.151265;-0.698970;,
  -0.698970;0.151265;0.698970;,
  -0.988493;0.151265;0.000000;,
  0.000000;-0.031243;-0.999512;,
  0.706762;-0.031243;-0.706762;,
  0.999512;-0.031243;-0.000000;,
  0.706762;-0.031243;0.706762;,
  0.000000;-0.031243;0.999512;,
  -0.706762;-0.031243;0.706762;,
  -0.999512;-0.031243;0.000000;,
  -0.706762;-0.031243;-0.706762;,
  0.000000;-1.000000;0.000000;,
  0.997114;0.075915;-0.000000;,
  0.705066;0.075915;-0.705066;,
  0.705066;0.075915;0.705066;,
  0.000000;0.075915;-0.997114;,
  0.000000;0.075915;0.997114;,
  -0.705066;0.075915;-0.705066;,
  -0.705066;0.075915;0.705066;,
  -0.997114;0.075915;-0.000000;,
  0.000000;0.180739;-0.983531;,
  0.695462;0.180739;-0.695461;,
  0.983531;0.180739;0.000000;,
  0.695462;0.180739;0.695461;,
  0.000000;0.180739;0.983531;,
  -0.695462;0.180739;0.695462;,
  -0.983531;0.180739;0.000000;,
  -0.695462;0.180739;-0.695462;,
  0.000000;1.000000;0.000000;,
  0.000000;0.410444;-0.911886;,
  0.644801;0.410443;-0.644801;,
  0.911886;0.410444;0.000000;,
  0.644801;0.410443;0.644801;,
  0.000000;0.410444;0.911886;,
  -0.644801;0.410444;0.644801;,
  -0.911886;0.410444;0.000000;,
  -0.644801;0.410444;-0.644801;,
  0.000000;-0.121869;-0.992546;,
  0.096685;-0.074189;-0.992546;,
  -0.096685;0.074189;-0.992546;,
  0.110896;0.050538;-0.992546;,
  -0.110896;-0.050538;-0.992546;,
  0.000000;-0.121869;0.992546;,
  0.096685;-0.074189;0.992546;,
  -0.096685;0.074189;0.992546;,
  0.110896;0.050538;0.992546;,
  -0.110896;-0.050538;0.992546;,
  -0.984055;-0.121869;-0.129553;,
  -0.971435;-0.074189;-0.225411;,
  -0.996675;0.074189;-0.033695;,
  -0.969580;0.050538;-0.239501;,
  -0.998530;-0.050538;-0.019606;,
  0.984055;-0.121869;-0.129553;,
  0.971435;-0.074189;-0.225411;,
  0.996675;0.074189;-0.033695;,
  0.969580;0.050538;-0.239501;,
  0.998530;-0.050538;-0.019606;,
  0.988493;0.151265;0.000000;,
  0.698970;0.151265;-0.698970;,
  0.698970;0.151265;0.698970;,
  0.000000;0.151265;-0.988493;,
  0.000000;0.151265;0.988493;,
  -0.698970;0.151265;-0.698970;,
  -0.698970;0.151265;0.698970;,
  -0.988493;0.151265;0.000000;,
  0.000000;-0.031243;-0.999512;,
  0.706761;-0.031243;-0.706762;,
  0.999512;-0.031242;-0.000000;,
  0.706762;-0.031243;0.706761;,
  0.000000;-0.031243;0.999512;,
  -0.706762;-0.031243;0.706761;,
  -0.999512;-0.031242;-0.000000;,
  -0.706761;-0.031243;-0.706762;,
  0.000000;-1.000000;0.000000;,
  0.997114;0.075915;-0.000000;,
  0.705066;0.075915;-0.705067;,
  0.705067;0.075915;0.705066;,
  -0.000000;0.075915;-0.997114;,
  -0.000000;0.075915;0.997114;,
  -0.705065;0.075914;-0.705068;,
  -0.705066;0.075914;0.705067;,
  -0.997114;0.075914;-0.000000;,
  -0.000001;0.180738;-0.983531;,
  0.695462;0.180737;-0.695461;,
  0.983532;0.180737;-0.000000;,
  0.695462;0.180738;0.695461;,
  -0.000001;0.180739;0.983531;,
  -0.695461;0.180739;0.695462;,
  -0.983531;0.180739;-0.000000;,
  -0.695461;0.180739;-0.695462;,
  0.000000;1.000000;0.000000;,
  -0.000001;0.410443;-0.911886;,
  0.644803;0.410440;-0.644800;,
  0.911888;0.410438;-0.000000;,
  0.644803;0.410441;0.644800;,
  -0.000001;0.410444;0.911886;,
  -0.644800;0.410444;0.644801;,
  -0.911886;0.410444;-0.000000;,
  -0.644801;0.410442;-0.644801;,
  0.000000;-0.121869;-0.992546;,
  0.097960;-0.086345;-0.991437;,
  -0.096044;0.069187;-0.992970;,
  0.108665;0.044507;-0.993082;,
  -0.113315;-0.058470;-0.991837;,
  0.000000;-0.121869;0.992546;,
  0.097960;-0.086345;0.991437;,
  -0.096044;0.069187;0.992970;,
  0.108665;0.044507;0.993082;,
  -0.113315;-0.058470;0.991837;,
  -0.984055;-0.121869;-0.129553;,
  -0.970169;-0.086345;-0.226530;,
  -0.997011;0.069187;-0.034386;,
  -0.970655;0.042591;-0.236675;,
  -0.998142;-0.058470;-0.017115;,
  0.984055;-0.121869;-0.129553;,
  0.970169;-0.086345;-0.226531;,
  0.997011;0.069187;-0.034385;,
  0.970655;0.042591;-0.236676;,
  0.998143;-0.058470;-0.017115;,
  0.988493;0.151265;0.000000;,
  0.698970;0.151266;-0.698970;,
  0.698971;0.151266;0.698969;,
  -0.000001;0.151265;-0.988493;,
  -0.000001;0.151265;0.988493;,
  -0.698969;0.151264;-0.698972;,
  -0.698970;0.151264;0.698971;,
  -0.988493;0.151264;0.000000;,
  0.000001;-0.036270;-0.999342;,
  0.728772;-0.034649;-0.683879;,
  0.999450;-0.033162;-0.000000;,
  0.728773;-0.034650;0.683878;,
  0.000001;-0.036270;0.999342;,
  -0.728770;-0.034650;0.683881;,
  -0.999450;-0.033163;-0.000000;,
  -0.728769;-0.034650;-0.683882;,
  0.000000;-1.000000;0.000000;,
  0.996754;0.080506;0.000000;,
  0.726716;0.084066;-0.681774;,
  0.726717;0.084066;0.681773;,
  0.000000;0.087945;-0.996125;,
  0.000000;0.087945;0.996125;,
  -0.726714;0.084066;-0.681777;,
  -0.726715;0.084065;0.681776;,
  -0.996754;0.080506;0.000000;,
  -0.000000;0.205678;-0.978620;,
  0.715580;0.197521;-0.670024;,
  0.981771;0.190068;-0.000000;,
  0.715579;0.197521;0.670023;,
  -0.000000;0.205679;0.978620;,
  -0.715576;0.197524;0.670027;,
  -0.981770;0.190072;-0.000000;,
  -0.715576;0.197522;-0.670027;,
  0.000000;1.000000;0.000000;,
  -0.000001;0.463271;-0.886216;,
  0.653811;0.446677;-0.610746;,
  0.902276;0.431158;-0.000000;,
  0.653810;0.446678;0.610746;,
  -0.000001;0.463273;0.886216;,
  -0.653805;0.446682;0.610749;,
  -0.902273;0.431166;-0.000001;,
  -0.653807;0.446679;-0.610750;,
  0.000000;-0.141173;-0.989985;,
  0.106920;-0.100058;-0.989220;,
  -0.104883;0.080213;-0.991244;,
  0.118692;0.051611;-0.991589;,
  -0.123728;-0.067782;-0.989999;,
  0.000000;-0.141173;0.989985;,
  0.106920;-0.100058;0.989220;,
  -0.104883;0.080213;0.991244;,
  0.118692;0.051611;0.991589;,
  -0.123728;-0.067782;0.989999;,
  -0.984483;-0.129442;-0.118481;,
  -0.973820;-0.092015;-0.207864;,
  -0.996829;0.073062;-0.031521;,
  -0.975040;0.045423;-0.217331;,
  -0.997950;-0.062064;-0.015642;,
  0.984483;-0.129442;-0.118481;,
  0.973820;-0.092015;-0.207865;,
  0.996829;0.073062;-0.031520;,
  0.975040;0.045423;-0.217332;,
  0.997950;-0.062064;-0.015642;,
  0.987058;0.160361;0.000000;,
  0.719118;0.167368;-0.674431;,
  0.719119;0.167368;0.674430;,
  0.000000;0.174982;-0.984572;,
  0.000000;0.174982;0.984572;,
  -0.719115;0.167367;-0.674434;,
  -0.719116;0.167367;0.674433;,
  -0.987059;0.160361;0.000000;;
  340;
  3;8,8,8;,
  3;8,8,8;,
  3;8,8,8;,
  3;8,8,8;,
  3;8,8,8;,
  3;8,8,8;,
  3;8,8,8;,
  3;8,8,8;,
  4;9,54,55,10;,
  4;9,10,1,2;,
  4;9,2,3,11;,
  4;9,11,56,54;,
  4;10,55,57,12;,
  4;10,12,0,1;,
  4;11,3,4,13;,
  4;11,13,58,56;,
  4;12,57,59,14;,
  4;12,14,7,0;,
  4;13,4,5,15;,
  4;13,15,60,58;,
  4;14,59,61,16;,
  4;14,16,6,7;,
  4;15,5,6,16;,
  4;15,16,61,60;,
  4;17,18,1,0;,
  4;18,19,2,1;,
  4;19,20,3,2;,
  4;20,21,4,3;,
  4;21,22,5,4;,
  4;22,23,6,5;,
  4;23,24,7,6;,
  4;24,17,0,7;,
  4;26,27,18,17;,
  3;25,25,25;,
  4;27,28,19,18;,
  3;25,25,25;,
  4;28,29,20,19;,
  3;25,25,25;,
  4;29,30,21,20;,
  3;25,25,25;,
  4;30,31,22,21;,
  3;25,25,25;,
  4;31,32,23,22;,
  3;25,25,25;,
  4;32,33,24,23;,
  3;25,25,25;,
  4;33,26,17,24;,
  3;25,25,25;,
  4;34,34,34,34;,
  4;35,35,35,35;,
  4;36,36,36,36;,
  4;37,37,37,37;,
  4;38,38,38,38;,
  4;39,39,39,39;,
  4;40,40,40,40;,
  4;41,41,41,41;,
  4;42,42,42,42;,
  4;43,43,43,43;,
  4;44,44,44,44;,
  4;45,45,45,45;,
  4;46,46,46,46;,
  4;47,47,47,47;,
  4;48,48,48,48;,
  4;49,49,49,49;,
  4;50,50,50,50;,
  4;51,51,51,51;,
  4;52,52,52,52;,
  4;53,53,53,53;,
  3;70,70,70;,
  3;70,70,70;,
  3;70,70,70;,
  3;70,70,70;,
  3;70,70,70;,
  3;70,70,70;,
  3;70,70,70;,
  3;70,70,70;,
  4;71,116,117,72;,
  4;71,72,63,64;,
  4;71,64,65,73;,
  4;71,73,118,116;,
  4;72,117,119,74;,
  4;72,74,62,63;,
  4;73,65,66,75;,
  4;73,75,120,118;,
  4;74,119,121,76;,
  4;74,76,69,62;,
  4;75,66,67,77;,
  4;75,77,122,120;,
  4;76,121,123,78;,
  4;76,78,68,69;,
  4;77,67,68,78;,
  4;77,78,123,122;,
  4;79,80,63,62;,
  4;80,81,64,63;,
  4;81,82,65,64;,
  4;82,83,66,65;,
  4;83,84,67,66;,
  4;84,85,68,67;,
  4;85,86,69,68;,
  4;86,79,62,69;,
  4;88,89,80,79;,
  3;87,87,87;,
  4;89,90,81,80;,
  3;87,87,87;,
  4;90,91,82,81;,
  3;87,87,87;,
  4;91,92,83,82;,
  3;87,87,87;,
  4;92,93,84,83;,
  3;87,87,87;,
  4;93,94,85,84;,
  3;87,87,87;,
  4;94,95,86,85;,
  3;87,87,87;,
  4;95,88,79,86;,
  3;87,87,87;,
  4;96,96,96,96;,
  4;97,97,97,97;,
  4;98,98,98,98;,
  4;99,99,99,99;,
  4;100,100,100,100;,
  4;101,101,101,101;,
  4;102,102,102,102;,
  4;103,103,103,103;,
  4;104,104,104,104;,
  4;105,105,105,105;,
  4;106,106,106,106;,
  4;107,107,107,107;,
  4;108,108,108,108;,
  4;109,109,109,109;,
  4;110,110,110,110;,
  4;111,111,111,111;,
  4;112,112,112,112;,
  4;113,113,113,113;,
  4;114,114,114,114;,
  4;115,115,115,115;,
  3;132,132,132;,
  3;132,132,132;,
  3;132,132,132;,
  3;132,132,132;,
  3;132,132,132;,
  3;132,132,132;,
  3;132,132,132;,
  3;132,132,132;,
  4;133,178,179,134;,
  4;133,134,125,126;,
  4;133,126,127,135;,
  4;133,135,180,178;,
  4;134,179,181,136;,
  4;134,136,124,125;,
  4;135,127,128,137;,
  4;135,137,182,180;,
  4;136,181,183,138;,
  4;136,138,131,124;,
  4;137,128,129,139;,
  4;137,139,184,182;,
  4;138,183,185,140;,
  4;138,140,130,131;,
  4;139,129,130,140;,
  4;139,140,185,184;,
  4;141,142,125,124;,
  4;142,143,126,125;,
  4;143,144,127,126;,
  4;144,145,128,127;,
  4;145,146,129,128;,
  4;146,147,130,129;,
  4;147,148,131,130;,
  4;148,141,124,131;,
  4;150,151,142,141;,
  3;149,149,149;,
  4;151,152,143,142;,
  3;149,149,149;,
  4;152,153,144,143;,
  3;149,149,149;,
  4;153,154,145,144;,
  3;149,149,149;,
  4;154,155,146,145;,
  3;149,149,149;,
  4;155,156,147,146;,
  3;149,149,149;,
  4;156,157,148,147;,
  3;149,149,149;,
  4;157,150,141,148;,
  3;149,149,149;,
  4;158,158,158,158;,
  4;159,159,159,159;,
  4;160,160,160,160;,
  4;161,161,161,161;,
  4;162,162,162,162;,
  4;163,163,163,163;,
  4;164,164,164,164;,
  4;165,165,165,165;,
  4;166,166,166,166;,
  4;167,167,167,167;,
  4;168,168,168,168;,
  4;169,169,169,169;,
  4;170,170,170,170;,
  4;171,171,171,171;,
  4;172,172,172,172;,
  4;173,173,173,173;,
  4;174,174,174,174;,
  4;175,175,175,175;,
  4;176,176,176,176;,
  4;177,177,177,177;,
  3;194,194,194;,
  3;194,194,194;,
  3;194,194,194;,
  3;194,194,194;,
  3;194,194,194;,
  3;194,194,194;,
  3;194,194,194;,
  3;194,194,194;,
  4;195,240,241,196;,
  4;195,196,187,188;,
  4;195,188,189,197;,
  4;195,197,242,240;,
  4;196,241,243,198;,
  4;196,198,186,187;,
  4;197,189,190,199;,
  4;197,199,244,242;,
  4;198,243,245,200;,
  4;198,200,193,186;,
  4;199,190,191,201;,
  4;199,201,246,244;,
  4;200,245,247,202;,
  4;200,202,192,193;,
  4;201,191,192,202;,
  4;201,202,247,246;,
  4;203,204,187,186;,
  4;204,205,188,187;,
  4;205,206,189,188;,
  4;206,207,190,189;,
  4;207,208,191,190;,
  4;208,209,192,191;,
  4;209,210,193,192;,
  4;210,203,186,193;,
  4;212,213,204,203;,
  3;211,211,211;,
  4;213,214,205,204;,
  3;211,211,211;,
  4;214,215,206,205;,
  3;211,211,211;,
  4;215,216,207,206;,
  3;211,211,211;,
  4;216,217,208,207;,
  3;211,211,211;,
  4;217,218,209,208;,
  3;211,211,211;,
  4;218,219,210,209;,
  3;211,211,211;,
  4;219,212,203,210;,
  3;211,211,211;,
  4;220,220,220,220;,
  4;221,221,221,221;,
  4;222,222,222,222;,
  4;223,223,223,223;,
  4;224,224,224,224;,
  4;225,225,225,225;,
  4;226,226,226,226;,
  4;227,227,227,227;,
  4;228,228,228,228;,
  4;229,229,229,229;,
  4;230,230,230,230;,
  4;231,231,231,231;,
  4;232,232,232,232;,
  4;233,233,233,233;,
  4;234,234,234,234;,
  4;235,235,235,235;,
  4;236,236,236,236;,
  4;237,237,237,237;,
  4;238,238,238,238;,
  4;239,239,239,239;,
  3;256,256,256;,
  3;256,256,256;,
  3;256,256,256;,
  3;256,256,256;,
  3;256,256,256;,
  3;256,256,256;,
  3;256,256,256;,
  3;256,256,256;,
  4;257,302,303,258;,
  4;257,258,249,250;,
  4;257,250,251,259;,
  4;257,259,304,302;,
  4;258,303,305,260;,
  4;258,260,248,249;,
  4;259,251,252,261;,
  4;259,261,306,304;,
  4;260,305,307,262;,
  4;260,262,255,248;,
  4;261,252,253,263;,
  4;261,263,308,306;,
  4;262,307,309,264;,
  4;262,264,254,255;,
  4;263,253,254,264;,
  4;263,264,309,308;,
  4;265,266,249,248;,
  4;266,267,250,249;,
  4;267,268,251,250;,
  4;268,269,252,251;,
  4;269,270,253,252;,
  4;270,271,254,253;,
  4;271,272,255,254;,
  4;272,265,248,255;,
  4;274,275,266,265;,
  3;273,273,273;,
  4;275,276,267,266;,
  3;273,273,273;,
  4;276,277,268,267;,
  3;273,273,273;,
  4;277,278,269,268;,
  3;273,273,273;,
  4;278,279,270,269;,
  3;273,273,273;,
  4;279,280,271,270;,
  3;273,273,273;,
  4;280,281,272,271;,
  3;273,273,273;,
  4;281,274,265,272;,
  3;273,273,273;,
  4;282,282,282,282;,
  4;283,283,283,283;,
  4;284,284,284,284;,
  4;285,285,285,285;,
  4;286,286,286,286;,
  4;287,287,287,287;,
  4;288,288,288,288;,
  4;289,289,289,289;,
  4;290,290,290,290;,
  4;291,291,291,291;,
  4;292,292,292,292;,
  4;293,293,293,293;,
  4;294,294,294,294;,
  4;295,295,295,295;,
  4;296,296,296,296;,
  4;297,297,297,297;,
  4;298,298,298,298;,
  4;299,299,299,299;,
  4;300,300,300,300;,
  4;301,301,301,301;;
 }
 MeshTextureCoords {
  705;
  0.062500;1.000000;,
  0.000000;1.000000;,
  0.125000;1.000000;,
  0.187500;1.000000;,
  0.250000;1.000000;,
  0.312500;1.000000;,
  0.375000;1.000000;,
  0.437500;1.000000;,
  0.500000;1.000000;,
  0.562500;1.000000;,
  0.625000;1.000000;,
  0.687500;1.000000;,
  0.750000;1.000000;,
  0.812500;1.000000;,
  0.875000;1.000000;,
  0.937500;1.000000;,
  1.000000;1.000000;,
  0.250000;0.650110;,
  0.125000;0.650110;,
  0.125000;0.000000;,
  0.250000;0.000000;,
  0.375000;0.000000;,
  0.375000;0.650110;,
  0.000000;0.650110;,
  0.000000;0.000000;,
  0.500000;0.000000;,
  0.500000;0.650110;,
  1.000000;0.650110;,
  0.875000;0.650110;,
  0.875000;0.000000;,
  1.000000;0.000000;,
  0.625000;0.000000;,
  0.625000;0.650110;,
  0.750000;0.650110;,
  0.750000;0.000000;,
  0.000000;0.000000;,
  0.125000;0.000000;,
  0.250000;0.000000;,
  0.375000;0.000000;,
  0.500000;0.000000;,
  0.625000;0.000000;,
  0.750000;0.000000;,
  0.875000;0.000000;,
  1.000000;0.000000;,
  0.000000;0.000000;,
  0.125000;0.000000;,
  0.062500;0.000000;,
  0.250000;0.000000;,
  0.187500;0.000000;,
  0.375000;0.000000;,
  0.312500;0.000000;,
  0.500000;0.000000;,
  0.437500;0.000000;,
  0.625000;0.000000;,
  0.562500;0.000000;,
  0.750000;0.000000;,
  0.687500;0.000000;,
  0.875000;0.000000;,
  0.812500;0.000000;,
  1.000000;0.000000;,
  0.937500;0.000000;,
  0.000000;0.000000;,
  1.000000;0.000000;,
  1.000000;1.000000;,
  0.000000;1.000000;,
  0.000000;0.000000;,
  1.000000;0.000000;,
  1.000000;1.000000;,
  0.000000;1.000000;,
  0.000000;0.000000;,
  0.000000;1.000000;,
  1.000000;1.000000;,
  1.000000;0.000000;,
  0.000000;0.000000;,
  1.000000;0.000000;,
  1.000000;1.000000;,
  0.000000;1.000000;,
  0.000000;0.000000;,
  0.000000;1.000000;,
  1.000000;1.000000;,
  1.000000;0.000000;,
  0.000000;0.000000;,
  0.000000;1.000000;,
  1.000000;1.000000;,
  1.000000;0.000000;,
  0.000000;0.000000;,
  0.000000;1.000000;,
  1.000000;1.000000;,
  1.000000;0.000000;,
  0.000000;0.000000;,
  1.000000;0.000000;,
  1.000000;1.000000;,
  0.000000;1.000000;,
  0.000000;0.000000;,
  0.000000;1.000000;,
  1.000000;1.000000;,
  1.000000;0.000000;,
  0.000000;0.000000;,
  1.000000;0.000000;,
  1.000000;1.000000;,
  0.000000;1.000000;,
  0.000000;0.000000;,
  1.000000;0.000000;,
  1.000000;1.000000;,
  0.000000;1.000000;,
  0.000000;0.000000;,
  1.000000;0.000000;,
  1.000000;1.000000;,
  0.000000;1.000000;,
  0.000000;0.000000;,
  0.000000;1.000000;,
  1.000000;1.000000;,
  1.000000;0.000000;,
  0.000000;0.000000;,
  1.000000;0.000000;,
  1.000000;1.000000;,
  0.000000;1.000000;,
  0.000000;0.000000;,
  0.000000;1.000000;,
  1.000000;1.000000;,
  1.000000;0.000000;,
  0.000000;0.000000;,
  0.000000;1.000000;,
  1.000000;1.000000;,
  1.000000;0.000000;,
  0.000000;0.000000;,
  0.000000;1.000000;,
  1.000000;1.000000;,
  1.000000;0.000000;,
  0.000000;0.000000;,
  1.000000;0.000000;,
  1.000000;1.000000;,
  0.000000;1.000000;,
  0.000000;0.000000;,
  0.000000;1.000000;,
  1.000000;1.000000;,
  1.000000;0.000000;,
  0.000000;0.000000;,
  1.000000;0.000000;,
  1.000000;1.000000;,
  0.000000;1.000000;,
  0.062500;1.000000;,
  0.000000;1.000000;,
  0.125000;1.000000;,
  0.187500;1.000000;,
  0.250000;1.000000;,
  0.312500;1.000000;,
  0.375000;1.000000;,
  0.437500;1.000000;,
  0.500000;1.000000;,
  0.562500;1.000000;,
  0.625000;1.000000;,
  0.687500;1.000000;,
  0.750000;1.000000;,
  0.812500;1.000000;,
  0.875000;1.000000;,
  0.937500;1.000000;,
  1.000000;1.000000;,
  0.250000;0.650110;,
  0.125000;0.650110;,
  0.125000;0.000000;,
  0.250000;0.000000;,
  0.375000;0.000000;,
  0.375000;0.650110;,
  0.000000;0.650110;,
  0.000000;0.000000;,
  0.500000;0.000000;,
  0.500000;0.650110;,
  1.000000;0.650110;,
  0.875000;0.650110;,
  0.875000;0.000000;,
  1.000000;0.000000;,
  0.625000;0.000000;,
  0.625000;0.650110;,
  0.750000;0.650110;,
  0.750000;0.000000;,
  0.000000;0.000000;,
  0.125000;0.000000;,
  0.250000;0.000000;,
  0.375000;0.000000;,
  0.500000;0.000000;,
  0.625000;0.000000;,
  0.750000;0.000000;,
  0.875000;0.000000;,
  1.000000;0.000000;,
  0.000000;0.000000;,
  0.125000;0.000000;,
  0.062500;0.000000;,
  0.250000;0.000000;,
  0.187500;0.000000;,
  0.375000;0.000000;,
  0.312500;0.000000;,
  0.500000;0.000000;,
  0.437500;0.000000;,
  0.625000;0.000000;,
  0.562500;0.000000;,
  0.750000;0.000000;,
  0.687500;0.000000;,
  0.875000;0.000000;,
  0.812500;0.000000;,
  1.000000;0.000000;,
  0.937500;0.000000;,
  0.000000;0.000000;,
  1.000000;0.000000;,
  1.000000;1.000000;,
  0.000000;1.000000;,
  0.000000;0.000000;,
  1.000000;0.000000;,
  1.000000;1.000000;,
  0.000000;1.000000;,
  0.000000;0.000000;,
  0.000000;1.000000;,
  1.000000;1.000000;,
  1.000000;0.000000;,
  0.000000;0.000000;,
  1.000000;0.000000;,
  1.000000;1.000000;,
  0.000000;1.000000;,
  0.000000;0.000000;,
  0.000000;1.000000;,
  1.000000;1.000000;,
  1.000000;0.000000;,
  0.000000;0.000000;,
  0.000000;1.000000;,
  1.000000;1.000000;,
  1.000000;0.000000;,
  0.000000;0.000000;,
  0.000000;1.000000;,
  1.000000;1.000000;,
  1.000000;0.000000;,
  0.000000;0.000000;,
  1.000000;0.000000;,
  1.000000;1.000000;,
  0.000000;1.000000;,
  0.000000;0.000000;,
  0.000000;1.000000;,
  1.000000;1.000000;,
  1.000000;0.000000;,
  0.000000;0.000000;,
  1.000000;0.000000;,
  1.000000;1.000000;,
  0.000000;1.000000;,
  0.000000;0.000000;,
  1.000000;0.000000;,
  1.000000;1.000000;,
  0.000000;1.000000;,
  0.000000;0.000000;,
  1.000000;0.000000;,
  1.000000;1.000000;,
  0.000000;1.000000;,
  0.000000;0.000000;,
  0.000000;1.000000;,
  1.000000;1.000000;,
  1.000000;0.000000;,
  0.000000;0.000000;,
  1.000000;0.000000;,
  1.000000;1.000000;,
  0.000000;1.000000;,
  0.000000;0.000000;,
  0.000000;1.000000;,
  1.000000;1.000000;,
  1.000000;0.000000;,
  0.000000;0.000000;,
  0.000000;1.000000;,
  1.000000;1.000000;,
  1.000000;0.000000;,
  0.000000;0.000000;,
  0.000000;1.000000;,
  1.000000;1.000000;,
  1.000000;0.000000;,
  0.000000;0.000000;,
  1.000000;0.000000;,
  1.000000;1.000000;,
  0.000000;1.000000;,
  0.000000;0.000000;,
  0.000000;1.000000;,
  1.000000;1.000000;,
  1.000000;0.000000;,
  0.000000;0.000000;,
  1.000000;0.000000;,
  1.000000;1.000000;,
  0.000000;1.000000;,
  0.062500;1.000000;,
  0.000000;1.000000;,
  0.125000;1.000000;,
  0.187500;1.000000;,
  0.250000;1.000000;,
  0.312500;1.000000;,
  0.375000;1.000000;,
  0.437500;1.000000;,
  0.500000;1.000000;,
  0.562500;1.000000;,
  0.625000;1.000000;,
  0.687500;1.000000;,
  0.750000;1.000000;,
  0.812500;1.000000;,
  0.875000;1.000000;,
  0.937500;1.000000;,
  1.000000;1.000000;,
  0.250000;0.650110;,
  0.125000;0.650110;,
  0.125000;0.000000;,
  0.250000;0.000000;,
  0.375000;0.000000;,
  0.375000;0.650110;,
  0.000000;0.650110;,
  0.000000;0.000000;,
  0.500000;0.000000;,
  0.500000;0.650110;,
  1.000000;0.650110;,
  0.875000;0.650110;,
  0.875000;0.000000;,
  1.000000;0.000000;,
  0.625000;0.000000;,
  0.625000;0.650110;,
  0.750000;0.650110;,
  0.750000;0.000000;,
  0.000000;0.000000;,
  0.125000;0.000000;,
  0.250000;0.000000;,
  0.375000;0.000000;,
  0.500000;0.000000;,
  0.625000;0.000000;,
  0.750000;0.000000;,
  0.875000;0.000000;,
  1.000000;0.000000;,
  0.000000;0.000000;,
  0.125000;0.000000;,
  0.062500;0.000000;,
  0.250000;0.000000;,
  0.187500;0.000000;,
  0.375000;0.000000;,
  0.312500;0.000000;,
  0.500000;0.000000;,
  0.437500;0.000000;,
  0.625000;0.000000;,
  0.562500;0.000000;,
  0.750000;0.000000;,
  0.687500;0.000000;,
  0.875000;0.000000;,
  0.812500;0.000000;,
  1.000000;0.000000;,
  0.937500;0.000000;,
  0.000000;0.000000;,
  1.000000;0.000000;,
  1.000000;1.000000;,
  0.000000;1.000000;,
  0.000000;0.000000;,
  1.000000;0.000000;,
  1.000000;1.000000;,
  0.000000;1.000000;,
  0.000000;0.000000;,
  0.000000;1.000000;,
  1.000000;1.000000;,
  1.000000;0.000000;,
  0.000000;0.000000;,
  1.000000;0.000000;,
  1.000000;1.000000;,
  0.000000;1.000000;,
  0.000000;0.000000;,
  0.000000;1.000000;,
  1.000000;1.000000;,
  1.000000;0.000000;,
  0.000000;0.000000;,
  0.000000;1.000000;,
  1.000000;1.000000;,
  1.000000;0.000000;,
  0.000000;0.000000;,
  0.000000;1.000000;,
  1.000000;1.000000;,
  1.000000;0.000000;,
  0.000000;0.000000;,
  1.000000;0.000000;,
  1.000000;1.000000;,
  0.000000;1.000000;,
  0.000000;0.000000;,
  0.000000;1.000000;,
  1.000000;1.000000;,
  1.000000;0.000000;,
  0.000000;0.000000;,
  1.000000;0.000000;,
  1.000000;1.000000;,
  0.000000;1.000000;,
  0.000000;0.000000;,
  1.000000;0.000000;,
  1.000000;1.000000;,
  0.000000;1.000000;,
  0.000000;0.000000;,
  1.000000;0.000000;,
  1.000000;1.000000;,
  0.000000;1.000000;,
  0.000000;0.000000;,
  0.000000;1.000000;,
  1.000000;1.000000;,
  1.000000;0.000000;,
  0.000000;0.000000;,
  1.000000;0.000000;,
  1.000000;1.000000;,
  0.000000;1.000000;,
  0.000000;0.000000;,
  0.000000;1.000000;,
  1.000000;1.000000;,
  1.000000;0.000000;,
  0.000000;0.000000;,
  0.000000;1.000000;,
  1.000000;1.000000;,
  1.000000;0.000000;,
  0.000000;0.000000;,
  0.000000;1.000000;,
  1.000000;1.000000;,
  1.000000;0.000000;,
  0.000000;0.000000;,
  1.000000;0.000000;,
  1.000000;1.000000;,
  0.000000;1.000000;,
  0.000000;0.000000;,
  0.000000;1.000000;,
  1.000000;1.000000;,
  1.000000;0.000000;,
  0.000000;0.000000;,
  1.000000;0.000000;,
  1.000000;1.000000;,
  0.000000;1.000000;,
  0.062500;1.000000;,
  0.000000;1.000000;,
  0.125000;1.000000;,
  0.187500;1.000000;,
  0.250000;1.000000;,
  0.312500;1.000000;,
  0.375000;1.000000;,
  0.437500;1.000000;,
  0.500000;1.000000;,
  0.562500;1.000000;,
  0.625000;1.000000;,
  0.687500;1.000000;,
  0.750000;1.000000;,
  0.812500;1.000000;,
  0.875000;1.000000;,
  0.937500;1.000000;,
  1.000000;1.000000;,
  0.250000;0.650110;,
  0.125000;0.650110;,
  0.125000;0.000000;,
  0.250000;0.000000;,
  0.375000;0.000000;,
  0.375000;0.650110;,
  0.000000;0.650110;,
  0.000000;0.000000;,
  0.500000;0.000000;,
  0.500000;0.650110;,
  1.000000;0.650110;,
  0.875000;0.650110;,
  0.875000;0.000000;,
  1.000000;0.000000;,
  0.625000;0.000000;,
  0.625000;0.650110;,
  0.750000;0.650110;,
  0.750000;0.000000;,
  0.000000;0.000000;,
  0.125000;0.000000;,
  0.250000;0.000000;,
  0.375000;0.000000;,
  0.500000;0.000000;,
  0.625000;0.000000;,
  0.750000;0.000000;,
  0.875000;0.000000;,
  1.000000;0.000000;,
  0.000000;0.000000;,
  0.125000;0.000000;,
  0.062500;0.000000;,
  0.250000;0.000000;,
  0.187500;0.000000;,
  0.375000;0.000000;,
  0.312500;0.000000;,
  0.500000;0.000000;,
  0.437500;0.000000;,
  0.625000;0.000000;,
  0.562500;0.000000;,
  0.750000;0.000000;,
  0.687500;0.000000;,
  0.875000;0.000000;,
  0.812500;0.000000;,
  1.000000;0.000000;,
  0.937500;0.000000;,
  0.000000;0.000000;,
  1.000000;0.000000;,
  1.000000;1.000000;,
  0.000000;1.000000;,
  0.000000;0.000000;,
  1.000000;0.000000;,
  1.000000;1.000000;,
  0.000000;1.000000;,
  0.000000;0.000000;,
  0.000000;1.000000;,
  1.000000;1.000000;,
  1.000000;0.000000;,
  0.000000;0.000000;,
  1.000000;0.000000;,
  1.000000;1.000000;,
  0.000000;1.000000;,
  0.000000;0.000000;,
  0.000000;1.000000;,
  1.000000;1.000000;,
  1.000000;0.000000;,
  0.000000;0.000000;,
  0.000000;1.000000;,
  1.000000;1.000000;,
  1.000000;0.000000;,
  0.000000;0.000000;,
  0.000000;1.000000;,
  1.000000;1.000000;,
  1.000000;0.000000;,
  0.000000;0.000000;,
  1.000000;0.000000;,
  1.000000;1.000000;,
  0.000000;1.000000;,
  0.000000;0.000000;,
  0.000000;1.000000;,
  1.000000;1.000000;,
  1.000000;0.000000;,
  0.000000;0.000000;,
  1.000000;0.000000;,
  1.000000;1.000000;,
  0.000000;1.000000;,
  0.000000;0.000000;,
  1.000000;0.000000;,
  1.000000;1.000000;,
  0.000000;1.000000;,
  0.000000;0.000000;,
  1.000000;0.000000;,
  1.000000;1.000000;,
  0.000000;1.000000;,
  0.000000;0.000000;,
  0.000000;1.000000;,
  1.000000;1.000000;,
  1.000000;0.000000;,
  0.000000;0.000000;,
  1.000000;0.000000;,
  1.000000;1.000000;,
  0.000000;1.000000;,
  0.000000;0.000000;,
  0.000000;1.000000;,
  1.000000;1.000000;,
  1.000000;0.000000;,
  0.000000;0.000000;,
  0.000000;1.000000;,
  1.000000;1.000000;,
  1.000000;0.000000;,
  0.000000;0.000000;,
  0.000000;1.000000;,
  1.000000;1.000000;,
  1.000000;0.000000;,
  0.000000;0.000000;,
  1.000000;0.000000;,
  1.000000;1.000000;,
  0.000000;1.000000;,
  0.000000;0.000000;,
  0.000000;1.000000;,
  1.000000;1.000000;,
  1.000000;0.000000;,
  0.000000;0.000000;,
  1.000000;0.000000;,
  1.000000;1.000000;,
  0.000000;1.000000;,
  0.062500;1.000000;,
  0.000000;1.000000;,
  0.125000;1.000000;,
  0.187500;1.000000;,
  0.250000;1.000000;,
  0.312500;1.000000;,
  0.375000;1.000000;,
  0.437500;1.000000;,
  0.500000;1.000000;,
  0.562500;1.000000;,
  0.625000;1.000000;,
  0.687500;1.000000;,
  0.750000;1.000000;,
  0.812500;1.000000;,
  0.875000;1.000000;,
  0.937500;1.000000;,
  1.000000;1.000000;,
  0.250000;0.650110;,
  0.125000;0.650110;,
  0.125000;0.000000;,
  0.250000;0.000000;,
  0.375000;0.000000;,
  0.375000;0.650110;,
  0.000000;0.650110;,
  0.000000;0.000000;,
  0.500000;0.000000;,
  0.500000;0.650110;,
  1.000000;0.650110;,
  0.875000;0.650110;,
  0.875000;0.000000;,
  1.000000;0.000000;,
  0.625000;0.000000;,
  0.625000;0.650110;,
  0.750000;0.650110;,
  0.750000;0.000000;,
  0.000000;0.000000;,
  0.125000;0.000000;,
  0.250000;0.000000;,
  0.375000;0.000000;,
  0.500000;0.000000;,
  0.625000;0.000000;,
  0.750000;0.000000;,
  0.875000;0.000000;,
  1.000000;0.000000;,
  0.000000;0.000000;,
  0.125000;0.000000;,
  0.062500;0.000000;,
  0.250000;0.000000;,
  0.187500;0.000000;,
  0.375000;0.000000;,
  0.312500;0.000000;,
  0.500000;0.000000;,
  0.437500;0.000000;,
  0.625000;0.000000;,
  0.562500;0.000000;,
  0.750000;0.000000;,
  0.687500;0.000000;,
  0.875000;0.000000;,
  0.812500;0.000000;,
  1.000000;0.000000;,
  0.937500;0.000000;,
  0.000000;0.000000;,
  1.000000;0.000000;,
  1.000000;1.000000;,
  0.000000;1.000000;,
  0.000000;0.000000;,
  1.000000;0.000000;,
  1.000000;1.000000;,
  0.000000;1.000000;,
  0.000000;0.000000;,
  0.000000;1.000000;,
  1.000000;1.000000;,
  1.000000;0.000000;,
  0.000000;0.000000;,
  1.000000;0.000000;,
  1.000000;1.000000;,
  0.000000;1.000000;,
  0.000000;0.000000;,
  0.000000;1.000000;,
  1.000000;1.000000;,
  1.000000;0.000000;,
  0.000000;0.000000;,
  0.000000;1.000000;,
  1.000000;1.000000;,
  1.000000;0.000000;,
  0.000000;0.000000;,
  0.000000;1.000000;,
  1.000000;1.000000;,
  1.000000;0.000000;,
  0.000000;0.000000;,
  1.000000;0.000000;,
  1.000000;1.000000;,
  0.000000;1.000000;,
  0.000000;0.000000;,
  0.000000;1.000000;,
  1.000000;1.000000;,
  1.000000;0.000000;,
  0.000000;0.000000;,
  1.000000;0.000000;,
  1.000000;1.000000;,
  0.000000;1.000000;,
  0.000000;0.000000;,
  1.000000;0.000000;,
  1.000000;1.000000;,
  0.000000;1.000000;,
  0.000000;0.000000;,
  1.000000;0.000000;,
  1.000000;1.000000;,
  0.000000;1.000000;,
  0.000000;0.000000;,
  0.000000;1.000000;,
  1.000000;1.000000;,
  1.000000;0.000000;,
  0.000000;0.000000;,
  1.000000;0.000000;,
  1.000000;1.000000;,
  0.000000;1.000000;,
  0.000000;0.000000;,
  0.000000;1.000000;,
  1.000000;1.000000;,
  1.000000;0.000000;,
  0.000000;0.000000;,
  0.000000;1.000000;,
  1.000000;1.000000;,
  1.000000;0.000000;,
  0.000000;0.000000;,
  0.000000;1.000000;,
  1.000000;1.000000;,
  1.000000;0.000000;,
  0.000000;0.000000;,
  1.000000;0.000000;,
  1.000000;1.000000;,
  0.000000;1.000000;,
  0.000000;0.000000;,
  0.000000;1.000000;,
  1.000000;1.000000;,
  1.000000;0.000000;,
  0.000000;0.000000;,
  1.000000;0.000000;,
  1.000000;1.000000;,
  0.000000;1.000000;;
 }
}
