xof 0302txt 0064
template Header {
 <3D82AB43-62DA-11cf-AB39-0020AF71E433>
 WORD major;
 WORD minor;
 DWORD flags;
}

template Vector {
 <3D82AB5E-62DA-11cf-AB39-0020AF71E433>
 FLOAT x;
 FLOAT y;
 FLOAT z;
}

template Coords2d {
 <F6F23F44-7686-11cf-8F52-0040333594A3>
 FLOAT u;
 FLOAT v;
}

template Matrix4x4 {
 <F6F23F45-7686-11cf-8F52-0040333594A3>
 array FLOAT matrix[16];
}

template ColorRGBA {
 <35FF44E0-6C7C-11cf-8F52-0040333594A3>
 FLOAT red;
 FLOAT green;
 FLOAT blue;
 FLOAT alpha;
}

template ColorRGB {
 <D3E16E81-7835-11cf-8F52-0040333594A3>
 FLOAT red;
 FLOAT green;
 FLOAT blue;
}

template IndexedColor {
 <1630B820-7842-11cf-8F52-0040333594A3>
 DWORD index;
 ColorRGBA indexColor;
}

template Boolean {
 <4885AE61-78E8-11cf-8F52-0040333594A3>
 WORD truefalse;
}

template Boolean2d {
 <4885AE63-78E8-11cf-8F52-0040333594A3>
 Boolean u;
 Boolean v;
}

template MaterialWrap {
 <4885AE60-78E8-11cf-8F52-0040333594A3>
 Boolean u;
 Boolean v;
}

template TextureFilename {
 <A42790E1-7810-11cf-8F52-0040333594A3>
 STRING filename;
}

template Material {
 <3D82AB4D-62DA-11cf-AB39-0020AF71E433>
 ColorRGBA faceColor;
 FLOAT power;
 ColorRGB specularColor;
 ColorRGB emissiveColor;
 [...]
}

template MeshFace {
 <3D82AB5F-62DA-11cf-AB39-0020AF71E433>
 DWORD nFaceVertexIndices;
 array DWORD faceVertexIndices[nFaceVertexIndices];
}

template MeshFaceWraps {
 <4885AE62-78E8-11cf-8F52-0040333594A3>
 DWORD nFaceWrapValues;
 Boolean2d faceWrapValues;
}

template MeshTextureCoords {
 <F6F23F40-7686-11cf-8F52-0040333594A3>
 DWORD nTextureCoords;
 array Coords2d textureCoords[nTextureCoords];
}

template MeshMaterialList {
 <F6F23F42-7686-11cf-8F52-0040333594A3>
 DWORD nMaterials;
 DWORD nFaceIndexes;
 array DWORD faceIndexes[nFaceIndexes];
 [Material]
}

template MeshNormals {
 <F6F23F43-7686-11cf-8F52-0040333594A3>
 DWORD nNormals;
 array Vector normals[nNormals];
 DWORD nFaceNormals;
 array MeshFace faceNormals[nFaceNormals];
}

template MeshVertexColors {
 <1630B821-7842-11cf-8F52-0040333594A3>
 DWORD nVertexColors;
 array IndexedColor vertexColors[nVertexColors];
}

template Mesh {
 <3D82AB44-62DA-11cf-AB39-0020AF71E433>
 DWORD nVertices;
 array Vector vertices[nVertices];
 DWORD nFaces;
 array MeshFace faces[nFaces];
 [...]
}

Header{
1;
0;
1;
}

Mesh {
 167;
 -24.62575;101.71730;-2.37775;,
 24.62575;101.71730;-2.37775;,
 24.62575;1.71730;-2.37775;,
 -24.62575;1.71730;-2.37775;,
 24.62575;101.71730;-2.37775;,
 24.62575;101.71730;-0.02745;,
 24.62575;1.71730;-0.02745;,
 24.62575;1.71730;-2.37775;,
 24.62575;101.71730;-0.02745;,
 -24.62575;101.71730;-0.02745;,
 -24.62575;1.71730;-0.02745;,
 24.62575;1.71730;-0.02745;,
 -24.62575;101.71730;-0.02745;,
 -24.62575;101.71730;-2.37775;,
 -24.62575;1.71730;-2.37775;,
 -24.62575;1.71730;-0.02745;,
 24.62575;101.71730;-2.37775;,
 -24.62575;101.71730;-2.37775;,
 -24.62575;1.71730;-2.37775;,
 24.62575;1.71730;-2.37775;,
 24.35355;95.67865;-1.20258;,
 25.24520;96.76175;-3.63479;,
 25.24520;6.67280;-3.63479;,
 24.35355;7.75595;-1.20260;,
 27.39775;99.37660;-4.64227;,
 27.39775;4.05805;-4.64225;,
 29.55030;101.99135;-3.63479;,
 29.55030;1.44330;-3.63481;,
 30.44190;103.07435;-1.20260;,
 30.44190;0.36030;-1.20260;,
 29.55030;101.99140;1.22961;,
 29.55030;1.44330;1.22959;,
 27.39775;99.37660;2.23706;,
 27.39775;4.05805;2.23706;,
 25.24520;96.76175;1.22961;,
 25.24520;6.67280;1.22961;,
 24.35355;95.67865;-1.20258;,
 24.35355;7.75595;-1.20260;,
 -25.24525;6.67280;-3.63479;,
 -24.35355;7.75595;-1.20260;,
 -27.39775;4.05805;-4.64225;,
 -29.55030;1.44330;-3.63481;,
 -30.44190;0.36030;-1.20260;,
 -29.55030;1.44330;1.22961;,
 -27.39775;4.05810;2.23706;,
 -25.24525;6.67285;1.22961;,
 -24.35355;7.75595;-1.20260;,
 -25.24520;96.76175;-3.63481;,
 -24.35355;95.67860;-1.20260;,
 -27.39775;99.37660;-4.64227;,
 -29.55030;101.99125;-3.63479;,
 -30.44190;103.07430;-1.20260;,
 -29.55030;101.99130;1.22961;,
 -27.39775;99.37660;2.23703;,
 -25.24520;96.76180;1.22959;,
 -24.35355;95.67860;-1.20260;,
 25.24520;96.76175;-3.63479;,
 24.35355;95.67865;-1.20258;,
 27.39775;99.37660;-4.64227;,
 29.55030;101.99135;-3.63479;,
 30.44190;103.07435;-1.20260;,
 29.55030;101.99140;1.22961;,
 27.39775;99.37660;2.23706;,
 25.24520;96.76175;1.22961;,
 24.35355;95.67865;-1.20258;,
 -17.70340;59.73870;-6.20276;,
 -16.51345;59.73870;-6.00880;,
 -16.51345;40.26135;-6.00880;,
 -17.70340;40.26135;-6.20276;,
 -16.02055;59.73870;-5.54055;,
 -16.02055;40.26135;-5.54055;,
 -16.51345;59.73870;-5.07229;,
 -16.51345;40.26135;-5.07229;,
 -17.70340;59.73870;-4.87834;,
 -17.70340;40.26135;-4.87834;,
 -18.89335;59.73870;-5.07229;,
 -18.89335;40.26135;-5.07229;,
 -19.38625;59.73870;-5.54055;,
 -19.38625;40.26135;-5.54055;,
 -18.89335;59.73870;-6.00880;,
 -18.89335;40.26135;-6.00880;,
 -17.70340;59.73870;-6.20276;,
 -17.70340;40.26135;-6.20276;,
 -17.70340;59.73870;-5.54055;,
 -17.70340;59.73870;-5.54055;,
 -17.70340;59.73870;-5.54055;,
 -17.70340;59.73870;-5.54055;,
 -17.70340;59.73870;-5.54055;,
 -17.70340;59.73870;-5.54055;,
 -17.70340;59.73870;-5.54055;,
 -17.70340;59.73870;-5.54055;,
 -17.70340;40.26135;-5.54055;,
 -17.70340;40.26135;-5.54055;,
 -17.70340;40.26135;-5.54055;,
 -17.70340;40.26135;-5.54055;,
 -17.70340;40.26135;-5.54055;,
 -17.70340;40.26135;-5.54055;,
 -17.70340;40.26135;-5.54055;,
 -17.70340;40.26135;-5.54055;,
 -17.70340;53.33190;-5.49351;,
 -16.51345;53.82435;-5.48774;,
 -16.51345;54.16430;-2.41948;,
 -17.70340;53.67185;-2.42522;,
 -16.02055;55.01320;-5.47385;,
 -16.02055;55.35310;-2.40557;,
 -16.51345;56.20200;-5.45998;,
 -16.51345;56.54190;-2.39168;,
 -17.70340;56.69440;-5.45422;,
 -17.70340;57.03440;-2.38593;,
 -18.89335;56.20200;-5.45998;,
 -18.89335;56.54190;-2.39168;,
 -19.38625;55.01320;-5.47385;,
 -19.38625;55.35310;-2.40557;,
 -18.89335;53.82435;-5.48774;,
 -18.89335;54.16430;-2.41948;,
 -17.70340;53.33190;-5.49351;,
 -17.70340;53.67185;-2.42522;,
 -17.70340;55.01320;-5.47385;,
 -17.70340;55.01320;-5.47385;,
 -17.70340;55.01320;-5.47385;,
 -17.70340;55.01320;-5.47385;,
 -17.70340;55.01320;-5.47385;,
 -17.70340;55.01320;-5.47385;,
 -17.70340;55.01320;-5.47385;,
 -17.70340;55.01320;-5.47385;,
 -17.70340;55.35310;-2.40557;,
 -17.70340;55.35310;-2.40557;,
 -17.70340;55.35310;-2.40557;,
 -17.70340;55.35310;-2.40557;,
 -17.70340;55.35310;-2.40557;,
 -17.70340;55.35310;-2.40557;,
 -17.70340;55.35310;-2.40557;,
 -17.70340;55.35310;-2.40557;,
 -17.70340;42.62060;-5.49351;,
 -16.51345;43.11305;-5.48774;,
 -16.51345;43.45300;-2.41948;,
 -17.70340;42.96055;-2.42522;,
 -16.02055;44.30190;-5.47385;,
 -16.02055;44.64180;-2.40557;,
 -16.51345;45.49070;-5.45998;,
 -16.51345;45.83060;-2.39168;,
 -17.70340;45.98310;-5.45422;,
 -17.70340;46.32310;-2.38593;,
 -18.89335;45.49070;-5.45998;,
 -18.89335;45.83060;-2.39168;,
 -19.38625;44.30190;-5.47385;,
 -19.38625;44.64180;-2.40557;,
 -18.89335;43.11305;-5.48774;,
 -18.89335;43.45300;-2.41948;,
 -17.70340;42.62060;-5.49351;,
 -17.70340;42.96055;-2.42522;,
 -17.70340;44.30190;-5.47385;,
 -17.70340;44.30190;-5.47385;,
 -17.70340;44.30190;-5.47385;,
 -17.70340;44.30190;-5.47385;,
 -17.70340;44.30190;-5.47385;,
 -17.70340;44.30190;-5.47385;,
 -17.70340;44.30190;-5.47385;,
 -17.70340;44.30190;-5.47385;,
 -17.70340;44.64180;-2.40557;,
 -17.70340;44.64180;-2.40557;,
 -17.70340;44.64180;-2.40557;,
 -17.70340;44.64180;-2.40557;,
 -17.70340;44.64180;-2.40557;,
 -17.70340;44.64180;-2.40557;,
 -17.70340;44.64180;-2.40557;,
 -17.70340;44.64180;-2.40557;;
 
 110;
 4;0,1,2,3;,
 4;4,5,6,7;,
 4;8,9,10,11;,
 4;12,13,14,15;,
 4;12,5,16,17;,
 4;18,19,6,15;,
 4;20,21,22,23;,
 4;21,24,25,22;,
 4;24,26,27,25;,
 4;26,28,29,27;,
 4;28,30,31,29;,
 4;30,32,33,31;,
 4;32,34,35,33;,
 4;34,36,37,35;,
 4;23,22,38,39;,
 4;22,25,40,38;,
 4;25,27,41,40;,
 4;27,29,42,41;,
 4;29,31,43,42;,
 4;31,33,44,43;,
 4;33,35,45,44;,
 4;35,37,46,45;,
 4;39,38,47,48;,
 4;38,40,49,47;,
 4;40,41,50,49;,
 4;41,42,51,50;,
 4;42,43,52,51;,
 4;43,44,53,52;,
 4;44,45,54,53;,
 4;45,46,55,54;,
 4;48,47,56,57;,
 4;47,49,58,56;,
 4;49,50,59,58;,
 4;50,51,60,59;,
 4;51,52,61,60;,
 4;52,53,62,61;,
 4;53,54,63,62;,
 4;54,55,64,63;,
 4;65,66,67,68;,
 4;66,69,70,67;,
 4;69,71,72,70;,
 4;71,73,74,72;,
 4;73,75,76,74;,
 4;75,77,78,76;,
 4;77,79,80,78;,
 4;79,81,82,80;,
 3;83,66,65;,
 3;84,69,66;,
 3;85,71,69;,
 3;86,73,71;,
 3;87,75,73;,
 3;88,77,75;,
 3;89,79,77;,
 3;90,81,79;,
 3;91,68,67;,
 3;92,67,70;,
 3;93,70,72;,
 3;94,72,74;,
 3;95,74,76;,
 3;96,76,78;,
 3;97,78,80;,
 3;98,80,82;,
 4;99,100,101,102;,
 4;100,103,104,101;,
 4;103,105,106,104;,
 4;105,107,108,106;,
 4;107,109,110,108;,
 4;109,111,112,110;,
 4;111,113,114,112;,
 4;113,115,116,114;,
 3;117,100,99;,
 3;118,103,100;,
 3;119,105,103;,
 3;120,107,105;,
 3;121,109,107;,
 3;122,111,109;,
 3;123,113,111;,
 3;124,115,113;,
 3;125,102,101;,
 3;126,101,104;,
 3;127,104,106;,
 3;128,106,108;,
 3;129,108,110;,
 3;130,110,112;,
 3;131,112,114;,
 3;132,114,116;,
 4;133,134,135,136;,
 4;134,137,138,135;,
 4;137,139,140,138;,
 4;139,141,142,140;,
 4;141,143,144,142;,
 4;143,145,146,144;,
 4;145,147,148,146;,
 4;147,149,150,148;,
 3;151,134,133;,
 3;152,137,134;,
 3;153,139,137;,
 3;154,141,139;,
 3;155,143,141;,
 3;156,145,143;,
 3;157,147,145;,
 3;158,149,147;,
 3;159,136,135;,
 3;160,135,138;,
 3;161,138,140;,
 3;162,140,142;,
 3;163,142,144;,
 3;164,144,146;,
 3;165,146,148;,
 3;166,148,150;;
 
 MeshMaterialList {
  3;
  110;
  2,
  2,
  2,
  2,
  2,
  2,
  0,
  0,
  0,
  0,
  0,
  0,
  0,
  0,
  0,
  0,
  0,
  0,
  0,
  0,
  0,
  0,
  0,
  0,
  0,
  0,
  0,
  0,
  0,
  0,
  0,
  0,
  0,
  0,
  0,
  0,
  0,
  0,
  1,
  1,
  1,
  1,
  1,
  1,
  1,
  1,
  1,
  1,
  1,
  1,
  1,
  1,
  1,
  1,
  1,
  1,
  1,
  1,
  1,
  1,
  1,
  1,
  1,
  1,
  1,
  1,
  1,
  1,
  1,
  1,
  1,
  1,
  1,
  1,
  1,
  1,
  1,
  1,
  1,
  1,
  1,
  1,
  1,
  1,
  1,
  1,
  1,
  1,
  1,
  1,
  1,
  1,
  1,
  1,
  1,
  1,
  1,
  1,
  1,
  1,
  1,
  1,
  1,
  1,
  1,
  1,
  1,
  1,
  1,
  1;;
  Material {
   0.000000;0.000000;0.000000;1.000000;;
   5.000000;
   0.000000;0.000000;0.000000;;
   0.000000;0.000000;0.000000;;
  }
  Material {
   0.800000;0.800000;0.800000;1.000000;;
   5.000000;
   0.000000;0.000000;0.000000;;
   0.000000;0.000000;0.000000;;
  }
  Material {
   1.000000;1.000000;1.000000;1.000000;;
   0.000000;
   0.000000;0.000000;0.000000;;
   0.000000;0.000000;0.000000;;
  }
 }
 MeshNormals {
  108;
  0.000000;0.000000;-1.000000;,
  1.000000;0.000000;0.000000;,
  0.000000;0.000000;1.000000;,
  -1.000000;0.000000;-0.000000;,
  -0.524458;-0.138360;-0.840119;,
  -0.000001;0.000006;-1.000000;,
  0.524462;0.138369;-0.840115;,
  1.000000;-0.000000;-0.000000;,
  0.524460;0.138360;0.840118;,
  0.000001;0.000002;1.000000;,
  -0.524454;-0.138357;0.840122;,
  -0.524458;0.138364;-0.840118;,
  -0.000001;0.000002;-1.000000;,
  0.524462;-0.138362;-0.840117;,
  0.524460;-0.138361;0.840118;,
  0.000001;0.000000;1.000000;,
  -0.524454;0.138361;0.840121;,
  0.000000;1.000000;-0.000006;,
  0.162045;0.486642;-0.858441;,
  0.000001;0.000002;-1.000000;,
  -0.162045;-0.486654;-0.858434;,
  0.000000;-1.000000;0.000001;,
  -0.162041;-0.486653;0.858435;,
  0.000002;0.000000;1.000000;,
  0.162043;0.486643;0.858441;,
  1.000000;-0.000000;0.000000;,
  0.524456;-0.138359;-0.840120;,
  0.000001;0.000006;-1.000000;,
  -0.524463;0.138369;-0.840115;,
  -1.000000;0.000000;-0.000001;,
  -0.524458;0.138360;0.840119;,
  0.000002;0.000002;1.000000;,
  0.524453;-0.138357;0.840123;,
  0.000000;1.000000;0.000000;,
  0.000000;0.000000;-1.000000;,
  0.444546;0.000000;-0.895756;,
  0.688747;0.000000;-0.725002;,
  0.444545;0.000000;0.895756;,
  0.000000;0.000000;1.000000;,
  -0.444546;0.000000;0.895756;,
  -0.688756;0.000000;0.724993;,
  -0.444547;0.000000;-0.895756;,
  0.000000;-1.000000;-0.000000;,
  -1.000000;0.000000;0.000000;,
  0.000000;0.913507;-0.406822;,
  0.000000;-0.913530;-0.406771;,
  0.000000;-0.913529;0.406773;,
  0.000000;0.913513;0.406810;,
  0.938893;-0.000000;-0.344210;,
  -0.938902;0.000000;-0.344184;,
  -0.938903;0.000000;0.344183;,
  0.938893;-0.000000;0.344210;,
  0.000000;-1.000000;0.000006;,
  0.000001;-0.913512;-0.406811;,
  -0.000001;0.913525;-0.406783;,
  -0.000001;1.000000;-0.000011;,
  -0.000001;0.913534;0.406763;,
  -0.000000;-0.913508;0.406821;,
  0.688755;0.000000;0.724994;,
  -0.688748;0.000000;-0.725000;,
  -0.000000;0.011680;-0.999932;,
  0.000000;-0.993918;0.110121;,
  0.705022;-0.704873;0.078095;,
  1.000000;0.000003;0.000001;,
  0.705020;0.704874;-0.078093;,
  0.000000;0.993918;-0.110121;,
  -0.705021;0.704874;-0.078093;,
  -1.000000;0.000003;0.000001;,
  -0.705022;-0.704872;0.078095;,
  0.000000;-0.011688;0.999932;,
  0.000004;0.011690;-0.999932;,
  0.000000;0.011694;-0.999932;,
  0.000000;0.011676;-0.999932;,
  -0.000006;0.011671;-0.999932;,
  -0.000000;0.011676;-0.999932;,
  0.000006;0.011671;-0.999932;,
  -0.000004;0.011690;-0.999932;,
  0.000000;-0.011690;0.999932;,
  0.000005;-0.011695;0.999932;,
  0.000000;-0.011692;0.999932;,
  -0.000003;-0.011681;0.999932;,
  -0.000000;-0.011678;0.999932;,
  0.000003;-0.011681;0.999932;,
  -0.000005;-0.011695;0.999932;,
  -0.000000;0.011680;-0.999932;,
  0.000000;-0.993918;0.110121;,
  0.705022;-0.704873;0.078095;,
  1.000000;0.000003;0.000001;,
  0.705020;0.704874;-0.078093;,
  0.000000;0.993918;-0.110121;,
  -0.705021;0.704874;-0.078093;,
  -1.000000;0.000003;0.000001;,
  -0.705022;-0.704872;0.078095;,
  0.000000;-0.011688;0.999932;,
  0.000004;0.011690;-0.999932;,
  0.000000;0.011694;-0.999932;,
  0.000000;0.011676;-0.999932;,
  -0.000006;0.011671;-0.999932;,
  -0.000000;0.011676;-0.999932;,
  0.000006;0.011671;-0.999932;,
  -0.000004;0.011690;-0.999932;,
  0.000000;-0.011690;0.999932;,
  0.000005;-0.011695;0.999932;,
  0.000000;-0.011692;0.999932;,
  -0.000003;-0.011681;0.999932;,
  -0.000000;-0.011678;0.999932;,
  0.000003;-0.011681;0.999932;,
  -0.000005;-0.011695;0.999932;;
  110;
  4;0,0,0,0;,
  4;1,1,1,1;,
  4;2,2,2,2;,
  4;43,43,43,43;,
  4;33,33,33,33;,
  4;42,42,42,42;,
  4;3,4,11,3;,
  4;4,5,12,11;,
  4;5,6,13,12;,
  4;6,7,7,13;,
  4;7,8,14,7;,
  4;8,9,15,14;,
  4;9,10,16,15;,
  4;10,3,3,16;,
  4;17,44,18,17;,
  4;11,12,19,18;,
  4;12,13,20,19;,
  4;45,21,21,20;,
  4;21,46,22,21;,
  4;14,15,23,22;,
  4;15,16,24,23;,
  4;47,17,17,24;,
  4;25,48,26,25;,
  4;18,19,27,26;,
  4;19,20,28,27;,
  4;49,29,29,28;,
  4;29,50,30,29;,
  4;22,23,31,30;,
  4;23,24,32,31;,
  4;51,25,25,32;,
  4;52,53,53,52;,
  4;26,27,5,4;,
  4;27,28,6,5;,
  4;54,55,55,54;,
  4;55,56,56,55;,
  4;30,31,9,8;,
  4;31,32,10,9;,
  4;57,52,52,57;,
  4;34,35,35,34;,
  4;35,36,36,35;,
  4;58,37,37,58;,
  4;37,38,38,37;,
  4;38,39,39,38;,
  4;39,40,40,39;,
  4;59,41,41,59;,
  4;41,34,34,41;,
  3;33,33,33;,
  3;33,33,33;,
  3;33,33,33;,
  3;33,33,33;,
  3;33,33,33;,
  3;33,33,33;,
  3;33,33,33;,
  3;33,33,33;,
  3;42,42,42;,
  3;42,42,42;,
  3;42,42,42;,
  3;42,42,42;,
  3;42,42,42;,
  3;42,42,42;,
  3;42,42,42;,
  3;42,42,42;,
  4;61,62,62,61;,
  4;62,63,63,62;,
  4;63,64,64,63;,
  4;64,65,65,64;,
  4;65,66,66,65;,
  4;66,67,67,66;,
  4;67,68,68,67;,
  4;68,61,61,68;,
  3;60,70,71;,
  3;60,72,70;,
  3;60,73,72;,
  3;60,74,73;,
  3;60,75,74;,
  3;60,72,75;,
  3;60,76,72;,
  3;60,71,76;,
  3;69,77,78;,
  3;69,78,79;,
  3;69,79,80;,
  3;69,80,81;,
  3;69,81,82;,
  3;69,82,79;,
  3;69,79,83;,
  3;69,83,77;,
  4;85,86,86,85;,
  4;86,87,87,86;,
  4;87,88,88,87;,
  4;88,89,89,88;,
  4;89,90,90,89;,
  4;90,91,91,90;,
  4;91,92,92,91;,
  4;92,85,85,92;,
  3;84,94,95;,
  3;84,96,94;,
  3;84,97,96;,
  3;84,98,97;,
  3;84,99,98;,
  3;84,96,99;,
  3;84,100,96;,
  3;84,95,100;,
  3;93,101,102;,
  3;93,102,103;,
  3;93,103,104;,
  3;93,104,105;,
  3;93,105,106;,
  3;93,106,103;,
  3;93,103,107;,
  3;93,107,101;;
 }
 MeshTextureCoords {
  167;
  0.000000;0.000000;,
  1.000000;0.000000;,
  1.000000;1.000000;,
  0.000000;1.000000;,
  0.000000;0.000000;,
  1.000000;0.000000;,
  1.000000;1.000000;,
  0.000000;1.000000;,
  0.000000;0.000000;,
  1.000000;0.000000;,
  1.000000;1.000000;,
  0.000000;1.000000;,
  0.000000;0.000000;,
  1.000000;0.000000;,
  1.000000;1.000000;,
  0.000000;1.000000;,
  1.000000;1.000000;,
  0.000000;1.000000;,
  0.000000;0.000000;,
  1.000000;0.000000;,
  0.000000;0.000000;,
  0.000000;0.125000;,
  0.250000;0.125000;,
  0.250000;0.000000;,
  0.000000;0.250000;,
  0.250000;0.250000;,
  0.000000;0.375000;,
  0.250000;0.375000;,
  0.000000;0.500000;,
  0.250000;0.500000;,
  0.000000;0.625000;,
  0.250000;0.625000;,
  0.000000;0.750000;,
  0.250000;0.750000;,
  0.000000;0.875000;,
  0.250000;0.875000;,
  0.000000;1.000000;,
  0.250000;1.000000;,
  0.500000;0.125000;,
  0.500000;0.000000;,
  0.500000;0.250000;,
  0.500000;0.375000;,
  0.500000;0.500000;,
  0.500000;0.625000;,
  0.500000;0.750000;,
  0.500000;0.875000;,
  0.500000;1.000000;,
  0.750000;0.125000;,
  0.750000;0.000000;,
  0.750000;0.250000;,
  0.750000;0.375000;,
  0.750000;0.500000;,
  0.750000;0.625000;,
  0.750000;0.750000;,
  0.750000;0.875000;,
  0.750000;1.000000;,
  1.000000;0.125000;,
  1.000000;0.000000;,
  1.000000;0.250000;,
  1.000000;0.375000;,
  1.000000;0.500000;,
  1.000000;0.625000;,
  1.000000;0.750000;,
  1.000000;0.875000;,
  1.000000;1.000000;,
  0.000000;0.000000;,
  0.125000;0.000000;,
  0.125000;1.000000;,
  0.000000;1.000000;,
  0.250000;0.000000;,
  0.250000;1.000000;,
  0.375000;0.000000;,
  0.375000;1.000000;,
  0.500000;0.000000;,
  0.500000;1.000000;,
  0.625000;0.000000;,
  0.625000;1.000000;,
  0.750000;0.000000;,
  0.750000;1.000000;,
  0.875000;0.000000;,
  0.875000;1.000000;,
  1.000000;0.000000;,
  1.000000;1.000000;,
  0.062500;0.000000;,
  0.187500;0.000000;,
  0.312500;0.000000;,
  0.437500;0.000000;,
  0.562500;0.000000;,
  0.687500;0.000000;,
  0.812500;0.000000;,
  0.937500;0.000000;,
  0.062500;1.000000;,
  0.187500;1.000000;,
  0.312500;1.000000;,
  0.437500;1.000000;,
  0.562500;1.000000;,
  0.687500;1.000000;,
  0.812500;1.000000;,
  0.937500;1.000000;,
  0.000000;0.000000;,
  0.125000;0.000000;,
  0.125000;1.000000;,
  0.000000;1.000000;,
  0.250000;0.000000;,
  0.250000;1.000000;,
  0.375000;0.000000;,
  0.375000;1.000000;,
  0.500000;0.000000;,
  0.500000;1.000000;,
  0.625000;0.000000;,
  0.625000;1.000000;,
  0.750000;0.000000;,
  0.750000;1.000000;,
  0.875000;0.000000;,
  0.875000;1.000000;,
  1.000000;0.000000;,
  1.000000;1.000000;,
  0.062500;0.000000;,
  0.187500;0.000000;,
  0.312500;0.000000;,
  0.437500;0.000000;,
  0.562500;0.000000;,
  0.687500;0.000000;,
  0.812500;0.000000;,
  0.937500;0.000000;,
  0.062500;1.000000;,
  0.187500;1.000000;,
  0.312500;1.000000;,
  0.437500;1.000000;,
  0.562500;1.000000;,
  0.687500;1.000000;,
  0.812500;1.000000;,
  0.937500;1.000000;,
  0.000000;0.000000;,
  0.125000;0.000000;,
  0.125000;1.000000;,
  0.000000;1.000000;,
  0.250000;0.000000;,
  0.250000;1.000000;,
  0.375000;0.000000;,
  0.375000;1.000000;,
  0.500000;0.000000;,
  0.500000;1.000000;,
  0.625000;0.000000;,
  0.625000;1.000000;,
  0.750000;0.000000;,
  0.750000;1.000000;,
  0.875000;0.000000;,
  0.875000;1.000000;,
  1.000000;0.000000;,
  1.000000;1.000000;,
  0.062500;0.000000;,
  0.187500;0.000000;,
  0.312500;0.000000;,
  0.437500;0.000000;,
  0.562500;0.000000;,
  0.687500;0.000000;,
  0.812500;0.000000;,
  0.937500;0.000000;,
  0.062500;1.000000;,
  0.187500;1.000000;,
  0.312500;1.000000;,
  0.437500;1.000000;,
  0.562500;1.000000;,
  0.687500;1.000000;,
  0.812500;1.000000;,
  0.937500;1.000000;;
 }
}
