xof 0302txt 0064
template Header {
 <3D82AB43-62DA-11cf-AB39-0020AF71E433>
 WORD major;
 WORD minor;
 DWORD flags;
}

template Vector {
 <3D82AB5E-62DA-11cf-AB39-0020AF71E433>
 FLOAT x;
 FLOAT y;
 FLOAT z;
}

template Coords2d {
 <F6F23F44-7686-11cf-8F52-0040333594A3>
 FLOAT u;
 FLOAT v;
}

template Matrix4x4 {
 <F6F23F45-7686-11cf-8F52-0040333594A3>
 array FLOAT matrix[16];
}

template ColorRGBA {
 <35FF44E0-6C7C-11cf-8F52-0040333594A3>
 FLOAT red;
 FLOAT green;
 FLOAT blue;
 FLOAT alpha;
}

template ColorRGB {
 <D3E16E81-7835-11cf-8F52-0040333594A3>
 FLOAT red;
 FLOAT green;
 FLOAT blue;
}

template IndexedColor {
 <1630B820-7842-11cf-8F52-0040333594A3>
 DWORD index;
 ColorRGBA indexColor;
}

template Boolean {
 <4885AE61-78E8-11cf-8F52-0040333594A3>
 WORD truefalse;
}

template Boolean2d {
 <4885AE63-78E8-11cf-8F52-0040333594A3>
 Boolean u;
 Boolean v;
}

template MaterialWrap {
 <4885AE60-78E8-11cf-8F52-0040333594A3>
 Boolean u;
 Boolean v;
}

template TextureFilename {
 <A42790E1-7810-11cf-8F52-0040333594A3>
 STRING filename;
}

template Material {
 <3D82AB4D-62DA-11cf-AB39-0020AF71E433>
 ColorRGBA faceColor;
 FLOAT power;
 ColorRGB specularColor;
 ColorRGB emissiveColor;
 [...]
}

template MeshFace {
 <3D82AB5F-62DA-11cf-AB39-0020AF71E433>
 DWORD nFaceVertexIndices;
 array DWORD faceVertexIndices[nFaceVertexIndices];
}

template MeshFaceWraps {
 <4885AE62-78E8-11cf-8F52-0040333594A3>
 DWORD nFaceWrapValues;
 Boolean2d faceWrapValues;
}

template MeshTextureCoords {
 <F6F23F40-7686-11cf-8F52-0040333594A3>
 DWORD nTextureCoords;
 array Coords2d textureCoords[nTextureCoords];
}

template MeshMaterialList {
 <F6F23F42-7686-11cf-8F52-0040333594A3>
 DWORD nMaterials;
 DWORD nFaceIndexes;
 array DWORD faceIndexes[nFaceIndexes];
 [Material]
}

template MeshNormals {
 <F6F23F43-7686-11cf-8F52-0040333594A3>
 DWORD nNormals;
 array Vector normals[nNormals];
 DWORD nFaceNormals;
 array MeshFace faceNormals[nFaceNormals];
}

template MeshVertexColors {
 <1630B821-7842-11cf-8F52-0040333594A3>
 DWORD nVertexColors;
 array IndexedColor vertexColors[nVertexColors];
}

template Mesh {
 <3D82AB44-62DA-11cf-AB39-0020AF71E433>
 DWORD nVertices;
 array Vector vertices[nVertices];
 DWORD nFaces;
 array MeshFace faces[nFaces];
 [...]
}

Header{
1;
0;
1;
}

Mesh {
 44;
 0.00000;22.92245;-10.00000;,
 7.07107;22.92245;-7.07107;,
 3.02869;20.00984;-3.02869;,
 0.00000;20.00984;-4.28321;,
 10.00000;22.92245;0.00000;,
 4.28321;20.00984;0.00000;,
 7.07107;22.92245;7.07107;,
 3.02869;20.00984;3.02869;,
 -0.00000;22.92245;10.00000;,
 -0.00000;20.00984;4.28321;,
 -7.07107;22.92245;7.07107;,
 -3.02869;20.00984;3.02868;,
 -10.00000;22.92245;-0.00000;,
 -4.28321;20.00984;-0.00000;,
 -7.07107;22.92245;-7.07107;,
 -3.02869;20.00984;-3.02869;,
 0.00000;22.92245;0.00000;,
 1.40501;20.64744;-1.40501;,
 0.00000;20.64744;-1.98699;,
 0.00000;20.64744;0.00000;,
 1.98699;20.64744;0.00000;,
 1.40501;20.64744;1.40501;,
 -0.00000;20.64744;1.98699;,
 -1.40501;20.64744;1.40501;,
 -1.98699;20.64744;-0.00000;,
 -1.40501;20.64744;-1.40501;,
 0.00000;20.04998;-7.52548;,
 5.32132;20.04998;-5.32132;,
 5.32132;-0.04996;-5.32132;,
 0.00000;-0.04996;-7.52548;,
 7.52548;20.04998;0.00000;,
 7.52548;-0.04996;0.00000;,
 5.32132;20.04998;5.32132;,
 5.32132;-0.04996;5.32132;,
 -0.00000;20.04998;7.52548;,
 -0.00000;-0.04996;7.52548;,
 -5.32132;20.04998;5.32131;,
 -5.32132;-0.04996;5.32131;,
 -7.52548;20.04998;-0.00000;,
 -7.52548;-0.04996;-0.00000;,
 -5.32132;20.04998;-5.32131;,
 -5.32132;-0.04996;-5.32131;,
 0.00000;20.04998;0.00000;,
 0.00000;-0.04996;-0.00000;;
 
 56;
 4;0,1,2,3;,
 4;1,4,5,2;,
 4;4,6,7,5;,
 4;6,8,9,7;,
 4;8,10,11,9;,
 4;10,12,13,11;,
 4;12,14,15,13;,
 4;14,0,3,15;,
 3;16,1,0;,
 3;16,4,1;,
 3;16,6,4;,
 3;16,8,6;,
 3;16,10,8;,
 3;16,12,10;,
 3;16,14,12;,
 3;16,0,14;,
 4;17,18,3,2;,
 3;19,18,17;,
 4;20,17,2,5;,
 3;19,17,20;,
 4;21,20,5,7;,
 3;19,20,21;,
 4;22,21,7,9;,
 3;19,21,22;,
 4;23,22,9,11;,
 3;19,22,23;,
 4;24,23,11,13;,
 3;19,23,24;,
 4;25,24,13,15;,
 3;19,24,25;,
 4;18,25,15,3;,
 3;19,25,18;,
 4;26,27,28,29;,
 4;27,30,31,28;,
 4;30,32,33,31;,
 4;32,34,35,33;,
 4;34,36,37,35;,
 4;36,38,39,37;,
 4;38,40,41,39;,
 4;40,26,29,41;,
 3;42,27,26;,
 3;42,30,27;,
 3;42,32,30;,
 3;42,34,32;,
 3;42,36,34;,
 3;42,38,36;,
 3;42,40,38;,
 3;42,26,40;,
 3;43,29,28;,
 3;43,28,31;,
 3;43,31,33;,
 3;43,33,35;,
 3;43,35,37;,
 3;43,37,39;,
 3;43,39,41;,
 3;43,41,29;;
 
 MeshMaterialList {
  1;
  56;
  0,
  0,
  0,
  0,
  0,
  0,
  0,
  0,
  0,
  0,
  0,
  0,
  0,
  0,
  0,
  0,
  0,
  0,
  0,
  0,
  0,
  0,
  0,
  0,
  0,
  0,
  0,
  0,
  0,
  0,
  0,
  0,
  0,
  0,
  0,
  0,
  0,
  0,
  0,
  0,
  0,
  0,
  0,
  0,
  0,
  0,
  0,
  0,
  0,
  0,
  0,
  0,
  0,
  0,
  0,
  0;;
  Material {
   1.000000;1.000000;1.000000;1.000000;;
   0.000000;
   0.000000;0.000000;0.000000;;
   0.000000;0.000000;0.000000;;
  }
 }
 MeshNormals {
  36;
  0.000000;1.000000;0.000000;,
  -0.000000;-0.891022;-0.453960;,
  0.320999;-0.891022;-0.320999;,
  0.453960;-0.891022;0.000000;,
  0.320999;-0.891022;0.320999;,
  -0.000000;-0.891022;0.453960;,
  -0.320999;-0.891022;0.320999;,
  -0.453960;-0.891022;0.000000;,
  -0.320999;-0.891022;-0.320999;,
  -0.000000;-0.995203;-0.097829;,
  0.069175;-0.995203;-0.069175;,
  0.097829;-0.995203;0.000000;,
  0.069175;-0.995203;0.069175;,
  -0.000000;-0.995203;0.097829;,
  -0.069175;-0.995203;0.069175;,
  -0.097829;-0.995203;0.000000;,
  -0.069175;-0.995203;-0.069175;,
  0.000000;-0.990900;0.134599;,
  -0.095176;-0.990900;0.095176;,
  -0.134599;-0.990900;0.000000;,
  -0.095176;-0.990900;-0.095176;,
  0.000000;-0.990900;-0.134599;,
  0.095176;-0.990900;-0.095176;,
  0.134599;-0.990900;0.000000;,
  0.095176;-0.990900;0.095176;,
  0.000000;-1.000000;-0.000000;,
  0.000000;1.000000;0.000000;,
  -0.000000;0.000000;-1.000000;,
  0.707107;0.000000;-0.707107;,
  1.000000;0.000000;0.000000;,
  0.707107;0.000000;0.707107;,
  -0.000000;0.000000;1.000000;,
  -0.707107;0.000000;0.707107;,
  -1.000000;0.000000;-0.000000;,
  -0.707107;0.000000;-0.707107;,
  0.000000;-1.000000;-0.000000;;
  56;
  4;1,2,10,9;,
  4;2,3,11,10;,
  4;3,4,12,11;,
  4;4,5,13,12;,
  4;5,6,14,13;,
  4;6,7,15,14;,
  4;7,8,16,15;,
  4;8,1,9,16;,
  3;0,0,0;,
  3;0,0,0;,
  3;0,0,0;,
  3;0,0,0;,
  3;0,0,0;,
  3;0,0,0;,
  3;0,0,0;,
  3;0,0,0;,
  4;18,17,9,10;,
  3;25,17,18;,
  4;19,18,10,11;,
  3;25,18,19;,
  4;20,19,11,12;,
  3;25,19,20;,
  4;21,20,12,13;,
  3;25,20,21;,
  4;22,21,13,14;,
  3;25,21,22;,
  4;23,22,14,15;,
  3;25,22,23;,
  4;24,23,15,16;,
  3;25,23,24;,
  4;17,24,16,9;,
  3;25,24,17;,
  4;27,28,28,27;,
  4;28,29,29,28;,
  4;29,30,30,29;,
  4;30,31,31,30;,
  4;31,32,32,31;,
  4;32,33,33,32;,
  4;33,34,34,33;,
  4;34,27,27,34;,
  3;26,26,26;,
  3;26,26,26;,
  3;26,26,26;,
  3;26,26,26;,
  3;26,26,26;,
  3;26,26,26;,
  3;26,26,26;,
  3;26,26,26;,
  3;35,35,35;,
  3;35,35,35;,
  3;35,35,35;,
  3;35,35,35;,
  3;35,35,35;,
  3;35,35,35;,
  3;35,35,35;,
  3;35,35,35;;
 }
}
