xof 0302txt 0064
template Header {
 <3D82AB43-62DA-11cf-AB39-0020AF71E433>
 WORD major;
 WORD minor;
 DWORD flags;
}

template Vector {
 <3D82AB5E-62DA-11cf-AB39-0020AF71E433>
 FLOAT x;
 FLOAT y;
 FLOAT z;
}

template Coords2d {
 <F6F23F44-7686-11cf-8F52-0040333594A3>
 FLOAT u;
 FLOAT v;
}

template Matrix4x4 {
 <F6F23F45-7686-11cf-8F52-0040333594A3>
 array FLOAT matrix[16];
}

template ColorRGBA {
 <35FF44E0-6C7C-11cf-8F52-0040333594A3>
 FLOAT red;
 FLOAT green;
 FLOAT blue;
 FLOAT alpha;
}

template ColorRGB {
 <D3E16E81-7835-11cf-8F52-0040333594A3>
 FLOAT red;
 FLOAT green;
 FLOAT blue;
}

template IndexedColor {
 <1630B820-7842-11cf-8F52-0040333594A3>
 DWORD index;
 ColorRGBA indexColor;
}

template Boolean {
 <4885AE61-78E8-11cf-8F52-0040333594A3>
 WORD truefalse;
}

template Boolean2d {
 <4885AE63-78E8-11cf-8F52-0040333594A3>
 Boolean u;
 Boolean v;
}

template MaterialWrap {
 <4885AE60-78E8-11cf-8F52-0040333594A3>
 Boolean u;
 Boolean v;
}

template TextureFilename {
 <A42790E1-7810-11cf-8F52-0040333594A3>
 STRING filename;
}

template Material {
 <3D82AB4D-62DA-11cf-AB39-0020AF71E433>
 ColorRGBA faceColor;
 FLOAT power;
 ColorRGB specularColor;
 ColorRGB emissiveColor;
 [...]
}

template MeshFace {
 <3D82AB5F-62DA-11cf-AB39-0020AF71E433>
 DWORD nFaceVertexIndices;
 array DWORD faceVertexIndices[nFaceVertexIndices];
}

template MeshFaceWraps {
 <4885AE62-78E8-11cf-8F52-0040333594A3>
 DWORD nFaceWrapValues;
 Boolean2d faceWrapValues;
}

template MeshTextureCoords {
 <F6F23F40-7686-11cf-8F52-0040333594A3>
 DWORD nTextureCoords;
 array Coords2d textureCoords[nTextureCoords];
}

template MeshMaterialList {
 <F6F23F42-7686-11cf-8F52-0040333594A3>
 DWORD nMaterials;
 DWORD nFaceIndexes;
 array DWORD faceIndexes[nFaceIndexes];
 [Material]
}

template MeshNormals {
 <F6F23F43-7686-11cf-8F52-0040333594A3>
 DWORD nNormals;
 array Vector normals[nNormals];
 DWORD nFaceNormals;
 array MeshFace faceNormals[nFaceNormals];
}

template MeshVertexColors {
 <1630B821-7842-11cf-8F52-0040333594A3>
 DWORD nVertexColors;
 array IndexedColor vertexColors[nVertexColors];
}

template Mesh {
 <3D82AB44-62DA-11cf-AB39-0020AF71E433>
 DWORD nVertices;
 array Vector vertices[nVertices];
 DWORD nFaces;
 array MeshFace faces[nFaces];
 [...]
}

Header{
1;
0;
1;
}

Mesh {
 282;
 0.00000;0.37794;-25.53748;,
 0.00000;14.37864;-0.32661;,
 21.83325;0.37794;12.27882;,
 0.00000;14.37864;-0.32661;,
 -21.83325;0.37794;12.27882;,
 0.00000;14.37864;-0.32661;,
 0.00000;0.37794;-25.53748;,
 0.00000;0.37794;-0.32661;,
 0.00000;0.37794;-25.53748;,
 21.83325;0.37794;12.27882;,
 -21.83325;0.37794;12.27882;,
 -0.19418;124.33715;-0.74384;,
 1.71754;123.79938;-2.65556;,
 -0.19418;123.79938;-3.44742;,
 -0.19418;124.33715;-0.74384;,
 2.50940;123.79938;-0.74384;,
 -0.19418;124.33715;-0.74384;,
 1.71754;123.79938;1.16788;,
 -0.19418;124.33715;-0.74384;,
 -0.19419;123.79938;1.95974;,
 -0.19418;124.33715;-0.74384;,
 -2.10591;123.79938;1.16788;,
 -0.19418;124.33715;-0.74384;,
 -2.89777;123.79938;-0.74384;,
 -0.19418;124.33715;-0.74384;,
 -2.10591;123.79938;-2.65556;,
 -0.19418;124.33715;-0.74384;,
 -0.19418;123.79938;-3.44742;,
 3.33821;122.26789;-4.27624;,
 -0.19418;122.26789;-5.73941;,
 4.80138;122.26789;-0.74384;,
 3.33821;122.26789;2.78856;,
 -0.19419;122.26789;4.25173;,
 -3.72658;122.26789;2.78856;,
 -5.18975;122.26789;-0.74384;,
 -3.72658;122.26789;-4.27624;,
 -0.19418;122.26789;-5.73941;,
 4.42112;119.97595;-5.35914;,
 -0.19418;119.97595;-7.27087;,
 6.33284;119.97595;-0.74384;,
 4.42112;119.97595;3.87146;,
 -0.19419;119.97595;5.78318;,
 -4.80949;119.97595;3.87146;,
 -6.72121;119.97595;-0.74384;,
 -4.80949;119.97595;-5.35914;,
 -0.19418;119.97595;-7.27087;,
 4.80138;117.27238;-5.73941;,
 -0.19418;117.27238;-7.80864;,
 6.87061;117.27238;-0.74384;,
 4.80138;117.27238;4.25173;,
 -0.19419;117.27238;6.32095;,
 -5.18975;117.27238;4.25173;,
 -7.25898;117.27238;-0.74384;,
 -5.18975;117.27238;-5.73941;,
 -0.19418;117.27238;-7.80864;,
 4.42112;114.56878;-5.35914;,
 -0.19418;114.56878;-7.27087;,
 6.33284;114.56878;-0.74384;,
 4.42112;114.56878;3.87146;,
 -0.19419;114.56878;5.78318;,
 -4.80949;114.56878;3.87146;,
 -6.72121;114.56878;-0.74384;,
 -4.80949;114.56878;-5.35914;,
 -0.19418;114.56878;-7.27087;,
 3.33821;112.27677;-4.27624;,
 -0.19418;112.27677;-5.73941;,
 4.80138;112.27677;-0.74384;,
 3.33821;112.27677;2.78856;,
 -0.19419;112.27677;4.25173;,
 -3.72658;112.27677;2.78856;,
 -5.18975;112.27677;-0.74384;,
 -3.72658;112.27677;-4.27624;,
 -0.19418;112.27677;-5.73941;,
 1.71754;110.74535;-2.65556;,
 -0.19418;110.74535;-3.44742;,
 2.50940;110.74535;-0.74384;,
 1.71754;110.74535;1.16788;,
 -0.19419;110.74535;1.95974;,
 -2.10591;110.74535;1.16788;,
 -2.89777;110.74535;-0.74384;,
 -2.10591;110.74535;-2.65556;,
 -0.19418;110.74535;-3.44742;,
 -0.19418;110.20755;-0.74384;,
 -0.19418;110.20755;-0.74384;,
 -0.19418;110.20755;-0.74384;,
 -0.19418;110.20755;-0.74384;,
 -0.19418;110.20755;-0.74384;,
 -0.19418;110.20755;-0.74384;,
 -0.19418;110.20755;-0.74384;,
 -0.19418;110.20755;-0.74384;,
 10.12645;123.61570;-0.17521;,
 9.88572;124.74822;-0.17521;,
 6.85747;122.66697;-9.04624;,
 7.20515;121.60791;-8.73293;,
 10.51632;125.71931;-0.17521;,
 7.22988;123.46057;-9.80265;,
 11.64887;125.96001;-0.17521;,
 8.10422;123.52381;-10.55905;,
 12.61992;125.32947;-0.17521;,
 8.96831;122.81968;-10.87236;,
 12.86068;124.19685;-0.17521;,
 9.31600;121.76067;-10.55905;,
 12.23006;123.22578;-0.17521;,
 8.94360;120.96709;-9.80265;,
 11.09751;122.98506;-0.17521;,
 8.06926;120.90376;-9.04624;,
 10.12645;123.61570;-0.17521;,
 7.20515;121.60791;-8.73293;,
 -0.45337;117.64236;-12.72074;,
 0.15252;116.76079;-12.27765;,
 -0.70434;118.00748;-13.79046;,
 -0.45337;117.64236;-14.86018;,
 0.15252;116.76079;-15.30326;,
 0.75841;115.87924;-14.86018;,
 1.00937;115.51411;-13.79046;,
 0.75841;115.87924;-12.72074;,
 0.15252;116.76079;-12.27765;,
 -7.76422;112.61778;-9.04624;,
 -6.90012;111.91365;-8.73293;,
 -8.63856;112.55446;-9.80265;,
 -9.01096;111.76087;-10.55905;,
 -8.66327;110.70187;-10.87236;,
 -7.79918;109.99777;-10.55905;,
 -6.92484;110.06098;-9.80265;,
 -6.55244;110.85463;-9.04624;,
 -6.90012;111.91365;-8.73293;,
 -10.79247;110.53651;-0.17521;,
 -9.82141;109.90592;-0.17521;,
 -11.92502;110.29579;-0.17521;,
 -12.55564;109.32479;-0.17521;,
 -12.31488;108.19212;-0.17521;,
 -11.34383;107.56155;-0.17521;,
 -10.21128;107.80230;-0.17521;,
 -9.58068;108.77334;-0.17521;,
 -9.82141;109.90592;-0.17521;,
 -7.76422;112.61778;8.69582;,
 -6.90011;111.91365;8.38251;,
 -8.63856;112.55446;9.45222;,
 -9.01096;111.76087;10.20862;,
 -8.66327;110.70187;10.52193;,
 -7.79918;109.99777;10.20862;,
 -6.92484;110.06098;9.45222;,
 -6.55243;110.85463;8.69582;,
 -6.90011;111.91365;8.38251;,
 -0.45337;117.64236;12.37031;,
 0.15252;116.76079;11.92722;,
 -0.70434;118.00748;13.44003;,
 -0.45337;117.64236;14.50975;,
 0.15252;116.76079;14.95284;,
 0.75841;115.87924;14.50975;,
 1.00937;115.51411;13.44003;,
 0.75841;115.87924;12.37031;,
 0.15252;116.76079;11.92722;,
 6.85747;122.66697;8.69582;,
 7.20515;121.60791;8.38251;,
 7.22988;123.46057;9.45222;,
 8.10422;123.52381;10.20862;,
 8.96831;122.81968;10.52193;,
 9.31600;121.76067;10.20862;,
 8.94360;120.96709;9.45222;,
 8.06926;120.90376;8.69582;,
 7.20515;121.60791;8.38251;,
 9.88572;124.74822;-0.17521;,
 10.12645;123.61570;-0.17521;,
 10.51632;125.71931;-0.17521;,
 11.64887;125.96001;-0.17521;,
 12.61992;125.32947;-0.17521;,
 12.86068;124.19685;-0.17521;,
 12.23006;123.22578;-0.17521;,
 11.09751;122.98506;-0.17521;,
 10.12645;123.61570;-0.17521;,
 13.00331;106.50976;-0.17521;,
 14.29164;107.29915;-0.17521;,
 10.39072;110.13336;-11.81609;,
 9.23939;109.24433;-11.40722;,
 15.76090;106.94650;-0.17521;,
 11.52919;110.02096;-12.80320;,
 16.55038;105.65807;-0.17521;,
 11.98787;108.97294;-13.79030;,
 16.19764;104.18888;-0.17521;,
 11.49813;107.60325;-14.19918;,
 14.90930;103.39942;-0.17521;,
 10.34682;106.71423;-13.79030;,
 13.44006;103.75213;-0.17521;,
 9.20835;106.82667;-12.80320;,
 12.65058;105.04047;-0.17521;,
 8.74964;107.87464;-11.81609;,
 13.00331;106.50976;-0.17521;,
 9.23939;109.24433;-11.40722;,
 0.97305;116.97569;-16.63790;,
 0.15252;115.84638;-16.05966;,
 1.31293;117.44346;-18.03387;,
 0.97305;116.97569;-19.42985;,
 0.15252;115.84638;-20.00808;,
 -0.66802;114.71701;-19.42985;,
 -1.00789;114.24921;-18.03387;,
 -0.66802;114.71701;-16.63790;,
 0.15252;115.84638;-16.05966;,
 -8.44461;123.81807;-11.81609;,
 -8.93435;122.44834;-11.40722;,
 -8.90331;124.86612;-12.80320;,
 -10.04179;124.97847;-13.79030;,
 -11.19310;124.08945;-14.19918;,
 -11.68284;122.71975;-13.79030;,
 -11.22415;121.67173;-12.80320;,
 -10.08568;121.55930;-11.81609;,
 -8.93435;122.44834;-11.40722;,
 -12.34554;126.65227;-0.17521;,
 -12.69827;125.18303;-0.17521;,
 -13.13502;127.94058;-0.17521;,
 -14.60426;128.29331;-0.17521;,
 -15.89260;127.50383;-0.17521;,
 -16.24534;126.03457;-0.17521;,
 -15.45586;124.74624;-0.17521;,
 -13.98660;124.39348;-0.17521;,
 -12.69827;125.18303;-0.17521;,
 -8.44461;123.81807;11.46566;,
 -8.93435;122.44832;11.05679;,
 -8.90331;124.86612;12.45277;,
 -10.04178;124.97847;13.43988;,
 -11.19309;124.08945;13.84875;,
 -11.68284;122.71975;13.43988;,
 -11.22415;121.67173;12.45277;,
 -10.08568;121.55930;11.46566;,
 -8.93435;122.44832;11.05679;,
 0.97305;116.97569;16.28747;,
 0.15252;115.84638;15.70923;,
 1.31293;117.44346;17.68345;,
 0.97305;116.97569;19.07942;,
 0.15252;115.84638;19.65766;,
 -0.66801;114.71701;19.07942;,
 -1.00789;114.24921;17.68345;,
 -0.66801;114.71701;16.28747;,
 0.15252;115.84638;15.70923;,
 10.39072;110.13336;11.46566;,
 9.23939;109.24433;11.05679;,
 11.52919;110.02096;12.45277;,
 11.98787;108.97294;13.43988;,
 11.49813;107.60325;13.84875;,
 10.34682;106.71423;13.43988;,
 9.20835;106.82667;12.45277;,
 8.74964;107.87464;11.46566;,
 9.23939;109.24433;11.05679;,
 14.29164;107.29915;-0.17521;,
 13.00331;106.50976;-0.17521;,
 15.76090;106.94650;-0.17521;,
 16.55038;105.65807;-0.17521;,
 16.19764;104.18888;-0.17521;,
 14.90930;103.39942;-0.17521;,
 13.44006;103.75213;-0.17521;,
 12.65058;105.04047;-0.17521;,
 13.00331;106.50976;-0.17521;,
 0.00000;107.31332;-2.72955;,
 1.66530;107.31332;-1.92758;,
 1.66530;10.95332;-1.92758;,
 0.00000;10.95332;-2.72955;,
 2.07660;107.31332;-0.12558;,
 2.07660;10.95332;-0.12558;,
 0.92417;107.31332;1.31951;,
 0.92417;10.95332;1.31951;,
 -0.92417;107.31332;1.31951;,
 -0.92417;10.95332;1.31951;,
 -2.07660;107.31332;-0.12558;,
 -2.07660;10.95332;-0.12558;,
 -1.66530;107.31332;-1.92759;,
 -1.66530;10.95332;-1.92759;,
 0.00000;107.31332;-2.72955;,
 0.00000;10.95332;-2.72955;,
 0.00000;107.31332;-0.59955;,
 0.00000;107.31332;-0.59955;,
 0.00000;107.31332;-0.59955;,
 0.00000;107.31332;-0.59955;,
 0.00000;107.31332;-0.59955;,
 0.00000;107.31332;-0.59955;,
 0.00000;107.31332;-0.59955;,
 0.00000;10.95332;-0.59955;,
 0.00000;10.95332;-0.59955;,
 0.00000;10.95332;-0.59955;,
 0.00000;10.95332;-0.59955;,
 0.00000;10.95332;-0.59955;,
 0.00000;10.95332;-0.59955;,
 0.00000;10.95332;-0.59955;;
 
 219;
 3;0,1,2;,
 3;2,3,4;,
 3;4,5,6;,
 3;7,8,9;,
 3;7,9,10;,
 3;7,10,8;,
 3;11,12,13;,
 3;14,15,12;,
 3;16,17,15;,
 3;18,19,17;,
 3;20,21,19;,
 3;22,23,21;,
 3;24,25,23;,
 3;26,27,25;,
 4;13,12,28,29;,
 4;12,15,30,28;,
 4;15,17,31,30;,
 4;17,19,32,31;,
 4;19,21,33,32;,
 4;21,23,34,33;,
 4;23,25,35,34;,
 4;25,27,36,35;,
 4;29,28,37,38;,
 4;28,30,39,37;,
 4;30,31,40,39;,
 4;31,32,41,40;,
 4;32,33,42,41;,
 4;33,34,43,42;,
 4;34,35,44,43;,
 4;35,36,45,44;,
 4;38,37,46,47;,
 4;37,39,48,46;,
 4;39,40,49,48;,
 4;40,41,50,49;,
 4;41,42,51,50;,
 4;42,43,52,51;,
 4;43,44,53,52;,
 4;44,45,54,53;,
 4;47,46,55,56;,
 4;46,48,57,55;,
 4;48,49,58,57;,
 4;49,50,59,58;,
 4;50,51,60,59;,
 4;51,52,61,60;,
 4;52,53,62,61;,
 4;53,54,63,62;,
 4;56,55,64,65;,
 4;55,57,66,64;,
 4;57,58,67,66;,
 4;58,59,68,67;,
 4;59,60,69,68;,
 4;60,61,70,69;,
 4;61,62,71,70;,
 4;62,63,72,71;,
 4;65,64,73,74;,
 4;64,66,75,73;,
 4;66,67,76,75;,
 4;67,68,77,76;,
 4;68,69,78,77;,
 4;69,70,79,78;,
 4;70,71,80,79;,
 4;71,72,81,80;,
 3;74,73,82;,
 3;73,75,83;,
 3;75,76,84;,
 3;76,77,85;,
 3;77,78,86;,
 3;78,79,87;,
 3;79,80,88;,
 3;80,81,89;,
 4;90,91,92,93;,
 4;91,94,95,92;,
 4;94,96,97,95;,
 4;96,98,99,97;,
 4;98,100,101,99;,
 4;100,102,103,101;,
 4;102,104,105,103;,
 4;104,106,107,105;,
 4;93,92,108,109;,
 4;92,95,110,108;,
 4;95,97,111,110;,
 4;97,99,112,111;,
 4;99,101,113,112;,
 4;101,103,114,113;,
 4;103,105,115,114;,
 4;105,107,116,115;,
 4;109,108,117,118;,
 4;108,110,119,117;,
 4;110,111,120,119;,
 4;111,112,121,120;,
 4;112,113,122,121;,
 4;113,114,123,122;,
 4;114,115,124,123;,
 4;115,116,125,124;,
 4;118,117,126,127;,
 4;117,119,128,126;,
 4;119,120,129,128;,
 4;120,121,130,129;,
 4;121,122,131,130;,
 4;122,123,132,131;,
 4;123,124,133,132;,
 4;124,125,134,133;,
 4;127,126,135,136;,
 4;126,128,137,135;,
 4;128,129,138,137;,
 4;129,130,139,138;,
 4;130,131,140,139;,
 4;131,132,141,140;,
 4;132,133,142,141;,
 4;133,134,143,142;,
 4;136,135,144,145;,
 4;135,137,146,144;,
 4;137,138,147,146;,
 4;138,139,148,147;,
 4;139,140,149,148;,
 4;140,141,150,149;,
 4;141,142,151,150;,
 4;142,143,152,151;,
 4;145,144,153,154;,
 4;144,146,155,153;,
 4;146,147,156,155;,
 4;147,148,157,156;,
 4;148,149,158,157;,
 4;149,150,159,158;,
 4;150,151,160,159;,
 4;151,152,161,160;,
 4;154,153,162,163;,
 4;153,155,164,162;,
 4;155,156,165,164;,
 4;156,157,166,165;,
 4;157,158,167,166;,
 4;158,159,168,167;,
 4;159,160,169,168;,
 4;160,161,170,169;,
 4;171,172,173,174;,
 4;172,175,176,173;,
 4;175,177,178,176;,
 4;177,179,180,178;,
 4;179,181,182,180;,
 4;181,183,184,182;,
 4;183,185,186,184;,
 4;185,187,188,186;,
 4;174,173,189,190;,
 4;173,176,191,189;,
 4;176,178,192,191;,
 4;178,180,193,192;,
 4;180,182,194,193;,
 4;182,184,195,194;,
 4;184,186,196,195;,
 4;186,188,197,196;,
 4;190,189,198,199;,
 4;189,191,200,198;,
 4;191,192,201,200;,
 4;192,193,202,201;,
 4;193,194,203,202;,
 4;194,195,204,203;,
 4;195,196,205,204;,
 4;196,197,206,205;,
 4;199,198,207,208;,
 4;198,200,209,207;,
 4;200,201,210,209;,
 4;201,202,211,210;,
 4;202,203,212,211;,
 4;203,204,213,212;,
 4;204,205,214,213;,
 4;205,206,215,214;,
 4;208,207,216,217;,
 4;207,209,218,216;,
 4;209,210,219,218;,
 4;210,211,220,219;,
 4;211,212,221,220;,
 4;212,213,222,221;,
 4;213,214,223,222;,
 4;214,215,224,223;,
 4;217,216,225,226;,
 4;216,218,227,225;,
 4;218,219,228,227;,
 4;219,220,229,228;,
 4;220,221,230,229;,
 4;221,222,231,230;,
 4;222,223,232,231;,
 4;223,224,233,232;,
 4;226,225,234,235;,
 4;225,227,236,234;,
 4;227,228,237,236;,
 4;228,229,238,237;,
 4;229,230,239,238;,
 4;230,231,240,239;,
 4;231,232,241,240;,
 4;232,233,242,241;,
 4;235,234,243,244;,
 4;234,236,245,243;,
 4;236,237,246,245;,
 4;237,238,247,246;,
 4;238,239,248,247;,
 4;239,240,249,248;,
 4;240,241,250,249;,
 4;241,242,251,250;,
 4;252,253,254,255;,
 4;253,256,257,254;,
 4;256,258,259,257;,
 4;258,260,261,259;,
 4;260,262,263,261;,
 4;262,264,265,263;,
 4;264,266,267,265;,
 3;268,253,252;,
 3;269,256,253;,
 3;270,258,256;,
 3;271,260,258;,
 3;272,262,260;,
 3;273,264,262;,
 3;274,266,264;,
 3;275,255,254;,
 3;276,254,257;,
 3;277,257,259;,
 3;278,259,261;,
 3;279,261,263;,
 3;280,263,265;,
 3;281,265,267;;
 
 MeshMaterialList {
  6;
  219;
  0,
  0,
  0,
  0,
  0,
  0,
  2,
  2,
  2,
  2,
  2,
  2,
  2,
  2,
  2,
  2,
  2,
  2,
  2,
  2,
  2,
  2,
  2,
  2,
  2,
  2,
  2,
  2,
  2,
  2,
  2,
  2,
  2,
  2,
  2,
  2,
  2,
  2,
  2,
  2,
  2,
  2,
  2,
  2,
  2,
  2,
  2,
  2,
  2,
  2,
  2,
  2,
  2,
  2,
  2,
  2,
  2,
  2,
  2,
  2,
  2,
  2,
  2,
  2,
  2,
  2,
  2,
  2,
  2,
  2,
  3,
  3,
  3,
  3,
  3,
  3,
  3,
  3,
  3,
  3,
  3,
  3,
  3,
  3,
  3,
  3,
  3,
  3,
  3,
  3,
  3,
  3,
  3,
  3,
  3,
  3,
  3,
  3,
  3,
  3,
  3,
  3,
  3,
  3,
  3,
  3,
  3,
  3,
  3,
  3,
  3,
  3,
  3,
  3,
  3,
  3,
  3,
  3,
  3,
  3,
  3,
  3,
  3,
  3,
  3,
  3,
  3,
  3,
  3,
  3,
  3,
  3,
  3,
  3,
  3,
  3,
  3,
  3,
  3,
  3,
  3,
  3,
  3,
  3,
  3,
  3,
  3,
  3,
  3,
  3,
  3,
  3,
  3,
  3,
  3,
  3,
  3,
  3,
  3,
  3,
  3,
  3,
  3,
  3,
  3,
  3,
  3,
  3,
  3,
  3,
  3,
  3,
  3,
  3,
  3,
  3,
  3,
  3,
  3,
  3,
  3,
  3,
  3,
  3,
  3,
  3,
  3,
  3,
  3,
  3,
  3,
  3,
  3,
  3,
  3,
  3,
  3,
  3,
  1,
  1,
  1,
  1,
  1,
  1,
  1,
  1,
  1,
  1,
  1,
  1,
  1,
  1,
  1,
  1,
  1,
  1,
  1,
  1,
  1;;
  Material {
   0.097600;0.429600;0.800000;1.000000;;
   5.000000;
   0.000000;0.000000;0.000000;;
   0.000000;0.000000;0.000000;;
  }
  Material {
   0.501600;0.602400;0.800000;1.000000;;
   5.000000;
   0.000000;0.000000;0.000000;;
   0.000000;0.000000;0.000000;;
  }
  Material {
   0.290000;1.000000;0.541000;1.000000;;
   100.000000;
   1.000000;1.000000;1.000000;;
   0.290000;1.000000;0.541000;;
  }
  Material {
   0.800000;0.000000;0.072000;0.670000;;
   100.000000;
   1.000000;1.000000;1.000000;;
   1.000000;0.000000;0.090000;;
  }
  Material {
   1.000000;0.545000;0.000000;0.650000;;
   100.000000;
   1.000000;1.000000;1.000000;;
   1.000000;0.545000;0.000000;;
  }
  Material {
   1.000000;1.000000;1.000000;1.000000;;
   0.000000;
   0.000000;0.000000;0.000000;;
   0.000000;0.000000;0.000000;;
  }
 }
 MeshNormals {
  199;
  0.643602;0.669106;-0.371584;,
  0.000000;0.669106;0.743167;,
  0.000000;-1.000000;-0.000000;,
  -0.643602;0.669106;-0.371584;,
  0.000000;1.000000;0.000000;,
  0.000000;0.924734;-0.380615;,
  0.269136;0.924734;-0.269135;,
  0.380615;0.924733;0.000000;,
  0.269135;0.924734;0.269136;,
  -0.000000;0.924734;0.380615;,
  -0.269136;0.924734;0.269135;,
  -0.380615;0.924734;0.000000;,
  -0.269135;0.924734;-0.269135;,
  0.000000;0.709230;-0.704977;,
  0.498494;0.709230;-0.498494;,
  0.704977;0.709230;0.000000;,
  0.498494;0.709230;0.498494;,
  -0.000000;0.709230;0.704977;,
  -0.498494;0.709230;0.498494;,
  -0.704977;0.709230;0.000000;,
  -0.498494;0.709230;-0.498494;,
  0.000000;0.384556;-0.923101;,
  0.652732;0.384556;-0.652731;,
  0.923102;0.384556;0.000000;,
  0.652731;0.384556;0.652732;,
  -0.000000;0.384556;0.923102;,
  -0.652731;0.384556;0.652732;,
  -0.923102;0.384556;0.000000;,
  -0.652732;0.384556;-0.652731;,
  0.000000;0.000001;-1.000000;,
  0.707107;0.000001;-0.707106;,
  1.000000;0.000001;0.000000;,
  0.707106;0.000001;0.707107;,
  -0.000000;0.000001;1.000000;,
  -0.707107;0.000001;0.707107;,
  -1.000000;0.000001;0.000000;,
  -0.707107;0.000001;-0.707107;,
  0.000000;-0.384549;-0.923105;,
  0.652734;-0.384548;-0.652733;,
  0.923105;-0.384549;0.000000;,
  0.652733;-0.384548;0.652734;,
  -0.000000;-0.384548;0.923105;,
  -0.652734;-0.384548;0.652734;,
  -0.923105;-0.384548;0.000000;,
  -0.652734;-0.384548;-0.652734;,
  0.000000;-0.709233;-0.704974;,
  0.498492;-0.709233;-0.498492;,
  0.704974;-0.709233;0.000000;,
  0.498492;-0.709233;0.498492;,
  -0.000000;-0.709233;0.704974;,
  -0.498492;-0.709233;0.498492;,
  -0.704974;-0.709233;0.000000;,
  -0.498492;-0.709233;-0.498492;,
  0.000000;-0.924735;-0.380611;,
  0.269133;-0.924735;-0.269133;,
  0.380612;-0.924735;-0.000000;,
  0.269133;-0.924735;0.269133;,
  -0.000000;-0.924735;0.380611;,
  -0.269133;-0.924735;0.269133;,
  -0.380611;-0.924735;0.000000;,
  -0.269132;-0.924735;-0.269133;,
  0.000000;-1.000000;0.000000;,
  -0.824132;-0.566398;-0.000000;,
  -0.981080;0.193602;0.000000;,
  -0.566400;0.824130;0.000000;,
  0.170845;0.985298;0.000000;,
  0.824118;0.566419;0.000000;,
  0.981080;-0.193604;0.000000;,
  0.566414;-0.824121;0.000000;,
  -0.170835;-0.985300;0.000000;,
  -0.582749;-0.400505;0.707106;,
  -0.812387;0.309547;0.494175;,
  -0.566403;0.824128;-0.000005;,
  0.002148;0.869358;-0.494179;,
  0.582740;0.400515;-0.707108;,
  0.812385;-0.309550;-0.494176;,
  0.566410;-0.824124;-0.000008;,
  -0.002138;-0.869363;0.494169;,
  -0.000001;-0.000000;1.000000;,
  -0.405127;0.589460;0.698863;,
  -0.566408;0.824125;-0.000008;,
  -0.405120;0.589455;-0.698871;,
  0.000002;-0.000001;-1.000000;,
  0.405120;-0.589456;-0.698870;,
  0.566408;-0.824125;-0.000008;,
  0.405127;-0.589458;0.698864;,
  0.582746;0.400510;0.707106;,
  0.002133;0.869364;0.494167;,
  -0.566408;0.824125;-0.000007;,
  -0.812384;0.309553;-0.494175;,
  -0.582740;-0.400516;-0.707107;,
  -0.002145;-0.869358;-0.494178;,
  0.566407;-0.824126;-0.000002;,
  0.812386;-0.309544;0.494177;,
  0.824125;0.566408;-0.000000;,
  0.170827;0.985301;-0.000000;,
  -0.566406;0.824127;0.000000;,
  -0.981078;0.193614;0.000000;,
  -0.824119;-0.566417;0.000000;,
  -0.170840;-0.985299;-0.000000;,
  0.566404;-0.824128;-0.000000;,
  0.981080;-0.193602;-0.000000;,
  0.582745;0.400510;-0.707107;,
  0.002133;0.869364;-0.494168;,
  -0.566408;0.824125;0.000007;,
  -0.812384;0.309554;0.494175;,
  -0.582740;-0.400516;0.707107;,
  -0.002144;-0.869358;0.494178;,
  0.566406;-0.824126;0.000004;,
  0.812386;-0.309546;-0.494177;,
  -0.000001;-0.000000;-1.000000;,
  -0.405127;0.589459;-0.698864;,
  -0.566408;0.824125;0.000008;,
  -0.405121;0.589456;0.698870;,
  0.000002;-0.000001;1.000000;,
  0.405120;-0.589457;0.698869;,
  0.566407;-0.824126;0.000009;,
  0.405127;-0.589459;-0.698864;,
  -0.582749;-0.400505;-0.707107;,
  -0.812386;0.309547;-0.494175;,
  -0.566403;0.824129;0.000005;,
  0.002148;0.869358;0.494179;,
  0.582741;0.400515;0.707107;,
  0.812385;-0.309551;0.494175;,
  0.566410;-0.824123;0.000008;,
  -0.002138;-0.869363;-0.494170;,
  -0.809009;0.587796;-0.000000;,
  -0.144990;0.989433;-0.000000;,
  0.587785;0.809017;-0.000000;,
  0.985814;0.167843;0.000000;,
  0.809012;-0.587793;0.000000;,
  0.144979;-0.989435;0.000000;,
  -0.587785;-0.809017;-0.000000;,
  -0.985810;-0.167864;-0.000000;,
  -0.572055;0.415635;0.707107;,
  0.020615;0.869119;0.494173;,
  0.587786;0.809017;-0.000004;,
  0.820210;0.288169;-0.494180;,
  0.572059;-0.415631;-0.707107;,
  -0.020621;-0.869119;-0.494173;,
  -0.587785;-0.809017;-0.000001;,
  -0.820210;-0.288181;0.494174;,
  0.000003;0.000003;1.000000;,
  0.420415;0.578648;0.698869;,
  0.587787;0.809016;-0.000005;,
  0.420413;0.578646;-0.698872;,
  0.000002;0.000003;-1.000000;,
  -0.420414;-0.578647;-0.698870;,
  -0.587786;-0.809017;-0.000004;,
  -0.420413;-0.578651;0.698868;,
  0.572065;-0.415622;0.707107;,
  0.820210;0.288175;0.494177;,
  0.587785;0.809018;-0.000003;,
  0.020614;0.869117;-0.494177;,
  -0.572058;0.415632;-0.707107;,
  -0.820209;-0.288174;-0.494178;,
  -0.587790;-0.809013;-0.000006;,
  -0.020615;-0.869117;0.494176;,
  0.809023;-0.587777;-0.000000;,
  0.985811;0.167860;0.000000;,
  0.587781;0.809020;-0.000000;,
  -0.144992;0.989433;0.000000;,
  -0.809014;0.587789;0.000000;,
  -0.985812;-0.167856;0.000000;,
  -0.587794;-0.809010;-0.000000;,
  0.144986;-0.989434;-0.000000;,
  0.572064;-0.415624;-0.707107;,
  0.820210;0.288176;-0.494177;,
  0.587785;0.809017;0.000002;,
  0.020614;0.869117;0.494177;,
  -0.572058;0.415632;0.707107;,
  -0.820209;-0.288173;0.494179;,
  -0.587790;-0.809013;0.000006;,
  -0.020617;-0.869118;-0.494175;,
  0.000002;0.000001;-1.000000;,
  0.420415;0.578648;-0.698869;,
  0.587787;0.809016;0.000005;,
  0.420413;0.578647;0.698871;,
  0.000002;0.000003;1.000000;,
  -0.420414;-0.578646;0.698871;,
  -0.587786;-0.809016;0.000005;,
  -0.420414;-0.578651;-0.698867;,
  -0.572056;0.415634;-0.707107;,
  0.020614;0.869119;-0.494173;,
  0.587785;0.809017;0.000003;,
  0.820210;0.288168;0.494180;,
  0.572059;-0.415630;0.707107;,
  -0.020620;-0.869119;0.494173;,
  -0.587785;-0.809017;0.000001;,
  -0.820210;-0.288181;-0.494174;,
  0.000000;1.000000;0.000000;,
  0.000002;0.000000;-1.000000;,
  0.781831;0.000000;-0.623490;,
  0.974928;0.000000;0.222521;,
  0.433882;0.000000;0.900970;,
  -0.433882;0.000000;0.900970;,
  -0.974928;0.000000;0.222522;,
  -0.781830;0.000000;-0.623492;,
  0.000000;-1.000000;-0.000000;;
  219;
  3;0,0,0;,
  3;1,1,1;,
  3;3,3,3;,
  3;2,2,2;,
  3;2,2,2;,
  3;2,2,2;,
  3;4,6,5;,
  3;4,7,6;,
  3;4,8,7;,
  3;4,9,8;,
  3;4,10,9;,
  3;4,11,10;,
  3;4,12,11;,
  3;4,5,12;,
  4;5,6,14,13;,
  4;6,7,15,14;,
  4;7,8,16,15;,
  4;8,9,17,16;,
  4;9,10,18,17;,
  4;10,11,19,18;,
  4;11,12,20,19;,
  4;12,5,13,20;,
  4;13,14,22,21;,
  4;14,15,23,22;,
  4;15,16,24,23;,
  4;16,17,25,24;,
  4;17,18,26,25;,
  4;18,19,27,26;,
  4;19,20,28,27;,
  4;20,13,21,28;,
  4;21,22,30,29;,
  4;22,23,31,30;,
  4;23,24,32,31;,
  4;24,25,33,32;,
  4;25,26,34,33;,
  4;26,27,35,34;,
  4;27,28,36,35;,
  4;28,21,29,36;,
  4;29,30,38,37;,
  4;30,31,39,38;,
  4;31,32,40,39;,
  4;32,33,41,40;,
  4;33,34,42,41;,
  4;34,35,43,42;,
  4;35,36,44,43;,
  4;36,29,37,44;,
  4;37,38,46,45;,
  4;38,39,47,46;,
  4;39,40,48,47;,
  4;40,41,49,48;,
  4;41,42,50,49;,
  4;42,43,51,50;,
  4;43,44,52,51;,
  4;44,37,45,52;,
  4;45,46,54,53;,
  4;46,47,55,54;,
  4;47,48,56,55;,
  4;48,49,57,56;,
  4;49,50,58,57;,
  4;50,51,59,58;,
  4;51,52,60,59;,
  4;52,45,53,60;,
  3;53,54,61;,
  3;54,55,61;,
  3;55,56,61;,
  3;56,57,61;,
  3;57,58,61;,
  3;58,59,61;,
  3;59,60,61;,
  3;60,53,61;,
  4;62,63,71,70;,
  4;63,64,72,71;,
  4;64,65,73,72;,
  4;65,66,74,73;,
  4;66,67,75,74;,
  4;67,68,76,75;,
  4;68,69,77,76;,
  4;69,62,70,77;,
  4;70,71,79,78;,
  4;71,72,80,79;,
  4;72,73,81,80;,
  4;73,74,82,81;,
  4;74,75,83,82;,
  4;75,76,84,83;,
  4;76,77,85,84;,
  4;77,70,78,85;,
  4;78,79,87,86;,
  4;79,80,88,87;,
  4;80,81,89,88;,
  4;81,82,90,89;,
  4;82,83,91,90;,
  4;83,84,92,91;,
  4;84,85,93,92;,
  4;85,78,86,93;,
  4;86,87,95,94;,
  4;87,88,96,95;,
  4;88,89,97,96;,
  4;89,90,98,97;,
  4;90,91,99,98;,
  4;91,92,100,99;,
  4;92,93,101,100;,
  4;93,86,94,101;,
  4;94,95,103,102;,
  4;95,96,104,103;,
  4;96,97,105,104;,
  4;97,98,106,105;,
  4;98,99,107,106;,
  4;99,100,108,107;,
  4;100,101,109,108;,
  4;101,94,102,109;,
  4;102,103,111,110;,
  4;103,104,112,111;,
  4;104,105,113,112;,
  4;105,106,114,113;,
  4;106,107,115,114;,
  4;107,108,116,115;,
  4;108,109,117,116;,
  4;109,102,110,117;,
  4;110,111,119,118;,
  4;111,112,120,119;,
  4;112,113,121,120;,
  4;113,114,122,121;,
  4;114,115,123,122;,
  4;115,116,124,123;,
  4;116,117,125,124;,
  4;117,110,118,125;,
  4;118,119,63,62;,
  4;119,120,64,63;,
  4;120,121,65,64;,
  4;121,122,66,65;,
  4;122,123,67,66;,
  4;123,124,68,67;,
  4;124,125,69,68;,
  4;125,118,62,69;,
  4;126,127,135,134;,
  4;127,128,136,135;,
  4;128,129,137,136;,
  4;129,130,138,137;,
  4;130,131,139,138;,
  4;131,132,140,139;,
  4;132,133,141,140;,
  4;133,126,134,141;,
  4;134,135,143,142;,
  4;135,136,144,143;,
  4;136,137,145,144;,
  4;137,138,146,145;,
  4;138,139,147,146;,
  4;139,140,148,147;,
  4;140,141,149,148;,
  4;141,134,142,149;,
  4;142,143,151,150;,
  4;143,144,152,151;,
  4;144,145,153,152;,
  4;145,146,154,153;,
  4;146,147,155,154;,
  4;147,148,156,155;,
  4;148,149,157,156;,
  4;149,142,150,157;,
  4;150,151,159,158;,
  4;151,152,160,159;,
  4;152,153,161,160;,
  4;153,154,162,161;,
  4;154,155,163,162;,
  4;155,156,164,163;,
  4;156,157,165,164;,
  4;157,150,158,165;,
  4;158,159,167,166;,
  4;159,160,168,167;,
  4;160,161,169,168;,
  4;161,162,170,169;,
  4;162,163,171,170;,
  4;163,164,172,171;,
  4;164,165,173,172;,
  4;165,158,166,173;,
  4;166,167,175,174;,
  4;167,168,176,175;,
  4;168,169,177,176;,
  4;169,170,178,177;,
  4;170,171,179,178;,
  4;171,172,180,179;,
  4;172,173,181,180;,
  4;173,166,174,181;,
  4;174,175,183,182;,
  4;175,176,184,183;,
  4;176,177,185,184;,
  4;177,178,186,185;,
  4;178,179,187,186;,
  4;179,180,188,187;,
  4;180,181,189,188;,
  4;181,174,182,189;,
  4;182,183,127,126;,
  4;183,184,128,127;,
  4;184,185,129,128;,
  4;185,186,130,129;,
  4;186,187,131,130;,
  4;187,188,132,131;,
  4;188,189,133,132;,
  4;189,182,126,133;,
  4;191,192,192,191;,
  4;192,193,193,192;,
  4;193,194,194,193;,
  4;194,195,195,194;,
  4;195,196,196,195;,
  4;196,197,197,196;,
  4;197,191,191,197;,
  3;190,190,190;,
  3;190,190,190;,
  3;190,190,190;,
  3;190,190,190;,
  3;190,190,190;,
  3;190,190,190;,
  3;190,190,190;,
  3;198,198,198;,
  3;198,198,198;,
  3;198,198,198;,
  3;198,198,198;,
  3;198,198,198;,
  3;198,198,198;,
  3;198,198,198;;
 }
 MeshTextureCoords {
  282;
  0.000000;1.000000;,
  0.166670;0.000000;,
  0.333330;1.000000;,
  0.333330;0.000000;,
  0.666670;1.000000;,
  0.500000;0.000000;,
  1.000000;1.000000;,
  0.000000;0.000000;,
  0.000000;0.000000;,
  0.000000;0.000000;,
  0.000000;0.000000;,
  0.062500;0.000000;,
  0.125000;0.125000;,
  0.000000;0.125000;,
  0.187500;0.000000;,
  0.250000;0.125000;,
  0.312500;0.000000;,
  0.375000;0.125000;,
  0.437500;0.000000;,
  0.500000;0.125000;,
  0.562500;0.000000;,
  0.625000;0.125000;,
  0.687500;0.000000;,
  0.750000;0.125000;,
  0.812500;0.000000;,
  0.875000;0.125000;,
  0.937500;0.000000;,
  1.000000;0.125000;,
  0.125000;0.250000;,
  0.000000;0.250000;,
  0.250000;0.250000;,
  0.375000;0.250000;,
  0.500000;0.250000;,
  0.625000;0.250000;,
  0.750000;0.250000;,
  0.875000;0.250000;,
  1.000000;0.250000;,
  0.125000;0.375000;,
  0.000000;0.375000;,
  0.250000;0.375000;,
  0.375000;0.375000;,
  0.500000;0.375000;,
  0.625000;0.375000;,
  0.750000;0.375000;,
  0.875000;0.375000;,
  1.000000;0.375000;,
  0.125000;0.500000;,
  0.000000;0.500000;,
  0.250000;0.500000;,
  0.375000;0.500000;,
  0.500000;0.500000;,
  0.625000;0.500000;,
  0.750000;0.500000;,
  0.875000;0.500000;,
  1.000000;0.500000;,
  0.125000;0.625000;,
  0.000000;0.625000;,
  0.250000;0.625000;,
  0.375000;0.625000;,
  0.500000;0.625000;,
  0.625000;0.625000;,
  0.750000;0.625000;,
  0.875000;0.625000;,
  1.000000;0.625000;,
  0.125000;0.750000;,
  0.000000;0.750000;,
  0.250000;0.750000;,
  0.375000;0.750000;,
  0.500000;0.750000;,
  0.625000;0.750000;,
  0.750000;0.750000;,
  0.875000;0.750000;,
  1.000000;0.750000;,
  0.125000;0.875000;,
  0.000000;0.875000;,
  0.250000;0.875000;,
  0.375000;0.875000;,
  0.500000;0.875000;,
  0.625000;0.875000;,
  0.750000;0.875000;,
  0.875000;0.875000;,
  1.000000;0.875000;,
  0.062500;1.000000;,
  0.187500;1.000000;,
  0.312500;1.000000;,
  0.437500;1.000000;,
  0.562500;1.000000;,
  0.687500;1.000000;,
  0.812500;1.000000;,
  0.937500;1.000000;,
  0.000000;0.000000;,
  0.000000;0.125000;,
  0.125000;0.125000;,
  0.125000;0.000000;,
  0.000000;0.250000;,
  0.125000;0.250000;,
  0.000000;0.375000;,
  0.125000;0.375000;,
  0.000000;0.500000;,
  0.125000;0.500000;,
  0.000000;0.625000;,
  0.125000;0.625000;,
  0.000000;0.750000;,
  0.125000;0.750000;,
  0.000000;0.875000;,
  0.125000;0.875000;,
  0.000000;1.000000;,
  0.125000;1.000000;,
  0.250000;0.125000;,
  0.250000;0.000000;,
  0.250000;0.250000;,
  0.250000;0.375000;,
  0.250000;0.500000;,
  0.250000;0.625000;,
  0.250000;0.750000;,
  0.250000;0.875000;,
  0.250000;1.000000;,
  0.375000;0.125000;,
  0.375000;0.000000;,
  0.375000;0.250000;,
  0.375000;0.375000;,
  0.375000;0.500000;,
  0.375000;0.625000;,
  0.375000;0.750000;,
  0.375000;0.875000;,
  0.375000;1.000000;,
  0.500000;0.125000;,
  0.500000;0.000000;,
  0.500000;0.250000;,
  0.500000;0.375000;,
  0.500000;0.500000;,
  0.500000;0.625000;,
  0.500000;0.750000;,
  0.500000;0.875000;,
  0.500000;1.000000;,
  0.625000;0.125000;,
  0.625000;0.000000;,
  0.625000;0.250000;,
  0.625000;0.375000;,
  0.625000;0.500000;,
  0.625000;0.625000;,
  0.625000;0.750000;,
  0.625000;0.875000;,
  0.625000;1.000000;,
  0.750000;0.125000;,
  0.750000;0.000000;,
  0.750000;0.250000;,
  0.750000;0.375000;,
  0.750000;0.500000;,
  0.750000;0.625000;,
  0.750000;0.750000;,
  0.750000;0.875000;,
  0.750000;1.000000;,
  0.875000;0.125000;,
  0.875000;0.000000;,
  0.875000;0.250000;,
  0.875000;0.375000;,
  0.875000;0.500000;,
  0.875000;0.625000;,
  0.875000;0.750000;,
  0.875000;0.875000;,
  0.875000;1.000000;,
  1.000000;0.125000;,
  1.000000;0.000000;,
  1.000000;0.250000;,
  1.000000;0.375000;,
  1.000000;0.500000;,
  1.000000;0.625000;,
  1.000000;0.750000;,
  1.000000;0.875000;,
  1.000000;1.000000;,
  0.000000;0.000000;,
  0.000000;0.125000;,
  0.125000;0.125000;,
  0.125000;0.000000;,
  0.000000;0.250000;,
  0.125000;0.250000;,
  0.000000;0.375000;,
  0.125000;0.375000;,
  0.000000;0.500000;,
  0.125000;0.500000;,
  0.000000;0.625000;,
  0.125000;0.625000;,
  0.000000;0.750000;,
  0.125000;0.750000;,
  0.000000;0.875000;,
  0.125000;0.875000;,
  0.000000;1.000000;,
  0.125000;1.000000;,
  0.250000;0.125000;,
  0.250000;0.000000;,
  0.250000;0.250000;,
  0.250000;0.375000;,
  0.250000;0.500000;,
  0.250000;0.625000;,
  0.250000;0.750000;,
  0.250000;0.875000;,
  0.250000;1.000000;,
  0.375000;0.125000;,
  0.375000;0.000000;,
  0.375000;0.250000;,
  0.375000;0.375000;,
  0.375000;0.500000;,
  0.375000;0.625000;,
  0.375000;0.750000;,
  0.375000;0.875000;,
  0.375000;1.000000;,
  0.500000;0.125000;,
  0.500000;0.000000;,
  0.500000;0.250000;,
  0.500000;0.375000;,
  0.500000;0.500000;,
  0.500000;0.625000;,
  0.500000;0.750000;,
  0.500000;0.875000;,
  0.500000;1.000000;,
  0.625000;0.125000;,
  0.625000;0.000000;,
  0.625000;0.250000;,
  0.625000;0.375000;,
  0.625000;0.500000;,
  0.625000;0.625000;,
  0.625000;0.750000;,
  0.625000;0.875000;,
  0.625000;1.000000;,
  0.750000;0.125000;,
  0.750000;0.000000;,
  0.750000;0.250000;,
  0.750000;0.375000;,
  0.750000;0.500000;,
  0.750000;0.625000;,
  0.750000;0.750000;,
  0.750000;0.875000;,
  0.750000;1.000000;,
  0.875000;0.125000;,
  0.875000;0.000000;,
  0.875000;0.250000;,
  0.875000;0.375000;,
  0.875000;0.500000;,
  0.875000;0.625000;,
  0.875000;0.750000;,
  0.875000;0.875000;,
  0.875000;1.000000;,
  1.000000;0.125000;,
  1.000000;0.000000;,
  1.000000;0.250000;,
  1.000000;0.375000;,
  1.000000;0.500000;,
  1.000000;0.625000;,
  1.000000;0.750000;,
  1.000000;0.875000;,
  1.000000;1.000000;,
  0.000000;0.000000;,
  0.142860;0.000000;,
  0.142860;1.000000;,
  0.000000;1.000000;,
  0.285710;0.000000;,
  0.285710;1.000000;,
  0.428570;0.000000;,
  0.428570;1.000000;,
  0.571430;0.000000;,
  0.571430;1.000000;,
  0.714290;0.000000;,
  0.714290;1.000000;,
  0.857140;0.000000;,
  0.857140;1.000000;,
  1.000000;0.000000;,
  1.000000;1.000000;,
  0.071430;0.000000;,
  0.214290;0.000000;,
  0.357140;0.000000;,
  0.500000;0.000000;,
  0.642860;0.000000;,
  0.785710;0.000000;,
  0.928570;0.000000;,
  0.071430;1.000000;,
  0.214290;1.000000;,
  0.357140;1.000000;,
  0.500000;1.000000;,
  0.642860;1.000000;,
  0.785710;1.000000;,
  0.928570;1.000000;;
 }
}
