xof 0302txt 0064
template Header {
 <3D82AB43-62DA-11cf-AB39-0020AF71E433>
 WORD major;
 WORD minor;
 DWORD flags;
}

template Vector {
 <3D82AB5E-62DA-11cf-AB39-0020AF71E433>
 FLOAT x;
 FLOAT y;
 FLOAT z;
}

template Coords2d {
 <F6F23F44-7686-11cf-8F52-0040333594A3>
 FLOAT u;
 FLOAT v;
}

template Matrix4x4 {
 <F6F23F45-7686-11cf-8F52-0040333594A3>
 array FLOAT matrix[16];
}

template ColorRGBA {
 <35FF44E0-6C7C-11cf-8F52-0040333594A3>
 FLOAT red;
 FLOAT green;
 FLOAT blue;
 FLOAT alpha;
}

template ColorRGB {
 <D3E16E81-7835-11cf-8F52-0040333594A3>
 FLOAT red;
 FLOAT green;
 FLOAT blue;
}

template IndexedColor {
 <1630B820-7842-11cf-8F52-0040333594A3>
 DWORD index;
 ColorRGBA indexColor;
}

template Boolean {
 <4885AE61-78E8-11cf-8F52-0040333594A3>
 WORD truefalse;
}

template Boolean2d {
 <4885AE63-78E8-11cf-8F52-0040333594A3>
 Boolean u;
 Boolean v;
}

template MaterialWrap {
 <4885AE60-78E8-11cf-8F52-0040333594A3>
 Boolean u;
 Boolean v;
}

template TextureFilename {
 <A42790E1-7810-11cf-8F52-0040333594A3>
 STRING filename;
}

template Material {
 <3D82AB4D-62DA-11cf-AB39-0020AF71E433>
 ColorRGBA faceColor;
 FLOAT power;
 ColorRGB specularColor;
 ColorRGB emissiveColor;
 [...]
}

template MeshFace {
 <3D82AB5F-62DA-11cf-AB39-0020AF71E433>
 DWORD nFaceVertexIndices;
 array DWORD faceVertexIndices[nFaceVertexIndices];
}

template MeshFaceWraps {
 <4885AE62-78E8-11cf-8F52-0040333594A3>
 DWORD nFaceWrapValues;
 Boolean2d faceWrapValues;
}

template MeshTextureCoords {
 <F6F23F40-7686-11cf-8F52-0040333594A3>
 DWORD nTextureCoords;
 array Coords2d textureCoords[nTextureCoords];
}

template MeshMaterialList {
 <F6F23F42-7686-11cf-8F52-0040333594A3>
 DWORD nMaterials;
 DWORD nFaceIndexes;
 array DWORD faceIndexes[nFaceIndexes];
 [Material]
}

template MeshNormals {
 <F6F23F43-7686-11cf-8F52-0040333594A3>
 DWORD nNormals;
 array Vector normals[nNormals];
 DWORD nFaceNormals;
 array MeshFace faceNormals[nFaceNormals];
}

template MeshVertexColors {
 <1630B821-7842-11cf-8F52-0040333594A3>
 DWORD nVertexColors;
 array IndexedColor vertexColors[nVertexColors];
}

template Mesh {
 <3D82AB44-62DA-11cf-AB39-0020AF71E433>
 DWORD nVertices;
 array Vector vertices[nVertices];
 DWORD nFaces;
 array MeshFace faces[nFaces];
 [...]
}

Header{
1;
0;
1;
}

Mesh {
 174;
 0.82395;3.77389;1.15571;,
 -1.54194;3.77389;1.13507;,
 -0.52822;-0.12644;1.14392;,
 1.83764;-0.12644;1.16456;,
 -1.54194;3.77389;1.13507;,
 -1.52077;3.77389;-1.29054;,
 -0.50704;-0.12644;-1.28169;,
 -0.52822;-0.12644;1.14392;,
 -1.52077;3.77389;-1.29054;,
 0.84509;3.77389;-1.26990;,
 1.85881;-0.12644;-1.26105;,
 -0.50704;-0.12644;-1.28169;,
 0.84509;3.77389;-1.26990;,
 0.82395;3.77389;1.15571;,
 1.83764;-0.12644;1.16456;,
 1.85881;-0.12644;-1.26105;,
 1.83764;-0.12644;1.16456;,
 -0.52822;-0.12644;1.14392;,
 -1.52077;4.71162;-1.29054;,
 1.54834;4.71162;-1.26376;,
 1.52719;4.71162;1.16185;,
 -1.54194;4.71162;1.13507;,
 -1.54194;3.77389;1.13507;,
 0.82395;3.77389;1.15571;,
 -1.52077;5.47352;-1.29054;,
 1.37253;5.47352;-1.26531;,
 1.35135;5.47352;1.16030;,
 -1.54194;5.47352;1.13507;,
 -1.52077;6.46985;-1.29054;,
 1.25534;6.46985;-1.26632;,
 1.23416;6.46985;1.15929;,
 -1.54194;6.46985;1.13507;,
 -7.27063;4.06638;-1.34072;,
 -13.12475;4.71162;-1.39181;,
 -13.14592;4.71162;1.03381;,
 -7.29181;4.06638;1.08490;,
 -13.12475;5.47352;-1.39181;,
 -13.14592;5.47352;1.03381;,
 -13.12475;6.46985;-1.39181;,
 -13.14592;6.46985;1.03381;,
 -6.68336;3.83522;-1.33561;,
 -6.70451;3.83522;1.09002;,
 -13.15158;4.34194;-0.86262;,
 -13.16350;4.34194;0.50424;,
 -7.29745;3.99030;-0.81153;,
 -7.30939;3.99030;0.55532;,
 -0.99854;2.34221;0.94554;,
 -3.67861;2.34221;0.92214;,
 -3.97076;1.93944;0.91960;,
 -0.99854;1.93944;0.94554;,
 -3.66082;2.34221;-1.11494;,
 -0.98077;2.34221;-1.09156;,
 -0.98077;1.93944;-1.09156;,
 -3.95298;1.93944;-1.11748;,
 -0.98077;2.34221;-1.09156;,
 -0.99854;2.34221;0.94554;,
 -0.99854;1.93944;0.94554;,
 -0.98077;1.93944;-1.09156;,
 -3.66082;2.34221;-1.11494;,
 -3.67861;2.34221;0.92214;,
 -0.99854;2.34221;0.94554;,
 -0.99854;1.93944;0.94554;,
 -3.97076;1.93944;0.91960;,
 -3.95298;1.93944;-1.11748;,
 -4.10554;2.83325;-1.11882;,
 -4.12332;2.83325;0.91826;,
 -3.67861;2.34221;0.92214;,
 -4.56613;2.65777;-1.12283;,
 -4.58390;2.65777;0.91424;,
 -3.97076;1.93944;0.91960;,
 -4.58493;4.09167;-1.12300;,
 -4.60271;4.09167;0.91408;,
 -5.04554;3.91619;-1.12702;,
 -5.06332;3.91619;0.91007;,
 -1.97103;4.16512;-0.90358;,
 -2.18269;4.16512;-0.90542;,
 -2.19702;4.16512;0.73845;,
 -1.98539;4.16512;0.74031;,
 -2.12653;3.62606;0.65365;,
 -2.19702;4.16512;0.73845;,
 -2.11368;3.62606;-0.81940;,
 -2.11446;2.98150;-0.72983;,
 -2.12575;2.98150;0.56407;,
 -2.12653;3.62606;0.65365;,
 -2.12575;2.98150;0.56407;,
 -1.91413;2.98150;0.56591;,
 -1.91489;3.62606;0.65549;,
 -1.98539;4.16512;0.74031;,
 -2.19702;4.16512;0.73845;,
 -2.11368;3.62606;-0.81940;,
 -2.18269;4.16512;-0.90542;,
 -1.97103;4.16512;-0.90358;,
 -1.90202;3.62606;-0.81755;,
 -1.90281;2.98150;-0.72798;,
 -2.11446;2.98150;-0.72983;,
 -1.91489;3.62606;0.65549;,
 -1.91413;2.98150;0.56591;,
 -1.90281;2.98150;-0.72798;,
 -1.90202;3.62606;-0.81755;,
 -1.98539;4.16512;0.74031;,
 -2.28724;2.56302;0.41734;,
 -2.07557;2.56302;0.41920;,
 -1.91413;2.98150;0.56591;,
 -2.12575;2.98150;0.56407;,
 -2.27848;2.56302;-0.58595;,
 -2.06681;2.56302;-0.58409;,
 -12.68821;5.48029;0.56887;,
 -12.68631;6.00633;0.35098;,
 -14.93708;6.00633;0.33134;,
 -14.93898;5.48029;0.54922;,
 -12.68174;6.22424;-0.17504;,
 -14.93249;6.22423;-0.19468;,
 -12.67713;6.00633;-0.70106;,
 -14.92789;6.00633;-0.72070;,
 -12.67522;5.48029;-0.91894;,
 -14.92600;5.48029;-0.93858;,
 -12.67713;4.95425;-0.70106;,
 -14.92789;4.95425;-0.72070;,
 -12.68172;4.73637;-0.17504;,
 -14.93246;4.73637;-0.19468;,
 -12.68631;4.95425;0.35098;,
 -14.93708;4.95425;0.33134;,
 -12.68821;5.48029;0.56887;,
 -14.93898;5.48029;0.54922;,
 -12.68172;5.48029;-0.17504;,
 -12.68172;5.48029;-0.17504;,
 -12.68172;5.48029;-0.17504;,
 -12.68172;5.48029;-0.17504;,
 -12.68172;5.48029;-0.17504;,
 -12.68172;5.48029;-0.17504;,
 -12.68172;5.48029;-0.17504;,
 -12.68172;5.48029;-0.17504;,
 -14.93247;5.48029;-0.19468;,
 -14.93247;5.48029;-0.19468;,
 -14.93247;5.48029;-0.19468;,
 -14.93247;5.48029;-0.19468;,
 -14.93247;5.48029;-0.19468;,
 -14.93247;5.48029;-0.19468;,
 -14.93247;5.48029;-0.19468;,
 -14.93247;5.48029;-0.19468;,
 -24.41273;5.40615;0.99117;,
 -24.40949;4.50916;0.61964;,
 -14.40990;4.50916;0.70690;,
 -14.41315;5.40615;1.07844;,
 -24.40168;4.13762;-0.27733;,
 -14.40208;4.13761;-0.19005;,
 -24.39383;4.50916;-1.17427;,
 -14.39425;4.50916;-1.08701;,
 -24.39059;5.40615;-1.54581;,
 -14.39100;5.40615;-1.45854;,
 -24.39383;6.30314;-1.17427;,
 -14.39425;6.30314;-1.08701;,
 -24.40167;6.67469;-0.27732;,
 -14.40208;6.67469;-0.19005;,
 -24.40949;6.30314;0.61964;,
 -14.40990;6.30314;0.70690;,
 -24.41273;5.40615;0.99117;,
 -14.41315;5.40615;1.07844;,
 -24.40168;5.40615;-0.27733;,
 -24.40168;5.40615;-0.27733;,
 -24.40168;5.40615;-0.27733;,
 -24.40168;5.40615;-0.27733;,
 -24.40168;5.40615;-0.27733;,
 -24.40168;5.40615;-0.27733;,
 -24.40168;5.40615;-0.27733;,
 -24.40168;5.40615;-0.27733;,
 -14.40208;5.40615;-0.19005;,
 -14.40208;5.40615;-0.19005;,
 -14.40208;5.40615;-0.19005;,
 -14.40208;5.40615;-0.19005;,
 -14.40208;5.40615;-0.19005;,
 -14.40208;5.40615;-0.19005;,
 -14.40208;5.40615;-0.19005;,
 -14.40208;5.40615;-0.19005;;
 
 109;
 4;0,1,2,3;,
 4;4,5,6,7;,
 4;8,9,10,11;,
 4;12,13,14,15;,
 4;16,17,6,15;,
 4;18,19,12,5;,
 4;20,21,22,23;,
 4;19,20,23,12;,
 4;24,25,19,18;,
 4;26,27,21,20;,
 4;25,26,20,19;,
 4;28,29,25,24;,
 4;30,31,27,26;,
 4;29,30,26,25;,
 4;29,28,31,30;,
 4;32,33,18,5;,
 4;34,35,22,21;,
 4;33,36,24,18;,
 4;37,34,21,27;,
 4;37,36,33,34;,
 4;38,39,31,28;,
 4;36,38,28,24;,
 4;39,37,27,31;,
 4;39,38,36,37;,
 4;40,41,35,32;,
 4;41,40,5,22;,
 3;5,40,32;,
 3;22,35,41;,
 4;42,43,34,33;,
 4;44,42,33,32;,
 4;45,44,32,35;,
 4;43,45,35,34;,
 4;43,42,44,45;,
 4;46,47,48,49;,
 4;50,51,52,53;,
 4;54,55,56,57;,
 4;54,58,59,60;,
 4;61,62,63,57;,
 4;64,65,66,58;,
 4;67,64,58,63;,
 4;68,67,63,69;,
 4;65,68,69,66;,
 4;70,71,65,64;,
 4;72,70,64,67;,
 4;73,72,67,68;,
 4;71,73,68,65;,
 4;71,70,72,73;,
 4;74,75,76,77;,
 4;78,79,75,80;,
 4;78,80,81,82;,
 4;83,84,85,86;,
 4;83,86,87,88;,
 4;89,90,91,92;,
 4;89,92,93,94;,
 4;95,96,97,98;,
 4;95,98,74,99;,
 4;100,101,102,103;,
 4;104,100,103,81;,
 4;105,104,81,97;,
 4;101,105,97,102;,
 4;101,100,104,105;,
 4;106,107,108,109;,
 4;107,110,111,108;,
 4;110,112,113,111;,
 4;112,114,115,113;,
 4;114,116,117,115;,
 4;116,118,119,117;,
 4;118,120,121,119;,
 4;120,122,123,121;,
 3;124,107,106;,
 3;125,110,107;,
 3;126,112,110;,
 3;127,114,112;,
 3;128,116,114;,
 3;129,118,116;,
 3;130,120,118;,
 3;131,122,120;,
 3;132,109,108;,
 3;133,108,111;,
 3;134,111,113;,
 3;135,113,115;,
 3;136,115,117;,
 3;137,117,119;,
 3;138,119,121;,
 3;139,121,123;,
 4;140,141,142,143;,
 4;141,144,145,142;,
 4;144,146,147,145;,
 4;146,148,149,147;,
 4;148,150,151,149;,
 4;150,152,153,151;,
 4;152,154,155,153;,
 4;154,156,157,155;,
 3;158,141,140;,
 3;159,144,141;,
 3;160,146,144;,
 3;161,148,146;,
 3;162,150,148;,
 3;163,152,150;,
 3;164,154,152;,
 3;165,156,154;,
 3;166,143,142;,
 3;167,142,145;,
 3;168,145,147;,
 3;169,147,149;,
 3;170,149,151;,
 3;171,151,153;,
 3;172,153,155;,
 3;173,155,157;;
 
 MeshMaterialList {
  3;
  109;
  0,
  0,
  0,
  0,
  0,
  0,
  0,
  0,
  0,
  0,
  0,
  0,
  0,
  0,
  0,
  0,
  0,
  0,
  0,
  0,
  0,
  0,
  0,
  0,
  0,
  0,
  0,
  0,
  0,
  0,
  0,
  0,
  0,
  0,
  0,
  0,
  0,
  0,
  0,
  0,
  0,
  0,
  0,
  0,
  0,
  0,
  0,
  0,
  0,
  0,
  0,
  0,
  0,
  0,
  0,
  0,
  0,
  0,
  0,
  0,
  0,
  0,
  0,
  0,
  0,
  0,
  0,
  0,
  0,
  0,
  0,
  0,
  0,
  0,
  0,
  0,
  0,
  0,
  0,
  0,
  0,
  0,
  0,
  0,
  0,
  2,
  2,
  2,
  2,
  2,
  2,
  2,
  2,
  2,
  2,
  2,
  2,
  2,
  2,
  2,
  2,
  2,
  2,
  2,
  2,
  2,
  2,
  2,
  2;;
  Material {
   0.034400;0.044000;0.091200;1.000000;;
   5.000000;
   0.230000;0.230000;0.230000;;
   0.000000;0.000000;0.000000;;
  }
  Material {
   0.323200;0.194400;0.135200;1.000000;;
   17.000000;
   0.330000;0.330000;0.330000;;
   0.000000;0.000000;0.000000;;
  }
  Material {
   0.254400;0.153600;0.084800;1.000000;;
   24.000000;
   0.600000;0.600000;0.600000;;
   0.000000;0.000000;0.000000;;
  }
 }
 MeshNormals {
  134;
  -0.008722;-0.000000;0.999962;,
  -0.008721;0.000002;0.999962;,
  -0.967805;-0.251559;-0.008448;,
  0.008725;0.000001;-0.999962;,
  0.008725;-0.000002;-0.999962;,
  -0.008722;0.000002;0.999962;,
  -0.008724;0.000001;0.999962;,
  0.008725;-0.000005;-0.999962;,
  0.008725;-0.000003;-0.999962;,
  -0.008722;0.000001;0.999962;,
  -0.008724;0.000000;0.999962;,
  0.008725;-0.000001;-0.999962;,
  0.008724;-0.000003;-0.999962;,
  -0.008722;-0.000006;0.999962;,
  -0.008724;-0.000003;0.999962;,
  0.008725;0.000002;-0.999962;,
  0.008723;0.000004;-0.999962;,
  -0.008727;-0.000001;0.999962;,
  0.008727;0.000029;-0.999962;,
  -0.008727;0.000000;0.999962;,
  0.008725;-0.000008;-0.999962;,
  -0.008727;0.000000;0.999962;,
  0.008726;0.000000;-0.999962;,
  0.000000;1.000000;0.000000;,
  -0.008724;-0.000001;0.999962;,
  -0.192220;-0.981350;-0.001678;,
  0.959950;-0.280047;0.008381;,
  -0.070094;-0.979517;-0.188766;,
  -0.998162;0.059972;-0.008709;,
  0.008726;0.000015;-0.999962;,
  0.981088;-0.193373;0.008555;,
  0.967806;0.251555;0.008441;,
  0.000000;-1.000000;0.000000;,
  0.978339;-0.206834;0.008534;,
  0.985216;0.171101;0.008601;,
  0.993115;0.116818;0.008673;,
  -0.999962;0.000000;-0.008727;,
  -0.999512;0.029999;-0.008722;,
  -0.999962;0.000000;-0.008727;,
  -0.231604;-0.954470;0.188008;,
  -0.228287;-0.954470;-0.192021;,
  -0.011878;-0.999929;-0.000104;,
  0.008729;0.000074;-0.999962;,
  -0.008727;-0.000003;0.999962;,
  -0.077716;-0.925682;-0.370235;,
  -0.073378;-0.979517;0.187514;,
  -0.084166;-0.925682;0.368822;,
  -0.008730;0.000015;0.999962;,
  -0.008726;0.000008;0.999962;,
  0.008718;-0.000008;-0.999962;,
  0.008721;-0.000003;-0.999962;,
  0.852509;0.522660;0.007440;,
  -0.860086;-0.510094;-0.007506;,
  0.008715;-0.000008;-0.999962;,
  0.934451;0.355999;0.008153;,
  -0.934444;-0.356017;-0.008155;,
  0.008716;-0.000004;-0.999962;,
  0.999962;0.000000;0.008727;,
  0.000000;1.000000;0.000000;,
  0.405389;0.914138;0.003539;,
  0.000000;-1.000000;0.000000;,
  -0.418768;-0.908086;-0.003655;,
  -0.008721;-0.000001;0.999962;,
  -0.008721;-0.000003;0.999962;,
  -0.355975;0.934490;-0.003107;,
  0.000000;1.000000;0.000000;,
  -0.008470;-0.233959;0.972209;,
  -0.982814;0.184402;-0.008578;,
  0.008504;-0.233964;-0.972208;,
  -0.997893;-0.064296;-0.008703;,
  -0.008613;-0.147089;0.989086;,
  0.008642;-0.147086;-0.989086;,
  -0.008258;-0.328012;0.944637;,
  -0.931956;0.362481;-0.008138;,
  0.008267;-0.328024;-0.944633;,
  -0.991695;-0.128322;-0.008646;,
  -0.008626;-0.156506;0.987639;,
  0.008623;-0.156503;-0.987640;,
  0.997893;0.064291;0.008718;,
  0.982817;-0.184383;0.008589;,
  0.991693;0.128333;0.008660;,
  0.931976;-0.362428;0.008143;,
  0.000000;-1.000000;0.000000;,
  0.999962;0.000005;0.008726;,
  -0.008727;-0.000000;0.999962;,
  -0.006171;0.707098;0.707089;,
  -0.000001;1.000000;-0.000003;,
  0.006169;0.707097;-0.707089;,
  0.008725;-0.000000;-0.999962;,
  0.006170;-0.707109;-0.707078;,
  0.000000;-1.000000;0.000001;,
  -0.006170;-0.707107;0.707080;,
  -0.999962;-0.000010;-0.008728;,
  0.999962;0.000011;0.008708;,
  0.999962;-0.000000;0.008717;,
  0.999962;0.000021;0.008725;,
  0.999962;0.000014;0.008745;,
  0.999962;-0.000000;0.008738;,
  0.999962;-0.000003;0.008734;,
  0.999962;0.000000;0.008725;,
  0.999962;-0.000001;0.008718;,
  -0.999962;0.000000;-0.008750;,
  -0.999962;-0.000016;-0.008738;,
  -0.999962;-0.000029;-0.008728;,
  -0.999962;-0.000016;-0.008718;,
  -0.999962;0.000000;-0.008705;,
  -0.999962;-0.000005;-0.008697;,
  -0.999962;-0.000012;-0.008728;,
  -0.999962;-0.000004;-0.008758;,
  -0.999962;0.000002;-0.008727;,
  -0.008727;-0.000001;0.999962;,
  -0.006171;-0.707109;0.707078;,
  -0.000000;-1.000000;-0.000004;,
  0.006171;-0.707106;-0.707081;,
  0.008727;-0.000001;-0.999962;,
  0.006171;0.707106;-0.707080;,
  0.000000;1.000000;-0.000002;,
  -0.006171;0.707108;0.707079;,
  0.999962;-0.000000;0.008725;,
  -0.999962;-0.000002;-0.008709;,
  -0.999962;-0.000000;-0.008711;,
  -0.999962;0.000000;-0.008730;,
  -0.999962;-0.000008;-0.008746;,
  -0.999962;-0.000000;-0.008738;,
  -0.999962;0.000013;-0.008741;,
  -0.999962;0.000010;-0.008730;,
  -0.999962;0.000007;-0.008713;,
  0.999962;0.000000;0.008726;,
  0.999962;0.000003;0.008723;,
  0.999962;0.000000;0.008722;,
  0.999962;-0.000005;0.008728;,
  0.999962;-0.000000;0.008733;,
  0.999962;0.000005;0.008728;,
  0.999962;-0.000003;0.008723;;
  109;
  4;0,24,1,1;,
  4;2,2,2,2;,
  4;29,3,4,4;,
  4;30,30,31,31;,
  4;32,32,32,32;,
  4;7,8,3,29;,
  4;5,6,24,0;,
  4;33,33,30,30;,
  4;11,12,8,7;,
  4;9,10,6,5;,
  4;34,34,33,33;,
  4;15,16,12,11;,
  4;13,14,10,9;,
  4;35,35,34,34;,
  4;23,23,23,23;,
  4;18,20,7,29;,
  4;19,17,24,6;,
  4;20,22,11,7;,
  4;21,19,6,10;,
  4;36,36,37,37;,
  4;23,23,23,23;,
  4;22,22,15,11;,
  4;21,21,10,14;,
  4;38,38,36,36;,
  4;25,25,39,40;,
  4;25,25,41,41;,
  3;29,42,18;,
  3;24,17,43;,
  4;28,28,37,37;,
  4;27,27,44,40;,
  4;26,26,26,26;,
  4;45,45,39,46;,
  4;45,27,27,45;,
  4;47,48,48,47;,
  4;49,50,50,49;,
  4;57,57,57,57;,
  4;58,59,59,58;,
  4;60,61,61,60;,
  4;51,51,59,59;,
  4;53,53,49,49;,
  4;52,52,61,61;,
  4;62,62,48,48;,
  4;54,54,51,51;,
  4;56,56,53,53;,
  4;55,55,52,52;,
  4;63,63,62,62;,
  4;64,64,64,64;,
  4;65,65,65,65;,
  4;69,75,75,69;,
  4;69,69,67,67;,
  4;70,66,66,70;,
  4;70,70,76,76;,
  4;71,77,77,71;,
  4;71,71,68,68;,
  4;78,79,79,78;,
  4;78,78,80,80;,
  4;72,72,66,66;,
  4;73,73,67,67;,
  4;74,74,68,68;,
  4;81,81,79,79;,
  4;82,82,82,82;,
  4;84,85,85,84;,
  4;85,86,86,85;,
  4;86,87,87,86;,
  4;87,88,88,87;,
  4;88,89,89,88;,
  4;89,90,90,89;,
  4;90,91,91,90;,
  4;91,84,84,91;,
  3;83,93,94;,
  3;83,95,93;,
  3;83,96,95;,
  3;83,97,96;,
  3;83,98,97;,
  3;83,99,98;,
  3;83,100,99;,
  3;83,94,100;,
  3;92,101,102;,
  3;92,102,103;,
  3;92,103,104;,
  3;92,104,105;,
  3;92,105,106;,
  3;92,106,107;,
  3;92,107,108;,
  3;92,108,101;,
  4;110,111,111,110;,
  4;111,112,112,111;,
  4;112,113,113,112;,
  4;113,114,114,113;,
  4;114,115,115,114;,
  4;115,116,116,115;,
  4;116,117,117,116;,
  4;117,110,110,117;,
  3;109,119,120;,
  3;109,121,119;,
  3;109,122,121;,
  3;109,123,122;,
  3;109,124,123;,
  3;109,125,124;,
  3;109,126,125;,
  3;109,120,126;,
  3;118,127,128;,
  3;118,128,129;,
  3;118,129,130;,
  3;118,130,131;,
  3;118,131,132;,
  3;118,132,129;,
  3;118,129,133;,
  3;118,133,127;;
 }
 MeshTextureCoords {
  174;
  0.000000;0.000000;,
  1.000000;0.000000;,
  1.000000;1.000000;,
  0.000000;1.000000;,
  0.000000;0.000000;,
  1.000000;0.000000;,
  1.000000;1.000000;,
  0.000000;1.000000;,
  0.000000;0.000000;,
  1.000000;0.000000;,
  1.000000;1.000000;,
  0.000000;1.000000;,
  0.000000;0.000000;,
  1.000000;0.000000;,
  1.000000;1.000000;,
  0.000000;1.000000;,
  0.000000;0.000000;,
  1.000000;0.000000;,
  1.000000;0.000000;,
  0.000000;0.000000;,
  0.000000;1.000000;,
  1.000000;1.000000;,
  1.000000;1.000000;,
  0.000000;1.000000;,
  1.000000;0.000000;,
  0.000000;0.000000;,
  0.000000;1.000000;,
  1.000000;1.000000;,
  1.000000;0.000000;,
  0.000000;0.000000;,
  0.000000;1.000000;,
  1.000000;1.000000;,
  1.000000;0.000000;,
  1.000000;0.000000;,
  1.000000;1.000000;,
  1.000000;1.000000;,
  1.000000;0.000000;,
  1.000000;1.000000;,
  1.000000;0.000000;,
  1.000000;1.000000;,
  1.000000;0.000000;,
  1.000000;1.000000;,
  1.000000;0.000000;,
  1.000000;1.000000;,
  1.000000;0.000000;,
  1.000000;1.000000;,
  0.000000;0.000000;,
  1.000000;0.000000;,
  1.000000;1.000000;,
  0.000000;1.000000;,
  0.000000;0.000000;,
  1.000000;0.000000;,
  1.000000;1.000000;,
  0.000000;1.000000;,
  0.000000;0.000000;,
  1.000000;0.000000;,
  1.000000;1.000000;,
  0.000000;1.000000;,
  1.000000;0.000000;,
  1.000000;1.000000;,
  0.000000;1.000000;,
  0.000000;0.000000;,
  1.000000;0.000000;,
  1.000000;1.000000;,
  1.000000;0.000000;,
  0.000000;0.000000;,
  0.000000;0.000000;,
  1.000000;1.000000;,
  0.000000;1.000000;,
  0.000000;1.000000;,
  1.000000;0.000000;,
  0.000000;0.000000;,
  1.000000;1.000000;,
  0.000000;1.000000;,
  0.000000;0.000000;,
  1.000000;0.000000;,
  1.000000;1.000000;,
  0.000000;1.000000;,
  0.000000;0.559950;,
  0.000000;0.000000;,
  1.000000;0.559950;,
  1.000000;1.000000;,
  0.000000;1.000000;,
  1.000000;0.559950;,
  1.000000;1.000000;,
  0.000000;1.000000;,
  0.000000;0.559950;,
  0.000000;0.000000;,
  1.000000;0.000000;,
  0.000000;0.559950;,
  0.000000;0.000000;,
  1.000000;0.000000;,
  1.000000;0.559950;,
  1.000000;1.000000;,
  0.000000;1.000000;,
  1.000000;0.559950;,
  1.000000;1.000000;,
  0.000000;1.000000;,
  0.000000;0.559950;,
  1.000000;0.000000;,
  1.000000;0.000000;,
  0.000000;0.000000;,
  0.000000;0.000000;,
  1.000000;0.000000;,
  1.000000;1.000000;,
  0.000000;1.000000;,
  0.000000;0.000000;,
  0.125000;0.000000;,
  0.125000;1.000000;,
  0.000000;1.000000;,
  0.250000;0.000000;,
  0.250000;1.000000;,
  0.375000;0.000000;,
  0.375000;1.000000;,
  0.500000;0.000000;,
  0.500000;1.000000;,
  0.625000;0.000000;,
  0.625000;1.000000;,
  0.750000;0.000000;,
  0.750000;1.000000;,
  0.875000;0.000000;,
  0.875000;1.000000;,
  1.000000;0.000000;,
  1.000000;1.000000;,
  0.062500;0.000000;,
  0.187500;0.000000;,
  0.312500;0.000000;,
  0.437500;0.000000;,
  0.562500;0.000000;,
  0.687500;0.000000;,
  0.812500;0.000000;,
  0.937500;0.000000;,
  0.062500;1.000000;,
  0.187500;1.000000;,
  0.312500;1.000000;,
  0.437500;1.000000;,
  0.562500;1.000000;,
  0.687500;1.000000;,
  0.812500;1.000000;,
  0.937500;1.000000;,
  0.000000;0.000000;,
  0.125000;0.000000;,
  0.125000;1.000000;,
  0.000000;1.000000;,
  0.250000;0.000000;,
  0.250000;1.000000;,
  0.375000;0.000000;,
  0.375000;1.000000;,
  0.500000;0.000000;,
  0.500000;1.000000;,
  0.625000;0.000000;,
  0.625000;1.000000;,
  0.750000;0.000000;,
  0.750000;1.000000;,
  0.875000;0.000000;,
  0.875000;1.000000;,
  1.000000;0.000000;,
  1.000000;1.000000;,
  0.062500;0.000000;,
  0.187500;0.000000;,
  0.312500;0.000000;,
  0.437500;0.000000;,
  0.562500;0.000000;,
  0.687500;0.000000;,
  0.812500;0.000000;,
  0.937500;0.000000;,
  0.062500;1.000000;,
  0.187500;1.000000;,
  0.312500;1.000000;,
  0.437500;1.000000;,
  0.562500;1.000000;,
  0.687500;1.000000;,
  0.812500;1.000000;,
  0.937500;1.000000;;
 }
}
