xof 0302txt 0064
template Header {
 <3D82AB43-62DA-11cf-AB39-0020AF71E433>
 WORD major;
 WORD minor;
 DWORD flags;
}

template Vector {
 <3D82AB5E-62DA-11cf-AB39-0020AF71E433>
 FLOAT x;
 FLOAT y;
 FLOAT z;
}

template Coords2d {
 <F6F23F44-7686-11cf-8F52-0040333594A3>
 FLOAT u;
 FLOAT v;
}

template Matrix4x4 {
 <F6F23F45-7686-11cf-8F52-0040333594A3>
 array FLOAT matrix[16];
}

template ColorRGBA {
 <35FF44E0-6C7C-11cf-8F52-0040333594A3>
 FLOAT red;
 FLOAT green;
 FLOAT blue;
 FLOAT alpha;
}

template ColorRGB {
 <D3E16E81-7835-11cf-8F52-0040333594A3>
 FLOAT red;
 FLOAT green;
 FLOAT blue;
}

template IndexedColor {
 <1630B820-7842-11cf-8F52-0040333594A3>
 DWORD index;
 ColorRGBA indexColor;
}

template Boolean {
 <4885AE61-78E8-11cf-8F52-0040333594A3>
 WORD truefalse;
}

template Boolean2d {
 <4885AE63-78E8-11cf-8F52-0040333594A3>
 Boolean u;
 Boolean v;
}

template MaterialWrap {
 <4885AE60-78E8-11cf-8F52-0040333594A3>
 Boolean u;
 Boolean v;
}

template TextureFilename {
 <A42790E1-7810-11cf-8F52-0040333594A3>
 STRING filename;
}

template Material {
 <3D82AB4D-62DA-11cf-AB39-0020AF71E433>
 ColorRGBA faceColor;
 FLOAT power;
 ColorRGB specularColor;
 ColorRGB emissiveColor;
 [...]
}

template MeshFace {
 <3D82AB5F-62DA-11cf-AB39-0020AF71E433>
 DWORD nFaceVertexIndices;
 array DWORD faceVertexIndices[nFaceVertexIndices];
}

template MeshFaceWraps {
 <4885AE62-78E8-11cf-8F52-0040333594A3>
 DWORD nFaceWrapValues;
 Boolean2d faceWrapValues;
}

template MeshTextureCoords {
 <F6F23F40-7686-11cf-8F52-0040333594A3>
 DWORD nTextureCoords;
 array Coords2d textureCoords[nTextureCoords];
}

template MeshMaterialList {
 <F6F23F42-7686-11cf-8F52-0040333594A3>
 DWORD nMaterials;
 DWORD nFaceIndexes;
 array DWORD faceIndexes[nFaceIndexes];
 [Material]
}

template MeshNormals {
 <F6F23F43-7686-11cf-8F52-0040333594A3>
 DWORD nNormals;
 array Vector normals[nNormals];
 DWORD nFaceNormals;
 array MeshFace faceNormals[nFaceNormals];
}

template MeshVertexColors {
 <1630B821-7842-11cf-8F52-0040333594A3>
 DWORD nVertexColors;
 array IndexedColor vertexColors[nVertexColors];
}

template Mesh {
 <3D82AB44-62DA-11cf-AB39-0020AF71E433>
 DWORD nVertices;
 array Vector vertices[nVertices];
 DWORD nFaces;
 array MeshFace faces[nFaces];
 [...]
}

Header{
1;
0;
1;
}

Mesh {
 54;
 0.00000;51.50816;-25.00000;,
 17.67767;51.50816;-17.67767;,
 17.67767;48.49184;-17.67767;,
 0.00000;48.49184;-25.00000;,
 25.00000;51.50816;0.00000;,
 25.00000;48.49184;0.00000;,
 17.67767;51.50816;17.67767;,
 17.67767;48.49184;17.67767;,
 -0.00000;51.50816;25.00000;,
 -0.00000;48.49184;25.00000;,
 -17.67767;51.50816;17.67767;,
 -17.67767;48.49184;17.67767;,
 -25.00000;51.50816;-0.00000;,
 -25.00000;48.49184;-0.00000;,
 -17.67767;51.50816;-17.67767;,
 -17.67767;48.49184;-17.67767;,
 0.00000;51.50816;0.00000;,
 0.00000;48.49184;0.00000;,
 0.00000;48.51714;-5.43407;,
 3.84247;48.51714;-3.84247;,
 3.84247;0.23282;-3.84247;,
 0.00000;0.23282;-5.43407;,
 5.43407;48.51714;0.00000;,
 5.43407;0.23282;0.00000;,
 3.84247;48.51714;3.84247;,
 3.84247;0.23282;3.84247;,
 -0.00000;48.51714;5.43407;,
 -0.00000;0.23282;5.43407;,
 -3.84247;48.51714;3.84247;,
 -3.84247;0.23282;3.84247;,
 -5.43407;48.51714;-0.00000;,
 -5.43407;0.23282;-0.00000;,
 -3.84247;48.51714;-3.84247;,
 -3.84247;0.23282;-3.84247;,
 0.00000;48.51714;0.00000;,
 0.00000;0.23282;0.00000;,
 0.00000;1.02890;-19.19280;,
 13.57136;1.02890;-13.57136;,
 13.57136;0.63251;-13.57136;,
 0.00000;0.63251;-19.19280;,
 19.19280;1.02890;0.00000;,
 19.19280;0.63251;0.00000;,
 13.57136;1.02890;13.57136;,
 13.57136;0.63251;13.57136;,
 -0.00000;1.02890;19.19280;,
 -0.00000;0.63251;19.19280;,
 -13.57136;1.02890;13.57136;,
 -13.57136;0.63251;13.57136;,
 -19.19280;1.02890;-0.00000;,
 -19.19280;0.63251;-0.00000;,
 -13.57136;1.02890;-13.57136;,
 -13.57136;0.63251;-13.57136;,
 0.00000;4.86746;0.00000;,
 0.00000;0.63251;0.00000;;
 
 72;
 4;0,1,2,3;,
 4;1,4,5,2;,
 4;4,6,7,5;,
 4;6,8,9,7;,
 4;8,10,11,9;,
 4;10,12,13,11;,
 4;12,14,15,13;,
 4;14,0,3,15;,
 3;16,1,0;,
 3;16,4,1;,
 3;16,6,4;,
 3;16,8,6;,
 3;16,10,8;,
 3;16,12,10;,
 3;16,14,12;,
 3;16,0,14;,
 3;17,3,2;,
 3;17,2,5;,
 3;17,5,7;,
 3;17,7,9;,
 3;17,9,11;,
 3;17,11,13;,
 3;17,13,15;,
 3;17,15,3;,
 4;18,19,20,21;,
 4;19,22,23,20;,
 4;22,24,25,23;,
 4;24,26,27,25;,
 4;26,28,29,27;,
 4;28,30,31,29;,
 4;30,32,33,31;,
 4;32,18,21,33;,
 3;34,19,18;,
 3;34,22,19;,
 3;34,24,22;,
 3;34,26,24;,
 3;34,28,26;,
 3;34,30,28;,
 3;34,32,30;,
 3;34,18,32;,
 3;35,21,20;,
 3;35,20,23;,
 3;35,23,25;,
 3;35,25,27;,
 3;35,27,29;,
 3;35,29,31;,
 3;35,31,33;,
 3;35,33,21;,
 4;36,37,38,39;,
 4;37,40,41,38;,
 4;40,42,43,41;,
 4;42,44,45,43;,
 4;44,46,47,45;,
 4;46,48,49,47;,
 4;48,50,51,49;,
 4;50,36,39,51;,
 3;52,37,36;,
 3;52,40,37;,
 3;52,42,40;,
 3;52,44,42;,
 3;52,46,44;,
 3;52,48,46;,
 3;52,50,48;,
 3;52,36,50;,
 3;53,39,38;,
 3;53,38,41;,
 3;53,41,43;,
 3;53,43,45;,
 3;53,45,47;,
 3;53,47,49;,
 3;53,49,51;,
 3;53,51,39;;
 
 MeshMaterialList {
  1;
  72;
  0,
  0,
  0,
  0,
  0,
  0,
  0,
  0,
  0,
  0,
  0,
  0,
  0,
  0,
  0,
  0,
  0,
  0,
  0,
  0,
  0,
  0,
  0,
  0,
  0,
  0,
  0,
  0,
  0,
  0,
  0,
  0,
  0,
  0,
  0,
  0,
  0,
  0,
  0,
  0,
  0,
  0,
  0,
  0,
  0,
  0,
  0,
  0,
  0,
  0,
  0,
  0,
  0,
  0,
  0,
  0,
  0,
  0,
  0,
  0,
  0,
  0,
  0,
  0,
  0,
  0,
  0,
  0,
  0,
  0,
  0,
  0;;
  Material {
   1.000000;1.000000;1.000000;1.000000;;
   0.000000;
   0.000000;0.000000;0.000000;;
   0.000000;0.000000;0.000000;;
  }
 }
 MeshNormals {
  38;
  0.000000;1.000000;0.000000;,
  -0.000000;0.000000;-1.000000;,
  0.707107;0.000000;-0.707107;,
  1.000000;0.000000;0.000000;,
  0.707107;0.000000;0.707107;,
  -0.000000;0.000000;1.000000;,
  -0.707107;0.000000;0.707107;,
  -1.000000;0.000000;-0.000000;,
  -0.707107;0.000000;-0.707107;,
  0.000000;-1.000000;-0.000000;,
  0.000000;1.000000;0.000000;,
  0.000000;0.000000;-1.000000;,
  0.707107;0.000000;-0.707107;,
  1.000000;0.000000;0.000000;,
  0.707107;0.000000;0.707107;,
  -0.000000;0.000000;1.000000;,
  -0.707107;0.000000;0.707107;,
  -1.000000;0.000000;0.000000;,
  -0.707107;0.000000;-0.707107;,
  0.000000;-1.000000;-0.000000;,
  -0.000000;1.000000;-0.000000;,
  0.000000;0.000000;-1.000000;,
  0.707107;0.000000;-0.707107;,
  1.000000;0.000000;0.000000;,
  0.707107;0.000000;0.707107;,
  -0.000000;0.000000;1.000000;,
  -0.707107;0.000000;0.707107;,
  -1.000000;0.000000;-0.000000;,
  -0.707107;0.000000;-0.707107;,
  0.000000;-1.000000;-0.000000;,
  0.138675;0.980581;-0.138675;,
  0.000000;0.980581;-0.196116;,
  0.196116;0.980581;0.000000;,
  0.138675;0.980581;0.138675;,
  -0.000000;0.980581;0.196116;,
  -0.138675;0.980581;0.138675;,
  -0.196116;0.980581;-0.000000;,
  -0.138675;0.980581;-0.138675;;
  72;
  4;1,2,2,1;,
  4;2,3,3,2;,
  4;3,4,4,3;,
  4;4,5,5,4;,
  4;5,6,6,5;,
  4;6,7,7,6;,
  4;7,8,8,7;,
  4;8,1,1,8;,
  3;0,0,0;,
  3;0,0,0;,
  3;0,0,0;,
  3;0,0,0;,
  3;0,0,0;,
  3;0,0,0;,
  3;0,0,0;,
  3;0,0,0;,
  3;9,9,9;,
  3;9,9,9;,
  3;9,9,9;,
  3;9,9,9;,
  3;9,9,9;,
  3;9,9,9;,
  3;9,9,9;,
  3;9,9,9;,
  4;11,12,12,11;,
  4;12,13,13,12;,
  4;13,14,14,13;,
  4;14,15,15,14;,
  4;15,16,16,15;,
  4;16,17,17,16;,
  4;17,18,18,17;,
  4;18,11,11,18;,
  3;10,10,10;,
  3;10,10,10;,
  3;10,10,10;,
  3;10,10,10;,
  3;10,10,10;,
  3;10,10,10;,
  3;10,10,10;,
  3;10,10,10;,
  3;19,19,19;,
  3;19,19,19;,
  3;19,19,19;,
  3;19,19,19;,
  3;19,19,19;,
  3;19,19,19;,
  3;19,19,19;,
  3;19,19,19;,
  4;21,22,22,21;,
  4;22,23,23,22;,
  4;23,24,24,23;,
  4;24,25,25,24;,
  4;25,26,26,25;,
  4;26,27,27,26;,
  4;27,28,28,27;,
  4;28,21,21,28;,
  3;20,30,31;,
  3;20,32,30;,
  3;20,33,32;,
  3;20,34,33;,
  3;20,35,34;,
  3;20,36,35;,
  3;20,37,36;,
  3;20,31,37;,
  3;29,29,29;,
  3;29,29,29;,
  3;29,29,29;,
  3;29,29,29;,
  3;29,29,29;,
  3;29,29,29;,
  3;29,29,29;,
  3;29,29,29;;
 }
}
