xof 0302txt 0064
template Header {
 <3D82AB43-62DA-11cf-AB39-0020AF71E433>
 WORD major;
 WORD minor;
 DWORD flags;
}

template Vector {
 <3D82AB5E-62DA-11cf-AB39-0020AF71E433>
 FLOAT x;
 FLOAT y;
 FLOAT z;
}

template Coords2d {
 <F6F23F44-7686-11cf-8F52-0040333594A3>
 FLOAT u;
 FLOAT v;
}

template Matrix4x4 {
 <F6F23F45-7686-11cf-8F52-0040333594A3>
 array FLOAT matrix[16];
}

template ColorRGBA {
 <35FF44E0-6C7C-11cf-8F52-0040333594A3>
 FLOAT red;
 FLOAT green;
 FLOAT blue;
 FLOAT alpha;
}

template ColorRGB {
 <D3E16E81-7835-11cf-8F52-0040333594A3>
 FLOAT red;
 FLOAT green;
 FLOAT blue;
}

template IndexedColor {
 <1630B820-7842-11cf-8F52-0040333594A3>
 DWORD index;
 ColorRGBA indexColor;
}

template Boolean {
 <4885AE61-78E8-11cf-8F52-0040333594A3>
 WORD truefalse;
}

template Boolean2d {
 <4885AE63-78E8-11cf-8F52-0040333594A3>
 Boolean u;
 Boolean v;
}

template MaterialWrap {
 <4885AE60-78E8-11cf-8F52-0040333594A3>
 Boolean u;
 Boolean v;
}

template TextureFilename {
 <A42790E1-7810-11cf-8F52-0040333594A3>
 STRING filename;
}

template Material {
 <3D82AB4D-62DA-11cf-AB39-0020AF71E433>
 ColorRGBA faceColor;
 FLOAT power;
 ColorRGB specularColor;
 ColorRGB emissiveColor;
 [...]
}

template MeshFace {
 <3D82AB5F-62DA-11cf-AB39-0020AF71E433>
 DWORD nFaceVertexIndices;
 array DWORD faceVertexIndices[nFaceVertexIndices];
}

template MeshFaceWraps {
 <4885AE62-78E8-11cf-8F52-0040333594A3>
 DWORD nFaceWrapValues;
 Boolean2d faceWrapValues;
}

template MeshTextureCoords {
 <F6F23F40-7686-11cf-8F52-0040333594A3>
 DWORD nTextureCoords;
 array Coords2d textureCoords[nTextureCoords];
}

template MeshMaterialList {
 <F6F23F42-7686-11cf-8F52-0040333594A3>
 DWORD nMaterials;
 DWORD nFaceIndexes;
 array DWORD faceIndexes[nFaceIndexes];
 [Material]
}

template MeshNormals {
 <F6F23F43-7686-11cf-8F52-0040333594A3>
 DWORD nNormals;
 array Vector normals[nNormals];
 DWORD nFaceNormals;
 array MeshFace faceNormals[nFaceNormals];
}

template MeshVertexColors {
 <1630B821-7842-11cf-8F52-0040333594A3>
 DWORD nVertexColors;
 array IndexedColor vertexColors[nVertexColors];
}

template Mesh {
 <3D82AB44-62DA-11cf-AB39-0020AF71E433>
 DWORD nVertices;
 array Vector vertices[nVertices];
 DWORD nFaces;
 array MeshFace faces[nFaces];
 [...]
}

Header{
1;
0;
1;
}

Mesh {
 126;
 0.00000;48.51714;-5.43407;,
 3.84247;48.51714;-3.84247;,
 3.84247;0.23282;-3.84247;,
 0.00000;0.23282;-5.43407;,
 5.43407;48.51714;0.00000;,
 5.43407;0.23282;0.00000;,
 3.84247;48.51714;3.84247;,
 3.84247;0.23282;3.84247;,
 -0.00000;48.51714;5.43407;,
 -0.00000;0.23282;5.43407;,
 -3.84247;48.51714;3.84247;,
 -3.84247;0.23282;3.84247;,
 -5.43407;48.51714;-0.00000;,
 -5.43407;0.23282;-0.00000;,
 -3.84247;48.51714;-3.84247;,
 -3.84247;0.23282;-3.84247;,
 0.00000;48.51714;0.00000;,
 0.00000;0.23282;0.00000;,
 0.00000;1.02890;-19.19280;,
 13.57136;1.02890;-13.57136;,
 13.57136;0.63251;-13.57136;,
 0.00000;0.63251;-19.19280;,
 19.19280;1.02890;0.00000;,
 19.19280;0.63251;0.00000;,
 13.57136;1.02890;13.57136;,
 13.57136;0.63251;13.57136;,
 -0.00000;1.02890;19.19280;,
 -0.00000;0.63251;19.19280;,
 -13.57136;1.02890;13.57136;,
 -13.57136;0.63251;13.57136;,
 -19.19280;1.02890;-0.00000;,
 -19.19280;0.63251;-0.00000;,
 -13.57136;1.02890;-13.57136;,
 -13.57136;0.63251;-13.57136;,
 0.00000;4.86746;0.00000;,
 0.00000;0.63251;0.00000;,
 62.50000;48.51714;-5.43407;,
 66.34247;48.51714;-3.84247;,
 66.34247;0.23282;-3.84247;,
 62.50000;0.23282;-5.43407;,
 67.93407;48.51714;0.00000;,
 67.93407;0.23282;0.00000;,
 66.34247;48.51714;3.84247;,
 66.34247;0.23282;3.84247;,
 62.50000;48.51714;5.43407;,
 62.50000;0.23282;5.43407;,
 58.65753;48.51714;3.84247;,
 58.65753;0.23282;3.84247;,
 57.06593;48.51714;-0.00000;,
 57.06593;0.23282;-0.00000;,
 58.65753;48.51714;-3.84247;,
 58.65753;0.23282;-3.84247;,
 62.50000;48.51714;0.00000;,
 62.50000;0.23282;0.00000;,
 62.50000;1.02890;-19.19280;,
 76.07136;1.02890;-13.57136;,
 76.07136;0.63251;-13.57136;,
 62.50000;0.63251;-19.19280;,
 81.69280;1.02890;0.00000;,
 81.69280;0.63251;0.00000;,
 76.07136;1.02890;13.57136;,
 76.07136;0.63251;13.57136;,
 62.50000;1.02890;19.19280;,
 62.50000;0.63251;19.19280;,
 48.92864;1.02890;13.57136;,
 48.92864;0.63251;13.57136;,
 43.30720;1.02890;-0.00000;,
 43.30720;0.63251;-0.00000;,
 48.92864;1.02890;-13.57136;,
 48.92864;0.63251;-13.57136;,
 62.50000;4.86746;0.00000;,
 62.50000;0.63251;0.00000;,
 -62.50000;48.51714;-5.43407;,
 -58.65753;48.51714;-3.84247;,
 -58.65753;0.23282;-3.84247;,
 -62.50000;0.23282;-5.43407;,
 -57.06593;48.51714;0.00000;,
 -57.06593;0.23282;0.00000;,
 -58.65753;48.51714;3.84247;,
 -58.65753;0.23282;3.84247;,
 -62.50000;48.51714;5.43407;,
 -62.50000;0.23282;5.43407;,
 -66.34247;48.51714;3.84247;,
 -66.34247;0.23282;3.84247;,
 -67.93407;48.51714;-0.00000;,
 -67.93407;0.23282;-0.00000;,
 -66.34247;48.51714;-3.84247;,
 -66.34247;0.23282;-3.84247;,
 -62.50000;48.51714;0.00000;,
 -62.50000;0.23282;0.00000;,
 -62.50000;1.02890;-19.19280;,
 -48.92864;1.02890;-13.57136;,
 -48.92864;0.63251;-13.57136;,
 -62.50000;0.63251;-19.19280;,
 -43.30720;1.02890;0.00000;,
 -43.30720;0.63251;0.00000;,
 -48.92864;1.02890;13.57136;,
 -48.92864;0.63251;13.57136;,
 -62.50000;1.02890;19.19280;,
 -62.50000;0.63251;19.19280;,
 -76.07137;1.02890;13.57136;,
 -76.07137;0.63251;13.57136;,
 -81.69280;1.02890;-0.00000;,
 -81.69280;0.63251;-0.00000;,
 -76.07136;1.02890;-13.57136;,
 -76.07136;0.63251;-13.57136;,
 -62.50000;4.86746;0.00000;,
 -62.50000;0.63251;0.00000;,
 36.08485;51.50816;-51.88396;,
 85.62749;51.50816;-21.11455;,
 85.62749;48.49184;-21.11455;,
 36.08485;48.49184;-51.88396;,
 85.01044;51.50816;22.02347;,
 85.01044;48.49184;22.02347;,
 34.59577;51.50816;52.26036;,
 34.59577;48.49184;52.26036;,
 -36.08484;51.50816;51.88392;,
 -36.08484;48.49184;51.88392;,
 -85.62750;51.50816;21.11460;,
 -85.62750;48.49184;21.11460;,
 -85.01053;51.50816;-22.02342;,
 -85.01053;48.49184;-22.02342;,
 -34.59566;51.50816;-52.26041;,
 -34.59566;48.49184;-52.26041;,
 0.00003;51.50816;0.00003;,
 0.00003;48.49184;0.00003;;
 
 168;
 4;0,1,2,3;,
 4;1,4,5,2;,
 4;4,6,7,5;,
 4;6,8,9,7;,
 4;8,10,11,9;,
 4;10,12,13,11;,
 4;12,14,15,13;,
 4;14,0,3,15;,
 3;16,1,0;,
 3;16,4,1;,
 3;16,6,4;,
 3;16,8,6;,
 3;16,10,8;,
 3;16,12,10;,
 3;16,14,12;,
 3;16,0,14;,
 3;17,3,2;,
 3;17,2,5;,
 3;17,5,7;,
 3;17,7,9;,
 3;17,9,11;,
 3;17,11,13;,
 3;17,13,15;,
 3;17,15,3;,
 4;18,19,20,21;,
 4;19,22,23,20;,
 4;22,24,25,23;,
 4;24,26,27,25;,
 4;26,28,29,27;,
 4;28,30,31,29;,
 4;30,32,33,31;,
 4;32,18,21,33;,
 3;34,19,18;,
 3;34,22,19;,
 3;34,24,22;,
 3;34,26,24;,
 3;34,28,26;,
 3;34,30,28;,
 3;34,32,30;,
 3;34,18,32;,
 3;35,21,20;,
 3;35,20,23;,
 3;35,23,25;,
 3;35,25,27;,
 3;35,27,29;,
 3;35,29,31;,
 3;35,31,33;,
 3;35,33,21;,
 4;36,37,38,39;,
 4;37,40,41,38;,
 4;40,42,43,41;,
 4;42,44,45,43;,
 4;44,46,47,45;,
 4;46,48,49,47;,
 4;48,50,51,49;,
 4;50,36,39,51;,
 3;52,37,36;,
 3;52,40,37;,
 3;52,42,40;,
 3;52,44,42;,
 3;52,46,44;,
 3;52,48,46;,
 3;52,50,48;,
 3;52,36,50;,
 3;53,39,38;,
 3;53,38,41;,
 3;53,41,43;,
 3;53,43,45;,
 3;53,45,47;,
 3;53,47,49;,
 3;53,49,51;,
 3;53,51,39;,
 4;54,55,56,57;,
 4;55,58,59,56;,
 4;58,60,61,59;,
 4;60,62,63,61;,
 4;62,64,65,63;,
 4;64,66,67,65;,
 4;66,68,69,67;,
 4;68,54,57,69;,
 3;70,55,54;,
 3;70,58,55;,
 3;70,60,58;,
 3;70,62,60;,
 3;70,64,62;,
 3;70,66,64;,
 3;70,68,66;,
 3;70,54,68;,
 3;71,57,56;,
 3;71,56,59;,
 3;71,59,61;,
 3;71,61,63;,
 3;71,63,65;,
 3;71,65,67;,
 3;71,67,69;,
 3;71,69,57;,
 4;72,73,74,75;,
 4;73,76,77,74;,
 4;76,78,79,77;,
 4;78,80,81,79;,
 4;80,82,83,81;,
 4;82,84,85,83;,
 4;84,86,87,85;,
 4;86,72,75,87;,
 3;88,73,72;,
 3;88,76,73;,
 3;88,78,76;,
 3;88,80,78;,
 3;88,82,80;,
 3;88,84,82;,
 3;88,86,84;,
 3;88,72,86;,
 3;89,75,74;,
 3;89,74,77;,
 3;89,77,79;,
 3;89,79,81;,
 3;89,81,83;,
 3;89,83,85;,
 3;89,85,87;,
 3;89,87,75;,
 4;90,91,92,93;,
 4;91,94,95,92;,
 4;94,96,97,95;,
 4;96,98,99,97;,
 4;98,100,101,99;,
 4;100,102,103,101;,
 4;102,104,105,103;,
 4;104,90,93,105;,
 3;106,91,90;,
 3;106,94,91;,
 3;106,96,94;,
 3;106,98,96;,
 3;106,100,98;,
 3;106,102,100;,
 3;106,104,102;,
 3;106,90,104;,
 3;107,93,92;,
 3;107,92,95;,
 3;107,95,97;,
 3;107,97,99;,
 3;107,99,101;,
 3;107,101,103;,
 3;107,103,105;,
 3;107,105,93;,
 4;108,109,110,111;,
 4;109,112,113,110;,
 4;112,114,115,113;,
 4;114,116,117,115;,
 4;116,118,119,117;,
 4;118,120,121,119;,
 4;120,122,123,121;,
 4;122,108,111,123;,
 3;124,109,108;,
 3;124,112,109;,
 3;124,114,112;,
 3;124,116,114;,
 3;124,118,116;,
 3;124,120,118;,
 3;124,122,120;,
 3;124,108,122;,
 3;125,111,110;,
 3;125,110,113;,
 3;125,113,115;,
 3;125,115,117;,
 3;125,117,119;,
 3;125,119,121;,
 3;125,121,123;,
 3;125,123,111;;
 
 MeshMaterialList {
  1;
  168;
  0,
  0,
  0,
  0,
  0,
  0,
  0,
  0,
  0,
  0,
  0,
  0,
  0,
  0,
  0,
  0,
  0,
  0,
  0,
  0,
  0,
  0,
  0,
  0,
  0,
  0,
  0,
  0,
  0,
  0,
  0,
  0,
  0,
  0,
  0,
  0,
  0,
  0,
  0,
  0,
  0,
  0,
  0,
  0,
  0,
  0,
  0,
  0,
  0,
  0,
  0,
  0,
  0,
  0,
  0,
  0,
  0,
  0,
  0,
  0,
  0,
  0,
  0,
  0,
  0,
  0,
  0,
  0,
  0,
  0,
  0,
  0,
  0,
  0,
  0,
  0,
  0,
  0,
  0,
  0,
  0,
  0,
  0,
  0,
  0,
  0,
  0,
  0,
  0,
  0,
  0,
  0,
  0,
  0,
  0,
  0,
  0,
  0,
  0,
  0,
  0,
  0,
  0,
  0,
  0,
  0,
  0,
  0,
  0,
  0,
  0,
  0,
  0,
  0,
  0,
  0,
  0,
  0,
  0,
  0,
  0,
  0,
  0,
  0,
  0,
  0,
  0,
  0,
  0,
  0,
  0,
  0,
  0,
  0,
  0,
  0,
  0,
  0,
  0,
  0,
  0,
  0,
  0,
  0,
  0,
  0,
  0,
  0,
  0,
  0,
  0,
  0,
  0,
  0,
  0,
  0,
  0,
  0,
  0,
  0,
  0,
  0,
  0,
  0,
  0,
  0,
  0,
  0;;
  Material {
   1.000000;1.000000;1.000000;1.000000;;
   0.000000;
   0.000000;0.000000;0.000000;;
   0.000000;0.000000;0.000000;;
  }
 }
 MeshNormals {
  92;
  0.000000;1.000000;0.000000;,
  0.000000;0.000000;-1.000000;,
  0.707107;0.000000;-0.707107;,
  1.000000;0.000000;0.000000;,
  0.707107;0.000000;0.707107;,
  -0.000000;0.000000;1.000000;,
  -0.707107;0.000000;0.707107;,
  -1.000000;0.000000;0.000000;,
  -0.707107;0.000000;-0.707107;,
  0.000000;-1.000000;-0.000000;,
  -0.000000;1.000000;-0.000000;,
  0.000000;0.000000;-1.000000;,
  0.707107;0.000000;-0.707107;,
  1.000000;0.000000;0.000000;,
  0.707107;0.000000;0.707107;,
  -0.000000;0.000000;1.000000;,
  -0.707107;0.000000;0.707107;,
  -1.000000;0.000000;-0.000000;,
  -0.707107;0.000000;-0.707107;,
  0.000000;-1.000000;-0.000000;,
  0.138675;0.980581;-0.138675;,
  0.000000;0.980581;-0.196116;,
  0.196116;0.980581;0.000000;,
  0.138675;0.980581;0.138675;,
  -0.000000;0.980581;0.196116;,
  -0.138675;0.980581;0.138675;,
  -0.196116;0.980581;-0.000000;,
  -0.138675;0.980581;-0.138675;,
  0.000000;1.000000;0.000000;,
  -0.000000;0.000000;-1.000000;,
  0.707107;0.000000;-0.707107;,
  1.000000;0.000000;0.000000;,
  0.707107;0.000000;0.707107;,
  -0.000000;0.000000;1.000000;,
  -0.707107;0.000000;0.707106;,
  -1.000000;0.000000;0.000000;,
  -0.707107;0.000000;-0.707107;,
  0.000000;-1.000000;-0.000000;,
  -0.000000;1.000000;-0.000000;,
  0.000000;0.000000;-1.000000;,
  0.707107;0.000000;-0.707107;,
  1.000000;0.000000;0.000000;,
  0.707107;0.000000;0.707107;,
  -0.000000;0.000000;1.000000;,
  -0.707107;0.000000;0.707107;,
  -1.000000;0.000000;-0.000000;,
  -0.707107;0.000000;-0.707107;,
  0.138675;0.980581;-0.138675;,
  0.000000;0.980581;-0.196116;,
  0.196116;0.980581;0.000000;,
  0.138675;0.980581;0.138675;,
  0.000000;0.980581;0.196116;,
  -0.138675;0.980581;0.138675;,
  -0.196116;0.980581;-0.000000;,
  -0.138675;0.980581;-0.138675;,
  0.000000;1.000000;0.000000;,
  -0.000000;0.000000;-1.000000;,
  0.707107;0.000000;-0.707107;,
  1.000000;0.000000;0.000000;,
  0.707107;0.000000;0.707107;,
  -0.000000;0.000000;1.000000;,
  -0.707107;0.000000;0.707106;,
  -1.000000;0.000000;0.000000;,
  -0.707107;0.000000;-0.707107;,
  0.000000;-1.000000;-0.000000;,
  0.000000;1.000000;-0.000000;,
  0.000000;0.000000;-1.000000;,
  0.707107;0.000000;-0.707107;,
  1.000000;0.000000;0.000000;,
  0.707107;0.000000;0.707107;,
  0.000000;0.000000;1.000000;,
  -0.707107;0.000000;0.707107;,
  -1.000000;0.000000;-0.000000;,
  -0.707107;0.000000;-0.707107;,
  0.138675;0.980581;-0.138675;,
  0.000000;0.980581;-0.196116;,
  0.196116;0.980581;0.000000;,
  0.138675;0.980581;0.138675;,
  0.000000;0.980581;0.196116;,
  -0.138675;0.980581;0.138675;,
  -0.196116;0.980581;-0.000000;,
  -0.138675;0.980581;-0.138675;,
  0.000000;1.000000;0.000000;,
  0.276881;0.000000;-0.960904;,
  0.877409;0.000000;-0.479744;,
  0.866611;0.000000;0.498985;,
  0.264283;0.000000;0.964445;,
  -0.276880;0.000000;0.960904;,
  -0.877408;0.000000;0.479745;,
  -0.866611;0.000000;-0.498984;,
  -0.264282;0.000000;-0.964445;,
  0.000000;-1.000000;-0.000000;;
  168;
  4;1,2,2,1;,
  4;2,3,3,2;,
  4;3,4,4,3;,
  4;4,5,5,4;,
  4;5,6,6,5;,
  4;6,7,7,6;,
  4;7,8,8,7;,
  4;8,1,1,8;,
  3;0,0,0;,
  3;0,0,0;,
  3;0,0,0;,
  3;0,0,0;,
  3;0,0,0;,
  3;0,0,0;,
  3;0,0,0;,
  3;0,0,0;,
  3;9,9,9;,
  3;9,9,9;,
  3;9,9,9;,
  3;9,9,9;,
  3;9,9,9;,
  3;9,9,9;,
  3;9,9,9;,
  3;9,9,9;,
  4;11,12,12,11;,
  4;12,13,13,12;,
  4;13,14,14,13;,
  4;14,15,15,14;,
  4;15,16,16,15;,
  4;16,17,17,16;,
  4;17,18,18,17;,
  4;18,11,11,18;,
  3;10,20,21;,
  3;10,22,20;,
  3;10,23,22;,
  3;10,24,23;,
  3;10,25,24;,
  3;10,26,25;,
  3;10,27,26;,
  3;10,21,27;,
  3;19,19,19;,
  3;19,19,19;,
  3;19,19,19;,
  3;19,19,19;,
  3;19,19,19;,
  3;19,19,19;,
  3;19,19,19;,
  3;19,19,19;,
  4;29,30,30,29;,
  4;30,31,31,30;,
  4;31,32,32,31;,
  4;32,33,33,32;,
  4;33,34,34,33;,
  4;34,35,35,34;,
  4;35,36,36,35;,
  4;36,29,29,36;,
  3;28,28,28;,
  3;28,28,28;,
  3;28,28,28;,
  3;28,28,28;,
  3;28,28,28;,
  3;28,28,28;,
  3;28,28,28;,
  3;28,28,28;,
  3;37,37,37;,
  3;37,37,37;,
  3;37,37,37;,
  3;37,37,37;,
  3;37,37,37;,
  3;37,37,37;,
  3;37,37,37;,
  3;37,37,37;,
  4;39,40,40,39;,
  4;40,41,41,40;,
  4;41,42,42,41;,
  4;42,43,43,42;,
  4;43,44,44,43;,
  4;44,45,45,44;,
  4;45,46,46,45;,
  4;46,39,39,46;,
  3;38,47,48;,
  3;38,49,47;,
  3;38,50,49;,
  3;38,51,50;,
  3;38,52,51;,
  3;38,53,52;,
  3;38,54,53;,
  3;38,48,54;,
  3;37,37,37;,
  3;37,37,37;,
  3;37,37,37;,
  3;37,37,37;,
  3;37,37,37;,
  3;37,37,37;,
  3;37,37,37;,
  3;37,37,37;,
  4;56,57,57,56;,
  4;57,58,58,57;,
  4;58,59,59,58;,
  4;59,60,60,59;,
  4;60,61,61,60;,
  4;61,62,62,61;,
  4;62,63,63,62;,
  4;63,56,56,63;,
  3;55,55,55;,
  3;55,55,55;,
  3;55,55,55;,
  3;55,55,55;,
  3;55,55,55;,
  3;55,55,55;,
  3;55,55,55;,
  3;55,55,55;,
  3;64,64,64;,
  3;64,64,64;,
  3;64,64,64;,
  3;64,64,64;,
  3;64,64,64;,
  3;64,64,64;,
  3;64,64,64;,
  3;64,64,64;,
  4;66,67,67,66;,
  4;67,68,68,67;,
  4;68,69,69,68;,
  4;69,70,70,69;,
  4;70,71,71,70;,
  4;71,72,72,71;,
  4;72,73,73,72;,
  4;73,66,66,73;,
  3;65,74,75;,
  3;65,76,74;,
  3;65,77,76;,
  3;65,78,77;,
  3;65,79,78;,
  3;65,80,79;,
  3;65,81,80;,
  3;65,75,81;,
  3;64,64,64;,
  3;64,64,64;,
  3;64,64,64;,
  3;64,64,64;,
  3;64,64,64;,
  3;64,64,64;,
  3;64,64,64;,
  3;64,64,64;,
  4;83,84,84,83;,
  4;84,85,85,84;,
  4;85,86,86,85;,
  4;86,87,87,86;,
  4;87,88,88,87;,
  4;88,89,89,88;,
  4;89,90,90,89;,
  4;90,83,83,90;,
  3;82,82,82;,
  3;82,82,82;,
  3;82,82,82;,
  3;82,82,82;,
  3;82,82,82;,
  3;82,82,82;,
  3;82,82,82;,
  3;82,82,82;,
  3;91,91,91;,
  3;91,91,91;,
  3;91,91,91;,
  3;91,91,91;,
  3;91,91,91;,
  3;91,91,91;,
  3;91,91,91;,
  3;91,91,91;;
 }
}
