xof 0302txt 0064
template Header {
 <3D82AB43-62DA-11cf-AB39-0020AF71E433>
 WORD major;
 WORD minor;
 DWORD flags;
}

template Vector {
 <3D82AB5E-62DA-11cf-AB39-0020AF71E433>
 FLOAT x;
 FLOAT y;
 FLOAT z;
}

template Coords2d {
 <F6F23F44-7686-11cf-8F52-0040333594A3>
 FLOAT u;
 FLOAT v;
}

template Matrix4x4 {
 <F6F23F45-7686-11cf-8F52-0040333594A3>
 array FLOAT matrix[16];
}

template ColorRGBA {
 <35FF44E0-6C7C-11cf-8F52-0040333594A3>
 FLOAT red;
 FLOAT green;
 FLOAT blue;
 FLOAT alpha;
}

template ColorRGB {
 <D3E16E81-7835-11cf-8F52-0040333594A3>
 FLOAT red;
 FLOAT green;
 FLOAT blue;
}

template IndexedColor {
 <1630B820-7842-11cf-8F52-0040333594A3>
 DWORD index;
 ColorRGBA indexColor;
}

template Boolean {
 <4885AE61-78E8-11cf-8F52-0040333594A3>
 WORD truefalse;
}

template Boolean2d {
 <4885AE63-78E8-11cf-8F52-0040333594A3>
 Boolean u;
 Boolean v;
}

template MaterialWrap {
 <4885AE60-78E8-11cf-8F52-0040333594A3>
 Boolean u;
 Boolean v;
}

template TextureFilename {
 <A42790E1-7810-11cf-8F52-0040333594A3>
 STRING filename;
}

template Material {
 <3D82AB4D-62DA-11cf-AB39-0020AF71E433>
 ColorRGBA faceColor;
 FLOAT power;
 ColorRGB specularColor;
 ColorRGB emissiveColor;
 [...]
}

template MeshFace {
 <3D82AB5F-62DA-11cf-AB39-0020AF71E433>
 DWORD nFaceVertexIndices;
 array DWORD faceVertexIndices[nFaceVertexIndices];
}

template MeshFaceWraps {
 <4885AE62-78E8-11cf-8F52-0040333594A3>
 DWORD nFaceWrapValues;
 Boolean2d faceWrapValues;
}

template MeshTextureCoords {
 <F6F23F40-7686-11cf-8F52-0040333594A3>
 DWORD nTextureCoords;
 array Coords2d textureCoords[nTextureCoords];
}

template MeshMaterialList {
 <F6F23F42-7686-11cf-8F52-0040333594A3>
 DWORD nMaterials;
 DWORD nFaceIndexes;
 array DWORD faceIndexes[nFaceIndexes];
 [Material]
}

template MeshNormals {
 <F6F23F43-7686-11cf-8F52-0040333594A3>
 DWORD nNormals;
 array Vector normals[nNormals];
 DWORD nFaceNormals;
 array MeshFace faceNormals[nFaceNormals];
}

template MeshVertexColors {
 <1630B821-7842-11cf-8F52-0040333594A3>
 DWORD nVertexColors;
 array IndexedColor vertexColors[nVertexColors];
}

template Mesh {
 <3D82AB44-62DA-11cf-AB39-0020AF71E433>
 DWORD nVertices;
 array Vector vertices[nVertices];
 DWORD nFaces;
 array MeshFace faces[nFaces];
 [...]
}

Header{
1;
0;
1;
}

Mesh {
 88;
 -12.94292;23.52026;11.20472;,
 -11.08878;26.64956;7.95982;,
 -10.78376;26.64956;-7.98522;,
 -12.58690;23.52026;-11.54582;,
 12.58690;23.52026;11.71204;,
 12.94292;23.52026;-11.03848;,
 11.08878;26.64956;-7.60532;,
 10.78376;26.64956;8.33972;,
 -16.84468;20.49074;-11.58830;,
 -17.22646;20.49074;11.16224;,
 -16.84468;10.07434;-11.58830;,
 -13.49720;10.07434;-11.54582;,
 -17.22646;10.07434;11.16224;,
 -13.87898;10.07434;11.20472;,
 16.58886;10.07434;11.75452;,
 16.58886;20.49074;11.75452;,
 13.49720;10.07434;11.71204;,
 16.97064;10.07434;-10.99602;,
 13.87898;10.07434;-11.03848;,
 16.97064;20.49074;-10.99602;,
 -0.14972;26.64956;-7.80052;,
 -0.17476;23.52026;-11.29916;,
 -0.45474;26.64956;8.14452;,
 -0.18740;14.36720;-11.29916;,
 -0.53078;23.52026;11.45136;,
 -0.56918;13.90158;12.00296;,
 -0.16680;-2.84918;-8.16348;,
 12.64012;1.84064;-10.09900;,
 11.67062;1.84064;8.41344;,
 -0.16680;-2.84918;8.77822;,
 -11.67062;1.84064;8.41344;,
 -12.64012;1.84064;-10.09900;,
 -0.21296;14.49916;-10.09900;,
 -16.13944;14.49916;-10.09900;,
 -16.13944;14.49916;10.09900;,
 -0.21296;14.49916;10.41452;,
 16.13944;14.49916;10.09900;,
 16.13944;14.49916;-10.09900;,
 -0.19110;4.51614;-8.37148;,
 14.48270;8.50604;-10.09900;,
 -14.48270;8.50604;-10.09900;,
 14.48270;8.50604;10.09900;,
 -14.48270;8.50604;10.09900;,
 -0.19110;6.28566;11.45316;,
 -13.93842;23.92096;12.05902;,
 -13.55474;23.92096;-12.45884;,
 -11.61154;27.29336;-8.62164;,
 -11.94026;27.29336;8.56206;,
 13.57462;23.92096;12.60576;,
 11.63140;27.29336;8.97146;,
 11.96012;27.29336;-8.21222;,
 13.95830;23.92096;-11.91210;,
 -18.14328;20.65612;-12.50460;,
 -18.55472;20.65612;12.01324;,
 -18.14328;9.43054;-12.50460;,
 -14.53576;9.43054;-12.45884;,
 -18.55472;9.43054;12.01324;,
 -14.94720;9.43054;12.05902;,
 17.88746;9.43054;12.65152;,
 14.55562;9.43054;12.60576;,
 17.88746;20.65612;12.65152;,
 18.29890;9.43054;-11.86632;,
 14.96706;9.43054;-11.91210;,
 18.29890;20.65612;-11.86632;,
 -0.15142;27.29336;-8.42258;,
 -0.17840;23.92096;-12.19302;,
 -0.48014;27.29336;8.76110;,
 -0.19202;14.05688;-12.19302;,
 -0.56208;23.92096;12.32482;,
 -0.60346;13.55510;12.91928;,
 -0.17620;-3.33838;-8.66204;,
 -0.17620;-3.33838;9.23508;,
 12.32880;1.61594;8.84974;,
 13.35298;1.61594;-10.70672;,
 -13.35298;1.61594;-10.70672;,
 -12.32880;1.61594;8.84974;,
 -0.22498;14.98834;-10.70672;,
 -0.22498;14.98834;10.96368;,
 -17.04962;14.98834;10.63036;,
 -17.04962;14.98834;-10.70672;,
 17.04962;14.98834;-10.70672;,
 17.04962;14.98834;10.63036;,
 -0.20188;4.44232;-8.88178;,
 15.29946;8.65724;-10.70672;,
 -15.29946;8.65724;-10.70672;,
 15.29946;8.65724;10.63036;,
 -15.29946;8.65724;10.63036;,
 -0.20188;6.31164;12.06088;;
 
 80;
 4;0,1,2,3;,
 4;4,5,6,7;,
 4;8,9,0,3;,
 4;10,8,3,11;,
 4;12,10,11,13;,
 4;9,12,13,0;,
 4;9,8,10,12;,
 4;14,15,4,16;,
 4;17,14,16,18;,
 4;19,17,18,5;,
 4;15,19,5,4;,
 4;15,14,17,19;,
 4;20,6,5,21;,
 4;20,21,3,2;,
 4;20,2,1,22;,
 4;20,22,7,6;,
 4;21,5,18,23;,
 4;21,23,11,3;,
 4;22,1,0,24;,
 4;22,24,4,7;,
 4;23,18,16,25;,
 4;23,25,13,11;,
 4;24,0,13,25;,
 4;24,25,16,4;,
 4;26,27,28,29;,
 4;26,29,30,31;,
 4;32,33,34,35;,
 4;32,35,36,37;,
 4;38,32,37,39;,
 4;38,39,27,26;,
 4;38,26,31,40;,
 4;38,40,33,32;,
 4;39,37,36,41;,
 4;39,41,28,27;,
 4;40,31,30,42;,
 4;40,42,34,33;,
 4;41,36,35,43;,
 4;41,43,29,28;,
 4;42,30,29,43;,
 4;42,43,35,34;,
 4;44,45,46,47;,
 4;48,49,50,51;,
 4;52,45,44,53;,
 4;54,55,45,52;,
 4;56,57,55,54;,
 4;53,44,57,56;,
 4;53,56,54,52;,
 4;58,59,48,60;,
 4;61,62,59,58;,
 4;63,51,62,61;,
 4;60,48,51,63;,
 4;60,63,61,58;,
 4;64,65,51,50;,
 4;64,46,45,65;,
 4;64,66,47,46;,
 4;64,50,49,66;,
 4;65,67,62,51;,
 4;65,45,55,67;,
 4;66,68,44,47;,
 4;66,49,48,68;,
 4;67,69,59,62;,
 4;67,55,57,69;,
 4;68,69,57,44;,
 4;68,48,59,69;,
 4;70,71,72,73;,
 4;70,74,75,71;,
 4;76,77,78,79;,
 4;76,80,81,77;,
 4;82,83,80,76;,
 4;82,70,73,83;,
 4;82,84,74,70;,
 4;82,76,79,84;,
 4;83,85,81,80;,
 4;83,73,72,85;,
 4;84,86,75,74;,
 4;84,79,78,86;,
 4;85,87,77,81;,
 4;85,72,71,87;,
 4;86,87,71,75;,
 4;86,78,77,87;;
 
 MeshMaterialList {
  4;
  80;
  3,
  3,
  3,
  3,
  3,
  3,
  3,
  3,
  3,
  3,
  3,
  3,
  3,
  3,
  3,
  3,
  3,
  3,
  3,
  3,
  3,
  3,
  3,
  3,
  3,
  3,
  3,
  3,
  3,
  3,
  3,
  3,
  3,
  3,
  3,
  3,
  3,
  3,
  3,
  3,
  1,
  1,
  1,
  1,
  1,
  1,
  1,
  1,
  1,
  1,
  1,
  1,
  1,
  1,
  1,
  1,
  1,
  1,
  1,
  1,
  1,
  1,
  1,
  1,
  1,
  1,
  1,
  1,
  1,
  1,
  1,
  1,
  1,
  1,
  1,
  1,
  1,
  1,
  1,
  1;;
  Material {
   1.000000;1.000000;1.000000;1.000000;;
   0.000000;
   0.000000;0.000000;0.000000;;
   0.150000;0.150000;0.150000;;
  }
  Material {
   0.000000;0.000000;0.000000;1.000000;;
   5.000000;
   0.000000;0.000000;0.000000;;
   0.000000;0.000000;0.000000;;
  }
  Material {
   0.668000;0.690400;0.210400;1.000000;;
   5.000000;
   0.160000;0.160000;0.160000;;
   0.000000;0.000000;0.000000;;
  }
  Material {
   0.800000;0.000000;0.012549;1.000000;;
   5.000000;
   0.000000;0.000000;0.000000;;
   0.000000;0.000000;0.000000;;
  }
 }
 MeshNormals {
  120;
  -0.863695;0.503790;-0.015026;,
  0.147645;-0.989037;-0.002403;,
  0.015496;-0.000505;-0.999880;,
  0.862666;0.505551;0.014994;,
  -0.140089;-0.990113;-0.007192;,
  -0.005925;0.014508;0.999877;,
  -0.737757;0.674950;-0.012485;,
  0.746930;0.664783;0.012625;,
  0.000000;-1.000000;-0.000000;,
  0.011585;-0.000355;-0.999933;,
  -0.012463;-0.000379;0.999922;,
  -0.888297;0.459033;-0.014722;,
  0.012428;0.000387;-0.999923;,
  0.006645;0.934134;-0.356862;,
  0.017426;0.408146;-0.912750;,
  -0.006885;0.929101;0.369762;,
  0.019403;-0.000005;-0.999812;,
  -0.017705;0.409288;0.912234;,
  0.007639;-0.999922;-0.009908;,
  0.015673;0.269360;-0.962912;,
  -0.011560;0.000363;0.999933;,
  -0.026027;0.015587;0.999540;,
  -0.023229;0.270812;0.962352;,
  -0.999859;0.000000;-0.016779;,
  -0.008822;0.271302;0.962454;,
  0.015914;0.000516;-0.999873;,
  0.015981;0.268904;-0.963034;,
  0.894954;0.445912;0.014828;,
  0.999859;0.000000;0.016779;,
  0.006663;0.933786;-0.357770;,
  0.006627;0.934480;-0.355953;,
  -0.006904;0.928719;0.370721;,
  -0.006866;0.929482;0.368803;,
  -0.019938;0.030104;0.999348;,
  0.000000;1.000000;0.000000;,
  -0.721005;-0.692669;0.019011;,
  0.717772;-0.696020;0.018934;,
  -0.004655;-0.999941;0.009840;,
  0.001199;-0.041083;-0.999155;,
  -0.083999;-0.041215;-0.995613;,
  0.086396;-0.040652;-0.995431;,
  0.954637;-0.297505;0.012641;,
  -0.954637;-0.297505;0.012641;,
  -0.001326;-0.115881;0.993262;,
  0.000487;-0.085462;-0.996341;,
  -0.034864;-0.085489;-0.995729;,
  -0.132766;0.003239;-0.991142;,
  0.001915;0.003758;-0.999991;,
  0.136562;0.004209;-0.990623;,
  0.035837;-0.085329;-0.995708;,
  0.963850;-0.266447;-0.000000;,
  -0.963850;-0.266447;0.000000;,
  0.092334;-0.115062;0.989058;,
  0.045936;0.060142;0.997132;,
  -0.000629;0.060071;0.998194;,
  -0.001988;-0.289694;0.957117;,
  0.135693;-0.286479;0.948429;,
  -0.094987;-0.115681;0.988734;,
  -0.139632;-0.287394;0.947580;,
  -0.047191;0.059870;0.997090;,
  0.863697;-0.503787;0.015026;,
  -0.147645;0.989038;0.002403;,
  -0.015493;0.000505;0.999880;,
  -0.862666;-0.505552;-0.014994;,
  0.140089;0.990113;0.007192;,
  0.005922;-0.014508;-0.999877;,
  0.737758;-0.674950;0.012485;,
  -0.746929;-0.664784;-0.012625;,
  0.000000;1.000000;0.000000;,
  -0.011580;0.000355;0.999933;,
  0.012458;0.000379;-0.999922;,
  0.888296;-0.459035;0.014722;,
  -0.012434;-0.000387;0.999923;,
  -0.006645;-0.934134;0.356861;,
  -0.017426;-0.408147;0.912750;,
  0.006885;-0.929101;-0.369763;,
  -0.019402;0.000005;0.999812;,
  0.017705;-0.409287;-0.912234;,
  -0.007638;0.999922;0.009908;,
  -0.015671;-0.269361;0.962912;,
  0.011560;-0.000363;-0.999933;,
  0.023230;-0.270811;-0.962352;,
  0.026027;-0.015587;-0.999540;,
  0.999859;0.000000;0.016779;,
  0.008820;-0.271302;-0.962454;,
  -0.015982;-0.268904;0.963034;,
  -0.015917;-0.000516;0.999873;,
  -0.894953;-0.445914;-0.014828;,
  -0.999859;0.000000;-0.016779;,
  -0.006663;-0.933786;0.357770;,
  -0.006627;-0.934480;0.355953;,
  0.006904;-0.928718;-0.370722;,
  0.006866;-0.929482;-0.368804;,
  0.019938;-0.030104;-0.999348;,
  0.000000;-1.000000;-0.000000;,
  0.721005;0.692669;-0.019011;,
  -0.717773;0.696020;-0.018934;,
  0.004655;0.999941;-0.009840;,
  -0.001199;0.041084;0.999155;,
  0.083999;0.041216;0.995613;,
  -0.086396;0.040653;0.995431;,
  -0.954637;0.297503;-0.012641;,
  0.954637;0.297503;-0.012641;,
  0.001326;0.115881;-0.993262;,
  0.034864;0.085489;0.995729;,
  -0.000487;0.085462;0.996341;,
  -0.001915;-0.003757;0.999991;,
  0.132766;-0.003238;0.991142;,
  -0.136561;-0.004208;0.990623;,
  -0.035837;0.085329;0.995708;,
  -0.963850;0.266445;0.000000;,
  0.963850;0.266445;0.000000;,
  -0.092334;0.115062;-0.989058;,
  0.000629;-0.060071;-0.998194;,
  -0.045936;-0.060142;-0.997132;,
  -0.135693;0.286479;-0.948429;,
  0.001988;0.289694;-0.957117;,
  0.094987;0.115681;-0.988734;,
  0.139631;0.287394;-0.947580;,
  0.047192;-0.059869;-0.997090;;
  80;
  4;6,0,0,6;,
  4;7,7,3,3;,
  4;11,11,6,6;,
  4;9,9,19,2;,
  4;8,8,1,1;,
  4;20,20,21,22;,
  4;11,11,23,23;,
  4;10,10,24,5;,
  4;8,8,4,4;,
  4;12,12,25,26;,
  4;27,27,7,7;,
  4;27,28,28,27;,
  4;13,29,26,14;,
  4;13,14,19,30;,
  4;13,30,31,15;,
  4;13,15,32,29;,
  4;14,26,25,16;,
  4;14,16,2,19;,
  4;15,31,22,17;,
  4;15,17,24,32;,
  4;18,4,4,18;,
  4;18,18,1,1;,
  4;17,22,21,33;,
  4;17,33,5,24;,
  4;37,36,36,37;,
  4;37,37,35,35;,
  4;34,34,34,34;,
  4;34,34,34,34;,
  4;38,44,45,39;,
  4;38,39,46,47;,
  4;38,47,48,40;,
  4;38,40,49,44;,
  4;41,50,50,41;,
  4;41,41,36,36;,
  4;42,35,35,42;,
  4;42,42,51,51;,
  4;52,53,54,43;,
  4;52,43,55,56;,
  4;57,58,55,43;,
  4;57,43,54,59;,
  4;66,66,60,60;,
  4;67,63,63,67;,
  4;71,66,66,71;,
  4;69,62,79,69;,
  4;68,61,61,68;,
  4;80,81,82,80;,
  4;71,83,83,71;,
  4;70,65,84,70;,
  4;68,64,64,68;,
  4;72,85,86,72;,
  4;87,67,67,87;,
  4;87,87,88,88;,
  4;73,74,85,89;,
  4;73,90,79,74;,
  4;73,75,91,90;,
  4;73,89,92,75;,
  4;74,76,86,85;,
  4;74,79,62,76;,
  4;75,77,81,91;,
  4;75,92,84,77;,
  4;78,78,64,64;,
  4;78,61,61,78;,
  4;77,93,82,81;,
  4;77,84,65,93;,
  4;97,97,96,96;,
  4;97,95,95,97;,
  4;94,94,94,94;,
  4;94,94,94,94;,
  4;98,99,104,105;,
  4;98,106,107,99;,
  4;98,100,108,106;,
  4;98,105,109,100;,
  4;101,101,110,110;,
  4;101,96,96,101;,
  4;102,102,95,95;,
  4;102,111,111,102;,
  4;112,103,113,114;,
  4;112,115,116,103;,
  4;117,103,116,118;,
  4;117,119,113,103;;
 }
}
