xof 0302txt 0064
template Header {
 <3D82AB43-62DA-11cf-AB39-0020AF71E433>
 WORD major;
 WORD minor;
 DWORD flags;
}

template Vector {
 <3D82AB5E-62DA-11cf-AB39-0020AF71E433>
 FLOAT x;
 FLOAT y;
 FLOAT z;
}

template Coords2d {
 <F6F23F44-7686-11cf-8F52-0040333594A3>
 FLOAT u;
 FLOAT v;
}

template Matrix4x4 {
 <F6F23F45-7686-11cf-8F52-0040333594A3>
 array FLOAT matrix[16];
}

template ColorRGBA {
 <35FF44E0-6C7C-11cf-8F52-0040333594A3>
 FLOAT red;
 FLOAT green;
 FLOAT blue;
 FLOAT alpha;
}

template ColorRGB {
 <D3E16E81-7835-11cf-8F52-0040333594A3>
 FLOAT red;
 FLOAT green;
 FLOAT blue;
}

template IndexedColor {
 <1630B820-7842-11cf-8F52-0040333594A3>
 DWORD index;
 ColorRGBA indexColor;
}

template Boolean {
 <4885AE61-78E8-11cf-8F52-0040333594A3>
 WORD truefalse;
}

template Boolean2d {
 <4885AE63-78E8-11cf-8F52-0040333594A3>
 Boolean u;
 Boolean v;
}

template MaterialWrap {
 <4885AE60-78E8-11cf-8F52-0040333594A3>
 Boolean u;
 Boolean v;
}

template TextureFilename {
 <A42790E1-7810-11cf-8F52-0040333594A3>
 STRING filename;
}

template Material {
 <3D82AB4D-62DA-11cf-AB39-0020AF71E433>
 ColorRGBA faceColor;
 FLOAT power;
 ColorRGB specularColor;
 ColorRGB emissiveColor;
 [...]
}

template MeshFace {
 <3D82AB5F-62DA-11cf-AB39-0020AF71E433>
 DWORD nFaceVertexIndices;
 array DWORD faceVertexIndices[nFaceVertexIndices];
}

template MeshFaceWraps {
 <4885AE62-78E8-11cf-8F52-0040333594A3>
 DWORD nFaceWrapValues;
 Boolean2d faceWrapValues;
}

template MeshTextureCoords {
 <F6F23F40-7686-11cf-8F52-0040333594A3>
 DWORD nTextureCoords;
 array Coords2d textureCoords[nTextureCoords];
}

template MeshMaterialList {
 <F6F23F42-7686-11cf-8F52-0040333594A3>
 DWORD nMaterials;
 DWORD nFaceIndexes;
 array DWORD faceIndexes[nFaceIndexes];
 [Material]
}

template MeshNormals {
 <F6F23F43-7686-11cf-8F52-0040333594A3>
 DWORD nNormals;
 array Vector normals[nNormals];
 DWORD nFaceNormals;
 array MeshFace faceNormals[nFaceNormals];
}

template MeshVertexColors {
 <1630B821-7842-11cf-8F52-0040333594A3>
 DWORD nVertexColors;
 array IndexedColor vertexColors[nVertexColors];
}

template Mesh {
 <3D82AB44-62DA-11cf-AB39-0020AF71E433>
 DWORD nVertices;
 array Vector vertices[nVertices];
 DWORD nFaces;
 array MeshFace faces[nFaces];
 [...]
}

Header{
1;
0;
1;
}

Mesh {
 78;
 9.46744;1.20494;-0.01620;,
 6.69487;1.20494;6.67738;,
 6.69487;0.02168;6.67738;,
 9.46744;0.02168;-0.01620;,
 0.00129;1.20494;9.44995;,
 0.00129;0.02168;9.44995;,
 -6.69228;1.20494;6.67738;,
 -6.69228;0.02168;6.67738;,
 -9.46485;1.20494;-0.01620;,
 -9.46485;0.02168;-0.01620;,
 -6.69228;1.20494;-6.70977;,
 -6.69228;0.02168;-6.70977;,
 0.00129;1.20494;-9.48234;,
 0.00129;0.02168;-9.48234;,
 6.69487;1.20494;-6.70977;,
 6.69487;0.02168;-6.70977;,
 0.00129;1.20494;-0.01620;,
 0.00129;0.02168;-0.01620;,
 2.77667;31.74347;-0.01620;,
 1.96378;31.74347;1.94629;,
 1.96378;0.72142;1.94629;,
 2.77667;0.72142;-0.01620;,
 0.00129;31.74347;2.75918;,
 0.00129;0.72142;2.75918;,
 -1.96119;31.74347;1.94629;,
 -1.96119;0.72142;1.94629;,
 -2.77409;31.74347;-0.01620;,
 -2.77409;0.72142;-0.01620;,
 -1.96119;31.74347;-1.97868;,
 -1.96119;0.72142;-1.97868;,
 0.00129;31.74347;-2.79157;,
 0.00129;0.72142;-2.79157;,
 1.96378;31.74347;-1.97868;,
 1.96378;0.72142;-1.97868;,
 0.00129;0.72142;-0.01620;,
 2.77667;40.41098;-4.74927;,
 1.96378;41.37736;-3.04121;,
 0.00129;40.41098;-4.74927;,
 0.00129;41.77765;-2.33371;,
 -1.96120;41.37736;-3.04121;,
 -2.77409;40.41098;-4.74927;,
 -1.96120;39.44460;-6.45733;,
 0.00129;39.04431;-7.16483;,
 1.96378;39.44460;-6.45733;,
 3.99562;44.41050;-3.27373;,
 2.82571;42.02841;-1.75616;,
 2.82571;37.73614;-8.49371;,
 3.99562;40.11820;-10.01127;,
 0.00129;41.04172;-1.12757;,
 0.00129;36.74941;-7.86513;,
 -2.82313;42.02841;-1.75616;,
 -2.82313;37.73614;-8.49371;,
 -3.99304;44.41050;-3.27372;,
 -3.99304;40.11820;-10.01127;,
 -2.82313;46.79257;-4.79129;,
 -2.82313;42.50030;-11.52884;,
 0.00129;47.77928;-5.41987;,
 0.00129;43.48698;-12.15742;,
 2.82571;46.79257;-4.79129;,
 2.82571;42.50030;-11.52884;,
 0.00129;44.41050;-3.27372;,
 3.71721;34.49891;-11.91597;,
 5.25634;37.63281;-13.91252;,
 0.00129;33.20077;-11.08902;,
 -3.71462;34.49891;-11.91597;,
 -5.25376;37.63281;-13.91252;,
 -3.71459;40.76679;-15.90907;,
 0.00129;42.06489;-16.73606;,
 3.71717;40.76679;-15.90907;,
 4.65223;31.66953;-14.61701;,
 6.57862;35.59200;-17.11594;,
 0.00129;35.59201;-17.11595;,
 0.00129;30.04477;-13.58199;,
 -4.64965;31.66953;-14.61701;,
 -6.57604;35.59200;-17.11594;,
 -4.64959;39.51456;-19.61487;,
 0.00129;41.13928;-20.64995;,
 4.65217;39.51456;-19.61487;;
 
 96;
 4;0,1,2,3;,
 4;1,4,5,2;,
 4;4,6,7,5;,
 4;6,8,9,7;,
 4;8,10,11,9;,
 4;10,12,13,11;,
 4;12,14,15,13;,
 4;14,0,3,15;,
 3;16,1,0;,
 3;16,4,1;,
 3;16,6,4;,
 3;16,8,6;,
 3;16,10,8;,
 3;16,12,10;,
 3;16,14,12;,
 3;16,0,14;,
 3;17,3,2;,
 3;17,2,5;,
 3;17,5,7;,
 3;17,7,9;,
 3;17,9,11;,
 3;17,11,13;,
 3;17,13,15;,
 3;17,15,3;,
 4;18,19,20,21;,
 4;19,22,23,20;,
 4;22,24,25,23;,
 4;24,26,27,25;,
 4;26,28,29,27;,
 4;28,30,31,29;,
 4;30,32,33,31;,
 4;32,18,21,33;,
 3;34,21,20;,
 3;34,20,23;,
 3;34,23,25;,
 3;34,25,27;,
 3;34,27,29;,
 3;34,29,31;,
 3;34,31,33;,
 3;34,33,21;,
 4;35,36,19,18;,
 3;37,36,35;,
 4;36,38,22,19;,
 3;37,38,36;,
 4;38,39,24,22;,
 3;37,39,38;,
 4;39,40,26,24;,
 3;37,40,39;,
 4;40,41,28,26;,
 3;37,41,40;,
 4;41,42,30,28;,
 3;37,42,41;,
 4;42,43,32,30;,
 3;37,43,42;,
 4;43,35,18,32;,
 3;37,35,43;,
 4;44,45,46,47;,
 4;45,48,49,46;,
 4;48,50,51,49;,
 4;50,52,53,51;,
 4;52,54,55,53;,
 4;54,56,57,55;,
 4;56,58,59,57;,
 4;58,44,47,59;,
 3;60,45,44;,
 3;60,48,45;,
 3;60,50,48;,
 3;60,52,50;,
 3;60,54,52;,
 3;60,56,54;,
 3;60,58,56;,
 3;60,44,58;,
 4;61,62,47,46;,
 4;63,61,46,49;,
 4;64,63,49,51;,
 4;65,64,51,53;,
 4;66,65,53,55;,
 4;67,66,55,57;,
 4;68,67,57,59;,
 4;62,68,59,47;,
 4;69,70,62,61;,
 3;71,70,69;,
 4;72,69,61,63;,
 3;71,69,72;,
 4;73,72,63,64;,
 3;71,72,73;,
 4;74,73,64,65;,
 3;71,73,74;,
 4;75,74,65,66;,
 3;71,74,75;,
 4;76,75,66,67;,
 3;71,75,76;,
 4;77,76,67,68;,
 3;71,76,77;,
 4;70,77,68,62;,
 3;71,77,70;;
 
 MeshMaterialList {
  2;
  96;
  1,
  1,
  1,
  1,
  1,
  1,
  1,
  1,
  1,
  1,
  1,
  1,
  1,
  1,
  1,
  1,
  1,
  1,
  1,
  1,
  1,
  1,
  1,
  1,
  1,
  1,
  1,
  1,
  1,
  1,
  1,
  1,
  1,
  1,
  1,
  1,
  1,
  1,
  1,
  1,
  1,
  1,
  1,
  1,
  1,
  1,
  1,
  1,
  1,
  1,
  1,
  1,
  1,
  1,
  1,
  1,
  1,
  1,
  1,
  1,
  1,
  1,
  1,
  1,
  1,
  1,
  1,
  1,
  1,
  1,
  1,
  1,
  1,
  1,
  1,
  1,
  1,
  1,
  1,
  1,
  1,
  1,
  1,
  1,
  1,
  1,
  1,
  1,
  1,
  1,
  1,
  1,
  1,
  1,
  1,
  1;;
  Material {
   0.800000;0.800000;0.800000;1.000000;;
   5.000000;
   0.000000;0.000000;0.000000;;
   0.000000;0.000000;0.000000;;
  }
  Material {
   0.075200;0.075200;0.075200;1.000000;;
   60.000000;
   0.500000;0.500000;0.500000;;
   0.000000;0.000000;0.000000;;
  }
 }
 MeshNormals {
  92;
  0.000000;1.000000;0.000000;,
  1.000000;0.000000;-0.000000;,
  0.707107;0.000000;0.707107;,
  -0.000000;0.000000;1.000000;,
  -0.707107;0.000000;0.707107;,
  -1.000000;0.000000;-0.000000;,
  -0.707107;0.000000;-0.707107;,
  -0.000000;0.000000;-1.000000;,
  0.707107;0.000000;-0.707107;,
  0.000000;-1.000000;-0.000000;,
  0.999996;-0.002612;0.000792;,
  0.709976;0.168460;0.683780;,
  -0.000001;0.235547;0.971863;,
  -0.709975;0.168460;0.683781;,
  -0.999996;-0.002612;0.000792;,
  -0.710927;-0.185306;-0.678413;,
  -0.000001;-0.264722;-0.964325;,
  0.710928;-0.185306;-0.678412;,
  1.000000;0.000000;-0.000001;,
  0.707107;0.000000;0.707107;,
  -0.000001;0.000000;1.000000;,
  -0.707106;0.000000;0.707108;,
  -1.000000;0.000000;-0.000001;,
  -0.707105;0.000000;-0.707108;,
  -0.000001;0.000000;-1.000000;,
  0.707106;0.000000;-0.707107;,
  0.000000;-1.000000;-0.000000;,
  0.000000;0.870354;-0.492426;,
  0.999985;-0.005250;0.001593;,
  0.692318;0.331971;0.640695;,
  -0.000000;0.456147;0.889904;,
  -0.692318;0.331971;0.640696;,
  -0.999985;-0.005251;0.001593;,
  -0.689738;-0.364112;-0.625846;,
  -0.000000;-0.508256;-0.861206;,
  0.689739;-0.364111;-0.625846;,
  0.000001;0.870354;-0.492426;,
  0.000000;0.870355;-0.492425;,
  0.000000;0.870354;-0.492426;,
  -0.000001;0.870354;-0.492426;,
  0.000001;0.870354;-0.492426;,
  -0.000001;0.870354;-0.492426;,
  0.000001;0.537301;0.843390;,
  1.000000;-0.000000;0.000000;,
  0.707107;-0.596368;0.379928;,
  0.000000;-0.843392;0.537299;,
  -0.707107;-0.596368;0.379928;,
  -1.000000;-0.000001;0.000000;,
  -0.707106;0.596368;-0.379928;,
  0.000000;0.843392;-0.537299;,
  0.707106;0.596369;-0.379928;,
  0.991117;0.071455;0.112162;,
  0.700826;-0.519615;0.488715;,
  -0.000000;-0.764446;0.644688;,
  -0.700826;-0.519616;0.488715;,
  -0.991117;0.071455;0.112162;,
  -0.700825;0.662526;-0.264392;,
  0.000000;0.907355;-0.420365;,
  0.700825;0.662526;-0.264392;,
  0.955160;0.159091;0.249719;,
  0.675399;-0.410536;0.612614;,
  -0.000000;-0.646486;0.762926;,
  -0.675399;-0.410536;0.612614;,
  -0.955160;0.159090;0.249720;,
  -0.675400;0.728716;-0.113173;,
  0.000000;0.964663;-0.263488;,
  0.675399;0.728716;-0.113173;,
  0.944408;0.176654;0.277286;,
  0.667796;-0.386562;0.636096;,
  -0.000000;-0.619855;0.784716;,
  -0.667796;-0.386562;0.636097;,
  -0.944408;0.176653;0.277286;,
  -0.667797;0.739866;-0.081520;,
  -0.000000;0.973157;-0.230144;,
  0.667797;0.739866;-0.081520;,
  -0.000000;-0.537300;-0.843391;,
  0.000001;0.537301;0.843391;,
  0.000002;0.537303;0.843390;,
  0.000000;0.537300;0.843391;,
  -0.000000;0.537300;0.843391;,
  0.000000;0.537303;0.843390;,
  -0.000004;0.537303;0.843389;,
  0.000000;0.537300;0.843391;,
  0.000005;0.537302;0.843390;,
  0.000001;-0.537302;-0.843390;,
  0.000006;-0.537302;-0.843390;,
  -0.000000;-0.537297;-0.843393;,
  -0.000006;-0.537302;-0.843390;,
  -0.000001;-0.537302;-0.843390;,
  -0.000002;-0.537298;-0.843392;,
  -0.000000;-0.537300;-0.843391;,
  0.000002;-0.537298;-0.843392;;
  96;
  4;1,2,2,1;,
  4;2,3,3,2;,
  4;3,4,4,3;,
  4;4,5,5,4;,
  4;5,6,6,5;,
  4;6,7,7,6;,
  4;7,8,8,7;,
  4;8,1,1,8;,
  3;0,0,0;,
  3;0,0,0;,
  3;0,0,0;,
  3;0,0,0;,
  3;0,0,0;,
  3;0,0,0;,
  3;0,0,0;,
  3;0,0,0;,
  3;9,9,9;,
  3;9,9,9;,
  3;9,9,9;,
  3;9,9,9;,
  3;9,9,9;,
  3;9,9,9;,
  3;9,9,9;,
  3;9,9,9;,
  4;10,11,19,18;,
  4;11,12,20,19;,
  4;12,13,21,20;,
  4;13,14,22,21;,
  4;14,15,23,22;,
  4;15,16,24,23;,
  4;16,17,25,24;,
  4;17,10,18,25;,
  3;26,26,26;,
  3;26,26,26;,
  3;26,26,26;,
  3;26,26,26;,
  3;26,26,26;,
  3;26,26,26;,
  3;26,26,26;,
  3;26,26,26;,
  4;28,29,11,10;,
  3;27,36,37;,
  4;29,30,12,11;,
  3;27,38,36;,
  4;30,31,13,12;,
  3;27,39,38;,
  4;31,32,14,13;,
  3;27,37,39;,
  4;32,33,15,14;,
  3;27,40,37;,
  4;33,34,16,15;,
  3;27,38,40;,
  4;34,35,17,16;,
  3;27,41,38;,
  4;35,28,10,17;,
  3;27,37,41;,
  4;43,44,52,51;,
  4;44,45,53,52;,
  4;45,46,54,53;,
  4;46,47,55,54;,
  4;47,48,56,55;,
  4;48,49,57,56;,
  4;49,50,58,57;,
  4;50,43,51,58;,
  3;42,76,77;,
  3;42,78,76;,
  3;42,79,78;,
  3;42,80,79;,
  3;42,81,80;,
  3;42,82,81;,
  3;42,83,82;,
  3;42,77,83;,
  4;60,59,51,52;,
  4;61,60,52,53;,
  4;62,61,53,54;,
  4;63,62,54,55;,
  4;64,63,55,56;,
  4;65,64,56,57;,
  4;66,65,57,58;,
  4;59,66,58,51;,
  4;68,67,59,60;,
  3;75,84,85;,
  4;69,68,60,61;,
  3;75,85,86;,
  4;70,69,61,62;,
  3;75,86,87;,
  4;71,70,62,63;,
  3;75,87,88;,
  4;72,71,63,64;,
  3;75,88,89;,
  4;73,72,64,65;,
  3;75,89,90;,
  4;74,73,65,66;,
  3;75,90,91;,
  4;67,74,66,59;,
  3;75,91,84;;
 }
}
