xof 0302txt 0064
template Header {
 <3D82AB43-62DA-11cf-AB39-0020AF71E433>
 WORD major;
 WORD minor;
 DWORD flags;
}

template Vector {
 <3D82AB5E-62DA-11cf-AB39-0020AF71E433>
 FLOAT x;
 FLOAT y;
 FLOAT z;
}

template Coords2d {
 <F6F23F44-7686-11cf-8F52-0040333594A3>
 FLOAT u;
 FLOAT v;
}

template Matrix4x4 {
 <F6F23F45-7686-11cf-8F52-0040333594A3>
 array FLOAT matrix[16];
}

template ColorRGBA {
 <35FF44E0-6C7C-11cf-8F52-0040333594A3>
 FLOAT red;
 FLOAT green;
 FLOAT blue;
 FLOAT alpha;
}

template ColorRGB {
 <D3E16E81-7835-11cf-8F52-0040333594A3>
 FLOAT red;
 FLOAT green;
 FLOAT blue;
}

template IndexedColor {
 <1630B820-7842-11cf-8F52-0040333594A3>
 DWORD index;
 ColorRGBA indexColor;
}

template Boolean {
 <4885AE61-78E8-11cf-8F52-0040333594A3>
 WORD truefalse;
}

template Boolean2d {
 <4885AE63-78E8-11cf-8F52-0040333594A3>
 Boolean u;
 Boolean v;
}

template MaterialWrap {
 <4885AE60-78E8-11cf-8F52-0040333594A3>
 Boolean u;
 Boolean v;
}

template TextureFilename {
 <A42790E1-7810-11cf-8F52-0040333594A3>
 STRING filename;
}

template Material {
 <3D82AB4D-62DA-11cf-AB39-0020AF71E433>
 ColorRGBA faceColor;
 FLOAT power;
 ColorRGB specularColor;
 ColorRGB emissiveColor;
 [...]
}

template MeshFace {
 <3D82AB5F-62DA-11cf-AB39-0020AF71E433>
 DWORD nFaceVertexIndices;
 array DWORD faceVertexIndices[nFaceVertexIndices];
}

template MeshFaceWraps {
 <4885AE62-78E8-11cf-8F52-0040333594A3>
 DWORD nFaceWrapValues;
 Boolean2d faceWrapValues;
}

template MeshTextureCoords {
 <F6F23F40-7686-11cf-8F52-0040333594A3>
 DWORD nTextureCoords;
 array Coords2d textureCoords[nTextureCoords];
}

template MeshMaterialList {
 <F6F23F42-7686-11cf-8F52-0040333594A3>
 DWORD nMaterials;
 DWORD nFaceIndexes;
 array DWORD faceIndexes[nFaceIndexes];
 [Material]
}

template MeshNormals {
 <F6F23F43-7686-11cf-8F52-0040333594A3>
 DWORD nNormals;
 array Vector normals[nNormals];
 DWORD nFaceNormals;
 array MeshFace faceNormals[nFaceNormals];
}

template MeshVertexColors {
 <1630B821-7842-11cf-8F52-0040333594A3>
 DWORD nVertexColors;
 array IndexedColor vertexColors[nVertexColors];
}

template Mesh {
 <3D82AB44-62DA-11cf-AB39-0020AF71E433>
 DWORD nVertices;
 array Vector vertices[nVertices];
 DWORD nFaces;
 array MeshFace faces[nFaces];
 [...]
}

Header{
1;
0;
1;
}

Mesh {
 34;
 -41.78730;15.50928;-17.80932;,
 41.78730;15.50928;-17.80932;,
 41.78730;6.60187;-17.80932;,
 -41.78730;6.60187;-17.80932;,
 41.78730;15.50928;17.80932;,
 -41.78730;15.50928;17.80932;,
 -41.78730;6.60187;17.80932;,
 41.78730;6.60187;17.80932;,
 41.78730;15.50928;6.56565;,
 41.78730;5.11715;4.65275;,
 41.78730;2.70508;0.22242;,
 41.78730;15.50928;0.22242;,
 -41.78730;15.50928;0.22242;,
 -41.78730;15.50928;6.56565;,
 -41.78730;5.11715;4.65275;,
 -41.78730;2.70508;0.22242;,
 41.78730;15.50928;-6.90235;,
 41.78730;5.35913;-4.98945;,
 -41.78730;15.50928;-6.90235;,
 -41.78730;5.35913;-4.98945;,
 41.16658;3.66490;-6.37440;,
 41.16660;0.96305;-1.83220;,
 -41.16670;0.96305;-1.83220;,
 -41.16677;3.66490;-6.37440;,
 41.16660;0.96305;1.83220;,
 -41.16670;0.96305;1.83220;,
 41.16655;3.66490;6.37440;,
 -41.16675;3.66490;6.37440;,
 41.16663;7.88188;3.18720;,
 -41.16670;7.88188;3.18720;,
 41.16663;7.88188;-3.18720;,
 -41.16670;7.88188;-3.18720;,
 41.16658;3.66490;0.00000;,
 -41.16677;3.66490;0.00000;;
 
 36;
 4;0,1,2,3;,
 4;4,5,6,7;,
 4;8,4,7,9;,
 4;8,9,10,11;,
 4;8,11,12,13;,
 4;8,13,5,4;,
 4;9,7,6,14;,
 4;9,14,15,10;,
 4;13,12,15,14;,
 4;13,14,6,5;,
 4;16,11,10,17;,
 4;16,17,2,1;,
 4;16,1,0,18;,
 4;16,18,12,11;,
 4;17,10,15,19;,
 4;17,19,3,2;,
 4;18,0,3,19;,
 4;18,19,15,12;,
 4;20,21,22,23;,
 4;21,24,25,22;,
 4;24,26,27,25;,
 4;26,28,29,27;,
 4;28,30,31,29;,
 4;30,20,23,31;,
 3;32,21,20;,
 3;32,24,21;,
 3;32,26,24;,
 3;32,28,26;,
 3;32,30,28;,
 3;32,20,30;,
 3;33,23,22;,
 3;33,22,25;,
 3;33,25,27;,
 3;33,27,29;,
 3;33,29,31;,
 3;33,31,23;;
 
 MeshMaterialList {
  2;
  36;
  0,
  0,
  0,
  0,
  0,
  0,
  0,
  0,
  0,
  0,
  0,
  0,
  0,
  0,
  0,
  0,
  0,
  0,
  1,
  1,
  1,
  1,
  1,
  1,
  1,
  1,
  1,
  1,
  1,
  1,
  1,
  1,
  1,
  1,
  1,
  1;;
  Material {
   0.592800;0.592800;0.592800;1.000000;;
   5.000000;
   0.260000;0.260000;0.260000;;
   0.000000;0.000000;0.000000;;
  }
  Material {
   0.800000;0.749600;0.530400;1.000000;;
   5.000000;
   0.870000;0.870000;0.870000;;
   0.790000;0.740230;0.523770;;
  }
 }
 MeshNormals {
  32;
  0.000000;0.000000;-1.000000;,
  0.000000;0.000000;1.000000;,
  1.000000;0.000000;0.000000;,
  0.000000;1.000000;0.000000;,
  0.000000;-0.999905;0.013782;,
  0.000000;-0.953705;0.300744;,
  0.000000;-0.959992;-0.280026;,
  0.000000;-0.993693;0.112139;,
  -1.000000;0.000000;0.000000;,
  0.000000;-0.995334;-0.096487;,
  1.000000;-0.000002;0.000001;,
  0.000000;-0.859446;-0.511227;,
  0.000000;-0.964221;-0.265098;,
  0.000000;-0.964221;0.265098;,
  0.000000;-0.859446;0.511227;,
  0.000000;0.895254;0.445557;,
  0.000000;0.895254;-0.445557;,
  -1.000000;-0.000005;0.000001;,
  0.000000;0.602958;0.797773;,
  0.000000;0.602959;-0.797773;,
  1.000000;0.000008;0.000000;,
  1.000000;-0.000002;-0.000000;,
  1.000000;0.000010;0.000002;,
  1.000000;-0.000002;0.000004;,
  1.000000;-0.000013;0.000002;,
  1.000000;-0.000012;-0.000000;,
  -1.000000;-0.000005;0.000000;,
  -1.000000;-0.000028;0.000000;,
  -1.000000;-0.000027;0.000002;,
  -1.000000;-0.000005;0.000004;,
  -1.000000;0.000017;0.000002;,
  -1.000000;0.000018;0.000000;;
  36;
  4;0,0,0,0;,
  4;1,1,1,1;,
  4;2,2,2,2;,
  4;2,2,2,2;,
  4;3,3,3,3;,
  4;3,3,3,3;,
  4;5,7,7,5;,
  4;5,5,4,4;,
  4;8,8,8,8;,
  4;8,8,8,8;,
  4;2,2,2,2;,
  4;2,2,2,2;,
  4;3,3,3,3;,
  4;3,3,3,3;,
  4;6,4,4,6;,
  4;6,6,9,9;,
  4;8,8,8,8;,
  4;8,8,8,8;,
  4;11,12,12,11;,
  4;12,13,13,12;,
  4;13,14,14,13;,
  4;18,15,15,18;,
  4;15,16,16,15;,
  4;16,19,19,16;,
  3;10,20,21;,
  3;10,22,20;,
  3;10,23,22;,
  3;10,24,23;,
  3;10,25,24;,
  3;10,21,25;,
  3;17,26,27;,
  3;17,27,28;,
  3;17,28,29;,
  3;17,29,30;,
  3;17,30,31;,
  3;17,31,26;;
 }
}
