xof 0302txt 0064
template Header {
 <3D82AB43-62DA-11cf-AB39-0020AF71E433>
 WORD major;
 WORD minor;
 DWORD flags;
}

template Vector {
 <3D82AB5E-62DA-11cf-AB39-0020AF71E433>
 FLOAT x;
 FLOAT y;
 FLOAT z;
}

template Coords2d {
 <F6F23F44-7686-11cf-8F52-0040333594A3>
 FLOAT u;
 FLOAT v;
}

template Matrix4x4 {
 <F6F23F45-7686-11cf-8F52-0040333594A3>
 array FLOAT matrix[16];
}

template ColorRGBA {
 <35FF44E0-6C7C-11cf-8F52-0040333594A3>
 FLOAT red;
 FLOAT green;
 FLOAT blue;
 FLOAT alpha;
}

template ColorRGB {
 <D3E16E81-7835-11cf-8F52-0040333594A3>
 FLOAT red;
 FLOAT green;
 FLOAT blue;
}

template IndexedColor {
 <1630B820-7842-11cf-8F52-0040333594A3>
 DWORD index;
 ColorRGBA indexColor;
}

template Boolean {
 <4885AE61-78E8-11cf-8F52-0040333594A3>
 WORD truefalse;
}

template Boolean2d {
 <4885AE63-78E8-11cf-8F52-0040333594A3>
 Boolean u;
 Boolean v;
}

template MaterialWrap {
 <4885AE60-78E8-11cf-8F52-0040333594A3>
 Boolean u;
 Boolean v;
}

template TextureFilename {
 <A42790E1-7810-11cf-8F52-0040333594A3>
 STRING filename;
}

template Material {
 <3D82AB4D-62DA-11cf-AB39-0020AF71E433>
 ColorRGBA faceColor;
 FLOAT power;
 ColorRGB specularColor;
 ColorRGB emissiveColor;
 [...]
}

template MeshFace {
 <3D82AB5F-62DA-11cf-AB39-0020AF71E433>
 DWORD nFaceVertexIndices;
 array DWORD faceVertexIndices[nFaceVertexIndices];
}

template MeshFaceWraps {
 <4885AE62-78E8-11cf-8F52-0040333594A3>
 DWORD nFaceWrapValues;
 Boolean2d faceWrapValues;
}

template MeshTextureCoords {
 <F6F23F40-7686-11cf-8F52-0040333594A3>
 DWORD nTextureCoords;
 array Coords2d textureCoords[nTextureCoords];
}

template MeshMaterialList {
 <F6F23F42-7686-11cf-8F52-0040333594A3>
 DWORD nMaterials;
 DWORD nFaceIndexes;
 array DWORD faceIndexes[nFaceIndexes];
 [Material]
}

template MeshNormals {
 <F6F23F43-7686-11cf-8F52-0040333594A3>
 DWORD nNormals;
 array Vector normals[nNormals];
 DWORD nFaceNormals;
 array MeshFace faceNormals[nFaceNormals];
}

template MeshVertexColors {
 <1630B821-7842-11cf-8F52-0040333594A3>
 DWORD nVertexColors;
 array IndexedColor vertexColors[nVertexColors];
}

template Mesh {
 <3D82AB44-62DA-11cf-AB39-0020AF71E433>
 DWORD nVertices;
 array Vector vertices[nVertices];
 DWORD nFaces;
 array MeshFace faces[nFaces];
 [...]
}

Header{
1;
0;
1;
}

Mesh {
 684;
 0.00000;14.22940;-12.81213;,
 8.85029;15.14727;-9.26299;,
 8.85029;10.29884;-8.00910;,
 0.00000;9.38097;-11.55824;,
 12.51620;17.36320;-0.69460;,
 12.51620;12.51477;0.55929;,
 8.85029;19.57914;7.87378;,
 8.85029;14.73071;9.12767;,
 0.00000;20.49701;11.42292;,
 0.00000;15.64858;12.67681;,
 -8.85029;19.57914;7.87378;,
 -8.85029;14.73071;9.12767;,
 -12.51620;17.36320;-0.69460;,
 -12.51620;12.51477;0.55929;,
 -8.85029;15.14727;-9.26299;,
 -8.85029;10.29884;-8.00910;,
 0.00000;17.03534;-10.09912;,
 6.49623;17.70907;-7.49400;,
 0.00000;19.33560;-1.20470;,
 9.18705;19.33560;-1.20470;,
 6.49623;20.96212;5.08461;,
 0.00000;21.63585;7.68972;,
 -6.49623;20.96212;5.08460;,
 -9.18705;19.33560;-1.20470;,
 -6.49623;17.70907;-7.49400;,
 7.81278;9.85576;-6.82287;,
 0.00000;9.04549;-9.95595;,
 11.04894;11.81192;0.74106;,
 7.81278;13.76809;8.30498;,
 0.00000;14.57836;11.43806;,
 -7.81279;13.76809;8.30498;,
 -11.04894;11.81192;0.74106;,
 -7.81278;9.85576;-6.82287;,
 8.80626;8.99983;-7.62767;,
 0.00000;8.08653;-11.15915;,
 12.45392;11.20475;0.89808;,
 8.80626;13.40966;9.42384;,
 0.00000;14.32296;12.95531;,
 -8.80626;13.40966;9.42384;,
 -12.45392;11.20475;0.89808;,
 -8.80626;8.99983;-7.62767;,
 8.80626;6.43347;-6.96396;,
 0.00000;5.52017;-10.49544;,
 0.00000;8.63838;1.56179;,
 12.45392;8.63838;1.56179;,
 8.80626;10.84329;10.08755;,
 0.00000;11.75659;13.61902;,
 -8.80626;10.84329;10.08754;,
 -12.45392;8.63838;1.56179;,
 -8.80626;6.43347;-6.96396;,
 -4.82786;20.71117;-1.35814;,
 4.82786;20.71117;-1.35814;,
 3.09724;18.79890;-8.75232;,
 -3.09724;18.79890;-8.75232;,
 -4.11567;16.65230;-8.19717;,
 4.11567;16.65230;-8.19717;,
 5.95291;18.56456;-0.80299;,
 -5.95291;18.56456;-0.80299;,
 2.25085;17.34630;-10.56817;,
 -2.25085;17.34630;-10.56817;,
 -2.78925;15.19970;-10.01302;,
 2.78925;15.19970;-10.01302;,
 2.03716;15.93040;-11.71509;,
 -2.03716;15.93040;-11.71509;,
 -2.34248;13.78380;-11.15994;,
 2.34248;13.78380;-11.15994;,
 6.38527;16.32180;-8.57142;,
 8.26169;18.48261;-1.11990;,
 5.55303;18.68746;-9.18322;,
 7.18487;20.62921;-1.67505;,
 -8.26169;18.48261;-1.11990;,
 -6.38527;16.32180;-8.57142;,
 -7.18487;20.62921;-1.67505;,
 -5.55303;18.68746;-9.18322;,
 4.71954;15.05273;-10.58130;,
 4.71954;17.19934;-11.13644;,
 -4.71954;15.05273;-10.58130;,
 -4.71954;17.19934;-11.13644;,
 5.51296;19.25763;-9.45222;,
 7.18487;21.25243;-1.83623;,
 5.17702;21.33439;-1.51932;,
 3.53918;19.36907;-9.02132;,
 -7.18487;21.25243;-1.83623;,
 -5.51296;19.25763;-9.45222;,
 -3.53918;19.36907;-9.02132;,
 -5.17702;21.33439;-1.51932;,
 4.59853;17.63395;-11.58465;,
 2.66824;17.78092;-11.01637;,
 -4.59853;17.63395;-11.58465;,
 -2.66824;17.78092;-11.01637;,
 -5.28343;21.29010;6.36048;,
 5.28343;21.29010;6.36048;,
 6.34590;19.19498;6.91193;,
 -6.34590;19.19498;6.91193;,
 7.86823;21.18854;6.03054;,
 9.04767;19.12531;6.56529;,
 -9.04767;19.12531;6.56529;,
 -7.86823;21.18854;6.03054;,
 5.86019;21.81037;6.20668;,
 7.86805;21.72840;5.88977;,
 -7.86805;21.72840;5.88977;,
 -5.86019;21.81037;6.20668;,
 4.32615;12.84056;-13.63778;,
 6.22621;14.84378;-10.19260;,
 6.22621;6.99298;-8.16225;,
 4.32615;5.71187;-11.79418;,
 -6.22621;14.84378;-10.19260;,
 -6.22621;6.99298;-8.16225;,
 -4.32615;12.84056;-13.63778;,
 -4.32615;5.71187;-11.79418;,
 2.64034;11.31359;-15.15782;,
 -2.64034;11.31359;-15.15782;,
 2.64034;4.55382;-13.40963;,
 -2.64034;4.55382;-13.40963;,
 -9.40060;16.13694;-5.63046;,
 -9.40060;12.35630;-5.63046;,
 -7.03460;12.35630;-9.07301;,
 -7.03460;16.13694;-9.07301;,
 -12.44614;15.71239;-12.22308;,
 -14.28076;15.71239;-9.55369;,
 -23.47197;15.71239;-19.80091;,
 -25.30658;15.71239;-17.13153;,
 -12.44614;12.78084;-12.22308;,
 -23.47197;12.78084;-19.80091;,
 -14.28076;12.78084;-9.55369;,
 -25.30658;12.78084;-17.13153;,
 -27.60192;16.09038;-17.99695;,
 -25.10248;16.09038;-21.63365;,
 -27.60192;12.40285;-17.99695;,
 -25.10248;12.40285;-21.63365;,
 -31.71787;16.09038;-20.82578;,
 -29.21846;16.09038;-24.46247;,
 -31.71787;12.40285;-20.82578;,
 -29.21846;12.40285;-24.46247;,
 -29.35107;18.21673;-25.94678;,
 -29.35107;10.94156;-25.94678;,
 -32.69526;10.94156;-26.20997;,
 -32.69526;18.21673;-26.20997;,
 -34.59529;10.94156;-23.44541;,
 -34.59529;18.21673;-23.44541;,
 -33.15112;10.94156;-20.41766;,
 -33.15112;18.21673;-20.41766;,
 -29.80692;10.94156;-20.15447;,
 -29.80692;18.21673;-20.15447;,
 -27.90690;10.94156;-22.91902;,
 -27.90690;18.21673;-22.91902;,
 -32.05282;10.72031;-24.86306;,
 -30.19631;10.72031;-24.71694;,
 -33.10760;10.72031;-23.32833;,
 -32.30588;10.72031;-21.64750;,
 -30.44939;10.72031;-21.50139;,
 -29.39459;10.72031;-23.03611;,
 -31.97309;6.04840;-24.69591;,
 -30.30120;6.04840;-24.56433;,
 -31.25110;6.04840;-23.18222;,
 -32.92299;6.04840;-23.31380;,
 -32.20099;6.04840;-21.80011;,
 -30.52910;6.04840;-21.66854;,
 -29.57920;6.04840;-23.05063;,
 -30.19104;19.29112;-24.72462;,
 -32.05682;19.29112;-24.87146;,
 -31.25110;19.29112;-23.18222;,
 -33.11689;19.29112;-23.32906;,
 -32.31115;19.29112;-21.63983;,
 -30.44538;19.29112;-21.49298;,
 -29.38532;19.29112;-23.03539;,
 -20.09478;20.68071;-37.93800;,
 -20.09478;20.09019;-37.93800;,
 -21.41608;20.09019;-38.84614;,
 -21.41608;20.68071;-38.84614;,
 -29.86266;19.25121;-28.20705;,
 -29.86266;20.68071;-28.20705;,
 -27.00022;20.68071;-26.23975;,
 -27.00022;19.25121;-26.23975;,
 -28.71269;20.68071;-25.18679;,
 -30.23200;20.68071;-26.23099;,
 -28.71269;19.25121;-25.18679;,
 -30.23200;19.25121;-26.23099;,
 -30.34198;20.68071;-22.81615;,
 -31.86128;20.68071;-23.86034;,
 -30.34198;19.25121;-22.81615;,
 -31.86128;19.25121;-23.86034;,
 -41.02874;20.68071;-7.47890;,
 -42.35003;20.68071;-8.38700;,
 -42.35003;20.09019;-8.38700;,
 -41.02874;20.09019;-7.47890;,
 -35.44462;20.68071;-20.08527;,
 -35.44462;19.25121;-20.08527;,
 -32.58217;20.68071;-18.11797;,
 -32.58217;19.25121;-18.11797;,
 -32.21284;20.68071;-20.09403;,
 -33.73214;20.68071;-21.13823;,
 -32.21284;19.25121;-20.09403;,
 -33.73214;19.25121;-21.13823;,
 -16.44691;20.68071;-12.03488;,
 -16.44691;20.09019;-12.03488;,
 -15.53881;20.09019;-13.35617;,
 -15.53881;20.68071;-13.35617;,
 -26.17788;19.25121;-21.80276;,
 -26.17788;20.68071;-21.80276;,
 -28.14517;20.68071;-18.94032;,
 -28.14517;19.25121;-18.94032;,
 -29.19813;20.68071;-20.65277;,
 -28.15394;20.68071;-22.17209;,
 -29.19813;19.25121;-20.65277;,
 -28.15394;19.25121;-22.17209;,
 -31.56878;20.68071;-22.28207;,
 -30.52459;20.68071;-23.80139;,
 -31.56878;19.25121;-22.28207;,
 -30.52459;19.25121;-23.80139;,
 -46.90604;20.68071;-32.96884;,
 -45.99792;20.68071;-34.29015;,
 -45.99792;20.09019;-34.29015;,
 -46.90604;20.09019;-32.96884;,
 -34.29966;20.68071;-27.38471;,
 -34.29966;19.25121;-27.38471;,
 -36.26695;20.68071;-24.52226;,
 -36.26695;19.25121;-24.52226;,
 -34.29089;20.68071;-24.15293;,
 -33.24669;20.68071;-25.67225;,
 -34.29089;19.25121;-24.15293;,
 -33.24669;19.25121;-25.67225;,
 9.40060;16.13694;5.63046;,
 9.40060;12.35630;5.63046;,
 7.03460;12.35630;9.07301;,
 7.03460;16.13694;9.07301;,
 12.44614;15.71239;12.22308;,
 14.28076;15.71239;9.55369;,
 23.47197;15.71239;19.80091;,
 25.30658;15.71239;17.13153;,
 12.44614;12.78084;12.22308;,
 23.47197;12.78084;19.80091;,
 14.28076;12.78084;9.55369;,
 25.30658;12.78084;17.13153;,
 27.60192;16.09038;17.99695;,
 25.10248;16.09038;21.63365;,
 27.60192;12.40285;17.99695;,
 25.10248;12.40285;21.63365;,
 31.71787;16.09038;20.82578;,
 29.21846;16.09038;24.46247;,
 31.71787;12.40285;20.82578;,
 29.21846;12.40285;24.46247;,
 29.35107;18.21673;25.94678;,
 29.35107;10.94156;25.94678;,
 32.69526;10.94156;26.20997;,
 32.69526;18.21673;26.20997;,
 34.59529;10.94156;23.44541;,
 34.59529;18.21673;23.44541;,
 33.15112;10.94156;20.41766;,
 33.15112;18.21673;20.41766;,
 29.80692;10.94156;20.15447;,
 29.80692;18.21673;20.15447;,
 27.90690;10.94156;22.91902;,
 27.90690;18.21673;22.91902;,
 32.05282;10.72031;24.86306;,
 30.19631;10.72031;24.71694;,
 33.10760;10.72031;23.32833;,
 32.30588;10.72031;21.64750;,
 30.44939;10.72031;21.50139;,
 29.39459;10.72031;23.03611;,
 31.97309;6.04840;24.69591;,
 30.30120;6.04840;24.56433;,
 31.25110;6.04840;23.18222;,
 32.92299;6.04840;23.31380;,
 32.20099;6.04840;21.80011;,
 30.52910;6.04840;21.66854;,
 29.57920;6.04840;23.05063;,
 30.19104;19.29112;24.72462;,
 32.05682;19.29112;24.87146;,
 31.25110;19.29112;23.18222;,
 33.11689;19.29112;23.32906;,
 32.31115;19.29112;21.63983;,
 30.44538;19.29112;21.49298;,
 29.38532;19.29112;23.03539;,
 20.09478;20.68071;37.93800;,
 20.09478;20.09019;37.93800;,
 21.41608;20.09019;38.84614;,
 21.41608;20.68071;38.84614;,
 29.86266;19.25121;28.20705;,
 29.86266;20.68071;28.20705;,
 27.00022;20.68071;26.23975;,
 27.00022;19.25121;26.23975;,
 28.71269;20.68071;25.18679;,
 30.23200;20.68071;26.23099;,
 28.71269;19.25121;25.18679;,
 30.23200;19.25121;26.23099;,
 30.34198;20.68071;22.81615;,
 31.86128;20.68071;23.86034;,
 30.34198;19.25121;22.81615;,
 31.86128;19.25121;23.86034;,
 41.02874;20.68071;7.47890;,
 42.35003;20.68071;8.38700;,
 42.35003;20.09019;8.38700;,
 41.02874;20.09019;7.47890;,
 35.44462;20.68071;20.08527;,
 35.44462;19.25121;20.08527;,
 32.58217;20.68071;18.11797;,
 32.58217;19.25121;18.11797;,
 32.21284;20.68071;20.09403;,
 33.73214;20.68071;21.13823;,
 32.21284;19.25121;20.09403;,
 33.73214;19.25121;21.13823;,
 16.44691;20.68071;12.03488;,
 16.44691;20.09019;12.03488;,
 15.53881;20.09019;13.35617;,
 15.53881;20.68071;13.35617;,
 26.17788;19.25121;21.80276;,
 26.17788;20.68071;21.80276;,
 28.14517;20.68071;18.94032;,
 28.14517;19.25121;18.94032;,
 29.19813;20.68071;20.65277;,
 28.15394;20.68071;22.17209;,
 29.19813;19.25121;20.65277;,
 28.15394;19.25121;22.17209;,
 31.56878;20.68071;22.28207;,
 30.52459;20.68071;23.80139;,
 31.56878;19.25121;22.28207;,
 30.52459;19.25121;23.80139;,
 46.90604;20.68071;32.96884;,
 45.99792;20.68071;34.29015;,
 45.99792;20.09019;34.29015;,
 46.90604;20.09019;32.96884;,
 34.29966;20.68071;27.38471;,
 34.29966;19.25121;27.38471;,
 36.26695;20.68071;24.52226;,
 36.26695;19.25121;24.52226;,
 34.29089;20.68071;24.15293;,
 33.24669;20.68071;25.67225;,
 34.29089;19.25121;24.15293;,
 33.24669;19.25121;25.67225;,
 -9.40060;16.13694;5.63046;,
 -7.03460;16.13694;9.07301;,
 -7.03460;12.35630;9.07301;,
 -9.40060;12.35630;5.63046;,
 -12.44614;15.71239;12.22308;,
 -14.28076;15.71239;9.55369;,
 -25.30658;15.71239;17.13153;,
 -23.47197;15.71239;19.80091;,
 -23.47197;12.78084;19.80091;,
 -12.44614;12.78084;12.22308;,
 -14.28076;12.78084;9.55369;,
 -25.30658;12.78084;17.13153;,
 -27.60192;16.09038;17.99695;,
 -25.10248;16.09038;21.63365;,
 -27.60192;12.40285;17.99695;,
 -25.10248;12.40285;21.63365;,
 -31.71787;16.09038;20.82578;,
 -29.21846;16.09038;24.46247;,
 -31.71787;12.40285;20.82578;,
 -29.21846;12.40285;24.46247;,
 -29.35107;18.21673;25.94678;,
 -32.69526;18.21673;26.20997;,
 -32.69526;10.94156;26.20997;,
 -29.35107;10.94156;25.94678;,
 -34.59529;18.21673;23.44541;,
 -34.59529;10.94156;23.44541;,
 -33.15112;18.21673;20.41766;,
 -33.15112;10.94156;20.41766;,
 -29.80692;18.21673;20.15447;,
 -29.80692;10.94156;20.15447;,
 -27.90690;18.21673;22.91902;,
 -27.90690;10.94156;22.91902;,
 -32.05282;10.72031;24.86306;,
 -30.19631;10.72031;24.71694;,
 -33.10760;10.72031;23.32833;,
 -32.30588;10.72031;21.64750;,
 -30.44939;10.72031;21.50139;,
 -29.39459;10.72031;23.03611;,
 -31.97309;6.04840;24.69591;,
 -30.30120;6.04840;24.56433;,
 -31.25110;6.04840;23.18222;,
 -32.92299;6.04840;23.31380;,
 -32.20099;6.04840;21.80011;,
 -30.52910;6.04840;21.66854;,
 -29.57920;6.04840;23.05063;,
 -30.19104;19.29112;24.72462;,
 -32.05682;19.29112;24.87146;,
 -31.25110;19.29112;23.18222;,
 -33.11689;19.29112;23.32906;,
 -32.31115;19.29112;21.63983;,
 -30.44538;19.29112;21.49298;,
 -29.38532;19.29112;23.03539;,
 -20.09478;20.68071;37.93800;,
 -21.41608;20.68071;38.84614;,
 -21.41608;20.09019;38.84614;,
 -20.09478;20.09019;37.93800;,
 -29.86266;20.68071;28.20705;,
 -29.86266;19.25121;28.20705;,
 -27.00022;20.68071;26.23975;,
 -27.00022;19.25121;26.23975;,
 -28.71269;20.68071;25.18679;,
 -30.23200;20.68071;26.23099;,
 -28.71269;19.25121;25.18679;,
 -30.23200;19.25121;26.23099;,
 -30.34198;20.68071;22.81615;,
 -31.86128;20.68071;23.86034;,
 -30.34198;19.25121;22.81615;,
 -31.86128;19.25121;23.86034;,
 -41.02874;20.68071;7.47890;,
 -41.02874;20.09019;7.47890;,
 -42.35003;20.09019;8.38700;,
 -42.35003;20.68071;8.38700;,
 -35.44462;19.25121;20.08527;,
 -35.44462;20.68071;20.08527;,
 -32.58217;20.68071;18.11797;,
 -32.58217;19.25121;18.11797;,
 -32.21284;20.68071;20.09403;,
 -33.73214;20.68071;21.13823;,
 -32.21284;19.25121;20.09403;,
 -33.73214;19.25121;21.13823;,
 -16.44691;20.68071;12.03488;,
 -15.53881;20.68071;13.35617;,
 -15.53881;20.09019;13.35617;,
 -16.44691;20.09019;12.03488;,
 -26.17788;20.68071;21.80276;,
 -26.17788;19.25121;21.80276;,
 -28.14517;20.68071;18.94032;,
 -28.14517;19.25121;18.94032;,
 -29.19813;20.68071;20.65277;,
 -28.15394;20.68071;22.17209;,
 -29.19813;19.25121;20.65277;,
 -28.15394;19.25121;22.17209;,
 -31.56878;20.68071;22.28207;,
 -30.52459;20.68071;23.80139;,
 -31.56878;19.25121;22.28207;,
 -30.52459;19.25121;23.80139;,
 -46.90604;20.68071;32.96884;,
 -46.90604;20.09019;32.96884;,
 -45.99792;20.09019;34.29015;,
 -45.99792;20.68071;34.29015;,
 -34.29966;19.25121;27.38471;,
 -34.29966;20.68071;27.38471;,
 -36.26695;20.68071;24.52226;,
 -36.26695;19.25121;24.52226;,
 -34.29089;20.68071;24.15293;,
 -33.24669;20.68071;25.67225;,
 -34.29089;19.25121;24.15293;,
 -33.24669;19.25121;25.67225;,
 9.40060;16.13694;-5.63046;,
 7.03460;16.13694;-9.07301;,
 7.03460;12.35630;-9.07301;,
 9.40060;12.35630;-5.63046;,
 12.44614;15.71239;-12.22308;,
 14.28076;15.71239;-9.55369;,
 25.30658;15.71239;-17.13153;,
 23.47197;15.71239;-19.80091;,
 23.47197;12.78084;-19.80091;,
 12.44614;12.78084;-12.22308;,
 14.28076;12.78084;-9.55369;,
 25.30658;12.78084;-17.13153;,
 27.60192;16.09038;-17.99695;,
 25.10248;16.09038;-21.63365;,
 27.60192;12.40285;-17.99695;,
 25.10248;12.40285;-21.63365;,
 31.71787;16.09038;-20.82578;,
 29.21846;16.09038;-24.46247;,
 31.71787;12.40285;-20.82578;,
 29.21846;12.40285;-24.46247;,
 29.35107;18.21673;-25.94678;,
 32.69526;18.21673;-26.20997;,
 32.69526;10.94156;-26.20997;,
 29.35107;10.94156;-25.94678;,
 34.59529;18.21673;-23.44541;,
 34.59529;10.94156;-23.44541;,
 33.15112;18.21673;-20.41766;,
 33.15112;10.94156;-20.41766;,
 29.80692;18.21673;-20.15447;,
 29.80692;10.94156;-20.15447;,
 27.90690;18.21673;-22.91902;,
 27.90690;10.94156;-22.91902;,
 32.05282;10.72031;-24.86306;,
 30.19631;10.72031;-24.71694;,
 33.10760;10.72031;-23.32833;,
 32.30588;10.72031;-21.64750;,
 30.44939;10.72031;-21.50139;,
 29.39459;10.72031;-23.03611;,
 31.97309;6.04840;-24.69591;,
 30.30120;6.04840;-24.56433;,
 31.25110;6.04840;-23.18222;,
 32.92299;6.04840;-23.31380;,
 32.20099;6.04840;-21.80011;,
 30.52910;6.04840;-21.66854;,
 29.57920;6.04840;-23.05063;,
 30.19104;19.29112;-24.72462;,
 32.05682;19.29112;-24.87146;,
 31.25110;19.29112;-23.18222;,
 33.11689;19.29112;-23.32906;,
 32.31115;19.29112;-21.63983;,
 30.44538;19.29112;-21.49298;,
 29.38532;19.29112;-23.03539;,
 20.09478;20.68071;-37.93800;,
 21.41608;20.68071;-38.84614;,
 21.41608;20.09019;-38.84614;,
 20.09478;20.09019;-37.93800;,
 29.86266;20.68071;-28.20705;,
 29.86266;19.25121;-28.20705;,
 27.00022;20.68071;-26.23975;,
 27.00022;19.25121;-26.23975;,
 28.71269;20.68071;-25.18679;,
 30.23200;20.68071;-26.23099;,
 28.71269;19.25121;-25.18679;,
 30.23200;19.25121;-26.23099;,
 30.34198;20.68071;-22.81615;,
 31.86128;20.68071;-23.86034;,
 30.34198;19.25121;-22.81615;,
 31.86128;19.25121;-23.86034;,
 41.02874;20.68071;-7.47890;,
 41.02874;20.09019;-7.47890;,
 42.35003;20.09019;-8.38700;,
 42.35003;20.68071;-8.38700;,
 35.44462;19.25121;-20.08527;,
 35.44462;20.68071;-20.08527;,
 32.58217;20.68071;-18.11797;,
 32.58217;19.25121;-18.11797;,
 32.21284;20.68071;-20.09403;,
 33.73214;20.68071;-21.13823;,
 32.21284;19.25121;-20.09403;,
 33.73214;19.25121;-21.13823;,
 16.44691;20.68071;-12.03488;,
 15.53881;20.68071;-13.35617;,
 15.53881;20.09019;-13.35617;,
 16.44691;20.09019;-12.03488;,
 26.17788;20.68071;-21.80276;,
 26.17788;19.25121;-21.80276;,
 28.14517;20.68071;-18.94032;,
 28.14517;19.25121;-18.94032;,
 29.19813;20.68071;-20.65277;,
 28.15394;20.68071;-22.17209;,
 29.19813;19.25121;-20.65277;,
 28.15394;19.25121;-22.17209;,
 31.56878;20.68071;-22.28207;,
 30.52459;20.68071;-23.80139;,
 31.56878;19.25121;-22.28207;,
 30.52459;19.25121;-23.80139;,
 46.90604;20.68071;-32.96884;,
 46.90604;20.09019;-32.96884;,
 45.99792;20.09019;-34.29015;,
 45.99792;20.68071;-34.29015;,
 34.29966;19.25121;-27.38471;,
 34.29966;20.68071;-27.38471;,
 36.26695;20.68071;-24.52226;,
 36.26695;19.25121;-24.52226;,
 34.29089;20.68071;-24.15293;,
 33.24669;20.68071;-25.67225;,
 34.29089;19.25121;-24.15293;,
 33.24669;19.25121;-25.67225;,
 6.45748;10.22984;-0.66607;,
 8.27363;10.22984;-0.66607;,
 10.90887;-1.95377;-0.66607;,
 9.09271;-1.95377;-0.66607;,
 8.27363;10.22984;1.15008;,
 10.90887;-1.95377;1.15008;,
 6.45748;10.22984;1.15008;,
 9.09271;-1.95377;1.15008;,
 -6.45748;10.22984;-0.66607;,
 -9.09271;-1.95377;-0.66607;,
 -10.90887;-1.95377;-0.66607;,
 -8.27363;10.22984;-0.66607;,
 -10.90887;-1.95377;1.15008;,
 -8.27363;10.22984;1.15008;,
 -9.09271;-1.95377;1.15008;,
 -6.45748;10.22984;1.15008;,
 -9.32556;-1.01487;-0.21508;,
 -9.32556;-0.56727;0.04334;,
 9.32556;-0.56727;0.04334;,
 9.32556;-1.01487;-0.21508;,
 -9.32556;-0.56727;0.56018;,
 9.32556;-0.56727;0.56018;,
 -9.32556;-1.01487;0.81861;,
 9.32556;-1.01487;0.81861;,
 -9.32556;-1.46247;0.56018;,
 9.32556;-1.46247;0.56018;,
 -9.32556;-1.46247;0.04334;,
 9.32556;-1.46247;0.04334;,
 -9.32556;-1.01487;0.30176;,
 9.32556;-1.01487;0.30176;,
 11.12556;-1.07650;-15.54850;,
 8.85242;-1.07650;-15.54850;,
 8.85242;-1.07650;-14.24917;,
 11.12556;-1.07650;-14.24917;,
 11.24478;-2.28111;-15.54850;,
 11.24478;-2.28111;-14.24917;,
 8.73319;-2.28111;-15.54850;,
 8.73319;-2.28111;-14.24917;,
 -8.73319;-2.28111;-15.54850;,
 -8.95001;-1.07650;-15.54850;,
 -8.95001;-1.07650;-14.24917;,
 -8.73319;-2.28111;-14.24917;,
 -11.02797;-1.07650;-15.54850;,
 -11.24478;-2.28111;-15.54850;,
 -11.24478;-2.28111;-14.24917;,
 -11.02797;-1.07650;-14.24917;,
 8.46355;-2.94637;-15.54850;,
 8.46355;-2.94637;-14.24917;,
 11.51442;-2.94637;-15.54850;,
 11.51442;-2.94637;-14.24917;,
 -11.55294;-2.94637;-15.54850;,
 -11.55294;-2.94637;-14.24917;,
 -8.42503;-2.94637;-15.54850;,
 -8.42503;-2.94637;-14.24917;,
 11.51442;-4.14175;-16.39205;,
 8.46355;-4.14175;-16.39205;,
 11.51442;-4.14175;-15.09273;,
 8.46355;-4.14175;-15.09273;,
 -8.42503;-4.14175;-16.39205;,
 -11.55294;-4.14175;-16.39205;,
 -8.42503;-4.14175;-15.09273;,
 -11.55294;-4.14175;-15.09273;,
 8.85242;-1.07650;15.60047;,
 11.12556;-1.07650;15.60047;,
 11.12556;-1.07650;14.24917;,
 8.85242;-1.07650;14.24917;,
 8.73319;-2.28111;15.60047;,
 8.73319;-2.28111;14.24917;,
 11.24478;-2.28111;15.60047;,
 11.24478;-2.28111;14.24917;,
 -11.24478;-2.28111;15.60047;,
 -11.02797;-1.07650;15.60047;,
 -11.02797;-1.07650;14.24917;,
 -11.24478;-2.28111;14.24917;,
 -8.95001;-1.07650;15.60047;,
 -8.73319;-2.28111;15.60047;,
 -8.73319;-2.28111;14.24917;,
 -8.95001;-1.07650;14.24917;,
 11.51442;-2.94637;15.60047;,
 11.51442;-2.94637;14.24917;,
 8.46355;-2.94637;15.60047;,
 8.46355;-2.94637;14.24917;,
 -8.42503;-2.94637;15.60047;,
 -8.42503;-2.94637;14.24917;,
 -11.55294;-2.94637;15.60047;,
 -11.55294;-2.94637;14.24917;,
 8.46355;-4.03811;16.43160;,
 11.51442;-4.03811;16.43160;,
 8.46355;-4.03811;15.08030;,
 11.51442;-4.03811;15.08030;,
 -11.55294;-4.03811;16.43160;,
 -8.42503;-4.03811;16.43160;,
 -11.55294;-4.03811;15.08030;,
 -8.42503;-4.03811;15.08030;,
 -11.02797;-1.07650;-2.12445;,
 -8.95001;-1.07650;-2.12445;,
 -11.24478;-2.28111;-2.12445;,
 -8.73319;-2.28111;-2.12445;,
 -11.55294;-2.94637;-2.12445;,
 -8.42503;-2.94637;-2.12445;,
 8.85242;-1.07650;-2.05918;,
 11.12556;-1.07650;-2.05918;,
 8.73319;-2.28111;-2.05918;,
 11.24478;-2.28111;-2.05918;,
 8.46355;-2.94637;-2.05918;,
 11.51442;-2.94637;-2.05918;,
 -11.02797;-1.07650;1.91082;,
 -8.95001;-1.07650;1.91082;,
 -11.24478;-2.28111;1.91082;,
 -8.73319;-2.28111;1.91082;,
 -11.55294;-2.94637;1.91082;,
 -8.42503;-2.94637;1.91082;,
 8.85242;-1.07650;2.15191;,
 11.12556;-1.07650;2.15191;,
 8.73319;-2.28111;2.15191;,
 11.24478;-2.28111;2.15191;,
 8.46355;-2.94637;2.15191;,
 11.51442;-2.94637;2.15191;,
 -8.95001;-0.75147;1.38359;,
 -11.02797;-0.75147;1.38359;,
 -8.95001;-0.75147;-1.20518;,
 -11.02797;-0.75147;-1.20518;,
 11.12556;-0.75147;1.53826;,
 8.85242;-0.75147;1.53826;,
 11.12556;-0.75147;-1.16330;,
 8.85242;-0.75147;-1.16330;,
 -4.28772;5.99973;-4.12569;,
 4.19303;5.94071;-4.21107;,
 4.18739;4.64914;-3.87835;,
 -4.29336;4.70816;-3.79296;,
 4.29044;9.19061;7.04937;,
 4.28480;7.89905;7.38207;,
 -4.19032;9.24964;7.13475;,
 -4.19595;7.95807;7.46746;,
 6.17983;10.92669;8.50327;,
 -6.02571;11.01164;8.62615;,
 6.03964;6.74778;-6.36428;,
 -6.16590;6.83272;-6.24139;;
 
 692;
 4;0,1,2,3;,
 4;1,4,5,2;,
 4;4,6,7,5;,
 4;6,8,9,7;,
 4;8,10,11,9;,
 4;10,12,13,11;,
 4;12,14,15,13;,
 4;14,0,3,15;,
 4;16,17,1,0;,
 3;18,17,16;,
 4;17,19,4,1;,
 3;18,19,17;,
 4;19,20,6,4;,
 3;18,20,19;,
 4;20,21,8,6;,
 3;18,21,20;,
 4;21,22,10,8;,
 3;18,22,21;,
 4;22,23,12,10;,
 3;18,23,22;,
 4;23,24,14,12;,
 3;18,24,23;,
 4;24,16,0,14;,
 3;18,16,24;,
 4;25,26,3,2;,
 4;27,25,2,5;,
 4;28,27,5,7;,
 4;29,28,7,9;,
 4;30,29,9,11;,
 4;31,30,11,13;,
 4;32,31,13,15;,
 4;26,32,15,3;,
 4;33,34,26,25;,
 4;35,33,25,27;,
 4;36,35,27,28;,
 4;37,36,28,29;,
 4;38,37,29,30;,
 4;39,38,30,31;,
 4;40,39,31,32;,
 4;34,40,32,26;,
 4;41,42,34,33;,
 3;43,42,41;,
 4;44,41,33,35;,
 3;43,41,44;,
 4;45,44,35,36;,
 3;43,44,45;,
 4;46,45,36,37;,
 3;43,45,46;,
 4;47,46,37,38;,
 3;43,46,47;,
 4;48,47,38,39;,
 3;43,47,48;,
 4;49,48,39,40;,
 3;43,48,49;,
 4;42,49,40,34;,
 3;43,49,42;,
 4;50,51,52,53;,
 4;54,55,56,57;,
 4;58,59,53,52;,
 4;60,61,55,54;,
 4;62,63,59,58;,
 4;64,65,61,60;,
 4;63,62,65,64;,
 4;66,67,56,55;,
 4;68,69,67,66;,
 4;70,71,54,57;,
 4;72,73,71,70;,
 4;74,66,55,61;,
 4;74,75,68,66;,
 4;71,76,60,54;,
 4;77,76,71,73;,
 4;65,62,75,74;,
 4;63,64,76,77;,
 3;65,74,61;,
 3;64,60,76;,
 4;78,79,69,68;,
 4;80,81,52,51;,
 4;79,78,81,80;,
 4;82,83,73,72;,
 4;84,85,50,53;,
 4;83,82,85,84;,
 4;86,78,68,75;,
 4;81,87,58,52;,
 4;78,86,87,81;,
 4;83,88,77,73;,
 4;89,84,53,59;,
 4;88,83,84,89;,
 3;62,87,86;,
 3;63,88,89;,
 4;90,91,51,50;,
 4;92,93,57,56;,
 4;91,90,93,92;,
 4;94,95,67,69;,
 4;95,92,56,67;,
 4;95,94,91,92;,
 4;96,97,72,70;,
 4;93,96,70,57;,
 4;97,96,93,90;,
 4;98,99,79,80;,
 4;91,98,80,51;,
 4;99,94,69,79;,
 4;99,98,91,94;,
 4;100,101,85,82;,
 4;97,100,82,72;,
 4;101,90,50,85;,
 4;101,100,97,90;,
 3;62,58,87;,
 3;62,86,75;,
 3;63,77,88;,
 3;63,89,59;,
 4;102,103,104,105;,
 4;103,106,107,104;,
 4;106,108,109,107;,
 4;106,103,102,108;,
 4;109,105,104,107;,
 4;110,111,108,102;,
 4;112,110,102,105;,
 4;113,112,105,109;,
 4;111,113,109,108;,
 4;111,110,112,113;,
 4;114,115,116,117;,
 4;118,119,114,117;,
 4;118,120,121,119;,
 4;118,122,123,120;,
 4;118,117,116,122;,
 4;119,124,115,114;,
 4;119,121,125,124;,
 4;122,124,125,123;,
 4;122,116,115,124;,
 4;126,121,120,127;,
 4;128,125,121,126;,
 4;129,123,125,128;,
 4;127,120,123,129;,
 4;130,126,127,131;,
 4;132,128,126,130;,
 4;133,129,128,132;,
 4;131,127,129,133;,
 4;131,133,132,130;,
 4;134,135,136,137;,
 4;137,136,138,139;,
 4;139,138,140,141;,
 4;141,140,142,143;,
 4;143,142,144,145;,
 4;145,144,135,134;,
 4;146,136,135,147;,
 4;148,138,136,146;,
 4;149,140,138,148;,
 4;150,142,140,149;,
 4;151,144,142,150;,
 4;147,135,144,151;,
 4;152,146,147,153;,
 3;154,152,153;,
 4;155,148,146,152;,
 3;154,155,152;,
 4;156,149,148,155;,
 3;154,156,155;,
 4;157,150,149,156;,
 3;154,157,156;,
 4;158,151,150,157;,
 3;154,158,157;,
 4;153,147,151,158;,
 3;154,153,158;,
 4;159,134,137,160;,
 3;161,159,160;,
 4;160,137,139,162;,
 3;161,160,162;,
 4;162,139,141,163;,
 3;161,162,163;,
 4;163,141,143,164;,
 3;161,163,164;,
 4;164,143,145,165;,
 3;161,164,165;,
 4;165,145,134,159;,
 3;161,165,159;,
 4;166,167,168,169;,
 4;169,168,170,171;,
 4;172,173,167,166;,
 4;172,166,169,171;,
 4;167,173,170,168;,
 4;174,172,171,175;,
 4;176,173,172,174;,
 4;177,170,173,176;,
 4;175,171,170,177;,
 4;178,174,175,179;,
 4;180,176,174,178;,
 4;181,177,176,180;,
 4;179,175,177,181;,
 4;179,181,180,178;,
 4;182,183,184,185;,
 4;183,186,187,184;,
 4;188,182,185,189;,
 4;188,186,183,182;,
 4;185,184,187,189;,
 4;190,191,186,188;,
 4;192,190,188,189;,
 4;193,192,189,187;,
 4;191,193,187,186;,
 4;178,179,191,190;,
 4;180,178,190,192;,
 4;181,180,192,193;,
 4;179,181,193,191;,
 4;179,178,180,181;,
 4;194,195,196,197;,
 4;197,196,198,199;,
 4;200,201,195,194;,
 4;200,194,197,199;,
 4;195,201,198,196;,
 4;202,200,199,203;,
 4;204,201,200,202;,
 4;205,198,201,204;,
 4;203,199,198,205;,
 4;206,202,203,207;,
 4;208,204,202,206;,
 4;209,205,204,208;,
 4;207,203,205,209;,
 4;207,209,208,206;,
 4;210,211,212,213;,
 4;211,214,215,212;,
 4;216,210,213,217;,
 4;216,214,211,210;,
 4;213,212,215,217;,
 4;218,219,214,216;,
 4;220,218,216,217;,
 4;221,220,217,215;,
 4;219,221,215,214;,
 4;206,207,219,218;,
 4;208,206,218,220;,
 4;209,208,220,221;,
 4;207,209,221,219;,
 4;207,206,208,209;,
 4;222,223,224,225;,
 4;226,227,222,225;,
 4;226,228,229,227;,
 4;226,230,231,228;,
 4;226,225,224,230;,
 4;227,232,223,222;,
 4;227,229,233,232;,
 4;230,232,233,231;,
 4;230,224,223,232;,
 4;234,229,228,235;,
 4;236,233,229,234;,
 4;237,231,233,236;,
 4;235,228,231,237;,
 4;238,234,235,239;,
 4;240,236,234,238;,
 4;241,237,236,240;,
 4;239,235,237,241;,
 4;239,241,240,238;,
 4;242,243,244,245;,
 4;245,244,246,247;,
 4;247,246,248,249;,
 4;249,248,250,251;,
 4;251,250,252,253;,
 4;253,252,243,242;,
 4;254,244,243,255;,
 4;256,246,244,254;,
 4;257,248,246,256;,
 4;258,250,248,257;,
 4;259,252,250,258;,
 4;255,243,252,259;,
 4;260,254,255,261;,
 3;262,260,261;,
 4;263,256,254,260;,
 3;262,263,260;,
 4;264,257,256,263;,
 3;262,264,263;,
 4;265,258,257,264;,
 3;262,265,264;,
 4;266,259,258,265;,
 3;262,266,265;,
 4;261,255,259,266;,
 3;262,261,266;,
 4;267,242,245,268;,
 3;269,267,268;,
 4;268,245,247,270;,
 3;269,268,270;,
 4;270,247,249,271;,
 3;269,270,271;,
 4;271,249,251,272;,
 3;269,271,272;,
 4;272,251,253,273;,
 3;269,272,273;,
 4;273,253,242,267;,
 3;269,273,267;,
 4;274,275,276,277;,
 4;277,276,278,279;,
 4;280,281,275,274;,
 4;280,274,277,279;,
 4;275,281,278,276;,
 4;282,280,279,283;,
 4;284,281,280,282;,
 4;285,278,281,284;,
 4;283,279,278,285;,
 4;286,282,283,287;,
 4;288,284,282,286;,
 4;289,285,284,288;,
 4;287,283,285,289;,
 4;287,289,288,286;,
 4;290,291,292,293;,
 4;291,294,295,292;,
 4;296,290,293,297;,
 4;296,294,291,290;,
 4;293,292,295,297;,
 4;298,299,294,296;,
 4;300,298,296,297;,
 4;301,300,297,295;,
 4;299,301,295,294;,
 4;286,287,299,298;,
 4;288,286,298,300;,
 4;289,288,300,301;,
 4;287,289,301,299;,
 4;287,286,288,289;,
 4;302,303,304,305;,
 4;305,304,306,307;,
 4;308,309,303,302;,
 4;308,302,305,307;,
 4;303,309,306,304;,
 4;310,308,307,311;,
 4;312,309,308,310;,
 4;313,306,309,312;,
 4;311,307,306,313;,
 4;314,310,311,315;,
 4;316,312,310,314;,
 4;317,313,312,316;,
 4;315,311,313,317;,
 4;315,317,316,314;,
 4;318,319,320,321;,
 4;319,322,323,320;,
 4;324,318,321,325;,
 4;324,322,319,318;,
 4;321,320,323,325;,
 4;326,327,322,324;,
 4;328,326,324,325;,
 4;329,328,325,323;,
 4;327,329,323,322;,
 4;314,315,327,326;,
 4;316,314,326,328;,
 4;317,316,328,329;,
 4;315,317,329,327;,
 4;315,314,316,317;,
 4;330,331,332,333;,
 4;334,331,330,335;,
 4;334,335,336,337;,
 4;334,337,338,339;,
 4;334,339,332,331;,
 4;335,330,333,340;,
 4;335,340,341,336;,
 4;339,338,341,340;,
 4;339,340,333,332;,
 4;342,343,337,336;,
 4;344,342,336,341;,
 4;345,344,341,338;,
 4;343,345,338,337;,
 4;346,347,343,342;,
 4;348,346,342,344;,
 4;349,348,344,345;,
 4;347,349,345,343;,
 4;347,346,348,349;,
 4;350,351,352,353;,
 4;351,354,355,352;,
 4;354,356,357,355;,
 4;356,358,359,357;,
 4;358,360,361,359;,
 4;360,350,353,361;,
 4;362,363,353,352;,
 4;364,362,352,355;,
 4;365,364,355,357;,
 4;366,365,357,359;,
 4;367,366,359,361;,
 4;363,367,361,353;,
 4;368,369,363,362;,
 3;370,369,368;,
 4;371,368,362,364;,
 3;370,368,371;,
 4;372,371,364,365;,
 3;370,371,372;,
 4;373,372,365,366;,
 3;370,372,373;,
 4;374,373,366,367;,
 3;370,373,374;,
 4;369,374,367,363;,
 3;370,374,369;,
 4;375,376,351,350;,
 3;377,376,375;,
 4;376,378,354,351;,
 3;377,378,376;,
 4;378,379,356,354;,
 3;377,379,378;,
 4;379,380,358,356;,
 3;377,380,379;,
 4;380,381,360,358;,
 3;377,381,380;,
 4;381,375,350,360;,
 3;377,375,381;,
 4;382,383,384,385;,
 4;383,386,387,384;,
 4;388,382,385,389;,
 4;388,386,383,382;,
 4;385,384,387,389;,
 4;390,391,386,388;,
 4;392,390,388,389;,
 4;393,392,389,387;,
 4;391,393,387,386;,
 4;394,395,391,390;,
 4;396,394,390,392;,
 4;397,396,392,393;,
 4;395,397,393,391;,
 4;395,394,396,397;,
 4;398,399,400,401;,
 4;401,400,402,403;,
 4;404,405,399,398;,
 4;404,398,401,403;,
 4;399,405,402,400;,
 4;406,404,403,407;,
 4;408,405,404,406;,
 4;409,402,405,408;,
 4;407,403,402,409;,
 4;394,406,407,395;,
 4;396,408,406,394;,
 4;397,409,408,396;,
 4;395,407,409,397;,
 4;395,397,396,394;,
 4;410,411,412,413;,
 4;411,414,415,412;,
 4;416,410,413,417;,
 4;416,414,411,410;,
 4;413,412,415,417;,
 4;418,419,414,416;,
 4;420,418,416,417;,
 4;421,420,417,415;,
 4;419,421,415,414;,
 4;422,423,419,418;,
 4;424,422,418,420;,
 4;425,424,420,421;,
 4;423,425,421,419;,
 4;423,422,424,425;,
 4;426,427,428,429;,
 4;429,428,430,431;,
 4;432,433,427,426;,
 4;432,426,429,431;,
 4;427,433,430,428;,
 4;434,432,431,435;,
 4;436,433,432,434;,
 4;437,430,433,436;,
 4;435,431,430,437;,
 4;422,434,435,423;,
 4;424,436,434,422;,
 4;425,437,436,424;,
 4;423,435,437,425;,
 4;423,425,424,422;,
 4;438,439,440,441;,
 4;442,439,438,443;,
 4;442,443,444,445;,
 4;442,445,446,447;,
 4;442,447,440,439;,
 4;443,438,441,448;,
 4;443,448,449,444;,
 4;447,446,449,448;,
 4;447,448,441,440;,
 4;450,451,445,444;,
 4;452,450,444,449;,
 4;453,452,449,446;,
 4;451,453,446,445;,
 4;454,455,451,450;,
 4;456,454,450,452;,
 4;457,456,452,453;,
 4;455,457,453,451;,
 4;455,454,456,457;,
 4;458,459,460,461;,
 4;459,462,463,460;,
 4;462,464,465,463;,
 4;464,466,467,465;,
 4;466,468,469,467;,
 4;468,458,461,469;,
 4;470,471,461,460;,
 4;472,470,460,463;,
 4;473,472,463,465;,
 4;474,473,465,467;,
 4;475,474,467,469;,
 4;471,475,469,461;,
 4;476,477,471,470;,
 3;478,477,476;,
 4;479,476,470,472;,
 3;478,476,479;,
 4;480,479,472,473;,
 3;478,479,480;,
 4;481,480,473,474;,
 3;478,480,481;,
 4;482,481,474,475;,
 3;478,481,482;,
 4;477,482,475,471;,
 3;478,482,477;,
 4;483,484,459,458;,
 3;485,484,483;,
 4;484,486,462,459;,
 3;485,486,484;,
 4;486,487,464,462;,
 3;485,487,486;,
 4;487,488,466,464;,
 3;485,488,487;,
 4;488,489,468,466;,
 3;485,489,488;,
 4;489,483,458,468;,
 3;485,483,489;,
 4;490,491,492,493;,
 4;491,494,495,492;,
 4;496,490,493,497;,
 4;496,494,491,490;,
 4;493,492,495,497;,
 4;498,499,494,496;,
 4;500,498,496,497;,
 4;501,500,497,495;,
 4;499,501,495,494;,
 4;502,503,499,498;,
 4;504,502,498,500;,
 4;505,504,500,501;,
 4;503,505,501,499;,
 4;503,502,504,505;,
 4;506,507,508,509;,
 4;509,508,510,511;,
 4;512,513,507,506;,
 4;512,506,509,511;,
 4;507,513,510,508;,
 4;514,512,511,515;,
 4;516,513,512,514;,
 4;517,510,513,516;,
 4;515,511,510,517;,
 4;502,514,515,503;,
 4;504,516,514,502;,
 4;505,517,516,504;,
 4;503,515,517,505;,
 4;503,505,504,502;,
 4;518,519,520,521;,
 4;519,522,523,520;,
 4;524,518,521,525;,
 4;524,522,519,518;,
 4;521,520,523,525;,
 4;526,527,522,524;,
 4;528,526,524,525;,
 4;529,528,525,523;,
 4;527,529,523,522;,
 4;530,531,527,526;,
 4;532,530,526,528;,
 4;533,532,528,529;,
 4;531,533,529,527;,
 4;531,530,532,533;,
 4;534,535,536,537;,
 4;537,536,538,539;,
 4;540,541,535,534;,
 4;540,534,537,539;,
 4;535,541,538,536;,
 4;542,540,539,543;,
 4;544,541,540,542;,
 4;545,538,541,544;,
 4;543,539,538,545;,
 4;530,542,543,531;,
 4;532,544,542,530;,
 4;533,545,544,532;,
 4;531,543,545,533;,
 4;531,533,532,530;,
 4;546,547,548,549;,
 4;547,550,551,548;,
 4;550,552,553,551;,
 4;552,546,549,553;,
 4;552,550,547,546;,
 4;549,548,551,553;,
 4;554,555,556,557;,
 4;557,556,558,559;,
 4;559,558,560,561;,
 4;561,560,555,554;,
 4;561,554,557,559;,
 4;555,560,558,556;,
 4;562,563,564,565;,
 4;563,566,567,564;,
 4;566,568,569,567;,
 4;568,570,571,569;,
 4;570,572,573,571;,
 4;572,562,565,573;,
 3;574,563,562;,
 3;574,566,563;,
 3;574,568,566;,
 3;574,570,568;,
 3;574,572,570;,
 3;574,562,572;,
 3;575,565,564;,
 3;575,564,567;,
 3;575,567,569;,
 3;575,569,571;,
 3;575,571,573;,
 3;575,573,565;,
 4;576,577,578,579;,
 4;580,576,579,581;,
 4;577,582,583,578;,
 4;577,576,580,582;,
 4;584,585,586,587;,
 4;588,589,590,591;,
 4;585,588,591,586;,
 4;585,584,589,588;,
 4;582,592,593,583;,
 4;594,580,581,595;,
 4;594,592,582,580;,
 4;589,596,597,590;,
 4;598,584,587,599;,
 4;598,596,589,584;,
 4;600,601,592,594;,
 4;602,600,594,595;,
 4;603,602,595,593;,
 4;601,603,593,592;,
 4;601,600,602,603;,
 4;604,605,596,598;,
 4;606,604,598,599;,
 4;607,606,599,597;,
 4;605,607,597,596;,
 4;605,604,606,607;,
 4;608,609,610,611;,
 4;612,608,611,613;,
 4;609,614,615,610;,
 4;609,608,612,614;,
 4;616,617,618,619;,
 4;620,621,622,623;,
 4;617,620,623,618;,
 4;617,616,621,620;,
 4;614,624,625,615;,
 4;626,612,613,627;,
 4;626,624,614,612;,
 4;621,628,629,622;,
 4;630,616,619,631;,
 4;630,628,621,616;,
 4;632,633,624,626;,
 4;634,632,626,627;,
 4;635,634,627,625;,
 4;633,635,625,624;,
 4;633,632,634,635;,
 4;636,637,628,630;,
 4;638,636,630,631;,
 4;639,638,631,629;,
 4;637,639,629,628;,
 4;637,636,638,639;,
 4;640,641,586,591;,
 4;640,591,590,642;,
 4;641,643,587,586;,
 4;642,590,597,644;,
 4;643,645,599,587;,
 4;644,597,599,645;,
 4;646,647,579,578;,
 4;646,578,583,648;,
 4;647,649,581,579;,
 4;648,583,593,650;,
 4;649,651,595,581;,
 4;650,593,595,651;,
 4;652,618,623,653;,
 4;652,640,642,654;,
 4;652,654,619,618;,
 4;653,623,622,655;,
 4;653,655,643,641;,
 4;654,642,644,656;,
 4;654,656,631,619;,
 4;655,622,629,657;,
 4;655,657,645,643;,
 4;656,644,645,657;,
 4;656,657,629,631;,
 4;658,611,610,659;,
 4;658,646,648,660;,
 4;658,660,613,611;,
 4;659,610,615,661;,
 4;659,661,649,647;,
 4;660,648,650,662;,
 4;660,662,627,613;,
 4;661,615,625,663;,
 4;661,663,651,649;,
 4;662,650,651,663;,
 4;662,663,625,627;,
 4;664,665,652,653;,
 4;666,664,653,641;,
 4;667,666,641,640;,
 4;665,667,640,652;,
 4;665,664,666,667;,
 4;668,669,658,659;,
 4;670,668,659,647;,
 4;671,670,647,646;,
 4;669,671,646,658;,
 4;669,668,670,671;,
 4;672,673,674,675;,
 4;673,676,677,674;,
 4;676,678,679,677;,
 4;678,672,675,679;,
 4;675,674,677,679;,
 4;680,681,678,676;,
 4;682,680,676,673;,
 4;683,682,673,672;,
 4;681,683,672,678;,
 4;681,680,682,683;;
 
 MeshMaterialList {
  3;
  692;
  0,
  0,
  0,
  0,
  0,
  0,
  0,
  0,
  0,
  0,
  0,
  0,
  0,
  0,
  0,
  0,
  0,
  0,
  0,
  0,
  0,
  0,
  0,
  0,
  0,
  0,
  0,
  0,
  0,
  0,
  0,
  0,
  0,
  0,
  0,
  0,
  0,
  0,
  0,
  0,
  0,
  0,
  0,
  0,
  0,
  0,
  0,
  0,
  0,
  0,
  0,
  0,
  0,
  0,
  0,
  0,
  1,
  1,
  1,
  1,
  1,
  1,
  1,
  1,
  1,
  1,
  1,
  1,
  1,
  1,
  1,
  1,
  1,
  1,
  1,
  1,
  1,
  1,
  1,
  1,
  1,
  1,
  1,
  1,
  1,
  1,
  1,
  1,
  1,
  1,
  1,
  1,
  1,
  1,
  1,
  1,
  1,
  1,
  1,
  1,
  1,
  1,
  1,
  1,
  1,
  1,
  1,
  1,
  1,
  1,
  0,
  0,
  0,
  0,
  0,
  0,
  0,
  0,
  0,
  0,
  0,
  0,
  0,
  0,
  0,
  0,
  0,
  0,
  0,
  0,
  0,
  0,
  0,
  0,
  0,
  0,
  0,
  0,
  0,
  0,
  0,
  0,
  0,
  0,
  0,
  0,
  0,
  0,
  0,
  0,
  0,
  0,
  0,
  0,
  0,
  0,
  0,
  0,
  0,
  0,
  0,
  0,
  0,
  0,
  0,
  0,
  0,
  0,
  0,
  0,
  0,
  0,
  0,
  0,
  0,
  0,
  0,
  0,
  0,
  0,
  0,
  0,
  0,
  0,
  0,
  0,
  0,
  0,
  0,
  0,
  0,
  0,
  0,
  0,
  0,
  0,
  0,
  0,
  0,
  0,
  0,
  0,
  0,
  0,
  0,
  0,
  0,
  0,
  0,
  0,
  0,
  0,
  0,
  0,
  0,
  0,
  0,
  0,
  0,
  0,
  0,
  0,
  0,
  0,
  0,
  0,
  0,
  0,
  0,
  0,
  0,
  0,
  0,
  0,
  0,
  0,
  0,
  0,
  0,
  0,
  0,
  0,
  0,
  0,
  0,
  0,
  0,
  0,
  0,
  0,
  0,
  0,
  0,
  0,
  0,
  0,
  0,
  0,
  0,
  0,
  0,
  0,
  0,
  0,
  0,
  0,
  0,
  0,
  0,
  0,
  0,
  0,
  0,
  0,
  0,
  0,
  0,
  0,
  0,
  0,
  0,
  0,
  0,
  0,
  0,
  0,
  0,
  0,
  0,
  0,
  0,
  0,
  0,
  0,
  0,
  0,
  0,
  0,
  0,
  0,
  0,
  0,
  0,
  0,
  0,
  0,
  0,
  0,
  0,
  0,
  0,
  0,
  0,
  0,
  0,
  0,
  0,
  0,
  0,
  0,
  0,
  0,
  0,
  0,
  0,
  0,
  0,
  0,
  0,
  0,
  0,
  0,
  0,
  0,
  0,
  0,
  0,
  0,
  0,
  0,
  0,
  0,
  0,
  0,
  0,
  0,
  0,
  0,
  0,
  0,
  0,
  0,
  0,
  0,
  0,
  0,
  0,
  0,
  0,
  0,
  0,
  0,
  0,
  0,
  0,
  0,
  0,
  0,
  0,
  0,
  0,
  0,
  0,
  0,
  0,
  0,
  0,
  0,
  0,
  0,
  0,
  0,
  0,
  0,
  0,
  0,
  0,
  0,
  0,
  0,
  0,
  0,
  0,
  0,
  0,
  0,
  0,
  0,
  0,
  0,
  0,
  0,
  0,
  0,
  0,
  0,
  0,
  0,
  0,
  0,
  0,
  0,
  0,
  0,
  0,
  0,
  0,
  0,
  0,
  0,
  0,
  0,
  0,
  0,
  0,
  0,
  0,
  0,
  0,
  0,
  0,
  0,
  0,
  0,
  0,
  0,
  0,
  0,
  0,
  0,
  0,
  0,
  0,
  0,
  0,
  0,
  0,
  0,
  0,
  0,
  0,
  0,
  0,
  0,
  0,
  0,
  0,
  0,
  0,
  0,
  0,
  0,
  0,
  0,
  0,
  0,
  0,
  0,
  0,
  0,
  0,
  0,
  0,
  0,
  0,
  0,
  0,
  0,
  0,
  0,
  0,
  0,
  0,
  0,
  0,
  0,
  0,
  0,
  0,
  0,
  0,
  0,
  0,
  0,
  0,
  0,
  0,
  0,
  0,
  0,
  0,
  0,
  0,
  0,
  0,
  0,
  0,
  0,
  0,
  0,
  0,
  0,
  0,
  0,
  0,
  0,
  0,
  0,
  0,
  0,
  0,
  0,
  0,
  0,
  0,
  0,
  0,
  0,
  0,
  0,
  0,
  0,
  0,
  0,
  0,
  0,
  0,
  0,
  0,
  0,
  0,
  0,
  0,
  0,
  0,
  0,
  0,
  0,
  0,
  0,
  0,
  0,
  0,
  0,
  0,
  0,
  0,
  0,
  0,
  0,
  2,
  2,
  2,
  2,
  2,
  2,
  2,
  2,
  2,
  2,
  2,
  2,
  2,
  2,
  2,
  2,
  2,
  2,
  2,
  2,
  2,
  2,
  2,
  2,
  2,
  2,
  2,
  2,
  2,
  2,
  2,
  2,
  2,
  2,
  2,
  2,
  2,
  2,
  2,
  2,
  2,
  2,
  2,
  2,
  2,
  2,
  2,
  2,
  2,
  2,
  2,
  2,
  2,
  2,
  2,
  2,
  2,
  2,
  2,
  2,
  2,
  2,
  2,
  2,
  2,
  2,
  2,
  2,
  2,
  2,
  2,
  2,
  2,
  2,
  2,
  2,
  2,
  2,
  2,
  2,
  2,
  2,
  2,
  2,
  2,
  2,
  2,
  2,
  2,
  2,
  2,
  2,
  2,
  2,
  2,
  2,
  2,
  2,
  2,
  2,
  2,
  2,
  2,
  2,
  2,
  2,
  2,
  2,
  2,
  2,
  2,
  2,
  2,
  2,
  2,
  2,
  2,
  2,
  2,
  2,
  2,
  2,
  0,
  0,
  0,
  0,
  0,
  0,
  0,
  0,
  0,
  0;;
  Material {
   0.100000;0.109600;0.172800;1.000000;;
   15.000000;
   0.500000;0.500000;0.500000;;
   0.000000;0.000000;0.000000;;
  }
  Material {
   0.269600;0.269600;0.269600;1.000000;;
   23.000000;
   0.700000;0.700000;0.700000;;
   0.010110;0.010110;0.010110;;
  }
  Material {
   0.408000;0.408000;0.408000;1.000000;;
   89.000000;
   0.510000;0.510000;0.510000;;
   0.000000;0.000000;0.000000;;
  }
 }
 MeshNormals {
  615;
  0.000000;0.270126;-0.962825;,
  0.611310;0.333525;-0.717678;,
  0.864523;0.486584;-0.125839;,
  0.611310;0.639644;0.465999;,
  -0.000000;0.703044;0.711147;,
  -0.611310;0.639644;0.465999;,
  -0.864523;0.486584;-0.125839;,
  -0.611310;0.333525;-0.717678;,
  0.000000;-0.250380;-0.968148;,
  0.707107;-0.177046;-0.684584;,
  1.000000;0.000000;0.000000;,
  0.707107;0.177046;0.684584;,
  0.000000;0.250380;0.968148;,
  -0.707107;0.177046;0.684584;,
  -1.000000;0.000000;0.000000;,
  -0.707107;-0.177046;-0.684584;,
  0.000000;0.968148;-0.250380;,
  0.000000;0.865606;-0.500726;,
  0.189537;0.885263;-0.424718;,
  0.268046;0.932719;-0.241218;,
  0.189537;0.980176;-0.057717;,
  0.000000;0.999833;0.018291;,
  -0.189537;0.980176;-0.057718;,
  -0.268046;0.932719;-0.241218;,
  -0.189537;0.885263;-0.424718;,
  0.000000;-0.978776;-0.204931;,
  0.313580;-0.946255;-0.079179;,
  0.443468;-0.867741;0.224413;,
  0.313579;-0.789227;0.528005;,
  -0.000000;-0.756705;0.653757;,
  -0.313580;-0.789226;0.528005;,
  -0.443469;-0.867741;0.224413;,
  -0.313580;-0.946255;-0.079179;,
  0.000000;0.782009;-0.623267;,
  0.288226;0.811902;-0.507682;,
  0.407610;0.884070;-0.228637;,
  0.288224;0.956235;0.050408;,
  0.000000;0.986127;0.165993;,
  -0.288225;0.956235;0.050408;,
  -0.407611;0.884069;-0.228636;,
  -0.288226;0.811902;-0.507682;,
  0.000000;-0.250381;-0.968147;,
  0.707107;-0.177046;-0.684583;,
  1.000000;-0.000000;-0.000000;,
  0.707107;0.177046;0.684584;,
  -0.000000;0.250380;0.968148;,
  -0.707107;0.177044;0.684584;,
  -1.000000;-0.000001;0.000000;,
  -0.707107;-0.177046;-0.684583;,
  -0.000000;-0.968148;0.250380;,
  0.000000;-0.968148;0.250380;,
  -0.000000;-0.968148;0.250380;,
  0.000000;-0.968148;0.250380;,
  -0.000000;-0.968148;0.250380;,
  -0.000000;-0.968148;0.250380;,
  -0.000000;-0.968148;0.250380;,
  0.000000;-0.968148;0.250380;,
  0.000000;-0.968148;0.250380;,
  0.297721;0.879148;-0.372105;,
  0.001843;-0.899876;0.436142;,
  -0.297721;0.879148;-0.372105;,
  -0.001843;-0.899876;0.436142;,
  -0.452562;0.888503;-0.075832;,
  -0.016272;-0.984718;0.173395;,
  0.452562;0.888503;-0.075832;,
  0.016272;-0.984718;0.173395;,
  0.310220;0.684175;-0.660052;,
  -0.052057;-0.728875;0.682665;,
  -0.310220;0.684175;-0.660052;,
  0.052057;-0.728875;0.682665;,
  -0.934983;0.048652;-0.351339;,
  0.003669;-0.905243;0.424878;,
  0.934983;0.048652;-0.351339;,
  -0.003669;-0.905243;0.424878;,
  0.967335;0.177096;-0.181382;,
  -0.032557;-0.983087;0.180221;,
  -0.967335;0.177096;-0.181382;,
  0.032557;-0.983087;0.180221;,
  -0.691695;-0.241245;-0.680705;,
  -0.104136;-0.745931;0.657832;,
  0.691695;-0.241245;-0.680705;,
  0.104136;-0.745931;0.657832;,
  -0.084339;-0.643126;0.761101;,
  0.084339;-0.643126;0.761101;,
  0.488532;0.832865;-0.260141;,
  -0.488532;0.832865;-0.260141;,
  -0.445926;0.892010;-0.073954;,
  0.445926;0.892010;-0.073954;,
  0.549446;0.629389;-0.549527;,
  -0.549446;0.629389;-0.549527;,
  -0.960867;-0.064444;-0.269410;,
  0.960867;-0.064444;-0.269410;,
  0.988902;-0.031365;-0.145224;,
  -0.988902;-0.031365;-0.145224;,
  -0.744315;-0.369291;-0.556435;,
  0.744315;-0.369291;-0.556435;,
  -0.121306;-0.003308;-0.992610;,
  0.121306;-0.003308;-0.992610;,
  -0.432308;0.901120;-0.033042;,
  -0.009686;-0.996527;0.082703;,
  0.432308;0.901120;-0.033042;,
  0.009686;-0.996527;0.082703;,
  0.970224;0.217670;-0.106231;,
  0.887557;0.444922;-0.119532;,
  -0.970224;0.217670;-0.106231;,
  -0.887557;0.444922;-0.119532;,
  -0.418371;0.907865;-0.027337;,
  0.418371;0.907865;-0.027337;,
  0.030593;0.997471;-0.064156;,
  -0.030593;0.997471;-0.064156;,
  0.161942;-0.235978;-0.958170;,
  -0.161942;-0.235978;-0.958170;,
  0.901614;0.378451;-0.209445;,
  0.889325;0.162639;-0.427375;,
  -0.889325;0.162639;-0.427375;,
  -0.901614;0.378451;-0.209445;,
  0.617271;-0.108241;-0.779269;,
  -0.617271;-0.108241;-0.779269;,
  -0.826894;0.560873;0.040826;,
  0.015078;0.987088;-0.159470;,
  -0.049585;0.902889;-0.427004;,
  0.826894;0.560873;0.040826;,
  0.049585;0.902889;-0.427004;,
  -0.015078;0.987088;-0.159470;,
  -0.794198;0.596176;-0.117570;,
  -0.168216;0.629049;-0.758947;,
  0.794198;0.596176;-0.117570;,
  0.168216;0.629049;-0.758947;,
  0.092535;0.256751;0.962038;,
  -0.092535;0.256751;0.962038;,
  -0.065445;0.285950;0.956007;,
  0.065445;0.285950;0.956007;,
  -0.019370;-0.996281;0.083956;,
  0.130537;0.315820;0.939797;,
  0.138592;0.257031;0.956414;,
  0.019370;-0.996281;0.083956;,
  -0.138592;0.257031;0.956414;,
  -0.130537;0.315820;0.939797;,
  0.995984;-0.022349;-0.086699;,
  0.146120;0.197265;0.969400;,
  -0.995984;-0.022349;-0.086699;,
  -0.146120;0.197265;0.969400;,
  -0.830364;0.421007;-0.365033;,
  0.830364;0.421007;-0.365033;,
  -0.825976;-0.141140;-0.545750;,
  0.825976;-0.141140;-0.545750;,
  0.896144;-0.111109;-0.429629;,
  0.000000;0.250379;0.968148;,
  0.000000;0.261934;-0.965086;,
  0.000000;-0.812743;0.582622;,
  0.404499;-0.228982;-0.885408;,
  -0.896144;-0.111109;-0.429629;,
  0.000000;0.864484;-0.502660;,
  0.000000;0.791723;-0.610881;,
  0.000000;-0.886750;0.462250;,
  0.000000;-0.943051;0.332648;,
  0.739860;-0.168446;-0.651332;,
  -0.739860;-0.168446;-0.651332;,
  -0.404499;-0.228982;-0.885408;,
  0.824126;0.000000;0.566406;,
  0.064786;0.996905;0.044526;,
  0.661586;0.000000;-0.749870;,
  -0.462972;0.000000;0.886373;,
  -0.027969;0.999424;-0.019223;,
  0.535117;0.000000;-0.844778;,
  -0.596899;0.000000;0.802316;,
  0.064786;-0.996905;0.044526;,
  -0.462973;0.000000;0.886372;,
  0.000000;1.000000;0.000000;,
  0.000000;-1.000000;-0.000000;,
  -0.566408;0.000000;0.824125;,
  0.277394;0.601076;-0.749507;,
  -0.156731;0.601075;-0.783674;,
  -0.757046;0.601076;-0.256103;,
  -0.600315;0.601075;0.527571;,
  0.156729;0.601078;0.783671;,
  0.757045;0.601078;0.256102;,
  0.078458;0.000000;-0.996917;,
  -0.824126;0.000000;-0.566406;,
  -0.902584;0.000000;0.430513;,
  -0.078458;0.000000;0.996917;,
  0.824126;0.000000;0.566406;,
  0.083069;-0.989187;-0.120866;,
  -0.063139;-0.989187;-0.132373;,
  -0.146207;-0.989187;-0.011507;,
  -0.083068;-0.989187;0.120866;,
  0.063138;-0.989187;0.132372;,
  0.146206;-0.989187;0.011507;,
  0.078416;-0.034307;-0.996330;,
  -0.823642;-0.034308;-0.566071;,
  -0.902053;-0.034307;0.430260;,
  -0.078410;-0.034307;0.996331;,
  0.823637;-0.034305;0.566079;,
  0.169917;0.953942;-0.247231;,
  -0.129150;0.953942;-0.270768;,
  -0.299067;0.953942;-0.023537;,
  -0.169917;0.953942;0.247231;,
  0.129148;0.953943;0.270766;,
  0.299065;0.953942;0.023536;,
  -0.055906;0.997696;-0.038423;,
  0.503077;0.000000;-0.864242;,
  -0.626553;0.000000;0.779378;,
  -0.027968;-0.999424;-0.019222;,
  -0.055905;-0.997697;-0.038422;,
  0.661585;0.000000;-0.749870;,
  0.566404;0.000000;-0.824128;,
  -0.824128;0.000000;-0.566404;,
  0.902585;0.000000;-0.430512;,
  0.902053;-0.034307;-0.430260;,
  0.566421;0.000000;-0.824116;,
  -0.909840;0.000000;-0.414960;,
  0.713454;0.000000;0.700703;,
  0.000000;1.000000;0.000000;,
  0.000000;-1.000000;-0.000000;,
  0.688902;0.000000;0.724855;,
  -0.566408;0.000000;0.824125;,
  -0.713454;0.000000;-0.700702;,
  0.909841;0.000000;0.414958;,
  0.923590;0.000000;0.383381;,
  0.824127;0.000000;0.566405;,
  0.824126;0.000000;0.566407;,
  0.414958;0.000000;-0.909840;,
  -0.700700;0.000000;0.713456;,
  -0.724853;0.000000;0.688904;,
  -0.824124;0.000000;-0.566410;,
  0.700700;0.000000;-0.713456;,
  -0.414958;0.000000;0.909841;,
  -0.383382;0.000000;0.923590;,
  -0.566406;0.000000;0.824126;,
  -0.783186;0.000000;-0.621787;,
  0.861157;0.000000;0.508338;,
  0.034998;-0.998089;-0.050922;,
  0.017508;-0.999522;-0.025473;,
  -0.923590;0.000000;-0.383381;,
  -0.824128;0.000000;-0.566404;,
  -0.566408;0.000000;0.824125;,
  -0.861159;0.000000;-0.508336;,
  0.783186;0.000000;0.621787;,
  -0.034998;-0.998089;0.050922;,
  -0.017507;-0.999522;0.025473;,
  -0.688900;0.000000;-0.724856;,
  0.566408;0.000000;-0.824125;,
  0.621788;0.000000;-0.783186;,
  -0.508338;0.000000;0.861158;,
  0.050922;-0.998089;0.034998;,
  0.025473;-0.999522;0.017507;,
  0.383381;0.000000;-0.923590;,
  0.566407;0.000000;-0.824126;,
  -0.824129;0.000000;-0.566402;,
  0.508338;0.000000;-0.861158;,
  -0.621787;0.000000;0.783186;,
  -0.050922;-0.998089;-0.034998;,
  -0.025473;-0.999522;-0.017507;,
  0.724854;0.000000;-0.688903;,
  0.824129;0.000000;0.566402;,
  -0.824126;0.000000;-0.566406;,
  -0.064786;0.996905;-0.044526;,
  -0.661586;0.000000;0.749870;,
  0.462972;0.000000;-0.886373;,
  0.027969;0.999424;0.019223;,
  -0.535117;0.000000;0.844778;,
  0.596899;0.000000;-0.802316;,
  -0.064786;-0.996905;-0.044526;,
  0.462973;0.000000;-0.886372;,
  0.000000;1.000000;0.000000;,
  0.000000;-1.000000;0.000000;,
  0.566408;0.000000;-0.824125;,
  -0.277394;0.601076;0.749507;,
  0.156731;0.601075;0.783674;,
  0.757046;0.601076;0.256103;,
  0.600315;0.601075;-0.527571;,
  -0.156729;0.601078;-0.783671;,
  -0.757045;0.601078;-0.256102;,
  -0.078458;0.000000;0.996917;,
  0.824126;0.000000;0.566406;,
  0.902584;0.000000;-0.430513;,
  0.078458;0.000000;-0.996917;,
  -0.824126;0.000000;-0.566406;,
  -0.083069;-0.989187;0.120866;,
  0.063139;-0.989187;0.132373;,
  0.146207;-0.989187;0.011507;,
  0.083068;-0.989187;-0.120866;,
  -0.063138;-0.989187;-0.132372;,
  -0.146206;-0.989187;-0.011507;,
  -0.078416;-0.034307;0.996330;,
  0.823642;-0.034308;0.566071;,
  0.902053;-0.034307;-0.430260;,
  0.078410;-0.034307;-0.996331;,
  -0.823637;-0.034305;-0.566079;,
  -0.169917;0.953942;0.247231;,
  0.129150;0.953942;0.270768;,
  0.299067;0.953942;0.023537;,
  0.169917;0.953942;-0.247231;,
  -0.129148;0.953943;-0.270766;,
  -0.299065;0.953942;-0.023536;,
  -0.566421;0.000000;0.824116;,
  0.909840;0.000000;0.414960;,
  -0.713454;0.000000;-0.700703;,
  -0.688902;0.000000;-0.724855;,
  0.566408;0.000000;-0.824125;,
  0.713454;0.000000;0.700702;,
  -0.909841;0.000000;-0.414958;,
  -0.923590;0.000000;-0.383381;,
  -0.824127;0.000000;-0.566405;,
  -0.824126;0.000000;-0.566407;,
  -0.414958;0.000000;0.909840;,
  0.700700;0.000000;-0.713456;,
  0.724853;0.000000;-0.688904;,
  0.824124;0.000000;0.566410;,
  -0.700700;0.000000;0.713456;,
  0.414958;0.000000;-0.909841;,
  0.383382;0.000000;-0.923590;,
  0.566406;0.000000;-0.824126;,
  0.824126;0.000000;-0.566406;,
  0.064786;0.996905;-0.044526;,
  0.661586;0.000000;0.749870;,
  -0.462972;0.000000;-0.886373;,
  -0.027969;0.999424;0.019223;,
  0.535117;0.000000;0.844778;,
  -0.596899;0.000000;-0.802316;,
  0.064786;-0.996905;-0.044526;,
  -0.462973;0.000000;-0.886372;,
  -0.566408;0.000000;-0.824125;,
  0.277394;0.601076;0.749507;,
  -0.156731;0.601075;0.783674;,
  -0.757046;0.601076;0.256103;,
  -0.600315;0.601075;-0.527571;,
  0.156729;0.601078;-0.783671;,
  0.757045;0.601078;-0.256102;,
  0.078458;0.000000;0.996917;,
  -0.824126;0.000000;0.566406;,
  -0.902584;0.000000;-0.430513;,
  -0.078458;0.000000;-0.996917;,
  0.824126;0.000000;-0.566406;,
  0.083069;-0.989187;0.120866;,
  -0.063139;-0.989187;0.132373;,
  -0.146207;-0.989187;0.011507;,
  -0.083068;-0.989187;-0.120866;,
  0.063138;-0.989187;-0.132372;,
  0.146206;-0.989187;-0.011507;,
  0.078416;-0.034307;0.996330;,
  -0.823642;-0.034308;0.566071;,
  -0.902053;-0.034307;-0.430260;,
  -0.078410;-0.034307;-0.996331;,
  0.823637;-0.034305;-0.566079;,
  0.169917;0.953942;0.247231;,
  -0.129150;0.953942;0.270768;,
  -0.299067;0.953942;0.023537;,
  -0.169917;0.953942;-0.247231;,
  0.129148;0.953943;-0.270766;,
  0.299065;0.953942;-0.023536;,
  0.566421;0.000000;0.824116;,
  -0.909840;0.000000;0.414960;,
  0.713454;0.000000;-0.700703;,
  0.688902;0.000000;-0.724855;,
  -0.566408;0.000000;-0.824125;,
  -0.713454;0.000000;0.700702;,
  0.909841;0.000000;-0.414958;,
  0.923590;0.000000;-0.383381;,
  0.824127;0.000000;-0.566405;,
  0.824126;0.000000;-0.566407;,
  0.414958;0.000000;0.909840;,
  -0.700700;0.000000;-0.713456;,
  -0.724853;0.000000;-0.688904;,
  -0.824124;0.000000;0.566410;,
  0.700700;0.000000;0.713456;,
  -0.414958;0.000000;-0.909841;,
  -0.383382;0.000000;-0.923590;,
  -0.566406;0.000000;-0.824126;,
  0.055906;0.997696;0.038423;,
  -0.503077;0.000000;0.864242;,
  0.626553;0.000000;-0.779378;,
  0.027968;-0.999424;0.019222;,
  0.055905;-0.997697;0.038422;,
  -0.661585;0.000000;0.749870;,
  -0.566404;0.000000;0.824128;,
  0.824128;0.000000;0.566404;,
  -0.902585;0.000000;0.430512;,
  -0.902053;-0.034307;0.430260;,
  0.783186;0.000000;0.621787;,
  -0.861157;0.000000;-0.508338;,
  -0.034998;-0.998089;0.050922;,
  -0.017508;-0.999522;0.025473;,
  0.923590;0.000000;0.383381;,
  0.824128;0.000000;0.566404;,
  0.566408;0.000000;-0.824125;,
  0.861159;0.000000;0.508336;,
  -0.783186;0.000000;-0.621787;,
  0.034998;-0.998089;-0.050922;,
  0.017507;-0.999522;-0.025473;,
  0.688900;0.000000;0.724856;,
  -0.566408;0.000000;0.824125;,
  -0.621788;0.000000;0.783186;,
  0.508338;0.000000;-0.861158;,
  -0.050922;-0.998089;-0.034998;,
  -0.025473;-0.999522;-0.017507;,
  -0.383381;0.000000;0.923590;,
  -0.566407;0.000000;0.824126;,
  0.824129;0.000000;0.566402;,
  -0.508338;0.000000;0.861158;,
  0.621787;0.000000;-0.783186;,
  0.050922;-0.998089;0.034998;,
  0.025473;-0.999522;0.017507;,
  -0.724854;0.000000;0.688903;,
  -0.824129;0.000000;-0.566402;,
  -0.055906;0.997696;0.038423;,
  0.503077;0.000000;0.864242;,
  -0.626553;0.000000;-0.779378;,
  -0.027968;-0.999424;0.019222;,
  -0.055905;-0.997697;0.038422;,
  0.661585;0.000000;0.749870;,
  0.566404;0.000000;0.824128;,
  -0.824128;0.000000;0.566404;,
  0.902585;0.000000;0.430512;,
  0.902053;-0.034307;0.430260;,
  -0.783186;0.000000;0.621787;,
  0.861157;0.000000;-0.508338;,
  0.034998;-0.998089;0.050922;,
  0.017508;-0.999522;0.025473;,
  -0.923590;0.000000;0.383381;,
  -0.824128;0.000000;0.566404;,
  -0.566408;0.000000;-0.824125;,
  -0.861159;0.000000;0.508336;,
  0.783186;0.000000;-0.621787;,
  -0.034998;-0.998089;-0.050922;,
  -0.017507;-0.999522;-0.025473;,
  -0.688900;0.000000;0.724856;,
  0.566408;0.000000;0.824125;,
  0.621788;0.000000;0.783186;,
  -0.508338;0.000000;-0.861158;,
  0.050922;-0.998089;-0.034998;,
  0.025473;-0.999522;-0.017507;,
  0.383381;0.000000;0.923590;,
  0.566407;0.000000;0.824126;,
  -0.824129;0.000000;0.566402;,
  0.508338;0.000000;0.861158;,
  -0.621787;0.000000;-0.783186;,
  -0.050922;-0.998089;0.034998;,
  -0.025473;-0.999522;0.017507;,
  0.724854;0.000000;0.688903;,
  0.824129;0.000000;-0.566402;,
  -0.824126;0.000000;0.566406;,
  -0.064786;0.996905;0.044526;,
  -0.661586;0.000000;-0.749870;,
  0.462972;0.000000;0.886373;,
  0.027969;0.999424;-0.019223;,
  -0.535117;0.000000;-0.844778;,
  0.596899;0.000000;0.802316;,
  -0.064786;-0.996905;0.044526;,
  0.462973;0.000000;0.886372;,
  0.000000;1.000000;0.000000;,
  0.000000;-1.000000;-0.000000;,
  0.566408;0.000000;0.824125;,
  -0.277394;0.601076;-0.749507;,
  0.156731;0.601075;-0.783674;,
  0.757046;0.601076;-0.256103;,
  0.600315;0.601075;0.527571;,
  -0.156729;0.601078;0.783671;,
  -0.757045;0.601078;0.256102;,
  -0.078458;0.000000;-0.996917;,
  0.824126;0.000000;-0.566406;,
  0.902584;0.000000;0.430513;,
  0.078458;0.000000;0.996917;,
  -0.824126;0.000000;0.566406;,
  -0.083069;-0.989187;-0.120866;,
  0.063139;-0.989187;-0.132373;,
  0.146207;-0.989187;-0.011507;,
  0.083068;-0.989187;0.120866;,
  -0.063138;-0.989187;0.132372;,
  -0.146206;-0.989187;0.011507;,
  -0.078416;-0.034307;-0.996330;,
  0.823642;-0.034308;-0.566071;,
  0.902053;-0.034307;0.430260;,
  0.078410;-0.034307;0.996331;,
  -0.823637;-0.034305;0.566079;,
  -0.169917;0.953942;-0.247231;,
  0.129150;0.953942;-0.270768;,
  0.299067;0.953942;-0.023537;,
  0.169917;0.953942;0.247231;,
  -0.129148;0.953943;0.270766;,
  -0.299065;0.953942;0.023536;,
  -0.566421;0.000000;-0.824116;,
  0.909840;0.000000;-0.414960;,
  -0.713454;0.000000;0.700703;,
  -0.688902;0.000000;0.724855;,
  0.566408;0.000000;0.824125;,
  0.713454;0.000000;-0.700702;,
  -0.909841;0.000000;0.414958;,
  -0.923590;0.000000;0.383381;,
  -0.824127;0.000000;0.566405;,
  -0.824126;0.000000;0.566407;,
  -0.414958;0.000000;-0.909840;,
  0.700700;0.000000;0.713456;,
  0.724853;0.000000;0.688904;,
  0.824124;0.000000;-0.566410;,
  -0.700700;0.000000;-0.713456;,
  0.414958;0.000000;0.909841;,
  0.383382;0.000000;0.923590;,
  0.566406;0.000000;0.824126;,
  0.055906;0.997696;-0.038423;,
  -0.503077;0.000000;-0.864242;,
  0.626553;0.000000;0.779378;,
  0.027968;-0.999424;-0.019222;,
  0.055905;-0.997697;-0.038422;,
  -0.661585;0.000000;-0.749870;,
  -0.566404;0.000000;-0.824128;,
  0.824128;0.000000;-0.566404;,
  -0.902585;0.000000;-0.430512;,
  -0.902053;-0.034307;-0.430260;,
  0.783186;0.000000;-0.621787;,
  -0.861157;0.000000;0.508338;,
  -0.034998;-0.998089;-0.050922;,
  -0.017508;-0.999522;-0.025473;,
  0.923590;0.000000;-0.383381;,
  0.824128;0.000000;-0.566404;,
  0.566408;0.000000;0.824125;,
  0.861159;0.000000;-0.508336;,
  -0.783186;0.000000;0.621787;,
  0.034998;-0.998089;0.050922;,
  0.017507;-0.999522;0.025473;,
  0.688900;0.000000;-0.724856;,
  -0.566408;0.000000;-0.824125;,
  -0.621788;0.000000;-0.783186;,
  0.508338;0.000000;0.861158;,
  -0.050922;-0.998089;0.034998;,
  -0.025473;-0.999522;0.017507;,
  -0.383381;0.000000;-0.923590;,
  -0.566407;0.000000;-0.824126;,
  0.824129;0.000000;-0.566402;,
  -0.508338;0.000000;-0.861158;,
  0.621787;0.000000;0.783186;,
  0.050922;-0.998089;-0.034998;,
  0.025473;-0.999522;-0.017507;,
  -0.724854;0.000000;-0.688903;,
  -0.824129;0.000000;0.566402;,
  0.000000;0.000000;-1.000000;,
  0.977398;0.211405;0.000000;,
  0.000000;0.000000;1.000000;,
  -0.977398;0.211405;0.000000;,
  0.000000;1.000000;0.000000;,
  -0.970892;0.239517;0.000000;,
  0.970893;0.239513;0.000000;,
  0.984185;0.177145;0.000000;,
  0.953565;0.301188;0.000000;,
  -0.984186;0.177137;0.000000;,
  -0.953566;0.301184;0.000000;,
  -0.984186;0.177137;0.000000;,
  0.984185;0.177145;0.000000;,
  -1.000000;0.000000;0.000000;,
  0.000000;0.499997;-0.866027;,
  0.000000;0.500012;0.866019;,
  0.000000;-0.500012;0.866019;,
  0.000000;-1.000000;-0.000000;,
  1.000000;0.000000;0.000000;,
  -0.967046;0.254600;0.000000;,
  0.967046;0.254600;0.000000;,
  0.958182;0.286161;0.000000;,
  -0.958182;0.286161;0.000000;,
  -0.970892;0.239517;0.000000;,
  0.970893;0.239513;0.000000;,
  0.984185;0.177145;0.000000;,
  -0.981521;0.191353;0.000000;,
  0.981521;0.191353;0.000000;,
  0.976570;0.215199;0.000000;,
  -0.976570;0.215199;0.000000;,
  0.000000;-0.887856;0.460122;,
  0.000000;-0.887856;0.460122;,
  0.000000;0.576570;-0.817048;,
  0.970893;0.239513;0.000000;,
  -0.970892;0.239517;0.000000;,
  -0.984186;0.177137;0.000000;,
  0.981521;0.191353;0.000000;,
  -0.981521;0.191353;0.000000;,
  0.000000;-0.896028;-0.443997;,
  0.000000;-0.896028;-0.443997;,
  0.000000;0.605733;0.795668;,
  0.000000;0.605733;0.795668;,
  0.000000;0.985597;-0.169111;,
  -0.907379;0.420314;0.000000;,
  0.907379;0.420314;0.000000;,
  0.000000;0.984897;-0.173141;,
  -0.926768;0.375634;0.000000;,
  0.926768;0.375634;0.000000;,
  0.000000;0.962091;0.272727;,
  0.000000;0.970488;0.241149;,
  -0.977399;-0.211405;0.000000;,
  0.977399;-0.211405;-0.000000;,
  0.000000;-0.499997;-0.866027;,
  0.995138;0.098489;0.000000;,
  -0.995137;0.098497;0.000000;,
  -0.995137;0.098497;0.000000;,
  0.000000;0.302450;-0.953165;,
  -0.995137;0.098497;0.000000;,
  -0.995137;0.098497;0.000000;,
  0.000000;0.319634;0.947541;,
  0.000000;0.319634;0.947541;,
  -0.992953;0.118509;0.000000;,
  0.992952;0.118514;0.000000;,
  -0.997837;0.065736;0.000000;,
  0.997837;0.065730;0.000000;,
  0.992952;0.118514;0.000000;,
  -0.012145;-0.665387;-0.746400;,
  -0.011485;-0.249404;-0.968331;,
  0.887482;-0.445212;0.119005;,
  0.999958;-0.006139;-0.006879;,
  0.008271;-0.222035;0.975004;,
  0.011485;0.249391;0.968335;,
  -0.327303;-0.942147;-0.072338;,
  0.313027;-0.946611;-0.077080;,
  0.317878;-0.781185;0.537311;,
  -0.317863;-0.777774;0.542246;,
  -0.891037;-0.434450;0.131551;,
  -0.999958;0.006135;0.006879;,
  -0.003894;-0.960768;0.277324;,
  0.003975;0.962677;-0.270623;;
  692;
  4;0,1,9,8;,
  4;1,2,10,9;,
  4;2,3,11,10;,
  4;3,4,12,11;,
  4;4,5,13,12;,
  4;5,6,14,13;,
  4;6,7,15,14;,
  4;7,0,8,15;,
  4;17,18,1,0;,
  3;16,18,17;,
  4;18,19,2,1;,
  3;16,19,18;,
  4;19,20,3,2;,
  3;16,20,19;,
  4;20,21,4,3;,
  3;16,21,20;,
  4;21,22,5,4;,
  3;16,22,21;,
  4;22,23,6,5;,
  3;16,23,22;,
  4;23,24,7,6;,
  3;16,24,23;,
  4;24,17,0,7;,
  3;16,17,24;,
  4;26,25,25,26;,
  4;27,26,26,27;,
  4;28,27,27,28;,
  4;29,28,28,29;,
  4;30,29,29,30;,
  4;31,30,30,31;,
  4;32,31,31,32;,
  4;25,32,32,25;,
  4;34,33,33,34;,
  4;35,34,34,35;,
  4;36,35,35,36;,
  4;37,36,36,37;,
  4;38,37,37,38;,
  4;39,38,38,39;,
  4;40,39,39,40;,
  4;33,40,40,33;,
  4;42,41,41,42;,
  3;49,50,51;,
  4;43,42,42,43;,
  3;49,51,52;,
  4;44,43,43,44;,
  3;49,52,53;,
  4;45,44,44,45;,
  3;49,53,54;,
  4;46,45,45,46;,
  3;49,54,55;,
  4;47,46,46,47;,
  3;49,55,56;,
  4;48,47,47,48;,
  3;49,56,57;,
  4;41,48,48,41;,
  3;49,57,50;,
  4;64,62,60,58;,
  4;59,61,63,65;,
  4;68,66,58,60;,
  4;67,69,61,59;,
  4;97,96,66,68;,
  4;82,83,69,67;,
  4;96,97,110,111;,
  4;73,75,63,61;,
  4;72,74,112,113;,
  4;77,71,59,65;,
  4;76,70,114,115;,
  4;81,73,61,69;,
  4;116,80,72,113;,
  4;71,79,67,59;,
  4;78,117,114,70;,
  4;110,97,80,116;,
  4;96,111,117,78;,
  3;83,81,69;,
  3;82,67,79;,
  4;91,92,74,72;,
  4;86,85,118,62;,
  4;119,120,85,86;,
  4;93,90,70,76;,
  4;84,87,64,121;,
  4;122,123,87,84;,
  4;95,91,72,80;,
  4;85,89,124,60;,
  4;120,125,89,85;,
  4;90,94,78,70;,
  4;88,84,58,126;,
  4;127,122,84,88;,
  3;97,89,125;,
  3;96,127,88;,
  4;100,98,62,64;,
  4;99,101,65,63;,
  4;128,129,130,131;,
  4;102,103,112,74;,
  4;132,99,63,75;,
  4;133,134,128,131;,
  4;105,104,76,115;,
  4;101,135,77,65;,
  4;136,137,130,129;,
  4;106,108,119,86;,
  4;98,106,86,62;,
  4;138,102,74,92;,
  4;139,139,128,134;,
  4;109,107,87,123;,
  4;104,140,93,76;,
  4;107,100,64,87;,
  4;141,141,136,129;,
  3;142,68,89;,
  3;97,95,80;,
  3;96,78,94;,
  3;143,88,66;,
  4;145,146,146,145;,
  4;147,147,147,147;,
  4;151,144,144,151;,
  4;152,152,153,153;,
  4;154,154,155,155;,
  4;148,148,153,153;,
  4;150,156,145,145;,
  4;149,149,154,154;,
  4;157,158,144,144;,
  4;148,148,150,158;,
  4;159,159,159,159;,
  4;163,163,199,199;,
  4;163,160,160,163;,
  4;164,164,161,161;,
  4;164,200,200,164;,
  4;165,165,201,201;,
  4;165,162,162,165;,
  4;202,202,166,166;,
  4;202,203,203,202;,
  4;160,160,160,160;,
  4;167,162,162,167;,
  4;166,166,166,166;,
  4;204,161,161,204;,
  4;168,160,160,168;,
  4;170,167,167,170;,
  4;169,166,166,169;,
  4;205,204,204,205;,
  4;206,206,206,206;,
  4;171,177,177,172;,
  4;178,178,178,173;,
  4;179,179,179,174;,
  4;180,180,180,175;,
  4;181,181,181,176;,
  4;207,207,207,207;,
  4;183,183,182,182;,
  4;184,184,183,183;,
  4;185,185,184,184;,
  4;186,186,185,185;,
  4;187,187,186,186;,
  4;182,182,187,187;,
  4;188,188,188,188;,
  3;169,169,169;,
  4;189,189,189,189;,
  3;169,169,169;,
  4;190,190,190,190;,
  3;169,169,169;,
  4;191,191,191,191;,
  3;169,169,169;,
  4;192,192,192,192;,
  3;169,169,169;,
  4;208,208,208,208;,
  3;169,169,169;,
  4;193,171,172,194;,
  3;168,193,194;,
  4;194,172,173,195;,
  3;168,194,195;,
  4;195,173,174,196;,
  3;168,195,196;,
  4;196,174,175,197;,
  3;168,196,197;,
  4;197,175,176,198;,
  3;168,197,198;,
  4;198,176,171,193;,
  3;168,198,193;,
  4;209,209,209,209;,
  4;229,229,210,210;,
  4;211,211,230,230;,
  4;212,212,212,212;,
  4;231,232,232,231;,
  4;212,212,212,212;,
  4;214,211,211,214;,
  4;213,232,232,213;,
  4;233,210,210,233;,
  4;212,212,212,212;,
  4;219,214,214,219;,
  4;213,213,213,213;,
  4;234,233,233,234;,
  4;235,235,235,235;,
  4;215,215,215,215;,
  4;236,216,216,236;,
  4;217,237,237,217;,
  4;212,212,212,212;,
  4;238,238,239,239;,
  4;212,212,212,212;,
  4;218,218,217,217;,
  4;213,213,239,239;,
  4;240,240,216,216;,
  4;212,212,212,212;,
  4;219,219,218,218;,
  4;213,213,213,213;,
  4;234,234,240,240;,
  4;241,241,241,241;,
  4;220,220,220,220;,
  4;242,242,221,221;,
  4;222,222,243,243;,
  4;212,212,212,212;,
  4;244,245,245,244;,
  4;212,212,212,212;,
  4;223,222,222,223;,
  4;213,245,245,213;,
  4;246,221,221,246;,
  4;212,212,212,212;,
  4;228,223,223,228;,
  4;213,213,213,213;,
  4;247,246,246,247;,
  4;248,248,248,248;,
  4;224,224,224,224;,
  4;249,225,225,249;,
  4;226,250,250,226;,
  4;212,212,212,212;,
  4;251,251,252,252;,
  4;212,212,212,212;,
  4;227,227,226,226;,
  4;213,213,252,252;,
  4;253,253,225,225;,
  4;212,212,212,212;,
  4;228,228,227,227;,
  4;213,213,213,213;,
  4;247,247,253,253;,
  4;254,254,254,254;,
  4;255,255,255,255;,
  4;259,259,369,369;,
  4;259,256,256,259;,
  4;260,260,257,257;,
  4;260,370,370,260;,
  4;261,261,371,371;,
  4;261,258,258,261;,
  4;372,372,262,262;,
  4;372,373,373,372;,
  4;256,256,256,256;,
  4;263,258,258,263;,
  4;262,262,262,262;,
  4;374,257,257,374;,
  4;264,256,256,264;,
  4;266,263,263,266;,
  4;265,262,262,265;,
  4;375,374,374,375;,
  4;376,376,376,376;,
  4;267,273,273,268;,
  4;274,274,274,269;,
  4;275,275,275,270;,
  4;276,276,276,271;,
  4;277,277,277,272;,
  4;377,377,377,377;,
  4;279,279,278,278;,
  4;280,280,279,279;,
  4;281,281,280,280;,
  4;282,282,281,281;,
  4;283,283,282,282;,
  4;278,278,283,283;,
  4;284,284,284,284;,
  3;265,265,265;,
  4;285,285,285,285;,
  3;265,265,265;,
  4;286,286,286,286;,
  3;265,265,265;,
  4;287,287,287,287;,
  3;265,265,265;,
  4;288,288,288,288;,
  3;265,265,265;,
  4;378,378,378,378;,
  3;265,265,265;,
  4;289,267,268,290;,
  3;264,289,290;,
  4;290,268,269,291;,
  3;264,290,291;,
  4;291,269,270,292;,
  3;264,291,292;,
  4;292,270,271,293;,
  3;264,292,293;,
  4;293,271,272,294;,
  3;264,293,294;,
  4;294,272,267,289;,
  3;264,294,289;,
  4;295,295,295,295;,
  4;379,379,296,296;,
  4;297,297,380,380;,
  4;264,264,264,264;,
  4;381,382,382,381;,
  4;264,264,264,264;,
  4;298,297,297,298;,
  4;265,382,382,265;,
  4;383,296,296,383;,
  4;264,264,264,264;,
  4;303,298,298,303;,
  4;265,265,265,265;,
  4;384,383,383,384;,
  4;385,385,385,385;,
  4;299,299,299,299;,
  4;386,300,300,386;,
  4;301,387,387,301;,
  4;264,264,264,264;,
  4;388,388,389,389;,
  4;264,264,264,264;,
  4;302,302,301,301;,
  4;265,265,389,389;,
  4;390,390,300,300;,
  4;264,264,264,264;,
  4;303,303,302,302;,
  4;265,265,265,265;,
  4;384,384,390,390;,
  4;391,391,391,391;,
  4;304,304,304,304;,
  4;392,392,305,305;,
  4;306,306,393,393;,
  4;264,264,264,264;,
  4;394,395,395,394;,
  4;264,264,264,264;,
  4;307,306,306,307;,
  4;265,395,395,265;,
  4;396,305,305,396;,
  4;264,264,264,264;,
  4;312,307,307,312;,
  4;265,265,265,265;,
  4;397,396,396,397;,
  4;398,398,398,398;,
  4;308,308,308,308;,
  4;399,309,309,399;,
  4;310,400,400,310;,
  4;264,264,264,264;,
  4;401,401,402,402;,
  4;264,264,264,264;,
  4;311,311,310,310;,
  4;265,265,402,402;,
  4;403,403,309,309;,
  4;264,264,264,264;,
  4;312,312,311,311;,
  4;265,265,265,265;,
  4;397,397,403,403;,
  4;404,404,404,404;,
  4;313,313,313,313;,
  4;317,405,405,317;,
  4;317,317,314,314;,
  4;318,315,315,318;,
  4;318,318,406,406;,
  4;319,407,407,319;,
  4;319,319,316,316;,
  4;408,320,320,408;,
  4;408,408,409,409;,
  4;314,314,314,314;,
  4;321,321,316,316;,
  4;320,320,320,320;,
  4;410,410,315,315;,
  4;264,264,314,314;,
  4;322,322,321,321;,
  4;265,265,320,320;,
  4;411,411,410,410;,
  4;412,412,412,412;,
  4;323,324,329,329;,
  4;330,325,330,330;,
  4;331,326,331,331;,
  4;332,327,332,332;,
  4;333,328,333,333;,
  4;413,413,413,413;,
  4;335,334,334,335;,
  4;336,335,335,336;,
  4;337,336,336,337;,
  4;338,337,337,338;,
  4;339,338,338,339;,
  4;334,339,339,334;,
  4;340,340,340,340;,
  3;265,265,265;,
  4;341,341,341,341;,
  3;265,265,265;,
  4;342,342,342,342;,
  3;265,265,265;,
  4;343,343,343,343;,
  3;265,265,265;,
  4;344,344,344,344;,
  3;265,265,265;,
  4;414,414,414,414;,
  3;265,265,265;,
  4;345,346,324,323;,
  3;264,346,345;,
  4;346,347,325,324;,
  3;264,347,346;,
  4;347,348,326,325;,
  3;264,348,347;,
  4;348,349,327,326;,
  3;264,349,348;,
  4;349,350,328,327;,
  3;264,350,349;,
  4;350,345,323,328;,
  3;264,345,350;,
  4;351,351,351,351;,
  4;415,352,352,415;,
  4;353,416,416,353;,
  4;264,264,264,264;,
  4;417,417,418,418;,
  4;264,264,264,264;,
  4;354,354,353,353;,
  4;265,265,418,418;,
  4;419,419,352,352;,
  4;264,264,264,264;,
  4;359,359,354,354;,
  4;265,265,265,265;,
  4;420,420,419,419;,
  4;421,421,421,421;,
  4;355,355,355,355;,
  4;422,422,356,356;,
  4;357,357,423,423;,
  4;264,264,264,264;,
  4;424,425,425,424;,
  4;264,264,264,264;,
  4;358,357,357,358;,
  4;265,425,425,265;,
  4;426,356,356,426;,
  4;264,264,264,264;,
  4;359,358,358,359;,
  4;265,265,265,265;,
  4;420,426,426,420;,
  4;427,427,427,427;,
  4;360,360,360,360;,
  4;428,361,361,428;,
  4;362,429,429,362;,
  4;264,264,264,264;,
  4;430,430,431,431;,
  4;264,264,264,264;,
  4;363,363,362,362;,
  4;265,265,431,431;,
  4;432,432,361,361;,
  4;264,264,264,264;,
  4;368,368,363,363;,
  4;265,265,265,265;,
  4;433,433,432,432;,
  4;434,434,434,434;,
  4;364,364,364,364;,
  4;435,435,365,365;,
  4;366,366,436,436;,
  4;264,264,264,264;,
  4;437,438,438,437;,
  4;264,264,264,264;,
  4;367,366,366,367;,
  4;265,438,438,265;,
  4;439,365,365,439;,
  4;264,264,264,264;,
  4;368,367,367,368;,
  4;265,265,265,265;,
  4;433,439,439,433;,
  4;440,440,440,440;,
  4;441,441,441,441;,
  4;445,499,499,445;,
  4;445,445,442,442;,
  4;446,443,443,446;,
  4;446,446,500,500;,
  4;447,501,501,447;,
  4;447,447,444,444;,
  4;502,448,448,502;,
  4;502,502,503,503;,
  4;442,442,442,442;,
  4;449,449,444,444;,
  4;448,448,448,448;,
  4;504,504,443,443;,
  4;450,450,442,442;,
  4;452,452,449,449;,
  4;451,451,448,448;,
  4;505,505,504,504;,
  4;506,506,506,506;,
  4;453,454,459,459;,
  4;460,455,460,460;,
  4;461,456,461,461;,
  4;462,457,462,462;,
  4;463,458,463,463;,
  4;507,507,507,507;,
  4;465,464,464,465;,
  4;466,465,465,466;,
  4;467,466,466,467;,
  4;468,467,467,468;,
  4;469,468,468,469;,
  4;464,469,469,464;,
  4;470,470,470,470;,
  3;451,451,451;,
  4;471,471,471,471;,
  3;451,451,451;,
  4;472,472,472,472;,
  3;451,451,451;,
  4;473,473,473,473;,
  3;451,451,451;,
  4;474,474,474,474;,
  3;451,451,451;,
  4;508,508,508,508;,
  3;451,451,451;,
  4;475,476,454,453;,
  3;450,476,475;,
  4;476,477,455,454;,
  3;450,477,476;,
  4;477,478,456,455;,
  3;450,478,477;,
  4;478,479,457,456;,
  3;450,479,478;,
  4;479,480,458,457;,
  3;450,480,479;,
  4;480,475,453,458;,
  3;450,475,480;,
  4;481,481,481,481;,
  4;509,482,482,509;,
  4;483,510,510,483;,
  4;450,450,450,450;,
  4;511,511,512,512;,
  4;450,450,450,450;,
  4;484,484,483,483;,
  4;451,451,512,512;,
  4;513,513,482,482;,
  4;450,450,450,450;,
  4;489,489,484,484;,
  4;451,451,451,451;,
  4;514,514,513,513;,
  4;515,515,515,515;,
  4;485,485,485,485;,
  4;516,516,486,486;,
  4;487,487,517,517;,
  4;450,450,450,450;,
  4;518,519,519,518;,
  4;450,450,450,450;,
  4;488,487,487,488;,
  4;451,519,519,451;,
  4;520,486,486,520;,
  4;450,450,450,450;,
  4;489,488,488,489;,
  4;451,451,451,451;,
  4;514,520,520,514;,
  4;521,521,521,521;,
  4;490,490,490,490;,
  4;522,491,491,522;,
  4;492,523,523,492;,
  4;450,450,450,450;,
  4;524,524,525,525;,
  4;450,450,450,450;,
  4;493,493,492,492;,
  4;451,451,525,525;,
  4;526,526,491,491;,
  4;450,450,450,450;,
  4;498,498,493,493;,
  4;451,451,451,451;,
  4;527,527,526,526;,
  4;528,528,528,528;,
  4;494,494,494,494;,
  4;529,529,495,495;,
  4;496,496,530,530;,
  4;450,450,450,450;,
  4;531,532,532,531;,
  4;450,450,450,450;,
  4;497,496,496,497;,
  4;451,532,532,451;,
  4;533,495,495,533;,
  4;450,450,450,450;,
  4;498,497,497,498;,
  4;451,451,451,451;,
  4;527,533,533,527;,
  4;534,534,534,534;,
  4;535,535,535,535;,
  4;536,536,536,536;,
  4;537,537,537,537;,
  4;585,585,585,585;,
  4;539,539,539,539;,
  4;552,552,552,552;,
  4;535,535,535,535;,
  4;538,538,538,538;,
  4;537,537,537,537;,
  4;586,586,586,586;,
  4;539,539,539,539;,
  4;552,552,552,552;,
  4;549,549,549,549;,
  4;539,539,539,539;,
  4;550,550,550,550;,
  4;551,551,551,551;,
  4;552,552,552,552;,
  4;587,587,587,587;,
  3;548,548,548;,
  3;548,548,548;,
  3;548,548,548;,
  3;548,548,548;,
  3;548,548,548;,
  3;548,548,548;,
  3;553,553,553;,
  3;553,553,553;,
  3;553,553,553;,
  3;553,553,553;,
  3;553,553,553;,
  3;553,553,553;,
  4;539,539,539,539;,
  4;559,588,588,541;,
  4;589,558,540,590;,
  4;535,535,535,535;,
  4;543,560,542,543;,
  4;546,545,545,544;,
  4;539,539,539,539;,
  4;535,535,535,535;,
  4;558,561,554,540;,
  4;562,559,541,555;,
  4;591,591,535,535;,
  4;545,564,557,545;,
  4;563,543,543,556;,
  4;591,591,535,535;,
  4;567,567,591,591;,
  4;553,553,562,555;,
  4;565,565,565,565;,
  4;548,548,554,561;,
  4;552,552,565,565;,
  4;567,567,591,591;,
  4;553,553,563,556;,
  4;566,566,566,566;,
  4;548,548,557,564;,
  4;552,552,566,566;,
  4;539,539,539,539;,
  4;569,592,593,540;,
  4;588,568,541,588;,
  4;537,537,537,537;,
  4;545,570,546,545;,
  4;547,543,543,547;,
  4;539,539,539,539;,
  4;537,537,537,537;,
  4;568,571,555,541;,
  4;572,569,540,554;,
  4;594,594,537,537;,
  4;543,563,556,543;,
  4;564,545,545,557;,
  4;595,595,537,537;,
  4;575,575,594,594;,
  4;548,548,572,554;,
  4;573,573,573,573;,
  4;553,553,555,571;,
  4;552,552,573,573;,
  4;576,576,595,595;,
  4;548,548,564,557;,
  4;574,574,574,574;,
  4;553,553,556,563;,
  4;552,552,574,574;,
  4;577,577,539,539;,
  4;596,544,545,545;,
  4;597,543,543,542;,
  4;545,545,557,578;,
  4;543,579,556,543;,
  4;552,566,566,552;,
  4;580,580,539,539;,
  4;598,590,540,540;,
  4;599,541,541,588;,
  4;540,540,554,581;,
  4;541,582,555,541;,
  4;552,565,565,552;,
  4;583,539,539,583;,
  4;596,596,545,545;,
  4;596,545,545,546;,
  4;600,547,543,543;,
  4;600,543,543,597;,
  4;545,545,578,578;,
  4;545,578,557,545;,
  4;543,543,556,579;,
  4;543,579,579,543;,
  4;552,552,552,552;,
  4;552,552,574,574;,
  4;584,539,539,584;,
  4;598,598,540,540;,
  4;598,540,540,593;,
  4;599,588,541,541;,
  4;599,541,541,599;,
  4;540,540,581,581;,
  4;540,581,554,540;,
  4;541,541,555,582;,
  4;541,582,582,541;,
  4;552,552,552,552;,
  4;552,552,573,573;,
  4;583,583,583,583;,
  4;553,553,600,597;,
  4;577,577,577,577;,
  4;548,548,596,596;,
  4;583,583,577,577;,
  4;584,584,584,584;,
  4;553,553,599,599;,
  4;580,580,580,580;,
  4;548,548,598,598;,
  4;584,584,580,580;,
  4;601,601,602,602;,
  4;603,603,604,604;,
  4;605,605,606,606;,
  4;611,611,612,612;,
  4;613,613,613,613;,
  4;609,610,605,605;,
  4;608,609,603,603;,
  4;607,608,601,601;,
  4;610,607,611,611;,
  4;614,614,614,614;;
 }
}
