xof 0302txt 0064
template Header {
 <3D82AB43-62DA-11cf-AB39-0020AF71E433>
 WORD major;
 WORD minor;
 DWORD flags;
}

template Vector {
 <3D82AB5E-62DA-11cf-AB39-0020AF71E433>
 FLOAT x;
 FLOAT y;
 FLOAT z;
}

template Coords2d {
 <F6F23F44-7686-11cf-8F52-0040333594A3>
 FLOAT u;
 FLOAT v;
}

template Matrix4x4 {
 <F6F23F45-7686-11cf-8F52-0040333594A3>
 array FLOAT matrix[16];
}

template ColorRGBA {
 <35FF44E0-6C7C-11cf-8F52-0040333594A3>
 FLOAT red;
 FLOAT green;
 FLOAT blue;
 FLOAT alpha;
}

template ColorRGB {
 <D3E16E81-7835-11cf-8F52-0040333594A3>
 FLOAT red;
 FLOAT green;
 FLOAT blue;
}

template IndexedColor {
 <1630B820-7842-11cf-8F52-0040333594A3>
 DWORD index;
 ColorRGBA indexColor;
}

template Boolean {
 <4885AE61-78E8-11cf-8F52-0040333594A3>
 WORD truefalse;
}

template Boolean2d {
 <4885AE63-78E8-11cf-8F52-0040333594A3>
 Boolean u;
 Boolean v;
}

template MaterialWrap {
 <4885AE60-78E8-11cf-8F52-0040333594A3>
 Boolean u;
 Boolean v;
}

template TextureFilename {
 <A42790E1-7810-11cf-8F52-0040333594A3>
 STRING filename;
}

template Material {
 <3D82AB4D-62DA-11cf-AB39-0020AF71E433>
 ColorRGBA faceColor;
 FLOAT power;
 ColorRGB specularColor;
 ColorRGB emissiveColor;
 [...]
}

template MeshFace {
 <3D82AB5F-62DA-11cf-AB39-0020AF71E433>
 DWORD nFaceVertexIndices;
 array DWORD faceVertexIndices[nFaceVertexIndices];
}

template MeshFaceWraps {
 <4885AE62-78E8-11cf-8F52-0040333594A3>
 DWORD nFaceWrapValues;
 Boolean2d faceWrapValues;
}

template MeshTextureCoords {
 <F6F23F40-7686-11cf-8F52-0040333594A3>
 DWORD nTextureCoords;
 array Coords2d textureCoords[nTextureCoords];
}

template MeshMaterialList {
 <F6F23F42-7686-11cf-8F52-0040333594A3>
 DWORD nMaterials;
 DWORD nFaceIndexes;
 array DWORD faceIndexes[nFaceIndexes];
 [Material]
}

template MeshNormals {
 <F6F23F43-7686-11cf-8F52-0040333594A3>
 DWORD nNormals;
 array Vector normals[nNormals];
 DWORD nFaceNormals;
 array MeshFace faceNormals[nFaceNormals];
}

template MeshVertexColors {
 <1630B821-7842-11cf-8F52-0040333594A3>
 DWORD nVertexColors;
 array IndexedColor vertexColors[nVertexColors];
}

template Mesh {
 <3D82AB44-62DA-11cf-AB39-0020AF71E433>
 DWORD nVertices;
 array Vector vertices[nVertices];
 DWORD nFaces;
 array MeshFace faces[nFaces];
 [...]
}

Header{
1;
0;
1;
}

Mesh {
 460;
 0.00000;2.67528;-15.37456;,
 10.62035;3.77672;-11.11559;,
 10.62035;-2.04139;-9.61092;,
 0.00000;-3.14284;-13.86989;,
 15.01944;6.43584;-0.83352;,
 15.01944;0.61772;0.67115;,
 10.62035;9.09497;9.44854;,
 10.62035;3.27685;10.95320;,
 0.00000;10.19641;13.70750;,
 0.00000;4.37830;15.21217;,
 -10.62035;9.09497;9.44854;,
 -10.62035;3.27685;10.95320;,
 -15.01944;6.43584;-0.83352;,
 -15.01944;0.61772;0.67115;,
 -10.62035;3.77672;-11.11559;,
 -10.62035;-2.04139;-9.61092;,
 0.00000;6.04241;-12.11894;,
 7.79548;6.85088;-8.99280;,
 0.00000;8.80272;-1.44564;,
 11.02446;8.80272;-1.44564;,
 7.79548;10.75454;6.10153;,
 0.00000;11.56302;9.22766;,
 -7.79548;10.75454;6.10152;,
 -11.02446;8.80272;-1.44564;,
 -7.79548;6.85088;-8.99280;,
 9.37534;-2.57309;-8.18744;,
 0.00000;-3.54541;-11.94714;,
 13.25873;-0.22570;0.88927;,
 9.37534;2.12171;9.96598;,
 0.00000;3.09403;13.72567;,
 -9.37535;2.12171;9.96598;,
 -13.25873;-0.22570;0.88927;,
 -9.37534;-2.57309;-8.18744;,
 10.56751;-3.60020;-9.15320;,
 0.00000;-4.69616;-13.39098;,
 14.94470;-0.95430;1.07770;,
 10.56751;1.69159;11.30861;,
 0.00000;2.78755;15.54637;,
 -10.56751;1.69159;11.30861;,
 -14.94470;-0.95430;1.07770;,
 -10.56751;-3.60020;-9.15320;,
 10.56751;-6.67984;-8.35675;,
 0.00000;-7.77580;-12.59453;,
 0.00000;-4.03394;1.87415;,
 14.94470;-4.03394;1.87415;,
 10.56751;-1.38805;12.10506;,
 0.00000;-0.29209;16.34282;,
 -10.56751;-1.38805;12.10505;,
 -14.94470;-4.03394;1.87415;,
 -10.56751;-6.67984;-8.35675;,
 -5.79343;10.45340;-1.62977;,
 5.79343;10.45340;-1.62977;,
 3.71669;8.15868;-10.50278;,
 -3.71669;8.15868;-10.50278;,
 -4.93880;5.58276;-9.83660;,
 4.93880;5.58276;-9.83660;,
 7.14349;7.87747;-0.96359;,
 -7.14349;7.87747;-0.96359;,
 2.70102;6.41556;-12.68180;,
 -2.70102;6.41556;-12.68180;,
 -3.34710;3.83964;-12.01562;,
 3.34710;3.83964;-12.01562;,
 2.44459;4.71648;-14.05811;,
 -2.44459;4.71648;-14.05811;,
 -2.81098;2.14056;-13.39193;,
 2.81098;2.14056;-13.39193;,
 7.66232;5.18616;-10.28570;,
 9.91403;7.77913;-1.34388;,
 6.66364;8.02495;-11.01986;,
 8.62184;10.35505;-2.01006;,
 -9.91403;7.77913;-1.34388;,
 -7.66232;5.18616;-10.28570;,
 -8.62184;10.35505;-2.01006;,
 -6.66364;8.02495;-11.01986;,
 5.66345;3.66328;-12.69756;,
 5.66345;6.23921;-13.36373;,
 -5.66345;3.66328;-12.69756;,
 -5.66345;6.23921;-13.36373;,
 6.61555;8.70916;-11.34266;,
 8.62184;11.10292;-2.20348;,
 6.21242;11.20127;-1.82318;,
 4.24702;8.84288;-10.82558;,
 -8.62184;11.10292;-2.20348;,
 -6.61555;8.70916;-11.34266;,
 -4.24702;8.84288;-10.82558;,
 -6.21242;11.20127;-1.82318;,
 5.51824;6.76074;-13.90158;,
 3.20189;6.93710;-13.21964;,
 -5.51824;6.76074;-13.90158;,
 -3.20189;6.93710;-13.21964;,
 -6.34012;11.14812;7.63258;,
 6.34012;11.14812;7.63258;,
 7.61508;8.63398;8.29432;,
 -7.61508;8.63398;8.29432;,
 9.44188;11.02625;7.23665;,
 10.85720;8.55037;7.87835;,
 -10.85720;8.55037;7.87835;,
 -9.44188;11.02625;7.23665;,
 7.03223;11.77244;7.44802;,
 9.44166;11.67408;7.06772;,
 -9.44166;11.67408;7.06772;,
 -7.03223;11.77244;7.44802;,
 5.19138;1.00867;-16.36534;,
 7.47145;3.41254;-12.23112;,
 7.47145;-6.00842;-9.79470;,
 5.19138;-7.54576;-14.15302;,
 -7.47145;3.41254;-12.23112;,
 -7.47145;-6.00842;-9.79470;,
 -5.19138;1.00867;-16.36534;,
 -5.19138;-7.54576;-14.15302;,
 3.16841;-0.82369;-18.18938;,
 -3.16841;-0.82369;-18.18938;,
 3.16841;-8.93542;-16.09156;,
 -3.16841;-8.93542;-16.09156;,
 -11.28072;4.96433;-6.75655;,
 -11.28072;0.42756;-6.75655;,
 -8.44152;0.42756;-10.88761;,
 -8.44152;4.96433;-10.88761;,
 -14.93537;4.45487;-14.66770;,
 -17.13691;4.45487;-11.46443;,
 -28.16636;4.45487;-23.76109;,
 -30.36789;4.45487;-20.55784;,
 -14.93537;0.93701;-14.66770;,
 -28.16636;0.93701;-23.76109;,
 -17.13691;0.93701;-11.46443;,
 -30.36789;0.93701;-20.55784;,
 -33.12230;4.90846;-21.59634;,
 -30.12297;4.90846;-25.96038;,
 -33.12230;0.48342;-21.59634;,
 -30.12297;0.48342;-25.96038;,
 -38.06144;4.90846;-24.99094;,
 -35.06215;4.90846;-29.35496;,
 -38.06144;0.48342;-24.99094;,
 -35.06215;0.48342;-29.35496;,
 -35.22128;7.46008;-31.13614;,
 -35.22128;-1.27013;-31.13614;,
 -39.23431;-1.27013;-31.45196;,
 -39.23431;7.46008;-31.45196;,
 -41.51435;-1.27013;-28.13449;,
 -41.51435;7.46008;-28.13449;,
 -39.78134;-1.27013;-24.50119;,
 -39.78134;7.46008;-24.50119;,
 -35.76830;-1.27013;-24.18536;,
 -35.76830;7.46008;-24.18536;,
 -33.48828;-1.27013;-27.50282;,
 -33.48828;7.46008;-27.50282;,
 -38.46338;-1.53563;-29.83567;,
 -36.23557;-1.53563;-29.66033;,
 -39.72912;-1.53563;-27.99399;,
 -38.76706;-1.53563;-25.97700;,
 -36.53927;-1.53563;-25.80167;,
 -35.27351;-1.53563;-27.64333;,
 -38.36771;-7.14192;-29.63509;,
 -36.36144;-7.14192;-29.47719;,
 -37.50132;-7.14192;-27.81866;,
 -39.50759;-7.14192;-27.97656;,
 -38.64119;-7.14192;-26.16013;,
 -36.63492;-7.14192;-26.00225;,
 -35.49504;-7.14192;-27.66076;,
 -36.22925;8.74934;-29.66954;,
 -38.46818;8.74934;-29.84575;,
 -37.50132;8.74934;-27.81866;,
 -39.74027;8.74934;-27.99487;,
 -38.77338;8.74934;-25.96780;,
 -36.53445;8.74934;-25.79157;,
 -35.26238;8.74934;-27.64247;,
 11.28072;4.96433;6.75655;,
 11.28072;0.42756;6.75655;,
 8.44152;0.42756;10.88761;,
 8.44152;4.96433;10.88761;,
 14.93537;4.45487;14.66770;,
 17.13691;4.45487;11.46443;,
 28.16636;4.45487;23.76109;,
 30.36789;4.45487;20.55784;,
 14.93537;0.93701;14.66770;,
 28.16636;0.93701;23.76109;,
 17.13691;0.93701;11.46443;,
 30.36789;0.93701;20.55784;,
 33.12230;4.90846;21.59634;,
 30.12297;4.90846;25.96038;,
 33.12230;0.48342;21.59634;,
 30.12297;0.48342;25.96038;,
 38.06144;4.90846;24.99094;,
 35.06215;4.90846;29.35496;,
 38.06144;0.48342;24.99094;,
 35.06215;0.48342;29.35496;,
 35.22128;7.46008;31.13614;,
 35.22128;-1.27013;31.13614;,
 39.23431;-1.27013;31.45196;,
 39.23431;7.46008;31.45196;,
 41.51435;-1.27013;28.13449;,
 41.51435;7.46008;28.13449;,
 39.78134;-1.27013;24.50119;,
 39.78134;7.46008;24.50119;,
 35.76830;-1.27013;24.18536;,
 35.76830;7.46008;24.18536;,
 33.48828;-1.27013;27.50282;,
 33.48828;7.46008;27.50282;,
 38.46338;-1.53563;29.83567;,
 36.23557;-1.53563;29.66033;,
 39.72912;-1.53563;27.99399;,
 38.76706;-1.53563;25.97700;,
 36.53927;-1.53563;25.80167;,
 35.27351;-1.53563;27.64333;,
 38.36771;-7.14192;29.63509;,
 36.36144;-7.14192;29.47719;,
 37.50132;-7.14192;27.81866;,
 39.50759;-7.14192;27.97656;,
 38.64119;-7.14192;26.16013;,
 36.63492;-7.14192;26.00225;,
 35.49504;-7.14192;27.66076;,
 36.22925;8.74934;29.66954;,
 38.46818;8.74934;29.84575;,
 37.50132;8.74934;27.81866;,
 39.74027;8.74934;27.99487;,
 38.77338;8.74934;25.96780;,
 36.53445;8.74934;25.79157;,
 35.26238;8.74934;27.64247;,
 -11.28072;4.96433;6.75655;,
 -8.44152;4.96433;10.88761;,
 -8.44152;0.42756;10.88761;,
 -11.28072;0.42756;6.75655;,
 -14.93537;4.45487;14.66770;,
 -17.13691;4.45487;11.46443;,
 -30.36789;4.45487;20.55784;,
 -28.16636;4.45487;23.76109;,
 -28.16636;0.93701;23.76109;,
 -14.93537;0.93701;14.66770;,
 -17.13691;0.93701;11.46443;,
 -30.36789;0.93701;20.55784;,
 -33.12230;4.90846;21.59634;,
 -30.12297;4.90846;25.96038;,
 -33.12230;0.48342;21.59634;,
 -30.12297;0.48342;25.96038;,
 -38.06144;4.90846;24.99094;,
 -35.06215;4.90846;29.35496;,
 -38.06144;0.48342;24.99094;,
 -35.06215;0.48342;29.35496;,
 -35.22128;7.46008;31.13614;,
 -39.23431;7.46008;31.45196;,
 -39.23431;-1.27013;31.45196;,
 -35.22128;-1.27013;31.13614;,
 -41.51435;7.46008;28.13449;,
 -41.51435;-1.27013;28.13449;,
 -39.78134;7.46008;24.50119;,
 -39.78134;-1.27013;24.50119;,
 -35.76830;7.46008;24.18536;,
 -35.76830;-1.27013;24.18536;,
 -33.48828;7.46008;27.50282;,
 -33.48828;-1.27013;27.50282;,
 -38.46338;-1.53563;29.83567;,
 -36.23557;-1.53563;29.66033;,
 -39.72912;-1.53563;27.99399;,
 -38.76706;-1.53563;25.97700;,
 -36.53927;-1.53563;25.80167;,
 -35.27351;-1.53563;27.64333;,
 -38.36771;-7.14192;29.63509;,
 -36.36144;-7.14192;29.47719;,
 -37.50132;-7.14192;27.81866;,
 -39.50759;-7.14192;27.97656;,
 -38.64119;-7.14192;26.16013;,
 -36.63492;-7.14192;26.00225;,
 -35.49504;-7.14192;27.66076;,
 -36.22925;8.74934;29.66954;,
 -38.46818;8.74934;29.84575;,
 -37.50132;8.74934;27.81866;,
 -39.74027;8.74934;27.99487;,
 -38.77338;8.74934;25.96780;,
 -36.53445;8.74934;25.79157;,
 -35.26238;8.74934;27.64247;,
 11.28072;4.96433;-6.75655;,
 8.44152;4.96433;-10.88761;,
 8.44152;0.42756;-10.88761;,
 11.28072;0.42756;-6.75655;,
 14.93537;4.45487;-14.66770;,
 17.13691;4.45487;-11.46443;,
 30.36789;4.45487;-20.55784;,
 28.16636;4.45487;-23.76109;,
 28.16636;0.93701;-23.76109;,
 14.93537;0.93701;-14.66770;,
 17.13691;0.93701;-11.46443;,
 30.36789;0.93701;-20.55784;,
 33.12230;4.90846;-21.59634;,
 30.12297;4.90846;-25.96038;,
 33.12230;0.48342;-21.59634;,
 30.12297;0.48342;-25.96038;,
 38.06144;4.90846;-24.99094;,
 35.06215;4.90846;-29.35496;,
 38.06144;0.48342;-24.99094;,
 35.06215;0.48342;-29.35496;,
 35.22128;7.46008;-31.13614;,
 39.23431;7.46008;-31.45196;,
 39.23431;-1.27013;-31.45196;,
 35.22128;-1.27013;-31.13614;,
 41.51435;7.46008;-28.13449;,
 41.51435;-1.27013;-28.13449;,
 39.78134;7.46008;-24.50119;,
 39.78134;-1.27013;-24.50119;,
 35.76830;7.46008;-24.18536;,
 35.76830;-1.27013;-24.18536;,
 33.48828;7.46008;-27.50282;,
 33.48828;-1.27013;-27.50282;,
 38.46338;-1.53563;-29.83567;,
 36.23557;-1.53563;-29.66033;,
 39.72912;-1.53563;-27.99399;,
 38.76706;-1.53563;-25.97700;,
 36.53927;-1.53563;-25.80167;,
 35.27351;-1.53563;-27.64333;,
 38.36771;-7.14192;-29.63509;,
 36.36144;-7.14192;-29.47719;,
 37.50132;-7.14192;-27.81866;,
 39.50759;-7.14192;-27.97656;,
 38.64119;-7.14192;-26.16013;,
 36.63492;-7.14192;-26.00225;,
 35.49504;-7.14192;-27.66076;,
 36.22925;8.74934;-29.66954;,
 38.46818;8.74934;-29.84575;,
 37.50132;8.74934;-27.81866;,
 39.74027;8.74934;-27.99487;,
 38.77338;8.74934;-25.96780;,
 36.53445;8.74934;-25.79157;,
 35.26238;8.74934;-27.64247;,
 7.74898;-2.12419;-0.79928;,
 9.92836;-2.12419;-0.79928;,
 13.09064;-16.74452;-0.79928;,
 10.91125;-16.74452;-0.79928;,
 9.92836;-2.12419;1.38010;,
 13.09064;-16.74452;1.38010;,
 7.74898;-2.12419;1.38010;,
 10.91125;-16.74452;1.38010;,
 -7.74898;-2.12419;-0.79928;,
 -10.91125;-16.74452;-0.79928;,
 -13.09064;-16.74452;-0.79928;,
 -9.92836;-2.12419;-0.79928;,
 -13.09064;-16.74452;1.38010;,
 -9.92836;-2.12419;1.38010;,
 -10.91125;-16.74452;1.38010;,
 -7.74898;-2.12419;1.38010;,
 -11.19067;-15.61784;-0.25810;,
 -11.19067;-15.08072;0.05201;,
 11.19067;-15.08072;0.05201;,
 11.19067;-15.61784;-0.25810;,
 -11.19067;-15.08072;0.67222;,
 11.19067;-15.08072;0.67222;,
 -11.19067;-15.61784;0.98233;,
 11.19067;-15.61784;0.98233;,
 -11.19067;-16.15496;0.67222;,
 11.19067;-16.15496;0.67222;,
 -11.19067;-16.15496;0.05201;,
 11.19067;-16.15496;0.05201;,
 -11.19067;-15.61784;0.36211;,
 11.19067;-15.61784;0.36211;,
 13.35067;-15.69180;-18.65820;,
 10.62290;-15.69180;-18.65820;,
 10.62290;-15.69180;-17.09900;,
 13.35067;-15.69180;-17.09900;,
 13.49374;-17.13733;-18.65820;,
 13.49374;-17.13733;-17.09900;,
 10.47983;-17.13733;-18.65820;,
 10.47983;-17.13733;-17.09900;,
 -10.47983;-17.13733;-18.65820;,
 -10.74001;-15.69180;-18.65820;,
 -10.74001;-15.69180;-17.09900;,
 -10.47983;-17.13733;-17.09900;,
 -13.23356;-15.69180;-18.65820;,
 -13.49374;-17.13733;-18.65820;,
 -13.49374;-17.13733;-17.09900;,
 -13.23356;-15.69180;-17.09900;,
 10.15626;-17.93564;-18.65820;,
 10.15626;-17.93564;-17.09900;,
 13.81730;-17.93564;-18.65820;,
 13.81730;-17.93564;-17.09900;,
 -13.86353;-17.93564;-18.65820;,
 -13.86353;-17.93564;-17.09900;,
 -10.11004;-17.93564;-18.65820;,
 -10.11004;-17.93564;-17.09900;,
 13.81730;-19.37010;-19.67046;,
 10.15626;-19.37010;-19.67046;,
 13.81730;-19.37010;-18.11128;,
 10.15626;-19.37010;-18.11128;,
 -10.11004;-19.37010;-19.67046;,
 -13.86353;-19.37010;-19.67046;,
 -10.11004;-19.37010;-18.11128;,
 -13.86353;-19.37010;-18.11128;,
 10.62290;-15.69180;18.72056;,
 13.35067;-15.69180;18.72056;,
 13.35067;-15.69180;17.09900;,
 10.62290;-15.69180;17.09900;,
 10.47983;-17.13733;18.72056;,
 10.47983;-17.13733;17.09900;,
 13.49374;-17.13733;18.72056;,
 13.49374;-17.13733;17.09900;,
 -13.49374;-17.13733;18.72056;,
 -13.23356;-15.69180;18.72056;,
 -13.23356;-15.69180;17.09900;,
 -13.49374;-17.13733;17.09900;,
 -10.74001;-15.69180;18.72056;,
 -10.47983;-17.13733;18.72056;,
 -10.47983;-17.13733;17.09900;,
 -10.74001;-15.69180;17.09900;,
 13.81730;-17.93564;18.72056;,
 13.81730;-17.93564;17.09900;,
 10.15626;-17.93564;18.72056;,
 10.15626;-17.93564;17.09900;,
 -10.11004;-17.93564;18.72056;,
 -10.11004;-17.93564;17.09900;,
 -13.86353;-17.93564;18.72056;,
 -13.86353;-17.93564;17.09900;,
 10.15626;-19.24573;19.71792;,
 13.81730;-19.24573;19.71792;,
 10.15626;-19.24573;18.09636;,
 13.81730;-19.24573;18.09636;,
 -13.86353;-19.24573;19.71792;,
 -10.11004;-19.24573;19.71792;,
 -13.86353;-19.24573;18.09636;,
 -10.11004;-19.24573;18.09636;,
 -13.23356;-15.69180;-2.54934;,
 -10.74001;-15.69180;-2.54934;,
 -13.49374;-17.13733;-2.54934;,
 -10.47983;-17.13733;-2.54934;,
 -13.86353;-17.93564;-2.54934;,
 -10.11004;-17.93564;-2.54934;,
 10.62290;-15.69180;-2.47102;,
 13.35067;-15.69180;-2.47102;,
 10.47983;-17.13733;-2.47102;,
 13.49374;-17.13733;-2.47102;,
 10.15626;-17.93564;-2.47102;,
 13.81730;-17.93564;-2.47102;,
 -13.23356;-15.69180;2.29298;,
 -10.74001;-15.69180;2.29298;,
 -13.49374;-17.13733;2.29298;,
 -10.47983;-17.13733;2.29298;,
 -13.86353;-17.93564;2.29298;,
 -10.11004;-17.93564;2.29298;,
 10.62290;-15.69180;2.58229;,
 13.35067;-15.69180;2.58229;,
 10.47983;-17.13733;2.58229;,
 13.49374;-17.13733;2.58229;,
 10.15626;-17.93564;2.58229;,
 13.81730;-17.93564;2.58229;,
 -10.74001;-15.30176;1.66031;,
 -13.23356;-15.30176;1.66031;,
 -10.74001;-15.30176;-1.44622;,
 -13.23356;-15.30176;-1.44622;,
 13.35067;-15.30176;1.84591;,
 10.62290;-15.30176;1.84591;,
 13.35067;-15.30176;-1.39596;,
 10.62290;-15.30176;-1.39596;,
 -5.14526;-7.20032;-4.95083;,
 5.03164;-7.27115;-5.05328;,
 5.02487;-8.82103;-4.65402;,
 -5.15203;-8.75021;-4.55155;,
 5.14853;-3.37127;8.45924;,
 5.14176;-4.92114;8.85848;,
 -5.02838;-3.30043;8.56170;,
 -5.03514;-4.85032;8.96095;,
 7.41580;-1.28797;10.20392;,
 -7.23085;-1.18603;10.35138;,
 7.24757;-6.30266;-7.63714;,
 -7.39908;-6.20074;-7.48967;;
 
 468;
 4;0,1,2,3;,
 4;1,4,5,2;,
 4;4,6,7,5;,
 4;6,8,9,7;,
 4;8,10,11,9;,
 4;10,12,13,11;,
 4;12,14,15,13;,
 4;14,0,3,15;,
 4;16,17,1,0;,
 3;18,17,16;,
 4;17,19,4,1;,
 3;18,19,17;,
 4;19,20,6,4;,
 3;18,20,19;,
 4;20,21,8,6;,
 3;18,21,20;,
 4;21,22,10,8;,
 3;18,22,21;,
 4;22,23,12,10;,
 3;18,23,22;,
 4;23,24,14,12;,
 3;18,24,23;,
 4;24,16,0,14;,
 3;18,16,24;,
 4;25,26,3,2;,
 4;27,25,2,5;,
 4;28,27,5,7;,
 4;29,28,7,9;,
 4;30,29,9,11;,
 4;31,30,11,13;,
 4;32,31,13,15;,
 4;26,32,15,3;,
 4;33,34,26,25;,
 4;35,33,25,27;,
 4;36,35,27,28;,
 4;37,36,28,29;,
 4;38,37,29,30;,
 4;39,38,30,31;,
 4;40,39,31,32;,
 4;34,40,32,26;,
 4;41,42,34,33;,
 3;43,42,41;,
 4;44,41,33,35;,
 3;43,41,44;,
 4;45,44,35,36;,
 3;43,44,45;,
 4;46,45,36,37;,
 3;43,45,46;,
 4;47,46,37,38;,
 3;43,46,47;,
 4;48,47,38,39;,
 3;43,47,48;,
 4;49,48,39,40;,
 3;43,48,49;,
 4;42,49,40,34;,
 3;43,49,42;,
 4;50,51,52,53;,
 4;54,55,56,57;,
 4;58,59,53,52;,
 4;60,61,55,54;,
 4;62,63,59,58;,
 4;64,65,61,60;,
 4;63,62,65,64;,
 4;66,67,56,55;,
 4;68,69,67,66;,
 4;70,71,54,57;,
 4;72,73,71,70;,
 4;74,66,55,61;,
 4;74,75,68,66;,
 4;71,76,60,54;,
 4;77,76,71,73;,
 4;65,62,75,74;,
 4;63,64,76,77;,
 3;65,74,61;,
 3;64,60,76;,
 4;78,79,69,68;,
 4;80,81,52,51;,
 4;79,78,81,80;,
 4;82,83,73,72;,
 4;84,85,50,53;,
 4;83,82,85,84;,
 4;86,78,68,75;,
 4;81,87,58,52;,
 4;78,86,87,81;,
 4;83,88,77,73;,
 4;89,84,53,59;,
 4;88,83,84,89;,
 3;62,87,86;,
 3;63,88,89;,
 4;90,91,51,50;,
 4;92,93,57,56;,
 4;91,90,93,92;,
 4;94,95,67,69;,
 4;95,92,56,67;,
 4;95,94,91,92;,
 4;96,97,72,70;,
 4;93,96,70,57;,
 4;97,96,93,90;,
 4;98,99,79,80;,
 4;91,98,80,51;,
 4;99,94,69,79;,
 4;99,98,91,94;,
 4;100,101,85,82;,
 4;97,100,82,72;,
 4;101,90,50,85;,
 4;101,100,97,90;,
 3;62,58,87;,
 3;62,86,75;,
 3;63,77,88;,
 3;63,89,59;,
 4;102,103,104,105;,
 4;103,106,107,104;,
 4;106,108,109,107;,
 4;106,103,102,108;,
 4;109,105,104,107;,
 4;110,111,108,102;,
 4;112,110,102,105;,
 4;113,112,105,109;,
 4;111,113,109,108;,
 4;111,110,112,113;,
 4;114,115,116,117;,
 4;118,119,114,117;,
 4;118,120,121,119;,
 4;118,122,123,120;,
 4;118,117,116,122;,
 4;119,124,115,114;,
 4;119,121,125,124;,
 4;122,124,125,123;,
 4;122,116,115,124;,
 4;126,121,120,127;,
 4;128,125,121,126;,
 4;129,123,125,128;,
 4;127,120,123,129;,
 4;130,126,127,131;,
 4;132,128,126,130;,
 4;133,129,128,132;,
 4;131,127,129,133;,
 4;131,133,132,130;,
 4;134,135,136,137;,
 4;137,136,138,139;,
 4;139,138,140,141;,
 4;141,140,142,143;,
 4;143,142,144,145;,
 4;145,144,135,134;,
 4;146,136,135,147;,
 4;148,138,136,146;,
 4;149,140,138,148;,
 4;150,142,140,149;,
 4;151,144,142,150;,
 4;147,135,144,151;,
 4;152,146,147,153;,
 3;154,152,153;,
 4;155,148,146,152;,
 3;154,155,152;,
 4;156,149,148,155;,
 3;154,156,155;,
 4;157,150,149,156;,
 3;154,157,156;,
 4;158,151,150,157;,
 3;154,158,157;,
 4;153,147,151,158;,
 3;154,153,158;,
 4;159,134,137,160;,
 3;161,159,160;,
 4;160,137,139,162;,
 3;161,160,162;,
 4;162,139,141,163;,
 3;161,162,163;,
 4;163,141,143,164;,
 3;161,163,164;,
 4;164,143,145,165;,
 3;161,164,165;,
 4;165,145,134,159;,
 3;161,165,159;,
 4;166,167,168,169;,
 4;170,171,166,169;,
 4;170,172,173,171;,
 4;170,174,175,172;,
 4;170,169,168,174;,
 4;171,176,167,166;,
 4;171,173,177,176;,
 4;174,176,177,175;,
 4;174,168,167,176;,
 4;178,173,172,179;,
 4;180,177,173,178;,
 4;181,175,177,180;,
 4;179,172,175,181;,
 4;182,178,179,183;,
 4;184,180,178,182;,
 4;185,181,180,184;,
 4;183,179,181,185;,
 4;183,185,184,182;,
 4;186,187,188,189;,
 4;189,188,190,191;,
 4;191,190,192,193;,
 4;193,192,194,195;,
 4;195,194,196,197;,
 4;197,196,187,186;,
 4;198,188,187,199;,
 4;200,190,188,198;,
 4;201,192,190,200;,
 4;202,194,192,201;,
 4;203,196,194,202;,
 4;199,187,196,203;,
 4;204,198,199,205;,
 3;206,204,205;,
 4;207,200,198,204;,
 3;206,207,204;,
 4;208,201,200,207;,
 3;206,208,207;,
 4;209,202,201,208;,
 3;206,209,208;,
 4;210,203,202,209;,
 3;206,210,209;,
 4;205,199,203,210;,
 3;206,205,210;,
 4;211,186,189,212;,
 3;213,211,212;,
 4;212,189,191,214;,
 3;213,212,214;,
 4;214,191,193,215;,
 3;213,214,215;,
 4;215,193,195,216;,
 3;213,215,216;,
 4;216,195,197,217;,
 3;213,216,217;,
 4;217,197,186,211;,
 3;213,217,211;,
 4;218,219,220,221;,
 4;222,219,218,223;,
 4;222,223,224,225;,
 4;222,225,226,227;,
 4;222,227,220,219;,
 4;223,218,221,228;,
 4;223,228,229,224;,
 4;227,226,229,228;,
 4;227,228,221,220;,
 4;230,231,225,224;,
 4;232,230,224,229;,
 4;233,232,229,226;,
 4;231,233,226,225;,
 4;234,235,231,230;,
 4;236,234,230,232;,
 4;237,236,232,233;,
 4;235,237,233,231;,
 4;235,234,236,237;,
 4;238,239,240,241;,
 4;239,242,243,240;,
 4;242,244,245,243;,
 4;244,246,247,245;,
 4;246,248,249,247;,
 4;248,238,241,249;,
 4;250,251,241,240;,
 4;252,250,240,243;,
 4;253,252,243,245;,
 4;254,253,245,247;,
 4;255,254,247,249;,
 4;251,255,249,241;,
 4;256,257,251,250;,
 3;258,257,256;,
 4;259,256,250,252;,
 3;258,256,259;,
 4;260,259,252,253;,
 3;258,259,260;,
 4;261,260,253,254;,
 3;258,260,261;,
 4;262,261,254,255;,
 3;258,261,262;,
 4;257,262,255,251;,
 3;258,262,257;,
 4;263,264,239,238;,
 3;265,264,263;,
 4;264,266,242,239;,
 3;265,266,264;,
 4;266,267,244,242;,
 3;265,267,266;,
 4;267,268,246,244;,
 3;265,268,267;,
 4;268,269,248,246;,
 3;265,269,268;,
 4;269,263,238,248;,
 3;265,263,269;,
 4;270,271,272,273;,
 4;274,271,270,275;,
 4;274,275,276,277;,
 4;274,277,278,279;,
 4;274,279,272,271;,
 4;275,270,273,280;,
 4;275,280,281,276;,
 4;279,278,281,280;,
 4;279,280,273,272;,
 4;282,283,277,276;,
 4;284,282,276,281;,
 4;285,284,281,278;,
 4;283,285,278,277;,
 4;286,287,283,282;,
 4;288,286,282,284;,
 4;289,288,284,285;,
 4;287,289,285,283;,
 4;287,286,288,289;,
 4;290,291,292,293;,
 4;291,294,295,292;,
 4;294,296,297,295;,
 4;296,298,299,297;,
 4;298,300,301,299;,
 4;300,290,293,301;,
 4;302,303,293,292;,
 4;304,302,292,295;,
 4;305,304,295,297;,
 4;306,305,297,299;,
 4;307,306,299,301;,
 4;303,307,301,293;,
 4;308,309,303,302;,
 3;310,309,308;,
 4;311,308,302,304;,
 3;310,308,311;,
 4;312,311,304,305;,
 3;310,311,312;,
 4;313,312,305,306;,
 3;310,312,313;,
 4;314,313,306,307;,
 3;310,313,314;,
 4;309,314,307,303;,
 3;310,314,309;,
 4;315,316,291,290;,
 3;317,316,315;,
 4;316,318,294,291;,
 3;317,318,316;,
 4;318,319,296,294;,
 3;317,319,318;,
 4;319,320,298,296;,
 3;317,320,319;,
 4;320,321,300,298;,
 3;317,321,320;,
 4;321,315,290,300;,
 3;317,315,321;,
 4;322,323,324,325;,
 4;323,326,327,324;,
 4;326,328,329,327;,
 4;328,322,325,329;,
 4;328,326,323,322;,
 4;325,324,327,329;,
 4;330,331,332,333;,
 4;333,332,334,335;,
 4;335,334,336,337;,
 4;337,336,331,330;,
 4;337,330,333,335;,
 4;331,336,334,332;,
 4;338,339,340,341;,
 4;339,342,343,340;,
 4;342,344,345,343;,
 4;344,346,347,345;,
 4;346,348,349,347;,
 4;348,338,341,349;,
 3;350,339,338;,
 3;350,342,339;,
 3;350,344,342;,
 3;350,346,344;,
 3;350,348,346;,
 3;350,338,348;,
 3;351,341,340;,
 3;351,340,343;,
 3;351,343,345;,
 3;351,345,347;,
 3;351,347,349;,
 3;351,349,341;,
 4;352,353,354,355;,
 4;356,352,355,357;,
 4;353,358,359,354;,
 4;353,352,356,358;,
 4;360,361,362,363;,
 4;364,365,366,367;,
 4;361,364,367,362;,
 4;361,360,365,364;,
 4;358,368,369,359;,
 4;370,356,357,371;,
 4;370,368,358,356;,
 4;365,372,373,366;,
 4;374,360,363,375;,
 4;374,372,365,360;,
 4;376,377,368,370;,
 4;378,376,370,371;,
 4;379,378,371,369;,
 4;377,379,369,368;,
 4;377,376,378,379;,
 4;380,381,372,374;,
 4;382,380,374,375;,
 4;383,382,375,373;,
 4;381,383,373,372;,
 4;381,380,382,383;,
 4;384,385,386,387;,
 4;388,384,387,389;,
 4;385,390,391,386;,
 4;385,384,388,390;,
 4;392,393,394,395;,
 4;396,397,398,399;,
 4;393,396,399,394;,
 4;393,392,397,396;,
 4;390,400,401,391;,
 4;402,388,389,403;,
 4;402,400,390,388;,
 4;397,404,405,398;,
 4;406,392,395,407;,
 4;406,404,397,392;,
 4;408,409,400,402;,
 4;410,408,402,403;,
 4;411,410,403,401;,
 4;409,411,401,400;,
 4;409,408,410,411;,
 4;412,413,404,406;,
 4;414,412,406,407;,
 4;415,414,407,405;,
 4;413,415,405,404;,
 4;413,412,414,415;,
 4;416,417,362,367;,
 4;416,367,366,418;,
 4;417,419,363,362;,
 4;418,366,373,420;,
 4;419,421,375,363;,
 4;420,373,375,421;,
 4;422,423,355,354;,
 4;422,354,359,424;,
 4;423,425,357,355;,
 4;424,359,369,426;,
 4;425,427,371,357;,
 4;426,369,371,427;,
 4;428,394,399,429;,
 4;428,416,418,430;,
 4;428,430,395,394;,
 4;429,399,398,431;,
 4;429,431,419,417;,
 4;430,418,420,432;,
 4;430,432,407,395;,
 4;431,398,405,433;,
 4;431,433,421,419;,
 4;432,420,421,433;,
 4;432,433,405,407;,
 4;434,387,386,435;,
 4;434,422,424,436;,
 4;434,436,389,387;,
 4;435,386,391,437;,
 4;435,437,425,423;,
 4;436,424,426,438;,
 4;436,438,403,389;,
 4;437,391,401,439;,
 4;437,439,427,425;,
 4;438,426,427,439;,
 4;438,439,401,403;,
 4;440,441,428,429;,
 4;442,440,429,417;,
 4;443,442,417,416;,
 4;441,443,416,428;,
 4;441,440,442,443;,
 4;444,445,434,435;,
 4;446,444,435,423;,
 4;447,446,423,422;,
 4;445,447,422,434;,
 4;445,444,446,447;,
 4;448,449,450,451;,
 4;449,452,453,450;,
 4;452,454,455,453;,
 4;454,448,451,455;,
 4;451,450,453,455;,
 4;456,457,454,452;,
 4;458,456,452,449;,
 4;459,458,449,448;,
 4;457,459,448,454;,
 4;457,456,458,459;;
 
 MeshMaterialList {
  3;
  468;
  0,
  0,
  0,
  0,
  0,
  0,
  0,
  0,
  0,
  0,
  0,
  0,
  0,
  0,
  0,
  0,
  0,
  0,
  0,
  0,
  0,
  0,
  0,
  0,
  0,
  0,
  0,
  0,
  0,
  0,
  0,
  0,
  0,
  0,
  0,
  0,
  0,
  0,
  0,
  0,
  0,
  0,
  0,
  0,
  0,
  0,
  0,
  0,
  0,
  0,
  0,
  0,
  0,
  0,
  0,
  0,
  1,
  1,
  1,
  1,
  1,
  1,
  1,
  1,
  1,
  1,
  1,
  1,
  1,
  1,
  1,
  1,
  1,
  1,
  1,
  1,
  1,
  1,
  1,
  1,
  1,
  1,
  1,
  1,
  1,
  1,
  1,
  1,
  1,
  1,
  1,
  1,
  1,
  1,
  1,
  1,
  1,
  1,
  1,
  1,
  1,
  1,
  1,
  1,
  1,
  1,
  1,
  1,
  1,
  1,
  0,
  0,
  0,
  0,
  0,
  0,
  0,
  0,
  0,
  0,
  0,
  0,
  0,
  0,
  0,
  0,
  0,
  0,
  0,
  0,
  0,
  0,
  0,
  0,
  0,
  0,
  0,
  0,
  0,
  0,
  0,
  0,
  0,
  0,
  0,
  0,
  0,
  0,
  0,
  0,
  0,
  0,
  0,
  0,
  0,
  0,
  0,
  0,
  0,
  0,
  0,
  0,
  0,
  0,
  0,
  0,
  0,
  0,
  0,
  0,
  0,
  0,
  0,
  0,
  0,
  0,
  0,
  0,
  0,
  0,
  0,
  0,
  0,
  0,
  0,
  0,
  0,
  0,
  0,
  0,
  0,
  0,
  0,
  0,
  0,
  0,
  0,
  0,
  0,
  0,
  0,
  0,
  0,
  0,
  0,
  0,
  0,
  0,
  0,
  0,
  0,
  0,
  0,
  0,
  0,
  0,
  0,
  0,
  0,
  0,
  0,
  0,
  0,
  0,
  0,
  0,
  0,
  0,
  0,
  0,
  0,
  0,
  0,
  0,
  0,
  0,
  0,
  0,
  0,
  0,
  0,
  0,
  0,
  0,
  0,
  0,
  0,
  0,
  0,
  0,
  0,
  0,
  0,
  0,
  0,
  0,
  0,
  0,
  0,
  0,
  0,
  0,
  0,
  0,
  0,
  0,
  0,
  0,
  0,
  0,
  0,
  0,
  0,
  0,
  0,
  0,
  0,
  0,
  0,
  0,
  0,
  0,
  0,
  0,
  0,
  0,
  0,
  0,
  0,
  0,
  0,
  0,
  0,
  0,
  0,
  0,
  0,
  0,
  0,
  0,
  0,
  0,
  0,
  0,
  0,
  0,
  0,
  0,
  0,
  0,
  0,
  0,
  0,
  0,
  0,
  0,
  0,
  0,
  0,
  0,
  0,
  0,
  0,
  0,
  0,
  0,
  0,
  0,
  0,
  0,
  0,
  0,
  0,
  0,
  0,
  0,
  2,
  2,
  2,
  2,
  2,
  2,
  2,
  2,
  2,
  2,
  2,
  2,
  2,
  2,
  2,
  2,
  2,
  2,
  2,
  2,
  2,
  2,
  2,
  2,
  2,
  2,
  2,
  2,
  2,
  2,
  2,
  2,
  2,
  2,
  2,
  2,
  2,
  2,
  2,
  2,
  2,
  2,
  2,
  2,
  2,
  2,
  2,
  2,
  2,
  2,
  2,
  2,
  2,
  2,
  2,
  2,
  2,
  2,
  2,
  2,
  2,
  2,
  2,
  2,
  2,
  2,
  2,
  2,
  2,
  2,
  2,
  2,
  2,
  2,
  2,
  2,
  2,
  2,
  2,
  2,
  2,
  2,
  2,
  2,
  2,
  2,
  2,
  2,
  2,
  2,
  2,
  2,
  2,
  2,
  2,
  2,
  2,
  2,
  2,
  2,
  2,
  2,
  2,
  2,
  2,
  2,
  2,
  2,
  2,
  2,
  2,
  2,
  2,
  2,
  2,
  2,
  2,
  2,
  2,
  2,
  2,
  2,
  0,
  0,
  0,
  0,
  0,
  0,
  0,
  0,
  0,
  0;;
  Material {
   0.100000;0.109600;0.172800;1.000000;;
   15.000000;
   0.500000;0.500000;0.500000;;
   0.000000;0.000000;0.000000;;
  }
  Material {
   0.269600;0.269600;0.269600;1.000000;;
   23.000000;
   0.700000;0.700000;0.700000;;
   0.010110;0.010110;0.010110;;
  }
  Material {
   0.408000;0.408000;0.408000;1.000000;;
   89.000000;
   0.510000;0.510000;0.510000;;
   0.000000;0.000000;0.000000;;
  }
 }
 MeshNormals {
  435;
  0.000000;0.270126;-0.962825;,
  0.611310;0.333525;-0.717678;,
  0.864523;0.486584;-0.125839;,
  0.611310;0.639644;0.465999;,
  -0.000000;0.703044;0.711147;,
  -0.611310;0.639644;0.465999;,
  -0.864523;0.486584;-0.125839;,
  -0.611310;0.333525;-0.717678;,
  0.000000;-0.250380;-0.968148;,
  0.707107;-0.177046;-0.684584;,
  1.000000;0.000000;0.000000;,
  0.707107;0.177046;0.684584;,
  0.000000;0.250380;0.968148;,
  -0.707107;0.177046;0.684584;,
  -1.000000;0.000000;0.000000;,
  -0.707107;-0.177046;-0.684584;,
  0.000000;0.968148;-0.250380;,
  0.000000;0.865606;-0.500726;,
  0.189537;0.885263;-0.424718;,
  0.268046;0.932719;-0.241218;,
  0.189537;0.980176;-0.057717;,
  0.000000;0.999833;0.018291;,
  -0.189537;0.980176;-0.057718;,
  -0.268046;0.932719;-0.241218;,
  -0.189537;0.885263;-0.424718;,
  0.000000;-0.978776;-0.204931;,
  0.313580;-0.946255;-0.079179;,
  0.443468;-0.867741;0.224413;,
  0.313579;-0.789227;0.528005;,
  -0.000000;-0.756705;0.653757;,
  -0.313580;-0.789226;0.528005;,
  -0.443469;-0.867741;0.224413;,
  -0.313580;-0.946255;-0.079179;,
  0.000000;0.782009;-0.623267;,
  0.288226;0.811902;-0.507682;,
  0.407610;0.884070;-0.228637;,
  0.288224;0.956235;0.050408;,
  0.000000;0.986127;0.165993;,
  -0.288225;0.956235;0.050408;,
  -0.407611;0.884069;-0.228636;,
  -0.288226;0.811902;-0.507682;,
  0.000000;-0.250381;-0.968147;,
  0.707107;-0.177046;-0.684583;,
  1.000000;-0.000000;-0.000000;,
  0.707107;0.177046;0.684584;,
  -0.000000;0.250380;0.968148;,
  -0.707107;0.177044;0.684584;,
  -1.000000;-0.000001;0.000000;,
  -0.707107;-0.177046;-0.684583;,
  -0.000000;-0.968148;0.250380;,
  0.000000;-0.968148;0.250380;,
  -0.000000;-0.968148;0.250380;,
  0.000000;-0.968148;0.250380;,
  -0.000000;-0.968148;0.250380;,
  -0.000000;-0.968148;0.250380;,
  -0.000000;-0.968148;0.250380;,
  0.000000;-0.968148;0.250380;,
  0.000000;-0.968148;0.250380;,
  0.297721;0.879148;-0.372105;,
  0.001843;-0.899876;0.436142;,
  -0.297721;0.879148;-0.372105;,
  -0.001843;-0.899876;0.436142;,
  -0.452562;0.888503;-0.075832;,
  -0.016272;-0.984718;0.173395;,
  0.452562;0.888503;-0.075832;,
  0.016272;-0.984718;0.173395;,
  0.310220;0.684175;-0.660052;,
  -0.052057;-0.728875;0.682665;,
  -0.310220;0.684175;-0.660052;,
  0.052057;-0.728875;0.682665;,
  -0.934983;0.048652;-0.351339;,
  0.003669;-0.905243;0.424878;,
  0.934983;0.048652;-0.351339;,
  -0.003669;-0.905243;0.424878;,
  0.967335;0.177096;-0.181382;,
  -0.032557;-0.983087;0.180221;,
  -0.967335;0.177096;-0.181382;,
  0.032557;-0.983087;0.180221;,
  -0.691695;-0.241245;-0.680705;,
  -0.104136;-0.745931;0.657832;,
  0.691695;-0.241245;-0.680705;,
  0.104136;-0.745931;0.657832;,
  -0.084339;-0.643126;0.761101;,
  0.084339;-0.643126;0.761101;,
  0.488532;0.832865;-0.260141;,
  -0.488532;0.832865;-0.260141;,
  -0.445926;0.892010;-0.073954;,
  0.445926;0.892010;-0.073954;,
  0.549446;0.629389;-0.549527;,
  -0.549446;0.629389;-0.549527;,
  -0.960867;-0.064444;-0.269410;,
  0.960867;-0.064444;-0.269410;,
  0.988902;-0.031365;-0.145224;,
  -0.988902;-0.031365;-0.145224;,
  -0.744315;-0.369291;-0.556435;,
  0.744315;-0.369291;-0.556435;,
  -0.121306;-0.003308;-0.992610;,
  0.121306;-0.003308;-0.992610;,
  -0.432308;0.901120;-0.033042;,
  -0.009686;-0.996527;0.082703;,
  0.432308;0.901120;-0.033042;,
  0.009686;-0.996527;0.082703;,
  0.970224;0.217670;-0.106231;,
  0.887557;0.444922;-0.119532;,
  -0.970224;0.217670;-0.106231;,
  -0.887557;0.444922;-0.119532;,
  -0.418371;0.907865;-0.027337;,
  0.418371;0.907865;-0.027337;,
  0.030593;0.997471;-0.064156;,
  -0.030593;0.997471;-0.064156;,
  0.161942;-0.235978;-0.958170;,
  -0.161942;-0.235978;-0.958170;,
  0.901614;0.378451;-0.209445;,
  0.889325;0.162639;-0.427375;,
  -0.889325;0.162639;-0.427375;,
  -0.901614;0.378451;-0.209445;,
  0.617271;-0.108241;-0.779269;,
  -0.617271;-0.108241;-0.779269;,
  -0.826894;0.560873;0.040826;,
  0.015078;0.987088;-0.159470;,
  -0.049585;0.902889;-0.427004;,
  0.826894;0.560873;0.040826;,
  0.049585;0.902889;-0.427004;,
  -0.015078;0.987088;-0.159470;,
  -0.794198;0.596176;-0.117570;,
  -0.168216;0.629049;-0.758947;,
  0.794198;0.596176;-0.117570;,
  0.168216;0.629049;-0.758947;,
  0.092535;0.256751;0.962038;,
  -0.092535;0.256751;0.962038;,
  -0.065445;0.285950;0.956007;,
  0.065445;0.285950;0.956007;,
  -0.019370;-0.996281;0.083956;,
  0.130537;0.315820;0.939797;,
  0.138592;0.257031;0.956414;,
  0.019370;-0.996281;0.083956;,
  -0.138592;0.257031;0.956414;,
  -0.130537;0.315820;0.939797;,
  0.995984;-0.022349;-0.086699;,
  0.146120;0.197265;0.969400;,
  -0.995984;-0.022349;-0.086699;,
  -0.146120;0.197265;0.969400;,
  -0.830364;0.421007;-0.365033;,
  0.830364;0.421007;-0.365033;,
  -0.825976;-0.141140;-0.545750;,
  0.825976;-0.141140;-0.545750;,
  0.896144;-0.111109;-0.429629;,
  0.000000;0.250379;0.968148;,
  0.000000;0.261934;-0.965086;,
  0.000000;-0.812743;0.582622;,
  0.404499;-0.228982;-0.885408;,
  -0.896144;-0.111109;-0.429629;,
  0.000000;0.864484;-0.502660;,
  0.000000;0.791723;-0.610881;,
  0.000000;-0.886750;0.462250;,
  0.000000;-0.943051;0.332648;,
  0.739860;-0.168446;-0.651332;,
  -0.739860;-0.168446;-0.651332;,
  -0.404499;-0.228982;-0.885408;,
  0.824126;0.000000;0.566406;,
  0.064786;0.996905;0.044526;,
  0.661586;0.000000;-0.749870;,
  -0.462972;0.000000;0.886373;,
  -0.027969;0.999424;-0.019223;,
  0.535117;0.000000;-0.844778;,
  -0.596899;0.000000;0.802316;,
  0.064786;-0.996905;0.044526;,
  -0.462973;0.000000;0.886372;,
  0.000000;1.000000;0.000000;,
  0.000000;-1.000000;-0.000000;,
  -0.566408;0.000000;0.824125;,
  0.277394;0.601076;-0.749507;,
  -0.156731;0.601075;-0.783674;,
  -0.757046;0.601076;-0.256103;,
  -0.600315;0.601075;0.527571;,
  0.156729;0.601078;0.783671;,
  0.757045;0.601078;0.256102;,
  0.078458;0.000000;-0.996917;,
  -0.824126;0.000000;-0.566406;,
  -0.902584;0.000000;0.430513;,
  -0.078458;0.000000;0.996917;,
  0.824126;0.000000;0.566406;,
  0.083069;-0.989187;-0.120866;,
  -0.063139;-0.989187;-0.132373;,
  -0.146207;-0.989187;-0.011507;,
  -0.083068;-0.989187;0.120866;,
  0.063138;-0.989187;0.132372;,
  0.146206;-0.989187;0.011507;,
  0.078416;-0.034307;-0.996330;,
  -0.823642;-0.034308;-0.566071;,
  -0.902053;-0.034307;0.430260;,
  -0.078410;-0.034307;0.996331;,
  0.823637;-0.034305;0.566079;,
  0.169917;0.953942;-0.247231;,
  -0.129150;0.953942;-0.270768;,
  -0.299067;0.953942;-0.023537;,
  -0.169917;0.953942;0.247231;,
  0.129148;0.953943;0.270766;,
  0.299065;0.953942;0.023536;,
  -0.055906;0.997696;-0.038423;,
  0.503077;0.000000;-0.864242;,
  -0.626553;0.000000;0.779378;,
  -0.027968;-0.999424;-0.019222;,
  -0.055905;-0.997697;-0.038422;,
  0.661585;0.000000;-0.749870;,
  0.566404;0.000000;-0.824128;,
  -0.824128;0.000000;-0.566404;,
  0.902585;0.000000;-0.430512;,
  0.902053;-0.034307;-0.430260;,
  -0.824126;0.000000;-0.566406;,
  -0.064786;0.996905;-0.044526;,
  -0.661586;0.000000;0.749870;,
  0.462972;0.000000;-0.886373;,
  0.027969;0.999424;0.019223;,
  -0.535117;0.000000;0.844778;,
  0.596899;0.000000;-0.802316;,
  -0.064786;-0.996905;-0.044526;,
  0.462973;0.000000;-0.886372;,
  0.000000;1.000000;0.000000;,
  0.000000;-1.000000;0.000000;,
  0.566408;0.000000;-0.824125;,
  -0.277394;0.601076;0.749507;,
  0.156731;0.601075;0.783674;,
  0.757046;0.601076;0.256103;,
  0.600315;0.601075;-0.527571;,
  -0.156729;0.601078;-0.783671;,
  -0.757045;0.601078;-0.256102;,
  -0.078458;0.000000;0.996917;,
  0.824126;0.000000;0.566406;,
  0.902584;0.000000;-0.430513;,
  0.078458;0.000000;-0.996917;,
  -0.824126;0.000000;-0.566406;,
  -0.083069;-0.989187;0.120866;,
  0.063139;-0.989187;0.132373;,
  0.146207;-0.989187;0.011507;,
  0.083068;-0.989187;-0.120866;,
  -0.063138;-0.989187;-0.132372;,
  -0.146206;-0.989187;-0.011507;,
  -0.078416;-0.034307;0.996330;,
  0.823642;-0.034308;0.566071;,
  0.902053;-0.034307;-0.430260;,
  0.078410;-0.034307;-0.996331;,
  -0.823637;-0.034305;-0.566079;,
  -0.169917;0.953942;0.247231;,
  0.129150;0.953942;0.270768;,
  0.299067;0.953942;0.023537;,
  0.169917;0.953942;-0.247231;,
  -0.129148;0.953943;-0.270766;,
  -0.299065;0.953942;-0.023536;,
  0.824126;0.000000;-0.566406;,
  0.064786;0.996905;-0.044526;,
  0.661586;0.000000;0.749870;,
  -0.462972;0.000000;-0.886373;,
  -0.027969;0.999424;0.019223;,
  0.535117;0.000000;0.844778;,
  -0.596899;0.000000;-0.802316;,
  0.064786;-0.996905;-0.044526;,
  -0.462973;0.000000;-0.886372;,
  -0.566408;0.000000;-0.824125;,
  0.277394;0.601076;0.749507;,
  -0.156731;0.601075;0.783674;,
  -0.757046;0.601076;0.256103;,
  -0.600315;0.601075;-0.527571;,
  0.156729;0.601078;-0.783671;,
  0.757045;0.601078;-0.256102;,
  0.078458;0.000000;0.996917;,
  -0.824126;0.000000;0.566406;,
  -0.902584;0.000000;-0.430513;,
  -0.078458;0.000000;-0.996917;,
  0.824126;0.000000;-0.566406;,
  0.083069;-0.989187;0.120866;,
  -0.063139;-0.989187;0.132373;,
  -0.146207;-0.989187;0.011507;,
  -0.083068;-0.989187;-0.120866;,
  0.063138;-0.989187;-0.132372;,
  0.146206;-0.989187;-0.011507;,
  0.078416;-0.034307;0.996330;,
  -0.823642;-0.034308;0.566071;,
  -0.902053;-0.034307;-0.430260;,
  -0.078410;-0.034307;-0.996331;,
  0.823637;-0.034305;-0.566079;,
  0.169917;0.953942;0.247231;,
  -0.129150;0.953942;0.270768;,
  -0.299067;0.953942;0.023537;,
  -0.169917;0.953942;-0.247231;,
  0.129148;0.953943;-0.270766;,
  0.299065;0.953942;-0.023536;,
  0.055906;0.997696;0.038423;,
  -0.503077;0.000000;0.864242;,
  0.626553;0.000000;-0.779378;,
  0.027968;-0.999424;0.019222;,
  0.055905;-0.997697;0.038422;,
  -0.661585;0.000000;0.749870;,
  -0.566404;0.000000;0.824128;,
  0.824128;0.000000;0.566404;,
  -0.902585;0.000000;0.430512;,
  -0.902053;-0.034307;0.430260;,
  -0.055906;0.997696;0.038423;,
  0.503077;0.000000;0.864242;,
  -0.626553;0.000000;-0.779378;,
  -0.027968;-0.999424;0.019222;,
  -0.055905;-0.997697;0.038422;,
  0.661585;0.000000;0.749870;,
  0.566404;0.000000;0.824128;,
  -0.824128;0.000000;0.566404;,
  0.902585;0.000000;0.430512;,
  0.902053;-0.034307;0.430260;,
  -0.824126;0.000000;0.566406;,
  -0.064786;0.996905;0.044526;,
  -0.661586;0.000000;-0.749870;,
  0.462972;0.000000;0.886373;,
  0.027969;0.999424;-0.019223;,
  -0.535117;0.000000;-0.844778;,
  0.596899;0.000000;0.802316;,
  -0.064786;-0.996905;0.044526;,
  0.462973;0.000000;0.886372;,
  0.000000;1.000000;0.000000;,
  0.000000;-1.000000;-0.000000;,
  0.566408;0.000000;0.824125;,
  -0.277394;0.601076;-0.749507;,
  0.156731;0.601075;-0.783674;,
  0.757046;0.601076;-0.256103;,
  0.600315;0.601075;0.527571;,
  -0.156729;0.601078;0.783671;,
  -0.757045;0.601078;0.256102;,
  -0.078458;0.000000;-0.996917;,
  0.824126;0.000000;-0.566406;,
  0.902584;0.000000;0.430513;,
  0.078458;0.000000;0.996917;,
  -0.824126;0.000000;0.566406;,
  -0.083069;-0.989187;-0.120866;,
  0.063139;-0.989187;-0.132373;,
  0.146207;-0.989187;-0.011507;,
  0.083068;-0.989187;0.120866;,
  -0.063138;-0.989187;0.132372;,
  -0.146206;-0.989187;0.011507;,
  -0.078416;-0.034307;-0.996330;,
  0.823642;-0.034308;-0.566071;,
  0.902053;-0.034307;0.430260;,
  0.078410;-0.034307;0.996331;,
  -0.823637;-0.034305;0.566079;,
  -0.169917;0.953942;-0.247231;,
  0.129150;0.953942;-0.270768;,
  0.299067;0.953942;-0.023537;,
  0.169917;0.953942;0.247231;,
  -0.129148;0.953943;0.270766;,
  -0.299065;0.953942;0.023536;,
  0.055906;0.997696;-0.038423;,
  -0.503077;0.000000;-0.864242;,
  0.626553;0.000000;0.779378;,
  0.027968;-0.999424;-0.019222;,
  0.055905;-0.997697;-0.038422;,
  -0.661585;0.000000;-0.749870;,
  -0.566404;0.000000;-0.824128;,
  0.824128;0.000000;-0.566404;,
  -0.902585;0.000000;-0.430512;,
  -0.902053;-0.034307;-0.430260;,
  0.000000;0.000000;-1.000000;,
  0.977398;0.211405;0.000000;,
  0.000000;0.000000;1.000000;,
  -0.977398;0.211405;0.000000;,
  0.000000;1.000000;0.000000;,
  -0.970892;0.239517;0.000000;,
  0.970893;0.239513;0.000000;,
  -0.970892;0.239517;0.000000;,
  0.984185;0.177145;0.000000;,
  0.953565;0.301188;0.000000;,
  -0.984186;0.177137;0.000000;,
  -0.953566;0.301184;0.000000;,
  -1.000000;0.000000;0.000000;,
  0.000000;0.499997;-0.866027;,
  0.000000;0.500012;0.866019;,
  0.000000;-0.500012;0.866019;,
  0.000000;-1.000000;-0.000000;,
  1.000000;0.000000;0.000000;,
  -0.967047;0.254600;0.000000;,
  0.967047;0.254600;0.000000;,
  0.958182;0.286161;0.000000;,
  -0.958182;0.286161;0.000000;,
  -0.970892;0.239517;0.000000;,
  -0.984186;0.177137;0.000000;,
  -0.953566;0.301184;0.000000;,
  -0.981521;0.191353;0.000000;,
  0.981521;0.191353;0.000000;,
  0.976570;0.215199;0.000000;,
  -0.976570;0.215199;0.000000;,
  0.000000;-0.887856;0.460122;,
  0.000000;0.576570;-0.817047;,
  0.970893;0.239513;0.000000;,
  0.000000;-0.896028;-0.443997;,
  0.000000;0.605733;0.795668;,
  0.000000;0.605733;0.795668;,
  0.000000;0.985597;-0.169111;,
  -0.907379;0.420314;0.000000;,
  0.907379;0.420314;0.000000;,
  0.000000;0.984897;-0.173141;,
  -0.970892;0.239517;0.000000;,
  0.970893;0.239513;0.000000;,
  -0.926768;0.375634;0.000000;,
  0.926768;0.375634;0.000000;,
  0.000000;0.962092;0.272727;,
  -0.907379;0.420314;0.000000;,
  0.907379;0.420314;0.000000;,
  0.000000;0.970488;0.241148;,
  -0.977399;-0.211405;0.000000;,
  0.977399;-0.211405;-0.000000;,
  0.000000;-0.499997;-0.866027;,
  0.995138;0.098489;0.000000;,
  -0.995137;0.098497;0.000000;,
  -0.995137;0.098497;0.000000;,
  0.000000;0.302450;-0.953165;,
  -0.995137;0.098497;0.000000;,
  0.995138;0.098489;0.000000;,
  0.000000;0.319634;0.947541;,
  0.000000;0.319634;0.947541;,
  -0.992953;0.118509;0.000000;,
  0.992952;0.118514;0.000000;,
  -0.997837;0.065736;0.000000;,
  0.997837;0.065730;0.000000;,
  -0.997837;0.065736;0.000000;,
  0.997837;0.065730;0.000000;,
  -0.012145;-0.665387;-0.746400;,
  -0.011485;-0.249404;-0.968331;,
  0.887482;-0.445212;0.119005;,
  0.999958;-0.006139;-0.006879;,
  0.008271;-0.222035;0.975004;,
  0.011485;0.249391;0.968335;,
  -0.327303;-0.942147;-0.072338;,
  0.313027;-0.946611;-0.077080;,
  0.317878;-0.781185;0.537311;,
  -0.317863;-0.777774;0.542246;,
  -0.891037;-0.434450;0.131551;,
  -0.999958;0.006135;0.006879;,
  -0.003894;-0.960768;0.277324;,
  0.003975;0.962677;-0.270623;;
  468;
  4;0,1,9,8;,
  4;1,2,10,9;,
  4;2,3,11,10;,
  4;3,4,12,11;,
  4;4,5,13,12;,
  4;5,6,14,13;,
  4;6,7,15,14;,
  4;7,0,8,15;,
  4;17,18,1,0;,
  3;16,18,17;,
  4;18,19,2,1;,
  3;16,19,18;,
  4;19,20,3,2;,
  3;16,20,19;,
  4;20,21,4,3;,
  3;16,21,20;,
  4;21,22,5,4;,
  3;16,22,21;,
  4;22,23,6,5;,
  3;16,23,22;,
  4;23,24,7,6;,
  3;16,24,23;,
  4;24,17,0,7;,
  3;16,17,24;,
  4;26,25,25,26;,
  4;27,26,26,27;,
  4;28,27,27,28;,
  4;29,28,28,29;,
  4;30,29,29,30;,
  4;31,30,30,31;,
  4;32,31,31,32;,
  4;25,32,32,25;,
  4;34,33,33,34;,
  4;35,34,34,35;,
  4;36,35,35,36;,
  4;37,36,36,37;,
  4;38,37,37,38;,
  4;39,38,38,39;,
  4;40,39,39,40;,
  4;33,40,40,33;,
  4;42,41,41,42;,
  3;49,50,51;,
  4;43,42,42,43;,
  3;49,51,52;,
  4;44,43,43,44;,
  3;49,52,53;,
  4;45,44,44,45;,
  3;49,53,54;,
  4;46,45,45,46;,
  3;49,54,55;,
  4;47,46,46,47;,
  3;49,55,56;,
  4;48,47,47,48;,
  3;49,56,57;,
  4;41,48,48,41;,
  3;49,57,50;,
  4;64,62,60,58;,
  4;59,61,63,65;,
  4;68,66,58,60;,
  4;67,69,61,59;,
  4;97,96,66,68;,
  4;82,83,69,67;,
  4;96,97,110,111;,
  4;73,75,63,61;,
  4;72,74,112,113;,
  4;77,71,59,65;,
  4;76,70,114,115;,
  4;81,73,61,69;,
  4;116,80,72,113;,
  4;71,79,67,59;,
  4;78,117,114,70;,
  4;110,97,80,116;,
  4;96,111,117,78;,
  3;83,81,69;,
  3;82,67,79;,
  4;91,92,74,72;,
  4;86,85,118,62;,
  4;119,120,85,86;,
  4;93,90,70,76;,
  4;84,87,64,121;,
  4;122,123,87,84;,
  4;95,91,72,80;,
  4;85,89,124,60;,
  4;120,125,89,85;,
  4;90,94,78,70;,
  4;88,84,58,126;,
  4;127,122,84,88;,
  3;97,89,125;,
  3;96,127,88;,
  4;100,98,62,64;,
  4;99,101,65,63;,
  4;128,129,130,131;,
  4;102,103,112,74;,
  4;132,99,63,75;,
  4;133,134,128,131;,
  4;105,104,76,115;,
  4;101,135,77,65;,
  4;136,137,130,129;,
  4;106,108,119,86;,
  4;98,106,86,62;,
  4;138,102,74,92;,
  4;139,139,128,134;,
  4;109,107,87,123;,
  4;104,140,93,76;,
  4;107,100,64,87;,
  4;141,141,136,129;,
  3;142,68,89;,
  3;97,95,80;,
  3;96,78,94;,
  3;143,88,66;,
  4;145,146,146,145;,
  4;147,147,147,147;,
  4;151,144,144,151;,
  4;152,152,153,153;,
  4;154,154,155,155;,
  4;148,148,153,153;,
  4;150,156,145,145;,
  4;149,149,154,154;,
  4;157,158,144,144;,
  4;148,148,150,158;,
  4;159,159,159,159;,
  4;163,163,199,199;,
  4;163,160,160,163;,
  4;164,164,161,161;,
  4;164,200,200,164;,
  4;165,165,201,201;,
  4;165,162,162,165;,
  4;202,202,166,166;,
  4;202,203,203,202;,
  4;160,160,160,160;,
  4;167,162,162,167;,
  4;166,166,166,166;,
  4;204,161,161,204;,
  4;168,160,160,168;,
  4;170,167,167,170;,
  4;169,166,166,169;,
  4;205,204,204,205;,
  4;206,206,206,206;,
  4;171,177,177,172;,
  4;178,178,178,173;,
  4;179,179,179,174;,
  4;180,180,180,175;,
  4;181,181,181,176;,
  4;207,207,207,207;,
  4;183,183,182,182;,
  4;184,184,183,183;,
  4;185,185,184,184;,
  4;186,186,185,185;,
  4;187,187,186,186;,
  4;182,182,187,187;,
  4;188,188,188,188;,
  3;169,169,169;,
  4;189,189,189,189;,
  3;169,169,169;,
  4;190,190,190,190;,
  3;169,169,169;,
  4;191,191,191,191;,
  3;169,169,169;,
  4;192,192,192,192;,
  3;169,169,169;,
  4;208,208,208,208;,
  3;169,169,169;,
  4;193,171,172,194;,
  3;168,193,194;,
  4;194,172,173,195;,
  3;168,194,195;,
  4;195,173,174,196;,
  3;168,195,196;,
  4;196,174,175,197;,
  3;168,196,197;,
  4;197,175,176,198;,
  3;168,197,198;,
  4;198,176,171,193;,
  3;168,198,193;,
  4;209,209,209,209;,
  4;213,213,287,287;,
  4;213,210,210,213;,
  4;214,214,211,211;,
  4;214,288,288,214;,
  4;215,215,289,289;,
  4;215,212,212,215;,
  4;290,290,216,216;,
  4;290,291,291,290;,
  4;210,210,210,210;,
  4;217,212,212,217;,
  4;216,216,216,216;,
  4;292,211,211,292;,
  4;218,210,210,218;,
  4;220,217,217,220;,
  4;219,216,216,219;,
  4;293,292,292,293;,
  4;294,294,294,294;,
  4;221,227,227,222;,
  4;228,228,228,223;,
  4;229,229,229,224;,
  4;230,230,230,225;,
  4;231,231,231,226;,
  4;295,295,295,295;,
  4;233,233,232,232;,
  4;234,234,233,233;,
  4;235,235,234,234;,
  4;236,236,235,235;,
  4;237,237,236,236;,
  4;232,232,237,237;,
  4;238,238,238,238;,
  3;219,219,219;,
  4;239,239,239,239;,
  3;219,219,219;,
  4;240,240,240,240;,
  3;219,219,219;,
  4;241,241,241,241;,
  3;219,219,219;,
  4;242,242,242,242;,
  3;219,219,219;,
  4;296,296,296,296;,
  3;219,219,219;,
  4;243,221,222,244;,
  3;218,243,244;,
  4;244,222,223,245;,
  3;218,244,245;,
  4;245,223,224,246;,
  3;218,245,246;,
  4;246,224,225,247;,
  3;218,246,247;,
  4;247,225,226,248;,
  3;218,247,248;,
  4;248,226,221,243;,
  3;218,248,243;,
  4;249,249,249,249;,
  4;253,297,297,253;,
  4;253,253,250,250;,
  4;254,251,251,254;,
  4;254,254,298,298;,
  4;255,299,299,255;,
  4;255,255,252,252;,
  4;300,256,256,300;,
  4;300,300,301,301;,
  4;250,250,250,250;,
  4;257,257,252,252;,
  4;256,256,256,256;,
  4;302,302,251,251;,
  4;218,218,250,250;,
  4;258,258,257,257;,
  4;219,219,256,256;,
  4;303,303,302,302;,
  4;304,304,304,304;,
  4;259,260,265,265;,
  4;266,261,266,266;,
  4;267,262,267,267;,
  4;268,263,268,268;,
  4;269,264,269,269;,
  4;305,305,305,305;,
  4;271,270,270,271;,
  4;272,271,271,272;,
  4;273,272,272,273;,
  4;274,273,273,274;,
  4;275,274,274,275;,
  4;270,275,275,270;,
  4;276,276,276,276;,
  3;219,219,219;,
  4;277,277,277,277;,
  3;219,219,219;,
  4;278,278,278,278;,
  3;219,219,219;,
  4;279,279,279,279;,
  3;219,219,219;,
  4;280,280,280,280;,
  3;219,219,219;,
  4;306,306,306,306;,
  3;219,219,219;,
  4;281,282,260,259;,
  3;218,282,281;,
  4;282,283,261,260;,
  3;218,283,282;,
  4;283,284,262,261;,
  3;218,284,283;,
  4;284,285,263,262;,
  3;218,285,284;,
  4;285,286,264,263;,
  3;218,286,285;,
  4;286,281,259,264;,
  3;218,281,286;,
  4;307,307,307,307;,
  4;311,347,347,311;,
  4;311,311,308,308;,
  4;312,309,309,312;,
  4;312,312,348,348;,
  4;313,349,349,313;,
  4;313,313,310,310;,
  4;350,314,314,350;,
  4;350,350,351,351;,
  4;308,308,308,308;,
  4;315,315,310,310;,
  4;314,314,314,314;,
  4;352,352,309,309;,
  4;316,316,308,308;,
  4;318,318,315,315;,
  4;317,317,314,314;,
  4;353,353,352,352;,
  4;354,354,354,354;,
  4;319,320,325,325;,
  4;326,321,326,326;,
  4;327,322,327,327;,
  4;328,323,328,328;,
  4;329,324,329,329;,
  4;355,355,355,355;,
  4;331,330,330,331;,
  4;332,331,331,332;,
  4;333,332,332,333;,
  4;334,333,333,334;,
  4;335,334,334,335;,
  4;330,335,335,330;,
  4;336,336,336,336;,
  3;317,317,317;,
  4;337,337,337,337;,
  3;317,317,317;,
  4;338,338,338,338;,
  3;317,317,317;,
  4;339,339,339,339;,
  3;317,317,317;,
  4;340,340,340,340;,
  3;317,317,317;,
  4;356,356,356,356;,
  3;317,317,317;,
  4;341,342,320,319;,
  3;316,342,341;,
  4;342,343,321,320;,
  3;316,343,342;,
  4;343,344,322,321;,
  3;316,344,343;,
  4;344,345,323,322;,
  3;316,345,344;,
  4;345,346,324,323;,
  3;316,346,345;,
  4;346,341,319,324;,
  3;316,341,346;,
  4;357,357,357,357;,
  4;358,358,358,358;,
  4;359,359,359,359;,
  4;404,404,404,404;,
  4;361,361,361,361;,
  4;373,373,373,373;,
  4;357,357,357,357;,
  4;360,360,360,360;,
  4;359,359,359,359;,
  4;405,405,405,405;,
  4;361,361,361,361;,
  4;373,373,373,373;,
  4;370,370,370,370;,
  4;361,361,361,361;,
  4;371,371,371,371;,
  4;372,372,372,372;,
  4;373,373,373,373;,
  4;406,406,406,406;,
  3;369,369,369;,
  3;369,369,369;,
  3;369,369,369;,
  3;369,369,369;,
  3;369,369,369;,
  3;369,369,369;,
  3;374,374,374;,
  3;374,374,374;,
  3;374,374,374;,
  3;374,374,374;,
  3;374,374,374;,
  3;374,374,374;,
  4;361,361,361,361;,
  4;363,407,407,363;,
  4;408,379,362,409;,
  4;357,357,357,357;,
  4;366,365,365,366;,
  4;380,381,368,367;,
  4;361,361,361,361;,
  4;357,357,357,357;,
  4;379,382,375,362;,
  4;383,363,363,376;,
  4;410,410,357,357;,
  4;381,385,378,368;,
  4;384,366,366,377;,
  4;410,410,357,357;,
  4;387,387,410,410;,
  4;374,374,383,376;,
  4;386,386,386,386;,
  4;369,369,375,382;,
  4;373,373,386,386;,
  4;387,387,410,410;,
  4;374,374,384,377;,
  4;386,386,386,386;,
  4;369,369,378,385;,
  4;373,373,386,386;,
  4;361,361,361,361;,
  4;379,411,409,364;,
  4;412,388,363,407;,
  4;359,359,359,359;,
  4;368,367,367,368;,
  4;365,366,366,365;,
  4;361,361,361,361;,
  4;359,359,359,359;,
  4;388,383,376,363;,
  4;382,379,364,375;,
  4;413,413,359,359;,
  4;366,384,377,366;,
  4;385,368,368,378;,
  4;414,414,359,359;,
  4;390,390,413,413;,
  4;369,369,382,375;,
  4;389,389,389,389;,
  4;374,374,376,383;,
  4;373,373,389,389;,
  4;391,391,414,414;,
  4;369,369,385,378;,
  4;389,389,389,389;,
  4;374,374,377,384;,
  4;373,373,389,389;,
  4;392,392,361,361;,
  4;415,367,368,368;,
  4;416,366,366,365;,
  4;368,368,378,393;,
  4;366,394,377,366;,
  4;373,386,386,373;,
  4;395,395,361,361;,
  4;417,409,362,396;,
  4;418,397,363,407;,
  4;396,362,375,398;,
  4;397,399,376,363;,
  4;373,386,386,373;,
  4;400,361,361,400;,
  4;415,415,368,368;,
  4;415,368,368,367;,
  4;416,365,366,366;,
  4;416,366,366,416;,
  4;368,368,393,401;,
  4;368,401,378,368;,
  4;366,366,377,402;,
  4;366,402,394,366;,
  4;373,373,373,373;,
  4;373,373,389,389;,
  4;403,361,361,403;,
  4;419,417,396,362;,
  4;419,362,364,409;,
  4;420,407,363,363;,
  4;420,363,397,418;,
  4;362,396,398,398;,
  4;362,398,375,364;,
  4;363,363,376,399;,
  4;363,399,399,397;,
  4;373,373,373,373;,
  4;373,373,389,389;,
  4;400,400,400,400;,
  4;374,374,416,416;,
  4;392,392,392,392;,
  4;369,369,415,415;,
  4;400,400,392,392;,
  4;403,403,403,403;,
  4;374,374,420,418;,
  4;395,395,395,395;,
  4;369,369,417,419;,
  4;403,403,395,395;,
  4;421,421,422,422;,
  4;423,423,424,424;,
  4;425,425,426,426;,
  4;431,431,432,432;,
  4;433,433,433,433;,
  4;429,430,425,425;,
  4;428,429,423,423;,
  4;427,428,421,421;,
  4;430,427,431,431;,
  4;434,434,434,434;;
 }
}
