xof 0302txt 0064
template Header {
 <3D82AB43-62DA-11cf-AB39-0020AF71E433>
 WORD major;
 WORD minor;
 DWORD flags;
}

template Vector {
 <3D82AB5E-62DA-11cf-AB39-0020AF71E433>
 FLOAT x;
 FLOAT y;
 FLOAT z;
}

template Coords2d {
 <F6F23F44-7686-11cf-8F52-0040333594A3>
 FLOAT u;
 FLOAT v;
}

template Matrix4x4 {
 <F6F23F45-7686-11cf-8F52-0040333594A3>
 array FLOAT matrix[16];
}

template ColorRGBA {
 <35FF44E0-6C7C-11cf-8F52-0040333594A3>
 FLOAT red;
 FLOAT green;
 FLOAT blue;
 FLOAT alpha;
}

template ColorRGB {
 <D3E16E81-7835-11cf-8F52-0040333594A3>
 FLOAT red;
 FLOAT green;
 FLOAT blue;
}

template IndexedColor {
 <1630B820-7842-11cf-8F52-0040333594A3>
 DWORD index;
 ColorRGBA indexColor;
}

template Boolean {
 <4885AE61-78E8-11cf-8F52-0040333594A3>
 WORD truefalse;
}

template Boolean2d {
 <4885AE63-78E8-11cf-8F52-0040333594A3>
 Boolean u;
 Boolean v;
}

template MaterialWrap {
 <4885AE60-78E8-11cf-8F52-0040333594A3>
 Boolean u;
 Boolean v;
}

template TextureFilename {
 <A42790E1-7810-11cf-8F52-0040333594A3>
 STRING filename;
}

template Material {
 <3D82AB4D-62DA-11cf-AB39-0020AF71E433>
 ColorRGBA faceColor;
 FLOAT power;
 ColorRGB specularColor;
 ColorRGB emissiveColor;
 [...]
}

template MeshFace {
 <3D82AB5F-62DA-11cf-AB39-0020AF71E433>
 DWORD nFaceVertexIndices;
 array DWORD faceVertexIndices[nFaceVertexIndices];
}

template MeshFaceWraps {
 <4885AE62-78E8-11cf-8F52-0040333594A3>
 DWORD nFaceWrapValues;
 Boolean2d faceWrapValues;
}

template MeshTextureCoords {
 <F6F23F40-7686-11cf-8F52-0040333594A3>
 DWORD nTextureCoords;
 array Coords2d textureCoords[nTextureCoords];
}

template MeshMaterialList {
 <F6F23F42-7686-11cf-8F52-0040333594A3>
 DWORD nMaterials;
 DWORD nFaceIndexes;
 array DWORD faceIndexes[nFaceIndexes];
 [Material]
}

template MeshNormals {
 <F6F23F43-7686-11cf-8F52-0040333594A3>
 DWORD nNormals;
 array Vector normals[nNormals];
 DWORD nFaceNormals;
 array MeshFace faceNormals[nFaceNormals];
}

template MeshVertexColors {
 <1630B821-7842-11cf-8F52-0040333594A3>
 DWORD nVertexColors;
 array IndexedColor vertexColors[nVertexColors];
}

template Mesh {
 <3D82AB44-62DA-11cf-AB39-0020AF71E433>
 DWORD nVertices;
 array Vector vertices[nVertices];
 DWORD nFaces;
 array MeshFace faces[nFaces];
 [...]
}

Header{
1;
0;
1;
}

Mesh {
 151;
 30.68167;113.97417;-17.96090;,
 30.68167;117.46573;-17.96090;,
 37.46917;120.53397;-17.96090;,
 37.46917;113.97417;-17.96090;,
 37.46920;120.53397;27.64322;,
 37.46920;113.97417;27.64322;,
 30.60525;113.97417;27.64320;,
 30.60525;117.46573;27.64320;,
 -55.59243;113.97417;-18.10547;,
 -55.66885;113.97417;27.49862;,
 -55.66885;120.53397;27.49862;,
 -55.59243;120.53397;-18.10547;,
 -49.66630;117.46573;-18.09553;,
 -49.66630;113.97417;-18.09553;,
 -49.74273;117.46573;27.50858;,
 -49.74273;113.97417;27.50858;,
 37.46917;159.03120;-17.96090;,
 37.46920;159.03120;27.64322;,
 30.68167;159.03120;-17.96090;,
 30.60525;159.03120;27.64320;,
 -49.66630;159.03120;-18.09553;,
 -55.59243;159.03120;-18.10547;,
 -55.66885;159.03120;27.49862;,
 -49.74273;159.03120;27.50858;,
 -55.59243;153.10754;-18.10547;,
 -49.66630;155.83983;-18.09553;,
 -55.66885;153.10754;27.49862;,
 -49.74273;155.83983;27.50858;,
 30.63053;155.80460;-17.99260;,
 31.13925;159.03120;27.64410;,
 30.84385;155.83983;27.64410;,
 -53.25875;157.64349;23.83567;,
 32.22332;157.64349;23.83567;,
 32.22332;116.68665;23.83567;,
 -53.25875;116.68665;23.83567;,
 32.22332;157.64349;26.07190;,
 32.22332;116.68665;26.07190;,
 -53.25875;157.64349;26.07190;,
 -53.25875;116.68665;26.07190;,
 -51.83678;114.30298;24.89898;,
 31.22325;114.30298;24.89898;,
 31.22325;114.30298;20.49245;,
 -51.83678;114.30298;20.49245;,
 37.44195;113.97417;-18.09553;,
 37.35003;113.97417;27.50858;,
 30.47290;113.97417;27.49862;,
 30.56480;113.97417;-18.10547;,
 -49.74273;0.02480;27.50858;,
 -49.66630;0.02480;-18.09553;,
 -55.66885;0.02480;27.49862;,
 -55.59243;0.02480;-18.10547;,
 -49.50898;6.45162;-17.96085;,
 -49.50898;2.94847;-17.96085;,
 -55.52758;2.94847;-17.96087;,
 -55.52758;6.45162;-17.96087;,
 -49.50903;6.45162;27.64318;,
 -55.52758;6.45162;27.64320;,
 -55.52758;2.94847;27.64320;,
 -49.50903;2.94847;27.64318;,
 61.78645;6.45162;-17.96087;,
 68.58410;6.45162;-17.96087;,
 68.58410;2.94847;-17.96087;,
 61.78645;2.94847;-17.96087;,
 62.26057;6.20318;27.45028;,
 61.78643;2.94847;27.64318;,
 68.58410;2.94847;27.64320;,
 68.58410;6.45162;27.64320;,
 -55.52755;6.45162;22.22390;,
 -55.52755;2.94847;22.22390;,
 -49.50900;2.94847;22.22390;,
 61.78645;2.94847;22.22392;,
 68.58410;6.45162;22.22392;,
 68.58410;2.94847;22.22392;,
 -55.52755;6.45162;-12.54160;,
 -55.52755;2.94847;-12.54160;,
 -49.50900;2.94847;-12.54160;,
 61.78645;2.94847;-12.54160;,
 68.58410;6.45162;-12.54158;,
 68.58410;2.94847;-12.54158;,
 -49.50900;-0.56222;22.22390;,
 -55.52755;-0.56222;22.22390;,
 -49.50903;-0.56222;27.64318;,
 -55.52758;-0.56222;27.64320;,
 68.58410;-0.56222;22.22392;,
 61.78645;-0.56222;22.22392;,
 68.58410;-0.56222;27.64320;,
 61.78643;-0.56222;27.64318;,
 -55.52758;-0.56222;-17.96087;,
 -55.52755;-0.56222;-12.54160;,
 -49.50898;-0.56222;-17.96085;,
 -49.50900;-0.56222;-12.54160;,
 61.78645;-0.56222;-17.96087;,
 61.78645;-0.56222;-12.54160;,
 68.58410;-0.56222;-17.96087;,
 68.58410;-0.56222;-12.54158;,
 61.73025;56.16438;27.64417;,
 61.80667;56.20377;-17.96090;,
 68.59418;56.20377;-17.96090;,
 68.59420;56.20377;27.64322;,
 -49.40728;56.16438;27.64417;,
 -49.40728;56.20377;-17.96090;,
 -55.53767;56.20377;-17.96090;,
 -55.53765;56.20377;27.64320;,
 -48.89945;56.09208;23.13025;,
 -48.89945;6.20318;23.13123;,
 62.26060;56.09208;23.13025;,
 62.26060;6.20318;23.13123;,
 -50.00597;22.78757;-15.26435;,
 63.06250;22.78757;-15.26435;,
 63.06250;19.87475;-15.26435;,
 -50.00597;19.87475;-15.26435;,
 63.06250;22.78757;27.57195;,
 63.06250;19.87475;27.57195;,
 -50.00597;22.78757;27.57195;,
 -50.00597;19.87475;27.57195;,
 -50.00597;40.03980;-15.26435;,
 63.06250;40.03980;-15.26435;,
 63.06250;37.12695;-15.26435;,
 -50.00597;37.12695;-15.26435;,
 63.06250;40.03980;27.44695;,
 63.06250;37.12695;27.44695;,
 -50.00597;40.03980;27.44695;,
 -50.00597;37.12695;27.44695;,
 -50.00597;56.10295;-17.19558;,
 63.06250;56.10295;-17.19558;,
 63.06250;53.19012;-17.19558;,
 -50.00597;53.19012;-17.19558;,
 63.06250;56.10295;26.64070;,
 63.06250;53.19012;26.64070;,
 -50.00597;56.10295;26.64070;,
 -50.00597;53.19012;26.64070;,
 -20.71177;55.56553;20.49245;,
 62.34825;55.56553;20.49245;,
 62.34825;55.56553;24.89898;,
 -20.71177;55.56553;24.89898;,
 62.26060;55.80527;23.18660;,
 61.73025;55.99570;27.69710;,
 -48.89945;55.80527;23.18660;,
 -49.40728;55.99570;27.69710;,
 61.78645;56.19847;27.71040;,
 68.58410;56.19847;27.71037;,
 68.58410;56.19847;-18.02807;,
 61.78645;56.19847;-18.02807;,
 -50.45573;114.18020;23.35018;,
 37.45573;114.18020;23.35018;,
 37.45573;55.81982;23.35018;,
 -50.45573;55.81982;23.35018;,
 37.45573;114.18020;26.64982;,
 37.45573;55.81982;26.64982;,
 -50.45573;114.18020;26.64982;,
 -50.45573;55.81982;26.64982;;
 
 130;
 4;0,1,2,3;,
 4;3,2,4,5;,
 4;6,5,4,7;,
 4;8,9,10,11;,
 4;12,1,0,13;,
 4;12,13,8,11;,
 4;12,14,7,1;,
 4;13,0,6,15;,
 4;14,10,9,15;,
 4;14,15,6,7;,
 4;16,17,4,2;,
 4;18,16,2,1;,
 4;19,18,1,7;,
 4;17,19,7,4;,
 4;17,16,18,19;,
 4;20,21,22,23;,
 4;24,21,20,25;,
 4;24,25,12,11;,
 4;24,11,10,26;,
 4;24,26,22,21;,
 4;25,27,14,12;,
 4;26,10,14,27;,
 4;26,27,23,22;,
 4;18,28,25,20;,
 4;29,18,20,23;,
 4;30,29,23,27;,
 4;28,30,27,25;,
 4;28,18,29,30;,
 4;31,32,33,34;,
 4;32,35,36,33;,
 4;35,37,38,36;,
 4;37,31,34,38;,
 4;37,35,32,31;,
 4;34,33,36,38;,
 4;39,40,41,42;,
 4;43,44,45,46;,
 4;47,48,13,15;,
 4;49,47,15,9;,
 4;50,49,9,8;,
 4;48,50,8,13;,
 4;48,47,49,50;,
 4;51,52,53,54;,
 4;55,56,57,58;,
 4;59,60,61,62;,
 4;59,62,52,51;,
 4;63,55,58,64;,
 4;63,64,65,66;,
 4;67,68,57,56;,
 4;56,55,63,66;,
 4;69,70,64,58;,
 4;71,66,65,72;,
 4;73,54,53,74;,
 4;73,74,68,67;,
 4;73,67,56,54;,
 4;74,75,69,68;,
 4;54,56,66,60;,
 4;54,60,59,51;,
 4;75,52,62,76;,
 4;75,76,70,69;,
 4;60,66,71,77;,
 4;76,78,72,70;,
 4;77,71,72,78;,
 4;77,78,61,60;,
 4;79,80,68,69;,
 4;81,79,69,58;,
 4;82,81,58,57;,
 4;80,82,57,68;,
 4;80,79,81,82;,
 4;83,84,70,72;,
 4;85,83,72,65;,
 4;86,85,65,64;,
 4;84,86,64,70;,
 4;84,83,85,86;,
 4;87,88,74,53;,
 4;89,87,53,52;,
 4;90,89,52,75;,
 4;88,90,75,74;,
 4;88,87,89,90;,
 4;91,92,76,62;,
 4;93,91,62,61;,
 4;94,93,61,78;,
 4;92,94,78,76;,
 4;92,91,93,94;,
 4;95,96,59,63;,
 4;96,97,60,59;,
 4;97,98,66,60;,
 4;98,95,63,66;,
 4;63,59,60,66;,
 4;99,55,51,100;,
 4;100,51,54,101;,
 4;101,54,56,102;,
 4;102,56,55,99;,
 4;102,99,100,101;,
 4;55,56,54,51;,
 4;99,103,104,55;,
 4;103,105,106,104;,
 4;105,95,63,106;,
 4;95,99,55,63;,
 4;55,104,106,63;,
 4;107,108,109,110;,
 4;108,111,112,109;,
 4;111,113,114,112;,
 4;113,107,110,114;,
 4;113,111,108,107;,
 4;110,109,112,114;,
 4;115,116,117,118;,
 4;116,119,120,117;,
 4;119,121,122,120;,
 4;121,115,118,122;,
 4;121,119,116,115;,
 4;118,117,120,122;,
 4;123,124,125,126;,
 4;124,127,128,125;,
 4;127,129,130,128;,
 4;129,123,126,130;,
 4;129,127,124,123;,
 4;126,125,128,130;,
 4;131,132,133,134;,
 4;135,136,95,105;,
 4;137,135,105,103;,
 4;138,137,103,99;,
 4;136,138,99,95;,
 4;136,135,137,138;,
 4;139,140,141,142;,
 4;143,144,145,146;,
 4;144,147,148,145;,
 4;147,149,150,148;,
 4;149,143,146,150;,
 4;149,147,144,143;,
 4;146,145,148,150;;
 
 MeshMaterialList {
  1;
  130;
  0,
  0,
  0,
  0,
  0,
  0,
  0,
  0,
  0,
  0,
  0,
  0,
  0,
  0,
  0,
  0,
  0,
  0,
  0,
  0,
  0,
  0,
  0,
  0,
  0,
  0,
  0,
  0,
  0,
  0,
  0,
  0,
  0,
  0,
  0,
  0,
  0,
  0,
  0,
  0,
  0,
  0,
  0,
  0,
  0,
  0,
  0,
  0,
  0,
  0,
  0,
  0,
  0,
  0,
  0,
  0,
  0,
  0,
  0,
  0,
  0,
  0,
  0,
  0,
  0,
  0,
  0,
  0,
  0,
  0,
  0,
  0,
  0,
  0,
  0,
  0,
  0,
  0,
  0,
  0,
  0,
  0,
  0,
  0,
  0,
  0,
  0,
  0,
  0,
  0,
  0,
  0,
  0,
  0,
  0,
  0,
  0,
  0,
  0,
  0,
  0,
  0,
  0,
  0,
  0,
  0,
  0,
  0,
  0,
  0,
  0,
  0,
  0,
  0,
  0,
  0,
  0,
  0,
  0,
  0,
  0,
  0,
  0,
  0,
  0,
  0,
  0,
  0,
  0,
  0;;
  Material {
   0.630400;0.630400;0.630400;1.000000;;
   16.000000;
   1.000000;1.000000;1.000000;;
   0.000000;0.000000;0.000000;;
  }
 }
 MeshNormals {
  97;
  0.000559;0.000000;-1.000000;,
  0.000000;0.000000;-1.000000;,
  1.000000;0.000000;-0.000001;,
  -0.000561;0.000000;1.000000;,
  0.000838;0.000000;-1.000000;,
  -0.000840;0.000000;1.000000;,
  1.000000;0.000000;-0.000001;,
  -0.999999;0.000000;-0.001676;,
  -0.999999;0.000000;-0.001676;,
  0.001678;0.000000;-0.999999;,
  0.000000;1.000000;0.000000;,
  0.000000;-1.000000;-0.000000;,
  -0.999999;0.000000;-0.001676;,
  0.001679;0.000000;-0.999999;,
  0.001613;0.001634;-0.999997;,
  0.999999;0.000000;0.001676;,
  0.000740;0.002451;-0.999997;,
  0.001481;0.004902;-0.999987;,
  -0.001679;0.000078;0.999999;,
  1.000000;0.000000;0.000000;,
  0.000000;0.000000;1.000000;,
  -0.999999;0.000000;-0.001676;,
  -0.001679;0.000000;0.999999;,
  0.999999;0.000000;0.001676;,
  0.000004;0.000000;1.000000;,
  0.000004;0.000000;-1.000000;,
  -0.007632;0.014801;0.999861;,
  0.000003;0.000000;-1.000000;,
  0.000312;0.009821;0.999952;,
  -0.000000;0.000000;-1.000000;,
  -0.004779;0.019689;0.999795;,
  -1.000000;0.000000;-0.000002;,
  -1.000000;0.000000;-0.000003;,
  -1.000000;0.000000;0.000002;,
  -1.000000;0.000000;0.000003;,
  0.000000;0.000000;0.000000;,
  -1.000000;0.000000;0.000005;,
  1.000000;0.000000;0.000005;,
  -1.000000;0.000000;0.000000;,
  -0.000004;0.000000;1.000000;,
  1.000000;0.000000;0.000004;,
  -0.007143;0.013756;0.999880;,
  -0.999977;-0.005124;0.004353;,
  -0.000000;-0.000000;-1.000000;,
  0.000000;-0.000000;-1.000000;,
  0.000000;-0.000000;-1.000000;,
  1.000000;-0.000203;-0.000000;,
  -0.015179;0.013751;0.999790;,
  0.999998;-0.002045;-0.000000;,
  0.000002;-0.000000;-1.000000;,
  0.000002;-0.000001;-1.000000;,
  0.000003;-0.000000;-1.000000;,
  -1.000000;-0.000203;0.000000;,
  -0.000037;-0.000005;1.000000;,
  0.998370;0.013130;0.055542;,
  0.000428;0.006878;0.999976;,
  -0.992423;0.001017;-0.122865;,
  0.000000;-0.000020;-1.000000;,
  -0.998291;-0.017344;-0.055803;,
  0.993430;0.028262;0.110899;,
  0.000000;0.192788;0.981240;,
  -0.992840;-0.029498;-0.115749;,
  -0.000004;0.000000;1.000000;,
  -0.000004;0.000000;1.000000;,
  0.001679;0.000000;-0.999999;,
  -0.001678;0.000000;0.999999;,
  -0.001679;0.000000;0.999999;,
  -0.001678;0.000000;0.999999;,
  0.001679;0.000000;-0.999999;,
  0.001580;0.002451;-0.999996;,
  -0.999999;0.000000;-0.001676;,
  -0.001679;0.000026;0.999999;,
  -0.001679;0.000039;0.999999;,
  -0.001679;0.000000;0.999999;,
  -0.000220;-1.000000;0.000387;,
  0.998513;-0.054024;-0.007331;,
  0.001679;0.000000;-0.999999;,
  -1.000000;0.000000;-0.000005;,
  -1.000000;-0.000101;-0.000002;,
  -0.000000;-0.988685;0.150004;,
  -0.000362;-0.987258;0.159127;,
  0.006328;-0.987383;0.158226;,
  0.010080;-0.974456;0.224353;,
  1.000000;-0.000101;-0.000000;,
  -1.000000;-0.000101;0.000003;,
  0.009817;-0.999951;-0.001368;,
  -1.000000;0.000000;-0.000004;,
  -0.000004;0.000000;1.000000;,
  -0.015097;-0.002101;0.999884;,
  -0.007120;-0.002021;0.999973;,
  -0.000077;-0.000010;1.000000;,
  0.000391;-0.000976;1.000000;,
  0.003213;0.999995;0.000432;,
  0.998282;0.005053;0.058365;,
  -0.001063;-0.999625;0.027358;,
  0.000000;-0.299379;-0.954134;,
  0.000000;0.999110;-0.042181;;
  130;
  4;4,0,1,1;,
  4;6,2,2,6;,
  4;5,62,63,3;,
  4;8,8,7,7;,
  4;9,0,4,9;,
  4;9,9,64,13;,
  4;10,10,10,10;,
  4;11,11,11,11;,
  4;65,66,66,67;,
  4;65,67,5,3;,
  4;2,2,2,2;,
  4;16,1,1,0;,
  4;12,12,12,12;,
  4;63,63,3,63;,
  4;10,10,10,10;,
  4;10,10,10,10;,
  4;13,68,69,14;,
  4;13,14,9,13;,
  4;7,7,7,7;,
  4;7,7,70,70;,
  4;15,15,15,15;,
  4;66,66,65,71;,
  4;66,71,72,73;,
  4;16,17,14,69;,
  4;10,10,10,10;,
  4;18,18,72,71;,
  4;74,74,74,74;,
  4;75,75,75,75;,
  4;1,1,1,1;,
  4;19,19,19,19;,
  4;20,20,20,20;,
  4;38,38,38,38;,
  4;10,10,10,10;,
  4;11,11,11,11;,
  4;10,10,10,10;,
  4;11,11,11,11;,
  4;23,23,23,23;,
  4;22,22,67,66;,
  4;21,21,8,8;,
  4;76,76,64,9;,
  4;11,11,11,11;,
  4;49,27,25,51;,
  4;55,53,24,28;,
  4;43,45,1,29;,
  4;43,29,27,49;,
  4;41,55,28,30;,
  4;41,30,26,47;,
  4;31,32,77,78;,
  4;79,80,81,82;,
  4;11,11,11,11;,
  4;19,83,19,19;,
  4;33,84,36,34;,
  4;33,34,32,31;,
  4;11,11,79,11;,
  4;11,11,11,11;,
  4;10,10,10,10;,
  4;11,85,85,11;,
  4;11,11,11,11;,
  4;11,11,11,11;,
  4;35,35,35,35;,
  4;11,11,11,11;,
  4;19,19,19,19;,
  4;19,19,19,83;,
  4;1,1,1,1;,
  4;37,37,37,37;,
  4;24,24,28,24;,
  4;77,77,77,32;,
  4;11,11,11,11;,
  4;1,1,1,1;,
  4;19,19,19,19;,
  4;39,39,26,30;,
  4;86,86,86,86;,
  4;11,11,11,11;,
  4;36,36,34,36;,
  4;25,25,25,27;,
  4;40,40,40,40;,
  4;20,20,20,20;,
  4;11,11,11,11;,
  4;38,38,38,38;,
  4;1,1,29,1;,
  4;19,19,19,19;,
  4;87,87,87,87;,
  4;11,11,11,11;,
  4;58,42,42,42;,
  4;44,44,45,43;,
  4;46,46,83,83;,
  4;88,89,41,47;,
  4;81,85,85,82;,
  4;54,48,48,48;,
  4;50,49,51,50;,
  4;52,84,78,52;,
  4;90,53,55,91;,
  4;92,92,92,92;,
  4;80,79,11,11;,
  4;56,56,56,56;,
  4;57,57,57,57;,
  4;93,93,93,93;,
  4;89,91,55,41;,
  4;80,94,94,81;,
  4;1,1,1,1;,
  4;19,19,19,19;,
  4;20,20,20,20;,
  4;38,38,38,38;,
  4;10,10,10,10;,
  4;11,11,11,11;,
  4;1,1,1,1;,
  4;19,19,19,19;,
  4;20,20,20,20;,
  4;38,38,38,38;,
  4;10,10,10,10;,
  4;11,11,11,11;,
  4;1,1,1,1;,
  4;19,19,19,19;,
  4;20,20,20,20;,
  4;38,38,38,38;,
  4;10,10,10,10;,
  4;11,11,11,11;,
  4;11,11,11,11;,
  4;61,61,58,61;,
  4;60,60,60,60;,
  4;59,59,59,54;,
  4;95,95,95,95;,
  4;96,96,96,96;,
  4;10,10,10,10;,
  4;1,1,1,1;,
  4;19,19,19,19;,
  4;20,20,20,20;,
  4;38,38,38,38;,
  4;10,10,10,10;,
  4;11,11,11,11;;
 }
}
