xof 0302txt 0064
template Header {
 <3D82AB43-62DA-11cf-AB39-0020AF71E433>
 WORD major;
 WORD minor;
 DWORD flags;
}

template Vector {
 <3D82AB5E-62DA-11cf-AB39-0020AF71E433>
 FLOAT x;
 FLOAT y;
 FLOAT z;
}

template Coords2d {
 <F6F23F44-7686-11cf-8F52-0040333594A3>
 FLOAT u;
 FLOAT v;
}

template Matrix4x4 {
 <F6F23F45-7686-11cf-8F52-0040333594A3>
 array FLOAT matrix[16];
}

template ColorRGBA {
 <35FF44E0-6C7C-11cf-8F52-0040333594A3>
 FLOAT red;
 FLOAT green;
 FLOAT blue;
 FLOAT alpha;
}

template ColorRGB {
 <D3E16E81-7835-11cf-8F52-0040333594A3>
 FLOAT red;
 FLOAT green;
 FLOAT blue;
}

template IndexedColor {
 <1630B820-7842-11cf-8F52-0040333594A3>
 DWORD index;
 ColorRGBA indexColor;
}

template Boolean {
 <4885AE61-78E8-11cf-8F52-0040333594A3>
 WORD truefalse;
}

template Boolean2d {
 <4885AE63-78E8-11cf-8F52-0040333594A3>
 Boolean u;
 Boolean v;
}

template MaterialWrap {
 <4885AE60-78E8-11cf-8F52-0040333594A3>
 Boolean u;
 Boolean v;
}

template TextureFilename {
 <A42790E1-7810-11cf-8F52-0040333594A3>
 STRING filename;
}

template Material {
 <3D82AB4D-62DA-11cf-AB39-0020AF71E433>
 ColorRGBA faceColor;
 FLOAT power;
 ColorRGB specularColor;
 ColorRGB emissiveColor;
 [...]
}

template MeshFace {
 <3D82AB5F-62DA-11cf-AB39-0020AF71E433>
 DWORD nFaceVertexIndices;
 array DWORD faceVertexIndices[nFaceVertexIndices];
}

template MeshFaceWraps {
 <4885AE62-78E8-11cf-8F52-0040333594A3>
 DWORD nFaceWrapValues;
 Boolean2d faceWrapValues;
}

template MeshTextureCoords {
 <F6F23F40-7686-11cf-8F52-0040333594A3>
 DWORD nTextureCoords;
 array Coords2d textureCoords[nTextureCoords];
}

template MeshMaterialList {
 <F6F23F42-7686-11cf-8F52-0040333594A3>
 DWORD nMaterials;
 DWORD nFaceIndexes;
 array DWORD faceIndexes[nFaceIndexes];
 [Material]
}

template MeshNormals {
 <F6F23F43-7686-11cf-8F52-0040333594A3>
 DWORD nNormals;
 array Vector normals[nNormals];
 DWORD nFaceNormals;
 array MeshFace faceNormals[nFaceNormals];
}

template MeshVertexColors {
 <1630B821-7842-11cf-8F52-0040333594A3>
 DWORD nVertexColors;
 array IndexedColor vertexColors[nVertexColors];
}

template Mesh {
 <3D82AB44-62DA-11cf-AB39-0020AF71E433>
 DWORD nVertices;
 array Vector vertices[nVertices];
 DWORD nFaces;
 array MeshFace faces[nFaces];
 [...]
}

Header{
1;
0;
1;
}

Mesh {
 556;
 -118.13389;6.45162;-17.96085;,
 -118.13389;2.94847;-17.96085;,
 -124.15249;2.94847;-17.96087;,
 -124.15249;6.45162;-17.96087;,
 -118.13393;6.45162;27.64318;,
 -124.15249;6.45162;27.64320;,
 -124.15249;2.94847;27.64320;,
 -118.13393;2.94847;27.64318;,
 -6.83851;6.45162;-17.96087;,
 -0.04086;6.45162;-17.96087;,
 -0.04086;2.94847;-17.96087;,
 -6.83851;2.94847;-17.96087;,
 -6.36438;6.20318;27.45028;,
 -6.83853;2.94847;27.64318;,
 -0.04086;2.94847;27.64320;,
 -0.04086;6.45162;27.64320;,
 -124.15246;6.45162;22.22390;,
 -124.15246;2.94847;22.22390;,
 -118.13392;2.94847;22.22390;,
 -6.83851;2.94847;22.22392;,
 -0.04086;6.45162;22.22392;,
 -0.04086;2.94847;22.22392;,
 -124.15246;6.45162;-12.54160;,
 -124.15246;2.94847;-12.54160;,
 -118.13392;2.94847;-12.54160;,
 -6.83851;2.94847;-12.54160;,
 -0.04086;6.45162;-12.54158;,
 -0.04086;2.94847;-12.54158;,
 -118.13392;-0.56222;22.22390;,
 -124.15246;-0.56222;22.22390;,
 -118.13393;-0.56222;27.64318;,
 -124.15249;-0.56222;27.64320;,
 -0.04086;-0.56222;22.22392;,
 -6.83851;-0.56222;22.22392;,
 -0.04086;-0.56222;27.64320;,
 -6.83853;-0.56222;27.64318;,
 -124.15249;-0.56222;-17.96087;,
 -124.15246;-0.56222;-12.54160;,
 -118.13389;-0.56222;-17.96085;,
 -118.13392;-0.56222;-12.54160;,
 -6.83851;-0.56222;-17.96087;,
 -6.83851;-0.56222;-12.54160;,
 -0.04086;-0.56222;-17.96087;,
 -0.04086;-0.56222;-12.54158;,
 -6.89471;56.20377;27.64320;,
 -6.81828;56.20377;-17.96090;,
 -0.03078;56.20377;-17.96090;,
 -0.03076;56.20377;27.64322;,
 -118.03219;56.20377;27.64320;,
 -118.03219;56.20377;-17.96090;,
 -124.16259;56.20377;-17.96090;,
 -124.16256;56.20377;27.64320;,
 -117.52436;56.05270;23.13123;,
 -117.52436;6.20318;23.13123;,
 -6.36435;56.05270;23.13123;,
 -6.36435;6.20318;23.13123;,
 -118.63088;22.78757;-15.26435;,
 -5.56245;22.78757;-15.26435;,
 -5.56245;19.87475;-15.26435;,
 -118.63088;19.87475;-15.26435;,
 -5.56245;22.78757;28.57195;,
 -5.56245;19.87475;28.57195;,
 -118.63088;22.78757;28.57195;,
 -118.63088;19.87475;28.57195;,
 -118.63088;40.03980;-15.26435;,
 -5.56245;40.03980;-15.26435;,
 -5.56245;37.12695;-15.26435;,
 -118.63088;37.12695;-15.26435;,
 -5.56245;40.03980;28.57195;,
 -5.56245;37.12695;28.57195;,
 -118.63088;40.03980;28.57195;,
 -118.63088;37.12695;28.57195;,
 -118.63088;56.10295;-17.19558;,
 -5.56245;56.10295;-17.19558;,
 -5.56245;53.19012;-17.19558;,
 -118.63088;53.19012;-17.19558;,
 -5.56245;56.10295;26.64070;,
 -5.56245;53.19012;26.64070;,
 -118.63088;56.10295;26.64070;,
 -118.63088;53.19012;26.64070;,
 -6.81828;113.97417;-17.96090;,
 -6.81828;117.46573;-17.96090;,
 -0.03078;120.53397;-17.96090;,
 -0.03078;113.97417;-17.96090;,
 -6.89471;113.97417;27.64320;,
 -0.03076;120.53397;27.64322;,
 -0.03076;113.97417;27.64322;,
 -6.89471;117.46573;27.64320;,
 -93.09234;113.97417;-18.10547;,
 -93.16875;113.97417;27.49862;,
 -93.16875;120.53397;27.49862;,
 -93.09234;120.53397;-18.10547;,
 -87.16621;117.46573;-18.09553;,
 -87.16621;113.97417;-18.09553;,
 -87.24264;117.46573;27.50858;,
 -87.24264;113.97417;27.50858;,
 -0.03078;159.03120;-17.96090;,
 -0.03076;159.03120;27.64322;,
 -6.81828;159.03120;-17.96090;,
 -6.89471;159.03120;27.64320;,
 -87.16621;159.03120;-18.09553;,
 -93.09234;159.03120;-18.10547;,
 -93.16875;159.03120;27.49862;,
 -87.24264;159.03120;27.50858;,
 -93.09234;153.10754;-18.10547;,
 -87.16621;155.83983;-18.09553;,
 -93.16875;153.10754;27.49862;,
 -87.24264;155.83983;27.50858;,
 -6.86943;155.80460;-17.99260;,
 -6.36070;159.03120;27.64410;,
 -6.65610;155.83983;27.64410;,
 -90.75866;157.64349;23.83567;,
 -5.27663;157.64349;23.83567;,
 -5.27663;116.68665;23.83567;,
 -90.75866;116.68665;23.83567;,
 -5.27663;157.64349;26.07190;,
 -5.27663;116.68665;26.07190;,
 -90.75866;157.64349;26.07190;,
 -90.75866;116.68665;26.07190;,
 -89.33669;114.30298;20.49245;,
 -6.27670;114.30298;20.49245;,
 -6.27670;55.56553;20.49245;,
 -89.33669;55.56553;20.49245;,
 -6.27670;114.30298;24.89898;,
 -6.27670;55.56553;24.89898;,
 -89.33669;114.30298;24.89898;,
 -89.33669;55.56553;24.89898;,
 86.28171;113.97417;-17.96088;,
 86.28171;117.46573;-17.96088;,
 93.06921;120.53397;-17.96088;,
 93.06921;113.97417;-17.96088;,
 93.06924;120.53397;27.64325;,
 93.06924;113.97417;27.64325;,
 86.20528;113.97417;27.64322;,
 86.20528;117.46573;27.64322;,
 0.00757;113.97417;-18.10545;,
 -0.06885;113.97417;27.49865;,
 -0.06885;120.53397;27.49865;,
 0.00757;120.53397;-18.10545;,
 5.93370;117.46573;-18.09550;,
 5.93370;113.97417;-18.09550;,
 5.85728;117.46573;27.50860;,
 5.85728;113.97417;27.50860;,
 93.06921;159.03120;-17.96088;,
 93.06924;159.03120;27.64325;,
 86.28171;159.03120;-17.96088;,
 86.20528;159.03120;27.64322;,
 5.93370;159.03120;-18.09550;,
 0.00757;159.03120;-18.10545;,
 -0.06885;159.03120;27.49865;,
 5.85728;159.03120;27.50860;,
 0.00757;153.10754;-18.10545;,
 5.93370;155.83983;-18.09550;,
 -0.06885;153.10754;27.49865;,
 5.85728;155.83983;27.50860;,
 86.23056;155.80460;-17.99258;,
 86.73929;159.03120;27.64412;,
 86.44389;155.83983;27.64412;,
 2.34125;157.64349;23.83570;,
 87.82336;157.64349;23.83570;,
 87.82336;116.68665;23.83570;,
 2.34125;116.68665;23.83570;,
 87.82336;157.64349;26.07192;,
 87.82336;116.68665;26.07192;,
 2.34125;157.64349;26.07192;,
 2.34125;116.68665;26.07192;,
 3.76323;114.30298;24.89900;,
 86.82329;114.30298;24.89900;,
 86.82329;114.30298;20.49247;,
 3.76323;114.30298;20.49247;,
 93.04199;113.97417;-18.09550;,
 92.95006;113.97417;27.50860;,
 86.07294;113.97417;27.49865;,
 86.16484;113.97417;-18.10545;,
 5.85728;0.02480;27.50860;,
 5.93370;0.02480;-18.09550;,
 -0.06885;0.02480;27.49865;,
 0.00757;0.02480;-18.10545;,
 6.09103;6.45162;-17.96082;,
 6.09103;2.94847;-17.96082;,
 0.07242;2.94847;-17.96085;,
 0.07242;6.45162;-17.96085;,
 6.09098;6.45162;27.64320;,
 0.07242;6.45162;27.64322;,
 0.07242;2.94847;27.64322;,
 6.09098;2.94847;27.64320;,
 117.38649;6.45162;-17.96085;,
 124.18414;6.45162;-17.96085;,
 124.18414;2.94847;-17.96085;,
 117.38649;2.94847;-17.96085;,
 117.86061;6.20318;27.45030;,
 117.38646;2.94847;27.64320;,
 124.18414;2.94847;27.64322;,
 124.18414;6.45162;27.64322;,
 0.07245;6.45162;22.22392;,
 0.07245;2.94847;22.22392;,
 6.09100;2.94847;22.22392;,
 117.38649;2.94847;22.22395;,
 124.18414;6.45162;22.22395;,
 124.18414;2.94847;22.22395;,
 0.07245;6.45162;-12.54157;,
 0.07245;2.94847;-12.54157;,
 6.09100;2.94847;-12.54157;,
 117.38649;2.94847;-12.54157;,
 124.18414;6.45162;-12.54156;,
 124.18414;2.94847;-12.54156;,
 6.09100;-0.56222;22.22392;,
 0.07245;-0.56222;22.22392;,
 6.09098;-0.56222;27.64320;,
 0.07242;-0.56222;27.64322;,
 124.18414;-0.56222;22.22395;,
 117.38649;-0.56222;22.22395;,
 124.18414;-0.56222;27.64322;,
 117.38646;-0.56222;27.64320;,
 0.07242;-0.56222;-17.96085;,
 0.07245;-0.56222;-12.54157;,
 6.09103;-0.56222;-17.96082;,
 6.09100;-0.56222;-12.54157;,
 117.38649;-0.56222;-17.96085;,
 117.38649;-0.56222;-12.54157;,
 124.18414;-0.56222;-17.96085;,
 124.18414;-0.56222;-12.54156;,
 117.33029;56.16438;27.64420;,
 117.40671;56.20377;-17.96088;,
 124.19421;56.20377;-17.96088;,
 124.19424;56.20377;27.64325;,
 6.19273;56.16438;27.64420;,
 6.19273;56.20377;-17.96088;,
 0.06233;56.20377;-17.96088;,
 0.06235;56.20377;27.64322;,
 6.70055;56.09208;23.13027;,
 6.70055;6.20318;23.13125;,
 117.86064;56.09208;23.13027;,
 117.86064;6.20318;23.13125;,
 5.59403;22.78757;-15.26433;,
 118.66254;22.78757;-15.26433;,
 118.66254;19.87475;-15.26433;,
 5.59403;19.87475;-15.26433;,
 118.66254;22.78757;27.57197;,
 118.66254;19.87475;27.57197;,
 5.59403;22.78757;27.57197;,
 5.59403;19.87475;27.57197;,
 5.59403;40.03980;-15.26433;,
 118.66254;40.03980;-15.26433;,
 118.66254;37.12695;-15.26433;,
 5.59403;37.12695;-15.26433;,
 118.66254;40.03980;27.44697;,
 118.66254;37.12695;27.44697;,
 5.59403;40.03980;27.44697;,
 5.59403;37.12695;27.44697;,
 5.59403;56.10295;-17.19555;,
 118.66254;56.10295;-17.19555;,
 118.66254;53.19012;-17.19555;,
 5.59403;53.19012;-17.19555;,
 118.66254;56.10295;26.64072;,
 118.66254;53.19012;26.64072;,
 5.59403;56.10295;26.64072;,
 5.59403;53.19012;26.64072;,
 34.88826;55.56553;20.49247;,
 117.94829;55.56553;20.49247;,
 117.94829;55.56553;24.89900;,
 34.88826;55.56553;24.89900;,
 117.86064;55.80527;23.18662;,
 117.33029;55.99570;27.69712;,
 6.70055;55.80527;23.18662;,
 6.19273;55.99570;27.69712;,
 117.38649;56.19847;27.71042;,
 124.18414;56.19847;27.71040;,
 124.18414;56.19847;-18.02805;,
 117.38649;56.19847;-18.02805;,
 5.14428;114.18020;23.35020;,
 93.05576;114.18020;23.35020;,
 93.05576;55.81982;23.35020;,
 5.14428;55.81982;23.35020;,
 93.05576;114.18020;26.64985;,
 93.05576;55.81982;26.64985;,
 5.14428;114.18020;26.64985;,
 5.14428;55.81982;26.64985;,
 -86.28123;113.97417;75.06583;,
 -86.28123;117.46573;75.06583;,
 -93.06873;120.53397;75.06583;,
 -93.06873;113.97417;75.06583;,
 -93.06876;120.53397;29.46170;,
 -93.06876;113.97417;29.46170;,
 -86.20481;113.97417;29.46173;,
 -86.20481;117.46573;29.46173;,
 -0.00723;113.97417;75.21039;,
 0.06918;113.97417;29.60630;,
 0.06918;120.53397;29.60630;,
 -0.00723;120.53397;75.21039;,
 -5.93335;117.46573;75.20044;,
 -5.93335;113.97417;75.20044;,
 -5.85693;117.46573;29.59635;,
 -5.85693;113.97417;29.59635;,
 -93.06873;159.03120;75.06583;,
 -93.06876;159.03120;29.46170;,
 -86.28123;159.03120;75.06583;,
 -86.20481;159.03120;29.46173;,
 -5.93335;159.03120;75.20044;,
 -0.00723;159.03120;75.21039;,
 0.06918;159.03120;29.60630;,
 -5.85693;159.03120;29.59635;,
 -0.00723;153.10754;75.21039;,
 -5.93335;155.83983;75.20044;,
 0.06918;153.10754;29.60630;,
 -5.85693;155.83983;29.59635;,
 -86.23008;155.80460;75.09752;,
 -86.73881;159.03120;29.46083;,
 -86.44341;155.83983;29.46083;,
 -2.34090;157.64349;33.26925;,
 -87.82288;157.64349;33.26925;,
 -87.82288;116.68665;33.26925;,
 -2.34090;116.68665;33.26925;,
 -87.82288;157.64349;31.03303;,
 -87.82288;116.68665;31.03303;,
 -2.34090;157.64349;31.03302;,
 -2.34090;116.68665;31.03302;,
 -3.76287;114.30298;32.20594;,
 -86.82281;114.30298;32.20595;,
 -86.82281;114.30298;36.61248;,
 -3.76287;114.30298;36.61247;,
 -93.04151;113.97417;75.20044;,
 -92.94958;113.97417;29.59636;,
 -86.07246;113.97417;29.60630;,
 -86.16436;113.97417;75.21040;,
 -5.85693;0.02480;29.59635;,
 -5.93335;0.02480;75.20044;,
 0.06918;0.02480;29.60630;,
 -0.00723;0.02480;75.21039;,
 -6.09067;6.45162;75.06577;,
 -6.09067;2.94848;75.06577;,
 -0.07208;2.94848;75.06580;,
 -0.07208;6.45162;75.06580;,
 -6.09063;6.45162;29.46175;,
 -0.07209;6.45162;29.46172;,
 -0.07209;2.94848;29.46172;,
 -6.09063;2.94848;29.46175;,
 -117.38601;6.45162;75.06580;,
 -124.18365;6.45162;75.06580;,
 -124.18365;2.94848;75.06580;,
 -117.38601;2.94848;75.06580;,
 -117.86013;6.20318;29.65466;,
 -117.38599;2.94848;29.46176;,
 -124.18366;2.94848;29.46173;,
 -124.18366;6.45162;29.46173;,
 -0.07210;6.45162;34.88102;,
 -0.07210;2.94848;34.88102;,
 -6.09065;2.94848;34.88102;,
 -117.38601;2.94848;34.88101;,
 -124.18365;6.45162;34.88101;,
 -124.18365;2.94848;34.88101;,
 -0.07210;6.45162;69.64652;,
 -0.07210;2.94848;69.64652;,
 -6.09065;2.94848;69.64652;,
 -117.38601;2.94848;69.64654;,
 -124.18365;6.45162;69.64651;,
 -124.18365;2.94848;69.64651;,
 -6.09065;-0.56223;34.88102;,
 -0.07210;-0.56223;34.88102;,
 -6.09063;-0.56223;29.46175;,
 -0.07209;-0.56223;29.46172;,
 -124.18365;-0.56223;34.88101;,
 -117.38601;-0.56223;34.88101;,
 -124.18366;-0.56223;29.46173;,
 -117.38599;-0.56223;29.46176;,
 -0.07208;-0.56223;75.06580;,
 -0.07210;-0.56223;69.64652;,
 -6.09067;-0.56223;75.06577;,
 -6.09065;-0.56223;69.64652;,
 -117.38601;-0.56223;75.06580;,
 -117.38601;-0.56223;69.64654;,
 -124.18365;-0.56223;75.06580;,
 -124.18365;-0.56223;69.64651;,
 -117.32981;56.16438;29.46076;,
 -117.40623;56.20377;75.06583;,
 -124.19373;56.20377;75.06583;,
 -124.19376;56.20377;29.46171;,
 -6.19238;56.16438;29.46075;,
 -6.19237;56.20377;75.06581;,
 -0.06198;56.20377;75.06581;,
 -0.06201;56.20377;29.46172;,
 -6.70021;56.09208;33.97467;,
 -6.70021;6.20318;33.97370;,
 -117.86016;56.09208;33.97468;,
 -117.86016;6.20318;33.97371;,
 -5.59367;22.78757;72.36928;,
 -118.66206;22.78757;72.36928;,
 -118.66206;19.87475;72.36928;,
 -5.59367;19.87475;72.36928;,
 -118.66206;22.78757;29.53298;,
 -118.66206;19.87475;29.53298;,
 -5.59368;22.78757;29.53297;,
 -5.59368;19.87475;29.53297;,
 -5.59367;40.03980;72.36928;,
 -118.66206;40.03980;72.36928;,
 -118.66206;37.12695;72.36928;,
 -5.59367;37.12695;72.36928;,
 -118.66206;40.03980;29.65798;,
 -118.66206;37.12695;29.65798;,
 -5.59368;40.03980;29.65797;,
 -5.59368;37.12695;29.65797;,
 -5.59367;56.10295;74.30049;,
 -118.66206;56.10295;74.30051;,
 -118.66206;53.19012;74.30051;,
 -5.59367;53.19012;74.30049;,
 -118.66206;56.10295;30.46423;,
 -118.66206;53.19012;30.46423;,
 -5.59368;56.10295;30.46422;,
 -5.59368;53.19012;30.46422;,
 -34.88779;55.56553;36.61248;,
 -117.94781;55.56553;36.61248;,
 -117.94781;55.56553;32.20596;,
 -34.88779;55.56553;32.20595;,
 -117.86016;55.80527;33.91833;,
 -117.32981;55.99570;29.40783;,
 -6.70021;55.80527;33.91832;,
 -6.19238;55.99570;29.40782;,
 -117.38601;56.19847;29.39454;,
 -124.18366;56.19847;29.39456;,
 -124.18365;56.19847;75.13300;,
 -117.38601;56.19847;75.13300;,
 -5.14392;114.18020;33.75475;,
 -93.05529;114.18020;33.75475;,
 -93.05529;55.81982;33.75475;,
 -5.14392;55.81982;33.75475;,
 -93.05529;114.18020;30.45510;,
 -93.05529;55.81982;30.45510;,
 -5.14393;114.18020;30.45510;,
 -5.14393;55.81982;30.45510;,
 118.14049;6.45162;75.92731;,
 118.14049;2.94848;75.92731;,
 124.15909;2.94848;75.92734;,
 124.15909;6.45162;75.92734;,
 118.14053;6.45162;30.32330;,
 124.15908;6.45162;30.32327;,
 124.15908;2.94848;30.32327;,
 118.14053;2.94848;30.32330;,
 6.84516;6.45162;75.92735;,
 0.04751;6.45162;75.92735;,
 0.04751;2.94848;75.92735;,
 6.84516;2.94848;75.92735;,
 6.37101;6.20318;30.51620;,
 6.84517;2.94848;30.32331;,
 0.04750;2.94848;30.32328;,
 0.04750;6.45162;30.32328;,
 124.15906;6.45162;35.74257;,
 124.15906;2.94848;35.74257;,
 118.14052;2.94848;35.74257;,
 6.84515;2.94848;35.74256;,
 0.04750;6.45162;35.74256;,
 0.04750;2.94848;35.74256;,
 124.15906;6.45162;70.50806;,
 124.15906;2.94848;70.50806;,
 118.14052;2.94848;70.50806;,
 6.84515;2.94848;70.50808;,
 0.04750;6.45162;70.50806;,
 0.04750;2.94848;70.50806;,
 118.14052;-0.56223;35.74257;,
 124.15906;-0.56223;35.74257;,
 118.14053;-0.56223;30.32330;,
 124.15908;-0.56223;30.32327;,
 0.04750;-0.56223;35.74256;,
 6.84515;-0.56223;35.74256;,
 0.04750;-0.56223;30.32328;,
 6.84517;-0.56223;30.32331;,
 124.15909;-0.56223;75.92734;,
 124.15906;-0.56223;70.50806;,
 118.14049;-0.56223;75.92731;,
 118.14052;-0.56223;70.50806;,
 6.84516;-0.56223;75.92735;,
 6.84515;-0.56223;70.50808;,
 0.04751;-0.56223;75.92735;,
 0.04750;-0.56223;70.50806;,
 6.90135;56.20377;30.32328;,
 6.82492;56.20377;75.92738;,
 0.03744;56.20377;75.92738;,
 0.03740;56.20377;30.32326;,
 118.03878;56.20377;30.32327;,
 118.03879;56.20377;75.92737;,
 124.16919;56.20377;75.92737;,
 124.16915;56.20377;30.32327;,
 117.53096;56.05270;34.83524;,
 117.53096;6.20318;34.83524;,
 6.37100;56.05270;34.83526;,
 6.37100;6.20318;34.83526;,
 118.63748;22.78757;73.23081;,
 5.56909;22.78757;73.23083;,
 5.56909;19.87475;73.23083;,
 118.63748;19.87475;73.23081;,
 5.56909;22.78757;29.39453;,
 5.56909;19.87475;29.39453;,
 118.63747;22.78757;29.39452;,
 118.63747;19.87475;29.39452;,
 118.63748;40.03980;73.23081;,
 5.56909;40.03980;73.23083;,
 5.56909;37.12695;73.23083;,
 118.63748;37.12695;73.23081;,
 5.56909;40.03980;29.39453;,
 5.56909;37.12695;29.39453;,
 118.63747;40.03980;29.39452;,
 118.63747;37.12695;29.39452;,
 118.63748;56.10295;75.16204;,
 5.56910;56.10295;75.16206;,
 5.56910;53.19012;75.16206;,
 118.63748;53.19012;75.16204;,
 5.56909;56.10295;31.32578;,
 5.56909;53.19012;31.32578;,
 118.63748;56.10295;31.32577;,
 118.63748;53.19012;31.32577;,
 6.82492;113.97417;75.92738;,
 6.82492;117.46573;75.92738;,
 0.03744;120.53397;75.92738;,
 0.03744;113.97417;75.92738;,
 6.90135;113.97417;30.32328;,
 0.03740;120.53397;30.32326;,
 0.03740;113.97417;30.32326;,
 6.90135;117.46573;30.32328;,
 93.09894;113.97417;76.07195;,
 93.17535;113.97417;30.46785;,
 93.17535;120.53397;30.46785;,
 93.09894;120.53397;76.07195;,
 87.17280;117.46573;76.06200;,
 87.17280;113.97417;76.06200;,
 87.24923;117.46573;30.45790;,
 87.24923;113.97417;30.45790;,
 0.03744;159.03120;75.92738;,
 0.03740;159.03120;30.32326;,
 6.82492;159.03120;75.92738;,
 6.90135;159.03120;30.32328;,
 87.17280;159.03120;76.06200;,
 93.09894;159.03120;76.07195;,
 93.17535;159.03120;30.46785;,
 87.24923;159.03120;30.45790;,
 93.09894;153.10754;76.07195;,
 87.17280;155.83983;76.06200;,
 93.17535;153.10754;30.46785;,
 87.24923;155.83983;30.45790;,
 6.87609;155.80460;75.95908;,
 6.36734;159.03120;30.32238;,
 6.66275;155.83983;30.32238;,
 90.76525;157.64349;34.13080;,
 5.28328;157.64349;34.13081;,
 5.28328;116.68665;34.13081;,
 90.76525;116.68665;34.13080;,
 5.28328;157.64349;31.89458;,
 5.28328;116.68665;31.89458;,
 90.76525;157.64349;31.89458;,
 90.76525;116.68665;31.89458;,
 89.34328;114.30298;37.47402;,
 6.28334;114.30298;37.47403;,
 6.28334;55.56553;37.47403;,
 89.34328;55.56553;37.47402;,
 6.28334;114.30298;33.06750;,
 6.28334;55.56553;33.06750;,
 89.34328;114.30298;33.06750;,
 89.34328;55.56553;33.06750;;
 
 504;
 4;0,1,2,3;,
 4;4,5,6,7;,
 4;8,9,10,11;,
 4;8,11,1,0;,
 4;12,4,7,13;,
 4;12,13,14,15;,
 4;16,17,6,5;,
 4;5,4,12,15;,
 4;18,19,13,7;,
 4;20,15,14,21;,
 4;22,3,2,23;,
 4;22,23,17,16;,
 4;22,16,5,3;,
 4;23,24,18,17;,
 4;3,5,15,9;,
 4;3,9,8,0;,
 4;24,1,11,25;,
 4;24,25,19,18;,
 4;9,15,20,26;,
 4;25,27,21,19;,
 4;26,20,21,27;,
 4;26,27,10,9;,
 4;28,29,17,18;,
 4;30,28,18,7;,
 4;31,30,7,6;,
 4;29,31,6,17;,
 4;29,28,30,31;,
 4;32,33,19,21;,
 4;34,32,21,14;,
 4;35,34,14,13;,
 4;33,35,13,19;,
 4;33,32,34,35;,
 4;36,37,23,2;,
 4;38,36,2,1;,
 4;39,38,1,24;,
 4;37,39,24,23;,
 4;37,36,38,39;,
 4;40,41,25,11;,
 4;42,40,11,10;,
 4;43,42,10,27;,
 4;41,43,27,25;,
 4;41,40,42,43;,
 4;44,45,8,12;,
 4;45,46,9,8;,
 4;46,47,15,9;,
 4;47,44,12,15;,
 4;12,8,9,15;,
 4;48,4,0,49;,
 4;49,0,3,50;,
 4;50,3,5,51;,
 4;51,5,4,48;,
 4;51,48,49,50;,
 4;4,5,3,0;,
 4;48,52,53,4;,
 4;52,54,55,53;,
 4;54,44,12,55;,
 4;44,48,4,12;,
 4;44,54,52,48;,
 4;4,53,55,12;,
 4;56,57,58,59;,
 4;57,60,61,58;,
 4;60,62,63,61;,
 4;62,56,59,63;,
 4;62,60,57,56;,
 4;59,58,61,63;,
 4;64,65,66,67;,
 4;65,68,69,66;,
 4;68,70,71,69;,
 4;70,64,67,71;,
 4;70,68,65,64;,
 4;67,66,69,71;,
 4;72,73,74,75;,
 4;73,76,77,74;,
 4;76,78,79,77;,
 4;78,72,75,79;,
 4;78,76,73,72;,
 4;75,74,77,79;,
 4;80,81,82,83;,
 4;80,83,46,45;,
 4;80,45,44,84;,
 4;83,82,85,86;,
 4;83,86,47,46;,
 4;84,44,47,86;,
 4;84,86,85,87;,
 4;88,89,90,91;,
 4;92,81,80,93;,
 4;92,93,88,91;,
 4;92,94,87,81;,
 4;93,80,84,95;,
 4;93,95,89,88;,
 4;94,90,89,95;,
 4;94,95,84,87;,
 4;96,97,85,82;,
 4;98,96,82,81;,
 4;99,98,81,87;,
 4;97,99,87,85;,
 4;97,96,98,99;,
 4;100,101,102,103;,
 4;104,101,100,105;,
 4;104,105,92,91;,
 4;104,91,90,106;,
 4;104,106,102,101;,
 4;105,107,94,92;,
 4;106,90,94,107;,
 4;106,107,103,102;,
 4;98,108,105,100;,
 4;109,98,100,103;,
 4;110,109,103,107;,
 4;108,110,107,105;,
 4;108,98,109,110;,
 4;111,112,113,114;,
 4;112,115,116,113;,
 4;115,117,118,116;,
 4;117,111,114,118;,
 4;117,115,112,111;,
 4;114,113,116,118;,
 4;119,120,121,122;,
 4;120,123,124,121;,
 4;123,125,126,124;,
 4;125,119,122,126;,
 4;125,123,120,119;,
 4;122,121,124,126;,
 4;127,128,129,130;,
 4;130,129,131,132;,
 4;133,132,131,134;,
 4;135,136,137,138;,
 4;139,128,127,140;,
 4;139,140,135,138;,
 4;139,141,134,128;,
 4;140,127,133,142;,
 4;141,137,136,142;,
 4;141,142,133,134;,
 4;143,144,131,129;,
 4;145,143,129,128;,
 4;146,145,128,134;,
 4;144,146,134,131;,
 4;144,143,145,146;,
 4;147,148,149,150;,
 4;151,148,147,152;,
 4;151,152,139,138;,
 4;151,138,137,153;,
 4;151,153,149,148;,
 4;152,154,141,139;,
 4;153,137,141,154;,
 4;153,154,150,149;,
 4;145,155,152,147;,
 4;156,145,147,150;,
 4;157,156,150,154;,
 4;155,157,154,152;,
 4;155,145,156,157;,
 4;158,159,160,161;,
 4;159,162,163,160;,
 4;162,164,165,163;,
 4;164,158,161,165;,
 4;164,162,159,158;,
 4;161,160,163,165;,
 4;166,167,168,169;,
 4;170,171,172,173;,
 4;174,175,140,142;,
 4;176,174,142,136;,
 4;177,176,136,135;,
 4;175,177,135,140;,
 4;175,174,176,177;,
 4;178,179,180,181;,
 4;182,183,184,185;,
 4;186,187,188,189;,
 4;186,189,179,178;,
 4;190,182,185,191;,
 4;190,191,192,193;,
 4;194,195,184,183;,
 4;183,182,190,193;,
 4;196,197,191,185;,
 4;198,193,192,199;,
 4;200,181,180,201;,
 4;200,201,195,194;,
 4;200,194,183,181;,
 4;201,202,196,195;,
 4;181,183,193,187;,
 4;181,187,186,178;,
 4;202,179,189,203;,
 4;202,203,197,196;,
 4;187,193,198,204;,
 4;203,205,199,197;,
 4;204,198,199,205;,
 4;204,205,188,187;,
 4;206,207,195,196;,
 4;208,206,196,185;,
 4;209,208,185,184;,
 4;207,209,184,195;,
 4;207,206,208,209;,
 4;210,211,197,199;,
 4;212,210,199,192;,
 4;213,212,192,191;,
 4;211,213,191,197;,
 4;211,210,212,213;,
 4;214,215,201,180;,
 4;216,214,180,179;,
 4;217,216,179,202;,
 4;215,217,202,201;,
 4;215,214,216,217;,
 4;218,219,203,189;,
 4;220,218,189,188;,
 4;221,220,188,205;,
 4;219,221,205,203;,
 4;219,218,220,221;,
 4;222,223,186,190;,
 4;223,224,187,186;,
 4;224,225,193,187;,
 4;225,222,190,193;,
 4;190,186,187,193;,
 4;226,182,178,227;,
 4;227,178,181,228;,
 4;228,181,183,229;,
 4;229,183,182,226;,
 4;229,226,227,228;,
 4;182,183,181,178;,
 4;226,230,231,182;,
 4;230,232,233,231;,
 4;232,222,190,233;,
 4;222,226,182,190;,
 4;182,231,233,190;,
 4;234,235,236,237;,
 4;235,238,239,236;,
 4;238,240,241,239;,
 4;240,234,237,241;,
 4;240,238,235,234;,
 4;237,236,239,241;,
 4;242,243,244,245;,
 4;243,246,247,244;,
 4;246,248,249,247;,
 4;248,242,245,249;,
 4;248,246,243,242;,
 4;245,244,247,249;,
 4;250,251,252,253;,
 4;251,254,255,252;,
 4;254,256,257,255;,
 4;256,250,253,257;,
 4;256,254,251,250;,
 4;253,252,255,257;,
 4;258,259,260,261;,
 4;262,263,222,232;,
 4;264,262,232,230;,
 4;265,264,230,226;,
 4;263,265,226,222;,
 4;263,262,264,265;,
 4;266,267,268,269;,
 4;270,271,272,273;,
 4;271,274,275,272;,
 4;274,276,277,275;,
 4;276,270,273,277;,
 4;276,274,271,270;,
 4;273,272,275,277;,
 4;278,279,280,281;,
 4;281,280,282,283;,
 4;284,283,282,285;,
 4;286,287,288,289;,
 4;290,279,278,291;,
 4;290,291,286,289;,
 4;290,292,285,279;,
 4;291,278,284,293;,
 4;292,288,287,293;,
 4;292,293,284,285;,
 4;294,295,282,280;,
 4;296,294,280,279;,
 4;297,296,279,285;,
 4;295,297,285,282;,
 4;295,294,296,297;,
 4;298,299,300,301;,
 4;302,299,298,303;,
 4;302,303,290,289;,
 4;302,289,288,304;,
 4;302,304,300,299;,
 4;303,305,292,290;,
 4;304,288,292,305;,
 4;304,305,301,300;,
 4;296,306,303,298;,
 4;307,296,298,301;,
 4;308,307,301,305;,
 4;306,308,305,303;,
 4;306,296,307,308;,
 4;309,310,311,312;,
 4;310,313,314,311;,
 4;313,315,316,314;,
 4;315,309,312,316;,
 4;315,313,310,309;,
 4;312,311,314,316;,
 4;317,318,319,320;,
 4;321,322,323,324;,
 4;325,326,291,293;,
 4;327,325,293,287;,
 4;328,327,287,286;,
 4;326,328,286,291;,
 4;326,325,327,328;,
 4;329,330,331,332;,
 4;333,334,335,336;,
 4;337,338,339,340;,
 4;337,340,330,329;,
 4;341,333,336,342;,
 4;341,342,343,344;,
 4;345,346,335,334;,
 4;334,333,341,344;,
 4;347,348,342,336;,
 4;349,344,343,350;,
 4;351,332,331,352;,
 4;351,352,346,345;,
 4;351,345,334,332;,
 4;352,353,347,346;,
 4;332,334,344,338;,
 4;332,338,337,329;,
 4;353,330,340,354;,
 4;353,354,348,347;,
 4;338,344,349,355;,
 4;354,356,350,348;,
 4;355,349,350,356;,
 4;355,356,339,338;,
 4;357,358,346,347;,
 4;359,357,347,336;,
 4;360,359,336,335;,
 4;358,360,335,346;,
 4;358,357,359,360;,
 4;361,362,348,350;,
 4;363,361,350,343;,
 4;364,363,343,342;,
 4;362,364,342,348;,
 4;362,361,363,364;,
 4;365,366,352,331;,
 4;367,365,331,330;,
 4;368,367,330,353;,
 4;366,368,353,352;,
 4;366,365,367,368;,
 4;369,370,354,340;,
 4;371,369,340,339;,
 4;372,371,339,356;,
 4;370,372,356,354;,
 4;370,369,371,372;,
 4;373,374,337,341;,
 4;374,375,338,337;,
 4;375,376,344,338;,
 4;376,373,341,344;,
 4;341,337,338,344;,
 4;377,333,329,378;,
 4;378,329,332,379;,
 4;379,332,334,380;,
 4;380,334,333,377;,
 4;380,377,378,379;,
 4;333,334,332,329;,
 4;377,381,382,333;,
 4;381,383,384,382;,
 4;383,373,341,384;,
 4;373,377,333,341;,
 4;333,382,384,341;,
 4;385,386,387,388;,
 4;386,389,390,387;,
 4;389,391,392,390;,
 4;391,385,388,392;,
 4;391,389,386,385;,
 4;388,387,390,392;,
 4;393,394,395,396;,
 4;394,397,398,395;,
 4;397,399,400,398;,
 4;399,393,396,400;,
 4;399,397,394,393;,
 4;396,395,398,400;,
 4;401,402,403,404;,
 4;402,405,406,403;,
 4;405,407,408,406;,
 4;407,401,404,408;,
 4;407,405,402,401;,
 4;404,403,406,408;,
 4;409,410,411,412;,
 4;413,414,373,383;,
 4;415,413,383,381;,
 4;416,415,381,377;,
 4;414,416,377,373;,
 4;414,413,415,416;,
 4;417,418,419,420;,
 4;421,422,423,424;,
 4;422,425,426,423;,
 4;425,427,428,426;,
 4;427,421,424,428;,
 4;427,425,422,421;,
 4;424,423,426,428;,
 4;429,430,431,432;,
 4;433,434,435,436;,
 4;437,438,439,440;,
 4;437,440,430,429;,
 4;441,433,436,442;,
 4;441,442,443,444;,
 4;445,446,435,434;,
 4;434,433,441,444;,
 4;447,448,442,436;,
 4;449,444,443,450;,
 4;451,432,431,452;,
 4;451,452,446,445;,
 4;451,445,434,432;,
 4;452,453,447,446;,
 4;432,434,444,438;,
 4;432,438,437,429;,
 4;453,430,440,454;,
 4;453,454,448,447;,
 4;438,444,449,455;,
 4;454,456,450,448;,
 4;455,449,450,456;,
 4;455,456,439,438;,
 4;457,458,446,447;,
 4;459,457,447,436;,
 4;460,459,436,435;,
 4;458,460,435,446;,
 4;458,457,459,460;,
 4;461,462,448,450;,
 4;463,461,450,443;,
 4;464,463,443,442;,
 4;462,464,442,448;,
 4;462,461,463,464;,
 4;465,466,452,431;,
 4;467,465,431,430;,
 4;468,467,430,453;,
 4;466,468,453,452;,
 4;466,465,467,468;,
 4;469,470,454,440;,
 4;471,469,440,439;,
 4;472,471,439,456;,
 4;470,472,456,454;,
 4;470,469,471,472;,
 4;473,474,437,441;,
 4;474,475,438,437;,
 4;475,476,444,438;,
 4;476,473,441,444;,
 4;441,437,438,444;,
 4;477,433,429,478;,
 4;478,429,432,479;,
 4;479,432,434,480;,
 4;480,434,433,477;,
 4;480,477,478,479;,
 4;433,434,432,429;,
 4;477,481,482,433;,
 4;481,483,484,482;,
 4;483,473,441,484;,
 4;473,477,433,441;,
 4;473,483,481,477;,
 4;433,482,484,441;,
 4;485,486,487,488;,
 4;486,489,490,487;,
 4;489,491,492,490;,
 4;491,485,488,492;,
 4;491,489,486,485;,
 4;488,487,490,492;,
 4;493,494,495,496;,
 4;494,497,498,495;,
 4;497,499,500,498;,
 4;499,493,496,500;,
 4;499,497,494,493;,
 4;496,495,498,500;,
 4;501,502,503,504;,
 4;502,505,506,503;,
 4;505,507,508,506;,
 4;507,501,504,508;,
 4;507,505,502,501;,
 4;504,503,506,508;,
 4;509,510,511,512;,
 4;509,512,475,474;,
 4;509,474,473,513;,
 4;512,511,514,515;,
 4;512,515,476,475;,
 4;513,473,476,515;,
 4;513,515,514,516;,
 4;517,518,519,520;,
 4;521,510,509,522;,
 4;521,522,517,520;,
 4;521,523,516,510;,
 4;522,509,513,524;,
 4;522,524,518,517;,
 4;523,519,518,524;,
 4;523,524,513,516;,
 4;525,526,514,511;,
 4;527,525,511,510;,
 4;528,527,510,516;,
 4;526,528,516,514;,
 4;526,525,527,528;,
 4;529,530,531,532;,
 4;533,530,529,534;,
 4;533,534,521,520;,
 4;533,520,519,535;,
 4;533,535,531,530;,
 4;534,536,523,521;,
 4;535,519,523,536;,
 4;535,536,532,531;,
 4;527,537,534,529;,
 4;538,527,529,532;,
 4;539,538,532,536;,
 4;537,539,536,534;,
 4;537,527,538,539;,
 4;540,541,542,543;,
 4;541,544,545,542;,
 4;544,546,547,545;,
 4;546,540,543,547;,
 4;546,544,541,540;,
 4;543,542,545,547;,
 4;548,549,550,551;,
 4;549,552,553,550;,
 4;552,554,555,553;,
 4;554,548,551,555;,
 4;554,552,549,548;,
 4;551,550,553,555;;
 
 MeshMaterialList {
  1;
  504;
  0,
  0,
  0,
  0,
  0,
  0,
  0,
  0,
  0,
  0,
  0,
  0,
  0,
  0,
  0,
  0,
  0,
  0,
  0,
  0,
  0,
  0,
  0,
  0,
  0,
  0,
  0,
  0,
  0,
  0,
  0,
  0,
  0,
  0,
  0,
  0,
  0,
  0,
  0,
  0,
  0,
  0,
  0,
  0,
  0,
  0,
  0,
  0,
  0,
  0,
  0,
  0,
  0,
  0,
  0,
  0,
  0,
  0,
  0,
  0,
  0,
  0,
  0,
  0,
  0,
  0,
  0,
  0,
  0,
  0,
  0,
  0,
  0,
  0,
  0,
  0,
  0,
  0,
  0,
  0,
  0,
  0,
  0,
  0,
  0,
  0,
  0,
  0,
  0,
  0,
  0,
  0,
  0,
  0,
  0,
  0,
  0,
  0,
  0,
  0,
  0,
  0,
  0,
  0,
  0,
  0,
  0,
  0,
  0,
  0,
  0,
  0,
  0,
  0,
  0,
  0,
  0,
  0,
  0,
  0,
  0,
  0,
  0,
  0,
  0,
  0,
  0,
  0,
  0,
  0,
  0,
  0,
  0,
  0,
  0,
  0,
  0,
  0,
  0,
  0,
  0,
  0,
  0,
  0,
  0,
  0,
  0,
  0,
  0,
  0,
  0,
  0,
  0,
  0,
  0,
  0,
  0,
  0,
  0,
  0,
  0,
  0,
  0,
  0,
  0,
  0,
  0,
  0,
  0,
  0,
  0,
  0,
  0,
  0,
  0,
  0,
  0,
  0,
  0,
  0,
  0,
  0,
  0,
  0,
  0,
  0,
  0,
  0,
  0,
  0,
  0,
  0,
  0,
  0,
  0,
  0,
  0,
  0,
  0,
  0,
  0,
  0,
  0,
  0,
  0,
  0,
  0,
  0,
  0,
  0,
  0,
  0,
  0,
  0,
  0,
  0,
  0,
  0,
  0,
  0,
  0,
  0,
  0,
  0,
  0,
  0,
  0,
  0,
  0,
  0,
  0,
  0,
  0,
  0,
  0,
  0,
  0,
  0,
  0,
  0,
  0,
  0,
  0,
  0,
  0,
  0,
  0,
  0,
  0,
  0,
  0,
  0,
  0,
  0,
  0,
  0,
  0,
  0,
  0,
  0,
  0,
  0,
  0,
  0,
  0,
  0,
  0,
  0,
  0,
  0,
  0,
  0,
  0,
  0,
  0,
  0,
  0,
  0,
  0,
  0,
  0,
  0,
  0,
  0,
  0,
  0,
  0,
  0,
  0,
  0,
  0,
  0,
  0,
  0,
  0,
  0,
  0,
  0,
  0,
  0,
  0,
  0,
  0,
  0,
  0,
  0,
  0,
  0,
  0,
  0,
  0,
  0,
  0,
  0,
  0,
  0,
  0,
  0,
  0,
  0,
  0,
  0,
  0,
  0,
  0,
  0,
  0,
  0,
  0,
  0,
  0,
  0,
  0,
  0,
  0,
  0,
  0,
  0,
  0,
  0,
  0,
  0,
  0,
  0,
  0,
  0,
  0,
  0,
  0,
  0,
  0,
  0,
  0,
  0,
  0,
  0,
  0,
  0,
  0,
  0,
  0,
  0,
  0,
  0,
  0,
  0,
  0,
  0,
  0,
  0,
  0,
  0,
  0,
  0,
  0,
  0,
  0,
  0,
  0,
  0,
  0,
  0,
  0,
  0,
  0,
  0,
  0,
  0,
  0,
  0,
  0,
  0,
  0,
  0,
  0,
  0,
  0,
  0,
  0,
  0,
  0,
  0,
  0,
  0,
  0,
  0,
  0,
  0,
  0,
  0,
  0,
  0,
  0,
  0,
  0,
  0,
  0,
  0,
  0,
  0,
  0,
  0,
  0,
  0,
  0,
  0,
  0,
  0,
  0,
  0,
  0,
  0,
  0,
  0,
  0,
  0,
  0,
  0,
  0,
  0,
  0,
  0,
  0,
  0,
  0,
  0,
  0,
  0,
  0,
  0,
  0,
  0,
  0,
  0,
  0,
  0,
  0,
  0,
  0,
  0,
  0,
  0,
  0,
  0,
  0,
  0,
  0,
  0,
  0,
  0,
  0,
  0,
  0,
  0,
  0,
  0,
  0,
  0,
  0,
  0,
  0,
  0,
  0,
  0,
  0,
  0,
  0,
  0,
  0,
  0,
  0,
  0,
  0,
  0,
  0,
  0,
  0,
  0,
  0,
  0,
  0,
  0,
  0,
  0;;
  Material {
   0.633600;0.633600;0.633600;1.000000;;
   16.000000;
   0.230000;0.230000;0.230000;;
   0.000000;0.000000;0.000000;;
  }
 }
 MeshNormals {
  391;
  0.000004;0.000000;1.000000;,
  0.000004;0.000000;-1.000000;,
  0.000000;0.000000;-1.000000;,
  -0.007632;0.014801;0.999861;,
  0.000003;0.000000;-1.000000;,
  0.000312;0.009821;0.999952;,
  -0.000000;0.000000;-1.000000;,
  -0.004779;0.019689;0.999795;,
  -1.000000;0.000000;-0.000003;,
  -1.000000;0.000000;-0.000004;,
  0.000000;-1.000000;-0.000000;,
  1.000000;0.000000;0.000000;,
  -1.000000;0.000000;0.000003;,
  -1.000000;0.000000;0.000004;,
  0.000000;0.000000;0.000000;,
  -1.000000;0.000000;0.000006;,
  1.000000;0.000000;0.000003;,
  -1.000000;0.000000;0.000000;,
  -0.000004;0.000000;1.000000;,
  1.000000;0.000000;0.000006;,
  -0.007161;0.013764;0.999880;,
  -0.999996;-0.002560;0.001339;,
  -0.000000;-0.000000;-1.000000;,
  0.000000;-0.000000;-1.000000;,
  1.000000;-0.000101;-0.000000;,
  -0.015215;0.013756;0.999790;,
  0.999998;-0.002045;0.000001;,
  0.000002;-0.000000;-1.000000;,
  0.000002;-0.000001;-1.000000;,
  0.000003;-0.000000;-1.000000;,
  -1.000000;-0.000203;0.000000;,
  0.000003;-0.000000;1.000000;,
  0.000448;0.006886;0.999976;,
  -0.992418;0.001016;-0.122906;,
  0.000000;0.000000;1.000000;,
  0.000559;0.000000;-1.000000;,
  1.000000;0.000000;-0.000001;,
  -0.000561;0.000000;1.000000;,
  -0.999999;0.000000;-0.001676;,
  -0.999999;0.000000;-0.001676;,
  -0.999999;0.000000;-0.001676;,
  0.001678;0.000000;-0.999999;,
  0.001677;0.000000;-0.999999;,
  0.000000;1.000000;0.000000;,
  0.001679;0.000000;-0.999999;,
  0.001612;0.001633;-0.999997;,
  0.999999;0.000000;0.001676;,
  0.000739;0.002449;-0.999997;,
  0.001479;0.004899;-0.999987;,
  -0.001679;0.000078;0.999999;,
  -1.000000;0.000000;-0.000006;,
  -1.000000;-0.000101;-0.000003;,
  -0.000000;-0.988685;0.150004;,
  -0.000362;-0.987258;0.159127;,
  0.006328;-0.987383;0.158226;,
  0.010080;-0.974456;0.224353;,
  1.000000;-0.000101;-0.000000;,
  -1.000000;-0.000101;0.000003;,
  0.009817;-0.999951;-0.001368;,
  -1.000000;0.000000;-0.000004;,
  -0.000004;0.000000;1.000000;,
  -0.999977;-0.005120;0.004353;,
  -0.007586;-0.001045;0.999971;,
  -0.004771;-0.001337;0.999988;,
  0.000002;-0.000000;1.000000;,
  0.000430;-0.000960;1.000000;,
  0.000000;0.999860;-0.016734;,
  0.998286;0.005051;0.058304;,
  0.000000;0.999440;-0.033464;,
  -0.001063;-0.999625;0.027358;,
  -0.000561;0.000000;1.000000;,
  -0.000004;0.000000;1.000000;,
  0.001679;0.000000;-0.999999;,
  -0.001678;0.000000;0.999999;,
  -0.001679;0.000000;0.999999;,
  -0.001679;0.000000;0.999999;,
  -0.001677;0.000000;0.999999;,
  0.001679;0.000000;-0.999999;,
  0.001579;0.002449;-0.999996;,
  -0.999999;0.000000;-0.001676;,
  -0.001679;0.000026;0.999999;,
  -0.001679;0.000039;0.999999;,
  -0.000220;-1.000000;0.000386;,
  0.998513;-0.054024;-0.007331;,
  0.000558;0.000000;-1.000000;,
  0.000000;0.000000;-1.000000;,
  1.000000;0.000000;-0.000001;,
  -0.000561;0.000000;1.000000;,
  0.000838;0.000000;-1.000000;,
  -0.000840;0.000000;1.000000;,
  -0.999999;0.000000;-0.001676;,
  0.001679;0.000000;-0.999999;,
  0.000000;1.000000;0.000000;,
  0.000000;-1.000000;-0.000000;,
  -0.999999;0.000000;-0.001676;,
  0.001680;0.000000;-0.999999;,
  0.001613;0.001633;-0.999997;,
  0.999999;0.000000;0.001676;,
  0.000739;0.002449;-0.999997;,
  0.001479;0.004899;-0.999987;,
  -0.001679;0.000078;0.999999;,
  1.000000;0.000000;0.000000;,
  0.000000;0.000000;1.000000;,
  -0.999999;0.000000;-0.001676;,
  -0.001679;0.000000;0.999999;,
  0.999999;0.000000;0.001676;,
  0.000004;0.000000;1.000000;,
  0.000005;0.000000;-1.000000;,
  -0.007632;0.014801;0.999861;,
  0.000003;0.000000;-1.000000;,
  0.000312;0.009821;0.999952;,
  -0.000000;0.000000;-1.000000;,
  -0.004779;0.019689;0.999795;,
  -1.000000;0.000000;-0.000002;,
  -1.000000;0.000000;-0.000003;,
  -1.000000;0.000000;0.000002;,
  -1.000000;0.000000;0.000003;,
  0.000000;0.000000;0.000000;,
  0.000004;0.000000;1.000000;,
  -1.000000;0.000000;0.000005;,
  1.000000;0.000000;0.000005;,
  -1.000000;0.000000;0.000000;,
  -0.000004;0.000000;1.000000;,
  1.000000;0.000000;0.000004;,
  -0.007144;0.013756;0.999880;,
  -0.999977;-0.005124;0.004353;,
  -0.000000;-0.000000;-1.000000;,
  0.000000;-0.000000;-1.000000;,
  0.000000;-0.000000;-1.000000;,
  1.000000;-0.000203;-0.000000;,
  -0.015180;0.013750;0.999790;,
  0.999998;-0.002045;-0.000000;,
  0.000002;-0.000000;-1.000000;,
  0.000003;-0.000001;-1.000000;,
  0.000004;-0.000000;-1.000000;,
  -1.000000;-0.000203;0.000000;,
  -0.000036;-0.000005;1.000000;,
  0.998370;0.013130;0.055542;,
  0.000428;0.006878;0.999976;,
  -0.992423;0.001017;-0.122865;,
  0.000000;-0.000020;-1.000000;,
  -0.998291;-0.017344;-0.055803;,
  0.993430;0.028262;0.110899;,
  0.000000;0.192794;0.981239;,
  -0.992840;-0.029498;-0.115749;,
  -0.000004;0.000000;1.000000;,
  -0.000004;0.000000;1.000000;,
  -0.001678;0.000000;0.999999;,
  -0.001679;0.000000;0.999999;,
  0.001680;0.000000;-0.999999;,
  0.001579;0.002449;-0.999996;,
  -0.999999;0.000000;-0.001676;,
  -0.001679;0.000000;0.999999;,
  -0.001679;0.000026;0.999999;,
  -0.001679;0.000039;0.999999;,
  -0.001679;0.000000;0.999999;,
  -0.000220;-1.000000;0.000386;,
  0.998513;-0.054024;-0.007331;,
  -1.000000;0.000000;-0.000005;,
  -1.000000;-0.000101;-0.000002;,
  -0.000000;-0.988685;0.150004;,
  -0.000362;-0.987258;0.159127;,
  0.006328;-0.987383;0.158226;,
  0.010080;-0.974456;0.224353;,
  1.000000;-0.000101;-0.000000;,
  -1.000000;-0.000101;0.000003;,
  0.009817;-0.999951;-0.001368;,
  -1.000000;0.000000;-0.000006;,
  -0.000002;0.000000;1.000000;,
  -0.015098;-0.002101;0.999884;,
  -0.007120;-0.002021;0.999973;,
  -0.000077;-0.000010;1.000000;,
  0.000391;-0.000976;0.999999;,
  0.003213;0.999995;0.000432;,
  0.998282;0.005053;0.058366;,
  -0.001063;-0.999625;0.027358;,
  0.000000;-0.299379;-0.954134;,
  0.000000;0.999110;-0.042181;,
  -0.000558;0.000000;1.000000;,
  0.000000;0.000000;1.000000;,
  -1.000000;0.000000;0.000001;,
  0.000561;0.000000;-1.000000;,
  -0.000838;0.000000;1.000000;,
  0.000839;0.000000;-1.000000;,
  0.999999;0.000000;0.001676;,
  -0.001678;0.000000;0.999999;,
  0.000000;1.000000;0.000000;,
  0.000000;-1.000000;0.000000;,
  0.999999;0.000000;0.001676;,
  -0.001679;0.000000;0.999999;,
  -0.001612;0.001633;0.999997;,
  -0.999999;0.000000;-0.001676;,
  -0.000739;0.002449;0.999997;,
  -0.001479;0.004898;0.999987;,
  0.001679;0.000078;-0.999999;,
  0.000000;0.000000;1.000000;,
  -1.000000;0.000000;0.000000;,
  -0.000000;0.000000;-1.000000;,
  0.999999;0.000000;0.001676;,
  0.001679;0.000000;-0.999999;,
  -0.000004;0.000000;-1.000000;,
  -0.000005;0.000000;1.000000;,
  0.007632;0.014802;-0.999861;,
  -0.000003;0.000000;1.000000;,
  -0.000312;0.009821;-0.999952;,
  0.000000;0.000000;1.000000;,
  0.004778;0.019689;-0.999795;,
  1.000000;0.000000;0.000001;,
  1.000000;0.000000;0.000002;,
  -1.000000;0.000000;0.000001;,
  -1.000000;0.000000;0.000002;,
  1.000000;0.000000;-0.000002;,
  1.000000;0.000000;-0.000003;,
  1.000000;0.000000;-0.000004;,
  -1.000000;0.000000;0.000003;,
  -1.000000;0.000000;-0.000004;,
  1.000000;0.000000;0.000000;,
  0.000003;0.000000;-1.000000;,
  -1.000000;0.000000;-0.000004;,
  0.007143;0.013756;-0.999880;,
  0.999977;-0.005124;-0.004353;,
  0.000000;-0.000000;1.000000;,
  0.000000;-0.000001;1.000000;,
  0.000000;-0.000000;1.000000;,
  -1.000000;-0.000203;0.000001;,
  0.015179;0.013751;-0.999790;,
  -0.999998;-0.002045;0.000000;,
  -0.000002;-0.000000;1.000000;,
  -0.000003;-0.000001;1.000000;,
  -0.000004;-0.000000;1.000000;,
  1.000000;-0.000203;-0.000000;,
  0.000036;-0.000005;-1.000000;,
  -0.998370;0.013130;-0.055541;,
  -0.000428;0.006878;-0.999976;,
  0.992423;0.001017;0.122865;,
  0.000000;-0.000020;1.000000;,
  0.998291;-0.017344;0.055803;,
  -0.000000;0.000000;-1.000000;,
  -0.000000;0.000000;-1.000000;,
  0.000000;0.000000;1.000000;,
  -0.993430;0.028261;-0.110898;,
  -0.000000;0.192788;-0.981240;,
  0.992840;-0.029498;0.115749;,
  0.000000;0.000000;1.000000;,
  -0.000000;0.000000;-1.000000;,
  0.000003;0.000000;-1.000000;,
  0.001678;0.000000;-0.999999;,
  0.001679;0.000000;-0.999999;,
  -0.001679;0.000000;0.999999;,
  -0.001579;0.002449;0.999996;,
  0.001679;0.000026;-0.999999;,
  0.001679;0.000039;-0.999999;,
  0.000220;-1.000000;-0.000387;,
  -0.998513;-0.054023;0.007331;,
  1.000000;0.000000;0.000003;,
  1.000000;-0.000101;0.000001;,
  0.000000;-0.988686;-0.150002;,
  0.000362;-0.987258;-0.159125;,
  -0.006328;-0.987383;-0.158223;,
  -0.006699;-0.988800;-0.149095;,
  -1.000000;-0.000101;0.000002;,
  1.000000;-0.000101;-0.000002;,
  -0.006545;-0.999978;0.000912;,
  -0.009817;-0.999951;0.001368;,
  -1.000000;-0.000101;0.000000;,
  1.000000;0.000000;0.000003;,
  0.000000;0.000000;-1.000000;,
  0.000003;0.000000;-1.000000;,
  0.015097;-0.002101;-0.999884;,
  0.007120;-0.002021;-0.999973;,
  0.000077;-0.000010;-1.000000;,
  -0.000391;-0.000976;-0.999999;,
  -0.003213;0.999995;-0.000432;,
  -0.998282;0.005053;-0.058366;,
  0.001063;-0.999625;-0.027357;,
  1.000000;0.000000;-0.000000;,
  1.000000;0.000000;-0.000000;,
  1.000000;0.000000;-0.000000;,
  0.000000;-0.299379;0.954134;,
  0.000000;0.999110;0.042181;,
  1.000000;0.000000;-0.000002;,
  -0.000005;0.000000;-1.000000;,
  -0.000004;0.000000;1.000000;,
  0.000000;0.000000;1.000000;,
  0.007632;0.014801;-0.999861;,
  -0.000002;0.000000;1.000000;,
  -0.000313;0.009821;-0.999952;,
  0.000000;0.000000;1.000000;,
  0.004779;0.019688;-0.999795;,
  1.000000;0.000000;0.000002;,
  1.000000;0.000000;0.000003;,
  0.000000;-1.000000;-0.000000;,
  -1.000000;0.000000;0.000000;,
  -1.000000;0.000000;0.000000;,
  1.000000;0.000000;-0.000003;,
  1.000000;0.000000;-0.000004;,
  0.000000;0.000000;0.000000;,
  -0.000005;0.000000;-1.000000;,
  1.000000;0.000000;-0.000006;,
  -1.000000;0.000000;0.000001;,
  -0.000004;0.000000;1.000000;,
  -1.000000;0.000000;-0.000001;,
  1.000000;0.000000;-0.000001;,
  0.000004;0.000000;-1.000000;,
  -1.000000;0.000000;-0.000006;,
  -1.000000;0.000000;0.000001;,
  0.007161;0.013764;-0.999880;,
  0.999996;-0.002560;-0.001339;,
  0.000000;-0.000000;1.000000;,
  0.000000;-0.000000;1.000000;,
  -1.000000;-0.000101;0.000001;,
  0.015215;0.013756;-0.999790;,
  -0.999998;-0.002045;-0.000000;,
  -0.000002;-0.000000;1.000000;,
  -0.000002;-0.000001;1.000000;,
  -0.000003;-0.000000;1.000000;,
  1.000000;-0.000203;-0.000001;,
  -0.000004;-0.000000;-1.000000;,
  -0.000448;0.006885;-0.999976;,
  0.992418;0.001016;0.122905;,
  0.000000;0.000000;1.000000;,
  0.000000;0.000000;1.000000;,
  -1.000000;0.000000;0.000000;,
  -0.000000;0.000000;-1.000000;,
  0.000000;0.000000;1.000000;,
  -0.000000;0.000000;-1.000000;,
  -1.000000;0.000000;0.000000;,
  -0.000558;0.000000;1.000000;,
  -1.000000;0.000000;0.000001;,
  0.000561;0.000000;-1.000000;,
  0.999999;0.000000;0.001676;,
  -1.000000;0.000000;0.000001;,
  0.999999;0.000000;0.001676;,
  0.999999;0.000000;0.001676;,
  -0.001678;0.000000;0.999999;,
  -0.001677;0.000000;0.999999;,
  0.000000;1.000000;0.000000;,
  0.999999;0.000000;0.001676;,
  -0.001679;0.000000;0.999999;,
  -0.001612;0.001633;0.999997;,
  -0.999999;0.000000;-0.001676;,
  -0.000739;0.002449;0.999997;,
  -0.001479;0.004899;0.999987;,
  0.001679;0.000078;-0.999999;,
  0.000000;0.000000;1.000000;,
  -1.000000;0.000000;0.000000;,
  -0.000000;0.000000;-1.000000;,
  0.000000;0.000000;1.000000;,
  -0.000000;0.000000;-1.000000;,
  1.000000;0.000000;0.000004;,
  1.000000;-0.000101;0.000002;,
  0.000000;-0.988686;-0.150002;,
  0.000362;-0.987258;-0.159125;,
  -0.006328;-0.987383;-0.158224;,
  -0.010080;-0.974457;-0.224350;,
  -1.000000;-0.000101;0.000001;,
  -1.000000;0.000000;0.000001;,
  1.000000;-0.000101;-0.000003;,
  -1.000000;0.000000;0.000000;,
  -1.000000;0.000000;0.000000;,
  -1.000000;-0.000101;0.000001;,
  1.000000;0.000000;0.000002;,
  0.000000;0.000000;-1.000000;,
  0.000003;0.000000;-1.000000;,
  0.999977;-0.005120;-0.004353;,
  0.007586;-0.001045;-0.999971;,
  0.004771;-0.001337;-0.999988;,
  -0.019633;-0.999803;0.002736;,
  -0.000003;-0.000000;-1.000000;,
  -0.000431;-0.000960;-1.000000;,
  0.000000;0.999860;0.016734;,
  -0.998286;0.005051;-0.058301;,
  0.000000;0.999440;0.033464;,
  0.001063;-0.999625;-0.027357;,
  1.000000;0.000000;-0.000000;,
  1.000000;0.000000;0.000000;,
  0.000561;0.000000;-1.000000;,
  0.000003;0.000000;-1.000000;,
  0.000003;0.000000;-1.000000;,
  -0.001679;0.000000;0.999999;,
  0.001678;0.000000;-0.999999;,
  0.001679;0.000000;-0.999999;,
  0.001679;0.000000;-0.999999;,
  0.001677;0.000000;-0.999999;,
  -0.001579;0.002449;0.999996;,
  0.999999;0.000000;0.001676;,
  0.001679;0.000026;-0.999999;,
  0.001679;0.000039;-0.999999;,
  0.001679;0.000000;-0.999999;,
  0.000220;-1.000000;-0.000386;,
  -0.998513;-0.054027;0.007332;;
  504;
  4;27,4,1,29;,
  4;32,31,0,5;,
  4;22,23,2,6;,
  4;22,6,4,27;,
  4;20,32,5,7;,
  4;20,7,3,25;,
  4;8,9,50,51;,
  4;52,53,54,55;,
  4;10,10,10,10;,
  4;11,56,11,11;,
  4;12,57,15,13;,
  4;12,13,9,8;,
  4;10,10,52,10;,
  4;10,10,10,10;,
  4;43,43,43,43;,
  4;10,58,58,10;,
  4;10,10,10,10;,
  4;10,10,10,10;,
  4;14,14,14,14;,
  4;10,10,10,10;,
  4;11,11,11,11;,
  4;11,11,11,56;,
  4;2,2,2,2;,
  4;16,16,16,16;,
  4;0,0,5,0;,
  4;50,50,50,9;,
  4;10,10,10,10;,
  4;2,2,2,2;,
  4;11,11,11,11;,
  4;18,18,3,7;,
  4;59,59,59,59;,
  4;10,10,10,10;,
  4;15,15,13,15;,
  4;1,1,1,4;,
  4;19,19,19,19;,
  4;34,34,34,34;,
  4;10,10,10,10;,
  4;17,17,17,17;,
  4;2,2,6,2;,
  4;11,11,11,11;,
  4;60,60,60,60;,
  4;10,10,10,10;,
  4;21,21,61,61;,
  4;23,23,23,22;,
  4;24,24,56,56;,
  4;62,63,20,25;,
  4;54,58,58,55;,
  4;26,26,26,26;,
  4;28,27,29,28;,
  4;30,57,51,30;,
  4;64,31,32,65;,
  4;43,66,43,43;,
  4;53,52,10,10;,
  4;33,33,33,33;,
  4;2,2,2,2;,
  4;67,67,67,67;,
  4;63,65,32,20;,
  4;68,68,68,66;,
  4;53,69,69,54;,
  4;2,2,2,2;,
  4;11,11,11,11;,
  4;34,34,34,34;,
  4;17,17,17,17;,
  4;43,43,43,43;,
  4;10,10,10,10;,
  4;2,2,2,2;,
  4;11,11,11,11;,
  4;34,34,34,34;,
  4;17,17,17,17;,
  4;43,43,43,43;,
  4;10,10,10,10;,
  4;2,2,2,2;,
  4;11,11,11,11;,
  4;34,34,34,34;,
  4;17,17,17,17;,
  4;43,43,43,43;,
  4;10,10,10,10;,
  4;35,35,2,2;,
  4;35,2,23,23;,
  4;38,21,21,38;,
  4;36,36,36,36;,
  4;36,36,24,24;,
  4;70,63,62,71;,
  4;70,71,71,37;,
  4;40,40,39,39;,
  4;41,35,35,42;,
  4;41,42,72,44;,
  4;43,43,43,43;,
  4;10,10,10,10;,
  4;10,10,10,10;,
  4;73,74,75,76;,
  4;73,76,70,37;,
  4;36,36,36,36;,
  4;47,2,2,35;,
  4;38,38,38,38;,
  4;71,71,37,71;,
  4;43,43,43,43;,
  4;43,43,43,43;,
  4;44,77,78,45;,
  4;44,45,41,44;,
  4;39,39,39,39;,
  4;39,39,79,79;,
  4;46,46,46,46;,
  4;74,74,73,80;,
  4;74,80,81,75;,
  4;47,48,45,78;,
  4;43,43,43,43;,
  4;49,49,81,80;,
  4;82,82,82,82;,
  4;83,83,83,83;,
  4;2,2,2,2;,
  4;11,11,11,11;,
  4;34,34,34,34;,
  4;17,17,17,17;,
  4;43,43,43,43;,
  4;10,10,10,10;,
  4;2,2,2,2;,
  4;11,11,11,11;,
  4;34,34,34,34;,
  4;17,17,17,17;,
  4;43,43,43,43;,
  4;10,10,10,10;,
  4;88,84,85,85;,
  4;86,86,86,86;,
  4;89,145,146,87;,
  4;90,90,90,90;,
  4;91,84,88,91;,
  4;91,91,95,95;,
  4;92,92,92,92;,
  4;93,93,93,93;,
  4;147,148,148,147;,
  4;147,147,89,87;,
  4;86,86,86,86;,
  4;98,85,85,84;,
  4;94,94,94,94;,
  4;146,146,87,146;,
  4;92,92,92,92;,
  4;92,92,92,92;,
  4;95,149,150,96;,
  4;95,96,91,95;,
  4;90,90,90,90;,
  4;90,90,151,151;,
  4;97,97,97,97;,
  4;152,148,147,153;,
  4;152,153,154,155;,
  4;98,99,96,150;,
  4;92,92,92,92;,
  4;100,100,154,153;,
  4;156,156,156,156;,
  4;157,157,157,157;,
  4;85,85,85,85;,
  4;101,101,101,101;,
  4;102,102,102,102;,
  4;121,121,121,121;,
  4;92,92,92,92;,
  4;93,93,93,93;,
  4;92,92,92,92;,
  4;93,93,93,93;,
  4;105,105,105,105;,
  4;104,104,147,148;,
  4;103,103,90,90;,
  4;149,149,95,91;,
  4;93,93,93,93;,
  4;132,109,107,134;,
  4;138,136,106,110;,
  4;126,128,85,111;,
  4;126,111,109,132;,
  4;124,138,110,112;,
  4;124,112,108,130;,
  4;113,114,158,159;,
  4;160,161,162,163;,
  4;93,93,93,93;,
  4;101,164,101,101;,
  4;115,165,119,116;,
  4;115,116,114,113;,
  4;93,93,160,93;,
  4;93,93,93,93;,
  4;92,92,92,92;,
  4;93,166,166,93;,
  4;93,93,93,93;,
  4;93,93,93,93;,
  4;117,117,117,117;,
  4;93,93,93,93;,
  4;101,101,101,101;,
  4;101,101,101,164;,
  4;85,85,85,85;,
  4;120,120,120,120;,
  4;118,118,110,106;,
  4;158,158,158,114;,
  4;93,93,93,93;,
  4;85,85,85,85;,
  4;101,101,101,101;,
  4;122,122,108,112;,
  4;167,167,167,167;,
  4;93,93,93,93;,
  4;119,119,116,119;,
  4;107,107,107,109;,
  4;123,123,123,123;,
  4;102,102,102,102;,
  4;93,93,93,93;,
  4;121,121,121,121;,
  4;85,85,111,85;,
  4;101,101,101,101;,
  4;168,168,168,168;,
  4;93,93,93,93;,
  4;141,125,125,125;,
  4;127,127,128,126;,
  4;129,129,164,164;,
  4;169,170,124,130;,
  4;162,166,166,163;,
  4;137,131,131,131;,
  4;133,132,134,133;,
  4;135,165,159,135;,
  4;171,136,138,172;,
  4;173,173,173,173;,
  4;161,160,93,93;,
  4;139,139,139,139;,
  4;140,140,140,140;,
  4;174,174,174,174;,
  4;170,172,138,124;,
  4;161,175,175,162;,
  4;85,85,85,85;,
  4;101,101,101,101;,
  4;102,102,102,102;,
  4;121,121,121,121;,
  4;92,92,92,92;,
  4;93,93,93,93;,
  4;85,85,85,85;,
  4;101,101,101,101;,
  4;102,102,102,102;,
  4;121,121,121,121;,
  4;92,92,92,92;,
  4;93,93,93,93;,
  4;85,85,85,85;,
  4;101,101,101,101;,
  4;102,102,102,102;,
  4;121,121,121,121;,
  4;92,92,92,92;,
  4;93,93,93,93;,
  4;93,93,93,93;,
  4;144,144,141,144;,
  4;143,143,143,143;,
  4;142,142,142,137;,
  4;176,176,176,176;,
  4;177,177,177,177;,
  4;92,92,92,92;,
  4;85,85,85,85;,
  4;101,101,101,101;,
  4;102,102,102,102;,
  4;121,121,121,121;,
  4;92,92,92,92;,
  4;93,93,93,93;,
  4;182,178,179,179;,
  4;180,180,180,180;,
  4;183,245,245,181;,
  4;184,184,184,184;,
  4;185,178,182,185;,
  4;185,185,189,189;,
  4;186,186,186,186;,
  4;187,187,187,187;,
  4;246,247,247,246;,
  4;246,246,183,181;,
  4;180,180,180,180;,
  4;192,179,179,178;,
  4;188,188,188,188;,
  4;245,245,181,245;,
  4;186,186,186,186;,
  4;186,186,186,186;,
  4;189,248,249,190;,
  4;189,190,185,189;,
  4;184,184,184,184;,
  4;184,184,198,198;,
  4;191,191,191,191;,
  4;247,247,246,250;,
  4;247,250,251,199;,
  4;192,193,190,249;,
  4;186,186,186,186;,
  4;194,194,251,250;,
  4;252,252,252,252;,
  4;253,253,253,253;,
  4;195,195,195,195;,
  4;196,196,196,196;,
  4;197,197,197,197;,
  4;216,216,216,216;,
  4;186,186,186,186;,
  4;187,187,187,187;,
  4;186,186,186,186;,
  4;187,187,187,187;,
  4;191,191,191,191;,
  4;199,199,246,247;,
  4;198,198,184,184;,
  4;248,248,189,185;,
  4;187,187,187,187;,
  4;227,203,201,229;,
  4;233,231,200,204;,
  4;221,223,179,205;,
  4;221,205,203,227;,
  4;219,233,204,206;,
  4;219,206,202,225;,
  4;207,208,254,255;,
  4;256,257,258,259;,
  4;187,187,187,187;,
  4;209,260,214,210;,
  4;211,261,213,212;,
  4;211,212,208,207;,
  4;187,187,256,187;,
  4;187,187,187,187;,
  4;186,186,186,186;,
  4;187,262,263,187;,
  4;187,187,187,187;,
  4;187,187,187,187;,
  4;262,259,187,187;,
  4;187,187,187,187;,
  4;196,209,210,196;,
  4;196,196,196,264;,
  4;179,179,179,179;,
  4;215,215,215,215;,
  4;200,200,204,200;,
  4;254,254,254,208;,
  4;187,187,187,187;,
  4;179,179,179,179;,
  4;214,214,210,214;,
  4;217,217,202,206;,
  4;265,265,265,265;,
  4;187,187,187,187;,
  4;213,213,212,213;,
  4;201,201,201,203;,
  4;218,218,218,218;,
  4;266,266,266,266;,
  4;187,187,187,187;,
  4;216,216,216,216;,
  4;179,179,205,179;,
  4;196,196,196,196;,
  4;267,267,267,267;,
  4;187,187,187,187;,
  4;236,220,220,220;,
  4;222,222,223,221;,
  4;224,224,260,264;,
  4;268,269,219,225;,
  4;258,263,262,259;,
  4;232,226,226,226;,
  4;228,227,229,228;,
  4;230,261,255,230;,
  4;270,231,233,271;,
  4;272,272,272,272;,
  4;257,256,187,187;,
  4;234,234,234,234;,
  4;235,235,235,235;,
  4;273,273,273,273;,
  4;269,271,233,219;,
  4;257,274,274,258;,
  4;179,179,179,179;,
  4;196,196,196,196;,
  4;237,237,237,237;,
  4;275,275,275,275;,
  4;186,186,186,186;,
  4;187,187,187,187;,
  4;179,179,179,179;,
  4;196,196,196,196;,
  4;238,238,238,238;,
  4;276,276,276,276;,
  4;186,186,186,186;,
  4;187,187,187,187;,
  4;239,239,239,239;,
  4;196,196,196,196;,
  4;237,237,237,237;,
  4;277,277,277,277;,
  4;186,186,186,186;,
  4;187,187,187,187;,
  4;187,187,187,187;,
  4;242,242,236,242;,
  4;241,241,241,241;,
  4;240,240,240,232;,
  4;278,278,278,278;,
  4;279,279,279,279;,
  4;186,186,186,186;,
  4;243,243,243,243;,
  4;196,196,196,196;,
  4;244,244,244,244;,
  4;280,280,280,280;,
  4;186,186,186,186;,
  4;187,187,187,187;,
  4;313,285,282,315;,
  4;318,317,281,286;,
  4;308,309,283,287;,
  4;308,287,285,313;,
  4;306,318,286,288;,
  4;306,288,284,311;,
  4;289,290,349,350;,
  4;351,352,353,354;,
  4;291,291,291,291;,
  4;292,355,356,293;,
  4;294,357,298,295;,
  4;294,295,290,289;,
  4;291,291,351,291;,
  4;291,291,291,291;,
  4;336,336,336,336;,
  4;336,336,336,336;,
  4;291,291,291,291;,
  4;291,291,291,291;,
  4;296,296,296,296;,
  4;291,291,291,291;,
  4;358,292,293,359;,
  4;358,359,305,360;,
  4;283,283,283,283;,
  4;301,301,301,301;,
  4;297,297,286,281;,
  4;349,349,349,290;,
  4;291,291,291,291;,
  4;283,283,283,283;,
  4;299,299,293,356;,
  4;303,303,284,288;,
  4;361,361,361,361;,
  4;291,291,291,291;,
  4;298,298,295,298;,
  4;300,300,282,285;,
  4;304,304,304,304;,
  4;362,362,362,362;,
  4;291,291,291,291;,
  4;302,302,302,302;,
  4;283,283,287,283;,
  4;305,305,305,359;,
  4;363,363,363,363;,
  4;291,291,291,291;,
  4;307,307,364,364;,
  4;309,309,309,308;,
  4;310,310,355,360;,
  4;365,366,306,311;,
  4;353,367,367,354;,
  4;312,312,312,312;,
  4;314,313,315,314;,
  4;316,357,350,316;,
  4;368,317,318,369;,
  4;336,370,336,336;,
  4;352,351,291,291;,
  4;319,319,319,319;,
  4;320,320,320,320;,
  4;371,371,371,371;,
  4;366,369,318,306;,
  4;372,372,372,370;,
  4;352,373,373,353;,
  4;321,321,321,321;,
  4;322,322,322,322;,
  4;323,323,323,323;,
  4;374,374,374,374;,
  4;336,336,336,336;,
  4;291,291,291,291;,
  4;324,324,324,324;,
  4;322,322,322,322;,
  4;325,325,325,325;,
  4;374,374,374,374;,
  4;336,336,336,336;,
  4;291,291,291,291;,
  4;321,321,321,321;,
  4;326,326,326,326;,
  4;323,323,323,323;,
  4;375,375,375,375;,
  4;336,336,336,336;,
  4;291,291,291,291;,
  4;327,327,283,283;,
  4;327,283,309,309;,
  4;330,307,307,330;,
  4;331,328,328,331;,
  4;331,331,310,310;,
  4;376,366,365,377;,
  4;376,377,378,329;,
  4;333,333,332,332;,
  4;334,327,327,335;,
  4;334,335,379,338;,
  4;336,336,336,336;,
  4;291,291,291,291;,
  4;291,291,291,291;,
  4;380,381,382,383;,
  4;380,383,376,329;,
  4;328,328,328,328;,
  4;341,283,283,327;,
  4;337,337,337,337;,
  4;377,377,329,378;,
  4;336,336,336,336;,
  4;336,336,336,336;,
  4;338,379,384,339;,
  4;338,339,334,338;,
  4;332,332,332,332;,
  4;332,332,385,385;,
  4;340,340,340,340;,
  4;381,381,380,386;,
  4;381,386,387,388;,
  4;341,342,339,384;,
  4;336,336,336,336;,
  4;343,343,387,386;,
  4;389,389,389,389;,
  4;390,390,390,390;,
  4;344,344,344,344;,
  4;345,345,345,345;,
  4;346,346,346,346;,
  4;375,375,375,375;,
  4;336,336,336,336;,
  4;291,291,291,291;,
  4;347,347,347,347;,
  4;345,345,345,345;,
  4;348,348,348,348;,
  4;375,375,375,375;,
  4;336,336,336,336;,
  4;291,291,291,291;;
 }
}
