xof 0302txt 0064
template Header {
 <3D82AB43-62DA-11cf-AB39-0020AF71E433>
 WORD major;
 WORD minor;
 DWORD flags;
}

template Vector {
 <3D82AB5E-62DA-11cf-AB39-0020AF71E433>
 FLOAT x;
 FLOAT y;
 FLOAT z;
}

template Coords2d {
 <F6F23F44-7686-11cf-8F52-0040333594A3>
 FLOAT u;
 FLOAT v;
}

template Matrix4x4 {
 <F6F23F45-7686-11cf-8F52-0040333594A3>
 array FLOAT matrix[16];
}

template ColorRGBA {
 <35FF44E0-6C7C-11cf-8F52-0040333594A3>
 FLOAT red;
 FLOAT green;
 FLOAT blue;
 FLOAT alpha;
}

template ColorRGB {
 <D3E16E81-7835-11cf-8F52-0040333594A3>
 FLOAT red;
 FLOAT green;
 FLOAT blue;
}

template IndexedColor {
 <1630B820-7842-11cf-8F52-0040333594A3>
 DWORD index;
 ColorRGBA indexColor;
}

template Boolean {
 <4885AE61-78E8-11cf-8F52-0040333594A3>
 WORD truefalse;
}

template Boolean2d {
 <4885AE63-78E8-11cf-8F52-0040333594A3>
 Boolean u;
 Boolean v;
}

template MaterialWrap {
 <4885AE60-78E8-11cf-8F52-0040333594A3>
 Boolean u;
 Boolean v;
}

template TextureFilename {
 <A42790E1-7810-11cf-8F52-0040333594A3>
 STRING filename;
}

template Material {
 <3D82AB4D-62DA-11cf-AB39-0020AF71E433>
 ColorRGBA faceColor;
 FLOAT power;
 ColorRGB specularColor;
 ColorRGB emissiveColor;
 [...]
}

template MeshFace {
 <3D82AB5F-62DA-11cf-AB39-0020AF71E433>
 DWORD nFaceVertexIndices;
 array DWORD faceVertexIndices[nFaceVertexIndices];
}

template MeshFaceWraps {
 <4885AE62-78E8-11cf-8F52-0040333594A3>
 DWORD nFaceWrapValues;
 Boolean2d faceWrapValues;
}

template MeshTextureCoords {
 <F6F23F40-7686-11cf-8F52-0040333594A3>
 DWORD nTextureCoords;
 array Coords2d textureCoords[nTextureCoords];
}

template MeshMaterialList {
 <F6F23F42-7686-11cf-8F52-0040333594A3>
 DWORD nMaterials;
 DWORD nFaceIndexes;
 array DWORD faceIndexes[nFaceIndexes];
 [Material]
}

template MeshNormals {
 <F6F23F43-7686-11cf-8F52-0040333594A3>
 DWORD nNormals;
 array Vector normals[nNormals];
 DWORD nFaceNormals;
 array MeshFace faceNormals[nFaceNormals];
}

template MeshVertexColors {
 <1630B821-7842-11cf-8F52-0040333594A3>
 DWORD nVertexColors;
 array IndexedColor vertexColors[nVertexColors];
}

template Mesh {
 <3D82AB44-62DA-11cf-AB39-0020AF71E433>
 DWORD nVertices;
 array Vector vertices[nVertices];
 DWORD nFaces;
 array MeshFace faces[nFaces];
 [...]
}

Header{
1;
0;
1;
}

Mesh {
 302;
 30.68167;113.97417;-45.46090;,
 30.68167;117.46573;-45.46090;,
 37.46917;120.53397;-45.46090;,
 37.46917;113.97417;-45.46090;,
 37.46920;120.53397;0.14322;,
 37.46920;113.97417;0.14322;,
 30.60525;113.97417;0.14320;,
 30.60525;117.46573;0.14320;,
 -55.59243;113.97417;-45.60548;,
 -55.66885;113.97417;-0.00138;,
 -55.66885;120.53397;-0.00138;,
 -55.59243;120.53397;-45.60548;,
 -49.66630;117.46573;-45.59553;,
 -49.66630;113.97417;-45.59553;,
 -49.74273;117.46573;0.00858;,
 -49.74273;113.97417;0.00858;,
 37.46917;159.03120;-45.46090;,
 37.46920;159.03120;0.14322;,
 30.68167;159.03120;-45.46090;,
 30.60525;159.03120;0.14320;,
 -49.66630;159.03120;-45.59553;,
 -55.59243;159.03120;-45.60548;,
 -55.66885;159.03120;-0.00138;,
 -49.74273;159.03120;0.00858;,
 -55.59243;153.10754;-45.60548;,
 -49.66630;155.83983;-45.59553;,
 -55.66885;153.10754;-0.00138;,
 -49.74273;155.83983;0.00858;,
 30.63053;155.80460;-45.49260;,
 31.13925;159.03120;0.14410;,
 30.84385;155.83983;0.14410;,
 -53.25875;157.64349;-3.66433;,
 32.22332;157.64349;-3.66433;,
 32.22332;116.68665;-3.66433;,
 -53.25875;116.68665;-3.66433;,
 32.22332;157.64349;-1.42810;,
 32.22332;116.68665;-1.42810;,
 -53.25875;157.64349;-1.42810;,
 -53.25875;116.68665;-1.42810;,
 -51.83678;114.30298;-2.60102;,
 31.22325;114.30298;-2.60102;,
 31.22325;114.30298;-7.00755;,
 -51.83678;114.30298;-7.00755;,
 37.44195;113.97417;-45.59553;,
 37.35003;113.97417;0.00858;,
 30.47290;113.97417;-0.00138;,
 30.56480;113.97417;-45.60548;,
 -49.74273;0.02480;0.00858;,
 -49.66630;0.02480;-45.59553;,
 -55.66885;0.02480;-0.00138;,
 -55.59243;0.02480;-45.60548;,
 -49.50898;6.45162;-45.46085;,
 -49.50898;2.94847;-45.46085;,
 -55.52758;2.94847;-45.46088;,
 -55.52758;6.45162;-45.46088;,
 -49.50903;6.45162;0.14318;,
 -55.52758;6.45162;0.14320;,
 -55.52758;2.94847;0.14320;,
 -49.50903;2.94847;0.14318;,
 61.78645;6.45162;-45.46088;,
 68.58410;6.45162;-45.46088;,
 68.58410;2.94847;-45.46088;,
 61.78645;2.94847;-45.46088;,
 62.26057;6.20318;-0.04972;,
 61.78643;2.94847;0.14318;,
 68.58410;2.94847;0.14320;,
 68.58410;6.45162;0.14320;,
 -55.52755;6.45162;-5.27610;,
 -55.52755;2.94847;-5.27610;,
 -49.50900;2.94847;-5.27610;,
 61.78645;2.94847;-5.27608;,
 68.58410;6.45162;-5.27608;,
 68.58410;2.94847;-5.27608;,
 -55.52755;6.45162;-40.04160;,
 -55.52755;2.94847;-40.04160;,
 -49.50900;2.94847;-40.04160;,
 61.78645;2.94847;-40.04160;,
 68.58410;6.45162;-40.04158;,
 68.58410;2.94847;-40.04158;,
 -49.50900;-0.56222;-5.27610;,
 -55.52755;-0.56222;-5.27610;,
 -49.50903;-0.56222;0.14318;,
 -55.52758;-0.56222;0.14320;,
 68.58410;-0.56222;-5.27608;,
 61.78645;-0.56222;-5.27608;,
 68.58410;-0.56222;0.14320;,
 61.78643;-0.56222;0.14318;,
 -55.52758;-0.56222;-45.46088;,
 -55.52755;-0.56222;-40.04160;,
 -49.50898;-0.56222;-45.46085;,
 -49.50900;-0.56222;-40.04160;,
 61.78645;-0.56222;-45.46088;,
 61.78645;-0.56222;-40.04160;,
 68.58410;-0.56222;-45.46088;,
 68.58410;-0.56222;-40.04158;,
 61.73025;56.16438;0.14417;,
 61.80667;56.20377;-45.46090;,
 68.59418;56.20377;-45.46090;,
 68.59420;56.20377;0.14322;,
 -49.40728;56.16438;0.14417;,
 -49.40728;56.20377;-45.46090;,
 -55.53767;56.20377;-45.46090;,
 -55.53765;56.20377;0.14320;,
 -48.89945;56.09208;-4.36975;,
 -48.89945;6.20318;-4.36877;,
 62.26060;56.09208;-4.36975;,
 62.26060;6.20318;-4.36877;,
 -50.00597;22.78757;-42.76435;,
 63.06250;22.78757;-42.76435;,
 63.06250;19.87475;-42.76435;,
 -50.00597;19.87475;-42.76435;,
 63.06250;22.78757;0.07195;,
 63.06250;19.87475;0.07195;,
 -50.00597;22.78757;0.07195;,
 -50.00597;19.87475;0.07195;,
 -50.00597;40.03980;-42.76435;,
 63.06250;40.03980;-42.76435;,
 63.06250;37.12695;-42.76435;,
 -50.00597;37.12695;-42.76435;,
 63.06250;40.03980;-0.05305;,
 63.06250;37.12695;-0.05305;,
 -50.00597;40.03980;-0.05305;,
 -50.00597;37.12695;-0.05305;,
 -50.00597;56.10295;-44.69558;,
 63.06250;56.10295;-44.69558;,
 63.06250;53.19012;-44.69558;,
 -50.00597;53.19012;-44.69558;,
 63.06250;56.10295;-0.85930;,
 63.06250;53.19012;-0.85930;,
 -50.00597;56.10295;-0.85930;,
 -50.00597;53.19012;-0.85930;,
 -20.71177;55.56553;-7.00755;,
 62.34825;55.56553;-7.00755;,
 62.34825;55.56553;-2.60102;,
 -20.71177;55.56553;-2.60102;,
 62.26060;55.80527;-4.31340;,
 61.73025;55.99570;0.19710;,
 -48.89945;55.80527;-4.31340;,
 -49.40728;55.99570;0.19710;,
 61.78645;56.19847;0.21040;,
 68.58410;56.19847;0.21037;,
 68.58410;56.19847;-45.52808;,
 61.78645;56.19847;-45.52808;,
 -50.45573;114.18020;-4.14982;,
 37.45573;114.18020;-4.14982;,
 37.45573;55.81982;-4.14982;,
 -50.45573;55.81982;-4.14982;,
 37.45573;114.18020;-0.85018;,
 37.45573;55.81982;-0.85018;,
 -50.45573;114.18020;-0.85018;,
 -50.45573;55.81982;-0.85018;,
 -17.75632;113.97417;45.56583;,
 -17.75632;117.46573;45.56583;,
 -24.54382;120.53397;45.56583;,
 -24.54382;113.97417;45.56583;,
 -24.54385;120.53397;-0.03829;,
 -24.54385;113.97417;-0.03829;,
 -17.67990;113.97417;-0.03827;,
 -17.67990;117.46573;-0.03827;,
 68.51778;113.97417;45.71040;,
 68.59419;113.97417;0.10630;,
 68.59419;120.53397;0.10630;,
 68.51778;120.53397;45.71040;,
 62.59165;117.46573;45.70045;,
 62.59165;113.97417;45.70045;,
 62.66807;117.46573;0.09635;,
 62.66807;113.97417;0.09635;,
 -24.54382;159.03120;45.56583;,
 -24.54385;159.03120;-0.03829;,
 -17.75632;159.03120;45.56583;,
 -17.67990;159.03120;-0.03827;,
 62.59165;159.03120;45.70045;,
 68.51778;159.03120;45.71040;,
 68.59419;159.03120;0.10630;,
 62.66807;159.03120;0.09635;,
 68.51778;153.10754;45.71040;,
 62.59165;155.83983;45.70045;,
 68.59419;153.10754;0.10630;,
 62.66807;155.83983;0.09635;,
 -17.70517;155.80460;45.59753;,
 -18.21390;159.03120;-0.03917;,
 -17.91850;155.83983;-0.03917;,
 66.18410;157.64349;3.76925;,
 -19.29798;157.64349;3.76926;,
 -19.29798;116.68665;3.76926;,
 66.18410;116.68665;3.76925;,
 -19.29798;157.64349;1.53304;,
 -19.29798;116.68665;1.53304;,
 66.18410;157.64349;1.53303;,
 66.18410;116.68665;1.53303;,
 64.76213;114.30298;2.70596;,
 -18.29790;114.30298;2.70596;,
 -18.29790;114.30298;7.11248;,
 64.76213;114.30298;7.11247;,
 -24.51660;113.97417;45.70045;,
 -24.42468;113.97417;0.09636;,
 -17.54755;113.97417;0.10631;,
 -17.63945;113.97417;45.71040;,
 62.66807;0.02480;0.09635;,
 62.59165;0.02480;45.70045;,
 68.59419;0.02480;0.10630;,
 68.51778;0.02480;45.71040;,
 62.43433;6.45162;45.56577;,
 62.43433;2.94848;45.56577;,
 68.45293;2.94848;45.56580;,
 68.45293;6.45162;45.56580;,
 62.43437;6.45162;-0.03825;,
 68.45292;6.45162;-0.03827;,
 68.45292;2.94848;-0.03827;,
 62.43437;2.94848;-0.03825;,
 -48.86110;6.45162;45.56580;,
 -55.65874;6.45162;45.56580;,
 -55.65874;2.94848;45.56580;,
 -48.86110;2.94848;45.56580;,
 -49.33523;6.20318;0.15466;,
 -48.86108;2.94848;-0.03824;,
 -55.65875;2.94848;-0.03826;,
 -55.65875;6.45162;-0.03826;,
 68.45290;6.45162;5.38103;,
 68.45290;2.94848;5.38103;,
 62.43435;2.94848;5.38103;,
 -48.86110;2.94848;5.38101;,
 -55.65874;6.45162;5.38101;,
 -55.65874;2.94848;5.38101;,
 68.45290;6.45162;40.14652;,
 68.45290;2.94848;40.14652;,
 62.43435;2.94848;40.14652;,
 -48.86110;2.94848;40.14653;,
 -55.65874;6.45162;40.14651;,
 -55.65874;2.94848;40.14651;,
 62.43435;-0.56223;5.38103;,
 68.45290;-0.56223;5.38103;,
 62.43437;-0.56223;-0.03825;,
 68.45292;-0.56223;-0.03827;,
 -55.65874;-0.56223;5.38101;,
 -48.86110;-0.56223;5.38101;,
 -55.65875;-0.56223;-0.03826;,
 -48.86108;-0.56223;-0.03824;,
 68.45293;-0.56223;45.56580;,
 68.45290;-0.56223;40.14652;,
 62.43433;-0.56223;45.56577;,
 62.43435;-0.56223;40.14652;,
 -48.86110;-0.56223;45.56580;,
 -48.86110;-0.56223;40.14653;,
 -55.65874;-0.56223;45.56580;,
 -55.65874;-0.56223;40.14651;,
 -48.80491;56.16438;-0.03924;,
 -48.88132;56.20377;45.56583;,
 -55.66882;56.20377;45.56583;,
 -55.66885;56.20377;-0.03829;,
 62.33262;56.16438;-0.03925;,
 62.33263;56.20377;45.56582;,
 68.46303;56.20377;45.56582;,
 68.46300;56.20377;-0.03827;,
 61.82480;56.09208;4.47468;,
 61.82480;6.20318;4.47370;,
 -49.33525;56.09208;4.47469;,
 -49.33525;6.20318;4.47372;,
 62.93133;22.78757;42.86927;,
 -50.13715;22.78757;42.86929;,
 -50.13715;19.87475;42.86929;,
 62.93133;19.87475;42.86927;,
 -50.13715;22.78757;0.03299;,
 -50.13715;19.87475;0.03299;,
 62.93132;22.78757;0.03297;,
 62.93132;19.87475;0.03297;,
 62.93133;40.03980;42.86927;,
 -50.13715;40.03980;42.86929;,
 -50.13715;37.12695;42.86929;,
 62.93133;37.12695;42.86927;,
 -50.13715;40.03980;0.15799;,
 -50.13715;37.12695;0.15799;,
 62.93132;40.03980;0.15797;,
 62.93132;37.12695;0.15797;,
 62.93133;56.10295;44.80050;,
 -50.13715;56.10295;44.80051;,
 -50.13715;53.19012;44.80051;,
 62.93133;53.19012;44.80050;,
 -50.13715;56.10295;0.96424;,
 -50.13715;53.19012;0.96424;,
 62.93132;56.10295;0.96423;,
 62.93132;53.19012;0.96423;,
 33.63712;55.56553;7.11248;,
 -49.42290;55.56553;7.11249;,
 -49.42290;55.56553;2.70596;,
 33.63712;55.56553;2.70596;,
 -49.33525;55.80527;4.41834;,
 -48.80491;55.99570;-0.09216;,
 61.82480;55.80527;4.41833;,
 62.33262;55.99570;-0.09217;,
 -48.86111;56.19847;-0.10546;,
 -55.65875;56.19847;-0.10544;,
 -55.65874;56.19847;45.63300;,
 -48.86110;56.19847;45.63300;,
 63.38108;114.18020;4.25475;,
 -24.53038;114.18020;4.25476;,
 -24.53038;55.81982;4.25476;,
 63.38108;55.81982;4.25475;,
 -24.53038;114.18020;0.95511;,
 -24.53038;55.81982;0.95511;,
 63.38107;114.18020;0.95510;,
 63.38107;55.81982;0.95510;;
 
 260;
 4;0,1,2,3;,
 4;3,2,4,5;,
 4;6,5,4,7;,
 4;8,9,10,11;,
 4;12,1,0,13;,
 4;12,13,8,11;,
 4;12,14,7,1;,
 4;13,0,6,15;,
 4;14,10,9,15;,
 4;14,15,6,7;,
 4;16,17,4,2;,
 4;18,16,2,1;,
 4;19,18,1,7;,
 4;17,19,7,4;,
 4;17,16,18,19;,
 4;20,21,22,23;,
 4;24,21,20,25;,
 4;24,25,12,11;,
 4;24,11,10,26;,
 4;24,26,22,21;,
 4;25,27,14,12;,
 4;26,10,14,27;,
 4;26,27,23,22;,
 4;18,28,25,20;,
 4;29,18,20,23;,
 4;30,29,23,27;,
 4;28,30,27,25;,
 4;28,18,29,30;,
 4;31,32,33,34;,
 4;32,35,36,33;,
 4;35,37,38,36;,
 4;37,31,34,38;,
 4;37,35,32,31;,
 4;34,33,36,38;,
 4;39,40,41,42;,
 4;43,44,45,46;,
 4;47,48,13,15;,
 4;49,47,15,9;,
 4;50,49,9,8;,
 4;48,50,8,13;,
 4;48,47,49,50;,
 4;51,52,53,54;,
 4;55,56,57,58;,
 4;59,60,61,62;,
 4;59,62,52,51;,
 4;63,55,58,64;,
 4;63,64,65,66;,
 4;67,68,57,56;,
 4;56,55,63,66;,
 4;69,70,64,58;,
 4;71,66,65,72;,
 4;73,54,53,74;,
 4;73,74,68,67;,
 4;73,67,56,54;,
 4;74,75,69,68;,
 4;54,56,66,60;,
 4;54,60,59,51;,
 4;75,52,62,76;,
 4;75,76,70,69;,
 4;60,66,71,77;,
 4;76,78,72,70;,
 4;77,71,72,78;,
 4;77,78,61,60;,
 4;79,80,68,69;,
 4;81,79,69,58;,
 4;82,81,58,57;,
 4;80,82,57,68;,
 4;80,79,81,82;,
 4;83,84,70,72;,
 4;85,83,72,65;,
 4;86,85,65,64;,
 4;84,86,64,70;,
 4;84,83,85,86;,
 4;87,88,74,53;,
 4;89,87,53,52;,
 4;90,89,52,75;,
 4;88,90,75,74;,
 4;88,87,89,90;,
 4;91,92,76,62;,
 4;93,91,62,61;,
 4;94,93,61,78;,
 4;92,94,78,76;,
 4;92,91,93,94;,
 4;95,96,59,63;,
 4;96,97,60,59;,
 4;97,98,66,60;,
 4;98,95,63,66;,
 4;63,59,60,66;,
 4;99,55,51,100;,
 4;100,51,54,101;,
 4;101,54,56,102;,
 4;102,56,55,99;,
 4;102,99,100,101;,
 4;55,56,54,51;,
 4;99,103,104,55;,
 4;103,105,106,104;,
 4;105,95,63,106;,
 4;95,99,55,63;,
 4;55,104,106,63;,
 4;107,108,109,110;,
 4;108,111,112,109;,
 4;111,113,114,112;,
 4;113,107,110,114;,
 4;113,111,108,107;,
 4;110,109,112,114;,
 4;115,116,117,118;,
 4;116,119,120,117;,
 4;119,121,122,120;,
 4;121,115,118,122;,
 4;121,119,116,115;,
 4;118,117,120,122;,
 4;123,124,125,126;,
 4;124,127,128,125;,
 4;127,129,130,128;,
 4;129,123,126,130;,
 4;129,127,124,123;,
 4;126,125,128,130;,
 4;131,132,133,134;,
 4;135,136,95,105;,
 4;137,135,105,103;,
 4;138,137,103,99;,
 4;136,138,99,95;,
 4;136,135,137,138;,
 4;139,140,141,142;,
 4;143,144,145,146;,
 4;144,147,148,145;,
 4;147,149,150,148;,
 4;149,143,146,150;,
 4;149,147,144,143;,
 4;146,145,148,150;,
 4;151,152,153,154;,
 4;154,153,155,156;,
 4;157,156,155,158;,
 4;159,160,161,162;,
 4;163,152,151,164;,
 4;163,164,159,162;,
 4;163,165,158,152;,
 4;164,151,157,166;,
 4;165,161,160,166;,
 4;165,166,157,158;,
 4;167,168,155,153;,
 4;169,167,153,152;,
 4;170,169,152,158;,
 4;168,170,158,155;,
 4;168,167,169,170;,
 4;171,172,173,174;,
 4;175,172,171,176;,
 4;175,176,163,162;,
 4;175,162,161,177;,
 4;175,177,173,172;,
 4;176,178,165,163;,
 4;177,161,165,178;,
 4;177,178,174,173;,
 4;169,179,176,171;,
 4;180,169,171,174;,
 4;181,180,174,178;,
 4;179,181,178,176;,
 4;179,169,180,181;,
 4;182,183,184,185;,
 4;183,186,187,184;,
 4;186,188,189,187;,
 4;188,182,185,189;,
 4;188,186,183,182;,
 4;185,184,187,189;,
 4;190,191,192,193;,
 4;194,195,196,197;,
 4;198,199,164,166;,
 4;200,198,166,160;,
 4;201,200,160,159;,
 4;199,201,159,164;,
 4;199,198,200,201;,
 4;202,203,204,205;,
 4;206,207,208,209;,
 4;210,211,212,213;,
 4;210,213,203,202;,
 4;214,206,209,215;,
 4;214,215,216,217;,
 4;218,219,208,207;,
 4;207,206,214,217;,
 4;220,221,215,209;,
 4;222,217,216,223;,
 4;224,205,204,225;,
 4;224,225,219,218;,
 4;224,218,207,205;,
 4;225,226,220,219;,
 4;205,207,217,211;,
 4;205,211,210,202;,
 4;226,203,213,227;,
 4;226,227,221,220;,
 4;211,217,222,228;,
 4;227,229,223,221;,
 4;228,222,223,229;,
 4;228,229,212,211;,
 4;230,231,219,220;,
 4;232,230,220,209;,
 4;233,232,209,208;,
 4;231,233,208,219;,
 4;231,230,232,233;,
 4;234,235,221,223;,
 4;236,234,223,216;,
 4;237,236,216,215;,
 4;235,237,215,221;,
 4;235,234,236,237;,
 4;238,239,225,204;,
 4;240,238,204,203;,
 4;241,240,203,226;,
 4;239,241,226,225;,
 4;239,238,240,241;,
 4;242,243,227,213;,
 4;244,242,213,212;,
 4;245,244,212,229;,
 4;243,245,229,227;,
 4;243,242,244,245;,
 4;246,247,210,214;,
 4;247,248,211,210;,
 4;248,249,217,211;,
 4;249,246,214,217;,
 4;214,210,211,217;,
 4;250,206,202,251;,
 4;251,202,205,252;,
 4;252,205,207,253;,
 4;253,207,206,250;,
 4;253,250,251,252;,
 4;206,207,205,202;,
 4;250,254,255,206;,
 4;254,256,257,255;,
 4;256,246,214,257;,
 4;246,250,206,214;,
 4;206,255,257,214;,
 4;258,259,260,261;,
 4;259,262,263,260;,
 4;262,264,265,263;,
 4;264,258,261,265;,
 4;264,262,259,258;,
 4;261,260,263,265;,
 4;266,267,268,269;,
 4;267,270,271,268;,
 4;270,272,273,271;,
 4;272,266,269,273;,
 4;272,270,267,266;,
 4;269,268,271,273;,
 4;274,275,276,277;,
 4;275,278,279,276;,
 4;278,280,281,279;,
 4;280,274,277,281;,
 4;280,278,275,274;,
 4;277,276,279,281;,
 4;282,283,284,285;,
 4;286,287,246,256;,
 4;288,286,256,254;,
 4;289,288,254,250;,
 4;287,289,250,246;,
 4;287,286,288,289;,
 4;290,291,292,293;,
 4;294,295,296,297;,
 4;295,298,299,296;,
 4;298,300,301,299;,
 4;300,294,297,301;,
 4;300,298,295,294;,
 4;297,296,299,301;;
 
 MeshMaterialList {
  1;
  260;
  0,
  0,
  0,
  0,
  0,
  0,
  0,
  0,
  0,
  0,
  0,
  0,
  0,
  0,
  0,
  0,
  0,
  0,
  0,
  0,
  0,
  0,
  0,
  0,
  0,
  0,
  0,
  0,
  0,
  0,
  0,
  0,
  0,
  0,
  0,
  0,
  0,
  0,
  0,
  0,
  0,
  0,
  0,
  0,
  0,
  0,
  0,
  0,
  0,
  0,
  0,
  0,
  0,
  0,
  0,
  0,
  0,
  0,
  0,
  0,
  0,
  0,
  0,
  0,
  0,
  0,
  0,
  0,
  0,
  0,
  0,
  0,
  0,
  0,
  0,
  0,
  0,
  0,
  0,
  0,
  0,
  0,
  0,
  0,
  0,
  0,
  0,
  0,
  0,
  0,
  0,
  0,
  0,
  0,
  0,
  0,
  0,
  0,
  0,
  0,
  0,
  0,
  0,
  0,
  0,
  0,
  0,
  0,
  0,
  0,
  0,
  0,
  0,
  0,
  0,
  0,
  0,
  0,
  0,
  0,
  0,
  0,
  0,
  0,
  0,
  0,
  0,
  0,
  0,
  0,
  0,
  0,
  0,
  0,
  0,
  0,
  0,
  0,
  0,
  0,
  0,
  0,
  0,
  0,
  0,
  0,
  0,
  0,
  0,
  0,
  0,
  0,
  0,
  0,
  0,
  0,
  0,
  0,
  0,
  0,
  0,
  0,
  0,
  0,
  0,
  0,
  0,
  0,
  0,
  0,
  0,
  0,
  0,
  0,
  0,
  0,
  0,
  0,
  0,
  0,
  0,
  0,
  0,
  0,
  0,
  0,
  0,
  0,
  0,
  0,
  0,
  0,
  0,
  0,
  0,
  0,
  0,
  0,
  0,
  0,
  0,
  0,
  0,
  0,
  0,
  0,
  0,
  0,
  0,
  0,
  0,
  0,
  0,
  0,
  0,
  0,
  0,
  0,
  0,
  0,
  0,
  0,
  0,
  0,
  0,
  0,
  0,
  0,
  0,
  0,
  0,
  0,
  0,
  0,
  0,
  0,
  0,
  0,
  0,
  0,
  0,
  0,
  0,
  0,
  0,
  0,
  0,
  0,
  0,
  0,
  0,
  0,
  0,
  0,
  0,
  0,
  0,
  0,
  0,
  0;;
  Material {
   0.630400;0.630400;0.630400;1.000000;;
   16.000000;
   1.000000;1.000000;1.000000;;
   0.000000;0.000000;0.000000;;
  }
 }
 MeshNormals {
  218;
  0.000559;0.000000;-1.000000;,
  0.000000;0.000000;-1.000000;,
  1.000000;0.000000;-0.000001;,
  -0.000561;0.000000;1.000000;,
  0.000838;0.000000;-1.000000;,
  -0.000840;0.000000;1.000000;,
  1.000000;0.000000;-0.000001;,
  -0.999999;0.000000;-0.001676;,
  0.001678;0.000000;-0.999999;,
  0.001678;0.000000;-0.999999;,
  0.000000;1.000000;0.000000;,
  0.000000;-1.000000;-0.000000;,
  -0.999999;0.000000;-0.001676;,
  0.001679;0.000000;-0.999999;,
  0.001613;0.001634;-0.999997;,
  -0.999999;0.000000;-0.001676;,
  0.999999;0.000000;0.001676;,
  0.000740;0.002451;-0.999997;,
  0.001481;0.004902;-0.999987;,
  -0.001679;0.000078;0.999999;,
  1.000000;0.000000;0.000000;,
  0.000000;0.000000;1.000000;,
  -0.999999;0.000000;-0.001676;,
  -0.001679;0.000000;0.999999;,
  0.000004;0.000000;1.000000;,
  0.000004;0.000000;-1.000000;,
  -0.007632;0.014801;0.999861;,
  0.000003;0.000000;-1.000000;,
  0.000312;0.009821;0.999952;,
  -0.000000;0.000000;-1.000000;,
  -0.004779;0.019689;0.999795;,
  -1.000000;0.000000;-0.000002;,
  -1.000000;0.000000;-0.000003;,
  -1.000000;0.000000;0.000002;,
  -1.000000;0.000000;0.000003;,
  0.000000;0.000000;0.000000;,
  -1.000000;0.000000;0.000005;,
  1.000000;0.000000;0.000005;,
  -1.000000;0.000000;0.000000;,
  -0.000004;0.000000;1.000000;,
  1.000000;0.000000;0.000004;,
  -0.007143;0.013756;0.999880;,
  -0.999977;-0.005124;0.004353;,
  -0.000000;-0.000000;-1.000000;,
  0.000000;-0.000000;-1.000000;,
  0.000000;-0.000000;-1.000000;,
  1.000000;-0.000203;-0.000000;,
  -0.015179;0.013751;0.999790;,
  0.999998;-0.002045;-0.000000;,
  0.000002;-0.000000;-1.000000;,
  0.000002;-0.000001;-1.000000;,
  0.000003;-0.000000;-1.000000;,
  -1.000000;-0.000203;0.000000;,
  -0.000037;-0.000005;1.000000;,
  0.998370;0.013130;0.055542;,
  0.000428;0.006878;0.999976;,
  -0.992423;0.001017;-0.122865;,
  0.000000;-0.000020;-1.000000;,
  -0.998291;-0.017344;-0.055803;,
  0.993430;0.028262;0.110899;,
  0.000000;0.192788;0.981240;,
  -0.992840;-0.029498;-0.115749;,
  -0.000004;0.000000;1.000000;,
  -0.000004;0.000000;1.000000;,
  0.001679;0.000000;-0.999999;,
  -0.001678;0.000000;0.999999;,
  -0.001679;0.000000;0.999999;,
  -0.001678;0.000000;0.999999;,
  0.001679;0.000000;-0.999999;,
  0.001580;0.002451;-0.999996;,
  -0.999999;0.000000;-0.001676;,
  -0.001679;0.000026;0.999999;,
  -0.001679;0.000039;0.999999;,
  -0.001679;0.000000;0.999999;,
  -0.000220;-1.000000;0.000387;,
  0.998513;-0.054024;-0.007331;,
  0.001679;0.000000;-0.999999;,
  -1.000000;0.000000;-0.000005;,
  -1.000000;-0.000101;-0.000002;,
  -0.000000;-0.988685;0.150004;,
  -0.000362;-0.987258;0.159127;,
  0.006328;-0.987383;0.158226;,
  0.010080;-0.974456;0.224353;,
  1.000000;-0.000101;-0.000000;,
  -1.000000;-0.000101;0.000003;,
  0.009817;-0.999951;-0.001368;,
  -1.000000;0.000000;-0.000004;,
  -0.000003;0.000000;1.000000;,
  -0.015097;-0.002101;0.999884;,
  -0.007120;-0.002021;0.999973;,
  -0.000077;-0.000010;1.000000;,
  0.000391;-0.000976;1.000000;,
  0.003213;0.999995;0.000432;,
  0.998282;0.005053;0.058365;,
  -0.001063;-0.999625;0.027358;,
  0.000000;-0.299379;-0.954134;,
  0.000000;0.999110;-0.042181;,
  -0.000558;0.000000;1.000000;,
  0.000000;0.000000;1.000000;,
  -1.000000;0.000000;0.000001;,
  0.000561;0.000000;-1.000000;,
  -0.000838;0.000000;1.000000;,
  0.000840;0.000000;-1.000000;,
  -1.000000;0.000000;0.000001;,
  0.999999;0.000000;0.001676;,
  0.999999;0.000000;0.001676;,
  -0.001678;0.000000;0.999999;,
  -0.001678;0.000000;0.999999;,
  0.000000;1.000000;0.000000;,
  0.000000;-1.000000;0.000000;,
  0.999999;0.000000;0.001676;,
  -0.001679;0.000000;0.999999;,
  -0.001613;0.001634;0.999997;,
  0.999999;0.000000;0.001676;,
  -0.999999;0.000000;-0.001676;,
  -0.000740;0.002451;0.999997;,
  -0.001481;0.004902;0.999987;,
  0.001679;0.000078;-0.999999;,
  0.000000;0.000000;1.000000;,
  -1.000000;0.000000;0.000000;,
  -0.000000;0.000000;-1.000000;,
  0.999999;0.000000;0.001676;,
  0.001679;0.000000;-0.999999;,
  -0.999999;0.000000;-0.001676;,
  -0.000004;0.000000;-1.000000;,
  -0.000004;0.000000;1.000000;,
  0.007632;0.014802;-0.999861;,
  -0.000002;0.000000;1.000000;,
  -0.000312;0.009821;-0.999952;,
  0.000000;0.000000;1.000000;,
  0.004778;0.019689;-0.999795;,
  1.000000;0.000000;0.000001;,
  1.000000;0.000000;0.000002;,
  -1.000000;0.000000;0.000001;,
  -1.000000;0.000000;0.000001;,
  1.000000;0.000000;-0.000002;,
  1.000000;0.000000;-0.000003;,
  -0.000004;0.000000;-1.000000;,
  1.000000;0.000000;-0.000004;,
  -1.000000;0.000000;0.000001;,
  -0.000004;0.000000;1.000000;,
  -1.000000;0.000000;-0.000004;,
  1.000000;0.000000;0.000000;,
  0.000003;0.000000;-1.000000;,
  -1.000000;0.000000;-0.000004;,
  0.007143;0.013756;-0.999880;,
  0.999977;-0.005124;-0.004353;,
  0.000000;-0.000000;1.000000;,
  0.000000;-0.000001;1.000000;,
  0.000000;-0.000000;1.000000;,
  -1.000000;-0.000203;0.000000;,
  0.015179;0.013751;-0.999790;,
  -0.999998;-0.002045;0.000000;,
  -0.000002;-0.000000;1.000000;,
  -0.000002;-0.000001;1.000000;,
  -0.000003;-0.000000;1.000000;,
  1.000000;-0.000203;-0.000000;,
  0.000037;-0.000005;-1.000000;,
  -0.998370;0.013130;-0.055541;,
  -0.000428;0.006878;-0.999976;,
  0.992423;0.001017;0.122864;,
  0.000000;-0.000019;1.000000;,
  0.998291;-0.017343;0.055802;,
  0.000000;0.000000;1.000000;,
  -1.000000;0.000000;0.000000;,
  -0.000000;0.000000;-1.000000;,
  -1.000000;0.000000;0.000000;,
  0.000000;0.000000;1.000000;,
  -1.000000;0.000000;0.000000;,
  -0.993430;0.028262;-0.110898;,
  -0.000000;0.192782;-0.981242;,
  0.992841;-0.029496;0.115747;,
  0.000000;0.000000;1.000000;,
  -0.000000;0.000000;-1.000000;,
  0.000004;0.000000;-1.000000;,
  0.000004;0.000000;-1.000000;,
  -0.001679;0.000000;0.999999;,
  0.001678;0.000000;-0.999999;,
  0.001679;0.000000;-0.999999;,
  0.001679;0.000000;-0.999999;,
  0.001678;0.000000;-0.999999;,
  -0.001679;0.000000;0.999999;,
  -0.001580;0.002451;0.999996;,
  0.999999;0.000000;0.001676;,
  0.001679;0.000026;-0.999999;,
  0.001679;0.000039;-0.999999;,
  0.001679;0.000000;-0.999999;,
  0.000220;-1.000000;-0.000386;,
  -0.998513;-0.054024;0.007331;,
  -0.001679;0.000000;0.999999;,
  1.000000;0.000000;0.000003;,
  1.000000;-0.000101;0.000001;,
  0.000000;-0.988686;-0.150002;,
  0.000362;-0.987258;-0.159125;,
  -0.006328;-0.987383;-0.158223;,
  -0.006699;-0.988800;-0.149095;,
  -1.000000;-0.000101;0.000001;,
  1.000000;-0.000101;-0.000002;,
  0.000000;0.000000;0.000000;,
  -0.009817;-0.999951;0.001368;,
  -1.000000;-0.000101;0.000000;,
  1.000000;0.000000;0.000003;,
  0.000000;0.000000;-1.000000;,
  0.000003;0.000000;-1.000000;,
  0.015097;-0.002101;-0.999884;,
  0.007120;-0.002021;-0.999973;,
  -0.019633;-0.999803;0.002736;,
  0.000078;-0.000010;-1.000000;,
  -0.000390;-0.000976;-1.000000;,
  -0.003213;0.999995;-0.000432;,
  -0.998283;0.005053;-0.058364;,
  0.001063;-0.999625;-0.027357;,
  1.000000;0.000000;-0.000000;,
  1.000000;0.000000;-0.000000;,
  1.000000;0.000000;-0.000000;,
  0.000000;-0.299379;0.954134;,
  0.000000;0.999110;0.042181;,
  1.000000;0.000000;-0.000002;;
  260;
  4;4,0,1,1;,
  4;6,2,2,6;,
  4;5,62,63,3;,
  4;7,7,7,7;,
  4;8,0,4,9;,
  4;8,9,64,13;,
  4;10,10,10,10;,
  4;11,11,11,11;,
  4;65,66,66,67;,
  4;65,67,5,3;,
  4;2,2,2,2;,
  4;17,1,1,0;,
  4;12,12,12,12;,
  4;63,63,3,63;,
  4;10,10,10,10;,
  4;10,10,10,10;,
  4;13,68,69,14;,
  4;13,14,8,13;,
  4;15,7,7,15;,
  4;15,15,70,70;,
  4;16,16,16,16;,
  4;66,66,65,71;,
  4;66,71,72,73;,
  4;17,18,14,69;,
  4;10,10,10,10;,
  4;19,19,72,71;,
  4;74,74,74,74;,
  4;75,75,75,75;,
  4;1,1,1,1;,
  4;20,20,20,20;,
  4;21,21,21,21;,
  4;38,38,38,38;,
  4;10,10,10,10;,
  4;11,11,11,11;,
  4;10,10,10,10;,
  4;11,11,11,11;,
  4;16,16,16,16;,
  4;23,23,67,66;,
  4;22,22,7,7;,
  4;76,76,64,9;,
  4;11,11,11,11;,
  4;49,27,25,51;,
  4;55,53,24,28;,
  4;43,45,1,29;,
  4;43,29,27,49;,
  4;41,55,28,30;,
  4;41,30,26,47;,
  4;31,32,77,78;,
  4;79,80,81,82;,
  4;11,11,11,11;,
  4;20,83,20,20;,
  4;33,84,36,34;,
  4;33,34,32,31;,
  4;11,11,79,11;,
  4;11,11,11,11;,
  4;10,10,10,10;,
  4;11,85,85,11;,
  4;11,11,11,11;,
  4;11,11,11,11;,
  4;35,35,35,35;,
  4;11,11,11,11;,
  4;20,20,20,20;,
  4;20,20,20,83;,
  4;1,1,1,1;,
  4;37,37,37,37;,
  4;24,24,28,24;,
  4;77,77,77,32;,
  4;11,11,11,11;,
  4;1,1,1,1;,
  4;20,20,20,20;,
  4;39,39,26,30;,
  4;86,86,86,86;,
  4;11,11,11,11;,
  4;36,36,34,36;,
  4;25,25,25,27;,
  4;40,40,40,40;,
  4;21,21,21,21;,
  4;11,11,11,11;,
  4;38,38,38,38;,
  4;1,1,29,1;,
  4;20,20,20,20;,
  4;87,87,87,87;,
  4;11,11,11,11;,
  4;58,42,42,42;,
  4;44,44,45,43;,
  4;46,46,83,83;,
  4;88,89,41,47;,
  4;81,85,85,82;,
  4;54,48,48,48;,
  4;50,49,51,50;,
  4;52,84,78,52;,
  4;90,53,55,91;,
  4;92,92,92,92;,
  4;80,79,11,11;,
  4;56,56,56,56;,
  4;57,57,57,57;,
  4;93,93,93,93;,
  4;89,91,55,41;,
  4;80,94,94,81;,
  4;1,1,1,1;,
  4;20,20,20,20;,
  4;21,21,21,21;,
  4;38,38,38,38;,
  4;10,10,10,10;,
  4;11,11,11,11;,
  4;1,1,1,1;,
  4;20,20,20,20;,
  4;21,21,21,21;,
  4;38,38,38,38;,
  4;10,10,10,10;,
  4;11,11,11,11;,
  4;1,1,1,1;,
  4;20,20,20,20;,
  4;21,21,21,21;,
  4;38,38,38,38;,
  4;10,10,10,10;,
  4;11,11,11,11;,
  4;11,11,11,11;,
  4;61,61,58,61;,
  4;60,60,60,60;,
  4;59,59,59,54;,
  4;95,95,95,95;,
  4;96,96,96,96;,
  4;10,10,10,10;,
  4;1,1,1,1;,
  4;20,20,20,20;,
  4;21,21,21,21;,
  4;38,38,38,38;,
  4;10,10,10,10;,
  4;11,11,11,11;,
  4;101,97,98,98;,
  4;103,99,99,103;,
  4;102,174,175,100;,
  4;105,105,104,104;,
  4;106,97,101,107;,
  4;106,107,176,111;,
  4;108,108,108,108;,
  4;109,109,109,109;,
  4;177,178,179,180;,
  4;177,180,102,100;,
  4;99,99,99,99;,
  4;115,98,98,97;,
  4;110,110,110,110;,
  4;175,175,100,175;,
  4;108,108,108,108;,
  4;108,108,108,108;,
  4;111,181,182,112;,
  4;111,112,106,111;,
  4;113,104,104,113;,
  4;113,113,183,183;,
  4;114,114,114,114;,
  4;178,178,177,184;,
  4;178,184,185,186;,
  4;115,116,112,182;,
  4;108,108,108,108;,
  4;117,117,185,184;,
  4;187,187,187,187;,
  4;188,188,188,188;,
  4;118,118,118,118;,
  4;119,119,119,119;,
  4;120,120,120,120;,
  4;142,142,142,142;,
  4;108,108,108,108;,
  4;109,109,109,109;,
  4;108,108,108,108;,
  4;109,109,109,109;,
  4;123,123,123,123;,
  4;122,122,180,179;,
  4;121,121,105,105;,
  4;189,189,176,107;,
  4;109,109,109,109;,
  4;153,127,125,155;,
  4;159,157,124,128;,
  4;147,149,98,129;,
  4;147,129,127,153;,
  4;145,159,128,130;,
  4;145,130,126,151;,
  4;131,132,190,191;,
  4;192,193,194,195;,
  4;109,109,109,109;,
  4;133,196,139,134;,
  4;135,197,138,136;,
  4;135,136,132,131;,
  4;109,109,192,109;,
  4;109,109,109,109;,
  4;108,108,108,108;,
  4;198,198,198,198;,
  4;109,109,109,109;,
  4;109,109,109,109;,
  4;199,195,109,109;,
  4;109,109,109,109;,
  4;119,133,134,119;,
  4;119,119,119,200;,
  4;98,98,98,98;,
  4;141,141,141,141;,
  4;137,137,128,124;,
  4;190,190,190,132;,
  4;109,109,109,109;,
  4;98,98,98,98;,
  4;139,139,134,139;,
  4;143,143,126,130;,
  4;201,201,201,201;,
  4;109,109,109,109;,
  4;138,138,136,138;,
  4;140,140,125,127;,
  4;144,144,144,144;,
  4;202,202,202,202;,
  4;109,109,109,109;,
  4;142,142,142,142;,
  4;98,98,129,98;,
  4;119,119,119,119;,
  4;203,203,203,203;,
  4;109,109,109,109;,
  4;162,146,146,146;,
  4;148,148,149,147;,
  4;150,150,196,200;,
  4;204,205,145,151;,
  4;194,206,199,195;,
  4;158,152,152,152;,
  4;154,153,155,154;,
  4;156,197,191,156;,
  4;207,157,159,208;,
  4;209,209,209,209;,
  4;193,192,109,109;,
  4;160,160,160,160;,
  4;161,161,161,161;,
  4;210,210,210,210;,
  4;205,208,159,145;,
  4;193,211,211,194;,
  4;163,163,163,163;,
  4;164,164,164,164;,
  4;165,165,165,165;,
  4;212,212,212,212;,
  4;108,108,108,108;,
  4;109,109,109,109;,
  4;163,163,163,163;,
  4;166,166,166,166;,
  4;165,165,165,165;,
  4;213,213,213,213;,
  4;108,108,108,108;,
  4;109,109,109,109;,
  4;167,167,167,167;,
  4;168,168,168,168;,
  4;165,165,165,165;,
  4;214,214,214,214;,
  4;108,108,108,108;,
  4;109,109,109,109;,
  4;109,109,109,109;,
  4;171,171,162,171;,
  4;170,170,170,170;,
  4;169,169,169,158;,
  4;215,215,215,215;,
  4;216,216,216,216;,
  4;108,108,108,108;,
  4;172,172,172,172;,
  4;119,119,119,119;,
  4;173,173,173,173;,
  4;217,217,217,217;,
  4;108,108,108,108;,
  4;109,109,109,109;;
 }
}
