xof 0302txt 0064
template Header {
 <3D82AB43-62DA-11cf-AB39-0020AF71E433>
 WORD major;
 WORD minor;
 DWORD flags;
}

template Vector {
 <3D82AB5E-62DA-11cf-AB39-0020AF71E433>
 FLOAT x;
 FLOAT y;
 FLOAT z;
}

template Coords2d {
 <F6F23F44-7686-11cf-8F52-0040333594A3>
 FLOAT u;
 FLOAT v;
}

template Matrix4x4 {
 <F6F23F45-7686-11cf-8F52-0040333594A3>
 array FLOAT matrix[16];
}

template ColorRGBA {
 <35FF44E0-6C7C-11cf-8F52-0040333594A3>
 FLOAT red;
 FLOAT green;
 FLOAT blue;
 FLOAT alpha;
}

template ColorRGB {
 <D3E16E81-7835-11cf-8F52-0040333594A3>
 FLOAT red;
 FLOAT green;
 FLOAT blue;
}

template IndexedColor {
 <1630B820-7842-11cf-8F52-0040333594A3>
 DWORD index;
 ColorRGBA indexColor;
}

template Boolean {
 <4885AE61-78E8-11cf-8F52-0040333594A3>
 WORD truefalse;
}

template Boolean2d {
 <4885AE63-78E8-11cf-8F52-0040333594A3>
 Boolean u;
 Boolean v;
}

template MaterialWrap {
 <4885AE60-78E8-11cf-8F52-0040333594A3>
 Boolean u;
 Boolean v;
}

template TextureFilename {
 <A42790E1-7810-11cf-8F52-0040333594A3>
 STRING filename;
}

template Material {
 <3D82AB4D-62DA-11cf-AB39-0020AF71E433>
 ColorRGBA faceColor;
 FLOAT power;
 ColorRGB specularColor;
 ColorRGB emissiveColor;
 [...]
}

template MeshFace {
 <3D82AB5F-62DA-11cf-AB39-0020AF71E433>
 DWORD nFaceVertexIndices;
 array DWORD faceVertexIndices[nFaceVertexIndices];
}

template MeshFaceWraps {
 <4885AE62-78E8-11cf-8F52-0040333594A3>
 DWORD nFaceWrapValues;
 Boolean2d faceWrapValues;
}

template MeshTextureCoords {
 <F6F23F40-7686-11cf-8F52-0040333594A3>
 DWORD nTextureCoords;
 array Coords2d textureCoords[nTextureCoords];
}

template MeshMaterialList {
 <F6F23F42-7686-11cf-8F52-0040333594A3>
 DWORD nMaterials;
 DWORD nFaceIndexes;
 array DWORD faceIndexes[nFaceIndexes];
 [Material]
}

template MeshNormals {
 <F6F23F43-7686-11cf-8F52-0040333594A3>
 DWORD nNormals;
 array Vector normals[nNormals];
 DWORD nFaceNormals;
 array MeshFace faceNormals[nFaceNormals];
}

template MeshVertexColors {
 <1630B821-7842-11cf-8F52-0040333594A3>
 DWORD nVertexColors;
 array IndexedColor vertexColors[nVertexColors];
}

template Mesh {
 <3D82AB44-62DA-11cf-AB39-0020AF71E433>
 DWORD nVertices;
 array Vector vertices[nVertices];
 DWORD nFaces;
 array MeshFace faces[nFaces];
 [...]
}

Header{
1;
0;
1;
}

Mesh {
 61;
 17.30668;33.31506;15.47280;,
 17.30668;33.31506;20.00000;,
 17.30668;5.24562;20.00000;,
 17.30668;5.24562;14.26116;,
 17.87544;33.31506;16.55802;,
 17.87544;33.31506;21.40274;,
 -17.30668;5.24562;14.26116;,
 -17.30668;5.24562;20.00000;,
 -17.30668;33.31506;20.00000;,
 -17.30668;33.31506;15.47280;,
 -17.87544;33.31506;21.40274;,
 -17.87544;33.31506;16.55802;,
 17.30668;33.31506;-14.33662;,
 17.30668;5.24562;-13.12496;,
 17.30668;5.24562;-20.00000;,
 17.30668;33.31506;-20.00000;,
 17.87544;33.31506;-21.40274;,
 17.87544;33.31506;-15.34214;,
 17.87544;38.23192;-21.40274;,
 17.87544;38.23192;21.40274;,
 -17.30668;5.24562;-13.12496;,
 -17.30668;33.31506;-14.33662;,
 -17.30668;33.31506;-20.00000;,
 -17.30668;5.24562;-20.00000;,
 -0.02016;38.23192;0.12420;,
 -17.87544;33.31506;-15.34214;,
 -17.87544;33.31506;-21.40274;,
 -17.87544;38.23192;21.40274;,
 -17.87544;38.23192;-21.40274;,
 14.57466;5.24562;-20.00000;,
 14.57466;33.31506;-20.00000;,
 14.57466;5.24562;-13.12496;,
 14.57466;5.24562;14.26116;,
 15.05362;33.31506;-21.40274;,
 14.57466;5.24562;20.00000;,
 14.57466;33.31506;20.00000;,
 15.05362;33.31506;21.40274;,
 -14.49574;5.24562;-20.00000;,
 -14.49574;5.24562;-13.12496;,
 -14.49574;33.31506;-20.00000;,
 -14.49574;5.24562;14.26116;,
 -14.97210;33.31506;-21.40274;,
 -14.49574;5.24562;20.00000;,
 -14.49574;33.31506;20.00000;,
 -14.97210;33.31506;21.40274;,
 17.30668;-0.45300;-20.00000;,
 14.57466;-0.45300;-20.00000;,
 17.30668;-0.45300;-13.12496;,
 14.57466;-0.45300;-13.12496;,
 17.30668;-0.45300;14.26116;,
 14.57466;-0.45300;14.26116;,
 17.30668;-0.45300;20.00000;,
 14.57466;-0.45300;20.00000;,
 -14.49574;-0.45300;-13.12496;,
 -14.49574;-0.45300;-20.00000;,
 -17.30668;-0.45300;-13.12496;,
 -17.30668;-0.45300;-20.00000;,
 -14.49574;-0.45300;20.00000;,
 -14.49574;-0.45300;14.26116;,
 -17.30668;-0.45300;20.00000;,
 -17.30668;-0.45300;14.26116;;
 
 65;
 4;0,1,2,3;,
 4;0,4,5,1;,
 4;6,7,8,9;,
 4;9,8,10,11;,
 4;12,0,3,13;,
 4;12,13,14,15;,
 4;12,15,16,17;,
 4;12,17,4,0;,
 4;17,18,19,4;,
 4;20,6,9,21;,
 4;20,21,22,23;,
 3;18,24,19;,
 4;21,9,11,25;,
 4;21,25,26,22;,
 4;25,11,27,28;,
 3;28,27,24;,
 4;29,30,15,14;,
 4;31,13,3,32;,
 4;30,33,16,15;,
 4;34,2,1,35;,
 4;35,1,5,36;,
 4;37,29,31,38;,
 4;37,23,22,39;,
 4;37,39,30,29;,
 4;38,31,32,40;,
 4;38,40,6,20;,
 4;39,22,26,41;,
 4;39,41,33,30;,
 4;40,32,34,42;,
 4;41,28,18,33;,
 4;42,34,35,43;,
 4;42,43,8,7;,
 3;28,24,18;,
 4;43,35,36,44;,
 4;43,44,10,8;,
 4;44,36,19,27;,
 3;27,19,24;,
 4;45,46,29,14;,
 4;47,45,14,13;,
 4;48,47,13,31;,
 4;46,48,31,29;,
 4;46,45,47,48;,
 4;49,50,32,3;,
 4;51,49,3,2;,
 4;52,51,2,34;,
 4;50,52,34,32;,
 4;50,49,51,52;,
 4;53,54,37,38;,
 4;55,53,38,20;,
 4;56,55,20,23;,
 4;54,56,23,37;,
 4;54,53,55,56;,
 4;57,58,40,42;,
 4;59,57,42,7;,
 4;60,59,7,6;,
 4;58,60,6,40;,
 4;58,57,59,60;,
 3;19,36,5;,
 3;19,5,4;,
 3;18,17,16;,
 3;18,16,33;,
 3;28,41,26;,
 3;28,26,25;,
 3;27,11,10;,
 3;27,10,44;;
 
 MeshMaterialList {
  1;
  65;
  0,
  0,
  0,
  0,
  0,
  0,
  0,
  0,
  0,
  0,
  0,
  0,
  0,
  0,
  0,
  0,
  0,
  0,
  0,
  0,
  0,
  0,
  0,
  0,
  0,
  0,
  0,
  0,
  0,
  0,
  0,
  0,
  0,
  0,
  0,
  0,
  0,
  0,
  0,
  0,
  0,
  0,
  0,
  0,
  0,
  0,
  0,
  0,
  0,
  0,
  0,
  0,
  0,
  0,
  0,
  0,
  0,
  0,
  0,
  0,
  0,
  0,
  0,
  0,
  0;;
  Material {
   0.800000;0.800000;0.800000;1.000000;;
   8.000000;
   0.290000;0.290000;0.290000;;
   0.000000;0.000000;0.000000;;
  }
 }
 MeshNormals {
  10;
  -1.000000;0.000000;0.000000;,
  1.000000;0.000000;0.000000;,
  0.000000;1.000000;0.000000;,
  0.000000;-1.000000;-0.000000;,
  0.000000;0.000000;-1.000000;,
  0.000000;0.000000;1.000000;,
  0.000000;0.000000;1.000000;,
  1.000000;0.000000;-0.000000;,
  0.000000;0.000000;-1.000000;,
  -1.000000;0.000000;0.000000;;
  65;
  4;1,1,1,1;,
  4;3,3,3,3;,
  4;0,0,0,0;,
  4;3,3,3,3;,
  4;1,1,1,1;,
  4;1,1,1,1;,
  4;3,3,3,3;,
  4;3,3,3,3;,
  4;1,1,1,1;,
  4;0,0,0,0;,
  4;0,0,0,0;,
  3;2,2,2;,
  4;3,3,3,3;,
  4;3,3,3,3;,
  4;0,0,0,0;,
  3;2,2,2;,
  4;4,4,4,4;,
  4;3,3,3,3;,
  4;3,3,3,3;,
  4;5,5,5,5;,
  4;3,3,3,3;,
  4;3,3,3,3;,
  4;4,4,4,4;,
  4;4,4,4,4;,
  4;3,3,3,3;,
  4;3,3,3,3;,
  4;3,3,3,3;,
  4;3,3,3,3;,
  4;3,3,3,3;,
  4;4,4,4,4;,
  4;5,5,5,5;,
  4;5,5,5,5;,
  3;2,2,2;,
  4;3,3,3,3;,
  4;3,3,3,3;,
  4;5,5,5,5;,
  3;2,2,2;,
  4;4,4,4,4;,
  4;1,1,1,1;,
  4;5,5,5,5;,
  4;0,0,0,0;,
  4;3,3,3,3;,
  4;4,4,4,4;,
  4;1,1,1,1;,
  4;5,5,5,5;,
  4;0,0,0,0;,
  4;3,3,3,3;,
  4;1,1,1,1;,
  4;5,5,5,5;,
  4;0,0,0,0;,
  4;4,4,4,4;,
  4;3,3,3,3;,
  4;1,1,1,1;,
  4;5,5,5,5;,
  4;0,0,0,0;,
  4;4,4,4,4;,
  4;3,3,3,3;,
  3;5,5,6;,
  3;1,1,1;,
  3;1,1,7;,
  3;4,8,4;,
  3;4,4,4;,
  3;0,9,0;,
  3;0,0,0;,
  3;5,5,5;;
 }
}
