xof 0302txt 0064
template Header {
 <3D82AB43-62DA-11cf-AB39-0020AF71E433>
 WORD major;
 WORD minor;
 DWORD flags;
}

template Vector {
 <3D82AB5E-62DA-11cf-AB39-0020AF71E433>
 FLOAT x;
 FLOAT y;
 FLOAT z;
}

template Coords2d {
 <F6F23F44-7686-11cf-8F52-0040333594A3>
 FLOAT u;
 FLOAT v;
}

template Matrix4x4 {
 <F6F23F45-7686-11cf-8F52-0040333594A3>
 array FLOAT matrix[16];
}

template ColorRGBA {
 <35FF44E0-6C7C-11cf-8F52-0040333594A3>
 FLOAT red;
 FLOAT green;
 FLOAT blue;
 FLOAT alpha;
}

template ColorRGB {
 <D3E16E81-7835-11cf-8F52-0040333594A3>
 FLOAT red;
 FLOAT green;
 FLOAT blue;
}

template IndexedColor {
 <1630B820-7842-11cf-8F52-0040333594A3>
 DWORD index;
 ColorRGBA indexColor;
}

template Boolean {
 <4885AE61-78E8-11cf-8F52-0040333594A3>
 WORD truefalse;
}

template Boolean2d {
 <4885AE63-78E8-11cf-8F52-0040333594A3>
 Boolean u;
 Boolean v;
}

template MaterialWrap {
 <4885AE60-78E8-11cf-8F52-0040333594A3>
 Boolean u;
 Boolean v;
}

template TextureFilename {
 <A42790E1-7810-11cf-8F52-0040333594A3>
 STRING filename;
}

template Material {
 <3D82AB4D-62DA-11cf-AB39-0020AF71E433>
 ColorRGBA faceColor;
 FLOAT power;
 ColorRGB specularColor;
 ColorRGB emissiveColor;
 [...]
}

template MeshFace {
 <3D82AB5F-62DA-11cf-AB39-0020AF71E433>
 DWORD nFaceVertexIndices;
 array DWORD faceVertexIndices[nFaceVertexIndices];
}

template MeshFaceWraps {
 <4885AE62-78E8-11cf-8F52-0040333594A3>
 DWORD nFaceWrapValues;
 Boolean2d faceWrapValues;
}

template MeshTextureCoords {
 <F6F23F40-7686-11cf-8F52-0040333594A3>
 DWORD nTextureCoords;
 array Coords2d textureCoords[nTextureCoords];
}

template MeshMaterialList {
 <F6F23F42-7686-11cf-8F52-0040333594A3>
 DWORD nMaterials;
 DWORD nFaceIndexes;
 array DWORD faceIndexes[nFaceIndexes];
 [Material]
}

template MeshNormals {
 <F6F23F43-7686-11cf-8F52-0040333594A3>
 DWORD nNormals;
 array Vector normals[nNormals];
 DWORD nFaceNormals;
 array MeshFace faceNormals[nFaceNormals];
}

template MeshVertexColors {
 <1630B821-7842-11cf-8F52-0040333594A3>
 DWORD nVertexColors;
 array IndexedColor vertexColors[nVertexColors];
}

template Mesh {
 <3D82AB44-62DA-11cf-AB39-0020AF71E433>
 DWORD nVertices;
 array Vector vertices[nVertices];
 DWORD nFaces;
 array MeshFace faces[nFaces];
 [...]
}

Header{
1;
0;
1;
}

Mesh {
 305;
 56.72010;33.31506;15.47280;,
 56.72010;33.31506;20.00000;,
 56.72010;5.24562;20.00000;,
 56.72010;5.24562;14.26116;,
 58.58410;33.31506;16.55802;,
 58.58410;33.31506;21.40274;,
 -56.72010;5.24562;14.26116;,
 -56.72010;5.24562;20.00000;,
 -56.72010;33.31506;20.00000;,
 -56.72010;33.31506;15.47280;,
 -58.58410;33.31506;21.40274;,
 -58.58410;33.31506;16.55802;,
 56.72010;33.31506;-14.33662;,
 56.72010;5.24562;-13.12496;,
 56.72010;5.24562;-20.00000;,
 56.72010;33.31506;-20.00000;,
 58.58410;33.31506;-21.40274;,
 58.58410;33.31506;-15.34214;,
 58.58410;38.23192;-21.40274;,
 58.58410;38.23192;21.40274;,
 -56.72010;5.24562;-13.12496;,
 -56.72010;33.31506;-14.33662;,
 -56.72010;33.31506;-20.00000;,
 -56.72010;5.24562;-20.00000;,
 -0.06606;38.23192;0.12420;,
 -58.58410;33.31506;-15.34214;,
 -58.58410;33.31506;-21.40274;,
 -58.58410;38.23192;21.40274;,
 -58.58410;38.23192;-21.40274;,
 47.76632;5.24562;-20.00000;,
 47.76632;33.31506;-20.00000;,
 47.76632;5.24562;-13.12496;,
 47.76632;5.24562;14.26116;,
 49.33606;33.31506;-21.40274;,
 47.76632;5.24562;20.00000;,
 47.76632;33.31506;20.00000;,
 49.33606;33.31506;21.40274;,
 -47.50766;5.24562;-20.00000;,
 -47.50766;5.24562;-13.12496;,
 -47.50766;33.31506;-20.00000;,
 -47.50766;5.24562;14.26116;,
 -49.06886;33.31506;-21.40274;,
 -47.50766;5.24562;20.00000;,
 -47.50766;33.31506;20.00000;,
 -49.06886;33.31506;21.40274;,
 56.72010;-0.45300;-20.00000;,
 47.76632;-0.45300;-20.00000;,
 56.72010;-0.45300;-13.12496;,
 47.76632;-0.45300;-13.12496;,
 56.72010;-0.45300;14.26116;,
 47.76632;-0.45300;14.26116;,
 56.72010;-0.45300;20.00000;,
 47.76632;-0.45300;20.00000;,
 -47.50766;-0.45300;-13.12496;,
 -47.50766;-0.45300;-20.00000;,
 -56.72010;-0.45300;-13.12496;,
 -56.72010;-0.45300;-20.00000;,
 -47.50766;-0.45300;20.00000;,
 -47.50766;-0.45300;14.26116;,
 -56.72010;-0.45300;20.00000;,
 -56.72010;-0.45300;14.26116;,
 173.92011;33.31506;15.47280;,
 173.92011;33.31506;20.00000;,
 173.92011;5.24562;20.00000;,
 173.92011;5.24562;14.26116;,
 175.78410;33.31506;16.55802;,
 175.78410;33.31506;21.40274;,
 60.47990;5.24562;14.26116;,
 60.47990;5.24562;20.00000;,
 60.47990;33.31506;20.00000;,
 60.47990;33.31506;15.47280;,
 58.61590;33.31506;21.40274;,
 58.61590;33.31506;16.55802;,
 173.92011;33.31506;-14.33662;,
 173.92011;5.24562;-13.12496;,
 173.92011;5.24562;-20.00000;,
 173.92011;33.31506;-20.00000;,
 175.78410;33.31506;-21.40274;,
 175.78410;33.31506;-15.34214;,
 175.78410;38.23192;-21.40274;,
 175.78410;38.23192;21.40274;,
 60.47990;5.24562;-13.12496;,
 60.47990;33.31506;-14.33662;,
 60.47990;33.31506;-20.00000;,
 60.47990;5.24562;-20.00000;,
 117.13394;38.23192;0.12420;,
 58.61590;33.31506;-15.34214;,
 58.61590;33.31506;-21.40274;,
 58.61590;38.23192;21.40274;,
 58.61590;38.23192;-21.40274;,
 164.96632;5.24562;-20.00000;,
 164.96632;33.31506;-20.00000;,
 164.96632;5.24562;-13.12496;,
 164.96632;5.24562;14.26116;,
 166.53606;33.31506;-21.40274;,
 164.96632;5.24562;20.00000;,
 164.96632;33.31506;20.00000;,
 166.53606;33.31506;21.40274;,
 69.69234;5.24562;-20.00000;,
 69.69234;5.24562;-13.12496;,
 69.69234;33.31506;-20.00000;,
 69.69234;5.24562;14.26116;,
 68.13114;33.31506;-21.40274;,
 69.69234;5.24562;20.00000;,
 69.69234;33.31506;20.00000;,
 68.13114;33.31506;21.40274;,
 173.92011;-0.45300;-20.00000;,
 164.96632;-0.45300;-20.00000;,
 173.92011;-0.45300;-13.12496;,
 164.96632;-0.45300;-13.12496;,
 173.92011;-0.45300;14.26116;,
 164.96632;-0.45300;14.26116;,
 173.92011;-0.45300;20.00000;,
 164.96632;-0.45300;20.00000;,
 69.69234;-0.45300;-13.12496;,
 69.69234;-0.45300;-20.00000;,
 60.47990;-0.45300;-13.12496;,
 60.47990;-0.45300;-20.00000;,
 69.69234;-0.45300;20.00000;,
 69.69234;-0.45300;14.26116;,
 60.47990;-0.45300;20.00000;,
 60.47990;-0.45300;14.26116;,
 290.92010;33.31506;15.47280;,
 290.92010;33.31506;20.00000;,
 290.92010;5.24562;20.00000;,
 290.92010;5.24562;14.26116;,
 292.78411;33.31506;16.55802;,
 292.78411;33.31506;21.40274;,
 177.47990;5.24562;14.26116;,
 177.47990;5.24562;20.00000;,
 177.47990;33.31506;20.00000;,
 177.47990;33.31506;15.47280;,
 175.61591;33.31506;21.40274;,
 175.61591;33.31506;16.55802;,
 290.92010;33.31506;-14.33662;,
 290.92010;5.24562;-13.12496;,
 290.92010;5.24562;-20.00000;,
 290.92010;33.31506;-20.00000;,
 292.78411;33.31506;-21.40274;,
 292.78411;33.31506;-15.34214;,
 292.78411;38.23192;-21.40274;,
 292.78411;38.23192;21.40274;,
 177.47990;5.24562;-13.12496;,
 177.47990;33.31506;-14.33662;,
 177.47990;33.31506;-20.00000;,
 177.47990;5.24562;-20.00000;,
 234.13394;38.23192;0.12420;,
 175.61591;33.31506;-15.34214;,
 175.61591;33.31506;-21.40274;,
 175.61591;38.23192;21.40274;,
 175.61591;38.23192;-21.40274;,
 281.96631;5.24562;-20.00000;,
 281.96631;33.31506;-20.00000;,
 281.96631;5.24562;-13.12496;,
 281.96631;5.24562;14.26116;,
 283.53606;33.31506;-21.40274;,
 281.96631;5.24562;20.00000;,
 281.96631;33.31506;20.00000;,
 283.53606;33.31506;21.40274;,
 186.69234;5.24562;-20.00000;,
 186.69234;5.24562;-13.12496;,
 186.69234;33.31506;-20.00000;,
 186.69234;5.24562;14.26116;,
 185.13114;33.31506;-21.40274;,
 186.69234;5.24562;20.00000;,
 186.69234;33.31506;20.00000;,
 185.13114;33.31506;21.40274;,
 290.92010;-0.45300;-20.00000;,
 281.96631;-0.45300;-20.00000;,
 290.92010;-0.45300;-13.12496;,
 281.96631;-0.45300;-13.12496;,
 290.92010;-0.45300;14.26116;,
 281.96631;-0.45300;14.26116;,
 290.92010;-0.45300;20.00000;,
 281.96631;-0.45300;20.00000;,
 186.69234;-0.45300;-13.12496;,
 186.69234;-0.45300;-20.00000;,
 177.47990;-0.45300;-13.12496;,
 177.47990;-0.45300;-20.00000;,
 186.69234;-0.45300;20.00000;,
 186.69234;-0.45300;14.26116;,
 177.47990;-0.45300;20.00000;,
 177.47990;-0.45300;14.26116;,
 -60.27990;33.31506;15.47280;,
 -60.27990;33.31506;20.00000;,
 -60.27990;5.24562;20.00000;,
 -60.27990;5.24562;14.26116;,
 -58.41590;33.31506;16.55802;,
 -58.41590;33.31506;21.40274;,
 -173.72011;5.24562;14.26116;,
 -173.72011;5.24562;20.00000;,
 -173.72011;33.31506;20.00000;,
 -173.72011;33.31506;15.47280;,
 -175.58410;33.31506;21.40274;,
 -175.58410;33.31506;16.55802;,
 -60.27990;33.31506;-14.33662;,
 -60.27990;5.24562;-13.12496;,
 -60.27990;5.24562;-20.00000;,
 -60.27990;33.31506;-20.00000;,
 -58.41590;33.31506;-21.40274;,
 -58.41590;33.31506;-15.34214;,
 -58.41590;38.23192;-21.40274;,
 -58.41590;38.23192;21.40274;,
 -173.72011;5.24562;-13.12496;,
 -173.72011;33.31506;-14.33662;,
 -173.72011;33.31506;-20.00000;,
 -173.72011;5.24562;-20.00000;,
 -117.06607;38.23192;0.12420;,
 -175.58410;33.31506;-15.34214;,
 -175.58410;33.31506;-21.40274;,
 -175.58410;38.23192;21.40274;,
 -175.58410;38.23192;-21.40274;,
 -69.23368;5.24562;-20.00000;,
 -69.23368;33.31506;-20.00000;,
 -69.23368;5.24562;-13.12496;,
 -69.23368;5.24562;14.26116;,
 -67.66394;33.31506;-21.40274;,
 -69.23368;5.24562;20.00000;,
 -69.23368;33.31506;20.00000;,
 -67.66394;33.31506;21.40274;,
 -164.50767;5.24562;-20.00000;,
 -164.50767;5.24562;-13.12496;,
 -164.50767;33.31506;-20.00000;,
 -164.50767;5.24562;14.26116;,
 -166.06886;33.31506;-21.40274;,
 -164.50767;5.24562;20.00000;,
 -164.50767;33.31506;20.00000;,
 -166.06886;33.31506;21.40274;,
 -60.27990;-0.45300;-20.00000;,
 -69.23368;-0.45300;-20.00000;,
 -60.27990;-0.45300;-13.12496;,
 -69.23368;-0.45300;-13.12496;,
 -60.27990;-0.45300;14.26116;,
 -69.23368;-0.45300;14.26116;,
 -60.27990;-0.45300;20.00000;,
 -69.23368;-0.45300;20.00000;,
 -164.50767;-0.45300;-13.12496;,
 -164.50767;-0.45300;-20.00000;,
 -173.72011;-0.45300;-13.12496;,
 -173.72011;-0.45300;-20.00000;,
 -164.50767;-0.45300;20.00000;,
 -164.50767;-0.45300;14.26116;,
 -173.72011;-0.45300;20.00000;,
 -173.72011;-0.45300;14.26116;,
 -177.27990;33.31506;15.47280;,
 -177.27990;33.31506;20.00000;,
 -177.27990;5.24562;20.00000;,
 -177.27990;5.24562;14.26116;,
 -175.41591;33.31506;16.55802;,
 -175.41591;33.31506;21.40274;,
 -290.72010;5.24562;14.26116;,
 -290.72010;5.24562;20.00000;,
 -290.72010;33.31506;20.00000;,
 -290.72010;33.31506;15.47280;,
 -292.58409;33.31506;21.40274;,
 -292.58409;33.31506;16.55802;,
 -177.27990;33.31506;-14.33662;,
 -177.27990;5.24562;-13.12496;,
 -177.27990;5.24562;-20.00000;,
 -177.27990;33.31506;-20.00000;,
 -175.41591;33.31506;-21.40274;,
 -175.41591;33.31506;-15.34214;,
 -175.41591;38.23192;-21.40274;,
 -175.41591;38.23192;21.40274;,
 -290.72010;5.24562;-13.12496;,
 -290.72010;33.31506;-14.33662;,
 -290.72010;33.31506;-20.00000;,
 -290.72010;5.24562;-20.00000;,
 -234.06607;38.23192;0.12420;,
 -292.58409;33.31506;-15.34214;,
 -292.58409;33.31506;-21.40274;,
 -292.58409;38.23192;21.40274;,
 -292.58409;38.23192;-21.40274;,
 -186.23366;5.24562;-20.00000;,
 -186.23366;33.31506;-20.00000;,
 -186.23366;5.24562;-13.12496;,
 -186.23366;5.24562;14.26116;,
 -184.66394;33.31506;-21.40274;,
 -186.23366;5.24562;20.00000;,
 -186.23366;33.31506;20.00000;,
 -184.66394;33.31506;21.40274;,
 -281.50767;5.24562;-20.00000;,
 -281.50767;5.24562;-13.12496;,
 -281.50767;33.31506;-20.00000;,
 -281.50767;5.24562;14.26116;,
 -283.06885;33.31506;-21.40274;,
 -281.50767;5.24562;20.00000;,
 -281.50767;33.31506;20.00000;,
 -283.06885;33.31506;21.40274;,
 -177.27990;-0.45300;-20.00000;,
 -186.23366;-0.45300;-20.00000;,
 -177.27990;-0.45300;-13.12496;,
 -186.23366;-0.45300;-13.12496;,
 -177.27990;-0.45300;14.26116;,
 -186.23366;-0.45300;14.26116;,
 -177.27990;-0.45300;20.00000;,
 -186.23366;-0.45300;20.00000;,
 -281.50767;-0.45300;-13.12496;,
 -281.50767;-0.45300;-20.00000;,
 -290.72010;-0.45300;-13.12496;,
 -290.72010;-0.45300;-20.00000;,
 -281.50767;-0.45300;20.00000;,
 -281.50767;-0.45300;14.26116;,
 -290.72010;-0.45300;20.00000;,
 -290.72010;-0.45300;14.26116;;
 
 325;
 4;0,1,2,3;,
 4;0,4,5,1;,
 4;6,7,8,9;,
 4;9,8,10,11;,
 4;12,0,3,13;,
 4;12,13,14,15;,
 4;12,15,16,17;,
 4;12,17,4,0;,
 4;17,18,19,4;,
 4;20,6,9,21;,
 4;20,21,22,23;,
 3;18,24,19;,
 4;21,9,11,25;,
 4;21,25,26,22;,
 4;25,11,27,28;,
 3;28,27,24;,
 4;29,30,15,14;,
 4;31,13,3,32;,
 4;30,33,16,15;,
 4;34,2,1,35;,
 4;35,1,5,36;,
 4;37,29,31,38;,
 4;37,23,22,39;,
 4;37,39,30,29;,
 4;38,31,32,40;,
 4;38,40,6,20;,
 4;39,22,26,41;,
 4;39,41,33,30;,
 4;40,32,34,42;,
 4;41,28,18,33;,
 4;42,34,35,43;,
 4;42,43,8,7;,
 3;28,24,18;,
 4;43,35,36,44;,
 4;43,44,10,8;,
 4;44,36,19,27;,
 3;27,19,24;,
 4;45,46,29,14;,
 4;47,45,14,13;,
 4;48,47,13,31;,
 4;46,48,31,29;,
 4;46,45,47,48;,
 4;49,50,32,3;,
 4;51,49,3,2;,
 4;52,51,2,34;,
 4;50,52,34,32;,
 4;50,49,51,52;,
 4;53,54,37,38;,
 4;55,53,38,20;,
 4;56,55,20,23;,
 4;54,56,23,37;,
 4;54,53,55,56;,
 4;57,58,40,42;,
 4;59,57,42,7;,
 4;60,59,7,6;,
 4;58,60,6,40;,
 4;58,57,59,60;,
 3;19,36,5;,
 3;19,5,4;,
 3;18,17,16;,
 3;18,16,33;,
 3;28,41,26;,
 3;28,26,25;,
 3;27,11,10;,
 3;27,10,44;,
 4;61,62,63,64;,
 4;61,65,66,62;,
 4;67,68,69,70;,
 4;70,69,71,72;,
 4;73,61,64,74;,
 4;73,74,75,76;,
 4;73,76,77,78;,
 4;73,78,65,61;,
 4;78,79,80,65;,
 4;81,67,70,82;,
 4;81,82,83,84;,
 3;79,85,80;,
 4;82,70,72,86;,
 4;82,86,87,83;,
 4;86,72,88,89;,
 3;89,88,85;,
 4;90,91,76,75;,
 4;92,74,64,93;,
 4;91,94,77,76;,
 4;95,63,62,96;,
 4;96,62,66,97;,
 4;98,90,92,99;,
 4;98,84,83,100;,
 4;98,100,91,90;,
 4;99,92,93,101;,
 4;99,101,67,81;,
 4;100,83,87,102;,
 4;100,102,94,91;,
 4;101,93,95,103;,
 4;102,89,79,94;,
 4;103,95,96,104;,
 4;103,104,69,68;,
 3;89,85,79;,
 4;104,96,97,105;,
 4;104,105,71,69;,
 4;105,97,80,88;,
 3;88,80,85;,
 4;106,107,90,75;,
 4;108,106,75,74;,
 4;109,108,74,92;,
 4;107,109,92,90;,
 4;107,106,108,109;,
 4;110,111,93,64;,
 4;112,110,64,63;,
 4;113,112,63,95;,
 4;111,113,95,93;,
 4;111,110,112,113;,
 4;114,115,98,99;,
 4;116,114,99,81;,
 4;117,116,81,84;,
 4;115,117,84,98;,
 4;115,114,116,117;,
 4;118,119,101,103;,
 4;120,118,103,68;,
 4;121,120,68,67;,
 4;119,121,67,101;,
 4;119,118,120,121;,
 3;80,97,66;,
 3;80,66,65;,
 3;79,78,77;,
 3;79,77,94;,
 3;89,102,87;,
 3;89,87,86;,
 3;88,72,71;,
 3;88,71,105;,
 4;122,123,124,125;,
 4;122,126,127,123;,
 4;128,129,130,131;,
 4;131,130,132,133;,
 4;134,122,125,135;,
 4;134,135,136,137;,
 4;134,137,138,139;,
 4;134,139,126,122;,
 4;139,140,141,126;,
 4;142,128,131,143;,
 4;142,143,144,145;,
 3;140,146,141;,
 4;143,131,133,147;,
 4;143,147,148,144;,
 4;147,133,149,150;,
 3;150,149,146;,
 4;151,152,137,136;,
 4;153,135,125,154;,
 4;152,155,138,137;,
 4;156,124,123,157;,
 4;157,123,127,158;,
 4;159,151,153,160;,
 4;159,145,144,161;,
 4;159,161,152,151;,
 4;160,153,154,162;,
 4;160,162,128,142;,
 4;161,144,148,163;,
 4;161,163,155,152;,
 4;162,154,156,164;,
 4;163,150,140,155;,
 4;164,156,157,165;,
 4;164,165,130,129;,
 3;150,146,140;,
 4;165,157,158,166;,
 4;165,166,132,130;,
 4;166,158,141,149;,
 3;149,141,146;,
 4;167,168,151,136;,
 4;169,167,136,135;,
 4;170,169,135,153;,
 4;168,170,153,151;,
 4;168,167,169,170;,
 4;171,172,154,125;,
 4;173,171,125,124;,
 4;174,173,124,156;,
 4;172,174,156,154;,
 4;172,171,173,174;,
 4;175,176,159,160;,
 4;177,175,160,142;,
 4;178,177,142,145;,
 4;176,178,145,159;,
 4;176,175,177,178;,
 4;179,180,162,164;,
 4;181,179,164,129;,
 4;182,181,129,128;,
 4;180,182,128,162;,
 4;180,179,181,182;,
 3;141,158,127;,
 3;141,127,126;,
 3;140,139,138;,
 3;140,138,155;,
 3;150,163,148;,
 3;150,148,147;,
 3;149,133,132;,
 3;149,132,166;,
 4;183,184,185,186;,
 4;183,187,188,184;,
 4;189,190,191,192;,
 4;192,191,193,194;,
 4;195,183,186,196;,
 4;195,196,197,198;,
 4;195,198,199,200;,
 4;195,200,187,183;,
 4;200,201,202,187;,
 4;203,189,192,204;,
 4;203,204,205,206;,
 3;201,207,202;,
 4;204,192,194,208;,
 4;204,208,209,205;,
 4;208,194,210,211;,
 3;211,210,207;,
 4;212,213,198,197;,
 4;214,196,186,215;,
 4;213,216,199,198;,
 4;217,185,184,218;,
 4;218,184,188,219;,
 4;220,212,214,221;,
 4;220,206,205,222;,
 4;220,222,213,212;,
 4;221,214,215,223;,
 4;221,223,189,203;,
 4;222,205,209,224;,
 4;222,224,216,213;,
 4;223,215,217,225;,
 4;224,211,201,216;,
 4;225,217,218,226;,
 4;225,226,191,190;,
 3;211,207,201;,
 4;226,218,219,227;,
 4;226,227,193,191;,
 4;227,219,202,210;,
 3;210,202,207;,
 4;228,229,212,197;,
 4;230,228,197,196;,
 4;231,230,196,214;,
 4;229,231,214,212;,
 4;229,228,230,231;,
 4;232,233,215,186;,
 4;234,232,186,185;,
 4;235,234,185,217;,
 4;233,235,217,215;,
 4;233,232,234,235;,
 4;236,237,220,221;,
 4;238,236,221,203;,
 4;239,238,203,206;,
 4;237,239,206,220;,
 4;237,236,238,239;,
 4;240,241,223,225;,
 4;242,240,225,190;,
 4;243,242,190,189;,
 4;241,243,189,223;,
 4;241,240,242,243;,
 3;202,219,188;,
 3;202,188,187;,
 3;201,200,199;,
 3;201,199,216;,
 3;211,224,209;,
 3;211,209,208;,
 3;210,194,193;,
 3;210,193,227;,
 4;244,245,246,247;,
 4;244,248,249,245;,
 4;250,251,252,253;,
 4;253,252,254,255;,
 4;256,244,247,257;,
 4;256,257,258,259;,
 4;256,259,260,261;,
 4;256,261,248,244;,
 4;261,262,263,248;,
 4;264,250,253,265;,
 4;264,265,266,267;,
 3;262,268,263;,
 4;265,253,255,269;,
 4;265,269,270,266;,
 4;269,255,271,272;,
 3;272,271,268;,
 4;273,274,259,258;,
 4;275,257,247,276;,
 4;274,277,260,259;,
 4;278,246,245,279;,
 4;279,245,249,280;,
 4;281,273,275,282;,
 4;281,267,266,283;,
 4;281,283,274,273;,
 4;282,275,276,284;,
 4;282,284,250,264;,
 4;283,266,270,285;,
 4;283,285,277,274;,
 4;284,276,278,286;,
 4;285,272,262,277;,
 4;286,278,279,287;,
 4;286,287,252,251;,
 3;272,268,262;,
 4;287,279,280,288;,
 4;287,288,254,252;,
 4;288,280,263,271;,
 3;271,263,268;,
 4;289,290,273,258;,
 4;291,289,258,257;,
 4;292,291,257,275;,
 4;290,292,275,273;,
 4;290,289,291,292;,
 4;293,294,276,247;,
 4;295,293,247,246;,
 4;296,295,246,278;,
 4;294,296,278,276;,
 4;294,293,295,296;,
 4;297,298,281,282;,
 4;299,297,282,264;,
 4;300,299,264,267;,
 4;298,300,267,281;,
 4;298,297,299,300;,
 4;301,302,284,286;,
 4;303,301,286,251;,
 4;304,303,251,250;,
 4;302,304,250,284;,
 4;302,301,303,304;,
 3;263,280,249;,
 3;263,249,248;,
 3;262,261,260;,
 3;262,260,277;,
 3;272,285,270;,
 3;272,270,269;,
 3;271,255,254;,
 3;271,254,288;;
 
 MeshMaterialList {
  1;
  325;
  0,
  0,
  0,
  0,
  0,
  0,
  0,
  0,
  0,
  0,
  0,
  0,
  0,
  0,
  0,
  0,
  0,
  0,
  0,
  0,
  0,
  0,
  0,
  0,
  0,
  0,
  0,
  0,
  0,
  0,
  0,
  0,
  0,
  0,
  0,
  0,
  0,
  0,
  0,
  0,
  0,
  0,
  0,
  0,
  0,
  0,
  0,
  0,
  0,
  0,
  0,
  0,
  0,
  0,
  0,
  0,
  0,
  0,
  0,
  0,
  0,
  0,
  0,
  0,
  0,
  0,
  0,
  0,
  0,
  0,
  0,
  0,
  0,
  0,
  0,
  0,
  0,
  0,
  0,
  0,
  0,
  0,
  0,
  0,
  0,
  0,
  0,
  0,
  0,
  0,
  0,
  0,
  0,
  0,
  0,
  0,
  0,
  0,
  0,
  0,
  0,
  0,
  0,
  0,
  0,
  0,
  0,
  0,
  0,
  0,
  0,
  0,
  0,
  0,
  0,
  0,
  0,
  0,
  0,
  0,
  0,
  0,
  0,
  0,
  0,
  0,
  0,
  0,
  0,
  0,
  0,
  0,
  0,
  0,
  0,
  0,
  0,
  0,
  0,
  0,
  0,
  0,
  0,
  0,
  0,
  0,
  0,
  0,
  0,
  0,
  0,
  0,
  0,
  0,
  0,
  0,
  0,
  0,
  0,
  0,
  0,
  0,
  0,
  0,
  0,
  0,
  0,
  0,
  0,
  0,
  0,
  0,
  0,
  0,
  0,
  0,
  0,
  0,
  0,
  0,
  0,
  0,
  0,
  0,
  0,
  0,
  0,
  0,
  0,
  0,
  0,
  0,
  0,
  0,
  0,
  0,
  0,
  0,
  0,
  0,
  0,
  0,
  0,
  0,
  0,
  0,
  0,
  0,
  0,
  0,
  0,
  0,
  0,
  0,
  0,
  0,
  0,
  0,
  0,
  0,
  0,
  0,
  0,
  0,
  0,
  0,
  0,
  0,
  0,
  0,
  0,
  0,
  0,
  0,
  0,
  0,
  0,
  0,
  0,
  0,
  0,
  0,
  0,
  0,
  0,
  0,
  0,
  0,
  0,
  0,
  0,
  0,
  0,
  0,
  0,
  0,
  0,
  0,
  0,
  0,
  0,
  0,
  0,
  0,
  0,
  0,
  0,
  0,
  0,
  0,
  0,
  0,
  0,
  0,
  0,
  0,
  0,
  0,
  0,
  0,
  0,
  0,
  0,
  0,
  0,
  0,
  0,
  0,
  0,
  0,
  0,
  0,
  0,
  0,
  0,
  0,
  0,
  0,
  0,
  0,
  0,
  0,
  0,
  0,
  0,
  0,
  0,
  0,
  0,
  0,
  0,
  0,
  0,
  0,
  0,
  0,
  0,
  0,
  0,
  0,
  0,
  0,
  0,
  0,
  0;;
  Material {
   0.800000;0.800000;0.800000;1.000000;;
   8.000000;
   0.290000;0.290000;0.290000;;
   0.000000;0.000000;0.000000;;
  }
 }
 MeshNormals {
  40;
  -1.000000;0.000000;0.000000;,
  1.000000;0.000000;0.000000;,
  0.000000;1.000000;0.000000;,
  0.000000;-1.000000;-0.000000;,
  0.000000;0.000000;-1.000000;,
  0.000000;0.000000;1.000000;,
  1.000000;0.000000;-0.000000;,
  -1.000000;0.000000;0.000000;,
  -1.000000;0.000000;0.000000;,
  1.000000;0.000000;0.000000;,
  0.000000;1.000000;0.000000;,
  0.000000;-1.000000;-0.000000;,
  0.000000;0.000000;-1.000000;,
  0.000000;0.000000;1.000000;,
  1.000000;0.000000;-0.000000;,
  -1.000000;0.000000;0.000000;,
  -1.000000;0.000000;0.000000;,
  1.000000;0.000000;0.000000;,
  0.000000;1.000000;0.000000;,
  0.000000;-1.000000;-0.000000;,
  0.000000;0.000000;-1.000000;,
  0.000000;0.000000;1.000000;,
  1.000000;0.000000;-0.000000;,
  -1.000000;0.000000;0.000000;,
  -1.000000;0.000000;0.000000;,
  1.000000;0.000000;0.000000;,
  0.000000;1.000000;0.000000;,
  0.000000;-1.000000;-0.000000;,
  0.000000;0.000000;-1.000000;,
  0.000000;0.000000;1.000000;,
  1.000000;0.000000;-0.000000;,
  -1.000000;0.000000;0.000000;,
  -1.000000;0.000000;0.000000;,
  1.000000;0.000000;0.000000;,
  0.000000;1.000000;0.000000;,
  0.000000;-1.000000;-0.000000;,
  0.000000;0.000000;-1.000000;,
  0.000000;0.000000;1.000000;,
  1.000000;0.000000;-0.000000;,
  -1.000000;0.000000;0.000000;;
  325;
  4;1,1,1,1;,
  4;3,3,3,3;,
  4;0,0,0,0;,
  4;3,3,3,3;,
  4;1,1,1,1;,
  4;1,1,1,1;,
  4;3,3,3,3;,
  4;3,3,3,3;,
  4;1,1,1,1;,
  4;0,0,0,0;,
  4;0,0,0,0;,
  3;2,2,2;,
  4;3,3,3,3;,
  4;3,3,3,3;,
  4;0,0,0,0;,
  3;2,2,2;,
  4;4,4,4,4;,
  4;3,3,3,3;,
  4;3,3,3,3;,
  4;5,5,5,5;,
  4;3,3,3,3;,
  4;3,3,3,3;,
  4;4,4,4,4;,
  4;4,4,4,4;,
  4;3,3,3,3;,
  4;3,3,3,3;,
  4;3,3,3,3;,
  4;3,3,3,3;,
  4;3,3,3,3;,
  4;4,4,4,4;,
  4;5,5,5,5;,
  4;5,5,5,5;,
  3;2,2,2;,
  4;3,3,3,3;,
  4;3,3,3,3;,
  4;5,5,5,5;,
  3;2,2,2;,
  4;4,4,4,4;,
  4;1,1,1,1;,
  4;5,5,5,5;,
  4;0,0,0,0;,
  4;3,3,3,3;,
  4;4,4,4,4;,
  4;1,1,1,1;,
  4;5,5,5,5;,
  4;0,0,0,0;,
  4;3,3,3,3;,
  4;1,1,1,1;,
  4;5,5,5,5;,
  4;0,0,0,0;,
  4;4,4,4,4;,
  4;3,3,3,3;,
  4;1,1,1,1;,
  4;5,5,5,5;,
  4;0,0,0,0;,
  4;4,4,4,4;,
  4;3,3,3,3;,
  3;5,5,5;,
  3;1,1,1;,
  3;1,1,6;,
  3;4,4,4;,
  3;4,4,4;,
  3;0,7,0;,
  3;0,0,0;,
  3;5,5,5;,
  4;9,9,9,9;,
  4;11,11,11,11;,
  4;8,8,8,8;,
  4;11,11,11,11;,
  4;9,9,9,9;,
  4;9,9,9,9;,
  4;11,11,11,11;,
  4;11,11,11,11;,
  4;9,9,9,9;,
  4;8,8,8,8;,
  4;8,8,8,8;,
  3;10,10,10;,
  4;11,11,11,11;,
  4;11,11,11,11;,
  4;8,8,8,8;,
  3;10,10,10;,
  4;12,12,12,12;,
  4;11,11,11,11;,
  4;11,11,11,11;,
  4;13,13,13,13;,
  4;11,11,11,11;,
  4;11,11,11,11;,
  4;12,12,12,12;,
  4;12,12,12,12;,
  4;11,11,11,11;,
  4;11,11,11,11;,
  4;11,11,11,11;,
  4;11,11,11,11;,
  4;11,11,11,11;,
  4;12,12,12,12;,
  4;13,13,13,13;,
  4;13,13,13,13;,
  3;10,10,10;,
  4;11,11,11,11;,
  4;11,11,11,11;,
  4;13,13,13,13;,
  3;10,10,10;,
  4;12,12,12,12;,
  4;9,9,9,9;,
  4;13,13,13,13;,
  4;8,8,8,8;,
  4;11,11,11,11;,
  4;12,12,12,12;,
  4;9,9,9,9;,
  4;13,13,13,13;,
  4;8,8,8,8;,
  4;11,11,11,11;,
  4;9,9,9,9;,
  4;13,13,13,13;,
  4;8,8,8,8;,
  4;12,12,12,12;,
  4;11,11,11,11;,
  4;9,9,9,9;,
  4;13,13,13,13;,
  4;8,8,8,8;,
  4;12,12,12,12;,
  4;11,11,11,11;,
  3;13,13,13;,
  3;9,9,9;,
  3;9,9,14;,
  3;12,12,12;,
  3;12,12,12;,
  3;8,15,8;,
  3;8,8,8;,
  3;13,13,13;,
  4;17,17,17,17;,
  4;19,19,19,19;,
  4;16,16,16,16;,
  4;19,19,19,19;,
  4;17,17,17,17;,
  4;17,17,17,17;,
  4;19,19,19,19;,
  4;19,19,19,19;,
  4;17,17,17,17;,
  4;16,16,16,16;,
  4;16,16,16,16;,
  3;18,18,18;,
  4;19,19,19,19;,
  4;19,19,19,19;,
  4;16,16,16,16;,
  3;18,18,18;,
  4;20,20,20,20;,
  4;19,19,19,19;,
  4;19,19,19,19;,
  4;21,21,21,21;,
  4;19,19,19,19;,
  4;19,19,19,19;,
  4;20,20,20,20;,
  4;20,20,20,20;,
  4;19,19,19,19;,
  4;19,19,19,19;,
  4;19,19,19,19;,
  4;19,19,19,19;,
  4;19,19,19,19;,
  4;20,20,20,20;,
  4;21,21,21,21;,
  4;21,21,21,21;,
  3;18,18,18;,
  4;19,19,19,19;,
  4;19,19,19,19;,
  4;21,21,21,21;,
  3;18,18,18;,
  4;20,20,20,20;,
  4;17,17,17,17;,
  4;21,21,21,21;,
  4;16,16,16,16;,
  4;19,19,19,19;,
  4;20,20,20,20;,
  4;17,17,17,17;,
  4;21,21,21,21;,
  4;16,16,16,16;,
  4;19,19,19,19;,
  4;17,17,17,17;,
  4;21,21,21,21;,
  4;16,16,16,16;,
  4;20,20,20,20;,
  4;19,19,19,19;,
  4;17,17,17,17;,
  4;21,21,21,21;,
  4;16,16,16,16;,
  4;20,20,20,20;,
  4;19,19,19,19;,
  3;21,21,21;,
  3;17,17,17;,
  3;17,17,22;,
  3;20,20,20;,
  3;20,20,20;,
  3;16,23,16;,
  3;16,16,16;,
  3;21,21,21;,
  4;25,25,25,25;,
  4;27,27,27,27;,
  4;24,24,24,24;,
  4;27,27,27,27;,
  4;25,25,25,25;,
  4;25,25,25,25;,
  4;27,27,27,27;,
  4;27,27,27,27;,
  4;25,25,25,25;,
  4;24,24,24,24;,
  4;24,24,24,24;,
  3;26,26,26;,
  4;27,27,27,27;,
  4;27,27,27,27;,
  4;24,24,24,24;,
  3;26,26,26;,
  4;28,28,28,28;,
  4;27,27,27,27;,
  4;27,27,27,27;,
  4;29,29,29,29;,
  4;27,27,27,27;,
  4;27,27,27,27;,
  4;28,28,28,28;,
  4;28,28,28,28;,
  4;27,27,27,27;,
  4;27,27,27,27;,
  4;27,27,27,27;,
  4;27,27,27,27;,
  4;27,27,27,27;,
  4;28,28,28,28;,
  4;29,29,29,29;,
  4;29,29,29,29;,
  3;26,26,26;,
  4;27,27,27,27;,
  4;27,27,27,27;,
  4;29,29,29,29;,
  3;26,26,26;,
  4;28,28,28,28;,
  4;25,25,25,25;,
  4;29,29,29,29;,
  4;24,24,24,24;,
  4;27,27,27,27;,
  4;28,28,28,28;,
  4;25,25,25,25;,
  4;29,29,29,29;,
  4;24,24,24,24;,
  4;27,27,27,27;,
  4;25,25,25,25;,
  4;29,29,29,29;,
  4;24,24,24,24;,
  4;28,28,28,28;,
  4;27,27,27,27;,
  4;25,25,25,25;,
  4;29,29,29,29;,
  4;24,24,24,24;,
  4;28,28,28,28;,
  4;27,27,27,27;,
  3;29,29,29;,
  3;25,25,25;,
  3;25,25,30;,
  3;28,28,28;,
  3;28,28,28;,
  3;24,31,24;,
  3;24,24,24;,
  3;29,29,29;,
  4;33,33,33,33;,
  4;35,35,35,35;,
  4;32,32,32,32;,
  4;35,35,35,35;,
  4;33,33,33,33;,
  4;33,33,33,33;,
  4;35,35,35,35;,
  4;35,35,35,35;,
  4;33,33,33,33;,
  4;32,32,32,32;,
  4;32,32,32,32;,
  3;34,34,34;,
  4;35,35,35,35;,
  4;35,35,35,35;,
  4;32,32,32,32;,
  3;34,34,34;,
  4;36,36,36,36;,
  4;35,35,35,35;,
  4;35,35,35,35;,
  4;37,37,37,37;,
  4;35,35,35,35;,
  4;35,35,35,35;,
  4;36,36,36,36;,
  4;36,36,36,36;,
  4;35,35,35,35;,
  4;35,35,35,35;,
  4;35,35,35,35;,
  4;35,35,35,35;,
  4;35,35,35,35;,
  4;36,36,36,36;,
  4;37,37,37,37;,
  4;37,37,37,37;,
  3;34,34,34;,
  4;35,35,35,35;,
  4;35,35,35,35;,
  4;37,37,37,37;,
  3;34,34,34;,
  4;36,36,36,36;,
  4;33,33,33,33;,
  4;37,37,37,37;,
  4;32,32,32,32;,
  4;35,35,35,35;,
  4;36,36,36,36;,
  4;33,33,33,33;,
  4;37,37,37,37;,
  4;32,32,32,32;,
  4;35,35,35,35;,
  4;33,33,33,33;,
  4;37,37,37,37;,
  4;32,32,32,32;,
  4;36,36,36,36;,
  4;35,35,35,35;,
  4;33,33,33,33;,
  4;37,37,37,37;,
  4;32,32,32,32;,
  4;36,36,36,36;,
  4;35,35,35,35;,
  3;37,37,37;,
  3;33,33,33;,
  3;33,33,38;,
  3;36,36,36;,
  3;36,36,36;,
  3;32,39,32;,
  3;32,32,32;,
  3;37,37,37;;
 }
}
