xof 0302txt 0064
template Header {
 <3D82AB43-62DA-11cf-AB39-0020AF71E433>
 WORD major;
 WORD minor;
 DWORD flags;
}

template Vector {
 <3D82AB5E-62DA-11cf-AB39-0020AF71E433>
 FLOAT x;
 FLOAT y;
 FLOAT z;
}

template Coords2d {
 <F6F23F44-7686-11cf-8F52-0040333594A3>
 FLOAT u;
 FLOAT v;
}

template Matrix4x4 {
 <F6F23F45-7686-11cf-8F52-0040333594A3>
 array FLOAT matrix[16];
}

template ColorRGBA {
 <35FF44E0-6C7C-11cf-8F52-0040333594A3>
 FLOAT red;
 FLOAT green;
 FLOAT blue;
 FLOAT alpha;
}

template ColorRGB {
 <D3E16E81-7835-11cf-8F52-0040333594A3>
 FLOAT red;
 FLOAT green;
 FLOAT blue;
}

template IndexedColor {
 <1630B820-7842-11cf-8F52-0040333594A3>
 DWORD index;
 ColorRGBA indexColor;
}

template Boolean {
 <4885AE61-78E8-11cf-8F52-0040333594A3>
 WORD truefalse;
}

template Boolean2d {
 <4885AE63-78E8-11cf-8F52-0040333594A3>
 Boolean u;
 Boolean v;
}

template MaterialWrap {
 <4885AE60-78E8-11cf-8F52-0040333594A3>
 Boolean u;
 Boolean v;
}

template TextureFilename {
 <A42790E1-7810-11cf-8F52-0040333594A3>
 STRING filename;
}

template Material {
 <3D82AB4D-62DA-11cf-AB39-0020AF71E433>
 ColorRGBA faceColor;
 FLOAT power;
 ColorRGB specularColor;
 ColorRGB emissiveColor;
 [...]
}

template MeshFace {
 <3D82AB5F-62DA-11cf-AB39-0020AF71E433>
 DWORD nFaceVertexIndices;
 array DWORD faceVertexIndices[nFaceVertexIndices];
}

template MeshFaceWraps {
 <4885AE62-78E8-11cf-8F52-0040333594A3>
 DWORD nFaceWrapValues;
 Boolean2d faceWrapValues;
}

template MeshTextureCoords {
 <F6F23F40-7686-11cf-8F52-0040333594A3>
 DWORD nTextureCoords;
 array Coords2d textureCoords[nTextureCoords];
}

template MeshMaterialList {
 <F6F23F42-7686-11cf-8F52-0040333594A3>
 DWORD nMaterials;
 DWORD nFaceIndexes;
 array DWORD faceIndexes[nFaceIndexes];
 [Material]
}

template MeshNormals {
 <F6F23F43-7686-11cf-8F52-0040333594A3>
 DWORD nNormals;
 array Vector normals[nNormals];
 DWORD nFaceNormals;
 array MeshFace faceNormals[nFaceNormals];
}

template MeshVertexColors {
 <1630B821-7842-11cf-8F52-0040333594A3>
 DWORD nVertexColors;
 array IndexedColor vertexColors[nVertexColors];
}

template Mesh {
 <3D82AB44-62DA-11cf-AB39-0020AF71E433>
 DWORD nVertices;
 array Vector vertices[nVertices];
 DWORD nFaces;
 array MeshFace faces[nFaces];
 [...]
}

Header{
1;
0;
1;
}

Mesh {
 183;
 56.72010;33.31506;15.47280;,
 56.72010;33.31506;20.00000;,
 56.72010;5.24562;20.00000;,
 56.72010;5.24562;14.26116;,
 58.58410;33.31506;16.55802;,
 58.58410;33.31506;21.40274;,
 -56.72010;5.24562;14.26116;,
 -56.72010;5.24562;20.00000;,
 -56.72010;33.31506;20.00000;,
 -56.72010;33.31506;15.47280;,
 -58.58410;33.31506;21.40274;,
 -58.58410;33.31506;16.55802;,
 56.72010;33.31506;-14.33662;,
 56.72010;5.24562;-13.12496;,
 56.72010;5.24562;-20.00000;,
 56.72010;33.31506;-20.00000;,
 58.58410;33.31506;-21.40274;,
 58.58410;33.31506;-15.34214;,
 58.58410;38.23192;-21.40274;,
 58.58410;38.23192;21.40274;,
 -56.72010;5.24562;-13.12496;,
 -56.72010;33.31506;-14.33662;,
 -56.72010;33.31506;-20.00000;,
 -56.72010;5.24562;-20.00000;,
 -0.06606;38.23192;0.12420;,
 -58.58410;33.31506;-15.34214;,
 -58.58410;33.31506;-21.40274;,
 -58.58410;38.23192;21.40274;,
 -58.58410;38.23192;-21.40274;,
 47.76632;5.24562;-20.00000;,
 47.76632;33.31506;-20.00000;,
 47.76632;5.24562;-13.12496;,
 47.76632;5.24562;14.26116;,
 49.33606;33.31506;-21.40274;,
 47.76632;5.24562;20.00000;,
 47.76632;33.31506;20.00000;,
 49.33606;33.31506;21.40274;,
 -47.50766;5.24562;-20.00000;,
 -47.50766;5.24562;-13.12496;,
 -47.50766;33.31506;-20.00000;,
 -47.50766;5.24562;14.26116;,
 -49.06886;33.31506;-21.40274;,
 -47.50766;5.24562;20.00000;,
 -47.50766;33.31506;20.00000;,
 -49.06886;33.31506;21.40274;,
 56.72010;-0.45300;-20.00000;,
 47.76632;-0.45300;-20.00000;,
 56.72010;-0.45300;-13.12496;,
 47.76632;-0.45300;-13.12496;,
 56.72010;-0.45300;14.26116;,
 47.76632;-0.45300;14.26116;,
 56.72010;-0.45300;20.00000;,
 47.76632;-0.45300;20.00000;,
 -47.50766;-0.45300;-13.12496;,
 -47.50766;-0.45300;-20.00000;,
 -56.72010;-0.45300;-13.12496;,
 -56.72010;-0.45300;-20.00000;,
 -47.50766;-0.45300;20.00000;,
 -47.50766;-0.45300;14.26116;,
 -56.72010;-0.45300;20.00000;,
 -56.72010;-0.45300;14.26116;,
 173.92011;33.31506;15.47280;,
 173.92011;33.31506;20.00000;,
 173.92011;5.24562;20.00000;,
 173.92011;5.24562;14.26116;,
 175.78410;33.31506;16.55802;,
 175.78410;33.31506;21.40274;,
 60.47990;5.24562;14.26116;,
 60.47990;5.24562;20.00000;,
 60.47990;33.31506;20.00000;,
 60.47990;33.31506;15.47280;,
 58.61590;33.31506;21.40274;,
 58.61590;33.31506;16.55802;,
 173.92011;33.31506;-14.33662;,
 173.92011;5.24562;-13.12496;,
 173.92011;5.24562;-20.00000;,
 173.92011;33.31506;-20.00000;,
 175.78410;33.31506;-21.40274;,
 175.78410;33.31506;-15.34214;,
 175.78410;38.23192;-21.40274;,
 175.78410;38.23192;21.40274;,
 60.47990;5.24562;-13.12496;,
 60.47990;33.31506;-14.33662;,
 60.47990;33.31506;-20.00000;,
 60.47990;5.24562;-20.00000;,
 117.13394;38.23192;0.12420;,
 58.61590;33.31506;-15.34214;,
 58.61590;33.31506;-21.40274;,
 58.61590;38.23192;21.40274;,
 58.61590;38.23192;-21.40274;,
 164.96632;5.24562;-20.00000;,
 164.96632;33.31506;-20.00000;,
 164.96632;5.24562;-13.12496;,
 164.96632;5.24562;14.26116;,
 166.53606;33.31506;-21.40274;,
 164.96632;5.24562;20.00000;,
 164.96632;33.31506;20.00000;,
 166.53606;33.31506;21.40274;,
 69.69234;5.24562;-20.00000;,
 69.69234;5.24562;-13.12496;,
 69.69234;33.31506;-20.00000;,
 69.69234;5.24562;14.26116;,
 68.13114;33.31506;-21.40274;,
 69.69234;5.24562;20.00000;,
 69.69234;33.31506;20.00000;,
 68.13114;33.31506;21.40274;,
 173.92011;-0.45300;-20.00000;,
 164.96632;-0.45300;-20.00000;,
 173.92011;-0.45300;-13.12496;,
 164.96632;-0.45300;-13.12496;,
 173.92011;-0.45300;14.26116;,
 164.96632;-0.45300;14.26116;,
 173.92011;-0.45300;20.00000;,
 164.96632;-0.45300;20.00000;,
 69.69234;-0.45300;-13.12496;,
 69.69234;-0.45300;-20.00000;,
 60.47990;-0.45300;-13.12496;,
 60.47990;-0.45300;-20.00000;,
 69.69234;-0.45300;20.00000;,
 69.69234;-0.45300;14.26116;,
 60.47990;-0.45300;20.00000;,
 60.47990;-0.45300;14.26116;,
 -60.27990;33.31506;15.47280;,
 -60.27990;33.31506;20.00000;,
 -60.27990;5.24562;20.00000;,
 -60.27990;5.24562;14.26116;,
 -58.41590;33.31506;16.55802;,
 -58.41590;33.31506;21.40274;,
 -173.72011;5.24562;14.26116;,
 -173.72011;5.24562;20.00000;,
 -173.72011;33.31506;20.00000;,
 -173.72011;33.31506;15.47280;,
 -175.58410;33.31506;21.40274;,
 -175.58410;33.31506;16.55802;,
 -60.27990;33.31506;-14.33662;,
 -60.27990;5.24562;-13.12496;,
 -60.27990;5.24562;-20.00000;,
 -60.27990;33.31506;-20.00000;,
 -58.41590;33.31506;-21.40274;,
 -58.41590;33.31506;-15.34214;,
 -58.41590;38.23192;-21.40274;,
 -58.41590;38.23192;21.40274;,
 -173.72011;5.24562;-13.12496;,
 -173.72011;33.31506;-14.33662;,
 -173.72011;33.31506;-20.00000;,
 -173.72011;5.24562;-20.00000;,
 -117.06607;38.23192;0.12420;,
 -175.58410;33.31506;-15.34214;,
 -175.58410;33.31506;-21.40274;,
 -175.58410;38.23192;21.40274;,
 -175.58410;38.23192;-21.40274;,
 -69.23368;5.24562;-20.00000;,
 -69.23368;33.31506;-20.00000;,
 -69.23368;5.24562;-13.12496;,
 -69.23368;5.24562;14.26116;,
 -67.66394;33.31506;-21.40274;,
 -69.23368;5.24562;20.00000;,
 -69.23368;33.31506;20.00000;,
 -67.66394;33.31506;21.40274;,
 -164.50767;5.24562;-20.00000;,
 -164.50767;5.24562;-13.12496;,
 -164.50767;33.31506;-20.00000;,
 -164.50767;5.24562;14.26116;,
 -166.06886;33.31506;-21.40274;,
 -164.50767;5.24562;20.00000;,
 -164.50767;33.31506;20.00000;,
 -166.06886;33.31506;21.40274;,
 -60.27990;-0.45300;-20.00000;,
 -69.23368;-0.45300;-20.00000;,
 -60.27990;-0.45300;-13.12496;,
 -69.23368;-0.45300;-13.12496;,
 -60.27990;-0.45300;14.26116;,
 -69.23368;-0.45300;14.26116;,
 -60.27990;-0.45300;20.00000;,
 -69.23368;-0.45300;20.00000;,
 -164.50767;-0.45300;-13.12496;,
 -164.50767;-0.45300;-20.00000;,
 -173.72011;-0.45300;-13.12496;,
 -173.72011;-0.45300;-20.00000;,
 -164.50767;-0.45300;20.00000;,
 -164.50767;-0.45300;14.26116;,
 -173.72011;-0.45300;20.00000;,
 -173.72011;-0.45300;14.26116;;
 
 195;
 4;0,1,2,3;,
 4;0,4,5,1;,
 4;6,7,8,9;,
 4;9,8,10,11;,
 4;12,0,3,13;,
 4;12,13,14,15;,
 4;12,15,16,17;,
 4;12,17,4,0;,
 4;17,18,19,4;,
 4;20,6,9,21;,
 4;20,21,22,23;,
 3;18,24,19;,
 4;21,9,11,25;,
 4;21,25,26,22;,
 4;25,11,27,28;,
 3;28,27,24;,
 4;29,30,15,14;,
 4;31,13,3,32;,
 4;30,33,16,15;,
 4;34,2,1,35;,
 4;35,1,5,36;,
 4;37,29,31,38;,
 4;37,23,22,39;,
 4;37,39,30,29;,
 4;38,31,32,40;,
 4;38,40,6,20;,
 4;39,22,26,41;,
 4;39,41,33,30;,
 4;40,32,34,42;,
 4;41,28,18,33;,
 4;42,34,35,43;,
 4;42,43,8,7;,
 3;28,24,18;,
 4;43,35,36,44;,
 4;43,44,10,8;,
 4;44,36,19,27;,
 3;27,19,24;,
 4;45,46,29,14;,
 4;47,45,14,13;,
 4;48,47,13,31;,
 4;46,48,31,29;,
 4;46,45,47,48;,
 4;49,50,32,3;,
 4;51,49,3,2;,
 4;52,51,2,34;,
 4;50,52,34,32;,
 4;50,49,51,52;,
 4;53,54,37,38;,
 4;55,53,38,20;,
 4;56,55,20,23;,
 4;54,56,23,37;,
 4;54,53,55,56;,
 4;57,58,40,42;,
 4;59,57,42,7;,
 4;60,59,7,6;,
 4;58,60,6,40;,
 4;58,57,59,60;,
 3;19,36,5;,
 3;19,5,4;,
 3;18,17,16;,
 3;18,16,33;,
 3;28,41,26;,
 3;28,26,25;,
 3;27,11,10;,
 3;27,10,44;,
 4;61,62,63,64;,
 4;61,65,66,62;,
 4;67,68,69,70;,
 4;70,69,71,72;,
 4;73,61,64,74;,
 4;73,74,75,76;,
 4;73,76,77,78;,
 4;73,78,65,61;,
 4;78,79,80,65;,
 4;81,67,70,82;,
 4;81,82,83,84;,
 3;79,85,80;,
 4;82,70,72,86;,
 4;82,86,87,83;,
 4;86,72,88,89;,
 3;89,88,85;,
 4;90,91,76,75;,
 4;92,74,64,93;,
 4;91,94,77,76;,
 4;95,63,62,96;,
 4;96,62,66,97;,
 4;98,90,92,99;,
 4;98,84,83,100;,
 4;98,100,91,90;,
 4;99,92,93,101;,
 4;99,101,67,81;,
 4;100,83,87,102;,
 4;100,102,94,91;,
 4;101,93,95,103;,
 4;102,89,79,94;,
 4;103,95,96,104;,
 4;103,104,69,68;,
 3;89,85,79;,
 4;104,96,97,105;,
 4;104,105,71,69;,
 4;105,97,80,88;,
 3;88,80,85;,
 4;106,107,90,75;,
 4;108,106,75,74;,
 4;109,108,74,92;,
 4;107,109,92,90;,
 4;107,106,108,109;,
 4;110,111,93,64;,
 4;112,110,64,63;,
 4;113,112,63,95;,
 4;111,113,95,93;,
 4;111,110,112,113;,
 4;114,115,98,99;,
 4;116,114,99,81;,
 4;117,116,81,84;,
 4;115,117,84,98;,
 4;115,114,116,117;,
 4;118,119,101,103;,
 4;120,118,103,68;,
 4;121,120,68,67;,
 4;119,121,67,101;,
 4;119,118,120,121;,
 3;80,97,66;,
 3;80,66,65;,
 3;79,78,77;,
 3;79,77,94;,
 3;89,102,87;,
 3;89,87,86;,
 3;88,72,71;,
 3;88,71,105;,
 4;122,123,124,125;,
 4;122,126,127,123;,
 4;128,129,130,131;,
 4;131,130,132,133;,
 4;134,122,125,135;,
 4;134,135,136,137;,
 4;134,137,138,139;,
 4;134,139,126,122;,
 4;139,140,141,126;,
 4;142,128,131,143;,
 4;142,143,144,145;,
 3;140,146,141;,
 4;143,131,133,147;,
 4;143,147,148,144;,
 4;147,133,149,150;,
 3;150,149,146;,
 4;151,152,137,136;,
 4;153,135,125,154;,
 4;152,155,138,137;,
 4;156,124,123,157;,
 4;157,123,127,158;,
 4;159,151,153,160;,
 4;159,145,144,161;,
 4;159,161,152,151;,
 4;160,153,154,162;,
 4;160,162,128,142;,
 4;161,144,148,163;,
 4;161,163,155,152;,
 4;162,154,156,164;,
 4;163,150,140,155;,
 4;164,156,157,165;,
 4;164,165,130,129;,
 3;150,146,140;,
 4;165,157,158,166;,
 4;165,166,132,130;,
 4;166,158,141,149;,
 3;149,141,146;,
 4;167,168,151,136;,
 4;169,167,136,135;,
 4;170,169,135,153;,
 4;168,170,153,151;,
 4;168,167,169,170;,
 4;171,172,154,125;,
 4;173,171,125,124;,
 4;174,173,124,156;,
 4;172,174,156,154;,
 4;172,171,173,174;,
 4;175,176,159,160;,
 4;177,175,160,142;,
 4;178,177,142,145;,
 4;176,178,145,159;,
 4;176,175,177,178;,
 4;179,180,162,164;,
 4;181,179,164,129;,
 4;182,181,129,128;,
 4;180,182,128,162;,
 4;180,179,181,182;,
 3;141,158,127;,
 3;141,127,126;,
 3;140,139,138;,
 3;140,138,155;,
 3;150,163,148;,
 3;150,148,147;,
 3;149,133,132;,
 3;149,132,166;;
 
 MeshMaterialList {
  1;
  195;
  0,
  0,
  0,
  0,
  0,
  0,
  0,
  0,
  0,
  0,
  0,
  0,
  0,
  0,
  0,
  0,
  0,
  0,
  0,
  0,
  0,
  0,
  0,
  0,
  0,
  0,
  0,
  0,
  0,
  0,
  0,
  0,
  0,
  0,
  0,
  0,
  0,
  0,
  0,
  0,
  0,
  0,
  0,
  0,
  0,
  0,
  0,
  0,
  0,
  0,
  0,
  0,
  0,
  0,
  0,
  0,
  0,
  0,
  0,
  0,
  0,
  0,
  0,
  0,
  0,
  0,
  0,
  0,
  0,
  0,
  0,
  0,
  0,
  0,
  0,
  0,
  0,
  0,
  0,
  0,
  0,
  0,
  0,
  0,
  0,
  0,
  0,
  0,
  0,
  0,
  0,
  0,
  0,
  0,
  0,
  0,
  0,
  0,
  0,
  0,
  0,
  0,
  0,
  0,
  0,
  0,
  0,
  0,
  0,
  0,
  0,
  0,
  0,
  0,
  0,
  0,
  0,
  0,
  0,
  0,
  0,
  0,
  0,
  0,
  0,
  0,
  0,
  0,
  0,
  0,
  0,
  0,
  0,
  0,
  0,
  0,
  0,
  0,
  0,
  0,
  0,
  0,
  0,
  0,
  0,
  0,
  0,
  0,
  0,
  0,
  0,
  0,
  0,
  0,
  0,
  0,
  0,
  0,
  0,
  0,
  0,
  0,
  0,
  0,
  0,
  0,
  0,
  0,
  0,
  0,
  0,
  0,
  0,
  0,
  0,
  0,
  0,
  0,
  0,
  0,
  0,
  0,
  0,
  0,
  0,
  0,
  0,
  0,
  0,
  0,
  0,
  0,
  0,
  0,
  0;;
  Material {
   0.800000;0.800000;0.800000;1.000000;;
   8.000000;
   0.290000;0.290000;0.290000;;
   0.000000;0.000000;0.000000;;
  }
 }
 MeshNormals {
  24;
  -1.000000;0.000000;0.000000;,
  1.000000;0.000000;0.000000;,
  0.000000;1.000000;0.000000;,
  0.000000;-1.000000;-0.000000;,
  0.000000;0.000000;-1.000000;,
  0.000000;0.000000;1.000000;,
  1.000000;0.000000;-0.000000;,
  -1.000000;0.000000;0.000000;,
  -1.000000;0.000000;0.000000;,
  1.000000;0.000000;0.000000;,
  0.000000;1.000000;0.000000;,
  0.000000;-1.000000;-0.000000;,
  0.000000;0.000000;-1.000000;,
  0.000000;0.000000;1.000000;,
  1.000000;0.000000;-0.000000;,
  -1.000000;0.000000;0.000000;,
  -1.000000;0.000000;0.000000;,
  1.000000;0.000000;0.000000;,
  0.000000;1.000000;0.000000;,
  0.000000;-1.000000;-0.000000;,
  0.000000;0.000000;-1.000000;,
  0.000000;0.000000;1.000000;,
  1.000000;0.000000;-0.000000;,
  -1.000000;0.000000;0.000000;;
  195;
  4;1,1,1,1;,
  4;3,3,3,3;,
  4;0,0,0,0;,
  4;3,3,3,3;,
  4;1,1,1,1;,
  4;1,1,1,1;,
  4;3,3,3,3;,
  4;3,3,3,3;,
  4;1,1,1,1;,
  4;0,0,0,0;,
  4;0,0,0,0;,
  3;2,2,2;,
  4;3,3,3,3;,
  4;3,3,3,3;,
  4;0,0,0,0;,
  3;2,2,2;,
  4;4,4,4,4;,
  4;3,3,3,3;,
  4;3,3,3,3;,
  4;5,5,5,5;,
  4;3,3,3,3;,
  4;3,3,3,3;,
  4;4,4,4,4;,
  4;4,4,4,4;,
  4;3,3,3,3;,
  4;3,3,3,3;,
  4;3,3,3,3;,
  4;3,3,3,3;,
  4;3,3,3,3;,
  4;4,4,4,4;,
  4;5,5,5,5;,
  4;5,5,5,5;,
  3;2,2,2;,
  4;3,3,3,3;,
  4;3,3,3,3;,
  4;5,5,5,5;,
  3;2,2,2;,
  4;4,4,4,4;,
  4;1,1,1,1;,
  4;5,5,5,5;,
  4;0,0,0,0;,
  4;3,3,3,3;,
  4;4,4,4,4;,
  4;1,1,1,1;,
  4;5,5,5,5;,
  4;0,0,0,0;,
  4;3,3,3,3;,
  4;1,1,1,1;,
  4;5,5,5,5;,
  4;0,0,0,0;,
  4;4,4,4,4;,
  4;3,3,3,3;,
  4;1,1,1,1;,
  4;5,5,5,5;,
  4;0,0,0,0;,
  4;4,4,4,4;,
  4;3,3,3,3;,
  3;5,5,5;,
  3;1,1,1;,
  3;1,1,6;,
  3;4,4,4;,
  3;4,4,4;,
  3;0,7,0;,
  3;0,0,0;,
  3;5,5,5;,
  4;9,9,9,9;,
  4;11,11,11,11;,
  4;8,8,8,8;,
  4;11,11,11,11;,
  4;9,9,9,9;,
  4;9,9,9,9;,
  4;11,11,11,11;,
  4;11,11,11,11;,
  4;9,9,9,9;,
  4;8,8,8,8;,
  4;8,8,8,8;,
  3;10,10,10;,
  4;11,11,11,11;,
  4;11,11,11,11;,
  4;8,8,8,8;,
  3;10,10,10;,
  4;12,12,12,12;,
  4;11,11,11,11;,
  4;11,11,11,11;,
  4;13,13,13,13;,
  4;11,11,11,11;,
  4;11,11,11,11;,
  4;12,12,12,12;,
  4;12,12,12,12;,
  4;11,11,11,11;,
  4;11,11,11,11;,
  4;11,11,11,11;,
  4;11,11,11,11;,
  4;11,11,11,11;,
  4;12,12,12,12;,
  4;13,13,13,13;,
  4;13,13,13,13;,
  3;10,10,10;,
  4;11,11,11,11;,
  4;11,11,11,11;,
  4;13,13,13,13;,
  3;10,10,10;,
  4;12,12,12,12;,
  4;9,9,9,9;,
  4;13,13,13,13;,
  4;8,8,8,8;,
  4;11,11,11,11;,
  4;12,12,12,12;,
  4;9,9,9,9;,
  4;13,13,13,13;,
  4;8,8,8,8;,
  4;11,11,11,11;,
  4;9,9,9,9;,
  4;13,13,13,13;,
  4;8,8,8,8;,
  4;12,12,12,12;,
  4;11,11,11,11;,
  4;9,9,9,9;,
  4;13,13,13,13;,
  4;8,8,8,8;,
  4;12,12,12,12;,
  4;11,11,11,11;,
  3;13,13,13;,
  3;9,9,9;,
  3;9,9,14;,
  3;12,12,12;,
  3;12,12,12;,
  3;8,15,8;,
  3;8,8,8;,
  3;13,13,13;,
  4;17,17,17,17;,
  4;19,19,19,19;,
  4;16,16,16,16;,
  4;19,19,19,19;,
  4;17,17,17,17;,
  4;17,17,17,17;,
  4;19,19,19,19;,
  4;19,19,19,19;,
  4;17,17,17,17;,
  4;16,16,16,16;,
  4;16,16,16,16;,
  3;18,18,18;,
  4;19,19,19,19;,
  4;19,19,19,19;,
  4;16,16,16,16;,
  3;18,18,18;,
  4;20,20,20,20;,
  4;19,19,19,19;,
  4;19,19,19,19;,
  4;21,21,21,21;,
  4;19,19,19,19;,
  4;19,19,19,19;,
  4;20,20,20,20;,
  4;20,20,20,20;,
  4;19,19,19,19;,
  4;19,19,19,19;,
  4;19,19,19,19;,
  4;19,19,19,19;,
  4;19,19,19,19;,
  4;20,20,20,20;,
  4;21,21,21,21;,
  4;21,21,21,21;,
  3;18,18,18;,
  4;19,19,19,19;,
  4;19,19,19,19;,
  4;21,21,21,21;,
  3;18,18,18;,
  4;20,20,20,20;,
  4;17,17,17,17;,
  4;21,21,21,21;,
  4;16,16,16,16;,
  4;19,19,19,19;,
  4;20,20,20,20;,
  4;17,17,17,17;,
  4;21,21,21,21;,
  4;16,16,16,16;,
  4;19,19,19,19;,
  4;17,17,17,17;,
  4;21,21,21,21;,
  4;16,16,16,16;,
  4;20,20,20,20;,
  4;19,19,19,19;,
  4;17,17,17,17;,
  4;21,21,21,21;,
  4;16,16,16,16;,
  4;20,20,20,20;,
  4;19,19,19,19;,
  3;21,21,21;,
  3;17,17,17;,
  3;17,17,22;,
  3;20,20,20;,
  3;20,20,20;,
  3;16,23,16;,
  3;16,16,16;,
  3;21,21,21;;
 }
}
