xof 0302txt 0064
template Header {
 <3D82AB43-62DA-11cf-AB39-0020AF71E433>
 WORD major;
 WORD minor;
 DWORD flags;
}

template Vector {
 <3D82AB5E-62DA-11cf-AB39-0020AF71E433>
 FLOAT x;
 FLOAT y;
 FLOAT z;
}

template Coords2d {
 <F6F23F44-7686-11cf-8F52-0040333594A3>
 FLOAT u;
 FLOAT v;
}

template Matrix4x4 {
 <F6F23F45-7686-11cf-8F52-0040333594A3>
 array FLOAT matrix[16];
}

template ColorRGBA {
 <35FF44E0-6C7C-11cf-8F52-0040333594A3>
 FLOAT red;
 FLOAT green;
 FLOAT blue;
 FLOAT alpha;
}

template ColorRGB {
 <D3E16E81-7835-11cf-8F52-0040333594A3>
 FLOAT red;
 FLOAT green;
 FLOAT blue;
}

template IndexedColor {
 <1630B820-7842-11cf-8F52-0040333594A3>
 DWORD index;
 ColorRGBA indexColor;
}

template Boolean {
 <4885AE61-78E8-11cf-8F52-0040333594A3>
 WORD truefalse;
}

template Boolean2d {
 <4885AE63-78E8-11cf-8F52-0040333594A3>
 Boolean u;
 Boolean v;
}

template MaterialWrap {
 <4885AE60-78E8-11cf-8F52-0040333594A3>
 Boolean u;
 Boolean v;
}

template TextureFilename {
 <A42790E1-7810-11cf-8F52-0040333594A3>
 STRING filename;
}

template Material {
 <3D82AB4D-62DA-11cf-AB39-0020AF71E433>
 ColorRGBA faceColor;
 FLOAT power;
 ColorRGB specularColor;
 ColorRGB emissiveColor;
 [...]
}

template MeshFace {
 <3D82AB5F-62DA-11cf-AB39-0020AF71E433>
 DWORD nFaceVertexIndices;
 array DWORD faceVertexIndices[nFaceVertexIndices];
}

template MeshFaceWraps {
 <4885AE62-78E8-11cf-8F52-0040333594A3>
 DWORD nFaceWrapValues;
 Boolean2d faceWrapValues;
}

template MeshTextureCoords {
 <F6F23F40-7686-11cf-8F52-0040333594A3>
 DWORD nTextureCoords;
 array Coords2d textureCoords[nTextureCoords];
}

template MeshMaterialList {
 <F6F23F42-7686-11cf-8F52-0040333594A3>
 DWORD nMaterials;
 DWORD nFaceIndexes;
 array DWORD faceIndexes[nFaceIndexes];
 [Material]
}

template MeshNormals {
 <F6F23F43-7686-11cf-8F52-0040333594A3>
 DWORD nNormals;
 array Vector normals[nNormals];
 DWORD nFaceNormals;
 array MeshFace faceNormals[nFaceNormals];
}

template MeshVertexColors {
 <1630B821-7842-11cf-8F52-0040333594A3>
 DWORD nVertexColors;
 array IndexedColor vertexColors[nVertexColors];
}

template Mesh {
 <3D82AB44-62DA-11cf-AB39-0020AF71E433>
 DWORD nVertices;
 array Vector vertices[nVertices];
 DWORD nFaces;
 array MeshFace faces[nFaces];
 [...]
}

Header{
1;
0;
1;
}

Mesh {
 254;
 -49.50898;6.45162;-45.46085;,
 -49.50898;2.94847;-45.46085;,
 -55.52758;2.94847;-45.46088;,
 -55.52758;6.45162;-45.46088;,
 -49.50903;6.45162;0.14318;,
 -55.52758;6.45162;0.14320;,
 -55.52758;2.94847;0.14320;,
 -49.50903;2.94847;0.14318;,
 61.78645;6.45162;-45.46088;,
 68.58410;6.45162;-45.46088;,
 68.58410;2.94847;-45.46088;,
 61.78645;2.94847;-45.46088;,
 62.26057;6.20318;-0.04972;,
 61.78643;2.94847;0.14318;,
 68.58410;2.94847;0.14320;,
 68.58410;6.45162;0.14320;,
 -55.52755;6.45162;-5.27610;,
 -55.52755;2.94847;-5.27610;,
 -49.50900;2.94847;-5.27610;,
 61.78645;2.94847;-5.27608;,
 68.58410;6.45162;-5.27608;,
 68.58410;2.94847;-5.27608;,
 -55.52755;6.45162;-40.04160;,
 -55.52755;2.94847;-40.04160;,
 -49.50900;2.94847;-40.04160;,
 61.78645;2.94847;-40.04160;,
 68.58410;6.45162;-40.04158;,
 68.58410;2.94847;-40.04158;,
 -49.50900;-0.56222;-5.27610;,
 -55.52755;-0.56222;-5.27610;,
 -49.50903;-0.56222;0.14318;,
 -55.52758;-0.56222;0.14320;,
 68.58410;-0.56222;-5.27608;,
 61.78645;-0.56222;-5.27608;,
 68.58410;-0.56222;0.14320;,
 61.78643;-0.56222;0.14318;,
 -55.52758;-0.56222;-45.46088;,
 -55.52755;-0.56222;-40.04160;,
 -49.50898;-0.56222;-45.46085;,
 -49.50900;-0.56222;-40.04160;,
 61.78645;-0.56222;-45.46088;,
 61.78645;-0.56222;-40.04160;,
 68.58410;-0.56222;-45.46088;,
 68.58410;-0.56222;-40.04158;,
 61.73025;56.20377;0.14320;,
 61.80667;56.20377;-45.46090;,
 68.59418;56.20377;-45.46090;,
 68.59420;56.20377;0.14322;,
 -49.40728;56.20377;0.14320;,
 -49.40728;56.20377;-45.46090;,
 -55.53767;56.20377;-45.46090;,
 -55.53765;56.20377;0.14320;,
 -48.89945;56.05270;-4.36877;,
 -48.89945;6.20318;-4.36877;,
 62.26060;56.05270;-4.36877;,
 62.26060;6.20318;-4.36877;,
 -50.00597;22.78757;-42.76435;,
 63.06250;22.78757;-42.76435;,
 63.06250;19.87475;-42.76435;,
 -50.00597;19.87475;-42.76435;,
 63.06250;22.78757;1.07195;,
 63.06250;19.87475;1.07195;,
 -50.00597;22.78757;1.07195;,
 -50.00597;19.87475;1.07195;,
 -50.00597;40.03980;-42.76435;,
 63.06250;40.03980;-42.76435;,
 63.06250;37.12695;-42.76435;,
 -50.00597;37.12695;-42.76435;,
 63.06250;40.03980;1.07195;,
 63.06250;37.12695;1.07195;,
 -50.00597;40.03980;1.07195;,
 -50.00597;37.12695;1.07195;,
 -50.00597;56.10295;-44.69558;,
 63.06250;56.10295;-44.69558;,
 63.06250;53.19012;-44.69558;,
 -50.00597;53.19012;-44.69558;,
 63.06250;56.10295;-0.85930;,
 63.06250;53.19012;-0.85930;,
 -50.00597;56.10295;-0.85930;,
 -50.00597;53.19012;-0.85930;,
 61.80667;113.97417;-45.46090;,
 61.80667;117.46573;-45.46090;,
 68.59418;120.53397;-45.46090;,
 68.59418;113.97417;-45.46090;,
 61.73025;113.97417;0.14320;,
 68.59420;120.53397;0.14322;,
 68.59420;113.97417;0.14322;,
 61.73025;117.46573;0.14320;,
 -24.46742;113.97417;-45.60548;,
 -24.54385;113.97417;-0.00138;,
 -24.54385;120.53397;-0.00138;,
 -24.46742;120.53397;-45.60548;,
 -18.54130;117.46573;-45.59553;,
 -18.54130;113.97417;-45.59553;,
 -18.61773;117.46573;0.00858;,
 -18.61773;113.97417;0.00858;,
 68.59418;159.03120;-45.46090;,
 68.59420;159.03120;0.14322;,
 61.80667;159.03120;-45.46090;,
 61.73025;159.03120;0.14320;,
 -18.54130;159.03120;-45.59553;,
 -24.46742;159.03120;-45.60548;,
 -24.54385;159.03120;-0.00138;,
 -18.61773;159.03120;0.00858;,
 -24.46742;153.10754;-45.60548;,
 -18.54130;155.83983;-45.59553;,
 -24.54385;153.10754;-0.00138;,
 -18.61773;155.83983;0.00858;,
 61.75552;155.80460;-45.49260;,
 62.26425;159.03120;0.14410;,
 61.96885;155.83983;0.14410;,
 -22.13375;157.64349;-3.66433;,
 63.34832;157.64349;-3.66433;,
 63.34832;116.68665;-3.66433;,
 -22.13375;116.68665;-3.66433;,
 63.34832;157.64349;-1.42810;,
 63.34832;116.68665;-1.42810;,
 -22.13375;157.64349;-1.42810;,
 -22.13375;116.68665;-1.42810;,
 -20.71177;114.30298;-7.00755;,
 62.34825;114.30298;-7.00755;,
 62.34825;55.56553;-7.00755;,
 -20.71177;55.56553;-7.00755;,
 62.34825;114.30298;-2.60102;,
 62.34825;55.56553;-2.60102;,
 -20.71177;114.30298;-2.60102;,
 -20.71177;55.56553;-2.60102;,
 62.56551;6.45162;45.92732;,
 62.56551;2.94848;45.92732;,
 68.58411;2.94848;45.92735;,
 68.58411;6.45162;45.92735;,
 62.56555;6.45162;0.32329;,
 68.58410;6.45162;0.32327;,
 68.58410;2.94848;0.32327;,
 62.56555;2.94848;0.32329;,
 -48.72992;6.45162;45.92735;,
 -55.52757;6.45162;45.92735;,
 -55.52757;2.94848;45.92735;,
 -48.72992;2.94848;45.92735;,
 -49.20405;6.20318;0.51620;,
 -48.72990;2.94848;0.32330;,
 -55.52758;2.94848;0.32328;,
 -55.52758;6.45162;0.32328;,
 68.58408;6.45162;5.74257;,
 68.58408;2.94848;5.74257;,
 62.56553;2.94848;5.74257;,
 -48.72992;2.94848;5.74255;,
 -55.52757;6.45162;5.74255;,
 -55.52757;2.94848;5.74255;,
 68.58408;6.45162;40.50807;,
 68.58408;2.94848;40.50807;,
 62.56553;2.94848;40.50807;,
 -48.72992;2.94848;40.50808;,
 -55.52757;6.45162;40.50806;,
 -55.52757;2.94848;40.50806;,
 62.56553;-0.56223;5.74257;,
 68.58408;-0.56223;5.74257;,
 62.56555;-0.56223;0.32329;,
 68.58410;-0.56223;0.32327;,
 -55.52757;-0.56223;5.74255;,
 -48.72992;-0.56223;5.74255;,
 -55.52758;-0.56223;0.32328;,
 -48.72990;-0.56223;0.32330;,
 68.58411;-0.56223;45.92735;,
 68.58408;-0.56223;40.50807;,
 62.56551;-0.56223;45.92732;,
 62.56553;-0.56223;40.50807;,
 -48.72992;-0.56223;45.92735;,
 -48.72992;-0.56223;40.50808;,
 -55.52757;-0.56223;45.92735;,
 -55.52757;-0.56223;40.50806;,
 -48.67373;56.20377;0.32328;,
 -48.75014;56.20377;45.92738;,
 -55.53765;56.20377;45.92738;,
 -55.53768;56.20377;0.32325;,
 62.46380;56.20377;0.32327;,
 62.46381;56.20377;45.92737;,
 68.59421;56.20377;45.92737;,
 68.59418;56.20377;0.32327;,
 61.95597;56.05270;4.83524;,
 61.95597;6.20318;4.83524;,
 -49.20407;56.05270;4.83526;,
 -49.20407;6.20318;4.83526;,
 63.06250;22.78757;43.23082;,
 -50.00597;22.78757;43.23083;,
 -50.00597;19.87475;43.23083;,
 63.06250;19.87475;43.23082;,
 -50.00598;22.78757;-0.60548;,
 -50.00598;19.87475;-0.60548;,
 63.06250;22.78757;-0.60549;,
 63.06250;19.87475;-0.60549;,
 63.06250;40.03980;43.23082;,
 -50.00597;40.03980;43.23083;,
 -50.00597;37.12695;43.23083;,
 63.06250;37.12695;43.23082;,
 -50.00598;40.03980;-0.60548;,
 -50.00598;37.12695;-0.60548;,
 63.06250;40.03980;-0.60549;,
 63.06250;37.12695;-0.60549;,
 63.06250;56.10295;45.16205;,
 -50.00597;56.10295;45.16206;,
 -50.00597;53.19012;45.16206;,
 63.06250;53.19012;45.16205;,
 -50.00597;56.10295;1.32578;,
 -50.00597;53.19012;1.32578;,
 63.06250;56.10295;1.32576;,
 63.06250;53.19012;1.32576;,
 -48.75014;113.97417;45.92738;,
 -48.75014;117.46573;45.92738;,
 -55.53765;120.53397;45.92738;,
 -55.53765;113.97417;45.92738;,
 -48.67373;113.97417;0.32328;,
 -55.53768;120.53397;0.32325;,
 -55.53768;113.97417;0.32325;,
 -48.67373;117.46573;0.32328;,
 37.52395;113.97417;46.07195;,
 37.60037;113.97417;0.46784;,
 37.60037;120.53397;0.46784;,
 37.52395;120.53397;46.07195;,
 31.59783;117.46573;46.06200;,
 31.59783;113.97417;46.06200;,
 31.67425;117.46573;0.45789;,
 31.67425;113.97417;0.45789;,
 -55.53765;159.03120;45.92738;,
 -55.53768;159.03120;0.32325;,
 -48.75014;159.03120;45.92738;,
 -48.67373;159.03120;0.32328;,
 31.59783;159.03120;46.06200;,
 37.52395;159.03120;46.07195;,
 37.60037;159.03120;0.46784;,
 31.67425;159.03120;0.45789;,
 37.52395;153.10754;46.07195;,
 31.59783;155.83983;46.06200;,
 37.60037;153.10754;0.46784;,
 31.67425;155.83983;0.45789;,
 -48.69899;155.80460;45.95908;,
 -49.20773;159.03120;0.32238;,
 -48.91233;155.83983;0.32238;,
 35.19028;157.64349;4.13080;,
 -50.29180;157.64349;4.13081;,
 -50.29180;116.68665;4.13081;,
 35.19028;116.68665;4.13080;,
 -50.29180;157.64349;1.89457;,
 -50.29180;116.68665;1.89457;,
 35.19028;157.64349;1.89457;,
 35.19028;116.68665;1.89457;,
 33.76830;114.30298;7.47403;,
 -49.29173;114.30298;7.47403;,
 -49.29173;55.56553;7.47403;,
 33.76830;55.56553;7.47403;,
 -49.29173;114.30298;3.06751;,
 -49.29173;55.56553;3.06751;,
 33.76830;114.30298;3.06750;,
 33.76830;55.56553;3.06750;;
 
 244;
 4;0,1,2,3;,
 4;4,5,6,7;,
 4;8,9,10,11;,
 4;8,11,1,0;,
 4;12,4,7,13;,
 4;12,13,14,15;,
 4;16,17,6,5;,
 4;5,4,12,15;,
 4;18,19,13,7;,
 4;20,15,14,21;,
 4;22,3,2,23;,
 4;22,23,17,16;,
 4;22,16,5,3;,
 4;23,24,18,17;,
 4;3,5,15,9;,
 4;3,9,8,0;,
 4;24,1,11,25;,
 4;24,25,19,18;,
 4;9,15,20,26;,
 4;25,27,21,19;,
 4;26,20,21,27;,
 4;26,27,10,9;,
 4;28,29,17,18;,
 4;30,28,18,7;,
 4;31,30,7,6;,
 4;29,31,6,17;,
 4;29,28,30,31;,
 4;32,33,19,21;,
 4;34,32,21,14;,
 4;35,34,14,13;,
 4;33,35,13,19;,
 4;33,32,34,35;,
 4;36,37,23,2;,
 4;38,36,2,1;,
 4;39,38,1,24;,
 4;37,39,24,23;,
 4;37,36,38,39;,
 4;40,41,25,11;,
 4;42,40,11,10;,
 4;43,42,10,27;,
 4;41,43,27,25;,
 4;41,40,42,43;,
 4;44,45,8,12;,
 4;45,46,9,8;,
 4;46,47,15,9;,
 4;47,44,12,15;,
 4;12,8,9,15;,
 4;48,4,0,49;,
 4;49,0,3,50;,
 4;50,3,5,51;,
 4;51,5,4,48;,
 4;51,48,49,50;,
 4;4,5,3,0;,
 4;48,52,53,4;,
 4;52,54,55,53;,
 4;54,44,12,55;,
 4;44,48,4,12;,
 4;44,54,52,48;,
 4;4,53,55,12;,
 4;56,57,58,59;,
 4;57,60,61,58;,
 4;60,62,63,61;,
 4;62,56,59,63;,
 4;62,60,57,56;,
 4;59,58,61,63;,
 4;64,65,66,67;,
 4;65,68,69,66;,
 4;68,70,71,69;,
 4;70,64,67,71;,
 4;70,68,65,64;,
 4;67,66,69,71;,
 4;72,73,74,75;,
 4;73,76,77,74;,
 4;76,78,79,77;,
 4;78,72,75,79;,
 4;78,76,73,72;,
 4;75,74,77,79;,
 4;80,81,82,83;,
 4;80,83,46,45;,
 4;80,45,44,84;,
 4;83,82,85,86;,
 4;83,86,47,46;,
 4;84,44,47,86;,
 4;84,86,85,87;,
 4;88,89,90,91;,
 4;92,81,80,93;,
 4;92,93,88,91;,
 4;92,94,87,81;,
 4;93,80,84,95;,
 4;93,95,89,88;,
 4;94,90,89,95;,
 4;94,95,84,87;,
 4;96,97,85,82;,
 4;98,96,82,81;,
 4;99,98,81,87;,
 4;97,99,87,85;,
 4;97,96,98,99;,
 4;100,101,102,103;,
 4;104,101,100,105;,
 4;104,105,92,91;,
 4;104,91,90,106;,
 4;104,106,102,101;,
 4;105,107,94,92;,
 4;106,90,94,107;,
 4;106,107,103,102;,
 4;98,108,105,100;,
 4;109,98,100,103;,
 4;110,109,103,107;,
 4;108,110,107,105;,
 4;108,98,109,110;,
 4;111,112,113,114;,
 4;112,115,116,113;,
 4;115,117,118,116;,
 4;117,111,114,118;,
 4;117,115,112,111;,
 4;114,113,116,118;,
 4;119,120,121,122;,
 4;120,123,124,121;,
 4;123,125,126,124;,
 4;125,119,122,126;,
 4;125,123,120,119;,
 4;122,121,124,126;,
 4;127,128,129,130;,
 4;131,132,133,134;,
 4;135,136,137,138;,
 4;135,138,128,127;,
 4;139,131,134,140;,
 4;139,140,141,142;,
 4;143,144,133,132;,
 4;132,131,139,142;,
 4;145,146,140,134;,
 4;147,142,141,148;,
 4;149,130,129,150;,
 4;149,150,144,143;,
 4;149,143,132,130;,
 4;150,151,145,144;,
 4;130,132,142,136;,
 4;130,136,135,127;,
 4;151,128,138,152;,
 4;151,152,146,145;,
 4;136,142,147,153;,
 4;152,154,148,146;,
 4;153,147,148,154;,
 4;153,154,137,136;,
 4;155,156,144,145;,
 4;157,155,145,134;,
 4;158,157,134,133;,
 4;156,158,133,144;,
 4;156,155,157,158;,
 4;159,160,146,148;,
 4;161,159,148,141;,
 4;162,161,141,140;,
 4;160,162,140,146;,
 4;160,159,161,162;,
 4;163,164,150,129;,
 4;165,163,129,128;,
 4;166,165,128,151;,
 4;164,166,151,150;,
 4;164,163,165,166;,
 4;167,168,152,138;,
 4;169,167,138,137;,
 4;170,169,137,154;,
 4;168,170,154,152;,
 4;168,167,169,170;,
 4;171,172,135,139;,
 4;172,173,136,135;,
 4;173,174,142,136;,
 4;174,171,139,142;,
 4;139,135,136,142;,
 4;175,131,127,176;,
 4;176,127,130,177;,
 4;177,130,132,178;,
 4;178,132,131,175;,
 4;178,175,176,177;,
 4;131,132,130,127;,
 4;175,179,180,131;,
 4;179,181,182,180;,
 4;181,171,139,182;,
 4;171,175,131,139;,
 4;171,181,179,175;,
 4;131,180,182,139;,
 4;183,184,185,186;,
 4;184,187,188,185;,
 4;187,189,190,188;,
 4;189,183,186,190;,
 4;189,187,184,183;,
 4;186,185,188,190;,
 4;191,192,193,194;,
 4;192,195,196,193;,
 4;195,197,198,196;,
 4;197,191,194,198;,
 4;197,195,192,191;,
 4;194,193,196,198;,
 4;199,200,201,202;,
 4;200,203,204,201;,
 4;203,205,206,204;,
 4;205,199,202,206;,
 4;205,203,200,199;,
 4;202,201,204,206;,
 4;207,208,209,210;,
 4;207,210,173,172;,
 4;207,172,171,211;,
 4;210,209,212,213;,
 4;210,213,174,173;,
 4;211,171,174,213;,
 4;211,213,212,214;,
 4;215,216,217,218;,
 4;219,208,207,220;,
 4;219,220,215,218;,
 4;219,221,214,208;,
 4;220,207,211,222;,
 4;220,222,216,215;,
 4;221,217,216,222;,
 4;221,222,211,214;,
 4;223,224,212,209;,
 4;225,223,209,208;,
 4;226,225,208,214;,
 4;224,226,214,212;,
 4;224,223,225,226;,
 4;227,228,229,230;,
 4;231,228,227,232;,
 4;231,232,219,218;,
 4;231,218,217,233;,
 4;231,233,229,228;,
 4;232,234,221,219;,
 4;233,217,221,234;,
 4;233,234,230,229;,
 4;225,235,232,227;,
 4;236,225,227,230;,
 4;237,236,230,234;,
 4;235,237,234,232;,
 4;235,225,236,237;,
 4;238,239,240,241;,
 4;239,242,243,240;,
 4;242,244,245,243;,
 4;244,238,241,245;,
 4;244,242,239,238;,
 4;241,240,243,245;,
 4;246,247,248,249;,
 4;247,250,251,248;,
 4;250,252,253,251;,
 4;252,246,249,253;,
 4;252,250,247,246;,
 4;249,248,251,253;;
 
 MeshMaterialList {
  1;
  244;
  0,
  0,
  0,
  0,
  0,
  0,
  0,
  0,
  0,
  0,
  0,
  0,
  0,
  0,
  0,
  0,
  0,
  0,
  0,
  0,
  0,
  0,
  0,
  0,
  0,
  0,
  0,
  0,
  0,
  0,
  0,
  0,
  0,
  0,
  0,
  0,
  0,
  0,
  0,
  0,
  0,
  0,
  0,
  0,
  0,
  0,
  0,
  0,
  0,
  0,
  0,
  0,
  0,
  0,
  0,
  0,
  0,
  0,
  0,
  0,
  0,
  0,
  0,
  0,
  0,
  0,
  0,
  0,
  0,
  0,
  0,
  0,
  0,
  0,
  0,
  0,
  0,
  0,
  0,
  0,
  0,
  0,
  0,
  0,
  0,
  0,
  0,
  0,
  0,
  0,
  0,
  0,
  0,
  0,
  0,
  0,
  0,
  0,
  0,
  0,
  0,
  0,
  0,
  0,
  0,
  0,
  0,
  0,
  0,
  0,
  0,
  0,
  0,
  0,
  0,
  0,
  0,
  0,
  0,
  0,
  0,
  0,
  0,
  0,
  0,
  0,
  0,
  0,
  0,
  0,
  0,
  0,
  0,
  0,
  0,
  0,
  0,
  0,
  0,
  0,
  0,
  0,
  0,
  0,
  0,
  0,
  0,
  0,
  0,
  0,
  0,
  0,
  0,
  0,
  0,
  0,
  0,
  0,
  0,
  0,
  0,
  0,
  0,
  0,
  0,
  0,
  0,
  0,
  0,
  0,
  0,
  0,
  0,
  0,
  0,
  0,
  0,
  0,
  0,
  0,
  0,
  0,
  0,
  0,
  0,
  0,
  0,
  0,
  0,
  0,
  0,
  0,
  0,
  0,
  0,
  0,
  0,
  0,
  0,
  0,
  0,
  0,
  0,
  0,
  0,
  0,
  0,
  0,
  0,
  0,
  0,
  0,
  0,
  0,
  0,
  0,
  0,
  0,
  0,
  0,
  0,
  0,
  0,
  0,
  0,
  0,
  0,
  0,
  0,
  0,
  0,
  0,
  0,
  0,
  0,
  0,
  0,
  0,
  0,
  0,
  0,
  0,
  0,
  0;;
  Material {
   0.633600;0.633600;0.633600;1.000000;;
   16.000000;
   0.230000;0.230000;0.230000;;
   0.000000;0.000000;0.000000;;
  }
 }
 MeshNormals {
  192;
  0.000004;0.000000;1.000000;,
  0.000004;0.000000;-1.000000;,
  0.000000;0.000000;-1.000000;,
  -0.007632;0.014801;0.999861;,
  0.000003;0.000000;-1.000000;,
  0.000312;0.009821;0.999952;,
  -0.000000;0.000000;-1.000000;,
  -0.004779;0.019689;0.999795;,
  -1.000000;0.000000;-0.000002;,
  -1.000000;0.000000;-0.000003;,
  0.000000;-1.000000;-0.000000;,
  1.000000;0.000000;0.000000;,
  -1.000000;0.000000;0.000002;,
  -1.000000;0.000000;0.000003;,
  0.000000;0.000000;0.000000;,
  -1.000000;0.000000;0.000005;,
  1.000000;0.000000;0.000005;,
  -1.000000;0.000000;0.000000;,
  -0.000004;0.000000;1.000000;,
  1.000000;0.000000;0.000004;,
  -0.007160;0.013762;0.999880;,
  -0.999996;-0.002560;0.001339;,
  -0.000000;-0.000000;-1.000000;,
  0.000000;-0.000000;-1.000000;,
  1.000000;-0.000101;-0.000000;,
  -0.015215;0.013756;0.999790;,
  0.999998;-0.002045;0.000001;,
  0.000002;-0.000000;-1.000000;,
  0.000002;-0.000001;-1.000000;,
  0.000003;-0.000000;-1.000000;,
  -1.000000;-0.000203;0.000000;,
  0.000003;-0.000000;1.000000;,
  0.000449;0.006883;0.999976;,
  -0.992418;0.001016;-0.122907;,
  0.000000;0.000000;1.000000;,
  0.000559;0.000000;-1.000000;,
  1.000000;0.000000;-0.000001;,
  -0.000561;0.000000;1.000000;,
  -0.999999;0.000000;-0.001676;,
  -0.999999;0.000000;-0.001676;,
  -0.999999;0.000000;-0.001676;,
  0.001678;0.000000;-0.999999;,
  0.001677;0.000000;-0.999999;,
  0.000000;1.000000;0.000000;,
  0.001679;0.000000;-0.999999;,
  0.001613;0.001634;-0.999997;,
  0.999999;0.000000;0.001676;,
  0.000740;0.002451;-0.999997;,
  0.001481;0.004902;-0.999987;,
  -0.001679;0.000078;0.999999;,
  -1.000000;0.000000;-0.000005;,
  -1.000000;-0.000101;-0.000002;,
  -0.000000;-0.988685;0.150004;,
  -0.000362;-0.987258;0.159127;,
  0.006328;-0.987383;0.158226;,
  0.010080;-0.974456;0.224353;,
  1.000000;-0.000101;-0.000000;,
  -1.000000;-0.000101;0.000003;,
  0.009817;-0.999951;-0.001368;,
  -1.000000;0.000000;-0.000004;,
  -0.000003;0.000000;1.000000;,
  -0.999977;-0.005120;0.004353;,
  -0.007586;-0.001045;0.999971;,
  -0.004770;-0.001340;0.999988;,
  0.000002;-0.000000;1.000000;,
  0.000432;-0.000966;0.999999;,
  0.000000;0.999860;-0.016734;,
  0.998286;0.005051;0.058303;,
  0.000000;0.999440;-0.033464;,
  -0.001063;-0.999625;0.027358;,
  -0.000004;0.000000;1.000000;,
  0.001679;0.000000;-0.999999;,
  -0.001678;0.000000;0.999999;,
  -0.001679;0.000000;0.999999;,
  -0.001679;0.000000;0.999999;,
  -0.001677;0.000000;0.999999;,
  0.001679;0.000000;-0.999999;,
  0.001580;0.002451;-0.999996;,
  -0.999999;0.000000;-0.001676;,
  -0.001679;0.000026;0.999999;,
  -0.001679;0.000039;0.999999;,
  -0.000220;-1.000000;0.000386;,
  0.998513;-0.054024;-0.007331;,
  -0.000004;0.000000;-1.000000;,
  -0.000004;0.000000;1.000000;,
  0.000000;0.000000;1.000000;,
  0.007631;0.014801;-0.999861;,
  -0.000002;0.000000;1.000000;,
  -0.000312;0.009821;-0.999952;,
  0.000000;0.000000;1.000000;,
  0.004778;0.019689;-0.999795;,
  1.000000;0.000000;0.000002;,
  1.000000;0.000000;0.000003;,
  0.000000;-1.000000;-0.000000;,
  -1.000000;0.000000;0.000000;,
  -1.000000;0.000000;0.000000;,
  1.000000;0.000000;-0.000003;,
  1.000000;0.000000;-0.000004;,
  -0.000004;0.000000;-1.000000;,
  1.000000;0.000000;-0.000006;,
  -1.000000;0.000000;0.000001;,
  -0.000004;0.000000;1.000000;,
  -1.000000;0.000000;-0.000004;,
  1.000000;0.000000;-0.000001;,
  0.000003;0.000000;-1.000000;,
  -1.000000;0.000000;-0.000004;,
  -1.000000;0.000000;0.000001;,
  0.007160;0.013762;-0.999880;,
  0.999996;-0.002560;-0.001339;,
  0.000000;-0.000000;1.000000;,
  0.000000;-0.000000;1.000000;,
  -1.000000;-0.000101;0.000001;,
  0.015215;0.013756;-0.999790;,
  -0.999998;-0.002045;-0.000000;,
  -0.000002;-0.000000;1.000000;,
  -0.000002;-0.000001;1.000000;,
  -0.000003;-0.000000;1.000000;,
  1.000000;-0.000203;-0.000000;,
  -0.000003;-0.000000;-1.000000;,
  -0.000449;0.006883;-0.999976;,
  0.992418;0.001016;0.122906;,
  0.000000;0.000000;1.000000;,
  0.000000;0.000000;1.000000;,
  -1.000000;0.000000;0.000000;,
  -0.000000;0.000000;-1.000000;,
  0.000000;0.000000;1.000000;,
  -1.000000;0.000000;0.000000;,
  -0.000558;0.000000;1.000000;,
  -1.000000;0.000000;0.000001;,
  0.000561;0.000000;-1.000000;,
  0.999999;0.000000;0.001676;,
  0.999999;0.000000;0.001676;,
  0.999999;0.000000;0.001676;,
  -0.001678;0.000000;0.999999;,
  -0.001677;0.000000;0.999999;,
  0.000000;1.000000;0.000000;,
  0.999999;0.000000;0.001676;,
  -0.001679;0.000000;0.999999;,
  -0.001613;0.001634;0.999997;,
  -0.999999;0.000000;-0.001676;,
  -0.000740;0.002451;0.999997;,
  -0.001481;0.004902;0.999987;,
  0.001679;0.000078;-0.999999;,
  0.000000;0.000000;1.000000;,
  -1.000000;0.000000;0.000000;,
  -0.000000;0.000000;-1.000000;,
  -0.000000;0.000000;-1.000000;,
  1.000000;0.000000;0.000004;,
  1.000000;-0.000101;0.000002;,
  0.000000;-0.988685;-0.150003;,
  0.000362;-0.987258;-0.159126;,
  -0.006328;-0.987383;-0.158225;,
  -0.006699;-0.988800;-0.149097;,
  -1.000000;-0.000101;0.000001;,
  1.000000;-0.000101;-0.000003;,
  0.000000;0.000000;0.000000;,
  -0.009817;-0.999951;0.001368;,
  -1.000000;0.000000;0.000000;,
  -1.000000;0.000000;0.000000;,
  -1.000000;-0.000101;0.000001;,
  1.000000;0.000000;0.000004;,
  0.000000;0.000000;-1.000000;,
  0.000003;0.000000;-1.000000;,
  0.999977;-0.005120;-0.004353;,
  0.007587;-0.001045;-0.999971;,
  0.004770;-0.001340;-0.999988;,
  -0.019633;-0.999803;0.002736;,
  -0.000002;-0.000000;-1.000000;,
  -0.000432;-0.000966;-0.999999;,
  0.000000;0.999860;0.016734;,
  -0.998286;0.005051;-0.058302;,
  0.000000;0.999440;0.033464;,
  0.001063;-0.999625;-0.027357;,
  1.000000;0.000000;-0.000000;,
  1.000000;0.000000;-0.000000;,
  1.000000;0.000000;-0.000000;,
  0.000004;0.000000;-1.000000;,
  -0.001679;0.000000;0.999999;,
  0.001678;0.000000;-0.999999;,
  0.001679;0.000000;-0.999999;,
  0.001679;0.000000;-0.999999;,
  0.001677;0.000000;-0.999999;,
  -0.001679;0.000000;0.999999;,
  -0.001580;0.002451;0.999996;,
  0.999999;0.000000;0.001676;,
  0.001679;0.000000;-0.999999;,
  0.001679;0.000026;-0.999999;,
  0.001679;0.000039;-0.999999;,
  0.001679;0.000000;-0.999999;,
  0.000220;-1.000000;-0.000386;,
  -0.998513;-0.054024;0.007331;,
  1.000000;0.000000;0.000000;;
  244;
  4;27,4,1,29;,
  4;32,31,0,5;,
  4;22,23,2,6;,
  4;22,6,4,27;,
  4;20,32,5,7;,
  4;20,7,3,25;,
  4;8,9,50,51;,
  4;52,53,54,55;,
  4;10,10,10,10;,
  4;11,56,11,11;,
  4;12,57,15,13;,
  4;12,13,9,8;,
  4;10,10,52,10;,
  4;10,10,10,10;,
  4;43,43,43,43;,
  4;10,58,58,10;,
  4;10,10,10,10;,
  4;10,10,10,10;,
  4;14,14,14,14;,
  4;10,10,10,10;,
  4;11,11,11,11;,
  4;11,11,11,56;,
  4;2,2,2,2;,
  4;16,16,16,16;,
  4;0,0,5,0;,
  4;50,50,50,9;,
  4;10,10,10,10;,
  4;2,2,2,2;,
  4;11,11,11,11;,
  4;18,18,3,7;,
  4;59,59,59,59;,
  4;10,10,10,10;,
  4;15,15,13,15;,
  4;1,1,1,4;,
  4;19,19,19,19;,
  4;34,34,34,34;,
  4;10,10,10,10;,
  4;17,17,17,17;,
  4;2,2,6,2;,
  4;11,11,11,11;,
  4;60,60,60,60;,
  4;10,10,10,10;,
  4;21,21,61,61;,
  4;23,23,23,22;,
  4;24,24,56,56;,
  4;62,63,20,25;,
  4;54,58,58,55;,
  4;26,26,26,26;,
  4;28,27,29,28;,
  4;30,57,51,30;,
  4;64,31,32,65;,
  4;43,66,43,43;,
  4;53,52,10,10;,
  4;33,33,33,33;,
  4;2,2,2,2;,
  4;67,67,67,67;,
  4;63,65,32,20;,
  4;68,68,68,66;,
  4;53,69,69,54;,
  4;2,2,2,2;,
  4;11,11,11,11;,
  4;34,34,34,34;,
  4;17,17,17,17;,
  4;43,43,43,43;,
  4;10,10,10,10;,
  4;2,2,2,2;,
  4;11,11,11,11;,
  4;34,34,34,34;,
  4;17,17,17,17;,
  4;43,43,43,43;,
  4;10,10,10,10;,
  4;2,2,2,2;,
  4;11,11,11,11;,
  4;34,34,34,34;,
  4;17,17,17,17;,
  4;43,43,43,43;,
  4;10,10,10,10;,
  4;35,35,2,2;,
  4;35,2,23,23;,
  4;38,21,21,38;,
  4;36,36,36,36;,
  4;36,36,24,24;,
  4;37,63,62,70;,
  4;37,70,70,37;,
  4;40,40,39,39;,
  4;41,35,35,42;,
  4;41,42,71,44;,
  4;43,43,43,43;,
  4;10,10,10,10;,
  4;10,10,10,10;,
  4;72,73,74,75;,
  4;72,75,37,37;,
  4;36,36,36,36;,
  4;47,2,2,35;,
  4;38,38,38,38;,
  4;70,70,37,70;,
  4;43,43,43,43;,
  4;43,43,43,43;,
  4;44,76,77,45;,
  4;44,45,41,44;,
  4;39,39,39,39;,
  4;39,39,78,78;,
  4;46,46,46,46;,
  4;73,73,72,79;,
  4;73,79,80,74;,
  4;47,48,45,77;,
  4;43,43,43,43;,
  4;49,49,80,79;,
  4;81,81,81,81;,
  4;82,82,82,82;,
  4;2,2,2,2;,
  4;11,11,11,11;,
  4;34,34,34,34;,
  4;17,17,17,17;,
  4;43,43,43,43;,
  4;10,10,10,10;,
  4;2,2,2,2;,
  4;11,11,11,11;,
  4;34,34,34,34;,
  4;17,17,17,17;,
  4;43,43,43,43;,
  4;10,10,10,10;,
  4;114,87,84,116;,
  4;119,118,83,88;,
  4;109,110,85,89;,
  4;109,89,87,114;,
  4;107,119,88,90;,
  4;107,90,86,112;,
  4;91,92,147,148;,
  4;149,150,151,152;,
  4;93,93,93,93;,
  4;94,153,100,95;,
  4;96,154,99,97;,
  4;96,97,92,91;,
  4;93,93,149,93;,
  4;93,93,93,93;,
  4;135,135,135,135;,
  4;155,155,155,155;,
  4;93,93,93,93;,
  4;93,93,93,93;,
  4;156,152,93,93;,
  4;93,93,93,93;,
  4;157,94,95,158;,
  4;157,158,106,159;,
  4;85,85,85,85;,
  4;102,102,102,102;,
  4;98,98,88,83;,
  4;147,147,147,92;,
  4;93,93,93,93;,
  4;85,85,85,85;,
  4;100,100,95,100;,
  4;104,104,86,90;,
  4;160,160,160,160;,
  4;93,93,93,93;,
  4;99,99,97,99;,
  4;101,101,84,87;,
  4;105,105,105,105;,
  4;161,161,161,161;,
  4;93,93,93,93;,
  4;103,103,103,103;,
  4;85,85,89,85;,
  4;106,106,106,158;,
  4;162,162,162,162;,
  4;93,93,93,93;,
  4;108,108,163,163;,
  4;110,110,110,109;,
  4;111,111,153,159;,
  4;164,165,107,112;,
  4;151,166,156,152;,
  4;113,113,113,113;,
  4;115,114,116,115;,
  4;117,154,148,117;,
  4;167,118,119,168;,
  4;135,169,135,135;,
  4;150,149,93,93;,
  4;120,120,120,120;,
  4;121,121,121,121;,
  4;170,170,170,170;,
  4;165,168,119,107;,
  4;171,171,171,169;,
  4;150,172,172,151;,
  4;122,122,122,122;,
  4;123,123,123,123;,
  4;124,124,124,124;,
  4;173,173,173,173;,
  4;135,135,135,135;,
  4;93,93,93,93;,
  4;122,122,122,122;,
  4;123,123,123,123;,
  4;124,124,124,124;,
  4;174,174,174,174;,
  4;135,135,135,135;,
  4;93,93,93,93;,
  4;125,125,125,125;,
  4;126,126,126,126;,
  4;124,124,124,124;,
  4;175,175,175,175;,
  4;135,135,135,135;,
  4;93,93,93,93;,
  4;127,127,85,85;,
  4;127,85,110,110;,
  4;130,108,108,130;,
  4;128,128,128,128;,
  4;128,128,111,111;,
  4;129,165,164,176;,
  4;129,176,176,129;,
  4;132,132,131,131;,
  4;133,127,127,134;,
  4;133,134,177,137;,
  4;135,135,135,135;,
  4;93,93,93,93;,
  4;93,93,93,93;,
  4;178,179,180,181;,
  4;178,181,129,129;,
  4;128,128,128,128;,
  4;140,85,85,127;,
  4;136,136,136,136;,
  4;176,176,129,176;,
  4;135,135,135,135;,
  4;135,135,135,135;,
  4;137,182,183,138;,
  4;137,138,133,137;,
  4;131,131,131,131;,
  4;131,131,184,184;,
  4;139,139,139,139;,
  4;185,179,178,186;,
  4;185,186,187,188;,
  4;140,141,138,183;,
  4;135,135,135,135;,
  4;142,142,187,186;,
  4;189,189,189,189;,
  4;190,190,190,190;,
  4;143,143,143,143;,
  4;144,144,144,144;,
  4;145,145,145,145;,
  4;191,191,191,191;,
  4;135,135,135,135;,
  4;93,93,93,93;,
  4;85,85,85,85;,
  4;144,144,144,144;,
  4;146,146,146,146;,
  4;191,191,191,191;,
  4;135,135,135,135;,
  4;93,93,93,93;;
 }
}
