xof 0302txt 0064
template Header {
 <3D82AB43-62DA-11cf-AB39-0020AF71E433>
 WORD major;
 WORD minor;
 DWORD flags;
}

template Vector {
 <3D82AB5E-62DA-11cf-AB39-0020AF71E433>
 FLOAT x;
 FLOAT y;
 FLOAT z;
}

template Coords2d {
 <F6F23F44-7686-11cf-8F52-0040333594A3>
 FLOAT u;
 FLOAT v;
}

template Matrix4x4 {
 <F6F23F45-7686-11cf-8F52-0040333594A3>
 array FLOAT matrix[16];
}

template ColorRGBA {
 <35FF44E0-6C7C-11cf-8F52-0040333594A3>
 FLOAT red;
 FLOAT green;
 FLOAT blue;
 FLOAT alpha;
}

template ColorRGB {
 <D3E16E81-7835-11cf-8F52-0040333594A3>
 FLOAT red;
 FLOAT green;
 FLOAT blue;
}

template IndexedColor {
 <1630B820-7842-11cf-8F52-0040333594A3>
 DWORD index;
 ColorRGBA indexColor;
}

template Boolean {
 <4885AE61-78E8-11cf-8F52-0040333594A3>
 WORD truefalse;
}

template Boolean2d {
 <4885AE63-78E8-11cf-8F52-0040333594A3>
 Boolean u;
 Boolean v;
}

template MaterialWrap {
 <4885AE60-78E8-11cf-8F52-0040333594A3>
 Boolean u;
 Boolean v;
}

template TextureFilename {
 <A42790E1-7810-11cf-8F52-0040333594A3>
 STRING filename;
}

template Material {
 <3D82AB4D-62DA-11cf-AB39-0020AF71E433>
 ColorRGBA faceColor;
 FLOAT power;
 ColorRGB specularColor;
 ColorRGB emissiveColor;
 [...]
}

template MeshFace {
 <3D82AB5F-62DA-11cf-AB39-0020AF71E433>
 DWORD nFaceVertexIndices;
 array DWORD faceVertexIndices[nFaceVertexIndices];
}

template MeshFaceWraps {
 <4885AE62-78E8-11cf-8F52-0040333594A3>
 DWORD nFaceWrapValues;
 Boolean2d faceWrapValues;
}

template MeshTextureCoords {
 <F6F23F40-7686-11cf-8F52-0040333594A3>
 DWORD nTextureCoords;
 array Coords2d textureCoords[nTextureCoords];
}

template MeshMaterialList {
 <F6F23F42-7686-11cf-8F52-0040333594A3>
 DWORD nMaterials;
 DWORD nFaceIndexes;
 array DWORD faceIndexes[nFaceIndexes];
 [Material]
}

template MeshNormals {
 <F6F23F43-7686-11cf-8F52-0040333594A3>
 DWORD nNormals;
 array Vector normals[nNormals];
 DWORD nFaceNormals;
 array MeshFace faceNormals[nFaceNormals];
}

template MeshVertexColors {
 <1630B821-7842-11cf-8F52-0040333594A3>
 DWORD nVertexColors;
 array IndexedColor vertexColors[nVertexColors];
}

template Mesh {
 <3D82AB44-62DA-11cf-AB39-0020AF71E433>
 DWORD nVertices;
 array Vector vertices[nVertices];
 DWORD nFaces;
 array MeshFace faces[nFaces];
 [...]
}

Header{
1;
0;
1;
}

Mesh {
 26;
 0.00000;-0.43003;-4.00607;,
 -0.44614;-1.20276;-2.94507;,
 -0.89228;-0.43003;-2.94507;,
 0.44614;-1.20276;-2.94507;,
 0.89228;-0.43003;-2.94507;,
 0.44614;0.34271;-2.94507;,
 -0.44614;0.34271;-2.94507;,
 -0.72187;-1.68034;-0.85021;,
 -1.44373;-0.43003;-0.85021;,
 0.72187;-1.68034;-0.85021;,
 1.44373;-0.43003;-0.85021;,
 0.72187;0.82028;-0.85021;,
 -0.72187;0.82028;-0.85021;,
 -0.72187;-1.68033;3.72958;,
 -1.44373;-0.43003;3.72958;,
 0.72187;-1.68033;3.72958;,
 1.44373;-0.43003;3.72958;,
 0.72187;0.82028;3.72958;,
 -0.72187;0.82028;3.72958;,
 -0.44614;-1.20276;3.91990;,
 -0.89228;-0.43002;3.91990;,
 0.44614;-1.20276;3.91990;,
 0.89228;-0.43002;3.91990;,
 0.44614;0.34271;3.91990;,
 -0.44614;0.34271;3.91990;,
 -0.00000;-0.43003;4.00607;;
 
 30;
 3;0,1,2;,
 3;0,3,1;,
 3;0,4,3;,
 3;0,5,4;,
 3;0,6,5;,
 3;0,2,6;,
 4;2,1,7,8;,
 4;1,3,9,7;,
 4;3,4,10,9;,
 4;4,5,11,10;,
 4;5,6,12,11;,
 4;6,2,8,12;,
 4;8,7,13,14;,
 4;7,9,15,13;,
 4;9,10,16,15;,
 4;10,11,17,16;,
 4;11,12,18,17;,
 4;12,8,14,18;,
 4;14,13,19,20;,
 4;13,15,21,19;,
 4;15,16,22,21;,
 4;16,17,23,22;,
 4;17,18,24,23;,
 4;18,14,20,24;,
 3;20,19,25;,
 3;19,21,25;,
 3;21,22,25;,
 3;22,23,25;,
 3;23,24,25;,
 3;24,20,25;;
 
 MeshMaterialList {
  1;
  30;
  0,
  0,
  0,
  0,
  0,
  0,
  0,
  0,
  0,
  0,
  0,
  0,
  0,
  0,
  0,
  0,
  0,
  0,
  0,
  0,
  0,
  0,
  0,
  0,
  0,
  0,
  0,
  0,
  0,
  0;;
  Material {
   0.627451;0.627451;0.627451;1.000000;;
   6.000000;
   0.770000;0.770000;0.770000;;
   0.000000;0.000000;0.000000;;
  }
 }
 MeshNormals {
  34;
  -0.382668;-0.662800;-0.643631;,
  -0.885355;0.000001;-0.464915;,
  -0.442678;-0.766740;-0.464915;,
  0.442678;-0.766740;-0.464915;,
  0.885355;0.000001;-0.464915;,
  0.442677;0.766741;-0.464915;,
  -0.442677;0.766741;-0.464915;,
  -0.991661;0.000001;-0.128871;,
  -0.495831;-0.858804;-0.128870;,
  0.495831;-0.858804;-0.128870;,
  0.991661;0.000001;-0.128871;,
  0.495830;0.858804;-0.128870;,
  -0.495830;0.858804;-0.128870;,
  -0.866025;-0.500000;0.000000;,
  0.000000;-1.000000;0.000000;,
  0.866025;-0.500000;0.000000;,
  0.866025;0.500001;0.000000;,
  -0.000000;1.000000;0.000000;,
  -0.211741;0.000001;0.977326;,
  -0.105871;-0.183373;0.977326;,
  0.105871;-0.183373;0.977326;,
  0.211740;0.000001;0.977326;,
  0.105869;0.183372;0.977326;,
  -0.105869;0.183372;0.977326;,
  -0.000000;0.000002;1.000000;,
  0.765336;0.000001;-0.643631;,
  -0.382667;0.662801;-0.643631;,
  -0.866025;0.500001;0.000000;,
  -0.326237;-0.000001;0.945288;,
  -0.163120;-0.282534;0.945286;,
  0.163120;-0.282534;0.945286;,
  0.326237;-0.000001;0.945288;,
  0.163117;0.282527;0.945289;,
  -0.163117;0.282528;0.945289;;
  30;
  3;0,2,1;,
  3;0,3,2;,
  3;25,4,3;,
  3;25,5,4;,
  3;26,6,5;,
  3;26,1,6;,
  4;1,2,8,7;,
  4;2,3,9,8;,
  4;3,4,10,9;,
  4;4,5,11,10;,
  4;5,6,12,11;,
  4;6,1,7,12;,
  4;7,8,13,13;,
  4;8,9,14,14;,
  4;9,10,15,15;,
  4;10,11,16,16;,
  4;11,12,17,17;,
  4;12,7,27,27;,
  4;28,29,19,18;,
  4;29,30,20,19;,
  4;30,31,21,20;,
  4;31,32,22,21;,
  4;32,33,23,22;,
  4;33,28,18,23;,
  3;18,19,24;,
  3;19,20,24;,
  3;20,21,24;,
  3;21,22,24;,
  3;22,23,24;,
  3;23,18,24;;
 }
}
