xof 0302txt 0064
template Header {
 <3D82AB43-62DA-11cf-AB39-0020AF71E433>
 WORD major;
 WORD minor;
 DWORD flags;
}

template Vector {
 <3D82AB5E-62DA-11cf-AB39-0020AF71E433>
 FLOAT x;
 FLOAT y;
 FLOAT z;
}

template Coords2d {
 <F6F23F44-7686-11cf-8F52-0040333594A3>
 FLOAT u;
 FLOAT v;
}

template Matrix4x4 {
 <F6F23F45-7686-11cf-8F52-0040333594A3>
 array FLOAT matrix[16];
}

template ColorRGBA {
 <35FF44E0-6C7C-11cf-8F52-0040333594A3>
 FLOAT red;
 FLOAT green;
 FLOAT blue;
 FLOAT alpha;
}

template ColorRGB {
 <D3E16E81-7835-11cf-8F52-0040333594A3>
 FLOAT red;
 FLOAT green;
 FLOAT blue;
}

template IndexedColor {
 <1630B820-7842-11cf-8F52-0040333594A3>
 DWORD index;
 ColorRGBA indexColor;
}

template Boolean {
 <4885AE61-78E8-11cf-8F52-0040333594A3>
 WORD truefalse;
}

template Boolean2d {
 <4885AE63-78E8-11cf-8F52-0040333594A3>
 Boolean u;
 Boolean v;
}

template MaterialWrap {
 <4885AE60-78E8-11cf-8F52-0040333594A3>
 Boolean u;
 Boolean v;
}

template TextureFilename {
 <A42790E1-7810-11cf-8F52-0040333594A3>
 STRING filename;
}

template Material {
 <3D82AB4D-62DA-11cf-AB39-0020AF71E433>
 ColorRGBA faceColor;
 FLOAT power;
 ColorRGB specularColor;
 ColorRGB emissiveColor;
 [...]
}

template MeshFace {
 <3D82AB5F-62DA-11cf-AB39-0020AF71E433>
 DWORD nFaceVertexIndices;
 array DWORD faceVertexIndices[nFaceVertexIndices];
}

template MeshFaceWraps {
 <4885AE62-78E8-11cf-8F52-0040333594A3>
 DWORD nFaceWrapValues;
 Boolean2d faceWrapValues;
}

template MeshTextureCoords {
 <F6F23F40-7686-11cf-8F52-0040333594A3>
 DWORD nTextureCoords;
 array Coords2d textureCoords[nTextureCoords];
}

template MeshMaterialList {
 <F6F23F42-7686-11cf-8F52-0040333594A3>
 DWORD nMaterials;
 DWORD nFaceIndexes;
 array DWORD faceIndexes[nFaceIndexes];
 [Material]
}

template MeshNormals {
 <F6F23F43-7686-11cf-8F52-0040333594A3>
 DWORD nNormals;
 array Vector normals[nNormals];
 DWORD nFaceNormals;
 array MeshFace faceNormals[nFaceNormals];
}

template MeshVertexColors {
 <1630B821-7842-11cf-8F52-0040333594A3>
 DWORD nVertexColors;
 array IndexedColor vertexColors[nVertexColors];
}

template Mesh {
 <3D82AB44-62DA-11cf-AB39-0020AF71E433>
 DWORD nVertices;
 array Vector vertices[nVertices];
 DWORD nFaces;
 array MeshFace faces[nFaces];
 [...]
}

Header{
1;
0;
1;
}

Mesh {
 64;
 -58.19891;159.55350;3.26526;,
 51.72240;159.55350;4.22461;,
 51.72240;-2.64804;4.22461;,
 -58.19891;-2.64804;3.26526;,
 -80.29860;150.56970;-21.92336;,
 -46.17790;150.56970;-21.52456;,
 -46.17790;-1.45580;-21.52456;,
 -80.29860;-1.45580;-21.92336;,
 -46.17790;150.56970;-21.52456;,
 -46.57670;150.56970;24.16944;,
 -46.57670;-1.45580;24.16944;,
 -46.17790;-1.45580;-21.52456;,
 -46.57670;150.56970;24.16944;,
 -80.69720;150.56970;23.77085;,
 -80.69720;-1.45580;23.77085;,
 -46.57670;-1.45580;24.16944;,
 -80.69720;150.56970;23.77085;,
 -80.29860;150.56970;-21.92336;,
 -80.29860;-1.45580;-21.92336;,
 -80.69720;-1.45580;23.77085;,
 -46.17790;150.56970;-21.52456;,
 -80.29860;150.56970;-21.92336;,
 -80.29860;-1.45580;-21.92336;,
 -46.17790;-1.45580;-21.52456;,
 41.38730;150.56970;-23.41735;,
 75.50780;150.56970;-23.01876;,
 75.50780;-1.45580;-23.01876;,
 41.38730;-1.45580;-23.41735;,
 75.50780;150.56970;-23.01876;,
 75.10910;150.56970;22.67515;,
 75.10910;-1.45580;22.67515;,
 75.50780;-1.45580;-23.01876;,
 75.10910;150.56970;22.67515;,
 40.98860;150.56970;22.27674;,
 40.98860;-1.45580;22.27674;,
 75.10910;-1.45580;22.67515;,
 40.98860;150.56970;22.27674;,
 41.38730;150.56970;-23.41735;,
 41.38730;-1.45580;-23.41735;,
 40.98860;-1.45580;22.27674;,
 75.50780;150.56970;-23.01876;,
 41.38730;150.56970;-23.41735;,
 41.38730;-1.45580;-23.41735;,
 75.50780;-1.45580;-23.01876;,
 85.05440;181.14360;21.97605;,
 84.65550;181.14360;-23.71804;,
 -90.20810;181.14360;-22.39385;,
 -89.80920;181.14360;23.29984;,
 84.65550;181.14360;-23.71804;,
 84.65550;150.87950;-23.71804;,
 -90.20810;150.87950;-22.39385;,
 -90.20810;181.14360;-22.39385;,
 84.65550;150.87950;-23.71804;,
 85.05440;150.87950;21.97605;,
 -89.80920;150.87950;23.29984;,
 -90.20810;150.87950;-22.39385;,
 85.05440;150.87950;21.97605;,
 85.05440;181.14360;21.97605;,
 -89.80920;181.14360;23.29984;,
 -89.80920;150.87950;23.29984;,
 84.65550;181.14360;-23.71804;,
 85.05440;181.14360;21.97605;,
 -89.80920;181.14360;23.29984;,
 -90.20810;181.14360;-22.39385;;
 
 19;
 4;0,1,2,3;,
 4;4,5,6,7;,
 4;8,9,10,11;,
 4;12,13,14,15;,
 4;16,17,18,19;,
 4;16,9,20,21;,
 4;22,23,10,19;,
 4;24,25,26,27;,
 4;28,29,30,31;,
 4;32,33,34,35;,
 4;36,37,38,39;,
 4;36,29,40,41;,
 4;42,43,30,39;,
 4;44,45,46,47;,
 4;48,49,50,51;,
 4;52,53,54,55;,
 4;56,57,58,59;,
 4;56,49,60,61;,
 4;62,63,50,59;;
 
 MeshMaterialList {
  5;
  19;
  4,
  3,
  3,
  3,
  3,
  3,
  3,
  3,
  3,
  3,
  3,
  3,
  3,
  3,
  3,
  3,
  3,
  3,
  3;;
  Material {
   0.800000;0.800000;0.800000;1.000000;;
   5.000000;
   0.000000;0.000000;0.000000;;
   0.000000;0.000000;0.000000;;
  }
  Material {
   0.674400;0.674400;0.674400;1.000000;;
   5.000000;
   0.000000;0.000000;0.000000;;
   0.000000;0.000000;0.000000;;
  }
  Material {
   0.238400;0.762400;0.800000;1.000000;;
   5.000000;
   0.000000;0.000000;0.000000;;
   0.000000;0.000000;0.000000;;
  }
  Material {
   0.800000;0.000000;0.000000;1.000000;;
   5.000000;
   0.000000;0.000000;0.000000;;
   0.000000;0.000000;0.000000;;
  }
  Material {
   0.000000;0.000000;0.000000;1.000000;;
   5.000000;
   0.000000;0.000000;0.000000;;
   0.000000;0.000000;0.000000;;
  }
 }
 MeshNormals {
  15;
  0.008727;0.000000;-0.999962;,
  0.011687;0.000000;-0.999932;,
  0.999962;0.000000;0.008727;,
  -0.011681;0.000000;0.999932;,
  0.011681;0.000000;-0.999932;,
  0.999962;0.000000;0.008725;,
  -0.011676;0.000000;0.999932;,
  0.000000;1.000000;0.000000;,
  -0.007572;0.000000;-0.999971;,
  0.000000;-1.000000;-0.000000;,
  -0.999962;0.000000;-0.008723;,
  -0.999962;0.000000;-0.008725;,
  0.007570;0.000000;0.999971;,
  0.999962;0.000000;-0.008729;,
  -0.999962;0.000000;0.008730;;
  19;
  4;0,0,0,0;,
  4;1,1,1,1;,
  4;2,2,2,2;,
  4;3,3,3,3;,
  4;10,10,10,10;,
  4;7,7,7,7;,
  4;9,9,9,9;,
  4;4,4,4,4;,
  4;5,5,5,5;,
  4;6,6,6,6;,
  4;11,11,11,11;,
  4;7,7,7,7;,
  4;9,9,9,9;,
  4;7,7,7,7;,
  4;8,8,8,8;,
  4;9,9,9,9;,
  4;12,12,12,12;,
  4;13,13,13,13;,
  4;14,14,14,14;;
 }
 MeshTextureCoords {
  64;
  0.000000;0.000000;,
  1.000000;0.000000;,
  1.000000;1.000000;,
  0.000000;1.000000;,
  0.000000;0.000000;,
  1.000000;0.000000;,
  1.000000;1.000000;,
  0.000000;1.000000;,
  0.000000;0.000000;,
  1.000000;0.000000;,
  1.000000;1.000000;,
  0.000000;1.000000;,
  0.000000;0.000000;,
  1.000000;0.000000;,
  1.000000;1.000000;,
  0.000000;1.000000;,
  0.000000;0.000000;,
  1.000000;0.000000;,
  1.000000;1.000000;,
  0.000000;1.000000;,
  1.000000;1.000000;,
  0.000000;1.000000;,
  0.000000;0.000000;,
  1.000000;0.000000;,
  0.000000;0.000000;,
  1.000000;0.000000;,
  1.000000;1.000000;,
  0.000000;1.000000;,
  0.000000;0.000000;,
  1.000000;0.000000;,
  1.000000;1.000000;,
  0.000000;1.000000;,
  0.000000;0.000000;,
  1.000000;0.000000;,
  1.000000;1.000000;,
  0.000000;1.000000;,
  0.000000;0.000000;,
  1.000000;0.000000;,
  1.000000;1.000000;,
  0.000000;1.000000;,
  1.000000;1.000000;,
  0.000000;1.000000;,
  0.000000;0.000000;,
  1.000000;0.000000;,
  0.000000;0.000000;,
  1.000000;0.000000;,
  1.000000;1.000000;,
  0.000000;1.000000;,
  0.000000;0.000000;,
  1.000000;0.000000;,
  1.000000;1.000000;,
  0.000000;1.000000;,
  0.000000;0.000000;,
  1.000000;0.000000;,
  1.000000;1.000000;,
  0.000000;1.000000;,
  0.000000;0.000000;,
  1.000000;0.000000;,
  1.000000;1.000000;,
  0.000000;1.000000;,
  1.000000;1.000000;,
  0.000000;1.000000;,
  0.000000;0.000000;,
  1.000000;0.000000;;
 }
}
