xof 0302txt 0064
template Header {
 <3D82AB43-62DA-11cf-AB39-0020AF71E433>
 WORD major;
 WORD minor;
 DWORD flags;
}

template Vector {
 <3D82AB5E-62DA-11cf-AB39-0020AF71E433>
 FLOAT x;
 FLOAT y;
 FLOAT z;
}

template Coords2d {
 <F6F23F44-7686-11cf-8F52-0040333594A3>
 FLOAT u;
 FLOAT v;
}

template Matrix4x4 {
 <F6F23F45-7686-11cf-8F52-0040333594A3>
 array FLOAT matrix[16];
}

template ColorRGBA {
 <35FF44E0-6C7C-11cf-8F52-0040333594A3>
 FLOAT red;
 FLOAT green;
 FLOAT blue;
 FLOAT alpha;
}

template ColorRGB {
 <D3E16E81-7835-11cf-8F52-0040333594A3>
 FLOAT red;
 FLOAT green;
 FLOAT blue;
}

template IndexedColor {
 <1630B820-7842-11cf-8F52-0040333594A3>
 DWORD index;
 ColorRGBA indexColor;
}

template Boolean {
 <4885AE61-78E8-11cf-8F52-0040333594A3>
 WORD truefalse;
}

template Boolean2d {
 <4885AE63-78E8-11cf-8F52-0040333594A3>
 Boolean u;
 Boolean v;
}

template MaterialWrap {
 <4885AE60-78E8-11cf-8F52-0040333594A3>
 Boolean u;
 Boolean v;
}

template TextureFilename {
 <A42790E1-7810-11cf-8F52-0040333594A3>
 STRING filename;
}

template Material {
 <3D82AB4D-62DA-11cf-AB39-0020AF71E433>
 ColorRGBA faceColor;
 FLOAT power;
 ColorRGB specularColor;
 ColorRGB emissiveColor;
 [...]
}

template MeshFace {
 <3D82AB5F-62DA-11cf-AB39-0020AF71E433>
 DWORD nFaceVertexIndices;
 array DWORD faceVertexIndices[nFaceVertexIndices];
}

template MeshFaceWraps {
 <4885AE62-78E8-11cf-8F52-0040333594A3>
 DWORD nFaceWrapValues;
 Boolean2d faceWrapValues;
}

template MeshTextureCoords {
 <F6F23F40-7686-11cf-8F52-0040333594A3>
 DWORD nTextureCoords;
 array Coords2d textureCoords[nTextureCoords];
}

template MeshMaterialList {
 <F6F23F42-7686-11cf-8F52-0040333594A3>
 DWORD nMaterials;
 DWORD nFaceIndexes;
 array DWORD faceIndexes[nFaceIndexes];
 [Material]
}

template MeshNormals {
 <F6F23F43-7686-11cf-8F52-0040333594A3>
 DWORD nNormals;
 array Vector normals[nNormals];
 DWORD nFaceNormals;
 array MeshFace faceNormals[nFaceNormals];
}

template MeshVertexColors {
 <1630B821-7842-11cf-8F52-0040333594A3>
 DWORD nVertexColors;
 array IndexedColor vertexColors[nVertexColors];
}

template Mesh {
 <3D82AB44-62DA-11cf-AB39-0020AF71E433>
 DWORD nVertices;
 array Vector vertices[nVertices];
 DWORD nFaces;
 array MeshFace faces[nFaces];
 [...]
}

Header{
1;
0;
1;
}

Mesh {
 672;
 -70.00000;36.00000;-10.00000;,
 -67.83333;36.00000;-10.00000;,
 -67.83333;0.00000;-10.00000;,
 -70.00000;0.00000;-10.00000;,
 -52.16667;36.00000;-10.00000;,
 -50.00000;36.00000;-10.00000;,
 -50.00000;0.00000;-10.00000;,
 -52.16667;0.00000;-10.00000;,
 -50.00000;36.00000;-10.00000;,
 -50.00000;36.00000;10.00000;,
 -50.00000;0.00000;10.00000;,
 -50.00000;0.00000;-10.00000;,
 -50.00000;36.00000;10.00000;,
 -52.16667;36.00000;10.00000;,
 -52.16667;0.00000;10.00000;,
 -50.00000;0.00000;10.00000;,
 -67.83333;36.00000;10.00000;,
 -70.00000;36.00000;10.00000;,
 -70.00000;0.00000;10.00000;,
 -67.83333;0.00000;10.00000;,
 -70.00000;36.00000;10.00000;,
 -70.00000;36.00000;-10.00000;,
 -70.00000;0.00000;-10.00000;,
 -70.00000;0.00000;10.00000;,
 -67.83333;36.00000;10.00000;,
 -67.83333;36.00000;-10.00000;,
 -70.00000;36.00000;-10.00000;,
 -52.16667;36.00000;10.00000;,
 -50.00000;36.00000;-10.00000;,
 -52.16667;36.00000;-10.00000;,
 -70.00000;0.00000;-10.00000;,
 -67.83333;0.00000;-10.00000;,
 -67.83333;0.00000;10.00000;,
 -52.16667;0.00000;-10.00000;,
 -50.00000;0.00000;-10.00000;,
 -52.16667;0.00000;10.00000;,
 -52.16633;0.00000;-1.00000;,
 -52.16633;36.00000;-1.00000;,
 -67.83300;36.00000;-1.00000;,
 -67.83300;0.00000;-1.00000;,
 -67.83367;0.00000;1.00000;,
 -67.83367;36.00000;1.00000;,
 -52.16700;36.00000;1.00000;,
 -52.16700;0.00000;1.00000;,
 -67.83367;36.00000;1.00000;,
 -52.16700;36.00000;1.00000;,
 -52.16633;36.00000;-1.00000;,
 -67.83300;36.00000;-1.00000;,
 50.00000;36.00000;-10.00000;,
 52.16667;36.00000;-10.00000;,
 52.16667;0.00000;-10.00000;,
 50.00000;0.00000;-10.00000;,
 67.83333;36.00000;-10.00000;,
 70.00000;36.00000;-10.00000;,
 70.00000;0.00000;-10.00000;,
 67.83333;0.00000;-10.00000;,
 70.00000;36.00000;-10.00000;,
 70.00000;36.00000;10.00000;,
 70.00000;0.00000;10.00000;,
 70.00000;0.00000;-10.00000;,
 70.00000;36.00000;10.00000;,
 67.83333;36.00000;10.00000;,
 67.83333;0.00000;10.00000;,
 70.00000;0.00000;10.00000;,
 52.16667;36.00000;10.00000;,
 50.00000;36.00000;10.00000;,
 50.00000;0.00000;10.00000;,
 52.16667;0.00000;10.00000;,
 50.00000;36.00000;10.00000;,
 50.00000;36.00000;-10.00000;,
 50.00000;0.00000;-10.00000;,
 50.00000;0.00000;10.00000;,
 52.16667;36.00000;10.00000;,
 52.16667;36.00000;-10.00000;,
 50.00000;36.00000;-10.00000;,
 67.83333;36.00000;10.00000;,
 70.00000;36.00000;-10.00000;,
 67.83333;36.00000;-10.00000;,
 50.00000;0.00000;-10.00000;,
 52.16667;0.00000;-10.00000;,
 52.16667;0.00000;10.00000;,
 67.83333;0.00000;-10.00000;,
 70.00000;0.00000;-10.00000;,
 67.83333;0.00000;10.00000;,
 67.83367;0.00000;-1.00000;,
 67.83367;36.00000;-1.00000;,
 52.16700;36.00000;-1.00000;,
 52.16700;0.00000;-1.00000;,
 52.16633;0.00000;1.00000;,
 52.16633;36.00000;1.00000;,
 67.83300;36.00000;1.00000;,
 67.83300;0.00000;1.00000;,
 52.16633;36.00000;1.00000;,
 67.83300;36.00000;1.00000;,
 67.83367;36.00000;-1.00000;,
 52.16700;36.00000;-1.00000;,
 -124.99993;13.33140;-15.43815;,
 -124.99993;10.50890;-13.84554;,
 125.00000;10.50890;-13.84638;,
 125.00000;13.33140;-15.43900;,
 -124.99993;9.33978;-12.79445;,
 125.00000;9.33978;-12.79530;,
 -124.99993;10.50890;-15.62288;,
 125.00000;10.50890;-15.62372;,
 -125.00000;13.33140;-16.79445;,
 124.99998;13.33140;-16.79530;,
 -124.99993;16.15390;-15.62287;,
 125.00000;16.15390;-15.62372;,
 -124.99993;17.32300;-12.79445;,
 125.00000;17.32300;-12.79529;,
 -124.99993;16.15390;-13.78921;,
 125.00000;16.15390;-13.79006;,
 -124.99993;13.33140;-15.43815;,
 125.00000;13.33140;-15.43900;,
 -125.00000;13.33140;-16.33600;,
 -125.00000;13.33140;-16.33600;,
 -125.00000;13.33140;-16.33600;,
 -125.00000;13.33140;-16.33600;,
 -125.00000;13.33140;-16.33600;,
 -125.00000;13.33140;-16.33600;,
 -125.00000;13.33140;-16.33600;,
 -125.00000;13.33140;-16.33600;,
 124.99998;13.33140;-16.33685;,
 124.99998;13.33140;-16.33685;,
 124.99998;13.33140;-16.33685;,
 124.99998;13.33140;-16.33685;,
 124.99998;13.33140;-16.33685;,
 124.99998;13.33140;-16.33685;,
 124.99998;13.33140;-16.33685;,
 124.99998;13.33140;-16.33685;,
 125.00000;21.39533;-10.10740;,
 125.00000;18.57283;-11.70002;,
 -124.99993;18.57283;-11.69917;,
 -124.99993;21.39533;-10.10656;,
 125.00000;17.32300;-12.79529;,
 -124.99993;17.32300;-12.79445;,
 125.00000;18.57283;-9.92268;,
 -124.99993;18.57283;-9.92183;,
 125.00005;21.39533;-8.75111;,
 -124.99993;21.39533;-8.75026;,
 125.00000;24.21784;-9.92268;,
 -124.99993;24.21784;-9.92184;,
 125.00000;25.38696;-12.75111;,
 -124.99993;25.38696;-12.75026;,
 125.00000;24.21784;-11.75635;,
 -124.99993;24.21784;-11.75550;,
 125.00000;21.39533;-10.10740;,
 -124.99993;21.39533;-10.10656;,
 125.00000;21.39533;-9.20956;,
 125.00000;21.39533;-9.20956;,
 125.00000;21.39533;-9.20956;,
 125.00000;21.39533;-9.20956;,
 125.00000;21.39533;-9.20956;,
 125.00000;21.39533;-9.20956;,
 125.00000;21.39533;-9.20956;,
 125.00000;21.39533;-9.20956;,
 -124.99993;21.39533;-9.20871;,
 -124.99993;21.39533;-9.20871;,
 -124.99993;21.39533;-9.20871;,
 -124.99993;21.39533;-9.20871;,
 -124.99993;21.39533;-9.20871;,
 -124.99993;21.39533;-9.20871;,
 -124.99993;21.39533;-9.20871;,
 -124.99993;21.39533;-9.20871;,
 -124.99993;29.47085;-15.43815;,
 -124.99993;26.64833;-13.84554;,
 125.00000;26.64833;-13.84638;,
 125.00000;29.47085;-15.43900;,
 -124.99993;25.38696;-12.75026;,
 125.00000;25.38696;-12.75111;,
 -124.99993;26.64833;-15.62288;,
 125.00000;26.64833;-15.62372;,
 -125.00000;29.47085;-16.79445;,
 124.99998;29.47085;-16.79530;,
 -124.99993;32.29335;-15.62287;,
 125.00000;32.29335;-15.62372;,
 -124.99993;33.46246;-12.79445;,
 125.00000;33.46246;-12.79529;,
 -124.99993;32.29335;-13.78921;,
 125.00000;32.29335;-13.79006;,
 -124.99993;29.47085;-15.43815;,
 125.00000;29.47085;-15.43900;,
 -125.00000;29.47085;-16.33600;,
 -125.00000;29.47085;-16.33600;,
 -125.00000;29.47085;-16.33600;,
 -125.00000;29.47085;-16.33600;,
 -125.00000;29.47085;-16.33600;,
 -125.00000;29.47085;-16.33600;,
 -125.00000;29.47085;-16.33600;,
 -125.00000;29.47085;-16.33600;,
 124.99998;29.47085;-16.33685;,
 124.99998;29.47085;-16.33685;,
 124.99998;29.47085;-16.33685;,
 124.99998;29.47085;-16.33685;,
 124.99998;29.47085;-16.33685;,
 124.99998;29.47085;-16.33685;,
 124.99998;29.47085;-16.33685;,
 124.99998;29.47085;-16.33685;,
 -60.67792;30.92996;-16.02891;,
 -59.86613;30.79294;-16.84070;,
 -60.67792;30.79294;-17.17696;,
 -60.67792;30.92996;-16.02891;,
 -59.52987;30.79294;-16.02891;,
 -60.67792;30.92996;-16.02891;,
 -59.86613;30.79294;-15.21711;,
 -60.67792;30.92996;-16.02891;,
 -60.67792;30.79294;-14.88086;,
 -60.67792;30.92996;-16.02891;,
 -61.48971;30.79294;-15.21711;,
 -60.67792;30.92996;-16.02891;,
 -61.82597;30.79294;-16.02891;,
 -60.67792;30.92996;-16.02891;,
 -61.48971;30.79294;-16.84070;,
 -60.67792;30.92996;-16.02891;,
 -60.67792;30.79294;-17.17696;,
 -59.17792;30.40275;-17.52891;,
 -60.67792;30.40275;-18.15023;,
 -58.55660;30.40275;-16.02891;,
 -59.17792;30.40275;-14.52891;,
 -60.67792;30.40275;-13.90759;,
 -62.17792;30.40275;-14.52891;,
 -62.79924;30.40275;-16.02891;,
 -62.17792;30.40275;-17.52891;,
 -60.67792;30.40275;-18.15023;,
 -58.71807;29.81878;-17.98875;,
 -60.67792;29.81878;-18.80055;,
 -57.90628;29.81878;-16.02891;,
 -58.71807;29.81878;-14.06906;,
 -60.67792;29.81878;-13.25727;,
 -62.63776;29.81878;-14.06906;,
 -63.44956;29.81878;-16.02891;,
 -62.63776;29.81878;-17.98875;,
 -60.67792;29.81878;-18.80055;,
 -58.55660;29.12996;-18.15023;,
 -60.67792;29.12996;-19.02891;,
 -57.67792;29.12996;-16.02891;,
 -58.55660;29.12996;-13.90759;,
 -60.67792;29.12996;-13.02891;,
 -62.79924;29.12996;-13.90759;,
 -63.67792;29.12996;-16.02891;,
 -62.79924;29.12996;-18.15023;,
 -60.67792;29.12996;-19.02891;,
 -58.71807;28.44113;-17.98875;,
 -60.67792;28.44113;-18.80055;,
 -57.90628;28.44113;-16.02891;,
 -58.71807;28.44113;-14.06906;,
 -60.67792;28.44113;-13.25727;,
 -62.63776;28.44113;-14.06906;,
 -63.44956;28.44113;-16.02891;,
 -62.63776;28.44113;-17.98875;,
 -60.67792;28.44113;-18.80055;,
 -59.17792;27.85716;-17.52891;,
 -60.67792;27.85716;-18.15023;,
 -58.55660;27.85716;-16.02891;,
 -59.17792;27.85716;-14.52891;,
 -60.67792;27.85716;-13.90759;,
 -62.17792;27.85716;-14.52891;,
 -62.79924;27.85716;-16.02891;,
 -62.17792;27.85716;-17.52891;,
 -60.67792;27.85716;-18.15023;,
 -59.86613;27.46697;-16.84070;,
 -60.67792;27.46697;-17.17696;,
 -59.52987;27.46697;-16.02891;,
 -59.86613;27.46697;-15.21711;,
 -60.67792;27.46697;-14.88086;,
 -61.48971;27.46697;-15.21711;,
 -61.82597;27.46697;-16.02891;,
 -61.48971;27.46697;-16.84070;,
 -60.67792;27.46697;-17.17696;,
 -60.67792;27.32996;-16.02891;,
 -60.67792;27.32996;-16.02891;,
 -60.67792;27.32996;-16.02891;,
 -60.67792;27.32996;-16.02891;,
 -60.67792;27.32996;-16.02891;,
 -60.67792;27.32996;-16.02891;,
 -60.67792;27.32996;-16.02891;,
 -60.67792;27.32996;-16.02891;,
 -60.67792;23.05890;-10.15967;,
 -59.86613;22.92188;-10.97147;,
 -60.67792;22.92188;-11.30772;,
 -60.67792;23.05890;-10.15967;,
 -59.52987;22.92188;-10.15967;,
 -60.67792;23.05890;-10.15967;,
 -59.86613;22.92188;-9.34788;,
 -60.67792;23.05890;-10.15967;,
 -60.67792;22.92188;-9.01162;,
 -60.67792;23.05890;-10.15967;,
 -61.48971;22.92188;-9.34788;,
 -60.67792;23.05890;-10.15967;,
 -61.82597;22.92188;-10.15967;,
 -60.67792;23.05890;-10.15967;,
 -61.48971;22.92188;-10.97147;,
 -60.67792;23.05890;-10.15967;,
 -60.67792;22.92188;-11.30772;,
 -59.17792;22.53169;-11.65967;,
 -60.67792;22.53169;-12.28099;,
 -58.55660;22.53169;-10.15967;,
 -59.17792;22.53169;-8.65967;,
 -60.67792;22.53169;-8.03835;,
 -62.17792;22.53169;-8.65967;,
 -62.79924;22.53169;-10.15967;,
 -62.17792;22.53169;-11.65967;,
 -60.67792;22.53169;-12.28099;,
 -58.71807;21.94773;-12.11952;,
 -60.67792;21.94773;-12.93131;,
 -57.90628;21.94773;-10.15967;,
 -58.71807;21.94773;-8.19983;,
 -60.67792;21.94773;-7.38804;,
 -62.63776;21.94773;-8.19983;,
 -63.44956;21.94773;-10.15967;,
 -62.63776;21.94773;-12.11952;,
 -60.67792;21.94773;-12.93131;,
 -58.55660;21.25890;-12.28099;,
 -60.67792;21.25890;-13.15967;,
 -57.67792;21.25890;-10.15967;,
 -58.55660;21.25890;-8.03835;,
 -60.67792;21.25890;-7.15967;,
 -62.79924;21.25890;-8.03835;,
 -63.67792;21.25890;-10.15967;,
 -62.79924;21.25890;-12.28099;,
 -60.67792;21.25890;-13.15967;,
 -58.71807;20.57007;-12.11952;,
 -60.67792;20.57007;-12.93131;,
 -57.90628;20.57007;-10.15967;,
 -58.71807;20.57007;-8.19983;,
 -60.67792;20.57007;-7.38804;,
 -62.63776;20.57007;-8.19983;,
 -63.44956;20.57007;-10.15967;,
 -62.63776;20.57007;-12.11952;,
 -60.67792;20.57007;-12.93131;,
 -59.17792;19.98611;-11.65967;,
 -60.67792;19.98611;-12.28099;,
 -58.55660;19.98611;-10.15967;,
 -59.17792;19.98611;-8.65967;,
 -60.67792;19.98611;-8.03835;,
 -62.17792;19.98611;-8.65967;,
 -62.79924;19.98611;-10.15967;,
 -62.17792;19.98611;-11.65967;,
 -60.67792;19.98611;-12.28099;,
 -59.86613;19.59591;-10.97147;,
 -60.67792;19.59591;-11.30772;,
 -59.52987;19.59591;-10.15967;,
 -59.86613;19.59591;-9.34788;,
 -60.67792;19.59591;-9.01162;,
 -61.48971;19.59591;-9.34788;,
 -61.82597;19.59591;-10.15967;,
 -61.48971;19.59591;-10.97147;,
 -60.67792;19.59591;-11.30772;,
 -60.67792;19.45890;-10.15967;,
 -60.67792;19.45890;-10.15967;,
 -60.67792;19.45890;-10.15967;,
 -60.67792;19.45890;-10.15967;,
 -60.67792;19.45890;-10.15967;,
 -60.67792;19.45890;-10.15967;,
 -60.67792;19.45890;-10.15967;,
 -60.67792;19.45890;-10.15967;,
 -60.67792;14.55770;-16.02891;,
 -59.86613;14.42069;-16.84070;,
 -60.67792;14.42069;-17.17696;,
 -60.67792;14.55770;-16.02891;,
 -59.52987;14.42069;-16.02891;,
 -60.67792;14.55770;-16.02891;,
 -59.86613;14.42069;-15.21711;,
 -60.67792;14.55770;-16.02891;,
 -60.67792;14.42069;-14.88086;,
 -60.67792;14.55770;-16.02891;,
 -61.48971;14.42069;-15.21711;,
 -60.67792;14.55770;-16.02891;,
 -61.82597;14.42069;-16.02891;,
 -60.67792;14.55770;-16.02891;,
 -61.48971;14.42069;-16.84070;,
 -60.67792;14.55770;-16.02891;,
 -60.67792;14.42069;-17.17696;,
 -59.17792;14.03049;-17.52891;,
 -60.67792;14.03049;-18.15023;,
 -58.55660;14.03049;-16.02891;,
 -59.17792;14.03049;-14.52891;,
 -60.67792;14.03049;-13.90759;,
 -62.17792;14.03049;-14.52891;,
 -62.79924;14.03049;-16.02891;,
 -62.17792;14.03049;-17.52891;,
 -60.67792;14.03049;-18.15023;,
 -58.71807;13.44653;-17.98875;,
 -60.67792;13.44653;-18.80055;,
 -57.90628;13.44653;-16.02891;,
 -58.71807;13.44653;-14.06906;,
 -60.67792;13.44653;-13.25727;,
 -62.63776;13.44653;-14.06906;,
 -63.44956;13.44653;-16.02891;,
 -62.63776;13.44653;-17.98875;,
 -60.67792;13.44653;-18.80055;,
 -58.55660;12.75770;-18.15023;,
 -60.67792;12.75770;-19.02891;,
 -57.67792;12.75770;-16.02891;,
 -58.55660;12.75770;-13.90759;,
 -60.67792;12.75770;-13.02891;,
 -62.79924;12.75770;-13.90759;,
 -63.67792;12.75770;-16.02891;,
 -62.79924;12.75770;-18.15023;,
 -60.67792;12.75770;-19.02891;,
 -58.71807;12.06887;-17.98875;,
 -60.67792;12.06887;-18.80055;,
 -57.90628;12.06887;-16.02891;,
 -58.71807;12.06887;-14.06906;,
 -60.67792;12.06887;-13.25727;,
 -62.63776;12.06887;-14.06906;,
 -63.44956;12.06887;-16.02891;,
 -62.63776;12.06887;-17.98875;,
 -60.67792;12.06887;-18.80055;,
 -59.17792;11.48491;-17.52891;,
 -60.67792;11.48491;-18.15023;,
 -58.55660;11.48491;-16.02891;,
 -59.17792;11.48491;-14.52891;,
 -60.67792;11.48491;-13.90759;,
 -62.17792;11.48491;-14.52891;,
 -62.79924;11.48491;-16.02891;,
 -62.17792;11.48491;-17.52891;,
 -60.67792;11.48491;-18.15023;,
 -59.86613;11.09472;-16.84070;,
 -60.67792;11.09472;-17.17696;,
 -59.52987;11.09472;-16.02891;,
 -59.86613;11.09472;-15.21711;,
 -60.67792;11.09472;-14.88086;,
 -61.48971;11.09472;-15.21711;,
 -61.82597;11.09472;-16.02891;,
 -61.48971;11.09472;-16.84070;,
 -60.67792;11.09472;-17.17696;,
 -60.67792;10.95770;-16.02891;,
 -60.67792;10.95770;-16.02891;,
 -60.67792;10.95770;-16.02891;,
 -60.67792;10.95770;-16.02891;,
 -60.67792;10.95770;-16.02891;,
 -60.67792;10.95770;-16.02891;,
 -60.67792;10.95770;-16.02891;,
 -60.67792;10.95770;-16.02891;,
 60.41392;30.92996;-16.02891;,
 61.22570;30.79294;-16.84070;,
 60.41392;30.79294;-17.17696;,
 60.41392;30.92996;-16.02891;,
 61.56196;30.79294;-16.02891;,
 60.41392;30.92996;-16.02891;,
 61.22570;30.79294;-15.21711;,
 60.41392;30.92996;-16.02891;,
 60.41392;30.79294;-14.88086;,
 60.41392;30.92996;-16.02891;,
 59.60212;30.79294;-15.21711;,
 60.41392;30.92996;-16.02891;,
 59.26586;30.79294;-16.02891;,
 60.41392;30.92996;-16.02891;,
 59.60212;30.79294;-16.84070;,
 60.41392;30.92996;-16.02891;,
 60.41392;30.79294;-17.17696;,
 61.91391;30.40275;-17.52891;,
 60.41392;30.40275;-18.15023;,
 62.53522;30.40275;-16.02891;,
 61.91391;30.40275;-14.52891;,
 60.41392;30.40275;-13.90759;,
 58.91392;30.40275;-14.52891;,
 58.29259;30.40275;-16.02891;,
 58.91392;30.40275;-17.52891;,
 60.41392;30.40275;-18.15023;,
 62.37375;29.81878;-17.98875;,
 60.41392;29.81878;-18.80055;,
 63.18554;29.81878;-16.02891;,
 62.37375;29.81878;-14.06906;,
 60.41392;29.81878;-13.25727;,
 58.45407;29.81878;-14.06906;,
 57.64227;29.81878;-16.02891;,
 58.45407;29.81878;-17.98875;,
 60.41392;29.81878;-18.80055;,
 62.53522;29.12996;-18.15023;,
 60.41392;29.12996;-19.02891;,
 63.41391;29.12996;-16.02891;,
 62.53522;29.12996;-13.90759;,
 60.41392;29.12996;-13.02891;,
 58.29259;29.12996;-13.90759;,
 57.41392;29.12996;-16.02891;,
 58.29259;29.12996;-18.15023;,
 60.41392;29.12996;-19.02891;,
 62.37375;28.44113;-17.98875;,
 60.41392;28.44113;-18.80055;,
 63.18554;28.44113;-16.02891;,
 62.37375;28.44113;-14.06906;,
 60.41392;28.44113;-13.25727;,
 58.45407;28.44113;-14.06906;,
 57.64227;28.44113;-16.02891;,
 58.45407;28.44113;-17.98875;,
 60.41392;28.44113;-18.80055;,
 61.91391;27.85716;-17.52891;,
 60.41392;27.85716;-18.15023;,
 62.53522;27.85716;-16.02891;,
 61.91391;27.85716;-14.52891;,
 60.41392;27.85716;-13.90759;,
 58.91392;27.85716;-14.52891;,
 58.29259;27.85716;-16.02891;,
 58.91392;27.85716;-17.52891;,
 60.41392;27.85716;-18.15023;,
 61.22570;27.46697;-16.84070;,
 60.41392;27.46697;-17.17696;,
 61.56196;27.46697;-16.02891;,
 61.22570;27.46697;-15.21711;,
 60.41392;27.46697;-14.88086;,
 59.60212;27.46697;-15.21711;,
 59.26586;27.46697;-16.02891;,
 59.60212;27.46697;-16.84070;,
 60.41392;27.46697;-17.17696;,
 60.41392;27.32996;-16.02891;,
 60.41392;27.32996;-16.02891;,
 60.41392;27.32996;-16.02891;,
 60.41392;27.32996;-16.02891;,
 60.41392;27.32996;-16.02891;,
 60.41392;27.32996;-16.02891;,
 60.41392;27.32996;-16.02891;,
 60.41392;27.32996;-16.02891;,
 60.41392;23.05890;-10.15967;,
 61.22570;22.92188;-10.97147;,
 60.41392;22.92188;-11.30772;,
 60.41392;23.05890;-10.15967;,
 61.56196;22.92188;-10.15967;,
 60.41392;23.05890;-10.15967;,
 61.22570;22.92188;-9.34788;,
 60.41392;23.05890;-10.15967;,
 60.41392;22.92188;-9.01162;,
 60.41392;23.05890;-10.15967;,
 59.60212;22.92188;-9.34788;,
 60.41392;23.05890;-10.15967;,
 59.26586;22.92188;-10.15967;,
 60.41392;23.05890;-10.15967;,
 59.60212;22.92188;-10.97147;,
 60.41392;23.05890;-10.15967;,
 60.41392;22.92188;-11.30772;,
 61.91391;22.53169;-11.65967;,
 60.41392;22.53169;-12.28099;,
 62.53522;22.53169;-10.15967;,
 61.91391;22.53169;-8.65967;,
 60.41392;22.53169;-8.03835;,
 58.91392;22.53169;-8.65967;,
 58.29259;22.53169;-10.15967;,
 58.91392;22.53169;-11.65967;,
 60.41392;22.53169;-12.28099;,
 62.37375;21.94773;-12.11952;,
 60.41392;21.94773;-12.93131;,
 63.18554;21.94773;-10.15967;,
 62.37375;21.94773;-8.19983;,
 60.41392;21.94773;-7.38804;,
 58.45407;21.94773;-8.19983;,
 57.64227;21.94773;-10.15967;,
 58.45407;21.94773;-12.11952;,
 60.41392;21.94773;-12.93131;,
 62.53522;21.25890;-12.28099;,
 60.41392;21.25890;-13.15967;,
 63.41391;21.25890;-10.15967;,
 62.53522;21.25890;-8.03835;,
 60.41392;21.25890;-7.15967;,
 58.29259;21.25890;-8.03835;,
 57.41392;21.25890;-10.15967;,
 58.29259;21.25890;-12.28099;,
 60.41392;21.25890;-13.15967;,
 62.37375;20.57007;-12.11952;,
 60.41392;20.57007;-12.93131;,
 63.18554;20.57007;-10.15967;,
 62.37375;20.57007;-8.19983;,
 60.41392;20.57007;-7.38804;,
 58.45407;20.57007;-8.19983;,
 57.64227;20.57007;-10.15967;,
 58.45407;20.57007;-12.11952;,
 60.41392;20.57007;-12.93131;,
 61.91391;19.98611;-11.65967;,
 60.41392;19.98611;-12.28099;,
 62.53522;19.98611;-10.15967;,
 61.91391;19.98611;-8.65967;,
 60.41392;19.98611;-8.03835;,
 58.91392;19.98611;-8.65967;,
 58.29259;19.98611;-10.15967;,
 58.91392;19.98611;-11.65967;,
 60.41392;19.98611;-12.28099;,
 61.22570;19.59591;-10.97147;,
 60.41392;19.59591;-11.30772;,
 61.56196;19.59591;-10.15967;,
 61.22570;19.59591;-9.34788;,
 60.41392;19.59591;-9.01162;,
 59.60212;19.59591;-9.34788;,
 59.26586;19.59591;-10.15967;,
 59.60212;19.59591;-10.97147;,
 60.41392;19.59591;-11.30772;,
 60.41392;19.45890;-10.15967;,
 60.41392;19.45890;-10.15967;,
 60.41392;19.45890;-10.15967;,
 60.41392;19.45890;-10.15967;,
 60.41392;19.45890;-10.15967;,
 60.41392;19.45890;-10.15967;,
 60.41392;19.45890;-10.15967;,
 60.41392;19.45890;-10.15967;,
 60.41392;14.55770;-16.02891;,
 61.22570;14.42069;-16.84070;,
 60.41392;14.42069;-17.17696;,
 60.41392;14.55770;-16.02891;,
 61.56196;14.42069;-16.02891;,
 60.41392;14.55770;-16.02891;,
 61.22570;14.42069;-15.21711;,
 60.41392;14.55770;-16.02891;,
 60.41392;14.42069;-14.88086;,
 60.41392;14.55770;-16.02891;,
 59.60212;14.42069;-15.21711;,
 60.41392;14.55770;-16.02891;,
 59.26586;14.42069;-16.02891;,
 60.41392;14.55770;-16.02891;,
 59.60212;14.42069;-16.84070;,
 60.41392;14.55770;-16.02891;,
 60.41392;14.42069;-17.17696;,
 61.91391;14.03049;-17.52891;,
 60.41392;14.03049;-18.15023;,
 62.53522;14.03049;-16.02891;,
 61.91391;14.03049;-14.52891;,
 60.41392;14.03049;-13.90759;,
 58.91392;14.03049;-14.52891;,
 58.29259;14.03049;-16.02891;,
 58.91392;14.03049;-17.52891;,
 60.41392;14.03049;-18.15023;,
 62.37375;13.44653;-17.98875;,
 60.41392;13.44653;-18.80055;,
 63.18554;13.44653;-16.02891;,
 62.37375;13.44653;-14.06906;,
 60.41392;13.44653;-13.25727;,
 58.45407;13.44653;-14.06906;,
 57.64227;13.44653;-16.02891;,
 58.45407;13.44653;-17.98875;,
 60.41392;13.44653;-18.80055;,
 62.53522;12.75770;-18.15023;,
 60.41392;12.75770;-19.02891;,
 63.41391;12.75770;-16.02891;,
 62.53522;12.75770;-13.90759;,
 60.41392;12.75770;-13.02891;,
 58.29259;12.75770;-13.90759;,
 57.41392;12.75770;-16.02891;,
 58.29259;12.75770;-18.15023;,
 60.41392;12.75770;-19.02891;,
 62.37375;12.06887;-17.98875;,
 60.41392;12.06887;-18.80055;,
 63.18554;12.06887;-16.02891;,
 62.37375;12.06887;-14.06906;,
 60.41392;12.06887;-13.25727;,
 58.45407;12.06887;-14.06906;,
 57.64227;12.06887;-16.02891;,
 58.45407;12.06887;-17.98875;,
 60.41392;12.06887;-18.80055;,
 61.91391;11.48491;-17.52891;,
 60.41392;11.48491;-18.15023;,
 62.53522;11.48491;-16.02891;,
 61.91391;11.48491;-14.52891;,
 60.41392;11.48491;-13.90759;,
 58.91392;11.48491;-14.52891;,
 58.29259;11.48491;-16.02891;,
 58.91392;11.48491;-17.52891;,
 60.41392;11.48491;-18.15023;,
 61.22570;11.09472;-16.84070;,
 60.41392;11.09472;-17.17696;,
 61.56196;11.09472;-16.02891;,
 61.22570;11.09472;-15.21711;,
 60.41392;11.09472;-14.88086;,
 59.60212;11.09472;-15.21711;,
 59.26586;11.09472;-16.02891;,
 59.60212;11.09472;-16.84070;,
 60.41392;11.09472;-17.17696;,
 60.41392;10.95770;-16.02891;,
 60.41392;10.95770;-16.02891;,
 60.41392;10.95770;-16.02891;,
 60.41392;10.95770;-16.02891;,
 60.41392;10.95770;-16.02891;,
 60.41392;10.95770;-16.02891;,
 60.41392;10.95770;-16.02891;,
 60.41392;10.95770;-16.02891;;
 
 490;
 4;0,1,2,3;,
 4;4,5,6,7;,
 4;8,9,10,11;,
 4;12,13,14,15;,
 4;16,17,18,19;,
 4;20,21,22,23;,
 4;20,24,25,26;,
 4;27,9,28,29;,
 4;30,31,32,23;,
 4;33,34,10,35;,
 4;36,37,4,7;,
 4;38,39,2,1;,
 4;38,37,36,39;,
 4;40,41,16,19;,
 4;42,43,14,13;,
 4;42,41,40,43;,
 4;44,45,46,47;,
 4;48,49,50,51;,
 4;52,53,54,55;,
 4;56,57,58,59;,
 4;60,61,62,63;,
 4;64,65,66,67;,
 4;68,69,70,71;,
 4;68,72,73,74;,
 4;75,57,76,77;,
 4;78,79,80,71;,
 4;81,82,58,83;,
 4;84,85,52,55;,
 4;86,87,50,49;,
 4;86,85,84,87;,
 4;88,89,64,67;,
 4;90,91,62,61;,
 4;90,89,88,91;,
 4;92,93,94,95;,
 4;96,97,98,99;,
 4;97,100,101,98;,
 4;100,102,103,101;,
 4;102,104,105,103;,
 4;104,106,107,105;,
 4;106,108,109,107;,
 4;108,110,111,109;,
 4;110,112,113,111;,
 3;114,97,96;,
 3;115,100,97;,
 3;116,102,100;,
 3;117,104,102;,
 3;118,106,104;,
 3;119,108,106;,
 3;120,110,108;,
 3;121,112,110;,
 3;122,99,98;,
 3;123,98,101;,
 3;124,101,103;,
 3;125,103,105;,
 3;126,105,107;,
 3;127,107,109;,
 3;128,109,111;,
 3;129,111,113;,
 4;130,131,132,133;,
 4;131,134,135,132;,
 4;134,136,137,135;,
 4;136,138,139,137;,
 4;138,140,141,139;,
 4;140,142,143,141;,
 4;142,144,145,143;,
 4;144,146,147,145;,
 3;148,131,130;,
 3;149,134,131;,
 3;150,136,134;,
 3;151,138,136;,
 3;152,140,138;,
 3;153,142,140;,
 3;154,144,142;,
 3;155,146,144;,
 3;156,133,132;,
 3;157,132,135;,
 3;158,135,137;,
 3;159,137,139;,
 3;160,139,141;,
 3;161,141,143;,
 3;162,143,145;,
 3;163,145,147;,
 4;164,165,166,167;,
 4;165,168,169,166;,
 4;168,170,171,169;,
 4;170,172,173,171;,
 4;172,174,175,173;,
 4;174,176,177,175;,
 4;176,178,179,177;,
 4;178,180,181,179;,
 3;182,165,164;,
 3;183,168,165;,
 3;184,170,168;,
 3;185,172,170;,
 3;186,174,172;,
 3;187,176,174;,
 3;188,178,176;,
 3;189,180,178;,
 3;190,167,166;,
 3;191,166,169;,
 3;192,169,171;,
 3;193,171,173;,
 3;194,173,175;,
 3;195,175,177;,
 3;196,177,179;,
 3;197,179,181;,
 3;198,199,200;,
 3;201,202,199;,
 3;203,204,202;,
 3;205,206,204;,
 3;207,208,206;,
 3;209,210,208;,
 3;211,212,210;,
 3;213,214,212;,
 4;200,199,215,216;,
 4;199,202,217,215;,
 4;202,204,218,217;,
 4;204,206,219,218;,
 4;206,208,220,219;,
 4;208,210,221,220;,
 4;210,212,222,221;,
 4;212,214,223,222;,
 4;216,215,224,225;,
 4;215,217,226,224;,
 4;217,218,227,226;,
 4;218,219,228,227;,
 4;219,220,229,228;,
 4;220,221,230,229;,
 4;221,222,231,230;,
 4;222,223,232,231;,
 4;225,224,233,234;,
 4;224,226,235,233;,
 4;226,227,236,235;,
 4;227,228,237,236;,
 4;228,229,238,237;,
 4;229,230,239,238;,
 4;230,231,240,239;,
 4;231,232,241,240;,
 4;234,233,242,243;,
 4;233,235,244,242;,
 4;235,236,245,244;,
 4;236,237,246,245;,
 4;237,238,247,246;,
 4;238,239,248,247;,
 4;239,240,249,248;,
 4;240,241,250,249;,
 4;243,242,251,252;,
 4;242,244,253,251;,
 4;244,245,254,253;,
 4;245,246,255,254;,
 4;246,247,256,255;,
 4;247,248,257,256;,
 4;248,249,258,257;,
 4;249,250,259,258;,
 4;252,251,260,261;,
 4;251,253,262,260;,
 4;253,254,263,262;,
 4;254,255,264,263;,
 4;255,256,265,264;,
 4;256,257,266,265;,
 4;257,258,267,266;,
 4;258,259,268,267;,
 3;261,260,269;,
 3;260,262,270;,
 3;262,263,271;,
 3;263,264,272;,
 3;264,265,273;,
 3;265,266,274;,
 3;266,267,275;,
 3;267,268,276;,
 3;277,278,279;,
 3;280,281,278;,
 3;282,283,281;,
 3;284,285,283;,
 3;286,287,285;,
 3;288,289,287;,
 3;290,291,289;,
 3;292,293,291;,
 4;279,278,294,295;,
 4;278,281,296,294;,
 4;281,283,297,296;,
 4;283,285,298,297;,
 4;285,287,299,298;,
 4;287,289,300,299;,
 4;289,291,301,300;,
 4;291,293,302,301;,
 4;295,294,303,304;,
 4;294,296,305,303;,
 4;296,297,306,305;,
 4;297,298,307,306;,
 4;298,299,308,307;,
 4;299,300,309,308;,
 4;300,301,310,309;,
 4;301,302,311,310;,
 4;304,303,312,313;,
 4;303,305,314,312;,
 4;305,306,315,314;,
 4;306,307,316,315;,
 4;307,308,317,316;,
 4;308,309,318,317;,
 4;309,310,319,318;,
 4;310,311,320,319;,
 4;313,312,321,322;,
 4;312,314,323,321;,
 4;314,315,324,323;,
 4;315,316,325,324;,
 4;316,317,326,325;,
 4;317,318,327,326;,
 4;318,319,328,327;,
 4;319,320,329,328;,
 4;322,321,330,331;,
 4;321,323,332,330;,
 4;323,324,333,332;,
 4;324,325,334,333;,
 4;325,326,335,334;,
 4;326,327,336,335;,
 4;327,328,337,336;,
 4;328,329,338,337;,
 4;331,330,339,340;,
 4;330,332,341,339;,
 4;332,333,342,341;,
 4;333,334,343,342;,
 4;334,335,344,343;,
 4;335,336,345,344;,
 4;336,337,346,345;,
 4;337,338,347,346;,
 3;340,339,348;,
 3;339,341,349;,
 3;341,342,350;,
 3;342,343,351;,
 3;343,344,352;,
 3;344,345,353;,
 3;345,346,354;,
 3;346,347,355;,
 3;356,357,358;,
 3;359,360,357;,
 3;361,362,360;,
 3;363,364,362;,
 3;365,366,364;,
 3;367,368,366;,
 3;369,370,368;,
 3;371,372,370;,
 4;358,357,373,374;,
 4;357,360,375,373;,
 4;360,362,376,375;,
 4;362,364,377,376;,
 4;364,366,378,377;,
 4;366,368,379,378;,
 4;368,370,380,379;,
 4;370,372,381,380;,
 4;374,373,382,383;,
 4;373,375,384,382;,
 4;375,376,385,384;,
 4;376,377,386,385;,
 4;377,378,387,386;,
 4;378,379,388,387;,
 4;379,380,389,388;,
 4;380,381,390,389;,
 4;383,382,391,392;,
 4;382,384,393,391;,
 4;384,385,394,393;,
 4;385,386,395,394;,
 4;386,387,396,395;,
 4;387,388,397,396;,
 4;388,389,398,397;,
 4;389,390,399,398;,
 4;392,391,400,401;,
 4;391,393,402,400;,
 4;393,394,403,402;,
 4;394,395,404,403;,
 4;395,396,405,404;,
 4;396,397,406,405;,
 4;397,398,407,406;,
 4;398,399,408,407;,
 4;401,400,409,410;,
 4;400,402,411,409;,
 4;402,403,412,411;,
 4;403,404,413,412;,
 4;404,405,414,413;,
 4;405,406,415,414;,
 4;406,407,416,415;,
 4;407,408,417,416;,
 4;410,409,418,419;,
 4;409,411,420,418;,
 4;411,412,421,420;,
 4;412,413,422,421;,
 4;413,414,423,422;,
 4;414,415,424,423;,
 4;415,416,425,424;,
 4;416,417,426,425;,
 3;419,418,427;,
 3;418,420,428;,
 3;420,421,429;,
 3;421,422,430;,
 3;422,423,431;,
 3;423,424,432;,
 3;424,425,433;,
 3;425,426,434;,
 3;435,436,437;,
 3;438,439,436;,
 3;440,441,439;,
 3;442,443,441;,
 3;444,445,443;,
 3;446,447,445;,
 3;448,449,447;,
 3;450,451,449;,
 4;437,436,452,453;,
 4;436,439,454,452;,
 4;439,441,455,454;,
 4;441,443,456,455;,
 4;443,445,457,456;,
 4;445,447,458,457;,
 4;447,449,459,458;,
 4;449,451,460,459;,
 4;453,452,461,462;,
 4;452,454,463,461;,
 4;454,455,464,463;,
 4;455,456,465,464;,
 4;456,457,466,465;,
 4;457,458,467,466;,
 4;458,459,468,467;,
 4;459,460,469,468;,
 4;462,461,470,471;,
 4;461,463,472,470;,
 4;463,464,473,472;,
 4;464,465,474,473;,
 4;465,466,475,474;,
 4;466,467,476,475;,
 4;467,468,477,476;,
 4;468,469,478,477;,
 4;471,470,479,480;,
 4;470,472,481,479;,
 4;472,473,482,481;,
 4;473,474,483,482;,
 4;474,475,484,483;,
 4;475,476,485,484;,
 4;476,477,486,485;,
 4;477,478,487,486;,
 4;480,479,488,489;,
 4;479,481,490,488;,
 4;481,482,491,490;,
 4;482,483,492,491;,
 4;483,484,493,492;,
 4;484,485,494,493;,
 4;485,486,495,494;,
 4;486,487,496,495;,
 4;489,488,497,498;,
 4;488,490,499,497;,
 4;490,491,500,499;,
 4;491,492,501,500;,
 4;492,493,502,501;,
 4;493,494,503,502;,
 4;494,495,504,503;,
 4;495,496,505,504;,
 3;498,497,506;,
 3;497,499,507;,
 3;499,500,508;,
 3;500,501,509;,
 3;501,502,510;,
 3;502,503,511;,
 3;503,504,512;,
 3;504,505,513;,
 3;514,515,516;,
 3;517,518,515;,
 3;519,520,518;,
 3;521,522,520;,
 3;523,524,522;,
 3;525,526,524;,
 3;527,528,526;,
 3;529,530,528;,
 4;516,515,531,532;,
 4;515,518,533,531;,
 4;518,520,534,533;,
 4;520,522,535,534;,
 4;522,524,536,535;,
 4;524,526,537,536;,
 4;526,528,538,537;,
 4;528,530,539,538;,
 4;532,531,540,541;,
 4;531,533,542,540;,
 4;533,534,543,542;,
 4;534,535,544,543;,
 4;535,536,545,544;,
 4;536,537,546,545;,
 4;537,538,547,546;,
 4;538,539,548,547;,
 4;541,540,549,550;,
 4;540,542,551,549;,
 4;542,543,552,551;,
 4;543,544,553,552;,
 4;544,545,554,553;,
 4;545,546,555,554;,
 4;546,547,556,555;,
 4;547,548,557,556;,
 4;550,549,558,559;,
 4;549,551,560,558;,
 4;551,552,561,560;,
 4;552,553,562,561;,
 4;553,554,563,562;,
 4;554,555,564,563;,
 4;555,556,565,564;,
 4;556,557,566,565;,
 4;559,558,567,568;,
 4;558,560,569,567;,
 4;560,561,570,569;,
 4;561,562,571,570;,
 4;562,563,572,571;,
 4;563,564,573,572;,
 4;564,565,574,573;,
 4;565,566,575,574;,
 4;568,567,576,577;,
 4;567,569,578,576;,
 4;569,570,579,578;,
 4;570,571,580,579;,
 4;571,572,581,580;,
 4;572,573,582,581;,
 4;573,574,583,582;,
 4;574,575,584,583;,
 3;577,576,585;,
 3;576,578,586;,
 3;578,579,587;,
 3;579,580,588;,
 3;580,581,589;,
 3;581,582,590;,
 3;582,583,591;,
 3;583,584,592;,
 3;593,594,595;,
 3;596,597,594;,
 3;598,599,597;,
 3;600,601,599;,
 3;602,603,601;,
 3;604,605,603;,
 3;606,607,605;,
 3;608,609,607;,
 4;595,594,610,611;,
 4;594,597,612,610;,
 4;597,599,613,612;,
 4;599,601,614,613;,
 4;601,603,615,614;,
 4;603,605,616,615;,
 4;605,607,617,616;,
 4;607,609,618,617;,
 4;611,610,619,620;,
 4;610,612,621,619;,
 4;612,613,622,621;,
 4;613,614,623,622;,
 4;614,615,624,623;,
 4;615,616,625,624;,
 4;616,617,626,625;,
 4;617,618,627,626;,
 4;620,619,628,629;,
 4;619,621,630,628;,
 4;621,622,631,630;,
 4;622,623,632,631;,
 4;623,624,633,632;,
 4;624,625,634,633;,
 4;625,626,635,634;,
 4;626,627,636,635;,
 4;629,628,637,638;,
 4;628,630,639,637;,
 4;630,631,640,639;,
 4;631,632,641,640;,
 4;632,633,642,641;,
 4;633,634,643,642;,
 4;634,635,644,643;,
 4;635,636,645,644;,
 4;638,637,646,647;,
 4;637,639,648,646;,
 4;639,640,649,648;,
 4;640,641,650,649;,
 4;641,642,651,650;,
 4;642,643,652,651;,
 4;643,644,653,652;,
 4;644,645,654,653;,
 4;647,646,655,656;,
 4;646,648,657,655;,
 4;648,649,658,657;,
 4;649,650,659,658;,
 4;650,651,660,659;,
 4;651,652,661,660;,
 4;652,653,662,661;,
 4;653,654,663,662;,
 3;656,655,664;,
 3;655,657,665;,
 3;657,658,666;,
 3;658,659,667;,
 3;659,660,668;,
 3;660,661,669;,
 3;661,662,670;,
 3;662,663,671;;
 
 MeshMaterialList {
  2;
  490;
  0,
  0,
  0,
  0,
  0,
  0,
  0,
  0,
  0,
  0,
  0,
  0,
  0,
  0,
  0,
  0,
  0,
  0,
  0,
  0,
  0,
  0,
  0,
  0,
  0,
  0,
  0,
  0,
  0,
  0,
  0,
  0,
  0,
  0,
  0,
  0,
  0,
  0,
  0,
  0,
  0,
  0,
  0,
  0,
  0,
  0,
  0,
  0,
  0,
  0,
  0,
  0,
  0,
  0,
  0,
  0,
  0,
  0,
  0,
  0,
  0,
  0,
  0,
  0,
  0,
  0,
  0,
  0,
  0,
  0,
  0,
  0,
  0,
  0,
  0,
  0,
  0,
  0,
  0,
  0,
  0,
  0,
  0,
  0,
  0,
  0,
  0,
  0,
  0,
  0,
  0,
  0,
  0,
  0,
  0,
  0,
  0,
  0,
  0,
  0,
  0,
  0,
  0,
  0,
  0,
  0,
  1,
  1,
  1,
  1,
  1,
  1,
  1,
  1,
  1,
  1,
  1,
  1,
  1,
  1,
  1,
  1,
  1,
  1,
  1,
  1,
  1,
  1,
  1,
  1,
  1,
  1,
  1,
  1,
  1,
  1,
  1,
  1,
  1,
  1,
  1,
  1,
  1,
  1,
  1,
  1,
  1,
  1,
  1,
  1,
  1,
  1,
  1,
  1,
  1,
  1,
  1,
  1,
  1,
  1,
  1,
  1,
  1,
  1,
  1,
  1,
  1,
  1,
  1,
  1,
  1,
  1,
  1,
  1,
  1,
  1,
  1,
  1,
  1,
  1,
  1,
  1,
  1,
  1,
  1,
  1,
  1,
  1,
  1,
  1,
  1,
  1,
  1,
  1,
  1,
  1,
  1,
  1,
  1,
  1,
  1,
  1,
  1,
  1,
  1,
  1,
  1,
  1,
  1,
  1,
  1,
  1,
  1,
  1,
  1,
  1,
  1,
  1,
  1,
  1,
  1,
  1,
  1,
  1,
  1,
  1,
  1,
  1,
  1,
  1,
  1,
  1,
  1,
  1,
  1,
  1,
  1,
  1,
  1,
  1,
  1,
  1,
  1,
  1,
  1,
  1,
  1,
  1,
  1,
  1,
  1,
  1,
  1,
  1,
  1,
  1,
  1,
  1,
  1,
  1,
  1,
  1,
  1,
  1,
  1,
  1,
  1,
  1,
  1,
  1,
  1,
  1,
  1,
  1,
  1,
  1,
  1,
  1,
  1,
  1,
  1,
  1,
  1,
  1,
  1,
  1,
  1,
  1,
  1,
  1,
  1,
  1,
  1,
  1,
  1,
  1,
  1,
  1,
  1,
  1,
  1,
  1,
  1,
  1,
  1,
  1,
  1,
  1,
  1,
  1,
  1,
  1,
  1,
  1,
  1,
  1,
  1,
  1,
  1,
  1,
  1,
  1,
  1,
  1,
  1,
  1,
  1,
  1,
  1,
  1,
  1,
  1,
  1,
  1,
  1,
  1,
  1,
  1,
  1,
  1,
  1,
  1,
  1,
  1,
  1,
  1,
  1,
  1,
  1,
  1,
  1,
  1,
  1,
  1,
  1,
  1,
  1,
  1,
  1,
  1,
  1,
  1,
  1,
  1,
  1,
  1,
  1,
  1,
  1,
  1,
  1,
  1,
  1,
  1,
  1,
  1,
  1,
  1,
  1,
  1,
  1,
  1,
  1,
  1,
  1,
  1,
  1,
  1,
  1,
  1,
  1,
  1,
  1,
  1,
  1,
  1,
  1,
  1,
  1,
  1,
  1,
  1,
  1,
  1,
  1,
  1,
  1,
  1,
  1,
  1,
  1,
  1,
  1,
  1,
  1,
  1,
  1,
  1,
  1,
  1,
  1,
  1,
  1,
  1,
  1,
  1,
  1,
  1,
  1,
  1,
  1,
  1,
  1,
  1,
  1,
  1,
  1,
  1,
  1,
  1,
  1,
  1,
  1,
  1,
  1,
  1,
  1,
  1,
  1,
  1,
  1,
  1,
  1,
  1,
  1,
  1,
  1,
  1,
  1,
  1,
  1,
  1,
  1,
  1,
  1,
  1,
  1,
  1,
  1,
  1,
  1,
  1,
  1,
  1,
  1,
  1,
  1,
  1,
  1,
  1,
  1,
  1,
  1,
  1,
  1,
  1,
  1,
  1,
  1,
  1;;
  Material {
   0.599216;0.599216;0.599216;1.000000;;
   5.000000;
   0.750000;0.750000;0.750000;;
   0.000000;0.000000;0.000000;;
  }
  Material {
   0.276078;0.276078;0.276078;1.000000;;
   5.000000;
   0.000000;0.000000;0.000000;;
   0.000000;0.000000;0.000000;;
  }
 }
 MeshNormals {
  321;
  0.000000;0.000000;-1.000000;,
  1.000000;0.000000;0.000000;,
  0.000000;0.000000;1.000000;,
  1.000000;0.000000;-0.000037;,
  -1.000000;0.000000;0.000037;,
  -1.000000;0.000000;0.000037;,
  1.000000;0.000000;-0.000037;,
  -1.000000;0.000000;0.000000;,
  0.000000;1.000000;0.000000;,
  0.000000;-1.000000;-0.000000;,
  0.000000;0.000000;-1.000000;,
  1.000000;0.000000;0.000000;,
  0.000000;0.000000;1.000000;,
  1.000000;0.000000;-0.000037;,
  -1.000000;0.000000;0.000037;,
  -1.000000;0.000000;0.000037;,
  1.000000;0.000000;-0.000037;,
  -1.000000;0.000000;0.000000;,
  0.000000;1.000000;0.000000;,
  0.000000;-1.000000;-0.000000;,
  -1.000000;-0.000062;0.000092;,
  0.000003;0.491423;0.870921;,
  0.000003;0.583478;0.812129;,
  0.000003;0.668571;0.743648;,
  -0.000002;-0.707631;-0.706582;,
  -0.000003;0.000001;-1.000000;,
  -0.000002;0.707632;-0.706581;,
  0.000003;-0.578482;0.815695;,
  1.000000;0.000021;-0.000031;,
  1.000000;0.000000;-0.000027;,
  -0.000003;0.491424;-0.870920;,
  -0.000003;0.578311;-0.815817;,
  -0.000002;0.812959;-0.582321;,
  0.000002;-0.701093;0.713070;,
  0.000003;-0.000001;1.000000;,
  0.000002;0.707630;0.706583;,
  -0.000003;-0.578478;-0.815698;,
  -1.000000;0.000000;0.000000;,
  -1.000000;0.000147;0.000311;,
  0.000003;0.491422;0.870922;,
  0.000003;0.576451;0.817132;,
  0.000002;0.811629;0.584173;,
  -0.000002;-0.699888;-0.714252;,
  -0.000003;0.000001;-1.000000;,
  -0.000002;0.707632;-0.706582;,
  -0.000001;0.924164;-0.381997;,
  0.000003;-0.578481;0.815696;,
  1.000000;-0.000049;-0.000104;,
  -0.000000;1.000000;0.000000;,
  0.000000;0.969075;-0.246766;,
  0.174490;0.969075;-0.174491;,
  0.246766;0.969075;0.000000;,
  0.174490;0.969075;0.174491;,
  0.000000;0.969075;0.246766;,
  -0.174490;0.969075;0.174491;,
  -0.246766;0.969075;0.000000;,
  -0.174490;0.969075;-0.174491;,
  0.000000;0.850289;-0.526316;,
  0.372162;0.850289;-0.372162;,
  0.526317;0.850289;0.000000;,
  0.372162;0.850289;0.372162;,
  -0.000000;0.850289;0.526316;,
  -0.372162;0.850289;0.372162;,
  -0.526317;0.850289;0.000000;,
  -0.372162;0.850289;-0.372162;,
  0.000000;0.551577;-0.834124;,
  0.589815;0.551578;-0.589814;,
  0.834124;0.551578;0.000000;,
  0.589815;0.551578;0.589814;,
  -0.000000;0.551578;0.834124;,
  -0.589815;0.551578;0.589814;,
  -0.834124;0.551578;0.000000;,
  -0.589815;0.551578;-0.589814;,
  0.000000;0.000001;-1.000000;,
  0.707107;0.000001;-0.707107;,
  1.000000;0.000001;0.000000;,
  0.707107;0.000001;0.707107;,
  -0.000000;0.000001;1.000000;,
  -0.707107;0.000001;0.707107;,
  -1.000000;0.000001;0.000000;,
  -0.707107;0.000001;-0.707107;,
  0.000000;-0.551577;-0.834124;,
  0.589815;-0.551577;-0.589815;,
  0.834124;-0.551577;-0.000000;,
  0.589815;-0.551577;0.589815;,
  -0.000000;-0.551577;0.834124;,
  -0.589815;-0.551577;0.589815;,
  -0.834124;-0.551577;0.000000;,
  -0.589815;-0.551577;-0.589815;,
  -0.000000;-0.850289;-0.526316;,
  0.372162;-0.850289;-0.372162;,
  0.526316;-0.850289;-0.000000;,
  0.372162;-0.850289;0.372162;,
  -0.000000;-0.850289;0.526316;,
  -0.372162;-0.850289;0.372162;,
  -0.526317;-0.850289;0.000000;,
  -0.372162;-0.850289;-0.372162;,
  -0.000000;-0.969075;-0.246765;,
  0.174489;-0.969075;-0.174490;,
  0.246765;-0.969075;-0.000000;,
  0.174489;-0.969075;0.174490;,
  -0.000000;-0.969075;0.246765;,
  -0.174489;-0.969075;0.174490;,
  -0.246765;-0.969075;0.000000;,
  -0.174489;-0.969075;-0.174490;,
  -0.000000;-1.000000;0.000000;,
  0.000000;0.850290;-0.526315;,
  0.372161;0.850290;-0.372161;,
  0.526316;0.850289;0.000000;,
  0.372161;0.850289;0.372161;,
  -0.000000;0.850290;0.526315;,
  -0.372161;0.850289;0.372161;,
  -0.526316;0.850289;0.000000;,
  -0.372161;0.850289;-0.372161;,
  0.000000;0.551578;-0.834123;,
  0.589814;0.551578;-0.589814;,
  0.834123;0.551578;0.000000;,
  0.589814;0.551578;0.589814;,
  -0.000000;0.551578;0.834123;,
  -0.589814;0.551578;0.589814;,
  -0.834123;0.551578;0.000000;,
  -0.589814;0.551578;-0.589814;,
  0.000000;0.000000;-1.000000;,
  0.707107;0.000000;-0.707107;,
  1.000000;0.000000;0.000000;,
  0.707107;0.000000;0.707107;,
  -0.000000;-0.000000;1.000000;,
  -0.707107;0.000000;0.707107;,
  -1.000000;0.000000;0.000000;,
  -0.707107;0.000000;-0.707107;,
  0.000000;-0.000000;-1.000000;,
  0.707107;-0.000000;-0.707107;,
  1.000000;-0.000000;-0.000000;,
  0.707107;-0.000000;0.707107;,
  -0.000000;-0.000000;1.000000;,
  -0.707107;-0.000000;0.707107;,
  -1.000000;-0.000000;0.000000;,
  -0.707107;-0.000000;-0.707107;,
  0.000000;-0.551578;-0.834123;,
  0.589814;-0.551578;-0.589814;,
  0.834123;-0.551578;-0.000000;,
  0.589814;-0.551578;0.589814;,
  -0.000000;-0.551578;0.834123;,
  -0.589814;-0.551578;0.589814;,
  -0.834123;-0.551578;0.000000;,
  -0.589814;-0.551578;-0.589814;,
  -0.000000;-0.850289;-0.526316;,
  0.372161;-0.850289;-0.372162;,
  0.526316;-0.850289;-0.000000;,
  0.372161;-0.850289;0.372162;,
  -0.000000;-0.850289;0.526316;,
  -0.372162;-0.850289;0.372162;,
  -0.526316;-0.850289;0.000000;,
  -0.372162;-0.850289;-0.372161;,
  -0.000000;-0.969075;-0.246766;,
  0.174490;-0.969075;-0.174491;,
  0.246766;-0.969075;-0.000000;,
  0.174490;-0.969075;0.174491;,
  -0.000000;-0.969075;0.246766;,
  -0.174490;-0.969075;0.174491;,
  -0.246766;-0.969075;0.000000;,
  -0.174490;-0.969075;-0.174491;,
  -0.000000;-1.000000;0.000000;,
  -0.000001;-0.924163;-0.381999;,
  0.000002;-0.803236;0.595661;,
  0.000003;-0.504438;0.863448;,
  -1.000000;0.000046;0.000082;,
  -1.000000;-0.000001;0.000082;,
  0.999998;0.001398;0.001555;,
  -1.000000;-0.000027;-0.000006;,
  -1.000000;-0.000029;-0.000012;,
  -1.000000;0.000000;0.000000;,
  -1.000000;0.000027;-0.000006;,
  -1.000000;-0.000100;0.000123;,
  -1.000000;-0.000238;0.000293;,
  1.000000;0.000000;-0.000027;,
  1.000000;-0.000015;-0.000027;,
  -1.000000;-0.000466;-0.000519;,
  1.000000;0.000010;0.000004;,
  1.000000;0.000009;0.000002;,
  1.000000;-0.000000;-0.000000;,
  1.000000;-0.000009;0.000002;,
  1.000000;0.000033;-0.000041;,
  1.000000;0.000079;-0.000098;,
  -0.000002;-0.802228;-0.597017;,
  -0.000003;-0.504435;-0.863449;,
  1.000000;0.000013;-0.000053;,
  1.000000;0.000000;-0.000107;,
  1.000000;-0.000013;-0.000053;,
  1.000000;-0.000131;-0.000153;,
  -1.000000;0.000394;0.000459;,
  0.000003;-0.648034;0.761612;,
  0.000003;-0.504437;0.863449;,
  -0.999999;0.000826;0.000965;,
  -1.000000;-0.000001;0.000082;,
  -1.000000;-0.000028;-0.000006;,
  -1.000000;0.000000;0.000000;,
  -1.000000;0.000027;-0.000006;,
  -1.000000;-0.000200;0.000246;,
  -1.000000;-0.000238;0.000293;,
  1.000000;-0.000275;-0.000322;,
  1.000000;0.000009;0.000002;,
  1.000000;-0.000000;-0.000000;,
  1.000000;-0.000009;0.000002;,
  1.000000;0.000067;-0.000082;,
  1.000000;0.000079;-0.000098;,
  0.000001;1.000000;-0.000000;,
  0.000000;0.969075;-0.246766;,
  0.174491;0.969075;-0.174490;,
  0.246767;0.969075;0.000000;,
  0.174491;0.969075;0.174490;,
  0.000000;0.969075;0.246766;,
  -0.174490;0.969075;0.174491;,
  -0.246766;0.969075;0.000000;,
  -0.174490;0.969075;-0.174491;,
  0.000001;0.850289;-0.526316;,
  0.372163;0.850288;-0.372161;,
  0.526318;0.850288;0.000000;,
  0.372163;0.850289;0.372161;,
  0.000001;0.850289;0.526316;,
  -0.372161;0.850289;0.372162;,
  -0.526316;0.850289;0.000000;,
  -0.372161;0.850289;-0.372162;,
  0.000001;0.551578;-0.834124;,
  0.589815;0.551577;-0.589814;,
  0.834123;0.551578;0.000000;,
  0.589815;0.551577;0.589814;,
  0.000001;0.551578;0.834124;,
  -0.589814;0.551578;0.589815;,
  -0.834124;0.551577;0.000000;,
  -0.589814;0.551578;-0.589815;,
  0.000002;0.000001;-1.000000;,
  0.707107;0.000001;-0.707107;,
  1.000000;0.000001;0.000000;,
  0.707107;0.000001;0.707107;,
  0.000001;0.000001;1.000000;,
  -0.707107;0.000001;0.707106;,
  -1.000000;0.000001;0.000000;,
  -0.707107;0.000001;-0.707106;,
  0.000001;-0.551577;-0.834124;,
  0.589815;-0.551577;-0.589814;,
  0.834124;-0.551577;-0.000000;,
  0.589815;-0.551577;0.589814;,
  0.000001;-0.551577;0.834124;,
  -0.589815;-0.551577;0.589815;,
  -0.834124;-0.551576;0.000000;,
  -0.589815;-0.551577;-0.589815;,
  0.000001;-0.850289;-0.526316;,
  0.372163;-0.850288;-0.372162;,
  0.526318;-0.850288;-0.000000;,
  0.372163;-0.850288;0.372162;,
  0.000001;-0.850289;0.526316;,
  -0.372161;-0.850289;0.372162;,
  -0.526316;-0.850289;0.000000;,
  -0.372161;-0.850289;-0.372162;,
  0.000000;-0.969075;-0.246765;,
  0.174490;-0.969075;-0.174489;,
  0.246766;-0.969075;-0.000000;,
  0.174490;-0.969075;0.174489;,
  0.000000;-0.969075;0.246765;,
  -0.174489;-0.969075;0.174490;,
  -0.246765;-0.969076;0.000000;,
  -0.174489;-0.969075;-0.174490;,
  0.000001;-1.000000;0.000000;,
  0.000001;0.850290;-0.526315;,
  0.372162;0.850289;-0.372161;,
  0.526317;0.850289;0.000000;,
  0.372162;0.850289;0.372161;,
  0.000001;0.850290;0.526315;,
  -0.372160;0.850290;0.372162;,
  -0.526314;0.850290;0.000000;,
  -0.372160;0.850290;-0.372162;,
  0.000001;0.551578;-0.834123;,
  0.589815;0.551578;-0.589813;,
  0.834123;0.551579;0.000000;,
  0.589815;0.551578;0.589813;,
  0.000001;0.551578;0.834123;,
  -0.589814;0.551578;0.589814;,
  -0.834124;0.551577;0.000000;,
  -0.589814;0.551578;-0.589814;,
  0.000002;-0.000000;-1.000000;,
  0.707107;0.000000;-0.707107;,
  1.000000;0.000000;0.000000;,
  0.707107;0.000000;0.707107;,
  0.000001;0.000000;1.000000;,
  -0.707107;0.000000;0.707106;,
  -1.000000;0.000000;0.000000;,
  -0.707107;-0.000000;-0.707107;,
  0.000002;-0.000000;-1.000000;,
  0.707107;-0.000000;-0.707107;,
  1.000000;-0.000001;-0.000000;,
  0.707107;-0.000000;0.707107;,
  0.000001;-0.000000;1.000000;,
  -0.707107;-0.000000;0.707106;,
  -1.000000;-0.000000;0.000000;,
  -0.707107;-0.000000;-0.707107;,
  0.000001;-0.551578;-0.834123;,
  0.589815;-0.551578;-0.589814;,
  0.834123;-0.551579;-0.000000;,
  0.589815;-0.551578;0.589814;,
  0.000001;-0.551578;0.834123;,
  -0.589814;-0.551578;0.589814;,
  -0.834124;-0.551577;0.000000;,
  -0.589814;-0.551578;-0.589814;,
  0.000001;-0.850289;-0.526316;,
  0.372163;-0.850289;-0.372161;,
  0.526317;-0.850288;-0.000000;,
  0.372163;-0.850289;0.372161;,
  0.000001;-0.850289;0.526316;,
  -0.372161;-0.850289;0.372162;,
  -0.526315;-0.850290;-0.000000;,
  -0.372161;-0.850289;-0.372162;,
  0.000000;-0.969075;-0.246766;,
  0.174491;-0.969075;-0.174490;,
  0.246767;-0.969075;-0.000000;,
  0.174491;-0.969075;0.174490;,
  0.000000;-0.969075;0.246766;,
  -0.174490;-0.969075;0.174491;,
  -0.246766;-0.969075;0.000000;,
  -0.174490;-0.969075;-0.174491;,
  0.000001;-1.000000;-0.000000;;
  490;
  4;0,0,0,0;,
  4;0,0,0,0;,
  4;1,1,1,1;,
  4;2,2,2,2;,
  4;2,2,2,2;,
  4;7,7,7,7;,
  4;8,8,8,8;,
  4;8,8,8,8;,
  4;9,9,9,9;,
  4;9,9,9,9;,
  4;4,4,4,4;,
  4;3,3,3,3;,
  4;0,0,0,0;,
  4;6,6,6,6;,
  4;5,5,5,5;,
  4;2,2,2,2;,
  4;8,8,8,8;,
  4;10,10,10,10;,
  4;10,10,10,10;,
  4;11,11,11,11;,
  4;12,12,12,12;,
  4;12,12,12,12;,
  4;17,17,17,17;,
  4;18,18,18,18;,
  4;18,18,18,18;,
  4;19,19,19,19;,
  4;19,19,19,19;,
  4;14,14,14,14;,
  4;13,13,13,13;,
  4;10,10,10,10;,
  4;16,16,16,16;,
  4;15,15,15,15;,
  4;12,12,12,12;,
  4;18,18,18,18;,
  4;21,22,22,21;,
  4;22,23,23,22;,
  4;163,24,24,163;,
  4;24,25,25,24;,
  4;25,26,26,25;,
  4;26,32,32,26;,
  4;164,27,27,164;,
  4;27,165,165,27;,
  3;20,166,167;,
  3;168,168,168;,
  3;20,169,170;,
  3;20,171,169;,
  3;20,172,171;,
  3;20,173,172;,
  3;20,174,173;,
  3;20,167,174;,
  3;28,175,176;,
  3;177,177,177;,
  3;28,178,179;,
  3;28,179,180;,
  3;28,180,181;,
  3;28,181,182;,
  3;28,182,183;,
  3;28,183,175;,
  4;30,31,31,30;,
  4;31,32,32,31;,
  4;164,33,33,164;,
  4;33,34,34,33;,
  4;34,35,35,34;,
  4;35,41,41,35;,
  4;184,36,36,184;,
  4;36,185,185,36;,
  3;29,124,124;,
  3;29,182,124;,
  3;29,186,182;,
  3;29,187,186;,
  3;29,188,187;,
  3;29,189,188;,
  3;29,124,189;,
  3;29,124,124;,
  3;37,37,37;,
  3;37,37,173;,
  3;37,173,37;,
  3;37,37,37;,
  3;37,37,37;,
  3;37,37,190;,
  3;37,190,37;,
  3;37,37,37;,
  4;39,40,40,39;,
  4;40,41,41,40;,
  4;184,42,42,184;,
  4;42,43,43,42;,
  4;43,44,44,43;,
  4;44,45,45,44;,
  4;191,46,46,191;,
  4;46,192,192,46;,
  3;38,193,194;,
  3;38,190,193;,
  3;38,195,190;,
  3;38,196,195;,
  3;38,197,196;,
  3;38,198,197;,
  3;38,199,198;,
  3;38,194,199;,
  3;47,175,200;,
  3;47,200,189;,
  3;47,189,201;,
  3;47,201,202;,
  3;47,202,203;,
  3;47,203,204;,
  3;47,204,205;,
  3;47,205,175;,
  3;48,50,49;,
  3;48,51,50;,
  3;48,52,51;,
  3;48,53,52;,
  3;48,54,53;,
  3;48,55,54;,
  3;48,56,55;,
  3;48,49,56;,
  4;49,50,58,57;,
  4;50,51,59,58;,
  4;51,52,60,59;,
  4;52,53,61,60;,
  4;53,54,62,61;,
  4;54,55,63,62;,
  4;55,56,64,63;,
  4;56,49,57,64;,
  4;57,58,66,65;,
  4;58,59,67,66;,
  4;59,60,68,67;,
  4;60,61,69,68;,
  4;61,62,70,69;,
  4;62,63,71,70;,
  4;63,64,72,71;,
  4;64,57,65,72;,
  4;65,66,74,73;,
  4;66,67,75,74;,
  4;67,68,76,75;,
  4;68,69,77,76;,
  4;69,70,78,77;,
  4;70,71,79,78;,
  4;71,72,80,79;,
  4;72,65,73,80;,
  4;73,74,82,81;,
  4;74,75,83,82;,
  4;75,76,84,83;,
  4;76,77,85,84;,
  4;77,78,86,85;,
  4;78,79,87,86;,
  4;79,80,88,87;,
  4;80,73,81,88;,
  4;81,82,90,89;,
  4;82,83,91,90;,
  4;83,84,92,91;,
  4;84,85,93,92;,
  4;85,86,94,93;,
  4;86,87,95,94;,
  4;87,88,96,95;,
  4;88,81,89,96;,
  4;89,90,98,97;,
  4;90,91,99,98;,
  4;91,92,100,99;,
  4;92,93,101,100;,
  4;93,94,102,101;,
  4;94,95,103,102;,
  4;95,96,104,103;,
  4;96,89,97,104;,
  3;97,98,105;,
  3;98,99,105;,
  3;99,100,105;,
  3;100,101,105;,
  3;101,102,105;,
  3;102,103,105;,
  3;103,104,105;,
  3;104,97,105;,
  3;48,50,49;,
  3;48,51,50;,
  3;48,52,51;,
  3;48,53,52;,
  3;48,54,53;,
  3;48,55,54;,
  3;48,56,55;,
  3;48,49,56;,
  4;49,50,107,106;,
  4;50,51,108,107;,
  4;51,52,109,108;,
  4;52,53,110,109;,
  4;53,54,111,110;,
  4;54,55,112,111;,
  4;55,56,113,112;,
  4;56,49,106,113;,
  4;106,107,115,114;,
  4;107,108,116,115;,
  4;108,109,117,116;,
  4;109,110,118,117;,
  4;110,111,119,118;,
  4;111,112,120,119;,
  4;112,113,121,120;,
  4;113,106,114,121;,
  4;114,115,123,122;,
  4;115,116,124,123;,
  4;116,117,125,124;,
  4;117,118,126,125;,
  4;118,119,127,126;,
  4;119,120,128,127;,
  4;120,121,129,128;,
  4;121,114,122,129;,
  4;122,123,82,81;,
  4;123,124,83,82;,
  4;124,125,84,83;,
  4;125,126,85,84;,
  4;126,127,86,85;,
  4;127,128,87,86;,
  4;128,129,88,87;,
  4;129,122,81,88;,
  4;81,82,90,89;,
  4;82,83,91,90;,
  4;83,84,92,91;,
  4;84,85,93,92;,
  4;85,86,94,93;,
  4;86,87,95,94;,
  4;87,88,96,95;,
  4;88,81,89,96;,
  4;89,90,98,97;,
  4;90,91,99,98;,
  4;91,92,100,99;,
  4;92,93,101,100;,
  4;93,94,102,101;,
  4;94,95,103,102;,
  4;95,96,104,103;,
  4;96,89,97,104;,
  3;97,98,105;,
  3;98,99,105;,
  3;99,100,105;,
  3;100,101,105;,
  3;101,102,105;,
  3;102,103,105;,
  3;103,104,105;,
  3;104,97,105;,
  3;48,50,49;,
  3;48,51,50;,
  3;48,52,51;,
  3;48,53,52;,
  3;48,54,53;,
  3;48,55,54;,
  3;48,56,55;,
  3;48,49,56;,
  4;49,50,107,106;,
  4;50,51,108,107;,
  4;51,52,109,108;,
  4;52,53,110,109;,
  4;53,54,111,110;,
  4;54,55,112,111;,
  4;55,56,113,112;,
  4;56,49,106,113;,
  4;106,107,115,114;,
  4;107,108,116,115;,
  4;108,109,117,116;,
  4;109,110,118,117;,
  4;110,111,119,118;,
  4;111,112,120,119;,
  4;112,113,121,120;,
  4;113,106,114,121;,
  4;114,115,131,130;,
  4;115,116,132,131;,
  4;116,117,133,132;,
  4;117,118,134,133;,
  4;118,119,135,134;,
  4;119,120,136,135;,
  4;120,121,137,136;,
  4;121,114,130,137;,
  4;130,131,139,138;,
  4;131,132,140,139;,
  4;132,133,141,140;,
  4;133,134,142,141;,
  4;134,135,143,142;,
  4;135,136,144,143;,
  4;136,137,145,144;,
  4;137,130,138,145;,
  4;138,139,147,146;,
  4;139,140,148,147;,
  4;140,141,149,148;,
  4;141,142,150,149;,
  4;142,143,151,150;,
  4;143,144,152,151;,
  4;144,145,153,152;,
  4;145,138,146,153;,
  4;146,147,155,154;,
  4;147,148,156,155;,
  4;148,149,157,156;,
  4;149,150,158,157;,
  4;150,151,159,158;,
  4;151,152,160,159;,
  4;152,153,161,160;,
  4;153,146,154,161;,
  3;154,155,162;,
  3;155,156,162;,
  3;156,157,162;,
  3;157,158,162;,
  3;158,159,162;,
  3;159,160,162;,
  3;160,161,162;,
  3;161,154,162;,
  3;206,208,207;,
  3;206,209,208;,
  3;206,210,209;,
  3;206,211,210;,
  3;206,212,211;,
  3;206,213,212;,
  3;206,214,213;,
  3;206,207,214;,
  4;207,208,216,215;,
  4;208,209,217,216;,
  4;209,210,218,217;,
  4;210,211,219,218;,
  4;211,212,220,219;,
  4;212,213,221,220;,
  4;213,214,222,221;,
  4;214,207,215,222;,
  4;215,216,224,223;,
  4;216,217,225,224;,
  4;217,218,226,225;,
  4;218,219,227,226;,
  4;219,220,228,227;,
  4;220,221,229,228;,
  4;221,222,230,229;,
  4;222,215,223,230;,
  4;223,224,232,231;,
  4;224,225,233,232;,
  4;225,226,234,233;,
  4;226,227,235,234;,
  4;227,228,236,235;,
  4;228,229,237,236;,
  4;229,230,238,237;,
  4;230,223,231,238;,
  4;231,232,240,239;,
  4;232,233,241,240;,
  4;233,234,242,241;,
  4;234,235,243,242;,
  4;235,236,244,243;,
  4;236,237,245,244;,
  4;237,238,246,245;,
  4;238,231,239,246;,
  4;239,240,248,247;,
  4;240,241,249,248;,
  4;241,242,250,249;,
  4;242,243,251,250;,
  4;243,244,252,251;,
  4;244,245,253,252;,
  4;245,246,254,253;,
  4;246,239,247,254;,
  4;247,248,256,255;,
  4;248,249,257,256;,
  4;249,250,258,257;,
  4;250,251,259,258;,
  4;251,252,260,259;,
  4;252,253,261,260;,
  4;253,254,262,261;,
  4;254,247,255,262;,
  3;255,256,263;,
  3;256,257,263;,
  3;257,258,263;,
  3;258,259,263;,
  3;259,260,263;,
  3;260,261,263;,
  3;261,262,263;,
  3;262,255,263;,
  3;206,208,207;,
  3;206,209,208;,
  3;206,210,209;,
  3;206,211,210;,
  3;206,212,211;,
  3;206,213,212;,
  3;206,214,213;,
  3;206,207,214;,
  4;207,208,265,264;,
  4;208,209,266,265;,
  4;209,210,267,266;,
  4;210,211,268,267;,
  4;211,212,269,268;,
  4;212,213,270,269;,
  4;213,214,271,270;,
  4;214,207,264,271;,
  4;264,265,273,272;,
  4;265,266,274,273;,
  4;266,267,275,274;,
  4;267,268,276,275;,
  4;268,269,277,276;,
  4;269,270,278,277;,
  4;270,271,279,278;,
  4;271,264,272,279;,
  4;272,273,281,280;,
  4;273,274,282,281;,
  4;274,275,283,282;,
  4;275,276,284,283;,
  4;276,277,285,284;,
  4;277,278,286,285;,
  4;278,279,287,286;,
  4;279,272,280,287;,
  4;280,281,240,239;,
  4;281,282,241,240;,
  4;282,283,242,241;,
  4;283,284,243,242;,
  4;284,285,244,243;,
  4;285,286,245,244;,
  4;286,287,246,245;,
  4;287,280,239,246;,
  4;239,240,248,247;,
  4;240,241,249,248;,
  4;241,242,250,249;,
  4;242,243,251,250;,
  4;243,244,252,251;,
  4;244,245,253,252;,
  4;245,246,254,253;,
  4;246,239,247,254;,
  4;247,248,256,255;,
  4;248,249,257,256;,
  4;249,250,258,257;,
  4;250,251,259,258;,
  4;251,252,260,259;,
  4;252,253,261,260;,
  4;253,254,262,261;,
  4;254,247,255,262;,
  3;255,256,263;,
  3;256,257,263;,
  3;257,258,263;,
  3;258,259,263;,
  3;259,260,263;,
  3;260,261,263;,
  3;261,262,263;,
  3;262,255,263;,
  3;206,208,207;,
  3;206,209,208;,
  3;206,210,209;,
  3;206,211,210;,
  3;206,212,211;,
  3;206,213,212;,
  3;206,214,213;,
  3;206,207,214;,
  4;207,208,265,264;,
  4;208,209,266,265;,
  4;209,210,267,266;,
  4;210,211,268,267;,
  4;211,212,269,268;,
  4;212,213,270,269;,
  4;213,214,271,270;,
  4;214,207,264,271;,
  4;264,265,273,272;,
  4;265,266,274,273;,
  4;266,267,275,274;,
  4;267,268,276,275;,
  4;268,269,277,276;,
  4;269,270,278,277;,
  4;270,271,279,278;,
  4;271,264,272,279;,
  4;272,273,289,288;,
  4;273,274,290,289;,
  4;274,275,291,290;,
  4;275,276,292,291;,
  4;276,277,293,292;,
  4;277,278,294,293;,
  4;278,279,295,294;,
  4;279,272,288,295;,
  4;288,289,297,296;,
  4;289,290,298,297;,
  4;290,291,299,298;,
  4;291,292,300,299;,
  4;292,293,301,300;,
  4;293,294,302,301;,
  4;294,295,303,302;,
  4;295,288,296,303;,
  4;296,297,305,304;,
  4;297,298,306,305;,
  4;298,299,307,306;,
  4;299,300,308,307;,
  4;300,301,309,308;,
  4;301,302,310,309;,
  4;302,303,311,310;,
  4;303,296,304,311;,
  4;304,305,313,312;,
  4;305,306,314,313;,
  4;306,307,315,314;,
  4;307,308,316,315;,
  4;308,309,317,316;,
  4;309,310,318,317;,
  4;310,311,319,318;,
  4;311,304,312,319;,
  3;312,313,320;,
  3;313,314,320;,
  3;314,315,320;,
  3;315,316,320;,
  3;316,317,320;,
  3;317,318,320;,
  3;318,319,320;,
  3;319,312,320;;
 }
 MeshTextureCoords {
  672;
  0.000000;0.000000;,
  0.333333;0.000000;,
  0.333333;1.000000;,
  0.000000;1.000000;,
  0.666667;0.000000;,
  1.000000;0.000000;,
  1.000000;1.000000;,
  0.666667;1.000000;,
  0.000000;0.000000;,
  1.000000;0.000000;,
  1.000000;1.000000;,
  0.000000;1.000000;,
  0.000000;0.000000;,
  0.333333;0.000000;,
  0.333333;1.000000;,
  0.000000;1.000000;,
  0.666667;0.000000;,
  1.000000;0.000000;,
  1.000000;1.000000;,
  0.666667;1.000000;,
  0.000000;0.000000;,
  1.000000;0.000000;,
  1.000000;1.000000;,
  0.000000;1.000000;,
  0.333333;0.000000;,
  0.333333;1.000000;,
  0.000000;1.000000;,
  0.666667;0.000000;,
  1.000000;1.000000;,
  0.666667;1.000000;,
  0.000000;0.000000;,
  0.333333;0.000000;,
  0.333333;1.000000;,
  0.666667;0.000000;,
  1.000000;0.000000;,
  0.666667;1.000000;,
  0.666667;1.000000;,
  0.666667;0.000000;,
  0.333333;0.000000;,
  0.333333;1.000000;,
  0.666667;1.000000;,
  0.666667;0.000000;,
  0.333333;0.000000;,
  0.333333;1.000000;,
  0.000000;0.000000;,
  1.000000;0.000000;,
  1.000000;1.000000;,
  0.000000;1.000000;,
  0.000000;0.000000;,
  0.333333;0.000000;,
  0.333333;1.000000;,
  0.000000;1.000000;,
  0.666667;0.000000;,
  1.000000;0.000000;,
  1.000000;1.000000;,
  0.666667;1.000000;,
  0.000000;0.000000;,
  1.000000;0.000000;,
  1.000000;1.000000;,
  0.000000;1.000000;,
  0.000000;0.000000;,
  0.333333;0.000000;,
  0.333333;1.000000;,
  0.000000;1.000000;,
  0.666667;0.000000;,
  1.000000;0.000000;,
  1.000000;1.000000;,
  0.666667;1.000000;,
  0.000000;0.000000;,
  1.000000;0.000000;,
  1.000000;1.000000;,
  0.000000;1.000000;,
  0.333333;0.000000;,
  0.333333;1.000000;,
  0.000000;1.000000;,
  0.666667;0.000000;,
  1.000000;1.000000;,
  0.666667;1.000000;,
  0.000000;0.000000;,
  0.333333;0.000000;,
  0.333333;1.000000;,
  0.666667;0.000000;,
  1.000000;0.000000;,
  0.666667;1.000000;,
  0.666667;1.000000;,
  0.666667;0.000000;,
  0.333333;0.000000;,
  0.333333;1.000000;,
  0.666667;1.000000;,
  0.666667;0.000000;,
  0.333333;0.000000;,
  0.333333;1.000000;,
  0.000000;0.000000;,
  1.000000;0.000000;,
  1.000000;1.000000;,
  0.000000;1.000000;,
  0.000000;0.000000;,
  0.125000;0.000000;,
  0.125000;1.000000;,
  0.000000;1.000000;,
  0.250000;0.000000;,
  0.250000;1.000000;,
  0.375000;0.000000;,
  0.375000;1.000000;,
  0.500000;0.000000;,
  0.500000;1.000000;,
  0.625000;0.000000;,
  0.625000;1.000000;,
  0.750000;0.000000;,
  0.750000;1.000000;,
  0.875000;0.000000;,
  0.875000;1.000000;,
  1.000000;0.000000;,
  1.000000;1.000000;,
  0.062500;0.000000;,
  0.187500;0.000000;,
  0.312500;0.000000;,
  0.437500;0.000000;,
  0.562500;0.000000;,
  0.687500;0.000000;,
  0.812500;0.000000;,
  0.937500;0.000000;,
  0.062500;1.000000;,
  0.187500;1.000000;,
  0.312500;1.000000;,
  0.437500;1.000000;,
  0.562500;1.000000;,
  0.687500;1.000000;,
  0.812500;1.000000;,
  0.937500;1.000000;,
  0.000000;0.000000;,
  0.125000;0.000000;,
  0.125000;1.000000;,
  0.000000;1.000000;,
  0.250000;0.000000;,
  0.250000;1.000000;,
  0.375000;0.000000;,
  0.375000;1.000000;,
  0.500000;0.000000;,
  0.500000;1.000000;,
  0.625000;0.000000;,
  0.625000;1.000000;,
  0.750000;0.000000;,
  0.750000;1.000000;,
  0.875000;0.000000;,
  0.875000;1.000000;,
  1.000000;0.000000;,
  1.000000;1.000000;,
  0.062500;0.000000;,
  0.187500;0.000000;,
  0.312500;0.000000;,
  0.437500;0.000000;,
  0.562500;0.000000;,
  0.687500;0.000000;,
  0.812500;0.000000;,
  0.937500;0.000000;,
  0.062500;1.000000;,
  0.187500;1.000000;,
  0.312500;1.000000;,
  0.437500;1.000000;,
  0.562500;1.000000;,
  0.687500;1.000000;,
  0.812500;1.000000;,
  0.937500;1.000000;,
  0.000000;0.000000;,
  0.125000;0.000000;,
  0.125000;1.000000;,
  0.000000;1.000000;,
  0.250000;0.000000;,
  0.250000;1.000000;,
  0.375000;0.000000;,
  0.375000;1.000000;,
  0.500000;0.000000;,
  0.500000;1.000000;,
  0.625000;0.000000;,
  0.625000;1.000000;,
  0.750000;0.000000;,
  0.750000;1.000000;,
  0.875000;0.000000;,
  0.875000;1.000000;,
  1.000000;0.000000;,
  1.000000;1.000000;,
  0.062500;0.000000;,
  0.187500;0.000000;,
  0.312500;0.000000;,
  0.437500;0.000000;,
  0.562500;0.000000;,
  0.687500;0.000000;,
  0.812500;0.000000;,
  0.937500;0.000000;,
  0.062500;1.000000;,
  0.187500;1.000000;,
  0.312500;1.000000;,
  0.437500;1.000000;,
  0.562500;1.000000;,
  0.687500;1.000000;,
  0.812500;1.000000;,
  0.937500;1.000000;,
  0.062500;0.000000;,
  0.125000;0.125000;,
  0.000000;0.125000;,
  0.187500;0.000000;,
  0.250000;0.125000;,
  0.312500;0.000000;,
  0.375000;0.125000;,
  0.437500;0.000000;,
  0.500000;0.125000;,
  0.562500;0.000000;,
  0.625000;0.125000;,
  0.687500;0.000000;,
  0.750000;0.125000;,
  0.812500;0.000000;,
  0.875000;0.125000;,
  0.937500;0.000000;,
  1.000000;0.125000;,
  0.125000;0.250000;,
  0.000000;0.250000;,
  0.250000;0.250000;,
  0.375000;0.250000;,
  0.500000;0.250000;,
  0.625000;0.250000;,
  0.750000;0.250000;,
  0.875000;0.250000;,
  1.000000;0.250000;,
  0.125000;0.375000;,
  0.000000;0.375000;,
  0.250000;0.375000;,
  0.375000;0.375000;,
  0.500000;0.375000;,
  0.625000;0.375000;,
  0.750000;0.375000;,
  0.875000;0.375000;,
  1.000000;0.375000;,
  0.125000;0.500000;,
  0.000000;0.500000;,
  0.250000;0.500000;,
  0.375000;0.500000;,
  0.500000;0.500000;,
  0.625000;0.500000;,
  0.750000;0.500000;,
  0.875000;0.500000;,
  1.000000;0.500000;,
  0.125000;0.625000;,
  0.000000;0.625000;,
  0.250000;0.625000;,
  0.375000;0.625000;,
  0.500000;0.625000;,
  0.625000;0.625000;,
  0.750000;0.625000;,
  0.875000;0.625000;,
  1.000000;0.625000;,
  0.125000;0.750000;,
  0.000000;0.750000;,
  0.250000;0.750000;,
  0.375000;0.750000;,
  0.500000;0.750000;,
  0.625000;0.750000;,
  0.750000;0.750000;,
  0.875000;0.750000;,
  1.000000;0.750000;,
  0.125000;0.875000;,
  0.000000;0.875000;,
  0.250000;0.875000;,
  0.375000;0.875000;,
  0.500000;0.875000;,
  0.625000;0.875000;,
  0.750000;0.875000;,
  0.875000;0.875000;,
  1.000000;0.875000;,
  0.062500;1.000000;,
  0.187500;1.000000;,
  0.312500;1.000000;,
  0.437500;1.000000;,
  0.562500;1.000000;,
  0.687500;1.000000;,
  0.812500;1.000000;,
  0.937500;1.000000;,
  0.062500;0.000000;,
  0.125000;0.125000;,
  0.000000;0.125000;,
  0.187500;0.000000;,
  0.250000;0.125000;,
  0.312500;0.000000;,
  0.375000;0.125000;,
  0.437500;0.000000;,
  0.500000;0.125000;,
  0.562500;0.000000;,
  0.625000;0.125000;,
  0.687500;0.000000;,
  0.750000;0.125000;,
  0.812500;0.000000;,
  0.875000;0.125000;,
  0.937500;0.000000;,
  1.000000;0.125000;,
  0.125000;0.250000;,
  0.000000;0.250000;,
  0.250000;0.250000;,
  0.375000;0.250000;,
  0.500000;0.250000;,
  0.625000;0.250000;,
  0.750000;0.250000;,
  0.875000;0.250000;,
  1.000000;0.250000;,
  0.125000;0.375000;,
  0.000000;0.375000;,
  0.250000;0.375000;,
  0.375000;0.375000;,
  0.500000;0.375000;,
  0.625000;0.375000;,
  0.750000;0.375000;,
  0.875000;0.375000;,
  1.000000;0.375000;,
  0.125000;0.500000;,
  0.000000;0.500000;,
  0.250000;0.500000;,
  0.375000;0.500000;,
  0.500000;0.500000;,
  0.625000;0.500000;,
  0.750000;0.500000;,
  0.875000;0.500000;,
  1.000000;0.500000;,
  0.125000;0.625000;,
  0.000000;0.625000;,
  0.250000;0.625000;,
  0.375000;0.625000;,
  0.500000;0.625000;,
  0.625000;0.625000;,
  0.750000;0.625000;,
  0.875000;0.625000;,
  1.000000;0.625000;,
  0.125000;0.750000;,
  0.000000;0.750000;,
  0.250000;0.750000;,
  0.375000;0.750000;,
  0.500000;0.750000;,
  0.625000;0.750000;,
  0.750000;0.750000;,
  0.875000;0.750000;,
  1.000000;0.750000;,
  0.125000;0.875000;,
  0.000000;0.875000;,
  0.250000;0.875000;,
  0.375000;0.875000;,
  0.500000;0.875000;,
  0.625000;0.875000;,
  0.750000;0.875000;,
  0.875000;0.875000;,
  1.000000;0.875000;,
  0.062500;1.000000;,
  0.187500;1.000000;,
  0.312500;1.000000;,
  0.437500;1.000000;,
  0.562500;1.000000;,
  0.687500;1.000000;,
  0.812500;1.000000;,
  0.937500;1.000000;,
  0.062500;0.000000;,
  0.125000;0.125000;,
  0.000000;0.125000;,
  0.187500;0.000000;,
  0.250000;0.125000;,
  0.312500;0.000000;,
  0.375000;0.125000;,
  0.437500;0.000000;,
  0.500000;0.125000;,
  0.562500;0.000000;,
  0.625000;0.125000;,
  0.687500;0.000000;,
  0.750000;0.125000;,
  0.812500;0.000000;,
  0.875000;0.125000;,
  0.937500;0.000000;,
  1.000000;0.125000;,
  0.125000;0.250000;,
  0.000000;0.250000;,
  0.250000;0.250000;,
  0.375000;0.250000;,
  0.500000;0.250000;,
  0.625000;0.250000;,
  0.750000;0.250000;,
  0.875000;0.250000;,
  1.000000;0.250000;,
  0.125000;0.375000;,
  0.000000;0.375000;,
  0.250000;0.375000;,
  0.375000;0.375000;,
  0.500000;0.375000;,
  0.625000;0.375000;,
  0.750000;0.375000;,
  0.875000;0.375000;,
  1.000000;0.375000;,
  0.125000;0.500000;,
  0.000000;0.500000;,
  0.250000;0.500000;,
  0.375000;0.500000;,
  0.500000;0.500000;,
  0.625000;0.500000;,
  0.750000;0.500000;,
  0.875000;0.500000;,
  1.000000;0.500000;,
  0.125000;0.625000;,
  0.000000;0.625000;,
  0.250000;0.625000;,
  0.375000;0.625000;,
  0.500000;0.625000;,
  0.625000;0.625000;,
  0.750000;0.625000;,
  0.875000;0.625000;,
  1.000000;0.625000;,
  0.125000;0.750000;,
  0.000000;0.750000;,
  0.250000;0.750000;,
  0.375000;0.750000;,
  0.500000;0.750000;,
  0.625000;0.750000;,
  0.750000;0.750000;,
  0.875000;0.750000;,
  1.000000;0.750000;,
  0.125000;0.875000;,
  0.000000;0.875000;,
  0.250000;0.875000;,
  0.375000;0.875000;,
  0.500000;0.875000;,
  0.625000;0.875000;,
  0.750000;0.875000;,
  0.875000;0.875000;,
  1.000000;0.875000;,
  0.062500;1.000000;,
  0.187500;1.000000;,
  0.312500;1.000000;,
  0.437500;1.000000;,
  0.562500;1.000000;,
  0.687500;1.000000;,
  0.812500;1.000000;,
  0.937500;1.000000;,
  0.062500;0.000000;,
  0.125000;0.125000;,
  0.000000;0.125000;,
  0.187500;0.000000;,
  0.250000;0.125000;,
  0.312500;0.000000;,
  0.375000;0.125000;,
  0.437500;0.000000;,
  0.500000;0.125000;,
  0.562500;0.000000;,
  0.625000;0.125000;,
  0.687500;0.000000;,
  0.750000;0.125000;,
  0.812500;0.000000;,
  0.875000;0.125000;,
  0.937500;0.000000;,
  1.000000;0.125000;,
  0.125000;0.250000;,
  0.000000;0.250000;,
  0.250000;0.250000;,
  0.375000;0.250000;,
  0.500000;0.250000;,
  0.625000;0.250000;,
  0.750000;0.250000;,
  0.875000;0.250000;,
  1.000000;0.250000;,
  0.125000;0.375000;,
  0.000000;0.375000;,
  0.250000;0.375000;,
  0.375000;0.375000;,
  0.500000;0.375000;,
  0.625000;0.375000;,
  0.750000;0.375000;,
  0.875000;0.375000;,
  1.000000;0.375000;,
  0.125000;0.500000;,
  0.000000;0.500000;,
  0.250000;0.500000;,
  0.375000;0.500000;,
  0.500000;0.500000;,
  0.625000;0.500000;,
  0.750000;0.500000;,
  0.875000;0.500000;,
  1.000000;0.500000;,
  0.125000;0.625000;,
  0.000000;0.625000;,
  0.250000;0.625000;,
  0.375000;0.625000;,
  0.500000;0.625000;,
  0.625000;0.625000;,
  0.750000;0.625000;,
  0.875000;0.625000;,
  1.000000;0.625000;,
  0.125000;0.750000;,
  0.000000;0.750000;,
  0.250000;0.750000;,
  0.375000;0.750000;,
  0.500000;0.750000;,
  0.625000;0.750000;,
  0.750000;0.750000;,
  0.875000;0.750000;,
  1.000000;0.750000;,
  0.125000;0.875000;,
  0.000000;0.875000;,
  0.250000;0.875000;,
  0.375000;0.875000;,
  0.500000;0.875000;,
  0.625000;0.875000;,
  0.750000;0.875000;,
  0.875000;0.875000;,
  1.000000;0.875000;,
  0.062500;1.000000;,
  0.187500;1.000000;,
  0.312500;1.000000;,
  0.437500;1.000000;,
  0.562500;1.000000;,
  0.687500;1.000000;,
  0.812500;1.000000;,
  0.937500;1.000000;,
  0.062500;0.000000;,
  0.125000;0.125000;,
  0.000000;0.125000;,
  0.187500;0.000000;,
  0.250000;0.125000;,
  0.312500;0.000000;,
  0.375000;0.125000;,
  0.437500;0.000000;,
  0.500000;0.125000;,
  0.562500;0.000000;,
  0.625000;0.125000;,
  0.687500;0.000000;,
  0.750000;0.125000;,
  0.812500;0.000000;,
  0.875000;0.125000;,
  0.937500;0.000000;,
  1.000000;0.125000;,
  0.125000;0.250000;,
  0.000000;0.250000;,
  0.250000;0.250000;,
  0.375000;0.250000;,
  0.500000;0.250000;,
  0.625000;0.250000;,
  0.750000;0.250000;,
  0.875000;0.250000;,
  1.000000;0.250000;,
  0.125000;0.375000;,
  0.000000;0.375000;,
  0.250000;0.375000;,
  0.375000;0.375000;,
  0.500000;0.375000;,
  0.625000;0.375000;,
  0.750000;0.375000;,
  0.875000;0.375000;,
  1.000000;0.375000;,
  0.125000;0.500000;,
  0.000000;0.500000;,
  0.250000;0.500000;,
  0.375000;0.500000;,
  0.500000;0.500000;,
  0.625000;0.500000;,
  0.750000;0.500000;,
  0.875000;0.500000;,
  1.000000;0.500000;,
  0.125000;0.625000;,
  0.000000;0.625000;,
  0.250000;0.625000;,
  0.375000;0.625000;,
  0.500000;0.625000;,
  0.625000;0.625000;,
  0.750000;0.625000;,
  0.875000;0.625000;,
  1.000000;0.625000;,
  0.125000;0.750000;,
  0.000000;0.750000;,
  0.250000;0.750000;,
  0.375000;0.750000;,
  0.500000;0.750000;,
  0.625000;0.750000;,
  0.750000;0.750000;,
  0.875000;0.750000;,
  1.000000;0.750000;,
  0.125000;0.875000;,
  0.000000;0.875000;,
  0.250000;0.875000;,
  0.375000;0.875000;,
  0.500000;0.875000;,
  0.625000;0.875000;,
  0.750000;0.875000;,
  0.875000;0.875000;,
  1.000000;0.875000;,
  0.062500;1.000000;,
  0.187500;1.000000;,
  0.312500;1.000000;,
  0.437500;1.000000;,
  0.562500;1.000000;,
  0.687500;1.000000;,
  0.812500;1.000000;,
  0.937500;1.000000;,
  0.062500;0.000000;,
  0.125000;0.125000;,
  0.000000;0.125000;,
  0.187500;0.000000;,
  0.250000;0.125000;,
  0.312500;0.000000;,
  0.375000;0.125000;,
  0.437500;0.000000;,
  0.500000;0.125000;,
  0.562500;0.000000;,
  0.625000;0.125000;,
  0.687500;0.000000;,
  0.750000;0.125000;,
  0.812500;0.000000;,
  0.875000;0.125000;,
  0.937500;0.000000;,
  1.000000;0.125000;,
  0.125000;0.250000;,
  0.000000;0.250000;,
  0.250000;0.250000;,
  0.375000;0.250000;,
  0.500000;0.250000;,
  0.625000;0.250000;,
  0.750000;0.250000;,
  0.875000;0.250000;,
  1.000000;0.250000;,
  0.125000;0.375000;,
  0.000000;0.375000;,
  0.250000;0.375000;,
  0.375000;0.375000;,
  0.500000;0.375000;,
  0.625000;0.375000;,
  0.750000;0.375000;,
  0.875000;0.375000;,
  1.000000;0.375000;,
  0.125000;0.500000;,
  0.000000;0.500000;,
  0.250000;0.500000;,
  0.375000;0.500000;,
  0.500000;0.500000;,
  0.625000;0.500000;,
  0.750000;0.500000;,
  0.875000;0.500000;,
  1.000000;0.500000;,
  0.125000;0.625000;,
  0.000000;0.625000;,
  0.250000;0.625000;,
  0.375000;0.625000;,
  0.500000;0.625000;,
  0.625000;0.625000;,
  0.750000;0.625000;,
  0.875000;0.625000;,
  1.000000;0.625000;,
  0.125000;0.750000;,
  0.000000;0.750000;,
  0.250000;0.750000;,
  0.375000;0.750000;,
  0.500000;0.750000;,
  0.625000;0.750000;,
  0.750000;0.750000;,
  0.875000;0.750000;,
  1.000000;0.750000;,
  0.125000;0.875000;,
  0.000000;0.875000;,
  0.250000;0.875000;,
  0.375000;0.875000;,
  0.500000;0.875000;,
  0.625000;0.875000;,
  0.750000;0.875000;,
  0.875000;0.875000;,
  1.000000;0.875000;,
  0.062500;1.000000;,
  0.187500;1.000000;,
  0.312500;1.000000;,
  0.437500;1.000000;,
  0.562500;1.000000;,
  0.687500;1.000000;,
  0.812500;1.000000;,
  0.937500;1.000000;;
 }
}
