xof 0302txt 0064
template Header {
 <3D82AB43-62DA-11cf-AB39-0020AF71E433>
 WORD major;
 WORD minor;
 DWORD flags;
}

template Vector {
 <3D82AB5E-62DA-11cf-AB39-0020AF71E433>
 FLOAT x;
 FLOAT y;
 FLOAT z;
}

template Coords2d {
 <F6F23F44-7686-11cf-8F52-0040333594A3>
 FLOAT u;
 FLOAT v;
}

template Matrix4x4 {
 <F6F23F45-7686-11cf-8F52-0040333594A3>
 array FLOAT matrix[16];
}

template ColorRGBA {
 <35FF44E0-6C7C-11cf-8F52-0040333594A3>
 FLOAT red;
 FLOAT green;
 FLOAT blue;
 FLOAT alpha;
}

template ColorRGB {
 <D3E16E81-7835-11cf-8F52-0040333594A3>
 FLOAT red;
 FLOAT green;
 FLOAT blue;
}

template IndexedColor {
 <1630B820-7842-11cf-8F52-0040333594A3>
 DWORD index;
 ColorRGBA indexColor;
}

template Boolean {
 <4885AE61-78E8-11cf-8F52-0040333594A3>
 WORD truefalse;
}

template Boolean2d {
 <4885AE63-78E8-11cf-8F52-0040333594A3>
 Boolean u;
 Boolean v;
}

template MaterialWrap {
 <4885AE60-78E8-11cf-8F52-0040333594A3>
 Boolean u;
 Boolean v;
}

template TextureFilename {
 <A42790E1-7810-11cf-8F52-0040333594A3>
 STRING filename;
}

template Material {
 <3D82AB4D-62DA-11cf-AB39-0020AF71E433>
 ColorRGBA faceColor;
 FLOAT power;
 ColorRGB specularColor;
 ColorRGB emissiveColor;
 [...]
}

template MeshFace {
 <3D82AB5F-62DA-11cf-AB39-0020AF71E433>
 DWORD nFaceVertexIndices;
 array DWORD faceVertexIndices[nFaceVertexIndices];
}

template MeshFaceWraps {
 <4885AE62-78E8-11cf-8F52-0040333594A3>
 DWORD nFaceWrapValues;
 Boolean2d faceWrapValues;
}

template MeshTextureCoords {
 <F6F23F40-7686-11cf-8F52-0040333594A3>
 DWORD nTextureCoords;
 array Coords2d textureCoords[nTextureCoords];
}

template MeshMaterialList {
 <F6F23F42-7686-11cf-8F52-0040333594A3>
 DWORD nMaterials;
 DWORD nFaceIndexes;
 array DWORD faceIndexes[nFaceIndexes];
 [Material]
}

template MeshNormals {
 <F6F23F43-7686-11cf-8F52-0040333594A3>
 DWORD nNormals;
 array Vector normals[nNormals];
 DWORD nFaceNormals;
 array MeshFace faceNormals[nFaceNormals];
}

template MeshVertexColors {
 <1630B821-7842-11cf-8F52-0040333594A3>
 DWORD nVertexColors;
 array IndexedColor vertexColors[nVertexColors];
}

template Mesh {
 <3D82AB44-62DA-11cf-AB39-0020AF71E433>
 DWORD nVertices;
 array Vector vertices[nVertices];
 DWORD nFaces;
 array MeshFace faces[nFaces];
 [...]
}

Header{
1;
0;
1;
}

Mesh {
 114;
 -0.00041;160.00000;-6.00012;,
 4.24224;160.00000;-4.24276;,
 4.24224;0.00000;-4.24276;,
 -0.00041;0.00000;-6.00012;,
 5.99959;160.00000;-0.00012;,
 5.99959;0.00000;-0.00012;,
 4.24224;160.00000;4.24252;,
 4.24224;0.00000;4.24252;,
 -0.00041;160.00000;5.99988;,
 -0.00041;0.00000;5.99988;,
 -4.24305;160.00000;4.24252;,
 -4.24305;0.00000;4.24252;,
 -6.00041;160.00000;-0.00012;,
 -6.00041;0.00000;-0.00012;,
 -4.24305;160.00000;-4.24276;,
 -4.24305;0.00000;-4.24276;,
 -0.00041;160.00000;-6.00012;,
 -0.00041;0.00000;-6.00012;,
 -0.00041;0.00000;-0.00012;,
 -0.00041;0.00000;-0.00012;,
 -0.00041;0.00000;-0.00012;,
 -0.00041;0.00000;-0.00012;,
 -0.00041;0.00000;-0.00012;,
 -0.00041;0.00000;-0.00012;,
 -0.00041;0.00000;-0.00012;,
 -0.00041;0.00000;-0.00012;,
 -0.00041;169.90022;-6.87894;,
 4.24224;170.90198;-5.22757;,
 5.99959;173.32042;-1.24079;,
 4.24224;175.73887;2.74599;,
 -0.00041;176.74063;4.39737;,
 -4.24305;175.73887;2.74599;,
 -6.00041;173.32042;-1.24079;,
 -4.24305;170.90198;-5.22757;,
 -0.00041;169.90022;-6.87894;,
 -0.00041;178.15790;-8.29721;,
 4.24223;180.04059;-6.95099;,
 5.99959;184.58578;-3.70094;,
 4.24224;189.13097;-0.45089;,
 -0.00041;191.01366;0.89533;,
 -4.24305;189.13097;-0.45089;,
 -6.00041;184.58578;-3.70094;,
 -4.24304;180.04059;-6.95099;,
 -0.00041;178.15790;-8.29721;,
 -0.00041;190.93850;-12.05136;,
 2.96944;192.71409;-11.43627;,
 4.19960;197.00070;-9.95134;,
 2.96944;201.28728;-8.46642;,
 -0.00041;203.06287;-7.85136;,
 -2.97026;201.28728;-8.46642;,
 -4.20041;197.00070;-9.95134;,
 -2.97025;192.71409;-11.43627;,
 -0.00041;190.93850;-12.05136;,
 -0.00924;199.98544;-20.40012;,
 2.27140;201.41320;-20.40012;,
 3.22039;204.72017;-20.40012;,
 2.27140;208.02713;-20.40012;,
 -0.01961;209.39659;-20.40012;,
 -2.31061;208.02713;-20.40012;,
 -3.25961;204.72017;-20.40012;,
 -2.31061;201.41320;-20.40012;,
 -0.00924;199.98544;-20.40012;,
 0.00876;207.90830;-37.80212;,
 8.25758;204.39406;-37.80212;,
 11.69000;202.08206;-37.80212;,
 8.25758;210.86900;-37.80212;,
 -0.02875;213.40501;-37.80212;,
 -8.31508;210.86900;-37.80212;,
 -11.74749;202.08206;-37.80212;,
 -8.31508;206.16033;-37.80212;,
 0.00876;207.90830;-37.80212;,
 -0.02875;213.40506;-59.51478;,
 8.25762;210.86905;-59.51478;,
 -0.02875;201.94491;-62.06149;,
 11.69005;202.08206;-59.51478;,
 -0.02875;201.94491;-62.06149;,
 8.25762;210.86905;-59.51478;,
 -0.02875;201.94491;-62.06149;,
 -0.02875;213.40506;-59.51478;,
 -0.02875;201.94491;-62.06149;,
 -8.31511;210.86905;-59.51478;,
 -0.02875;201.94491;-62.06149;,
 -11.74755;202.08206;-59.51478;,
 -0.02875;201.94491;-62.06149;,
 -8.31511;210.86905;-59.51478;,
 -0.02875;201.94491;-62.06149;,
 -0.02875;213.40506;-59.51478;,
 -0.02875;201.94491;-62.06149;,
 11.69000;202.08206;-37.80212;,
 8.29508;198.17500;-37.80013;,
 8.29516;198.17482;-58.13303;,
 11.72751;202.13461;-59.50199;,
 0.00868;196.53479;-37.80013;,
 0.00876;196.53461;-59.17124;,
 -8.27773;198.17500;-37.80013;,
 -8.27765;198.17482;-58.13303;,
 -11.74749;202.08206;-37.80212;,
 -11.71000;202.13461;-59.50199;,
 0.00876;202.13500;-37.80013;,
 8.25758;204.39406;-37.80212;,
 0.00876;207.90830;-37.80212;,
 0.00876;202.13500;-37.80013;,
 0.00876;202.13500;-37.80013;,
 0.00876;202.13500;-37.80013;,
 0.00876;202.13500;-37.80013;,
 0.00876;202.13500;-37.80013;,
 0.00876;202.13500;-37.80013;,
 -8.31508;206.16033;-37.80212;,
 0.00876;202.13500;-37.80013;,
 0.00876;207.90830;-37.80212;,
 -0.02875;201.94491;-62.06149;,
 -0.02875;201.94491;-62.06149;,
 -0.02875;201.94491;-62.06149;,
 -0.02875;201.94491;-62.06149;;
 
 88;
 4;0,1,2,3;,
 4;1,4,5,2;,
 4;4,6,7,5;,
 4;6,8,9,7;,
 4;8,10,11,9;,
 4;10,12,13,11;,
 4;12,14,15,13;,
 4;14,16,17,15;,
 3;18,3,2;,
 3;19,2,5;,
 3;20,5,7;,
 3;21,7,9;,
 3;22,9,11;,
 3;23,11,13;,
 3;24,13,15;,
 3;25,15,17;,
 4;26,27,1,0;,
 4;27,28,4,1;,
 4;28,29,6,4;,
 4;29,30,8,6;,
 4;30,31,10,8;,
 4;31,32,12,10;,
 4;32,33,14,12;,
 4;33,34,16,14;,
 4;35,36,27,26;,
 4;36,37,28,27;,
 4;37,38,29,28;,
 4;38,39,30,29;,
 4;39,40,31,30;,
 4;40,41,32,31;,
 4;41,42,33,32;,
 4;42,43,34,33;,
 4;44,45,36,35;,
 4;45,46,37,36;,
 4;46,47,38,37;,
 4;47,48,39,38;,
 4;48,49,40,39;,
 4;49,50,41,40;,
 4;50,51,42,41;,
 4;51,52,43,42;,
 4;53,54,45,44;,
 4;54,55,46,45;,
 4;55,56,47,46;,
 4;56,57,48,47;,
 4;57,58,49,48;,
 4;58,59,50,49;,
 4;59,60,51,50;,
 4;60,61,52,51;,
 4;62,63,54,53;,
 4;63,64,55,54;,
 4;64,65,56,55;,
 4;65,66,57,56;,
 4;66,67,58,57;,
 4;67,68,59,58;,
 4;68,69,60,59;,
 4;69,70,61,60;,
 4;71,72,63,62;,
 3;73,72,71;,
 4;72,74,64,63;,
 3;75,74,72;,
 4;74,76,65,64;,
 3;77,76,74;,
 4;76,78,66,65;,
 3;79,78,76;,
 4;78,80,67,66;,
 3;81,80,78;,
 4;80,82,68,67;,
 3;83,82,80;,
 4;82,84,69,68;,
 3;85,84,82;,
 4;84,86,70,69;,
 3;87,86,84;,
 4;88,89,90,91;,
 4;89,92,93,90;,
 4;92,94,95,93;,
 4;94,96,97,95;,
 3;98,99,100;,
 3;101,88,99;,
 3;102,89,88;,
 3;103,92,89;,
 3;104,94,92;,
 3;105,96,94;,
 3;106,107,96;,
 3;108,109,107;,
 3;110,91,90;,
 3;111,90,93;,
 3;112,93,95;,
 3;113,95,97;;
 
 MeshMaterialList {
  2;
  88;
  0,
  0,
  0,
  0,
  0,
  0,
  0,
  0,
  0,
  0,
  0,
  0,
  0,
  0,
  0,
  0,
  0,
  0,
  0,
  0,
  0,
  0,
  0,
  0,
  0,
  0,
  0,
  0,
  0,
  0,
  0,
  0,
  0,
  0,
  0,
  0,
  0,
  0,
  0,
  0,
  0,
  0,
  0,
  0,
  0,
  0,
  0,
  0,
  0,
  0,
  0,
  0,
  0,
  0,
  0,
  0,
  0,
  0,
  0,
  0,
  0,
  0,
  0,
  0,
  0,
  0,
  0,
  0,
  0,
  0,
  0,
  0,
  1,
  1,
  1,
  1,
  1,
  1,
  1,
  1,
  1,
  1,
  1,
  1,
  1,
  1,
  1,
  1;;
  Material {
   0.558400;0.558400;0.558400;1.000000;;
   5.000000;
   0.600000;0.600000;0.600000;;
   0.000000;0.000000;0.000000;;
  }
  Material {
   0.800000;0.793726;0.050196;0.800000;;
   5.000000;
   0.000000;0.000000;0.000000;;
   0.000000;0.000000;0.000000;;
  }
 }
 MeshNormals {
  102;
  -0.000000;-0.044669;-0.999002;,
  0.706450;-0.031866;-0.707045;,
  1.000000;0.000242;-0.000053;,
  0.706574;0.033553;0.706844;,
  -0.000000;0.047567;0.998868;,
  -0.706573;0.033553;0.706844;,
  -1.000000;0.000242;-0.000053;,
  -0.706450;-0.031866;-0.707045;,
  -0.000000;0.000000;-1.000000;,
  0.707107;0.000000;-0.707106;,
  1.000000;0.000000;0.000000;,
  0.707107;0.000000;0.707106;,
  -0.000000;0.000000;1.000000;,
  -0.707107;0.000000;0.707107;,
  -1.000000;0.000000;0.000000;,
  -0.707107;0.000000;-0.707107;,
  0.000000;-1.000000;-0.000000;,
  -0.000000;-0.133416;-0.991060;,
  0.705833;-0.097016;-0.701704;,
  0.999996;0.002380;-0.001748;,
  0.709458;0.115033;0.695297;,
  -0.000000;0.165377;0.986230;,
  -0.709457;0.115033;0.695297;,
  -0.999996;0.002380;-0.001748;,
  -0.705832;-0.097016;-0.701704;,
  -0.000000;-0.234582;-0.972096;,
  0.694056;-0.158267;-0.702309;,
  0.996726;0.041829;-0.069190;,
  0.751061;0.287650;0.594277;,
  -0.000000;0.416111;0.909314;,
  -0.751061;0.287650;0.594277;,
  -0.996726;0.041829;-0.069190;,
  -0.694056;-0.158267;-0.702309;,
  0.000323;-0.500468;-0.865755;,
  0.723345;-0.324137;-0.609678;,
  0.992524;0.048311;-0.112082;,
  0.787218;0.485581;0.380129;,
  0.000053;0.757075;0.653328;,
  -0.786950;0.485179;0.381197;,
  -0.992716;0.047987;-0.110513;,
  -0.723567;-0.324800;-0.609061;,
  -0.024704;-0.836776;-0.546988;,
  0.514098;-0.788505;-0.337582;,
  0.990651;0.118790;0.067072;,
  0.743583;0.601822;0.291367;,
  0.183352;0.933582;0.307907;,
  -0.743334;0.601427;0.292812;,
  -0.990546;0.118292;0.069468;,
  -0.500645;-0.782488;-0.370226;,
  -0.046461;-0.950878;-0.306058;,
  -0.204826;-0.966185;-0.156631;,
  0.322043;-0.940214;0.110838;,
  0.696966;0.698434;0.162570;,
  0.000010;0.992785;0.119910;,
  -0.696904;0.698415;0.162912;,
  -0.923336;0.336935;0.184187;,
  -0.044178;-0.977110;-0.208096;,
  0.000000;-0.151590;0.988444;,
  -0.046324;-0.968050;-0.246441;,
  -0.578738;-0.799702;-0.159811;,
  -0.778753;-0.624774;-0.056583;,
  -0.931457;0.363852;0.000002;,
  -0.679951;0.733258;0.000003;,
  -0.500813;0.769368;0.396559;,
  0.923412;0.336959;0.183762;,
  -0.212861;-0.976898;-0.019008;,
  -0.139160;-0.150115;0.978826;,
  0.000000;-0.216931;0.976187;,
  -0.210720;-0.082313;0.974075;,
  0.931457;0.363852;0.000002;,
  0.679951;0.733258;0.000003;,
  -0.000000;0.151590;-0.988444;,
  0.139160;0.150115;-0.978826;,
  0.210720;0.082313;-0.974075;,
  -0.000000;1.000000;0.000003;,
  -0.000000;0.216931;-0.976187;,
  -0.139160;0.150115;-0.978826;,
  -0.210720;0.082313;-0.974075;,
  0.858938;-0.510522;-0.039895;,
  0.597660;-0.789074;-0.142001;,
  0.139160;-0.150115;0.978826;,
  0.210720;-0.082313;0.974075;,
  0.000010;0.000226;1.000000;,
  0.000037;0.000346;1.000000;,
  0.000160;0.000301;1.000000;,
  0.755219;-0.655472;-0.000136;,
  0.501819;-0.864973;-0.000067;,
  -0.000000;-1.000000;0.000009;,
  -0.499332;-0.866411;-0.000759;,
  -0.751439;-0.659801;-0.001445;,
  -0.000122;0.000245;1.000000;,
  -0.000355;-0.474075;-0.880484;,
  0.000172;0.000308;1.000000;,
  0.000086;0.000180;1.000000;,
  0.000000;0.000000;1.000000;,
  -0.000086;0.000179;1.000000;,
  -0.000171;0.000251;1.000000;,
  0.195263;-0.467344;-0.862243;,
  0.197402;-0.463996;-0.863563;,
  -0.000138;-0.471193;-0.882030;,
  -0.198098;-0.465430;-0.862631;,
  -0.196385;-0.468088;-0.861584;;
  88;
  4;0,1,9,8;,
  4;1,2,10,9;,
  4;2,3,11,10;,
  4;3,4,12,11;,
  4;4,5,13,12;,
  4;5,6,14,13;,
  4;6,7,15,14;,
  4;7,0,8,15;,
  3;16,16,16;,
  3;16,16,16;,
  3;16,16,16;,
  3;16,16,16;,
  3;16,16,16;,
  3;16,16,16;,
  3;16,16,16;,
  3;16,16,16;,
  4;17,18,1,0;,
  4;18,19,2,1;,
  4;19,20,3,2;,
  4;20,21,4,3;,
  4;21,22,5,4;,
  4;22,23,6,5;,
  4;23,24,7,6;,
  4;24,17,0,7;,
  4;25,26,18,17;,
  4;26,27,19,18;,
  4;27,28,20,19;,
  4;28,29,21,20;,
  4;29,30,22,21;,
  4;30,31,23,22;,
  4;31,32,24,23;,
  4;32,25,17,24;,
  4;33,34,26,25;,
  4;34,35,27,26;,
  4;35,36,28,27;,
  4;36,37,29,28;,
  4;37,38,30,29;,
  4;38,39,31,30;,
  4;39,40,32,31;,
  4;40,33,25,32;,
  4;41,42,34,33;,
  4;42,43,35,34;,
  4;43,44,36,35;,
  4;44,45,37,36;,
  4;63,46,38,37;,
  4;46,47,39,38;,
  4;47,48,40,39;,
  4;48,41,33,40;,
  4;49,50,42,41;,
  4;50,51,51,42;,
  4;64,52,44,43;,
  4;52,53,45,44;,
  4;53,54,46,45;,
  4;54,55,47,46;,
  4;65,56,48,65;,
  4;56,49,41,48;,
  4;58,59,50,49;,
  3;57,66,67;,
  4;59,60,60,50;,
  3;57,68,66;,
  4;69,70,52,64;,
  3;71,72,73;,
  4;70,74,53,52;,
  3;71,75,72;,
  4;74,62,54,53;,
  3;71,76,75;,
  4;62,61,55,54;,
  3;71,77,76;,
  4;78,79,78,78;,
  3;57,80,81;,
  4;79,58,49,56;,
  3;57,67,80;,
  4;85,86,86,85;,
  4;86,87,87,86;,
  4;87,88,88,87;,
  4;88,89,89,88;,
  3;82,84,83;,
  3;82,92,84;,
  3;82,93,92;,
  3;82,94,93;,
  3;82,95,94;,
  3;82,96,95;,
  3;82,90,96;,
  3;82,83,90;,
  3;91,97,98;,
  3;91,98,99;,
  3;91,99,100;,
  3;91,100,101;;
 }
 MeshTextureCoords {
  114;
  0.000000;0.000000;,
  0.125000;0.000000;,
  0.125000;1.000000;,
  0.000000;1.000000;,
  0.250000;0.000000;,
  0.250000;1.000000;,
  0.375000;0.000000;,
  0.375000;1.000000;,
  0.500000;0.000000;,
  0.500000;1.000000;,
  0.625000;0.000000;,
  0.625000;1.000000;,
  0.750000;0.000000;,
  0.750000;1.000000;,
  0.875000;0.000000;,
  0.875000;1.000000;,
  1.000000;0.000000;,
  1.000000;1.000000;,
  0.062500;1.000000;,
  0.187500;1.000000;,
  0.312500;1.000000;,
  0.437500;1.000000;,
  0.562500;1.000000;,
  0.687500;1.000000;,
  0.812500;1.000000;,
  0.937500;1.000000;,
  0.000000;0.000000;,
  0.125000;0.000000;,
  0.250000;0.000000;,
  0.375000;0.000000;,
  0.500000;0.000000;,
  0.625000;0.000000;,
  0.750000;0.000000;,
  0.875000;0.000000;,
  1.000000;0.000000;,
  0.000000;0.000000;,
  0.125000;0.000000;,
  0.250000;0.000000;,
  0.375000;0.000000;,
  0.500000;0.000000;,
  0.625000;0.000000;,
  0.750000;0.000000;,
  0.875000;0.000000;,
  1.000000;0.000000;,
  0.000000;0.000000;,
  0.125000;0.000000;,
  0.250000;0.000000;,
  0.375000;0.000000;,
  0.500000;0.000000;,
  0.625000;0.000000;,
  0.750000;0.000000;,
  0.875000;0.000000;,
  1.000000;0.000000;,
  0.000000;0.000000;,
  0.125000;0.000000;,
  0.250000;0.000000;,
  0.375000;0.000000;,
  0.500000;0.000000;,
  0.625000;0.000000;,
  0.750000;0.000000;,
  0.875000;0.000000;,
  1.000000;0.000000;,
  0.000000;0.000000;,
  0.125000;0.000000;,
  0.250000;0.000000;,
  0.375000;0.000000;,
  0.500000;0.000000;,
  0.625000;0.000000;,
  0.750000;0.000000;,
  0.875000;0.000000;,
  1.000000;0.000000;,
  0.000000;0.000000;,
  0.125000;0.000000;,
  0.062500;0.000000;,
  0.250000;0.000000;,
  0.187500;0.000000;,
  0.375000;0.000000;,
  0.312500;0.000000;,
  0.500000;0.000000;,
  0.437500;0.000000;,
  0.625000;0.000000;,
  0.562500;0.000000;,
  0.750000;0.000000;,
  0.687500;0.000000;,
  0.875000;0.000000;,
  0.812500;0.000000;,
  1.000000;0.000000;,
  0.937500;0.000000;,
  0.250000;0.000000;,
  0.375000;0.000000;,
  0.375000;1.000000;,
  0.250000;1.000000;,
  0.500000;0.000000;,
  0.500000;1.000000;,
  0.625000;0.000000;,
  0.625000;1.000000;,
  0.750000;0.000000;,
  0.750000;1.000000;,
  0.062500;0.000000;,
  0.125000;0.000000;,
  0.000000;0.000000;,
  0.187500;0.000000;,
  0.312500;0.000000;,
  0.437500;0.000000;,
  0.562500;0.000000;,
  0.687500;0.000000;,
  0.812500;0.000000;,
  0.875000;0.000000;,
  0.937500;0.000000;,
  1.000000;0.000000;,
  0.312500;1.000000;,
  0.437500;1.000000;,
  0.562500;1.000000;,
  0.687500;1.000000;;
 }
}
