xof 0302txt 0064
template Header {
 <3D82AB43-62DA-11cf-AB39-0020AF71E433>
 WORD major;
 WORD minor;
 DWORD flags;
}

template Vector {
 <3D82AB5E-62DA-11cf-AB39-0020AF71E433>
 FLOAT x;
 FLOAT y;
 FLOAT z;
}

template Coords2d {
 <F6F23F44-7686-11cf-8F52-0040333594A3>
 FLOAT u;
 FLOAT v;
}

template Matrix4x4 {
 <F6F23F45-7686-11cf-8F52-0040333594A3>
 array FLOAT matrix[16];
}

template ColorRGBA {
 <35FF44E0-6C7C-11cf-8F52-0040333594A3>
 FLOAT red;
 FLOAT green;
 FLOAT blue;
 FLOAT alpha;
}

template ColorRGB {
 <D3E16E81-7835-11cf-8F52-0040333594A3>
 FLOAT red;
 FLOAT green;
 FLOAT blue;
}

template IndexedColor {
 <1630B820-7842-11cf-8F52-0040333594A3>
 DWORD index;
 ColorRGBA indexColor;
}

template Boolean {
 <4885AE61-78E8-11cf-8F52-0040333594A3>
 WORD truefalse;
}

template Boolean2d {
 <4885AE63-78E8-11cf-8F52-0040333594A3>
 Boolean u;
 Boolean v;
}

template MaterialWrap {
 <4885AE60-78E8-11cf-8F52-0040333594A3>
 Boolean u;
 Boolean v;
}

template TextureFilename {
 <A42790E1-7810-11cf-8F52-0040333594A3>
 STRING filename;
}

template Material {
 <3D82AB4D-62DA-11cf-AB39-0020AF71E433>
 ColorRGBA faceColor;
 FLOAT power;
 ColorRGB specularColor;
 ColorRGB emissiveColor;
 [...]
}

template MeshFace {
 <3D82AB5F-62DA-11cf-AB39-0020AF71E433>
 DWORD nFaceVertexIndices;
 array DWORD faceVertexIndices[nFaceVertexIndices];
}

template MeshFaceWraps {
 <4885AE62-78E8-11cf-8F52-0040333594A3>
 DWORD nFaceWrapValues;
 Boolean2d faceWrapValues;
}

template MeshTextureCoords {
 <F6F23F40-7686-11cf-8F52-0040333594A3>
 DWORD nTextureCoords;
 array Coords2d textureCoords[nTextureCoords];
}

template MeshMaterialList {
 <F6F23F42-7686-11cf-8F52-0040333594A3>
 DWORD nMaterials;
 DWORD nFaceIndexes;
 array DWORD faceIndexes[nFaceIndexes];
 [Material]
}

template MeshNormals {
 <F6F23F43-7686-11cf-8F52-0040333594A3>
 DWORD nNormals;
 array Vector normals[nNormals];
 DWORD nFaceNormals;
 array MeshFace faceNormals[nFaceNormals];
}

template MeshVertexColors {
 <1630B821-7842-11cf-8F52-0040333594A3>
 DWORD nVertexColors;
 array IndexedColor vertexColors[nVertexColors];
}

template Mesh {
 <3D82AB44-62DA-11cf-AB39-0020AF71E433>
 DWORD nVertices;
 array Vector vertices[nVertices];
 DWORD nFaces;
 array MeshFace faces[nFaces];
 [...]
}

Header{
1;
0;
1;
}

Mesh {
 92;
 -3.74607;10.00000;-9.27184;,
 3.90731;10.00000;-9.20505;,
 3.90731;0.00000;-9.20505;,
 -3.74607;0.00000;-9.27184;,
 9.27184;10.00000;-3.74607;,
 9.27184;0.00000;-3.74607;,
 9.20505;10.00000;3.90731;,
 9.20505;0.00000;3.90731;,
 3.74607;10.00000;9.27184;,
 3.74607;0.00000;9.27184;,
 -3.90731;10.00000;9.20505;,
 -3.90731;0.00000;9.20505;,
 -9.27184;10.00000;3.74607;,
 -9.27184;0.00000;3.74607;,
 -9.20505;10.00000;-3.90731;,
 -9.20505;0.00000;-3.90731;,
 0.00000;10.00000;0.00000;,
 0.00000;0.00000;0.00000;,
 -3.00000;10.00000;9.22766;,
 3.00000;10.00000;9.22766;,
 3.00000;0.00000;9.22766;,
 -3.00000;0.00000;9.22766;,
 3.00000;10.00000;29.22767;,
 3.00000;0.00000;29.22767;,
 -3.00000;10.00000;29.22767;,
 -3.00000;0.00000;29.22767;,
 -2.99685;24.00000;-7.41747;,
 3.12585;24.00000;-7.36404;,
 3.12585;10.00000;-7.36404;,
 -2.99685;10.00000;-7.41747;,
 7.41747;24.00000;-2.99685;,
 7.41747;10.00000;-2.99685;,
 7.36404;24.00000;3.12585;,
 7.36404;10.00000;3.12585;,
 2.99685;24.00000;7.41747;,
 2.99685;10.00000;7.41747;,
 -3.12585;24.00000;7.36404;,
 -3.12585;10.00000;7.36404;,
 -7.41747;24.00000;2.99685;,
 -7.41747;10.00000;2.99685;,
 -7.36404;24.00000;-3.12585;,
 -7.36404;10.00000;-3.12585;,
 0.00000;24.00000;0.00000;,
 0.00000;10.00000;0.00000;,
 -10.00000;44.00000;-27.06567;,
 10.00000;44.00000;-27.06567;,
 10.00000;24.00000;-27.06567;,
 -10.00000;24.00000;-27.06567;,
 10.00000;44.00000;15.16998;,
 10.00000;24.00000;15.16998;,
 -10.00000;44.00000;15.16998;,
 -10.00000;24.00000;15.16998;,
 -13.05173;45.78367;-35.14713;,
 -10.23104;45.78367;-35.14713;,
 -10.23104;44.06331;-34.79737;,
 -13.05173;44.06331;-34.79737;,
 -10.18792;45.78367;-35.14713;,
 -10.20617;44.06331;-34.79737;,
 10.27423;45.78367;-35.14713;,
 10.22033;44.06331;-34.79737;,
 10.23104;45.78367;-35.14713;,
 10.23104;44.06331;-34.79737;,
 13.05173;45.78367;-35.14713;,
 13.05173;44.06331;-34.79737;,
 -10.23104;35.73109;-32.92358;,
 -12.79540;35.73109;-32.92358;,
 -10.20617;44.08192;-34.79737;,
 10.22033;44.08192;-34.79737;,
 10.23104;35.73109;-32.92358;,
 13.05173;35.73109;-32.92358;,
 13.05173;45.78367;21.08030;,
 13.16604;44.06331;20.96767;,
 13.16604;35.73109;20.96767;,
 10.23104;45.78367;21.08030;,
 10.34535;44.06331;20.96767;,
 10.27423;45.78367;21.08030;,
 10.22033;44.06331;21.08030;,
 -10.18792;45.78367;21.08030;,
 -10.20617;44.06331;21.08030;,
 -10.23104;45.78367;21.08030;,
 -10.23104;44.06331;21.08030;,
 -13.05173;45.78367;21.08030;,
 -13.05173;44.06331;21.08030;,
 10.34535;35.73109;20.96767;,
 10.22033;44.08192;21.08030;,
 -10.20617;44.08192;21.08030;,
 -10.23104;35.73109;21.08030;,
 -12.79540;35.73109;21.08030;,
 -8.78379;42.80275;-27.14575;,
 8.78379;42.80275;-27.14575;,
 8.78379;25.23517;-27.14575;,
 -8.78379;25.23517;-27.14575;;
 
 95;
 4;0,1,2,3;,
 4;1,4,5,2;,
 4;4,6,7,5;,
 4;6,8,9,7;,
 4;8,10,11,9;,
 4;10,12,13,11;,
 4;12,14,15,13;,
 4;14,0,3,15;,
 3;16,1,0;,
 3;16,4,1;,
 3;16,6,4;,
 3;16,8,6;,
 3;16,10,8;,
 3;16,12,10;,
 3;16,14,12;,
 3;16,0,14;,
 3;17,3,2;,
 3;17,2,5;,
 3;17,5,7;,
 3;17,7,9;,
 3;17,9,11;,
 3;17,11,13;,
 3;17,13,15;,
 3;17,15,3;,
 4;18,19,20,21;,
 4;19,22,23,20;,
 4;22,24,25,23;,
 4;24,18,21,25;,
 4;24,22,19,18;,
 4;21,20,23,25;,
 4;26,27,28,29;,
 4;27,30,31,28;,
 4;30,32,33,31;,
 4;32,34,35,33;,
 4;34,36,37,35;,
 4;36,38,39,37;,
 4;38,40,41,39;,
 4;40,26,29,41;,
 3;42,27,26;,
 3;42,30,27;,
 3;42,32,30;,
 3;42,34,32;,
 3;42,36,34;,
 3;42,38,36;,
 3;42,40,38;,
 3;42,26,40;,
 3;43,29,28;,
 3;43,28,31;,
 3;43,31,33;,
 3;43,33,35;,
 3;43,35,37;,
 3;43,37,39;,
 3;43,39,41;,
 3;43,41,29;,
 4;44,45,46,47;,
 4;45,48,49,46;,
 4;48,50,51,49;,
 4;50,44,47,51;,
 4;50,48,45,44;,
 4;47,46,49,51;,
 4;52,53,54,55;,
 4;53,56,57,54;,
 4;56,58,59,57;,
 4;58,60,61,59;,
 4;60,62,63,61;,
 4;55,54,64,65;,
 4;54,57,66,64;,
 4;57,59,67,66;,
 4;59,61,68,67;,
 4;61,63,69,68;,
 4;62,70,71,63;,
 4;63,71,72,69;,
 4;70,73,74,71;,
 4;73,75,76,74;,
 4;75,77,78,76;,
 4;77,79,80,78;,
 4;79,81,82,80;,
 4;71,74,83,72;,
 4;74,76,84,83;,
 4;76,78,85,84;,
 4;78,80,86,85;,
 4;80,82,87,86;,
 4;81,52,55,82;,
 4;82,55,65,87;,
 4;81,79,53,52;,
 4;79,77,56,53;,
 4;77,75,58,56;,
 4;75,73,60,58;,
 4;73,70,62,60;,
 4;65,64,86,87;,
 4;64,66,85,86;,
 4;66,67,84,85;,
 4;67,68,83,84;,
 4;68,69,72,83;,
 4;88,89,90,91;;
 
 MeshMaterialList {
  2;
  95;
  1,
  1,
  1,
  1,
  1,
  1,
  1,
  1,
  1,
  1,
  1,
  1,
  1,
  1,
  1,
  1,
  1,
  1,
  1,
  1,
  1,
  1,
  1,
  1,
  1,
  1,
  1,
  1,
  1,
  1,
  1,
  1,
  1,
  1,
  1,
  1,
  1,
  1,
  1,
  1,
  1,
  1,
  1,
  1,
  1,
  1,
  1,
  1,
  1,
  1,
  1,
  1,
  1,
  1,
  1,
  1,
  1,
  1,
  1,
  1,
  1,
  1,
  1,
  1,
  1,
  1,
  1,
  1,
  1,
  1,
  1,
  1,
  1,
  1,
  1,
  1,
  1,
  1,
  1,
  1,
  1,
  1,
  1,
  1,
  1,
  1,
  1,
  1,
  1,
  1,
  1,
  1,
  1,
  1,
  0;;
  Material {
   0.000000;0.000000;0.000000;1.000000;;
   5.000000;
   0.000000;0.000000;0.000000;;
   0.000000;0.000000;0.000000;;
  }
  Material {
   0.640000;0.640000;0.640000;1.000000;;
   5.000000;
   0.000000;0.000000;0.000000;;
   0.000000;0.000000;0.000000;;
  }
 }
 MeshNormals {
  65;
  0.000000;1.000000;0.000000;,
  -0.374607;0.000000;-0.927184;,
  0.390731;0.000000;-0.920505;,
  0.927184;0.000000;-0.374607;,
  0.920505;0.000000;0.390731;,
  0.374606;0.000000;0.927184;,
  -0.390731;0.000000;0.920505;,
  -0.927184;0.000000;0.374607;,
  -0.920505;0.000000;-0.390731;,
  0.000000;-1.000000;-0.000000;,
  0.000000;0.000000;-1.000000;,
  1.000000;0.000000;0.000000;,
  0.000000;0.000000;1.000000;,
  -1.000000;0.000000;0.000000;,
  0.000000;1.000000;0.000000;,
  0.000000;-1.000000;-0.000000;,
  0.000000;1.000000;0.000000;,
  -0.374607;0.000000;-0.927184;,
  0.390731;0.000000;-0.920505;,
  0.927184;0.000000;-0.374606;,
  0.920505;0.000000;0.390731;,
  0.374607;0.000000;0.927184;,
  -0.390731;0.000000;0.920505;,
  -0.927184;0.000000;0.374607;,
  -0.920505;0.000000;-0.390731;,
  0.000000;-1.000000;-0.000000;,
  0.000000;0.000000;-1.000000;,
  1.000000;0.000000;0.000000;,
  0.000000;0.000000;1.000000;,
  -1.000000;0.000000;0.000000;,
  0.000000;1.000000;0.000000;,
  0.000000;-1.000000;-0.000000;,
  0.000000;-0.199232;-0.979952;,
  0.000000;-0.199232;-0.979952;,
  0.000000;-0.199232;-0.979952;,
  0.000000;-0.242536;0.970142;,
  0.000000;-0.209330;-0.977845;,
  0.188767;-0.205308;-0.960321;,
  0.254666;-0.198468;-0.946444;,
  -0.383989;-0.192142;-0.903124;,
  0.000000;-0.219404;-0.975634;,
  0.385670;-0.203526;-0.899909;,
  0.924985;-0.085997;-0.370144;,
  0.000000;0.000000;1.000000;,
  -0.383970;-0.203056;-0.900742;,
  0.000000;-0.219404;-0.975634;,
  0.999447;0.033235;-0.001023;,
  0.000000;-0.065329;0.997864;,
  0.932634;0.061827;-0.355487;,
  0.999863;0.016505;-0.001555;,
  0.000000;-0.021787;0.999763;,
  0.999998;-0.000230;-0.002086;,
  0.000000;0.000000;-1.000000;,
  0.000000;-0.122183;0.992507;,
  -0.253568;-0.205341;-0.945271;,
  -0.924255;-0.088538;-0.371368;,
  0.000000;-0.032682;0.999466;,
  -1.000000;0.000000;0.000000;,
  -0.999882;-0.015376;0.000000;,
  -0.999527;-0.030748;0.000000;,
  0.000000;1.000000;0.000000;,
  0.000000;-1.000000;0.000000;,
  0.999996;-0.002978;-0.000000;,
  -0.999966;-0.008140;0.001060;,
  0.000000;0.000000;-1.000000;;
  95;
  4;1,2,2,1;,
  4;2,3,3,2;,
  4;3,4,4,3;,
  4;4,5,5,4;,
  4;5,6,6,5;,
  4;6,7,7,6;,
  4;7,8,8,7;,
  4;8,1,1,8;,
  3;0,0,0;,
  3;0,0,0;,
  3;0,0,0;,
  3;0,0,0;,
  3;0,0,0;,
  3;0,0,0;,
  3;0,0,0;,
  3;0,0,0;,
  3;9,9,9;,
  3;9,9,9;,
  3;9,9,9;,
  3;9,9,9;,
  3;9,9,9;,
  3;9,9,9;,
  3;9,9,9;,
  3;9,9,9;,
  4;10,10,10,10;,
  4;11,11,11,11;,
  4;12,12,12,12;,
  4;13,13,13,13;,
  4;14,14,14,14;,
  4;15,15,15,15;,
  4;17,18,18,17;,
  4;18,19,19,18;,
  4;19,20,20,19;,
  4;20,21,21,20;,
  4;21,22,22,21;,
  4;22,23,23,22;,
  4;23,24,24,23;,
  4;24,17,17,24;,
  3;16,16,16;,
  3;16,16,16;,
  3;16,16,16;,
  3;16,16,16;,
  3;16,16,16;,
  3;16,16,16;,
  3;16,16,16;,
  3;16,16,16;,
  3;25,25,25;,
  3;25,25,25;,
  3;25,25,25;,
  3;25,25,25;,
  3;25,25,25;,
  3;25,25,25;,
  3;25,25,25;,
  3;25,25,25;,
  4;26,26,26,26;,
  4;27,27,27,27;,
  4;28,28,28,28;,
  4;29,29,29,29;,
  4;30,30,30,30;,
  4;31,31,31,31;,
  4;32,32,37,36;,
  4;32,33,38,37;,
  4;33,34,39,38;,
  4;35,35,35,53;,
  4;32,32,36,54;,
  4;36,37,41,40;,
  4;37,38,42,41;,
  4;43,53,43,43;,
  4;39,54,44,55;,
  4;54,36,45,44;,
  4;46,46,49,49;,
  4;49,49,51,51;,
  4;47,47,50,56;,
  4;48,48,48,48;,
  4;43,43,43,43;,
  4;43,43,43,43;,
  4;43,43,43,43;,
  4;56,50,43,43;,
  4;50,43,43,43;,
  4;52,52,52,52;,
  4;43,43,43,43;,
  4;43,43,43,43;,
  4;57,57,58,58;,
  4;58,58,59,59;,
  4;60,60,60,60;,
  4;60,60,60,60;,
  4;60,60,60,60;,
  4;61,61,61,61;,
  4;60,60,60,60;,
  4;61,61,61,61;,
  4;62,42,62,62;,
  4;61,61,61,61;,
  4;55,63,63,63;,
  4;61,61,61,61;,
  4;64,64,64,64;;
 }
}
