xof 0302txt 0064
template Header {
 <3D82AB43-62DA-11cf-AB39-0020AF71E433>
 WORD major;
 WORD minor;
 DWORD flags;
}

template Vector {
 <3D82AB5E-62DA-11cf-AB39-0020AF71E433>
 FLOAT x;
 FLOAT y;
 FLOAT z;
}

template Coords2d {
 <F6F23F44-7686-11cf-8F52-0040333594A3>
 FLOAT u;
 FLOAT v;
}

template Matrix4x4 {
 <F6F23F45-7686-11cf-8F52-0040333594A3>
 array FLOAT matrix[16];
}

template ColorRGBA {
 <35FF44E0-6C7C-11cf-8F52-0040333594A3>
 FLOAT red;
 FLOAT green;
 FLOAT blue;
 FLOAT alpha;
}

template ColorRGB {
 <D3E16E81-7835-11cf-8F52-0040333594A3>
 FLOAT red;
 FLOAT green;
 FLOAT blue;
}

template IndexedColor {
 <1630B820-7842-11cf-8F52-0040333594A3>
 DWORD index;
 ColorRGBA indexColor;
}

template Boolean {
 <4885AE61-78E8-11cf-8F52-0040333594A3>
 WORD truefalse;
}

template Boolean2d {
 <4885AE63-78E8-11cf-8F52-0040333594A3>
 Boolean u;
 Boolean v;
}

template MaterialWrap {
 <4885AE60-78E8-11cf-8F52-0040333594A3>
 Boolean u;
 Boolean v;
}

template TextureFilename {
 <A42790E1-7810-11cf-8F52-0040333594A3>
 STRING filename;
}

template Material {
 <3D82AB4D-62DA-11cf-AB39-0020AF71E433>
 ColorRGBA faceColor;
 FLOAT power;
 ColorRGB specularColor;
 ColorRGB emissiveColor;
 [...]
}

template MeshFace {
 <3D82AB5F-62DA-11cf-AB39-0020AF71E433>
 DWORD nFaceVertexIndices;
 array DWORD faceVertexIndices[nFaceVertexIndices];
}

template MeshFaceWraps {
 <4885AE62-78E8-11cf-8F52-0040333594A3>
 DWORD nFaceWrapValues;
 Boolean2d faceWrapValues;
}

template MeshTextureCoords {
 <F6F23F40-7686-11cf-8F52-0040333594A3>
 DWORD nTextureCoords;
 array Coords2d textureCoords[nTextureCoords];
}

template MeshMaterialList {
 <F6F23F42-7686-11cf-8F52-0040333594A3>
 DWORD nMaterials;
 DWORD nFaceIndexes;
 array DWORD faceIndexes[nFaceIndexes];
 [Material]
}

template MeshNormals {
 <F6F23F43-7686-11cf-8F52-0040333594A3>
 DWORD nNormals;
 array Vector normals[nNormals];
 DWORD nFaceNormals;
 array MeshFace faceNormals[nFaceNormals];
}

template MeshVertexColors {
 <1630B821-7842-11cf-8F52-0040333594A3>
 DWORD nVertexColors;
 array IndexedColor vertexColors[nVertexColors];
}

template Mesh {
 <3D82AB44-62DA-11cf-AB39-0020AF71E433>
 DWORD nVertices;
 array Vector vertices[nVertices];
 DWORD nFaces;
 array MeshFace faces[nFaces];
 [...]
}

Header{
1;
0;
1;
}

Mesh {
 36;
 0.00000;1.70042;-6.04264;,
 4.27280;1.70042;-4.27280;,
 7.07107;0.00466;-7.07107;,
 0.00000;0.00466;-10.00000;,
 6.04264;1.70042;0.00000;,
 10.00000;0.00466;0.00000;,
 4.27280;1.70042;4.27280;,
 7.07107;0.00466;7.07107;,
 -0.00000;1.70042;6.04264;,
 -0.00000;0.00466;10.00000;,
 -4.27280;1.70042;4.27279;,
 -7.07107;0.00466;7.07107;,
 -6.04264;1.70042;-0.00000;,
 -10.00000;0.00466;-0.00000;,
 -4.27280;1.70042;-4.27279;,
 -7.07107;0.00466;-7.07107;,
 0.00000;1.70042;0.00000;,
 0.00000;0.00466;0.00000;,
 0.00000;2.46964;-5.52380;,
 3.90592;2.46964;-3.90592;,
 3.90592;1.66410;-3.90592;,
 0.00000;1.66410;-5.52380;,
 5.52380;2.46964;0.00000;,
 5.52380;1.66410;0.00000;,
 3.90592;2.46964;3.90592;,
 3.90592;1.66410;3.90592;,
 -0.00000;2.46964;5.52380;,
 -0.00000;1.66410;5.52380;,
 -3.90592;2.46964;3.90592;,
 -3.90592;1.66410;3.90592;,
 -5.52380;2.46964;-0.00000;,
 -5.52380;1.66410;-0.00000;,
 -3.90592;2.46964;-3.90592;,
 -3.90592;1.66410;-3.90592;,
 0.00000;2.46964;0.00000;,
 0.00000;1.66410;0.00000;;
 
 48;
 4;0,1,2,3;,
 4;1,4,5,2;,
 4;4,6,7,5;,
 4;6,8,9,7;,
 4;8,10,11,9;,
 4;10,12,13,11;,
 4;12,14,15,13;,
 4;14,0,3,15;,
 3;16,1,0;,
 3;16,4,1;,
 3;16,6,4;,
 3;16,8,6;,
 3;16,10,8;,
 3;16,12,10;,
 3;16,14,12;,
 3;16,0,14;,
 3;17,3,2;,
 3;17,2,5;,
 3;17,5,7;,
 3;17,7,9;,
 3;17,9,11;,
 3;17,11,13;,
 3;17,13,15;,
 3;17,15,3;,
 4;18,19,20,21;,
 4;19,22,23,20;,
 4;22,24,25,23;,
 4;24,26,27,25;,
 4;26,28,29,27;,
 4;28,30,31,29;,
 4;30,32,33,31;,
 4;32,18,21,33;,
 3;34,19,18;,
 3;34,22,19;,
 3;34,24,22;,
 3;34,26,24;,
 3;34,28,26;,
 3;34,30,28;,
 3;34,32,30;,
 3;34,18,32;,
 3;35,21,20;,
 3;35,20,23;,
 3;35,23,25;,
 3;35,25,27;,
 3;35,27,29;,
 3;35,29,31;,
 3;35,31,33;,
 3;35,33,21;;
 
 MeshMaterialList {
  2;
  48;
  0,
  0,
  0,
  0,
  0,
  0,
  0,
  0,
  0,
  0,
  0,
  0,
  0,
  0,
  0,
  0,
  0,
  0,
  0,
  0,
  0,
  0,
  0,
  0,
  1,
  1,
  1,
  1,
  1,
  1,
  1,
  1,
  1,
  1,
  1,
  1,
  1,
  1,
  1,
  1,
  1,
  1,
  1,
  1,
  1,
  1,
  1,
  1;;
  Material {
   0.229020;0.229020;0.229020;1.000000;;
   5.000000;
   0.000000;0.000000;0.000000;;
   0.000000;0.000000;0.000000;;
  }
  Material {
   0.800000;0.000000;0.000000;1.000000;;
   5.000000;
   0.000000;0.000000;0.000000;;
   0.000000;0.000000;0.000000;;
  }
 }
 MeshNormals {
  28;
  0.000000;1.000000;0.000000;,
  -0.000000;0.979853;-0.199720;,
  0.141223;0.979853;-0.141223;,
  0.199720;0.979853;0.000000;,
  0.141223;0.979853;0.141223;,
  -0.000000;0.979853;0.199720;,
  -0.141223;0.979853;0.141223;,
  -0.199720;0.979853;-0.000000;,
  -0.141223;0.979853;-0.141223;,
  -0.000000;0.919166;-0.393871;,
  0.278509;0.919166;-0.278509;,
  0.393871;0.919166;0.000000;,
  0.278509;0.919166;0.278509;,
  -0.000000;0.919166;0.393871;,
  -0.278509;0.919166;0.278509;,
  -0.393871;0.919166;-0.000000;,
  -0.278509;0.919166;-0.278509;,
  0.000000;-1.000000;-0.000000;,
  0.000000;1.000000;0.000000;,
  -0.000000;0.000000;-1.000000;,
  0.707107;0.000000;-0.707107;,
  1.000000;0.000000;0.000000;,
  0.707107;0.000000;0.707107;,
  -0.000000;0.000000;1.000000;,
  -0.707107;0.000000;0.707107;,
  -1.000000;0.000000;-0.000000;,
  -0.707107;0.000000;-0.707107;,
  0.000000;-1.000000;-0.000000;;
  48;
  4;1,2,10,9;,
  4;2,3,11,10;,
  4;3,4,12,11;,
  4;4,5,13,12;,
  4;5,6,14,13;,
  4;6,7,15,14;,
  4;7,8,16,15;,
  4;8,1,9,16;,
  3;0,2,1;,
  3;0,3,2;,
  3;0,4,3;,
  3;0,5,4;,
  3;0,6,5;,
  3;0,7,6;,
  3;0,8,7;,
  3;0,1,8;,
  3;17,17,17;,
  3;17,17,17;,
  3;17,17,17;,
  3;17,17,17;,
  3;17,17,17;,
  3;17,17,17;,
  3;17,17,17;,
  3;17,17,17;,
  4;19,20,20,19;,
  4;20,21,21,20;,
  4;21,22,22,21;,
  4;22,23,23,22;,
  4;23,24,24,23;,
  4;24,25,25,24;,
  4;25,26,26,25;,
  4;26,19,19,26;,
  3;18,18,18;,
  3;18,18,18;,
  3;18,18,18;,
  3;18,18,18;,
  3;18,18,18;,
  3;18,18,18;,
  3;18,18,18;,
  3;18,18,18;,
  3;27,27,27;,
  3;27,27,27;,
  3;27,27,27;,
  3;27,27,27;,
  3;27,27,27;,
  3;27,27,27;,
  3;27,27,27;,
  3;27,27,27;;
 }
}
