xof 0302txt 0064
template Header {
 <3D82AB43-62DA-11cf-AB39-0020AF71E433>
 WORD major;
 WORD minor;
 DWORD flags;
}

template Vector {
 <3D82AB5E-62DA-11cf-AB39-0020AF71E433>
 FLOAT x;
 FLOAT y;
 FLOAT z;
}

template Coords2d {
 <F6F23F44-7686-11cf-8F52-0040333594A3>
 FLOAT u;
 FLOAT v;
}

template Matrix4x4 {
 <F6F23F45-7686-11cf-8F52-0040333594A3>
 array FLOAT matrix[16];
}

template ColorRGBA {
 <35FF44E0-6C7C-11cf-8F52-0040333594A3>
 FLOAT red;
 FLOAT green;
 FLOAT blue;
 FLOAT alpha;
}

template ColorRGB {
 <D3E16E81-7835-11cf-8F52-0040333594A3>
 FLOAT red;
 FLOAT green;
 FLOAT blue;
}

template IndexedColor {
 <1630B820-7842-11cf-8F52-0040333594A3>
 DWORD index;
 ColorRGBA indexColor;
}

template Boolean {
 <4885AE61-78E8-11cf-8F52-0040333594A3>
 WORD truefalse;
}

template Boolean2d {
 <4885AE63-78E8-11cf-8F52-0040333594A3>
 Boolean u;
 Boolean v;
}

template MaterialWrap {
 <4885AE60-78E8-11cf-8F52-0040333594A3>
 Boolean u;
 Boolean v;
}

template TextureFilename {
 <A42790E1-7810-11cf-8F52-0040333594A3>
 STRING filename;
}

template Material {
 <3D82AB4D-62DA-11cf-AB39-0020AF71E433>
 ColorRGBA faceColor;
 FLOAT power;
 ColorRGB specularColor;
 ColorRGB emissiveColor;
 [...]
}

template MeshFace {
 <3D82AB5F-62DA-11cf-AB39-0020AF71E433>
 DWORD nFaceVertexIndices;
 array DWORD faceVertexIndices[nFaceVertexIndices];
}

template MeshFaceWraps {
 <4885AE62-78E8-11cf-8F52-0040333594A3>
 DWORD nFaceWrapValues;
 Boolean2d faceWrapValues;
}

template MeshTextureCoords {
 <F6F23F40-7686-11cf-8F52-0040333594A3>
 DWORD nTextureCoords;
 array Coords2d textureCoords[nTextureCoords];
}

template MeshMaterialList {
 <F6F23F42-7686-11cf-8F52-0040333594A3>
 DWORD nMaterials;
 DWORD nFaceIndexes;
 array DWORD faceIndexes[nFaceIndexes];
 [Material]
}

template MeshNormals {
 <F6F23F43-7686-11cf-8F52-0040333594A3>
 DWORD nNormals;
 array Vector normals[nNormals];
 DWORD nFaceNormals;
 array MeshFace faceNormals[nFaceNormals];
}

template MeshVertexColors {
 <1630B821-7842-11cf-8F52-0040333594A3>
 DWORD nVertexColors;
 array IndexedColor vertexColors[nVertexColors];
}

template Mesh {
 <3D82AB44-62DA-11cf-AB39-0020AF71E433>
 DWORD nVertices;
 array Vector vertices[nVertices];
 DWORD nFaces;
 array MeshFace faces[nFaces];
 [...]
}

Header{
1;
0;
1;
}

Mesh {
 114;
 -13.55858;5.75100;-12.03011;,
 5.75994;5.75100;-17.20649;,
 5.75994;1.00000;-17.20649;,
 -13.55858;1.00000;-12.03011;,
 5.75994;5.75100;-17.20649;,
 13.52451;5.75100;11.77129;,
 13.52451;1.00000;11.77129;,
 5.75994;1.00000;-17.20649;,
 13.52451;5.75100;11.77129;,
 -5.79401;5.75100;16.94767;,
 -5.79401;1.00000;16.94767;,
 13.52451;1.00000;11.77129;,
 5.75994;0.00000;-17.20649;,
 -13.55858;0.00000;-12.03011;,
 -13.55858;1.00000;-12.03011;,
 5.75994;1.00000;-17.20649;,
 13.52451;0.00000;11.77129;,
 -5.79401;0.00000;16.94767;,
 -5.79401;1.00000;16.94767;,
 13.52451;6.99978;11.77129;,
 -5.79401;6.99978;16.94767;,
 -5.79401;5.75100;16.94767;,
 5.75994;6.99978;-17.20649;,
 5.75994;5.75100;-17.20649;,
 -13.55858;6.99978;-12.03011;,
 -13.55858;5.75100;-12.03011;,
 -14.52451;1.00000;-11.77129;,
 -14.52451;5.75100;-11.77129;,
 -13.55858;5.75100;-12.03011;,
 -13.55858;1.00000;-12.03011;,
 -6.75994;5.75100;17.20649;,
 -6.75994;1.00000;17.20649;,
 -5.79401;6.99978;16.94767;,
 -13.55858;6.99978;-12.03011;,
 -14.52451;5.75100;-11.77129;,
 -5.79401;0.00000;16.94767;,
 -6.75994;1.00000;17.20649;,
 -13.55858;0.00000;-12.03011;,
 -11.27119;19.75100;-14.11494;,
 8.65271;19.75100;-15.85806;,
 8.65271;15.00000;-15.85806;,
 -11.27119;15.00000;-14.11494;,
 8.65271;19.75100;-15.85806;,
 11.26738;19.75100;14.02779;,
 11.26738;15.00000;14.02779;,
 8.65271;15.00000;-15.85806;,
 11.26738;19.75100;14.02779;,
 -8.65651;19.75100;15.77090;,
 -8.65651;15.00000;15.77090;,
 11.26738;15.00000;14.02779;,
 8.65271;14.00000;-15.85806;,
 -11.27119;14.00000;-14.11494;,
 -11.27119;15.00000;-14.11494;,
 8.65271;15.00000;-15.85806;,
 11.26738;14.00000;14.02779;,
 -8.65651;14.00000;15.77090;,
 -8.65651;15.00000;15.77090;,
 11.26738;20.99978;14.02779;,
 -8.65651;20.99978;15.77090;,
 -8.65651;19.75100;15.77090;,
 8.65271;20.99978;-15.85806;,
 8.65271;19.75100;-15.85806;,
 -11.27119;20.99978;-14.11494;,
 -11.27119;19.75100;-14.11494;,
 -12.26738;15.00000;-14.02779;,
 -12.26738;19.75100;-14.02779;,
 -11.27119;19.75100;-14.11494;,
 -11.27119;15.00000;-14.11494;,
 -9.65271;19.75100;15.85806;,
 -9.65271;15.00000;15.85806;,
 -8.65651;20.99978;15.77090;,
 -11.27119;20.99978;-14.11494;,
 -12.26738;19.75100;-14.02779;,
 -8.65651;14.00000;15.77090;,
 -9.65271;15.00000;15.85806;,
 -11.27119;14.00000;-14.11494;,
 4.79401;12.75100;16.94767;,
 -14.52451;12.75100;11.77129;,
 -14.52451;8.00000;11.77129;,
 4.79401;8.00000;16.94767;,
 -14.52451;12.75100;11.77129;,
 -6.75994;12.75100;-17.20649;,
 -6.75994;8.00000;-17.20649;,
 -14.52451;8.00000;11.77129;,
 -6.75994;12.75100;-17.20649;,
 12.55858;12.75100;-12.03011;,
 12.55858;8.00000;-12.03011;,
 -6.75994;8.00000;-17.20649;,
 -14.52451;7.00000;11.77129;,
 4.79401;7.00000;16.94767;,
 4.79401;8.00000;16.94767;,
 -14.52451;8.00000;11.77129;,
 -6.75994;7.00000;-17.20649;,
 12.55858;7.00000;-12.03011;,
 12.55858;8.00000;-12.03011;,
 -6.75994;13.99978;-17.20649;,
 12.55858;13.99978;-12.03011;,
 12.55858;12.75100;-12.03011;,
 -14.52451;13.99978;11.77129;,
 -14.52451;12.75100;11.77129;,
 4.79401;13.99978;16.94767;,
 4.79401;12.75100;16.94767;,
 5.75994;8.00000;17.20649;,
 5.75994;12.75100;17.20649;,
 4.79401;12.75100;16.94767;,
 4.79401;8.00000;16.94767;,
 13.52451;12.75100;-11.77129;,
 13.52451;8.00000;-11.77129;,
 12.55858;13.99978;-12.03011;,
 4.79401;13.99978;16.94767;,
 5.75994;12.75100;17.20649;,
 12.55858;7.00000;-12.03011;,
 13.52451;8.00000;-11.77129;,
 4.79401;7.00000;16.94767;;
 
 60;
 4;0,1,2,3;,
 4;4,5,6,7;,
 4;8,9,10,11;,
 4;12,13,14,15;,
 4;16,12,15,6;,
 4;17,16,6,18;,
 4;13,12,16,17;,
 4;19,20,21,5;,
 4;22,19,5,23;,
 4;24,22,23,25;,
 4;20,19,22,24;,
 4;26,27,28,29;,
 4;30,31,18,21;,
 4;30,27,26,31;,
 4;30,32,33,34;,
 4;35,36,26,37;,
 3;27,24,0;,
 3;26,3,13;,
 3;9,20,30;,
 3;17,10,31;,
 4;38,39,40,41;,
 4;42,43,44,45;,
 4;46,47,48,49;,
 4;50,51,52,53;,
 4;54,50,53,44;,
 4;55,54,44,56;,
 4;51,50,54,55;,
 4;57,58,59,43;,
 4;60,57,43,61;,
 4;62,60,61,63;,
 4;58,57,60,62;,
 4;64,65,66,67;,
 4;68,69,56,59;,
 4;68,65,64,69;,
 4;68,70,71,72;,
 4;73,74,64,75;,
 3;65,62,38;,
 3;64,41,51;,
 3;47,58,68;,
 3;55,48,69;,
 4;76,77,78,79;,
 4;80,81,82,83;,
 4;84,85,86,87;,
 4;88,89,90,91;,
 4;92,88,91,82;,
 4;93,92,82,94;,
 4;89,88,92,93;,
 4;95,96,97,81;,
 4;98,95,81,99;,
 4;100,98,99,101;,
 4;96,95,98,100;,
 4;102,103,104,105;,
 4;106,107,94,97;,
 4;106,103,102,107;,
 4;106,108,109,110;,
 4;111,112,102,113;,
 3;103,100,76;,
 3;102,79,89;,
 3;85,96,106;,
 3;93,86,107;;
 
 MeshMaterialList {
  4;
  60;
  1,
  1,
  1,
  0,
  0,
  0,
  0,
  0,
  0,
  0,
  0,
  0,
  0,
  0,
  0,
  0,
  0,
  0,
  0,
  0,
  1,
  1,
  1,
  2,
  2,
  2,
  2,
  2,
  2,
  2,
  2,
  2,
  2,
  2,
  2,
  2,
  2,
  2,
  2,
  2,
  1,
  1,
  1,
  3,
  3,
  3,
  3,
  3,
  3,
  3,
  3,
  3,
  3,
  3,
  3,
  3,
  3,
  3,
  3,
  3;;
  Material {
   0.000000;0.564706;0.100392;1.000000;;
   5.000000;
   0.000000;0.000000;0.000000;;
   0.000000;0.000000;0.000000;;
  }
  Material {
   0.800000;0.800000;0.800000;1.000000;;
   5.000000;
   0.000000;0.000000;0.000000;;
   0.000000;0.000000;0.000000;;
  }
  Material {
   0.570980;0.461176;0.225882;1.000000;;
   5.000000;
   0.000000;0.000000;0.000000;;
   0.000000;0.000000;0.000000;;
  }
  Material {
   0.649412;0.000000;0.075294;1.000000;;
   5.000000;
   0.000000;0.000000;0.000000;;
   0.000000;0.000000;0.000000;;
  }
 }
 MeshNormals {
  55;
  -0.258819;0.000000;-0.965926;,
  -0.258819;0.000000;-0.965926;,
  0.965926;0.000000;-0.258819;,
  0.258819;0.000000;0.965926;,
  0.258819;0.000000;0.965926;,
  -0.258819;0.000000;-0.965926;,
  0.965926;0.000000;-0.258819;,
  0.258819;0.000000;0.965926;,
  0.258818;0.000000;0.965926;,
  -0.258819;0.000000;-0.965926;,
  -0.258819;0.000000;-0.965926;,
  0.258818;0.000000;0.965926;,
  0.258819;0.000000;0.965926;,
  -0.369644;-0.923879;0.099046;,
  0.000000;-1.000000;-0.000000;,
  -0.418221;0.901406;0.112062;,
  0.000000;1.000000;0.000000;,
  -0.911399;0.331231;0.244209;,
  -0.892399;-0.382683;0.239118;,
  -0.087155;0.000000;-0.996195;,
  -0.087156;0.000000;-0.996195;,
  0.996195;0.000000;-0.087156;,
  0.087156;0.000000;0.996195;,
  -0.087156;0.000000;-0.996195;,
  0.996195;0.000000;-0.087156;,
  0.087156;0.000000;0.996195;,
  0.087157;0.000000;0.996195;,
  0.087156;0.000000;0.996195;,
  -0.087155;0.000000;-0.996195;,
  -0.087155;0.000000;-0.996195;,
  0.087156;0.000000;0.996195;,
  -0.381227;-0.923880;0.033353;,
  0.000000;-1.000000;-0.000000;,
  -0.431327;0.901406;0.037736;,
  0.000000;1.000000;0.000000;,
  -0.939959;0.331231;0.082236;,
  -0.920364;-0.382683;0.080521;,
  -0.258819;0.000000;0.965926;,
  -0.258819;0.000000;0.965926;,
  -0.965926;0.000000;-0.258819;,
  0.258818;0.000000;-0.965926;,
  -0.258819;0.000000;0.965926;,
  0.258819;0.000000;-0.965926;,
  0.258817;0.000000;-0.965926;,
  0.258818;0.000000;-0.965926;,
  -0.258820;0.000000;0.965926;,
  -0.258819;0.000000;0.965926;,
  0.258817;0.000000;-0.965926;,
  0.258819;0.000000;-0.965926;,
  0.369644;-0.923880;0.099046;,
  0.000000;-1.000000;0.000000;,
  0.418221;0.901406;0.112062;,
  0.000000;1.000000;0.000000;,
  0.911399;0.331231;0.244208;,
  0.892399;-0.382683;0.239118;;
  60;
  4;0,1,1,0;,
  4;2,2,2,2;,
  4;7,3,4,7;,
  4;5,10,0,1;,
  4;6,6,2,2;,
  4;4,12,7,4;,
  4;13,14,14,13;,
  4;7,3,3,7;,
  4;6,6,2,2;,
  4;10,5,1,0;,
  4;15,16,16,15;,
  4;9,9,0,0;,
  4;8,11,4,3;,
  4;17,17,18,18;,
  4;17,15,15,17;,
  4;13,18,18,13;,
  3;9,10,0;,
  3;9,0,10;,
  3;3,3,8;,
  3;4,4,11;,
  4;19,20,20,19;,
  4;21,21,21,21;,
  4;30,22,22,30;,
  4;23,29,19,20;,
  4;24,24,21,21;,
  4;27,25,30,22;,
  4;31,32,32,31;,
  4;25,27,22,30;,
  4;21,21,21,21;,
  4;29,23,20,19;,
  4;33,34,34,33;,
  4;28,28,19,19;,
  4;26,26,22,22;,
  4;35,35,36,36;,
  4;35,33,33,35;,
  4;31,36,36,31;,
  3;28,29,19;,
  3;28,19,29;,
  3;22,27,26;,
  3;27,22,26;,
  4;37,38,38,37;,
  4;39,39,39,39;,
  4;42,40,40,42;,
  4;41,37,37,38;,
  4;39,39,39,39;,
  4;44,48,42,40;,
  4;49,50,50,49;,
  4;42,44,40,42;,
  4;39,39,39,39;,
  4;46,38,38,37;,
  4;51,52,52,51;,
  4;45,45,37,37;,
  4;43,47,40,40;,
  4;53,53,54,54;,
  4;53,51,51,53;,
  4;49,54,54,49;,
  3;45,46,37;,
  3;45,37,37;,
  3;40,44,43;,
  3;44,40,47;;
 }
 MeshTextureCoords {
  114;
  0.000000;0.000000;,
  1.000000;0.000000;,
  1.000000;1.000000;,
  0.000000;1.000000;,
  0.000000;0.000000;,
  1.000000;0.000000;,
  1.000000;1.000000;,
  0.000000;1.000000;,
  0.000000;0.000000;,
  1.000000;0.000000;,
  1.000000;1.000000;,
  0.000000;1.000000;,
  1.000000;0.000000;,
  0.000000;0.000000;,
  0.000000;0.000000;,
  1.000000;0.000000;,
  1.000000;1.000000;,
  0.000000;1.000000;,
  0.000000;1.000000;,
  1.000000;0.000000;,
  0.000000;0.000000;,
  0.000000;0.000000;,
  1.000000;1.000000;,
  1.000000;1.000000;,
  0.000000;1.000000;,
  0.000000;1.000000;,
  1.000000;1.000000;,
  1.000000;0.000000;,
  1.000000;0.000000;,
  1.000000;1.000000;,
  0.000000;0.000000;,
  0.000000;1.000000;,
  1.000000;0.000000;,
  1.000000;1.000000;,
  0.000000;1.000000;,
  0.000000;0.000000;,
  1.000000;0.000000;,
  0.000000;1.000000;,
  0.000000;0.000000;,
  1.000000;0.000000;,
  1.000000;1.000000;,
  0.000000;1.000000;,
  0.000000;0.000000;,
  1.000000;0.000000;,
  1.000000;1.000000;,
  0.000000;1.000000;,
  0.000000;0.000000;,
  1.000000;0.000000;,
  1.000000;1.000000;,
  0.000000;1.000000;,
  1.000000;0.000000;,
  0.000000;0.000000;,
  0.000000;0.000000;,
  1.000000;0.000000;,
  1.000000;1.000000;,
  0.000000;1.000000;,
  0.000000;1.000000;,
  1.000000;0.000000;,
  0.000000;0.000000;,
  0.000000;0.000000;,
  1.000000;1.000000;,
  1.000000;1.000000;,
  0.000000;1.000000;,
  0.000000;1.000000;,
  1.000000;1.000000;,
  1.000000;0.000000;,
  1.000000;0.000000;,
  1.000000;1.000000;,
  0.000000;0.000000;,
  0.000000;1.000000;,
  1.000000;0.000000;,
  1.000000;1.000000;,
  0.000000;1.000000;,
  0.000000;0.000000;,
  1.000000;0.000000;,
  0.000000;1.000000;,
  0.000000;0.000000;,
  1.000000;0.000000;,
  1.000000;1.000000;,
  0.000000;1.000000;,
  0.000000;0.000000;,
  1.000000;0.000000;,
  1.000000;1.000000;,
  0.000000;1.000000;,
  0.000000;0.000000;,
  1.000000;0.000000;,
  1.000000;1.000000;,
  0.000000;1.000000;,
  1.000000;0.000000;,
  0.000000;0.000000;,
  0.000000;0.000000;,
  1.000000;0.000000;,
  1.000000;1.000000;,
  0.000000;1.000000;,
  0.000000;1.000000;,
  1.000000;0.000000;,
  0.000000;0.000000;,
  0.000000;0.000000;,
  1.000000;1.000000;,
  1.000000;1.000000;,
  0.000000;1.000000;,
  0.000000;1.000000;,
  1.000000;1.000000;,
  1.000000;0.000000;,
  1.000000;0.000000;,
  1.000000;1.000000;,
  0.000000;0.000000;,
  0.000000;1.000000;,
  1.000000;0.000000;,
  1.000000;1.000000;,
  0.000000;1.000000;,
  0.000000;0.000000;,
  1.000000;0.000000;,
  0.000000;1.000000;;
 }
}
