xof 0302txt 0064
template Header {
 <3D82AB43-62DA-11cf-AB39-0020AF71E433>
 WORD major;
 WORD minor;
 DWORD flags;
}

template Vector {
 <3D82AB5E-62DA-11cf-AB39-0020AF71E433>
 FLOAT x;
 FLOAT y;
 FLOAT z;
}

template Coords2d {
 <F6F23F44-7686-11cf-8F52-0040333594A3>
 FLOAT u;
 FLOAT v;
}

template Matrix4x4 {
 <F6F23F45-7686-11cf-8F52-0040333594A3>
 array FLOAT matrix[16];
}

template ColorRGBA {
 <35FF44E0-6C7C-11cf-8F52-0040333594A3>
 FLOAT red;
 FLOAT green;
 FLOAT blue;
 FLOAT alpha;
}

template ColorRGB {
 <D3E16E81-7835-11cf-8F52-0040333594A3>
 FLOAT red;
 FLOAT green;
 FLOAT blue;
}

template IndexedColor {
 <1630B820-7842-11cf-8F52-0040333594A3>
 DWORD index;
 ColorRGBA indexColor;
}

template Boolean {
 <4885AE61-78E8-11cf-8F52-0040333594A3>
 WORD truefalse;
}

template Boolean2d {
 <4885AE63-78E8-11cf-8F52-0040333594A3>
 Boolean u;
 Boolean v;
}

template MaterialWrap {
 <4885AE60-78E8-11cf-8F52-0040333594A3>
 Boolean u;
 Boolean v;
}

template TextureFilename {
 <A42790E1-7810-11cf-8F52-0040333594A3>
 STRING filename;
}

template Material {
 <3D82AB4D-62DA-11cf-AB39-0020AF71E433>
 ColorRGBA faceColor;
 FLOAT power;
 ColorRGB specularColor;
 ColorRGB emissiveColor;
 [...]
}

template MeshFace {
 <3D82AB5F-62DA-11cf-AB39-0020AF71E433>
 DWORD nFaceVertexIndices;
 array DWORD faceVertexIndices[nFaceVertexIndices];
}

template MeshFaceWraps {
 <4885AE62-78E8-11cf-8F52-0040333594A3>
 DWORD nFaceWrapValues;
 Boolean2d faceWrapValues;
}

template MeshTextureCoords {
 <F6F23F40-7686-11cf-8F52-0040333594A3>
 DWORD nTextureCoords;
 array Coords2d textureCoords[nTextureCoords];
}

template MeshMaterialList {
 <F6F23F42-7686-11cf-8F52-0040333594A3>
 DWORD nMaterials;
 DWORD nFaceIndexes;
 array DWORD faceIndexes[nFaceIndexes];
 [Material]
}

template MeshNormals {
 <F6F23F43-7686-11cf-8F52-0040333594A3>
 DWORD nNormals;
 array Vector normals[nNormals];
 DWORD nFaceNormals;
 array MeshFace faceNormals[nFaceNormals];
}

template MeshVertexColors {
 <1630B821-7842-11cf-8F52-0040333594A3>
 DWORD nVertexColors;
 array IndexedColor vertexColors[nVertexColors];
}

template Mesh {
 <3D82AB44-62DA-11cf-AB39-0020AF71E433>
 DWORD nVertices;
 array Vector vertices[nVertices];
 DWORD nFaces;
 array MeshFace faces[nFaces];
 [...]
}

Header{
1;
0;
1;
}

Mesh {
 440;
 -11.91571;54.77566;-21.53745;,
 -3.53284;54.77566;-13.29964;,
 -3.53284;51.22649;-13.29964;,
 -11.91571;51.22649;-21.53745;,
 -3.43028;54.77566;-1.54704;,
 -3.43028;51.22649;-1.54704;,
 -11.66809;54.77566;6.83582;,
 -11.66809;51.22649;6.83582;,
 -23.42069;54.77566;6.93839;,
 -23.42069;51.22649;6.93839;,
 -31.80355;54.77566;-1.29941;,
 -31.80355;51.22649;-1.29941;,
 -31.90612;54.77566;-13.05202;,
 -31.90612;51.22649;-13.05202;,
 -23.66831;54.77566;-21.43488;,
 -23.66831;51.22649;-21.43488;,
 -11.91571;54.77566;-21.53745;,
 -11.91571;51.22649;-21.53745;,
 -11.91571;29.93149;-21.53745;,
 -3.53284;29.93149;-13.29964;,
 -3.53284;26.38232;-13.29964;,
 -11.91571;26.38232;-21.53745;,
 -3.43028;29.93149;-1.54704;,
 -3.43028;26.38232;-1.54704;,
 -11.66809;29.93149;6.83582;,
 -11.66809;26.38232;6.83582;,
 -23.42069;29.93149;6.93839;,
 -23.42069;26.38232;6.93839;,
 -31.80355;29.93149;-1.29941;,
 -31.80355;26.38232;-1.29941;,
 -31.90612;29.93149;-13.05202;,
 -31.90612;26.38232;-13.05202;,
 -23.66831;29.93149;-21.43488;,
 -23.66831;26.38232;-21.43488;,
 -11.91571;29.93149;-21.53745;,
 -11.91571;26.38232;-21.53745;,
 -11.91571;3.31269;-21.53745;,
 -3.53284;3.31269;-13.29964;,
 -3.53284;-0.23647;-13.29964;,
 -11.91571;-0.23647;-21.53745;,
 -3.43028;3.31269;-1.54704;,
 -3.43028;-0.23647;-1.54704;,
 -11.66809;3.31269;6.83582;,
 -11.66809;-0.23647;6.83582;,
 -23.42069;3.31269;6.93839;,
 -23.42069;-0.23647;6.93839;,
 -31.80355;3.31269;-1.29941;,
 -31.80355;-0.23647;-1.29941;,
 -31.90612;3.31269;-13.05202;,
 -31.90612;-0.23647;-13.05202;,
 -23.66831;3.31269;-21.43488;,
 -23.66831;-0.23647;-21.43488;,
 -11.91571;3.31269;-21.53745;,
 -11.91571;-0.23647;-21.53745;,
 -17.66819;54.77566;-7.29953;,
 -17.66819;54.77566;-7.29953;,
 -17.66819;54.77566;-7.29953;,
 -17.66819;54.77566;-7.29953;,
 -17.66819;54.77566;-7.29953;,
 -17.66819;54.77566;-7.29953;,
 -17.66819;54.77566;-7.29953;,
 -17.66819;54.77566;-7.29953;,
 -17.66819;-0.23647;-7.29953;,
 -17.66819;-0.23647;-7.29953;,
 -17.66819;-0.23647;-7.29953;,
 -17.66819;-0.23647;-7.29953;,
 -17.66819;-0.23647;-7.29953;,
 -17.66819;-0.23647;-7.29953;,
 -17.66819;-0.23647;-7.29953;,
 -17.66819;-0.23647;-7.29953;,
 -4.70821;51.22649;-12.80072;,
 -12.39403;51.22649;-20.35357;,
 -12.39403;29.93149;-20.35357;,
 -4.70821;29.93149;-12.80072;,
 -4.61416;51.22649;-2.02536;,
 -4.61416;29.93149;-2.02536;,
 -12.16702;51.22649;5.66045;,
 -12.16702;29.93149;5.66045;,
 -22.94236;51.22649;5.75451;,
 -22.94236;29.93149;5.75451;,
 -30.62823;51.22649;-1.79835;,
 -30.62823;29.93149;-1.79835;,
 -30.72225;51.22649;-12.57370;,
 -30.72225;29.93149;-12.57370;,
 -23.16938;51.22649;-20.25952;,
 -23.16938;29.93149;-20.25952;,
 -12.39403;51.22649;-20.35357;,
 -12.39403;29.93149;-20.35357;,
 -4.70821;26.38232;-12.80072;,
 -12.39403;26.38232;-20.35357;,
 -12.39403;3.31269;-20.35357;,
 -4.70821;3.31269;-12.80072;,
 -4.61416;26.38232;-2.02536;,
 -4.61416;3.31269;-2.02536;,
 -12.16702;26.38232;5.66045;,
 -12.16702;3.31269;5.66045;,
 -22.94236;26.38232;5.75451;,
 -22.94236;3.31269;5.75451;,
 -30.62823;26.38232;-1.79835;,
 -30.62823;3.31269;-1.79835;,
 -30.72225;26.38232;-12.57370;,
 -30.72225;3.31269;-12.57370;,
 -23.16938;26.38232;-20.25952;,
 -23.16938;3.31269;-20.25952;,
 -12.39403;26.38232;-20.35357;,
 -12.39403;3.31269;-20.35357;,
 -25.67524;49.15116;-20.41588;,
 -9.49742;49.15116;-20.41588;,
 -9.49742;32.17480;-20.41588;,
 -25.67524;32.17480;-20.41588;,
 24.42069;54.77566;-21.53745;,
 32.80356;54.77566;-13.29964;,
 32.80356;51.22649;-13.29964;,
 24.42069;51.22649;-21.53745;,
 32.90613;54.77566;-1.54704;,
 32.90613;51.22649;-1.54704;,
 24.66831;54.77566;6.83582;,
 24.66831;51.22649;6.83582;,
 12.91570;54.77566;6.93839;,
 12.91570;51.22649;6.93839;,
 4.53284;54.77566;-1.29941;,
 4.53284;51.22649;-1.29941;,
 4.43028;54.77566;-13.05202;,
 4.43028;51.22649;-13.05202;,
 12.66808;54.77566;-21.43488;,
 12.66808;51.22649;-21.43488;,
 24.42069;54.77566;-21.53745;,
 24.42069;51.22649;-21.53745;,
 24.42069;29.93149;-21.53745;,
 32.80356;29.93149;-13.29964;,
 32.80356;26.38232;-13.29964;,
 24.42069;26.38232;-21.53745;,
 32.90613;29.93149;-1.54704;,
 32.90613;26.38232;-1.54704;,
 24.66831;29.93149;6.83582;,
 24.66831;26.38232;6.83582;,
 12.91570;29.93149;6.93839;,
 12.91570;26.38232;6.93839;,
 4.53284;29.93149;-1.29941;,
 4.53284;26.38232;-1.29941;,
 4.43028;29.93149;-13.05202;,
 4.43028;26.38232;-13.05202;,
 12.66808;29.93149;-21.43488;,
 12.66808;26.38232;-21.43488;,
 24.42069;29.93149;-21.53745;,
 24.42069;26.38232;-21.53745;,
 24.42069;3.31269;-21.53745;,
 32.80356;3.31269;-13.29964;,
 32.80356;-0.23647;-13.29964;,
 24.42069;-0.23647;-21.53745;,
 32.90613;3.31269;-1.54704;,
 32.90613;-0.23647;-1.54704;,
 24.66831;3.31269;6.83582;,
 24.66831;-0.23647;6.83582;,
 12.91570;3.31269;6.93839;,
 12.91570;-0.23647;6.93839;,
 4.53284;3.31269;-1.29941;,
 4.53284;-0.23647;-1.29941;,
 4.43028;3.31269;-13.05202;,
 4.43028;-0.23647;-13.05202;,
 12.66808;3.31269;-21.43488;,
 12.66808;-0.23647;-21.43488;,
 24.42069;3.31269;-21.53745;,
 24.42069;-0.23647;-21.53745;,
 18.66819;54.77566;-7.29953;,
 18.66819;54.77566;-7.29953;,
 18.66819;54.77566;-7.29953;,
 18.66819;54.77566;-7.29953;,
 18.66819;54.77566;-7.29953;,
 18.66819;54.77566;-7.29953;,
 18.66819;54.77566;-7.29953;,
 18.66819;54.77566;-7.29953;,
 18.66819;-0.23647;-7.29953;,
 18.66819;-0.23647;-7.29953;,
 18.66819;-0.23647;-7.29953;,
 18.66819;-0.23647;-7.29953;,
 18.66819;-0.23647;-7.29953;,
 18.66819;-0.23647;-7.29953;,
 18.66819;-0.23647;-7.29953;,
 18.66819;-0.23647;-7.29953;,
 31.62819;51.22649;-12.80072;,
 23.94236;51.22649;-20.35357;,
 23.94236;29.93149;-20.35357;,
 31.62819;29.93149;-12.80072;,
 31.72224;51.22649;-2.02536;,
 31.72224;29.93149;-2.02536;,
 24.16937;51.22649;5.66045;,
 24.16937;29.93149;5.66045;,
 13.39403;51.22649;5.75451;,
 13.39403;29.93149;5.75451;,
 5.70817;51.22649;-1.79835;,
 5.70817;29.93149;-1.79835;,
 5.61415;51.22649;-12.57370;,
 5.61415;29.93149;-12.57370;,
 13.16702;51.22649;-20.25952;,
 13.16702;29.93149;-20.25952;,
 23.94236;51.22649;-20.35357;,
 23.94236;29.93149;-20.35357;,
 31.62819;26.38232;-12.80072;,
 23.94236;26.38232;-20.35357;,
 23.94236;3.31269;-20.35357;,
 31.62819;3.31269;-12.80072;,
 31.72224;26.38232;-2.02536;,
 31.72224;3.31269;-2.02536;,
 24.16937;26.38232;5.66045;,
 24.16937;3.31269;5.66045;,
 13.39403;26.38232;5.75451;,
 13.39403;3.31269;5.75451;,
 5.70817;26.38232;-1.79835;,
 5.70817;3.31269;-1.79835;,
 5.61415;26.38232;-12.57370;,
 5.61415;3.31269;-12.57370;,
 13.16702;26.38232;-20.25952;,
 13.16702;3.31269;-20.25952;,
 23.94236;26.38232;-20.35357;,
 23.94236;3.31269;-20.35357;,
 10.66114;49.15116;-20.41588;,
 26.83897;49.15116;-20.41588;,
 26.83897;32.17480;-20.41588;,
 10.66114;32.17480;-20.41588;,
 -4.29627;54.77566;37.53744;,
 -12.67914;54.77566;29.29965;,
 -12.67914;51.22649;29.29965;,
 -4.29627;51.22649;37.53744;,
 -12.78170;54.77566;17.54703;,
 -12.78170;51.22649;17.54703;,
 -4.54389;54.77566;9.16418;,
 -4.54389;51.22649;9.16418;,
 7.20871;54.77566;9.06162;,
 7.20871;51.22649;9.06162;,
 15.59157;54.77566;17.29943;,
 15.59157;51.22649;17.29943;,
 15.69414;54.77566;29.05202;,
 15.69414;51.22649;29.05202;,
 7.45633;54.77566;37.43488;,
 7.45633;51.22649;37.43488;,
 -4.29627;54.77566;37.53744;,
 -4.29627;51.22649;37.53744;,
 -4.29627;29.93149;37.53744;,
 -12.67914;29.93149;29.29965;,
 -12.67914;26.38232;29.29965;,
 -4.29627;26.38232;37.53744;,
 -12.78170;29.93149;17.54703;,
 -12.78170;26.38232;17.54703;,
 -4.54389;29.93149;9.16418;,
 -4.54389;26.38232;9.16418;,
 7.20871;29.93149;9.06162;,
 7.20871;26.38232;9.06162;,
 15.59157;29.93149;17.29943;,
 15.59157;26.38232;17.29943;,
 15.69414;29.93149;29.05202;,
 15.69414;26.38232;29.05202;,
 7.45633;29.93149;37.43488;,
 7.45633;26.38232;37.43488;,
 -4.29627;29.93149;37.53744;,
 -4.29627;26.38232;37.53744;,
 -4.29627;3.31269;37.53744;,
 -12.67914;3.31269;29.29965;,
 -12.67914;-0.23647;29.29965;,
 -4.29627;-0.23647;37.53744;,
 -12.78170;3.31269;17.54703;,
 -12.78170;-0.23647;17.54703;,
 -4.54389;3.31269;9.16418;,
 -4.54389;-0.23647;9.16418;,
 7.20871;3.31269;9.06162;,
 7.20871;-0.23647;9.06162;,
 15.59157;3.31269;17.29943;,
 15.59157;-0.23647;17.29943;,
 15.69414;3.31269;29.05202;,
 15.69414;-0.23647;29.05202;,
 7.45633;3.31269;37.43488;,
 7.45633;-0.23647;37.43488;,
 -4.29627;3.31269;37.53744;,
 -4.29627;-0.23647;37.53744;,
 1.45622;54.77566;23.29952;,
 1.45622;54.77566;23.29952;,
 1.45622;54.77566;23.29952;,
 1.45622;54.77566;23.29952;,
 1.45622;54.77566;23.29952;,
 1.45622;54.77566;23.29952;,
 1.45622;54.77566;23.29952;,
 1.45622;54.77566;23.29952;,
 1.45622;-0.23647;23.29952;,
 1.45622;-0.23647;23.29952;,
 1.45622;-0.23647;23.29952;,
 1.45622;-0.23647;23.29952;,
 1.45622;-0.23647;23.29952;,
 1.45622;-0.23647;23.29952;,
 1.45622;-0.23647;23.29952;,
 1.45622;-0.23647;23.29952;,
 -11.50377;51.22649;28.80071;,
 -3.81795;51.22649;36.35355;,
 -3.81795;29.93149;36.35355;,
 -11.50377;29.93149;28.80071;,
 -11.59782;51.22649;18.02536;,
 -11.59782;29.93149;18.02536;,
 -4.04496;51.22649;10.33955;,
 -4.04496;29.93149;10.33955;,
 6.73039;51.22649;10.24549;,
 6.73039;29.93149;10.24549;,
 14.41625;51.22649;17.79835;,
 14.41625;29.93149;17.79835;,
 14.51026;51.22649;28.57369;,
 14.51026;29.93149;28.57369;,
 6.95740;51.22649;36.25952;,
 6.95740;29.93149;36.25952;,
 -3.81795;51.22649;36.35355;,
 -3.81795;29.93149;36.35355;,
 -11.50377;26.38232;28.80071;,
 -3.81795;26.38232;36.35355;,
 -3.81795;3.31269;36.35355;,
 -11.50377;3.31269;28.80071;,
 -11.59782;26.38232;18.02536;,
 -11.59782;3.31269;18.02536;,
 -4.04496;26.38232;10.33955;,
 -4.04496;3.31269;10.33955;,
 6.73039;26.38232;10.24549;,
 6.73039;3.31269;10.24549;,
 14.41625;26.38232;17.79835;,
 14.41625;3.31269;17.79835;,
 14.51026;26.38232;28.57369;,
 14.51026;3.31269;28.57369;,
 6.95740;26.38232;36.25952;,
 6.95740;3.31269;36.25952;,
 -3.81795;26.38232;36.35355;,
 -3.81795;3.31269;36.35355;,
 9.46327;49.15116;36.41587;,
 -6.71455;49.15116;36.41587;,
 -6.71455;32.17480;36.41587;,
 9.46327;32.17480;36.41587;,
 7.20871;110.23646;-6.23792;,
 15.59157;110.23646;1.99989;,
 15.59157;106.68732;1.99989;,
 7.20871;106.68732;-6.23792;,
 15.69414;110.23646;13.75249;,
 15.69414;106.68732;13.75249;,
 7.45633;110.23646;22.13536;,
 7.45633;106.68732;22.13536;,
 -4.29627;110.23646;22.23792;,
 -4.29627;106.68732;22.23792;,
 -12.67914;110.23646;14.00011;,
 -12.67914;106.68732;14.00011;,
 -12.78170;110.23646;2.24751;,
 -12.78170;106.68732;2.24751;,
 -4.54389;110.23646;-6.13535;,
 -4.54389;106.68732;-6.13535;,
 7.20871;110.23646;-6.23792;,
 7.20871;106.68732;-6.23792;,
 7.20871;85.39230;-6.23792;,
 15.59157;85.39230;1.99989;,
 15.59157;81.84317;1.99989;,
 7.20871;81.84317;-6.23792;,
 15.69414;85.39230;13.75249;,
 15.69414;81.84317;13.75249;,
 7.45633;85.39230;22.13536;,
 7.45633;81.84317;22.13536;,
 -4.29627;85.39230;22.23792;,
 -4.29627;81.84317;22.23792;,
 -12.67914;85.39230;14.00011;,
 -12.67914;81.84317;14.00011;,
 -12.78170;85.39230;2.24751;,
 -12.78170;81.84317;2.24751;,
 -4.54389;85.39230;-6.13535;,
 -4.54389;81.84317;-6.13535;,
 7.20871;85.39230;-6.23792;,
 7.20871;81.84317;-6.23792;,
 7.20871;58.77352;-6.23792;,
 15.59157;58.77352;1.99989;,
 15.59157;55.22432;1.99989;,
 7.20871;55.22432;-6.23792;,
 15.69414;58.77352;13.75249;,
 15.69414;55.22432;13.75249;,
 7.45633;58.77352;22.13536;,
 7.45633;55.22432;22.13536;,
 -4.29627;58.77352;22.23792;,
 -4.29627;55.22432;22.23792;,
 -12.67914;58.77352;14.00011;,
 -12.67914;55.22432;14.00011;,
 -12.78170;58.77352;2.24751;,
 -12.78170;55.22432;2.24751;,
 -4.54389;58.77352;-6.13535;,
 -4.54389;55.22432;-6.13535;,
 7.20871;58.77352;-6.23792;,
 7.20871;55.22432;-6.23792;,
 1.45622;110.23646;8.00000;,
 1.45622;110.23646;8.00000;,
 1.45622;110.23646;8.00000;,
 1.45622;110.23646;8.00000;,
 1.45622;110.23646;8.00000;,
 1.45622;110.23646;8.00000;,
 1.45622;110.23646;8.00000;,
 1.45622;110.23646;8.00000;,
 1.45622;55.22432;8.00000;,
 1.45622;55.22432;8.00000;,
 1.45622;55.22432;8.00000;,
 1.45622;55.22432;8.00000;,
 1.45622;55.22432;8.00000;,
 1.45622;55.22432;8.00000;,
 1.45622;55.22432;8.00000;,
 1.45622;55.22432;8.00000;,
 14.41621;106.68732;2.49883;,
 6.73039;106.68732;-5.05404;,
 6.73039;85.39230;-5.05404;,
 14.41621;85.39230;2.49883;,
 14.51026;106.68732;13.27418;,
 14.51026;85.39230;13.27418;,
 6.95740;106.68732;20.95998;,
 6.95740;85.39230;20.95998;,
 -3.81795;106.68732;21.05405;,
 -3.81795;85.39230;21.05405;,
 -11.50381;106.68732;13.50118;,
 -11.50381;85.39230;13.50118;,
 -11.59782;106.68732;2.72583;,
 -11.59782;85.39230;2.72583;,
 -4.04496;106.68732;-4.95999;,
 -4.04496;85.39230;-4.95999;,
 6.73039;106.68732;-5.05404;,
 6.73039;85.39230;-5.05404;,
 14.41621;81.84317;2.49883;,
 6.73039;81.84317;-5.05404;,
 6.73039;58.77352;-5.05404;,
 14.41621;58.77352;2.49883;,
 14.51026;81.84317;13.27418;,
 14.51026;58.77352;13.27418;,
 6.95740;81.84317;20.95998;,
 6.95740;58.77352;20.95998;,
 -3.81795;81.84317;21.05405;,
 -3.81795;58.77352;21.05405;,
 -11.50381;81.84317;13.50118;,
 -11.50381;58.77352;13.50118;,
 -11.59782;81.84317;2.72583;,
 -11.59782;58.77352;2.72583;,
 -4.04496;81.84317;-4.95999;,
 -4.04496;58.77352;-4.95999;,
 6.73039;81.84317;-5.05404;,
 6.73039;58.77352;-5.05404;,
 -6.55083;104.61199;-5.11633;,
 9.62699;104.61199;-5.11633;,
 9.62699;87.63558;-5.11633;,
 -6.55083;87.63558;-5.11633;;
 
 356;
 4;0,1,2,3;,
 4;1,4,5,2;,
 4;4,6,7,5;,
 4;6,8,9,7;,
 4;8,10,11,9;,
 4;10,12,13,11;,
 4;12,14,15,13;,
 4;14,16,17,15;,
 4;18,19,20,21;,
 4;19,22,23,20;,
 4;22,24,25,23;,
 4;24,26,27,25;,
 4;26,28,29,27;,
 4;28,30,31,29;,
 4;30,32,33,31;,
 4;32,34,35,33;,
 4;36,37,38,39;,
 4;37,40,41,38;,
 4;40,42,43,41;,
 4;42,44,45,43;,
 4;44,46,47,45;,
 4;46,48,49,47;,
 4;48,50,51,49;,
 4;50,52,53,51;,
 3;54,1,0;,
 3;55,4,1;,
 3;56,6,4;,
 3;57,8,6;,
 3;58,10,8;,
 3;59,12,10;,
 3;60,14,12;,
 3;61,16,14;,
 3;62,39,38;,
 3;63,38,41;,
 3;64,41,43;,
 3;65,43,45;,
 3;66,45,47;,
 3;67,47,49;,
 3;68,49,51;,
 3;69,51,53;,
 4;70,71,3,2;,
 4;72,73,19,18;,
 4;71,70,73,72;,
 4;74,70,2,5;,
 4;73,75,22,19;,
 4;70,74,75,73;,
 4;76,74,5,7;,
 4;75,77,24,22;,
 4;74,76,77,75;,
 4;78,76,7,9;,
 4;77,79,26,24;,
 4;76,78,79,77;,
 4;80,78,9,11;,
 4;79,81,28,26;,
 4;78,80,81,79;,
 4;82,80,11,13;,
 4;81,83,30,28;,
 4;80,82,83,81;,
 4;84,82,13,15;,
 4;83,85,32,30;,
 4;82,84,85,83;,
 4;86,84,15,17;,
 4;85,87,34,32;,
 4;84,86,87,85;,
 4;88,89,21,20;,
 4;90,91,37,36;,
 4;89,88,91,90;,
 4;92,88,20,23;,
 4;91,93,40,37;,
 4;88,92,93,91;,
 4;94,92,23,25;,
 4;93,95,42,40;,
 4;92,94,95,93;,
 4;96,94,25,27;,
 4;95,97,44,42;,
 4;94,96,97,95;,
 4;98,96,27,29;,
 4;97,99,46,44;,
 4;96,98,99,97;,
 4;100,98,29,31;,
 4;99,101,48,46;,
 4;98,100,101,99;,
 4;102,100,31,33;,
 4;101,103,50,48;,
 4;100,102,103,101;,
 4;104,102,33,35;,
 4;103,105,52,50;,
 4;102,104,105,103;,
 4;106,107,108,109;,
 4;110,111,112,113;,
 4;111,114,115,112;,
 4;114,116,117,115;,
 4;116,118,119,117;,
 4;118,120,121,119;,
 4;120,122,123,121;,
 4;122,124,125,123;,
 4;124,126,127,125;,
 4;128,129,130,131;,
 4;129,132,133,130;,
 4;132,134,135,133;,
 4;134,136,137,135;,
 4;136,138,139,137;,
 4;138,140,141,139;,
 4;140,142,143,141;,
 4;142,144,145,143;,
 4;146,147,148,149;,
 4;147,150,151,148;,
 4;150,152,153,151;,
 4;152,154,155,153;,
 4;154,156,157,155;,
 4;156,158,159,157;,
 4;158,160,161,159;,
 4;160,162,163,161;,
 3;164,111,110;,
 3;165,114,111;,
 3;166,116,114;,
 3;167,118,116;,
 3;168,120,118;,
 3;169,122,120;,
 3;170,124,122;,
 3;171,126,124;,
 3;172,149,148;,
 3;173,148,151;,
 3;174,151,153;,
 3;175,153,155;,
 3;176,155,157;,
 3;177,157,159;,
 3;178,159,161;,
 3;179,161,163;,
 4;180,181,113,112;,
 4;182,183,129,128;,
 4;181,180,183,182;,
 4;184,180,112,115;,
 4;183,185,132,129;,
 4;180,184,185,183;,
 4;186,184,115,117;,
 4;185,187,134,132;,
 4;184,186,187,185;,
 4;188,186,117,119;,
 4;187,189,136,134;,
 4;186,188,189,187;,
 4;190,188,119,121;,
 4;189,191,138,136;,
 4;188,190,191,189;,
 4;192,190,121,123;,
 4;191,193,140,138;,
 4;190,192,193,191;,
 4;194,192,123,125;,
 4;193,195,142,140;,
 4;192,194,195,193;,
 4;196,194,125,127;,
 4;195,197,144,142;,
 4;194,196,197,195;,
 4;198,199,131,130;,
 4;200,201,147,146;,
 4;199,198,201,200;,
 4;202,198,130,133;,
 4;201,203,150,147;,
 4;198,202,203,201;,
 4;204,202,133,135;,
 4;203,205,152,150;,
 4;202,204,205,203;,
 4;206,204,135,137;,
 4;205,207,154,152;,
 4;204,206,207,205;,
 4;208,206,137,139;,
 4;207,209,156,154;,
 4;206,208,209,207;,
 4;210,208,139,141;,
 4;209,211,158,156;,
 4;208,210,211,209;,
 4;212,210,141,143;,
 4;211,213,160,158;,
 4;210,212,213,211;,
 4;214,212,143,145;,
 4;213,215,162,160;,
 4;212,214,215,213;,
 4;216,217,218,219;,
 4;220,221,222,223;,
 4;221,224,225,222;,
 4;224,226,227,225;,
 4;226,228,229,227;,
 4;228,230,231,229;,
 4;230,232,233,231;,
 4;232,234,235,233;,
 4;234,236,237,235;,
 4;238,239,240,241;,
 4;239,242,243,240;,
 4;242,244,245,243;,
 4;244,246,247,245;,
 4;246,248,249,247;,
 4;248,250,251,249;,
 4;250,252,253,251;,
 4;252,254,255,253;,
 4;256,257,258,259;,
 4;257,260,261,258;,
 4;260,262,263,261;,
 4;262,264,265,263;,
 4;264,266,267,265;,
 4;266,268,269,267;,
 4;268,270,271,269;,
 4;270,272,273,271;,
 3;274,221,220;,
 3;275,224,221;,
 3;276,226,224;,
 3;277,228,226;,
 3;278,230,228;,
 3;279,232,230;,
 3;280,234,232;,
 3;281,236,234;,
 3;282,259,258;,
 3;283,258,261;,
 3;284,261,263;,
 3;285,263,265;,
 3;286,265,267;,
 3;287,267,269;,
 3;288,269,271;,
 3;289,271,273;,
 4;290,291,223,222;,
 4;292,293,239,238;,
 4;291,290,293,292;,
 4;294,290,222,225;,
 4;293,295,242,239;,
 4;290,294,295,293;,
 4;296,294,225,227;,
 4;295,297,244,242;,
 4;294,296,297,295;,
 4;298,296,227,229;,
 4;297,299,246,244;,
 4;296,298,299,297;,
 4;300,298,229,231;,
 4;299,301,248,246;,
 4;298,300,301,299;,
 4;302,300,231,233;,
 4;301,303,250,248;,
 4;300,302,303,301;,
 4;304,302,233,235;,
 4;303,305,252,250;,
 4;302,304,305,303;,
 4;306,304,235,237;,
 4;305,307,254,252;,
 4;304,306,307,305;,
 4;308,309,241,240;,
 4;310,311,257,256;,
 4;309,308,311,310;,
 4;312,308,240,243;,
 4;311,313,260,257;,
 4;308,312,313,311;,
 4;314,312,243,245;,
 4;313,315,262,260;,
 4;312,314,315,313;,
 4;316,314,245,247;,
 4;315,317,264,262;,
 4;314,316,317,315;,
 4;318,316,247,249;,
 4;317,319,266,264;,
 4;316,318,319,317;,
 4;320,318,249,251;,
 4;319,321,268,266;,
 4;318,320,321,319;,
 4;322,320,251,253;,
 4;321,323,270,268;,
 4;320,322,323,321;,
 4;324,322,253,255;,
 4;323,325,272,270;,
 4;322,324,325,323;,
 4;326,327,328,329;,
 4;330,331,332,333;,
 4;331,334,335,332;,
 4;334,336,337,335;,
 4;336,338,339,337;,
 4;338,340,341,339;,
 4;340,342,343,341;,
 4;342,344,345,343;,
 4;344,346,347,345;,
 4;348,349,350,351;,
 4;349,352,353,350;,
 4;352,354,355,353;,
 4;354,356,357,355;,
 4;356,358,359,357;,
 4;358,360,361,359;,
 4;360,362,363,361;,
 4;362,364,365,363;,
 4;366,367,368,369;,
 4;367,370,371,368;,
 4;370,372,373,371;,
 4;372,374,375,373;,
 4;374,376,377,375;,
 4;376,378,379,377;,
 4;378,380,381,379;,
 4;380,382,383,381;,
 3;384,331,330;,
 3;385,334,331;,
 3;386,336,334;,
 3;387,338,336;,
 3;388,340,338;,
 3;389,342,340;,
 3;390,344,342;,
 3;391,346,344;,
 3;392,369,368;,
 3;393,368,371;,
 3;394,371,373;,
 3;395,373,375;,
 3;396,375,377;,
 3;397,377,379;,
 3;398,379,381;,
 3;399,381,383;,
 4;400,401,333,332;,
 4;402,403,349,348;,
 4;401,400,403,402;,
 4;404,400,332,335;,
 4;403,405,352,349;,
 4;400,404,405,403;,
 4;406,404,335,337;,
 4;405,407,354,352;,
 4;404,406,407,405;,
 4;408,406,337,339;,
 4;407,409,356,354;,
 4;406,408,409,407;,
 4;410,408,339,341;,
 4;409,411,358,356;,
 4;408,410,411,409;,
 4;412,410,341,343;,
 4;411,413,360,358;,
 4;410,412,413,411;,
 4;414,412,343,345;,
 4;413,415,362,360;,
 4;412,414,415,413;,
 4;416,414,345,347;,
 4;415,417,364,362;,
 4;414,416,417,415;,
 4;418,419,351,350;,
 4;420,421,367,366;,
 4;419,418,421,420;,
 4;422,418,350,353;,
 4;421,423,370,367;,
 4;418,422,423,421;,
 4;424,422,353,355;,
 4;423,425,372,370;,
 4;422,424,425,423;,
 4;426,424,355,357;,
 4;425,427,374,372;,
 4;424,426,427,425;,
 4;428,426,357,359;,
 4;427,429,376,374;,
 4;426,428,429,427;,
 4;430,428,359,361;,
 4;429,431,378,376;,
 4;428,430,431,429;,
 4;432,430,361,363;,
 4;431,433,380,378;,
 4;430,432,433,431;,
 4;434,432,363,365;,
 4;433,435,382,380;,
 4;432,434,435,433;,
 4;436,437,438,439;;
 
 MeshMaterialList {
  3;
  356;
  1,
  1,
  1,
  1,
  1,
  1,
  1,
  1,
  1,
  1,
  1,
  1,
  1,
  1,
  1,
  1,
  1,
  1,
  1,
  1,
  1,
  1,
  1,
  1,
  1,
  1,
  1,
  1,
  1,
  1,
  1,
  1,
  1,
  1,
  1,
  1,
  1,
  1,
  1,
  1,
  1,
  1,
  0,
  1,
  1,
  0,
  1,
  1,
  0,
  1,
  1,
  0,
  1,
  1,
  0,
  1,
  1,
  0,
  1,
  1,
  0,
  1,
  1,
  0,
  1,
  1,
  0,
  1,
  1,
  0,
  1,
  1,
  0,
  1,
  1,
  0,
  1,
  1,
  0,
  1,
  1,
  0,
  1,
  1,
  0,
  1,
  1,
  0,
  2,
  1,
  1,
  1,
  1,
  1,
  1,
  1,
  1,
  1,
  1,
  1,
  1,
  1,
  1,
  1,
  1,
  1,
  1,
  1,
  1,
  1,
  1,
  1,
  1,
  1,
  1,
  1,
  1,
  1,
  1,
  1,
  1,
  1,
  1,
  1,
  1,
  1,
  1,
  1,
  1,
  1,
  1,
  0,
  1,
  1,
  0,
  1,
  1,
  0,
  1,
  1,
  0,
  1,
  1,
  0,
  1,
  1,
  0,
  1,
  1,
  0,
  1,
  1,
  0,
  1,
  1,
  0,
  1,
  1,
  0,
  1,
  1,
  0,
  1,
  1,
  0,
  1,
  1,
  0,
  1,
  1,
  0,
  1,
  1,
  0,
  1,
  1,
  0,
  2,
  1,
  1,
  1,
  1,
  1,
  1,
  1,
  1,
  1,
  1,
  1,
  1,
  1,
  1,
  1,
  1,
  1,
  1,
  1,
  1,
  1,
  1,
  1,
  1,
  1,
  1,
  1,
  1,
  1,
  1,
  1,
  1,
  1,
  1,
  1,
  1,
  1,
  1,
  1,
  1,
  1,
  1,
  0,
  1,
  1,
  0,
  1,
  1,
  0,
  1,
  1,
  0,
  1,
  1,
  0,
  1,
  1,
  0,
  1,
  1,
  0,
  1,
  1,
  0,
  1,
  1,
  0,
  1,
  1,
  0,
  1,
  1,
  0,
  1,
  1,
  0,
  1,
  1,
  0,
  1,
  1,
  0,
  1,
  1,
  0,
  1,
  1,
  0,
  2,
  1,
  1,
  1,
  1,
  1,
  1,
  1,
  1,
  1,
  1,
  1,
  1,
  1,
  1,
  1,
  1,
  1,
  1,
  1,
  1,
  1,
  1,
  1,
  1,
  1,
  1,
  1,
  1,
  1,
  1,
  1,
  1,
  1,
  1,
  1,
  1,
  1,
  1,
  1,
  1,
  1,
  1,
  0,
  1,
  1,
  0,
  1,
  1,
  0,
  1,
  1,
  0,
  1,
  1,
  0,
  1,
  1,
  0,
  1,
  1,
  0,
  1,
  1,
  0,
  1,
  1,
  0,
  1,
  1,
  0,
  1,
  1,
  0,
  1,
  1,
  0,
  1,
  1,
  0,
  1,
  1,
  0,
  1,
  1,
  0,
  1,
  1,
  0,
  2;;
  Material {
   0.076110;0.328630;0.076110;1.000000;;
   48.000000;
   0.000000;0.000000;0.000000;;
   0.000000;0.000000;0.000000;;
  }
  Material {
   0.047200;0.376800;0.094400;1.000000;;
   5.000000;
   0.220000;0.220000;0.220000;;
   0.000000;0.000000;0.000000;;
  }
  Material {
   0.800000;0.800000;0.800000;1.000000;;
   5.000000;
   0.000000;0.000000;0.000000;;
   0.000000;0.000000;0.000000;;
   TextureFilename {
    "data/TEXTURE/cyuima-ku.png";
   }
  }
 }
 MeshNormals {
  116;
  0.000000;1.000000;0.000000;,
  0.374606;0.000000;-0.927184;,
  0.920505;0.000000;-0.390731;,
  0.927184;0.000000;0.374606;,
  0.390731;0.000000;0.920505;,
  -0.374606;0.000000;0.927184;,
  -0.920505;0.000000;0.390732;,
  -0.927184;0.000000;-0.374606;,
  -0.390732;0.000000;-0.920505;,
  0.927184;0.000000;0.374606;,
  -0.927184;0.000000;-0.374606;,
  -0.390732;0.000000;-0.920505;,
  0.374606;0.000000;-0.927184;,
  0.920505;0.000000;-0.390731;,
  -0.390732;0.000000;-0.920505;,
  0.000000;-1.000000;-0.000000;,
  0.000000;0.000000;-1.000000;,
  0.374607;0.000000;-0.927184;,
  0.920505;0.000000;-0.390731;,
  0.927184;0.000000;0.374607;,
  0.390731;0.000000;0.920505;,
  -0.374605;0.000000;0.927184;,
  -0.920505;0.000000;0.390731;,
  -0.927183;0.000000;-0.374608;,
  -0.390731;0.000000;-0.920505;,
  0.374607;0.000000;-0.927184;,
  0.920505;0.000000;-0.390731;,
  0.927184;0.000000;0.374607;,
  -0.374605;0.000000;0.927184;,
  0.000000;1.000000;0.000000;,
  0.374606;0.000000;-0.927184;,
  0.920505;0.000000;-0.390732;,
  0.927184;0.000000;0.374606;,
  0.390731;0.000000;0.920505;,
  -0.374606;0.000000;0.927184;,
  -0.920505;0.000000;0.390731;,
  -0.927184;0.000000;-0.374606;,
  -0.390732;0.000000;-0.920505;,
  -0.374606;0.000000;0.927184;,
  -0.927184;0.000000;-0.374606;,
  -0.390732;0.000000;-0.920505;,
  0.374606;0.000000;-0.927184;,
  0.927184;0.000000;0.374606;,
  0.000000;-1.000000;-0.000000;,
  0.000000;0.000000;-1.000000;,
  0.374606;0.000000;-0.927184;,
  0.920505;0.000000;-0.390732;,
  0.927184;0.000000;0.374607;,
  0.390731;0.000000;0.920505;,
  -0.374606;0.000000;0.927184;,
  -0.920505;0.000000;0.390730;,
  -0.927183;0.000000;-0.374608;,
  -0.390731;0.000000;-0.920505;,
  0.374606;0.000000;-0.927184;,
  0.920505;0.000000;-0.390732;,
  0.927184;0.000000;0.374607;,
  0.390731;0.000000;0.920505;,
  -0.374606;0.000000;0.927184;,
  -0.920505;0.000000;0.390730;,
  -0.390731;0.000000;-0.920505;,
  0.000000;1.000000;0.000000;,
  -0.374606;0.000000;0.927184;,
  -0.920504;0.000000;0.390732;,
  -0.927184;0.000000;-0.374606;,
  -0.390731;0.000000;-0.920505;,
  0.374607;0.000000;-0.927184;,
  0.920505;0.000000;-0.390731;,
  0.927184;0.000000;0.374606;,
  0.390731;0.000000;0.920505;,
  -0.374606;0.000000;0.927184;,
  -0.920505;0.000000;0.390732;,
  -0.390731;0.000000;-0.920505;,
  0.927184;0.000000;0.374606;,
  0.390731;0.000000;0.920505;,
  -0.374606;0.000000;0.927184;,
  -0.920505;0.000000;0.390732;,
  -0.927184;0.000000;-0.374606;,
  0.920505;0.000000;-0.390731;,
  0.000000;-1.000000;-0.000000;,
  0.000000;0.000000;1.000000;,
  -0.374607;0.000000;0.927184;,
  -0.920505;0.000000;0.390732;,
  -0.927184;0.000000;-0.374607;,
  0.374605;0.000000;-0.927185;,
  0.920505;0.000000;-0.390731;,
  0.927183;0.000000;0.374608;,
  0.390730;0.000000;0.920505;,
  -0.920504;0.000000;0.390732;,
  -0.927184;0.000000;-0.374607;,
  0.374605;0.000000;-0.927184;,
  0.920505;0.000000;-0.390731;,
  0.927183;0.000000;0.374608;,
  0.000000;1.000000;0.000000;,
  0.374606;0.000000;-0.927184;,
  0.920505;0.000000;-0.390731;,
  0.927184;0.000000;0.374606;,
  0.390732;0.000000;0.920505;,
  -0.374606;0.000000;0.927184;,
  -0.920505;0.000000;0.390731;,
  -0.927184;0.000000;-0.374606;,
  -0.390732;0.000000;-0.920505;,
  0.927184;0.000000;0.374606;,
  0.390732;0.000000;0.920505;,
  0.000000;-1.000000;-0.000000;,
  0.000000;0.000000;-1.000000;,
  0.374607;0.000000;-0.927184;,
  0.920505;0.000000;-0.390731;,
  0.927184;0.000000;0.374607;,
  0.390731;0.000000;0.920505;,
  -0.374605;0.000000;0.927184;,
  -0.920505;0.000000;0.390730;,
  -0.927183;0.000000;-0.374609;,
  -0.390731;0.000000;-0.920505;,
  0.374607;0.000000;-0.927184;,
  0.920505;0.000000;-0.390731;,
  0.390731;0.000000;0.920505;;
  356;
  4;1,2,2,1;,
  4;2,3,3,2;,
  4;3,4,4,3;,
  4;4,5,5,4;,
  4;5,6,6,5;,
  4;6,7,7,6;,
  4;7,8,8,7;,
  4;8,1,1,8;,
  4;1,2,2,1;,
  4;2,9,9,2;,
  4;9,4,4,9;,
  4;4,5,5,4;,
  4;5,6,6,5;,
  4;6,10,10,6;,
  4;10,11,11,10;,
  4;11,1,1,11;,
  4;12,13,13,12;,
  4;13,3,3,13;,
  4;3,4,4,3;,
  4;4,5,5,4;,
  4;5,6,6,5;,
  4;6,10,10,6;,
  4;10,14,14,10;,
  4;14,12,12,14;,
  3;0,0,0;,
  3;0,0,0;,
  3;0,0,0;,
  3;0,0,0;,
  3;0,0,0;,
  3;0,0,0;,
  3;0,0,0;,
  3;0,0,0;,
  3;15,15,15;,
  3;15,15,15;,
  3;15,15,15;,
  3;15,15,15;,
  3;15,15,15;,
  3;15,15,15;,
  3;15,15,15;,
  3;15,15,15;,
  4;15,15,15,15;,
  4;0,0,0,0;,
  4;17,18,18,17;,
  4;15,15,15,15;,
  4;0,0,0,0;,
  4;18,19,19,18;,
  4;15,15,15,15;,
  4;0,0,0,0;,
  4;19,20,20,19;,
  4;15,15,15,15;,
  4;0,0,0,0;,
  4;20,21,21,20;,
  4;15,15,15,15;,
  4;0,0,0,0;,
  4;21,22,22,21;,
  4;15,15,15,15;,
  4;0,0,0,0;,
  4;22,23,23,22;,
  4;15,15,15,15;,
  4;0,0,0,0;,
  4;23,24,24,23;,
  4;15,15,15,15;,
  4;0,0,0,0;,
  4;24,17,17,24;,
  4;15,15,15,15;,
  4;0,0,0,0;,
  4;25,26,26,25;,
  4;15,15,15,15;,
  4;0,0,0,0;,
  4;26,27,27,26;,
  4;15,15,15,15;,
  4;0,0,0,0;,
  4;27,20,20,27;,
  4;15,15,15,15;,
  4;0,0,0,0;,
  4;20,28,28,20;,
  4;15,15,15,15;,
  4;0,0,0,0;,
  4;28,22,22,28;,
  4;15,15,15,15;,
  4;0,0,0,0;,
  4;22,23,23,22;,
  4;15,15,15,15;,
  4;0,0,0,0;,
  4;23,24,24,23;,
  4;15,15,15,15;,
  4;0,0,0,0;,
  4;24,25,25,24;,
  4;16,16,16,16;,
  4;30,31,31,30;,
  4;31,32,32,31;,
  4;32,33,33,32;,
  4;33,34,34,33;,
  4;34,35,35,34;,
  4;35,36,36,35;,
  4;36,37,37,36;,
  4;37,30,30,37;,
  4;30,31,31,30;,
  4;31,32,32,31;,
  4;32,33,33,32;,
  4;33,38,38,33;,
  4;38,35,35,38;,
  4;35,39,39,35;,
  4;39,40,40,39;,
  4;40,30,30,40;,
  4;41,31,31,41;,
  4;31,42,42,31;,
  4;42,33,33,42;,
  4;33,34,34,33;,
  4;34,35,35,34;,
  4;35,39,39,35;,
  4;39,40,40,39;,
  4;40,41,41,40;,
  3;29,29,29;,
  3;29,29,29;,
  3;29,29,29;,
  3;29,29,29;,
  3;29,29,29;,
  3;29,29,29;,
  3;29,29,29;,
  3;29,29,29;,
  3;43,43,43;,
  3;43,43,43;,
  3;43,43,43;,
  3;43,43,43;,
  3;43,43,43;,
  3;43,43,43;,
  3;43,43,43;,
  3;43,43,43;,
  4;43,43,43,43;,
  4;29,29,29,29;,
  4;45,46,46,45;,
  4;43,43,43,43;,
  4;29,29,29,29;,
  4;46,47,47,46;,
  4;43,43,43,43;,
  4;29,29,29,29;,
  4;47,48,48,47;,
  4;43,43,43,43;,
  4;29,29,29,29;,
  4;48,49,49,48;,
  4;43,43,43,43;,
  4;29,29,29,29;,
  4;49,50,50,49;,
  4;43,43,43,43;,
  4;29,29,29,29;,
  4;50,51,51,50;,
  4;43,43,43,43;,
  4;29,29,29,29;,
  4;51,52,52,51;,
  4;43,43,43,43;,
  4;29,29,29,29;,
  4;52,45,45,52;,
  4;43,43,43,43;,
  4;29,29,29,29;,
  4;53,54,54,53;,
  4;43,43,43,43;,
  4;29,29,29,29;,
  4;54,55,55,54;,
  4;43,43,43,43;,
  4;29,29,29,29;,
  4;55,56,56,55;,
  4;43,43,43,43;,
  4;29,29,29,29;,
  4;56,57,57,56;,
  4;43,43,43,43;,
  4;29,29,29,29;,
  4;57,58,58,57;,
  4;43,43,43,43;,
  4;29,29,29,29;,
  4;58,51,51,58;,
  4;43,43,43,43;,
  4;29,29,29,29;,
  4;51,59,59,51;,
  4;43,43,43,43;,
  4;29,29,29,29;,
  4;59,53,53,59;,
  4;44,44,44,44;,
  4;61,62,62,61;,
  4;62,63,63,62;,
  4;63,64,64,63;,
  4;64,65,65,64;,
  4;65,66,66,65;,
  4;66,67,67,66;,
  4;67,68,68,67;,
  4;68,61,61,68;,
  4;69,70,70,69;,
  4;70,63,63,70;,
  4;63,71,71,63;,
  4;71,65,65,71;,
  4;65,66,66,65;,
  4;66,72,72,66;,
  4;72,73,73,72;,
  4;73,69,69,73;,
  4;74,75,75,74;,
  4;75,76,76,75;,
  4;76,71,71,76;,
  4;71,65,65,71;,
  4;65,77,77,65;,
  4;77,72,72,77;,
  4;72,68,68,72;,
  4;68,74,74,68;,
  3;60,60,60;,
  3;60,60,60;,
  3;60,60,60;,
  3;60,60,60;,
  3;60,60,60;,
  3;60,60,60;,
  3;60,60,60;,
  3;60,60,60;,
  3;78,78,78;,
  3;78,78,78;,
  3;78,78,78;,
  3;78,78,78;,
  3;78,78,78;,
  3;78,78,78;,
  3;78,78,78;,
  3;78,78,78;,
  4;78,78,78,78;,
  4;60,60,60,60;,
  4;80,81,81,80;,
  4;78,78,78,78;,
  4;60,60,60,60;,
  4;81,82,82,81;,
  4;78,78,78,78;,
  4;60,60,60,60;,
  4;82,64,64,82;,
  4;78,78,78,78;,
  4;60,60,60,60;,
  4;64,83,83,64;,
  4;78,78,78,78;,
  4;60,60,60,60;,
  4;83,84,84,83;,
  4;78,78,78,78;,
  4;60,60,60,60;,
  4;84,85,85,84;,
  4;78,78,78,78;,
  4;60,60,60,60;,
  4;85,86,86,85;,
  4;78,78,78,78;,
  4;60,60,60,60;,
  4;86,80,80,86;,
  4;78,78,78,78;,
  4;60,60,60,60;,
  4;80,87,87,80;,
  4;78,78,78,78;,
  4;60,60,60,60;,
  4;87,88,88,87;,
  4;78,78,78,78;,
  4;60,60,60,60;,
  4;88,64,64,88;,
  4;78,78,78,78;,
  4;60,60,60,60;,
  4;64,89,89,64;,
  4;78,78,78,78;,
  4;60,60,60,60;,
  4;89,90,90,89;,
  4;78,78,78,78;,
  4;60,60,60,60;,
  4;90,91,91,90;,
  4;78,78,78,78;,
  4;60,60,60,60;,
  4;91,86,86,91;,
  4;78,78,78,78;,
  4;60,60,60,60;,
  4;86,80,80,86;,
  4;79,79,79,79;,
  4;93,94,94,93;,
  4;94,95,95,94;,
  4;95,96,96,95;,
  4;96,97,97,96;,
  4;97,98,98,97;,
  4;98,99,99,98;,
  4;99,100,100,99;,
  4;100,93,93,100;,
  4;93,94,94,93;,
  4;94,101,101,94;,
  4;101,102,102,101;,
  4;102,97,97,102;,
  4;97,98,98,97;,
  4;98,99,99,98;,
  4;99,100,100,99;,
  4;100,93,93,100;,
  4;93,94,94,93;,
  4;94,101,101,94;,
  4;101,102,102,101;,
  4;102,97,97,102;,
  4;97,98,98,97;,
  4;98,99,99,98;,
  4;99,100,100,99;,
  4;100,93,93,100;,
  3;92,92,92;,
  3;92,92,92;,
  3;92,92,92;,
  3;92,92,92;,
  3;92,92,92;,
  3;92,92,92;,
  3;92,92,92;,
  3;92,92,92;,
  3;103,103,103;,
  3;103,103,103;,
  3;103,103,103;,
  3;103,103,103;,
  3;103,103,103;,
  3;103,103,103;,
  3;103,103,103;,
  3;103,103,103;,
  4;103,103,103,103;,
  4;92,92,92,92;,
  4;105,106,106,105;,
  4;103,103,103,103;,
  4;92,92,92,92;,
  4;106,107,107,106;,
  4;103,103,103,103;,
  4;92,92,92,92;,
  4;107,108,108,107;,
  4;103,103,103,103;,
  4;92,92,92,92;,
  4;108,109,109,108;,
  4;103,103,103,103;,
  4;92,92,92,92;,
  4;109,110,110,109;,
  4;103,103,103,103;,
  4;92,92,92,92;,
  4;110,111,111,110;,
  4;103,103,103,103;,
  4;92,92,92,92;,
  4;111,112,112,111;,
  4;103,103,103,103;,
  4;92,92,92,92;,
  4;112,105,105,112;,
  4;103,103,103,103;,
  4;92,92,92,92;,
  4;113,114,114,113;,
  4;103,103,103,103;,
  4;92,92,92,92;,
  4;114,107,107,114;,
  4;103,103,103,103;,
  4;92,92,92,92;,
  4;107,115,115,107;,
  4;103,103,103,103;,
  4;92,92,92,92;,
  4;115,109,109,115;,
  4;103,103,103,103;,
  4;92,92,92,92;,
  4;109,110,110,109;,
  4;103,103,103,103;,
  4;92,92,92,92;,
  4;110,111,111,110;,
  4;103,103,103,103;,
  4;92,92,92,92;,
  4;111,112,112,111;,
  4;103,103,103,103;,
  4;92,92,92,92;,
  4;112,113,113,112;,
  4;104,104,104,104;;
 }
 MeshTextureCoords {
  440;
  0.000000;0.000000;,
  0.125000;0.000000;,
  0.125000;0.200000;,
  0.000000;0.200000;,
  0.250000;0.000000;,
  0.250000;0.200000;,
  0.375000;0.000000;,
  0.375000;0.200000;,
  0.500000;0.000000;,
  0.500000;0.200000;,
  0.625000;0.000000;,
  0.625000;0.200000;,
  0.750000;0.000000;,
  0.750000;0.200000;,
  0.875000;0.000000;,
  0.875000;0.200000;,
  1.000000;0.000000;,
  1.000000;0.200000;,
  0.000000;0.400000;,
  0.125000;0.400000;,
  0.125000;0.600000;,
  0.000000;0.600000;,
  0.250000;0.400000;,
  0.250000;0.600000;,
  0.375000;0.400000;,
  0.375000;0.600000;,
  0.500000;0.400000;,
  0.500000;0.600000;,
  0.625000;0.400000;,
  0.625000;0.600000;,
  0.750000;0.400000;,
  0.750000;0.600000;,
  0.875000;0.400000;,
  0.875000;0.600000;,
  1.000000;0.400000;,
  1.000000;0.600000;,
  0.000000;0.800000;,
  0.125000;0.800000;,
  0.125000;1.000000;,
  0.000000;1.000000;,
  0.250000;0.800000;,
  0.250000;1.000000;,
  0.375000;0.800000;,
  0.375000;1.000000;,
  0.500000;0.800000;,
  0.500000;1.000000;,
  0.625000;0.800000;,
  0.625000;1.000000;,
  0.750000;0.800000;,
  0.750000;1.000000;,
  0.875000;0.800000;,
  0.875000;1.000000;,
  1.000000;0.800000;,
  1.000000;1.000000;,
  0.062500;0.000000;,
  0.187500;0.000000;,
  0.312500;0.000000;,
  0.437500;0.000000;,
  0.562500;0.000000;,
  0.687500;0.000000;,
  0.812500;0.000000;,
  0.937500;0.000000;,
  0.062500;1.000000;,
  0.187500;1.000000;,
  0.312500;1.000000;,
  0.437500;1.000000;,
  0.562500;1.000000;,
  0.687500;1.000000;,
  0.812500;1.000000;,
  0.937500;1.000000;,
  0.125000;0.200000;,
  0.000000;0.200000;,
  0.000000;0.400000;,
  0.125000;0.400000;,
  0.250000;0.200000;,
  0.250000;0.400000;,
  0.375000;0.200000;,
  0.375000;0.400000;,
  0.500000;0.200000;,
  0.500000;0.400000;,
  0.625000;0.200000;,
  0.625000;0.400000;,
  0.750000;0.200000;,
  0.750000;0.400000;,
  0.875000;0.200000;,
  0.875000;0.400000;,
  1.000000;0.200000;,
  1.000000;0.400000;,
  0.125000;0.600000;,
  0.000000;0.600000;,
  0.000000;0.800000;,
  0.125000;0.800000;,
  0.250000;0.600000;,
  0.250000;0.800000;,
  0.375000;0.600000;,
  0.375000;0.800000;,
  0.500000;0.600000;,
  0.500000;0.800000;,
  0.625000;0.600000;,
  0.625000;0.800000;,
  0.750000;0.600000;,
  0.750000;0.800000;,
  0.875000;0.600000;,
  0.875000;0.800000;,
  1.000000;0.600000;,
  1.000000;0.800000;,
  0.000000;0.000000;,
  1.000000;0.000000;,
  1.000000;1.000000;,
  0.000000;1.000000;,
  0.000000;0.000000;,
  0.125000;0.000000;,
  0.125000;0.200000;,
  0.000000;0.200000;,
  0.250000;0.000000;,
  0.250000;0.200000;,
  0.375000;0.000000;,
  0.375000;0.200000;,
  0.500000;0.000000;,
  0.500000;0.200000;,
  0.625000;0.000000;,
  0.625000;0.200000;,
  0.750000;0.000000;,
  0.750000;0.200000;,
  0.875000;0.000000;,
  0.875000;0.200000;,
  1.000000;0.000000;,
  1.000000;0.200000;,
  0.000000;0.400000;,
  0.125000;0.400000;,
  0.125000;0.600000;,
  0.000000;0.600000;,
  0.250000;0.400000;,
  0.250000;0.600000;,
  0.375000;0.400000;,
  0.375000;0.600000;,
  0.500000;0.400000;,
  0.500000;0.600000;,
  0.625000;0.400000;,
  0.625000;0.600000;,
  0.750000;0.400000;,
  0.750000;0.600000;,
  0.875000;0.400000;,
  0.875000;0.600000;,
  1.000000;0.400000;,
  1.000000;0.600000;,
  0.000000;0.800000;,
  0.125000;0.800000;,
  0.125000;1.000000;,
  0.000000;1.000000;,
  0.250000;0.800000;,
  0.250000;1.000000;,
  0.375000;0.800000;,
  0.375000;1.000000;,
  0.500000;0.800000;,
  0.500000;1.000000;,
  0.625000;0.800000;,
  0.625000;1.000000;,
  0.750000;0.800000;,
  0.750000;1.000000;,
  0.875000;0.800000;,
  0.875000;1.000000;,
  1.000000;0.800000;,
  1.000000;1.000000;,
  0.062500;0.000000;,
  0.187500;0.000000;,
  0.312500;0.000000;,
  0.437500;0.000000;,
  0.562500;0.000000;,
  0.687500;0.000000;,
  0.812500;0.000000;,
  0.937500;0.000000;,
  0.062500;1.000000;,
  0.187500;1.000000;,
  0.312500;1.000000;,
  0.437500;1.000000;,
  0.562500;1.000000;,
  0.687500;1.000000;,
  0.812500;1.000000;,
  0.937500;1.000000;,
  0.125000;0.200000;,
  0.000000;0.200000;,
  0.000000;0.400000;,
  0.125000;0.400000;,
  0.250000;0.200000;,
  0.250000;0.400000;,
  0.375000;0.200000;,
  0.375000;0.400000;,
  0.500000;0.200000;,
  0.500000;0.400000;,
  0.625000;0.200000;,
  0.625000;0.400000;,
  0.750000;0.200000;,
  0.750000;0.400000;,
  0.875000;0.200000;,
  0.875000;0.400000;,
  1.000000;0.200000;,
  1.000000;0.400000;,
  0.125000;0.600000;,
  0.000000;0.600000;,
  0.000000;0.800000;,
  0.125000;0.800000;,
  0.250000;0.600000;,
  0.250000;0.800000;,
  0.375000;0.600000;,
  0.375000;0.800000;,
  0.500000;0.600000;,
  0.500000;0.800000;,
  0.625000;0.600000;,
  0.625000;0.800000;,
  0.750000;0.600000;,
  0.750000;0.800000;,
  0.875000;0.600000;,
  0.875000;0.800000;,
  1.000000;0.600000;,
  1.000000;0.800000;,
  0.000000;0.000000;,
  1.000000;0.000000;,
  1.000000;1.000000;,
  0.000000;1.000000;,
  0.000000;0.000000;,
  0.125000;0.000000;,
  0.125000;0.200000;,
  0.000000;0.200000;,
  0.250000;0.000000;,
  0.250000;0.200000;,
  0.375000;0.000000;,
  0.375000;0.200000;,
  0.500000;0.000000;,
  0.500000;0.200000;,
  0.625000;0.000000;,
  0.625000;0.200000;,
  0.750000;0.000000;,
  0.750000;0.200000;,
  0.875000;0.000000;,
  0.875000;0.200000;,
  1.000000;0.000000;,
  1.000000;0.200000;,
  0.000000;0.400000;,
  0.125000;0.400000;,
  0.125000;0.600000;,
  0.000000;0.600000;,
  0.250000;0.400000;,
  0.250000;0.600000;,
  0.375000;0.400000;,
  0.375000;0.600000;,
  0.500000;0.400000;,
  0.500000;0.600000;,
  0.625000;0.400000;,
  0.625000;0.600000;,
  0.750000;0.400000;,
  0.750000;0.600000;,
  0.875000;0.400000;,
  0.875000;0.600000;,
  1.000000;0.400000;,
  1.000000;0.600000;,
  0.000000;0.800000;,
  0.125000;0.800000;,
  0.125000;1.000000;,
  0.000000;1.000000;,
  0.250000;0.800000;,
  0.250000;1.000000;,
  0.375000;0.800000;,
  0.375000;1.000000;,
  0.500000;0.800000;,
  0.500000;1.000000;,
  0.625000;0.800000;,
  0.625000;1.000000;,
  0.750000;0.800000;,
  0.750000;1.000000;,
  0.875000;0.800000;,
  0.875000;1.000000;,
  1.000000;0.800000;,
  1.000000;1.000000;,
  0.062500;0.000000;,
  0.187500;0.000000;,
  0.312500;0.000000;,
  0.437500;0.000000;,
  0.562500;0.000000;,
  0.687500;0.000000;,
  0.812500;0.000000;,
  0.937500;0.000000;,
  0.062500;1.000000;,
  0.187500;1.000000;,
  0.312500;1.000000;,
  0.437500;1.000000;,
  0.562500;1.000000;,
  0.687500;1.000000;,
  0.812500;1.000000;,
  0.937500;1.000000;,
  0.125000;0.200000;,
  0.000000;0.200000;,
  0.000000;0.400000;,
  0.125000;0.400000;,
  0.250000;0.200000;,
  0.250000;0.400000;,
  0.375000;0.200000;,
  0.375000;0.400000;,
  0.500000;0.200000;,
  0.500000;0.400000;,
  0.625000;0.200000;,
  0.625000;0.400000;,
  0.750000;0.200000;,
  0.750000;0.400000;,
  0.875000;0.200000;,
  0.875000;0.400000;,
  1.000000;0.200000;,
  1.000000;0.400000;,
  0.125000;0.600000;,
  0.000000;0.600000;,
  0.000000;0.800000;,
  0.125000;0.800000;,
  0.250000;0.600000;,
  0.250000;0.800000;,
  0.375000;0.600000;,
  0.375000;0.800000;,
  0.500000;0.600000;,
  0.500000;0.800000;,
  0.625000;0.600000;,
  0.625000;0.800000;,
  0.750000;0.600000;,
  0.750000;0.800000;,
  0.875000;0.600000;,
  0.875000;0.800000;,
  1.000000;0.600000;,
  1.000000;0.800000;,
  0.000000;0.000000;,
  1.000000;0.000000;,
  1.000000;1.000000;,
  0.000000;1.000000;,
  0.000000;0.000000;,
  0.125000;0.000000;,
  0.125000;0.200000;,
  0.000000;0.200000;,
  0.250000;0.000000;,
  0.250000;0.200000;,
  0.375000;0.000000;,
  0.375000;0.200000;,
  0.500000;0.000000;,
  0.500000;0.200000;,
  0.625000;0.000000;,
  0.625000;0.200000;,
  0.750000;0.000000;,
  0.750000;0.200000;,
  0.875000;0.000000;,
  0.875000;0.200000;,
  1.000000;0.000000;,
  1.000000;0.200000;,
  0.000000;0.400000;,
  0.125000;0.400000;,
  0.125000;0.600000;,
  0.000000;0.600000;,
  0.250000;0.400000;,
  0.250000;0.600000;,
  0.375000;0.400000;,
  0.375000;0.600000;,
  0.500000;0.400000;,
  0.500000;0.600000;,
  0.625000;0.400000;,
  0.625000;0.600000;,
  0.750000;0.400000;,
  0.750000;0.600000;,
  0.875000;0.400000;,
  0.875000;0.600000;,
  1.000000;0.400000;,
  1.000000;0.600000;,
  0.000000;0.800000;,
  0.125000;0.800000;,
  0.125000;1.000000;,
  0.000000;1.000000;,
  0.250000;0.800000;,
  0.250000;1.000000;,
  0.375000;0.800000;,
  0.375000;1.000000;,
  0.500000;0.800000;,
  0.500000;1.000000;,
  0.625000;0.800000;,
  0.625000;1.000000;,
  0.750000;0.800000;,
  0.750000;1.000000;,
  0.875000;0.800000;,
  0.875000;1.000000;,
  1.000000;0.800000;,
  1.000000;1.000000;,
  0.062500;0.000000;,
  0.187500;0.000000;,
  0.312500;0.000000;,
  0.437500;0.000000;,
  0.562500;0.000000;,
  0.687500;0.000000;,
  0.812500;0.000000;,
  0.937500;0.000000;,
  0.062500;1.000000;,
  0.187500;1.000000;,
  0.312500;1.000000;,
  0.437500;1.000000;,
  0.562500;1.000000;,
  0.687500;1.000000;,
  0.812500;1.000000;,
  0.937500;1.000000;,
  0.125000;0.200000;,
  0.000000;0.200000;,
  0.000000;0.400000;,
  0.125000;0.400000;,
  0.250000;0.200000;,
  0.250000;0.400000;,
  0.375000;0.200000;,
  0.375000;0.400000;,
  0.500000;0.200000;,
  0.500000;0.400000;,
  0.625000;0.200000;,
  0.625000;0.400000;,
  0.750000;0.200000;,
  0.750000;0.400000;,
  0.875000;0.200000;,
  0.875000;0.400000;,
  1.000000;0.200000;,
  1.000000;0.400000;,
  0.125000;0.600000;,
  0.000000;0.600000;,
  0.000000;0.800000;,
  0.125000;0.800000;,
  0.250000;0.600000;,
  0.250000;0.800000;,
  0.375000;0.600000;,
  0.375000;0.800000;,
  0.500000;0.600000;,
  0.500000;0.800000;,
  0.625000;0.600000;,
  0.625000;0.800000;,
  0.750000;0.600000;,
  0.750000;0.800000;,
  0.875000;0.600000;,
  0.875000;0.800000;,
  1.000000;0.600000;,
  1.000000;0.800000;,
  0.000000;0.000000;,
  1.000000;0.000000;,
  1.000000;1.000000;,
  0.000000;1.000000;;
 }
}
