xof 0302txt 0064
template Header {
 <3D82AB43-62DA-11cf-AB39-0020AF71E433>
 WORD major;
 WORD minor;
 DWORD flags;
}

template Vector {
 <3D82AB5E-62DA-11cf-AB39-0020AF71E433>
 FLOAT x;
 FLOAT y;
 FLOAT z;
}

template Coords2d {
 <F6F23F44-7686-11cf-8F52-0040333594A3>
 FLOAT u;
 FLOAT v;
}

template Matrix4x4 {
 <F6F23F45-7686-11cf-8F52-0040333594A3>
 array FLOAT matrix[16];
}

template ColorRGBA {
 <35FF44E0-6C7C-11cf-8F52-0040333594A3>
 FLOAT red;
 FLOAT green;
 FLOAT blue;
 FLOAT alpha;
}

template ColorRGB {
 <D3E16E81-7835-11cf-8F52-0040333594A3>
 FLOAT red;
 FLOAT green;
 FLOAT blue;
}

template IndexedColor {
 <1630B820-7842-11cf-8F52-0040333594A3>
 DWORD index;
 ColorRGBA indexColor;
}

template Boolean {
 <4885AE61-78E8-11cf-8F52-0040333594A3>
 WORD truefalse;
}

template Boolean2d {
 <4885AE63-78E8-11cf-8F52-0040333594A3>
 Boolean u;
 Boolean v;
}

template MaterialWrap {
 <4885AE60-78E8-11cf-8F52-0040333594A3>
 Boolean u;
 Boolean v;
}

template TextureFilename {
 <A42790E1-7810-11cf-8F52-0040333594A3>
 STRING filename;
}

template Material {
 <3D82AB4D-62DA-11cf-AB39-0020AF71E433>
 ColorRGBA faceColor;
 FLOAT power;
 ColorRGB specularColor;
 ColorRGB emissiveColor;
 [...]
}

template MeshFace {
 <3D82AB5F-62DA-11cf-AB39-0020AF71E433>
 DWORD nFaceVertexIndices;
 array DWORD faceVertexIndices[nFaceVertexIndices];
}

template MeshFaceWraps {
 <4885AE62-78E8-11cf-8F52-0040333594A3>
 DWORD nFaceWrapValues;
 Boolean2d faceWrapValues;
}

template MeshTextureCoords {
 <F6F23F40-7686-11cf-8F52-0040333594A3>
 DWORD nTextureCoords;
 array Coords2d textureCoords[nTextureCoords];
}

template MeshMaterialList {
 <F6F23F42-7686-11cf-8F52-0040333594A3>
 DWORD nMaterials;
 DWORD nFaceIndexes;
 array DWORD faceIndexes[nFaceIndexes];
 [Material]
}

template MeshNormals {
 <F6F23F43-7686-11cf-8F52-0040333594A3>
 DWORD nNormals;
 array Vector normals[nNormals];
 DWORD nFaceNormals;
 array MeshFace faceNormals[nFaceNormals];
}

template MeshVertexColors {
 <1630B821-7842-11cf-8F52-0040333594A3>
 DWORD nVertexColors;
 array IndexedColor vertexColors[nVertexColors];
}

template Mesh {
 <3D82AB44-62DA-11cf-AB39-0020AF71E433>
 DWORD nVertices;
 array Vector vertices[nVertices];
 DWORD nFaces;
 array MeshFace faces[nFaces];
 [...]
}

Header{
1;
0;
1;
}

Mesh {
 86;
 9.02379;83.64806;-22.33467;,
 22.17378;83.64806;-9.41222;,
 22.17378;78.08060;-9.41222;,
 9.02379;78.08060;-22.33467;,
 22.33467;83.64806;9.02379;,
 22.33467;78.08060;9.02379;,
 9.41222;83.64806;22.17378;,
 9.41222;78.08060;22.17378;,
 -9.02379;83.64806;22.33467;,
 -9.02379;78.08060;22.33467;,
 -22.17378;83.64806;9.41222;,
 -22.17378;78.08060;9.41222;,
 -22.33467;83.64806;-9.02379;,
 -22.33467;78.08060;-9.02379;,
 -9.41222;83.64806;-22.17378;,
 -9.41222;78.08060;-22.17378;,
 9.02379;44.67564;-22.33467;,
 22.17378;44.67564;-9.41222;,
 22.17378;39.10814;-9.41222;,
 9.02379;39.10814;-22.33467;,
 22.33467;44.67564;9.02379;,
 22.33467;39.10814;9.02379;,
 9.41222;44.67564;22.17378;,
 9.41222;39.10814;22.17378;,
 -9.02379;44.67564;22.33467;,
 -9.02379;39.10814;22.33467;,
 -22.17378;44.67564;9.41222;,
 -22.17378;39.10814;9.41222;,
 -22.33467;44.67564;-9.02379;,
 -22.33467;39.10814;-9.02379;,
 -9.41222;44.67564;-22.17378;,
 -9.41222;39.10814;-22.17378;,
 9.02379;2.91942;-22.33467;,
 22.17378;2.91942;-9.41222;,
 22.17378;-2.64809;-9.41222;,
 9.02379;-2.64809;-22.33467;,
 22.33467;2.91942;9.02379;,
 22.33467;-2.64809;9.02379;,
 9.41222;2.91942;22.17378;,
 9.41222;-2.64809;22.17378;,
 -9.02379;2.91942;22.33467;,
 -9.02379;-2.64809;22.33467;,
 -22.17378;2.91942;9.41222;,
 -22.17378;-2.64809;9.41222;,
 -22.33467;2.91942;-9.02379;,
 -22.33467;-2.64809;-9.02379;,
 -9.41222;2.91942;-22.17378;,
 -9.41222;-2.64809;-22.17378;,
 0.00000;83.64806;0.00000;,
 0.00000;-2.64809;-0.00000;,
 20.33002;78.08060;-8.62957;,
 8.27347;78.08060;-20.47755;,
 8.27347;44.67564;-20.47755;,
 20.33002;44.67564;-8.62957;,
 20.47755;78.08060;8.27347;,
 20.47755;44.67564;8.27347;,
 8.62957;78.08060;20.33002;,
 8.62957;44.67564;20.33002;,
 -8.27347;78.08060;20.47755;,
 -8.27347;44.67564;20.47755;,
 -20.33006;78.08060;8.62957;,
 -20.33006;44.67564;8.62957;,
 -20.47755;78.08060;-8.27347;,
 -20.47755;44.67564;-8.27347;,
 -8.62957;78.08060;-20.33002;,
 -8.62957;44.67564;-20.33002;,
 20.33002;39.10814;-8.62957;,
 8.27347;39.10814;-20.47755;,
 8.27347;2.91942;-20.47755;,
 20.33002;2.91942;-8.62957;,
 20.47755;39.10814;8.27347;,
 20.47755;2.91942;8.27347;,
 8.62957;39.10814;20.33002;,
 8.62957;2.91942;20.33002;,
 -8.27347;39.10814;20.47755;,
 -8.27347;2.91942;20.47755;,
 -20.33006;39.10814;8.62957;,
 -20.33006;2.91942;8.62957;,
 -20.47755;39.10814;-8.27347;,
 -20.47755;2.91942;-8.27347;,
 -8.62957;39.10814;-20.33002;,
 -8.62957;2.91942;-20.33002;,
 -12.56046;74.82508;-20.57526;,
 12.81728;74.82508;-20.57526;,
 12.81728;48.19463;-20.57526;,
 -12.56046;48.19463;-20.57526;;
 
 89;
 4;0,1,2,3;,
 4;1,4,5,2;,
 4;4,6,7,5;,
 4;6,8,9,7;,
 4;8,10,11,9;,
 4;10,12,13,11;,
 4;12,14,15,13;,
 4;14,0,3,15;,
 4;16,17,18,19;,
 4;17,20,21,18;,
 4;20,22,23,21;,
 4;22,24,25,23;,
 4;24,26,27,25;,
 4;26,28,29,27;,
 4;28,30,31,29;,
 4;30,16,19,31;,
 4;32,33,34,35;,
 4;33,36,37,34;,
 4;36,38,39,37;,
 4;38,40,41,39;,
 4;40,42,43,41;,
 4;42,44,45,43;,
 4;44,46,47,45;,
 4;46,32,35,47;,
 3;48,1,0;,
 3;48,4,1;,
 3;48,6,4;,
 3;48,8,6;,
 3;48,10,8;,
 3;48,12,10;,
 3;48,14,12;,
 3;48,0,14;,
 3;49,35,34;,
 3;49,34,37;,
 3;49,37,39;,
 3;49,39,41;,
 3;49,41,43;,
 3;49,43,45;,
 3;49,45,47;,
 3;49,47,35;,
 4;50,51,3,2;,
 4;52,53,17,16;,
 4;51,50,53,52;,
 4;54,50,2,5;,
 4;53,55,20,17;,
 4;50,54,55,53;,
 4;56,54,5,7;,
 4;55,57,22,20;,
 4;54,56,57,55;,
 4;58,56,7,9;,
 4;57,59,24,22;,
 4;56,58,59,57;,
 4;60,58,9,11;,
 4;59,61,26,24;,
 4;58,60,61,59;,
 4;62,60,11,13;,
 4;61,63,28,26;,
 4;60,62,63,61;,
 4;64,62,13,15;,
 4;63,65,30,28;,
 4;62,64,65,63;,
 4;51,64,15,3;,
 4;65,52,16,30;,
 4;64,51,52,65;,
 4;66,67,19,18;,
 4;68,69,33,32;,
 4;67,66,69,68;,
 4;70,66,18,21;,
 4;69,71,36,33;,
 4;66,70,71,69;,
 4;72,70,21,23;,
 4;71,73,38,36;,
 4;70,72,73,71;,
 4;74,72,23,25;,
 4;73,75,40,38;,
 4;72,74,75,73;,
 4;76,74,25,27;,
 4;75,77,42,40;,
 4;74,76,77,75;,
 4;78,76,27,29;,
 4;77,79,44,42;,
 4;76,78,79,77;,
 4;80,78,29,31;,
 4;79,81,46,44;,
 4;78,80,81,79;,
 4;67,80,31,19;,
 4;81,68,32,46;,
 4;80,67,68,81;,
 4;82,83,84,85;;
 
 MeshMaterialList {
  3;
  89;
  1,
  1,
  1,
  1,
  1,
  1,
  1,
  1,
  1,
  1,
  1,
  1,
  1,
  1,
  1,
  1,
  1,
  1,
  1,
  1,
  1,
  1,
  1,
  1,
  1,
  1,
  1,
  1,
  1,
  1,
  1,
  1,
  1,
  1,
  1,
  1,
  1,
  1,
  1,
  1,
  1,
  1,
  0,
  1,
  1,
  0,
  1,
  1,
  0,
  1,
  1,
  0,
  1,
  1,
  0,
  1,
  1,
  0,
  1,
  1,
  0,
  1,
  1,
  0,
  1,
  1,
  0,
  1,
  1,
  0,
  1,
  1,
  0,
  1,
  1,
  0,
  1,
  1,
  0,
  1,
  1,
  0,
  1,
  1,
  0,
  1,
  1,
  0,
  2;;
  Material {
   0.076110;0.328630;0.076110;1.000000;;
   48.000000;
   0.000000;0.000000;0.000000;;
   0.000000;0.000000;0.000000;;
  }
  Material {
   0.047200;0.376800;0.094400;1.000000;;
   5.000000;
   0.220000;0.220000;0.220000;;
   0.000000;0.000000;0.000000;;
  }
  Material {
   0.800000;0.800000;0.800000;1.000000;;
   5.000000;
   0.000000;0.000000;0.000000;;
   0.000000;0.000000;0.000000;;
   TextureFilename {
    "data/TEXTURE/cyuima-ku.png";
   }
  }
 }
 MeshNormals {
  26;
  0.000000;1.000000;0.000000;,
  0.374606;0.000000;-0.927184;,
  0.920505;0.000000;-0.390731;,
  0.927184;0.000000;0.374606;,
  0.390731;0.000000;0.920505;,
  -0.374606;0.000000;0.927184;,
  -0.920505;0.000000;0.390731;,
  -0.927184;0.000000;-0.374606;,
  -0.390731;0.000000;-0.920505;,
  0.920505;0.000000;-0.390731;,
  0.390731;0.000000;0.920505;,
  -0.920505;0.000000;0.390731;,
  -0.390731;0.000000;-0.920505;,
  0.000000;-1.000000;-0.000000;,
  0.374607;0.000000;-0.927184;,
  0.920505;0.000000;-0.390731;,
  0.927184;0.000000;0.374607;,
  0.390731;0.000000;0.920505;,
  -0.374606;0.000000;0.927184;,
  -0.920505;0.000000;0.390731;,
  -0.927183;0.000000;-0.374608;,
  -0.390731;0.000000;-0.920505;,
  -0.374606;0.000000;0.927184;,
  -0.920505;0.000000;0.390731;,
  -0.927183;0.000000;-0.374608;,
  0.000000;0.000000;-1.000000;;
  89;
  4;1,2,2,1;,
  4;2,3,3,2;,
  4;3,4,4,3;,
  4;4,5,5,4;,
  4;5,6,6,5;,
  4;6,7,7,6;,
  4;7,8,8,7;,
  4;8,1,1,8;,
  4;1,9,9,1;,
  4;9,3,3,9;,
  4;3,10,10,3;,
  4;10,5,5,10;,
  4;5,11,11,5;,
  4;11,7,7,11;,
  4;7,12,12,7;,
  4;12,1,1,12;,
  4;1,2,2,1;,
  4;2,3,3,2;,
  4;3,4,4,3;,
  4;4,5,5,4;,
  4;5,6,6,5;,
  4;6,7,7,6;,
  4;7,8,8,7;,
  4;8,1,1,8;,
  3;0,0,0;,
  3;0,0,0;,
  3;0,0,0;,
  3;0,0,0;,
  3;0,0,0;,
  3;0,0,0;,
  3;0,0,0;,
  3;0,0,0;,
  3;13,13,13;,
  3;13,13,13;,
  3;13,13,13;,
  3;13,13,13;,
  3;13,13,13;,
  3;13,13,13;,
  3;13,13,13;,
  3;13,13,13;,
  4;13,13,13,13;,
  4;0,0,0,0;,
  4;14,15,15,14;,
  4;13,13,13,13;,
  4;0,0,0,0;,
  4;15,16,16,15;,
  4;13,13,13,13;,
  4;0,0,0,0;,
  4;16,17,17,16;,
  4;13,13,13,13;,
  4;0,0,0,0;,
  4;17,18,18,17;,
  4;13,13,13,13;,
  4;0,0,0,0;,
  4;18,19,19,18;,
  4;13,13,13,13;,
  4;0,0,0,0;,
  4;19,20,20,19;,
  4;13,13,13,13;,
  4;0,0,0,0;,
  4;20,21,21,20;,
  4;13,13,13,13;,
  4;0,0,0,0;,
  4;21,14,14,21;,
  4;13,13,13,13;,
  4;0,0,0,0;,
  4;14,15,15,14;,
  4;13,13,13,13;,
  4;0,0,0,0;,
  4;15,16,16,15;,
  4;13,13,13,13;,
  4;0,0,0,0;,
  4;16,17,17,16;,
  4;13,13,13,13;,
  4;0,0,0,0;,
  4;17,22,22,17;,
  4;13,13,13,13;,
  4;0,0,0,0;,
  4;22,23,23,22;,
  4;13,13,13,13;,
  4;0,0,0,0;,
  4;23,24,24,23;,
  4;13,13,13,13;,
  4;0,0,0,0;,
  4;24,21,21,24;,
  4;13,13,13,13;,
  4;0,0,0,0;,
  4;21,14,14,21;,
  4;25,25,25,25;;
 }
}
