xof 0302txt 0064
template Header {
 <3D82AB43-62DA-11cf-AB39-0020AF71E433>
 WORD major;
 WORD minor;
 DWORD flags;
}

template Vector {
 <3D82AB5E-62DA-11cf-AB39-0020AF71E433>
 FLOAT x;
 FLOAT y;
 FLOAT z;
}

template Coords2d {
 <F6F23F44-7686-11cf-8F52-0040333594A3>
 FLOAT u;
 FLOAT v;
}

template Matrix4x4 {
 <F6F23F45-7686-11cf-8F52-0040333594A3>
 array FLOAT matrix[16];
}

template ColorRGBA {
 <35FF44E0-6C7C-11cf-8F52-0040333594A3>
 FLOAT red;
 FLOAT green;
 FLOAT blue;
 FLOAT alpha;
}

template ColorRGB {
 <D3E16E81-7835-11cf-8F52-0040333594A3>
 FLOAT red;
 FLOAT green;
 FLOAT blue;
}

template IndexedColor {
 <1630B820-7842-11cf-8F52-0040333594A3>
 DWORD index;
 ColorRGBA indexColor;
}

template Boolean {
 <4885AE61-78E8-11cf-8F52-0040333594A3>
 WORD truefalse;
}

template Boolean2d {
 <4885AE63-78E8-11cf-8F52-0040333594A3>
 Boolean u;
 Boolean v;
}

template MaterialWrap {
 <4885AE60-78E8-11cf-8F52-0040333594A3>
 Boolean u;
 Boolean v;
}

template TextureFilename {
 <A42790E1-7810-11cf-8F52-0040333594A3>
 STRING filename;
}

template Material {
 <3D82AB4D-62DA-11cf-AB39-0020AF71E433>
 ColorRGBA faceColor;
 FLOAT power;
 ColorRGB specularColor;
 ColorRGB emissiveColor;
 [...]
}

template MeshFace {
 <3D82AB5F-62DA-11cf-AB39-0020AF71E433>
 DWORD nFaceVertexIndices;
 array DWORD faceVertexIndices[nFaceVertexIndices];
}

template MeshFaceWraps {
 <4885AE62-78E8-11cf-8F52-0040333594A3>
 DWORD nFaceWrapValues;
 Boolean2d faceWrapValues;
}

template MeshTextureCoords {
 <F6F23F40-7686-11cf-8F52-0040333594A3>
 DWORD nTextureCoords;
 array Coords2d textureCoords[nTextureCoords];
}

template MeshMaterialList {
 <F6F23F42-7686-11cf-8F52-0040333594A3>
 DWORD nMaterials;
 DWORD nFaceIndexes;
 array DWORD faceIndexes[nFaceIndexes];
 [Material]
}

template MeshNormals {
 <F6F23F43-7686-11cf-8F52-0040333594A3>
 DWORD nNormals;
 array Vector normals[nNormals];
 DWORD nFaceNormals;
 array MeshFace faceNormals[nFaceNormals];
}

template MeshVertexColors {
 <1630B821-7842-11cf-8F52-0040333594A3>
 DWORD nVertexColors;
 array IndexedColor vertexColors[nVertexColors];
}

template Mesh {
 <3D82AB44-62DA-11cf-AB39-0020AF71E433>
 DWORD nVertices;
 array Vector vertices[nVertices];
 DWORD nFaces;
 array MeshFace faces[nFaces];
 [...]
}

Header{
1;
0;
1;
}

Mesh {
 266;
 -25.00000;50.00000;-25.00300;,
 25.00000;50.00000;-25.00300;,
 25.00000;0.00000;-25.00300;,
 -25.00000;0.00000;-25.00300;,
 25.00000;50.00000;-25.00300;,
 25.00000;50.00000;25.00300;,
 25.00000;0.00000;25.00300;,
 25.00000;0.00000;-25.00300;,
 25.00000;50.00000;25.00300;,
 -25.00000;50.00000;25.00300;,
 -25.00000;0.00000;25.00300;,
 25.00000;0.00000;25.00300;,
 -25.00000;50.00000;25.00300;,
 -25.00000;50.00000;-25.00300;,
 -25.00000;0.00000;-25.00300;,
 -25.00000;0.00000;25.00300;,
 25.00000;50.00000;-25.00300;,
 -25.00000;50.00000;-25.00300;,
 -25.00000;0.00000;-25.00300;,
 25.00000;0.00000;-25.00300;,
 0.00000;157.75847;-9.21992;,
 6.51947;157.75847;-6.51947;,
 6.51947;49.74145;-6.51947;,
 0.00000;49.74145;-9.21992;,
 9.21992;157.75847;0.00000;,
 9.21992;49.74145;0.00000;,
 6.51947;157.75847;6.51947;,
 6.51947;49.74145;6.51947;,
 0.00000;157.75847;9.21992;,
 0.00000;49.74145;9.21992;,
 -6.51947;157.75847;6.51947;,
 -6.51947;49.74145;6.51947;,
 -9.21992;157.75847;0.00000;,
 -9.21992;49.74145;0.00000;,
 -6.51947;157.75847;-6.51947;,
 -6.51947;49.74145;-6.51947;,
 0.00000;157.75847;-9.21992;,
 0.00000;49.74145;-9.21992;,
 0.00000;157.75847;0.00000;,
 0.00000;157.75847;0.00000;,
 0.00000;157.75847;0.00000;,
 0.00000;157.75847;0.00000;,
 0.00000;157.75847;0.00000;,
 0.00000;157.75847;0.00000;,
 0.00000;157.75847;0.00000;,
 0.00000;157.75847;0.00000;,
 0.00000;49.74145;0.00000;,
 0.00000;49.74145;0.00000;,
 0.00000;49.74145;0.00000;,
 0.00000;49.74145;0.00000;,
 0.00000;49.74145;0.00000;,
 0.00000;49.74145;0.00000;,
 0.00000;49.74145;0.00000;,
 0.00000;49.74145;0.00000;,
 0.00000;175.11322;-28.34395;,
 4.07945;173.42345;-28.34395;,
 17.67768;187.02167;-40.84395;,
 0.00000;194.34399;-40.84395;,
 5.76923;169.34399;-28.34395;,
 25.00000;169.34399;-40.84395;,
 4.07945;165.26453;-28.34395;,
 17.67768;151.66632;-40.84395;,
 0.00000;163.57477;-28.34395;,
 0.00000;144.34399;-40.84395;,
 -4.07945;165.26453;-28.34395;,
 -17.67768;151.66632;-40.84395;,
 -5.76923;169.34399;-28.34395;,
 -25.00000;169.34399;-40.84395;,
 -4.07945;173.42345;-28.34395;,
 -17.67768;187.02167;-40.84395;,
 0.00000;175.11322;-28.34395;,
 0.00000;194.34399;-40.84395;,
 0.00000;169.34399;-28.34395;,
 0.00000;169.34399;-28.34395;,
 0.00000;169.34399;-28.34395;,
 0.00000;169.34399;-28.34395;,
 0.00000;169.34399;-28.34395;,
 0.00000;169.34399;-28.34395;,
 0.00000;169.34399;-28.34395;,
 0.00000;169.34399;-28.34395;,
 28.25108;197.59505;-52.40595;,
 0.00000;209.29703;-52.40595;,
 0.00000;169.34399;-34.90595;,
 39.95303;169.34399;-52.40595;,
 0.00000;169.34399;-34.90595;,
 28.25108;141.09293;-52.40595;,
 0.00000;169.34399;-34.90595;,
 0.00000;129.39095;-52.40595;,
 0.00000;169.34399;-34.90595;,
 -28.25108;141.09296;-52.40595;,
 0.00000;169.34399;-34.90595;,
 -39.95303;169.34399;-52.40595;,
 0.00000;169.34399;-34.90595;,
 -28.25108;197.59505;-52.40595;,
 0.00000;169.34399;-34.90595;,
 0.00000;209.29703;-52.40595;,
 0.00000;169.34399;-34.90595;,
 -11.08848;179.96342;-28.17897;,
 11.08848;179.96342;-28.17897;,
 11.08848;157.78658;-28.17897;,
 -11.08848;157.78658;-28.17897;,
 11.08848;179.96342;-28.17897;,
 11.08848;179.96342;28.17897;,
 11.08848;157.78658;28.17897;,
 11.08848;157.78658;-28.17897;,
 11.08848;179.96342;28.17897;,
 -11.08848;179.96342;28.17897;,
 -11.08848;157.78658;28.17897;,
 11.08848;157.78658;28.17897;,
 -11.08848;179.96342;28.17897;,
 -11.08848;179.96342;-28.17897;,
 -11.08848;157.78658;-28.17897;,
 -11.08848;157.78658;28.17897;,
 11.08848;179.96342;-28.17897;,
 -11.08848;179.96342;-28.17897;,
 -11.08848;157.78658;-28.17897;,
 11.08848;157.78658;-28.17897;,
 0.00000;163.57477;28.34405;,
 4.07945;165.26453;28.34405;,
 17.67768;151.66632;40.84405;,
 0.00000;144.34399;40.84405;,
 5.76923;169.34399;28.34405;,
 25.00000;169.34399;40.84405;,
 4.07945;173.42345;28.34405;,
 17.67768;187.02167;40.84405;,
 0.00000;175.11322;28.34405;,
 0.00000;194.34399;40.84405;,
 -4.07945;173.42345;28.34405;,
 -17.67768;187.02167;40.84405;,
 -5.76923;169.34399;28.34405;,
 -25.00000;169.34399;40.84405;,
 -4.07945;165.26453;28.34405;,
 -17.67768;151.66632;40.84405;,
 0.00000;163.57477;28.34405;,
 0.00000;144.34399;40.84405;,
 0.00000;169.34399;28.34405;,
 0.00000;169.34399;28.34405;,
 0.00000;169.34399;28.34405;,
 0.00000;169.34399;28.34405;,
 0.00000;169.34399;28.34405;,
 0.00000;169.34399;28.34405;,
 0.00000;169.34399;28.34405;,
 0.00000;169.34399;28.34405;,
 28.25108;141.09293;52.40607;,
 0.00000;129.39095;52.40607;,
 0.00000;169.34399;34.90607;,
 39.95303;169.34399;52.40607;,
 0.00000;169.34399;34.90607;,
 28.25108;197.59505;52.40607;,
 0.00000;169.34399;34.90607;,
 0.00000;209.29703;52.40607;,
 0.00000;169.34399;34.90607;,
 -28.25108;197.59505;52.40607;,
 0.00000;169.34399;34.90607;,
 -39.95303;169.34399;52.40607;,
 0.00000;169.34399;34.90607;,
 -28.25108;141.09296;52.40607;,
 0.00000;169.34399;34.90607;,
 0.00000;129.39095;52.40607;,
 0.00000;169.34399;34.90607;,
 -28.17897;179.96342;11.08848;,
 -28.17897;179.96342;-11.08848;,
 -28.17897;157.78658;-11.08848;,
 -28.17897;157.78658;11.08848;,
 -28.17897;179.96342;-11.08848;,
 28.17897;179.96342;-11.08848;,
 28.17897;157.78658;-11.08848;,
 -28.17897;157.78658;-11.08848;,
 28.17897;179.96342;-11.08848;,
 28.17897;179.96342;11.08848;,
 28.17897;157.78658;11.08848;,
 28.17897;157.78658;-11.08848;,
 28.17897;179.96342;11.08848;,
 -28.17897;179.96342;11.08848;,
 -28.17897;157.78658;11.08848;,
 28.17897;157.78658;11.08848;,
 -28.17897;179.96342;-11.08848;,
 -28.17897;179.96342;11.08848;,
 -28.17897;157.78658;11.08848;,
 -28.17897;157.78658;-11.08848;,
 28.16900;163.57477;-4.62493;,
 28.16900;165.26453;-8.70440;,
 40.66900;151.66632;-22.30260;,
 40.66900;144.34399;-4.62493;,
 28.16900;169.34399;-10.39417;,
 40.66900;169.34399;-29.62493;,
 28.16900;173.42345;-8.70440;,
 40.66900;187.02167;-22.30260;,
 28.16900;175.11322;-4.62493;,
 40.66900;194.34399;-4.62493;,
 28.16900;173.42345;-0.54548;,
 40.66900;187.02167;13.05275;,
 28.16900;169.34399;1.14430;,
 40.66900;169.34399;20.37507;,
 28.16900;165.26453;-0.54548;,
 40.66900;151.66632;13.05272;,
 28.16900;163.57477;-4.62493;,
 40.66900;144.34399;-4.62493;,
 28.16900;169.34399;-4.62493;,
 28.16900;169.34399;-4.62493;,
 28.16900;169.34399;-4.62493;,
 28.16900;169.34399;-4.62493;,
 28.16900;169.34399;-4.62493;,
 28.16900;169.34399;-4.62493;,
 28.16900;169.34399;-4.62493;,
 28.16900;169.34399;-4.62493;,
 52.23103;141.09293;-32.87600;,
 52.23103;129.39095;-4.62493;,
 34.73103;169.34399;-4.62493;,
 52.23103;169.34399;-44.57798;,
 34.73103;169.34399;-4.62493;,
 52.23103;197.59505;-32.87600;,
 34.73103;169.34399;-4.62493;,
 52.23103;209.29703;-4.62493;,
 34.73103;169.34399;-4.62493;,
 52.23103;197.59505;23.62615;,
 34.73103;169.34399;-4.62493;,
 52.23103;169.34399;35.32810;,
 34.73103;169.34399;-4.62493;,
 52.23103;141.09296;23.62613;,
 34.73103;169.34399;-4.62493;,
 52.23103;129.39095;-4.62493;,
 34.73103;169.34399;-4.62493;,
 -28.26897;163.57477;-4.62495;,
 -28.26897;165.26453;-0.54548;,
 -40.76897;151.66632;13.05272;,
 -40.76897;144.34399;-4.62493;,
 -28.26897;169.34399;1.14430;,
 -40.76897;169.34399;20.37507;,
 -28.26897;173.42345;-0.54548;,
 -40.76897;187.02167;13.05272;,
 -28.26897;175.11322;-4.62495;,
 -40.76897;194.34399;-4.62495;,
 -28.26897;173.42345;-8.70440;,
 -40.76897;187.02167;-22.30260;,
 -28.26897;169.34399;-10.39417;,
 -40.76897;169.34399;-29.62493;,
 -28.26897;165.26453;-8.70440;,
 -40.76897;151.66632;-22.30260;,
 -28.26897;163.57477;-4.62495;,
 -40.76897;144.34399;-4.62493;,
 -28.26897;169.34399;-4.62495;,
 -28.26897;169.34399;-4.62495;,
 -28.26897;169.34399;-4.62495;,
 -28.26897;169.34399;-4.62495;,
 -28.26897;169.34399;-4.62495;,
 -28.26897;169.34399;-4.62495;,
 -28.26897;169.34399;-4.62495;,
 -28.26897;169.34399;-4.62495;,
 -52.33097;141.09293;23.62613;,
 -52.33097;129.39095;-4.62493;,
 -34.83097;169.34399;-4.62493;,
 -52.33097;169.34399;35.32810;,
 -34.83097;169.34399;-4.62493;,
 -52.33097;197.59505;23.62613;,
 -34.83097;169.34399;-4.62493;,
 -52.33097;209.29703;-4.62495;,
 -34.83097;169.34399;-4.62493;,
 -52.33097;197.59505;-32.87600;,
 -34.83097;169.34399;-4.62493;,
 -52.33100;169.34399;-44.57795;,
 -34.83097;169.34399;-4.62493;,
 -52.33097;141.09296;-32.87600;,
 -34.83097;169.34399;-4.62493;,
 -52.33097;129.39095;-4.62493;,
 -34.83097;169.34399;-4.62493;;
 
 170;
 4;0,1,2,3;,
 4;4,5,6,7;,
 4;8,9,10,11;,
 4;12,13,14,15;,
 4;12,5,16,17;,
 4;18,19,6,15;,
 4;20,21,22,23;,
 4;21,24,25,22;,
 4;24,26,27,25;,
 4;26,28,29,27;,
 4;28,30,31,29;,
 4;30,32,33,31;,
 4;32,34,35,33;,
 4;34,36,37,35;,
 3;38,21,20;,
 3;39,24,21;,
 3;40,26,24;,
 3;41,28,26;,
 3;42,30,28;,
 3;43,32,30;,
 3;44,34,32;,
 3;45,36,34;,
 3;46,23,22;,
 3;47,22,25;,
 3;48,25,27;,
 3;49,27,29;,
 3;50,29,31;,
 3;51,31,33;,
 3;52,33,35;,
 3;53,35,37;,
 4;54,55,56,57;,
 4;55,58,59,56;,
 4;58,60,61,59;,
 4;60,62,63,61;,
 4;62,64,65,63;,
 4;64,66,67,65;,
 4;66,68,69,67;,
 4;68,70,71,69;,
 3;72,55,54;,
 3;73,58,55;,
 3;74,60,58;,
 3;75,62,60;,
 3;76,64,62;,
 3;77,66,64;,
 3;78,68,66;,
 3;79,70,68;,
 4;80,81,57,56;,
 3;82,81,80;,
 4;83,80,56,59;,
 3;84,80,83;,
 4;85,83,59,61;,
 3;86,83,85;,
 4;87,85,61,63;,
 3;88,85,87;,
 4;89,87,63,65;,
 3;90,87,89;,
 4;91,89,65,67;,
 3;92,89,91;,
 4;93,91,67,69;,
 3;94,91,93;,
 4;95,93,69,71;,
 3;96,93,95;,
 4;97,98,99,100;,
 4;101,102,103,104;,
 4;105,106,107,108;,
 4;109,110,111,112;,
 4;109,102,113,114;,
 4;115,116,103,112;,
 4;117,118,119,120;,
 4;118,121,122,119;,
 4;121,123,124,122;,
 4;123,125,126,124;,
 4;125,127,128,126;,
 4;127,129,130,128;,
 4;129,131,132,130;,
 4;131,133,134,132;,
 3;135,118,117;,
 3;136,121,118;,
 3;137,123,121;,
 3;138,125,123;,
 3;139,127,125;,
 3;140,129,127;,
 3;141,131,129;,
 3;142,133,131;,
 4;143,144,120,119;,
 3;145,144,143;,
 4;146,143,119,122;,
 3;147,143,146;,
 4;148,146,122,124;,
 3;149,146,148;,
 4;150,148,124,126;,
 3;151,148,150;,
 4;152,150,126,128;,
 3;153,150,152;,
 4;154,152,128,130;,
 3;155,152,154;,
 4;156,154,130,132;,
 3;157,154,156;,
 4;158,156,132,134;,
 3;159,156,158;,
 4;160,161,162,163;,
 4;164,165,166,167;,
 4;168,169,170,171;,
 4;172,173,174,175;,
 4;172,165,176,177;,
 4;178,179,166,175;,
 4;180,181,182,183;,
 4;181,184,185,182;,
 4;184,186,187,185;,
 4;186,188,189,187;,
 4;188,190,191,189;,
 4;190,192,193,191;,
 4;192,194,195,193;,
 4;194,196,197,195;,
 3;198,181,180;,
 3;199,184,181;,
 3;200,186,184;,
 3;201,188,186;,
 3;202,190,188;,
 3;203,192,190;,
 3;204,194,192;,
 3;205,196,194;,
 4;206,207,183,182;,
 3;208,207,206;,
 4;209,206,182,185;,
 3;210,206,209;,
 4;211,209,185,187;,
 3;212,209,211;,
 4;213,211,187,189;,
 3;214,211,213;,
 4;215,213,189,191;,
 3;216,213,215;,
 4;217,215,191,193;,
 3;218,215,217;,
 4;219,217,193,195;,
 3;220,217,219;,
 4;221,219,195,197;,
 3;222,219,221;,
 4;223,224,225,226;,
 4;224,227,228,225;,
 4;227,229,230,228;,
 4;229,231,232,230;,
 4;231,233,234,232;,
 4;233,235,236,234;,
 4;235,237,238,236;,
 4;237,239,240,238;,
 3;241,224,223;,
 3;242,227,224;,
 3;243,229,227;,
 3;244,231,229;,
 3;245,233,231;,
 3;246,235,233;,
 3;247,237,235;,
 3;248,239,237;,
 4;249,250,226,225;,
 3;251,250,249;,
 4;252,249,225,228;,
 3;253,249,252;,
 4;254,252,228,230;,
 3;255,252,254;,
 4;256,254,230,232;,
 3;257,254,256;,
 4;258,256,232,234;,
 3;259,256,258;,
 4;260,258,234,236;,
 3;261,258,260;,
 4;262,260,236,238;,
 3;263,260,262;,
 4;264,262,238,240;,
 3;265,262,264;;
 
 MeshMaterialList {
  3;
  170;
  0,
  0,
  0,
  0,
  0,
  0,
  1,
  1,
  1,
  1,
  1,
  1,
  1,
  1,
  1,
  1,
  1,
  1,
  1,
  1,
  1,
  1,
  1,
  1,
  1,
  1,
  1,
  1,
  1,
  1,
  2,
  2,
  2,
  2,
  2,
  2,
  2,
  2,
  2,
  2,
  2,
  2,
  2,
  2,
  2,
  2,
  2,
  2,
  2,
  2,
  2,
  2,
  2,
  2,
  2,
  2,
  2,
  2,
  2,
  2,
  2,
  2,
  1,
  1,
  1,
  1,
  1,
  1,
  2,
  2,
  2,
  2,
  2,
  2,
  2,
  2,
  2,
  2,
  2,
  2,
  2,
  2,
  2,
  2,
  2,
  2,
  2,
  2,
  2,
  2,
  2,
  2,
  2,
  2,
  2,
  2,
  2,
  2,
  2,
  2,
  1,
  1,
  1,
  1,
  1,
  1,
  2,
  2,
  2,
  2,
  2,
  2,
  2,
  2,
  2,
  2,
  2,
  2,
  2,
  2,
  2,
  2,
  2,
  2,
  2,
  2,
  2,
  2,
  2,
  2,
  2,
  2,
  2,
  2,
  2,
  2,
  2,
  2,
  2,
  2,
  2,
  2,
  2,
  2,
  2,
  2,
  2,
  2,
  2,
  2,
  2,
  2,
  2,
  2,
  2,
  2,
  2,
  2,
  2,
  2,
  2,
  2,
  2,
  2,
  2,
  2,
  2,
  2,
  2,
  2;;
  Material {
   0.800000;0.800000;0.800000;1.000000;;
   5.000000;
   0.000000;0.000000;0.000000;;
   0.000000;0.000000;0.000000;;
   TextureFilename {
    "data/TEXTURE/warning.jpg";
   }
  }
  Material {
   0.489412;0.489412;0.489412;1.000000;;
   5.000000;
   0.000000;0.000000;0.000000;;
   0.000000;0.000000;0.000000;;
  }
  Material {
   0.800000;0.800000;0.800000;1.000000;;
   5.000000;
   0.000000;0.000000;0.000000;;
   0.000000;0.000000;0.000000;;
  }
 }
 MeshNormals {
  164;
  0.000000;0.000000;-1.000000;,
  1.000000;0.000000;0.000000;,
  0.000000;0.000000;1.000000;,
  -1.000000;0.000000;0.000000;,
  0.000000;1.000000;0.000000;,
  0.000000;-1.000000;-0.000000;,
  0.000000;1.000000;0.000000;,
  0.000000;0.000000;-1.000000;,
  0.707107;0.000000;-0.707107;,
  1.000000;0.000000;0.000000;,
  0.707107;0.000000;0.707107;,
  0.000000;0.000000;1.000000;,
  -0.707107;0.000000;0.707107;,
  -1.000000;0.000000;0.000000;,
  -0.707107;0.000000;-0.707107;,
  0.000000;-1.000000;-0.000000;,
  0.000000;0.000000;1.000000;,
  0.000000;0.280682;0.959801;,
  0.198472;0.198472;0.959801;,
  0.280682;0.000000;0.959801;,
  0.198472;-0.198472;0.959801;,
  0.000000;-0.280682;0.959801;,
  -0.198472;-0.198472;0.959801;,
  -0.280682;0.000000;0.959801;,
  -0.198472;0.198472;0.959801;,
  0.000000;0.578720;0.815526;,
  0.409217;0.409217;0.815526;,
  0.578720;0.000000;0.815526;,
  0.409217;-0.409217;0.815526;,
  -0.000000;-0.578720;0.815526;,
  -0.409217;-0.409217;0.815526;,
  -0.578720;0.000000;0.815526;,
  -0.409217;0.409217;0.815526;,
  0.000000;0.611692;0.791096;,
  0.432532;0.432532;0.791096;,
  0.611692;0.000000;0.791096;,
  0.432532;-0.432531;0.791096;,
  -0.000000;-0.611692;0.791096;,
  -0.432532;-0.432532;0.791096;,
  -0.611692;-0.000000;0.791096;,
  -0.432532;0.432532;0.791096;,
  0.000000;-0.000000;-1.000000;,
  0.000000;-0.401214;-0.915984;,
  -0.283701;-0.283701;-0.915984;,
  -0.401214;-0.000000;-0.915984;,
  -0.283701;0.283701;-0.915984;,
  0.000000;0.401214;-0.915984;,
  0.283702;0.283701;-0.915984;,
  0.401214;0.000000;-0.915984;,
  0.283701;-0.283701;-0.915984;,
  0.000000;0.000000;-1.000000;,
  1.000000;0.000000;0.000000;,
  0.000000;0.000000;1.000000;,
  -1.000000;0.000000;0.000000;,
  0.000000;1.000000;0.000000;,
  0.000000;-1.000000;-0.000000;,
  0.000000;0.000000;-1.000000;,
  0.000000;-0.280682;-0.959801;,
  0.198472;-0.198472;-0.959801;,
  0.280682;0.000000;-0.959801;,
  0.198472;0.198472;-0.959801;,
  0.000000;0.280682;-0.959801;,
  -0.198472;0.198472;-0.959801;,
  -0.280682;0.000000;-0.959801;,
  -0.198472;-0.198472;-0.959801;,
  -0.000000;-0.578720;-0.815526;,
  0.409217;-0.409217;-0.815526;,
  0.578720;0.000000;-0.815526;,
  0.409217;0.409217;-0.815526;,
  0.000000;0.578720;-0.815526;,
  -0.409217;0.409217;-0.815526;,
  -0.578720;0.000000;-0.815526;,
  -0.409217;-0.409217;-0.815526;,
  -0.000000;-0.611693;-0.791095;,
  0.432532;-0.432532;-0.791096;,
  0.611693;0.000000;-0.791095;,
  0.432532;0.432532;-0.791095;,
  0.000000;0.611693;-0.791095;,
  -0.432532;0.432532;-0.791095;,
  -0.611693;-0.000000;-0.791095;,
  -0.432532;-0.432532;-0.791095;,
  0.000000;-0.000000;1.000000;,
  0.000000;0.401214;0.915984;,
  -0.283701;0.283701;0.915984;,
  -0.401214;-0.000000;0.915984;,
  -0.283701;-0.283701;0.915984;,
  0.000000;-0.401214;0.915984;,
  0.283701;-0.283701;0.915984;,
  0.401214;0.000000;0.915984;,
  0.283702;0.283701;0.915984;,
  -1.000000;0.000000;0.000000;,
  0.000000;0.000000;-1.000000;,
  1.000000;0.000000;0.000000;,
  0.000000;0.000000;1.000000;,
  0.000000;1.000000;0.000000;,
  0.000000;-1.000000;-0.000000;,
  -1.000000;0.000000;0.000000;,
  -0.959801;-0.280682;0.000000;,
  -0.959801;-0.198472;-0.198472;,
  -0.959801;0.000000;-0.280682;,
  -0.959801;0.198472;-0.198472;,
  -0.959801;0.280682;0.000000;,
  -0.959801;0.198472;0.198472;,
  -0.959801;-0.000000;0.280682;,
  -0.959801;-0.198472;0.198472;,
  -0.815526;-0.578721;0.000000;,
  -0.815526;-0.409217;-0.409217;,
  -0.815526;0.000000;-0.578720;,
  -0.815526;0.409217;-0.409217;,
  -0.815526;0.578720;0.000000;,
  -0.815526;0.409217;0.409217;,
  -0.815526;-0.000000;0.578720;,
  -0.815526;-0.409217;0.409217;,
  -0.791095;-0.611693;0.000000;,
  -0.791096;-0.432532;-0.432532;,
  -0.791095;0.000000;-0.611693;,
  -0.791095;0.432532;-0.432532;,
  -0.791095;0.611693;0.000000;,
  -0.791095;0.432532;0.432532;,
  -0.791095;-0.000000;0.611693;,
  -0.791095;-0.432532;0.432532;,
  1.000000;0.000000;-0.000000;,
  0.915984;0.401214;-0.000000;,
  0.915984;0.283701;0.283701;,
  0.915984;-0.000000;0.401214;,
  0.915984;-0.283701;0.283701;,
  0.915984;-0.401214;0.000000;,
  0.915984;-0.283701;-0.283701;,
  0.915984;0.000000;-0.401214;,
  0.915984;0.283701;-0.283702;,
  1.000000;0.000000;0.000000;,
  0.959801;-0.280682;-0.000000;,
  0.959801;-0.198472;0.198472;,
  0.959801;0.000000;0.280682;,
  0.959801;0.198472;0.198472;,
  0.959801;0.280682;-0.000000;,
  0.959801;0.198472;-0.198472;,
  0.959801;0.000000;-0.280682;,
  0.959801;-0.198472;-0.198472;,
  0.815526;-0.578720;-0.000000;,
  0.815526;-0.409217;0.409217;,
  0.815526;0.000000;0.578720;,
  0.815526;0.409217;0.409217;,
  0.815526;0.578720;-0.000000;,
  0.815526;0.409217;-0.409217;,
  0.815526;0.000000;-0.578720;,
  0.815526;-0.409217;-0.409217;,
  0.791096;-0.611692;-0.000000;,
  0.791096;-0.432531;0.432532;,
  0.791096;0.000000;0.611692;,
  0.791096;0.432532;0.432532;,
  0.791096;0.611692;-0.000000;,
  0.791096;0.432531;-0.432532;,
  0.791095;-0.000000;-0.611693;,
  0.791096;-0.432531;-0.432532;,
  -1.000000;-0.000000;0.000000;,
  -0.915984;0.401214;0.000000;,
  -0.915984;0.283701;-0.283701;,
  -0.915984;-0.000000;-0.401214;,
  -0.915984;-0.283701;-0.283701;,
  -0.915984;-0.401214;0.000000;,
  -0.915984;-0.283701;0.283702;,
  -0.915984;0.000000;0.401215;,
  -0.915984;0.283701;0.283702;;
  170;
  4;0,0,0,0;,
  4;1,1,1,1;,
  4;2,2,2,2;,
  4;3,3,3,3;,
  4;4,4,4,4;,
  4;5,5,5,5;,
  4;7,8,8,7;,
  4;8,9,9,8;,
  4;9,10,10,9;,
  4;10,11,11,10;,
  4;11,12,12,11;,
  4;12,13,13,12;,
  4;13,14,14,13;,
  4;14,7,7,14;,
  3;6,6,6;,
  3;6,6,6;,
  3;6,6,6;,
  3;6,6,6;,
  3;6,6,6;,
  3;6,6,6;,
  3;6,6,6;,
  3;6,6,6;,
  3;15,15,15;,
  3;15,15,15;,
  3;15,15,15;,
  3;15,15,15;,
  3;15,15,15;,
  3;15,15,15;,
  3;15,15,15;,
  3;15,15,15;,
  4;17,18,26,25;,
  4;18,19,27,26;,
  4;19,20,28,27;,
  4;20,21,29,28;,
  4;21,22,30,29;,
  4;22,23,31,30;,
  4;23,24,32,31;,
  4;24,17,25,32;,
  3;16,18,17;,
  3;16,19,18;,
  3;16,20,19;,
  3;16,21,20;,
  3;16,22,21;,
  3;16,23,22;,
  3;16,24,23;,
  3;16,17,24;,
  4;34,33,25,26;,
  3;41,42,43;,
  4;35,34,26,27;,
  3;41,43,44;,
  4;36,35,27,28;,
  3;41,44,45;,
  4;37,36,28,29;,
  3;41,45,46;,
  4;38,37,29,30;,
  3;41,46,47;,
  4;39,38,30,31;,
  3;41,47,48;,
  4;40,39,31,32;,
  3;41,48,49;,
  4;33,40,32,25;,
  3;41,49,42;,
  4;50,50,50,50;,
  4;51,51,51,51;,
  4;52,52,52,52;,
  4;53,53,53,53;,
  4;54,54,54,54;,
  4;55,55,55,55;,
  4;57,58,66,65;,
  4;58,59,67,66;,
  4;59,60,68,67;,
  4;60,61,69,68;,
  4;61,62,70,69;,
  4;62,63,71,70;,
  4;63,64,72,71;,
  4;64,57,65,72;,
  3;56,58,57;,
  3;56,59,58;,
  3;56,60,59;,
  3;56,61,60;,
  3;56,62,61;,
  3;56,63,62;,
  3;56,64,63;,
  3;56,57,64;,
  4;74,73,65,66;,
  3;81,82,83;,
  4;75,74,66,67;,
  3;81,83,84;,
  4;76,75,67,68;,
  3;81,84,85;,
  4;77,76,68,69;,
  3;81,85,86;,
  4;78,77,69,70;,
  3;81,86,87;,
  4;79,78,70,71;,
  3;81,87,88;,
  4;80,79,71,72;,
  3;81,88,89;,
  4;73,80,72,65;,
  3;81,89,82;,
  4;90,90,90,90;,
  4;91,91,91,91;,
  4;92,92,92,92;,
  4;93,93,93,93;,
  4;94,94,94,94;,
  4;95,95,95,95;,
  4;97,98,106,105;,
  4;98,99,107,106;,
  4;99,100,108,107;,
  4;100,101,109,108;,
  4;101,102,110,109;,
  4;102,103,111,110;,
  4;103,104,112,111;,
  4;104,97,105,112;,
  3;96,98,97;,
  3;96,99,98;,
  3;96,100,99;,
  3;96,101,100;,
  3;96,102,101;,
  3;96,103,102;,
  3;96,104,103;,
  3;96,97,104;,
  4;114,113,105,106;,
  3;121,122,123;,
  4;115,114,106,107;,
  3;121,123,124;,
  4;116,115,107,108;,
  3;121,124,125;,
  4;117,116,108,109;,
  3;121,125,126;,
  4;118,117,109,110;,
  3;121,126,127;,
  4;119,118,110,111;,
  3;121,127,128;,
  4;120,119,111,112;,
  3;121,128,129;,
  4;113,120,112,105;,
  3;121,129,122;,
  4;131,132,140,139;,
  4;132,133,141,140;,
  4;133,134,142,141;,
  4;134,135,143,142;,
  4;135,136,144,143;,
  4;136,137,145,144;,
  4;137,138,146,145;,
  4;138,131,139,146;,
  3;130,132,131;,
  3;130,133,132;,
  3;130,134,133;,
  3;130,135,134;,
  3;130,136,135;,
  3;130,137,136;,
  3;130,138,137;,
  3;130,131,138;,
  4;148,147,139,140;,
  3;155,156,157;,
  4;149,148,140,141;,
  3;155,157,158;,
  4;150,149,141,142;,
  3;155,158,159;,
  4;151,150,142,143;,
  3;155,159,160;,
  4;152,151,143,144;,
  3;155,160,161;,
  4;153,152,144,145;,
  3;155,161,162;,
  4;154,153,145,146;,
  3;155,162,163;,
  4;147,154,146,139;,
  3;155,163,156;;
 }
 MeshTextureCoords {
  266;
  0.000000;0.000000;,
  1.000000;0.000000;,
  1.000000;1.000000;,
  0.000000;1.000000;,
  0.000000;0.000000;,
  1.000000;0.000000;,
  1.000000;1.000000;,
  0.000000;1.000000;,
  0.000000;0.000000;,
  1.000000;0.000000;,
  1.000000;1.000000;,
  0.000000;1.000000;,
  0.000000;0.000000;,
  1.000000;0.000000;,
  1.000000;1.000000;,
  0.000000;1.000000;,
  1.000000;1.000000;,
  0.000000;1.000000;,
  0.000000;0.000000;,
  1.000000;0.000000;,
  0.000000;0.000000;,
  0.125000;0.000000;,
  0.125000;1.000000;,
  0.000000;1.000000;,
  0.250000;0.000000;,
  0.250000;1.000000;,
  0.375000;0.000000;,
  0.375000;1.000000;,
  0.500000;0.000000;,
  0.500000;1.000000;,
  0.625000;0.000000;,
  0.625000;1.000000;,
  0.750000;0.000000;,
  0.750000;1.000000;,
  0.875000;0.000000;,
  0.875000;1.000000;,
  1.000000;0.000000;,
  1.000000;1.000000;,
  0.062500;0.000000;,
  0.187500;0.000000;,
  0.312500;0.000000;,
  0.437500;0.000000;,
  0.562500;0.000000;,
  0.687500;0.000000;,
  0.812500;0.000000;,
  0.937500;0.000000;,
  0.062500;1.000000;,
  0.187500;1.000000;,
  0.312500;1.000000;,
  0.437500;1.000000;,
  0.562500;1.000000;,
  0.687500;1.000000;,
  0.812500;1.000000;,
  0.937500;1.000000;,
  0.000000;0.000000;,
  0.125000;0.000000;,
  0.125000;1.000000;,
  0.000000;1.000000;,
  0.250000;0.000000;,
  0.250000;1.000000;,
  0.375000;0.000000;,
  0.375000;1.000000;,
  0.500000;0.000000;,
  0.500000;1.000000;,
  0.625000;0.000000;,
  0.625000;1.000000;,
  0.750000;0.000000;,
  0.750000;1.000000;,
  0.875000;0.000000;,
  0.875000;1.000000;,
  1.000000;0.000000;,
  1.000000;1.000000;,
  0.062500;0.000000;,
  0.187500;0.000000;,
  0.312500;0.000000;,
  0.437500;0.000000;,
  0.562500;0.000000;,
  0.687500;0.000000;,
  0.812500;0.000000;,
  0.937500;0.000000;,
  0.125000;1.000000;,
  0.000000;1.000000;,
  0.062500;1.000000;,
  0.250000;1.000000;,
  0.187500;1.000000;,
  0.375000;1.000000;,
  0.312500;1.000000;,
  0.500000;1.000000;,
  0.437500;1.000000;,
  0.625000;1.000000;,
  0.562500;1.000000;,
  0.750000;1.000000;,
  0.687500;1.000000;,
  0.875000;1.000000;,
  0.812500;1.000000;,
  1.000000;1.000000;,
  0.937500;1.000000;,
  0.000000;0.000000;,
  1.000000;0.000000;,
  1.000000;1.000000;,
  0.000000;1.000000;,
  0.000000;0.000000;,
  1.000000;0.000000;,
  1.000000;1.000000;,
  0.000000;1.000000;,
  0.000000;0.000000;,
  1.000000;0.000000;,
  1.000000;1.000000;,
  0.000000;1.000000;,
  0.000000;0.000000;,
  1.000000;0.000000;,
  1.000000;1.000000;,
  0.000000;1.000000;,
  1.000000;1.000000;,
  0.000000;1.000000;,
  0.000000;0.000000;,
  1.000000;0.000000;,
  0.000000;0.000000;,
  0.125000;0.000000;,
  0.125000;1.000000;,
  0.000000;1.000000;,
  0.250000;0.000000;,
  0.250000;1.000000;,
  0.375000;0.000000;,
  0.375000;1.000000;,
  0.500000;0.000000;,
  0.500000;1.000000;,
  0.625000;0.000000;,
  0.625000;1.000000;,
  0.750000;0.000000;,
  0.750000;1.000000;,
  0.875000;0.000000;,
  0.875000;1.000000;,
  1.000000;0.000000;,
  1.000000;1.000000;,
  0.062500;0.000000;,
  0.187500;0.000000;,
  0.312500;0.000000;,
  0.437500;0.000000;,
  0.562500;0.000000;,
  0.687500;0.000000;,
  0.812500;0.000000;,
  0.937500;0.000000;,
  0.125000;1.000000;,
  0.000000;1.000000;,
  0.062500;1.000000;,
  0.250000;1.000000;,
  0.187500;1.000000;,
  0.375000;1.000000;,
  0.312500;1.000000;,
  0.500000;1.000000;,
  0.437500;1.000000;,
  0.625000;1.000000;,
  0.562500;1.000000;,
  0.750000;1.000000;,
  0.687500;1.000000;,
  0.875000;1.000000;,
  0.812500;1.000000;,
  1.000000;1.000000;,
  0.937500;1.000000;,
  0.000000;0.000000;,
  1.000000;0.000000;,
  1.000000;1.000000;,
  0.000000;1.000000;,
  0.000000;0.000000;,
  1.000000;0.000000;,
  1.000000;1.000000;,
  0.000000;1.000000;,
  0.000000;0.000000;,
  1.000000;0.000000;,
  1.000000;1.000000;,
  0.000000;1.000000;,
  0.000000;0.000000;,
  1.000000;0.000000;,
  1.000000;1.000000;,
  0.000000;1.000000;,
  1.000000;1.000000;,
  0.000000;1.000000;,
  0.000000;0.000000;,
  1.000000;0.000000;,
  0.000000;0.000000;,
  0.125000;0.000000;,
  0.125000;1.000000;,
  0.000000;1.000000;,
  0.250000;0.000000;,
  0.250000;1.000000;,
  0.375000;0.000000;,
  0.375000;1.000000;,
  0.500000;0.000000;,
  0.500000;1.000000;,
  0.625000;0.000000;,
  0.625000;1.000000;,
  0.750000;0.000000;,
  0.750000;1.000000;,
  0.875000;0.000000;,
  0.875000;1.000000;,
  1.000000;0.000000;,
  1.000000;1.000000;,
  0.062500;0.000000;,
  0.187500;0.000000;,
  0.312500;0.000000;,
  0.437500;0.000000;,
  0.562500;0.000000;,
  0.687500;0.000000;,
  0.812500;0.000000;,
  0.937500;0.000000;,
  0.125000;1.000000;,
  0.000000;1.000000;,
  0.062500;1.000000;,
  0.250000;1.000000;,
  0.187500;1.000000;,
  0.375000;1.000000;,
  0.312500;1.000000;,
  0.500000;1.000000;,
  0.437500;1.000000;,
  0.625000;1.000000;,
  0.562500;1.000000;,
  0.750000;1.000000;,
  0.687500;1.000000;,
  0.875000;1.000000;,
  0.812500;1.000000;,
  1.000000;1.000000;,
  0.937500;1.000000;,
  0.000000;0.000000;,
  0.125000;0.000000;,
  0.125000;1.000000;,
  0.000000;1.000000;,
  0.250000;0.000000;,
  0.250000;1.000000;,
  0.375000;0.000000;,
  0.375000;1.000000;,
  0.500000;0.000000;,
  0.500000;1.000000;,
  0.625000;0.000000;,
  0.625000;1.000000;,
  0.750000;0.000000;,
  0.750000;1.000000;,
  0.875000;0.000000;,
  0.875000;1.000000;,
  1.000000;0.000000;,
  1.000000;1.000000;,
  0.062500;0.000000;,
  0.187500;0.000000;,
  0.312500;0.000000;,
  0.437500;0.000000;,
  0.562500;0.000000;,
  0.687500;0.000000;,
  0.812500;0.000000;,
  0.937500;0.000000;,
  0.125000;1.000000;,
  0.000000;1.000000;,
  0.062500;1.000000;,
  0.250000;1.000000;,
  0.187500;1.000000;,
  0.375000;1.000000;,
  0.312500;1.000000;,
  0.500000;1.000000;,
  0.437500;1.000000;,
  0.625000;1.000000;,
  0.562500;1.000000;,
  0.750000;1.000000;,
  0.687500;1.000000;,
  0.875000;1.000000;,
  0.812500;1.000000;,
  1.000000;1.000000;,
  0.937500;1.000000;;
 }
}
