xof 0302txt 0064
template Header {
 <3D82AB43-62DA-11cf-AB39-0020AF71E433>
 WORD major;
 WORD minor;
 DWORD flags;
}

template Vector {
 <3D82AB5E-62DA-11cf-AB39-0020AF71E433>
 FLOAT x;
 FLOAT y;
 FLOAT z;
}

template Coords2d {
 <F6F23F44-7686-11cf-8F52-0040333594A3>
 FLOAT u;
 FLOAT v;
}

template Matrix4x4 {
 <F6F23F45-7686-11cf-8F52-0040333594A3>
 array FLOAT matrix[16];
}

template ColorRGBA {
 <35FF44E0-6C7C-11cf-8F52-0040333594A3>
 FLOAT red;
 FLOAT green;
 FLOAT blue;
 FLOAT alpha;
}

template ColorRGB {
 <D3E16E81-7835-11cf-8F52-0040333594A3>
 FLOAT red;
 FLOAT green;
 FLOAT blue;
}

template IndexedColor {
 <1630B820-7842-11cf-8F52-0040333594A3>
 DWORD index;
 ColorRGBA indexColor;
}

template Boolean {
 <4885AE61-78E8-11cf-8F52-0040333594A3>
 WORD truefalse;
}

template Boolean2d {
 <4885AE63-78E8-11cf-8F52-0040333594A3>
 Boolean u;
 Boolean v;
}

template MaterialWrap {
 <4885AE60-78E8-11cf-8F52-0040333594A3>
 Boolean u;
 Boolean v;
}

template TextureFilename {
 <A42790E1-7810-11cf-8F52-0040333594A3>
 STRING filename;
}

template Material {
 <3D82AB4D-62DA-11cf-AB39-0020AF71E433>
 ColorRGBA faceColor;
 FLOAT power;
 ColorRGB specularColor;
 ColorRGB emissiveColor;
 [...]
}

template MeshFace {
 <3D82AB5F-62DA-11cf-AB39-0020AF71E433>
 DWORD nFaceVertexIndices;
 array DWORD faceVertexIndices[nFaceVertexIndices];
}

template MeshFaceWraps {
 <4885AE62-78E8-11cf-8F52-0040333594A3>
 DWORD nFaceWrapValues;
 Boolean2d faceWrapValues;
}

template MeshTextureCoords {
 <F6F23F40-7686-11cf-8F52-0040333594A3>
 DWORD nTextureCoords;
 array Coords2d textureCoords[nTextureCoords];
}

template MeshMaterialList {
 <F6F23F42-7686-11cf-8F52-0040333594A3>
 DWORD nMaterials;
 DWORD nFaceIndexes;
 array DWORD faceIndexes[nFaceIndexes];
 [Material]
}

template MeshNormals {
 <F6F23F43-7686-11cf-8F52-0040333594A3>
 DWORD nNormals;
 array Vector normals[nNormals];
 DWORD nFaceNormals;
 array MeshFace faceNormals[nFaceNormals];
}

template MeshVertexColors {
 <1630B821-7842-11cf-8F52-0040333594A3>
 DWORD nVertexColors;
 array IndexedColor vertexColors[nVertexColors];
}

template Mesh {
 <3D82AB44-62DA-11cf-AB39-0020AF71E433>
 DWORD nVertices;
 array Vector vertices[nVertices];
 DWORD nFaces;
 array MeshFace faces[nFaces];
 [...]
}

Header{
1;
0;
1;
}

Mesh {
 83;
 -4.93842;51.99041;-13.91765;,
 -2.05043;51.99041;-13.91765;,
 -2.05043;49.10241;-13.91765;,
 -4.93842;49.10241;-13.91765;,
 5.01304;78.30048;-13.34016;,
 6.19301;78.30048;-12.85140;,
 6.19301;61.33579;-12.85140;,
 5.01304;61.33579;-13.34016;,
 6.68176;78.30048;-11.67145;,
 6.68176;61.33579;-11.67145;,
 6.19301;78.30048;-10.49148;,
 6.19301;61.33579;-10.49148;,
 5.01304;78.30048;-10.00273;,
 5.01304;61.33579;-10.00273;,
 3.83308;78.30048;-10.49148;,
 3.83308;61.33579;-10.49148;,
 3.34433;78.30048;-11.67145;,
 3.34433;61.33579;-11.67145;,
 3.83308;78.30048;-12.85140;,
 3.83308;61.33579;-12.85140;,
 5.01304;78.30048;-11.67145;,
 5.01304;61.33579;-11.67145;,
 -7.41370;61.43633;-13.91483;,
 7.41370;61.43633;-13.91483;,
 7.41370;33.95477;-13.91483;,
 -7.41370;33.95477;-13.91483;,
 7.41370;61.43633;-9.26460;,
 7.41370;33.95477;-9.26460;,
 -7.41370;61.43633;-9.26460;,
 -7.41370;33.95477;-9.26460;,
 -21.34226;107.00203;-9.26521;,
 21.34226;107.00203;-9.26521;,
 21.34226;0.29070;-9.26521;,
 -21.34226;0.29070;-9.26521;,
 21.34226;107.00203;11.75752;,
 21.34226;0.29070;11.75752;,
 -21.34226;107.00203;11.75752;,
 -21.34226;0.29070;11.75752;,
 -3.34484;57.02956;-13.95488;,
 -3.34484;60.82952;-13.95488;,
 -0.65784;59.71655;-13.95488;,
 0.45515;57.02956;-13.95488;,
 -0.65784;54.34254;-13.95488;,
 -3.34484;53.22957;-13.95488;,
 -6.03184;54.34254;-13.95488;,
 -7.14484;57.02956;-13.95488;,
 -6.03184;59.71655;-13.95488;,
 -1.13720;51.99041;-13.91765;,
 1.75080;51.99041;-13.91765;,
 1.75080;49.10241;-13.91765;,
 -1.13720;49.10241;-13.91765;,
 2.89139;51.99041;-13.91765;,
 5.77938;51.99041;-13.91765;,
 5.77938;49.10241;-13.91765;,
 2.89139;49.10241;-13.91765;,
 -4.93842;47.66638;-13.91765;,
 -2.05043;47.66638;-13.91765;,
 -2.05043;44.77839;-13.91765;,
 -4.93842;44.77839;-13.91765;,
 -4.93842;43.17941;-13.91765;,
 -2.05043;43.17941;-13.91765;,
 -2.05043;40.29143;-13.91765;,
 -4.93842;40.29143;-13.91765;,
 -1.13720;47.71105;-13.91765;,
 1.75080;47.71105;-13.91765;,
 1.75080;44.82306;-13.91765;,
 -1.13720;44.82306;-13.91765;,
 -1.13720;43.19228;-13.91765;,
 1.75080;43.19228;-13.91765;,
 1.75080;40.30429;-13.91765;,
 -1.13720;40.30429;-13.91765;,
 2.80788;47.76179;-13.91765;,
 5.69587;47.76179;-13.91765;,
 5.69587;44.87379;-13.91765;,
 2.80788;44.87379;-13.91765;,
 2.76652;43.16841;-13.91765;,
 5.65451;43.16841;-13.91765;,
 5.65451;40.28042;-13.91765;,
 2.76652;40.28042;-13.91765;,
 -5.06196;38.73384;-13.91765;,
 5.87596;38.73384;-13.91765;,
 5.87596;35.84587;-13.91765;,
 -5.06196;35.84587;-13.91765;;
 
 54;
 4;0,1,2,3;,
 4;4,5,6,7;,
 4;5,8,9,6;,
 4;8,10,11,9;,
 4;10,12,13,11;,
 4;12,14,15,13;,
 4;14,16,17,15;,
 4;16,18,19,17;,
 4;18,4,7,19;,
 3;20,5,4;,
 3;20,8,5;,
 3;20,10,8;,
 3;20,12,10;,
 3;20,14,12;,
 3;20,16,14;,
 3;20,18,16;,
 3;20,4,18;,
 3;21,7,6;,
 3;21,6,9;,
 3;21,9,11;,
 3;21,11,13;,
 3;21,13,15;,
 3;21,15,17;,
 3;21,17,19;,
 3;21,19,7;,
 4;22,23,24,25;,
 4;23,26,27,24;,
 4;26,28,29,27;,
 4;28,22,25,29;,
 4;28,26,23,22;,
 4;25,24,27,29;,
 4;30,31,32,33;,
 4;31,34,35,32;,
 4;34,36,37,35;,
 4;36,30,33,37;,
 4;36,34,31,30;,
 4;33,32,35,37;,
 3;38,39,40;,
 3;38,40,41;,
 3;38,41,42;,
 3;38,42,43;,
 3;38,43,44;,
 3;38,44,45;,
 3;38,45,46;,
 3;38,46,39;,
 4;47,48,49,50;,
 4;51,52,53,54;,
 4;55,56,57,58;,
 4;59,60,61,62;,
 4;63,64,65,66;,
 4;67,68,69,70;,
 4;71,72,73,74;,
 4;75,76,77,78;,
 4;79,80,81,82;;
 
 MeshMaterialList {
  4;
  54;
  3,
  1,
  1,
  1,
  1,
  1,
  1,
  1,
  1,
  1,
  1,
  1,
  1,
  1,
  1,
  1,
  1,
  1,
  1,
  1,
  1,
  1,
  1,
  1,
  1,
  1,
  1,
  1,
  1,
  1,
  1,
  0,
  0,
  0,
  0,
  0,
  0,
  2,
  2,
  2,
  2,
  2,
  2,
  2,
  2,
  3,
  3,
  3,
  3,
  3,
  3,
  3,
  3,
  3;;
  Material {
   0.693333;0.508235;0.360784;1.000000;;
   5.000000;
   0.000000;0.000000;0.000000;;
   0.000000;0.000000;0.000000;;
  }
  Material {
   0.000000;0.000000;0.000000;1.000000;;
   5.000000;
   0.000000;0.000000;0.000000;;
   0.000000;0.000000;0.000000;;
  }
  Material {
   0.800000;0.000000;0.000000;1.000000;;
   5.000000;
   0.000000;0.000000;0.000000;;
   0.000000;0.000000;0.000000;;
  }
  Material {
   0.545882;0.545882;0.545882;1.000000;;
   5.000000;
   0.000000;0.000000;0.000000;;
   0.000000;0.000000;0.000000;;
  }
 }
 MeshNormals {
  14;
  0.000000;0.000000;-1.000000;,
  0.000000;1.000000;0.000000;,
  0.000001;0.000000;-1.000000;,
  0.707107;0.000000;-0.707107;,
  1.000000;0.000000;-0.000002;,
  0.707106;0.000000;0.707108;,
  0.000001;0.000000;1.000000;,
  -0.707107;0.000000;0.707106;,
  -1.000000;0.000000;-0.000002;,
  -0.707108;0.000000;-0.707106;,
  0.000000;-1.000000;-0.000000;,
  1.000000;0.000000;0.000000;,
  0.000000;0.000000;1.000000;,
  -1.000000;0.000000;0.000000;;
  54;
  4;0,0,0,0;,
  4;2,3,3,2;,
  4;3,4,4,3;,
  4;4,5,5,4;,
  4;5,6,6,5;,
  4;6,7,7,6;,
  4;7,8,8,7;,
  4;8,9,9,8;,
  4;9,2,2,9;,
  3;1,1,1;,
  3;1,1,1;,
  3;1,1,1;,
  3;1,1,1;,
  3;1,1,1;,
  3;1,1,1;,
  3;1,1,1;,
  3;1,1,1;,
  3;10,10,10;,
  3;10,10,10;,
  3;10,10,10;,
  3;10,10,10;,
  3;10,10,10;,
  3;10,10,10;,
  3;10,10,10;,
  3;10,10,10;,
  4;0,0,0,0;,
  4;11,11,11,11;,
  4;12,12,12,12;,
  4;13,13,13,13;,
  4;1,1,1,1;,
  4;10,10,10,10;,
  4;0,0,0,0;,
  4;11,11,11,11;,
  4;12,12,12,12;,
  4;13,13,13,13;,
  4;1,1,1,1;,
  4;10,10,10,10;,
  3;0,0,0;,
  3;0,0,0;,
  3;0,0,0;,
  3;0,0,0;,
  3;0,0,0;,
  3;0,0,0;,
  3;0,0,0;,
  3;0,0,0;,
  4;0,0,0,0;,
  4;0,0,0,0;,
  4;0,0,0,0;,
  4;0,0,0,0;,
  4;0,0,0,0;,
  4;0,0,0,0;,
  4;0,0,0,0;,
  4;0,0,0,0;,
  4;0,0,0,0;;
 }
}
