xof 0302txt 0064
template Header {
 <3D82AB43-62DA-11cf-AB39-0020AF71E433>
 WORD major;
 WORD minor;
 DWORD flags;
}

template Vector {
 <3D82AB5E-62DA-11cf-AB39-0020AF71E433>
 FLOAT x;
 FLOAT y;
 FLOAT z;
}

template Coords2d {
 <F6F23F44-7686-11cf-8F52-0040333594A3>
 FLOAT u;
 FLOAT v;
}

template Matrix4x4 {
 <F6F23F45-7686-11cf-8F52-0040333594A3>
 array FLOAT matrix[16];
}

template ColorRGBA {
 <35FF44E0-6C7C-11cf-8F52-0040333594A3>
 FLOAT red;
 FLOAT green;
 FLOAT blue;
 FLOAT alpha;
}

template ColorRGB {
 <D3E16E81-7835-11cf-8F52-0040333594A3>
 FLOAT red;
 FLOAT green;
 FLOAT blue;
}

template IndexedColor {
 <1630B820-7842-11cf-8F52-0040333594A3>
 DWORD index;
 ColorRGBA indexColor;
}

template Boolean {
 <4885AE61-78E8-11cf-8F52-0040333594A3>
 WORD truefalse;
}

template Boolean2d {
 <4885AE63-78E8-11cf-8F52-0040333594A3>
 Boolean u;
 Boolean v;
}

template MaterialWrap {
 <4885AE60-78E8-11cf-8F52-0040333594A3>
 Boolean u;
 Boolean v;
}

template TextureFilename {
 <A42790E1-7810-11cf-8F52-0040333594A3>
 STRING filename;
}

template Material {
 <3D82AB4D-62DA-11cf-AB39-0020AF71E433>
 ColorRGBA faceColor;
 FLOAT power;
 ColorRGB specularColor;
 ColorRGB emissiveColor;
 [...]
}

template MeshFace {
 <3D82AB5F-62DA-11cf-AB39-0020AF71E433>
 DWORD nFaceVertexIndices;
 array DWORD faceVertexIndices[nFaceVertexIndices];
}

template MeshFaceWraps {
 <4885AE62-78E8-11cf-8F52-0040333594A3>
 DWORD nFaceWrapValues;
 Boolean2d faceWrapValues;
}

template MeshTextureCoords {
 <F6F23F40-7686-11cf-8F52-0040333594A3>
 DWORD nTextureCoords;
 array Coords2d textureCoords[nTextureCoords];
}

template MeshMaterialList {
 <F6F23F42-7686-11cf-8F52-0040333594A3>
 DWORD nMaterials;
 DWORD nFaceIndexes;
 array DWORD faceIndexes[nFaceIndexes];
 [Material]
}

template MeshNormals {
 <F6F23F43-7686-11cf-8F52-0040333594A3>
 DWORD nNormals;
 array Vector normals[nNormals];
 DWORD nFaceNormals;
 array MeshFace faceNormals[nFaceNormals];
}

template MeshVertexColors {
 <1630B821-7842-11cf-8F52-0040333594A3>
 DWORD nVertexColors;
 array IndexedColor vertexColors[nVertexColors];
}

template Mesh {
 <3D82AB44-62DA-11cf-AB39-0020AF71E433>
 DWORD nVertices;
 array Vector vertices[nVertices];
 DWORD nFaces;
 array MeshFace faces[nFaces];
 [...]
}

Header{
1;
0;
1;
}

Mesh {
 44;
 -2.80955;7.57748;-5.55598;,
 2.93048;7.57748;-5.50589;,
 2.93048;0.07748;-5.50589;,
 -2.80955;0.07748;-5.55598;,
 6.95388;7.57748;-1.41165;,
 6.95388;0.07748;-1.41165;,
 6.90379;7.57748;4.32838;,
 6.90379;0.07748;4.32838;,
 2.80955;7.57748;8.35178;,
 2.80955;0.07748;8.35178;,
 -2.93048;7.57748;8.30169;,
 -2.93048;0.07748;8.30169;,
 -6.95388;7.57748;4.20745;,
 -6.95388;0.07748;4.20745;,
 -6.90379;7.57748;-1.53258;,
 -6.90379;0.07748;-1.53258;,
 0.00000;7.57748;1.39790;,
 0.00000;0.07748;1.39790;,
 -2.25000;7.57748;8.31865;,
 2.25000;7.57748;8.31865;,
 2.25000;0.07748;8.31865;,
 -2.25000;0.07748;8.31865;,
 2.25000;7.57748;23.31866;,
 2.25000;0.07748;23.31866;,
 -2.25000;7.57748;23.31866;,
 -2.25000;0.07748;23.31866;,
 -2.24764;18.07748;-4.16520;,
 2.34439;18.07748;-4.12513;,
 2.34439;7.57748;-4.12513;,
 -2.24764;7.57748;-4.16520;,
 5.56310;18.07748;-0.84974;,
 5.56310;7.57748;-0.84974;,
 5.52303;18.07748;3.74229;,
 5.52303;7.57748;3.74229;,
 2.24764;18.07748;6.96100;,
 2.24764;7.57748;6.96100;,
 -2.34439;18.07748;6.92093;,
 -2.34439;7.57748;6.92093;,
 -5.56310;18.07748;3.64554;,
 -5.56310;7.57748;3.64554;,
 -5.52303;18.07748;-0.94649;,
 -5.52303;7.57748;-0.94649;,
 0.00000;18.07748;1.39790;,
 0.00000;7.57748;1.39790;;
 
 54;
 4;0,1,2,3;,
 4;1,4,5,2;,
 4;4,6,7,5;,
 4;6,8,9,7;,
 4;8,10,11,9;,
 4;10,12,13,11;,
 4;12,14,15,13;,
 4;14,0,3,15;,
 3;16,1,0;,
 3;16,4,1;,
 3;16,6,4;,
 3;16,8,6;,
 3;16,10,8;,
 3;16,12,10;,
 3;16,14,12;,
 3;16,0,14;,
 3;17,3,2;,
 3;17,2,5;,
 3;17,5,7;,
 3;17,7,9;,
 3;17,9,11;,
 3;17,11,13;,
 3;17,13,15;,
 3;17,15,3;,
 4;18,19,20,21;,
 4;19,22,23,20;,
 4;22,24,25,23;,
 4;24,18,21,25;,
 4;24,22,19,18;,
 4;21,20,23,25;,
 4;26,27,28,29;,
 4;27,30,31,28;,
 4;30,32,33,31;,
 4;32,34,35,33;,
 4;34,36,37,35;,
 4;36,38,39,37;,
 4;38,40,41,39;,
 4;40,26,29,41;,
 3;42,27,26;,
 3;42,30,27;,
 3;42,32,30;,
 3;42,34,32;,
 3;42,36,34;,
 3;42,38,36;,
 3;42,40,38;,
 3;42,26,40;,
 3;43,29,28;,
 3;43,28,31;,
 3;43,31,33;,
 3;43,33,35;,
 3;43,35,37;,
 3;43,37,39;,
 3;43,39,41;,
 3;43,41,29;;
 
 MeshMaterialList {
  2;
  54;
  1,
  1,
  1,
  1,
  1,
  1,
  1,
  1,
  1,
  1,
  1,
  1,
  1,
  1,
  1,
  1,
  1,
  1,
  1,
  1,
  1,
  1,
  1,
  1,
  1,
  1,
  1,
  1,
  1,
  1,
  1,
  1,
  1,
  1,
  1,
  1,
  1,
  1,
  1,
  1,
  1,
  1,
  1,
  1,
  1,
  1,
  1,
  1,
  1,
  1,
  1,
  1,
  1,
  1;;
  Material {
   0.000000;0.000000;0.000000;1.000000;;
   5.000000;
   0.000000;0.000000;0.000000;;
   0.000000;0.000000;0.000000;;
  }
  Material {
   0.640000;0.640000;0.640000;1.000000;;
   5.000000;
   0.000000;0.000000;0.000000;;
   0.000000;0.000000;0.000000;;
  }
 }
 MeshNormals {
  22;
  0.000000;1.000000;0.000000;,
  -0.374607;0.000000;-0.927184;,
  0.390731;0.000000;-0.920505;,
  0.927184;0.000000;-0.374607;,
  0.920505;0.000000;0.390731;,
  0.374606;0.000000;0.927184;,
  -0.390731;0.000000;0.920505;,
  -0.927184;0.000000;0.374607;,
  -0.920505;0.000000;-0.390731;,
  0.000000;-1.000000;-0.000000;,
  0.000000;0.000000;-1.000000;,
  1.000000;0.000000;0.000000;,
  0.000000;0.000000;1.000000;,
  -0.374606;0.000000;-0.927184;,
  0.390731;0.000000;-0.920505;,
  0.927184;0.000000;-0.374607;,
  0.920505;0.000000;0.390731;,
  0.374606;0.000000;0.927184;,
  -0.390731;0.000000;0.920505;,
  -0.927184;0.000000;0.374607;,
  -0.920505;0.000000;-0.390731;,
  -1.000000;0.000000;0.000000;;
  54;
  4;1,2,2,1;,
  4;2,3,3,2;,
  4;3,4,4,3;,
  4;4,5,5,4;,
  4;5,6,6,5;,
  4;6,7,7,6;,
  4;7,8,8,7;,
  4;8,1,1,8;,
  3;0,0,0;,
  3;0,0,0;,
  3;0,0,0;,
  3;0,0,0;,
  3;0,0,0;,
  3;0,0,0;,
  3;0,0,0;,
  3;0,0,0;,
  3;9,9,9;,
  3;9,9,9;,
  3;9,9,9;,
  3;9,9,9;,
  3;9,9,9;,
  3;9,9,9;,
  3;9,9,9;,
  3;9,9,9;,
  4;10,10,10,10;,
  4;11,11,11,11;,
  4;12,12,12,12;,
  4;21,21,21,21;,
  4;0,0,0,0;,
  4;9,9,9,9;,
  4;13,14,14,13;,
  4;14,15,15,14;,
  4;15,16,16,15;,
  4;16,17,17,16;,
  4;17,18,18,17;,
  4;18,19,19,18;,
  4;19,20,20,19;,
  4;20,13,13,20;,
  3;0,0,0;,
  3;0,0,0;,
  3;0,0,0;,
  3;0,0,0;,
  3;0,0,0;,
  3;0,0,0;,
  3;0,0,0;,
  3;0,0,0;,
  3;9,9,9;,
  3;9,9,9;,
  3;9,9,9;,
  3;9,9,9;,
  3;9,9,9;,
  3;9,9,9;,
  3;9,9,9;,
  3;9,9,9;;
 }
}
