xof 0302txt 0064
template Header {
 <3D82AB43-62DA-11cf-AB39-0020AF71E433>
 WORD major;
 WORD minor;
 DWORD flags;
}

template Vector {
 <3D82AB5E-62DA-11cf-AB39-0020AF71E433>
 FLOAT x;
 FLOAT y;
 FLOAT z;
}

template Coords2d {
 <F6F23F44-7686-11cf-8F52-0040333594A3>
 FLOAT u;
 FLOAT v;
}

template Matrix4x4 {
 <F6F23F45-7686-11cf-8F52-0040333594A3>
 array FLOAT matrix[16];
}

template ColorRGBA {
 <35FF44E0-6C7C-11cf-8F52-0040333594A3>
 FLOAT red;
 FLOAT green;
 FLOAT blue;
 FLOAT alpha;
}

template ColorRGB {
 <D3E16E81-7835-11cf-8F52-0040333594A3>
 FLOAT red;
 FLOAT green;
 FLOAT blue;
}

template IndexedColor {
 <1630B820-7842-11cf-8F52-0040333594A3>
 DWORD index;
 ColorRGBA indexColor;
}

template Boolean {
 <4885AE61-78E8-11cf-8F52-0040333594A3>
 WORD truefalse;
}

template Boolean2d {
 <4885AE63-78E8-11cf-8F52-0040333594A3>
 Boolean u;
 Boolean v;
}

template MaterialWrap {
 <4885AE60-78E8-11cf-8F52-0040333594A3>
 Boolean u;
 Boolean v;
}

template TextureFilename {
 <A42790E1-7810-11cf-8F52-0040333594A3>
 STRING filename;
}

template Material {
 <3D82AB4D-62DA-11cf-AB39-0020AF71E433>
 ColorRGBA faceColor;
 FLOAT power;
 ColorRGB specularColor;
 ColorRGB emissiveColor;
 [...]
}

template MeshFace {
 <3D82AB5F-62DA-11cf-AB39-0020AF71E433>
 DWORD nFaceVertexIndices;
 array DWORD faceVertexIndices[nFaceVertexIndices];
}

template MeshFaceWraps {
 <4885AE62-78E8-11cf-8F52-0040333594A3>
 DWORD nFaceWrapValues;
 Boolean2d faceWrapValues;
}

template MeshTextureCoords {
 <F6F23F40-7686-11cf-8F52-0040333594A3>
 DWORD nTextureCoords;
 array Coords2d textureCoords[nTextureCoords];
}

template MeshMaterialList {
 <F6F23F42-7686-11cf-8F52-0040333594A3>
 DWORD nMaterials;
 DWORD nFaceIndexes;
 array DWORD faceIndexes[nFaceIndexes];
 [Material]
}

template MeshNormals {
 <F6F23F43-7686-11cf-8F52-0040333594A3>
 DWORD nNormals;
 array Vector normals[nNormals];
 DWORD nFaceNormals;
 array MeshFace faceNormals[nFaceNormals];
}

template MeshVertexColors {
 <1630B821-7842-11cf-8F52-0040333594A3>
 DWORD nVertexColors;
 array IndexedColor vertexColors[nVertexColors];
}

template Mesh {
 <3D82AB44-62DA-11cf-AB39-0020AF71E433>
 DWORD nVertices;
 array Vector vertices[nVertices];
 DWORD nFaces;
 array MeshFace faces[nFaces];
 [...]
}

Header{
1;
0;
1;
}

Mesh {
 48;
 -7.48571;15.13826;-22.05761;,
 7.51429;15.13826;-22.05761;,
 7.51429;0.13826;-22.05761;,
 -7.48571;0.13826;-22.05761;,
 7.51429;15.13826;9.61913;,
 7.51429;0.13826;9.61913;,
 -7.48571;15.13826;9.61913;,
 -7.48571;0.13826;9.61913;,
 -9.77451;16.47601;-28.11871;,
 -7.65899;16.47601;-28.11871;,
 -7.65899;15.18574;-27.85638;,
 -9.77451;15.18574;-27.85638;,
 -7.62665;16.47601;-28.11871;,
 -7.64034;15.18574;-27.85638;,
 7.71996;16.47601;-28.11871;,
 7.67954;15.18574;-27.85638;,
 7.68757;16.47601;-28.11871;,
 7.68757;15.18574;-27.85638;,
 9.80309;16.47601;-28.11871;,
 9.80309;15.18574;-27.85638;,
 -7.65899;8.93658;-26.45104;,
 -9.58226;8.93658;-26.45104;,
 -7.64034;15.19970;-27.85638;,
 7.67954;15.19970;-27.85638;,
 7.68757;8.93658;-26.45104;,
 9.80309;8.93658;-26.45104;,
 9.80309;16.47601;14.05187;,
 9.88882;15.18574;13.96740;,
 9.88882;8.93658;13.96740;,
 7.68757;16.47601;14.05187;,
 7.77330;15.18574;13.96740;,
 7.71996;16.47601;14.05187;,
 7.67954;15.18574;14.05187;,
 -7.62665;16.47601;14.05187;,
 -7.64034;15.18574;14.05187;,
 -7.65899;16.47601;14.05187;,
 -7.65899;15.18574;14.05187;,
 -9.77451;16.47601;14.05187;,
 -9.77451;15.18574;14.05187;,
 7.77330;8.93658;13.96740;,
 7.67954;15.19970;14.05187;,
 -7.64034;15.19970;14.05187;,
 -7.65899;8.93658;14.05187;,
 -9.58226;8.93658;14.05187;,
 -6.57356;14.24032;-22.11767;,
 6.60213;14.24032;-22.11767;,
 6.60213;1.06463;-22.11767;,
 -6.57356;1.06463;-22.11767;;
 
 41;
 4;0,1,2,3;,
 4;1,4,5,2;,
 4;4,6,7,5;,
 4;6,0,3,7;,
 4;6,4,1,0;,
 4;3,2,5,7;,
 4;8,9,10,11;,
 4;9,12,13,10;,
 4;12,14,15,13;,
 4;14,16,17,15;,
 4;16,18,19,17;,
 4;11,10,20,21;,
 4;10,13,22,20;,
 4;13,15,23,22;,
 4;15,17,24,23;,
 4;17,19,25,24;,
 4;18,26,27,19;,
 4;19,27,28,25;,
 4;26,29,30,27;,
 4;29,31,32,30;,
 4;31,33,34,32;,
 4;33,35,36,34;,
 4;35,37,38,36;,
 4;27,30,39,28;,
 4;30,32,40,39;,
 4;32,34,41,40;,
 4;34,36,42,41;,
 4;36,38,43,42;,
 4;37,8,11,38;,
 4;38,11,21,43;,
 4;37,35,9,8;,
 4;35,33,12,9;,
 4;33,31,14,12;,
 4;31,29,16,14;,
 4;29,26,18,16;,
 4;21,20,42,43;,
 4;20,22,41,42;,
 4;22,23,40,41;,
 4;23,24,39,40;,
 4;24,25,28,39;,
 4;44,45,46,47;;
 
 MeshMaterialList {
  2;
  41;
  1,
  1,
  1,
  1,
  1,
  1,
  1,
  1,
  1,
  1,
  1,
  1,
  1,
  1,
  1,
  1,
  1,
  1,
  1,
  1,
  1,
  1,
  1,
  1,
  1,
  1,
  1,
  1,
  1,
  1,
  1,
  1,
  1,
  1,
  1,
  1,
  1,
  1,
  1,
  1,
  0;;
  Material {
   0.000000;0.000000;0.000000;1.000000;;
   5.000000;
   0.000000;0.000000;0.000000;;
   0.000000;0.000000;0.000000;;
  }
  Material {
   0.640000;0.640000;0.640000;1.000000;;
   5.000000;
   0.000000;0.000000;0.000000;;
   0.000000;0.000000;0.000000;;
  }
 }
 MeshNormals {
  35;
  0.000000;0.000000;-1.000000;,
  1.000000;0.000000;0.000000;,
  0.000000;0.000000;1.000000;,
  0.000000;-0.199233;-0.979952;,
  0.000000;-0.199233;-0.979952;,
  0.000000;-0.199233;-0.979952;,
  0.000000;-0.220939;-0.975288;,
  0.000000;-0.220939;-0.975288;,
  0.000000;-0.209330;-0.977845;,
  0.188767;-0.205308;-0.960320;,
  0.254666;-0.198469;-0.946444;,
  -0.253599;-0.213640;-0.943422;,
  -0.187990;-0.216536;-0.958004;,
  0.000000;-0.219405;-0.975634;,
  0.385670;-0.203527;-0.899909;,
  0.924985;-0.085997;-0.370144;,
  -0.383971;-0.203056;-0.900741;,
  0.000000;-0.199233;-0.979952;,
  0.000000;-0.209330;-0.977845;,
  0.000000;-0.219405;-0.975634;,
  0.999447;0.033235;-0.001023;,
  0.000000;-0.065327;0.997864;,
  0.932639;0.061827;-0.355473;,
  0.999863;0.016501;-0.001555;,
  0.000000;-0.032681;0.999466;,
  0.999998;-0.000239;-0.002086;,
  0.000000;0.000000;0.000000;,
  -1.000000;0.000000;0.000000;,
  0.000000;1.000000;0.000000;,
  0.000000;-1.000000;-0.000000;,
  -0.924255;-0.088539;-0.371367;,
  -0.999882;-0.015377;0.000000;,
  -0.999527;-0.030750;0.000000;,
  0.999996;-0.002978;-0.000000;,
  -0.999966;-0.008140;0.001060;;
  41;
  4;0,0,0,0;,
  4;1,1,1,1;,
  4;2,2,2,2;,
  4;27,27,27,27;,
  4;28,28,28,28;,
  4;29,29,29,29;,
  4;3,4,9,8;,
  4;4,5,10,9;,
  4;5,6,11,10;,
  4;6,7,12,11;,
  4;7,17,18,12;,
  4;8,9,14,13;,
  4;9,10,15,14;,
  4;2,2,2,2;,
  4;11,12,16,30;,
  4;12,18,19,16;,
  4;20,20,23,23;,
  4;23,23,25,25;,
  4;21,21,24,24;,
  4;22,22,22,22;,
  4;2,2,2,2;,
  4;2,2,2,2;,
  4;2,2,2,2;,
  4;24,24,2,2;,
  4;26,26,26,26;,
  4;0,0,0,0;,
  4;26,26,26,26;,
  4;2,2,2,2;,
  4;27,27,31,31;,
  4;31,31,32,32;,
  4;28,28,28,28;,
  4;28,28,28,28;,
  4;28,28,28,28;,
  4;29,29,29,29;,
  4;28,28,28,28;,
  4;29,29,29,29;,
  4;33,15,33,33;,
  4;29,29,29,29;,
  4;30,34,34,34;,
  4;29,29,29,29;,
  4;0,0,0,0;;
 }
}
