#==============================================================================
#
# 『モーションビューワ』スクリプトファイル [motion_weapon.txt]
# Author : AKIRA TANAKA
#
#==============================================================================
SCRIPT			# この行は絶対消さないこと！

#------------------------------------------------------------------------------
# モデル数
#------------------------------------------------------------------------------
NUM_MODEL = 10

#------------------------------------------------------------------------------
# モデルファイル名
#------------------------------------------------------------------------------
MODEL_FILENAME = data/MODEL/hito/00_body.x		# [0]体
MODEL_FILENAME = data/MODEL/hito/01_head.x		# [1]頭
MODEL_FILENAME = data/MODEL/hito/02_armR.x		# [2]右腕
MODEL_FILENAME = data/MODEL/hito/03_handR.x		# [3]右手
MODEL_FILENAME = data/MODEL/hito/04_armL.x		# [4]左腕
MODEL_FILENAME = data/MODEL/hito/05_handL.x		# [5]左手
MODEL_FILENAME = data/MODEL/hito/06_legR.x		# [6]右腿
MODEL_FILENAME = data/MODEL/hito/07_footR.x		# [7]右足
MODEL_FILENAME = data/MODEL/hito/08_legL.x		# [8]左腿
MODEL_FILENAME = data/MODEL/hito/09_footL.x		# [9]左足

#------------------------------------------------------------------------------
# キャラクター情報
#------------------------------------------------------------------------------
CHARACTERSET
	NUM_PARTS = 11					# パーツ数
	MOVE = 3.0						# 移動量
	JUMP = 10.25					# ジャンプ量
	RADIUS = 20.0					# 半径
	HEIGHT = 40.0					# 高さ

	PARTSSET
		INDEX = 0					# 体
		PARENT = -1					# (親)NULL
		POS = 0.0 15.0 0.0
		ROT = 0.0 0.0 0.0
	END_PARTSSET

	PARTSSET
		INDEX = 1					# 頭
		PARENT = 0					# (親)体
		POS = 0.0 15.0 0.0
		ROT = 0.0 0.0 0.0
	END_PARTSSET

	PARTSSET
		INDEX = 2					# 右腕
		PARENT = 0					# (親)体
		POS = -7.5 12.0 0.0
		ROT = 0.0 0.0 0.0
	END_PARTSSET

	PARTSSET
		INDEX = 3					# 右手
		PARENT = 2					# (親)右腕
		POS = -10.0 0.0 0.0
		ROT = 0.0 0.0 0.0
	END_PARTSSET

	PARTSSET
		INDEX = 4					# 左腕
		PARENT = 0					# (親)体
		POS = 7.5 12.0 0.0
		ROT = 0.0 0.0 0.0
	END_PARTSSET

	PARTSSET
		INDEX = 5					# 左手
		PARENT = 4					# (親)左腕
		POS = 10.0 0.0 0.0
		ROT = 0.0 0.0 0.0
	END_PARTSSET

	PARTSSET
		INDEX = 6					# 右腿
		PARENT = 0					# (親)体
		POS = -4.0 0.0 0.0
		ROT = 0.0 0.0 0.0
	END_PARTSSET

	PARTSSET
		INDEX = 7					# 右足
		PARENT = 6					# (親)右腿
		POS = 0.0 -10.0 0.0
		ROT = 0.0 0.0 0.0
	END_PARTSSET

	PARTSSET
		INDEX = 8					# 左腿
		PARENT = 0					# (親)体
		POS = 4.0 0.0 0.0
		ROT = 0.0 0.0 0.0
	END_PARTSSET

	PARTSSET
		INDEX = 9					# 左足
		PARENT = 8					# (親)左腿
		POS = 0.0 -10.0 0.0
		ROT = 0.0 0.0 0.0
	END_PARTSSET

END_CHARACTERSET

#------------------------------------------------------------------------------
# モーション情報
#------------------------------------------------------------------------------
#---------------------------------------
# [0] ニュートラルモーション
#---------------------------------------
MOTIONSET
	LOOP = 1		# ループするかどうか[0:ループしない / 1:ループする]
	NUM_KEY = 2		# キー数

	KEYSET			# --- << KEY : 0 / 2 >> ---
		FRAME = 50
		KEY	# ----- [ 0 ] -----
			POS = 0.00 0.00 0.00
			ROT = 0.13 0.00 0.00
		END_KEY

		KEY	# ----- [ 1 ] -----
			POS = 0.00 0.00 0.00
			ROT = -0.10 0.00 0.00
		END_KEY

		KEY	# ----- [ 2 ] -----
			POS = 0.00 0.00 0.00
			ROT = 0.00 0.28 0.69
		END_KEY

		KEY	# ----- [ 3 ] -----
			POS = 0.00 0.00 0.00
			ROT = 0.00 -0.25 0.00
		END_KEY

		KEY	# ----- [ 4 ] -----
			POS = 0.00 0.00 0.00
			ROT = 0.00 -0.28 -0.69
		END_KEY

		KEY	# ----- [ 5 ] -----
			POS = 0.00 0.00 0.00
			ROT = 0.00 0.25 0.00
		END_KEY

		KEY	# ----- [ 6 ] -----
			POS = 0.00 0.00 0.00
			ROT = -0.16 0.06 -0.25
		END_KEY

		KEY	# ----- [ 7 ] -----
			POS = 0.00 0.00 0.00
			ROT = 0.00 0.00 0.00
		END_KEY

		KEY	# ----- [ 8 ] -----
			POS = 0.00 0.00 0.00
			ROT = -0.16 -0.06 0.25
		END_KEY

		KEY	# ----- [ 9 ] -----
			POS = 0.00 0.00 0.00
			ROT = 0.00 0.00 0.00
		END_KEY
	END_KEYSET

	KEYSET			# --- << KEY : 1 / 2 >> ---
		FRAME = 50
		KEY	# ----- [ 0 ] -----
			POS = 0.00 -1.00 0.00
			ROT = -0.09 0.00 0.00
		END_KEY

		KEY	# ----- [ 1 ] -----
			POS = 0.00 0.00 0.00
			ROT = -0.06 0.00 0.00
		END_KEY

		KEY	# ----- [ 2 ] -----
			POS = 0.00 0.00 0.00
			ROT = 0.00 -0.25 0.95
		END_KEY

		KEY	# ----- [ 3 ] -----
			POS = 0.00 0.00 0.00
			ROT = 0.00 -0.53 0.00
		END_KEY

		KEY	# ----- [ 4 ] -----
			POS = 0.00 0.00 0.00
			ROT = 0.00 0.25 -0.95
		END_KEY

		KEY	# ----- [ 5 ] -----
			POS = 0.00 0.00 0.00
			ROT = 0.00 0.53 0.00
		END_KEY

		KEY	# ----- [ 6 ] -----
			POS = 0.00 0.50 0.00
			ROT = 0.12 0.06 -0.22
		END_KEY

		KEY	# ----- [ 7 ] -----
			POS = 0.00 0.00 0.00
			ROT = 0.00 -0.18 0.00
		END_KEY

		KEY	# ----- [ 8 ] -----
			POS = 0.00 0.50 0.00
			ROT = 0.12 -0.06 0.22
		END_KEY

		KEY	# ----- [ 9 ] -----
			POS = 0.00 0.00 0.00
			ROT = -0.18 0.00 0.00
		END_KEY
	END_KEYSET
END_MOTIONSET

#---------------------------------------
# [1] 移動モーション
#---------------------------------------
MOTIONSET
	LOOP = 1		# ループするかどうか[0:ループしない / 1:ループする]
	NUM_KEY = 4		# キー数

	KEYSET			# --- << KEY : 0 / 4 >> ---
		FRAME = 8
		KEY	# ----- [ 0 ] -----
			POS = 0.00 1.00 0.00
			ROT = -0.37 -0.16 0.00
		END_KEY

		KEY	# ----- [ 1 ] -----
			POS = 0.00 0.00 0.00
			ROT = 0.12 -0.25 0.00
		END_KEY

		KEY	# ----- [ 2 ] -----
			POS = 0.00 0.00 0.00
			ROT = 1.51 0.00 1.09
		END_KEY

		KEY	# ----- [ 3 ] -----
			POS = 0.00 0.00 0.00
			ROT = 0.00 -1.09 0.00
		END_KEY

		KEY	# ----- [ 4 ] -----
			POS = 0.00 0.00 0.00
			ROT = -1.32 0.00 -1.09
		END_KEY

		KEY	# ----- [ 5 ] -----
			POS = 0.00 0.00 0.00
			ROT = 0.00 1.09 0.00
		END_KEY

		KEY	# ----- [ 6 ] -----
			POS = 0.00 0.00 0.00
			ROT = -1.06 0.00 0.00
		END_KEY

		KEY	# ----- [ 7 ] -----
			POS = 0.00 0.00 0.00
			ROT = -0.97 0.00 0.00
		END_KEY

		KEY	# ----- [ 8 ] -----
			POS = 0.00 0.00 0.00
			ROT = 1.51 0.00 0.00
		END_KEY

		KEY	# ----- [ 9 ] -----
			POS = 0.00 0.00 0.00
			ROT = 0.00 0.00 0.00
		END_KEY
	END_KEYSET

	KEYSET			# --- << KEY : 1 / 4 >> ---
		FRAME = 10
		KEY	# ----- [ 0 ] -----
			POS = 0.00 -2.30 0.00
			ROT = -0.53 -0.25 0.00
		END_KEY

		KEY	# ----- [ 1 ] -----
			POS = 0.00 0.00 0.00
			ROT = -0.07 -0.16 0.00
		END_KEY

		KEY	# ----- [ 2 ] -----
			POS = 0.00 0.00 0.00
			ROT = 1.42 0.00 1.09
		END_KEY

		KEY	# ----- [ 3 ] -----
			POS = 0.00 0.00 0.00
			ROT = 0.00 -0.90 0.00
		END_KEY

		KEY	# ----- [ 4 ] -----
			POS = 0.00 0.00 0.00
			ROT = -1.45 0.00 -1.09
		END_KEY

		KEY	# ----- [ 5 ] -----
			POS = 0.00 0.00 0.00
			ROT = 0.00 0.81 0.00
		END_KEY

		KEY	# ----- [ 6 ] -----
			POS = 0.00 0.00 0.00
			ROT = -0.75 0.00 0.00
		END_KEY

		KEY	# ----- [ 7 ] -----
			POS = 0.00 0.00 0.00
			ROT = -0.09 0.00 0.00
		END_KEY

		KEY	# ----- [ 8 ] -----
			POS = 0.00 0.00 0.00
			ROT = 1.16 0.09 0.00
		END_KEY

		KEY	# ----- [ 9 ] -----
			POS = 0.00 0.00 0.00
			ROT = -0.44 0.00 0.00
		END_KEY

	END_KEYSET

	KEYSET			# --- << KEY : 2 / 4 >> ---
		FRAME = 8
		KEY	# ----- [ 0 ] -----
			POS = 0.00 1.00 0.00
			ROT = -0.37 0.14 0.00
		END_KEY

		KEY	# ----- [ 1 ] -----
			POS = 0.00 0.00 0.00
			ROT = 0.16 0.25 0.00
		END_KEY

		KEY	# ----- [ 2 ] -----
			POS = 0.00 0.00 0.00
			ROT = -1.14 0.00 1.09
		END_KEY

		KEY	# ----- [ 3 ] -----
			POS = 0.00 0.00 0.00
			ROT = 0.00 -1.09 0.00
		END_KEY

		KEY	# ----- [ 4 ] -----
			POS = 0.00 0.00 0.00
			ROT = 1.52 0.00 -1.09
		END_KEY

		KEY	# ----- [ 5 ] -----
			POS = 0.00 0.00 0.00
			ROT = 0.00 1.09 0.00
		END_KEY

		KEY	# ----- [ 6 ] -----
			POS = 0.00 0.00 0.00
			ROT = 1.51 0.00 0.00
		END_KEY

		KEY	# ----- [ 7 ] -----
			POS = 0.00 0.00 0.00
			ROT = -0.05 0.00 0.00
		END_KEY

		KEY	# ----- [ 8 ] -----
			POS = 0.00 0.00 0.00
			ROT = -1.07 0.00 0.00
		END_KEY

		KEY	# ----- [ 9 ] -----
			POS = 0.00 0.00 0.00
			ROT = -0.92 0.00 0.00
		END_KEY
	END_KEYSET

	KEYSET			# --- << KEY : 3 / 4 >> ---
		FRAME = 10
		KEY	# ----- [ 0 ] -----
			POS = 0.00 -2.30 0.00
			ROT = -0.53 0.23 0.00
		END_KEY

		KEY	# ----- [ 1 ] -----
			POS = 0.00 0.00 0.00
			ROT = -0.06 0.16 0.00
		END_KEY

		KEY	# ----- [ 2 ] -----
			POS = 0.00 0.00 0.00
			ROT = -1.27 0.00 1.09
		END_KEY

		KEY	# ----- [ 3 ] -----
			POS = 0.00 0.00 0.00
			ROT = 0.00 -0.84 0.00
		END_KEY

		KEY	# ----- [ 4 ] -----
			POS = 0.00 0.00 0.00
			ROT = 1.33 0.00 -1.09
		END_KEY

		KEY	# ----- [ 5 ] -----
			POS = 0.00 0.00 0.00
			ROT = 0.00 0.59 0.00
		END_KEY

		KEY	# ----- [ 6 ] -----
			POS = 0.00 0.00 0.00
			ROT = 1.16 -0.09 0.00
		END_KEY

		KEY	# ----- [ 7 ] -----
			POS = 0.00 0.00 0.00
			ROT = -0.43 0.00 0.00
		END_KEY

		KEY	# ----- [ 8 ] -----
			POS = 0.00 0.00 0.00
			ROT = -0.76 0.00 0.00
		END_KEY

		KEY	# ----- [ 9 ] -----
			POS = 0.00 0.00 0.00
			ROT = -0.07 0.00 0.00
		END_KEY
	END_KEYSET
END_MOTIONSET

#---------------------------------------
# [2] アクションモーション
#---------------------------------------
MOTIONSET
	LOOP = 0		# ループするかどうか[0:ループしない / 1:ループする]
	NUM_KEY = 2		# キー数
 	COLLISION = 10 0.0 60.0 0.0 5.0 16 40		# 当たり判定
 	COLLISION_DAMAGE = 4.0 14.0					# ダメージ
	ORBIT = 10 0.0 60.0 0.0 40 2 52				# 軌跡

	KEYSET			# --- << KEY : 0 / 2 >> ---
		FRAME = 10
		KEY	# ----- [ 0 ] -----
			POS = 0.00 0.00 0.00
			ROT = 0.00 0.00 0.00
		END_KEY

		KEY	# ----- [ 1 ] -----
			POS = 0.00 0.00 0.00
			ROT = 0.00 0.00 0.00
		END_KEY

		KEY	# ----- [ 2 ] -----
			POS = 0.00 0.00 0.00
			ROT = 0.00 0.00 0.00
		END_KEY

		KEY	# ----- [ 3 ] -----
			POS = 0.00 0.00 0.00
			ROT = 0.00 0.00 0.00
		END_KEY

		KEY	# ----- [ 4 ] -----
			POS = 0.00 0.00 0.00
			ROT = 0.00 0.25 -0.79
		END_KEY

		KEY	# ----- [ 5 ] -----
			POS = 0.00 0.00 0.00
			ROT = 0.00 0.00 0.00
		END_KEY

		KEY	# ----- [ 6 ] -----
			POS = 0.00 0.00 0.00
			ROT = 0.00 0.06 -0.25
		END_KEY

		KEY	# ----- [ 7 ] -----
			POS = 0.00 0.00 0.00
			ROT = 0.00 0.00 0.00
		END_KEY

		KEY	# ----- [ 8 ] -----
			POS = 0.00 0.00 0.00
			ROT = 0.00 -0.06 0.25
		END_KEY

		KEY	# ----- [ 9 ] -----
			POS = 0.00 0.00 0.00
			ROT = 0.00 0.00 0.00
		END_KEY

		KEY	# ----- [ 10 ] -----
			POS = 0.00 0.00 0.00
			ROT = 0.00 0.00 0.00
		END_KEY
	END_KEYSET

	KEYSET			# --- << KEY : 1 / 2 >> ---
		FRAME = 30
		KEY	# ----- [ 0 ] -----
			POS = 0.00 0.00 0.00
			ROT = 0.00 0.00 0.00
		END_KEY

		KEY	# ----- [ 1 ] -----
			POS = 0.00 0.00 0.00
			ROT = 0.00 0.00 0.00
		END_KEY

		KEY	# ----- [ 2 ] -----
			POS = 0.00 0.00 0.00
			ROT = 0.00 -2.16 0.00
		END_KEY

		KEY	# ----- [ 3 ] -----
			POS = 0.00 0.00 0.00
			ROT = 0.00 0.00 0.00
		END_KEY

		KEY	# ----- [ 4 ] -----
			POS = 0.00 0.00 0.00
			ROT = 0.00 2.46 0.00
		END_KEY

		KEY	# ----- [ 5 ] -----
			POS = 0.00 0.00 0.00
			ROT = 0.00 0.00 0.0
		END_KEY

		KEY	# ----- [ 6 ] -----
			POS = 0.00 0.00 0.00
			ROT = 0.00 0.06 -0.25
		END_KEY

		KEY	# ----- [ 7 ] -----
			POS = 0.00 0.00 0.00
			ROT = 0.00 0.00 0.00
		END_KEY

		KEY	# ----- [ 8 ] -----
			POS = 0.00 0.00 0.00
			ROT = 0.00 -0.06 0.25
		END_KEY

		KEY	# ----- [ 9 ] -----
			POS = 0.00 0.00 0.00
			ROT = 0.00 0.00 0.00
		END_KEY

		KEY	# ----- [ 10 ] -----
			POS = 0.00 0.00 0.00
			ROT = 0.00 2.19 0.00
		END_KEY
	END_KEYSET
END_MOTIONSET

#---------------------------------------
# [3] ジャンプモーション
#---------------------------------------
MOTIONSET
	LOOP = 0		# ループするかどうか[0:ループしない / 1:ループする]
	NUM_KEY = 2		# キー数

	KEYSET			# --- << KEY : 0 / 2 >> ---
		FRAME = 20
		KEY	# ----- [ 0 ] -----
			POS = 0.00 0.00 0.00
			ROT = 0.13 0.00 0.00
		END_KEY

		KEY	# ----- [ 1 ] -----
			POS = 0.00 0.00 0.00
			ROT = -0.10 0.00 0.00
		END_KEY

		KEY	# ----- [ 2 ] -----
			POS = 0.00 0.00 0.00
			ROT = 0.00 0.28 0.69
		END_KEY

		KEY	# ----- [ 3 ] -----
			POS = 0.00 0.00 0.00
			ROT = 0.00 -0.25 0.00
		END_KEY

		KEY	# ----- [ 4 ] -----
			POS = 0.00 0.00 0.00
			ROT = 0.00 -0.28 -0.69
		END_KEY

		KEY	# ----- [ 5 ] -----
			POS = 0.00 0.00 0.00
			ROT = 0.00 0.25 0.00
		END_KEY

		KEY	# ----- [ 6 ] -----
			POS = 0.00 0.00 0.00
			ROT = -0.16 0.06 -0.25
		END_KEY

		KEY	# ----- [ 7 ] -----
			POS = 0.00 0.00 0.00
			ROT = 0.00 0.00 0.00
		END_KEY

		KEY	# ----- [ 8 ] -----
			POS = 0.00 0.00 0.00
			ROT = -0.16 -0.06 0.25
		END_KEY

		KEY	# ----- [ 9 ] -----
			POS = 0.00 0.00 0.00
			ROT = 0.00 0.00 0.00
		END_KEY

		KEY	# ----- [ 10 ] -----
			POS = 0.00 0.00 0.00
			ROT = 0.00 0.00 -0.44
		END_KEY
	END_KEYSET

	KEYSET			# --- << KEY : 1 / 2 >> ---
		FRAME = 20
		KEY	# ----- [ 0 ] -----
			POS = 0.00 0.00 0.00
			ROT = 0.44 0.00 0.00
		END_KEY

		KEY	# ----- [ 1 ] -----
			POS = 0.00 0.00 0.00
			ROT = 0.00 0.00 0.00
		END_KEY

		KEY	# ----- [ 2 ] -----
			POS = 0.00 0.00 0.00
			ROT = 0.50 -1.45 -1.63
		END_KEY

		KEY	# ----- [ 3 ] -----
			POS = 0.00 0.00 0.00
			ROT = 0.00 0.00 0.00
		END_KEY

		KEY	# ----- [ 4 ] -----
			POS = 0.00 0.00 0.00
			ROT = 0.50 1.45 1.63
		END_KEY

		KEY	# ----- [ 5 ] -----
			POS = 0.00 0.00 0.00
			ROT = 0.00 0.00 0.00
		END_KEY

		KEY	# ----- [ 6 ] -----
			POS = 0.00 0.00 0.00
			ROT = -1.29 -0.31 0.00
		END_KEY

		KEY	# ----- [ 7 ] -----
			POS = 0.00 0.00 0.00
			ROT = -0.82 0.00 0.00
		END_KEY

		KEY	# ----- [ 8 ] -----
			POS = 0.00 0.00 0.00
			ROT = -1.29 0.31 0.00
		END_KEY

		KEY	# ----- [ 9 ] -----
			POS = 0.00 0.00 0.00
			ROT = -0.82 0.00 0.00
		END_KEY

		KEY	# ----- [ 10 ] -----
			POS = 0.00 0.00 0.00
			ROT = 0.00 0.00 0.63
		END_KEY
	END_KEYSET
END_MOTIONSET

#---------------------------------------
# [4] 着地モーション
#---------------------------------------
MOTIONSET
	LOOP = 0		# ループするかどうか[0:ループしない / 1:ループする]
	NUM_KEY = 2		# キー数

	KEYSET			# --- << KEY : 0 / 2 >> ---
		FRAME = 30
		KEY	# ----- [ 0 ] -----
			POS = 0.00 -4.80 2.00
			ROT = -0.78 0.00 0.00
		END_KEY

		KEY	# ----- [ 1 ] -----
			POS = 0.00 0.00 0.00
			ROT = -0.31 0.00 0.00
		END_KEY

		KEY	# ----- [ 2 ] -----
			POS = 0.00 0.00 0.00
			ROT = 1.13 -0.37 0.94
		END_KEY

		KEY	# ----- [ 3 ] -----
			POS = 0.00 0.00 0.00
			ROT = 0.00 -0.50 0.00
		END_KEY

		KEY	# ----- [ 4 ] -----
			POS = 0.00 0.00 0.00
			ROT = -0.16 0.37 -0.94
		END_KEY

		KEY	# ----- [ 5 ] -----
			POS = 0.00 0.00 0.00
			ROT = 0.00 0.50 0.00
		END_KEY

		KEY	# ----- [ 6 ] -----
			POS = 0.00 0.00 0.00
			ROT = 1.85 0.00 0.00
		END_KEY

		KEY	# ----- [ 7 ] -----
			POS = 0.00 0.00 0.00
			ROT = -1.31 0.00 0.00
		END_KEY

		KEY	# ----- [ 8 ] -----
			POS = 0.00 0.00 0.00
			ROT = 1.69 0.00 0.00
		END_KEY

		KEY	# ----- [ 9 ] -----
			POS = 0.00 0.00 0.00
			ROT = -2.03 0.00 0.00
		END_KEY

		KEY	# ----- [ 10 ] -----
			POS = 0.00 0.00 0.00
			ROT = -1.19 0.31 0.00
		END_KEY
	END_KEYSET

	KEYSET			# --- << KEY : 1 / 2 >> ---
		FRAME = 30
		KEY	# ----- [ 0 ] -----
			POS = 0.00 0.00 0.00
			ROT = 0.13 0.00 0.00
		END_KEY

		KEY	# ----- [ 1 ] -----
			POS = 0.00 0.00 0.00
			ROT = -0.10 0.00 0.00
		END_KEY

		KEY	# ----- [ 2 ] -----
			POS = 0.00 0.00 0.00
			ROT = 0.00 0.28 0.69
		END_KEY

		KEY	# ----- [ 3 ] -----
			POS = 0.00 0.00 0.00
			ROT = 0.00 -0.25 0.00
		END_KEY

		KEY	# ----- [ 4 ] -----
			POS = 0.00 0.00 0.00
			ROT = 0.00 -0.28 -0.69
		END_KEY

		KEY	# ----- [ 5 ] -----
			POS = 0.00 0.00 0.00
			ROT = 0.00 0.25 0.00
		END_KEY

		KEY	# ----- [ 6 ] -----
			POS = 0.00 0.00 0.00
			ROT = -0.16 0.06 -0.25
		END_KEY

		KEY	# ----- [ 7 ] -----
			POS = 0.00 0.00 0.00
			ROT = 0.00 0.00 0.00
		END_KEY

		KEY	# ----- [ 8 ] -----
			POS = 0.00 0.00 0.00
			ROT = -0.16 -0.06 0.25
		END_KEY

		KEY	# ----- [ 9 ] -----
			POS = 0.00 0.00 0.00
			ROT = 0.00 0.00 0.00
		END_KEY

		KEY	# ----- [ 10 ] -----
			POS = 0.00 0.00 0.00
			ROT = -0.06 -0.03 -0.31
		END_KEY
	END_KEYSET
END_MOTIONSET

END_SCRIPT		# この行は絶対消さないこと！
