xof 0302txt 0064
template Header {
 <3D82AB43-62DA-11cf-AB39-0020AF71E433>
 WORD major;
 WORD minor;
 DWORD flags;
}

template Vector {
 <3D82AB5E-62DA-11cf-AB39-0020AF71E433>
 FLOAT x;
 FLOAT y;
 FLOAT z;
}

template Coords2d {
 <F6F23F44-7686-11cf-8F52-0040333594A3>
 FLOAT u;
 FLOAT v;
}

template Matrix4x4 {
 <F6F23F45-7686-11cf-8F52-0040333594A3>
 array FLOAT matrix[16];
}

template ColorRGBA {
 <35FF44E0-6C7C-11cf-8F52-0040333594A3>
 FLOAT red;
 FLOAT green;
 FLOAT blue;
 FLOAT alpha;
}

template ColorRGB {
 <D3E16E81-7835-11cf-8F52-0040333594A3>
 FLOAT red;
 FLOAT green;
 FLOAT blue;
}

template IndexedColor {
 <1630B820-7842-11cf-8F52-0040333594A3>
 DWORD index;
 ColorRGBA indexColor;
}

template Boolean {
 <4885AE61-78E8-11cf-8F52-0040333594A3>
 WORD truefalse;
}

template Boolean2d {
 <4885AE63-78E8-11cf-8F52-0040333594A3>
 Boolean u;
 Boolean v;
}

template MaterialWrap {
 <4885AE60-78E8-11cf-8F52-0040333594A3>
 Boolean u;
 Boolean v;
}

template TextureFilename {
 <A42790E1-7810-11cf-8F52-0040333594A3>
 STRING filename;
}

template Material {
 <3D82AB4D-62DA-11cf-AB39-0020AF71E433>
 ColorRGBA faceColor;
 FLOAT power;
 ColorRGB specularColor;
 ColorRGB emissiveColor;
 [...]
}

template MeshFace {
 <3D82AB5F-62DA-11cf-AB39-0020AF71E433>
 DWORD nFaceVertexIndices;
 array DWORD faceVertexIndices[nFaceVertexIndices];
}

template MeshFaceWraps {
 <4885AE62-78E8-11cf-8F52-0040333594A3>
 DWORD nFaceWrapValues;
 Boolean2d faceWrapValues;
}

template MeshTextureCoords {
 <F6F23F40-7686-11cf-8F52-0040333594A3>
 DWORD nTextureCoords;
 array Coords2d textureCoords[nTextureCoords];
}

template MeshMaterialList {
 <F6F23F42-7686-11cf-8F52-0040333594A3>
 DWORD nMaterials;
 DWORD nFaceIndexes;
 array DWORD faceIndexes[nFaceIndexes];
 [Material]
}

template MeshNormals {
 <F6F23F43-7686-11cf-8F52-0040333594A3>
 DWORD nNormals;
 array Vector normals[nNormals];
 DWORD nFaceNormals;
 array MeshFace faceNormals[nFaceNormals];
}

template MeshVertexColors {
 <1630B821-7842-11cf-8F52-0040333594A3>
 DWORD nVertexColors;
 array IndexedColor vertexColors[nVertexColors];
}

template Mesh {
 <3D82AB44-62DA-11cf-AB39-0020AF71E433>
 DWORD nVertices;
 array Vector vertices[nVertices];
 DWORD nFaces;
 array MeshFace faces[nFaces];
 [...]
}

Header{
1;
0;
1;
}

Mesh {
 120;
 -2191.86761;2970.54204;-487.06387;,
 1084.44757;2970.54204;-487.06387;,
 1084.44757;1.12529;-487.06387;,
 -2178.08324;1.12529;-486.81348;,
 1084.44757;2970.54204;-487.06387;,
 1084.44757;2970.54204;486.56300;,
 1084.44757;1.12529;486.56300;,
 1084.44757;1.12529;-487.06387;,
 1084.44757;2970.54204;486.56300;,
 -2191.86761;2970.54204;486.56300;,
 -2178.08324;1.12529;486.81339;,
 1084.44757;1.12529;486.56300;,
 -2191.86761;2970.54204;486.56300;,
 -2191.86761;2970.54204;-487.06387;,
 -2178.08324;1.12529;-486.81348;,
 -2178.08324;1.12529;486.81339;,
 1084.44757;2970.54204;-487.06387;,
 -2191.86761;2970.54204;-487.06387;,
 -2178.08324;1.12529;-486.81348;,
 1084.44757;1.12529;-487.06387;,
 1089.34806;2970.54204;-481.58428;,
 4365.66452;2970.54204;-481.58428;,
 4365.66452;1.12529;-481.58428;,
 1089.34806;1.12529;-481.58428;,
 4365.66452;2970.54204;-481.58428;,
 4365.66452;2970.54204;492.04259;,
 4365.66452;1.12529;492.04259;,
 4365.66452;1.12529;-481.58428;,
 4365.66452;2970.54204;492.04259;,
 1089.34806;2970.54204;492.04259;,
 1089.34806;1.12529;492.04259;,
 4365.66452;1.12529;492.04259;,
 1089.34806;2970.54204;492.04259;,
 1089.34806;2970.54204;-481.58428;,
 1089.34806;1.12529;-481.58428;,
 1089.34806;1.12529;492.04259;,
 4365.66452;2970.54204;-481.58428;,
 1089.34806;2970.54204;-481.58428;,
 1089.34806;1.12529;-481.58428;,
 4365.66452;1.12529;-481.58428;,
 -8748.47357;2970.54204;-487.06387;,
 -5472.15750;2970.54204;-487.06387;,
 -5472.15750;1.12529;-487.06387;,
 -8734.68763;1.12529;-486.81348;,
 -5472.15750;2970.54204;-487.06387;,
 -5472.15750;2970.54204;486.56300;,
 -5472.15750;1.12529;486.56300;,
 -5472.15750;1.12529;-487.06387;,
 -5472.15750;2970.54204;486.56300;,
 -8748.47357;2970.54204;486.56300;,
 -8734.68763;1.12529;486.81339;,
 -5472.15750;1.12529;486.56300;,
 -8748.47357;2970.54204;486.56300;,
 -8748.47357;2970.54204;-487.06387;,
 -8734.68763;1.12529;-486.81348;,
 -8734.68763;1.12529;486.81339;,
 -5472.15750;2970.54204;-487.06387;,
 -8748.47357;2970.54204;-487.06387;,
 -8734.68763;1.12529;-486.81348;,
 -5472.15750;1.12529;-487.06387;,
 -5467.25672;2970.54204;-481.58428;,
 -2190.93988;2970.54204;-481.58428;,
 -2190.93988;1.12529;-481.58428;,
 -5467.25672;1.12529;-481.58428;,
 -2190.93988;2970.54204;-481.58428;,
 -2190.93988;2970.54204;492.04259;,
 -2190.93988;1.12529;492.04259;,
 -2190.93988;1.12529;-481.58428;,
 -2190.93988;2970.54204;492.04259;,
 -5467.25672;2970.54204;492.04259;,
 -5467.25672;1.12529;492.04259;,
 -2190.93988;1.12529;492.04259;,
 -5467.25672;2970.54204;492.04259;,
 -5467.25672;2970.54204;-481.58428;,
 -5467.25672;1.12529;-481.58428;,
 -5467.25672;1.12529;492.04259;,
 -2190.93988;2970.54204;-481.58428;,
 -5467.25672;2970.54204;-481.58428;,
 -5467.25672;1.12529;-481.58428;,
 -2190.93988;1.12529;-481.58428;,
 4350.63678;2970.54204;-487.06387;,
 7626.95168;2970.54204;-487.06387;,
 7626.95168;1.12529;-487.06387;,
 4364.42116;1.12529;-486.81348;,
 7626.95168;2970.54204;-487.06387;,
 7626.95168;2970.54204;486.56300;,
 7626.95168;1.12529;486.56300;,
 7626.95168;1.12529;-487.06387;,
 7626.95168;2970.54204;486.56300;,
 4350.63678;2970.54204;486.56300;,
 4364.42116;1.12529;486.81339;,
 7626.95168;1.12529;486.56300;,
 4350.63678;2970.54204;486.56300;,
 4350.63678;2970.54204;-487.06387;,
 4364.42116;1.12529;-486.81348;,
 4364.42116;1.12529;486.81339;,
 7626.95168;2970.54204;-487.06387;,
 4350.63678;2970.54204;-487.06387;,
 4364.42116;1.12529;-486.81348;,
 7626.95168;1.12529;-487.06387;,
 7631.85246;2970.54204;-481.58428;,
 10908.17516;2970.54204;-481.58428;,
 10908.17516;1.12529;-481.58428;,
 7631.85246;1.12529;-481.58428;,
 10908.17516;2970.54204;-481.58428;,
 10908.17516;2970.54204;492.04259;,
 10908.17516;1.12529;492.04259;,
 10908.17516;1.12529;-481.58428;,
 10908.17516;2970.54204;492.04259;,
 7631.85246;2970.54204;492.04259;,
 7631.85246;1.12529;492.04259;,
 10908.17516;1.12529;492.04259;,
 7631.85246;2970.54204;492.04259;,
 7631.85246;2970.54204;-481.58428;,
 7631.85246;1.12529;-481.58428;,
 7631.85246;1.12529;492.04259;,
 10908.17516;2970.54204;-481.58428;,
 7631.85246;2970.54204;-481.58428;,
 7631.85246;1.12529;-481.58428;,
 10908.17516;1.12529;-481.58428;;
 
 36;
 4;0,1,2,3;,
 4;4,5,6,7;,
 4;8,9,10,11;,
 4;12,13,14,15;,
 4;12,5,16,17;,
 4;18,19,6,15;,
 4;20,21,22,23;,
 4;24,25,26,27;,
 4;28,29,30,31;,
 4;32,33,34,35;,
 4;32,25,36,37;,
 4;38,39,26,35;,
 4;40,41,42,43;,
 4;44,45,46,47;,
 4;48,49,50,51;,
 4;52,53,54,55;,
 4;52,45,56,57;,
 4;58,59,46,55;,
 4;60,61,62,63;,
 4;64,65,66,67;,
 4;68,69,70,71;,
 4;72,73,74,75;,
 4;72,65,76,77;,
 4;78,79,66,75;,
 4;80,81,82,83;,
 4;84,85,86,87;,
 4;88,89,90,91;,
 4;92,93,94,95;,
 4;92,85,96,97;,
 4;98,99,86,95;,
 4;100,101,102,103;,
 4;104,105,106,107;,
 4;108,109,110,111;,
 4;112,113,114,115;,
 4;112,105,116,117;,
 4;118,119,106,115;;
 
 MeshMaterialList {
  4;
  36;
  0,
  1,
  0,
  1,
  1,
  1,
  3,
  2,
  3,
  2,
  2,
  2,
  0,
  1,
  0,
  1,
  1,
  1,
  3,
  2,
  3,
  2,
  2,
  2,
  0,
  1,
  0,
  1,
  1,
  1,
  3,
  2,
  3,
  2,
  2,
  2;;
  Material {
   0.800000;0.800000;0.800000;1.000000;;
   5.000000;
   0.000000;0.000000;0.000000;;
   0.000000;0.000000;0.000000;;
   TextureFilename {
    "data/TEXTURE/bill002.png";
   }
  }
  Material {
   0.649412;0.555294;0.341961;1.000000;;
   5.000000;
   0.000000;0.000000;0.000000;;
   0.000000;0.000000;0.000000;;
  }
  Material {
   0.800000;0.800000;0.800000;1.000000;;
   5.000000;
   0.000000;0.000000;0.000000;;
   0.000000;0.000000;0.000000;;
  }
  Material {
   0.800000;0.800000;0.800000;1.000000;;
   5.000000;
   0.000000;0.000000;0.000000;;
   0.000000;0.000000;0.000000;;
   TextureFilename {
    "data/TEXTURE/bill001.jpg";
   }
  }
 }
 MeshNormals {
  30;
  -0.000038;-0.000042;-1.000000;,
  1.000000;0.000000;0.000000;,
  0.000038;0.000042;1.000000;,
  -0.999989;-0.004642;0.000000;,
  0.000000;1.000000;0.000000;,
  0.000000;-1.000000;-0.000000;,
  0.000000;0.000000;-1.000000;,
  1.000000;0.000000;0.000000;,
  0.000000;0.000000;1.000000;,
  -1.000000;0.000000;0.000000;,
  0.000000;1.000000;0.000000;,
  0.000000;-1.000000;-0.000000;,
  -0.000038;-0.000042;-1.000000;,
  1.000000;0.000000;0.000000;,
  0.000038;0.000042;1.000000;,
  0.000000;0.000000;-1.000000;,
  0.000000;0.000000;1.000000;,
  -0.999989;-0.004643;0.000000;,
  0.000000;1.000000;0.000000;,
  0.000000;-1.000000;-0.000000;,
  -1.000000;0.000000;0.000000;,
  -0.000038;-0.000042;-1.000000;,
  1.000000;0.000000;0.000000;,
  0.000038;0.000042;1.000000;,
  0.000000;0.000000;-1.000000;,
  0.000000;0.000000;1.000000;,
  -0.999989;-0.004642;0.000000;,
  0.000000;1.000000;0.000000;,
  0.000000;-1.000000;-0.000000;,
  -1.000000;0.000000;0.000000;;
  36;
  4;0,0,0,0;,
  4;1,1,1,1;,
  4;2,2,2,2;,
  4;3,3,3,3;,
  4;4,4,4,4;,
  4;5,5,5,5;,
  4;6,6,6,6;,
  4;7,7,7,7;,
  4;8,8,8,8;,
  4;9,9,9,9;,
  4;10,10,10,10;,
  4;11,11,11,11;,
  4;12,12,12,12;,
  4;13,13,13,13;,
  4;14,14,14,14;,
  4;17,17,17,17;,
  4;18,18,18,18;,
  4;19,19,19,19;,
  4;15,15,15,15;,
  4;13,13,13,13;,
  4;16,16,16,16;,
  4;20,20,20,20;,
  4;18,18,18,18;,
  4;19,19,19,19;,
  4;21,21,21,21;,
  4;22,22,22,22;,
  4;23,23,23,23;,
  4;26,26,26,26;,
  4;27,27,27,27;,
  4;28,28,28,28;,
  4;24,24,24,24;,
  4;22,22,22,22;,
  4;25,25,25,25;,
  4;29,29,29,29;,
  4;27,27,27,27;,
  4;28,28,28,28;;
 }
 MeshTextureCoords {
  120;
  0.000000;0.000000;,
  1.000000;0.000000;,
  1.000000;1.000000;,
  0.000000;1.000000;,
  0.000000;0.000000;,
  1.000000;0.000000;,
  1.000000;1.000000;,
  0.000000;1.000000;,
  0.000000;0.000000;,
  1.000000;0.000000;,
  1.000000;1.000000;,
  0.000000;1.000000;,
  0.000000;0.000000;,
  1.000000;0.000000;,
  1.000000;1.000000;,
  0.000000;1.000000;,
  1.000000;1.000000;,
  0.000000;1.000000;,
  0.000000;0.000000;,
  1.000000;0.000000;,
  0.000000;0.000000;,
  1.000000;0.000000;,
  1.000000;1.000000;,
  0.000000;1.000000;,
  0.000000;0.000000;,
  1.000000;0.000000;,
  1.000000;1.000000;,
  0.000000;1.000000;,
  0.000000;0.000000;,
  1.000000;0.000000;,
  1.000000;1.000000;,
  0.000000;1.000000;,
  0.000000;0.000000;,
  1.000000;0.000000;,
  1.000000;1.000000;,
  0.000000;1.000000;,
  1.000000;1.000000;,
  0.000000;1.000000;,
  0.000000;0.000000;,
  1.000000;0.000000;,
  0.000000;0.000000;,
  1.000000;0.000000;,
  1.000000;1.000000;,
  0.000000;1.000000;,
  0.000000;0.000000;,
  1.000000;0.000000;,
  1.000000;1.000000;,
  0.000000;1.000000;,
  0.000000;0.000000;,
  1.000000;0.000000;,
  1.000000;1.000000;,
  0.000000;1.000000;,
  0.000000;0.000000;,
  1.000000;0.000000;,
  1.000000;1.000000;,
  0.000000;1.000000;,
  1.000000;1.000000;,
  0.000000;1.000000;,
  0.000000;0.000000;,
  1.000000;0.000000;,
  0.000000;0.000000;,
  1.000000;0.000000;,
  1.000000;1.000000;,
  0.000000;1.000000;,
  0.000000;0.000000;,
  1.000000;0.000000;,
  1.000000;1.000000;,
  0.000000;1.000000;,
  0.000000;0.000000;,
  1.000000;0.000000;,
  1.000000;1.000000;,
  0.000000;1.000000;,
  0.000000;0.000000;,
  1.000000;0.000000;,
  1.000000;1.000000;,
  0.000000;1.000000;,
  1.000000;1.000000;,
  0.000000;1.000000;,
  0.000000;0.000000;,
  1.000000;0.000000;,
  0.000000;0.000000;,
  1.000000;0.000000;,
  1.000000;1.000000;,
  0.000000;1.000000;,
  0.000000;0.000000;,
  1.000000;0.000000;,
  1.000000;1.000000;,
  0.000000;1.000000;,
  0.000000;0.000000;,
  1.000000;0.000000;,
  1.000000;1.000000;,
  0.000000;1.000000;,
  0.000000;0.000000;,
  1.000000;0.000000;,
  1.000000;1.000000;,
  0.000000;1.000000;,
  1.000000;1.000000;,
  0.000000;1.000000;,
  0.000000;0.000000;,
  1.000000;0.000000;,
  0.000000;0.000000;,
  1.000000;0.000000;,
  1.000000;1.000000;,
  0.000000;1.000000;,
  0.000000;0.000000;,
  1.000000;0.000000;,
  1.000000;1.000000;,
  0.000000;1.000000;,
  0.000000;0.000000;,
  1.000000;0.000000;,
  1.000000;1.000000;,
  0.000000;1.000000;,
  0.000000;0.000000;,
  1.000000;0.000000;,
  1.000000;1.000000;,
  0.000000;1.000000;,
  1.000000;1.000000;,
  0.000000;1.000000;,
  0.000000;0.000000;,
  1.000000;0.000000;;
 }
}
