xof 0302txt 0064
template Header {
 <3D82AB43-62DA-11cf-AB39-0020AF71E433>
 WORD major;
 WORD minor;
 DWORD flags;
}

template Vector {
 <3D82AB5E-62DA-11cf-AB39-0020AF71E433>
 FLOAT x;
 FLOAT y;
 FLOAT z;
}

template Coords2d {
 <F6F23F44-7686-11cf-8F52-0040333594A3>
 FLOAT u;
 FLOAT v;
}

template Matrix4x4 {
 <F6F23F45-7686-11cf-8F52-0040333594A3>
 array FLOAT matrix[16];
}

template ColorRGBA {
 <35FF44E0-6C7C-11cf-8F52-0040333594A3>
 FLOAT red;
 FLOAT green;
 FLOAT blue;
 FLOAT alpha;
}

template ColorRGB {
 <D3E16E81-7835-11cf-8F52-0040333594A3>
 FLOAT red;
 FLOAT green;
 FLOAT blue;
}

template IndexedColor {
 <1630B820-7842-11cf-8F52-0040333594A3>
 DWORD index;
 ColorRGBA indexColor;
}

template Boolean {
 <4885AE61-78E8-11cf-8F52-0040333594A3>
 WORD truefalse;
}

template Boolean2d {
 <4885AE63-78E8-11cf-8F52-0040333594A3>
 Boolean u;
 Boolean v;
}

template MaterialWrap {
 <4885AE60-78E8-11cf-8F52-0040333594A3>
 Boolean u;
 Boolean v;
}

template TextureFilename {
 <A42790E1-7810-11cf-8F52-0040333594A3>
 STRING filename;
}

template Material {
 <3D82AB4D-62DA-11cf-AB39-0020AF71E433>
 ColorRGBA faceColor;
 FLOAT power;
 ColorRGB specularColor;
 ColorRGB emissiveColor;
 [...]
}

template MeshFace {
 <3D82AB5F-62DA-11cf-AB39-0020AF71E433>
 DWORD nFaceVertexIndices;
 array DWORD faceVertexIndices[nFaceVertexIndices];
}

template MeshFaceWraps {
 <4885AE62-78E8-11cf-8F52-0040333594A3>
 DWORD nFaceWrapValues;
 Boolean2d faceWrapValues;
}

template MeshTextureCoords {
 <F6F23F40-7686-11cf-8F52-0040333594A3>
 DWORD nTextureCoords;
 array Coords2d textureCoords[nTextureCoords];
}

template MeshMaterialList {
 <F6F23F42-7686-11cf-8F52-0040333594A3>
 DWORD nMaterials;
 DWORD nFaceIndexes;
 array DWORD faceIndexes[nFaceIndexes];
 [Material]
}

template MeshNormals {
 <F6F23F43-7686-11cf-8F52-0040333594A3>
 DWORD nNormals;
 array Vector normals[nNormals];
 DWORD nFaceNormals;
 array MeshFace faceNormals[nFaceNormals];
}

template MeshVertexColors {
 <1630B821-7842-11cf-8F52-0040333594A3>
 DWORD nVertexColors;
 array IndexedColor vertexColors[nVertexColors];
}

template Mesh {
 <3D82AB44-62DA-11cf-AB39-0020AF71E433>
 DWORD nVertices;
 array Vector vertices[nVertices];
 DWORD nFaces;
 array MeshFace faces[nFaces];
 [...]
}

Header{
1;
0;
1;
}

Mesh {
 736;
 0.00000;14.22940;-12.81213;,
 8.85029;15.14727;-9.26299;,
 8.85029;10.29884;-8.00910;,
 0.00000;9.38097;-11.55824;,
 12.51620;17.36320;-0.69460;,
 12.51620;12.51477;0.55929;,
 8.85029;19.57914;7.87378;,
 8.85029;14.73071;9.12767;,
 0.00000;20.49701;11.42292;,
 0.00000;15.64858;12.67681;,
 -8.85029;19.57914;7.87378;,
 -8.85029;14.73071;9.12767;,
 -12.51620;17.36320;-0.69460;,
 -12.51620;12.51477;0.55929;,
 -8.85029;15.14727;-9.26299;,
 -8.85029;10.29884;-8.00910;,
 0.00000;14.22940;-12.81213;,
 0.00000;9.38097;-11.55824;,
 0.00000;17.03534;-10.09912;,
 6.49623;17.70907;-7.49400;,
 0.00000;19.33560;-1.20470;,
 9.18705;19.33560;-1.20470;,
 0.00000;19.33560;-1.20470;,
 6.49623;20.96212;5.08461;,
 0.00000;19.33560;-1.20470;,
 0.00000;21.63585;7.68972;,
 0.00000;19.33560;-1.20470;,
 -6.49623;20.96212;5.08460;,
 0.00000;19.33560;-1.20470;,
 -9.18705;19.33560;-1.20470;,
 0.00000;19.33560;-1.20470;,
 -6.49623;17.70907;-7.49400;,
 0.00000;19.33560;-1.20470;,
 0.00000;17.03534;-10.09912;,
 0.00000;19.33560;-1.20470;,
 7.81278;9.85576;-6.82287;,
 0.00000;9.04549;-9.95595;,
 11.04894;11.81192;0.74106;,
 7.81278;13.76809;8.30498;,
 0.00000;14.57836;11.43806;,
 -7.81279;13.76809;8.30498;,
 -11.04894;11.81192;0.74106;,
 -7.81278;9.85576;-6.82287;,
 0.00000;9.04549;-9.95595;,
 8.80626;8.99983;-7.62767;,
 0.00000;8.08653;-11.15915;,
 12.45392;11.20475;0.89808;,
 8.80626;13.40966;9.42384;,
 0.00000;14.32296;12.95531;,
 -8.80626;13.40966;9.42384;,
 -12.45392;11.20475;0.89808;,
 -8.80626;8.99983;-7.62767;,
 0.00000;8.08653;-11.15915;,
 8.80626;6.43347;-6.96396;,
 0.00000;5.52017;-10.49544;,
 0.00000;8.63838;1.56179;,
 12.45392;8.63838;1.56179;,
 0.00000;8.63838;1.56179;,
 8.80626;10.84329;10.08755;,
 0.00000;8.63838;1.56179;,
 0.00000;11.75659;13.61902;,
 0.00000;8.63838;1.56179;,
 -8.80626;10.84329;10.08754;,
 0.00000;8.63838;1.56179;,
 -12.45392;8.63838;1.56179;,
 0.00000;8.63838;1.56179;,
 -8.80626;6.43347;-6.96396;,
 0.00000;8.63838;1.56179;,
 0.00000;5.52017;-10.49544;,
 0.00000;8.63838;1.56179;,
 -30.19104;19.29112;24.72462;,
 -29.38532;19.29112;23.03539;,
 -30.44538;19.29112;21.49298;,
 -32.31115;19.29112;21.63983;,
 -33.11689;19.29112;23.32906;,
 -32.05682;19.29112;24.87146;,
 -32.31115;19.29112;-21.63983;,
 -30.44538;19.29112;-21.49298;,
 -29.38532;19.29112;-23.03539;,
 -33.11689;19.29112;-23.32906;,
 -30.19104;19.29112;-24.72462;,
 -32.05682;19.29112;-24.87146;,
 32.05682;19.29112;-24.87146;,
 30.19104;19.29112;-24.72462;,
 29.38532;19.29112;-23.03539;,
 30.44538;19.29112;-21.49298;,
 33.11689;19.29112;-23.32906;,
 32.31115;19.29112;-21.63983;,
 33.11689;19.29112;23.32906;,
 32.31115;19.29112;21.63983;,
 30.44538;19.29112;21.49298;,
 29.38532;19.29112;23.03539;,
 32.05682;19.29112;24.87146;,
 30.19104;19.29112;24.72462;,
 -4.82786;20.71117;-1.35814;,
 4.82786;20.71117;-1.35814;,
 3.09724;18.79890;-8.75232;,
 -3.09724;18.79890;-8.75232;,
 -4.11567;16.65230;-8.19717;,
 4.11567;16.65230;-8.19717;,
 5.95291;18.56456;-0.80299;,
 -5.95291;18.56456;-0.80299;,
 2.25085;17.34630;-10.56817;,
 -2.25085;17.34630;-10.56817;,
 -3.09724;18.79890;-8.75232;,
 3.09724;18.79890;-8.75232;,
 -2.78925;15.19970;-10.01302;,
 2.78925;15.19970;-10.01302;,
 4.11567;16.65230;-8.19717;,
 -4.11567;16.65230;-8.19717;,
 2.03716;15.93040;-11.71509;,
 -2.03716;15.93040;-11.71509;,
 -2.34248;13.78380;-11.15994;,
 2.34248;13.78380;-11.15994;,
 6.38527;16.32180;-8.57142;,
 8.26169;18.48261;-1.11990;,
 4.11567;16.65230;-8.19717;,
 5.55303;18.68746;-9.18322;,
 7.18487;20.62921;-1.67505;,
 -8.26169;18.48261;-1.11990;,
 -6.38527;16.32180;-8.57142;,
 -4.11567;16.65230;-8.19717;,
 -7.18487;20.62921;-1.67505;,
 -5.55303;18.68746;-9.18322;,
 4.71954;15.05273;-10.58130;,
 6.38527;16.32180;-8.57142;,
 4.71954;17.19934;-11.13644;,
 5.55303;18.68746;-9.18322;,
 -6.38527;16.32180;-8.57142;,
 -4.71954;15.05273;-10.58130;,
 -4.71954;17.19934;-11.13644;,
 -5.55303;18.68746;-9.18322;,
 5.51296;19.25763;-9.45222;,
 7.18487;21.25243;-1.83623;,
 5.17702;21.33439;-1.51932;,
 3.53918;19.36907;-9.02132;,
 3.09724;18.79890;-8.75232;,
 -7.18487;21.25243;-1.83623;,
 -5.51296;19.25763;-9.45222;,
 -3.53918;19.36907;-9.02132;,
 -5.17702;21.33439;-1.51932;,
 -3.09724;18.79890;-8.75232;,
 4.59853;17.63395;-11.58465;,
 5.51296;19.25763;-9.45222;,
 3.53918;19.36907;-9.02132;,
 2.66824;17.78092;-11.01637;,
 -5.51296;19.25763;-9.45222;,
 -4.59853;17.63395;-11.58465;,
 -2.66824;17.78092;-11.01637;,
 -3.53918;19.36907;-9.02132;,
 -5.28343;21.29010;6.36048;,
 5.28343;21.29010;6.36048;,
 4.82786;20.71117;-1.35814;,
 -4.82786;20.71117;-1.35814;,
 6.34590;19.19498;6.91193;,
 -6.34590;19.19498;6.91193;,
 -5.95291;18.56456;-0.80299;,
 5.95291;18.56456;-0.80299;,
 7.86823;21.18854;6.03054;,
 9.04767;19.12531;6.56529;,
 6.34590;19.19498;6.91193;,
 5.28343;21.29010;6.36048;,
 -9.04767;19.12531;6.56529;,
 -7.86823;21.18854;6.03054;,
 -6.34590;19.19498;6.91193;,
 -5.28343;21.29010;6.36048;,
 5.86019;21.81037;6.20668;,
 7.86805;21.72840;5.88977;,
 -7.86805;21.72840;5.88977;,
 -5.86019;21.81037;6.20668;,
 4.32615;12.84056;-13.63778;,
 6.22621;14.84378;-10.19260;,
 6.22621;6.99298;-8.16225;,
 4.32615;5.71187;-11.79418;,
 6.22621;14.84378;-10.19260;,
 -6.22621;14.84378;-10.19260;,
 -6.22621;6.99298;-8.16225;,
 6.22621;6.99298;-8.16225;,
 -6.22621;14.84378;-10.19260;,
 -4.32615;12.84056;-13.63778;,
 -4.32615;5.71187;-11.79418;,
 -6.22621;6.99298;-8.16225;,
 4.32615;12.84056;-13.63778;,
 -4.32615;12.84056;-13.63778;,
 -4.32615;5.71187;-11.79418;,
 4.32615;5.71187;-11.79418;,
 2.64034;11.31359;-15.15782;,
 -2.64034;11.31359;-15.15782;,
 -4.32615;12.84056;-13.63778;,
 4.32615;12.84056;-13.63778;,
 2.64034;4.55382;-13.40963;,
 4.32615;5.71187;-11.79418;,
 -2.64034;4.55382;-13.40963;,
 -4.32615;5.71187;-11.79418;,
 -9.40060;16.13694;-5.63046;,
 -9.40060;12.35630;-5.63046;,
 -7.03460;12.35630;-9.07301;,
 -7.03460;16.13694;-9.07301;,
 -12.44614;15.71239;-12.22308;,
 -14.28076;15.71239;-9.55369;,
 -7.03460;16.13694;-9.07301;,
 -23.47197;15.71239;-19.80091;,
 -25.30658;15.71239;-17.13153;,
 -12.44614;15.71239;-12.22308;,
 -12.44614;12.78084;-12.22308;,
 -23.47197;12.78084;-19.80091;,
 -23.47197;15.71239;-19.80091;,
 -7.03460;16.13694;-9.07301;,
 -7.03460;12.35630;-9.07301;,
 -14.28076;15.71239;-9.55369;,
 -14.28076;12.78084;-9.55369;,
 -9.40060;12.35630;-5.63046;,
 -9.40060;16.13694;-5.63046;,
 -25.30658;15.71239;-17.13153;,
 -25.30658;12.78084;-17.13153;,
 -12.44614;12.78084;-12.22308;,
 -14.28076;12.78084;-9.55369;,
 -25.30658;12.78084;-17.13153;,
 -23.47197;12.78084;-19.80091;,
 -7.03460;12.35630;-9.07301;,
 -27.60192;16.09038;-17.99695;,
 -23.47197;15.71239;-19.80091;,
 -25.10248;16.09038;-21.63365;,
 -27.60192;12.40285;-17.99695;,
 -25.10248;12.40285;-21.63365;,
 -23.47197;12.78084;-19.80091;,
 -31.71787;16.09038;-20.82578;,
 -29.21846;16.09038;-24.46247;,
 -31.71787;12.40285;-20.82578;,
 -29.21846;12.40285;-24.46247;,
 -29.35107;18.21673;-25.94678;,
 -29.35107;10.94156;-25.94678;,
 -32.69526;10.94156;-26.20997;,
 -32.69526;18.21673;-26.20997;,
 -34.59529;10.94156;-23.44541;,
 -34.59529;18.21673;-23.44541;,
 -33.15112;10.94156;-20.41766;,
 -33.15112;18.21673;-20.41766;,
 -29.80692;10.94156;-20.15447;,
 -29.80692;18.21673;-20.15447;,
 -27.90690;10.94156;-22.91902;,
 -27.90690;18.21673;-22.91902;,
 -29.35107;10.94156;-25.94678;,
 -29.35107;18.21673;-25.94678;,
 -32.05282;10.72031;-24.86306;,
 -30.19631;10.72031;-24.71694;,
 -33.10760;10.72031;-23.32833;,
 -32.30588;10.72031;-21.64750;,
 -30.44939;10.72031;-21.50139;,
 -29.39459;10.72031;-23.03611;,
 -30.19631;10.72031;-24.71694;,
 -31.97309;6.04840;-24.69591;,
 -30.30120;6.04840;-24.56433;,
 -31.25110;6.04840;-23.18222;,
 -32.92299;6.04840;-23.31380;,
 -31.25110;6.04840;-23.18222;,
 -32.20099;6.04840;-21.80011;,
 -31.25110;6.04840;-23.18222;,
 -30.52910;6.04840;-21.66854;,
 -31.25110;6.04840;-23.18222;,
 -29.57920;6.04840;-23.05063;,
 -31.25110;6.04840;-23.18222;,
 -30.30120;6.04840;-24.56433;,
 -31.25110;6.04840;-23.18222;,
 -30.19104;19.29112;-24.72462;,
 -32.05682;19.29112;-24.87146;,
 -33.11689;19.29112;-23.32906;,
 -32.31115;19.29112;-21.63983;,
 -30.44538;19.29112;-21.49298;,
 -29.38532;19.29112;-23.03539;,
 -30.19104;19.29112;-24.72462;,
 9.40060;16.13694;5.63046;,
 9.40060;12.35630;5.63046;,
 7.03460;12.35630;9.07301;,
 7.03460;16.13694;9.07301;,
 12.44614;15.71239;12.22308;,
 14.28076;15.71239;9.55369;,
 7.03460;16.13694;9.07301;,
 23.47197;15.71239;19.80091;,
 25.30658;15.71239;17.13153;,
 12.44614;15.71239;12.22308;,
 12.44614;12.78084;12.22308;,
 23.47197;12.78084;19.80091;,
 23.47197;15.71239;19.80091;,
 7.03460;16.13694;9.07301;,
 7.03460;12.35630;9.07301;,
 14.28076;15.71239;9.55369;,
 14.28076;12.78084;9.55369;,
 9.40060;12.35630;5.63046;,
 9.40060;16.13694;5.63046;,
 25.30658;15.71239;17.13153;,
 25.30658;12.78084;17.13153;,
 12.44614;12.78084;12.22308;,
 14.28076;12.78084;9.55369;,
 25.30658;12.78084;17.13153;,
 23.47197;12.78084;19.80091;,
 7.03460;12.35630;9.07301;,
 27.60192;16.09038;17.99695;,
 23.47197;15.71239;19.80091;,
 25.10248;16.09038;21.63365;,
 27.60192;12.40285;17.99695;,
 25.10248;12.40285;21.63365;,
 23.47197;12.78084;19.80091;,
 31.71787;16.09038;20.82578;,
 29.21846;16.09038;24.46247;,
 31.71787;12.40285;20.82578;,
 29.21846;12.40285;24.46247;,
 29.35107;18.21673;25.94678;,
 29.35107;10.94156;25.94678;,
 32.69526;10.94156;26.20997;,
 32.69526;18.21673;26.20997;,
 34.59529;10.94156;23.44541;,
 34.59529;18.21673;23.44541;,
 33.15112;10.94156;20.41766;,
 33.15112;18.21673;20.41766;,
 29.80692;10.94156;20.15447;,
 29.80692;18.21673;20.15447;,
 27.90690;10.94156;22.91902;,
 27.90690;18.21673;22.91902;,
 29.35107;10.94156;25.94678;,
 29.35107;18.21673;25.94678;,
 32.05282;10.72031;24.86306;,
 30.19631;10.72031;24.71694;,
 33.10760;10.72031;23.32833;,
 32.30588;10.72031;21.64750;,
 30.44939;10.72031;21.50139;,
 29.39459;10.72031;23.03611;,
 30.19631;10.72031;24.71694;,
 31.97309;6.04840;24.69591;,
 30.30120;6.04840;24.56433;,
 31.25110;6.04840;23.18222;,
 32.92299;6.04840;23.31380;,
 31.25110;6.04840;23.18222;,
 32.20099;6.04840;21.80011;,
 31.25110;6.04840;23.18222;,
 30.52910;6.04840;21.66854;,
 31.25110;6.04840;23.18222;,
 29.57920;6.04840;23.05063;,
 31.25110;6.04840;23.18222;,
 30.30120;6.04840;24.56433;,
 31.25110;6.04840;23.18222;,
 30.19104;19.29112;24.72462;,
 32.05682;19.29112;24.87146;,
 33.11689;19.29112;23.32906;,
 32.31115;19.29112;21.63983;,
 30.44538;19.29112;21.49298;,
 29.38532;19.29112;23.03539;,
 30.19104;19.29112;24.72462;,
 -9.40060;16.13694;5.63046;,
 -7.03460;16.13694;9.07301;,
 -7.03460;12.35630;9.07301;,
 -9.40060;12.35630;5.63046;,
 -12.44614;15.71239;12.22308;,
 -7.03460;16.13694;9.07301;,
 -14.28076;15.71239;9.55369;,
 -25.30658;15.71239;17.13153;,
 -23.47197;15.71239;19.80091;,
 -12.44614;15.71239;12.22308;,
 -23.47197;15.71239;19.80091;,
 -23.47197;12.78084;19.80091;,
 -12.44614;12.78084;12.22308;,
 -7.03460;12.35630;9.07301;,
 -7.03460;16.13694;9.07301;,
 -14.28076;15.71239;9.55369;,
 -9.40060;16.13694;5.63046;,
 -9.40060;12.35630;5.63046;,
 -14.28076;12.78084;9.55369;,
 -25.30658;12.78084;17.13153;,
 -25.30658;15.71239;17.13153;,
 -12.44614;12.78084;12.22308;,
 -23.47197;12.78084;19.80091;,
 -25.30658;12.78084;17.13153;,
 -14.28076;12.78084;9.55369;,
 -7.03460;12.35630;9.07301;,
 -27.60192;16.09038;17.99695;,
 -25.10248;16.09038;21.63365;,
 -23.47197;15.71239;19.80091;,
 -27.60192;12.40285;17.99695;,
 -25.10248;12.40285;21.63365;,
 -23.47197;12.78084;19.80091;,
 -31.71787;16.09038;20.82578;,
 -29.21846;16.09038;24.46247;,
 -31.71787;12.40285;20.82578;,
 -29.21846;12.40285;24.46247;,
 -29.35107;18.21673;25.94678;,
 -32.69526;18.21673;26.20997;,
 -32.69526;10.94156;26.20997;,
 -29.35107;10.94156;25.94678;,
 -34.59529;18.21673;23.44541;,
 -34.59529;10.94156;23.44541;,
 -33.15112;18.21673;20.41766;,
 -33.15112;10.94156;20.41766;,
 -29.80692;18.21673;20.15447;,
 -29.80692;10.94156;20.15447;,
 -27.90690;18.21673;22.91902;,
 -27.90690;10.94156;22.91902;,
 -29.35107;18.21673;25.94678;,
 -29.35107;10.94156;25.94678;,
 -32.05282;10.72031;24.86306;,
 -30.19631;10.72031;24.71694;,
 -33.10760;10.72031;23.32833;,
 -32.30588;10.72031;21.64750;,
 -30.44939;10.72031;21.50139;,
 -29.39459;10.72031;23.03611;,
 -30.19631;10.72031;24.71694;,
 -31.97309;6.04840;24.69591;,
 -30.30120;6.04840;24.56433;,
 -31.25110;6.04840;23.18222;,
 -32.92299;6.04840;23.31380;,
 -31.25110;6.04840;23.18222;,
 -32.20099;6.04840;21.80011;,
 -31.25110;6.04840;23.18222;,
 -30.52910;6.04840;21.66854;,
 -31.25110;6.04840;23.18222;,
 -29.57920;6.04840;23.05063;,
 -31.25110;6.04840;23.18222;,
 -30.30120;6.04840;24.56433;,
 -31.25110;6.04840;23.18222;,
 -30.19104;19.29112;24.72462;,
 -32.05682;19.29112;24.87146;,
 -33.11689;19.29112;23.32906;,
 -32.31115;19.29112;21.63983;,
 -30.44538;19.29112;21.49298;,
 -29.38532;19.29112;23.03539;,
 -30.19104;19.29112;24.72462;,
 9.40060;16.13694;-5.63046;,
 7.03460;16.13694;-9.07301;,
 7.03460;12.35630;-9.07301;,
 9.40060;12.35630;-5.63046;,
 12.44614;15.71239;-12.22308;,
 7.03460;16.13694;-9.07301;,
 14.28076;15.71239;-9.55369;,
 25.30658;15.71239;-17.13153;,
 23.47197;15.71239;-19.80091;,
 12.44614;15.71239;-12.22308;,
 23.47197;15.71239;-19.80091;,
 23.47197;12.78084;-19.80091;,
 12.44614;12.78084;-12.22308;,
 7.03460;12.35630;-9.07301;,
 7.03460;16.13694;-9.07301;,
 14.28076;15.71239;-9.55369;,
 9.40060;16.13694;-5.63046;,
 9.40060;12.35630;-5.63046;,
 14.28076;12.78084;-9.55369;,
 25.30658;12.78084;-17.13153;,
 25.30658;15.71239;-17.13153;,
 12.44614;12.78084;-12.22308;,
 23.47197;12.78084;-19.80091;,
 25.30658;12.78084;-17.13153;,
 14.28076;12.78084;-9.55369;,
 7.03460;12.35630;-9.07301;,
 27.60192;16.09038;-17.99695;,
 25.10248;16.09038;-21.63365;,
 23.47197;15.71239;-19.80091;,
 27.60192;12.40285;-17.99695;,
 25.10248;12.40285;-21.63365;,
 23.47197;12.78084;-19.80091;,
 31.71787;16.09038;-20.82578;,
 29.21846;16.09038;-24.46247;,
 31.71787;12.40285;-20.82578;,
 29.21846;12.40285;-24.46247;,
 29.35107;18.21673;-25.94678;,
 32.69526;18.21673;-26.20997;,
 32.69526;10.94156;-26.20997;,
 29.35107;10.94156;-25.94678;,
 34.59529;18.21673;-23.44541;,
 34.59529;10.94156;-23.44541;,
 33.15112;18.21673;-20.41766;,
 33.15112;10.94156;-20.41766;,
 29.80692;18.21673;-20.15447;,
 29.80692;10.94156;-20.15447;,
 27.90690;18.21673;-22.91902;,
 27.90690;10.94156;-22.91902;,
 29.35107;18.21673;-25.94678;,
 29.35107;10.94156;-25.94678;,
 32.05282;10.72031;-24.86306;,
 30.19631;10.72031;-24.71694;,
 33.10760;10.72031;-23.32833;,
 32.30588;10.72031;-21.64750;,
 30.44939;10.72031;-21.50139;,
 29.39459;10.72031;-23.03611;,
 30.19631;10.72031;-24.71694;,
 31.97309;6.04840;-24.69591;,
 30.30120;6.04840;-24.56433;,
 31.25110;6.04840;-23.18222;,
 32.92299;6.04840;-23.31380;,
 31.25110;6.04840;-23.18222;,
 32.20099;6.04840;-21.80011;,
 31.25110;6.04840;-23.18222;,
 30.52910;6.04840;-21.66854;,
 31.25110;6.04840;-23.18222;,
 29.57920;6.04840;-23.05063;,
 31.25110;6.04840;-23.18222;,
 30.30120;6.04840;-24.56433;,
 31.25110;6.04840;-23.18222;,
 30.19104;19.29112;-24.72462;,
 32.05682;19.29112;-24.87146;,
 33.11689;19.29112;-23.32906;,
 32.31115;19.29112;-21.63983;,
 30.44538;19.29112;-21.49298;,
 29.38532;19.29112;-23.03539;,
 30.19104;19.29112;-24.72462;,
 6.45748;10.22984;-0.66607;,
 8.27363;10.22984;-0.66607;,
 10.90887;-1.95377;-0.66607;,
 9.09271;-1.95377;-0.66607;,
 8.27363;10.22984;-0.66607;,
 8.27363;10.22984;1.15008;,
 10.90887;-1.95377;1.15008;,
 10.90887;-1.95377;-0.66607;,
 8.27363;10.22984;1.15008;,
 6.45748;10.22984;1.15008;,
 9.09271;-1.95377;1.15008;,
 10.90887;-1.95377;1.15008;,
 6.45748;10.22984;1.15008;,
 6.45748;10.22984;-0.66607;,
 9.09271;-1.95377;-0.66607;,
 9.09271;-1.95377;1.15008;,
 8.27363;10.22984;-0.66607;,
 6.45748;10.22984;-0.66607;,
 9.09271;-1.95377;-0.66607;,
 10.90887;-1.95377;-0.66607;,
 -6.45748;10.22984;-0.66607;,
 -9.09271;-1.95377;-0.66607;,
 -10.90887;-1.95377;-0.66607;,
 -8.27363;10.22984;-0.66607;,
 -8.27363;10.22984;-0.66607;,
 -10.90887;-1.95377;-0.66607;,
 -10.90887;-1.95377;1.15008;,
 -8.27363;10.22984;1.15008;,
 -8.27363;10.22984;1.15008;,
 -10.90887;-1.95377;1.15008;,
 -9.09271;-1.95377;1.15008;,
 -6.45748;10.22984;1.15008;,
 -6.45748;10.22984;1.15008;,
 -9.09271;-1.95377;1.15008;,
 -9.09271;-1.95377;-0.66607;,
 -6.45748;10.22984;-0.66607;,
 -6.45748;10.22984;-0.66607;,
 -8.27363;10.22984;-0.66607;,
 -9.09271;-1.95377;-0.66607;,
 -10.90887;-1.95377;-0.66607;,
 -9.32556;-1.01487;-0.21508;,
 -9.32556;-0.56727;0.04334;,
 9.32556;-0.56727;0.04334;,
 9.32556;-1.01487;-0.21508;,
 -9.32556;-0.56727;0.56018;,
 9.32556;-0.56727;0.56018;,
 -9.32556;-1.01487;0.81861;,
 9.32556;-1.01487;0.81861;,
 -9.32556;-1.46247;0.56018;,
 9.32556;-1.46247;0.56018;,
 -9.32556;-1.46247;0.04334;,
 9.32556;-1.46247;0.04334;,
 -9.32556;-1.01487;-0.21508;,
 9.32556;-1.01487;-0.21508;,
 -9.32556;-1.01487;0.30176;,
 -9.32556;-1.01487;0.30176;,
 -9.32556;-1.01487;0.30176;,
 -9.32556;-1.01487;0.30176;,
 -9.32556;-1.01487;0.30176;,
 -9.32556;-1.01487;0.30176;,
 9.32556;-1.01487;0.30176;,
 9.32556;-1.01487;0.30176;,
 9.32556;-1.01487;0.30176;,
 9.32556;-1.01487;0.30176;,
 9.32556;-1.01487;0.30176;,
 9.32556;-1.01487;0.30176;,
 11.12556;-1.07650;-15.54850;,
 8.85242;-1.07650;-15.54850;,
 8.85242;-1.07650;-14.24917;,
 11.12556;-1.07650;-14.24917;,
 11.24478;-2.28111;-15.54850;,
 11.24478;-2.28111;-14.24917;,
 8.73319;-2.28111;-15.54850;,
 8.73319;-2.28111;-14.24917;,
 -8.73319;-2.28111;-15.54850;,
 -8.95001;-1.07650;-15.54850;,
 -8.95001;-1.07650;-14.24917;,
 -8.73319;-2.28111;-14.24917;,
 -11.02797;-1.07650;-15.54850;,
 -11.24478;-2.28111;-15.54850;,
 -11.24478;-2.28111;-14.24917;,
 -11.02797;-1.07650;-14.24917;,
 8.73319;-2.28111;-15.54850;,
 8.46355;-2.94637;-15.54850;,
 8.46355;-2.94637;-14.24917;,
 8.73319;-2.28111;-14.24917;,
 11.51442;-2.94637;-15.54850;,
 11.24478;-2.28111;-15.54850;,
 11.24478;-2.28111;-14.24917;,
 11.51442;-2.94637;-14.24917;,
 -11.24478;-2.28111;-15.54850;,
 -11.55294;-2.94637;-15.54850;,
 -11.55294;-2.94637;-14.24917;,
 -11.24478;-2.28111;-14.24917;,
 -8.42503;-2.94637;-15.54850;,
 -8.73319;-2.28111;-15.54850;,
 -8.73319;-2.28111;-14.24917;,
 -8.42503;-2.94637;-14.24917;,
 11.51442;-4.14175;-16.39205;,
 8.46355;-4.14175;-16.39205;,
 11.51442;-4.14175;-15.09273;,
 8.46355;-4.14175;-15.09273;,
 -8.42503;-4.14175;-16.39205;,
 -11.55294;-4.14175;-16.39205;,
 -8.42503;-4.14175;-15.09273;,
 -11.55294;-4.14175;-15.09273;,
 8.85242;-1.07650;15.60047;,
 11.12556;-1.07650;15.60047;,
 11.12556;-1.07650;14.24917;,
 8.85242;-1.07650;14.24917;,
 8.73319;-2.28111;15.60047;,
 8.73319;-2.28111;14.24917;,
 11.24478;-2.28111;15.60047;,
 11.24478;-2.28111;14.24917;,
 -11.24478;-2.28111;15.60047;,
 -11.02797;-1.07650;15.60047;,
 -11.02797;-1.07650;14.24917;,
 -11.24478;-2.28111;14.24917;,
 -8.95001;-1.07650;15.60047;,
 -8.73319;-2.28111;15.60047;,
 -8.73319;-2.28111;14.24917;,
 -8.95001;-1.07650;14.24917;,
 11.24478;-2.28111;15.60047;,
 11.51442;-2.94637;15.60047;,
 11.51442;-2.94637;14.24917;,
 11.24478;-2.28111;14.24917;,
 8.46355;-2.94637;15.60047;,
 8.73319;-2.28111;15.60047;,
 8.73319;-2.28111;14.24917;,
 8.46355;-2.94637;14.24917;,
 -8.73319;-2.28111;15.60047;,
 -8.42503;-2.94637;15.60047;,
 -8.42503;-2.94637;14.24917;,
 -8.73319;-2.28111;14.24917;,
 -11.55294;-2.94637;15.60047;,
 -11.24478;-2.28111;15.60047;,
 -11.24478;-2.28111;14.24917;,
 -11.55294;-2.94637;14.24917;,
 8.46355;-4.03811;16.43160;,
 11.51442;-4.03811;16.43160;,
 8.46355;-4.03811;15.08030;,
 11.51442;-4.03811;15.08030;,
 -11.55294;-4.03811;16.43160;,
 -8.42503;-4.03811;16.43160;,
 -11.55294;-4.03811;15.08030;,
 -8.42503;-4.03811;15.08030;,
 -11.02797;-1.07650;-2.12445;,
 -8.95001;-1.07650;-2.12445;,
 -8.95001;-1.07650;-14.24917;,
 -11.02797;-1.07650;-14.24917;,
 -11.02797;-1.07650;-2.12445;,
 -11.02797;-1.07650;-14.24917;,
 -11.24478;-2.28111;-14.24917;,
 -11.24478;-2.28111;-2.12445;,
 -8.95001;-1.07650;-2.12445;,
 -8.73319;-2.28111;-2.12445;,
 -8.73319;-2.28111;-14.24917;,
 -8.95001;-1.07650;-14.24917;,
 -11.24478;-2.28111;-2.12445;,
 -11.55294;-2.94637;-2.12445;,
 -8.73319;-2.28111;-2.12445;,
 -8.42503;-2.94637;-2.12445;,
 8.85242;-1.07650;-2.05918;,
 11.12556;-1.07650;-2.05918;,
 11.12556;-1.07650;-14.24917;,
 8.85242;-1.07650;-14.24917;,
 8.85242;-1.07650;-2.05918;,
 8.85242;-1.07650;-14.24917;,
 8.73319;-2.28111;-14.24917;,
 8.73319;-2.28111;-2.05918;,
 11.12556;-1.07650;-2.05918;,
 11.24478;-2.28111;-2.05918;,
 11.24478;-2.28111;-14.24917;,
 11.12556;-1.07650;-14.24917;,
 8.73319;-2.28111;-2.05918;,
 8.46355;-2.94637;-2.05918;,
 11.24478;-2.28111;-2.05918;,
 11.51442;-2.94637;-2.05918;,
 -11.02797;-1.07650;1.91082;,
 -11.02797;-1.07650;14.24917;,
 -8.95001;-1.07650;14.24917;,
 -8.95001;-1.07650;1.91082;,
 -11.02797;-1.07650;1.91082;,
 -11.24478;-2.28111;1.91082;,
 -8.95001;-1.07650;1.91082;,
 -8.73319;-2.28111;1.91082;,
 -11.24478;-2.28111;1.91082;,
 -11.55294;-2.94637;1.91082;,
 -8.73319;-2.28111;1.91082;,
 -8.42503;-2.94637;1.91082;,
 8.85242;-1.07650;2.15191;,
 8.85242;-1.07650;14.24917;,
 11.12556;-1.07650;14.24917;,
 11.12556;-1.07650;2.15191;,
 8.85242;-1.07650;2.15191;,
 8.73319;-2.28111;2.15191;,
 11.12556;-1.07650;2.15191;,
 11.24478;-2.28111;2.15191;,
 8.73319;-2.28111;2.15191;,
 8.46355;-2.94637;2.15191;,
 11.24478;-2.28111;2.15191;,
 11.51442;-2.94637;2.15191;,
 -8.95001;-0.75147;1.38359;,
 -11.02797;-0.75147;1.38359;,
 -8.95001;-0.75147;-1.20518;,
 -11.02797;-0.75147;-1.20518;,
 11.12556;-0.75147;1.53826;,
 8.85242;-0.75147;1.53826;,
 11.12556;-0.75147;-1.16330;,
 8.85242;-0.75147;-1.16330;,
 -4.28772;5.99973;-4.12569;,
 4.19303;5.94071;-4.21107;,
 4.18739;4.64914;-3.87835;,
 -4.29336;4.70816;-3.79296;,
 4.19303;5.94071;-4.21107;,
 4.29044;9.19061;7.04937;,
 4.28480;7.89905;7.38207;,
 4.18739;4.64914;-3.87835;,
 4.29044;9.19061;7.04937;,
 -4.19032;9.24964;7.13475;,
 -4.19595;7.95807;7.46746;,
 4.28480;7.89905;7.38207;,
 -4.19032;9.24964;7.13475;,
 -4.28772;5.99973;-4.12569;,
 -4.29336;4.70816;-3.79296;,
 -4.19595;7.95807;7.46746;,
 -4.29336;4.70816;-3.79296;,
 4.18739;4.64914;-3.87835;,
 6.17983;10.92669;8.50327;,
 -6.02571;11.01164;8.62615;,
 6.03964;6.74778;-6.36428;,
 4.19303;5.94071;-4.21107;,
 -6.16590;6.83272;-6.24139;,
 -4.28772;5.99973;-4.12569;;
 
 457;
 4;0,1,2,3;,
 4;1,4,5,2;,
 4;4,6,7,5;,
 4;6,8,9,7;,
 4;8,10,11,9;,
 4;10,12,13,11;,
 4;12,14,15,13;,
 4;14,16,17,15;,
 4;18,19,1,0;,
 3;20,19,18;,
 4;19,21,4,1;,
 3;22,21,19;,
 4;21,23,6,4;,
 3;24,23,21;,
 4;23,25,8,6;,
 3;26,25,23;,
 4;25,27,10,8;,
 3;28,27,25;,
 4;27,29,12,10;,
 3;30,29,27;,
 4;29,31,14,12;,
 3;32,31,29;,
 4;31,33,16,14;,
 3;34,33,31;,
 4;35,36,3,2;,
 4;37,35,2,5;,
 4;38,37,5,7;,
 4;39,38,7,9;,
 4;40,39,9,11;,
 4;41,40,11,13;,
 4;42,41,13,15;,
 4;43,42,15,17;,
 4;44,45,36,35;,
 4;46,44,35,37;,
 4;47,46,37,38;,
 4;48,47,38,39;,
 4;49,48,39,40;,
 4;50,49,40,41;,
 4;51,50,41,42;,
 4;52,51,42,43;,
 4;53,54,45,44;,
 3;55,54,53;,
 4;56,53,44,46;,
 3;57,53,56;,
 4;58,56,46,47;,
 3;59,56,58;,
 4;60,58,47,48;,
 3;61,58,60;,
 4;62,60,48,49;,
 3;63,60,62;,
 4;64,62,49,50;,
 3;65,62,64;,
 4;66,64,50,51;,
 3;67,64,66;,
 4;68,66,51,52;,
 3;69,66,68;,
 3;70,71,72;,
 3;72,73,70;,
 3;73,74,70;,
 3;70,74,75;,
 3;76,77,78;,
 3;79,80,81;,
 4;76,78,80,79;,
 3;82,83,84;,
 4;84,85,86,82;,
 3;85,87,86;,
 3;88,89,90;,
 4;90,91,92,88;,
 3;91,93,92;,
 4;94,95,96,97;,
 4;98,99,100,101;,
 4;102,103,104,105;,
 4;106,107,108,109;,
 4;110,111,103,102;,
 4;112,113,107,106;,
 4;111,110,113,112;,
 4;114,115,100,116;,
 4;117,118,115,114;,
 4;119,120,121,101;,
 4;122,123,120,119;,
 4;124,125,108,107;,
 4;124,126,127,125;,
 4;128,129,106,109;,
 4;130,129,128,131;,
 4;113,110,126,124;,
 4;111,112,129,130;,
 3;113,124,107;,
 3;112,106,129;,
 4;132,133,118,117;,
 4;134,135,136,95;,
 4;133,132,135,134;,
 4;137,138,123,122;,
 4;139,140,94,141;,
 4;138,137,140,139;,
 4;142,143,127,126;,
 4;144,145,102,105;,
 4;143,142,145,144;,
 4;146,147,130,131;,
 4;148,149,104,103;,
 4;147,146,149,148;,
 3;110,145,142;,
 3;111,147,148;,
 4;150,151,152,153;,
 4;154,155,156,157;,
 4;151,150,155,154;,
 4;158,159,115,118;,
 4;159,160,100,115;,
 4;159,158,161,160;,
 4;162,163,122,119;,
 4;164,162,119,101;,
 4;163,162,164,165;,
 4;166,167,133,134;,
 4;161,166,134,95;,
 4;167,158,118,133;,
 4;167,166,161,158;,
 4;168,169,140,137;,
 4;163,168,137,122;,
 4;169,165,94,140;,
 4;169,168,163,165;,
 3;110,102,145;,
 3;110,142,126;,
 3;111,130,147;,
 3;111,148,103;,
 4;170,171,172,173;,
 4;174,175,176,177;,
 4;178,179,180,181;,
 4;178,171,182,183;,
 4;184,185,172,181;,
 4;186,187,188,189;,
 4;190,186,189,191;,
 4;192,190,191,193;,
 4;187,192,193,188;,
 4;187,186,190,192;,
 4;194,195,196,197;,
 4;198,199,194,200;,
 4;198,201,202,199;,
 4;203,204,205,206;,
 4;203,207,208,204;,
 4;209,210,211,212;,
 4;209,213,214,210;,
 4;215,216,217,218;,
 4;215,219,195,216;,
 4;220,202,221,222;,
 4;223,217,202,220;,
 4;224,225,217,223;,
 4;222,221,225,224;,
 4;226,220,222,227;,
 4;228,223,220,226;,
 4;229,224,223,228;,
 4;227,222,224,229;,
 4;227,229,228,226;,
 4;230,231,232,233;,
 4;233,232,234,235;,
 4;235,234,236,237;,
 4;237,236,238,239;,
 4;239,238,240,241;,
 4;241,240,242,243;,
 4;244,232,231,245;,
 4;246,234,232,244;,
 4;247,236,234,246;,
 4;248,238,236,247;,
 4;249,240,238,248;,
 4;250,242,240,249;,
 4;251,244,245,252;,
 3;253,251,252;,
 4;254,246,244,251;,
 3;255,254,251;,
 4;256,247,246,254;,
 3;257,256,254;,
 4;258,248,247,256;,
 3;259,258,256;,
 4;260,249,248,258;,
 3;261,260,258;,
 4;262,250,249,260;,
 3;263,262,260;,
 4;264,230,233,265;,
 4;265,233,235,266;,
 4;266,235,237,267;,
 4;267,237,239,268;,
 4;268,239,241,269;,
 4;269,241,243,270;,
 4;271,272,273,274;,
 4;275,276,271,277;,
 4;275,278,279,276;,
 4;280,281,282,283;,
 4;280,284,285,281;,
 4;286,287,288,289;,
 4;286,290,291,287;,
 4;292,293,294,295;,
 4;292,296,272,293;,
 4;297,279,298,299;,
 4;300,294,279,297;,
 4;301,302,294,300;,
 4;299,298,302,301;,
 4;303,297,299,304;,
 4;305,300,297,303;,
 4;306,301,300,305;,
 4;304,299,301,306;,
 4;304,306,305,303;,
 4;307,308,309,310;,
 4;310,309,311,312;,
 4;312,311,313,314;,
 4;314,313,315,316;,
 4;316,315,317,318;,
 4;318,317,319,320;,
 4;321,309,308,322;,
 4;323,311,309,321;,
 4;324,313,311,323;,
 4;325,315,313,324;,
 4;326,317,315,325;,
 4;327,319,317,326;,
 4;328,321,322,329;,
 3;330,328,329;,
 4;331,323,321,328;,
 3;332,331,328;,
 4;333,324,323,331;,
 3;334,333,331;,
 4;335,325,324,333;,
 3;336,335,333;,
 4;337,326,325,335;,
 3;338,337,335;,
 4;339,327,326,337;,
 3;340,339,337;,
 4;341,307,310,342;,
 4;342,310,312,343;,
 4;343,312,314,344;,
 4;344,314,316,345;,
 4;345,316,318,346;,
 4;346,318,320,347;,
 4;348,349,350,351;,
 4;352,353,348,354;,
 4;352,354,355,356;,
 4;357,358,359,360;,
 4;357,360,361,362;,
 4;363,364,365,366;,
 4;363,366,367,368;,
 4;369,370,371,372;,
 4;369,372,351,373;,
 4;374,375,376,355;,
 4;377,374,355,371;,
 4;378,377,371,379;,
 4;375,378,379,376;,
 4;380,381,375,374;,
 4;382,380,374,377;,
 4;383,382,377,378;,
 4;381,383,378,375;,
 4;381,380,382,383;,
 4;384,385,386,387;,
 4;385,388,389,386;,
 4;388,390,391,389;,
 4;390,392,393,391;,
 4;392,394,395,393;,
 4;394,396,397,395;,
 4;398,399,387,386;,
 4;400,398,386,389;,
 4;401,400,389,391;,
 4;402,401,391,393;,
 4;403,402,393,395;,
 4;404,403,395,397;,
 4;405,406,399,398;,
 3;407,406,405;,
 4;408,405,398,400;,
 3;409,405,408;,
 4;410,408,400,401;,
 3;411,408,410;,
 4;412,410,401,402;,
 3;413,410,412;,
 4;414,412,402,403;,
 3;415,412,414;,
 4;416,414,403,404;,
 3;417,414,416;,
 4;418,419,385,384;,
 4;419,420,388,385;,
 4;420,421,390,388;,
 4;421,422,392,390;,
 4;422,423,394,392;,
 4;423,424,396,394;,
 4;425,426,427,428;,
 4;429,430,425,431;,
 4;429,431,432,433;,
 4;434,435,436,437;,
 4;434,437,438,439;,
 4;440,441,442,443;,
 4;440,443,444,445;,
 4;446,447,448,449;,
 4;446,449,428,450;,
 4;451,452,453,432;,
 4;454,451,432,448;,
 4;455,454,448,456;,
 4;452,455,456,453;,
 4;457,458,452,451;,
 4;459,457,451,454;,
 4;460,459,454,455;,
 4;458,460,455,452;,
 4;458,457,459,460;,
 4;461,462,463,464;,
 4;462,465,466,463;,
 4;465,467,468,466;,
 4;467,469,470,468;,
 4;469,471,472,470;,
 4;471,473,474,472;,
 4;475,476,464,463;,
 4;477,475,463,466;,
 4;478,477,466,468;,
 4;479,478,468,470;,
 4;480,479,470,472;,
 4;481,480,472,474;,
 4;482,483,476,475;,
 3;484,483,482;,
 4;485,482,475,477;,
 3;486,482,485;,
 4;487,485,477,478;,
 3;488,485,487;,
 4;489,487,478,479;,
 3;490,487,489;,
 4;491,489,479,480;,
 3;492,489,491;,
 4;493,491,480,481;,
 3;494,491,493;,
 4;495,496,462,461;,
 4;496,497,465,462;,
 4;497,498,467,465;,
 4;498,499,469,467;,
 4;499,500,471,469;,
 4;500,501,473,471;,
 4;502,503,504,505;,
 4;506,507,508,509;,
 4;510,511,512,513;,
 4;514,515,516,517;,
 4;514,507,518,519;,
 4;520,521,508,517;,
 4;522,523,524,525;,
 4;526,527,528,529;,
 4;530,531,532,533;,
 4;534,535,536,537;,
 4;534,538,539,529;,
 4;540,535,528,541;,
 4;542,543,544,545;,
 4;543,546,547,544;,
 4;546,548,549,547;,
 4;548,550,551,549;,
 4;550,552,553,551;,
 4;552,554,555,553;,
 3;556,543,542;,
 3;557,546,543;,
 3;558,548,546;,
 3;559,550,548;,
 3;560,552,550;,
 3;561,554,552;,
 3;562,545,544;,
 3;563,544,547;,
 3;564,547,549;,
 3;565,549,551;,
 3;566,551,553;,
 3;567,553,555;,
 4;568,569,570,571;,
 4;572,568,571,573;,
 4;569,574,575,570;,
 4;569,568,572,574;,
 4;576,577,578,579;,
 4;580,581,582,583;,
 4;577,580,583,578;,
 4;577,576,581,580;,
 4;584,585,586,587;,
 4;588,589,590,591;,
 4;588,585,584,589;,
 4;592,593,594,595;,
 4;596,597,598,599;,
 4;596,593,592,597;,
 4;600,601,585,588;,
 4;602,600,588,591;,
 4;603,602,591,586;,
 4;601,603,586,585;,
 4;601,600,602,603;,
 4;604,605,593,596;,
 4;606,604,596,599;,
 4;607,606,599,594;,
 4;605,607,594,593;,
 4;605,604,606,607;,
 4;608,609,610,611;,
 4;612,608,611,613;,
 4;609,614,615,610;,
 4;609,608,612,614;,
 4;616,617,618,619;,
 4;620,621,622,623;,
 4;617,620,623,618;,
 4;617,616,621,620;,
 4;624,625,626,627;,
 4;628,629,630,631;,
 4;628,625,624,629;,
 4;632,633,634,635;,
 4;636,637,638,639;,
 4;636,633,632,637;,
 4;640,641,625,628;,
 4;642,640,628,631;,
 4;643,642,631,626;,
 4;641,643,626,625;,
 4;641,640,642,643;,
 4;644,645,633,636;,
 4;646,644,636,639;,
 4;647,646,639,634;,
 4;645,647,634,633;,
 4;645,644,646,647;,
 4;648,649,650,651;,
 4;652,653,654,655;,
 4;656,657,658,659;,
 4;660,595,594,661;,
 4;662,663,599,598;,
 4;661,594,599,663;,
 4;664,665,666,667;,
 4;668,669,670,671;,
 4;672,673,674,675;,
 4;676,587,586,677;,
 4;678,679,591,590;,
 4;677,586,591,679;,
 4;680,681,682,683;,
 4;684,652,655,685;,
 4;684,685,638,681;,
 4;686,682,635,687;,
 4;686,687,657,656;,
 4;688,660,661,689;,
 4;688,689,639,638;,
 4;690,635,634,691;,
 4;690,691,663,662;,
 4;689,661,663,691;,
 4;689,691,634,639;,
 4;692,693,694,695;,
 4;696,668,671,697;,
 4;696,697,630,693;,
 4;698,694,627,699;,
 4;698,699,673,672;,
 4;700,676,677,701;,
 4;700,701,631,630;,
 4;702,627,626,703;,
 4;702,703,679,678;,
 4;701,677,679,703;,
 4;701,703,626,631;,
 4;704,705,680,683;,
 4;706,704,683,649;,
 4;707,706,649,648;,
 4;705,707,648,680;,
 4;705,704,706,707;,
 4;708,709,692,695;,
 4;710,708,695,665;,
 4;711,710,665,664;,
 4;709,711,664,692;,
 4;709,708,710,711;,
 4;712,713,714,715;,
 4;716,717,718,719;,
 4;720,721,722,723;,
 4;724,725,726,727;,
 4;728,729,718,727;,
 4;730,731,724,717;,
 4;732,730,717,733;,
 4;734,732,733,735;,
 4;731,734,735,724;,
 4;731,730,732,734;;
 
 MeshMaterialList {
  3;
  457;
  0,
  0,
  0,
  0,
  0,
  0,
  0,
  0,
  0,
  0,
  0,
  0,
  0,
  0,
  0,
  0,
  0,
  0,
  0,
  0,
  0,
  0,
  0,
  0,
  0,
  0,
  0,
  0,
  0,
  0,
  0,
  0,
  0,
  0,
  0,
  0,
  0,
  0,
  0,
  0,
  0,
  0,
  0,
  0,
  0,
  0,
  0,
  0,
  0,
  0,
  0,
  0,
  0,
  0,
  0,
  0,
  0,
  0,
  0,
  0,
  0,
  0,
  0,
  0,
  0,
  0,
  0,
  0,
  0,
  1,
  1,
  1,
  1,
  1,
  1,
  1,
  1,
  1,
  1,
  1,
  1,
  1,
  1,
  1,
  1,
  1,
  1,
  1,
  1,
  1,
  1,
  1,
  1,
  1,
  1,
  1,
  1,
  1,
  1,
  1,
  1,
  1,
  1,
  1,
  1,
  1,
  1,
  1,
  1,
  1,
  1,
  1,
  1,
  1,
  1,
  1,
  1,
  1,
  1,
  1,
  1,
  1,
  1,
  0,
  0,
  0,
  0,
  0,
  0,
  0,
  0,
  0,
  0,
  0,
  0,
  0,
  0,
  0,
  0,
  0,
  0,
  0,
  0,
  0,
  0,
  0,
  0,
  0,
  0,
  0,
  0,
  0,
  0,
  0,
  0,
  0,
  0,
  0,
  0,
  0,
  0,
  0,
  0,
  0,
  0,
  0,
  0,
  0,
  0,
  0,
  0,
  0,
  0,
  0,
  0,
  0,
  0,
  0,
  0,
  0,
  0,
  0,
  0,
  0,
  0,
  0,
  0,
  0,
  0,
  0,
  0,
  0,
  0,
  0,
  0,
  0,
  0,
  0,
  0,
  0,
  0,
  0,
  0,
  0,
  0,
  0,
  0,
  0,
  0,
  0,
  0,
  0,
  0,
  0,
  0,
  0,
  0,
  0,
  0,
  0,
  0,
  0,
  0,
  0,
  0,
  0,
  0,
  0,
  0,
  0,
  0,
  0,
  0,
  0,
  0,
  0,
  0,
  0,
  0,
  0,
  0,
  0,
  0,
  0,
  0,
  0,
  0,
  0,
  0,
  0,
  0,
  0,
  0,
  0,
  0,
  0,
  0,
  0,
  0,
  0,
  0,
  0,
  0,
  0,
  0,
  0,
  0,
  0,
  0,
  0,
  0,
  0,
  0,
  0,
  0,
  0,
  0,
  0,
  0,
  0,
  0,
  0,
  0,
  0,
  0,
  0,
  0,
  0,
  0,
  0,
  0,
  0,
  0,
  0,
  0,
  0,
  0,
  0,
  0,
  0,
  0,
  0,
  0,
  0,
  0,
  0,
  0,
  0,
  0,
  0,
  0,
  0,
  0,
  0,
  0,
  0,
  0,
  0,
  0,
  0,
  0,
  0,
  0,
  0,
  0,
  2,
  2,
  2,
  2,
  2,
  2,
  2,
  2,
  2,
  2,
  2,
  2,
  2,
  2,
  2,
  2,
  2,
  2,
  2,
  2,
  2,
  2,
  2,
  2,
  2,
  2,
  2,
  2,
  2,
  2,
  2,
  2,
  2,
  2,
  2,
  2,
  2,
  2,
  2,
  2,
  2,
  2,
  2,
  2,
  2,
  2,
  2,
  2,
  2,
  2,
  2,
  2,
  2,
  2,
  2,
  2,
  2,
  2,
  2,
  2,
  2,
  2,
  2,
  2,
  2,
  2,
  2,
  2,
  2,
  2,
  2,
  2,
  2,
  2,
  2,
  2,
  2,
  2,
  2,
  2,
  2,
  2,
  2,
  2,
  2,
  2,
  2,
  2,
  2,
  2,
  2,
  2,
  2,
  2,
  2,
  2,
  2,
  2,
  2,
  2,
  2,
  2,
  2,
  2,
  2,
  2,
  2,
  2,
  2,
  2,
  2,
  2,
  2,
  2,
  2,
  2,
  2,
  2,
  2,
  2,
  2,
  2,
  0,
  0,
  0,
  0,
  0,
  0,
  0,
  0,
  0,
  0;;
  Material {
   0.100000;0.109600;0.172800;1.000000;;
   15.000000;
   0.500000;0.500000;0.500000;;
   0.000000;0.000000;0.000000;;
  }
  Material {
   0.269600;0.269600;0.269600;1.000000;;
   23.000000;
   0.700000;0.700000;0.700000;;
   0.010110;0.010110;0.010110;;
  }
  Material {
   0.408000;0.408000;0.408000;1.000000;;
   89.000000;
   0.510000;0.510000;0.510000;;
   0.000000;0.000000;0.000000;;
  }
 }
 MeshNormals {
  439;
  0.000000;0.270126;-0.962825;,
  0.611310;0.333525;-0.717678;,
  0.864523;0.486584;-0.125839;,
  0.611310;0.639644;0.465999;,
  -0.000000;0.703044;0.711147;,
  -0.611310;0.639644;0.465999;,
  -0.864523;0.486584;-0.125839;,
  -0.611310;0.333525;-0.717678;,
  0.000000;-0.250380;-0.968148;,
  0.707107;-0.177046;-0.684584;,
  1.000000;0.000000;0.000000;,
  0.707107;0.177046;0.684584;,
  0.000000;0.250380;0.968148;,
  -0.707107;0.177046;0.684584;,
  -1.000000;0.000000;0.000000;,
  -0.707107;-0.177046;-0.684584;,
  0.000000;0.968148;-0.250380;,
  0.000000;0.865606;-0.500726;,
  0.189537;0.885263;-0.424718;,
  0.268046;0.932719;-0.241218;,
  0.189537;0.980176;-0.057717;,
  0.000000;0.999833;0.018291;,
  -0.189537;0.980176;-0.057718;,
  -0.268046;0.932719;-0.241218;,
  -0.189537;0.885263;-0.424718;,
  0.000000;-0.978776;-0.204931;,
  0.313580;-0.946255;-0.079179;,
  0.443468;-0.867741;0.224413;,
  0.313579;-0.789227;0.528005;,
  -0.000000;-0.756705;0.653757;,
  -0.313580;-0.789226;0.528005;,
  -0.443469;-0.867741;0.224413;,
  -0.313580;-0.946255;-0.079179;,
  0.000000;0.782009;-0.623267;,
  0.288226;0.811902;-0.507682;,
  0.407610;0.884070;-0.228637;,
  0.288224;0.956235;0.050408;,
  0.000000;0.986127;0.165993;,
  -0.288225;0.956235;0.050408;,
  -0.407611;0.884069;-0.228636;,
  -0.288226;0.811902;-0.507682;,
  0.000000;-0.250381;-0.968147;,
  0.707107;-0.177046;-0.684583;,
  1.000000;-0.000000;-0.000000;,
  0.707107;0.177046;0.684584;,
  -0.000000;0.250380;0.968148;,
  -0.707107;0.177044;0.684584;,
  -1.000000;-0.000001;0.000000;,
  -0.707107;-0.177046;-0.684583;,
  -0.000000;-0.968148;0.250380;,
  0.000000;1.000000;0.000000;,
  0.000000;1.000000;0.000000;,
  0.000000;-0.968148;0.250380;,
  -0.000000;-0.968148;0.250380;,
  0.000000;-0.968148;0.250380;,
  -0.000000;-0.968148;0.250380;,
  -0.000000;-0.968148;0.250380;,
  -0.000000;-0.968148;0.250380;,
  0.000000;-0.968148;0.250380;,
  0.000000;-0.968148;0.250380;,
  0.297721;0.879148;-0.372105;,
  0.001843;-0.899876;0.436142;,
  -0.297721;0.879148;-0.372105;,
  -0.001843;-0.899876;0.436142;,
  -0.452562;0.888503;-0.075832;,
  -0.016272;-0.984718;0.173395;,
  0.452562;0.888503;-0.075832;,
  0.016272;-0.984718;0.173395;,
  0.310220;0.684175;-0.660052;,
  -0.052057;-0.728875;0.682665;,
  -0.310220;0.684175;-0.660052;,
  0.052057;-0.728875;0.682665;,
  -0.934983;0.048652;-0.351339;,
  0.003669;-0.905243;0.424878;,
  0.934983;0.048652;-0.351339;,
  -0.003669;-0.905243;0.424878;,
  0.967335;0.177096;-0.181382;,
  -0.032557;-0.983087;0.180221;,
  -0.967335;0.177096;-0.181382;,
  0.032557;-0.983087;0.180221;,
  -0.691695;-0.241245;-0.680705;,
  -0.104136;-0.745931;0.657832;,
  0.691695;-0.241245;-0.680705;,
  0.104136;-0.745931;0.657832;,
  -0.084339;-0.643126;0.761101;,
  0.084339;-0.643126;0.761101;,
  0.488532;0.832865;-0.260141;,
  -0.488532;0.832865;-0.260141;,
  -0.445926;0.892010;-0.073954;,
  0.445926;0.892010;-0.073954;,
  0.549446;0.629389;-0.549527;,
  -0.549446;0.629389;-0.549527;,
  -0.960867;-0.064444;-0.269410;,
  0.960867;-0.064444;-0.269410;,
  0.988902;-0.031365;-0.145224;,
  -0.988902;-0.031365;-0.145224;,
  -0.744315;-0.369291;-0.556435;,
  0.744315;-0.369291;-0.556435;,
  -0.121306;-0.003308;-0.992610;,
  0.121306;-0.003308;-0.992610;,
  -0.432308;0.901120;-0.033042;,
  -0.009686;-0.996527;0.082703;,
  0.432308;0.901120;-0.033042;,
  0.009686;-0.996527;0.082703;,
  0.970224;0.217670;-0.106231;,
  0.887557;0.444922;-0.119532;,
  -0.970224;0.217670;-0.106231;,
  -0.887557;0.444922;-0.119532;,
  -0.418371;0.907865;-0.027337;,
  0.418371;0.907865;-0.027337;,
  0.030593;0.997471;-0.064156;,
  -0.030593;0.997471;-0.064156;,
  0.161942;-0.235978;-0.958170;,
  -0.161942;-0.235978;-0.958170;,
  0.901614;0.378451;-0.209445;,
  0.889325;0.162639;-0.427375;,
  -0.889325;0.162639;-0.427375;,
  -0.901614;0.378451;-0.209445;,
  0.617271;-0.108241;-0.779269;,
  -0.617271;-0.108241;-0.779269;,
  -0.826894;0.560873;0.040826;,
  0.015078;0.987088;-0.159470;,
  -0.049585;0.902889;-0.427004;,
  0.826894;0.560873;0.040826;,
  0.049585;0.902889;-0.427004;,
  -0.015078;0.987088;-0.159470;,
  -0.794198;0.596176;-0.117570;,
  -0.168216;0.629049;-0.758947;,
  0.794198;0.596176;-0.117570;,
  0.168216;0.629049;-0.758947;,
  0.092535;0.256751;0.962038;,
  -0.092535;0.256751;0.962038;,
  -0.065445;0.285950;0.956007;,
  0.065445;0.285950;0.956007;,
  -0.019370;-0.996281;0.083956;,
  0.130537;0.315820;0.939797;,
  0.138592;0.257031;0.956414;,
  0.019370;-0.996281;0.083956;,
  -0.138592;0.257031;0.956414;,
  -0.130537;0.315820;0.939797;,
  0.995984;-0.022349;-0.086699;,
  0.146120;0.197265;0.969400;,
  -0.995984;-0.022349;-0.086699;,
  -0.146120;0.197265;0.969400;,
  -0.830364;0.421007;-0.365033;,
  0.830364;0.421007;-0.365033;,
  -0.825976;-0.141140;-0.545750;,
  0.825976;-0.141140;-0.545750;,
  0.896144;-0.111109;-0.429629;,
  0.000000;0.250379;0.968148;,
  0.000000;0.261934;-0.965086;,
  0.000000;-0.812743;0.582622;,
  0.404499;-0.228982;-0.885408;,
  -0.896144;-0.111109;-0.429629;,
  0.000000;0.864484;-0.502660;,
  0.000000;0.791723;-0.610881;,
  0.000000;-0.886750;0.462250;,
  0.000000;-0.943051;0.332648;,
  0.739860;-0.168446;-0.651332;,
  -0.739860;-0.168446;-0.651332;,
  -0.404499;-0.228982;-0.885408;,
  0.824126;0.000000;0.566406;,
  0.064786;0.996905;0.044526;,
  0.661586;0.000000;-0.749870;,
  -0.462972;0.000000;0.886373;,
  -0.027969;0.999424;-0.019223;,
  0.535117;0.000000;-0.844778;,
  -0.596899;0.000000;0.802316;,
  0.064786;-0.996905;0.044526;,
  -0.462973;0.000000;0.886372;,
  0.000000;1.000000;0.000000;,
  0.000000;-1.000000;-0.000000;,
  -0.566408;0.000000;0.824125;,
  0.277394;0.601076;-0.749507;,
  -0.156731;0.601075;-0.783674;,
  -0.757046;0.601076;-0.256103;,
  -0.600315;0.601075;0.527571;,
  0.156729;0.601078;0.783671;,
  0.757045;0.601078;0.256102;,
  0.078458;0.000000;-0.996917;,
  -0.824126;0.000000;-0.566406;,
  -0.902584;0.000000;0.430513;,
  -0.078458;0.000000;0.996917;,
  0.824126;0.000000;0.566406;,
  0.083069;-0.989187;-0.120866;,
  -0.063139;-0.989187;-0.132373;,
  -0.146207;-0.989187;-0.011507;,
  -0.083068;-0.989187;0.120866;,
  0.063138;-0.989187;0.132372;,
  0.146206;-0.989187;0.011507;,
  0.078416;-0.034307;-0.996330;,
  -0.823642;-0.034308;-0.566071;,
  -0.902053;-0.034307;0.430260;,
  -0.078410;-0.034307;0.996331;,
  0.823637;-0.034305;0.566079;,
  0.332305;0.809810;-0.483508;,
  -0.252578;0.809809;-0.529541;,
  -0.584884;0.809810;-0.046030;,
  -0.332306;0.809810;0.483509;,
  0.252575;0.809813;0.529537;,
  0.584881;0.809812;0.046029;,
  -0.055906;0.997696;-0.038423;,
  0.503077;0.000000;-0.864242;,
  -0.626553;0.000000;0.779378;,
  -0.027968;-0.999424;-0.019222;,
  -0.055905;-0.997697;-0.038422;,
  0.661585;0.000000;-0.749870;,
  0.566404;0.000000;-0.824128;,
  -0.824128;0.000000;-0.566404;,
  0.902585;0.000000;-0.430512;,
  0.902053;-0.034307;-0.430260;,
  -0.824126;0.000000;-0.566406;,
  -0.064786;0.996905;-0.044526;,
  -0.661586;0.000000;0.749870;,
  0.462972;0.000000;-0.886373;,
  0.027969;0.999424;0.019223;,
  -0.535117;0.000000;0.844778;,
  0.596899;0.000000;-0.802316;,
  -0.064786;-0.996905;-0.044526;,
  0.462973;0.000000;-0.886372;,
  0.000000;1.000000;0.000000;,
  0.000000;-1.000000;0.000000;,
  0.566408;0.000000;-0.824125;,
  -0.277394;0.601076;0.749507;,
  0.156731;0.601075;0.783674;,
  0.757046;0.601076;0.256103;,
  0.600315;0.601075;-0.527571;,
  -0.156729;0.601078;-0.783671;,
  -0.757045;0.601078;-0.256102;,
  -0.078458;0.000000;0.996917;,
  0.824126;0.000000;0.566406;,
  0.902584;0.000000;-0.430513;,
  0.078458;0.000000;-0.996917;,
  -0.824126;0.000000;-0.566406;,
  -0.083069;-0.989187;0.120866;,
  0.063139;-0.989187;0.132373;,
  0.146207;-0.989187;0.011507;,
  0.083068;-0.989187;-0.120866;,
  -0.063138;-0.989187;-0.132372;,
  -0.146206;-0.989187;-0.011507;,
  -0.078416;-0.034307;0.996330;,
  0.823642;-0.034308;0.566071;,
  0.902053;-0.034307;-0.430260;,
  0.078410;-0.034307;-0.996331;,
  -0.823637;-0.034305;-0.566079;,
  -0.332305;0.809810;0.483508;,
  0.252578;0.809809;0.529541;,
  0.584884;0.809810;0.046030;,
  0.332306;0.809810;-0.483509;,
  -0.252575;0.809813;-0.529537;,
  -0.584881;0.809812;-0.046029;,
  0.824126;0.000000;-0.566406;,
  0.064786;0.996905;-0.044526;,
  0.661586;0.000000;0.749870;,
  -0.462972;0.000000;-0.886373;,
  -0.027969;0.999424;0.019223;,
  0.535117;0.000000;0.844778;,
  -0.596899;0.000000;-0.802316;,
  0.064786;-0.996905;-0.044526;,
  -0.462973;0.000000;-0.886372;,
  -0.566408;0.000000;-0.824125;,
  0.277394;0.601076;0.749507;,
  -0.156731;0.601075;0.783674;,
  -0.757046;0.601076;0.256103;,
  -0.600315;0.601075;-0.527571;,
  0.156729;0.601078;-0.783671;,
  0.757045;0.601078;-0.256102;,
  0.078458;0.000000;0.996917;,
  -0.824126;0.000000;0.566406;,
  -0.902584;0.000000;-0.430513;,
  -0.078458;0.000000;-0.996917;,
  0.824126;0.000000;-0.566406;,
  0.083069;-0.989187;0.120866;,
  -0.063139;-0.989187;0.132373;,
  -0.146207;-0.989187;0.011507;,
  -0.083068;-0.989187;-0.120866;,
  0.063138;-0.989187;-0.132372;,
  0.146206;-0.989187;-0.011507;,
  0.078416;-0.034307;0.996330;,
  -0.823642;-0.034308;0.566071;,
  -0.902053;-0.034307;-0.430260;,
  -0.078410;-0.034307;-0.996331;,
  0.823637;-0.034305;-0.566079;,
  0.332305;0.809810;0.483508;,
  -0.252578;0.809809;0.529541;,
  -0.584884;0.809810;0.046030;,
  -0.332306;0.809810;-0.483509;,
  0.252575;0.809813;-0.529537;,
  0.584881;0.809812;-0.046029;,
  0.055906;0.997696;0.038423;,
  -0.503077;0.000000;0.864242;,
  0.626553;0.000000;-0.779378;,
  0.027968;-0.999424;0.019222;,
  0.055905;-0.997697;0.038422;,
  -0.661585;0.000000;0.749870;,
  -0.566404;0.000000;0.824128;,
  0.824128;0.000000;0.566404;,
  -0.902585;0.000000;0.430512;,
  -0.902053;-0.034307;0.430260;,
  -0.055906;0.997696;0.038423;,
  0.503077;0.000000;0.864242;,
  -0.626553;0.000000;-0.779378;,
  -0.027968;-0.999424;0.019222;,
  -0.055905;-0.997697;0.038422;,
  0.661585;0.000000;0.749870;,
  0.566404;0.000000;0.824128;,
  -0.824128;0.000000;0.566404;,
  0.902585;0.000000;0.430512;,
  0.902053;-0.034307;0.430260;,
  -0.824126;0.000000;0.566406;,
  -0.064786;0.996905;0.044526;,
  -0.661586;0.000000;-0.749870;,
  0.462972;0.000000;0.886373;,
  0.027969;0.999424;-0.019223;,
  -0.535117;0.000000;-0.844778;,
  0.596899;0.000000;0.802316;,
  -0.064786;-0.996905;0.044526;,
  0.462973;0.000000;0.886372;,
  0.000000;1.000000;0.000000;,
  0.000000;-1.000000;-0.000000;,
  0.566408;0.000000;0.824125;,
  -0.277394;0.601076;-0.749507;,
  0.156731;0.601075;-0.783674;,
  0.757046;0.601076;-0.256103;,
  0.600315;0.601075;0.527571;,
  -0.156729;0.601078;0.783671;,
  -0.757045;0.601078;0.256102;,
  -0.078458;0.000000;-0.996917;,
  0.824126;0.000000;-0.566406;,
  0.902584;0.000000;0.430513;,
  0.078458;0.000000;0.996917;,
  -0.824126;0.000000;0.566406;,
  -0.083069;-0.989187;-0.120866;,
  0.063139;-0.989187;-0.132373;,
  0.146207;-0.989187;-0.011507;,
  0.083068;-0.989187;0.120866;,
  -0.063138;-0.989187;0.132372;,
  -0.146206;-0.989187;0.011507;,
  -0.078416;-0.034307;-0.996330;,
  0.823642;-0.034308;-0.566071;,
  0.902053;-0.034307;0.430260;,
  0.078410;-0.034307;0.996331;,
  -0.823637;-0.034305;0.566079;,
  -0.332305;0.809810;-0.483508;,
  0.252578;0.809809;-0.529541;,
  0.584884;0.809810;-0.046030;,
  0.332306;0.809810;0.483509;,
  -0.252575;0.809813;0.529537;,
  -0.584881;0.809812;0.046029;,
  0.055906;0.997696;-0.038423;,
  -0.503077;0.000000;-0.864242;,
  0.626553;0.000000;0.779378;,
  0.027968;-0.999424;-0.019222;,
  0.055905;-0.997697;-0.038422;,
  -0.661585;0.000000;-0.749870;,
  -0.566404;0.000000;-0.824128;,
  0.824128;0.000000;-0.566404;,
  -0.902585;0.000000;-0.430512;,
  -0.902053;-0.034307;-0.430260;,
  0.000000;0.000000;-1.000000;,
  0.977398;0.211405;0.000000;,
  0.000000;0.000000;1.000000;,
  -0.977398;0.211405;0.000000;,
  0.000000;1.000000;0.000000;,
  -0.970892;0.239517;0.000000;,
  0.970893;0.239513;0.000000;,
  0.984185;0.177145;0.000000;,
  0.953565;0.301188;0.000000;,
  -0.984186;0.177137;0.000000;,
  -0.953566;0.301184;0.000000;,
  -0.984186;0.177137;0.000000;,
  0.984185;0.177145;0.000000;,
  -1.000000;0.000000;0.000000;,
  0.000000;0.499997;-0.866027;,
  0.000000;0.500012;0.866019;,
  0.000000;-0.500012;0.866019;,
  0.000000;-1.000000;-0.000000;,
  1.000000;0.000000;0.000000;,
  -0.967046;0.254600;0.000000;,
  0.967046;0.254600;0.000000;,
  0.958182;0.286161;0.000000;,
  -0.958182;0.286161;0.000000;,
  -0.970892;0.239517;0.000000;,
  0.970893;0.239513;0.000000;,
  0.984185;0.177145;0.000000;,
  -0.981521;0.191353;0.000000;,
  0.981521;0.191353;0.000000;,
  0.976570;0.215199;0.000000;,
  -0.976570;0.215199;0.000000;,
  0.000000;-0.887856;0.460122;,
  0.000000;-0.887856;0.460122;,
  0.000000;0.576570;-0.817048;,
  0.970893;0.239513;0.000000;,
  -0.970892;0.239517;0.000000;,
  -0.984186;0.177137;0.000000;,
  0.981521;0.191353;0.000000;,
  -0.981521;0.191353;0.000000;,
  0.000000;-0.896028;-0.443997;,
  0.000000;-0.896028;-0.443997;,
  0.000000;0.605733;0.795668;,
  0.000000;0.605733;0.795668;,
  0.000000;0.985597;-0.169111;,
  -0.907379;0.420314;0.000000;,
  0.907379;0.420314;0.000000;,
  0.000000;0.984897;-0.173141;,
  -0.926768;0.375634;0.000000;,
  0.926768;0.375634;0.000000;,
  0.000000;0.962091;0.272727;,
  0.000000;0.970488;0.241149;,
  -0.977399;-0.211405;0.000000;,
  0.977399;-0.211405;-0.000000;,
  0.000000;-0.499997;-0.866027;,
  0.995138;0.098489;0.000000;,
  -0.995137;0.098497;0.000000;,
  -0.995137;0.098497;0.000000;,
  0.000000;0.302450;-0.953165;,
  -0.995137;0.098497;0.000000;,
  -0.995137;0.098497;0.000000;,
  0.000000;0.319634;0.947541;,
  0.000000;0.319634;0.947541;,
  -0.992953;0.118509;0.000000;,
  0.992952;0.118514;0.000000;,
  -0.997837;0.065736;0.000000;,
  0.997837;0.065730;0.000000;,
  0.992952;0.118514;0.000000;,
  -0.012145;-0.665387;-0.746400;,
  -0.011485;-0.249404;-0.968331;,
  0.887482;-0.445212;0.119005;,
  0.999958;-0.006139;-0.006879;,
  0.008271;-0.222035;0.975004;,
  0.011485;0.249391;0.968335;,
  -0.327303;-0.942147;-0.072338;,
  0.313027;-0.946611;-0.077080;,
  0.317878;-0.781185;0.537311;,
  -0.317863;-0.777774;0.542246;,
  -0.891037;-0.434450;0.131551;,
  -0.999958;0.006135;0.006879;,
  -0.003894;-0.960768;0.277324;,
  0.003975;0.962677;-0.270623;;
  457;
  4;0,1,9,8;,
  4;1,2,10,9;,
  4;2,3,11,10;,
  4;3,4,12,11;,
  4;4,5,13,12;,
  4;5,6,14,13;,
  4;6,7,15,14;,
  4;7,0,8,15;,
  4;17,18,1,0;,
  3;16,18,17;,
  4;18,19,2,1;,
  3;16,19,18;,
  4;19,20,3,2;,
  3;16,20,19;,
  4;20,21,4,3;,
  3;16,21,20;,
  4;21,22,5,4;,
  3;16,22,21;,
  4;22,23,6,5;,
  3;16,23,22;,
  4;23,24,7,6;,
  3;16,24,23;,
  4;24,17,0,7;,
  3;16,17,24;,
  4;26,25,25,26;,
  4;27,26,26,27;,
  4;28,27,27,28;,
  4;29,28,28,29;,
  4;30,29,29,30;,
  4;31,30,30,31;,
  4;32,31,31,32;,
  4;25,32,32,25;,
  4;34,33,33,34;,
  4;35,34,34,35;,
  4;36,35,35,36;,
  4;37,36,36,37;,
  4;38,37,37,38;,
  4;39,38,38,39;,
  4;40,39,39,40;,
  4;33,40,40,33;,
  4;42,41,41,42;,
  3;49,52,53;,
  4;43,42,42,43;,
  3;49,53,54;,
  4;44,43,43,44;,
  3;49,54,55;,
  4;45,44,44,45;,
  3;49,55,56;,
  4;46,45,45,46;,
  3;49,56,57;,
  4;47,46,46,47;,
  3;49,57,58;,
  4;48,47,47,48;,
  3;49,58,59;,
  4;41,48,48,41;,
  3;49,59,52;,
  3;50,50,50;,
  3;50,50,50;,
  3;50,50,50;,
  3;50,50,50;,
  3;50,50,50;,
  3;50,50,50;,
  4;50,50,50,50;,
  3;50,50,50;,
  4;50,50,50,50;,
  3;50,51,50;,
  3;50,51,50;,
  4;50,50,50,50;,
  3;50,50,50;,
  4;66,64,62,60;,
  4;61,63,65,67;,
  4;70,68,60,62;,
  4;69,71,63,61;,
  4;99,98,68,70;,
  4;84,85,71,69;,
  4;98,99,112,113;,
  4;75,77,65,63;,
  4;74,76,114,115;,
  4;79,73,61,67;,
  4;78,72,116,117;,
  4;83,75,63,71;,
  4;118,82,74,115;,
  4;73,81,69,61;,
  4;80,119,116,72;,
  4;112,99,82,118;,
  4;98,113,119,80;,
  3;85,83,71;,
  3;84,69,81;,
  4;93,94,76,74;,
  4;88,87,120,64;,
  4;121,122,87,88;,
  4;95,92,72,78;,
  4;86,89,66,123;,
  4;124,125,89,86;,
  4;97,93,74,82;,
  4;87,91,126,62;,
  4;122,127,91,87;,
  4;92,96,80,72;,
  4;90,86,60,128;,
  4;129,124,86,90;,
  3;99,91,127;,
  3;98,129,90;,
  4;102,100,64,66;,
  4;101,103,67,65;,
  4;130,131,132,133;,
  4;104,105,114,76;,
  4;134,101,65,77;,
  4;135,136,130,133;,
  4;107,106,78,117;,
  4;103,137,79,67;,
  4;138,139,132,131;,
  4;108,110,121,88;,
  4;100,108,88,64;,
  4;140,104,76,94;,
  4;141,141,130,136;,
  4;111,109,89,125;,
  4;106,142,95,78;,
  4;109,102,66,89;,
  4;143,143,138,131;,
  3;144,70,91;,
  3;99,97,82;,
  3;98,80,96;,
  3;145,90,68;,
  4;147,148,148,147;,
  4;149,149,149,149;,
  4;153,146,146,153;,
  4;154,154,155,155;,
  4;156,156,157,157;,
  4;150,150,155,155;,
  4;152,158,147,147;,
  4;151,151,156,156;,
  4;159,160,146,146;,
  4;150,150,152,160;,
  4;161,161,161,161;,
  4;165,165,201,201;,
  4;165,162,162,165;,
  4;166,166,163,163;,
  4;166,202,202,166;,
  4;167,167,203,203;,
  4;167,164,164,167;,
  4;204,204,168,168;,
  4;204,205,205,204;,
  4;162,162,162,162;,
  4;169,164,164,169;,
  4;168,168,168,168;,
  4;206,163,163,206;,
  4;170,162,162,170;,
  4;172,169,169,172;,
  4;171,168,168,171;,
  4;207,206,206,207;,
  4;208,208,208,208;,
  4;173,179,179,174;,
  4;180,180,180,175;,
  4;181,181,181,176;,
  4;182,182,182,177;,
  4;183,183,183,178;,
  4;209,209,209,209;,
  4;185,185,184,184;,
  4;186,186,185,185;,
  4;187,187,186,186;,
  4;188,188,187,187;,
  4;189,189,188,188;,
  4;184,184,189,189;,
  4;190,190,190,190;,
  3;171,171,171;,
  4;191,191,191,191;,
  3;171,171,171;,
  4;192,192,192,192;,
  3;171,171,171;,
  4;193,193,193,193;,
  3;171,171,171;,
  4;194,194,194,194;,
  3;171,171,171;,
  4;210,210,210,210;,
  3;171,171,171;,
  4;195,173,174,196;,
  4;196,174,175,197;,
  4;197,175,176,198;,
  4;198,176,177,199;,
  4;199,177,178,200;,
  4;200,178,173,195;,
  4;211,211,211,211;,
  4;215,215,289,289;,
  4;215,212,212,215;,
  4;216,216,213,213;,
  4;216,290,290,216;,
  4;217,217,291,291;,
  4;217,214,214,217;,
  4;292,292,218,218;,
  4;292,293,293,292;,
  4;212,212,212,212;,
  4;219,214,214,219;,
  4;218,218,218,218;,
  4;294,213,213,294;,
  4;220,212,212,220;,
  4;222,219,219,222;,
  4;221,218,218,221;,
  4;295,294,294,295;,
  4;296,296,296,296;,
  4;223,229,229,224;,
  4;230,230,230,225;,
  4;231,231,231,226;,
  4;232,232,232,227;,
  4;233,233,233,228;,
  4;297,297,297,297;,
  4;235,235,234,234;,
  4;236,236,235,235;,
  4;237,237,236,236;,
  4;238,238,237,237;,
  4;239,239,238,238;,
  4;234,234,239,239;,
  4;240,240,240,240;,
  3;221,221,221;,
  4;241,241,241,241;,
  3;221,221,221;,
  4;242,242,242,242;,
  3;221,221,221;,
  4;243,243,243,243;,
  3;221,221,221;,
  4;244,244,244,244;,
  3;221,221,221;,
  4;298,298,298,298;,
  3;221,221,221;,
  4;245,223,224,246;,
  4;246,224,225,247;,
  4;247,225,226,248;,
  4;248,226,227,249;,
  4;249,227,228,250;,
  4;250,228,223,245;,
  4;251,251,251,251;,
  4;255,299,299,255;,
  4;255,255,252,252;,
  4;256,253,253,256;,
  4;256,256,300,300;,
  4;257,301,301,257;,
  4;257,257,254,254;,
  4;302,258,258,302;,
  4;302,302,303,303;,
  4;252,252,252,252;,
  4;259,259,254,254;,
  4;258,258,258,258;,
  4;304,304,253,253;,
  4;220,220,252,252;,
  4;260,260,259,259;,
  4;221,221,258,258;,
  4;305,305,304,304;,
  4;306,306,306,306;,
  4;261,262,267,267;,
  4;268,263,268,268;,
  4;269,264,269,269;,
  4;270,265,270,270;,
  4;271,266,271,271;,
  4;307,307,307,307;,
  4;273,272,272,273;,
  4;274,273,273,274;,
  4;275,274,274,275;,
  4;276,275,275,276;,
  4;277,276,276,277;,
  4;272,277,277,272;,
  4;278,278,278,278;,
  3;221,221,221;,
  4;279,279,279,279;,
  3;221,221,221;,
  4;280,280,280,280;,
  3;221,221,221;,
  4;281,281,281,281;,
  3;221,221,221;,
  4;282,282,282,282;,
  3;221,221,221;,
  4;308,308,308,308;,
  3;221,221,221;,
  4;283,284,262,261;,
  4;284,285,263,262;,
  4;285,286,264,263;,
  4;286,287,265,264;,
  4;287,288,266,265;,
  4;288,283,261,266;,
  4;309,309,309,309;,
  4;313,349,349,313;,
  4;313,313,310,310;,
  4;314,311,311,314;,
  4;314,314,350,350;,
  4;315,351,351,315;,
  4;315,315,312,312;,
  4;352,316,316,352;,
  4;352,352,353,353;,
  4;310,310,310,310;,
  4;317,317,312,312;,
  4;316,316,316,316;,
  4;354,354,311,311;,
  4;318,318,310,310;,
  4;320,320,317,317;,
  4;319,319,316,316;,
  4;355,355,354,354;,
  4;356,356,356,356;,
  4;321,322,327,327;,
  4;328,323,328,328;,
  4;329,324,329,329;,
  4;330,325,330,330;,
  4;331,326,331,331;,
  4;357,357,357,357;,
  4;333,332,332,333;,
  4;334,333,333,334;,
  4;335,334,334,335;,
  4;336,335,335,336;,
  4;337,336,336,337;,
  4;332,337,337,332;,
  4;338,338,338,338;,
  3;319,319,319;,
  4;339,339,339,339;,
  3;319,319,319;,
  4;340,340,340,340;,
  3;319,319,319;,
  4;341,341,341,341;,
  3;319,319,319;,
  4;342,342,342,342;,
  3;319,319,319;,
  4;358,358,358,358;,
  3;319,319,319;,
  4;343,344,322,321;,
  4;344,345,323,322;,
  4;345,346,324,323;,
  4;346,347,325,324;,
  4;347,348,326,325;,
  4;348,343,321,326;,
  4;359,359,359,359;,
  4;360,360,360,360;,
  4;361,361,361,361;,
  4;409,409,409,409;,
  4;363,363,363,363;,
  4;376,376,376,376;,
  4;359,359,359,359;,
  4;362,362,362,362;,
  4;361,361,361,361;,
  4;410,410,410,410;,
  4;363,363,363,363;,
  4;376,376,376,376;,
  4;373,373,373,373;,
  4;363,363,363,363;,
  4;374,374,374,374;,
  4;375,375,375,375;,
  4;376,376,376,376;,
  4;411,411,411,411;,
  3;372,372,372;,
  3;372,372,372;,
  3;372,372,372;,
  3;372,372,372;,
  3;372,372,372;,
  3;372,372,372;,
  3;377,377,377;,
  3;377,377,377;,
  3;377,377,377;,
  3;377,377,377;,
  3;377,377,377;,
  3;377,377,377;,
  4;363,363,363,363;,
  4;383,412,412,365;,
  4;413,382,364,414;,
  4;359,359,359,359;,
  4;367,384,366,367;,
  4;370,369,369,368;,
  4;363,363,363,363;,
  4;359,359,359,359;,
  4;382,385,378,364;,
  4;386,383,365,379;,
  4;415,415,359,359;,
  4;369,388,381,369;,
  4;387,367,367,380;,
  4;415,415,359,359;,
  4;391,391,415,415;,
  4;377,377,386,379;,
  4;389,389,389,389;,
  4;372,372,378,385;,
  4;376,376,389,389;,
  4;391,391,415,415;,
  4;377,377,387,380;,
  4;390,390,390,390;,
  4;372,372,381,388;,
  4;376,376,390,390;,
  4;363,363,363,363;,
  4;393,416,417,364;,
  4;412,392,365,412;,
  4;361,361,361,361;,
  4;369,394,370,369;,
  4;371,367,367,371;,
  4;363,363,363,363;,
  4;361,361,361,361;,
  4;392,395,379,365;,
  4;396,393,364,378;,
  4;418,418,361,361;,
  4;367,387,380,367;,
  4;388,369,369,381;,
  4;419,419,361,361;,
  4;399,399,418,418;,
  4;372,372,396,378;,
  4;397,397,397,397;,
  4;377,377,379,395;,
  4;376,376,397,397;,
  4;400,400,419,419;,
  4;372,372,388,381;,
  4;398,398,398,398;,
  4;377,377,380,387;,
  4;376,376,398,398;,
  4;401,401,363,363;,
  4;420,368,369,369;,
  4;421,367,367,366;,
  4;369,369,381,402;,
  4;367,403,380,367;,
  4;376,390,390,376;,
  4;404,404,363,363;,
  4;422,414,364,364;,
  4;423,365,365,412;,
  4;364,364,378,405;,
  4;365,406,379,365;,
  4;376,389,389,376;,
  4;407,363,363,407;,
  4;420,420,369,369;,
  4;420,369,369,370;,
  4;424,371,367,367;,
  4;424,367,367,421;,
  4;369,369,402,402;,
  4;369,402,381,369;,
  4;367,367,380,403;,
  4;367,403,403,367;,
  4;376,376,376,376;,
  4;376,376,398,398;,
  4;408,363,363,408;,
  4;422,422,364,364;,
  4;422,364,364,417;,
  4;423,412,365,365;,
  4;423,365,365,423;,
  4;364,364,405,405;,
  4;364,405,378,364;,
  4;365,365,379,406;,
  4;365,406,406,365;,
  4;376,376,376,376;,
  4;376,376,397,397;,
  4;407,407,407,407;,
  4;377,377,424,421;,
  4;401,401,401,401;,
  4;372,372,420,420;,
  4;407,407,401,401;,
  4;408,408,408,408;,
  4;377,377,423,423;,
  4;404,404,404,404;,
  4;372,372,422,422;,
  4;408,408,404,404;,
  4;425,425,426,426;,
  4;427,427,428,428;,
  4;429,429,430,430;,
  4;435,435,436,436;,
  4;437,437,437,437;,
  4;433,434,429,429;,
  4;432,433,427,427;,
  4;431,432,425,425;,
  4;434,431,435,435;,
  4;438,438,438,438;;
 }
 MeshTextureCoords {
  736;
  0.000000;0.000000;,
  0.125000;0.000000;,
  0.125000;1.000000;,
  0.000000;1.000000;,
  0.250000;0.000000;,
  0.250000;1.000000;,
  0.375000;0.000000;,
  0.375000;1.000000;,
  0.500000;0.000000;,
  0.500000;1.000000;,
  0.625000;0.000000;,
  0.625000;1.000000;,
  0.750000;0.000000;,
  0.750000;1.000000;,
  0.875000;0.000000;,
  0.875000;1.000000;,
  1.000000;0.000000;,
  1.000000;1.000000;,
  0.000000;0.000000;,
  0.125000;0.000000;,
  0.062500;0.000000;,
  0.250000;0.000000;,
  0.187500;0.000000;,
  0.375000;0.000000;,
  0.312500;0.000000;,
  0.500000;0.000000;,
  0.437500;0.000000;,
  0.625000;0.000000;,
  0.562500;0.000000;,
  0.750000;0.000000;,
  0.687500;0.000000;,
  0.875000;0.000000;,
  0.812500;0.000000;,
  1.000000;0.000000;,
  0.937500;0.000000;,
  0.125000;1.000000;,
  0.000000;1.000000;,
  0.250000;1.000000;,
  0.375000;1.000000;,
  0.500000;1.000000;,
  0.625000;1.000000;,
  0.750000;1.000000;,
  0.875000;1.000000;,
  1.000000;1.000000;,
  0.125000;1.000000;,
  0.000000;1.000000;,
  0.250000;1.000000;,
  0.375000;1.000000;,
  0.500000;1.000000;,
  0.625000;1.000000;,
  0.750000;1.000000;,
  0.875000;1.000000;,
  1.000000;1.000000;,
  0.125000;1.000000;,
  0.000000;1.000000;,
  0.062500;1.000000;,
  0.250000;1.000000;,
  0.187500;1.000000;,
  0.375000;1.000000;,
  0.312500;1.000000;,
  0.500000;1.000000;,
  0.437500;1.000000;,
  0.625000;1.000000;,
  0.562500;1.000000;,
  0.750000;1.000000;,
  0.687500;1.000000;,
  0.875000;1.000000;,
  0.812500;1.000000;,
  1.000000;1.000000;,
  0.937500;1.000000;,
  0.000000;0.000000;,
  0.000000;0.000000;,
  0.000000;0.000000;,
  0.000000;0.000000;,
  0.000000;0.000000;,
  0.000000;0.000000;,
  0.000000;0.000000;,
  0.000000;0.000000;,
  0.000000;0.000000;,
  0.000000;0.000000;,
  0.000000;0.000000;,
  0.000000;0.000000;,
  0.000000;0.000000;,
  0.000000;0.000000;,
  0.000000;0.000000;,
  0.000000;0.000000;,
  0.000000;0.000000;,
  0.000000;0.000000;,
  0.000000;0.000000;,
  0.000000;0.000000;,
  0.000000;0.000000;,
  0.000000;0.000000;,
  0.000000;0.000000;,
  0.000000;0.000000;,
  0.000000;0.000000;,
  1.000000;0.000000;,
  1.000000;1.000000;,
  0.000000;1.000000;,
  0.000000;0.000000;,
  1.000000;0.000000;,
  1.000000;1.000000;,
  0.000000;1.000000;,
  1.000000;0.000000;,
  0.000000;0.000000;,
  0.000000;0.000000;,
  1.000000;0.000000;,
  0.000000;1.000000;,
  1.000000;1.000000;,
  1.000000;1.000000;,
  0.000000;1.000000;,
  1.000000;0.000000;,
  0.000000;0.000000;,
  0.000000;1.000000;,
  1.000000;1.000000;,
  0.000000;1.000000;,
  1.000000;1.000000;,
  0.000000;1.000000;,
  0.000000;0.000000;,
  1.000000;0.000000;,
  0.000000;1.000000;,
  1.000000;1.000000;,
  1.000000;1.000000;,
  0.000000;0.000000;,
  1.000000;0.000000;,
  1.000000;1.000000;,
  1.000000;1.000000;,
  1.000000;0.000000;,
  1.000000;0.000000;,
  0.000000;1.000000;,
  0.000000;1.000000;,
  0.000000;0.000000;,
  0.000000;0.000000;,
  0.000000;0.000000;,
  1.000000;0.000000;,
  1.000000;0.000000;,
  0.000000;0.000000;,
  0.000000;0.000000;,
  0.000000;0.000000;,
  1.000000;0.000000;,
  1.000000;0.000000;,
  0.000000;0.000000;,
  1.000000;0.000000;,
  1.000000;0.000000;,
  1.000000;0.000000;,
  1.000000;0.000000;,
  1.000000;0.000000;,
  0.000000;0.000000;,
  0.000000;0.000000;,
  0.000000;0.000000;,
  0.000000;0.000000;,
  1.000000;0.000000;,
  0.000000;0.000000;,
  0.000000;0.000000;,
  1.000000;0.000000;,
  0.000000;1.000000;,
  1.000000;1.000000;,
  1.000000;1.000000;,
  0.000000;1.000000;,
  1.000000;0.000000;,
  1.000000;1.000000;,
  1.000000;1.000000;,
  1.000000;0.000000;,
  0.000000;1.000000;,
  0.000000;0.000000;,
  0.000000;1.000000;,
  0.000000;0.000000;,
  1.000000;0.000000;,
  1.000000;0.000000;,
  0.000000;0.000000;,
  0.000000;0.000000;,
  0.000000;0.000000;,
  1.000000;0.000000;,
  1.000000;1.000000;,
  0.000000;1.000000;,
  0.000000;0.000000;,
  1.000000;0.000000;,
  1.000000;1.000000;,
  0.000000;1.000000;,
  0.000000;0.000000;,
  1.000000;0.000000;,
  1.000000;1.000000;,
  0.000000;1.000000;,
  1.000000;1.000000;,
  0.000000;1.000000;,
  0.000000;0.000000;,
  1.000000;0.000000;,
  1.000000;0.000000;,
  0.000000;0.000000;,
  0.000000;0.000000;,
  1.000000;0.000000;,
  1.000000;1.000000;,
  1.000000;1.000000;,
  0.000000;1.000000;,
  0.000000;1.000000;,
  0.000000;0.000000;,
  0.000000;1.000000;,
  1.000000;1.000000;,
  1.000000;0.000000;,
  0.170580;1.000000;,
  0.170580;0.000000;,
  0.000000;1.000000;,
  1.000000;1.000000;,
  1.000000;0.000000;,
  0.170580;0.000000;,
  0.170580;1.000000;,
  1.000000;1.000000;,
  1.000000;0.000000;,
  0.000000;0.000000;,
  0.000000;1.000000;,
  0.829420;0.000000;,
  0.829420;1.000000;,
  1.000000;1.000000;,
  1.000000;0.000000;,
  0.000000;0.000000;,
  0.000000;1.000000;,
  0.170580;0.000000;,
  0.170580;1.000000;,
  1.000000;1.000000;,
  1.000000;0.000000;,
  0.000000;0.000000;,
  1.000000;0.000000;,
  0.000000;0.000000;,
  0.000000;0.000000;,
  1.000000;1.000000;,
  0.000000;1.000000;,
  0.000000;1.000000;,
  1.000000;0.000000;,
  0.000000;0.000000;,
  1.000000;1.000000;,
  0.000000;1.000000;,
  0.000000;0.000000;,
  0.000000;1.000000;,
  0.166670;1.000000;,
  0.166670;0.000000;,
  0.333330;1.000000;,
  0.333330;0.000000;,
  0.500000;1.000000;,
  0.500000;0.000000;,
  0.666670;1.000000;,
  0.666670;0.000000;,
  0.833330;1.000000;,
  0.833330;0.000000;,
  1.000000;1.000000;,
  1.000000;0.000000;,
  0.166670;1.000000;,
  0.000000;1.000000;,
  0.333330;1.000000;,
  0.500000;1.000000;,
  0.666670;1.000000;,
  0.833330;1.000000;,
  1.000000;1.000000;,
  0.166670;1.000000;,
  0.000000;1.000000;,
  0.083330;1.000000;,
  0.333330;1.000000;,
  0.250000;1.000000;,
  0.500000;1.000000;,
  0.416670;1.000000;,
  0.666670;1.000000;,
  0.583330;1.000000;,
  0.833330;1.000000;,
  0.750000;1.000000;,
  1.000000;1.000000;,
  0.916670;1.000000;,
  0.000000;0.000000;,
  0.166670;0.000000;,
  0.333330;0.000000;,
  0.500000;0.000000;,
  0.666670;0.000000;,
  0.833330;0.000000;,
  1.000000;0.000000;,
  0.000000;0.000000;,
  0.000000;1.000000;,
  1.000000;1.000000;,
  1.000000;0.000000;,
  0.170580;1.000000;,
  0.170580;0.000000;,
  0.000000;1.000000;,
  1.000000;1.000000;,
  1.000000;0.000000;,
  0.170580;0.000000;,
  0.170580;1.000000;,
  1.000000;1.000000;,
  1.000000;0.000000;,
  0.000000;0.000000;,
  0.000000;1.000000;,
  0.829420;0.000000;,
  0.829420;1.000000;,
  1.000000;1.000000;,
  1.000000;0.000000;,
  0.000000;0.000000;,
  0.000000;1.000000;,
  0.170580;0.000000;,
  0.170580;1.000000;,
  1.000000;1.000000;,
  1.000000;0.000000;,
  0.000000;0.000000;,
  1.000000;0.000000;,
  0.000000;0.000000;,
  0.000000;0.000000;,
  1.000000;1.000000;,
  0.000000;1.000000;,
  0.000000;1.000000;,
  1.000000;0.000000;,
  0.000000;0.000000;,
  1.000000;1.000000;,
  0.000000;1.000000;,
  0.000000;0.000000;,
  0.000000;1.000000;,
  0.166670;1.000000;,
  0.166670;0.000000;,
  0.333330;1.000000;,
  0.333330;0.000000;,
  0.500000;1.000000;,
  0.500000;0.000000;,
  0.666670;1.000000;,
  0.666670;0.000000;,
  0.833330;1.000000;,
  0.833330;0.000000;,
  1.000000;1.000000;,
  1.000000;0.000000;,
  0.166670;1.000000;,
  0.000000;1.000000;,
  0.333330;1.000000;,
  0.500000;1.000000;,
  0.666670;1.000000;,
  0.833330;1.000000;,
  1.000000;1.000000;,
  0.166670;1.000000;,
  0.000000;1.000000;,
  0.083330;1.000000;,
  0.333330;1.000000;,
  0.250000;1.000000;,
  0.500000;1.000000;,
  0.416670;1.000000;,
  0.666670;1.000000;,
  0.583330;1.000000;,
  0.833330;1.000000;,
  0.750000;1.000000;,
  1.000000;1.000000;,
  0.916670;1.000000;,
  0.000000;0.000000;,
  0.166670;0.000000;,
  0.333330;0.000000;,
  0.500000;0.000000;,
  0.666670;0.000000;,
  0.833330;0.000000;,
  1.000000;0.000000;,
  0.000000;0.000000;,
  1.000000;0.000000;,
  1.000000;1.000000;,
  0.000000;1.000000;,
  0.170580;1.000000;,
  0.000000;1.000000;,
  0.170580;0.000000;,
  1.000000;0.000000;,
  1.000000;1.000000;,
  0.170580;0.000000;,
  1.000000;0.000000;,
  1.000000;1.000000;,
  0.170580;1.000000;,
  0.000000;1.000000;,
  0.000000;0.000000;,
  0.829420;0.000000;,
  1.000000;0.000000;,
  1.000000;1.000000;,
  0.829420;1.000000;,
  0.000000;1.000000;,
  0.000000;0.000000;,
  0.170580;0.000000;,
  1.000000;0.000000;,
  1.000000;1.000000;,
  0.170580;1.000000;,
  0.000000;0.000000;,
  1.000000;0.000000;,
  0.000000;0.000000;,
  0.000000;0.000000;,
  1.000000;1.000000;,
  0.000000;1.000000;,
  0.000000;1.000000;,
  1.000000;0.000000;,
  0.000000;0.000000;,
  1.000000;1.000000;,
  0.000000;1.000000;,
  0.000000;0.000000;,
  0.166670;0.000000;,
  0.166670;1.000000;,
  0.000000;1.000000;,
  0.333330;0.000000;,
  0.333330;1.000000;,
  0.500000;0.000000;,
  0.500000;1.000000;,
  0.666670;0.000000;,
  0.666670;1.000000;,
  0.833330;0.000000;,
  0.833330;1.000000;,
  1.000000;0.000000;,
  1.000000;1.000000;,
  0.166670;1.000000;,
  0.000000;1.000000;,
  0.333330;1.000000;,
  0.500000;1.000000;,
  0.666670;1.000000;,
  0.833330;1.000000;,
  1.000000;1.000000;,
  0.166670;1.000000;,
  0.000000;1.000000;,
  0.083330;1.000000;,
  0.333330;1.000000;,
  0.250000;1.000000;,
  0.500000;1.000000;,
  0.416670;1.000000;,
  0.666670;1.000000;,
  0.583330;1.000000;,
  0.833330;1.000000;,
  0.750000;1.000000;,
  1.000000;1.000000;,
  0.916670;1.000000;,
  0.000000;0.000000;,
  0.166670;0.000000;,
  0.333330;0.000000;,
  0.500000;0.000000;,
  0.666670;0.000000;,
  0.833330;0.000000;,
  1.000000;0.000000;,
  0.000000;0.000000;,
  1.000000;0.000000;,
  1.000000;1.000000;,
  0.000000;1.000000;,
  0.170580;1.000000;,
  0.000000;1.000000;,
  0.170580;0.000000;,
  1.000000;0.000000;,
  1.000000;1.000000;,
  0.170580;0.000000;,
  1.000000;0.000000;,
  1.000000;1.000000;,
  0.170580;1.000000;,
  0.000000;1.000000;,
  0.000000;0.000000;,
  0.829420;0.000000;,
  1.000000;0.000000;,
  1.000000;1.000000;,
  0.829420;1.000000;,
  0.000000;1.000000;,
  0.000000;0.000000;,
  0.170580;0.000000;,
  1.000000;0.000000;,
  1.000000;1.000000;,
  0.170580;1.000000;,
  0.000000;0.000000;,
  1.000000;0.000000;,
  0.000000;0.000000;,
  0.000000;0.000000;,
  1.000000;1.000000;,
  0.000000;1.000000;,
  0.000000;1.000000;,
  1.000000;0.000000;,
  0.000000;0.000000;,
  1.000000;1.000000;,
  0.000000;1.000000;,
  0.000000;0.000000;,
  0.166670;0.000000;,
  0.166670;1.000000;,
  0.000000;1.000000;,
  0.333330;0.000000;,
  0.333330;1.000000;,
  0.500000;0.000000;,
  0.500000;1.000000;,
  0.666670;0.000000;,
  0.666670;1.000000;,
  0.833330;0.000000;,
  0.833330;1.000000;,
  1.000000;0.000000;,
  1.000000;1.000000;,
  0.166670;1.000000;,
  0.000000;1.000000;,
  0.333330;1.000000;,
  0.500000;1.000000;,
  0.666670;1.000000;,
  0.833330;1.000000;,
  1.000000;1.000000;,
  0.166670;1.000000;,
  0.000000;1.000000;,
  0.083330;1.000000;,
  0.333330;1.000000;,
  0.250000;1.000000;,
  0.500000;1.000000;,
  0.416670;1.000000;,
  0.666670;1.000000;,
  0.583330;1.000000;,
  0.833330;1.000000;,
  0.750000;1.000000;,
  1.000000;1.000000;,
  0.916670;1.000000;,
  0.000000;0.000000;,
  0.166670;0.000000;,
  0.333330;0.000000;,
  0.500000;0.000000;,
  0.666670;0.000000;,
  0.833330;0.000000;,
  1.000000;0.000000;,
  0.000000;0.000000;,
  1.000000;0.000000;,
  1.000000;1.000000;,
  0.000000;1.000000;,
  0.000000;0.000000;,
  1.000000;0.000000;,
  1.000000;1.000000;,
  0.000000;1.000000;,
  0.000000;0.000000;,
  1.000000;0.000000;,
  1.000000;1.000000;,
  0.000000;1.000000;,
  0.000000;0.000000;,
  1.000000;0.000000;,
  1.000000;1.000000;,
  0.000000;1.000000;,
  1.000000;1.000000;,
  0.000000;1.000000;,
  0.000000;0.000000;,
  1.000000;0.000000;,
  0.000000;0.000000;,
  0.000000;1.000000;,
  1.000000;1.000000;,
  1.000000;0.000000;,
  0.000000;0.000000;,
  0.000000;1.000000;,
  1.000000;1.000000;,
  1.000000;0.000000;,
  0.000000;0.000000;,
  0.000000;1.000000;,
  1.000000;1.000000;,
  1.000000;0.000000;,
  0.000000;0.000000;,
  0.000000;1.000000;,
  1.000000;1.000000;,
  1.000000;0.000000;,
  0.000000;1.000000;,
  1.000000;1.000000;,
  0.000000;0.000000;,
  1.000000;0.000000;,
  0.000000;0.000000;,
  0.166670;0.000000;,
  0.166670;1.000000;,
  0.000000;1.000000;,
  0.333330;0.000000;,
  0.333330;1.000000;,
  0.500000;0.000000;,
  0.500000;1.000000;,
  0.666670;0.000000;,
  0.666670;1.000000;,
  0.833330;0.000000;,
  0.833330;1.000000;,
  1.000000;0.000000;,
  1.000000;1.000000;,
  0.083330;0.000000;,
  0.250000;0.000000;,
  0.416670;0.000000;,
  0.583330;0.000000;,
  0.750000;0.000000;,
  0.916670;0.000000;,
  0.083330;1.000000;,
  0.250000;1.000000;,
  0.416670;1.000000;,
  0.583330;1.000000;,
  0.750000;1.000000;,
  0.916670;1.000000;,
  1.000000;0.000000;,
  0.000000;0.000000;,
  0.000000;0.000000;,
  1.000000;0.000000;,
  1.000000;1.000000;,
  1.000000;1.000000;,
  0.000000;1.000000;,
  0.000000;1.000000;,
  0.000000;1.000000;,
  0.000000;0.000000;,
  0.000000;0.000000;,
  0.000000;1.000000;,
  1.000000;0.000000;,
  1.000000;1.000000;,
  1.000000;1.000000;,
  1.000000;0.000000;,
  0.000000;0.000000;,
  0.000000;0.000000;,
  0.000000;0.000000;,
  0.000000;0.000000;,
  1.000000;0.000000;,
  1.000000;0.000000;,
  1.000000;0.000000;,
  1.000000;0.000000;,
  1.000000;0.000000;,
  1.000000;0.000000;,
  1.000000;0.000000;,
  1.000000;0.000000;,
  0.000000;0.000000;,
  0.000000;0.000000;,
  0.000000;0.000000;,
  0.000000;0.000000;,
  1.000000;0.000000;,
  0.000000;0.000000;,
  1.000000;0.000000;,
  0.000000;0.000000;,
  0.000000;0.000000;,
  1.000000;0.000000;,
  0.000000;0.000000;,
  1.000000;0.000000;,
  1.000000;0.000000;,
  0.000000;0.000000;,
  0.000000;0.000000;,
  1.000000;0.000000;,
  1.000000;1.000000;,
  1.000000;1.000000;,
  0.000000;1.000000;,
  0.000000;1.000000;,
  0.000000;1.000000;,
  0.000000;0.000000;,
  0.000000;0.000000;,
  0.000000;1.000000;,
  1.000000;0.000000;,
  1.000000;1.000000;,
  1.000000;1.000000;,
  1.000000;0.000000;,
  1.000000;1.000000;,
  1.000000;1.000000;,
  1.000000;1.000000;,
  1.000000;1.000000;,
  0.000000;1.000000;,
  0.000000;1.000000;,
  0.000000;1.000000;,
  0.000000;1.000000;,
  0.000000;1.000000;,
  0.000000;1.000000;,
  0.000000;1.000000;,
  0.000000;1.000000;,
  1.000000;1.000000;,
  1.000000;1.000000;,
  1.000000;1.000000;,
  1.000000;1.000000;,
  0.000000;1.000000;,
  1.000000;1.000000;,
  0.000000;1.000000;,
  1.000000;1.000000;,
  1.000000;1.000000;,
  0.000000;1.000000;,
  1.000000;1.000000;,
  0.000000;1.000000;,
  1.000000;0.574550;,
  0.000000;0.574550;,
  0.000000;1.000000;,
  1.000000;1.000000;,
  0.425450;0.000000;,
  0.000000;0.000000;,
  0.000000;1.000000;,
  0.425450;1.000000;,
  0.574550;0.000000;,
  0.574550;1.000000;,
  1.000000;1.000000;,
  1.000000;0.000000;,
  1.000000;0.425450;,
  1.000000;0.425450;,
  0.000000;0.425450;,
  0.000000;0.425450;,
  0.000000;0.572260;,
  1.000000;0.572260;,
  1.000000;1.000000;,
  0.000000;1.000000;,
  0.572260;0.000000;,
  1.000000;0.000000;,
  1.000000;1.000000;,
  0.572260;1.000000;,
  0.427740;0.000000;,
  0.427740;1.000000;,
  0.000000;1.000000;,
  0.000000;0.000000;,
  0.000000;0.427740;,
  0.000000;0.427740;,
  1.000000;0.427740;,
  1.000000;0.427740;,
  1.000000;0.432950;,
  1.000000;0.000000;,
  0.000000;0.000000;,
  0.000000;0.432950;,
  0.567050;0.000000;,
  0.567050;1.000000;,
  0.432950;0.000000;,
  0.432950;1.000000;,
  1.000000;0.567050;,
  1.000000;0.567050;,
  0.000000;0.567050;,
  0.000000;0.567050;,
  0.000000;0.424490;,
  0.000000;0.000000;,
  1.000000;0.000000;,
  1.000000;0.424490;,
  0.424490;0.000000;,
  0.424490;1.000000;,
  0.575510;0.000000;,
  0.575510;1.000000;,
  0.000000;0.575510;,
  0.000000;0.575510;,
  1.000000;0.575510;,
  1.000000;0.575510;,
  0.000000;0.432950;,
  1.000000;0.432950;,
  0.000000;0.574550;,
  1.000000;0.574550;,
  1.000000;0.424490;,
  0.000000;0.424490;,
  1.000000;0.572260;,
  0.000000;0.572260;,
  0.000000;0.000000;,
  1.000000;0.000000;,
  1.000000;1.000000;,
  0.000000;1.000000;,
  0.000000;0.000000;,
  1.000000;0.000000;,
  1.000000;1.000000;,
  0.000000;1.000000;,
  0.000000;0.000000;,
  1.000000;0.000000;,
  1.000000;1.000000;,
  0.000000;1.000000;,
  0.000000;0.000000;,
  1.000000;0.000000;,
  1.000000;1.000000;,
  0.000000;1.000000;,
  0.000000;0.000000;,
  1.000000;0.000000;,
  1.000000;0.000000;,
  0.000000;0.000000;,
  1.000000;1.000000;,
  1.000000;1.000000;,
  0.000000;1.000000;,
  0.000000;1.000000;;
 }
}
