xof 0302txt 0064
template Header {
 <3D82AB43-62DA-11cf-AB39-0020AF71E433>
 WORD major;
 WORD minor;
 DWORD flags;
}

template Vector {
 <3D82AB5E-62DA-11cf-AB39-0020AF71E433>
 FLOAT x;
 FLOAT y;
 FLOAT z;
}

template Coords2d {
 <F6F23F44-7686-11cf-8F52-0040333594A3>
 FLOAT u;
 FLOAT v;
}

template Matrix4x4 {
 <F6F23F45-7686-11cf-8F52-0040333594A3>
 array FLOAT matrix[16];
}

template ColorRGBA {
 <35FF44E0-6C7C-11cf-8F52-0040333594A3>
 FLOAT red;
 FLOAT green;
 FLOAT blue;
 FLOAT alpha;
}

template ColorRGB {
 <D3E16E81-7835-11cf-8F52-0040333594A3>
 FLOAT red;
 FLOAT green;
 FLOAT blue;
}

template IndexedColor {
 <1630B820-7842-11cf-8F52-0040333594A3>
 DWORD index;
 ColorRGBA indexColor;
}

template Boolean {
 <4885AE61-78E8-11cf-8F52-0040333594A3>
 WORD truefalse;
}

template Boolean2d {
 <4885AE63-78E8-11cf-8F52-0040333594A3>
 Boolean u;
 Boolean v;
}

template MaterialWrap {
 <4885AE60-78E8-11cf-8F52-0040333594A3>
 Boolean u;
 Boolean v;
}

template TextureFilename {
 <A42790E1-7810-11cf-8F52-0040333594A3>
 STRING filename;
}

template Material {
 <3D82AB4D-62DA-11cf-AB39-0020AF71E433>
 ColorRGBA faceColor;
 FLOAT power;
 ColorRGB specularColor;
 ColorRGB emissiveColor;
 [...]
}

template MeshFace {
 <3D82AB5F-62DA-11cf-AB39-0020AF71E433>
 DWORD nFaceVertexIndices;
 array DWORD faceVertexIndices[nFaceVertexIndices];
}

template MeshFaceWraps {
 <4885AE62-78E8-11cf-8F52-0040333594A3>
 DWORD nFaceWrapValues;
 Boolean2d faceWrapValues;
}

template MeshTextureCoords {
 <F6F23F40-7686-11cf-8F52-0040333594A3>
 DWORD nTextureCoords;
 array Coords2d textureCoords[nTextureCoords];
}

template MeshMaterialList {
 <F6F23F42-7686-11cf-8F52-0040333594A3>
 DWORD nMaterials;
 DWORD nFaceIndexes;
 array DWORD faceIndexes[nFaceIndexes];
 [Material]
}

template MeshNormals {
 <F6F23F43-7686-11cf-8F52-0040333594A3>
 DWORD nNormals;
 array Vector normals[nNormals];
 DWORD nFaceNormals;
 array MeshFace faceNormals[nFaceNormals];
}

template MeshVertexColors {
 <1630B821-7842-11cf-8F52-0040333594A3>
 DWORD nVertexColors;
 array IndexedColor vertexColors[nVertexColors];
}

template Mesh {
 <3D82AB44-62DA-11cf-AB39-0020AF71E433>
 DWORD nVertices;
 array Vector vertices[nVertices];
 DWORD nFaces;
 array MeshFace faces[nFaces];
 [...]
}

Header{
1;
0;
1;
}

Mesh {
 770;
 -2.08069;8.26293;-9.88831;,
 -2.08069;8.27332;-9.88831;,
 2.05505;8.27332;-9.88831;,
 2.05505;8.26293;-9.88831;,
 2.05505;8.25409;-9.88831;,
 -2.08069;8.25409;-9.88831;,
 -2.08069;8.26293;9.91312;,
 -2.08069;8.26975;9.91312;,
 2.05505;8.26975;9.91312;,
 2.05505;8.26293;9.91312;,
 2.05505;8.27140;9.91312;,
 -2.08069;8.27140;9.91312;,
 -2.08070;9.47998;-6.25651;,
 2.05506;9.47998;-6.25651;,
 -2.08070;8.26293;-6.25651;,
 2.05506;8.26293;-6.25651;,
 -2.08070;7.04244;-6.25651;,
 2.05506;7.04244;-6.25651;,
 -2.08069;9.47998;0.00104;,
 2.05505;9.47998;0.00104;,
 -2.08069;8.26293;0.00104;,
 2.05505;8.26293;0.00104;,
 -2.08069;7.04244;0.00104;,
 2.05505;7.04244;0.00104;,
 -2.08069;9.47998;6.23215;,
 2.05505;9.47998;6.23215;,
 -2.08069;8.26293;6.23215;,
 2.05505;8.26293;6.23215;,
 -2.08069;7.04244;6.23215;,
 2.05505;7.04244;6.23215;,
 -5.56598;7.06867;8.46096;,
 -8.46137;7.06867;5.56557;,
 -8.46137;4.98022;5.56557;,
 -5.56598;4.98022;8.46096;,
 5.54034;7.06867;-8.43615;,
 5.54034;4.98022;-8.43615;,
 8.43573;7.06867;-5.54076;,
 8.43573;4.98022;-5.54076;,
 8.43573;7.06867;5.56557;,
 5.54034;7.06867;8.46096;,
 5.54034;4.98022;8.46096;,
 8.43573;4.98022;5.56557;,
 -8.46137;7.06867;-5.54076;,
 -8.46137;4.98022;-5.54076;,
 -5.56598;7.06867;-8.43615;,
 -5.56598;4.98022;-8.43615;,
 -6.74497;9.87401;7.28681;,
 -7.29405;9.87401;6.72805;,
 -7.29405;7.07115;6.72805;,
 -6.74497;7.07115;7.28681;,
 -7.28722;9.87401;5.94469;,
 -7.28722;7.07115;5.94469;,
 -6.72846;9.87401;5.39560;,
 -6.72846;7.07115;5.39560;,
 -5.94511;9.87401;5.40244;,
 -5.94511;7.07115;5.40244;,
 -5.39602;9.87401;5.96119;,
 -5.39602;7.07115;5.96119;,
 -5.40285;9.87401;6.74456;,
 -5.40285;7.07115;6.74456;,
 -5.96161;9.87401;7.29364;,
 -5.96161;7.07115;7.29364;,
 -6.34504;9.87401;6.34462;,
 -6.34504;7.07115;6.34462;,
 5.91594;9.87401;-5.37410;,
 5.36685;9.87401;-5.93285;,
 5.36685;7.07115;-5.93285;,
 5.91594;7.07115;-5.37410;,
 5.37369;9.87401;-6.71622;,
 5.37369;7.07115;-6.71622;,
 5.93244;9.87401;-7.26530;,
 5.93244;7.07115;-7.26530;,
 6.71580;9.87401;-7.25847;,
 6.71580;7.07115;-7.25847;,
 7.26489;9.87401;-6.69971;,
 7.26489;7.07115;-6.69971;,
 7.25805;9.87401;-5.91635;,
 7.25805;7.07115;-5.91635;,
 6.69930;9.87401;-5.36727;,
 6.69930;7.07115;-5.36727;,
 6.31587;9.87401;-6.31628;,
 6.31587;7.07115;-6.31628;,
 -6.74202;9.87401;-5.36655;,
 -7.29111;9.87401;-5.92530;,
 -7.29111;7.07115;-5.92530;,
 -6.74202;7.07115;-5.36655;,
 -7.28427;9.87401;-6.70866;,
 -7.28427;7.07115;-6.70866;,
 -6.72552;9.87401;-7.25775;,
 -6.72552;7.07115;-7.25775;,
 -5.94216;9.87401;-7.25092;,
 -5.94216;7.07115;-7.25092;,
 -5.39306;9.87401;-6.69216;,
 -5.39306;7.07115;-6.69216;,
 -5.39991;9.87401;-5.90880;,
 -5.39991;7.07115;-5.90880;,
 -5.95866;9.87401;-5.35971;,
 -5.95866;7.07115;-5.35971;,
 -6.34209;9.87401;-6.30873;,
 -6.34209;7.07115;-6.30873;,
 -7.28521;9.96308;4.10664;,
 -7.31974;10.17640;4.02531;,
 -8.66178;10.17640;5.39097;,
 -8.57986;9.96308;5.42407;,
 -7.40308;10.26475;3.82895;,
 -8.85956;10.26475;5.31107;,
 -7.48644;10.17640;3.63259;,
 -9.05733;10.17640;5.23116;,
 -7.52095;9.96308;3.55126;,
 -9.13926;9.96308;5.19806;,
 -7.48644;9.74977;3.63259;,
 -9.05733;9.74977;5.23116;,
 -7.40308;9.66142;3.82895;,
 -8.85956;9.66142;5.31107;,
 -7.31974;9.74977;4.02531;,
 -8.66178;9.74977;5.39097;,
 -8.64506;10.17640;7.30561;,
 -8.56373;9.96308;7.27110;,
 -8.84143;10.26475;7.38897;,
 -9.03779;10.17640;7.47232;,
 -9.11911;9.96308;7.50683;,
 -9.03779;9.74977;7.47232;,
 -8.84143;9.66142;7.38897;,
 -8.64506;9.74977;7.30561;,
 -7.27940;10.17640;8.64766;,
 -7.24630;9.96308;8.56574;,
 -7.35931;10.26475;8.84545;,
 -7.43921;10.17640;9.04322;,
 -7.47232;9.96308;9.12515;,
 -7.43921;9.74977;9.04322;,
 -7.35931;9.66142;8.84545;,
 -7.27940;9.74977;8.64766;,
 -5.36476;10.17640;8.63095;,
 -5.39928;9.96308;8.54962;,
 -5.28140;10.26475;8.82731;,
 -5.19806;10.17640;9.02367;,
 -5.16354;9.96308;9.10500;,
 -5.19806;9.74977;9.02367;,
 -5.28140;9.66142;8.82731;,
 -5.36476;9.74977;8.63095;,
 -4.02271;10.17640;7.26528;,
 -4.10463;9.96308;7.23218;,
 -3.82493;10.26475;7.34519;,
 -3.62716;10.17640;7.42510;,
 -3.54523;9.96308;7.45820;,
 -3.62716;9.74977;7.42510;,
 -3.82493;9.66142;7.34519;,
 -4.02271;9.74977;7.26528;,
 -4.03943;10.17640;5.35064;,
 -4.12076;9.96308;5.38516;,
 -3.84306;10.26475;5.26728;,
 -3.64671;10.17640;5.18394;,
 -3.56538;9.96308;5.14942;,
 -3.64671;9.74977;5.18394;,
 -3.84306;9.66142;5.26728;,
 -4.03943;9.74977;5.35064;,
 -5.40509;10.17640;4.00859;,
 -5.43820;9.96308;4.09052;,
 -5.32518;10.26475;3.81081;,
 -5.24528;10.17640;3.61304;,
 -5.21218;9.96308;3.53111;,
 -5.24528;9.74977;3.61304;,
 -5.32518;9.66142;3.81081;,
 -5.40509;9.74977;4.00859;,
 -6.36299;10.19283;8.72228;,
 -6.18325;10.11837;8.72227;,
 -6.18325;10.11837;4.04400;,
 -6.36299;10.19283;4.04399;,
 -6.10879;9.93862;8.72227;,
 -6.10880;9.93862;4.04399;,
 -6.18325;9.75889;8.72227;,
 -6.18325;9.75889;4.04400;,
 -6.36299;9.68444;8.72228;,
 -6.36299;9.68444;4.04399;,
 -6.54273;9.75889;8.72227;,
 -6.54273;9.75889;4.04400;,
 -6.61718;9.93862;8.72228;,
 -6.61718;9.93862;4.04399;,
 -6.54273;10.11837;8.72227;,
 -6.54273;10.11837;4.04400;,
 -6.36299;9.93862;8.72228;,
 -6.36299;9.93862;4.04399;,
 -4.70897;10.19283;4.72911;,
 -4.83607;10.11837;4.60201;,
 -8.14411;10.11837;7.91005;,
 -8.01701;10.19283;8.03715;,
 -4.88871;9.93862;4.54937;,
 -8.19675;9.93862;7.85741;,
 -4.83607;9.75889;4.60201;,
 -8.14411;9.75889;7.91005;,
 -4.70897;9.68444;4.72911;,
 -8.01701;9.68444;8.03715;,
 -4.58187;9.75889;4.85621;,
 -7.88991;9.75889;8.16425;,
 -4.52922;9.93862;4.90885;,
 -7.83727;9.93862;8.21689;,
 -4.58187;10.11837;4.85621;,
 -7.88991;10.11837;8.16425;,
 -4.70897;9.93862;4.72911;,
 -8.01701;9.93862;8.03715;,
 -8.01701;10.19283;4.72911;,
 -8.14411;10.11837;4.85620;,
 -4.83607;10.11837;8.16424;,
 -4.70897;10.19283;8.03715;,
 -8.19676;9.93862;4.90885;,
 -4.88872;9.93862;8.21690;,
 -8.14411;9.75889;4.85620;,
 -4.83607;9.75889;8.16424;,
 -8.01701;9.68444;4.72911;,
 -4.70897;9.68444;8.03715;,
 -7.88992;9.75889;4.60201;,
 -4.58188;9.75889;7.91005;,
 -7.83727;9.93862;4.54937;,
 -4.52923;9.93862;7.85741;,
 -7.88992;10.11837;4.60201;,
 -4.58188;10.11837;7.91005;,
 -8.01701;9.93862;4.72911;,
 -4.70897;9.93862;8.03715;,
 -8.70214;10.19283;6.38313;,
 -8.70213;10.11837;6.56287;,
 -4.02385;10.11837;6.56287;,
 -4.02385;10.19283;6.38313;,
 -8.70214;9.93862;6.63732;,
 -4.02385;9.93862;6.63732;,
 -8.70213;9.75889;6.56287;,
 -4.02385;9.75889;6.56287;,
 -8.70214;9.68444;6.38313;,
 -4.02385;9.68444;6.38313;,
 -8.70213;9.75889;6.20339;,
 -4.02386;9.75889;6.20339;,
 -8.70213;9.93862;6.12894;,
 -4.02386;9.93862;6.12894;,
 -8.70213;10.11837;6.20339;,
 -4.02386;10.11837;6.20339;,
 -8.70214;9.93862;6.38313;,
 -4.02385;9.93862;6.38313;,
 5.40962;9.96308;-8.56540;,
 5.37653;10.17640;-8.64733;,
 4.01084;10.17640;-7.30529;,
 4.09218;9.96308;-7.27076;,
 5.29661;10.26475;-8.84510;,
 3.81449;10.26475;-7.38863;,
 5.21670;10.17640;-9.04289;,
 3.61814;10.17640;-7.47198;,
 5.18361;9.96308;-9.12481;,
 3.53681;9.96308;-7.50651;,
 5.21670;9.74977;-9.04289;,
 3.61814;9.74977;-7.47198;,
 5.29661;9.66142;-8.84510;,
 3.81449;9.66142;-7.38863;,
 5.37653;9.74977;-8.64733;,
 4.01084;9.74977;-7.30529;,
 3.99414;10.17640;-5.39064;,
 4.07606;9.96308;-5.42374;,
 3.79636;10.26475;-5.31073;,
 3.59857;10.17640;-5.23082;,
 3.51666;9.96308;-5.19773;,
 3.59857;9.74977;-5.23082;,
 3.79636;9.66142;-5.31073;,
 3.99414;9.74977;-5.39064;,
 5.33617;10.17640;-4.02496;,
 5.37071;9.96308;-4.10629;,
 5.25282;10.26475;-3.82860;,
 5.16949;10.17640;-3.63226;,
 5.13496;9.96308;-3.55092;,
 5.16949;9.74977;-3.63226;,
 5.25282;9.66142;-3.82860;,
 5.33617;9.74977;-4.02496;,
 7.25083;10.17640;-4.00825;,
 7.21773;9.96308;-4.09018;,
 7.33074;10.26475;-3.81048;,
 7.41065;10.17640;-3.61270;,
 7.44374;9.96308;-3.53077;,
 7.41065;9.74977;-3.61270;,
 7.33074;9.66142;-3.81048;,
 7.25083;9.74977;-4.00825;,
 8.61650;10.17640;-5.35030;,
 8.53517;9.96308;-5.38482;,
 8.81285;10.26475;-5.26695;,
 9.00920;10.17640;-5.18360;,
 9.09054;9.96308;-5.14908;,
 9.00920;9.74977;-5.18360;,
 8.81285;9.66142;-5.26695;,
 8.61650;9.74977;-5.35030;,
 8.63320;10.17640;-7.26494;,
 8.55128;9.96308;-7.23184;,
 8.83099;10.26475;-7.34486;,
 9.02877;10.17640;-7.42476;,
 9.11069;9.96308;-7.45786;,
 9.02877;9.74977;-7.42476;,
 8.83099;9.66142;-7.34486;,
 8.63320;9.74977;-7.26494;,
 7.29117;10.17640;-8.63062;,
 7.25665;9.96308;-8.54928;,
 7.37452;10.26475;-8.82698;,
 7.45786;10.17640;-9.02332;,
 7.49239;9.96308;-9.10467;,
 7.45786;9.74977;-9.02332;,
 7.37452;9.66142;-8.82698;,
 7.29117;9.74977;-8.63062;,
 6.25115;10.19283;-3.93437;,
 6.43085;10.11837;-3.93124;,
 6.51251;10.11837;-8.60880;,
 6.33279;10.19283;-8.61194;,
 6.50530;9.93862;-3.92993;,
 6.58695;9.93862;-8.60751;,
 6.43085;9.75889;-3.93124;,
 6.51251;9.75889;-8.60880;,
 6.25115;9.68444;-3.93437;,
 6.33279;9.68444;-8.61194;,
 6.07143;9.75889;-3.93751;,
 6.15308;9.75889;-8.61507;,
 5.99699;9.93862;-3.93881;,
 6.07864;9.93862;-8.61637;,
 6.07143;10.11837;-3.93751;,
 6.15308;10.11837;-8.61507;,
 6.25115;9.93862;-3.93437;,
 6.33279;9.93862;-8.61194;,
 7.97460;10.19283;-7.89805;,
 7.84975;10.11837;-8.02735;,
 4.48448;10.11837;-4.77755;,
 4.60933;10.19283;-4.64825;,
 7.79803;9.93862;-8.08090;,
 4.43275;9.93862;-4.83110;,
 7.84975;9.75889;-8.02735;,
 4.48448;9.75889;-4.77755;,
 7.97460;9.68444;-7.89805;,
 4.60933;9.68444;-4.64825;,
 8.09946;9.75889;-7.76877;,
 4.73419;9.75889;-4.51895;,
 8.15118;9.93862;-7.71521;,
 4.78591;9.93862;-4.46540;,
 8.09946;10.11837;-7.76877;,
 4.73419;10.11837;-4.51895;,
 7.97460;9.93862;-7.89805;,
 4.60933;9.93862;-4.64825;,
 4.66706;10.19283;-7.95579;,
 4.53777;10.11837;-7.83093;,
 7.78758;10.11837;-4.46567;,
 7.91687;10.19283;-4.59052;,
 4.48422;9.93862;-7.77921;,
 7.73402;9.93862;-4.41395;,
 4.53777;9.75889;-7.83093;,
 7.78758;9.75889;-4.46567;,
 4.66706;9.68444;-7.95579;,
 7.91687;9.68444;-4.59052;,
 4.79636;9.75889;-8.08065;,
 8.04617;9.75889;-4.71537;,
 4.84992;9.93862;-8.13237;,
 8.09972;9.93862;-4.76709;,
 4.79636;10.11837;-8.08065;,
 8.04617;10.11837;-4.71537;,
 4.66706;9.93862;-7.95579;,
 7.91687;9.93862;-4.59052;,
 3.95319;10.19283;-6.31398;,
 3.95005;10.11837;-6.13427;,
 8.62761;10.11837;-6.05262;,
 8.63075;10.19283;-6.23234;,
 3.94875;9.93862;-6.05982;,
 8.62631;9.93862;-5.97817;,
 3.95005;9.75889;-6.13427;,
 8.62761;9.75889;-6.05262;,
 3.95319;9.68444;-6.31398;,
 8.63075;9.68444;-6.23234;,
 3.95632;9.75889;-6.49369;,
 8.63389;9.75889;-6.41205;,
 3.95762;9.93862;-6.56813;,
 8.63519;9.93862;-6.48648;,
 3.95632;10.11837;-6.49369;,
 8.63389;10.11837;-6.41205;,
 3.95319;9.93862;-6.31398;,
 8.63075;9.93862;-6.23234;,
 5.46244;9.96308;4.06773;,
 5.43078;10.17640;3.98523;,
 4.04189;10.17640;5.30324;,
 4.12261;9.96308;5.33917;,
 5.35433;10.26475;3.78609;,
 3.84701;10.26475;5.21648;,
 5.27789;10.17640;3.58694;,
 3.65216;10.17640;5.12971;,
 5.24623;9.96308;3.50445;,
 3.57143;9.96308;5.09377;,
 5.27789;9.74977;3.58694;,
 3.65216;9.74977;5.12971;,
 5.35433;9.66142;3.78609;,
 3.84701;9.66142;5.21648;,
 5.43078;9.74977;3.98523;,
 4.04189;9.74977;5.30324;,
 3.99177;10.17640;7.21729;,
 4.07425;9.96308;7.18563;,
 3.79262;10.26475;7.29375;,
 3.59347;10.17640;7.37018;,
 3.51100;9.96308;7.40185;,
 3.59347;9.74977;7.37018;,
 3.79262;9.66142;7.29375;,
 3.99177;9.74977;7.21729;,
 5.30977;10.17640;8.60619;,
 5.34571;9.96308;8.52546;,
 5.22300;10.26475;8.80106;,
 5.13625;10.17640;8.99592;,
 5.10030;9.96308;9.07664;,
 5.13625;9.74977;8.99592;,
 5.22300;9.66142;8.80106;,
 5.30977;9.74977;8.60619;,
 7.22384;10.17640;8.65631;,
 7.19217;9.96308;8.57381;,
 7.30027;10.26475;8.85544;,
 7.37672;10.17640;9.05458;,
 7.40838;9.96308;9.13707;,
 7.37672;9.74977;9.05458;,
 7.30027;9.66142;8.85544;,
 7.22384;9.74977;8.65631;,
 8.61272;10.17640;7.33830;,
 8.53201;9.96308;7.30236;,
 8.80759;10.26475;7.42506;,
 9.00246;10.17640;7.51182;,
 9.08317;9.96308;7.54776;,
 9.00246;9.74977;7.51182;,
 8.80759;9.66142;7.42506;,
 8.61272;9.74977;7.33830;,
 8.66283;10.17640;5.42424;,
 8.58035;9.96308;5.45591;,
 8.86198;10.26475;5.34779;,
 9.06113;10.17640;5.27134;,
 9.14361;9.96308;5.23969;,
 9.06113;9.74977;5.27134;,
 8.86198;9.66142;5.34779;,
 8.66283;9.74977;5.42424;,
 7.34484;10.17640;4.03535;,
 7.30890;9.96308;4.11607;,
 7.43161;10.26475;3.84047;,
 7.51835;10.17640;3.64561;,
 7.55430;9.96308;3.56489;,
 7.51835;9.74977;3.64561;,
 7.43161;9.66142;3.84047;,
 7.34484;9.74977;4.03535;,
 6.22302;10.19283;8.71273;,
 6.40265;10.11837;8.71900;,
 6.56591;10.11837;4.04357;,
 6.38628;10.19283;4.03730;,
 6.47706;9.93862;8.72159;,
 6.64033;9.93862;4.04617;,
 6.40265;9.75889;8.71900;,
 6.56591;9.75889;4.04357;,
 6.22302;9.68444;8.71273;,
 6.38628;9.68444;4.03730;,
 6.04338;9.75889;8.70645;,
 6.20666;9.75889;4.03103;,
 5.96898;9.93862;8.70385;,
 6.13225;9.93862;4.02843;,
 6.04338;10.11837;8.70645;,
 6.20666;10.11837;4.03103;,
 6.22302;9.93862;8.71273;,
 6.38628;9.93862;4.03730;,
 8.01539;10.19283;4.77972;,
 7.89280;10.11837;4.64827;,
 4.47133;10.11837;7.83885;,
 4.59391;10.19283;7.97030;,
 7.84203;9.93862;4.59382;,
 4.42055;9.93862;7.78439;,
 7.89280;9.75889;4.64827;,
 4.47133;9.75889;7.83885;,
 8.01539;9.68444;4.77972;,
 4.59391;9.68444;7.97030;,
 8.13796;9.75889;4.91118;,
 4.71649;9.75889;8.10175;,
 8.18875;9.93862;4.96563;,
 4.76727;9.93862;8.15620;,
 8.13796;10.11837;4.91118;,
 4.71649;10.11837;8.10175;,
 8.01539;9.93862;4.77972;,
 4.59391;9.93862;7.97030;,
 4.70937;10.19283;4.66428;,
 4.57791;10.11837;4.78685;,
 7.76849;10.11837;8.20833;,
 7.89994;10.19283;8.08575;,
 4.52346;9.93862;4.83764;,
 7.71403;9.93862;8.25911;,
 4.57791;9.75889;4.78685;,
 7.76849;9.75889;8.20833;,
 4.70937;9.68444;4.66428;,
 7.89994;9.68444;8.08575;,
 4.84082;9.75889;4.54169;,
 8.03140;9.75889;7.96317;,
 4.89526;9.93862;4.49092;,
 8.08584;9.93862;7.91239;,
 4.84082;10.11837;4.54169;,
 8.03140;10.11837;7.96317;,
 4.70937;9.93862;4.66428;,
 7.89994;9.93862;8.08575;,
 3.96695;10.19283;6.29338;,
 3.96067;10.11837;6.47301;,
 8.63609;10.11837;6.63628;,
 8.64236;10.19283;6.45665;,
 3.95806;9.93862;6.54742;,
 8.63349;9.93862;6.71068;,
 3.96067;9.75889;6.47301;,
 8.63609;9.75889;6.63628;,
 3.96695;9.68444;6.29338;,
 8.64236;9.68444;6.45665;,
 3.97321;9.75889;6.11375;,
 8.64864;9.75889;6.27701;,
 3.97581;9.93862;6.03934;,
 8.65124;9.93862;6.20261;,
 3.97321;10.11837;6.11375;,
 8.64864;10.11837;6.27701;,
 3.96695;9.93862;6.29338;,
 8.64236;9.93862;6.45665;,
 -7.18737;9.96308;-8.58209;,
 -7.21903;10.17640;-8.66459;,
 -8.60792;10.17640;-7.34657;,
 -8.52721;9.96308;-7.31065;,
 -7.29548;10.26475;-8.86372;,
 -8.80280;10.26475;-7.43334;,
 -7.37193;10.17640;-9.06288;,
 -8.99767;10.17640;-7.52011;,
 -7.40359;9.96308;-9.14537;,
 -9.07838;9.96308;-7.55604;,
 -7.37193;9.74977;-9.06288;,
 -8.99767;9.74977;-7.52011;,
 -7.29548;9.66142;-8.86372;,
 -8.80280;9.66142;-7.43334;,
 -7.21903;9.74977;-8.66459;,
 -8.60792;9.74977;-7.34657;,
 -8.65804;10.17640;-5.43252;,
 -8.57556;9.96308;-5.46419;,
 -8.85719;10.26475;-5.35607;,
 -9.05634;10.17640;-5.27963;,
 -9.13882;9.96308;-5.24797;,
 -9.05634;9.74977;-5.27963;,
 -8.85719;9.66142;-5.35607;,
 -8.65804;9.74977;-5.43252;,
 -7.34004;10.17640;-4.04363;,
 -7.30411;9.96308;-4.12435;,
 -7.42681;10.26475;-3.84876;,
 -7.51356;10.17640;-3.65389;,
 -7.54951;9.96308;-3.57317;,
 -7.51356;9.74977;-3.65389;,
 -7.42681;9.66142;-3.84876;,
 -7.34004;9.74977;-4.04363;,
 -5.42598;10.17640;-3.99351;,
 -5.45764;9.96308;-4.07600;,
 -5.34954;10.26475;-3.79437;,
 -5.27309;10.17640;-3.59523;,
 -5.24142;9.96308;-3.51273;,
 -5.27309;9.74977;-3.59523;,
 -5.34954;9.66142;-3.79437;,
 -5.42598;9.74977;-3.99351;,
 -4.03709;10.17640;-5.31151;,
 -4.11781;9.96308;-5.34746;,
 -3.84223;10.26475;-5.22475;,
 -3.64736;10.17640;-5.13800;,
 -3.56664;9.96308;-5.10205;,
 -3.64736;9.74977;-5.13800;,
 -3.84223;9.66142;-5.22475;,
 -4.03709;9.74977;-5.31151;,
 -3.98698;10.17640;-7.22557;,
 -4.06947;9.96308;-7.19391;,
 -3.78783;10.26475;-7.30203;,
 -3.58869;10.17640;-7.37847;,
 -3.50620;9.96308;-7.41013;,
 -3.58869;9.74977;-7.37847;,
 -3.78783;9.66142;-7.30203;,
 -3.98698;9.74977;-7.22557;,
 -5.30498;10.17640;-8.61447;,
 -5.34091;9.96308;-8.53374;,
 -5.21820;10.26475;-8.80934;,
 -5.13146;10.17640;-9.00420;,
 -5.09551;9.96308;-9.08492;,
 -5.13146;9.74977;-9.00420;,
 -5.21820;9.66142;-8.80934;,
 -5.30498;9.74977;-8.61447;,
 -6.42679;10.19283;-3.93708;,
 -6.24716;10.11837;-3.93081;,
 -6.08390;10.11837;-8.60624;,
 -6.26353;10.19283;-8.61251;,
 -6.17275;9.93862;-3.92822;,
 -6.00949;9.93862;-8.60364;,
 -6.24716;9.75889;-3.93081;,
 -6.08390;9.75889;-8.60624;,
 -6.42679;9.68444;-3.93708;,
 -6.26353;9.68444;-8.61251;,
 -6.60643;9.75889;-3.94335;,
 -6.44316;9.75889;-8.61879;,
 -6.68084;9.93862;-3.94596;,
 -6.51757;9.93862;-8.62138;,
 -6.60643;10.11837;-3.94335;,
 -6.44316;10.11837;-8.61879;,
 -6.42679;9.93862;-3.93708;,
 -6.26353;9.93862;-8.61251;,
 -4.63443;10.19283;-7.87009;,
 -4.75701;10.11837;-8.00155;,
 -8.17849;10.11837;-4.81097;,
 -8.05591;10.19283;-4.67952;,
 -4.80779;9.93862;-8.05600;,
 -8.22927;9.93862;-4.86542;,
 -4.75701;9.75889;-8.00155;,
 -8.17849;9.75889;-4.81097;,
 -4.63443;9.68444;-7.87009;,
 -8.05591;9.68444;-4.67952;,
 -4.51185;9.75889;-7.73864;,
 -7.93332;9.75889;-4.54806;,
 -4.46107;9.93862;-7.68419;,
 -7.88254;9.93862;-4.49361;,
 -4.51185;10.11837;-7.73864;,
 -7.93332;10.11837;-4.54806;,
 -4.63443;9.93862;-7.87009;,
 -8.05591;9.93862;-4.67952;,
 -7.94045;10.19283;-7.98554;,
 -8.07191;10.11837;-7.86296;,
 -4.88133;10.11837;-4.44148;,
 -4.74988;10.19283;-4.56407;,
 -8.12636;9.93862;-7.81218;,
 -4.93578;9.93862;-4.39070;,
 -8.07191;9.75889;-7.86296;,
 -4.88133;9.75889;-4.44148;,
 -7.94045;9.68444;-7.98554;,
 -4.74988;9.68444;-4.56407;,
 -7.80900;9.75889;-8.10812;,
 -4.61842;9.75889;-4.68664;,
 -7.75455;9.93862;-8.15889;,
 -4.56396;9.93862;-4.73742;,
 -7.80900;10.11837;-8.10812;,
 -4.61842;10.11837;-4.68664;,
 -7.94045;9.93862;-7.98554;,
 -4.74988;9.93862;-4.56407;,
 -8.68287;10.19283;-6.35643;,
 -8.68915;10.11837;-6.17680;,
 -4.01372;10.11837;-6.01353;,
 -4.00745;10.19283;-6.19316;,
 -8.69175;9.93862;-6.10240;,
 -4.01632;9.93862;-5.93913;,
 -8.68915;9.75889;-6.17680;,
 -4.01372;9.75889;-6.01353;,
 -8.68287;9.68444;-6.35643;,
 -4.00745;9.68444;-6.19316;,
 -8.67660;9.75889;-6.53607;,
 -4.00117;9.75889;-6.37280;,
 -8.67400;9.93862;-6.61047;,
 -3.99858;9.93862;-6.44721;,
 -8.67660;10.11837;-6.53607;,
 -4.00117;10.11837;-6.37280;,
 -8.68287;9.93862;-6.35643;,
 -4.00745;9.93862;-6.19316;,
 5.91696;9.87401;7.29243;,
 5.36787;9.87401;6.73367;,
 5.36787;7.07115;6.73367;,
 5.91696;7.07115;7.29243;,
 5.37470;9.87401;5.95031;,
 5.37470;7.07115;5.95031;,
 5.93345;9.87401;5.40122;,
 5.93345;7.07115;5.40122;,
 6.71682;9.87401;5.40806;,
 6.71682;7.07115;5.40806;,
 7.26591;9.87401;5.96681;,
 7.26591;7.07115;5.96681;,
 7.25907;9.87401;6.75018;,
 7.25907;7.07115;6.75018;,
 6.70032;9.87401;7.29926;,
 6.70032;7.07115;7.29926;,
 6.31689;9.87401;6.35025;,
 6.31689;7.07115;6.35025;,
 -6.75141;1.02735;-6.59124;,
 -7.10611;0.88043;-6.59124;,
 -7.10610;0.88043;6.56330;,
 -6.75141;1.02735;6.56330;,
 -7.25301;0.52574;-6.59124;,
 -7.25302;0.52574;6.56330;,
 -7.10611;0.17105;-6.59124;,
 -7.10610;0.17105;6.56330;,
 -6.75141;0.02413;-6.59124;,
 -6.75141;0.02414;6.56330;,
 -6.39672;0.17105;-6.59123;,
 -6.39672;0.17105;6.56331;,
 -6.24981;0.52574;-6.59124;,
 -6.24981;0.52574;6.56330;,
 -6.39672;0.88043;-6.59123;,
 -6.39672;0.88043;6.56331;,
 -6.75141;0.52574;-6.59124;,
 -6.75141;0.52574;6.56330;,
 6.76770;1.02735;-7.03044;,
 6.41301;0.88043;-7.03043;,
 6.41301;0.88043;6.12411;,
 6.76769;1.02735;6.12411;,
 6.26609;0.52574;-7.03043;,
 6.26608;0.52574;6.12411;,
 6.41301;0.17105;-7.03043;,
 6.41301;0.17105;6.12411;,
 6.76770;0.02413;-7.03044;,
 6.76769;0.02414;6.12411;,
 7.12238;0.17105;-7.03043;,
 7.12238;0.17105;6.12411;,
 7.26931;0.52574;-7.03043;,
 7.26930;0.52574;6.12411;,
 7.12238;0.88043;-7.03043;,
 7.12238;0.88043;6.12411;,
 6.76770;0.52574;-7.03044;,
 6.76769;0.52574;6.12411;,
 -6.58677;1.00517;6.01578;,
 -6.44989;0.80183;6.17677;,
 0.38853;5.31852;-0.37755;,
 0.37819;5.33388;-0.38970;,
 -6.36086;0.52623;6.13073;,
 0.39525;5.29771;-0.38103;,
 -6.37184;0.33980;5.90461;,
 0.39442;5.28364;-0.39810;,
 -6.47641;0.35176;5.63087;,
 0.38653;5.28454;-0.41877;,
 -6.61329;0.55509;5.46988;,
 0.37619;5.29989;-0.43092;,
 -6.70233;0.83070;5.51592;,
 0.36947;5.32070;-0.42744;,
 -6.69134;1.01713;5.74205;,
 0.37030;5.33478;-0.41037;,
 -6.53159;0.67846;5.82333;,
 0.38236;5.30921;-0.40423;,
 -6.94979;0.88129;-6.10948;,
 -7.10940;0.65661;-5.93907;,
 -0.04836;4.98525;0.04703;,
 -0.03746;5.00060;0.03539;,
 -7.04772;0.35210;-5.84710;,
 -0.04415;4.96444;0.05332;,
 -6.80086;0.14611;-5.88744;,
 -0.02728;4.95036;0.05055;,
 -6.51343;0.15933;-6.03646;,
 -0.00764;4.95126;0.04037;,
 -6.35381;0.38399;-6.20688;,
 0.00327;4.96662;0.02873;,
 -6.41550;0.68851;-6.29885;,
 -0.00094;4.98743;0.02245;,
 -6.66237;0.89450;-6.25851;,
 -0.01781;5.00150;0.02520;,
 -6.73161;0.52031;-6.07298;,
 -0.02255;4.97593;0.03788;,
 6.91797;0.84220;4.89625;,
 7.04897;0.61753;4.70297;,
 -0.15931;5.03708;-0.05581;,
 -0.16826;5.05244;-0.04260;,
 6.97366;0.31301;4.62177;,
 -0.16446;5.01627;-0.06137;,
 6.73614;0.10703;4.70023;,
 -0.18069;5.00220;-0.05600;,
 6.47557;0.12024;4.89240;,
 -0.19850;5.00310;-0.04287;,
 6.34458;0.34491;5.08568;,
 -0.20745;5.01845;-0.02966;,
 6.41989;0.64943;5.16687;,
 -0.20230;5.03926;-0.02411;,
 6.65741;0.85541;5.08841;,
 -0.18607;5.05334;-0.02948;,
 6.69678;0.48122;4.89432;,
 -0.18337;5.02777;-0.04273;,
 6.63772;0.94126;-6.75469;,
 6.43475;0.71659;-6.87012;,
 -0.16308;4.99789;0.18340;,
 -0.14921;5.01324;0.19130;,
 6.35971;0.41208;-6.78867;,
 -0.16821;4.97707;0.18898;,
 6.45657;0.20609;-6.55804;,
 -0.16160;4.96300;0.20472;,
 6.66857;0.21930;-6.31334;,
 -0.14710;4.96390;0.22145;,
 6.87155;0.44397;-6.19794;,
 -0.13323;4.97925;0.22934;,
 6.94658;0.74849;-6.27937;,
 -0.12809;5.00006;0.22377;,
 6.84972;0.95447;-6.51000;,
 -0.13473;5.01414;0.20802;,
 6.65314;0.58028;-6.53402;,
 -0.14815;4.98857;0.20637;;
 
 920;
 4;0,1,2,3;,
 4;0,3,4,5;,
 4;6,7,8,9;,
 4;6,9,10,11;,
 4;12,13,2,1;,
 4;12,1,0,14;,
 4;13,15,3,2;,
 4;14,0,5,16;,
 4;15,17,4,3;,
 4;16,5,4,17;,
 4;18,19,13,12;,
 4;18,12,14,20;,
 4;19,21,15,13;,
 4;20,14,16,22;,
 4;21,23,17,15;,
 4;22,16,17,23;,
 4;24,11,10,25;,
 4;24,25,19,18;,
 4;24,18,20,26;,
 4;24,26,6,11;,
 4;25,10,9,27;,
 4;25,27,21,19;,
 4;26,20,22,28;,
 4;26,28,7,6;,
 4;27,9,8,29;,
 4;27,29,23,21;,
 4;28,22,23,29;,
 4;28,29,8,7;,
 4;30,31,32,33;,
 4;31,34,35,32;,
 4;34,36,37,35;,
 4;36,30,33,37;,
 4;36,34,31,30;,
 4;33,32,35,37;,
 4;38,39,40,41;,
 4;39,42,43,40;,
 4;42,44,45,43;,
 4;44,38,41,45;,
 4;44,42,39,38;,
 4;41,40,43,45;,
 4;46,47,48,49;,
 4;47,50,51,48;,
 4;50,52,53,51;,
 4;52,54,55,53;,
 4;54,56,57,55;,
 4;56,58,59,57;,
 4;58,60,61,59;,
 4;60,46,49,61;,
 3;62,47,46;,
 3;62,50,47;,
 3;62,52,50;,
 3;62,54,52;,
 3;62,56,54;,
 3;62,58,56;,
 3;62,60,58;,
 3;62,46,60;,
 3;63,49,48;,
 3;63,48,51;,
 3;63,51,53;,
 3;63,53,55;,
 3;63,55,57;,
 3;63,57,59;,
 3;63,59,61;,
 3;63,61,49;,
 4;64,65,66,67;,
 4;65,68,69,66;,
 4;68,70,71,69;,
 4;70,72,73,71;,
 4;72,74,75,73;,
 4;74,76,77,75;,
 4;76,78,79,77;,
 4;78,64,67,79;,
 3;80,65,64;,
 3;80,68,65;,
 3;80,70,68;,
 3;80,72,70;,
 3;80,74,72;,
 3;80,76,74;,
 3;80,78,76;,
 3;80,64,78;,
 3;81,67,66;,
 3;81,66,69;,
 3;81,69,71;,
 3;81,71,73;,
 3;81,73,75;,
 3;81,75,77;,
 3;81,77,79;,
 3;81,79,67;,
 4;82,83,84,85;,
 4;83,86,87,84;,
 4;86,88,89,87;,
 4;88,90,91,89;,
 4;90,92,93,91;,
 4;92,94,95,93;,
 4;94,96,97,95;,
 4;96,82,85,97;,
 3;98,83,82;,
 3;98,86,83;,
 3;98,88,86;,
 3;98,90,88;,
 3;98,92,90;,
 3;98,94,92;,
 3;98,96,94;,
 3;98,82,96;,
 3;99,85,84;,
 3;99,84,87;,
 3;99,87,89;,
 3;99,89,91;,
 3;99,91,93;,
 3;99,93,95;,
 3;99,95,97;,
 3;99,97,85;,
 4;100,101,102,103;,
 4;101,104,105,102;,
 4;104,106,107,105;,
 4;106,108,109,107;,
 4;108,110,111,109;,
 4;110,112,113,111;,
 4;112,114,115,113;,
 4;114,100,103,115;,
 4;103,102,116,117;,
 4;102,105,118,116;,
 4;105,107,119,118;,
 4;107,109,120,119;,
 4;109,111,121,120;,
 4;111,113,122,121;,
 4;113,115,123,122;,
 4;115,103,117,123;,
 4;117,116,124,125;,
 4;116,118,126,124;,
 4;118,119,127,126;,
 4;119,120,128,127;,
 4;120,121,129,128;,
 4;121,122,130,129;,
 4;122,123,131,130;,
 4;123,117,125,131;,
 4;125,124,132,133;,
 4;124,126,134,132;,
 4;126,127,135,134;,
 4;127,128,136,135;,
 4;128,129,137,136;,
 4;129,130,138,137;,
 4;130,131,139,138;,
 4;131,125,133,139;,
 4;133,132,140,141;,
 4;132,134,142,140;,
 4;134,135,143,142;,
 4;135,136,144,143;,
 4;136,137,145,144;,
 4;137,138,146,145;,
 4;138,139,147,146;,
 4;139,133,141,147;,
 4;141,140,148,149;,
 4;140,142,150,148;,
 4;142,143,151,150;,
 4;143,144,152,151;,
 4;144,145,153,152;,
 4;145,146,154,153;,
 4;146,147,155,154;,
 4;147,141,149,155;,
 4;149,148,156,157;,
 4;148,150,158,156;,
 4;150,151,159,158;,
 4;151,152,160,159;,
 4;152,153,161,160;,
 4;153,154,162,161;,
 4;154,155,163,162;,
 4;155,149,157,163;,
 4;157,156,101,100;,
 4;156,158,104,101;,
 4;158,159,106,104;,
 4;159,160,108,106;,
 4;160,161,110,108;,
 4;161,162,112,110;,
 4;162,163,114,112;,
 4;163,157,100,114;,
 4;164,165,166,167;,
 4;165,168,169,166;,
 4;168,170,171,169;,
 4;170,172,173,171;,
 4;172,174,175,173;,
 4;174,176,177,175;,
 4;176,178,179,177;,
 4;178,164,167,179;,
 3;180,165,164;,
 3;180,168,165;,
 3;180,170,168;,
 3;180,172,170;,
 3;180,174,172;,
 3;180,176,174;,
 3;180,178,176;,
 3;180,164,178;,
 3;181,167,166;,
 3;181,166,169;,
 3;181,169,171;,
 3;181,171,173;,
 3;181,173,175;,
 3;181,175,177;,
 3;181,177,179;,
 3;181,179,167;,
 4;182,183,184,185;,
 4;183,186,187,184;,
 4;186,188,189,187;,
 4;188,190,191,189;,
 4;190,192,193,191;,
 4;192,194,195,193;,
 4;194,196,197,195;,
 4;196,182,185,197;,
 3;198,183,182;,
 3;198,186,183;,
 3;198,188,186;,
 3;198,190,188;,
 3;198,192,190;,
 3;198,194,192;,
 3;198,196,194;,
 3;198,182,196;,
 3;199,185,184;,
 3;199,184,187;,
 3;199,187,189;,
 3;199,189,191;,
 3;199,191,193;,
 3;199,193,195;,
 3;199,195,197;,
 3;199,197,185;,
 4;200,201,202,203;,
 4;201,204,205,202;,
 4;204,206,207,205;,
 4;206,208,209,207;,
 4;208,210,211,209;,
 4;210,212,213,211;,
 4;212,214,215,213;,
 4;214,200,203,215;,
 3;216,201,200;,
 3;216,204,201;,
 3;216,206,204;,
 3;216,208,206;,
 3;216,210,208;,
 3;216,212,210;,
 3;216,214,212;,
 3;216,200,214;,
 3;217,203,202;,
 3;217,202,205;,
 3;217,205,207;,
 3;217,207,209;,
 3;217,209,211;,
 3;217,211,213;,
 3;217,213,215;,
 3;217,215,203;,
 4;218,219,220,221;,
 4;219,222,223,220;,
 4;222,224,225,223;,
 4;224,226,227,225;,
 4;226,228,229,227;,
 4;228,230,231,229;,
 4;230,232,233,231;,
 4;232,218,221,233;,
 3;234,219,218;,
 3;234,222,219;,
 3;234,224,222;,
 3;234,226,224;,
 3;234,228,226;,
 3;234,230,228;,
 3;234,232,230;,
 3;234,218,232;,
 3;235,221,220;,
 3;235,220,223;,
 3;235,223,225;,
 3;235,225,227;,
 3;235,227,229;,
 3;235,229,231;,
 3;235,231,233;,
 3;235,233,221;,
 4;236,237,238,239;,
 4;237,240,241,238;,
 4;240,242,243,241;,
 4;242,244,245,243;,
 4;244,246,247,245;,
 4;246,248,249,247;,
 4;248,250,251,249;,
 4;250,236,239,251;,
 4;239,238,252,253;,
 4;238,241,254,252;,
 4;241,243,255,254;,
 4;243,245,256,255;,
 4;245,247,257,256;,
 4;247,249,258,257;,
 4;249,251,259,258;,
 4;251,239,253,259;,
 4;253,252,260,261;,
 4;252,254,262,260;,
 4;254,255,263,262;,
 4;255,256,264,263;,
 4;256,257,265,264;,
 4;257,258,266,265;,
 4;258,259,267,266;,
 4;259,253,261,267;,
 4;261,260,268,269;,
 4;260,262,270,268;,
 4;262,263,271,270;,
 4;263,264,272,271;,
 4;264,265,273,272;,
 4;265,266,274,273;,
 4;266,267,275,274;,
 4;267,261,269,275;,
 4;269,268,276,277;,
 4;268,270,278,276;,
 4;270,271,279,278;,
 4;271,272,280,279;,
 4;272,273,281,280;,
 4;273,274,282,281;,
 4;274,275,283,282;,
 4;275,269,277,283;,
 4;277,276,284,285;,
 4;276,278,286,284;,
 4;278,279,287,286;,
 4;279,280,288,287;,
 4;280,281,289,288;,
 4;281,282,290,289;,
 4;282,283,291,290;,
 4;283,277,285,291;,
 4;285,284,292,293;,
 4;284,286,294,292;,
 4;286,287,295,294;,
 4;287,288,296,295;,
 4;288,289,297,296;,
 4;289,290,298,297;,
 4;290,291,299,298;,
 4;291,285,293,299;,
 4;293,292,237,236;,
 4;292,294,240,237;,
 4;294,295,242,240;,
 4;295,296,244,242;,
 4;296,297,246,244;,
 4;297,298,248,246;,
 4;298,299,250,248;,
 4;299,293,236,250;,
 4;300,301,302,303;,
 4;301,304,305,302;,
 4;304,306,307,305;,
 4;306,308,309,307;,
 4;308,310,311,309;,
 4;310,312,313,311;,
 4;312,314,315,313;,
 4;314,300,303,315;,
 3;316,301,300;,
 3;316,304,301;,
 3;316,306,304;,
 3;316,308,306;,
 3;316,310,308;,
 3;316,312,310;,
 3;316,314,312;,
 3;316,300,314;,
 3;317,303,302;,
 3;317,302,305;,
 3;317,305,307;,
 3;317,307,309;,
 3;317,309,311;,
 3;317,311,313;,
 3;317,313,315;,
 3;317,315,303;,
 4;318,319,320,321;,
 4;319,322,323,320;,
 4;322,324,325,323;,
 4;324,326,327,325;,
 4;326,328,329,327;,
 4;328,330,331,329;,
 4;330,332,333,331;,
 4;332,318,321,333;,
 3;334,319,318;,
 3;334,322,319;,
 3;334,324,322;,
 3;334,326,324;,
 3;334,328,326;,
 3;334,330,328;,
 3;334,332,330;,
 3;334,318,332;,
 3;335,321,320;,
 3;335,320,323;,
 3;335,323,325;,
 3;335,325,327;,
 3;335,327,329;,
 3;335,329,331;,
 3;335,331,333;,
 3;335,333,321;,
 4;336,337,338,339;,
 4;337,340,341,338;,
 4;340,342,343,341;,
 4;342,344,345,343;,
 4;344,346,347,345;,
 4;346,348,349,347;,
 4;348,350,351,349;,
 4;350,336,339,351;,
 3;352,337,336;,
 3;352,340,337;,
 3;352,342,340;,
 3;352,344,342;,
 3;352,346,344;,
 3;352,348,346;,
 3;352,350,348;,
 3;352,336,350;,
 3;353,339,338;,
 3;353,338,341;,
 3;353,341,343;,
 3;353,343,345;,
 3;353,345,347;,
 3;353,347,349;,
 3;353,349,351;,
 3;353,351,339;,
 4;354,355,356,357;,
 4;355,358,359,356;,
 4;358,360,361,359;,
 4;360,362,363,361;,
 4;362,364,365,363;,
 4;364,366,367,365;,
 4;366,368,369,367;,
 4;368,354,357,369;,
 3;370,355,354;,
 3;370,358,355;,
 3;370,360,358;,
 3;370,362,360;,
 3;370,364,362;,
 3;370,366,364;,
 3;370,368,366;,
 3;370,354,368;,
 3;371,357,356;,
 3;371,356,359;,
 3;371,359,361;,
 3;371,361,363;,
 3;371,363,365;,
 3;371,365,367;,
 3;371,367,369;,
 3;371,369,357;,
 4;372,373,374,375;,
 4;373,376,377,374;,
 4;376,378,379,377;,
 4;378,380,381,379;,
 4;380,382,383,381;,
 4;382,384,385,383;,
 4;384,386,387,385;,
 4;386,372,375,387;,
 4;375,374,388,389;,
 4;374,377,390,388;,
 4;377,379,391,390;,
 4;379,381,392,391;,
 4;381,383,393,392;,
 4;383,385,394,393;,
 4;385,387,395,394;,
 4;387,375,389,395;,
 4;389,388,396,397;,
 4;388,390,398,396;,
 4;390,391,399,398;,
 4;391,392,400,399;,
 4;392,393,401,400;,
 4;393,394,402,401;,
 4;394,395,403,402;,
 4;395,389,397,403;,
 4;397,396,404,405;,
 4;396,398,406,404;,
 4;398,399,407,406;,
 4;399,400,408,407;,
 4;400,401,409,408;,
 4;401,402,410,409;,
 4;402,403,411,410;,
 4;403,397,405,411;,
 4;405,404,412,413;,
 4;404,406,414,412;,
 4;406,407,415,414;,
 4;407,408,416,415;,
 4;408,409,417,416;,
 4;409,410,418,417;,
 4;410,411,419,418;,
 4;411,405,413,419;,
 4;413,412,420,421;,
 4;412,414,422,420;,
 4;414,415,423,422;,
 4;415,416,424,423;,
 4;416,417,425,424;,
 4;417,418,426,425;,
 4;418,419,427,426;,
 4;419,413,421,427;,
 4;421,420,428,429;,
 4;420,422,430,428;,
 4;422,423,431,430;,
 4;423,424,432,431;,
 4;424,425,433,432;,
 4;425,426,434,433;,
 4;426,427,435,434;,
 4;427,421,429,435;,
 4;429,428,373,372;,
 4;428,430,376,373;,
 4;430,431,378,376;,
 4;431,432,380,378;,
 4;432,433,382,380;,
 4;433,434,384,382;,
 4;434,435,386,384;,
 4;435,429,372,386;,
 4;436,437,438,439;,
 4;437,440,441,438;,
 4;440,442,443,441;,
 4;442,444,445,443;,
 4;444,446,447,445;,
 4;446,448,449,447;,
 4;448,450,451,449;,
 4;450,436,439,451;,
 3;452,437,436;,
 3;452,440,437;,
 3;452,442,440;,
 3;452,444,442;,
 3;452,446,444;,
 3;452,448,446;,
 3;452,450,448;,
 3;452,436,450;,
 3;453,439,438;,
 3;453,438,441;,
 3;453,441,443;,
 3;453,443,445;,
 3;453,445,447;,
 3;453,447,449;,
 3;453,449,451;,
 3;453,451,439;,
 4;454,455,456,457;,
 4;455,458,459,456;,
 4;458,460,461,459;,
 4;460,462,463,461;,
 4;462,464,465,463;,
 4;464,466,467,465;,
 4;466,468,469,467;,
 4;468,454,457,469;,
 3;470,455,454;,
 3;470,458,455;,
 3;470,460,458;,
 3;470,462,460;,
 3;470,464,462;,
 3;470,466,464;,
 3;470,468,466;,
 3;470,454,468;,
 3;471,457,456;,
 3;471,456,459;,
 3;471,459,461;,
 3;471,461,463;,
 3;471,463,465;,
 3;471,465,467;,
 3;471,467,469;,
 3;471,469,457;,
 4;472,473,474,475;,
 4;473,476,477,474;,
 4;476,478,479,477;,
 4;478,480,481,479;,
 4;480,482,483,481;,
 4;482,484,485,483;,
 4;484,486,487,485;,
 4;486,472,475,487;,
 3;488,473,472;,
 3;488,476,473;,
 3;488,478,476;,
 3;488,480,478;,
 3;488,482,480;,
 3;488,484,482;,
 3;488,486,484;,
 3;488,472,486;,
 3;489,475,474;,
 3;489,474,477;,
 3;489,477,479;,
 3;489,479,481;,
 3;489,481,483;,
 3;489,483,485;,
 3;489,485,487;,
 3;489,487,475;,
 4;490,491,492,493;,
 4;491,494,495,492;,
 4;494,496,497,495;,
 4;496,498,499,497;,
 4;498,500,501,499;,
 4;500,502,503,501;,
 4;502,504,505,503;,
 4;504,490,493,505;,
 3;506,491,490;,
 3;506,494,491;,
 3;506,496,494;,
 3;506,498,496;,
 3;506,500,498;,
 3;506,502,500;,
 3;506,504,502;,
 3;506,490,504;,
 3;507,493,492;,
 3;507,492,495;,
 3;507,495,497;,
 3;507,497,499;,
 3;507,499,501;,
 3;507,501,503;,
 3;507,503,505;,
 3;507,505,493;,
 4;508,509,510,511;,
 4;509,512,513,510;,
 4;512,514,515,513;,
 4;514,516,517,515;,
 4;516,518,519,517;,
 4;518,520,521,519;,
 4;520,522,523,521;,
 4;522,508,511,523;,
 4;511,510,524,525;,
 4;510,513,526,524;,
 4;513,515,527,526;,
 4;515,517,528,527;,
 4;517,519,529,528;,
 4;519,521,530,529;,
 4;521,523,531,530;,
 4;523,511,525,531;,
 4;525,524,532,533;,
 4;524,526,534,532;,
 4;526,527,535,534;,
 4;527,528,536,535;,
 4;528,529,537,536;,
 4;529,530,538,537;,
 4;530,531,539,538;,
 4;531,525,533,539;,
 4;533,532,540,541;,
 4;532,534,542,540;,
 4;534,535,543,542;,
 4;535,536,544,543;,
 4;536,537,545,544;,
 4;537,538,546,545;,
 4;538,539,547,546;,
 4;539,533,541,547;,
 4;541,540,548,549;,
 4;540,542,550,548;,
 4;542,543,551,550;,
 4;543,544,552,551;,
 4;544,545,553,552;,
 4;545,546,554,553;,
 4;546,547,555,554;,
 4;547,541,549,555;,
 4;549,548,556,557;,
 4;548,550,558,556;,
 4;550,551,559,558;,
 4;551,552,560,559;,
 4;552,553,561,560;,
 4;553,554,562,561;,
 4;554,555,563,562;,
 4;555,549,557,563;,
 4;557,556,564,565;,
 4;556,558,566,564;,
 4;558,559,567,566;,
 4;559,560,568,567;,
 4;560,561,569,568;,
 4;561,562,570,569;,
 4;562,563,571,570;,
 4;563,557,565,571;,
 4;565,564,509,508;,
 4;564,566,512,509;,
 4;566,567,514,512;,
 4;567,568,516,514;,
 4;568,569,518,516;,
 4;569,570,520,518;,
 4;570,571,522,520;,
 4;571,565,508,522;,
 4;572,573,574,575;,
 4;573,576,577,574;,
 4;576,578,579,577;,
 4;578,580,581,579;,
 4;580,582,583,581;,
 4;582,584,585,583;,
 4;584,586,587,585;,
 4;586,572,575,587;,
 3;588,573,572;,
 3;588,576,573;,
 3;588,578,576;,
 3;588,580,578;,
 3;588,582,580;,
 3;588,584,582;,
 3;588,586,584;,
 3;588,572,586;,
 3;589,575,574;,
 3;589,574,577;,
 3;589,577,579;,
 3;589,579,581;,
 3;589,581,583;,
 3;589,583,585;,
 3;589,585,587;,
 3;589,587,575;,
 4;590,591,592,593;,
 4;591,594,595,592;,
 4;594,596,597,595;,
 4;596,598,599,597;,
 4;598,600,601,599;,
 4;600,602,603,601;,
 4;602,604,605,603;,
 4;604,590,593,605;,
 3;606,591,590;,
 3;606,594,591;,
 3;606,596,594;,
 3;606,598,596;,
 3;606,600,598;,
 3;606,602,600;,
 3;606,604,602;,
 3;606,590,604;,
 3;607,593,592;,
 3;607,592,595;,
 3;607,595,597;,
 3;607,597,599;,
 3;607,599,601;,
 3;607,601,603;,
 3;607,603,605;,
 3;607,605,593;,
 4;608,609,610,611;,
 4;609,612,613,610;,
 4;612,614,615,613;,
 4;614,616,617,615;,
 4;616,618,619,617;,
 4;618,620,621,619;,
 4;620,622,623,621;,
 4;622,608,611,623;,
 3;624,609,608;,
 3;624,612,609;,
 3;624,614,612;,
 3;624,616,614;,
 3;624,618,616;,
 3;624,620,618;,
 3;624,622,620;,
 3;624,608,622;,
 3;625,611,610;,
 3;625,610,613;,
 3;625,613,615;,
 3;625,615,617;,
 3;625,617,619;,
 3;625,619,621;,
 3;625,621,623;,
 3;625,623,611;,
 4;626,627,628,629;,
 4;627,630,631,628;,
 4;630,632,633,631;,
 4;632,634,635,633;,
 4;634,636,637,635;,
 4;636,638,639,637;,
 4;638,640,641,639;,
 4;640,626,629,641;,
 3;642,627,626;,
 3;642,630,627;,
 3;642,632,630;,
 3;642,634,632;,
 3;642,636,634;,
 3;642,638,636;,
 3;642,640,638;,
 3;642,626,640;,
 3;643,629,628;,
 3;643,628,631;,
 3;643,631,633;,
 3;643,633,635;,
 3;643,635,637;,
 3;643,637,639;,
 3;643,639,641;,
 3;643,641,629;,
 4;644,645,646,647;,
 4;645,648,649,646;,
 4;648,650,651,649;,
 4;650,652,653,651;,
 4;652,654,655,653;,
 4;654,656,657,655;,
 4;656,658,659,657;,
 4;658,644,647,659;,
 3;660,645,644;,
 3;660,648,645;,
 3;660,650,648;,
 3;660,652,650;,
 3;660,654,652;,
 3;660,656,654;,
 3;660,658,656;,
 3;660,644,658;,
 3;661,647,646;,
 3;661,646,649;,
 3;661,649,651;,
 3;661,651,653;,
 3;661,653,655;,
 3;661,655,657;,
 3;661,657,659;,
 3;661,659,647;,
 4;662,663,664,665;,
 4;663,666,667,664;,
 4;666,668,669,667;,
 4;668,670,671,669;,
 4;670,672,673,671;,
 4;672,674,675,673;,
 4;674,676,677,675;,
 4;676,662,665,677;,
 3;678,663,662;,
 3;678,666,663;,
 3;678,668,666;,
 3;678,670,668;,
 3;678,672,670;,
 3;678,674,672;,
 3;678,676,674;,
 3;678,662,676;,
 3;679,665,664;,
 3;679,664,667;,
 3;679,667,669;,
 3;679,669,671;,
 3;679,671,673;,
 3;679,673,675;,
 3;679,675,677;,
 3;679,677,665;,
 4;680,681,682,683;,
 4;681,684,685,682;,
 4;684,686,687,685;,
 4;686,688,689,687;,
 4;688,690,691,689;,
 4;690,692,693,691;,
 4;692,694,695,693;,
 4;694,680,683,695;,
 3;696,681,680;,
 3;696,684,681;,
 3;696,686,684;,
 3;696,688,686;,
 3;696,690,688;,
 3;696,692,690;,
 3;696,694,692;,
 3;696,680,694;,
 3;697,683,682;,
 3;697,682,685;,
 3;697,685,687;,
 3;697,687,689;,
 3;697,689,691;,
 3;697,691,693;,
 3;697,693,695;,
 3;697,695,683;,
 4;698,699,700,701;,
 4;699,702,703,700;,
 4;702,704,705,703;,
 4;704,706,707,705;,
 4;706,708,709,707;,
 4;708,710,711,709;,
 4;710,712,713,711;,
 4;712,698,701,713;,
 3;714,699,698;,
 3;714,702,699;,
 3;714,704,702;,
 3;714,706,704;,
 3;714,708,706;,
 3;714,710,708;,
 3;714,712,710;,
 3;714,698,712;,
 3;715,701,700;,
 3;715,700,703;,
 3;715,703,705;,
 3;715,705,707;,
 3;715,707,709;,
 3;715,709,711;,
 3;715,711,713;,
 3;715,713,701;,
 4;716,717,718,719;,
 4;717,720,721,718;,
 4;720,722,723,721;,
 4;722,724,725,723;,
 4;724,726,727,725;,
 4;726,728,729,727;,
 4;728,730,731,729;,
 4;730,716,719,731;,
 3;732,717,716;,
 3;732,720,717;,
 3;732,722,720;,
 3;732,724,722;,
 3;732,726,724;,
 3;732,728,726;,
 3;732,730,728;,
 3;732,716,730;,
 3;733,719,718;,
 3;733,718,721;,
 3;733,721,723;,
 3;733,723,725;,
 3;733,725,727;,
 3;733,727,729;,
 3;733,729,731;,
 3;733,731,719;,
 4;734,735,736,737;,
 4;735,738,739,736;,
 4;738,740,741,739;,
 4;740,742,743,741;,
 4;742,744,745,743;,
 4;744,746,747,745;,
 4;746,748,749,747;,
 4;748,734,737,749;,
 3;750,735,734;,
 3;750,738,735;,
 3;750,740,738;,
 3;750,742,740;,
 3;750,744,742;,
 3;750,746,744;,
 3;750,748,746;,
 3;750,734,748;,
 3;751,737,736;,
 3;751,736,739;,
 3;751,739,741;,
 3;751,741,743;,
 3;751,743,745;,
 3;751,745,747;,
 3;751,747,749;,
 3;751,749,737;,
 4;752,753,754,755;,
 4;753,756,757,754;,
 4;756,758,759,757;,
 4;758,760,761,759;,
 4;760,762,763,761;,
 4;762,764,765,763;,
 4;764,766,767,765;,
 4;766,752,755,767;,
 3;768,753,752;,
 3;768,756,753;,
 3;768,758,756;,
 3;768,760,758;,
 3;768,762,760;,
 3;768,764,762;,
 3;768,766,764;,
 3;768,752,766;,
 3;769,755,754;,
 3;769,754,757;,
 3;769,757,759;,
 3;769,759,761;,
 3;769,761,763;,
 3;769,763,765;,
 3;769,765,767;,
 3;769,767,755;;
 
 MeshMaterialList {
  3;
  920;
  1,
  1,
  2,
  2,
  1,
  2,
  2,
  2,
  2,
  2,
  1,
  2,
  2,
  2,
  2,
  2,
  1,
  1,
  2,
  2,
  2,
  2,
  2,
  2,
  2,
  2,
  2,
  2,
  2,
  2,
  2,
  2,
  2,
  2,
  2,
  2,
  2,
  2,
  2,
  2,
  2,
  2,
  2,
  2,
  2,
  2,
  2,
  2,
  2,
  2,
  2,
  2,
  2,
  2,
  2,
  2,
  2,
  2,
  2,
  2,
  2,
  2,
  2,
  2,
  2,
  2,
  2,
  2,
  2,
  2,
  2,
  2,
  2,
  2,
  2,
  2,
  2,
  2,
  2,
  2,
  2,
  2,
  2,
  2,
  2,
  2,
  2,
  2,
  2,
  2,
  2,
  2,
  2,
  2,
  2,
  2,
  2,
  2,
  2,
  2,
  2,
  2,
  2,
  2,
  2,
  2,
  2,
  2,
  2,
  2,
  2,
  2,
  0,
  0,
  0,
  0,
  0,
  0,
  0,
  0,
  0,
  0,
  0,
  0,
  0,
  0,
  0,
  0,
  0,
  0,
  0,
  0,
  0,
  0,
  0,
  0,
  0,
  0,
  0,
  0,
  0,
  0,
  0,
  0,
  0,
  0,
  0,
  0,
  0,
  0,
  0,
  0,
  0,
  0,
  0,
  0,
  0,
  0,
  0,
  0,
  0,
  0,
  0,
  0,
  0,
  0,
  0,
  0,
  0,
  0,
  0,
  0,
  0,
  0,
  0,
  0,
  0,
  0,
  0,
  0,
  0,
  0,
  0,
  0,
  0,
  0,
  0,
  0,
  0,
  0,
  0,
  0,
  0,
  0,
  0,
  0,
  0,
  0,
  0,
  0,
  0,
  0,
  0,
  0,
  0,
  0,
  0,
  0,
  0,
  0,
  0,
  0,
  0,
  0,
  0,
  0,
  0,
  0,
  0,
  0,
  0,
  0,
  0,
  0,
  0,
  0,
  0,
  0,
  0,
  0,
  0,
  0,
  0,
  0,
  0,
  0,
  0,
  0,
  0,
  0,
  0,
  0,
  0,
  0,
  0,
  0,
  0,
  0,
  0,
  0,
  0,
  0,
  0,
  0,
  0,
  0,
  0,
  0,
  0,
  0,
  0,
  0,
  0,
  0,
  0,
  0,
  0,
  0,
  0,
  0,
  0,
  0,
  0,
  0,
  0,
  0,
  0,
  0,
  0,
  0,
  0,
  0,
  0,
  0,
  0,
  0,
  0,
  0,
  0,
  0,
  0,
  0,
  0,
  0,
  0,
  0,
  0,
  0,
  0,
  0,
  0,
  0,
  0,
  0,
  0,
  0,
  0,
  0,
  0,
  0,
  0,
  0,
  0,
  0,
  0,
  0,
  0,
  0,
  0,
  0,
  0,
  0,
  0,
  0,
  0,
  0,
  0,
  0,
  0,
  0,
  0,
  0,
  0,
  0,
  0,
  0,
  0,
  0,
  0,
  0,
  0,
  0,
  0,
  0,
  0,
  0,
  0,
  0,
  0,
  0,
  0,
  0,
  0,
  0,
  0,
  0,
  0,
  0,
  0,
  0,
  0,
  0,
  0,
  0,
  0,
  0,
  0,
  0,
  0,
  0,
  0,
  0,
  0,
  0,
  0,
  0,
  0,
  0,
  0,
  0,
  0,
  0,
  0,
  0,
  0,
  0,
  0,
  0,
  0,
  0,
  0,
  0,
  0,
  0,
  0,
  0,
  0,
  0,
  0,
  0,
  0,
  0,
  0,
  0,
  0,
  0,
  0,
  0,
  0,
  0,
  0,
  0,
  0,
  0,
  0,
  0,
  0,
  0,
  0,
  0,
  0,
  0,
  0,
  0,
  0,
  0,
  0,
  0,
  0,
  0,
  0,
  0,
  0,
  0,
  0,
  0,
  0,
  0,
  0,
  0,
  0,
  0,
  0,
  0,
  0,
  0,
  0,
  0,
  0,
  0,
  0,
  0,
  0,
  0,
  0,
  0,
  0,
  0,
  0,
  0,
  0,
  0,
  0,
  0,
  0,
  0,
  0,
  0,
  0,
  0,
  0,
  0,
  0,
  0,
  0,
  0,
  0,
  0,
  0,
  0,
  0,
  0,
  0,
  0,
  0,
  0,
  0,
  0,
  0,
  0,
  0,
  0,
  0,
  0,
  0,
  0,
  0,
  0,
  0,
  0,
  0,
  0,
  0,
  0,
  0,
  0,
  0,
  0,
  0,
  0,
  0,
  0,
  0,
  0,
  0,
  0,
  0,
  0,
  0,
  0,
  0,
  0,
  0,
  0,
  0,
  0,
  0,
  0,
  0,
  0,
  0,
  0,
  0,
  0,
  0,
  0,
  0,
  0,
  0,
  0,
  0,
  0,
  0,
  0,
  0,
  0,
  0,
  0,
  0,
  0,
  0,
  0,
  0,
  0,
  0,
  0,
  0,
  0,
  0,
  0,
  0,
  0,
  0,
  0,
  0,
  0,
  0,
  0,
  0,
  0,
  0,
  0,
  0,
  0,
  0,
  0,
  0,
  0,
  0,
  0,
  0,
  0,
  0,
  0,
  0,
  0,
  0,
  0,
  0,
  0,
  0,
  0,
  0,
  0,
  0,
  0,
  0,
  0,
  0,
  0,
  0,
  0,
  0,
  0,
  0,
  0,
  0,
  0,
  0,
  0,
  0,
  0,
  0,
  0,
  0,
  0,
  0,
  0,
  0,
  0,
  0,
  0,
  0,
  0,
  0,
  0,
  0,
  0,
  0,
  0,
  0,
  0,
  0,
  0,
  0,
  0,
  0,
  0,
  0,
  0,
  0,
  0,
  0,
  0,
  0,
  0,
  0,
  0,
  0,
  0,
  0,
  0,
  0,
  0,
  0,
  0,
  0,
  0,
  0,
  0,
  0,
  0,
  0,
  0,
  0,
  0,
  0,
  0,
  0,
  0,
  0,
  0,
  0,
  0,
  0,
  0,
  0,
  0,
  0,
  0,
  0,
  0,
  0,
  0,
  0,
  0,
  0,
  0,
  0,
  0,
  0,
  0,
  0,
  0,
  0,
  0,
  0,
  0,
  0,
  0,
  0,
  0,
  0,
  0,
  0,
  0,
  0,
  0,
  0,
  0,
  0,
  0,
  0,
  0,
  0,
  0,
  0,
  0,
  0,
  0,
  0,
  0,
  0,
  0,
  0,
  0,
  0,
  0,
  0,
  0,
  0,
  0,
  0,
  0,
  0,
  0,
  0,
  0,
  0,
  0,
  0,
  0,
  0,
  0,
  0,
  0,
  0,
  0,
  0,
  0,
  0,
  0,
  2,
  2,
  2,
  2,
  2,
  2,
  2,
  2,
  2,
  2,
  2,
  2,
  2,
  2,
  2,
  2,
  2,
  2,
  2,
  2,
  2,
  2,
  2,
  2,
  1,
  1,
  1,
  1,
  1,
  1,
  1,
  1,
  1,
  1,
  1,
  1,
  1,
  1,
  1,
  1,
  1,
  1,
  1,
  1,
  1,
  1,
  1,
  1,
  1,
  1,
  1,
  1,
  1,
  1,
  1,
  1,
  1,
  1,
  1,
  1,
  1,
  1,
  1,
  1,
  1,
  1,
  1,
  1,
  1,
  1,
  1,
  1,
  1,
  1,
  1,
  1,
  1,
  1,
  1,
  1,
  1,
  1,
  1,
  1,
  1,
  1,
  1,
  1,
  1,
  1,
  1,
  1,
  1,
  1,
  1,
  1,
  1,
  1,
  1,
  1,
  1,
  1,
  1,
  1,
  1,
  1,
  1,
  1,
  1,
  1,
  1,
  1,
  1,
  1,
  1,
  1,
  1,
  1,
  1,
  1,
  1,
  1,
  1,
  1,
  1,
  1,
  1,
  1,
  1,
  1,
  1,
  1,
  1,
  1,
  1,
  1,
  1,
  1,
  1,
  1,
  1,
  1,
  1,
  1,
  1,
  1,
  1,
  1,
  1,
  1,
  1,
  1,
  1,
  1,
  1,
  1,
  1,
  1,
  1,
  1,
  1,
  1,
  1,
  1,
  1,
  1,
  1,
  1;;
  Material {
   0.000000;0.000000;0.000000;1.000000;;
   5.000000;
   0.000000;0.000000;0.000000;;
   0.000000;0.000000;0.000000;;
  }
  Material {
   0.800000;0.800000;0.800000;1.000000;;
   5.000000;
   0.000000;0.000000;0.000000;;
   0.000000;0.000000;0.000000;;
  }
  Material {
   1.000000;1.000000;1.000000;1.000000;;
   0.000000;
   0.000000;0.000000;0.000000;;
   0.000000;0.000000;0.000000;;
  }
 }
 MeshNormals {
  877;
  -0.000000;0.000000;1.000000;,
  0.000000;0.000000;-1.000000;,
  0.000000;0.000000;-1.000000;,
  0.000000;0.987166;-0.159700;,
  -1.000000;0.000000;-0.000000;,
  1.000000;0.000000;-0.000000;,
  -1.000000;0.000000;-0.000000;,
  1.000000;0.000000;-0.000000;,
  0.000000;1.000000;0.000000;,
  -1.000000;0.000000;0.000001;,
  1.000000;0.000000;0.000001;,
  -1.000000;0.000000;0.000001;,
  -0.000000;0.987446;0.157957;,
  -1.000000;0.000000;0.000000;,
  1.000000;0.000000;-0.000000;,
  -1.000000;0.000000;0.000000;,
  1.000000;0.000000;-0.000000;,
  0.000000;0.948992;-0.315300;,
  -1.000000;0.000000;-0.000000;,
  -1.000000;0.000000;-0.000002;,
  1.000000;0.000000;-0.000002;,
  0.000000;-0.987067;-0.160310;,
  0.000000;-0.948601;-0.316474;,
  -1.000000;0.000000;0.000001;,
  0.000000;-1.000000;-0.000000;,
  -0.000000;0.950099;0.311948;,
  -1.000000;0.000000;0.000000;,
  -1.000000;0.000000;0.000000;,
  1.000000;0.000000;-0.000000;,
  1.000000;0.000000;-0.000000;,
  1.000000;0.000000;-0.000000;,
  1.000000;0.000000;0.000000;,
  1.000000;0.000000;-0.000000;,
  -0.000000;-0.987081;0.160221;,
  -0.000000;-0.948659;0.316302;,
  -0.707107;0.000000;0.707107;,
  -0.707107;0.000000;-0.707107;,
  0.707107;0.000000;-0.707107;,
  0.707107;0.000000;0.707107;,
  0.000000;1.000000;0.000000;,
  0.000000;-1.000000;0.000000;,
  0.707107;0.000000;0.707107;,
  -0.707107;0.000000;0.707107;,
  -0.707107;0.000000;-0.707107;,
  0.707107;0.000000;-0.707107;,
  0.000000;1.000000;0.000000;,
  0.000000;-1.000000;-0.000000;,
  0.000000;1.000000;0.000000;,
  -0.390730;0.000000;0.920505;,
  -0.927183;0.000000;0.374608;,
  -0.920505;0.000000;-0.390730;,
  -0.374604;0.000000;-0.927185;,
  0.390728;0.000000;-0.920506;,
  0.927182;0.000000;-0.374610;,
  0.920504;0.000000;0.390734;,
  0.374608;0.000000;0.927183;,
  0.000000;-1.000000;-0.000000;,
  0.000000;1.000000;0.000000;,
  -0.390725;0.000000;0.920508;,
  -0.927183;0.000000;0.374610;,
  -0.920504;0.000000;-0.390734;,
  -0.374608;0.000000;-0.927183;,
  0.390730;0.000000;-0.920506;,
  0.927184;0.000000;-0.374607;,
  0.920505;0.000000;0.390730;,
  0.374607;0.000000;0.927183;,
  0.000000;-1.000000;-0.000000;,
  0.000000;1.000000;0.000000;,
  -0.390735;0.000000;0.920503;,
  -0.927184;0.000000;0.374607;,
  -0.920505;0.000000;-0.390730;,
  -0.374608;0.000000;-0.927183;,
  0.390724;0.000000;-0.920508;,
  0.927185;0.000000;-0.374605;,
  0.920504;0.000000;0.390733;,
  0.374609;0.000000;0.927183;,
  0.000000;-1.000000;-0.000000;,
  0.390731;-0.000009;0.920505;,
  0.273071;0.715251;0.643311;,
  0.000002;1.000000;0.000000;,
  -0.273070;0.715249;-0.643313;,
  -0.390731;-0.000009;-0.920505;,
  -0.273068;-0.715254;-0.643308;,
  0.000002;-1.000000;0.000000;,
  0.273069;-0.715255;0.643306;,
  0.927185;-0.000009;0.374605;,
  0.647981;0.715248;0.261802;,
  -0.000004;1.000000;0.000001;,
  -0.647980;0.715250;-0.261801;,
  -0.927183;-0.000009;-0.374608;,
  -0.647975;-0.715255;-0.261799;,
  -0.000004;-1.000000;0.000001;,
  0.647977;-0.715253;0.261800;,
  0.920505;-0.000009;-0.390731;,
  0.643311;0.715252;-0.273068;,
  -0.000010;1.000000;0.000006;,
  -0.643314;0.715248;0.273071;,
  -0.920505;-0.000009;0.390731;,
  -0.643310;-0.715253;0.273069;,
  -0.000011;-1.000000;0.000006;,
  0.643307;-0.715256;-0.273066;,
  0.374608;-0.000009;-0.927183;,
  0.261798;0.715258;-0.647972;,
  -0.000006;1.000000;0.000012;,
  -0.261803;0.715248;0.647981;,
  -0.374609;-0.000009;0.927183;,
  -0.261801;-0.715253;0.647977;,
  -0.000006;-1.000000;0.000012;,
  0.261796;-0.715262;-0.647968;,
  -0.390731;-0.000009;-0.920505;,
  -0.273069;0.715254;-0.643308;,
  0.000002;1.000000;0.000006;,
  0.273069;0.715253;0.643309;,
  0.390731;-0.000009;0.920505;,
  0.273067;-0.715258;0.643304;,
  0.000002;-1.000000;0.000006;,
  -0.273067;-0.715258;-0.643304;,
  -0.927185;-0.000009;-0.374605;,
  -0.647980;0.715250;-0.261800;,
  0.000006;1.000000;0.000002;,
  0.647978;0.715252;0.261799;,
  0.927184;-0.000010;0.374606;,
  0.647974;-0.715257;0.261798;,
  0.000007;-1.000000;0.000002;,
  -0.647975;-0.715255;-0.261799;,
  -0.920505;-0.000009;0.390731;,
  -0.643311;0.715252;0.273068;,
  0.000010;1.000000;-0.000006;,
  0.643314;0.715248;-0.273071;,
  0.920505;-0.000009;-0.390731;,
  0.643309;-0.715252;-0.273069;,
  0.000011;-1.000000;-0.000006;,
  -0.643306;-0.715257;0.273066;,
  -0.374608;-0.000009;0.927183;,
  -0.261798;0.715257;0.647973;,
  0.000006;1.000000;-0.000009;,
  0.261803;0.715246;-0.647983;,
  0.374607;-0.000009;-0.927184;,
  0.261801;-0.715251;-0.647979;,
  0.000006;-1.000000;-0.000009;,
  -0.261796;-0.715261;0.647969;,
  0.000008;-0.000000;1.000000;,
  -0.000001;1.000000;0.000000;,
  0.707123;0.707091;-0.000000;,
  1.000000;-0.000020;-0.000001;,
  0.707092;-0.707121;-0.000000;,
  -0.000001;-1.000000;0.000000;,
  -0.707097;-0.707117;0.000000;,
  -1.000000;-0.000020;0.000000;,
  -0.707128;0.707086;0.000000;,
  -0.000000;-0.000000;-1.000000;,
  0.707107;0.000000;-0.707107;,
  -0.000007;1.000000;-0.000007;,
  -0.500016;0.707084;-0.500016;,
  -0.707107;-0.000020;-0.707107;,
  -0.499995;-0.707114;-0.499995;,
  -0.000007;-1.000000;-0.000007;,
  0.499990;-0.707121;0.499990;,
  0.707107;-0.000020;0.707107;,
  0.500012;0.707090;0.500012;,
  -0.707107;0.000000;0.707107;,
  -0.707106;0.000000;-0.707108;,
  -0.000000;1.000000;0.000000;,
  -0.500003;0.707102;0.500004;,
  -0.707107;-0.000020;0.707107;,
  -0.499982;-0.707132;0.499982;,
  -0.000000;-1.000000;0.000000;,
  0.499995;-0.707113;-0.499995;,
  0.707107;-0.000019;-0.707107;,
  0.500017;0.707083;-0.500017;,
  0.707107;0.000000;0.707107;,
  -1.000000;-0.000000;-0.000008;,
  0.000000;1.000000;0.000001;,
  0.000000;0.707085;0.707129;,
  0.000000;-0.000020;1.000000;,
  0.000000;-0.707115;0.707099;,
  0.000000;-1.000000;0.000001;,
  0.000000;-0.707128;-0.707085;,
  0.000000;-0.000020;-1.000000;,
  0.000000;0.707098;-0.707116;,
  1.000000;-0.000000;-0.000009;,
  0.000035;0.000008;1.000000;,
  0.000002;0.000000;1.000000;,
  0.000027;-0.000000;1.000000;,
  0.000035;-0.000008;1.000000;,
  -0.000019;-0.000019;1.000000;,
  0.000000;-0.000000;1.000000;,
  -0.000019;0.000019;1.000000;,
  -0.000000;0.000000;-1.000000;,
  0.000017;0.000020;-1.000000;,
  -0.000003;-0.000000;-1.000000;,
  0.000017;-0.000020;-1.000000;,
  -0.000000;0.000000;-1.000000;,
  -0.000017;-0.000020;-1.000000;,
  0.000003;-0.000000;-1.000000;,
  -0.000017;0.000020;-1.000000;,
  0.707107;0.000000;-0.707107;,
  -0.707107;0.000000;0.707107;,
  -0.707103;0.000000;-0.707110;,
  -0.707107;0.000000;-0.707107;,
  -0.707103;-0.000000;-0.707111;,
  -0.707103;-0.000000;-0.707110;,
  -0.707109;0.000002;-0.707105;,
  -0.707108;0.000000;-0.707106;,
  -0.707109;-0.000002;-0.707105;,
  0.707107;0.000000;0.707107;,
  0.707106;-0.000001;0.707107;,
  0.707106;0.000000;0.707108;,
  0.707106;0.000001;0.707107;,
  -1.000000;0.000013;0.000013;,
  -1.000000;0.000000;-0.000004;,
  -1.000000;-0.000000;0.000000;,
  -1.000000;-0.000013;0.000013;,
  -1.000000;0.000000;-0.000004;,
  -1.000000;-0.000005;-0.000029;,
  -1.000000;-0.000000;-0.000024;,
  -1.000000;0.000005;-0.000029;,
  1.000000;0.000000;-0.000002;,
  1.000000;0.000020;0.000014;,
  1.000000;-0.000000;-0.000006;,
  1.000000;-0.000020;0.000014;,
  1.000000;-0.000006;-0.000032;,
  1.000000;-0.000000;-0.000026;,
  1.000000;0.000006;-0.000032;,
  0.374605;-0.000009;0.927185;,
  0.261797;0.715257;0.647974;,
  -0.000002;1.000000;-0.000005;,
  -0.261798;0.715258;-0.647972;,
  -0.374608;-0.000009;-0.927183;,
  -0.261797;-0.715262;-0.647968;,
  -0.000002;-1.000000;-0.000005;,
  0.261796;-0.715261;0.647969;,
  0.920505;-0.000009;0.390731;,
  0.643305;0.715257;0.273068;,
  -0.000006;1.000000;-0.000002;,
  -0.643313;0.715250;-0.273069;,
  -0.920505;-0.000009;-0.390730;,
  -0.643308;-0.715254;-0.273067;,
  -0.000005;-1.000000;-0.000002;,
  0.643301;-0.715261;0.273066;,
  0.927185;-0.000009;-0.374605;,
  0.647973;0.715258;-0.261796;,
  -0.000009;1.000000;0.000005;,
  -0.647985;0.715245;0.261802;,
  -0.927185;-0.000009;0.374605;,
  -0.647981;-0.715249;0.261800;,
  -0.000008;-1.000000;0.000005;,
  0.647969;-0.715262;-0.261794;,
  0.390732;-0.000009;-0.920505;,
  0.273065;0.715260;-0.643303;,
  -0.000005;1.000000;0.000007;,
  -0.273071;0.715250;0.643311;,
  -0.390733;-0.000009;0.920504;,
  -0.273069;-0.715255;0.643307;,
  -0.000005;-1.000000;0.000008;,
  0.273063;-0.715265;-0.643298;,
  -0.374607;-0.000009;-0.927184;,
  -0.261800;0.715255;-0.647974;,
  -0.000000;1.000000;0.000002;,
  0.261800;0.715255;0.647975;,
  0.374608;-0.000009;0.927183;,
  0.261798;-0.715260;0.647970;,
  0.000000;-1.000000;0.000002;,
  -0.261798;-0.715261;-0.647969;,
  -0.920506;-0.000009;-0.390729;,
  -0.643310;0.715253;-0.273068;,
  0.000003;1.000000;0.000000;,
  0.643309;0.715253;0.273068;,
  0.920505;-0.000009;0.390731;,
  0.643305;-0.715258;0.273066;,
  0.000003;-1.000000;0.000000;,
  -0.643305;-0.715257;-0.273066;,
  -0.927184;-0.000009;0.374606;,
  -0.647977;0.715253;0.261798;,
  0.000011;1.000000;-0.000008;,
  0.647977;0.715253;-0.261799;,
  0.927185;-0.000009;-0.374604;,
  0.647972;-0.715258;-0.261798;,
  0.000010;-1.000000;-0.000008;,
  -0.647973;-0.715258;0.261796;,
  -0.390734;-0.000009;0.920504;,
  -0.273067;0.715257;0.643305;,
  0.000008;1.000000;-0.000012;,
  0.273068;0.715258;-0.643304;,
  0.390732;-0.000009;-0.920504;,
  0.273067;-0.715262;-0.643300;,
  0.000008;-1.000000;-0.000012;,
  -0.273065;-0.715262;0.643301;,
  -0.017461;-0.000000;0.999848;,
  0.000003;1.000000;0.000000;,
  0.707020;0.707086;0.012342;,
  0.999848;-0.000019;0.017454;,
  0.706989;-0.707116;0.012341;,
  0.000003;-1.000000;0.000000;,
  -0.706986;-0.707120;-0.012340;,
  -0.999848;-0.000020;-0.017452;,
  -0.707017;0.707089;-0.012341;,
  0.017443;-0.000000;-0.999848;,
  0.719335;0.000000;-0.694663;,
  -0.000004;1.000000;-0.000004;,
  -0.491214;0.707083;-0.508668;,
  -0.694658;-0.000020;-0.719340;,
  -0.491193;-0.707113;-0.508646;,
  -0.000004;-1.000000;-0.000004;,
  0.491192;-0.707116;0.508642;,
  0.694660;-0.000019;0.719339;,
  0.491213;0.707086;0.508664;,
  -0.719343;-0.000000;0.694655;,
  -0.694664;-0.000000;-0.719334;,
  -0.000004;1.000000;0.000004;,
  -0.508665;0.707085;0.491214;,
  -0.719339;-0.000019;0.694659;,
  -0.508643;-0.707115;0.491193;,
  -0.000004;-1.000000;0.000004;,
  0.508643;-0.707117;-0.491190;,
  0.719340;-0.000019;-0.694658;,
  0.508664;0.707087;-0.491211;,
  0.694646;0.000000;0.719351;,
  -0.999848;0.000000;-0.017434;,
  -0.000000;1.000000;-0.000004;,
  -0.012341;0.707094;0.707012;,
  -0.017453;-0.000020;0.999848;,
  -0.012341;-0.707124;0.706981;,
  -0.000000;-1.000000;-0.000004;,
  0.012340;-0.707116;-0.706990;,
  0.017452;-0.000019;-0.999848;,
  0.012341;0.707085;-0.707021;,
  0.999848;-0.000000;0.017459;,
  -0.017468;0.000002;0.999847;,
  -0.017467;0.000000;0.999847;,
  -0.017470;-0.000000;0.999847;,
  -0.017468;-0.000002;0.999847;,
  -0.017454;-0.000014;0.999848;,
  -0.017440;-0.000000;0.999848;,
  -0.017454;0.000014;0.999848;,
  0.017445;0.000000;-0.999848;,
  0.017452;0.000011;-0.999848;,
  0.017441;-0.000000;-0.999848;,
  0.017452;-0.000011;-0.999848;,
  0.017445;0.000000;-0.999848;,
  0.017434;-0.000005;-0.999848;,
  0.017438;-0.000000;-0.999848;,
  0.017434;0.000005;-0.999848;,
  0.719353;-0.000000;-0.694645;,
  0.719331;0.000000;-0.694667;,
  0.719353;0.000000;-0.694645;,
  0.719353;0.000000;-0.694645;,
  0.719317;0.000011;-0.694682;,
  0.719325;0.000000;-0.694674;,
  0.719317;-0.000011;-0.694682;,
  -0.719350;0.000000;0.694648;,
  -0.719339;0.000019;0.694659;,
  -0.719326;-0.000000;0.694673;,
  -0.719339;-0.000019;0.694659;,
  -0.719347;0.000000;0.694651;,
  -0.719347;0.000000;0.694651;,
  -0.719347;-0.000000;0.694651;,
  -0.694681;0.000007;-0.719318;,
  -0.694666;0.000000;-0.719333;,
  -0.694676;-0.000000;-0.719323;,
  -0.694681;-0.000007;-0.719318;,
  -0.694666;0.000000;-0.719333;,
  -0.694648;-0.000002;-0.719350;,
  -0.694649;-0.000000;-0.719349;,
  -0.694648;0.000002;-0.719350;,
  0.694644;0.000000;0.719354;,
  0.694647;0.000002;0.719351;,
  0.694649;-0.000000;0.719349;,
  0.694647;-0.000002;0.719351;,
  0.694644;0.000000;0.719354;,
  0.694646;0.000004;0.719352;,
  0.694649;0.000000;0.719349;,
  0.694646;-0.000004;0.719352;,
  -0.999848;0.000006;-0.017437;,
  -0.999848;0.000000;-0.017428;,
  -0.999848;-0.000000;-0.017443;,
  -0.999848;-0.000006;-0.017437;,
  -0.999848;0.000008;-0.017432;,
  -0.999848;0.000000;-0.017440;,
  -0.999848;-0.000008;-0.017432;,
  0.999848;0.000000;0.017450;,
  0.999847;-0.000003;0.017465;,
  0.999848;0.000000;0.017468;,
  0.999847;0.000003;0.017465;,
  0.999848;-0.000016;0.017453;,
  0.999847;-0.000000;0.017469;,
  0.999848;0.000016;0.017453;,
  0.358371;-0.000009;0.933579;,
  0.250451;0.715257;0.652443;,
  0.000000;1.000000;0.000000;,
  -0.250452;0.715252;-0.652448;,
  -0.358369;-0.000009;-0.933580;,
  -0.250450;-0.715257;-0.652443;,
  0.000000;-1.000000;0.000000;,
  0.250450;-0.715262;0.652438;,
  0.913545;-0.000009;0.406737;,
  0.638449;0.715249;0.284257;,
  -0.000005;1.000000;-0.000000;,
  -0.638450;0.715248;-0.284255;,
  -0.913545;-0.000009;-0.406737;,
  -0.638446;-0.715253;-0.284254;,
  -0.000005;-1.000000;-0.000000;,
  0.638444;-0.715254;0.284255;,
  0.933582;-0.000009;-0.358365;,
  0.652450;0.715250;-0.250450;,
  -0.000010;1.000000;0.000005;,
  -0.652452;0.715248;0.250452;,
  -0.933581;-0.000009;0.358365;,
  -0.652447;-0.715253;0.250450;,
  -0.000009;-1.000000;0.000005;,
  0.652446;-0.715255;-0.250448;,
  0.406740;-0.000009;-0.913544;,
  0.284252;0.715258;-0.638441;,
  -0.000004;1.000000;0.000005;,
  -0.284254;0.715253;0.638445;,
  -0.406736;-0.000009;0.913546;,
  -0.284252;-0.715258;0.638441;,
  -0.000005;-1.000000;0.000005;,
  0.284250;-0.715262;-0.638437;,
  -0.358368;-0.000009;-0.933580;,
  -0.250450;0.715259;-0.652441;,
  -0.000001;1.000000;-0.000002;,
  0.250452;0.715254;0.652445;,
  0.358370;-0.000009;0.933580;,
  0.250450;-0.715259;0.652441;,
  -0.000001;-1.000000;-0.000002;,
  -0.250448;-0.715264;-0.652436;,
  -0.913547;-0.000009;-0.406732;,
  -0.638443;0.715256;-0.284252;,
  -0.000000;1.000000;-0.000001;,
  0.638448;0.715251;0.284255;,
  0.913546;-0.000009;0.406735;,
  0.638443;-0.715256;0.284253;,
  -0.000000;-1.000000;-0.000001;,
  -0.638439;-0.715260;-0.284250;,
  -0.933581;-0.000009;0.358368;,
  -0.652444;0.715257;0.250447;,
  0.000010;1.000000;-0.000008;,
  0.652453;0.715247;-0.250454;,
  0.933581;-0.000009;-0.358367;,
  0.652448;-0.715251;-0.250453;,
  0.000010;-1.000000;-0.000008;,
  -0.652440;-0.715262;0.250445;,
  -0.406740;-0.000009;0.913544;,
  -0.284249;0.715264;0.638435;,
  0.000008;1.000000;-0.000009;,
  0.284258;0.715250;-0.638447;,
  0.406737;-0.000009;-0.913545;,
  0.284256;-0.715255;-0.638443;,
  0.000009;-1.000000;-0.000009;,
  -0.284247;-0.715269;0.638431;,
  -0.034906;0.000000;0.999391;,
  0.000005;1.000000;-0.000000;,
  0.706691;0.707091;0.024677;,
  0.999391;-0.000020;0.034898;,
  0.706661;-0.707122;0.024676;,
  0.000005;-1.000000;-0.000000;,
  -0.706666;-0.707117;-0.024678;,
  -0.999391;-0.000019;-0.034901;,
  -0.706696;0.707087;-0.024679;,
  0.034896;0.000000;-0.999391;,
  0.731357;-0.000000;-0.681995;,
  0.000000;1.000000;0.000000;,
  -0.482260;0.707085;-0.517162;,
  -0.681998;-0.000020;-0.731354;,
  -0.482240;-0.707115;-0.517139;,
  0.000000;-1.000000;0.000000;,
  0.482235;-0.707122;0.517134;,
  0.681998;-0.000020;0.731354;,
  0.482256;0.707092;0.517156;,
  -0.731347;0.000000;0.682006;,
  -0.681995;0.000000;-0.731357;,
  -0.000000;1.000000;0.000000;,
  -0.517156;0.707092;0.482256;,
  -0.731354;-0.000020;0.681998;,
  -0.517134;-0.707122;0.482235;,
  -0.000000;-1.000000;0.000000;,
  0.517140;-0.707114;-0.482241;,
  0.731353;-0.000019;-0.681999;,
  0.517162;0.707083;-0.482262;,
  0.681996;0.000000;0.731356;,
  -0.999391;-0.000000;-0.034897;,
  -0.000000;1.000000;0.000006;,
  -0.024678;0.707080;0.706703;,
  -0.034898;-0.000020;0.999391;,
  -0.024677;-0.707110;0.706673;,
  -0.000000;-1.000000;0.000006;,
  0.024677;-0.707119;-0.706664;,
  0.034899;-0.000019;-0.999391;,
  0.024678;0.707088;-0.706694;,
  0.999391;0.000000;0.034902;,
  -0.034906;-0.000023;0.999391;,
  -0.034913;0.000000;0.999390;,
  -0.034883;0.000000;0.999391;,
  -0.034906;0.000023;0.999391;,
  -0.034906;0.000008;0.999391;,
  -0.034915;0.000000;0.999390;,
  -0.034906;-0.000008;0.999391;,
  0.034895;0.000000;-0.999391;,
  0.034903;-0.000009;-0.999391;,
  0.034912;0.000000;-0.999390;,
  0.034903;0.000009;-0.999391;,
  0.034895;0.000000;-0.999391;,
  0.034890;0.000007;-0.999391;,
  0.034883;0.000000;-0.999391;,
  0.034890;-0.000007;-0.999391;,
  0.731346;0.000006;-0.682006;,
  0.731363;0.000000;-0.681988;,
  0.731350;-0.000000;-0.682002;,
  0.731346;-0.000006;-0.682006;,
  0.731363;0.000000;-0.681988;,
  0.731368;-0.000025;-0.681984;,
  0.731351;-0.000000;-0.682002;,
  0.731368;0.000025;-0.681983;,
  -0.731343;0.000000;0.682010;,
  -0.731348;-0.000006;0.682005;,
  -0.731352;0.000000;0.682000;,
  -0.731348;0.000006;0.682005;,
  -0.731343;0.000000;0.682010;,
  -0.731346;-0.000006;0.682006;,
  -0.731350;-0.000000;0.682002;,
  -0.731346;0.000006;0.682006;,
  -0.681984;-0.000025;-0.731367;,
  -0.681988;0.000000;-0.731363;,
  -0.682002;0.000000;-0.731350;,
  -0.681984;0.000025;-0.731367;,
  -0.682006;0.000006;-0.731347;,
  -0.682001;0.000000;-0.731351;,
  -0.682006;-0.000006;-0.731347;,
  0.681990;0.000000;0.731362;,
  0.682008;-0.000009;0.731344;,
  0.682002;0.000000;0.731351;,
  0.682008;0.000009;0.731345;,
  0.681990;0.000000;0.731362;,
  0.681983;0.000025;0.731368;,
  0.682002;0.000000;0.731351;,
  0.681983;-0.000025;0.731368;,
  -0.999390;0.000003;-0.034936;,
  -0.999391;0.000000;-0.034896;,
  -0.999390;-0.000000;-0.034938;,
  -0.999390;-0.000003;-0.034936;,
  -0.999392;-0.000000;-0.034859;,
  -0.999392;-0.000000;-0.034858;,
  -0.999392;0.000000;-0.034859;,
  0.999391;0.000000;0.034895;,
  0.999391;-0.000008;0.034900;,
  0.999391;0.000000;0.034908;,
  0.999391;0.000008;0.034900;,
  0.999391;-0.000007;0.034905;,
  0.999390;-0.000000;0.034912;,
  0.999391;0.000007;0.034905;,
  0.358371;-0.000009;0.933579;,
  0.250451;0.715257;0.652443;,
  0.000002;1.000000;0.000002;,
  -0.250449;0.715256;-0.652444;,
  -0.358369;-0.000009;-0.933580;,
  -0.250448;-0.715261;-0.652440;,
  0.000002;-1.000000;0.000002;,
  0.250449;-0.715262;0.652438;,
  0.913545;-0.000009;0.406737;,
  0.638449;0.715249;0.284257;,
  -0.000001;1.000000;0.000001;,
  -0.638451;0.715249;-0.284254;,
  -0.913546;-0.000009;-0.406735;,
  -0.638446;-0.715253;-0.284252;,
  -0.000001;-1.000000;0.000001;,
  0.638445;-0.715254;0.284255;,
  0.933581;-0.000009;-0.358366;,
  0.652451;0.715250;-0.250451;,
  -0.000008;1.000000;0.000005;,
  -0.652453;0.715247;0.250453;,
  -0.933582;-0.000009;0.358365;,
  -0.652449;-0.715251;0.250452;,
  -0.000008;-1.000000;0.000005;,
  0.652447;-0.715254;-0.250449;,
  0.406740;-0.000009;-0.913544;,
  0.284253;0.715255;-0.638444;,
  -0.000005;1.000000;0.000006;,
  -0.284253;0.715256;0.638442;,
  -0.406738;-0.000009;0.913545;,
  -0.284252;-0.715261;0.638438;,
  -0.000005;-1.000000;0.000006;,
  0.284251;-0.715259;-0.638440;,
  -0.358369;-0.000009;-0.933580;,
  -0.250452;0.715254;-0.652446;,
  -0.000001;1.000000;-0.000001;,
  0.250449;0.715261;0.652439;,
  0.358370;-0.000009;0.933580;,
  0.250447;-0.715266;0.652435;,
  -0.000001;-1.000000;-0.000001;,
  -0.250450;-0.715258;-0.652442;,
  -0.913547;-0.000009;-0.406733;,
  -0.638447;0.715252;-0.284254;,
  -0.000002;1.000000;-0.000001;,
  0.638444;0.715255;0.284252;,
  0.913547;-0.000009;0.406733;,
  0.638440;-0.715260;0.284250;,
  -0.000002;-1.000000;-0.000001;,
  -0.638442;-0.715257;-0.284252;,
  -0.933580;-0.000009;0.358368;,
  -0.652444;0.715258;0.250447;,
  0.000008;1.000000;-0.000008;,
  0.652451;0.715248;-0.250454;,
  0.933581;-0.000009;-0.358367;,
  0.652447;-0.715253;-0.250453;,
  0.000008;-1.000000;-0.000008;,
  -0.652439;-0.715263;0.250445;,
  -0.406740;-0.000009;0.913544;,
  -0.284249;0.715264;0.638435;,
  0.000008;1.000000;-0.000008;,
  0.284257;0.715253;-0.638445;,
  0.406738;-0.000009;-0.913545;,
  0.284255;-0.715258;-0.638440;,
  0.000008;-1.000000;-0.000008;,
  -0.284247;-0.715269;0.638430;,
  -0.034902;0.000000;0.999391;,
  0.000008;1.000000;-0.000000;,
  0.706689;0.707094;0.024677;,
  0.999391;-0.000020;0.034898;,
  0.706659;-0.707124;0.024676;,
  0.000008;-1.000000;-0.000000;,
  -0.706659;-0.707124;-0.024677;,
  -0.999391;-0.000020;-0.034900;,
  -0.706689;0.707093;-0.024678;,
  0.034898;0.000000;-0.999391;,
  0.731355;-0.000000;-0.681997;,
  -0.000001;1.000000;-0.000001;,
  -0.482254;0.707094;-0.517155;,
  -0.681998;-0.000020;-0.731354;,
  -0.482233;-0.707124;-0.517132;,
  -0.000001;-1.000000;-0.000001;,
  0.482235;-0.707122;0.517134;,
  0.681998;-0.000019;0.731354;,
  0.482256;0.707091;0.517156;,
  -0.731346;-0.000000;0.682007;,
  -0.681989;0.000000;-0.731362;,
  -0.000000;1.000000;0.000000;,
  -0.517156;0.707092;0.482256;,
  -0.731354;-0.000020;0.681998;,
  -0.517134;-0.707122;0.482235;,
  -0.000000;-1.000000;0.000000;,
  0.517139;-0.707114;-0.482241;,
  0.731353;-0.000019;-0.681999;,
  0.517162;0.707084;-0.482262;,
  0.681996;-0.000000;0.731356;,
  -0.999391;0.000000;-0.034902;,
  0.000000;1.000000;-0.000001;,
  -0.024679;0.707080;0.706703;,
  -0.034900;-0.000020;0.999391;,
  -0.024678;-0.707111;0.706672;,
  0.000000;-1.000000;-0.000001;,
  0.024677;-0.707117;-0.706666;,
  0.034899;-0.000020;-0.999391;,
  0.024678;0.707087;-0.706696;,
  0.999391;0.000000;0.034898;,
  -0.034887;-0.000004;0.999391;,
  -0.034893;0.000000;0.999391;,
  -0.034883;0.000000;0.999391;,
  -0.034887;0.000004;0.999391;,
  -0.034893;0.000000;0.999391;,
  -0.034917;0.000021;0.999390;,
  -0.034938;0.000000;0.999390;,
  -0.034917;-0.000021;0.999390;,
  0.034896;0.000000;-0.999391;,
  0.034904;-0.000008;-0.999391;,
  0.034912;0.000000;-0.999390;,
  0.034904;0.000008;-0.999391;,
  0.034896;0.000000;-0.999391;,
  0.034891;0.000005;-0.999391;,
  0.034886;0.000000;-0.999391;,
  0.034891;-0.000005;-0.999391;,
  0.731347;0.000006;-0.682006;,
  0.731361;0.000000;-0.681991;,
  0.731351;-0.000000;-0.682001;,
  0.731347;-0.000006;-0.682006;,
  0.731364;-0.000023;-0.681988;,
  0.731348;-0.000000;-0.682005;,
  0.731364;0.000023;-0.681988;,
  -0.731344;0.000000;0.682008;,
  -0.731347;-0.000002;0.682006;,
  -0.731348;0.000000;0.682005;,
  -0.731347;0.000002;0.682006;,
  -0.731345;-0.000003;0.682007;,
  -0.731348;-0.000000;0.682005;,
  -0.731345;0.000003;0.682007;,
  -0.681976;-0.000004;-0.731375;,
  -0.681991;0.000000;-0.731361;,
  -0.681978;0.000000;-0.731372;,
  -0.681976;0.000004;-0.731375;,
  -0.682003;0.000007;-0.731349;,
  -0.681998;0.000000;-0.731354;,
  -0.682003;-0.000007;-0.731349;,
  0.681989;0.000000;0.731362;,
  0.682017;0.000016;0.731336;,
  0.682029;-0.000000;0.731325;,
  0.682017;-0.000016;0.731336;,
  0.681975;0.000002;0.731376;,
  0.681976;0.000000;0.731375;,
  0.681975;-0.000002;0.731376;,
  -0.999390;0.000006;-0.034931;,
  -0.999391;0.000000;-0.034891;,
  -0.999390;-0.000000;-0.034937;,
  -0.999390;-0.000006;-0.034931;,
  -0.999392;0.000016;-0.034873;,
  -0.999391;0.000000;-0.034889;,
  -0.999392;-0.000016;-0.034873;,
  0.999391;0.000000;0.034896;,
  0.999392;-0.000017;0.034867;,
  0.999391;0.000000;0.034884;,
  0.999392;0.000017;0.034867;,
  0.999391;0.000000;0.034896;,
  0.999390;0.000014;0.034928;,
  0.999390;0.000000;0.034913;,
  0.999390;-0.000014;0.034928;,
  0.000000;1.000000;0.000000;,
  -0.390731;0.000000;0.920505;,
  -0.927185;0.000000;0.374603;,
  -0.920506;0.000000;-0.390728;,
  -0.374610;0.000000;-0.927182;,
  0.390728;0.000000;-0.920506;,
  0.927183;0.000000;-0.374609;,
  0.920504;0.000000;0.390734;,
  0.374608;0.000000;0.927183;,
  0.000000;-1.000000;-0.000000;,
  -0.000002;0.000000;-1.000000;,
  0.000002;1.000000;0.000000;,
  -0.707111;0.707103;0.000000;,
  -1.000000;0.000000;0.000000;,
  -0.707106;-0.707107;0.000000;,
  0.000002;-1.000000;0.000000;,
  0.707107;-0.707107;0.000000;,
  1.000000;0.000000;0.000000;,
  0.707111;0.707102;0.000000;,
  -0.000005;0.000000;1.000000;,
  0.000002;-0.000000;-1.000000;,
  0.000002;0.000000;-1.000000;,
  0.000002;0.000000;-1.000000;,
  0.000002;0.000000;-1.000000;,
  -0.000005;-0.000007;-1.000000;,
  -0.000012;0.000000;-1.000000;,
  -0.000005;0.000007;-1.000000;,
  -0.000010;0.000000;1.000000;,
  -0.000002;0.000000;1.000000;,
  -0.000002;0.000000;1.000000;,
  -0.000002;-0.000000;1.000000;,
  -0.000008;0.000009;1.000000;,
  0.000002;0.000000;1.000000;,
  -0.000008;-0.000009;1.000000;,
  -0.000000;0.000000;-1.000000;,
  0.000001;1.000000;0.000000;,
  -0.707106;0.707107;-0.000000;,
  -1.000000;0.000000;-0.000000;,
  -0.707102;-0.707111;-0.000000;,
  0.000001;-1.000000;0.000000;,
  0.707102;-0.707112;0.000001;,
  1.000000;0.000000;0.000001;,
  0.707106;0.707107;0.000000;,
  -0.000000;0.000000;1.000000;,
  -0.000005;0.000002;-1.000000;,
  0.000000;0.000000;-1.000000;,
  -0.000003;0.000000;-1.000000;,
  -0.000005;-0.000002;-1.000000;,
  0.000004;-0.000002;-1.000000;,
  0.000002;0.000000;-1.000000;,
  0.000004;0.000002;-1.000000;,
  -0.000001;0.000000;1.000000;,
  0.000001;0.000000;1.000000;,
  0.000002;0.000000;1.000000;,
  0.000001;-0.000000;1.000000;,
  -0.000001;0.000000;1.000000;,
  -0.000002;0.000000;1.000000;,
  -0.000002;0.000000;1.000000;,
  -0.000002;-0.000000;1.000000;,
  -0.883580;-0.339342;0.322698;,
  -0.097973;0.870734;0.481896;,
  0.468237;0.419543;0.777649;,
  0.755324;-0.234153;0.612094;,
  0.647155;-0.755484;0.102154;,
  0.159597;-0.845988;-0.508756;,
  -0.415920;-0.401861;-0.815793;,
  -0.713158;0.263211;-0.649712;,
  -0.596716;0.792002;-0.129086;,
  0.883561;0.339367;-0.322723;,
  -0.883588;-0.339334;0.322685;,
  -0.883582;-0.339329;0.322704;,
  -0.883580;-0.339348;0.322689;,
  -0.883580;-0.339346;0.322693;,
  -0.883577;-0.339347;0.322701;,
  -0.883578;-0.339341;0.322704;,
  -0.883580;-0.339343;0.322696;,
  -0.883574;-0.339346;0.322708;,
  0.883512;0.339439;-0.322780;,
  0.883524;0.339343;-0.322848;,
  0.883592;0.339206;-0.322807;,
  0.883647;0.339302;-0.322557;,
  0.883545;0.339528;-0.322598;,
  0.883499;0.339431;-0.322825;,
  0.883594;0.339296;-0.322708;,
  0.883573;0.339393;-0.322662;,
  -0.420644;-0.339339;-0.841372;,
  -0.486794;0.872714;-0.037443;,
  -0.722788;0.418065;0.550272;,
  -0.529066;-0.238457;0.814388;,
  -0.031702;-0.759036;0.650276;,
  0.525177;-0.844639;0.103800;,
  0.772422;-0.397438;-0.495387;,
  0.576888;0.271834;-0.770264;,
  0.068770;0.800224;-0.595745;,
  0.420659;0.339238;0.841406;,
  -0.420650;-0.339334;-0.841371;,
  -0.420652;-0.339336;-0.841370;,
  -0.420650;-0.339333;-0.841372;,
  -0.420634;-0.339339;-0.841378;,
  -0.420636;-0.339354;-0.841370;,
  -0.420650;-0.339343;-0.841368;,
  -0.420640;-0.339333;-0.841377;,
  -0.420643;-0.339340;-0.841372;,
  0.420705;0.339088;0.841443;,
  0.420800;0.339362;0.841285;,
  0.420972;0.339401;0.841184;,
  0.420845;0.339284;0.841294;,
  0.420539;0.339347;0.841422;,
  0.420464;0.339200;0.841519;,
  0.420420;0.339118;0.841574;,
  0.420526;0.339108;0.841525;,
  0.547089;-0.339337;0.765208;,
  0.513944;0.857801;-0.006152;,
  0.663705;0.406177;-0.628105;,
  0.412739;-0.246653;-0.876817;,
  -0.078005;-0.749244;-0.657685;,
  -0.562061;-0.825175;-0.056328;,
  -0.722467;-0.382274;0.576115;,
  -0.469223;0.281809;0.836907;,
  0.031585;0.793083;0.608294;,
  -0.547072;0.339400;-0.765193;,
  0.547085;-0.339327;0.765216;,
  0.547098;-0.339325;0.765208;,
  0.547080;-0.339349;0.765210;,
  0.547089;-0.339354;0.765201;,
  0.547099;-0.339345;0.765198;,
  0.547093;-0.339328;0.765210;,
  0.547081;-0.339331;0.765217;,
  0.547091;-0.339341;0.765206;,
  -0.547021;0.339229;-0.765305;,
  -0.547084;0.339459;-0.765158;,
  -0.547190;0.339526;-0.765052;,
  -0.547120;0.339448;-0.765137;,
  -0.546960;0.339504;-0.765226;,
  -0.546959;0.339546;-0.765209;,
  -0.547117;0.339342;-0.765186;,
  -0.547125;0.339148;-0.765266;,
  0.719925;-0.339338;-0.605440;,
  -0.029660;0.849392;-0.526929;,
  -0.569680;0.348424;-0.744355;,
  -0.787366;-0.344944;-0.510948;,
  -0.562211;-0.826409;0.031103;,
  -0.023513;-0.820481;0.571189;,
  0.517760;-0.323009;0.792206;,
  0.739383;0.373467;0.560210;,
  0.512776;0.858402;0.014381;,
  -0.719884;0.339300;0.605510;,
  0.719935;-0.339337;-0.605429;,
  0.719927;-0.339342;-0.605436;,
  0.719935;-0.339335;-0.605430;,
  0.719936;-0.339334;-0.605429;,
  0.719915;-0.339348;-0.605446;,
  0.719908;-0.339332;-0.605464;,
  0.719924;-0.339327;-0.605448;,
  0.719922;-0.339348;-0.605438;,
  -0.720043;0.339036;0.605469;,
  -0.719984;0.339241;0.605425;,
  -0.719854;0.339449;0.605462;,
  -0.719859;0.339417;0.605474;,
  -0.719896;0.339404;0.605438;,
  -0.719843;0.339545;0.605422;,
  -0.719743;0.339312;0.605671;,
  -0.719850;0.338998;0.605719;;
  920;
  4;2,2,2,2;,
  4;2,2,2,2;,
  4;1,1,1,1;,
  4;0,0,0,0;,
  4;3,3,17,17;,
  4;18,19,19,4;,
  4;7,5,20,20;,
  4;4,19,19,6;,
  4;5,7,20,20;,
  4;21,22,22,21;,
  4;8,8,3,3;,
  4;23,18,4,9;,
  4;10,10,5,7;,
  4;9,4,6,11;,
  4;10,10,7,5;,
  4;24,21,21,24;,
  4;12,25,25,12;,
  4;12,12,8,8;,
  4;26,23,9,13;,
  4;26,13,27,27;,
  4;28,29,30,14;,
  4;28,14,10,10;,
  4;13,9,11,15;,
  4;31,31,31,31;,
  4;14,30,32,16;,
  4;14,16,10,10;,
  4;33,24,24,33;,
  4;33,33,34,34;,
  4;35,35,35,35;,
  4;36,36,36,36;,
  4;37,37,37,37;,
  4;38,38,38,38;,
  4;39,39,39,39;,
  4;40,40,40,40;,
  4;41,41,41,41;,
  4;42,42,42,42;,
  4;43,43,43,43;,
  4;44,44,44,44;,
  4;45,45,45,45;,
  4;46,46,46,46;,
  4;48,49,49,48;,
  4;49,50,50,49;,
  4;50,51,51,50;,
  4;51,52,52,51;,
  4;52,53,53,52;,
  4;53,54,54,53;,
  4;54,55,55,54;,
  4;55,48,48,55;,
  3;47,47,47;,
  3;47,47,47;,
  3;47,47,47;,
  3;47,47,47;,
  3;47,47,47;,
  3;47,47,47;,
  3;47,47,47;,
  3;47,47,47;,
  3;56,56,56;,
  3;56,56,56;,
  3;56,56,56;,
  3;56,56,56;,
  3;56,56,56;,
  3;56,56,56;,
  3;56,56,56;,
  3;56,56,56;,
  4;58,59,59,58;,
  4;59,60,60,59;,
  4;60,61,61,60;,
  4;61,62,62,61;,
  4;62,63,63,62;,
  4;63,64,64,63;,
  4;64,65,65,64;,
  4;65,58,58,65;,
  3;57,57,57;,
  3;57,57,57;,
  3;57,57,57;,
  3;57,57,57;,
  3;57,57,57;,
  3;57,57,57;,
  3;57,57,57;,
  3;57,57,57;,
  3;66,66,66;,
  3;66,66,66;,
  3;66,66,66;,
  3;66,66,66;,
  3;66,66,66;,
  3;66,66,66;,
  3;66,66,66;,
  3;66,66,66;,
  4;68,69,69,68;,
  4;69,70,70,69;,
  4;70,71,71,70;,
  4;71,72,72,71;,
  4;72,73,73,72;,
  4;73,74,74,73;,
  4;74,75,75,74;,
  4;75,68,68,75;,
  3;67,67,67;,
  3;67,67,67;,
  3;67,67,67;,
  3;67,67,67;,
  3;67,67,67;,
  3;67,67,67;,
  3;67,67,67;,
  3;67,67,67;,
  3;76,76,76;,
  3;76,76,76;,
  3;76,76,76;,
  3;76,76,76;,
  3;76,76,76;,
  3;76,76,76;,
  3;76,76,76;,
  3;76,76,76;,
  4;77,78,86,85;,
  4;78,79,87,86;,
  4;79,80,88,87;,
  4;80,81,89,88;,
  4;81,82,90,89;,
  4;82,83,91,90;,
  4;83,84,92,91;,
  4;84,77,85,92;,
  4;85,86,94,93;,
  4;86,87,95,94;,
  4;87,88,96,95;,
  4;88,89,97,96;,
  4;89,90,98,97;,
  4;90,91,99,98;,
  4;91,92,100,99;,
  4;92,85,93,100;,
  4;93,94,102,101;,
  4;94,95,103,102;,
  4;95,96,104,103;,
  4;96,97,105,104;,
  4;97,98,106,105;,
  4;98,99,107,106;,
  4;99,100,108,107;,
  4;100,93,101,108;,
  4;101,102,110,109;,
  4;102,103,111,110;,
  4;103,104,112,111;,
  4;104,105,113,112;,
  4;105,106,114,113;,
  4;106,107,115,114;,
  4;107,108,116,115;,
  4;108,101,109,116;,
  4;109,110,118,117;,
  4;110,111,119,118;,
  4;111,112,120,119;,
  4;112,113,121,120;,
  4;113,114,122,121;,
  4;114,115,123,122;,
  4;115,116,124,123;,
  4;116,109,117,124;,
  4;117,118,126,125;,
  4;118,119,127,126;,
  4;119,120,128,127;,
  4;120,121,129,128;,
  4;121,122,130,129;,
  4;122,123,131,130;,
  4;123,124,132,131;,
  4;124,117,125,132;,
  4;125,126,134,133;,
  4;126,127,135,134;,
  4;127,128,136,135;,
  4;128,129,137,136;,
  4;129,130,138,137;,
  4;130,131,139,138;,
  4;131,132,140,139;,
  4;132,125,133,140;,
  4;133,134,78,77;,
  4;134,135,79,78;,
  4;135,136,80,79;,
  4;136,137,81,80;,
  4;137,138,82,81;,
  4;138,139,83,82;,
  4;139,140,84,83;,
  4;140,133,77,84;,
  4;142,143,143,142;,
  4;143,144,144,143;,
  4;144,145,145,144;,
  4;145,146,146,145;,
  4;146,147,147,146;,
  4;147,148,148,147;,
  4;148,149,149,148;,
  4;149,142,142,149;,
  3;141,181,182;,
  3;141,183,181;,
  3;141,184,183;,
  3;141,182,184;,
  3;141,185,182;,
  3;141,186,185;,
  3;141,187,186;,
  3;141,182,187;,
  3;150,188,189;,
  3;150,189,190;,
  3;150,190,191;,
  3;150,191,192;,
  3;150,192,193;,
  3;150,193,194;,
  3;150,194,195;,
  3;150,195,188;,
  4;152,153,153,152;,
  4;153,154,154,153;,
  4;154,155,155,154;,
  4;155,156,156,155;,
  4;156,157,157,156;,
  4;157,158,158,157;,
  4;158,159,159,158;,
  4;159,152,152,159;,
  3;151,196,196;,
  3;151,196,196;,
  3;151,196,196;,
  3;151,196,196;,
  3;151,196,196;,
  3;151,196,196;,
  3;151,196,196;,
  3;151,196,196;,
  3;160,197,197;,
  3;160,197,197;,
  3;160,197,197;,
  3;160,197,197;,
  3;160,197,197;,
  3;160,197,197;,
  3;160,197,197;,
  3;160,197,197;,
  4;162,163,163,162;,
  4;163,164,164,163;,
  4;164,165,165,164;,
  4;165,166,166,165;,
  4;166,167,167,166;,
  4;167,168,168,167;,
  4;168,169,169,168;,
  4;169,162,162,169;,
  3;161,198,199;,
  3;161,200,198;,
  3;161,201,200;,
  3;161,199,201;,
  3;161,202,199;,
  3;161,203,202;,
  3;161,204,203;,
  3;161,199,204;,
  3;170,205,206;,
  3;170,206,207;,
  3;170,207,208;,
  3;170,208,205;,
  3;170,205,205;,
  3;170,205,205;,
  3;170,205,205;,
  3;170,205,205;,
  4;172,173,173,172;,
  4;173,174,174,173;,
  4;174,175,175,174;,
  4;175,176,176,175;,
  4;176,177,177,176;,
  4;177,178,178,177;,
  4;178,179,179,178;,
  4;179,172,172,179;,
  3;171,209,210;,
  3;171,211,209;,
  3;171,212,211;,
  3;171,213,212;,
  3;171,214,213;,
  3;171,215,214;,
  3;171,216,215;,
  3;171,210,216;,
  3;180,217,218;,
  3;180,218,219;,
  3;180,219,220;,
  3;180,220,217;,
  3;180,217,221;,
  3;180,221,222;,
  3;180,222,223;,
  3;180,223,217;,
  4;224,225,233,232;,
  4;225,226,234,233;,
  4;226,227,235,234;,
  4;227,228,236,235;,
  4;228,229,237,236;,
  4;229,230,238,237;,
  4;230,231,239,238;,
  4;231,224,232,239;,
  4;232,233,241,240;,
  4;233,234,242,241;,
  4;234,235,243,242;,
  4;235,236,244,243;,
  4;236,237,245,244;,
  4;237,238,246,245;,
  4;238,239,247,246;,
  4;239,232,240,247;,
  4;240,241,249,248;,
  4;241,242,250,249;,
  4;242,243,251,250;,
  4;243,244,252,251;,
  4;244,245,253,252;,
  4;245,246,254,253;,
  4;246,247,255,254;,
  4;247,240,248,255;,
  4;248,249,257,256;,
  4;249,250,258,257;,
  4;250,251,259,258;,
  4;251,252,260,259;,
  4;252,253,261,260;,
  4;253,254,262,261;,
  4;254,255,263,262;,
  4;255,248,256,263;,
  4;256,257,265,264;,
  4;257,258,266,265;,
  4;258,259,267,266;,
  4;259,260,268,267;,
  4;260,261,269,268;,
  4;261,262,270,269;,
  4;262,263,271,270;,
  4;263,256,264,271;,
  4;264,265,273,272;,
  4;265,266,274,273;,
  4;266,267,275,274;,
  4;267,268,276,275;,
  4;268,269,277,276;,
  4;269,270,278,277;,
  4;270,271,279,278;,
  4;271,264,272,279;,
  4;272,273,281,280;,
  4;273,274,282,281;,
  4;274,275,283,282;,
  4;275,276,284,283;,
  4;276,277,285,284;,
  4;277,278,286,285;,
  4;278,279,287,286;,
  4;279,272,280,287;,
  4;280,281,225,224;,
  4;281,282,226,225;,
  4;282,283,227,226;,
  4;283,284,228,227;,
  4;284,285,229,228;,
  4;285,286,230,229;,
  4;286,287,231,230;,
  4;287,280,224,231;,
  4;289,290,290,289;,
  4;290,291,291,290;,
  4;291,292,292,291;,
  4;292,293,293,292;,
  4;293,294,294,293;,
  4;294,295,295,294;,
  4;295,296,296,295;,
  4;296,289,289,296;,
  3;288,328,329;,
  3;288,330,328;,
  3;288,331,330;,
  3;288,329,331;,
  3;288,332,329;,
  3;288,333,332;,
  3;288,334,333;,
  3;288,329,334;,
  3;297,335,336;,
  3;297,336,337;,
  3;297,337,338;,
  3;297,338,339;,
  3;297,339,340;,
  3;297,340,341;,
  3;297,341,342;,
  3;297,342,335;,
  4;299,300,300,299;,
  4;300,301,301,300;,
  4;301,302,302,301;,
  4;302,303,303,302;,
  4;303,304,304,303;,
  4;304,305,305,304;,
  4;305,306,306,305;,
  4;306,299,299,306;,
  3;298,343,344;,
  3;298,345,343;,
  3;298,346,345;,
  3;298,344,346;,
  3;298,347,344;,
  3;298,348,347;,
  3;298,349,348;,
  3;298,344,349;,
  3;307,350,351;,
  3;307,351,352;,
  3;307,352,353;,
  3;307,353,350;,
  3;307,350,354;,
  3;307,354,355;,
  3;307,355,356;,
  3;307,356,350;,
  4;309,310,310,309;,
  4;310,311,311,310;,
  4;311,312,312,311;,
  4;312,313,313,312;,
  4;313,314,314,313;,
  4;314,315,315,314;,
  4;315,316,316,315;,
  4;316,309,309,316;,
  3;308,357,358;,
  3;308,359,357;,
  3;308,360,359;,
  3;308,361,360;,
  3;308,362,361;,
  3;308,363,362;,
  3;308,364,363;,
  3;308,358,364;,
  3;317,365,366;,
  3;317,366,367;,
  3;317,367,368;,
  3;317,368,369;,
  3;317,369,370;,
  3;317,370,371;,
  3;317,371,372;,
  3;317,372,365;,
  4;319,320,320,319;,
  4;320,321,321,320;,
  4;321,322,322,321;,
  4;322,323,323,322;,
  4;323,324,324,323;,
  4;324,325,325,324;,
  4;325,326,326,325;,
  4;326,319,319,326;,
  3;318,373,374;,
  3;318,375,373;,
  3;318,376,375;,
  3;318,374,376;,
  3;318,377,374;,
  3;318,378,377;,
  3;318,379,378;,
  3;318,374,379;,
  3;327,380,381;,
  3;327,381,382;,
  3;327,382,383;,
  3;327,383,380;,
  3;327,380,384;,
  3;327,384,385;,
  3;327,385,386;,
  3;327,386,380;,
  4;387,388,396,395;,
  4;388,389,397,396;,
  4;389,390,398,397;,
  4;390,391,399,398;,
  4;391,392,400,399;,
  4;392,393,401,400;,
  4;393,394,402,401;,
  4;394,387,395,402;,
  4;395,396,404,403;,
  4;396,397,405,404;,
  4;397,398,406,405;,
  4;398,399,407,406;,
  4;399,400,408,407;,
  4;400,401,409,408;,
  4;401,402,410,409;,
  4;402,395,403,410;,
  4;403,404,412,411;,
  4;404,405,413,412;,
  4;405,406,414,413;,
  4;406,407,415,414;,
  4;407,408,416,415;,
  4;408,409,417,416;,
  4;409,410,418,417;,
  4;410,403,411,418;,
  4;411,412,420,419;,
  4;412,413,421,420;,
  4;413,414,422,421;,
  4;414,415,423,422;,
  4;415,416,424,423;,
  4;416,417,425,424;,
  4;417,418,426,425;,
  4;418,411,419,426;,
  4;419,420,428,427;,
  4;420,421,429,428;,
  4;421,422,430,429;,
  4;422,423,431,430;,
  4;423,424,432,431;,
  4;424,425,433,432;,
  4;425,426,434,433;,
  4;426,419,427,434;,
  4;427,428,436,435;,
  4;428,429,437,436;,
  4;429,430,438,437;,
  4;430,431,439,438;,
  4;431,432,440,439;,
  4;432,433,441,440;,
  4;433,434,442,441;,
  4;434,427,435,442;,
  4;435,436,444,443;,
  4;436,437,445,444;,
  4;437,438,446,445;,
  4;438,439,447,446;,
  4;439,440,448,447;,
  4;440,441,449,448;,
  4;441,442,450,449;,
  4;442,435,443,450;,
  4;443,444,388,387;,
  4;444,445,389,388;,
  4;445,446,390,389;,
  4;446,447,391,390;,
  4;447,448,392,391;,
  4;448,449,393,392;,
  4;449,450,394,393;,
  4;450,443,387,394;,
  4;452,453,453,452;,
  4;453,454,454,453;,
  4;454,455,455,454;,
  4;455,456,456,455;,
  4;456,457,457,456;,
  4;457,458,458,457;,
  4;458,459,459,458;,
  4;459,452,452,459;,
  3;451,491,492;,
  3;451,493,491;,
  3;451,494,493;,
  3;451,492,494;,
  3;451,495,492;,
  3;451,496,495;,
  3;451,497,496;,
  3;451,492,497;,
  3;460,498,499;,
  3;460,499,500;,
  3;460,500,501;,
  3;460,501,502;,
  3;460,502,503;,
  3;460,503,504;,
  3;460,504,505;,
  3;460,505,498;,
  4;462,463,463,462;,
  4;463,464,464,463;,
  4;464,465,465,464;,
  4;465,466,466,465;,
  4;466,467,467,466;,
  4;467,468,468,467;,
  4;468,469,469,468;,
  4;469,462,462,469;,
  3;461,506,507;,
  3;461,508,506;,
  3;461,509,508;,
  3;461,510,509;,
  3;461,511,510;,
  3;461,512,511;,
  3;461,513,512;,
  3;461,507,513;,
  3;470,514,515;,
  3;470,515,516;,
  3;470,516,517;,
  3;470,517,518;,
  3;470,518,519;,
  3;470,519,520;,
  3;470,520,521;,
  3;470,521,514;,
  4;472,473,473,472;,
  4;473,474,474,473;,
  4;474,475,475,474;,
  4;475,476,476,475;,
  4;476,477,477,476;,
  4;477,478,478,477;,
  4;478,479,479,478;,
  4;479,472,472,479;,
  3;471,522,523;,
  3;471,524,522;,
  3;471,525,524;,
  3;471,523,525;,
  3;471,526,523;,
  3;471,527,526;,
  3;471,528,527;,
  3;471,523,528;,
  3;480,529,530;,
  3;480,530,531;,
  3;480,531,532;,
  3;480,532,533;,
  3;480,533,534;,
  3;480,534,535;,
  3;480,535,536;,
  3;480,536,529;,
  4;482,483,483,482;,
  4;483,484,484,483;,
  4;484,485,485,484;,
  4;485,486,486,485;,
  4;486,487,487,486;,
  4;487,488,488,487;,
  4;488,489,489,488;,
  4;489,482,482,489;,
  3;481,537,538;,
  3;481,539,537;,
  3;481,540,539;,
  3;481,538,540;,
  3;481,541,538;,
  3;481,542,541;,
  3;481,543,542;,
  3;481,538,543;,
  3;490,544,545;,
  3;490,545,546;,
  3;490,546,547;,
  3;490,547,544;,
  3;490,544,548;,
  3;490,548,549;,
  3;490,549,550;,
  3;490,550,544;,
  4;551,552,560,559;,
  4;552,553,561,560;,
  4;553,554,562,561;,
  4;554,555,563,562;,
  4;555,556,564,563;,
  4;556,557,565,564;,
  4;557,558,566,565;,
  4;558,551,559,566;,
  4;559,560,568,567;,
  4;560,561,569,568;,
  4;561,562,570,569;,
  4;562,563,571,570;,
  4;563,564,572,571;,
  4;564,565,573,572;,
  4;565,566,574,573;,
  4;566,559,567,574;,
  4;567,568,576,575;,
  4;568,569,577,576;,
  4;569,570,578,577;,
  4;570,571,579,578;,
  4;571,572,580,579;,
  4;572,573,581,580;,
  4;573,574,582,581;,
  4;574,567,575,582;,
  4;575,576,584,583;,
  4;576,577,585,584;,
  4;577,578,586,585;,
  4;578,579,587,586;,
  4;579,580,588,587;,
  4;580,581,589,588;,
  4;581,582,590,589;,
  4;582,575,583,590;,
  4;583,584,592,591;,
  4;584,585,593,592;,
  4;585,586,594,593;,
  4;586,587,595,594;,
  4;587,588,596,595;,
  4;588,589,597,596;,
  4;589,590,598,597;,
  4;590,583,591,598;,
  4;591,592,600,599;,
  4;592,593,601,600;,
  4;593,594,602,601;,
  4;594,595,603,602;,
  4;595,596,604,603;,
  4;596,597,605,604;,
  4;597,598,606,605;,
  4;598,591,599,606;,
  4;599,600,608,607;,
  4;600,601,609,608;,
  4;601,602,610,609;,
  4;602,603,611,610;,
  4;603,604,612,611;,
  4;604,605,613,612;,
  4;605,606,614,613;,
  4;606,599,607,614;,
  4;607,608,552,551;,
  4;608,609,553,552;,
  4;609,610,554,553;,
  4;610,611,555,554;,
  4;611,612,556,555;,
  4;612,613,557,556;,
  4;613,614,558,557;,
  4;614,607,551,558;,
  4;616,617,617,616;,
  4;617,618,618,617;,
  4;618,619,619,618;,
  4;619,620,620,619;,
  4;620,621,621,620;,
  4;621,622,622,621;,
  4;622,623,623,622;,
  4;623,616,616,623;,
  3;615,655,656;,
  3;615,657,655;,
  3;615,658,657;,
  3;615,659,658;,
  3;615,660,659;,
  3;615,661,660;,
  3;615,662,661;,
  3;615,656,662;,
  3;624,663,664;,
  3;624,664,665;,
  3;624,665,666;,
  3;624,666,667;,
  3;624,667,668;,
  3;624,668,669;,
  3;624,669,670;,
  3;624,670,663;,
  4;626,627,627,626;,
  4;627,628,628,627;,
  4;628,629,629,628;,
  4;629,630,630,629;,
  4;630,631,631,630;,
  4;631,632,632,631;,
  4;632,633,633,632;,
  4;633,626,626,633;,
  3;625,671,672;,
  3;625,673,671;,
  3;625,674,673;,
  3;625,672,674;,
  3;625,675,672;,
  3;625,676,675;,
  3;625,677,676;,
  3;625,672,677;,
  3;634,678,679;,
  3;634,679,680;,
  3;634,680,681;,
  3;634,681,678;,
  3;634,678,682;,
  3;634,682,683;,
  3;634,683,684;,
  3;634,684,678;,
  4;636,637,637,636;,
  4;637,638,638,637;,
  4;638,639,639,638;,
  4;639,640,640,639;,
  4;640,641,641,640;,
  4;641,642,642,641;,
  4;642,643,643,642;,
  4;643,636,636,643;,
  3;635,685,686;,
  3;635,687,685;,
  3;635,688,687;,
  3;635,686,688;,
  3;635,689,686;,
  3;635,690,689;,
  3;635,691,690;,
  3;635,686,691;,
  3;644,692,693;,
  3;644,693,694;,
  3;644,694,695;,
  3;644,695,692;,
  3;644,692,696;,
  3;644,696,697;,
  3;644,697,698;,
  3;644,698,692;,
  4;646,647,647,646;,
  4;647,648,648,647;,
  4;648,649,649,648;,
  4;649,650,650,649;,
  4;650,651,651,650;,
  4;651,652,652,651;,
  4;652,653,653,652;,
  4;653,646,646,653;,
  3;645,699,700;,
  3;645,701,699;,
  3;645,702,701;,
  3;645,700,702;,
  3;645,703,700;,
  3;645,704,703;,
  3;645,705,704;,
  3;645,700,705;,
  3;654,706,707;,
  3;654,707,708;,
  3;654,708,709;,
  3;654,709,710;,
  3;654,710,711;,
  3;654,711,712;,
  3;654,712,713;,
  3;654,713,706;,
  4;715,716,716,715;,
  4;716,717,717,716;,
  4;717,718,718,717;,
  4;718,719,719,718;,
  4;719,720,720,719;,
  4;720,721,721,720;,
  4;721,722,722,721;,
  4;722,715,715,722;,
  3;714,714,714;,
  3;714,714,714;,
  3;714,714,714;,
  3;714,714,714;,
  3;714,714,714;,
  3;714,714,714;,
  3;714,714,714;,
  3;714,714,714;,
  3;723,723,723;,
  3;723,723,723;,
  3;723,723,723;,
  3;723,723,723;,
  3;723,723,723;,
  3;723,723,723;,
  3;723,723,723;,
  3;723,723,723;,
  4;725,726,726,725;,
  4;726,727,727,726;,
  4;727,728,728,727;,
  4;728,729,729,728;,
  4;729,730,730,729;,
  4;730,731,731,730;,
  4;731,732,732,731;,
  4;732,725,725,732;,
  3;724,734,735;,
  3;724,736,734;,
  3;724,737,736;,
  3;724,735,737;,
  3;724,738,735;,
  3;724,739,738;,
  3;724,740,739;,
  3;724,735,740;,
  3;733,741,742;,
  3;733,742,743;,
  3;733,743,744;,
  3;733,744,741;,
  3;733,741,745;,
  3;733,745,746;,
  3;733,746,747;,
  3;733,747,741;,
  4;749,750,750,749;,
  4;750,751,751,750;,
  4;751,752,752,751;,
  4;752,753,753,752;,
  4;753,754,754,753;,
  4;754,755,755,754;,
  4;755,756,756,755;,
  4;756,749,749,756;,
  3;748,758,759;,
  3;748,760,758;,
  3;748,761,760;,
  3;748,759,761;,
  3;748,762,759;,
  3;748,763,762;,
  3;748,764,763;,
  3;748,759,764;,
  3;757,765,766;,
  3;757,766,767;,
  3;757,767,768;,
  3;757,768,769;,
  3;757,769,770;,
  3;757,770,771;,
  3;757,771,772;,
  3;757,772,765;,
  4;774,775,775,774;,
  4;775,776,776,775;,
  4;776,777,777,776;,
  4;777,778,778,777;,
  4;778,779,779,778;,
  4;779,780,780,779;,
  4;780,781,781,780;,
  4;781,774,774,781;,
  3;773,783,784;,
  3;773,785,783;,
  3;773,786,785;,
  3;773,787,786;,
  3;773,788,787;,
  3;773,789,788;,
  3;773,790,789;,
  3;773,784,790;,
  3;782,791,792;,
  3;782,792,793;,
  3;782,793,794;,
  3;782,794,795;,
  3;782,795,796;,
  3;782,796,797;,
  3;782,797,798;,
  3;782,798,791;,
  4;800,801,801,800;,
  4;801,802,802,801;,
  4;802,803,803,802;,
  4;803,804,804,803;,
  4;804,805,805,804;,
  4;805,806,806,805;,
  4;806,807,807,806;,
  4;807,800,800,807;,
  3;799,809,810;,
  3;799,811,809;,
  3;799,812,811;,
  3;799,813,812;,
  3;799,814,813;,
  3;799,815,814;,
  3;799,816,815;,
  3;799,810,816;,
  3;808,817,818;,
  3;808,818,819;,
  3;808,819,820;,
  3;808,820,821;,
  3;808,821,822;,
  3;808,822,823;,
  3;808,823,824;,
  3;808,824,817;,
  4;826,827,827,826;,
  4;827,828,828,827;,
  4;828,829,829,828;,
  4;829,830,830,829;,
  4;830,831,831,830;,
  4;831,832,832,831;,
  4;832,833,833,832;,
  4;833,826,826,833;,
  3;825,835,836;,
  3;825,837,835;,
  3;825,838,837;,
  3;825,839,838;,
  3;825,840,839;,
  3;825,841,840;,
  3;825,842,841;,
  3;825,836,842;,
  3;834,843,844;,
  3;834,844,845;,
  3;834,845,846;,
  3;834,846,847;,
  3;834,847,848;,
  3;834,848,849;,
  3;834,849,850;,
  3;834,850,843;,
  4;852,853,853,852;,
  4;853,854,854,853;,
  4;854,855,855,854;,
  4;855,856,856,855;,
  4;856,857,857,856;,
  4;857,858,858,857;,
  4;858,859,859,858;,
  4;859,852,852,859;,
  3;851,861,862;,
  3;851,863,861;,
  3;851,864,863;,
  3;851,865,864;,
  3;851,866,865;,
  3;851,867,866;,
  3;851,868,867;,
  3;851,862,868;,
  3;860,869,870;,
  3;860,870,871;,
  3;860,871,872;,
  3;860,872,873;,
  3;860,873,874;,
  3;860,874,875;,
  3;860,875,876;,
  3;860,876,869;;
 }
}
