xof 0302txt 0064
template Header {
 <3D82AB43-62DA-11cf-AB39-0020AF71E433>
 WORD major;
 WORD minor;
 DWORD flags;
}

template Vector {
 <3D82AB5E-62DA-11cf-AB39-0020AF71E433>
 FLOAT x;
 FLOAT y;
 FLOAT z;
}

template Coords2d {
 <F6F23F44-7686-11cf-8F52-0040333594A3>
 FLOAT u;
 FLOAT v;
}

template Matrix4x4 {
 <F6F23F45-7686-11cf-8F52-0040333594A3>
 array FLOAT matrix[16];
}

template ColorRGBA {
 <35FF44E0-6C7C-11cf-8F52-0040333594A3>
 FLOAT red;
 FLOAT green;
 FLOAT blue;
 FLOAT alpha;
}

template ColorRGB {
 <D3E16E81-7835-11cf-8F52-0040333594A3>
 FLOAT red;
 FLOAT green;
 FLOAT blue;
}

template IndexedColor {
 <1630B820-7842-11cf-8F52-0040333594A3>
 DWORD index;
 ColorRGBA indexColor;
}

template Boolean {
 <4885AE61-78E8-11cf-8F52-0040333594A3>
 WORD truefalse;
}

template Boolean2d {
 <4885AE63-78E8-11cf-8F52-0040333594A3>
 Boolean u;
 Boolean v;
}

template MaterialWrap {
 <4885AE60-78E8-11cf-8F52-0040333594A3>
 Boolean u;
 Boolean v;
}

template TextureFilename {
 <A42790E1-7810-11cf-8F52-0040333594A3>
 STRING filename;
}

template Material {
 <3D82AB4D-62DA-11cf-AB39-0020AF71E433>
 ColorRGBA faceColor;
 FLOAT power;
 ColorRGB specularColor;
 ColorRGB emissiveColor;
 [...]
}

template MeshFace {
 <3D82AB5F-62DA-11cf-AB39-0020AF71E433>
 DWORD nFaceVertexIndices;
 array DWORD faceVertexIndices[nFaceVertexIndices];
}

template MeshFaceWraps {
 <4885AE62-78E8-11cf-8F52-0040333594A3>
 DWORD nFaceWrapValues;
 Boolean2d faceWrapValues;
}

template MeshTextureCoords {
 <F6F23F40-7686-11cf-8F52-0040333594A3>
 DWORD nTextureCoords;
 array Coords2d textureCoords[nTextureCoords];
}

template MeshMaterialList {
 <F6F23F42-7686-11cf-8F52-0040333594A3>
 DWORD nMaterials;
 DWORD nFaceIndexes;
 array DWORD faceIndexes[nFaceIndexes];
 [Material]
}

template MeshNormals {
 <F6F23F43-7686-11cf-8F52-0040333594A3>
 DWORD nNormals;
 array Vector normals[nNormals];
 DWORD nFaceNormals;
 array MeshFace faceNormals[nFaceNormals];
}

template MeshVertexColors {
 <1630B821-7842-11cf-8F52-0040333594A3>
 DWORD nVertexColors;
 array IndexedColor vertexColors[nVertexColors];
}

template Mesh {
 <3D82AB44-62DA-11cf-AB39-0020AF71E433>
 DWORD nVertices;
 array Vector vertices[nVertices];
 DWORD nFaces;
 array MeshFace faces[nFaces];
 [...]
}

Header{
1;
0;
1;
}

Mesh {
 117;
 0.00090;0.00012;0.00022;,
 -0.80482;0.00012;1.68946;,
 1.06096;0.00012;1.54262;,
 0.00090;0.00012;0.00022;,
 -1.86489;0.00012;0.14706;,
 0.00090;0.00012;0.00022;,
 -1.05915;0.00012;-1.54217;,
 0.00090;0.00012;0.00022;,
 0.80662;0.00012;-1.68902;,
 0.00090;0.00012;0.00022;,
 1.86668;0.00012;-0.14661;,
 0.00090;0.00012;0.00022;,
 1.06096;0.00012;1.54262;,
 11.15722;1.38971;14.75600;,
 9.83592;1.38971;15.66414;,
 9.83592;0.79919;15.66414;,
 11.15722;0.79919;14.75600;,
 9.83592;1.38971;15.66414;,
 1.38934;1.38971;5.02505;,
 1.38934;-0.03979;5.02505;,
 9.83592;0.79919;15.66414;,
 4.25178;1.38971;3.05775;,
 11.15722;1.38971;14.75600;,
 11.15722;0.79919;14.75600;,
 4.25178;-0.03979;3.05775;,
 9.83592;1.38971;15.66414;,
 11.15722;1.38971;14.75600;,
 11.15722;0.79919;14.75600;,
 9.83592;0.79919;15.66414;,
 2.53931;1.38971;2.00479;,
 1.02000;1.38971;3.04899;,
 1.38934;1.38971;5.02505;,
 4.25178;1.38971;3.05775;,
 2.53931;-0.03979;2.00479;,
 4.25178;-0.03979;3.05775;,
 1.02000;-0.03979;3.04899;,
 1.38934;-0.03979;5.02505;,
 0.91002;1.38971;-0.36585;,
 -0.60928;1.38971;0.67834;,
 0.91002;-0.03979;-0.36585;,
 -0.60928;-0.03979;0.67834;,
 -9.77674;1.38971;-15.70310;,
 -9.77674;0.79919;-15.70310;,
 -11.09803;0.79919;-14.79500;,
 -11.09803;1.38971;-14.79500;,
 -11.09803;1.38971;-14.79500;,
 -11.09803;0.79919;-14.79500;,
 -4.19262;-0.03979;-3.09673;,
 -4.19262;1.38971;-3.09673;,
 -1.33017;1.38971;-5.06403;,
 -1.33017;-0.03979;-5.06403;,
 -9.77674;0.79919;-15.70310;,
 -9.77674;1.38971;-15.70310;,
 -9.77674;1.38971;-15.70310;,
 -11.09803;1.38971;-14.79500;,
 -9.77674;0.79919;-15.70310;,
 -11.09803;0.79919;-14.79500;,
 -0.96084;1.38971;-3.08797;,
 -1.33017;1.38971;-5.06403;,
 -4.19262;1.38971;-3.09673;,
 -2.48014;1.38971;-2.04377;,
 -0.96084;-0.03979;-3.08797;,
 -1.33017;-0.03979;-5.06403;,
 -2.48014;-0.03979;-2.04377;,
 -4.19262;-0.03979;-3.09673;,
 14.80509;1.38971;-11.14712;,
 15.71319;1.38971;-9.82583;,
 15.71319;0.79919;-9.82583;,
 14.80509;0.79919;-11.14712;,
 15.71319;1.38971;-9.82583;,
 5.07412;1.38971;-1.37924;,
 5.07412;-0.03979;-1.37924;,
 15.71319;0.79919;-9.82583;,
 3.10683;1.38971;-4.24168;,
 14.80509;1.38971;-11.14712;,
 14.80509;0.79919;-11.14712;,
 3.10683;-0.03979;-4.24168;,
 15.71319;1.38971;-9.82583;,
 14.80509;1.38971;-11.14712;,
 14.80509;0.79919;-11.14712;,
 15.71319;0.79919;-9.82583;,
 2.05387;1.38971;-2.52923;,
 3.09806;1.38971;-1.00991;,
 5.07412;1.38971;-1.37924;,
 3.10683;1.38971;-4.24168;,
 2.05387;-0.03979;-2.52923;,
 3.10683;-0.03979;-4.24168;,
 3.09806;-0.03979;-1.00991;,
 5.07412;-0.03979;-1.37924;,
 -0.31678;1.38971;-0.89993;,
 0.72741;1.38971;0.61939;,
 -0.31678;-0.03979;-0.89993;,
 0.72741;-0.03979;0.61939;,
 -15.65404;1.38971;9.78684;,
 -15.65404;0.79919;9.78684;,
 -14.74592;0.79919;11.10815;,
 -14.74592;1.38971;11.10815;,
 -14.74592;1.38971;11.10815;,
 -14.74592;0.79919;11.10815;,
 -3.04766;-0.03979;4.20271;,
 -3.04766;1.38971;4.20271;,
 -5.01495;1.38971;1.34026;,
 -5.01495;-0.03979;1.34026;,
 -15.65404;0.79919;9.78684;,
 -15.65404;1.38971;9.78684;,
 -15.65404;1.38971;9.78684;,
 -14.74592;1.38971;11.10815;,
 -15.65404;0.79919;9.78684;,
 -14.74592;0.79919;11.10815;,
 -3.03889;1.38971;0.97093;,
 -5.01495;1.38971;1.34026;,
 -3.04766;1.38971;4.20271;,
 -1.99469;1.38971;2.49025;,
 -3.03889;-0.03979;0.97093;,
 -5.01495;-0.03979;1.34026;,
 -1.99469;-0.03979;2.49025;,
 -3.04766;-0.03979;4.20271;;
 
 62;
 3;0,1,2;,
 3;3,4,1;,
 3;5,6,4;,
 3;7,8,6;,
 3;9,10,8;,
 3;11,12,10;,
 4;13,14,15,16;,
 4;17,18,19,20;,
 4;21,22,23,24;,
 4;21,18,25,26;,
 4;27,28,19,24;,
 4;29,30,31,32;,
 4;33,29,32,34;,
 4;35,33,34,36;,
 4;30,35,36,31;,
 4;37,38,30,29;,
 4;39,37,29,33;,
 4;40,39,33,35;,
 4;38,40,35,30;,
 4;38,37,39,40;,
 4;41,42,43,44;,
 4;45,46,47,48;,
 4;49,50,51,52;,
 4;49,53,54,48;,
 4;55,50,47,56;,
 4;57,58,59,60;,
 4;61,62,58,57;,
 4;63,64,62,61;,
 4;60,59,64,63;,
 4;37,57,60,38;,
 4;39,61,57,37;,
 4;40,63,61,39;,
 4;38,60,63,40;,
 4;38,40,39,37;,
 4;65,66,67,68;,
 4;69,70,71,72;,
 4;73,74,75,76;,
 4;73,70,77,78;,
 4;79,80,71,76;,
 4;81,82,83,84;,
 4;85,81,84,86;,
 4;87,85,86,88;,
 4;82,87,88,83;,
 4;89,90,82,81;,
 4;91,89,81,85;,
 4;92,91,85,87;,
 4;90,92,87,82;,
 4;90,89,91,92;,
 4;93,94,95,96;,
 4;97,98,99,100;,
 4;101,102,103,104;,
 4;101,105,106,100;,
 4;107,102,99,108;,
 4;109,110,111,112;,
 4;113,114,110,109;,
 4;115,116,114,113;,
 4;112,111,116,115;,
 4;89,109,112,90;,
 4;91,113,109,89;,
 4;92,115,113,91;,
 4;90,112,115,92;,
 4;90,92,91,89;;
 
 MeshMaterialList {
  3;
  62;
  0,
  0,
  0,
  0,
  0,
  0,
  0,
  0,
  0,
  0,
  0,
  0,
  0,
  0,
  0,
  0,
  0,
  0,
  0,
  0,
  0,
  0,
  0,
  0,
  0,
  0,
  0,
  0,
  0,
  0,
  0,
  0,
  0,
  0,
  0,
  0,
  0,
  0,
  0,
  0,
  0,
  0,
  0,
  0,
  0,
  0,
  0,
  0,
  0,
  0,
  0,
  0,
  0,
  0,
  0,
  0,
  0,
  0,
  0,
  0,
  0,
  0;;
  Material {
   0.100000;0.109600;0.172800;1.000000;;
   15.000000;
   0.500000;0.500000;0.500000;;
   0.000000;0.000000;0.000000;;
  }
  Material {
   0.269600;0.269600;0.269600;1.000000;;
   23.000000;
   0.700000;0.700000;0.700000;;
   0.010110;0.010110;0.010110;;
  }
  Material {
   0.408000;0.408000;0.408000;1.000000;;
   89.000000;
   0.510000;0.510000;0.510000;;
   0.000000;0.000000;0.000000;;
  }
 }
 MeshNormals {
  46;
  0.000000;1.000000;0.000000;,
  0.566421;0.000000;0.824116;,
  -0.909840;0.000000;0.414960;,
  0.713454;0.000000;-0.700703;,
  0.000000;-1.000000;-0.000000;,
  0.688902;0.000000;-0.724855;,
  -0.566407;0.000000;-0.824126;,
  -0.713454;0.000000;0.700702;,
  0.909841;0.000000;-0.414958;,
  0.923590;0.000000;-0.383381;,
  0.824127;0.000000;-0.566405;,
  0.824126;0.000000;-0.566407;,
  0.414958;0.000000;0.909840;,
  -0.700700;0.000000;-0.713456;,
  -0.724853;0.000000;-0.688904;,
  -0.824124;0.000000;0.566410;,
  0.700700;0.000000;0.713456;,
  -0.414958;0.000000;-0.909841;,
  -0.383382;0.000000;-0.923590;,
  -0.566406;0.000000;-0.824126;,
  -0.783186;0.000000;0.621787;,
  0.861157;0.000000;-0.508338;,
  0.034998;-0.998089;0.050922;,
  0.017508;-0.999522;0.025473;,
  -0.923590;0.000000;0.383381;,
  -0.824128;0.000000;0.566404;,
  -0.566408;0.000000;-0.824125;,
  -0.861159;0.000000;0.508336;,
  0.783186;0.000000;-0.621787;,
  -0.034998;-0.998089;-0.050922;,
  -0.017507;-0.999522;-0.025473;,
  -0.688900;0.000000;0.724856;,
  0.566408;0.000000;0.824125;,
  0.621788;0.000000;0.783186;,
  -0.508338;0.000000;-0.861158;,
  0.050922;-0.998089;-0.034998;,
  0.025473;-0.999522;-0.017507;,
  0.383381;0.000000;0.923590;,
  0.566407;0.000000;0.824126;,
  -0.824129;0.000000;0.566402;,
  0.508338;0.000000;0.861158;,
  -0.621787;0.000000;-0.783186;,
  -0.050922;-0.998089;0.034998;,
  -0.025473;-0.999522;0.017507;,
  0.724854;0.000000;0.688903;,
  0.824129;0.000000;-0.566402;;
  62;
  3;0,0,0;,
  3;0,0,0;,
  3;0,0,0;,
  3;0,0,0;,
  3;0,0,0;,
  3;0,0,0;,
  4;1,1,1,1;,
  4;20,2,2,20;,
  4;3,21,21,3;,
  4;0,0,0,0;,
  4;22,22,23,23;,
  4;0,0,0,0;,
  4;5,5,3,3;,
  4;4,4,23,23;,
  4;24,24,2,2;,
  4;0,0,0,0;,
  4;10,10,5,5;,
  4;4,4,4,4;,
  4;25,25,24,24;,
  4;26,26,26,26;,
  4;6,6,6,6;,
  4;27,27,7,7;,
  4;8,8,28,28;,
  4;0,0,0,0;,
  4;29,30,30,29;,
  4;0,0,0,0;,
  4;9,8,8,9;,
  4;4,30,30,4;,
  4;31,7,7,31;,
  4;0,0,0,0;,
  4;10,9,9,10;,
  4;4,4,4,4;,
  4;25,31,31,25;,
  4;32,32,32,32;,
  4;11,11,11,11;,
  4;33,12,12,33;,
  4;13,34,34,13;,
  4;0,0,0,0;,
  4;35,35,36,36;,
  4;0,0,0,0;,
  4;14,14,13,13;,
  4;4,4,36,36;,
  4;37,37,12,12;,
  4;0,0,0,0;,
  4;19,19,14,14;,
  4;4,4,4,4;,
  4;38,38,37,37;,
  4;39,39,39,39;,
  4;15,15,15,15;,
  4;40,40,16,16;,
  4;17,17,41,41;,
  4;0,0,0,0;,
  4;42,43,43,42;,
  4;0,0,0,0;,
  4;18,17,17,18;,
  4;4,43,43,4;,
  4;44,16,16,44;,
  4;0,0,0,0;,
  4;19,18,18,19;,
  4;4,4,4,4;,
  4;38,44,44,38;,
  4;45,45,45,45;;
 }
 MeshTextureCoords {
  117;
  0.083330;0.000000;,
  0.166670;0.000000;,
  0.000000;0.000000;,
  0.250000;0.000000;,
  0.333330;0.000000;,
  0.416670;0.000000;,
  0.500000;0.000000;,
  0.583330;0.000000;,
  0.666670;0.000000;,
  0.750000;0.000000;,
  0.833330;0.000000;,
  0.916670;0.000000;,
  1.000000;0.000000;,
  0.000000;0.000000;,
  1.000000;0.000000;,
  1.000000;1.000000;,
  0.000000;1.000000;,
  0.000000;0.000000;,
  1.000000;0.000000;,
  1.000000;1.000000;,
  0.000000;1.000000;,
  0.000000;0.000000;,
  1.000000;0.000000;,
  1.000000;1.000000;,
  0.000000;1.000000;,
  1.000000;1.000000;,
  0.000000;1.000000;,
  0.000000;0.000000;,
  1.000000;0.000000;,
  1.000000;0.000000;,
  0.000000;0.000000;,
  0.000000;0.000000;,
  1.000000;0.000000;,
  1.000000;1.000000;,
  1.000000;1.000000;,
  0.000000;1.000000;,
  0.000000;1.000000;,
  1.000000;0.000000;,
  0.000000;0.000000;,
  1.000000;1.000000;,
  0.000000;1.000000;,
  0.000000;0.000000;,
  0.000000;1.000000;,
  1.000000;1.000000;,
  1.000000;0.000000;,
  0.000000;0.000000;,
  0.000000;1.000000;,
  1.000000;1.000000;,
  1.000000;0.000000;,
  0.000000;0.000000;,
  0.000000;1.000000;,
  1.000000;1.000000;,
  1.000000;0.000000;,
  0.000000;1.000000;,
  1.000000;1.000000;,
  0.000000;0.000000;,
  1.000000;0.000000;,
  1.000000;0.000000;,
  1.000000;0.000000;,
  0.000000;0.000000;,
  0.000000;0.000000;,
  1.000000;1.000000;,
  1.000000;1.000000;,
  0.000000;1.000000;,
  0.000000;1.000000;,
  0.000000;0.000000;,
  1.000000;0.000000;,
  1.000000;1.000000;,
  0.000000;1.000000;,
  0.000000;0.000000;,
  1.000000;0.000000;,
  1.000000;1.000000;,
  0.000000;1.000000;,
  0.000000;0.000000;,
  1.000000;0.000000;,
  1.000000;1.000000;,
  0.000000;1.000000;,
  1.000000;1.000000;,
  0.000000;1.000000;,
  0.000000;0.000000;,
  1.000000;0.000000;,
  1.000000;0.000000;,
  0.000000;0.000000;,
  0.000000;0.000000;,
  1.000000;0.000000;,
  1.000000;1.000000;,
  1.000000;1.000000;,
  0.000000;1.000000;,
  0.000000;1.000000;,
  1.000000;0.000000;,
  0.000000;0.000000;,
  1.000000;1.000000;,
  0.000000;1.000000;,
  0.000000;0.000000;,
  0.000000;1.000000;,
  1.000000;1.000000;,
  1.000000;0.000000;,
  0.000000;0.000000;,
  0.000000;1.000000;,
  1.000000;1.000000;,
  1.000000;0.000000;,
  0.000000;0.000000;,
  0.000000;1.000000;,
  1.000000;1.000000;,
  1.000000;0.000000;,
  0.000000;1.000000;,
  1.000000;1.000000;,
  0.000000;0.000000;,
  1.000000;0.000000;,
  1.000000;0.000000;,
  1.000000;0.000000;,
  0.000000;0.000000;,
  0.000000;0.000000;,
  1.000000;1.000000;,
  1.000000;1.000000;,
  0.000000;1.000000;,
  0.000000;1.000000;;
 }
}
