xof 0302txt 0064
template Header {
 <3D82AB43-62DA-11cf-AB39-0020AF71E433>
 WORD major;
 WORD minor;
 DWORD flags;
}

template Vector {
 <3D82AB5E-62DA-11cf-AB39-0020AF71E433>
 FLOAT x;
 FLOAT y;
 FLOAT z;
}

template Coords2d {
 <F6F23F44-7686-11cf-8F52-0040333594A3>
 FLOAT u;
 FLOAT v;
}

template Matrix4x4 {
 <F6F23F45-7686-11cf-8F52-0040333594A3>
 array FLOAT matrix[16];
}

template ColorRGBA {
 <35FF44E0-6C7C-11cf-8F52-0040333594A3>
 FLOAT red;
 FLOAT green;
 FLOAT blue;
 FLOAT alpha;
}

template ColorRGB {
 <D3E16E81-7835-11cf-8F52-0040333594A3>
 FLOAT red;
 FLOAT green;
 FLOAT blue;
}

template IndexedColor {
 <1630B820-7842-11cf-8F52-0040333594A3>
 DWORD index;
 ColorRGBA indexColor;
}

template Boolean {
 <4885AE61-78E8-11cf-8F52-0040333594A3>
 WORD truefalse;
}

template Boolean2d {
 <4885AE63-78E8-11cf-8F52-0040333594A3>
 Boolean u;
 Boolean v;
}

template MaterialWrap {
 <4885AE60-78E8-11cf-8F52-0040333594A3>
 Boolean u;
 Boolean v;
}

template TextureFilename {
 <A42790E1-7810-11cf-8F52-0040333594A3>
 STRING filename;
}

template Material {
 <3D82AB4D-62DA-11cf-AB39-0020AF71E433>
 ColorRGBA faceColor;
 FLOAT power;
 ColorRGB specularColor;
 ColorRGB emissiveColor;
 [...]
}

template MeshFace {
 <3D82AB5F-62DA-11cf-AB39-0020AF71E433>
 DWORD nFaceVertexIndices;
 array DWORD faceVertexIndices[nFaceVertexIndices];
}

template MeshFaceWraps {
 <4885AE62-78E8-11cf-8F52-0040333594A3>
 DWORD nFaceWrapValues;
 Boolean2d faceWrapValues;
}

template MeshTextureCoords {
 <F6F23F40-7686-11cf-8F52-0040333594A3>
 DWORD nTextureCoords;
 array Coords2d textureCoords[nTextureCoords];
}

template MeshMaterialList {
 <F6F23F42-7686-11cf-8F52-0040333594A3>
 DWORD nMaterials;
 DWORD nFaceIndexes;
 array DWORD faceIndexes[nFaceIndexes];
 [Material]
}

template MeshNormals {
 <F6F23F43-7686-11cf-8F52-0040333594A3>
 DWORD nNormals;
 array Vector normals[nNormals];
 DWORD nFaceNormals;
 array MeshFace faceNormals[nFaceNormals];
}

template MeshVertexColors {
 <1630B821-7842-11cf-8F52-0040333594A3>
 DWORD nVertexColors;
 array IndexedColor vertexColors[nVertexColors];
}

template Mesh {
 <3D82AB44-62DA-11cf-AB39-0020AF71E433>
 DWORD nVertices;
 array Vector vertices[nVertices];
 DWORD nFaces;
 array MeshFace faces[nFaces];
 [...]
}

Header{
1;
0;
1;
}

Mesh {
 224;
 11.55534;4.81362;-45.00000;,
 22.46409;4.94922;-40.93290;,
 22.46409;-0.15720;-40.93290;,
 11.55534;-0.15720;-45.00000;,
 -10.17207;4.81362;-45.00000;,
 -10.17207;-0.15720;-45.00000;,
 -22.46409;-0.15720;-40.93290;,
 -22.46409;4.94922;-40.93290;,
 9.11544;3.06093;-49.18461;,
 -7.73217;3.06093;-49.18461;,
 9.11544;-0.15720;-49.18461;,
 -7.73217;-0.15720;-49.18461;,
 -10.17207;9.46332;-37.47426;,
 11.55534;9.46332;-37.47426;,
 -10.17207;11.64939;-28.33050;,
 11.55534;11.64939;-28.33050;,
 -14.67219;6.18600;-28.62876;,
 15.44847;6.18600;-28.62876;,
 -10.17207;-0.15720;-36.74811;,
 11.55534;-0.15720;-36.74811;,
 -10.17207;12.64119;-17.38488;,
 11.55534;12.64119;-17.38488;,
 -25.06935;6.18600;-28.32543;,
 -25.06935;-0.15720;-28.32543;,
 25.06935;6.18600;-28.32543;,
 25.06935;-0.15720;-28.32543;,
 -10.17207;-0.15720;-25.56456;,
 11.55534;-0.15720;-25.56456;,
 11.55534;13.02303;-10.08063;,
 12.60900;6.75027;-10.33557;,
 -10.17207;13.02303;-10.08063;,
 -11.69580;6.75027;-10.33557;,
 12.68871;6.75027;14.65221;,
 11.55534;6.75027;24.17592;,
 17.76987;6.75027;24.17592;,
 18.25296;6.53817;-7.11024;,
 11.55534;12.95187;14.74803;,
 11.55534;14.08524;24.17592;,
 17.76987;-0.15720;24.17592;,
 18.25296;-0.15720;-7.11024;,
 -10.17207;12.95187;14.74803;,
 -10.17207;14.08524;24.17592;,
 -11.48214;6.75027;14.65221;,
 -10.17207;6.75027;24.17592;,
 -18.25296;6.53817;-7.11024;,
 -17.76987;6.75027;24.17592;,
 -18.25296;-0.15720;-7.11024;,
 -17.76987;-0.15720;24.17592;,
 17.76987;6.75027;36.96588;,
 17.76987;-0.15720;36.96588;,
 11.55534;6.75027;48.62364;,
 11.55534;-0.15720;48.62364;,
 -17.76987;6.75027;36.96588;,
 -10.17207;6.75027;48.62364;,
 -17.76987;-0.15720;36.96588;,
 -10.17207;-0.15720;48.62364;,
 -10.17207;14.08524;36.96588;,
 11.55534;14.08524;36.96588;,
 11.55534;-3.74199;-16.41543;,
 -10.17207;-3.74199;-16.41543;,
 10.28181;-5.57415;24.17592;,
 15.34515;-4.01742;-12.02142;,
 -13.96188;-4.01742;-12.02142;,
 -8.89851;-5.57415;24.17592;,
 10.28181;-5.57415;48.62364;,
 -8.89851;-5.57415;48.62364;,
 -1.28163;-9.25089;40.23999;,
 2.66490;-9.25089;40.23999;,
 -1.28163;-9.25089;32.31927;,
 2.66490;-9.25089;32.31927;,
 5.34480;-9.68037;21.93618;,
 13.56300;-13.30656;-6.45825;,
 -3.96150;-9.68037;21.93618;,
 -12.17970;-13.30656;-6.45825;,
 -10.17207;-12.47688;-23.33046;,
 11.55534;-12.47688;-23.33046;,
 -11.67624;-1.23879;-28.89363;,
 13.05954;-1.23879;-28.89363;,
 -1.28022;18.48669;39.01572;,
 2.73903;18.48669;39.01572;,
 2.73903;18.48669;15.64080;,
 -1.28022;18.48669;15.64080;,
 -6.84393;6.61383;-6.28137;,
 8.30277;6.61383;-6.28137;,
 8.30277;6.61383;46.05438;,
 -6.84393;6.61383;46.05438;,
 -6.84393;13.90452;-6.28137;,
 8.30277;13.90452;-6.28137;,
 -6.84393;13.90452;46.05438;,
 8.30277;13.90452;46.05438;,
 7.42374;-1.29093;-31.78848;,
 7.42374;-1.29093;-3.81519;,
 10.01094;-3.39030;-3.81519;,
 10.01094;-3.39030;-31.78848;,
 -7.42374;-1.29093;-3.81519;,
 -7.42374;-1.29093;-31.78848;,
 -10.01094;-3.16599;-31.78848;,
 -10.01094;-3.16599;-3.81519;,
 6.39207;-11.72403;-3.81519;,
 6.39207;-11.72403;-31.78848;,
 10.01094;-9.59316;-31.78848;,
 10.01094;-9.59316;-3.81519;,
 -6.39207;-11.72403;-31.78848;,
 -6.39207;-11.72403;-3.81519;,
 -10.01094;-9.81747;-3.81519;,
 -10.01094;-9.81747;-31.78848;,
 3.91119;-1.29093;-31.78848;,
 5.27424;-3.33723;-31.78848;,
 3.91119;-1.29093;-3.81519;,
 5.27424;-9.64623;-31.78848;,
 5.27424;-3.33723;-3.81519;,
 3.36765;-11.72403;-31.78848;,
 5.27424;-9.64623;-3.81519;,
 3.36765;-11.72403;-3.81519;,
 -4.72788;-1.29093;-31.78848;,
 -6.37557;-3.20673;-31.78848;,
 -4.72788;-1.29093;-3.81519;,
 -6.37557;-9.77673;-31.78848;,
 -6.37557;-3.20673;-3.81519;,
 -4.07085;-11.72403;-31.78848;,
 -6.37557;-9.77673;-3.81519;,
 -4.07085;-11.72403;-3.81519;,
 3.16764;-4.36452;-28.61841;,
 -4.26894;-4.27650;-28.61841;,
 3.16764;-8.61894;-28.61841;,
 -4.26894;-8.70696;-28.61841;,
 -7.35963;-8.30100;39.18546;,
 -7.35963;2.43750;39.18546;,
 -16.16328;2.43750;39.18546;,
 -16.16328;-4.65498;39.18546;,
 -8.86497;-8.30100;17.05752;,
 -12.47079;-4.65498;17.05752;,
 -12.47079;2.43750;17.05752;,
 -8.86497;2.43750;17.05752;,
 9.46848;2.43750;39.18546;,
 9.46848;-8.30100;39.18546;,
 16.16328;-4.65498;39.18546;,
 16.16328;2.43750;39.18546;,
 10.97385;2.43750;17.05752;,
 12.47079;2.43750;17.05752;,
 12.47079;-4.65498;17.05752;,
 10.97385;-8.30100;17.05752;,
 -3.02808;2.43750;47.89956;,
 5.13693;2.43750;47.89956;,
 -3.02808;-6.49803;47.89956;,
 5.13693;-6.49803;47.89956;,
 6.06324;-11.86212;17.05752;,
 -3.95439;-11.86212;17.05752;,
 -1.69857;-11.86212;45.74340;,
 3.80745;-11.86212;45.74340;,
 -3.19425;-11.86212;39.18546;,
 5.30310;-11.86212;39.18546;,
 -3.19425;-16.13553;36.24261;,
 5.30310;-16.13553;36.24261;,
 6.06324;-17.74428;20.00040;,
 -3.95439;-17.74428;20.00040;,
 20.68605;-4.65498;39.18546;,
 20.68605;2.43750;39.18546;,
 17.90034;2.43750;-4.76997;,
 17.90034;-4.65498;-4.76997;,
 -17.90034;-4.65498;-4.76997;,
 -17.90034;2.43750;-4.76997;,
 -20.68605;2.43750;39.18546;,
 -20.68605;-4.65498;39.18546;,
 25.37967;2.43750;28.01097;,
 25.37967;-4.65498;28.01097;,
 16.16328;2.43750;28.01097;,
 16.16328;-4.65498;28.01097;,
 10.22868;2.43750;28.01097;,
 10.22868;-8.30100;28.01097;,
 -8.11983;2.43750;28.01097;,
 5.68698;-11.86212;28.01097;,
 -16.16328;2.43750;28.01097;,
 5.68698;-17.74428;28.04037;,
 -25.37967;2.43750;28.01097;,
 -3.57810;-17.74428;28.04037;,
 -25.37967;-4.65498;28.01097;,
 -3.57810;-11.86212;28.01097;,
 -16.16328;-4.65498;28.01097;,
 -8.11983;-8.30100;28.01097;,
 34.15389;-14.49255;32.94033;,
 34.15386;-15.42093;33.47634;,
 -34.15389;-15.42093;33.47634;,
 -34.15389;-14.49255;32.94033;,
 34.15386;-15.42093;34.54830;,
 -34.15389;-15.42093;34.54830;,
 34.15389;-14.49255;35.08431;,
 -34.15389;-14.49255;35.08431;,
 34.15389;-13.56417;34.54830;,
 -34.15389;-13.56417;34.54830;,
 34.15389;-13.56417;33.47634;,
 -34.15389;-13.56417;33.47634;,
 34.15389;-14.49255;34.01232;,
 -34.15389;-14.49255;34.01232;,
 -6.85434;-2.88612;-23.15319;,
 6.85434;-2.88612;-23.15319;,
 3.22767;-15.85203;-23.15319;,
 -3.22767;-15.85203;-23.15319;,
 6.85434;-2.88612;14.64681;,
 -6.85434;-2.88612;14.64681;,
 -3.22767;-15.85203;-0.35319;,
 3.22767;-15.85203;-0.35319;,
 -3.22767;-17.80788;-17.15955;,
 3.22767;-17.80788;-17.15955;,
 -6.85434;-2.88612;-17.15955;,
 6.85434;-2.88612;-17.15955;,
 -3.22767;-17.80788;-6.08781;,
 3.22767;-17.80788;-6.08781;,
 -6.85434;-2.88612;-6.08781;,
 6.85434;-2.88612;-6.08781;,
 34.15389;-14.49255;-20.73876;,
 34.15386;-15.42093;-20.20278;,
 -34.15389;-15.42093;-20.20278;,
 -34.15389;-14.49255;-20.73876;,
 34.15386;-15.42093;-19.13079;,
 -34.15389;-15.42093;-19.13079;,
 34.15389;-14.49255;-18.59478;,
 -34.15389;-14.49255;-18.59478;,
 34.15389;-13.56417;-19.13079;,
 -34.15389;-13.56417;-19.13079;,
 34.15389;-13.56417;-20.20278;,
 -34.15389;-13.56417;-20.20278;,
 34.15389;-14.49255;-19.66677;,
 -34.15389;-14.49255;-19.66677;;
 
 229;
 4;0,1,2,3;,
 4;4,5,6,7;,
 4;8,9,4,0;,
 4;10,8,0,3;,
 4;11,10,3,5;,
 4;9,11,5,4;,
 4;9,8,10,11;,
 4;12,13,0,4;,
 4;14,15,13,12;,
 4;14,12,4,16;,
 4;15,17,0,13;,
 4;18,5,3,19;,
 4;20,21,15,14;,
 4;22,7,6,23;,
 4;24,25,2,1;,
 4;23,6,18,26;,
 4;25,27,19,2;,
 4;26,18,19,27;,
 3;16,20,14;,
 3;16,7,22;,
 3;17,15,21;,
 3;17,24,1;,
 3;1,0,17;,
 3;2,19,3;,
 3;7,16,4;,
 3;6,5,18;,
 4;28,29,17,21;,
 4;28,21,20,30;,
 4;30,20,16,31;,
 3;24,17,29;,
 3;22,31,16;,
 4;32,33,34,35;,
 4;32,35,24,29;,
 4;32,29,28,36;,
 4;32,36,37,33;,
 4;35,34,38,39;,
 4;35,39,25,24;,
 4;36,28,30,40;,
 4;36,40,41,37;,
 4;40,30,31,42;,
 4;40,42,43,41;,
 4;42,31,22,44;,
 4;42,44,45,43;,
 4;44,22,23,46;,
 4;44,46,47,45;,
 4;48,49,38,34;,
 4;50,48,34,33;,
 4;50,51,49,48;,
 4;52,53,43,45;,
 4;54,52,45,47;,
 4;53,52,54,55;,
 4;53,55,51,50;,
 4;56,57,37,41;,
 4;53,56,41,43;,
 4;57,50,33,37;,
 4;57,56,53,50;,
 4;58,59,26,27;,
 4;60,61,39,38;,
 4;61,58,25,39;,
 4;61,62,59,58;,
 4;62,63,47,46;,
 4;59,62,46,23;,
 4;64,60,38,49;,
 4;63,65,54,47;,
 4;65,64,51,55;,
 3;59,23,26;,
 3;58,27,25;,
 3;65,55,54;,
 3;64,49,51;,
 4;66,67,64,65;,
 4;68,66,65,63;,
 4;69,68,63,60;,
 4;67,69,60,64;,
 4;67,66,68,69;,
 4;70,71,61,60;,
 4;72,70,60,63;,
 4;73,72,63,62;,
 4;71,70,72,73;,
 4;74,75,71,73;,
 4;76,74,73,62;,
 4;77,76,62,61;,
 4;75,77,61,71;,
 4;75,74,76,77;,
 4;78,79,80,81;,
 4;82,83,84,85;,
 4;86,81,80,87;,
 4;86,87,83,82;,
 4;86,82,85,88;,
 4;86,88,78,81;,
 4;87,80,79,89;,
 4;87,89,84,83;,
 4;88,85,84,89;,
 4;88,89,79,78;,
 4;90,91,92,93;,
 4;94,95,96,97;,
 4;98,99,100,101;,
 4;102,103,104,105;,
 4;93,92,101,100;,
 4;97,96,105,104;,
 4;106,90,93,107;,
 4;106,108,91,90;,
 4;107,93,100,109;,
 4;108,110,92,91;,
 4;109,100,99,111;,
 4;110,112,101,92;,
 4;111,99,98,113;,
 4;112,113,98,101;,
 4;114,106,107,115;,
 4;114,115,96,95;,
 4;114,95,94,116;,
 4;114,116,108,106;,
 4;115,117,105,96;,
 4;116,94,97,118;,
 4;116,118,110,108;,
 4;117,109,111,119;,
 4;117,119,102,105;,
 4;118,97,104,120;,
 4;118,120,112,110;,
 4;119,111,113,121;,
 4;119,121,103,102;,
 4;120,104,103,121;,
 4;120,121,113,112;,
 4;122,123,115,107;,
 4;124,122,107,109;,
 4;125,124,109,117;,
 4;123,125,117,115;,
 4;123,122,124,125;,
 4;126,127,128,129;,
 4;130,131,132,133;,
 4;134,135,136,137;,
 4;138,139,140,141;,
 4;138,141,130,133;,
 4;142,143,134,127;,
 4;144,142,127,126;,
 4;143,145,135,134;,
 4;143,142,144,145;,
 4;146,147,130,141;,
 4;148,149,145,144;,
 4;150,148,144,126;,
 4;149,151,135,145;,
 4;149,148,150,151;,
 4;152,153,151,150;,
 4;154,155,147,146;,
 4;156,157,137,136;,
 4;158,159,140,139;,
 4;160,161,132,131;,
 4;162,163,129,128;,
 4;164,157,156,165;,
 4;164,165,159,158;,
 4;164,158,139,166;,
 4;164,166,137,157;,
 4;165,156,136,167;,
 4;165,167,140,159;,
 4;166,139,138,168;,
 4;166,168,134,137;,
 4;167,136,135,169;,
 4;167,169,141,140;,
 4;168,138,133,170;,
 4;168,170,127,134;,
 4;169,135,151,171;,
 4;169,171,146,141;,
 4;170,133,132,172;,
 4;170,172,128,127;,
 4;171,151,153,173;,
 4;171,173,154,146;,
 4;172,132,161,174;,
 4;172,174,162,128;,
 4;173,153,152,175;,
 4;173,175,155,154;,
 4;174,161,160,176;,
 4;174,176,163,162;,
 4;175,152,150,177;,
 4;175,177,147,155;,
 4;176,160,131,178;,
 4;176,178,129,163;,
 4;177,150,126,179;,
 4;177,179,130,147;,
 4;178,131,130,179;,
 4;178,179,126,129;,
 4;180,181,182,183;,
 4;181,184,185,182;,
 4;184,186,187,185;,
 4;186,188,189,187;,
 4;188,190,191,189;,
 4;190,180,183,191;,
 3;192,181,180;,
 3;192,184,181;,
 3;192,186,184;,
 3;192,188,186;,
 3;192,190,188;,
 3;192,180,190;,
 3;193,183,182;,
 3;193,182,185;,
 3;193,185,187;,
 3;193,187,189;,
 3;193,189,191;,
 3;193,191,183;,
 4;194,195,196,197;,
 4;198,199,200,201;,
 4;202,197,196,203;,
 4;202,204,194,197;,
 4;203,196,195,205;,
 4;204,205,195,194;,
 4;206,202,203,207;,
 4;206,207,201,200;,
 4;206,200,199,208;,
 4;206,208,204,202;,
 4;207,203,205,209;,
 4;207,209,198,201;,
 4;208,199,198,209;,
 4;208,209,205,204;,
 4;210,211,212,213;,
 4;211,214,215,212;,
 4;214,216,217,215;,
 4;216,218,219,217;,
 4;218,220,221,219;,
 4;220,210,213,221;,
 3;222,211,210;,
 3;222,214,211;,
 3;222,216,214;,
 3;222,218,216;,
 3;222,220,218;,
 3;222,210,220;,
 3;223,213,212;,
 3;223,212,215;,
 3;223,215,217;,
 3;223,217,219;,
 3;223,219,221;,
 3;223,221,213;;
 
 MeshMaterialList {
  2;
  229;
  0,
  0,
  0,
  0,
  0,
  0,
  0,
  0,
  0,
  0,
  0,
  0,
  0,
  0,
  0,
  0,
  0,
  0,
  0,
  0,
  0,
  0,
  0,
  0,
  0,
  0,
  0,
  0,
  0,
  0,
  0,
  0,
  0,
  0,
  0,
  0,
  0,
  0,
  0,
  0,
  0,
  0,
  0,
  0,
  0,
  0,
  0,
  0,
  0,
  0,
  0,
  0,
  0,
  0,
  0,
  0,
  0,
  0,
  0,
  0,
  0,
  0,
  0,
  0,
  0,
  0,
  0,
  0,
  0,
  0,
  0,
  0,
  0,
  0,
  0,
  0,
  0,
  0,
  0,
  0,
  0,
  0,
  0,
  0,
  0,
  0,
  0,
  0,
  0,
  0,
  0,
  0,
  0,
  1,
  1,
  1,
  1,
  1,
  1,
  1,
  1,
  1,
  1,
  1,
  1,
  1,
  1,
  1,
  1,
  1,
  1,
  1,
  1,
  1,
  1,
  1,
  1,
  1,
  1,
  1,
  1,
  1,
  1,
  1,
  1,
  1,
  1,
  0,
  0,
  0,
  0,
  0,
  0,
  0,
  0,
  0,
  0,
  0,
  0,
  0,
  0,
  0,
  0,
  0,
  0,
  0,
  0,
  0,
  0,
  0,
  0,
  0,
  0,
  0,
  0,
  0,
  0,
  0,
  0,
  0,
  0,
  0,
  0,
  0,
  0,
  0,
  0,
  0,
  0,
  0,
  0,
  0,
  0,
  0,
  0,
  0,
  0,
  0,
  0,
  0,
  0,
  0,
  0,
  0,
  0,
  0,
  0,
  0,
  0,
  0,
  0,
  0,
  0,
  0,
  0,
  0,
  0,
  0,
  0,
  0,
  0,
  0,
  0,
  0,
  0,
  0,
  0,
  0,
  0,
  0,
  0,
  0,
  0,
  0,
  0,
  0,
  0,
  0,
  0,
  0,
  0,
  0,
  0,
  0,
  0,
  0,
  0,
  0,
  0;;
  Material {
   0.558400;0.558400;0.558400;1.000000;;
   9.000000;
   0.620000;0.620000;0.620000;;
   0.000000;0.000000;0.000000;;
  }
  Material {
   0.166400;0.166400;0.166400;1.000000;;
   5.000000;
   0.590000;0.590000;0.590000;;
   0.000000;0.000000;0.000000;;
  }
 }
 MeshNormals {
  185;
  -0.314125;0.000000;-0.949382;,
  0.759109;0.000000;-0.650963;,
  0.003087;0.999994;-0.001647;,
  0.902834;-0.429684;0.016169;,
  -0.002508;0.999996;-0.001656;,
  -0.880392;-0.474058;0.013391;,
  0.770825;0.183192;-0.610138;,
  0.644137;0.000000;-0.764910;,
  -0.750789;0.203969;-0.628262;,
  -0.629748;0.000000;-0.776800;,
  -0.998121;0.051196;0.033676;,
  0.000000;0.922363;-0.386324;,
  0.863880;0.000000;-0.503698;,
  0.000000;-1.000000;-0.000000;,
  0.321757;0.875786;-0.359820;,
  0.998579;0.044520;0.029285;,
  -0.303254;0.881400;-0.362176;,
  0.000000;0.998211;-0.059785;,
  -0.443103;0.880916;-0.166277;,
  0.473333;0.865907;-0.161742;,
  -0.502159;0.863828;-0.040463;,
  0.532340;0.845613;-0.039393;,
  -0.492470;0.866423;-0.082365;,
  0.522470;0.849031;-0.078559;,
  0.017170;-0.982494;-0.185500;,
  -0.018919;-0.982467;-0.185472;,
  0.976967;0.211106;0.031150;,
  0.000000;0.999695;-0.024679;,
  0.998567;0.000000;0.053526;,
  -0.962156;0.270461;0.033258;,
  -0.998567;0.000000;0.053526;,
  0.022429;0.999745;-0.002633;,
  0.990966;0.131021;0.028624;,
  0.871739;-0.477106;0.111539;,
  0.000000;0.998296;-0.058354;,
  -0.986123;0.162086;0.035921;,
  -0.019299;0.999809;-0.002927;,
  -0.848130;-0.518884;0.106936;,
  0.970166;0.000000;0.242440;,
  0.924300;-0.281055;0.258219;,
  0.000000;1.000000;0.000000;,
  -0.924230;-0.067153;0.375886;,
  0.000000;0.960833;0.277128;,
  0.877834;-0.102103;0.467956;,
  -0.473461;-0.055127;0.879088;,
  0.548239;-0.835665;-0.033127;,
  -0.512129;-0.858178;-0.035421;,
  0.084701;-0.976366;-0.198833;,
  -0.070044;-0.977026;-0.201279;,
  0.646971;-0.762339;0.016366;,
  -0.614905;-0.788528;0.010747;,
  0.537363;-0.806731;0.245817;,
  -0.508231;-0.818473;0.267961;,
  0.151205;-0.978085;-0.143132;,
  -0.151206;-0.978085;-0.143132;,
  0.151053;-0.978625;0.139559;,
  -0.151053;-0.978625;0.139559;,
  0.481719;-0.854068;0.196249;,
  0.000000;-0.825766;0.564012;,
  0.551022;-0.833276;0.045015;,
  -0.551022;-0.833276;0.045015;,
  0.000000;0.986709;0.162498;,
  -0.960899;-0.235264;-0.146026;,
  0.000000;-0.998793;-0.049115;,
  -0.224587;0.971770;-0.072279;,
  0.224586;0.971770;-0.072279;,
  0.231923;0.952154;0.199034;,
  -0.231924;0.952154;0.199034;,
  -0.339272;0.934330;-0.109188;,
  0.339271;0.934330;-0.109188;,
  -0.904359;0.426772;0.000000;,
  0.904359;0.426773;0.000000;,
  -0.890739;0.454515;0.000000;,
  -0.466109;-0.884727;0.000000;,
  0.902801;0.430059;0.000000;,
  0.507396;-0.861713;-0.000000;,
  -0.308457;0.951238;0.000000;,
  0.334279;0.942474;0.000000;,
  -0.240075;-0.970754;0.000000;,
  0.262951;-0.964809;-0.000000;,
  0.000000;0.000000;-1.000000;,
  -0.228199;0.000000;-0.973615;,
  0.000000;-0.000000;1.000000;,
  0.228197;0.000000;-0.973615;,
  -0.010935;-0.949298;-0.314189;,
  -0.472511;0.000000;-0.881325;,
  -0.010935;0.949298;-0.314189;,
  -0.006216;0.940477;-0.339799;,
  0.006986;0.940487;-0.339758;,
  -0.863880;0.000000;-0.503698;,
  -0.979309;0.000000;-0.202368;,
  -0.093771;-0.988054;-0.122299;,
  0.113535;-0.986468;-0.118282;,
  -0.010584;0.995575;-0.093370;,
  -0.012458;0.998960;-0.043855;,
  0.014262;0.998944;-0.043681;,
  0.011834;0.995566;-0.093324;,
  0.019828;0.999670;-0.016330;,
  -0.017240;0.999713;-0.016617;,
  0.986719;0.000000;0.162437;,
  0.999970;0.000000;0.007720;,
  -0.986719;0.000000;0.162437;,
  -0.999970;0.000000;0.007720;,
  -0.958587;0.000000;0.284800;,
  -0.476439;0.000000;0.879207;,
  -1.000000;0.000000;0.000000;,
  1.000000;0.000000;0.000000;,
  -0.521139;-0.853472;0.000000;,
  0.000000;-0.478849;0.877897;,
  -0.840165;-0.497635;0.215598;,
  0.960899;-0.235264;-0.146026;,
  0.000000;-0.443645;-0.896202;,
  0.000000;0.476667;0.879084;,
  0.472508;0.000000;-0.881326;,
  0.000000;0.000000;-1.000000;,
  0.000000;0.000000;1.000000;,
  -0.861279;-0.309723;0.402828;,
  0.000000;1.000000;0.000000;,
  0.861279;-0.309722;0.402828;,
  -0.399384;-0.850737;0.341671;,
  0.000000;-0.229872;-0.973221;,
  0.399385;-0.850737;0.341671;,
  -0.303954;-0.803717;0.511518;,
  0.303955;-0.803717;0.511518;,
  0.000000;-0.836076;0.548614;,
  0.000000;-0.447433;-0.894318;,
  0.970428;0.000000;-0.241392;,
  -0.970428;0.000000;-0.241392;,
  0.996247;0.000000;0.086558;,
  0.338491;-0.940901;-0.011391;,
  0.629696;-0.776825;0.005091;,
  0.898377;-0.437406;0.039940;,
  0.999177;-0.001499;0.040530;,
  0.000000;-0.995315;0.096687;,
  -0.996247;0.000000;0.086558;,
  -0.898377;-0.437406;0.039940;,
  -0.251067;-0.967933;-0.008473;,
  -0.554516;-0.832139;0.007542;,
  1.000000;-0.000016;-0.000000;,
  0.000000;-0.500007;-0.866022;,
  0.000000;-1.000000;-0.000000;,
  0.000000;-0.500007;0.866022;,
  0.000000;0.500006;0.866022;,
  -1.000000;0.000000;0.000000;,
  0.000000;-0.756539;0.653948;,
  0.000000;-0.867451;0.497522;,
  0.000000;-0.987589;-0.157060;,
  -0.969468;-0.244462;-0.019231;,
  0.969468;-0.244462;-0.019231;,
  0.000000;-0.986526;0.163605;,
  -0.969451;-0.244458;0.020096;,
  0.969451;-0.244458;0.020096;,
  0.000000;-0.499986;-0.866034;,
  -0.895473;0.000000;0.445116;,
  -0.740819;-0.632848;0.225147;,
  0.895473;0.000000;0.445116;,
  0.759814;-0.610622;0.223213;,
  0.000000;-0.189938;0.981796;,
  0.921972;0.000000;0.387256;,
  0.974945;0.000000;-0.222444;,
  0.259378;-0.965739;0.008422;,
  0.420028;-0.906932;-0.032397;,
  0.686786;-0.726721;-0.014206;,
  0.896215;-0.441831;0.039797;,
  0.999110;-0.011703;0.040518;,
  0.999140;0.008704;0.040539;,
  -0.974945;0.000000;-0.222444;,
  -0.921972;0.000000;0.387256;,
  -0.999177;-0.001499;0.040530;,
  -0.999110;-0.011702;0.040515;,
  -0.896215;-0.441831;0.039799;,
  -0.999140;0.008705;0.040542;,
  -0.299593;-0.953766;-0.023970;,
  -0.203122;-0.979131;0.006646;,
  -0.587210;-0.809399;-0.007590;,
  0.000000;0.500006;-0.866022;,
  1.000000;-0.000032;-0.000000;,
  1.000000;-0.000016;-0.000000;,
  1.000000;0.000000;0.000000;,
  0.000000;-0.950664;-0.310222;,
  -0.966795;-0.252645;-0.038454;,
  0.966795;-0.252645;-0.038454;,
  -0.966728;-0.252630;0.040182;,
  0.966728;-0.252630;0.040182;,
  0.000000;0.499985;-0.866034;;
  229;
  4;6,1,1,7;,
  4;8,9,0,0;,
  4;11,11,87,88;,
  4;12,12,6,7;,
  4;13,13,13,13;,
  4;89,89,9,8;,
  4;80,80,80,80;,
  4;16,14,88,87;,
  4;18,19,14,16;,
  4;18,16,8,22;,
  4;19,23,6,14;,
  4;13,13,13,13;,
  4;20,21,19,18;,
  4;30,90,90,30;,
  4;28,28,1,1;,
  4;91,13,13,24;,
  4;92,25,13,13;,
  4;24,13,13,25;,
  3;22,20,18;,
  3;22,93,94;,
  3;23,19,21;,
  3;23,95,96;,
  3;96,88,23;,
  3;13,13,13;,
  3;93,22,87;,
  3;13,13,13;,
  4;26,26,23,21;,
  4;27,21,20,27;,
  4;29,20,22,29;,
  3;95,23,97;,
  3;94,98,22;,
  4;31,2,2,31;,
  4;31,31,95,97;,
  4;32,26,26,32;,
  4;32,32,15,15;,
  4;99,100,3,33;,
  4;99,33,28,28;,
  4;34,27,27,34;,
  4;34,34,17,17;,
  4;35,29,29,35;,
  4;35,35,10,10;,
  4;36,98,94,36;,
  4;36,36,4,4;,
  4;101,30,30,37;,
  4;101,37,5,102;,
  4;38,39,3,100;,
  4;42,40,2,2;,
  4;38,43,39,38;,
  4;40,42,4,4;,
  4;41,103,102,5;,
  4;104,103,41,44;,
  4;104,44,82,82;,
  4;42,42,17,17;,
  4;105,105,10,10;,
  4;106,38,15,15;,
  4;42,42,42,42;,
  4;47,48,24,25;,
  4;45,49,33,3;,
  4;49,47,92,33;,
  4;49,50,48,47;,
  4;50,46,5,37;,
  4;48,50,37,91;,
  4;51,45,3,39;,
  4;46,52,107,5;,
  4;82,82,82,44;,
  3;48,91,24;,
  3;47,25,92;,
  3;52,44,41;,
  3;51,39,43;,
  4;56,55,51,52;,
  4;54,56,52,46;,
  4;53,54,46,45;,
  4;55,53,45,51;,
  4;55,56,54,53;,
  4;57,59,49,45;,
  4;58,108,108,108;,
  4;60,109,46,50;,
  4;59,57,58,60;,
  4;63,63,59,60;,
  4;62,62,60,50;,
  4;61,61,61,61;,
  4;110,110,49,59;,
  4;111,111,111,111;,
  4;67,66,65,64;,
  4;13,13,13,13;,
  4;68,64,65,69;,
  4;80,80,80,80;,
  4;105,105,105,70;,
  4;68,70,67,64;,
  4;69,65,66,71;,
  4;106,71,106,106;,
  4;112,82,82,112;,
  4;112,112,66,67;,
  4;77,77,74,74;,
  4;76,76,72,72;,
  4;79,79,75,75;,
  4;78,78,73,73;,
  4;74,74,106,106;,
  4;72,72,105,105;,
  4;80,80,80,81;,
  4;40,40,77,77;,
  4;81,80,80,81;,
  4;82,82,82,82;,
  4;81,80,80,80;,
  4;82,82,82,82;,
  4;13,79,79,13;,
  4;82,82,82,82;,
  4;80,80,81,83;,
  4;80,83,80,80;,
  4;40,76,76,40;,
  4;40,40,40,40;,
  4;83,83,80,80;,
  4;82,82,82,82;,
  4;82,82,82,82;,
  4;83,81,80,80;,
  4;83,80,80,80;,
  4;82,82,82,82;,
  4;82,82,82,82;,
  4;13,13,13,13;,
  4;13,13,78,78;,
  4;82,82,82,82;,
  4;82,82,82,82;,
  4;84,84,84,84;,
  4;85,85,81,81;,
  4;86,86,86,86;,
  4;113,113,83,83;,
  4;113,85,85,113;,
  4;115,115,115,115;,
  4;114,114,114,114;,
  4;115,115,115,115;,
  4;114,114,114,114;,
  4;114,114,114,114;,
  4;117,117,117,117;,
  4;116,153,153,154;,
  4;155,118,156,155;,
  4;115,115,157,157;,
  4;120,120,114,114;,
  4;122,123,157,157;,
  4;119,122,116,154;,
  4;123,121,156,118;,
  4;123,122,119,121;,
  4;124,124,121,119;,
  4;125,125,120,120;,
  4;115,115,115,115;,
  4;127,127,127,127;,
  4;126,126,126,126;,
  4;115,115,115,115;,
  4;128,158,158,128;,
  4;128,128,159,159;,
  4;117,117,117,117;,
  4;117,117,117,117;,
  4;140,140,160,129;,
  4;140,129,161,140;,
  4;117,117,117,117;,
  4;117,117,117,117;,
  4;129,160,156,130;,
  4;129,130,162,161;,
  4;117,117,117,117;,
  4;117,117,117,117;,
  4;130,156,121,131;,
  4;130,131,163,162;,
  4;117,117,117,117;,
  4;117,117,117,117;,
  4;131,164,164,132;,
  4;131,132,165,163;,
  4;117,117,117,117;,
  4;117,117,117,117;,
  4;133,124,124,133;,
  4;133,133,140,140;,
  4;134,166,166,134;,
  4;134,134,167,167;,
  4;168,169,169,135;,
  4;168,135,170,171;,
  4;140,140,172,136;,
  4;140,136,173,140;,
  4;135,119,154,137;,
  4;135,137,174,170;,
  4;136,172,174,137;,
  4;136,137,154,173;,
  4;139,139,139,139;,
  4;140,140,140,140;,
  4;141,141,141,141;,
  4;142,142,142,142;,
  4;117,117,117,117;,
  4;175,175,175,175;,
  3;138,176,138;,
  3;138,176,176;,
  3;138,177,176;,
  3;138,178,177;,
  3;138,178,178;,
  3;138,138,178;,
  3;143,143,143;,
  3;143,143,143;,
  3;143,143,143;,
  3;143,143,143;,
  3;143,143,143;,
  3;143,143,143;,
  4;114,114,114,114;,
  4;144,144,145,145;,
  4;146,179,179,146;,
  4;147,147,180,180;,
  4;148,181,181,148;,
  4;117,117,117,117;,
  4;149,146,146,149;,
  4;149,149,145,145;,
  4;150,182,182,150;,
  4;150,150,147,147;,
  4;151,148,148,151;,
  4;151,151,183,183;,
  4;117,117,117,117;,
  4;117,117,117,117;,
  4;152,152,152,152;,
  4;140,140,140,140;,
  4;141,141,141,141;,
  4;142,142,142,142;,
  4;117,117,117,117;,
  4;184,184,184,184;,
  3;138,176,138;,
  3;138,176,176;,
  3;138,138,176;,
  3;138,178,138;,
  3;138,178,178;,
  3;138,138,178;,
  3;143,143,143;,
  3;143,143,143;,
  3;143,143,143;,
  3;143,143,143;,
  3;143,143,143;,
  3;143,143,143;;
 }
}
