xof 0302txt 0064
template Header {
 <3D82AB43-62DA-11cf-AB39-0020AF71E433>
 WORD major;
 WORD minor;
 DWORD flags;
}

template Vector {
 <3D82AB5E-62DA-11cf-AB39-0020AF71E433>
 FLOAT x;
 FLOAT y;
 FLOAT z;
}

template Coords2d {
 <F6F23F44-7686-11cf-8F52-0040333594A3>
 FLOAT u;
 FLOAT v;
}

template Matrix4x4 {
 <F6F23F45-7686-11cf-8F52-0040333594A3>
 array FLOAT matrix[16];
}

template ColorRGBA {
 <35FF44E0-6C7C-11cf-8F52-0040333594A3>
 FLOAT red;
 FLOAT green;
 FLOAT blue;
 FLOAT alpha;
}

template ColorRGB {
 <D3E16E81-7835-11cf-8F52-0040333594A3>
 FLOAT red;
 FLOAT green;
 FLOAT blue;
}

template IndexedColor {
 <1630B820-7842-11cf-8F52-0040333594A3>
 DWORD index;
 ColorRGBA indexColor;
}

template Boolean {
 <4885AE61-78E8-11cf-8F52-0040333594A3>
 WORD truefalse;
}

template Boolean2d {
 <4885AE63-78E8-11cf-8F52-0040333594A3>
 Boolean u;
 Boolean v;
}

template MaterialWrap {
 <4885AE60-78E8-11cf-8F52-0040333594A3>
 Boolean u;
 Boolean v;
}

template TextureFilename {
 <A42790E1-7810-11cf-8F52-0040333594A3>
 STRING filename;
}

template Material {
 <3D82AB4D-62DA-11cf-AB39-0020AF71E433>
 ColorRGBA faceColor;
 FLOAT power;
 ColorRGB specularColor;
 ColorRGB emissiveColor;
 [...]
}

template MeshFace {
 <3D82AB5F-62DA-11cf-AB39-0020AF71E433>
 DWORD nFaceVertexIndices;
 array DWORD faceVertexIndices[nFaceVertexIndices];
}

template MeshFaceWraps {
 <4885AE62-78E8-11cf-8F52-0040333594A3>
 DWORD nFaceWrapValues;
 Boolean2d faceWrapValues;
}

template MeshTextureCoords {
 <F6F23F40-7686-11cf-8F52-0040333594A3>
 DWORD nTextureCoords;
 array Coords2d textureCoords[nTextureCoords];
}

template MeshMaterialList {
 <F6F23F42-7686-11cf-8F52-0040333594A3>
 DWORD nMaterials;
 DWORD nFaceIndexes;
 array DWORD faceIndexes[nFaceIndexes];
 [Material]
}

template MeshNormals {
 <F6F23F43-7686-11cf-8F52-0040333594A3>
 DWORD nNormals;
 array Vector normals[nNormals];
 DWORD nFaceNormals;
 array MeshFace faceNormals[nFaceNormals];
}

template MeshVertexColors {
 <1630B821-7842-11cf-8F52-0040333594A3>
 DWORD nVertexColors;
 array IndexedColor vertexColors[nVertexColors];
}

template Mesh {
 <3D82AB44-62DA-11cf-AB39-0020AF71E433>
 DWORD nVertices;
 array Vector vertices[nVertices];
 DWORD nFaces;
 array MeshFace faces[nFaces];
 [...]
}

Header{
1;
0;
1;
}

Mesh {
 182;
 -0.07568;12.53080;0.10427;,
 -2.67190;13.31070;0.10427;,
 -2.67190;9.46493;-9.18026;,
 -0.07568;8.91348;-8.62881;,
 -3.10602;19.89653;0.10427;,
 -0.07568;20.94323;0.10427;,
 -0.07568;14.86196;-14.57728;,
 -3.10602;14.12184;-13.83713;,
 2.95465;19.89651;0.10427;,
 2.95465;14.12184;-13.83713;,
 2.52055;13.31070;0.10427;,
 -0.07568;12.53080;0.10427;,
 -0.07568;8.91348;-8.62881;,
 2.52053;9.46493;-9.18026;,
 -2.67193;0.18043;-13.02603;,
 -0.07568;0.18043;-12.24616;,
 -0.07568;0.18043;-20.65856;,
 -3.10602;0.18043;-19.61186;,
 2.95465;0.18043;-19.61186;,
 -0.07568;0.18043;-12.24616;,
 2.52053;0.18043;-13.02603;,
 -2.67190;-9.10414;-9.18026;,
 -0.07568;-8.55267;-8.62881;,
 -0.07568;-14.50114;-14.57728;,
 -3.10602;-13.76102;-13.83713;,
 2.95465;-13.76102;-13.83713;,
 -0.07568;-8.55267;-8.62881;,
 2.52053;-9.10414;-9.18026;,
 -2.67190;-12.94992;0.10427;,
 -0.07568;-12.17004;0.10427;,
 -0.07568;-20.58244;0.10427;,
 -3.10602;-19.53574;0.10427;,
 2.95465;-19.53574;0.10427;,
 -0.07568;-12.17004;0.10427;,
 2.52053;-12.94992;0.10427;,
 -2.67193;-9.10414;9.38881;,
 -0.07568;-8.55267;8.83734;,
 -0.07568;-14.50114;14.78581;,
 -3.10602;-13.76102;14.04569;,
 2.95465;-13.76102;14.04569;,
 -0.07568;-8.55267;8.83734;,
 2.52053;-9.10414;9.38881;,
 -2.67190;0.18043;13.23459;,
 -0.07568;0.18043;12.45469;,
 -0.07568;0.18043;20.86712;,
 -3.10602;0.18043;19.82042;,
 2.95465;0.18043;19.82042;,
 -0.07568;0.18043;12.45469;,
 2.52053;0.18043;13.23459;,
 -2.67193;9.46493;9.38881;,
 -0.07568;8.91348;8.83734;,
 -0.07568;14.86196;14.78581;,
 -3.10602;14.12184;14.04569;,
 2.95465;14.12184;14.04569;,
 -0.07568;8.91348;8.83734;,
 2.52053;9.46493;9.38881;,
 -2.67190;13.31070;0.10427;,
 -0.07568;12.53080;0.10427;,
 -0.07568;20.94323;0.10427;,
 -3.10602;19.89653;0.10427;,
 2.95465;19.89651;0.10427;,
 -0.07568;12.53080;0.10427;,
 2.52055;13.31070;0.10427;,
 4.74870;12.06013;11.98399;,
 4.74870;0.18043;16.90474;,
 4.74875;16.98086;0.10427;,
 4.74870;-11.69932;11.98399;,
 4.74875;16.98086;0.10427;,
 4.74873;12.06013;-11.77546;,
 4.74870;-16.62007;0.10427;,
 4.74870;0.18043;-16.69618;,
 4.74870;-11.69932;-11.77546;,
 -4.89815;0.18043;16.87342;,
 -4.89815;-11.67717;11.96184;,
 -4.89815;12.03796;11.96184;,
 -4.89815;-16.58874;0.10427;,
 -4.89815;16.94953;0.10427;,
 -4.89815;-11.67717;-11.75331;,
 -4.89815;16.94953;0.10427;,
 -4.89815;12.03796;-11.75331;,
 -4.89818;0.18043;-16.66488;,
 -0.71940;-4.38842;-2.42601;,
 1.22535;-4.38842;-2.42601;,
 1.22535;-13.79299;-5.25408;,
 -0.71940;-13.79299;-5.25408;,
 1.22535;-4.38842;-2.42601;,
 1.22535;-4.38842;2.00257;,
 1.22535;-13.79299;4.83064;,
 1.22535;-13.79299;-5.25408;,
 1.22535;-4.38842;2.00257;,
 -0.71940;-4.38842;2.00257;,
 -0.71940;-13.79299;4.83064;,
 1.22535;-13.79299;4.83064;,
 -0.71940;-4.38842;2.00257;,
 -0.71940;-4.38842;-2.42601;,
 -0.71940;-13.79299;-5.25408;,
 -0.71940;-13.79299;4.83064;,
 -0.71940;-13.79299;-5.25408;,
 1.22535;-13.79299;-5.25408;,
 1.22535;4.22808;2.00257;,
 -0.71940;4.22808;2.00257;,
 1.22535;4.22808;-2.42601;,
 1.22535;-4.38842;-2.42601;,
 -0.71940;4.22808;-2.42601;,
 -0.71940;-4.38842;-2.42601;,
 1.22535;14.82271;4.28417;,
 -0.71940;14.82271;4.28417;,
 1.22535;14.82271;-4.70761;,
 -0.71940;14.82271;-4.70761;,
 -0.71940;2.72913;-5.11498;,
 1.22535;2.72913;-5.11498;,
 1.22535;5.55721;-14.51956;,
 -0.71940;5.55721;-14.51956;,
 1.22535;2.72913;-5.11498;,
 1.22535;-1.69944;-5.11498;,
 1.22535;-4.52752;-14.51956;,
 1.22535;5.55721;-14.51956;,
 1.22535;-1.69944;-5.11498;,
 -0.71940;-1.69944;-5.11498;,
 -0.71940;-4.52752;-14.51956;,
 1.22535;-4.52752;-14.51956;,
 -0.71940;-1.69944;-5.11498;,
 -0.71940;2.72913;-5.11498;,
 -0.71940;5.55721;-14.51956;,
 -0.71940;-4.52752;-14.51956;,
 -0.71940;5.55721;-14.51956;,
 1.22535;5.55721;-14.51956;,
 1.22535;-1.69944;3.50152;,
 -0.71940;-1.69944;3.50152;,
 1.22535;2.72913;3.50152;,
 1.22535;2.72913;-5.11498;,
 -0.71940;2.72913;3.50152;,
 -0.71940;2.72913;-5.11498;,
 1.22535;-3.98102;14.09614;,
 -0.71940;-3.98102;14.09614;,
 1.22535;5.01073;14.09612;,
 -0.71940;5.01073;14.09612;,
 0.93512;11.42528;0.18087;,
 -0.33930;11.35916;0.18087;,
 -0.33930;8.00513;-7.91648;,
 0.93512;8.05188;-7.96323;,
 -0.19455;12.64319;0.18087;,
 -0.19455;8.91308;-8.82444;,
 1.09910;12.87987;0.18087;,
 1.09913;9.08041;-8.99176;,
 0.93512;11.42528;0.18087;,
 0.93512;8.05188;-7.96323;,
 -0.33930;-0.09222;-11.27051;,
 0.93515;-0.09222;-11.33664;,
 -0.19458;-0.09219;-12.55453;,
 1.09910;-0.09219;-12.79119;,
 0.93515;-0.09222;-11.33664;,
 -0.33930;-8.18954;-7.91648;,
 0.93512;-8.23629;-7.96323;,
 -0.19458;-9.09749;-8.82444;,
 1.09910;-9.26482;-8.99176;,
 0.93512;-8.23629;-7.96323;,
 -0.33932;-11.54357;0.18087;,
 0.93512;-11.60969;0.18087;,
 -0.19458;-12.82759;0.18087;,
 1.09910;-13.06427;0.18087;,
 0.93512;-11.60969;0.18087;,
 -0.33930;-8.18954;8.27819;,
 0.93512;-8.23629;8.32494;,
 -0.19458;-9.09749;9.18614;,
 1.09910;-9.26482;9.35349;,
 0.93512;-8.23629;8.32494;,
 -0.33930;-0.09222;11.63222;,
 0.93515;-0.09222;11.69834;,
 -0.19458;-0.09219;12.91627;,
 1.09910;-0.09219;13.15291;,
 0.93515;-0.09222;11.69834;,
 -0.33930;8.00513;8.27819;,
 0.93512;8.05188;8.32494;,
 -0.19455;8.91308;9.18614;,
 1.09910;9.08041;9.35349;,
 0.93512;8.05188;8.32494;,
 -0.33930;11.35916;0.18087;,
 0.93512;11.42528;0.18087;,
 -0.19455;12.64319;0.18087;,
 1.09910;12.87987;0.18087;,
 0.93512;11.42528;0.18087;;
 
 124;
 4;0,1,2,3;,
 4;4,5,6,7;,
 4;5,8,9,6;,
 4;10,11,12,13;,
 4;3,2,14,15;,
 4;7,6,16,17;,
 4;6,9,18,16;,
 4;13,12,19,20;,
 4;15,14,21,22;,
 4;17,16,23,24;,
 4;16,18,25,23;,
 4;20,19,26,27;,
 4;22,21,28,29;,
 4;24,23,30,31;,
 4;23,25,32,30;,
 4;27,26,33,34;,
 4;29,28,35,36;,
 4;31,30,37,38;,
 4;30,32,39,37;,
 4;34,33,40,41;,
 4;36,35,42,43;,
 4;38,37,44,45;,
 4;37,39,46,44;,
 4;41,40,47,48;,
 4;43,42,49,50;,
 4;45,44,51,52;,
 4;44,46,53,51;,
 4;48,47,54,55;,
 4;50,49,56,57;,
 4;52,51,58,59;,
 4;51,53,60,58;,
 4;55,54,61,62;,
 4;63,53,46,64;,
 4;63,64,48,55;,
 4;63,55,62,65;,
 4;63,65,60,53;,
 4;64,46,39,66;,
 4;64,66,41,48;,
 4;67,10,13,68;,
 4;67,68,9,8;,
 4;66,39,32,69;,
 4;66,69,34,41;,
 4;68,13,20,70;,
 4;68,70,18,9;,
 4;69,32,25,71;,
 4;69,71,27,34;,
 4;70,20,27,71;,
 4;70,71,25,18;,
 4;72,42,35,73;,
 4;72,73,38,45;,
 4;72,45,52,74;,
 4;72,74,49,42;,
 4;73,35,28,75;,
 4;73,75,31,38;,
 4;74,52,59,76;,
 4;74,76,56,49;,
 4;75,28,21,77;,
 4;75,77,24,31;,
 4;78,4,7,79;,
 4;78,79,2,1;,
 4;77,21,14,80;,
 4;77,80,17,24;,
 4;79,7,17,80;,
 4;79,80,14,2;,
 4;81,82,83,84;,
 4;85,86,87,88;,
 4;89,90,91,92;,
 4;93,94,95,96;,
 4;97,98,87,96;,
 4;99,100,93,86;,
 4;101,99,86,102;,
 4;103,101,102,104;,
 4;100,103,104,93;,
 4;105,106,100,99;,
 4;107,105,99,101;,
 4;108,107,101,103;,
 4;106,108,103,100;,
 4;106,105,107,108;,
 4;109,110,111,112;,
 4;113,114,115,116;,
 4;117,118,119,120;,
 4;121,122,123,124;,
 4;125,126,115,124;,
 4;127,128,121,114;,
 4;129,127,114,130;,
 4;131,129,130,132;,
 4;128,131,132,121;,
 4;133,134,128,127;,
 4;135,133,127,129;,
 4;136,135,129,131;,
 4;134,136,131,128;,
 4;134,133,135,136;,
 4;137,138,139,140;,
 4;138,141,142,139;,
 4;141,143,144,142;,
 4;143,145,146,144;,
 4;140,139,147,148;,
 4;139,142,149,147;,
 4;142,144,150,149;,
 4;144,146,151,150;,
 4;148,147,152,153;,
 4;147,149,154,152;,
 4;149,150,155,154;,
 4;150,151,156,155;,
 4;153,152,157,158;,
 4;152,154,159,157;,
 4;154,155,160,159;,
 4;155,156,161,160;,
 4;158,157,162,163;,
 4;157,159,164,162;,
 4;159,160,165,164;,
 4;160,161,166,165;,
 4;163,162,167,168;,
 4;162,164,169,167;,
 4;164,165,170,169;,
 4;165,166,171,170;,
 4;168,167,172,173;,
 4;167,169,174,172;,
 4;169,170,175,174;,
 4;170,171,176,175;,
 4;173,172,177,178;,
 4;172,174,179,177;,
 4;174,175,180,179;,
 4;175,176,181,180;;
 
 MeshMaterialList {
  2;
  124;
  1,
  1,
  1,
  1,
  1,
  1,
  1,
  1,
  1,
  1,
  1,
  1,
  1,
  1,
  1,
  1,
  1,
  1,
  1,
  1,
  1,
  1,
  1,
  1,
  1,
  1,
  1,
  1,
  1,
  1,
  1,
  1,
  1,
  1,
  1,
  1,
  1,
  1,
  1,
  1,
  1,
  1,
  1,
  1,
  1,
  1,
  1,
  1,
  1,
  1,
  1,
  1,
  1,
  1,
  1,
  1,
  1,
  1,
  1,
  1,
  1,
  1,
  1,
  1,
  0,
  0,
  0,
  0,
  0,
  0,
  0,
  0,
  0,
  0,
  0,
  0,
  0,
  0,
  0,
  0,
  0,
  0,
  0,
  0,
  0,
  0,
  0,
  0,
  0,
  0,
  0,
  0,
  0,
  0,
  0,
  0,
  0,
  0,
  0,
  0,
  0,
  0,
  0,
  0,
  0,
  0,
  0,
  0,
  0,
  0,
  0,
  0,
  0,
  0,
  0,
  0,
  0,
  0,
  0,
  0,
  0,
  0,
  0,
  0;;
  Material {
   0.558400;0.558400;0.558400;1.000000;;
   9.000000;
   0.620000;0.620000;0.620000;;
   0.000000;0.000000;0.000000;;
  }
  Material {
   0.166400;0.166400;0.166400;1.000000;;
   5.000000;
   0.590000;0.590000;0.590000;;
   0.000000;0.000000;0.000000;;
  }
 }
 MeshNormals {
  134;
  0.000001;-1.000000;0.000000;,
  -0.618141;-0.786067;0.000000;,
  -0.634430;0.772980;-0.000000;,
  0.000003;1.000000;-0.000000;,
  0.632294;0.774729;-0.000000;,
  0.619561;-0.784948;0.000001;,
  0.000001;-0.707108;0.707106;,
  -0.618140;-0.555834;0.555834;,
  -0.634430;0.546580;-0.546580;,
  0.000002;0.707107;-0.707106;,
  0.632295;0.547816;-0.547815;,
  0.619561;-0.555044;0.555041;,
  0.000002;-0.000001;1.000000;,
  -0.618139;-0.000001;0.786069;,
  -0.634429;0.000000;-0.772981;,
  0.000001;0.000001;-1.000000;,
  0.632297;0.000001;-0.774726;,
  0.619561;-0.000001;0.784948;,
  0.000002;0.707106;0.707108;,
  -0.618140;0.555833;0.555835;,
  -0.634429;-0.546579;-0.546581;,
  0.000001;-0.707106;-0.707107;,
  0.632298;-0.547813;-0.547814;,
  0.619563;0.555041;0.555042;,
  0.000002;1.000000;0.000000;,
  -0.618141;0.786067;-0.000000;,
  -0.634430;-0.772980;-0.000000;,
  0.000001;-1.000000;-0.000000;,
  0.632297;-0.774726;-0.000000;,
  0.619563;0.784947;0.000000;,
  0.000002;0.707106;-0.707107;,
  -0.618142;0.555833;-0.555833;,
  -0.634430;-0.546579;0.546580;,
  0.000001;-0.707107;0.707107;,
  0.632297;-0.547814;0.547814;,
  0.619564;0.555040;-0.555041;,
  0.000002;-0.000001;-1.000000;,
  -0.618143;-0.000001;-0.786066;,
  -0.634430;0.000000;0.772980;,
  0.000001;0.000001;1.000000;,
  0.632297;0.000000;0.774726;,
  0.619565;-0.000001;-0.784946;,
  0.000002;-0.707108;-0.707105;,
  -0.618142;-0.555834;-0.555832;,
  -0.634430;0.546580;0.546579;,
  0.000002;0.707108;0.707106;,
  0.632296;0.547816;0.547814;,
  0.619564;-0.555042;-0.555039;,
  0.851684;0.370564;0.370562;,
  0.851686;0.000000;0.524052;,
  0.854799;-0.518959;0.000001;,
  0.851686;-0.370561;0.370561;,
  0.854800;-0.366960;0.366957;,
  0.851686;-0.524053;-0.000000;,
  0.854801;-0.000001;0.518956;,
  0.851685;-0.370561;-0.370562;,
  -0.853020;-0.000001;-0.521879;,
  -0.853019;0.369024;-0.369025;,
  -0.854419;0.367402;0.367402;,
  -0.853019;0.521880;-0.000000;,
  -0.854419;0.519585;-0.000000;,
  -0.853019;0.369024;0.369025;,
  -0.854417;0.367404;-0.367405;,
  -0.853019;-0.000001;0.521880;,
  0.000000;0.145537;-0.989353;,
  0.000000;0.287974;-0.957638;,
  1.000000;0.000000;0.000000;,
  0.000000;0.145537;0.989353;,
  0.000000;0.287974;0.957638;,
  0.000000;-0.105859;-0.994381;,
  0.000000;-0.105859;0.994381;,
  0.000000;-0.210528;-0.977588;,
  0.000000;-0.210528;0.977588;,
  0.000000;0.989353;0.145536;,
  0.000000;0.957638;0.287974;,
  0.000000;-0.989353;0.145537;,
  0.000000;-0.957638;0.287974;,
  0.000000;0.994381;-0.105859;,
  0.000000;-0.994381;-0.105858;,
  0.000000;0.977588;-0.210528;,
  0.000000;-0.977588;-0.210526;,
  0.051812;-0.998657;-0.000001;,
  -0.993706;0.112020;0.000000;,
  -0.179952;0.983675;0.000000;,
  0.051812;-0.706157;0.706157;,
  -0.993706;0.079209;-0.079205;,
  -0.179943;0.695564;-0.695566;,
  0.051812;0.000000;0.998657;,
  -0.993708;0.000002;-0.112006;,
  -0.179937;0.000001;-0.983678;,
  0.051812;0.706157;0.706157;,
  -0.993707;-0.079202;-0.079200;,
  -0.179941;-0.695564;-0.695566;,
  0.051811;0.998657;-0.000001;,
  -0.993707;-0.112010;-0.000000;,
  -0.179947;-0.983676;0.000000;,
  0.051811;0.706157;-0.706157;,
  -0.993708;-0.079201;0.079199;,
  -0.179947;-0.695564;0.695565;,
  0.051811;0.000001;-0.998657;,
  -0.993708;0.000002;0.112005;,
  -0.179945;0.000001;0.983677;,
  0.051811;-0.706157;-0.706157;,
  -0.993707;0.079208;0.079204;,
  -0.179950;0.695563;0.695564;,
  0.854801;-0.366959;-0.366956;,
  0.854801;-0.000000;-0.518956;,
  0.851681;0.524060;-0.000001;,
  0.854801;0.366957;-0.366958;,
  0.851682;0.370566;-0.370565;,
  0.854801;0.518956;0.000000;,
  0.851684;0.000001;-0.524056;,
  0.854801;0.366957;0.366957;,
  -0.854418;0.000000;0.519586;,
  -0.854418;-0.367403;0.367403;,
  -0.853019;-0.369025;-0.369024;,
  -0.854417;-0.519587;-0.000000;,
  -0.853019;-0.521880;-0.000000;,
  -0.854416;-0.367405;-0.367407;,
  -0.853019;-0.369025;0.369025;,
  -0.854415;0.000000;-0.519592;,
  -1.000000;0.000000;0.000000;,
  0.000000;-1.000000;-0.000000;,
  0.000000;1.000000;0.000000;,
  0.000000;0.000000;-1.000000;,
  0.000000;0.000003;1.000000;,
  0.993705;-0.112026;0.000002;,
  0.993705;-0.079216;0.079215;,
  0.993706;-0.000002;0.112020;,
  0.993706;0.079210;0.079209;,
  0.993706;0.112023;0.000000;,
  0.993706;0.079209;-0.079207;,
  0.993707;-0.000000;-0.112014;,
  0.993706;-0.079209;-0.079207;;
  124;
  4;0,1,7,6;,
  4;2,3,9,8;,
  4;3,4,10,9;,
  4;5,0,6,11;,
  4;6,7,13,12;,
  4;8,9,15,14;,
  4;9,10,16,15;,
  4;11,6,12,17;,
  4;12,13,19,18;,
  4;14,15,21,20;,
  4;15,16,22,21;,
  4;17,12,18,23;,
  4;18,19,25,24;,
  4;20,21,27,26;,
  4;21,22,28,27;,
  4;23,18,24,29;,
  4;24,25,31,30;,
  4;26,27,33,32;,
  4;27,28,34,33;,
  4;29,24,30,35;,
  4;30,31,37,36;,
  4;32,33,39,38;,
  4;33,34,40,39;,
  4;35,30,36,41;,
  4;36,37,43,42;,
  4;38,39,45,44;,
  4;39,40,46,45;,
  4;41,36,42,47;,
  4;42,43,1,0;,
  4;44,45,3,2;,
  4;45,46,4,3;,
  4;47,42,0,5;,
  4;48,46,40,49;,
  4;105,106,41,47;,
  4;105,47,5,50;,
  4;48,107,4,46;,
  4;49,40,34,51;,
  4;106,108,35,41;,
  4;50,5,11,52;,
  4;107,109,10,4;,
  4;51,34,28,53;,
  4;108,110,29,35;,
  4;52,11,17,54;,
  4;109,111,16,10;,
  4;53,28,22,55;,
  4;110,112,23,29;,
  4;54,17,23,112;,
  4;111,55,22,16;,
  4;56,37,31,57;,
  4;113,114,32,38;,
  4;113,38,44,58;,
  4;56,115,43,37;,
  4;57,31,25,59;,
  4;114,116,26,32;,
  4;58,44,2,60;,
  4;115,117,1,43;,
  4;59,25,19,61;,
  4;116,118,20,26;,
  4;60,2,8,62;,
  4;117,119,7,1;,
  4;61,19,13,63;,
  4;118,120,14,20;,
  4;62,8,14,120;,
  4;119,63,13,7;,
  4;64,64,65,65;,
  4;66,66,66,66;,
  4;67,67,68,68;,
  4;121,121,121,121;,
  4;122,122,122,122;,
  4;70,70,67,67;,
  4;66,66,66,66;,
  4;69,69,64,64;,
  4;121,121,121,121;,
  4;72,72,70,70;,
  4;66,66,66,66;,
  4;71,71,69,69;,
  4;121,121,121,121;,
  4;123,123,123,123;,
  4;73,73,74,74;,
  4;66,66,66,66;,
  4;75,75,76,76;,
  4;121,121,121,121;,
  4;124,124,124,124;,
  4;78,78,75,75;,
  4;66,66,66,66;,
  4;77,77,73,73;,
  4;121,121,121,121;,
  4;80,80,78,78;,
  4;66,66,66,66;,
  4;79,79,77,77;,
  4;121,121,121,121;,
  4;125,125,125,125;,
  4;81,81,84,84;,
  4;82,82,85,85;,
  4;83,83,86,86;,
  4;126,126,127,127;,
  4;84,84,87,87;,
  4;85,85,88,88;,
  4;86,86,89,89;,
  4;127,127,128,128;,
  4;87,87,90,90;,
  4;88,88,91,91;,
  4;89,89,92,92;,
  4;128,128,129,129;,
  4;90,90,93,93;,
  4;91,91,94,94;,
  4;92,92,95,95;,
  4;129,129,130,130;,
  4;93,93,96,96;,
  4;94,94,97,97;,
  4;95,95,98,98;,
  4;130,130,131,131;,
  4;96,96,99,99;,
  4;97,97,100,100;,
  4;98,98,101,101;,
  4;131,131,132,132;,
  4;99,99,102,102;,
  4;100,100,103,103;,
  4;101,101,104,104;,
  4;132,132,133,133;,
  4;102,102,81,81;,
  4;103,103,82,82;,
  4;104,104,83,83;,
  4;133,133,126,126;;
 }
 MeshTextureCoords {
  182;
  0.000000;0.000000;,
  0.000000;0.166670;,
  0.125000;0.166670;,
  0.125000;0.000000;,
  0.000000;0.333330;,
  0.000000;0.500000;,
  0.125000;0.500000;,
  0.125000;0.333330;,
  0.000000;0.666670;,
  0.125000;0.666670;,
  0.000000;0.833330;,
  0.000000;1.000000;,
  0.125000;1.000000;,
  0.125000;0.833330;,
  0.250000;0.166670;,
  0.250000;0.000000;,
  0.250000;0.500000;,
  0.250000;0.333330;,
  0.250000;0.666670;,
  0.250000;1.000000;,
  0.250000;0.833330;,
  0.375000;0.166670;,
  0.375000;0.000000;,
  0.375000;0.500000;,
  0.375000;0.333330;,
  0.375000;0.666670;,
  0.375000;1.000000;,
  0.375000;0.833330;,
  0.500000;0.166670;,
  0.500000;0.000000;,
  0.500000;0.500000;,
  0.500000;0.333330;,
  0.500000;0.666670;,
  0.500000;1.000000;,
  0.500000;0.833330;,
  0.625000;0.166670;,
  0.625000;0.000000;,
  0.625000;0.500000;,
  0.625000;0.333330;,
  0.625000;0.666670;,
  0.625000;1.000000;,
  0.625000;0.833330;,
  0.750000;0.166670;,
  0.750000;0.000000;,
  0.750000;0.500000;,
  0.750000;0.333330;,
  0.750000;0.666670;,
  0.750000;1.000000;,
  0.750000;0.833330;,
  0.875000;0.166670;,
  0.875000;0.000000;,
  0.875000;0.500000;,
  0.875000;0.333330;,
  0.875000;0.666670;,
  0.875000;1.000000;,
  0.875000;0.833330;,
  1.000000;0.166670;,
  1.000000;0.000000;,
  1.000000;0.500000;,
  1.000000;0.333330;,
  1.000000;0.666670;,
  1.000000;1.000000;,
  1.000000;0.833330;,
  0.875000;0.765150;,
  0.750000;0.765150;,
  1.000000;0.765150;,
  0.625000;0.765150;,
  0.000000;0.765150;,
  0.125000;0.765150;,
  0.500000;0.765150;,
  0.250000;0.765150;,
  0.375000;0.765150;,
  0.750000;0.234100;,
  0.625000;0.234100;,
  0.875000;0.234100;,
  0.500000;0.234100;,
  1.000000;0.234100;,
  0.375000;0.234100;,
  0.000000;0.234100;,
  0.125000;0.234100;,
  0.250000;0.234100;,
  0.000000;0.000000;,
  1.000000;0.000000;,
  1.000000;1.000000;,
  0.000000;1.000000;,
  0.000000;0.000000;,
  1.000000;0.000000;,
  1.000000;1.000000;,
  0.000000;1.000000;,
  0.000000;0.000000;,
  1.000000;0.000000;,
  1.000000;1.000000;,
  0.000000;1.000000;,
  0.000000;0.000000;,
  1.000000;0.000000;,
  1.000000;1.000000;,
  0.000000;1.000000;,
  0.000000;0.000000;,
  1.000000;0.000000;,
  1.000000;0.000000;,
  0.000000;0.000000;,
  1.000000;1.000000;,
  1.000000;1.000000;,
  0.000000;1.000000;,
  0.000000;1.000000;,
  1.000000;0.000000;,
  0.000000;0.000000;,
  1.000000;1.000000;,
  0.000000;1.000000;,
  0.000000;0.000000;,
  1.000000;0.000000;,
  1.000000;1.000000;,
  0.000000;1.000000;,
  0.000000;0.000000;,
  1.000000;0.000000;,
  1.000000;1.000000;,
  0.000000;1.000000;,
  0.000000;0.000000;,
  1.000000;0.000000;,
  1.000000;1.000000;,
  0.000000;1.000000;,
  0.000000;0.000000;,
  1.000000;0.000000;,
  1.000000;1.000000;,
  0.000000;1.000000;,
  0.000000;0.000000;,
  1.000000;0.000000;,
  1.000000;0.000000;,
  0.000000;0.000000;,
  1.000000;1.000000;,
  1.000000;1.000000;,
  0.000000;1.000000;,
  0.000000;1.000000;,
  1.000000;0.000000;,
  0.000000;0.000000;,
  1.000000;1.000000;,
  0.000000;1.000000;,
  0.000000;0.000000;,
  0.000000;0.250000;,
  0.125000;0.250000;,
  0.125000;0.000000;,
  0.000000;0.500000;,
  0.125000;0.500000;,
  0.000000;0.750000;,
  0.125000;0.750000;,
  0.000000;1.000000;,
  0.125000;1.000000;,
  0.250000;0.250000;,
  0.250000;0.000000;,
  0.250000;0.500000;,
  0.250000;0.750000;,
  0.250000;1.000000;,
  0.375000;0.250000;,
  0.375000;0.000000;,
  0.375000;0.500000;,
  0.375000;0.750000;,
  0.375000;1.000000;,
  0.500000;0.250000;,
  0.500000;0.000000;,
  0.500000;0.500000;,
  0.500000;0.750000;,
  0.500000;1.000000;,
  0.625000;0.250000;,
  0.625000;0.000000;,
  0.625000;0.500000;,
  0.625000;0.750000;,
  0.625000;1.000000;,
  0.750000;0.250000;,
  0.750000;0.000000;,
  0.750000;0.500000;,
  0.750000;0.750000;,
  0.750000;1.000000;,
  0.875000;0.250000;,
  0.875000;0.000000;,
  0.875000;0.500000;,
  0.875000;0.750000;,
  0.875000;1.000000;,
  1.000000;0.250000;,
  1.000000;0.000000;,
  1.000000;0.500000;,
  1.000000;0.750000;,
  1.000000;1.000000;;
 }
}
