xof 0302txt 0064
template Header {
 <3D82AB43-62DA-11cf-AB39-0020AF71E433>
 WORD major;
 WORD minor;
 DWORD flags;
}

template Vector {
 <3D82AB5E-62DA-11cf-AB39-0020AF71E433>
 FLOAT x;
 FLOAT y;
 FLOAT z;
}

template Coords2d {
 <F6F23F44-7686-11cf-8F52-0040333594A3>
 FLOAT u;
 FLOAT v;
}

template Matrix4x4 {
 <F6F23F45-7686-11cf-8F52-0040333594A3>
 array FLOAT matrix[16];
}

template ColorRGBA {
 <35FF44E0-6C7C-11cf-8F52-0040333594A3>
 FLOAT red;
 FLOAT green;
 FLOAT blue;
 FLOAT alpha;
}

template ColorRGB {
 <D3E16E81-7835-11cf-8F52-0040333594A3>
 FLOAT red;
 FLOAT green;
 FLOAT blue;
}

template IndexedColor {
 <1630B820-7842-11cf-8F52-0040333594A3>
 DWORD index;
 ColorRGBA indexColor;
}

template Boolean {
 <4885AE61-78E8-11cf-8F52-0040333594A3>
 WORD truefalse;
}

template Boolean2d {
 <4885AE63-78E8-11cf-8F52-0040333594A3>
 Boolean u;
 Boolean v;
}

template MaterialWrap {
 <4885AE60-78E8-11cf-8F52-0040333594A3>
 Boolean u;
 Boolean v;
}

template TextureFilename {
 <A42790E1-7810-11cf-8F52-0040333594A3>
 STRING filename;
}

template Material {
 <3D82AB4D-62DA-11cf-AB39-0020AF71E433>
 ColorRGBA faceColor;
 FLOAT power;
 ColorRGB specularColor;
 ColorRGB emissiveColor;
 [...]
}

template MeshFace {
 <3D82AB5F-62DA-11cf-AB39-0020AF71E433>
 DWORD nFaceVertexIndices;
 array DWORD faceVertexIndices[nFaceVertexIndices];
}

template MeshFaceWraps {
 <4885AE62-78E8-11cf-8F52-0040333594A3>
 DWORD nFaceWrapValues;
 Boolean2d faceWrapValues;
}

template MeshTextureCoords {
 <F6F23F40-7686-11cf-8F52-0040333594A3>
 DWORD nTextureCoords;
 array Coords2d textureCoords[nTextureCoords];
}

template MeshMaterialList {
 <F6F23F42-7686-11cf-8F52-0040333594A3>
 DWORD nMaterials;
 DWORD nFaceIndexes;
 array DWORD faceIndexes[nFaceIndexes];
 [Material]
}

template MeshNormals {
 <F6F23F43-7686-11cf-8F52-0040333594A3>
 DWORD nNormals;
 array Vector normals[nNormals];
 DWORD nFaceNormals;
 array MeshFace faceNormals[nFaceNormals];
}

template MeshVertexColors {
 <1630B821-7842-11cf-8F52-0040333594A3>
 DWORD nVertexColors;
 array IndexedColor vertexColors[nVertexColors];
}

template Mesh {
 <3D82AB44-62DA-11cf-AB39-0020AF71E433>
 DWORD nVertices;
 array Vector vertices[nVertices];
 DWORD nFaces;
 array MeshFace faces[nFaces];
 [...]
}

Header{
1;
0;
1;
}

Mesh {
 76;
 0.00000;120.00000;6.94263;,
 -5.87785;120.00000;10.03280;,
 -5.87785;0.00000;10.03280;,
 0.00000;0.00000;6.94263;,
 -4.51056;120.00000;4.03280;,
 -4.51056;0.00000;4.03280;,
 -9.51057;120.00000;-1.14754;,
 -9.51057;0.00000;-1.14754;,
 -2.87785;120.00000;-2.14754;,
 -2.87785;0.00000;-2.14754;,
 0.00000;120.00000;-8.05737;,
 0.00000;0.00000;-8.05737;,
 2.87785;120.00000;-2.14754;,
 2.87785;0.00000;-2.14754;,
 9.51057;120.00000;-1.14754;,
 9.51057;0.00000;-1.14754;,
 4.51056;120.00000;4.03280;,
 4.51056;0.00000;4.03280;,
 5.87785;120.00000;10.03280;,
 5.87785;0.00000;10.03280;,
 0.00000;120.00000;1.94263;,
 0.00000;0.00000;1.94263;,
 -0.00001;169.80440;-17.53940;,
 20.56175;169.80440;-2.60041;,
 20.56175;160.19561;-2.60041;,
 -0.00001;160.19561;-17.53940;,
 12.70786;169.80440;21.57137;,
 12.70786;160.19561;21.57137;,
 -12.70786;169.80440;21.57138;,
 -12.70786;160.19561;21.57138;,
 -20.56175;169.80440;-2.60041;,
 -20.56175;160.19561;-2.60041;,
 0.00000;169.80440;4.08050;,
 0.00000;160.19561;4.08050;,
 0.00000;140.00000;9.95642;,
 -8.85265;140.00000;14.61054;,
 -6.46564;120.00000;10.93731;,
 0.00000;120.00000;7.53812;,
 -6.79337;140.00000;5.57392;,
 -4.96162;120.00000;4.33731;,
 -14.32388;140.00000;-2.22820;,
 -10.46162;120.00000;-1.36107;,
 -4.33434;140.00000;-3.73430;,
 -3.16564;120.00000;-2.46107;,
 0.00000;140.00000;-12.63511;,
 0.00000;120.00000;-8.96188;,
 4.33434;140.00000;-3.73430;,
 3.16564;120.00000;-2.46107;,
 14.32388;140.00000;-2.22821;,
 10.46162;120.00000;-1.36107;,
 6.79337;140.00000;5.57392;,
 4.96162;120.00000;4.33731;,
 8.85264;140.00000;14.61054;,
 6.46563;120.00000;10.93731;,
 0.00000;140.00000;2.42591;,
 0.00000;120.00000;2.03812;,
 -0.00001;160.19561;-23.86614;,
 26.11566;160.19561;-4.89205;,
 15.21691;140.00000;-2.44511;,
 0.00000;140.00000;-13.50082;,
 16.14037;160.19561;25.80876;,
 9.40456;140.00000;15.44345;,
 -16.14037;160.19561;25.80876;,
 -9.40456;140.00000;15.44345;,
 -26.11566;160.19561;-4.89204;,
 -15.21691;140.00000;-2.44511;,
 0.00000;160.19561;3.59345;,
 0.00000;140.00000;2.49916;,
 -48.00000;20.00000;-36.00000;,
 48.00000;20.00000;-36.00000;,
 48.00000;0.00000;-36.00000;,
 -48.00000;0.00000;-36.00000;,
 48.00000;20.00000;36.00000;,
 48.00000;0.00000;36.00000;,
 -48.00000;20.00000;36.00000;,
 -48.00000;0.00000;36.00000;;
 
 96;
 4;0,1,2,3;,
 4;1,4,5,2;,
 4;4,6,7,5;,
 4;6,8,9,7;,
 4;8,10,11,9;,
 4;10,12,13,11;,
 4;12,14,15,13;,
 4;14,16,17,15;,
 4;16,18,19,17;,
 4;18,0,3,19;,
 3;20,1,0;,
 3;20,4,1;,
 3;20,6,4;,
 3;20,8,6;,
 3;20,10,8;,
 3;20,12,10;,
 3;20,14,12;,
 3;20,16,14;,
 3;20,18,16;,
 3;20,0,18;,
 3;21,3,2;,
 3;21,2,5;,
 3;21,5,7;,
 3;21,7,9;,
 3;21,9,11;,
 3;21,11,13;,
 3;21,13,15;,
 3;21,15,17;,
 3;21,17,19;,
 3;21,19,3;,
 4;22,23,24,25;,
 4;23,26,27,24;,
 4;26,28,29,27;,
 4;28,30,31,29;,
 4;30,22,25,31;,
 3;32,23,22;,
 3;32,26,23;,
 3;32,28,26;,
 3;32,30,28;,
 3;32,22,30;,
 3;33,25,24;,
 3;33,24,27;,
 3;33,27,29;,
 3;33,29,31;,
 3;33,31,25;,
 4;34,35,36,37;,
 4;35,38,39,36;,
 4;38,40,41,39;,
 4;40,42,43,41;,
 4;42,44,45,43;,
 4;44,46,47,45;,
 4;46,48,49,47;,
 4;48,50,51,49;,
 4;50,52,53,51;,
 4;52,34,37,53;,
 3;54,35,34;,
 3;54,38,35;,
 3;54,40,38;,
 3;54,42,40;,
 3;54,44,42;,
 3;54,46,44;,
 3;54,48,46;,
 3;54,50,48;,
 3;54,52,50;,
 3;54,34,52;,
 3;55,37,36;,
 3;55,36,39;,
 3;55,39,41;,
 3;55,41,43;,
 3;55,43,45;,
 3;55,45,47;,
 3;55,47,49;,
 3;55,49,51;,
 3;55,51,53;,
 3;55,53,37;,
 4;56,57,58,59;,
 4;57,60,61,58;,
 4;60,62,63,61;,
 4;62,64,65,63;,
 4;64,56,59,65;,
 3;66,57,56;,
 3;66,60,57;,
 3;66,62,60;,
 3;66,64,62;,
 3;66,56,64;,
 3;67,59,58;,
 3;67,58,61;,
 3;67,61,63;,
 3;67,63,65;,
 3;67,65,59;,
 4;68,69,70,71;,
 4;69,72,73,70;,
 4;72,74,75,73;,
 4;74,68,71,75;,
 4;74,72,69,68;,
 4;71,70,73,75;;
 
 MeshMaterialList {
  3;
  96;
  1,
  1,
  1,
  1,
  1,
  1,
  1,
  1,
  1,
  1,
  1,
  1,
  1,
  1,
  1,
  1,
  1,
  1,
  1,
  1,
  1,
  1,
  1,
  1,
  1,
  1,
  1,
  1,
  1,
  1,
  1,
  1,
  1,
  1,
  1,
  1,
  1,
  1,
  1,
  1,
  1,
  1,
  1,
  1,
  1,
  1,
  1,
  1,
  1,
  1,
  1,
  1,
  1,
  1,
  1,
  1,
  1,
  1,
  1,
  1,
  1,
  1,
  1,
  1,
  1,
  1,
  1,
  1,
  1,
  1,
  1,
  1,
  1,
  1,
  1,
  1,
  1,
  1,
  1,
  1,
  1,
  1,
  1,
  1,
  1,
  1,
  1,
  1,
  1,
  1,
  2,
  2,
  2,
  2,
  2,
  2;;
  Material {
   0.800000;0.800000;0.800000;1.000000;;
   5.000000;
   0.000000;0.000000;0.000000;;
   0.000000;0.000000;0.000000;;
  }
  Material {
   0.674400;0.674400;0.674400;1.000000;;
   5.000000;
   0.000000;0.000000;0.000000;;
   0.000000;0.000000;0.000000;;
  }
  Material {
   1.000000;1.000000;1.000000;1.000000;;
   0.000000;
   0.000000;0.000000;0.000000;;
   0.000000;0.000000;0.000000;;
  }
 }
 MeshNormals {
  48;
  0.000000;1.000000;0.000000;,
  0.000000;0.000000;1.000000;,
  0.465341;0.000000;0.885131;,
  -0.963285;0.000000;0.268481;,
  -0.719519;0.000000;0.694472;,
  -0.592080;0.000000;-0.805879;,
  -0.899068;0.000000;-0.437810;,
  0.592080;0.000000;-0.805879;,
  0.149083;0.000000;-0.988825;,
  0.963285;0.000000;0.268481;,
  0.975004;0.000000;-0.222186;,
  0.000000;-1.000000;-0.000000;,
  0.587785;0.000000;-0.809017;,
  0.951056;0.000000;0.309017;,
  0.000000;0.000000;1.000000;,
  -0.951057;0.000000;0.309017;,
  -0.000000;-0.120041;0.992769;,
  0.462699;-0.106418;0.880105;,
  -0.958258;-0.104226;0.266230;,
  -0.715296;-0.108200;0.690394;,
  -0.589768;-0.085585;-0.803025;,
  -0.896175;-0.080150;-0.436402;,
  0.589768;-0.085585;-0.803025;,
  0.148701;-0.071479;-0.986295;,
  0.958258;-0.104226;0.266230;,
  0.972233;-0.075346;-0.221553;,
  0.542848;-0.383481;-0.747167;,
  0.858800;-0.429650;0.279041;,
  0.000000;-0.456616;0.889664;,
  -0.858800;-0.429651;0.279041;,
  -0.975004;0.000000;-0.222186;,
  -0.149083;0.000000;-0.988825;,
  0.899068;0.000000;-0.437810;,
  0.719519;0.000000;0.694472;,
  -0.465341;0.000000;0.885131;,
  -0.587786;0.000000;-0.809017;,
  -0.972233;-0.075346;-0.221554;,
  -0.148702;-0.071478;-0.986295;,
  0.896175;-0.080150;-0.436402;,
  0.715296;-0.108200;0.690394;,
  -0.462699;-0.106418;0.880105;,
  -0.542848;-0.383481;-0.747167;,
  0.000000;0.000000;-1.000000;,
  1.000000;0.000000;0.000000;,
  0.000000;0.000000;1.000000;,
  -1.000000;0.000000;0.000000;,
  0.000000;1.000000;0.000000;,
  0.000000;-1.000000;-0.000000;;
  96;
  4;1,2,2,1;,
  4;30,3,3,30;,
  4;3,4,4,3;,
  4;31,5,5,31;,
  4;5,6,6,5;,
  4;32,7,7,32;,
  4;7,8,8,7;,
  4;33,9,9,33;,
  4;9,10,10,9;,
  4;34,1,1,34;,
  3;0,0,0;,
  3;0,0,0;,
  3;0,0,0;,
  3;0,0,0;,
  3;0,0,0;,
  3;0,0,0;,
  3;0,0,0;,
  3;0,0,0;,
  3;0,0,0;,
  3;0,0,0;,
  3;11,11,11;,
  3;11,11,11;,
  3;11,11,11;,
  3;11,11,11;,
  3;11,11,11;,
  3;11,11,11;,
  3;11,11,11;,
  3;11,11,11;,
  3;11,11,11;,
  3;11,11,11;,
  4;12,12,12,12;,
  4;13,13,13,13;,
  4;14,14,14,14;,
  4;15,15,15,15;,
  4;35,35,35,35;,
  3;0,0,0;,
  3;0,0,0;,
  3;0,0,0;,
  3;0,0,0;,
  3;0,0,0;,
  3;11,11,11;,
  3;11,11,11;,
  3;11,11,11;,
  3;11,11,11;,
  3;11,11,11;,
  4;16,17,17,16;,
  4;36,18,18,36;,
  4;18,19,19,18;,
  4;37,20,20,37;,
  4;20,21,21,20;,
  4;38,22,22,38;,
  4;22,23,23,22;,
  4;39,24,24,39;,
  4;24,25,25,24;,
  4;40,16,16,40;,
  3;0,0,0;,
  3;0,0,0;,
  3;0,0,0;,
  3;0,0,0;,
  3;0,0,0;,
  3;0,0,0;,
  3;0,0,0;,
  3;0,0,0;,
  3;0,0,0;,
  3;0,0,0;,
  3;11,11,11;,
  3;11,11,11;,
  3;11,11,11;,
  3;11,11,11;,
  3;11,11,11;,
  3;11,11,11;,
  3;11,11,11;,
  3;11,11,11;,
  3;11,11,11;,
  3;11,11,11;,
  4;26,26,26,26;,
  4;27,27,27,27;,
  4;28,28,28,28;,
  4;29,29,29,29;,
  4;41,41,41,41;,
  3;0,0,0;,
  3;0,0,0;,
  3;0,0,0;,
  3;0,0,0;,
  3;0,0,0;,
  3;11,11,11;,
  3;11,11,11;,
  3;11,11,11;,
  3;11,11,11;,
  3;11,11,11;,
  4;42,42,42,42;,
  4;43,43,43,43;,
  4;44,44,44,44;,
  4;45,45,45,45;,
  4;46,46,46,46;,
  4;47,47,47,47;;
 }
}
