xof 0302txt 0064
template Header {
 <3D82AB43-62DA-11cf-AB39-0020AF71E433>
 WORD major;
 WORD minor;
 DWORD flags;
}

template Vector {
 <3D82AB5E-62DA-11cf-AB39-0020AF71E433>
 FLOAT x;
 FLOAT y;
 FLOAT z;
}

template Coords2d {
 <F6F23F44-7686-11cf-8F52-0040333594A3>
 FLOAT u;
 FLOAT v;
}

template Matrix4x4 {
 <F6F23F45-7686-11cf-8F52-0040333594A3>
 array FLOAT matrix[16];
}

template ColorRGBA {
 <35FF44E0-6C7C-11cf-8F52-0040333594A3>
 FLOAT red;
 FLOAT green;
 FLOAT blue;
 FLOAT alpha;
}

template ColorRGB {
 <D3E16E81-7835-11cf-8F52-0040333594A3>
 FLOAT red;
 FLOAT green;
 FLOAT blue;
}

template IndexedColor {
 <1630B820-7842-11cf-8F52-0040333594A3>
 DWORD index;
 ColorRGBA indexColor;
}

template Boolean {
 <4885AE61-78E8-11cf-8F52-0040333594A3>
 WORD truefalse;
}

template Boolean2d {
 <4885AE63-78E8-11cf-8F52-0040333594A3>
 Boolean u;
 Boolean v;
}

template MaterialWrap {
 <4885AE60-78E8-11cf-8F52-0040333594A3>
 Boolean u;
 Boolean v;
}

template TextureFilename {
 <A42790E1-7810-11cf-8F52-0040333594A3>
 STRING filename;
}

template Material {
 <3D82AB4D-62DA-11cf-AB39-0020AF71E433>
 ColorRGBA faceColor;
 FLOAT power;
 ColorRGB specularColor;
 ColorRGB emissiveColor;
 [...]
}

template MeshFace {
 <3D82AB5F-62DA-11cf-AB39-0020AF71E433>
 DWORD nFaceVertexIndices;
 array DWORD faceVertexIndices[nFaceVertexIndices];
}

template MeshFaceWraps {
 <4885AE62-78E8-11cf-8F52-0040333594A3>
 DWORD nFaceWrapValues;
 Boolean2d faceWrapValues;
}

template MeshTextureCoords {
 <F6F23F40-7686-11cf-8F52-0040333594A3>
 DWORD nTextureCoords;
 array Coords2d textureCoords[nTextureCoords];
}

template MeshMaterialList {
 <F6F23F42-7686-11cf-8F52-0040333594A3>
 DWORD nMaterials;
 DWORD nFaceIndexes;
 array DWORD faceIndexes[nFaceIndexes];
 [Material]
}

template MeshNormals {
 <F6F23F43-7686-11cf-8F52-0040333594A3>
 DWORD nNormals;
 array Vector normals[nNormals];
 DWORD nFaceNormals;
 array MeshFace faceNormals[nFaceNormals];
}

template MeshVertexColors {
 <1630B821-7842-11cf-8F52-0040333594A3>
 DWORD nVertexColors;
 array IndexedColor vertexColors[nVertexColors];
}

template Mesh {
 <3D82AB44-62DA-11cf-AB39-0020AF71E433>
 DWORD nVertices;
 array Vector vertices[nVertices];
 DWORD nFaces;
 array MeshFace faces[nFaces];
 [...]
}

Header{
1;
0;
1;
}

Mesh {
 148;
 -39.62575;101.71730;-4.14464;,
 39.62575;101.71730;-4.14464;,
 39.62575;1.71730;-4.14464;,
 -39.62575;1.71730;-4.14464;,
 39.62575;101.71730;1.73944;,
 39.62575;1.71730;1.73944;,
 -39.62575;101.71730;1.73944;,
 -39.62575;1.71730;1.73944;,
 39.35355;95.67865;-1.20260;,
 40.24520;96.76175;-7.29172;,
 40.24520;6.67280;-7.29172;,
 39.35355;7.75595;-1.20260;,
 42.39775;99.37660;-9.81392;,
 42.39775;4.05805;-9.81392;,
 44.55030;101.99135;-7.29172;,
 44.55030;1.44330;-7.29172;,
 45.44190;103.07435;-1.20260;,
 45.44190;0.36030;-1.20260;,
 44.55030;101.99140;4.88652;,
 44.55030;1.44330;4.88652;,
 42.39775;99.37660;7.40872;,
 42.39775;4.05805;7.40872;,
 40.24520;96.76175;4.88652;,
 40.24520;6.67280;4.88652;,
 -40.24525;6.67280;-7.29172;,
 -39.35355;7.75595;-1.20260;,
 -42.39775;4.05805;-9.81392;,
 -44.55030;1.44330;-7.29172;,
 -45.44190;0.36030;-1.20260;,
 -44.55030;1.44330;4.88652;,
 -42.39775;4.05810;7.40872;,
 -40.24525;6.67285;4.88652;,
 -40.24520;96.76175;-7.29172;,
 -39.35355;95.67860;-1.20260;,
 -42.39775;99.37660;-9.81392;,
 -44.55030;101.99125;-7.29172;,
 -45.44190;103.07430;-1.20260;,
 -44.55030;101.99130;4.88652;,
 -42.39775;99.37660;7.40872;,
 -40.24520;96.76180;4.88652;,
 32.31990;55.56035;-7.63460;,
 34.10482;56.29902;-7.62597;,
 34.10482;56.24644;-3.02360;,
 32.31990;55.50777;-3.03215;,
 34.84417;58.08230;-7.60512;,
 34.84417;58.02965;-3.00267;,
 34.10482;59.86550;-7.58435;,
 34.10482;59.81285;-2.98190;,
 32.31990;60.60410;-7.57565;,
 32.31990;60.55160;-2.97327;,
 30.53497;59.86550;-7.58435;,
 30.53497;59.81285;-2.98190;,
 29.79562;58.08230;-7.60512;,
 29.79562;58.02965;-3.00267;,
 30.53497;56.29902;-7.62597;,
 30.53497;56.24644;-3.02360;,
 32.31990;58.08230;-7.60512;,
 32.31990;58.02965;-3.00267;,
 32.25000;66.71408;-11.82433;,
 34.14503;66.71408;-11.03938;,
 34.14503;33.28593;-11.03938;,
 32.25000;33.28593;-11.82433;,
 34.93000;66.71408;-9.14435;,
 34.93000;33.28593;-9.14435;,
 34.14503;66.71408;-7.24932;,
 34.14503;33.28593;-7.24932;,
 32.25000;66.71408;-6.46437;,
 32.25000;33.28593;-6.46437;,
 30.35497;66.71408;-7.24932;,
 30.35497;33.28593;-7.24932;,
 29.57001;66.71408;-9.14435;,
 29.57001;33.28593;-9.14435;,
 30.35497;66.71408;-11.03938;,
 30.35497;33.28593;-11.03938;,
 32.25000;66.71408;-9.14435;,
 32.25000;33.28593;-9.14435;,
 32.31990;39.49340;-7.63460;,
 34.10482;40.23207;-7.62597;,
 34.10482;40.17950;-3.02360;,
 32.31990;39.44082;-3.03215;,
 34.84417;42.01535;-7.60512;,
 34.84417;41.96270;-3.00267;,
 34.10482;43.79855;-7.58435;,
 34.10482;43.74590;-2.98190;,
 32.31990;44.53715;-7.57565;,
 32.31990;44.48465;-2.97327;,
 30.53497;43.79855;-7.58435;,
 30.53497;43.74590;-2.98190;,
 29.79562;42.01535;-7.60512;,
 29.79562;41.96270;-3.00267;,
 30.53497;40.23207;-7.62597;,
 30.53497;40.17950;-3.02360;,
 32.31990;42.01535;-7.60512;,
 32.31990;41.96270;-3.00267;,
 32.18010;55.56035;5.21199;,
 30.39518;56.29902;5.20337;,
 30.39518;56.24644;0.60099;,
 32.18010;55.50777;0.60954;,
 29.65583;58.08230;5.18252;,
 29.65583;58.02965;0.58007;,
 30.39518;59.86550;5.16174;,
 30.39518;59.81285;0.55929;,
 32.18010;60.60410;5.15304;,
 32.18010;60.55160;0.55067;,
 33.96503;59.86550;5.16174;,
 33.96503;59.81285;0.55929;,
 34.70438;58.08230;5.18252;,
 34.70438;58.02965;0.58007;,
 33.96503;56.29902;5.20337;,
 33.96503;56.24644;0.60099;,
 32.18010;58.08230;5.18252;,
 32.18010;58.02965;0.58007;,
 32.25000;66.71408;9.40173;,
 30.35497;66.71408;8.61677;,
 30.35497;33.28593;8.61677;,
 32.25000;33.28593;9.40173;,
 29.57001;66.71408;6.72174;,
 29.57001;33.28593;6.72174;,
 30.35497;66.71408;4.82671;,
 30.35497;33.28593;4.82671;,
 32.25000;66.71408;4.04176;,
 32.25000;33.28593;4.04176;,
 34.14503;66.71408;4.82671;,
 34.14503;33.28593;4.82671;,
 34.93000;66.71408;6.72174;,
 34.93000;33.28593;6.72174;,
 34.14503;66.71408;8.61677;,
 34.14503;33.28593;8.61677;,
 32.25000;66.71408;6.72174;,
 32.25000;33.28593;6.72174;,
 32.18010;39.49340;5.21199;,
 30.39518;40.23207;5.20337;,
 30.39518;40.17950;0.60099;,
 32.18010;39.44082;0.60954;,
 29.65583;42.01535;5.18252;,
 29.65583;41.96270;0.58007;,
 30.39518;43.79855;5.16174;,
 30.39518;43.74590;0.55929;,
 32.18010;44.53715;5.15304;,
 32.18010;44.48465;0.55067;,
 33.96503;43.79855;5.16174;,
 33.96503;43.74590;0.55929;,
 34.70438;42.01535;5.18252;,
 34.70438;41.96270;0.58007;,
 33.96503;40.23207;5.20337;,
 33.96503;40.17950;0.60099;,
 32.18010;42.01535;5.18252;,
 32.18010;41.96270;0.58007;;
 
 182;
 4;0,1,2,3;,
 4;1,4,5,2;,
 4;4,6,7,5;,
 4;6,0,3,7;,
 4;6,4,1,0;,
 4;3,2,5,7;,
 4;8,9,10,11;,
 4;9,12,13,10;,
 4;12,14,15,13;,
 4;14,16,17,15;,
 4;16,18,19,17;,
 4;18,20,21,19;,
 4;20,22,23,21;,
 4;22,8,11,23;,
 4;11,10,24,25;,
 4;10,13,26,24;,
 4;13,15,27,26;,
 4;15,17,28,27;,
 4;17,19,29,28;,
 4;19,21,30,29;,
 4;21,23,31,30;,
 4;23,11,25,31;,
 4;25,24,32,33;,
 4;24,26,34,32;,
 4;26,27,35,34;,
 4;27,28,36,35;,
 4;28,29,37,36;,
 4;29,30,38,37;,
 4;30,31,39,38;,
 4;31,25,33,39;,
 4;33,32,9,8;,
 4;32,34,12,9;,
 4;34,35,14,12;,
 4;35,36,16,14;,
 4;36,37,18,16;,
 4;37,38,20,18;,
 4;38,39,22,20;,
 4;39,33,8,22;,
 4;40,41,42,43;,
 4;41,44,45,42;,
 4;44,46,47,45;,
 4;46,48,49,47;,
 4;48,50,51,49;,
 4;50,52,53,51;,
 4;52,54,55,53;,
 4;54,40,43,55;,
 3;56,41,40;,
 3;56,44,41;,
 3;56,46,44;,
 3;56,48,46;,
 3;56,50,48;,
 3;56,52,50;,
 3;56,54,52;,
 3;56,40,54;,
 3;57,43,42;,
 3;57,42,45;,
 3;57,45,47;,
 3;57,47,49;,
 3;57,49,51;,
 3;57,51,53;,
 3;57,53,55;,
 3;57,55,43;,
 4;58,59,60,61;,
 4;59,62,63,60;,
 4;62,64,65,63;,
 4;64,66,67,65;,
 4;66,68,69,67;,
 4;68,70,71,69;,
 4;70,72,73,71;,
 4;72,58,61,73;,
 3;74,59,58;,
 3;74,62,59;,
 3;74,64,62;,
 3;74,66,64;,
 3;74,68,66;,
 3;74,70,68;,
 3;74,72,70;,
 3;74,58,72;,
 3;75,61,60;,
 3;75,60,63;,
 3;75,63,65;,
 3;75,65,67;,
 3;75,67,69;,
 3;75,69,71;,
 3;75,71,73;,
 3;75,73,61;,
 4;76,77,78,79;,
 4;77,80,81,78;,
 4;80,82,83,81;,
 4;82,84,85,83;,
 4;84,86,87,85;,
 4;86,88,89,87;,
 4;88,90,91,89;,
 4;90,76,79,91;,
 3;92,77,76;,
 3;92,80,77;,
 3;92,82,80;,
 3;92,84,82;,
 3;92,86,84;,
 3;92,88,86;,
 3;92,90,88;,
 3;92,76,90;,
 3;93,79,78;,
 3;93,78,81;,
 3;93,81,83;,
 3;93,83,85;,
 3;93,85,87;,
 3;93,87,89;,
 3;93,89,91;,
 3;93,91,79;,
 4;94,95,96,97;,
 4;95,98,99,96;,
 4;98,100,101,99;,
 4;100,102,103,101;,
 4;102,104,105,103;,
 4;104,106,107,105;,
 4;106,108,109,107;,
 4;108,94,97,109;,
 3;110,95,94;,
 3;110,98,95;,
 3;110,100,98;,
 3;110,102,100;,
 3;110,104,102;,
 3;110,106,104;,
 3;110,108,106;,
 3;110,94,108;,
 3;111,97,96;,
 3;111,96,99;,
 3;111,99,101;,
 3;111,101,103;,
 3;111,103,105;,
 3;111,105,107;,
 3;111,107,109;,
 3;111,109,97;,
 4;112,113,114,115;,
 4;113,116,117,114;,
 4;116,118,119,117;,
 4;118,120,121,119;,
 4;120,122,123,121;,
 4;122,124,125,123;,
 4;124,126,127,125;,
 4;126,112,115,127;,
 3;128,113,112;,
 3;128,116,113;,
 3;128,118,116;,
 3;128,120,118;,
 3;128,122,120;,
 3;128,124,122;,
 3;128,126,124;,
 3;128,112,126;,
 3;129,115,114;,
 3;129,114,117;,
 3;129,117,119;,
 3;129,119,121;,
 3;129,121,123;,
 3;129,123,125;,
 3;129,125,127;,
 3;129,127,115;,
 4;130,131,132,133;,
 4;131,134,135,132;,
 4;134,136,137,135;,
 4;136,138,139,137;,
 4;138,140,141,139;,
 4;140,142,143,141;,
 4;142,144,145,143;,
 4;144,130,133,145;,
 3;146,131,130;,
 3;146,134,131;,
 3;146,136,134;,
 3;146,138,136;,
 3;146,140,138;,
 3;146,142,140;,
 3;146,144,142;,
 3;146,130,144;,
 3;147,133,132;,
 3;147,132,135;,
 3;147,135,137;,
 3;147,137,139;,
 3;147,139,141;,
 3;147,141,143;,
 3;147,143,145;,
 3;147,145,133;;
 
 MeshMaterialList {
  4;
  182;
  3,
  3,
  3,
  3,
  3,
  3,
  0,
  0,
  0,
  0,
  0,
  0,
  0,
  0,
  0,
  0,
  0,
  0,
  0,
  0,
  0,
  0,
  0,
  0,
  0,
  0,
  0,
  0,
  0,
  0,
  0,
  0,
  0,
  0,
  0,
  0,
  0,
  0,
  2,
  2,
  2,
  2,
  2,
  2,
  2,
  2,
  2,
  2,
  2,
  2,
  2,
  2,
  2,
  2,
  2,
  2,
  2,
  2,
  2,
  2,
  2,
  2,
  2,
  2,
  2,
  2,
  2,
  2,
  2,
  2,
  2,
  2,
  2,
  2,
  2,
  2,
  2,
  2,
  2,
  2,
  2,
  2,
  2,
  2,
  2,
  2,
  2,
  2,
  2,
  2,
  2,
  2,
  2,
  2,
  2,
  2,
  2,
  2,
  2,
  2,
  2,
  2,
  2,
  2,
  2,
  2,
  2,
  2,
  2,
  2,
  2,
  2,
  2,
  2,
  2,
  2,
  2,
  2,
  2,
  2,
  2,
  2,
  2,
  2,
  2,
  2,
  2,
  2,
  2,
  2,
  2,
  2,
  2,
  2,
  2,
  2,
  2,
  2,
  2,
  2,
  2,
  2,
  2,
  2,
  2,
  2,
  2,
  2,
  2,
  2,
  2,
  2,
  2,
  2,
  2,
  2,
  2,
  2,
  2,
  2,
  2,
  2,
  2,
  2,
  2,
  2,
  2,
  2,
  2,
  2,
  2,
  2,
  2,
  2,
  2,
  2,
  2,
  2,
  2,
  2,
  2,
  2;;
  Material {
   0.000000;0.000000;0.000000;1.000000;;
   5.000000;
   0.000000;0.000000;0.000000;;
   0.000000;0.000000;0.000000;;
  }
  Material {
   0.800000;0.800000;0.800000;1.000000;;
   5.000000;
   0.000000;0.000000;0.000000;;
   0.000000;0.000000;0.000000;;
  }
  Material {
   0.398431;0.398431;0.398431;1.000000;;
   5.000000;
   0.000000;0.000000;0.000000;;
   0.000000;0.000000;0.000000;;
  }
  Material {
   1.000000;1.000000;1.000000;1.000000;;
   0.000000;
   0.000000;0.000000;0.000000;;
   0.000000;0.000000;0.000000;;
  }
 }
 MeshNormals {
  152;
  0.000000;0.000000;-1.000000;,
  1.000000;0.000000;0.000000;,
  0.000000;0.000000;1.000000;,
  -1.000000;0.000000;0.000000;,
  -0.910649;0.000000;-0.413181;,
  -0.760646;0.000000;-0.649167;,
  0.910651;0.000000;-0.413177;,
  0.910651;0.000000;0.413177;,
  0.760646;0.000000;0.649167;,
  -0.910649;0.000000;0.413181;,
  0.000000;1.000000;-0.000002;,
  0.000000;0.882461;-0.470385;,
  0.000000;0.694255;-0.719729;,
  0.000000;-0.882467;-0.470375;,
  0.000000;-1.000000;-0.000000;,
  -0.000000;-0.882465;0.470377;,
  -0.000000;-0.694250;0.719734;,
  0.000000;0.882462;0.470383;,
  1.000000;-0.000000;-0.000000;,
  0.910649;-0.000000;-0.413180;,
  0.760650;-0.000000;-0.649163;,
  -0.910651;0.000000;-0.413177;,
  -1.000000;0.000000;0.000000;,
  -0.910651;0.000000;0.413177;,
  -0.760646;0.000000;0.649167;,
  0.910649;-0.000000;0.413180;,
  0.000000;1.000000;0.000000;,
  0.760646;0.000000;-0.649167;,
  -0.760646;0.000000;0.649167;,
  0.000000;-0.694254;-0.719730;,
  0.000000;0.694254;0.719730;,
  0.760649;-0.000000;0.649163;,
  0.000000;-1.000000;0.000002;,
  0.000000;-0.882458;-0.470392;,
  0.000000;-0.694240;-0.719743;,
  -0.000000;0.694262;-0.719722;,
  -0.000001;0.882468;-0.470372;,
  -0.000001;1.000000;-0.000004;,
  -0.000001;0.882468;0.470373;,
  -0.000000;0.694254;0.719730;,
  -0.000000;-0.694244;0.719740;,
  -0.000000;-0.882458;0.470392;,
  -0.000000;0.011679;-0.999932;,
  0.000001;-0.999935;-0.011423;,
  0.706891;-0.707276;-0.008081;,
  1.000000;0.000004;0.000002;,
  0.706889;0.707279;0.008083;,
  0.000001;0.999935;0.011422;,
  -0.706889;0.707279;0.008083;,
  -1.000000;0.000004;0.000002;,
  -0.706891;-0.707276;-0.008081;,
  0.000000;-0.011682;0.999932;,
  0.000000;1.000000;0.000000;,
  -0.000000;0.000000;-1.000000;,
  0.707104;0.000000;-0.707109;,
  1.000000;0.000000;0.000000;,
  0.707104;0.000000;0.707110;,
  -0.000000;0.000000;1.000000;,
  -0.707105;0.000000;0.707109;,
  -1.000000;0.000000;0.000000;,
  -0.707105;0.000000;-0.707108;,
  0.000000;-1.000000;-0.000000;,
  -0.000000;0.011679;-0.999932;,
  0.000001;-0.999935;-0.011423;,
  0.706891;-0.707276;-0.008081;,
  1.000000;0.000004;0.000002;,
  0.706889;0.707279;0.008082;,
  0.000001;0.999935;0.011422;,
  -0.706889;0.707278;0.008082;,
  -1.000000;0.000004;0.000002;,
  -0.706891;-0.707276;-0.008081;,
  0.000000;-0.011682;0.999932;,
  -0.000002;0.011689;-0.999932;,
  -0.000000;0.011686;-0.999932;,
  0.000000;0.011670;-0.999932;,
  -0.000019;0.011669;-0.999932;,
  -0.000000;0.011688;-0.999932;,
  0.000019;0.011669;-0.999932;,
  0.000002;0.011689;-0.999932;,
  0.000000;-0.011687;0.999932;,
  0.000024;-0.011710;0.999931;,
  0.000000;-0.011692;0.999932;,
  0.000004;-0.011653;0.999932;,
  0.000000;-0.011657;0.999932;,
  -0.000004;-0.011653;0.999932;,
  0.000000;-0.011692;0.999932;,
  -0.000024;-0.011710;0.999931;,
  -0.000002;0.011689;-0.999932;,
  -0.000000;0.011686;-0.999932;,
  0.000000;0.011670;-0.999932;,
  0.000002;0.011689;-0.999932;,
  0.000000;-0.011687;0.999932;,
  0.000024;-0.011710;0.999931;,
  0.000000;-0.011692;0.999932;,
  0.000004;-0.011653;0.999932;,
  0.000000;-0.011657;0.999932;,
  -0.000004;-0.011653;0.999932;,
  -0.000024;-0.011710;0.999931;,
  0.000000;0.011679;0.999932;,
  -0.000000;-0.999935;0.011423;,
  -0.706891;-0.707276;0.008081;,
  -1.000000;0.000004;-0.000002;,
  -0.706889;0.707278;-0.008083;,
  -0.000000;0.999935;-0.011422;,
  0.706889;0.707278;-0.008083;,
  1.000000;0.000004;-0.000002;,
  0.706892;-0.707276;0.008081;,
  -0.000000;-0.011682;-0.999932;,
  0.000000;1.000000;0.000000;,
  -0.000000;0.000000;1.000000;,
  -0.707105;0.000000;0.707108;,
  -1.000000;0.000000;0.000000;,
  -0.707105;0.000000;-0.707109;,
  -0.000000;0.000000;-1.000000;,
  0.707105;0.000000;-0.707109;,
  1.000000;0.000000;0.000000;,
  0.707105;0.000000;0.707109;,
  0.000000;-1.000000;-0.000000;,
  0.000000;0.011679;0.999932;,
  -0.000000;-0.999935;0.011423;,
  -0.706892;-0.707276;0.008081;,
  -1.000000;0.000004;-0.000002;,
  -0.706889;0.707278;-0.008082;,
  -0.000000;0.999935;-0.011422;,
  0.706890;0.707278;-0.008082;,
  1.000000;0.000004;-0.000002;,
  0.706892;-0.707275;0.008081;,
  -0.000000;-0.011682;-0.999932;,
  0.000002;0.011689;0.999932;,
  0.000000;0.011687;0.999932;,
  0.000000;0.011670;0.999932;,
  0.000019;0.011668;0.999932;,
  0.000000;0.011687;0.999932;,
  -0.000019;0.011668;0.999932;,
  -0.000002;0.011689;0.999932;,
  -0.000000;-0.011687;-0.999932;,
  -0.000023;-0.011711;-0.999931;,
  0.000000;-0.011692;-0.999932;,
  -0.000004;-0.011653;-0.999932;,
  -0.000000;-0.011657;-0.999932;,
  0.000004;-0.011653;-0.999932;,
  0.000023;-0.011711;-0.999931;,
  0.000002;0.011689;0.999932;,
  0.000000;0.011687;0.999932;,
  0.000000;0.011670;0.999932;,
  -0.000002;0.011689;0.999932;,
  -0.000000;-0.011687;-0.999932;,
  -0.000023;-0.011711;-0.999931;,
  0.000000;-0.011692;-0.999932;,
  -0.000004;-0.011653;-0.999932;,
  0.000004;-0.011653;-0.999932;,
  0.000023;-0.011711;-0.999931;;
  182;
  4;0,0,0,0;,
  4;1,1,1,1;,
  4;2,2,2,2;,
  4;22,22,22,22;,
  4;26,26,26,26;,
  4;14,14,14,14;,
  4;3,4,4,3;,
  4;4,5,5,4;,
  4;27,6,6,27;,
  4;6,1,1,6;,
  4;1,7,7,1;,
  4;7,8,8,7;,
  4;28,9,9,28;,
  4;9,3,3,9;,
  4;10,11,11,10;,
  4;11,12,12,11;,
  4;29,13,13,29;,
  4;13,14,14,13;,
  4;14,15,15,14;,
  4;15,16,16,15;,
  4;30,17,17,30;,
  4;17,10,10,17;,
  4;18,19,19,18;,
  4;19,20,20,19;,
  4;5,21,21,5;,
  4;21,22,22,21;,
  4;22,23,23,22;,
  4;23,24,24,23;,
  4;31,25,25,31;,
  4;25,18,18,25;,
  4;32,33,33,32;,
  4;33,34,34,33;,
  4;35,36,36,35;,
  4;36,37,37,36;,
  4;37,38,38,37;,
  4;38,39,39,38;,
  4;40,41,41,40;,
  4;41,32,32,41;,
  4;43,44,44,43;,
  4;44,45,45,44;,
  4;45,46,46,45;,
  4;46,47,47,46;,
  4;47,48,48,47;,
  4;48,49,49,48;,
  4;49,50,50,49;,
  4;50,43,43,50;,
  3;42,72,73;,
  3;42,74,72;,
  3;42,75,74;,
  3;42,76,75;,
  3;42,77,76;,
  3;42,74,77;,
  3;42,78,74;,
  3;42,73,78;,
  3;51,79,80;,
  3;51,80,81;,
  3;51,81,82;,
  3;51,82,83;,
  3;51,83,84;,
  3;51,84,85;,
  3;51,85,86;,
  3;51,86,79;,
  4;53,54,54,53;,
  4;54,55,55,54;,
  4;55,56,56,55;,
  4;56,57,57,56;,
  4;57,58,58,57;,
  4;58,59,59,58;,
  4;59,60,60,59;,
  4;60,53,53,60;,
  3;52,52,52;,
  3;52,52,52;,
  3;52,52,52;,
  3;52,52,52;,
  3;52,52,52;,
  3;52,52,52;,
  3;52,52,52;,
  3;52,52,52;,
  3;61,61,61;,
  3;61,61,61;,
  3;61,61,61;,
  3;61,61,61;,
  3;61,61,61;,
  3;61,61,61;,
  3;61,61,61;,
  3;61,61,61;,
  4;63,64,64,63;,
  4;64,65,65,64;,
  4;65,66,66,65;,
  4;66,67,67,66;,
  4;67,68,68,67;,
  4;68,69,69,68;,
  4;69,70,70,69;,
  4;70,63,63,70;,
  3;62,87,88;,
  3;62,89,87;,
  3;62,75,89;,
  3;62,76,75;,
  3;62,77,76;,
  3;62,89,77;,
  3;62,90,89;,
  3;62,88,90;,
  3;71,91,92;,
  3;71,92,93;,
  3;71,93,94;,
  3;71,94,95;,
  3;71,95,96;,
  3;71,96,93;,
  3;71,93,97;,
  3;71,97,91;,
  4;99,100,100,99;,
  4;100,101,101,100;,
  4;101,102,102,101;,
  4;102,103,103,102;,
  4;103,104,104,103;,
  4;104,105,105,104;,
  4;105,106,106,105;,
  4;106,99,99,106;,
  3;98,128,129;,
  3;98,130,128;,
  3;98,131,130;,
  3;98,132,131;,
  3;98,133,132;,
  3;98,130,133;,
  3;98,134,130;,
  3;98,129,134;,
  3;107,135,136;,
  3;107,136,137;,
  3;107,137,138;,
  3;107,138,139;,
  3;107,139,140;,
  3;107,140,137;,
  3;107,137,141;,
  3;107,141,135;,
  4;109,110,110,109;,
  4;110,111,111,110;,
  4;111,112,112,111;,
  4;112,113,113,112;,
  4;113,114,114,113;,
  4;114,115,115,114;,
  4;115,116,116,115;,
  4;116,109,109,116;,
  3;108,108,108;,
  3;108,108,108;,
  3;108,108,108;,
  3;108,108,108;,
  3;108,108,108;,
  3;108,108,108;,
  3;108,108,108;,
  3;108,108,108;,
  3;117,117,117;,
  3;117,117,117;,
  3;117,117,117;,
  3;117,117,117;,
  3;117,117,117;,
  3;117,117,117;,
  3;117,117,117;,
  3;117,117,117;,
  4;119,120,120,119;,
  4;120,121,121,120;,
  4;121,122,122,121;,
  4;122,123,123,122;,
  4;123,124,124,123;,
  4;124,125,125,124;,
  4;125,126,126,125;,
  4;126,119,119,126;,
  3;118,142,143;,
  3;118,144,142;,
  3;118,131,144;,
  3;118,132,131;,
  3;118,133,132;,
  3;118,144,133;,
  3;118,145,144;,
  3;118,143,145;,
  3;127,146,147;,
  3;127,147,148;,
  3;127,148,149;,
  3;127,149,139;,
  3;127,139,150;,
  3;127,150,148;,
  3;127,148,151;,
  3;127,151,146;;
 }
}
