xof 0302txt 0064
template Header {
 <3D82AB43-62DA-11cf-AB39-0020AF71E433>
 WORD major;
 WORD minor;
 DWORD flags;
}

template Vector {
 <3D82AB5E-62DA-11cf-AB39-0020AF71E433>
 FLOAT x;
 FLOAT y;
 FLOAT z;
}

template Coords2d {
 <F6F23F44-7686-11cf-8F52-0040333594A3>
 FLOAT u;
 FLOAT v;
}

template Matrix4x4 {
 <F6F23F45-7686-11cf-8F52-0040333594A3>
 array FLOAT matrix[16];
}

template ColorRGBA {
 <35FF44E0-6C7C-11cf-8F52-0040333594A3>
 FLOAT red;
 FLOAT green;
 FLOAT blue;
 FLOAT alpha;
}

template ColorRGB {
 <D3E16E81-7835-11cf-8F52-0040333594A3>
 FLOAT red;
 FLOAT green;
 FLOAT blue;
}

template IndexedColor {
 <1630B820-7842-11cf-8F52-0040333594A3>
 DWORD index;
 ColorRGBA indexColor;
}

template Boolean {
 <4885AE61-78E8-11cf-8F52-0040333594A3>
 WORD truefalse;
}

template Boolean2d {
 <4885AE63-78E8-11cf-8F52-0040333594A3>
 Boolean u;
 Boolean v;
}

template MaterialWrap {
 <4885AE60-78E8-11cf-8F52-0040333594A3>
 Boolean u;
 Boolean v;
}

template TextureFilename {
 <A42790E1-7810-11cf-8F52-0040333594A3>
 STRING filename;
}

template Material {
 <3D82AB4D-62DA-11cf-AB39-0020AF71E433>
 ColorRGBA faceColor;
 FLOAT power;
 ColorRGB specularColor;
 ColorRGB emissiveColor;
 [...]
}

template MeshFace {
 <3D82AB5F-62DA-11cf-AB39-0020AF71E433>
 DWORD nFaceVertexIndices;
 array DWORD faceVertexIndices[nFaceVertexIndices];
}

template MeshFaceWraps {
 <4885AE62-78E8-11cf-8F52-0040333594A3>
 DWORD nFaceWrapValues;
 Boolean2d faceWrapValues;
}

template MeshTextureCoords {
 <F6F23F40-7686-11cf-8F52-0040333594A3>
 DWORD nTextureCoords;
 array Coords2d textureCoords[nTextureCoords];
}

template MeshMaterialList {
 <F6F23F42-7686-11cf-8F52-0040333594A3>
 DWORD nMaterials;
 DWORD nFaceIndexes;
 array DWORD faceIndexes[nFaceIndexes];
 [Material]
}

template MeshNormals {
 <F6F23F43-7686-11cf-8F52-0040333594A3>
 DWORD nNormals;
 array Vector normals[nNormals];
 DWORD nFaceNormals;
 array MeshFace faceNormals[nFaceNormals];
}

template MeshVertexColors {
 <1630B821-7842-11cf-8F52-0040333594A3>
 DWORD nVertexColors;
 array IndexedColor vertexColors[nVertexColors];
}

template Mesh {
 <3D82AB44-62DA-11cf-AB39-0020AF71E433>
 DWORD nVertices;
 array Vector vertices[nVertices];
 DWORD nFaces;
 array MeshFace faces[nFaces];
 [...]
}

Header{
1;
0;
1;
}

Mesh {
 306;
 -42.41695;50.00543;-26.38373;,
 5.69537;50.00543;-26.38373;,
 5.69537;49.96174;-26.38373;,
 -42.41695;49.96174;-26.38373;,
 5.69537;55.82897;-8.28250;,
 5.69537;49.96174;-8.28250;,
 -42.41695;55.82897;-8.28250;,
 -42.41695;49.96174;-8.28250;,
 -48.11820;49.80305;-38.13270;,
 48.11820;49.80305;-38.13270;,
 48.11820;46.76737;-38.13270;,
 -48.11820;46.76737;-38.13270;,
 48.11820;49.80305;33.83478;,
 48.11820;46.76737;33.83478;,
 -48.11820;49.80305;33.83478;,
 -48.11820;46.76737;33.83478;,
 -48.10400;46.73566;29.10211;,
 -43.37206;46.73566;29.10211;,
 -43.37206;0.27418;29.10211;,
 -48.10400;0.27418;29.10211;,
 -43.37206;46.73566;33.83407;,
 -43.37206;0.27418;33.83407;,
 -48.10400;46.73566;33.83407;,
 -48.10400;0.27418;33.83407;,
 -48.10400;46.73566;-38.12906;,
 -43.37206;46.73566;-38.12906;,
 -43.37206;0.27418;-38.12906;,
 -48.10400;0.27418;-38.12906;,
 -43.37206;46.73566;-33.39713;,
 -43.37206;0.27418;-33.39713;,
 -48.10400;46.73566;-33.39713;,
 -48.10400;0.27418;-33.39713;,
 43.38116;46.73566;29.10211;,
 48.11304;46.73566;29.10211;,
 48.11304;0.27418;29.10211;,
 43.38116;0.27418;29.10211;,
 48.11304;46.73566;33.83407;,
 48.11304;0.27418;33.83407;,
 43.38116;46.73566;33.83407;,
 43.38116;0.27418;33.83407;,
 43.38116;46.73566;29.10211;,
 48.11304;46.73566;29.10211;,
 48.11304;0.27418;29.10211;,
 43.38116;0.27418;29.10211;,
 48.11304;46.73566;33.83407;,
 48.11304;0.27418;33.83407;,
 43.38116;46.73566;33.83407;,
 43.38116;0.27418;33.83407;,
 43.38116;46.73566;-38.14364;,
 48.11304;46.73566;-38.14364;,
 48.11304;0.27418;-38.14364;,
 43.38116;0.27418;-38.14364;,
 48.11304;46.73566;-33.41168;,
 48.11304;0.27418;-33.41168;,
 43.38116;46.73566;-33.41168;,
 43.38116;0.27418;-33.41168;,
 0.47098;46.48370;-39.07400;,
 42.47752;46.48370;-39.07400;,
 42.47752;45.11012;-39.07400;,
 0.47098;45.11012;-39.07400;,
 42.47752;46.48370;4.47075;,
 42.47752;45.11012;4.47075;,
 0.47098;46.48370;4.47075;,
 0.47098;45.11012;4.47075;,
 37.74154;45.15570;-39.06102;,
 42.47351;45.15570;-39.06102;,
 42.47351;42.39444;-39.06102;,
 37.74154;42.39444;-39.06102;,
 42.47351;45.15570;-34.32907;,
 42.47351;42.39444;-34.32907;,
 37.74154;45.15570;-34.32907;,
 37.74154;42.39444;-34.32907;,
 37.76085;45.12489;-0.26312;,
 42.49274;45.12489;-0.26312;,
 42.49274;42.36369;-0.26312;,
 37.76085;42.36369;-0.26312;,
 42.49274;45.12489;4.46882;,
 42.49274;42.36369;4.46882;,
 37.76085;45.12489;4.46882;,
 37.76085;42.36369;4.46882;,
 0.47599;45.10859;-0.25586;,
 5.20793;45.10859;-0.25586;,
 5.20793;42.34733;-0.25586;,
 0.47599;42.34733;-0.25586;,
 5.20793;45.10859;4.47609;,
 5.20793;42.34733;4.47609;,
 0.47599;45.10859;4.47609;,
 0.47599;42.34733;4.47609;,
 0.47599;45.12231;-39.06586;,
 5.20793;45.12231;-39.06586;,
 5.20793;42.36109;-39.06586;,
 0.47599;42.36109;-39.06586;,
 5.20793;45.12231;-34.33389;,
 5.20793;42.36109;-34.33389;,
 0.47599;45.12231;-34.33389;,
 0.47599;42.36109;-34.33389;,
 0.47098;42.37664;-39.07400;,
 42.47752;42.37664;-39.07400;,
 42.47752;33.46148;-39.07400;,
 0.47098;33.46148;-39.07400;,
 42.47752;42.37664;4.47075;,
 42.47752;33.46148;4.47075;,
 0.47098;42.37664;4.47075;,
 0.47098;33.46148;4.47075;,
 0.47098;33.46682;-39.07400;,
 42.47752;33.46682;-39.07400;,
 42.47752;24.55167;-39.07400;,
 0.47098;24.55167;-39.07400;,
 42.47752;33.46682;4.47075;,
 42.47752;24.55167;4.47075;,
 0.47098;33.46682;4.47075;,
 0.47098;24.55167;4.47075;,
 0.47098;24.56443;-39.07400;,
 42.47752;24.56443;-39.07400;,
 42.47752;15.64928;-39.07400;,
 0.47098;15.64928;-39.07400;,
 42.47752;24.56443;4.47075;,
 42.47752;15.64928;4.47075;,
 0.47098;24.56443;4.47075;,
 0.47098;15.64928;4.47075;,
 0.47098;15.64942;-39.07400;,
 42.47752;15.64942;-39.07400;,
 42.47752;6.73427;-39.07400;,
 0.47098;6.73427;-39.07400;,
 42.47752;15.64942;4.47075;,
 42.47752;6.73427;4.47075;,
 0.47098;15.64942;4.47075;,
 0.47098;6.73427;4.47075;,
 3.31000;6.64949;-38.57496;,
 4.66005;6.64949;-38.01573;,
 4.66005;0.35369;-38.01573;,
 3.31000;0.35369;-38.57496;,
 5.21928;6.64949;-36.66570;,
 5.21928;0.35369;-36.66570;,
 4.66005;6.64949;-35.31563;,
 4.66005;0.35369;-35.31563;,
 3.31000;6.64949;-34.75646;,
 3.31000;0.35369;-34.75646;,
 1.95995;6.64949;-35.31563;,
 1.95995;0.35369;-35.31563;,
 1.40072;6.64949;-36.66570;,
 1.40072;0.35369;-36.66570;,
 1.95995;6.64949;-38.01573;,
 1.95995;0.35369;-38.01573;,
 3.31000;6.64949;-36.66570;,
 3.31000;0.35369;-36.66570;,
 39.65984;6.64949;-38.57496;,
 41.00990;6.64949;-38.01573;,
 41.00990;0.35369;-38.01573;,
 39.65984;0.35369;-38.57496;,
 41.56910;6.64949;-36.66570;,
 41.56910;0.35369;-36.66570;,
 41.00990;6.64949;-35.31563;,
 41.00990;0.35369;-35.31563;,
 39.65984;6.64949;-34.75646;,
 39.65984;0.35369;-34.75646;,
 38.30979;6.64949;-35.31563;,
 38.30979;0.35369;-35.31563;,
 37.75054;6.64949;-36.66570;,
 37.75054;0.35369;-36.66570;,
 38.30979;6.64949;-38.01573;,
 38.30979;0.35369;-38.01573;,
 39.65984;6.64949;-36.66570;,
 39.65984;0.35369;-36.66570;,
 39.65984;6.64949;-0.22838;,
 41.00990;6.64949;0.33080;,
 41.00990;0.35369;0.33080;,
 39.65984;0.35369;-0.22838;,
 41.56910;6.64949;1.68085;,
 41.56910;0.35369;1.68085;,
 41.00990;6.64949;3.03091;,
 41.00990;0.35369;3.03091;,
 39.65984;6.64949;3.59014;,
 39.65984;0.35369;3.59014;,
 38.30979;6.64949;3.03091;,
 38.30979;0.35369;3.03091;,
 37.75054;6.64949;1.68085;,
 37.75054;0.35369;1.68085;,
 38.30979;6.64949;0.33080;,
 38.30979;0.35369;0.33080;,
 39.65984;6.64949;1.68085;,
 39.65984;0.35369;1.68085;,
 39.65984;6.64949;-0.22838;,
 41.00990;6.64949;0.33080;,
 41.00990;0.35369;0.33080;,
 39.65984;0.35369;-0.22838;,
 41.56910;6.64949;1.68085;,
 41.56910;0.35369;1.68085;,
 41.00990;6.64949;3.03091;,
 41.00990;0.35369;3.03091;,
 39.65984;6.64949;3.59014;,
 39.65984;0.35369;3.59014;,
 38.30979;6.64949;3.03091;,
 38.30979;0.35369;3.03091;,
 37.75054;6.64949;1.68085;,
 37.75054;0.35369;1.68085;,
 38.30979;6.64949;0.33080;,
 38.30979;0.35369;0.33080;,
 39.65984;6.64949;1.68085;,
 39.65984;0.35369;1.68085;,
 3.31000;6.64949;-0.77866;,
 4.66005;6.64949;-0.21947;,
 4.66005;0.35369;-0.21947;,
 3.31000;0.35369;-0.77866;,
 5.21928;6.64949;1.13062;,
 5.21928;0.35369;1.13062;,
 4.66005;6.64949;2.48068;,
 4.66005;0.35369;2.48068;,
 3.31000;6.64949;3.03986;,
 3.31000;0.35369;3.03986;,
 1.95995;6.64949;2.48068;,
 1.95995;0.35369;2.48068;,
 1.40072;6.64949;1.13062;,
 1.40072;0.35369;1.13062;,
 1.95995;6.64949;-0.21947;,
 1.95995;0.35369;-0.21947;,
 3.31000;6.64949;1.13062;,
 3.31000;0.35369;1.13062;,
 -43.90897;97.15207;9.66035;,
 9.33849;97.15207;9.66035;,
 9.33849;59.69003;5.06058;,
 -43.90897;59.69003;5.06058;,
 9.33849;96.50745;14.91037;,
 9.33849;59.04539;10.31061;,
 -43.90897;96.50745;14.91037;,
 -43.90897;59.04539;10.31061;,
 2.82574;60.50498;5.36667;,
 3.98818;60.45470;5.84553;,
 3.98818;48.73155;4.61337;,
 2.82574;48.78189;4.13449;,
 4.46970;60.33314;7.00157;,
 4.46970;48.61005;5.76946;,
 3.98818;60.21164;8.15766;,
 3.98818;48.48855;6.92550;,
 2.82574;60.16134;8.63653;,
 2.82574;48.43823;7.40436;,
 1.66330;60.21164;8.15766;,
 1.66330;48.48855;6.92550;,
 1.18183;60.33314;7.00157;,
 1.18183;48.61005;5.76946;,
 1.66330;60.45470;5.84553;,
 1.66330;48.73155;4.61337;,
 2.82574;60.33314;7.00157;,
 2.82574;48.61005;5.76946;,
 2.82574;59.50911;6.53550;,
 3.98818;59.66588;6.99074;,
 3.98818;48.52040;10.82846;,
 2.82574;48.36364;10.37321;,
 4.46970;60.04434;8.08986;,
 4.46970;48.89886;11.92758;,
 3.98818;60.42278;9.18898;,
 3.98818;49.27730;13.02669;,
 2.82574;60.57953;9.64427;,
 2.82574;49.43408;13.48194;,
 1.66330;60.42278;9.18898;,
 1.66330;49.27730;13.02669;,
 1.18183;60.04434;8.08986;,
 1.18183;48.89886;11.92758;,
 1.66330;59.66588;6.99074;,
 1.66330;48.52040;10.82846;,
 2.82574;60.04434;8.08986;,
 2.82574;48.89886;11.92758;,
 -38.31545;60.50498;5.36667;,
 -37.15301;60.45470;5.84553;,
 -37.15301;48.73155;4.61337;,
 -38.31545;48.78189;4.13449;,
 -36.67150;60.33314;7.00157;,
 -36.67150;48.61005;5.76946;,
 -37.15301;60.21164;8.15766;,
 -37.15301;48.48855;6.92550;,
 -38.31545;60.16134;8.63653;,
 -38.31545;48.43823;7.40436;,
 -39.47783;60.21164;8.15766;,
 -39.47783;48.48855;6.92550;,
 -39.95935;60.33314;7.00157;,
 -39.95935;48.61005;5.76946;,
 -39.47783;60.45470;5.84553;,
 -39.47783;48.73155;4.61337;,
 -38.31545;60.33314;7.00157;,
 -38.31545;48.61005;5.76946;,
 -38.31545;59.50911;6.53550;,
 -37.15301;59.66588;6.99074;,
 -37.15301;48.52040;10.82846;,
 -38.31545;48.36364;10.37321;,
 -36.67150;60.04434;8.08986;,
 -36.67150;48.89886;11.92758;,
 -37.15301;60.42278;9.18898;,
 -37.15301;49.27730;13.02669;,
 -38.31545;60.57953;9.64427;,
 -38.31545;49.43408;13.48194;,
 -39.47783;60.42278;9.18898;,
 -39.47783;49.27730;13.02669;,
 -39.95935;60.04434;8.08986;,
 -39.95935;48.89886;11.92758;,
 -39.47783;59.66588;6.99074;,
 -39.47783;48.52040;10.82846;,
 -38.31545;60.04434;8.08986;,
 -38.31545;48.89886;11.92758;,
 23.87384;74.94165;-18.84088;,
 34.81178;74.94165;-18.84088;,
 34.81178;49.90920;-18.84088;,
 23.87384;49.90920;-18.84088;,
 34.81178;74.94165;19.80096;,
 34.81178;49.90920;19.80096;,
 23.87384;74.94165;19.80096;,
 23.87384;49.90920;19.80096;;
 
 324;
 4;0,1,2,3;,
 4;1,4,5,2;,
 4;4,6,7,5;,
 4;6,0,3,7;,
 4;6,4,1,0;,
 4;3,2,5,7;,
 4;8,9,10,11;,
 4;9,12,13,10;,
 4;12,14,15,13;,
 4;14,8,11,15;,
 4;14,12,9,8;,
 4;11,10,13,15;,
 4;16,17,18,19;,
 4;17,20,21,18;,
 4;20,22,23,21;,
 4;22,16,19,23;,
 4;22,20,17,16;,
 4;19,18,21,23;,
 4;24,25,26,27;,
 4;25,28,29,26;,
 4;28,30,31,29;,
 4;30,24,27,31;,
 4;30,28,25,24;,
 4;27,26,29,31;,
 4;32,33,34,35;,
 4;33,36,37,34;,
 4;36,38,39,37;,
 4;38,32,35,39;,
 4;38,36,33,32;,
 4;35,34,37,39;,
 4;40,41,42,43;,
 4;41,44,45,42;,
 4;44,46,47,45;,
 4;46,40,43,47;,
 4;46,44,41,40;,
 4;43,42,45,47;,
 4;48,49,50,51;,
 4;49,52,53,50;,
 4;52,54,55,53;,
 4;54,48,51,55;,
 4;54,52,49,48;,
 4;51,50,53,55;,
 4;56,57,58,59;,
 4;57,60,61,58;,
 4;60,62,63,61;,
 4;62,56,59,63;,
 4;62,60,57,56;,
 4;59,58,61,63;,
 4;64,65,66,67;,
 4;65,68,69,66;,
 4;68,70,71,69;,
 4;70,64,67,71;,
 4;70,68,65,64;,
 4;67,66,69,71;,
 4;72,73,74,75;,
 4;73,76,77,74;,
 4;76,78,79,77;,
 4;78,72,75,79;,
 4;78,76,73,72;,
 4;75,74,77,79;,
 4;80,81,82,83;,
 4;81,84,85,82;,
 4;84,86,87,85;,
 4;86,80,83,87;,
 4;86,84,81,80;,
 4;83,82,85,87;,
 4;88,89,90,91;,
 4;89,92,93,90;,
 4;92,94,95,93;,
 4;94,88,91,95;,
 4;94,92,89,88;,
 4;91,90,93,95;,
 4;96,97,98,99;,
 4;97,100,101,98;,
 4;100,102,103,101;,
 4;102,96,99,103;,
 4;102,100,97,96;,
 4;99,98,101,103;,
 4;104,105,106,107;,
 4;105,108,109,106;,
 4;108,110,111,109;,
 4;110,104,107,111;,
 4;110,108,105,104;,
 4;107,106,109,111;,
 4;112,113,114,115;,
 4;113,116,117,114;,
 4;116,118,119,117;,
 4;118,112,115,119;,
 4;118,116,113,112;,
 4;115,114,117,119;,
 4;120,121,122,123;,
 4;121,124,125,122;,
 4;124,126,127,125;,
 4;126,120,123,127;,
 4;126,124,121,120;,
 4;123,122,125,127;,
 4;128,129,130,131;,
 4;129,132,133,130;,
 4;132,134,135,133;,
 4;134,136,137,135;,
 4;136,138,139,137;,
 4;138,140,141,139;,
 4;140,142,143,141;,
 4;142,128,131,143;,
 3;144,129,128;,
 3;144,132,129;,
 3;144,134,132;,
 3;144,136,134;,
 3;144,138,136;,
 3;144,140,138;,
 3;144,142,140;,
 3;144,128,142;,
 3;145,131,130;,
 3;145,130,133;,
 3;145,133,135;,
 3;145,135,137;,
 3;145,137,139;,
 3;145,139,141;,
 3;145,141,143;,
 3;145,143,131;,
 4;146,147,148,149;,
 4;147,150,151,148;,
 4;150,152,153,151;,
 4;152,154,155,153;,
 4;154,156,157,155;,
 4;156,158,159,157;,
 4;158,160,161,159;,
 4;160,146,149,161;,
 3;162,147,146;,
 3;162,150,147;,
 3;162,152,150;,
 3;162,154,152;,
 3;162,156,154;,
 3;162,158,156;,
 3;162,160,158;,
 3;162,146,160;,
 3;163,149,148;,
 3;163,148,151;,
 3;163,151,153;,
 3;163,153,155;,
 3;163,155,157;,
 3;163,157,159;,
 3;163,159,161;,
 3;163,161,149;,
 4;164,165,166,167;,
 4;165,168,169,166;,
 4;168,170,171,169;,
 4;170,172,173,171;,
 4;172,174,175,173;,
 4;174,176,177,175;,
 4;176,178,179,177;,
 4;178,164,167,179;,
 3;180,165,164;,
 3;180,168,165;,
 3;180,170,168;,
 3;180,172,170;,
 3;180,174,172;,
 3;180,176,174;,
 3;180,178,176;,
 3;180,164,178;,
 3;181,167,166;,
 3;181,166,169;,
 3;181,169,171;,
 3;181,171,173;,
 3;181,173,175;,
 3;181,175,177;,
 3;181,177,179;,
 3;181,179,167;,
 4;182,183,184,185;,
 4;183,186,187,184;,
 4;186,188,189,187;,
 4;188,190,191,189;,
 4;190,192,193,191;,
 4;192,194,195,193;,
 4;194,196,197,195;,
 4;196,182,185,197;,
 3;198,183,182;,
 3;198,186,183;,
 3;198,188,186;,
 3;198,190,188;,
 3;198,192,190;,
 3;198,194,192;,
 3;198,196,194;,
 3;198,182,196;,
 3;199,185,184;,
 3;199,184,187;,
 3;199,187,189;,
 3;199,189,191;,
 3;199,191,193;,
 3;199,193,195;,
 3;199,195,197;,
 3;199,197,185;,
 4;200,201,202,203;,
 4;201,204,205,202;,
 4;204,206,207,205;,
 4;206,208,209,207;,
 4;208,210,211,209;,
 4;210,212,213,211;,
 4;212,214,215,213;,
 4;214,200,203,215;,
 3;216,201,200;,
 3;216,204,201;,
 3;216,206,204;,
 3;216,208,206;,
 3;216,210,208;,
 3;216,212,210;,
 3;216,214,212;,
 3;216,200,214;,
 3;217,203,202;,
 3;217,202,205;,
 3;217,205,207;,
 3;217,207,209;,
 3;217,209,211;,
 3;217,211,213;,
 3;217,213,215;,
 3;217,215,203;,
 4;218,219,220,221;,
 4;219,222,223,220;,
 4;222,224,225,223;,
 4;224,218,221,225;,
 4;224,222,219,218;,
 4;221,220,223,225;,
 4;226,227,228,229;,
 4;227,230,231,228;,
 4;230,232,233,231;,
 4;232,234,235,233;,
 4;234,236,237,235;,
 4;236,238,239,237;,
 4;238,240,241,239;,
 4;240,226,229,241;,
 3;242,227,226;,
 3;242,230,227;,
 3;242,232,230;,
 3;242,234,232;,
 3;242,236,234;,
 3;242,238,236;,
 3;242,240,238;,
 3;242,226,240;,
 3;243,229,228;,
 3;243,228,231;,
 3;243,231,233;,
 3;243,233,235;,
 3;243,235,237;,
 3;243,237,239;,
 3;243,239,241;,
 3;243,241,229;,
 4;244,245,246,247;,
 4;245,248,249,246;,
 4;248,250,251,249;,
 4;250,252,253,251;,
 4;252,254,255,253;,
 4;254,256,257,255;,
 4;256,258,259,257;,
 4;258,244,247,259;,
 3;260,245,244;,
 3;260,248,245;,
 3;260,250,248;,
 3;260,252,250;,
 3;260,254,252;,
 3;260,256,254;,
 3;260,258,256;,
 3;260,244,258;,
 3;261,247,246;,
 3;261,246,249;,
 3;261,249,251;,
 3;261,251,253;,
 3;261,253,255;,
 3;261,255,257;,
 3;261,257,259;,
 3;261,259,247;,
 4;262,263,264,265;,
 4;263,266,267,264;,
 4;266,268,269,267;,
 4;268,270,271,269;,
 4;270,272,273,271;,
 4;272,274,275,273;,
 4;274,276,277,275;,
 4;276,262,265,277;,
 3;278,263,262;,
 3;278,266,263;,
 3;278,268,266;,
 3;278,270,268;,
 3;278,272,270;,
 3;278,274,272;,
 3;278,276,274;,
 3;278,262,276;,
 3;279,265,264;,
 3;279,264,267;,
 3;279,267,269;,
 3;279,269,271;,
 3;279,271,273;,
 3;279,273,275;,
 3;279,275,277;,
 3;279,277,265;,
 4;280,281,282,283;,
 4;281,284,285,282;,
 4;284,286,287,285;,
 4;286,288,289,287;,
 4;288,290,291,289;,
 4;290,292,293,291;,
 4;292,294,295,293;,
 4;294,280,283,295;,
 3;296,281,280;,
 3;296,284,281;,
 3;296,286,284;,
 3;296,288,286;,
 3;296,290,288;,
 3;296,292,290;,
 3;296,294,292;,
 3;296,280,294;,
 3;297,283,282;,
 3;297,282,285;,
 3;297,285,287;,
 3;297,287,289;,
 3;297,289,291;,
 3;297,291,293;,
 3;297,293,295;,
 3;297,295,283;,
 4;298,299,300,301;,
 4;299,302,303,300;,
 4;302,304,305,303;,
 4;304,298,301,305;,
 4;304,302,299,298;,
 4;301,300,303,305;;
 
 MeshMaterialList {
  8;
  324;
  0,
  0,
  0,
  0,
  6,
  0,
  5,
  5,
  5,
  5,
  5,
  5,
  4,
  4,
  4,
  4,
  7,
  7,
  4,
  4,
  4,
  4,
  7,
  7,
  4,
  4,
  7,
  7,
  5,
  4,
  7,
  7,
  7,
  7,
  5,
  4,
  4,
  4,
  4,
  4,
  7,
  4,
  5,
  5,
  5,
  5,
  5,
  5,
  4,
  4,
  4,
  4,
  5,
  5,
  4,
  4,
  4,
  4,
  5,
  5,
  4,
  4,
  4,
  4,
  5,
  5,
  4,
  4,
  4,
  4,
  5,
  5,
  5,
  5,
  5,
  5,
  5,
  5,
  5,
  5,
  5,
  5,
  5,
  5,
  5,
  5,
  5,
  5,
  5,
  5,
  5,
  5,
  5,
  5,
  5,
  4,
  4,
  4,
  4,
  4,
  4,
  4,
  4,
  4,
  4,
  4,
  4,
  4,
  4,
  4,
  4,
  4,
  4,
  4,
  4,
  4,
  4,
  4,
  4,
  4,
  4,
  4,
  4,
  4,
  4,
  4,
  4,
  4,
  4,
  4,
  4,
  4,
  4,
  4,
  4,
  4,
  4,
  4,
  4,
  4,
  4,
  4,
  4,
  4,
  4,
  4,
  4,
  4,
  4,
  4,
  4,
  4,
  4,
  4,
  4,
  4,
  4,
  4,
  4,
  4,
  4,
  4,
  4,
  4,
  4,
  4,
  4,
  4,
  4,
  4,
  4,
  4,
  4,
  4,
  4,
  4,
  4,
  4,
  4,
  4,
  4,
  4,
  4,
  4,
  4,
  4,
  4,
  4,
  4,
  4,
  4,
  4,
  4,
  4,
  4,
  4,
  4,
  4,
  4,
  4,
  4,
  4,
  4,
  4,
  4,
  4,
  4,
  4,
  4,
  4,
  4,
  4,
  4,
  4,
  4,
  4,
  3,
  7,
  7,
  7,
  7,
  7,
  7,
  7,
  7,
  7,
  7,
  7,
  7,
  7,
  7,
  7,
  7,
  7,
  7,
  7,
  7,
  7,
  7,
  7,
  7,
  7,
  7,
  7,
  7,
  7,
  7,
  7,
  7,
  7,
  7,
  7,
  7,
  7,
  7,
  7,
  7,
  7,
  7,
  7,
  7,
  7,
  7,
  7,
  7,
  7,
  7,
  7,
  7,
  7,
  7,
  7,
  7,
  7,
  7,
  7,
  7,
  7,
  7,
  7,
  7,
  7,
  7,
  7,
  7,
  7,
  7,
  7,
  7,
  7,
  7,
  7,
  7,
  7,
  7,
  7,
  7,
  7,
  7,
  7,
  7,
  7,
  7,
  7,
  7,
  7,
  7,
  7,
  7,
  7,
  7,
  7,
  7,
  7,
  7,
  7,
  7,
  7,
  2,
  1,
  1,
  1,
  1,
  1;;
  Material {
   0.800000;0.800000;0.800000;1.000000;;
   5.000000;
   0.000000;0.000000;0.000000;;
   0.000000;0.000000;0.000000;;
  }
  Material {
   0.000000;0.000000;0.000000;1.000000;;
   5.000000;
   0.000000;0.000000;0.000000;;
   0.000000;0.000000;0.000000;;
  }
  Material {
   0.800000;0.800000;0.800000;1.000000;;
   5.000000;
   0.000000;0.000000;0.000000;;
   0.000000;0.000000;0.000000;;
   TextureFilename {
    "C:\\Users\\student\\Desktop\\babel\\date\\TEXTER\\パソ\コン　縦画像.png";
   }
  }
  Material {
   0.800000;0.800000;0.800000;1.000000;;
   5.000000;
   0.000000;0.000000;0.000000;;
   0.000000;0.000000;0.000000;;
   TextureFilename {
    "C:\\Users\\student\\Desktop\\babel\\date\\TEXTER\\PC_gamen.png";
   }
  }
  Material {
   0.580000;0.580000;0.580000;1.000000;;
   5.000000;
   0.000000;0.000000;0.000000;;
   0.000000;0.000000;0.000000;;
  }
  Material {
   0.800000;0.800000;0.800000;1.000000;;
   5.000000;
   0.000000;0.000000;0.000000;;
   0.000000;0.000000;0.000000;;
   TextureFilename {
    "C:\\Users\\student\\Documents\\Visual Studio 2015\\Projects4(2年 後期)\\Team3\\Data\\TEXTURE\\woos1.jpg";
   }
  }
  Material {
   0.800000;0.800000;0.800000;1.000000;;
   5.000000;
   0.000000;0.000000;0.000000;;
   0.000000;0.000000;0.000000;;
   TextureFilename {
    "C:\\Users\\student\\Desktop\\babel\\date\\TEXTER\\ki-bo-do.jpg";
   }
  }
  Material {
   1.000000;1.000000;1.000000;1.000000;;
   0.000000;
   0.000000;0.000000;0.000000;;
   0.000000;0.000000;0.000000;;
  }
 }
 MeshNormals {
  141;
  0.000000;0.000000;-1.000000;,
  1.000000;0.000000;0.000000;,
  0.000000;0.000000;1.000000;,
  0.000000;1.000000;0.000000;,
  0.000000;0.000000;-1.000000;,
  0.707106;0.000000;-0.707108;,
  1.000000;0.000000;-0.000005;,
  0.707094;0.000000;0.707119;,
  0.000000;0.000000;1.000000;,
  -0.707094;0.000000;0.707120;,
  -1.000000;0.000000;-0.000005;,
  -0.707105;0.000000;-0.707108;,
  0.000000;-1.000000;-0.000000;,
  -0.000001;0.000000;-1.000000;,
  0.707111;0.000000;-0.707102;,
  1.000000;0.000000;-0.000005;,
  0.707100;0.000000;0.707114;,
  -0.000001;0.000000;1.000000;,
  -0.707090;0.000000;0.707123;,
  -1.000000;0.000000;-0.000005;,
  -0.707101;0.000000;-0.707112;,
  -0.000001;0.000000;-1.000000;,
  0.707101;0.000000;-0.707112;,
  1.000000;0.000000;0.000000;,
  0.707113;0.000000;0.707101;,
  -0.000001;0.000000;1.000000;,
  -0.707103;0.000000;0.707111;,
  -1.000000;0.000000;0.000000;,
  -0.707092;0.000000;-0.707122;,
  0.000000;0.000000;-1.000000;,
  0.707101;0.000000;-0.707113;,
  1.000000;0.000000;0.000006;,
  0.707096;0.000000;0.707118;,
  0.000000;0.000000;1.000000;,
  -0.707095;0.000000;0.707118;,
  -1.000000;0.000000;0.000006;,
  -0.707100;0.000000;-0.707113;,
  0.000000;0.121869;-0.992546;,
  0.000000;-0.121869;0.992546;,
  0.000000;0.994521;0.104534;,
  -0.000000;0.104530;-0.994522;,
  0.707103;0.073914;-0.703237;,
  1.000000;-0.000000;-0.000000;,
  0.707101;-0.073914;0.703239;,
  -0.000000;-0.104530;0.994522;,
  -0.707115;-0.073912;0.703225;,
  -1.000000;-0.000000;-0.000000;,
  -0.707116;0.073912;-0.703224;,
  0.000000;-0.994523;-0.104522;,
  0.000000;0.945521;-0.325562;,
  -0.000000;-0.325570;-0.945518;,
  0.707098;-0.230215;-0.668591;,
  1.000000;0.000001;0.000002;,
  0.707103;0.230213;0.668586;,
  -0.000000;0.325568;0.945519;,
  -0.707117;0.230208;0.668573;,
  -1.000000;0.000001;0.000002;,
  -0.707111;-0.230211;-0.668578;,
  0.000000;-0.945519;0.325568;,
  0.000000;0.994521;0.104534;,
  -0.000009;0.104530;-0.994522;,
  0.707105;0.073913;-0.703235;,
  1.000000;-0.000000;-0.000000;,
  0.707104;-0.073913;0.703236;,
  -0.000009;-0.104530;0.994522;,
  -0.707108;-0.073913;0.703232;,
  -1.000000;-0.000000;-0.000000;,
  -0.707110;0.073913;-0.703231;,
  0.000000;-0.994523;-0.104522;,
  0.000000;0.945521;-0.325562;,
  -0.000009;-0.325570;-0.945518;,
  0.707100;-0.230215;-0.668588;,
  1.000000;0.000001;0.000002;,
  0.707106;0.230212;0.668583;,
  -0.000009;0.325568;0.945519;,
  -0.707110;0.230210;0.668579;,
  -1.000000;0.000001;0.000002;,
  -0.707105;-0.230213;-0.668584;,
  0.000000;-0.945519;0.325568;,
  -1.000000;0.000000;0.000000;,
  0.000000;0.951947;-0.306261;,
  0.000000;0.992546;0.121868;,
  0.000000;-0.992546;-0.121873;,
  -0.000023;0.994519;0.104556;,
  0.000000;0.994521;0.104534;,
  0.000000;0.994520;0.104548;,
  0.000006;0.994524;0.104511;,
  -0.000000;0.994524;0.104505;,
  -0.000006;0.994524;0.104511;,
  0.000023;0.994519;0.104556;,
  0.000000;-0.994522;-0.104528;,
  -0.000004;-0.994522;-0.104524;,
  0.000000;-0.994523;-0.104521;,
  -0.000001;-0.994523;-0.104520;,
  0.000000;-0.994523;-0.104519;,
  0.000001;-0.994523;-0.104520;,
  0.000000;-0.994523;-0.104521;,
  0.000004;-0.994522;-0.104524;,
  -0.000004;0.945517;-0.325574;,
  0.000000;0.945515;-0.325578;,
  0.000000;0.945521;-0.325562;,
  -0.000004;0.945525;-0.325550;,
  0.000000;0.945526;-0.325547;,
  0.000004;0.945525;-0.325550;,
  0.000004;0.945517;-0.325574;,
  -0.000000;-0.945516;0.325576;,
  0.000005;-0.945518;0.325571;,
  0.000000;-0.945521;0.325563;,
  -0.000007;-0.945520;0.325565;,
  0.000000;-0.945517;0.325572;,
  0.000007;-0.945520;0.325565;,
  0.000000;-0.945521;0.325563;,
  -0.000005;-0.945518;0.325571;,
  -0.000023;0.994519;0.104556;,
  0.000000;0.994521;0.104534;,
  0.000000;0.994520;0.104548;,
  0.000006;0.994524;0.104511;,
  -0.000000;0.994524;0.104505;,
  -0.000006;0.994524;0.104511;,
  0.000000;0.994520;0.104548;,
  0.000023;0.994519;0.104556;,
  0.000000;-0.994522;-0.104528;,
  -0.000004;-0.994522;-0.104524;,
  0.000000;-0.994523;-0.104521;,
  -0.000001;-0.994523;-0.104520;,
  0.000000;-0.994523;-0.104519;,
  0.000001;-0.994523;-0.104520;,
  0.000000;-0.994523;-0.104521;,
  0.000004;-0.994522;-0.104524;,
  -0.000004;0.945517;-0.325574;,
  0.000000;0.945515;-0.325578;,
  -0.000004;0.945525;-0.325550;,
  0.000000;0.945526;-0.325547;,
  0.000004;0.945525;-0.325550;,
  0.000004;0.945517;-0.325574;,
  -0.000000;-0.945516;0.325576;,
  0.000005;-0.945518;0.325571;,
  -0.000007;-0.945520;0.325565;,
  0.000000;-0.945517;0.325572;,
  0.000007;-0.945520;0.325565;,
  -0.000005;-0.945518;0.325571;;
  324;
  4;0,0,0,0;,
  4;1,1,1,1;,
  4;2,2,2,2;,
  4;79,79,79,79;,
  4;80,80,80,80;,
  4;12,12,12,12;,
  4;0,0,0,0;,
  4;1,1,1,1;,
  4;2,2,2,2;,
  4;79,79,79,79;,
  4;3,3,3,3;,
  4;12,12,12,12;,
  4;0,0,0,0;,
  4;1,1,1,1;,
  4;2,2,2,2;,
  4;79,79,79,79;,
  4;3,3,3,3;,
  4;12,12,12,12;,
  4;0,0,0,0;,
  4;1,1,1,1;,
  4;2,2,2,2;,
  4;79,79,79,79;,
  4;3,3,3,3;,
  4;12,12,12,12;,
  4;0,0,0,0;,
  4;1,1,1,1;,
  4;2,2,2,2;,
  4;79,79,79,79;,
  4;3,3,3,3;,
  4;12,12,12,12;,
  4;0,0,0,0;,
  4;1,1,1,1;,
  4;2,2,2,2;,
  4;79,79,79,79;,
  4;3,3,3,3;,
  4;12,12,12,12;,
  4;0,0,0,0;,
  4;1,1,1,1;,
  4;2,2,2,2;,
  4;79,79,79,79;,
  4;3,3,3,3;,
  4;12,12,12,12;,
  4;0,0,0,0;,
  4;1,1,1,1;,
  4;2,2,2,2;,
  4;79,79,79,79;,
  4;3,3,3,3;,
  4;12,12,12,12;,
  4;0,0,0,0;,
  4;1,1,1,1;,
  4;2,2,2,2;,
  4;79,79,79,79;,
  4;3,3,3,3;,
  4;12,12,12,12;,
  4;0,0,0,0;,
  4;1,1,1,1;,
  4;2,2,2,2;,
  4;79,79,79,79;,
  4;3,3,3,3;,
  4;12,12,12,12;,
  4;0,0,0,0;,
  4;1,1,1,1;,
  4;2,2,2,2;,
  4;79,79,79,79;,
  4;3,3,3,3;,
  4;12,12,12,12;,
  4;0,0,0,0;,
  4;1,1,1,1;,
  4;2,2,2,2;,
  4;79,79,79,79;,
  4;3,3,3,3;,
  4;12,12,12,12;,
  4;0,0,0,0;,
  4;1,1,1,1;,
  4;2,2,2,2;,
  4;79,79,79,79;,
  4;3,3,3,3;,
  4;12,12,12,12;,
  4;0,0,0,0;,
  4;1,1,1,1;,
  4;2,2,2,2;,
  4;79,79,79,79;,
  4;3,3,3,3;,
  4;12,12,12,12;,
  4;0,0,0,0;,
  4;1,1,1,1;,
  4;2,2,2,2;,
  4;79,79,79,79;,
  4;3,3,3,3;,
  4;12,12,12,12;,
  4;0,0,0,0;,
  4;1,1,1,1;,
  4;2,2,2,2;,
  4;79,79,79,79;,
  4;3,3,3,3;,
  4;12,12,12,12;,
  4;4,5,5,4;,
  4;5,6,6,5;,
  4;6,7,7,6;,
  4;7,8,8,7;,
  4;8,9,9,8;,
  4;9,10,10,9;,
  4;10,11,11,10;,
  4;11,4,4,11;,
  3;3,3,3;,
  3;3,3,3;,
  3;3,3,3;,
  3;3,3,3;,
  3;3,3,3;,
  3;3,3,3;,
  3;3,3,3;,
  3;3,3,3;,
  3;12,12,12;,
  3;12,12,12;,
  3;12,12,12;,
  3;12,12,12;,
  3;12,12,12;,
  3;12,12,12;,
  3;12,12,12;,
  3;12,12,12;,
  4;13,14,14,13;,
  4;14,15,15,14;,
  4;15,16,16,15;,
  4;16,17,17,16;,
  4;17,18,18,17;,
  4;18,19,19,18;,
  4;19,20,20,19;,
  4;20,13,13,20;,
  3;3,3,3;,
  3;3,3,3;,
  3;3,3,3;,
  3;3,3,3;,
  3;3,3,3;,
  3;3,3,3;,
  3;3,3,3;,
  3;3,3,3;,
  3;12,12,12;,
  3;12,12,12;,
  3;12,12,12;,
  3;12,12,12;,
  3;12,12,12;,
  3;12,12,12;,
  3;12,12,12;,
  3;12,12,12;,
  4;21,22,22,21;,
  4;22,23,23,22;,
  4;23,24,24,23;,
  4;24,25,25,24;,
  4;25,26,26,25;,
  4;26,27,27,26;,
  4;27,28,28,27;,
  4;28,21,21,28;,
  3;3,3,3;,
  3;3,3,3;,
  3;3,3,3;,
  3;3,3,3;,
  3;3,3,3;,
  3;3,3,3;,
  3;3,3,3;,
  3;3,3,3;,
  3;12,12,12;,
  3;12,12,12;,
  3;12,12,12;,
  3;12,12,12;,
  3;12,12,12;,
  3;12,12,12;,
  3;12,12,12;,
  3;12,12,12;,
  4;21,22,22,21;,
  4;22,23,23,22;,
  4;23,24,24,23;,
  4;24,25,25,24;,
  4;25,26,26,25;,
  4;26,27,27,26;,
  4;27,28,28,27;,
  4;28,21,21,28;,
  3;3,3,3;,
  3;3,3,3;,
  3;3,3,3;,
  3;3,3,3;,
  3;3,3,3;,
  3;3,3,3;,
  3;3,3,3;,
  3;3,3,3;,
  3;12,12,12;,
  3;12,12,12;,
  3;12,12,12;,
  3;12,12,12;,
  3;12,12,12;,
  3;12,12,12;,
  3;12,12,12;,
  3;12,12,12;,
  4;29,30,30,29;,
  4;30,31,31,30;,
  4;31,32,32,31;,
  4;32,33,33,32;,
  4;33,34,34,33;,
  4;34,35,35,34;,
  4;35,36,36,35;,
  4;36,29,29,36;,
  3;3,3,3;,
  3;3,3,3;,
  3;3,3,3;,
  3;3,3,3;,
  3;3,3,3;,
  3;3,3,3;,
  3;3,3,3;,
  3;3,3,3;,
  3;12,12,12;,
  3;12,12,12;,
  3;12,12,12;,
  3;12,12,12;,
  3;12,12,12;,
  3;12,12,12;,
  3;12,12,12;,
  3;12,12,12;,
  4;37,37,37,37;,
  4;1,1,1,1;,
  4;38,38,38,38;,
  4;79,79,79,79;,
  4;81,81,81,81;,
  4;82,82,82,82;,
  4;40,41,41,40;,
  4;41,42,42,41;,
  4;42,43,43,42;,
  4;43,44,44,43;,
  4;44,45,45,44;,
  4;45,46,46,45;,
  4;46,47,47,46;,
  4;47,40,40,47;,
  3;39,83,84;,
  3;39,85,83;,
  3;39,86,85;,
  3;39,87,86;,
  3;39,88,87;,
  3;39,85,88;,
  3;39,89,85;,
  3;39,84,89;,
  3;48,90,91;,
  3;48,91,92;,
  3;48,92,93;,
  3;48,93,94;,
  3;48,94,95;,
  3;48,95,96;,
  3;48,96,97;,
  3;48,97,90;,
  4;50,51,51,50;,
  4;51,52,52,51;,
  4;52,53,53,52;,
  4;53,54,54,53;,
  4;54,55,55,54;,
  4;55,56,56,55;,
  4;56,57,57,56;,
  4;57,50,50,57;,
  3;49,98,99;,
  3;49,100,98;,
  3;49,101,100;,
  3;49,102,101;,
  3;49,103,102;,
  3;49,100,103;,
  3;49,104,100;,
  3;49,99,104;,
  3;58,105,106;,
  3;58,106,107;,
  3;58,107,108;,
  3;58,108,109;,
  3;58,109,110;,
  3;58,110,111;,
  3;58,111,112;,
  3;58,112,105;,
  4;60,61,61,60;,
  4;61,62,62,61;,
  4;62,63,63,62;,
  4;63,64,64,63;,
  4;64,65,65,64;,
  4;65,66,66,65;,
  4;66,67,67,66;,
  4;67,60,60,67;,
  3;59,113,114;,
  3;59,115,113;,
  3;59,116,115;,
  3;59,117,116;,
  3;59,118,117;,
  3;59,119,118;,
  3;59,120,119;,
  3;59,114,120;,
  3;68,121,122;,
  3;68,122,123;,
  3;68,123,124;,
  3;68,124,125;,
  3;68,125,126;,
  3;68,126,127;,
  3;68,127,128;,
  3;68,128,121;,
  4;70,71,71,70;,
  4;71,72,72,71;,
  4;72,73,73,72;,
  4;73,74,74,73;,
  4;74,75,75,74;,
  4;75,76,76,75;,
  4;76,77,77,76;,
  4;77,70,70,77;,
  3;69,129,130;,
  3;69,100,129;,
  3;69,131,100;,
  3;69,132,131;,
  3;69,133,132;,
  3;69,100,133;,
  3;69,134,100;,
  3;69,130,134;,
  3;78,135,136;,
  3;78,136,111;,
  3;78,111,137;,
  3;78,137,138;,
  3;78,138,139;,
  3;78,139,111;,
  3;78,111,140;,
  3;78,140,135;,
  4;0,0,0,0;,
  4;1,1,1,1;,
  4;2,2,2,2;,
  4;79,79,79,79;,
  4;3,3,3,3;,
  4;12,12,12,12;;
 }
}
