xof 0302txt 0064
template Header {
 <3D82AB43-62DA-11cf-AB39-0020AF71E433>
 WORD major;
 WORD minor;
 DWORD flags;
}

template Vector {
 <3D82AB5E-62DA-11cf-AB39-0020AF71E433>
 FLOAT x;
 FLOAT y;
 FLOAT z;
}

template Coords2d {
 <F6F23F44-7686-11cf-8F52-0040333594A3>
 FLOAT u;
 FLOAT v;
}

template Matrix4x4 {
 <F6F23F45-7686-11cf-8F52-0040333594A3>
 array FLOAT matrix[16];
}

template ColorRGBA {
 <35FF44E0-6C7C-11cf-8F52-0040333594A3>
 FLOAT red;
 FLOAT green;
 FLOAT blue;
 FLOAT alpha;
}

template ColorRGB {
 <D3E16E81-7835-11cf-8F52-0040333594A3>
 FLOAT red;
 FLOAT green;
 FLOAT blue;
}

template IndexedColor {
 <1630B820-7842-11cf-8F52-0040333594A3>
 DWORD index;
 ColorRGBA indexColor;
}

template Boolean {
 <4885AE61-78E8-11cf-8F52-0040333594A3>
 WORD truefalse;
}

template Boolean2d {
 <4885AE63-78E8-11cf-8F52-0040333594A3>
 Boolean u;
 Boolean v;
}

template MaterialWrap {
 <4885AE60-78E8-11cf-8F52-0040333594A3>
 Boolean u;
 Boolean v;
}

template TextureFilename {
 <A42790E1-7810-11cf-8F52-0040333594A3>
 STRING filename;
}

template Material {
 <3D82AB4D-62DA-11cf-AB39-0020AF71E433>
 ColorRGBA faceColor;
 FLOAT power;
 ColorRGB specularColor;
 ColorRGB emissiveColor;
 [...]
}

template MeshFace {
 <3D82AB5F-62DA-11cf-AB39-0020AF71E433>
 DWORD nFaceVertexIndices;
 array DWORD faceVertexIndices[nFaceVertexIndices];
}

template MeshFaceWraps {
 <4885AE62-78E8-11cf-8F52-0040333594A3>
 DWORD nFaceWrapValues;
 Boolean2d faceWrapValues;
}

template MeshTextureCoords {
 <F6F23F40-7686-11cf-8F52-0040333594A3>
 DWORD nTextureCoords;
 array Coords2d textureCoords[nTextureCoords];
}

template MeshMaterialList {
 <F6F23F42-7686-11cf-8F52-0040333594A3>
 DWORD nMaterials;
 DWORD nFaceIndexes;
 array DWORD faceIndexes[nFaceIndexes];
 [Material]
}

template MeshNormals {
 <F6F23F43-7686-11cf-8F52-0040333594A3>
 DWORD nNormals;
 array Vector normals[nNormals];
 DWORD nFaceNormals;
 array MeshFace faceNormals[nFaceNormals];
}

template MeshVertexColors {
 <1630B821-7842-11cf-8F52-0040333594A3>
 DWORD nVertexColors;
 array IndexedColor vertexColors[nVertexColors];
}

template Mesh {
 <3D82AB44-62DA-11cf-AB39-0020AF71E433>
 DWORD nVertices;
 array Vector vertices[nVertices];
 DWORD nFaces;
 array MeshFace faces[nFaces];
 [...]
}

Header{
1;
0;
1;
}

Mesh {
 92;
 -1.04379;7.29209;-0.47427;,
 6.62361;-2.52173;-0.47427;,
 1.10688;-6.83188;0.01528;,
 -6.56053;2.98195;0.01528;,
 -6.53748;2.99995;0.43342;,
 1.12992;-6.81387;0.43342;,
 6.64666;-2.50373;-0.05613;,
 -1.02074;7.31010;-0.05613;,
 -0.42566;6.98924;-0.49530;,
 6.47930;-1.84870;-0.49530;,
 6.62361;-2.52173;-0.47427;,
 -1.04379;7.29209;-0.47427;,
 -0.40262;7.00724;-0.07716;,
 -1.02074;7.31010;-0.05613;,
 6.50233;-1.83070;-0.07716;,
 6.64666;-2.50373;-0.05613;,
 0.20203;-6.33961;0.04394;,
 -6.30178;1.98489;0.04394;,
 -6.56053;2.98195;0.01528;,
 1.10688;-6.83188;0.01528;,
 0.22507;-6.32161;0.46208;,
 1.12992;-6.81387;0.43342;,
 -6.27874;2.00289;0.46208;,
 -6.53748;2.99995;0.43342;,
 6.28784;-3.16651;-0.42801;,
 1.81373;-6.66208;-0.03098;,
 1.10688;-6.83188;0.01528;,
 6.31089;-3.14851;-0.00987;,
 1.83677;-6.64408;0.38716;,
 1.12992;-6.81387;0.43342;,
 -6.22476;3.62672;-0.03098;,
 -1.75064;7.12229;-0.42801;,
 -6.56053;2.98195;0.01528;,
 -6.20172;3.64472;0.38716;,
 -6.53748;2.99995;0.43342;,
 -1.72760;7.14028;-0.00987;,
 -2.47209;6.42529;-0.43500;,
 -0.94442;4.46924;-0.43448;,
 -0.93793;4.47431;-0.31668;,
 -2.51435;6.49276;-0.31720;,
 -0.85811;4.84743;-0.45552;,
 -2.23501;6.61052;-0.45604;,
 -2.27727;6.67799;-0.33824;,
 -0.85162;4.85250;-0.33771;,
 -2.23501;6.61052;-0.45604;,
 -2.47209;6.42529;-0.43500;,
 -2.51435;6.49276;-0.31720;,
 -2.27727;6.67799;-0.33824;,
 -0.85811;4.84743;-0.45552;,
 -0.94442;4.46924;-0.43448;,
 -2.47209;6.42529;-0.43500;,
 -2.51435;6.49276;-0.31720;,
 -0.93793;4.47431;-0.31668;,
 -0.85162;4.85250;-0.33771;,
 -0.71508;4.66437;-0.45552;,
 -0.80140;4.28617;-0.43448;,
 -0.94442;4.46924;-0.43448;,
 -0.70859;4.66944;-0.33771;,
 -0.79490;4.29124;-0.31668;,
 -0.93793;4.47431;-0.31668;,
 -1.16287;3.01632;-0.24151;,
 -1.16936;3.01125;-0.35932;,
 -1.30589;3.19938;-0.24151;,
 -1.31238;3.19431;-0.35932;,
 -1.38070;2.94917;-0.22662;,
 -1.23768;2.76611;-0.22662;,
 -1.38719;2.94410;-0.34442;,
 -1.24417;2.76104;-0.34442;,
 4.46723;-4.49267;-0.34686;,
 4.47372;-4.48760;-0.22905;,
 4.54205;-4.24246;-0.36175;,
 4.54854;-4.23739;-0.24395;,
 -1.67988;2.31268;-0.26408;,
 3.97143;-4.92067;-0.26408;,
 3.97881;-4.91489;-0.12997;,
 -1.67249;2.31845;-0.12997;,
 3.97143;-4.92067;-0.26408;,
 4.13110;-4.79592;-0.27824;,
 4.13849;-4.79014;-0.14414;,
 3.97881;-4.91489;-0.12997;,
 4.13110;-4.79592;-0.27824;,
 -1.63830;2.58858;-0.27824;,
 -1.63091;2.59436;-0.14414;,
 4.13849;-4.79014;-0.14414;,
 -1.63830;2.58858;-0.27824;,
 -1.67988;2.31268;-0.26408;,
 -1.67249;2.31845;-0.12997;,
 -1.63091;2.59436;-0.14414;,
 3.97143;-4.92067;-0.26408;,
 -1.67988;2.31268;-0.26408;,
 -1.67249;2.31845;-0.12997;,
 3.97881;-4.91489;-0.12997;;
 
 50;
 4;0,1,2,3;,
 4;4,5,6,7;,
 4;8,9,10,11;,
 4;12,8,11,13;,
 4;14,12,13,15;,
 4;9,14,15,10;,
 4;9,8,12,14;,
 4;16,17,18,19;,
 4;20,16,19,21;,
 4;22,20,21,23;,
 4;17,22,23,18;,
 4;17,16,20,22;,
 4;24,25,26,1;,
 4;27,24,1,6;,
 4;28,27,6,29;,
 4;25,28,29,26;,
 4;25,24,27,28;,
 4;30,31,0,32;,
 4;33,30,32,34;,
 4;35,33,34,7;,
 4;31,35,7,0;,
 4;31,30,33,35;,
 4;36,37,38,39;,
 4;40,41,42,43;,
 4;44,45,46,47;,
 4;44,48,49,50;,
 4;51,52,53,47;,
 4;54,55,56,48;,
 4;57,54,48,53;,
 4;58,57,53,59;,
 4;55,54,57,58;,
 4;60,61,55,58;,
 4;62,60,58,59;,
 4;63,62,59,56;,
 4;61,63,56,55;,
 4;64,65,60,62;,
 4;66,64,62,63;,
 4;67,66,63,61;,
 4;67,65,64,66;,
 4;68,69,65,67;,
 4;70,68,67,61;,
 4;71,70,61,60;,
 4;69,71,60,65;,
 4;69,68,70,71;,
 4;72,73,74,75;,
 4;76,77,78,79;,
 4;80,81,82,83;,
 4;84,85,86,87;,
 4;84,77,88,89;,
 4;90,91,78,87;;
 
 MeshMaterialList {
  3;
  50;
  0,
  0,
  0,
  0,
  0,
  0,
  0,
  0,
  0,
  0,
  0,
  0,
  0,
  0,
  0,
  0,
  0,
  0,
  0,
  0,
  0,
  0,
  2,
  2,
  2,
  2,
  2,
  2,
  2,
  2,
  2,
  2,
  2,
  2,
  2,
  2,
  2,
  2,
  2,
  2,
  2,
  2,
  2,
  2,
  2,
  2,
  2,
  2,
  2,
  2;;
  Material {
   0.079120;0.079120;0.079120;1.000000;;
   22.000000;
   0.790000;0.790000;0.790000;;
   0.000000;0.000000;0.000000;;
  }
  Material {
   0.800000;0.800000;0.800000;1.000000;;
   5.000000;
   0.000000;0.000000;0.000000;;
   0.000000;0.000000;0.000000;;
  }
  Material {
   0.279200;0.266400;0.800000;1.000000;;
   5.000000;
   0.000000;0.000000;0.000000;;
   0.000000;0.000000;0.000000;;
  }
 }
 MeshNormals {
  69;
  -0.054969;-0.042945;-0.997564;,
  0.054966;0.042945;0.997564;,
  -0.054968;-0.042946;-0.997564;,
  0.054967;0.042944;0.997564;,
  -0.054973;-0.042951;-0.997564;,
  0.054973;0.042948;0.997564;,
  -0.054975;-0.042949;-0.997564;,
  0.054972;0.042950;0.997564;,
  -0.054984;-0.042958;-0.997563;,
  0.054980;0.042955;0.997563;,
  0.627775;0.775421;-0.067977;,
  -0.054967;-0.042945;-0.997564;,
  0.054962;0.042941;0.997565;,
  -0.644220;-0.761785;0.068288;,
  -0.054967;-0.042948;-0.997564;,
  0.054971;0.042944;0.997564;,
  0.768095;-0.640166;-0.014768;,
  -0.054971;-0.042943;-0.997564;,
  -0.768094;0.640167;0.014769;,
  0.054967;0.042948;0.997564;,
  0.107413;0.993022;-0.048671;,
  0.904261;0.421536;-0.067972;,
  0.989511;-0.136011;-0.048671;,
  -0.128603;-0.990449;0.049726;,
  -0.895006;-0.440795;0.068291;,
  -0.992140;0.114831;0.049727;,
  0.435327;-0.900151;0.014765;,
  -0.435331;0.900149;-0.014758;,
  -0.786212;-0.614015;0.069685;,
  -0.980213;-0.187967;0.062056;,
  0.786157;0.614083;-0.069715;,
  0.786227;0.613997;-0.069678;,
  -0.054968;-0.042945;-0.997564;,
  0.054970;0.042947;0.997564;,
  -0.054966;-0.042944;-0.997564;,
  0.974419;0.215734;-0.062981;,
  -0.958008;0.283859;0.040557;,
  0.054969;0.042946;0.997564;,
  0.979831;0.189912;-0.062162;,
  -0.981089;-0.183375;0.061948;,
  0.054970;0.042947;0.997564;,
  -0.054970;-0.042948;-0.997564;,
  0.054969;0.042946;0.997564;,
  -0.054970;-0.042947;-0.997564;,
  0.980739;0.185218;-0.062004;,
  -0.783758;-0.617137;0.069747;,
  -0.965593;-0.252047;0.064055;,
  -0.786092;-0.614162;0.069751;,
  0.615655;-0.788016;0.000002;,
  0.786091;0.614161;-0.069757;,
  -0.338189;0.332957;-0.880209;,
  -0.541965;0.630567;-0.555571;,
  -0.054870;-0.043001;-0.997567;,
  -0.054903;-0.042983;-0.997566;,
  0.054777;0.043052;0.997570;,
  0.054906;0.042982;0.997566;,
  0.054874;0.043000;0.997567;,
  0.054971;0.042949;0.997564;,
  0.966784;-0.252050;-0.042423;,
  0.054969;0.042946;0.997564;,
  -0.054970;-0.042947;-0.997564;,
  -0.054970;-0.042947;-0.997564;,
  -0.054971;-0.042948;-0.997564;,
  -0.784927;-0.615650;0.069749;,
  0.054969;0.042946;0.997564;,
  0.956646;-0.288453;-0.040286;,
  -0.987335;0.151247;0.047894;,
  -0.054969;-0.042947;-0.997564;,
  0.054969;0.042947;0.997564;;
  50;
  4;6,4,2,0;,
  4;1,3,5,7;,
  4;8,8,4,6;,
  4;10,10,20,20;,
  4;9,9,7,5;,
  4;21,21,22,22;,
  4;21,10,10,21;,
  4;11,11,0,2;,
  4;13,13,23,23;,
  4;12,12,3,1;,
  4;24,24,25,25;,
  4;24,13,13,24;,
  4;14,14,2,4;,
  4;16,16,22,22;,
  4;15,15,5,3;,
  4;26,26,23,23;,
  4;26,16,16,26;,
  4;17,17,6,0;,
  4;18,18,25,25;,
  4;19,19,1,7;,
  4;27,27,20,20;,
  4;27,18,18,27;,
  4;28,29,29,28;,
  4;30,31,31,30;,
  4;50,50,51,51;,
  4;50,52,53,50;,
  4;54,55,56,54;,
  4;34,32,53,52;,
  4;35,35,30,30;,
  4;33,57,56,55;,
  4;58,35,35,58;,
  4;38,38,58,58;,
  4;37,59,33,55;,
  4;36,36,29,29;,
  4;60,61,53,32;,
  4;40,42,59,37;,
  4;39,39,36,36;,
  4;41,62,61,60;,
  4;63,63,39,39;,
  4;45,45,63,63;,
  4;43,43,41,60;,
  4;44,44,38,38;,
  4;64,64,59,42;,
  4;65,65,44,44;,
  4;46,47,47,46;,
  4;48,48,48,48;,
  4;49,49,49,49;,
  4;66,46,46,66;,
  4;67,67,67,67;,
  4;68,68,68,68;;
 }
 MeshTextureCoords {
  92;
  0.000000;0.000000;,
  1.000000;0.000000;,
  1.000000;1.000000;,
  0.000000;1.000000;,
  0.000000;0.000000;,
  1.000000;0.000000;,
  1.000000;1.000000;,
  0.000000;1.000000;,
  1.000000;0.000000;,
  0.000000;0.000000;,
  0.000000;0.000000;,
  1.000000;0.000000;,
  1.000000;1.000000;,
  1.000000;1.000000;,
  0.000000;1.000000;,
  0.000000;1.000000;,
  1.000000;0.000000;,
  0.000000;0.000000;,
  0.000000;0.000000;,
  1.000000;0.000000;,
  1.000000;1.000000;,
  1.000000;1.000000;,
  0.000000;1.000000;,
  0.000000;1.000000;,
  1.000000;0.000000;,
  0.000000;0.000000;,
  0.000000;0.000000;,
  1.000000;1.000000;,
  0.000000;1.000000;,
  0.000000;1.000000;,
  1.000000;0.000000;,
  0.000000;0.000000;,
  1.000000;0.000000;,
  1.000000;1.000000;,
  1.000000;1.000000;,
  0.000000;1.000000;,
  0.000000;0.000000;,
  1.000000;0.000000;,
  1.000000;1.000000;,
  0.000000;1.000000;,
  0.000000;0.000000;,
  1.000000;0.000000;,
  1.000000;1.000000;,
  0.000000;1.000000;,
  0.000000;0.000000;,
  1.000000;0.000000;,
  1.000000;1.000000;,
  0.000000;1.000000;,
  1.000000;0.000000;,
  1.000000;1.000000;,
  0.000000;1.000000;,
  0.000000;0.000000;,
  1.000000;0.000000;,
  1.000000;1.000000;,
  1.000000;0.000000;,
  0.000000;0.000000;,
  0.000000;0.000000;,
  1.000000;1.000000;,
  0.000000;1.000000;,
  0.000000;1.000000;,
  0.000000;1.000000;,
  0.000000;0.000000;,
  0.000000;1.000000;,
  0.000000;0.000000;,
  0.000000;1.000000;,
  0.000000;1.000000;,
  0.000000;0.000000;,
  0.000000;0.000000;,
  0.000000;0.000000;,
  0.000000;1.000000;,
  0.000000;0.000000;,
  0.000000;1.000000;,
  0.000000;0.000000;,
  1.000000;0.000000;,
  1.000000;1.000000;,
  0.000000;1.000000;,
  0.000000;0.000000;,
  1.000000;0.000000;,
  1.000000;1.000000;,
  0.000000;1.000000;,
  0.000000;0.000000;,
  1.000000;0.000000;,
  1.000000;1.000000;,
  0.000000;1.000000;,
  0.000000;0.000000;,
  1.000000;0.000000;,
  1.000000;1.000000;,
  0.000000;1.000000;,
  1.000000;1.000000;,
  0.000000;1.000000;,
  0.000000;0.000000;,
  1.000000;0.000000;;
 }
}
