xof 0302txt 0064
template Header {
 <3D82AB43-62DA-11cf-AB39-0020AF71E433>
 WORD major;
 WORD minor;
 DWORD flags;
}

template Vector {
 <3D82AB5E-62DA-11cf-AB39-0020AF71E433>
 FLOAT x;
 FLOAT y;
 FLOAT z;
}

template Coords2d {
 <F6F23F44-7686-11cf-8F52-0040333594A3>
 FLOAT u;
 FLOAT v;
}

template Matrix4x4 {
 <F6F23F45-7686-11cf-8F52-0040333594A3>
 array FLOAT matrix[16];
}

template ColorRGBA {
 <35FF44E0-6C7C-11cf-8F52-0040333594A3>
 FLOAT red;
 FLOAT green;
 FLOAT blue;
 FLOAT alpha;
}

template ColorRGB {
 <D3E16E81-7835-11cf-8F52-0040333594A3>
 FLOAT red;
 FLOAT green;
 FLOAT blue;
}

template IndexedColor {
 <1630B820-7842-11cf-8F52-0040333594A3>
 DWORD index;
 ColorRGBA indexColor;
}

template Boolean {
 <4885AE61-78E8-11cf-8F52-0040333594A3>
 WORD truefalse;
}

template Boolean2d {
 <4885AE63-78E8-11cf-8F52-0040333594A3>
 Boolean u;
 Boolean v;
}

template MaterialWrap {
 <4885AE60-78E8-11cf-8F52-0040333594A3>
 Boolean u;
 Boolean v;
}

template TextureFilename {
 <A42790E1-7810-11cf-8F52-0040333594A3>
 STRING filename;
}

template Material {
 <3D82AB4D-62DA-11cf-AB39-0020AF71E433>
 ColorRGBA faceColor;
 FLOAT power;
 ColorRGB specularColor;
 ColorRGB emissiveColor;
 [...]
}

template MeshFace {
 <3D82AB5F-62DA-11cf-AB39-0020AF71E433>
 DWORD nFaceVertexIndices;
 array DWORD faceVertexIndices[nFaceVertexIndices];
}

template MeshFaceWraps {
 <4885AE62-78E8-11cf-8F52-0040333594A3>
 DWORD nFaceWrapValues;
 Boolean2d faceWrapValues;
}

template MeshTextureCoords {
 <F6F23F40-7686-11cf-8F52-0040333594A3>
 DWORD nTextureCoords;
 array Coords2d textureCoords[nTextureCoords];
}

template MeshMaterialList {
 <F6F23F42-7686-11cf-8F52-0040333594A3>
 DWORD nMaterials;
 DWORD nFaceIndexes;
 array DWORD faceIndexes[nFaceIndexes];
 [Material]
}

template MeshNormals {
 <F6F23F43-7686-11cf-8F52-0040333594A3>
 DWORD nNormals;
 array Vector normals[nNormals];
 DWORD nFaceNormals;
 array MeshFace faceNormals[nFaceNormals];
}

template MeshVertexColors {
 <1630B821-7842-11cf-8F52-0040333594A3>
 DWORD nVertexColors;
 array IndexedColor vertexColors[nVertexColors];
}

template Mesh {
 <3D82AB44-62DA-11cf-AB39-0020AF71E433>
 DWORD nVertices;
 array Vector vertices[nVertices];
 DWORD nFaces;
 array MeshFace faces[nFaces];
 [...]
}

Header{
1;
0;
1;
}

Mesh {
 174;
 -1.31461;3.77389;8.52959;,
 -1.31463;3.77389;6.16363;,
 -1.31463;-0.12644;7.17738;,
 -1.31462;-0.12644;9.54334;,
 -1.31463;3.77389;6.16363;,
 1.11109;3.77389;6.16363;,
 1.11108;-0.12644;7.17738;,
 -1.31463;-0.12644;7.17738;,
 1.11109;3.77389;6.16363;,
 1.11108;3.77389;8.52957;,
 1.11108;-0.12644;9.54334;,
 1.11108;-0.12644;7.17738;,
 1.11108;3.77389;8.52957;,
 -1.31461;3.77389;8.52959;,
 -1.31462;-0.12644;9.54334;,
 1.11108;-0.12644;9.54334;,
 -1.31462;-0.12644;9.54334;,
 -1.31463;-0.12644;7.17738;,
 1.11109;4.71162;6.16363;,
 1.11108;4.71162;9.23287;,
 -1.31462;4.71162;9.23287;,
 -1.31463;4.71162;6.16363;,
 -1.31463;3.77389;6.16363;,
 -1.31461;3.77389;8.52959;,
 1.11109;5.47352;6.16363;,
 1.11109;5.47352;9.05703;,
 -1.31461;5.47352;9.05703;,
 -1.31463;5.47352;6.16363;,
 1.11109;6.46985;6.16363;,
 1.11109;6.46985;8.93984;,
 -1.31462;6.46985;8.93982;,
 -1.31463;6.46985;6.16363;,
 1.11109;4.06638;0.41355;,
 1.11109;4.71162;-5.44079;,
 -1.31462;4.71162;-5.44079;,
 -1.31462;4.06638;0.41354;,
 1.11109;5.47352;-5.44079;,
 -1.31462;5.47352;-5.44079;,
 1.11109;6.46985;-5.44079;,
 -1.31462;6.46985;-5.44079;,
 1.11110;3.83522;1.00085;,
 -1.31462;3.83522;1.00086;,
 0.58169;4.34194;-5.46300;,
 -0.78522;4.34194;-5.46300;,
 0.58169;3.99030;0.39135;,
 -0.78522;3.99030;0.39135;,
 -1.12036;2.34221;6.70534;,
 -1.12034;2.34221;4.02517;,
 -1.12035;1.93944;3.73302;,
 -1.12036;1.93944;6.70534;,
 0.91681;2.34221;4.02518;,
 0.91682;2.34221;6.70534;,
 0.91682;1.93944;6.70534;,
 0.91681;1.93944;3.73301;,
 0.91682;2.34221;6.70534;,
 -1.12036;2.34221;6.70534;,
 -1.12036;1.93944;6.70534;,
 0.91682;1.93944;6.70534;,
 0.91681;2.34221;4.02518;,
 -1.12034;2.34221;4.02517;,
 -1.12036;2.34221;6.70534;,
 -1.12036;1.93944;6.70534;,
 -1.12035;1.93944;3.73302;,
 0.91681;1.93944;3.73301;,
 0.91682;2.83325;3.58044;,
 -1.12035;2.83325;3.58046;,
 -1.12034;2.34221;4.02517;,
 0.91681;2.65777;3.11984;,
 -1.12034;2.65777;3.11985;,
 -1.12035;1.93944;3.73302;,
 0.91682;4.09167;3.10104;,
 -1.12035;4.09167;3.10105;,
 0.91682;3.91619;2.64042;,
 -1.12035;3.91619;2.64042;,
 0.72020;4.16512;5.71676;,
 0.72020;4.16512;5.50510;,
 -0.92373;4.16512;5.50510;,
 -0.92374;4.16512;5.71676;,
 -0.83832;3.62606;5.57486;,
 -0.92373;4.16512;5.50510;,
 0.63479;3.62606;5.57485;,
 0.54521;2.98150;5.57485;,
 -0.74874;2.98150;5.57485;,
 -0.83832;3.62606;5.57486;,
 -0.74874;2.98150;5.57485;,
 -0.74873;2.98150;5.78648;,
 -0.83832;3.62606;5.78651;,
 -0.92374;4.16512;5.71676;,
 -0.92373;4.16512;5.50510;,
 0.63479;3.62606;5.57485;,
 0.72020;4.16512;5.50510;,
 0.72020;4.16512;5.71676;,
 0.63479;3.62606;5.78651;,
 0.54521;2.98150;5.78651;,
 0.54521;2.98150;5.57485;,
 -0.83832;3.62606;5.78651;,
 -0.74873;2.98150;5.78648;,
 0.54521;2.98150;5.78651;,
 0.63479;3.62606;5.78651;,
 -0.92374;4.16512;5.71676;,
 -0.60342;2.56302;5.41209;,
 -0.60344;2.56302;5.62376;,
 -0.74873;2.98150;5.78648;,
 -0.74874;2.98150;5.57485;,
 0.39990;2.56302;5.41210;,
 0.39990;2.56302;5.62377;,
 -0.84570;5.48029;-4.98716;,
 -0.62781;6.00633;-4.98716;,
 -0.62781;6.00633;-7.23802;,
 -0.84570;5.48029;-7.23802;,
 -0.10176;6.22424;-4.98718;,
 -0.10177;6.22423;-7.23802;,
 0.42427;6.00633;-4.98716;,
 0.42427;6.00633;-7.23802;,
 0.64216;5.48029;-4.98716;,
 0.64216;5.48029;-7.23802;,
 0.42427;4.95425;-4.98716;,
 0.42427;4.95425;-7.23802;,
 -0.10177;4.73637;-4.98717;,
 -0.10178;4.73637;-7.23800;,
 -0.62781;4.95425;-4.98716;,
 -0.62781;4.95425;-7.23802;,
 -0.84570;5.48029;-4.98716;,
 -0.84570;5.48029;-7.23802;,
 -0.10177;5.48029;-4.98717;,
 -0.10177;5.48029;-4.98717;,
 -0.10177;5.48029;-4.98717;,
 -0.10177;5.48029;-4.98717;,
 -0.10177;5.48029;-4.98717;,
 -0.10177;5.48029;-4.98717;,
 -0.10177;5.48029;-4.98717;,
 -0.10177;5.48029;-4.98717;,
 -0.10177;5.48029;-7.23800;,
 -0.10177;5.48029;-7.23800;,
 -0.10177;5.48029;-7.23800;,
 -0.10177;5.48029;-7.23800;,
 -0.10177;5.48029;-7.23800;,
 -0.10177;5.48029;-7.23800;,
 -0.10177;5.48029;-7.23800;,
 -0.10177;5.48029;-7.23800;,
 -1.37031;5.40615;-16.70754;,
 -0.99877;4.50916;-16.70754;,
 -0.99876;4.50916;-6.70758;,
 -1.37031;5.40615;-6.70759;,
 -0.10176;4.13762;-16.70756;,
 -0.10177;4.13761;-6.70759;,
 0.79521;4.50916;-16.70755;,
 0.79522;4.50916;-6.70759;,
 1.16676;5.40615;-16.70755;,
 1.16676;5.40615;-6.70758;,
 0.79521;6.30314;-16.70755;,
 0.79522;6.30314;-6.70759;,
 -0.10177;6.67469;-16.70754;,
 -0.10177;6.67469;-6.70759;,
 -0.99877;6.30314;-16.70754;,
 -0.99876;6.30314;-6.70758;,
 -1.37031;5.40615;-16.70754;,
 -1.37031;5.40615;-6.70759;,
 -0.10176;5.40615;-16.70756;,
 -0.10176;5.40615;-16.70756;,
 -0.10176;5.40615;-16.70756;,
 -0.10176;5.40615;-16.70756;,
 -0.10176;5.40615;-16.70756;,
 -0.10176;5.40615;-16.70756;,
 -0.10176;5.40615;-16.70756;,
 -0.10176;5.40615;-16.70756;,
 -0.10177;5.40615;-6.70759;,
 -0.10177;5.40615;-6.70759;,
 -0.10177;5.40615;-6.70759;,
 -0.10177;5.40615;-6.70759;,
 -0.10177;5.40615;-6.70759;,
 -0.10177;5.40615;-6.70759;,
 -0.10177;5.40615;-6.70759;,
 -0.10177;5.40615;-6.70759;;
 
 109;
 4;0,1,2,3;,
 4;4,5,6,7;,
 4;8,9,10,11;,
 4;12,13,14,15;,
 4;16,17,6,15;,
 4;18,19,12,5;,
 4;20,21,22,23;,
 4;19,20,23,12;,
 4;24,25,19,18;,
 4;26,27,21,20;,
 4;25,26,20,19;,
 4;28,29,25,24;,
 4;30,31,27,26;,
 4;29,30,26,25;,
 4;29,28,31,30;,
 4;32,33,18,5;,
 4;34,35,22,21;,
 4;33,36,24,18;,
 4;37,34,21,27;,
 4;37,36,33,34;,
 4;38,39,31,28;,
 4;36,38,28,24;,
 4;39,37,27,31;,
 4;39,38,36,37;,
 4;40,41,35,32;,
 4;41,40,5,22;,
 3;5,40,32;,
 3;22,35,41;,
 4;42,43,34,33;,
 4;44,42,33,32;,
 4;45,44,32,35;,
 4;43,45,35,34;,
 4;43,42,44,45;,
 4;46,47,48,49;,
 4;50,51,52,53;,
 4;54,55,56,57;,
 4;54,58,59,60;,
 4;61,62,63,57;,
 4;64,65,66,58;,
 4;67,64,58,63;,
 4;68,67,63,69;,
 4;65,68,69,66;,
 4;70,71,65,64;,
 4;72,70,64,67;,
 4;73,72,67,68;,
 4;71,73,68,65;,
 4;71,70,72,73;,
 4;74,75,76,77;,
 4;78,79,75,80;,
 4;78,80,81,82;,
 4;83,84,85,86;,
 4;83,86,87,88;,
 4;89,90,91,92;,
 4;89,92,93,94;,
 4;95,96,97,98;,
 4;95,98,74,99;,
 4;100,101,102,103;,
 4;104,100,103,81;,
 4;105,104,81,97;,
 4;101,105,97,102;,
 4;101,100,104,105;,
 4;106,107,108,109;,
 4;107,110,111,108;,
 4;110,112,113,111;,
 4;112,114,115,113;,
 4;114,116,117,115;,
 4;116,118,119,117;,
 4;118,120,121,119;,
 4;120,122,123,121;,
 3;124,107,106;,
 3;125,110,107;,
 3;126,112,110;,
 3;127,114,112;,
 3;128,116,114;,
 3;129,118,116;,
 3;130,120,118;,
 3;131,122,120;,
 3;132,109,108;,
 3;133,108,111;,
 3;134,111,113;,
 3;135,113,115;,
 3;136,115,117;,
 3;137,117,119;,
 3;138,119,121;,
 3;139,121,123;,
 4;140,141,142,143;,
 4;141,144,145,142;,
 4;144,146,147,145;,
 4;146,148,149,147;,
 4;148,150,151,149;,
 4;150,152,153,151;,
 4;152,154,155,153;,
 4;154,156,157,155;,
 3;158,141,140;,
 3;159,144,141;,
 3;160,146,144;,
 3;161,148,146;,
 3;162,150,148;,
 3;163,152,150;,
 3;164,154,152;,
 3;165,156,154;,
 3;166,143,142;,
 3;167,142,145;,
 3;168,145,147;,
 3;169,147,149;,
 3;170,149,151;,
 3;171,151,153;,
 3;172,153,155;,
 3;173,155,157;;
 
 MeshMaterialList {
  3;
  109;
  0,
  0,
  0,
  0,
  0,
  0,
  0,
  0,
  0,
  0,
  0,
  0,
  0,
  0,
  0,
  0,
  0,
  0,
  0,
  0,
  0,
  0,
  0,
  0,
  0,
  0,
  0,
  0,
  0,
  0,
  0,
  0,
  0,
  0,
  0,
  0,
  0,
  0,
  0,
  0,
  0,
  0,
  0,
  0,
  0,
  0,
  0,
  0,
  0,
  0,
  0,
  0,
  0,
  0,
  0,
  0,
  0,
  0,
  0,
  0,
  0,
  0,
  0,
  0,
  0,
  0,
  0,
  0,
  0,
  0,
  0,
  0,
  0,
  0,
  0,
  0,
  0,
  0,
  0,
  0,
  0,
  0,
  0,
  0,
  0,
  2,
  2,
  2,
  2,
  2,
  2,
  2,
  2,
  2,
  2,
  2,
  2,
  2,
  2,
  2,
  2,
  2,
  2,
  2,
  2,
  2,
  2,
  2,
  2;;
  Material {
   0.034400;0.044000;0.091200;1.000000;;
   5.000000;
   0.230000;0.230000;0.230000;;
   0.000000;0.000000;0.000000;;
  }
  Material {
   0.323200;0.194400;0.135200;1.000000;;
   17.000000;
   0.330000;0.330000;0.330000;;
   0.000000;0.000000;0.000000;;
  }
  Material {
   0.254400;0.153600;0.084800;1.000000;;
   24.000000;
   0.600000;0.600000;0.600000;;
   0.000000;0.000000;0.000000;;
  }
 }
 MeshNormals {
  133;
  -1.000000;-0.000001;0.000005;,
  -1.000000;0.000002;0.000005;,
  -0.000000;-0.251557;-0.967843;,
  1.000000;-0.000001;0.000001;,
  1.000000;-0.000000;0.000000;,
  -1.000000;0.000001;0.000005;,
  -1.000000;-0.000002;0.000002;,
  1.000000;-0.000002;-0.000000;,
  1.000000;-0.000004;-0.000000;,
  -1.000000;0.000002;0.000006;,
  -1.000000;0.000001;0.000002;,
  1.000000;-0.000001;-0.000001;,
  1.000000;-0.000002;-0.000002;,
  -1.000000;-0.000004;0.000006;,
  -1.000000;-0.000002;0.000002;,
  1.000000;0.000002;-0.000001;,
  1.000000;0.000004;-0.000002;,
  -1.000000;-0.000011;-0.000002;,
  1.000000;0.000034;0.000002;,
  -1.000000;-0.000006;-0.000001;,
  1.000000;-0.000000;0.000000;,
  -1.000000;0.000000;-0.000001;,
  1.000000;0.000000;0.000000;,
  0.000000;1.000000;0.000000;,
  -1.000000;-0.000006;0.000002;,
  0.000000;-0.981351;-0.192227;,
  -0.000002;-0.280053;0.959984;,
  0.188147;-0.979517;-0.071738;,
  -0.000002;0.059969;-0.998200;,
  1.000000;0.000017;0.000001;,
  0.000002;-0.193376;0.981125;,
  0.000002;0.251557;0.967842;,
  0.000000;-1.000000;-0.000000;,
  0.000001;-0.206835;0.978376;,
  -0.000003;0.171107;0.985252;,
  -0.000005;0.116825;0.993153;,
  -0.000000;0.000000;-1.000000;,
  -0.000001;0.029998;-0.999550;,
  -0.190022;-0.954470;-0.229954;,
  0.190021;-0.954470;-0.229954;,
  -0.000000;-0.999929;-0.011878;,
  1.000000;0.000068;0.000003;,
  -1.000000;-0.000009;-0.000002;,
  0.369542;-0.925682;-0.080944;,
  -0.188147;-0.979517;-0.071739;,
  -0.369543;-0.925681;-0.080944;,
  -1.000000;0.000010;-0.000004;,
  -1.000000;0.000005;-0.000002;,
  1.000000;-0.000003;-0.000003;,
  1.000000;0.000001;-0.000004;,
  0.000004;0.522658;0.852543;,
  -0.000003;-0.510090;-0.860121;,
  1.000000;-0.000005;-0.000005;,
  0.000005;0.356000;0.934486;,
  -0.000002;-0.356011;-0.934482;,
  1.000000;-0.000003;-0.000007;,
  -0.000002;0.000000;1.000000;,
  0.000000;1.000000;0.000000;,
  0.000001;0.914136;0.405408;,
  0.000000;-1.000000;-0.000000;,
  -0.000002;-0.908086;-0.418784;,
  -1.000000;-0.000002;-0.000003;,
  -1.000000;-0.000004;-0.000005;,
  -0.000000;0.934488;-0.355994;,
  0.000000;1.000000;0.000000;,
  -0.972246;-0.233961;0.000017;,
  -0.000002;0.184402;-0.982851;,
  0.972246;-0.233963;0.000010;,
  -0.000005;-0.064292;-0.997931;,
  -0.989123;-0.147090;0.000014;,
  0.989124;-0.147085;0.000004;,
  -0.944673;-0.328013;-0.000009;,
  0.000002;0.362476;-0.931993;,
  0.944670;-0.328023;0.000012;,
  -0.000004;-0.128321;-0.991733;,
  -0.987677;-0.156504;-0.000014;,
  0.987678;-0.156502;0.000002;,
  -0.000007;0.064282;0.997932;,
  -0.000013;-0.184384;0.982854;,
  -0.000002;0.128321;0.991733;,
  -0.000014;-0.362422;0.932014;,
  0.000000;-1.000000;-0.000000;,
  0.000001;0.000005;1.000000;,
  -1.000000;-0.000000;-0.000000;,
  -0.707115;0.707098;-0.000001;,
  0.000003;1.000000;-0.000001;,
  0.707116;0.707098;-0.000001;,
  1.000000;-0.000000;-0.000001;,
  0.707104;-0.707110;-0.000001;,
  -0.000002;-1.000000;0.000000;,
  -0.707107;-0.707107;0.000000;,
  0.000003;-0.000008;-1.000000;,
  0.000021;0.000011;1.000000;,
  0.000013;-0.000000;1.000000;,
  -0.000000;0.000018;1.000000;,
  -0.000018;0.000009;1.000000;,
  -0.000008;0.000000;1.000000;,
  -0.000009;0.000001;1.000000;,
  -0.000000;0.000000;1.000000;,
  0.000011;-0.000002;1.000000;,
  0.000026;0.000000;-1.000000;,
  0.000013;-0.000014;-1.000000;,
  0.000001;-0.000027;-1.000000;,
  -0.000007;-0.000017;-1.000000;,
  -0.000016;0.000000;-1.000000;,
  -0.000024;0.000001;-1.000000;,
  0.000001;-0.000006;-1.000000;,
  0.000030;-0.000002;-1.000000;,
  -0.000006;0.000002;-1.000000;,
  -1.000000;-0.000001;0.000001;,
  -0.707105;-0.707108;0.000000;,
  0.000003;-1.000000;-0.000000;,
  0.707108;-0.707106;-0.000000;,
  1.000000;-0.000001;-0.000000;,
  0.707107;0.707106;-0.000000;,
  0.000002;1.000000;0.000000;,
  -0.707106;0.707108;0.000001;,
  0.000001;-0.000000;1.000000;,
  -0.000017;-0.000003;-1.000000;,
  -0.000014;-0.000000;-1.000000;,
  -0.000007;0.000000;-1.000000;,
  0.000005;-0.000002;-1.000000;,
  0.000002;-0.000000;-1.000000;,
  -0.000000;0.000007;-1.000000;,
  -0.000007;0.000010;-1.000000;,
  -0.000013;0.000008;-1.000000;,
  0.000003;0.000000;1.000000;,
  0.000007;0.000004;1.000000;,
  0.000005;0.000000;1.000000;,
  -0.000005;-0.000004;1.000000;,
  -0.000009;-0.000000;1.000000;,
  -0.000005;0.000004;1.000000;,
  0.000007;-0.000004;1.000000;;
  109;
  4;0,24,1,1;,
  4;2,2,2,2;,
  4;29,3,4,4;,
  4;30,30,31,31;,
  4;32,32,32,32;,
  4;7,8,3,29;,
  4;5,6,24,0;,
  4;33,33,30,30;,
  4;11,12,8,7;,
  4;9,10,6,5;,
  4;34,34,33,33;,
  4;15,16,12,11;,
  4;13,14,10,9;,
  4;35,35,34,34;,
  4;23,23,23,23;,
  4;18,20,7,29;,
  4;19,17,24,6;,
  4;20,22,11,7;,
  4;21,19,6,10;,
  4;36,36,37,37;,
  4;23,23,23,23;,
  4;22,22,15,11;,
  4;21,21,10,14;,
  4;36,36,36,36;,
  4;25,25,38,39;,
  4;25,25,40,40;,
  3;29,41,18;,
  3;24,17,42;,
  4;28,28,37,37;,
  4;27,27,43,39;,
  4;26,26,26,26;,
  4;44,44,38,45;,
  4;44,27,27,44;,
  4;46,47,47,46;,
  4;48,49,49,48;,
  4;56,56,56,56;,
  4;57,58,58,57;,
  4;59,60,60,59;,
  4;50,50,58,58;,
  4;52,52,48,48;,
  4;51,51,60,60;,
  4;61,61,47,47;,
  4;53,53,50,50;,
  4;55,55,52,52;,
  4;54,54,51,51;,
  4;62,62,61,61;,
  4;63,63,63,63;,
  4;64,64,64,64;,
  4;68,74,74,68;,
  4;68,68,66,66;,
  4;69,65,65,69;,
  4;69,69,75,75;,
  4;70,76,76,70;,
  4;70,70,67,67;,
  4;77,78,78,77;,
  4;77,77,79,79;,
  4;71,71,65,65;,
  4;72,72,66,66;,
  4;73,73,67,67;,
  4;80,80,78,78;,
  4;81,81,81,81;,
  4;83,84,84,83;,
  4;84,85,85,84;,
  4;85,86,86,85;,
  4;86,87,87,86;,
  4;87,88,88,87;,
  4;88,89,89,88;,
  4;89,90,90,89;,
  4;90,83,83,90;,
  3;82,92,93;,
  3;82,94,92;,
  3;82,95,94;,
  3;82,96,95;,
  3;82,97,96;,
  3;82,98,97;,
  3;82,99,98;,
  3;82,93,99;,
  3;91,100,101;,
  3;91,101,102;,
  3;91,102,103;,
  3;91,103,104;,
  3;91,104,105;,
  3;91,105,106;,
  3;91,106,107;,
  3;91,107,100;,
  4;109,110,110,109;,
  4;110,111,111,110;,
  4;111,112,112,111;,
  4;112,113,113,112;,
  4;113,114,114,113;,
  4;114,115,115,114;,
  4;115,116,116,115;,
  4;116,109,109,116;,
  3;108,118,119;,
  3;108,120,118;,
  3;108,121,120;,
  3;108,122,121;,
  3;108,123,122;,
  3;108,124,123;,
  3;108,125,124;,
  3;108,119,125;,
  3;117,126,127;,
  3;117,127,128;,
  3;117,128,129;,
  3;117,129,130;,
  3;117,130,131;,
  3;117,131,128;,
  3;117,128,132;,
  3;117,132,126;;
 }
 MeshTextureCoords {
  174;
  0.000000;0.000000;,
  1.000000;0.000000;,
  1.000000;1.000000;,
  0.000000;1.000000;,
  0.000000;0.000000;,
  1.000000;0.000000;,
  1.000000;1.000000;,
  0.000000;1.000000;,
  0.000000;0.000000;,
  1.000000;0.000000;,
  1.000000;1.000000;,
  0.000000;1.000000;,
  0.000000;0.000000;,
  1.000000;0.000000;,
  1.000000;1.000000;,
  0.000000;1.000000;,
  0.000000;0.000000;,
  1.000000;0.000000;,
  1.000000;0.000000;,
  0.000000;0.000000;,
  0.000000;1.000000;,
  1.000000;1.000000;,
  1.000000;1.000000;,
  0.000000;1.000000;,
  1.000000;0.000000;,
  0.000000;0.000000;,
  0.000000;1.000000;,
  1.000000;1.000000;,
  1.000000;0.000000;,
  0.000000;0.000000;,
  0.000000;1.000000;,
  1.000000;1.000000;,
  1.000000;0.000000;,
  1.000000;0.000000;,
  1.000000;1.000000;,
  1.000000;1.000000;,
  1.000000;0.000000;,
  1.000000;1.000000;,
  1.000000;0.000000;,
  1.000000;1.000000;,
  1.000000;0.000000;,
  1.000000;1.000000;,
  1.000000;0.000000;,
  1.000000;1.000000;,
  1.000000;0.000000;,
  1.000000;1.000000;,
  0.000000;0.000000;,
  1.000000;0.000000;,
  1.000000;1.000000;,
  0.000000;1.000000;,
  0.000000;0.000000;,
  1.000000;0.000000;,
  1.000000;1.000000;,
  0.000000;1.000000;,
  0.000000;0.000000;,
  1.000000;0.000000;,
  1.000000;1.000000;,
  0.000000;1.000000;,
  1.000000;0.000000;,
  1.000000;1.000000;,
  0.000000;1.000000;,
  0.000000;0.000000;,
  1.000000;0.000000;,
  1.000000;1.000000;,
  1.000000;0.000000;,
  0.000000;0.000000;,
  0.000000;0.000000;,
  1.000000;1.000000;,
  0.000000;1.000000;,
  0.000000;1.000000;,
  1.000000;0.000000;,
  0.000000;0.000000;,
  1.000000;1.000000;,
  0.000000;1.000000;,
  0.000000;0.000000;,
  1.000000;0.000000;,
  1.000000;1.000000;,
  0.000000;1.000000;,
  0.000000;0.559950;,
  0.000000;0.000000;,
  1.000000;0.559950;,
  1.000000;1.000000;,
  0.000000;1.000000;,
  1.000000;0.559950;,
  1.000000;1.000000;,
  0.000000;1.000000;,
  0.000000;0.559950;,
  0.000000;0.000000;,
  1.000000;0.000000;,
  0.000000;0.559950;,
  0.000000;0.000000;,
  1.000000;0.000000;,
  1.000000;0.559950;,
  1.000000;1.000000;,
  0.000000;1.000000;,
  1.000000;0.559950;,
  1.000000;1.000000;,
  0.000000;1.000000;,
  0.000000;0.559950;,
  1.000000;0.000000;,
  1.000000;0.000000;,
  0.000000;0.000000;,
  0.000000;0.000000;,
  1.000000;0.000000;,
  1.000000;1.000000;,
  0.000000;1.000000;,
  0.000000;0.000000;,
  0.125000;0.000000;,
  0.125000;1.000000;,
  0.000000;1.000000;,
  0.250000;0.000000;,
  0.250000;1.000000;,
  0.375000;0.000000;,
  0.375000;1.000000;,
  0.500000;0.000000;,
  0.500000;1.000000;,
  0.625000;0.000000;,
  0.625000;1.000000;,
  0.750000;0.000000;,
  0.750000;1.000000;,
  0.875000;0.000000;,
  0.875000;1.000000;,
  1.000000;0.000000;,
  1.000000;1.000000;,
  0.062500;0.000000;,
  0.187500;0.000000;,
  0.312500;0.000000;,
  0.437500;0.000000;,
  0.562500;0.000000;,
  0.687500;0.000000;,
  0.812500;0.000000;,
  0.937500;0.000000;,
  0.062500;1.000000;,
  0.187500;1.000000;,
  0.312500;1.000000;,
  0.437500;1.000000;,
  0.562500;1.000000;,
  0.687500;1.000000;,
  0.812500;1.000000;,
  0.937500;1.000000;,
  0.000000;0.000000;,
  0.125000;0.000000;,
  0.125000;1.000000;,
  0.000000;1.000000;,
  0.250000;0.000000;,
  0.250000;1.000000;,
  0.375000;0.000000;,
  0.375000;1.000000;,
  0.500000;0.000000;,
  0.500000;1.000000;,
  0.625000;0.000000;,
  0.625000;1.000000;,
  0.750000;0.000000;,
  0.750000;1.000000;,
  0.875000;0.000000;,
  0.875000;1.000000;,
  1.000000;0.000000;,
  1.000000;1.000000;,
  0.062500;0.000000;,
  0.187500;0.000000;,
  0.312500;0.000000;,
  0.437500;0.000000;,
  0.562500;0.000000;,
  0.687500;0.000000;,
  0.812500;0.000000;,
  0.937500;0.000000;,
  0.062500;1.000000;,
  0.187500;1.000000;,
  0.312500;1.000000;,
  0.437500;1.000000;,
  0.562500;1.000000;,
  0.687500;1.000000;,
  0.812500;1.000000;,
  0.937500;1.000000;;
 }
}
