xof 0302txt 0064
template Header {
 <3D82AB43-62DA-11cf-AB39-0020AF71E433>
 WORD major;
 WORD minor;
 DWORD flags;
}

template Vector {
 <3D82AB5E-62DA-11cf-AB39-0020AF71E433>
 FLOAT x;
 FLOAT y;
 FLOAT z;
}

template Coords2d {
 <F6F23F44-7686-11cf-8F52-0040333594A3>
 FLOAT u;
 FLOAT v;
}

template Matrix4x4 {
 <F6F23F45-7686-11cf-8F52-0040333594A3>
 array FLOAT matrix[16];
}

template ColorRGBA {
 <35FF44E0-6C7C-11cf-8F52-0040333594A3>
 FLOAT red;
 FLOAT green;
 FLOAT blue;
 FLOAT alpha;
}

template ColorRGB {
 <D3E16E81-7835-11cf-8F52-0040333594A3>
 FLOAT red;
 FLOAT green;
 FLOAT blue;
}

template IndexedColor {
 <1630B820-7842-11cf-8F52-0040333594A3>
 DWORD index;
 ColorRGBA indexColor;
}

template Boolean {
 <4885AE61-78E8-11cf-8F52-0040333594A3>
 WORD truefalse;
}

template Boolean2d {
 <4885AE63-78E8-11cf-8F52-0040333594A3>
 Boolean u;
 Boolean v;
}

template MaterialWrap {
 <4885AE60-78E8-11cf-8F52-0040333594A3>
 Boolean u;
 Boolean v;
}

template TextureFilename {
 <A42790E1-7810-11cf-8F52-0040333594A3>
 STRING filename;
}

template Material {
 <3D82AB4D-62DA-11cf-AB39-0020AF71E433>
 ColorRGBA faceColor;
 FLOAT power;
 ColorRGB specularColor;
 ColorRGB emissiveColor;
 [...]
}

template MeshFace {
 <3D82AB5F-62DA-11cf-AB39-0020AF71E433>
 DWORD nFaceVertexIndices;
 array DWORD faceVertexIndices[nFaceVertexIndices];
}

template MeshFaceWraps {
 <4885AE62-78E8-11cf-8F52-0040333594A3>
 DWORD nFaceWrapValues;
 Boolean2d faceWrapValues;
}

template MeshTextureCoords {
 <F6F23F40-7686-11cf-8F52-0040333594A3>
 DWORD nTextureCoords;
 array Coords2d textureCoords[nTextureCoords];
}

template MeshMaterialList {
 <F6F23F42-7686-11cf-8F52-0040333594A3>
 DWORD nMaterials;
 DWORD nFaceIndexes;
 array DWORD faceIndexes[nFaceIndexes];
 [Material]
}

template MeshNormals {
 <F6F23F43-7686-11cf-8F52-0040333594A3>
 DWORD nNormals;
 array Vector normals[nNormals];
 DWORD nFaceNormals;
 array MeshFace faceNormals[nFaceNormals];
}

template MeshVertexColors {
 <1630B821-7842-11cf-8F52-0040333594A3>
 DWORD nVertexColors;
 array IndexedColor vertexColors[nVertexColors];
}

template Mesh {
 <3D82AB44-62DA-11cf-AB39-0020AF71E433>
 DWORD nVertices;
 array Vector vertices[nVertices];
 DWORD nFaces;
 array MeshFace faces[nFaces];
 [...]
}

Header{
1;
0;
1;
}

Mesh {
 141;
 0.00000;-0.12428;-0.00000;,
 0.00000;-0.12428;-0.64797;,
 0.45818;-0.12428;-0.45818;,
 0.00000;-0.12428;-0.00000;,
 0.64797;-0.12428;-0.00000;,
 0.00000;-0.12428;-0.00000;,
 0.45818;-0.12428;0.45818;,
 0.00000;-0.12428;-0.00000;,
 0.00000;-0.12428;0.64797;,
 0.00000;-0.12428;-0.00000;,
 -0.45818;-0.12428;0.45818;,
 0.00000;-0.12428;-0.00000;,
 -0.64797;-0.12428;0.00000;,
 0.00000;-0.12428;-0.00000;,
 -0.45818;-0.12428;-0.45818;,
 0.00000;-0.12428;-0.00000;,
 0.00000;-0.12428;-0.64797;,
 0.46622;1.06339;0.00000;,
 0.32967;1.06339;-0.32967;,
 0.32967;7.69759;-0.32967;,
 0.46622;7.69759;0.00000;,
 0.32967;7.69759;0.32967;,
 0.32967;1.06339;0.32967;,
 0.00000;1.06339;-0.46622;,
 0.00000;7.69759;-0.46622;,
 0.00000;7.69759;0.46622;,
 0.00000;1.06339;0.46622;,
 0.00000;1.06339;-0.46622;,
 -0.32967;1.06339;-0.32967;,
 -0.32967;7.69759;-0.32967;,
 0.00000;7.69759;-0.46622;,
 -0.32967;7.69759;0.32967;,
 -0.32967;1.06339;0.32967;,
 -0.46622;1.06339;0.00000;,
 -0.46622;7.69759;0.00000;,
 0.00000;8.72930;-0.53077;,
 0.37531;8.72930;-0.37531;,
 0.53077;8.72930;0.00000;,
 0.37531;8.72930;0.37531;,
 0.00000;8.72930;0.53077;,
 -0.37531;8.72930;0.37531;,
 -0.53077;8.72930;0.00000;,
 -0.37531;8.72930;-0.37531;,
 0.00000;8.72930;-0.53077;,
 0.00000;9.14822;-0.34221;,
 0.24198;9.14822;-0.24198;,
 0.00000;9.14822;0.00000;,
 0.34221;9.14822;0.00000;,
 0.00000;9.14822;0.00000;,
 0.24198;9.14822;0.24198;,
 0.00000;9.14822;0.00000;,
 0.00000;9.14822;0.34221;,
 0.00000;9.14822;0.00000;,
 -0.24198;9.14822;0.24198;,
 0.00000;9.14822;0.00000;,
 -0.34221;9.14822;0.00000;,
 0.00000;9.14822;0.00000;,
 -0.24198;9.14822;-0.24198;,
 0.00000;9.14822;0.00000;,
 0.00000;9.14822;-0.34221;,
 0.00000;9.14822;0.00000;,
 -6.17270;17.83040;-1.69132;,
 5.17270;17.83040;-1.69132;,
 5.17270;6.56959;-0.30867;,
 -6.17270;6.56959;-0.30867;,
 -11.15728;9.77734;-1.69132;,
 -4.25064;18.77825;-1.69132;,
 4.68315;11.92310;-0.30867;,
 -2.22348;2.92220;-0.30867;,
 3.25065;-1.27824;-1.69132;,
 -5.68315;5.57690;-0.30867;,
 1.22348;14.57779;-0.30867;,
 10.15728;7.72266;-1.69132;,
 -6.41037;-0.17750;-1.69132;,
 -11.11523;10.14636;-1.69132;,
 -0.86834;14.81613;-0.30867;,
 3.83651;4.49228;-0.30867;,
 10.11523;7.35365;-1.69132;,
 -0.13165;2.68388;-0.30867;,
 -4.83650;13.00773;-0.30867;,
 5.41038;17.67751;-1.69132;,
 -6.17270;17.83040;1.69132;,
 -6.17270;6.56959;0.30867;,
 5.17270;6.56959;0.30867;,
 5.17270;17.83040;1.69132;,
 -11.15728;9.77734;1.69132;,
 -2.22348;2.92220;0.30867;,
 4.68315;11.92310;0.30867;,
 -4.25064;18.77825;1.69132;,
 3.25065;-1.27824;1.69132;,
 10.15728;7.72266;1.69132;,
 1.22348;14.57779;0.30867;,
 -5.68315;5.57690;0.30867;,
 -6.41037;-0.17750;1.69132;,
 3.83651;4.49228;0.30867;,
 -0.86834;14.81613;0.30867;,
 -11.11523;10.14636;1.69132;,
 10.11523;7.35365;1.69132;,
 5.41038;17.67751;1.69132;,
 -4.83650;13.00773;0.30867;,
 -0.13165;2.68388;0.30867;,
 -2.42584;17.83040;4.53393;,
 -0.94497;17.83040;-6.71440;,
 0.42585;6.56959;-6.53392;,
 -1.05503;6.56959;4.71440;,
 -3.07646;9.77734;9.47586;,
 -2.17497;18.77825;2.62832;,
 0.36194;11.92310;-6.04857;,
 -0.53955;2.92220;0.79898;,
 -1.19585;-1.27824;-4.80879;,
 -0.99113;5.57690;4.22904;,
 -0.08963;14.57779;-2.61850;,
 -0.29436;7.72266;-11.65637;,
 -2.45687;-0.17750;4.76957;,
 -3.07097;10.14636;9.43417;,
 -0.36267;14.81613;-0.54458;,
 0.25144;4.49228;-5.20918;,
 -0.29985;7.35365;-11.61468;,
 -0.26651;2.68388;-1.27496;,
 -0.88062;13.00773;3.38964;,
 -0.91395;17.67751;-6.95005;,
 2.42584;17.83040;4.53393;,
 1.05503;6.56959;4.71440;,
 -0.42585;6.56959;-6.53392;,
 0.94497;17.83040;-6.71440;,
 3.07646;9.77734;9.47586;,
 0.53955;2.92220;0.79898;,
 -0.36194;11.92310;-6.04857;,
 2.17497;18.77825;2.62832;,
 1.19585;-1.27824;-4.80879;,
 0.29436;7.72266;-11.65637;,
 0.08963;14.57779;-2.61850;,
 0.99113;5.57690;4.22904;,
 2.45687;-0.17750;4.76957;,
 -0.25144;4.49228;-5.20918;,
 0.36267;14.81613;-0.54458;,
 3.07097;10.14636;9.43417;,
 0.29985;7.35365;-11.61468;,
 0.91395;17.67751;-6.95005;,
 0.88062;13.00773;3.38964;,
 0.26651;2.68388;-1.27496;;
 
 68;
 3;0,1,2;,
 3;3,2,4;,
 3;5,4,6;,
 3;7,6,8;,
 3;9,8,10;,
 3;11,10,12;,
 3;13,12,14;,
 3;15,14,16;,
 4;17,4,2,18;,
 4;17,18,19,20;,
 4;17,20,21,22;,
 4;17,22,6,4;,
 4;18,2,1,23;,
 4;18,23,24,19;,
 4;22,21,25,26;,
 4;22,26,8,6;,
 4;27,16,14,28;,
 4;27,28,29,30;,
 4;26,25,31,32;,
 4;26,32,10,8;,
 4;28,14,12,33;,
 4;28,33,34,29;,
 4;32,31,34,33;,
 4;32,33,12,10;,
 4;35,36,19,24;,
 4;36,37,20,19;,
 4;37,38,21,20;,
 4;38,39,25,21;,
 4;39,40,31,25;,
 4;40,41,34,31;,
 4;41,42,29,34;,
 4;42,43,30,29;,
 4;44,45,36,35;,
 3;46,45,44;,
 4;45,47,37,36;,
 3;48,47,45;,
 4;47,49,38,37;,
 3;50,49,47;,
 4;49,51,39,38;,
 3;52,51,49;,
 4;51,53,40,39;,
 3;54,53,51;,
 4;53,55,41,40;,
 3;56,55,53;,
 4;55,57,42,41;,
 3;58,57,55;,
 4;57,59,43,42;,
 3;60,59,57;,
 4;61,62,63,64;,
 4;65,66,67,68;,
 4;69,70,71,72;,
 4;73,74,75,76;,
 4;77,78,79,80;,
 4;81,82,83,84;,
 4;85,86,87,88;,
 4;89,90,91,92;,
 4;93,94,95,96;,
 4;97,98,99,100;,
 4;101,102,103,104;,
 4;105,106,107,108;,
 4;109,110,111,112;,
 4;113,114,115,116;,
 4;117,118,119,120;,
 4;121,122,123,124;,
 4;125,126,127,128;,
 4;129,130,131,132;,
 4;133,134,135,136;,
 4;137,138,139,140;;
 
 MeshMaterialList {
  2;
  68;
  0,
  0,
  0,
  0,
  0,
  0,
  0,
  0,
  0,
  0,
  0,
  0,
  0,
  0,
  0,
  0,
  0,
  0,
  0,
  0,
  0,
  0,
  0,
  0,
  0,
  0,
  0,
  0,
  0,
  0,
  0,
  0,
  0,
  0,
  0,
  0,
  0,
  0,
  0,
  0,
  0,
  0,
  0,
  0,
  0,
  0,
  0,
  0,
  1,
  1,
  1,
  1,
  1,
  1,
  1,
  1,
  1,
  1,
  1,
  1,
  1,
  1,
  1,
  1,
  1,
  1,
  1,
  1;;
  Material {
   0.385600;0.238400;0.197600;1.000000;;
   0.000000;
   0.000000;0.000000;0.000000;;
   0.000000;0.000000;0.000000;;
  }
  Material {
   1.000000;1.000000;1.000000;1.000000;;
   0.000000;
   0.000000;0.000000;0.000000;;
   0.000000;0.000000;0.000000;;
   TextureFilename {
    "C:\\Users\\student\\Desktop\\babel\\date\\MODEL\\mqo\\texture\\ki\\treeleaf.png";
   }
  }
 }
 MeshNormals {
  62;
  0.000000;-0.031243;-0.999512;,
  0.706762;-0.031243;-0.706762;,
  0.999512;-0.031243;-0.000000;,
  0.706762;-0.031243;0.706762;,
  0.000000;-0.031243;0.999512;,
  -0.706762;-0.031243;0.706762;,
  -0.999512;-0.031243;0.000000;,
  -0.706762;-0.031243;-0.706762;,
  0.000000;-1.000000;0.000000;,
  0.997114;0.075915;0.000000;,
  0.705066;0.075915;-0.705066;,
  0.705066;0.075915;0.705066;,
  0.000000;0.075915;-0.997114;,
  0.000000;0.075915;0.997114;,
  -0.705066;0.075915;-0.705066;,
  -0.705066;0.075915;0.705066;,
  -0.997114;0.075915;0.000000;,
  0.000000;0.180739;-0.983531;,
  0.695462;0.180739;-0.695462;,
  0.983531;0.180739;0.000000;,
  0.695462;0.180739;0.695462;,
  0.000000;0.180739;0.983531;,
  -0.695462;0.180739;0.695462;,
  -0.983531;0.180739;0.000000;,
  -0.695462;0.180739;-0.695462;,
  0.000000;1.000000;0.000000;,
  0.000000;0.410443;-0.911886;,
  0.644801;0.410443;-0.644801;,
  0.911886;0.410443;0.000000;,
  0.644801;0.410443;0.644801;,
  0.000000;0.410443;0.911886;,
  -0.644801;0.410443;0.644801;,
  -0.911886;0.410443;0.000000;,
  -0.644801;0.410443;-0.644801;,
  0.988493;0.151265;0.000000;,
  0.698970;0.151265;-0.698970;,
  0.698970;0.151265;0.698970;,
  0.000000;0.151265;-0.988493;,
  0.000000;0.151265;0.988493;,
  -0.698970;0.151265;-0.698970;,
  -0.698970;0.151265;0.698970;,
  -0.988493;0.151265;0.000000;,
  0.000000;-0.121869;-0.992546;,
  0.096685;-0.074189;-0.992546;,
  -0.096685;0.074189;-0.992546;,
  0.110896;0.050538;-0.992546;,
  -0.110896;-0.050538;-0.992546;,
  0.000000;-0.121869;0.992546;,
  0.096685;-0.074189;0.992546;,
  -0.096685;0.074189;0.992546;,
  0.110896;0.050538;0.992546;,
  -0.110896;-0.050538;0.992546;,
  -0.984055;-0.121869;-0.129553;,
  -0.971435;-0.074189;-0.225411;,
  -0.996675;0.074189;-0.033695;,
  -0.969580;0.050538;-0.239501;,
  -0.998530;-0.050538;-0.019606;,
  0.984055;-0.121869;-0.129553;,
  0.971435;-0.074189;-0.225411;,
  0.996675;0.074189;-0.033695;,
  0.969580;0.050538;-0.239501;,
  0.998530;-0.050538;-0.019606;;
  68;
  3;8,8,8;,
  3;8,8,8;,
  3;8,8,8;,
  3;8,8,8;,
  3;8,8,8;,
  3;8,8,8;,
  3;8,8,8;,
  3;8,8,8;,
  4;9,34,35,10;,
  4;9,10,1,2;,
  4;9,2,3,11;,
  4;9,11,36,34;,
  4;10,35,37,12;,
  4;10,12,0,1;,
  4;11,3,4,13;,
  4;11,13,38,36;,
  4;12,37,39,14;,
  4;12,14,7,0;,
  4;13,4,5,15;,
  4;13,15,40,38;,
  4;14,39,41,16;,
  4;14,16,6,7;,
  4;15,5,6,16;,
  4;15,16,41,40;,
  4;17,18,1,0;,
  4;18,19,2,1;,
  4;19,20,3,2;,
  4;20,21,4,3;,
  4;21,22,5,4;,
  4;22,23,6,5;,
  4;23,24,7,6;,
  4;24,17,0,7;,
  4;26,27,18,17;,
  3;25,25,25;,
  4;27,28,19,18;,
  3;25,25,25;,
  4;28,29,20,19;,
  3;25,25,25;,
  4;29,30,21,20;,
  3;25,25,25;,
  4;30,31,22,21;,
  3;25,25,25;,
  4;31,32,23,22;,
  3;25,25,25;,
  4;32,33,24,23;,
  3;25,25,25;,
  4;33,26,17,24;,
  3;25,25,25;,
  4;42,42,42,42;,
  4;43,43,43,43;,
  4;44,44,44,44;,
  4;45,45,45,45;,
  4;46,46,46,46;,
  4;47,47,47,47;,
  4;48,48,48,48;,
  4;49,49,49,49;,
  4;50,50,50,50;,
  4;51,51,51,51;,
  4;52,52,52,52;,
  4;53,53,53,53;,
  4;54,54,54,54;,
  4;55,55,55,55;,
  4;56,56,56,56;,
  4;57,57,57,57;,
  4;58,58,58,58;,
  4;59,59,59,59;,
  4;60,60,60,60;,
  4;61,61,61,61;;
 }
 MeshTextureCoords {
  141;
  0.062500;1.000000;,
  0.000000;1.000000;,
  0.125000;1.000000;,
  0.187500;1.000000;,
  0.250000;1.000000;,
  0.312500;1.000000;,
  0.375000;1.000000;,
  0.437500;1.000000;,
  0.500000;1.000000;,
  0.562500;1.000000;,
  0.625000;1.000000;,
  0.687500;1.000000;,
  0.750000;1.000000;,
  0.812500;1.000000;,
  0.875000;1.000000;,
  0.937500;1.000000;,
  1.000000;1.000000;,
  0.250000;0.650110;,
  0.125000;0.650110;,
  0.125000;0.000000;,
  0.250000;0.000000;,
  0.375000;0.000000;,
  0.375000;0.650110;,
  0.000000;0.650110;,
  0.000000;0.000000;,
  0.500000;0.000000;,
  0.500000;0.650110;,
  1.000000;0.650110;,
  0.875000;0.650110;,
  0.875000;0.000000;,
  1.000000;0.000000;,
  0.625000;0.000000;,
  0.625000;0.650110;,
  0.750000;0.650110;,
  0.750000;0.000000;,
  0.000000;0.000000;,
  0.125000;0.000000;,
  0.250000;0.000000;,
  0.375000;0.000000;,
  0.500000;0.000000;,
  0.625000;0.000000;,
  0.750000;0.000000;,
  0.875000;0.000000;,
  1.000000;0.000000;,
  0.000000;0.000000;,
  0.125000;0.000000;,
  0.062500;0.000000;,
  0.250000;0.000000;,
  0.187500;0.000000;,
  0.375000;0.000000;,
  0.312500;0.000000;,
  0.500000;0.000000;,
  0.437500;0.000000;,
  0.625000;0.000000;,
  0.562500;0.000000;,
  0.750000;0.000000;,
  0.687500;0.000000;,
  0.875000;0.000000;,
  0.812500;0.000000;,
  1.000000;0.000000;,
  0.937500;0.000000;,
  0.000000;0.000000;,
  1.000000;0.000000;,
  1.000000;1.000000;,
  0.000000;1.000000;,
  0.000000;0.000000;,
  1.000000;0.000000;,
  1.000000;1.000000;,
  0.000000;1.000000;,
  0.000000;0.000000;,
  0.000000;1.000000;,
  1.000000;1.000000;,
  1.000000;0.000000;,
  0.000000;0.000000;,
  1.000000;0.000000;,
  1.000000;1.000000;,
  0.000000;1.000000;,
  0.000000;0.000000;,
  0.000000;1.000000;,
  1.000000;1.000000;,
  1.000000;0.000000;,
  0.000000;0.000000;,
  0.000000;1.000000;,
  1.000000;1.000000;,
  1.000000;0.000000;,
  0.000000;0.000000;,
  0.000000;1.000000;,
  1.000000;1.000000;,
  1.000000;0.000000;,
  0.000000;0.000000;,
  1.000000;0.000000;,
  1.000000;1.000000;,
  0.000000;1.000000;,
  0.000000;0.000000;,
  0.000000;1.000000;,
  1.000000;1.000000;,
  1.000000;0.000000;,
  0.000000;0.000000;,
  1.000000;0.000000;,
  1.000000;1.000000;,
  0.000000;1.000000;,
  0.000000;0.000000;,
  1.000000;0.000000;,
  1.000000;1.000000;,
  0.000000;1.000000;,
  0.000000;0.000000;,
  1.000000;0.000000;,
  1.000000;1.000000;,
  0.000000;1.000000;,
  0.000000;0.000000;,
  0.000000;1.000000;,
  1.000000;1.000000;,
  1.000000;0.000000;,
  0.000000;0.000000;,
  1.000000;0.000000;,
  1.000000;1.000000;,
  0.000000;1.000000;,
  0.000000;0.000000;,
  0.000000;1.000000;,
  1.000000;1.000000;,
  1.000000;0.000000;,
  0.000000;0.000000;,
  0.000000;1.000000;,
  1.000000;1.000000;,
  1.000000;0.000000;,
  0.000000;0.000000;,
  0.000000;1.000000;,
  1.000000;1.000000;,
  1.000000;0.000000;,
  0.000000;0.000000;,
  1.000000;0.000000;,
  1.000000;1.000000;,
  0.000000;1.000000;,
  0.000000;0.000000;,
  0.000000;1.000000;,
  1.000000;1.000000;,
  1.000000;0.000000;,
  0.000000;0.000000;,
  1.000000;0.000000;,
  1.000000;1.000000;,
  0.000000;1.000000;;
 }
}
