xof 0302txt 0064
template Header {
 <3D82AB43-62DA-11cf-AB39-0020AF71E433>
 WORD major;
 WORD minor;
 DWORD flags;
}

template Vector {
 <3D82AB5E-62DA-11cf-AB39-0020AF71E433>
 FLOAT x;
 FLOAT y;
 FLOAT z;
}

template Coords2d {
 <F6F23F44-7686-11cf-8F52-0040333594A3>
 FLOAT u;
 FLOAT v;
}

template Matrix4x4 {
 <F6F23F45-7686-11cf-8F52-0040333594A3>
 array FLOAT matrix[16];
}

template ColorRGBA {
 <35FF44E0-6C7C-11cf-8F52-0040333594A3>
 FLOAT red;
 FLOAT green;
 FLOAT blue;
 FLOAT alpha;
}

template ColorRGB {
 <D3E16E81-7835-11cf-8F52-0040333594A3>
 FLOAT red;
 FLOAT green;
 FLOAT blue;
}

template IndexedColor {
 <1630B820-7842-11cf-8F52-0040333594A3>
 DWORD index;
 ColorRGBA indexColor;
}

template Boolean {
 <4885AE61-78E8-11cf-8F52-0040333594A3>
 WORD truefalse;
}

template Boolean2d {
 <4885AE63-78E8-11cf-8F52-0040333594A3>
 Boolean u;
 Boolean v;
}

template MaterialWrap {
 <4885AE60-78E8-11cf-8F52-0040333594A3>
 Boolean u;
 Boolean v;
}

template TextureFilename {
 <A42790E1-7810-11cf-8F52-0040333594A3>
 STRING filename;
}

template Material {
 <3D82AB4D-62DA-11cf-AB39-0020AF71E433>
 ColorRGBA faceColor;
 FLOAT power;
 ColorRGB specularColor;
 ColorRGB emissiveColor;
 [...]
}

template MeshFace {
 <3D82AB5F-62DA-11cf-AB39-0020AF71E433>
 DWORD nFaceVertexIndices;
 array DWORD faceVertexIndices[nFaceVertexIndices];
}

template MeshFaceWraps {
 <4885AE62-78E8-11cf-8F52-0040333594A3>
 DWORD nFaceWrapValues;
 Boolean2d faceWrapValues;
}

template MeshTextureCoords {
 <F6F23F40-7686-11cf-8F52-0040333594A3>
 DWORD nTextureCoords;
 array Coords2d textureCoords[nTextureCoords];
}

template MeshMaterialList {
 <F6F23F42-7686-11cf-8F52-0040333594A3>
 DWORD nMaterials;
 DWORD nFaceIndexes;
 array DWORD faceIndexes[nFaceIndexes];
 [Material]
}

template MeshNormals {
 <F6F23F43-7686-11cf-8F52-0040333594A3>
 DWORD nNormals;
 array Vector normals[nNormals];
 DWORD nFaceNormals;
 array MeshFace faceNormals[nFaceNormals];
}

template MeshVertexColors {
 <1630B821-7842-11cf-8F52-0040333594A3>
 DWORD nVertexColors;
 array IndexedColor vertexColors[nVertexColors];
}

template Mesh {
 <3D82AB44-62DA-11cf-AB39-0020AF71E433>
 DWORD nVertices;
 array Vector vertices[nVertices];
 DWORD nFaces;
 array MeshFace faces[nFaces];
 [...]
}

Header{
1;
0;
1;
}

Mesh {
 460;
 153.14951;66.35545;-110.27370;,
 147.47900;66.35545;-106.61255;,
 148.29131;106.38295;-88.96725;,
 153.14951;108.60090;-91.18520;,
 145.13029;66.35545;-97.77370;,
 146.27910;101.02825;-83.61260;,
 147.47900;66.35545;-88.93490;,
 148.29131;95.67360;-78.25795;,
 153.14951;66.35545;-85.27370;,
 153.14951;93.45560;-76.04000;,
 158.81985;66.35545;-88.93490;,
 158.00755;95.67360;-78.25795;,
 161.16870;66.35545;-97.77370;,
 160.01985;101.02825;-83.61260;,
 158.81985;66.35545;-106.61255;,
 158.00755;106.38295;-88.96725;,
 153.14951;66.35545;-110.27370;,
 153.14951;108.60090;-91.18520;,
 147.47900;130.65080;-66.37570;,
 153.14951;134.31195;-66.37570;,
 145.13029;121.81195;-66.37570;,
 147.47900;112.97310;-66.37570;,
 153.14951;109.31195;-66.37570;,
 158.81985;112.97310;-66.37570;,
 161.16870;121.81195;-66.37570;,
 158.81985;130.65080;-66.37570;,
 153.14951;134.31195;-66.37570;,
 147.47900;142.39310;-39.39215;,
 153.14951;146.05424;-39.39215;,
 145.13029;133.55424;-39.39215;,
 147.47900;124.71540;-39.39215;,
 153.14951;121.05425;-39.39215;,
 158.81985;124.71540;-39.39215;,
 161.16870;133.55424;-39.39215;,
 158.81985;142.39310;-39.39215;,
 153.14951;146.05424;-39.39215;,
 147.47900;142.39310;2.59135;,
 153.14951;146.05424;2.59135;,
 145.13029;133.55424;2.59135;,
 147.47900;124.71540;2.59135;,
 153.14951;121.05425;2.59135;,
 158.81985;124.71540;2.59135;,
 161.16870;133.55424;2.59135;,
 158.81985;142.39310;2.59135;,
 153.14951;146.05424;2.59135;,
 147.47905;142.39310;44.57485;,
 153.14951;146.05424;44.57485;,
 145.13029;133.55424;44.57485;,
 147.47905;124.71540;44.57485;,
 153.14951;121.05425;44.57485;,
 158.81985;124.71540;44.57485;,
 161.16870;133.55424;44.57485;,
 158.81985;142.39310;44.57485;,
 153.14951;146.05424;44.57485;,
 153.14951;133.55424;44.57485;,
 153.14951;133.55424;44.57485;,
 153.14951;133.55424;44.57485;,
 153.14951;133.55424;44.57485;,
 153.14951;133.55424;44.57485;,
 153.14951;133.55424;44.57485;,
 153.14951;133.55424;44.57485;,
 153.14951;133.55424;44.57485;,
 153.14951;66.08145;-110.27370;,
 147.47900;66.08145;-106.61255;,
 145.13029;66.08145;-97.77370;,
 147.47900;66.08145;-88.93490;,
 153.14951;66.08145;-85.27370;,
 158.81985;66.08145;-88.93490;,
 161.16870;66.08145;-97.77370;,
 153.14951;66.08145;-97.77370;,
 153.14951;66.35545;-97.77370;,
 158.81985;66.08145;-106.61255;,
 153.14951;66.08145;-110.27370;,
 153.14951;66.08145;-97.77370;,
 153.14951;66.35545;-97.77370;,
 158.81979;0.56170;-106.61255;,
 153.14951;0.56170;-97.77370;,
 153.14951;66.35545;-97.77370;,
 161.16870;0.56170;-97.77370;,
 153.14951;0.28770;-110.27370;,
 147.47900;0.28770;-106.61255;,
 153.14951;0.28770;-97.77370;,
 145.13029;0.28770;-97.77370;,
 153.14951;0.28770;-97.77370;,
 147.47900;0.28770;-88.93490;,
 153.14951;0.28770;-97.77370;,
 153.14951;0.28770;-85.27370;,
 153.14951;0.28770;-97.77370;,
 158.81979;0.28770;-88.93490;,
 153.14951;0.28770;-97.77370;,
 161.16870;0.28770;-97.77370;,
 153.14951;0.28770;-97.77370;,
 158.81979;0.28770;-106.61255;,
 153.14951;0.28770;-110.27370;,
 153.14951;0.28770;-97.77370;,
 153.14951;146.00439;44.71755;,
 147.47905;142.34325;44.71755;,
 148.36345;128.09840;70.23835;,
 153.14951;130.28349;72.42335;,
 145.13029;133.50439;44.71755;,
 146.38110;122.82335;64.96320;,
 147.47905;124.66555;44.71755;,
 148.36345;117.54825;59.68810;,
 153.14951;121.00435;44.71755;,
 153.14951;115.36315;57.50300;,
 158.81985;124.66555;44.71755;,
 157.93539;117.54825;59.68810;,
 161.16870;133.50439;44.71755;,
 159.91789;122.82335;64.96320;,
 158.81985;142.34325;44.71755;,
 157.93539;128.09840;70.23835;,
 153.14951;146.00439;44.71755;,
 153.14951;130.28349;72.42335;,
 147.47905;105.58645;94.58575;,
 153.14951;105.58645;98.24690;,
 145.13029;105.58645;85.74690;,
 147.47905;105.58645;76.90805;,
 153.14951;105.58645;73.24685;,
 158.81985;105.58645;76.90805;,
 161.16870;105.58645;85.74690;,
 158.81985;105.58645;94.58575;,
 153.14951;105.58645;98.24690;,
 147.47905;64.17565;111.14770;,
 153.14951;64.17565;114.80885;,
 145.13029;64.17565;102.30890;,
 147.47905;64.17565;93.47005;,
 153.14951;64.17565;89.80885;,
 158.81985;64.17565;93.47005;,
 161.16870;64.17565;102.30890;,
 158.81985;64.17565;111.14770;,
 153.14951;64.17565;114.80885;,
 153.14951;146.00439;44.44355;,
 147.47905;142.34325;44.44355;,
 145.13029;133.50439;44.44355;,
 147.47905;124.66555;44.44355;,
 153.14951;121.00435;44.44355;,
 158.81985;124.66555;44.44355;,
 161.16870;133.50439;44.44355;,
 153.14951;133.50439;44.44355;,
 153.14951;133.50439;44.71755;,
 158.81985;142.34325;44.44355;,
 153.14951;146.00439;44.44355;,
 153.14951;133.50439;44.44355;,
 153.14951;133.50439;44.71755;,
 153.14951;64.02860;89.65800;,
 147.47905;64.02860;93.31915;,
 147.47905;64.30255;93.31915;,
 153.14951;64.30255;89.65800;,
 145.13029;64.02860;102.15800;,
 145.13029;64.30255;102.15800;,
 147.47905;64.02860;110.99685;,
 147.47905;64.30255;110.99685;,
 153.14951;64.02860;114.65800;,
 153.14951;64.30255;114.65800;,
 158.81985;64.02860;110.99685;,
 158.81985;64.30255;110.99685;,
 161.16870;64.02860;102.15800;,
 153.14951;64.02860;102.15800;,
 153.14951;64.30255;102.15800;,
 161.16870;64.30255;102.15800;,
 158.81985;64.02860;93.31915;,
 153.14951;64.02860;89.65800;,
 153.14951;64.30255;89.65800;,
 158.81985;64.30255;93.31915;,
 153.14951;64.02860;102.15800;,
 153.14951;64.30255;102.15800;,
 158.81985;-1.49115;93.31915;,
 153.14951;-1.49115;102.15800;,
 153.14951;64.30255;102.15800;,
 161.16870;-1.49115;102.15800;,
 153.14951;-1.76510;89.65800;,
 147.47905;-1.76510;93.31915;,
 153.14951;-1.76515;102.15800;,
 145.13029;-1.76510;102.15800;,
 153.14951;-1.76515;102.15800;,
 147.47905;-1.76510;110.99685;,
 153.14951;-1.76515;102.15800;,
 153.14951;-1.76510;114.65800;,
 153.14951;-1.76515;102.15800;,
 158.81985;-1.76510;110.99685;,
 153.14951;-1.76515;102.15800;,
 161.16870;-1.76510;102.15800;,
 153.14951;-1.76515;102.15800;,
 158.81985;-1.76510;93.31915;,
 153.14951;-1.76510;89.65800;,
 153.14951;-1.76515;102.15800;,
 146.72604;80.84840;-92.19325;,
 148.52991;74.06020;-92.19325;,
 148.52991;74.06020;95.38880;,
 146.72604;80.84840;95.38880;,
 152.88475;71.24840;-92.19320;,
 152.88475;71.24840;95.38880;,
 157.23959;74.06020;-92.19325;,
 157.23959;74.06020;95.38880;,
 159.04355;80.84840;-92.19325;,
 159.04355;80.84840;95.38880;,
 157.23959;87.63665;-92.19325;,
 157.23959;87.63665;95.38880;,
 152.88475;90.44840;-92.19330;,
 152.88475;90.44840;95.38875;,
 148.52991;87.63665;-92.19325;,
 148.52991;87.63665;95.38880;,
 146.72604;80.84840;-92.19325;,
 146.72604;80.84840;95.38880;,
 152.88475;80.84840;-92.19325;,
 152.88475;80.84840;-92.19325;,
 152.88475;80.84840;-92.19325;,
 152.88475;80.84840;-92.19325;,
 152.88475;80.84840;-92.19325;,
 152.88475;80.84840;-92.19325;,
 152.88475;80.84840;-92.19325;,
 152.88475;80.84840;-92.19325;,
 152.88475;80.84840;95.38880;,
 152.88475;80.84840;95.38880;,
 152.88475;80.84840;95.38880;,
 152.88475;80.84840;95.38880;,
 152.88475;80.84840;95.38880;,
 152.88475;80.84840;95.38880;,
 152.88475;80.84840;95.38880;,
 152.88475;80.84840;95.38880;,
 -153.95164;66.35545;-110.27370;,
 -159.62199;66.35545;-106.61255;,
 -158.80975;106.38295;-88.96720;,
 -153.95164;108.60090;-91.18515;,
 -161.97079;66.35545;-97.77370;,
 -160.82205;101.02825;-83.61255;,
 -159.62199;66.35545;-88.93485;,
 -158.80975;95.67360;-78.25795;,
 -153.95164;66.35545;-85.27370;,
 -153.95164;93.45560;-76.04000;,
 -148.28114;66.35545;-88.93485;,
 -149.09351;95.67360;-78.25795;,
 -145.93240;66.35545;-97.77370;,
 -147.08121;101.02825;-83.61255;,
 -148.28114;66.35545;-106.61255;,
 -149.09351;106.38295;-88.96720;,
 -153.95164;66.35545;-110.27370;,
 -153.95164;108.60090;-91.18515;,
 -159.62199;130.65080;-66.37570;,
 -153.95164;134.31195;-66.37570;,
 -161.97079;121.81195;-66.37570;,
 -159.62199;112.97310;-66.37570;,
 -153.95164;109.31195;-66.37570;,
 -148.28114;112.97310;-66.37570;,
 -145.93240;121.81195;-66.37570;,
 -148.28114;130.65080;-66.37570;,
 -153.95164;134.31195;-66.37570;,
 -159.62199;142.39310;-39.39210;,
 -153.95164;146.05424;-39.39210;,
 -161.97079;133.55424;-39.39210;,
 -159.62199;124.71540;-39.39210;,
 -153.95164;121.05425;-39.39210;,
 -148.28114;124.71540;-39.39210;,
 -145.93240;133.55424;-39.39210;,
 -148.28114;142.39310;-39.39210;,
 -153.95164;146.05424;-39.39210;,
 -159.62199;142.39310;2.59135;,
 -153.95164;146.05424;2.59135;,
 -161.97079;133.55424;2.59135;,
 -159.62199;124.71540;2.59135;,
 -153.95164;121.05425;2.59135;,
 -148.28114;124.71540;2.59135;,
 -145.93240;133.55424;2.59135;,
 -148.28114;142.39310;2.59135;,
 -153.95164;146.05424;2.59135;,
 -159.62199;142.39310;44.57485;,
 -153.95164;146.05424;44.57485;,
 -161.97079;133.55424;44.57485;,
 -159.62199;124.71540;44.57485;,
 -153.95164;121.05425;44.57485;,
 -148.28114;124.71540;44.57485;,
 -145.93240;133.55424;44.57485;,
 -148.28114;142.39310;44.57485;,
 -153.95164;146.05424;44.57485;,
 -153.95164;133.55424;44.57485;,
 -153.95164;133.55424;44.57485;,
 -153.95164;133.55424;44.57485;,
 -153.95164;133.55424;44.57485;,
 -153.95164;133.55424;44.57485;,
 -153.95164;133.55424;44.57485;,
 -153.95164;133.55424;44.57485;,
 -153.95164;133.55424;44.57485;,
 -153.95164;66.08145;-110.27370;,
 -159.62199;66.08145;-106.61255;,
 -161.97079;66.08145;-97.77370;,
 -159.62199;66.08145;-88.93485;,
 -153.95164;66.08145;-85.27370;,
 -148.28114;66.08145;-88.93485;,
 -145.93240;66.08145;-97.77370;,
 -153.95164;66.08145;-97.77370;,
 -153.95164;66.35545;-97.77370;,
 -148.28114;66.08145;-106.61255;,
 -153.95164;66.08145;-110.27370;,
 -153.95164;66.08145;-97.77370;,
 -153.95164;66.35545;-97.77370;,
 -148.28120;0.56170;-106.61255;,
 -153.95164;0.56170;-97.77370;,
 -153.95164;66.35545;-97.77370;,
 -145.93240;0.56170;-97.77370;,
 -153.95164;0.28770;-110.27370;,
 -159.62199;0.28770;-106.61255;,
 -153.95164;0.28770;-97.77370;,
 -161.97079;0.28770;-97.77370;,
 -153.95164;0.28770;-97.77370;,
 -159.62199;0.28770;-88.93485;,
 -153.95164;0.28770;-97.77370;,
 -153.95164;0.28770;-85.27370;,
 -153.95164;0.28770;-97.77370;,
 -148.28120;0.28770;-88.93485;,
 -153.95164;0.28770;-97.77370;,
 -145.93240;0.28770;-97.77370;,
 -153.95164;0.28770;-97.77370;,
 -148.28120;0.28770;-106.61255;,
 -153.95164;0.28770;-110.27370;,
 -153.95164;0.28770;-97.77370;,
 -153.95164;146.00439;44.71760;,
 -159.62199;142.34325;44.71760;,
 -158.73746;128.09840;70.23835;,
 -153.95164;130.28349;72.42335;,
 -161.97079;133.50439;44.71760;,
 -160.71996;122.82335;64.96320;,
 -159.62199;124.66555;44.71760;,
 -158.73746;117.54825;59.68810;,
 -153.95164;121.00435;44.71760;,
 -153.95164;115.36315;57.50305;,
 -148.28114;124.66555;44.71760;,
 -149.16565;117.54825;59.68810;,
 -145.93240;133.50439;44.71760;,
 -147.18320;122.82335;64.96320;,
 -148.28114;142.34325;44.71760;,
 -149.16565;128.09840;70.23835;,
 -153.95164;146.00439;44.71760;,
 -153.95164;130.28349;72.42335;,
 -159.62199;105.58645;94.58575;,
 -153.95164;105.58645;98.24690;,
 -161.97079;105.58645;85.74690;,
 -159.62199;105.58645;76.90805;,
 -153.95164;105.58645;73.24690;,
 -148.28114;105.58645;76.90805;,
 -145.93240;105.58645;85.74690;,
 -148.28114;105.58645;94.58575;,
 -153.95164;105.58645;98.24690;,
 -159.62199;64.17565;111.14775;,
 -153.95164;64.17565;114.80890;,
 -161.97079;64.17565;102.30890;,
 -159.62199;64.17565;93.47005;,
 -153.95164;64.17565;89.80890;,
 -148.28114;64.17565;93.47005;,
 -145.93240;64.17565;102.30890;,
 -148.28114;64.17565;111.14775;,
 -153.95164;64.17565;114.80890;,
 -153.95164;146.00439;44.44360;,
 -159.62199;142.34325;44.44360;,
 -161.97079;133.50439;44.44360;,
 -159.62199;124.66555;44.44360;,
 -153.95164;121.00435;44.44360;,
 -148.28114;124.66555;44.44360;,
 -145.93240;133.50439;44.44360;,
 -153.95164;133.50439;44.44360;,
 -153.95164;133.50439;44.71760;,
 -148.28114;142.34325;44.44360;,
 -153.95164;146.00439;44.44360;,
 -153.95164;133.50439;44.44360;,
 -153.95164;133.50439;44.71760;,
 -153.95164;64.02860;89.65800;,
 -159.62199;64.02860;93.31920;,
 -159.62199;64.30255;93.31920;,
 -153.95164;64.30255;89.65800;,
 -161.97079;64.02860;102.15800;,
 -161.97079;64.30255;102.15800;,
 -159.62199;64.02860;110.99685;,
 -159.62199;64.30255;110.99685;,
 -153.95164;64.02860;114.65800;,
 -153.95164;64.30255;114.65800;,
 -148.28114;64.02860;110.99685;,
 -148.28114;64.30255;110.99685;,
 -145.93240;64.02860;102.15800;,
 -153.95164;64.02860;102.15800;,
 -153.95164;64.30255;102.15800;,
 -145.93240;64.30255;102.15800;,
 -148.28114;64.02860;93.31920;,
 -153.95164;64.02860;89.65800;,
 -153.95164;64.30255;89.65800;,
 -148.28114;64.30255;93.31920;,
 -153.95164;64.02860;102.15800;,
 -153.95164;64.30255;102.15800;,
 -148.28114;-1.49115;93.31920;,
 -153.95164;-1.49115;102.15800;,
 -153.95164;64.30255;102.15800;,
 -145.93240;-1.49115;102.15800;,
 -153.95164;-1.76510;89.65800;,
 -159.62199;-1.76510;93.31920;,
 -153.95164;-1.76515;102.15800;,
 -161.97079;-1.76510;102.15800;,
 -153.95164;-1.76515;102.15800;,
 -159.62199;-1.76510;110.99685;,
 -153.95164;-1.76515;102.15800;,
 -153.95164;-1.76510;114.65800;,
 -153.95164;-1.76515;102.15800;,
 -148.28114;-1.76510;110.99685;,
 -153.95164;-1.76515;102.15800;,
 -145.93240;-1.76510;102.15800;,
 -153.95164;-1.76515;102.15800;,
 -148.28114;-1.76510;93.31920;,
 -153.95164;-1.76510;89.65800;,
 -153.95164;-1.76515;102.15800;,
 -160.37505;80.84840;-92.19325;,
 -158.57120;74.06020;-92.19325;,
 -158.57120;74.06020;95.38880;,
 -160.37505;80.84840;95.38880;,
 -154.21629;71.24840;-92.19320;,
 -154.21629;71.24840;95.38885;,
 -149.86145;74.06020;-92.19325;,
 -149.86145;74.06020;95.38880;,
 -148.05756;80.84840;-92.19325;,
 -148.05756;80.84840;95.38880;,
 -149.86145;87.63665;-92.19325;,
 -149.86145;87.63665;95.38880;,
 -154.21629;90.44840;-92.19325;,
 -154.21629;90.44840;95.38880;,
 -158.57120;87.63665;-92.19325;,
 -158.57120;87.63665;95.38880;,
 -160.37505;80.84840;-92.19325;,
 -160.37505;80.84840;95.38880;,
 -154.21629;80.84840;-92.19325;,
 -154.21629;80.84840;-92.19325;,
 -154.21629;80.84840;-92.19325;,
 -154.21629;80.84840;-92.19325;,
 -154.21629;80.84840;-92.19325;,
 -154.21629;80.84840;-92.19325;,
 -154.21629;80.84840;-92.19325;,
 -154.21629;80.84840;-92.19325;,
 -154.21629;80.84840;95.38880;,
 -154.21629;80.84840;95.38880;,
 -154.21629;80.84840;95.38880;,
 -154.21629;80.84840;95.38880;,
 -154.21629;80.84840;95.38880;,
 -154.21629;80.84840;95.38880;,
 -154.21629;80.84840;95.38880;,
 -154.21629;80.84840;95.38880;,
 -162.50830;51.64550;86.01020;,
 -162.50830;51.64550;-82.81465;,
 -162.50830;26.64550;-82.81465;,
 -162.50830;26.64550;86.01020;,
 -162.50830;51.64550;-82.81465;,
 158.25920;51.64550;-82.81465;,
 158.25920;26.64550;-82.81465;,
 -162.50830;26.64550;-82.81465;,
 158.25920;51.64550;-82.81465;,
 158.25920;51.64550;86.01020;,
 158.25920;26.64550;86.01020;,
 158.25920;26.64550;-82.81465;,
 158.25920;51.64550;86.01020;,
 -162.50830;51.64550;86.01020;,
 -162.50830;26.64550;86.01020;,
 158.25920;26.64550;86.01020;,
 -162.50830;51.64550;-82.81465;,
 -162.50830;51.64550;86.01020;,
 -162.50830;26.64550;86.01020;,
 -162.50830;26.64550;-82.81465;;
 
 332;
 4;0,1,2,3;,
 4;1,4,5,2;,
 4;4,6,7,5;,
 4;6,8,9,7;,
 4;8,10,11,9;,
 4;10,12,13,11;,
 4;12,14,15,13;,
 4;14,16,17,15;,
 4;3,2,18,19;,
 4;2,5,20,18;,
 4;5,7,21,20;,
 4;7,9,22,21;,
 4;9,11,23,22;,
 4;11,13,24,23;,
 4;13,15,25,24;,
 4;15,17,26,25;,
 4;19,18,27,28;,
 4;18,20,29,27;,
 4;20,21,30,29;,
 4;21,22,31,30;,
 4;22,23,32,31;,
 4;23,24,33,32;,
 4;24,25,34,33;,
 4;25,26,35,34;,
 4;28,27,36,37;,
 4;27,29,38,36;,
 4;29,30,39,38;,
 4;30,31,40,39;,
 4;31,32,41,40;,
 4;32,33,42,41;,
 4;33,34,43,42;,
 4;34,35,44,43;,
 4;37,36,45,46;,
 4;36,38,47,45;,
 4;38,39,48,47;,
 4;39,40,49,48;,
 4;40,41,50,49;,
 4;41,42,51,50;,
 4;42,43,52,51;,
 4;43,44,53,52;,
 3;54,46,45;,
 3;55,45,47;,
 3;56,47,48;,
 3;57,48,49;,
 3;58,49,50;,
 3;59,50,51;,
 3;60,51,52;,
 3;61,52,53;,
 4;62,63,1,0;,
 4;63,64,4,1;,
 4;64,65,6,4;,
 4;65,66,8,6;,
 4;66,67,10,8;,
 4;68,69,70,12;,
 4;67,68,12,10;,
 4;71,72,16,14;,
 4;73,71,14,74;,
 4;75,76,77,14;,
 4;78,75,14,12;,
 4;76,78,12,77;,
 3;76,75,78;,
 4;79,80,63,62;,
 3;81,80,79;,
 4;80,82,64,63;,
 3;83,82,80;,
 4;82,84,65,64;,
 3;85,84,82;,
 4;84,86,66,65;,
 3;87,86,84;,
 4;86,88,67,66;,
 3;89,88,86;,
 4;90,91,69,68;,
 4;88,90,68,67;,
 3;91,90,88;,
 4;92,93,72,71;,
 4;94,92,71,73;,
 3;94,93,92;,
 4;95,96,97,98;,
 4;96,99,100,97;,
 4;99,101,102,100;,
 4;101,103,104,102;,
 4;103,105,106,104;,
 4;105,107,108,106;,
 4;107,109,110,108;,
 4;109,111,112,110;,
 4;98,97,113,114;,
 4;97,100,115,113;,
 4;100,102,116,115;,
 4;102,104,117,116;,
 4;104,106,118,117;,
 4;106,108,119,118;,
 4;108,110,120,119;,
 4;110,112,121,120;,
 4;114,113,122,123;,
 4;113,115,124,122;,
 4;115,116,125,124;,
 4;116,117,126,125;,
 4;117,118,127,126;,
 4;118,119,128,127;,
 4;119,120,129,128;,
 4;120,121,130,129;,
 4;131,132,96,95;,
 4;132,133,99,96;,
 4;133,134,101,99;,
 4;134,135,103,101;,
 4;135,136,105,103;,
 4;137,138,139,107;,
 4;136,137,107,105;,
 4;140,141,111,109;,
 4;142,140,109,143;,
 4;144,145,146,147;,
 4;145,148,149,146;,
 4;148,150,151,149;,
 4;150,152,153,151;,
 4;152,154,155,153;,
 4;156,157,158,159;,
 4;154,156,159,155;,
 4;160,161,162,163;,
 4;164,160,163,165;,
 4;166,167,168,163;,
 4;169,166,163,159;,
 4;167,169,159,168;,
 3;167,166,169;,
 4;170,171,145,144;,
 3;172,171,170;,
 4;171,173,148,145;,
 3;174,173,171;,
 4;173,175,150,148;,
 3;176,175,173;,
 4;175,177,152,150;,
 3;178,177,175;,
 4;177,179,154,152;,
 3;180,179,177;,
 4;181,182,157,156;,
 4;179,181,156,154;,
 3;182,181,179;,
 4;183,184,161,160;,
 4;185,183,160,164;,
 3;185,184,183;,
 4;186,187,188,189;,
 4;187,190,191,188;,
 4;190,192,193,191;,
 4;192,194,195,193;,
 4;194,196,197,195;,
 4;196,198,199,197;,
 4;198,200,201,199;,
 4;200,202,203,201;,
 3;204,187,186;,
 3;205,190,187;,
 3;206,192,190;,
 3;207,194,192;,
 3;208,196,194;,
 3;209,198,196;,
 3;210,200,198;,
 3;211,202,200;,
 3;212,189,188;,
 3;213,188,191;,
 3;214,191,193;,
 3;215,193,195;,
 3;216,195,197;,
 3;217,197,199;,
 3;218,199,201;,
 3;219,201,203;,
 4;220,221,222,223;,
 4;221,224,225,222;,
 4;224,226,227,225;,
 4;226,228,229,227;,
 4;228,230,231,229;,
 4;230,232,233,231;,
 4;232,234,235,233;,
 4;234,236,237,235;,
 4;223,222,238,239;,
 4;222,225,240,238;,
 4;225,227,241,240;,
 4;227,229,242,241;,
 4;229,231,243,242;,
 4;231,233,244,243;,
 4;233,235,245,244;,
 4;235,237,246,245;,
 4;239,238,247,248;,
 4;238,240,249,247;,
 4;240,241,250,249;,
 4;241,242,251,250;,
 4;242,243,252,251;,
 4;243,244,253,252;,
 4;244,245,254,253;,
 4;245,246,255,254;,
 4;248,247,256,257;,
 4;247,249,258,256;,
 4;249,250,259,258;,
 4;250,251,260,259;,
 4;251,252,261,260;,
 4;252,253,262,261;,
 4;253,254,263,262;,
 4;254,255,264,263;,
 4;257,256,265,266;,
 4;256,258,267,265;,
 4;258,259,268,267;,
 4;259,260,269,268;,
 4;260,261,270,269;,
 4;261,262,271,270;,
 4;262,263,272,271;,
 4;263,264,273,272;,
 3;274,266,265;,
 3;275,265,267;,
 3;276,267,268;,
 3;277,268,269;,
 3;278,269,270;,
 3;279,270,271;,
 3;280,271,272;,
 3;281,272,273;,
 4;282,283,221,220;,
 4;283,284,224,221;,
 4;284,285,226,224;,
 4;285,286,228,226;,
 4;286,287,230,228;,
 4;288,289,290,232;,
 4;287,288,232,230;,
 4;291,292,236,234;,
 4;293,291,234,294;,
 4;295,296,297,234;,
 4;298,295,234,232;,
 4;296,298,232,297;,
 3;296,295,298;,
 4;299,300,283,282;,
 3;301,300,299;,
 4;300,302,284,283;,
 3;303,302,300;,
 4;302,304,285,284;,
 3;305,304,302;,
 4;304,306,286,285;,
 3;307,306,304;,
 4;306,308,287,286;,
 3;309,308,306;,
 4;310,311,289,288;,
 4;308,310,288,287;,
 3;311,310,308;,
 4;312,313,292,291;,
 4;314,312,291,293;,
 3;314,313,312;,
 4;315,316,317,318;,
 4;316,319,320,317;,
 4;319,321,322,320;,
 4;321,323,324,322;,
 4;323,325,326,324;,
 4;325,327,328,326;,
 4;327,329,330,328;,
 4;329,331,332,330;,
 4;318,317,333,334;,
 4;317,320,335,333;,
 4;320,322,336,335;,
 4;322,324,337,336;,
 4;324,326,338,337;,
 4;326,328,339,338;,
 4;328,330,340,339;,
 4;330,332,341,340;,
 4;334,333,342,343;,
 4;333,335,344,342;,
 4;335,336,345,344;,
 4;336,337,346,345;,
 4;337,338,347,346;,
 4;338,339,348,347;,
 4;339,340,349,348;,
 4;340,341,350,349;,
 4;351,352,316,315;,
 4;352,353,319,316;,
 4;353,354,321,319;,
 4;354,355,323,321;,
 4;355,356,325,323;,
 4;357,358,359,327;,
 4;356,357,327,325;,
 4;360,361,331,329;,
 4;362,360,329,363;,
 4;364,365,366,367;,
 4;365,368,369,366;,
 4;368,370,371,369;,
 4;370,372,373,371;,
 4;372,374,375,373;,
 4;376,377,378,379;,
 4;374,376,379,375;,
 4;380,381,382,383;,
 4;384,380,383,385;,
 4;386,387,388,383;,
 4;389,386,383,379;,
 4;387,389,379,388;,
 3;387,386,389;,
 4;390,391,365,364;,
 3;392,391,390;,
 4;391,393,368,365;,
 3;394,393,391;,
 4;393,395,370,368;,
 3;396,395,393;,
 4;395,397,372,370;,
 3;398,397,395;,
 4;397,399,374,372;,
 3;400,399,397;,
 4;401,402,377,376;,
 4;399,401,376,374;,
 3;402,401,399;,
 4;403,404,381,380;,
 4;405,403,380,384;,
 3;405,404,403;,
 4;406,407,408,409;,
 4;407,410,411,408;,
 4;410,412,413,411;,
 4;412,414,415,413;,
 4;414,416,417,415;,
 4;416,418,419,417;,
 4;418,420,421,419;,
 4;420,422,423,421;,
 3;424,407,406;,
 3;425,410,407;,
 3;426,412,410;,
 3;427,414,412;,
 3;428,416,414;,
 3;429,418,416;,
 3;430,420,418;,
 3;431,422,420;,
 3;432,409,408;,
 3;433,408,411;,
 3;434,411,413;,
 3;435,413,415;,
 3;436,415,417;,
 3;437,417,419;,
 3;438,419,421;,
 3;439,421,423;,
 4;440,441,442,443;,
 4;444,445,446,447;,
 4;448,449,450,451;,
 4;452,453,454,455;,
 4;452,445,456,457;,
 4;458,459,446,455;;
 
 MeshMaterialList {
  3;
  332;
  0,
  0,
  0,
  0,
  0,
  0,
  0,
  0,
  0,
  0,
  0,
  0,
  0,
  0,
  0,
  0,
  0,
  0,
  0,
  0,
  0,
  0,
  0,
  0,
  0,
  0,
  0,
  0,
  0,
  0,
  0,
  0,
  0,
  0,
  0,
  0,
  0,
  0,
  0,
  0,
  0,
  0,
  0,
  0,
  0,
  0,
  0,
  0,
  0,
  0,
  0,
  0,
  0,
  0,
  0,
  0,
  0,
  0,
  0,
  0,
  0,
  0,
  0,
  0,
  0,
  0,
  0,
  0,
  0,
  0,
  0,
  0,
  0,
  0,
  0,
  0,
  0,
  0,
  0,
  0,
  0,
  0,
  0,
  0,
  0,
  0,
  0,
  0,
  0,
  0,
  0,
  0,
  0,
  0,
  0,
  0,
  0,
  0,
  0,
  0,
  0,
  0,
  0,
  0,
  0,
  0,
  0,
  0,
  0,
  0,
  0,
  0,
  0,
  0,
  0,
  0,
  0,
  0,
  0,
  0,
  0,
  0,
  0,
  0,
  0,
  0,
  0,
  0,
  0,
  0,
  0,
  0,
  0,
  0,
  0,
  0,
  0,
  0,
  0,
  0,
  0,
  0,
  0,
  0,
  0,
  0,
  0,
  0,
  0,
  0,
  0,
  0,
  0,
  0,
  0,
  0,
  0,
  0,
  0,
  0,
  0,
  0,
  0,
  0,
  0,
  0,
  0,
  0,
  0,
  0,
  0,
  0,
  0,
  0,
  0,
  0,
  0,
  0,
  0,
  0,
  0,
  0,
  0,
  0,
  0,
  0,
  0,
  0,
  0,
  0,
  0,
  0,
  0,
  0,
  0,
  0,
  0,
  0,
  0,
  0,
  0,
  0,
  0,
  0,
  0,
  0,
  0,
  0,
  0,
  0,
  0,
  0,
  0,
  0,
  0,
  0,
  0,
  0,
  0,
  0,
  0,
  0,
  0,
  0,
  0,
  0,
  0,
  0,
  0,
  0,
  0,
  0,
  0,
  0,
  0,
  0,
  0,
  0,
  0,
  0,
  0,
  0,
  0,
  0,
  0,
  0,
  0,
  0,
  0,
  0,
  0,
  0,
  0,
  0,
  0,
  0,
  0,
  0,
  0,
  0,
  0,
  0,
  0,
  0,
  0,
  0,
  0,
  0,
  0,
  0,
  0,
  0,
  0,
  0,
  0,
  0,
  0,
  0,
  0,
  0,
  0,
  0,
  0,
  0,
  0,
  0,
  0,
  0,
  0,
  0,
  0,
  0,
  0,
  0,
  0,
  0,
  0,
  0,
  0,
  0,
  0,
  0,
  0,
  0,
  0,
  0,
  0,
  0,
  0,
  0,
  0,
  0,
  0,
  0,
  0,
  0,
  0,
  0,
  0,
  0,
  0,
  0,
  0,
  0,
  0,
  0,
  2,
  2,
  2,
  2,
  2,
  2;;
  Material {
   0.592800;0.094400;0.225600;1.000000;;
   5.000000;
   0.000000;0.000000;0.000000;;
   0.000000;0.000000;0.000000;;
  }
  Material {
   0.800000;0.800000;0.000000;1.000000;;
   5.000000;
   0.000000;0.000000;0.000000;;
   0.000000;0.000000;0.000000;;
  }
  Material {
   1.000000;1.000000;1.000000;1.000000;;
   0.000000;
   0.000000;0.000000;0.000000;;
   0.000000;0.000000;0.000000;;
  }
 }
 MeshNormals {
  372;
  -0.479603;0.000000;-0.877486;,
  -0.535943;0.180146;-0.824811;,
  -0.807214;0.131153;-0.575503;,
  -0.999880;0.014474;0.005453;,
  -0.804044;-0.095351;0.586875;,
  -0.532525;-0.141109;0.834569;,
  0.804043;-0.095351;0.586876;,
  0.999880;0.014475;0.005452;,
  0.807213;0.131153;-0.575505;,
  -0.194166;0.589582;-0.784023;,
  -0.780890;0.343905;-0.521478;,
  -0.999933;0.008928;-0.007332;,
  -0.780297;-0.288224;0.555035;,
  -0.190823;-0.472384;0.860488;,
  0.780296;-0.288225;0.555036;,
  0.999933;0.008928;-0.007332;,
  0.780889;0.343906;-0.521479;,
  0.000006;0.815545;-0.578693;,
  -0.784907;0.497888;-0.368821;,
  -0.999901;-0.005674;-0.012833;,
  -0.786410;-0.480248;0.388485;,
  0.000006;-0.761666;0.647969;,
  0.786409;-0.480250;0.388486;,
  0.999902;-0.005674;-0.012833;,
  0.784906;0.497889;-0.368822;,
  -0.534108;0.827243;-0.174351;,
  -0.805834;0.579240;-0.122933;,
  -1.000000;-0.000000;0.000000;,
  -0.805834;-0.579240;0.122933;,
  -0.534108;-0.827243;0.174351;,
  0.805833;-0.579241;0.122933;,
  1.000000;-0.000000;0.000000;,
  0.805833;0.579241;-0.122933;,
  -0.542416;0.840110;0.000000;,
  -0.808848;0.588017;0.000000;,
  -1.000000;-0.000000;0.000000;,
  -0.808848;-0.588017;0.000000;,
  -0.542416;-0.840110;0.000000;,
  0.808848;-0.588018;-0.000000;,
  1.000000;-0.000000;-0.000000;,
  0.808848;0.588018;0.000000;,
  -0.542417;0.840109;0.000000;,
  -0.808848;0.588017;0.000000;,
  -1.000000;-0.000000;0.000001;,
  -0.808848;-0.588017;0.000000;,
  -0.542417;-0.840109;0.000000;,
  0.808848;-0.588018;-0.000000;,
  0.000000;0.000000;1.000000;,
  0.000000;0.000000;-1.000000;,
  -0.542416;0.000000;-0.840110;,
  -0.808849;0.000000;-0.588017;,
  -1.000000;0.000000;0.000001;,
  -0.808850;0.000000;0.588015;,
  -0.542421;0.000000;0.840107;,
  0.808849;-0.000000;0.588016;,
  0.542427;-0.000000;-0.840103;,
  -0.841689;0.000000;-0.539962;,
  0.966456;-0.000000;-0.256831;,
  0.000000;-1.000000;-0.000000;,
  -0.542416;0.000000;-0.840110;,
  -0.808850;0.000000;0.588015;,
  0.808849;-0.000000;0.588016;,
  0.542428;-0.000000;-0.840102;,
  0.000000;1.000000;0.000000;,
  -0.539334;0.812882;0.219868;,
  -0.810349;0.562874;0.162810;,
  -0.999647;-0.011199;0.024089;,
  -0.805540;-0.581474;-0.113986;,
  -0.535748;-0.825962;-0.175388;,
  0.805539;-0.581475;-0.113986;,
  0.994132;-0.103340;0.031979;,
  0.725541;0.653466;0.215809;,
  -0.192079;0.767344;0.611791;,
  -0.777562;0.506564;0.372546;,
  -0.999836;0.003595;0.017762;,
  -0.779612;-0.545188;-0.308181;,
  -0.190496;-0.845163;-0.499411;,
  0.779611;-0.545189;-0.308182;,
  0.999836;0.003594;0.017763;,
  0.777560;0.506565;0.372547;,
  0.000005;0.568804;0.822473;,
  -0.787090;0.361939;0.499490;,
  -0.999868;0.014881;-0.006537;,
  -0.789250;-0.377126;-0.484624;,
  0.000005;-0.634055;-0.773288;,
  0.789249;-0.377126;-0.484625;,
  0.999868;0.014881;-0.006537;,
  0.787089;0.361940;0.499490;,
  -0.514172;0.318498;0.796358;,
  -0.793200;0.226135;0.565417;,
  -1.000000;0.000000;0.000000;,
  -0.793202;-0.226134;-0.565415;,
  -0.514176;-0.318498;-0.796355;,
  0.793202;-0.226134;-0.565415;,
  1.000000;0.000000;0.000000;,
  0.793200;0.226135;0.565418;,
  -0.542419;0.840108;0.000000;,
  -0.808848;0.588018;0.000000;,
  -1.000000;-0.000000;0.000000;,
  -0.808850;-0.588015;0.000000;,
  -0.542424;-0.840105;0.000000;,
  0.808850;-0.588015;-0.000000;,
  0.542426;0.840104;0.000000;,
  -0.479602;0.000000;-0.877486;,
  -0.542419;0.000000;-0.840108;,
  -0.808848;0.000000;-0.588017;,
  -1.000000;0.000000;-0.000000;,
  -0.808848;0.000000;0.588018;,
  -0.542419;0.000000;0.840108;,
  0.808848;0.000000;0.588018;,
  0.808848;0.000000;-0.588018;,
  -0.542419;0.000000;-0.840108;,
  -1.000000;0.000000;-0.000000;,
  -0.542419;0.000000;0.840108;,
  0.808848;0.000000;0.588018;,
  0.542427;0.000000;-0.840103;,
  -0.841688;0.000000;-0.539965;,
  0.966457;0.000000;-0.256828;,
  -0.000001;-1.000000;0.000000;,
  -1.000000;0.000000;-0.000000;,
  -0.808848;0.000000;0.588018;,
  -0.542419;0.000000;0.840108;,
  0.808848;0.000000;0.588018;,
  0.542427;0.000000;-0.840103;,
  0.000000;-0.000003;-1.000000;,
  -1.000000;-0.000001;0.000000;,
  -0.808851;-0.588014;0.000000;,
  -0.542431;-0.840101;0.000000;,
  0.808847;-0.588019;-0.000000;,
  1.000000;-0.000001;-0.000000;,
  0.808845;0.588021;0.000000;,
  0.542423;0.840105;0.000000;,
  -0.808849;0.588016;0.000000;,
  0.000000;0.000001;1.000000;,
  0.532536;-0.141108;0.834562;,
  0.511969;-0.279389;0.812299;,
  0.535953;0.180145;-0.824804;,
  0.511940;0.354394;-0.782510;,
  0.534118;-0.827237;0.174349;,
  0.534118;0.827237;-0.174349;,
  0.542426;-0.840104;-0.000000;,
  0.542432;-0.000000;0.840100;,
  0.966456;-0.000000;0.256830;,
  0.841689;-0.000000;0.539963;,
  0.841688;0.000000;0.539964;,
  0.479602;0.000000;0.877486;,
  0.542434;-0.000000;0.840099;,
  0.966456;-0.000000;0.256832;,
  0.841689;-0.000000;0.539962;,
  0.535757;-0.825957;-0.175386;,
  0.512471;-0.786205;-0.345334;,
  0.539342;0.812877;0.219867;,
  0.509781;0.745744;0.428940;,
  0.514184;-0.318496;-0.796351;,
  0.514179;0.318496;0.796354;,
  0.542431;-0.840100;-0.000000;,
  0.966457;-0.256828;-0.000000;,
  0.841688;-0.539964;-0.000000;,
  0.542426;0.000000;0.840104;,
  0.542426;0.000000;0.840104;,
  0.966457;0.000000;0.256827;,
  1.000000;0.000000;-0.000000;,
  0.841688;0.000000;0.539965;,
  0.841688;0.000000;0.539965;,
  0.479602;0.000000;0.877486;,
  -0.000004;-1.000000;-0.000003;,
  0.000000;-1.000000;-0.000004;,
  -0.000006;-1.000000;-0.000000;,
  -0.000004;-1.000000;0.000003;,
  0.000000;-1.000000;0.000004;,
  0.542426;0.000000;0.840104;,
  0.000004;-1.000000;0.000003;,
  0.966457;0.000000;0.256827;,
  0.000006;-1.000000;0.000002;,
  0.841688;0.000000;0.539965;,
  0.000003;-1.000000;-0.000004;,
  0.542431;-0.840101;-0.000000;,
  -0.542423;0.840105;0.000000;,
  0.000004;-0.000003;-1.000000;,
  0.000000;-0.000006;-1.000000;,
  -0.000004;-0.000003;-1.000000;,
  0.000004;-0.000002;-1.000000;,
  0.000000;-0.000005;-1.000000;,
  -0.000004;-0.000002;-1.000000;,
  -0.000004;0.000003;1.000000;,
  0.000000;0.000006;1.000000;,
  0.000004;0.000003;1.000000;,
  -0.479597;0.000000;-0.877489;,
  -0.535952;0.180145;-0.824805;,
  -0.807214;0.131153;-0.575503;,
  -0.999880;0.014474;0.005452;,
  -0.804043;-0.095351;0.586876;,
  -0.532531;-0.141109;0.834565;,
  0.804041;-0.095351;0.586878;,
  0.999880;0.014475;0.005452;,
  0.807213;0.131154;-0.575505;,
  -0.194175;0.589581;-0.784022;,
  -0.780890;0.343906;-0.521479;,
  -0.999933;0.008928;-0.007331;,
  -0.780295;-0.288225;0.555037;,
  -0.190831;-0.472384;0.860487;,
  0.780294;-0.288225;0.555038;,
  0.999933;0.008928;-0.007332;,
  0.780888;0.343907;-0.521481;,
  -0.000005;0.815545;-0.578694;,
  -0.784907;0.497888;-0.368821;,
  -0.999902;-0.005674;-0.012831;,
  -0.786409;-0.480249;0.388486;,
  -0.000004;-0.761667;0.647969;,
  0.786409;-0.480250;0.388486;,
  0.999901;-0.005675;-0.012833;,
  0.784906;0.497889;-0.368822;,
  -0.534118;0.827237;-0.174349;,
  -0.805835;0.579239;-0.122932;,
  -1.000000;-0.000000;0.000000;,
  -0.805835;-0.579239;0.122932;,
  -0.534118;-0.827237;0.174349;,
  0.805833;-0.579241;0.122933;,
  1.000000;-0.000000;0.000000;,
  0.805833;0.579241;-0.122933;,
  -0.542426;0.840104;0.000000;,
  -0.808849;0.588016;0.000000;,
  -1.000000;-0.000000;0.000000;,
  -0.808849;-0.588016;0.000000;,
  -0.542426;-0.840104;0.000000;,
  0.808847;-0.588018;-0.000000;,
  1.000000;-0.000000;-0.000000;,
  0.808848;0.588018;0.000000;,
  -1.000000;-0.000000;0.000000;,
  0.808848;-0.588018;-0.000000;,
  0.808848;0.588018;0.000000;,
  0.000000;0.000000;1.000000;,
  0.000000;0.000000;-1.000000;,
  -0.542426;0.000000;-0.840104;,
  -0.808849;0.000000;-0.588016;,
  -1.000000;0.000000;0.000000;,
  -0.808850;0.000000;0.588016;,
  -0.542427;0.000000;0.840103;,
  0.808848;-0.000000;0.588018;,
  0.542417;-0.000000;-0.840110;,
  -0.841683;0.000000;-0.539972;,
  0.966459;-0.000000;-0.256820;,
  0.000000;-1.000000;-0.000000;,
  -0.542426;0.000000;-0.840104;,
  -0.808849;0.000000;-0.588016;,
  -0.542427;0.000000;0.840103;,
  0.808848;-0.000000;0.588018;,
  0.542418;-0.000000;-0.840109;,
  0.000000;1.000000;0.000000;,
  -0.539344;0.812875;0.219867;,
  -0.810350;0.562872;0.162812;,
  -0.999647;-0.011200;0.024090;,
  -0.805541;-0.581474;-0.113985;,
  -0.535757;-0.825956;-0.175385;,
  0.805539;-0.581476;-0.113986;,
  0.994132;-0.103336;0.031980;,
  0.725537;0.653469;0.215810;,
  -0.192092;0.767342;0.611790;,
  -0.777562;0.506563;0.372546;,
  -0.999836;0.003595;0.017764;,
  -0.779612;-0.545188;-0.308181;,
  -0.190509;-0.845160;-0.499410;,
  0.779610;-0.545190;-0.308182;,
  0.999836;0.003595;0.017763;,
  0.777560;0.506566;0.372548;,
  -0.000007;0.568805;0.822473;,
  -0.787091;0.361939;0.499488;,
  -0.999868;0.014882;-0.006538;,
  -0.789249;-0.377126;-0.484625;,
  -0.000007;-0.634054;-0.773289;,
  0.789248;-0.377127;-0.484627;,
  0.999868;0.014882;-0.006537;,
  0.787089;0.361940;0.499490;,
  -0.514179;0.318497;0.796354;,
  -0.793201;0.226135;0.565416;,
  -1.000000;0.000000;0.000000;,
  -0.793201;-0.226135;-0.565416;,
  -0.514178;-0.318497;-0.796354;,
  0.793200;-0.226135;-0.565417;,
  1.000000;0.000000;0.000000;,
  0.793200;0.226135;0.565417;,
  -0.542426;0.840104;0.000000;,
  -1.000000;-0.000000;0.000000;,
  -0.808851;-0.588013;0.000000;,
  -0.542431;-0.840100;0.000000;,
  0.808849;-0.588016;-0.000000;,
  0.542416;0.840110;0.000000;,
  -0.479595;0.000000;-0.877490;,
  -0.542431;0.000000;-0.840100;,
  -0.808851;0.000000;-0.588014;,
  -1.000000;0.000000;-0.000001;,
  -0.808849;0.000000;0.588016;,
  -0.542426;0.000000;0.840104;,
  0.808848;0.000000;0.588018;,
  0.808849;0.000000;-0.588016;,
  -0.808851;0.000000;-0.588014;,
  -0.542426;0.000000;0.840104;,
  0.542421;0.000000;-0.840107;,
  -0.841680;0.000000;-0.539977;,
  0.966460;0.000000;-0.256818;,
  -0.000001;-1.000000;0.000000;,
  -0.542431;0.000000;-0.840100;,
  -0.542426;0.000000;0.840104;,
  0.542421;0.000000;-0.840107;,
  -0.000000;-0.000001;-1.000000;,
  -1.000000;-0.000001;0.000000;,
  -0.808850;-0.588015;0.000000;,
  -0.542425;-0.840104;0.000000;,
  0.808850;-0.588015;-0.000000;,
  1.000000;-0.000001;-0.000000;,
  0.808848;0.588018;0.000000;,
  0.542423;0.840105;0.000000;,
  -0.808848;0.588018;0.000000;,
  0.000000;0.000001;1.000000;,
  0.532523;-0.141109;0.834570;,
  0.511957;-0.279390;0.812306;,
  0.535944;0.180146;-0.824810;,
  0.511931;0.354397;-0.782515;,
  0.534108;-0.827243;0.174350;,
  0.534108;0.827243;-0.174350;,
  0.542416;-0.840110;-0.000000;,
  0.542416;0.840110;0.000000;,
  0.542416;-0.840110;-0.000000;,
  0.542417;-0.000000;0.840109;,
  0.966460;-0.000000;0.256818;,
  0.841682;-0.000000;0.539974;,
  0.841681;0.000000;0.539975;,
  0.479596;0.000000;0.877489;,
  0.542418;-0.000000;0.840109;,
  0.966459;-0.000000;0.256820;,
  0.841683;-0.000000;0.539973;,
  0.535746;-0.825963;-0.175387;,
  0.512460;-0.786211;-0.345336;,
  0.539333;0.812883;0.219869;,
  0.509772;0.745748;0.428943;,
  0.514168;-0.318499;-0.796360;,
  0.514169;0.318499;0.796360;,
  0.542421;-0.840107;-0.000000;,
  0.966460;-0.256817;-0.000000;,
  0.841681;-0.539975;-0.000000;,
  0.542416;0.000000;0.840110;,
  0.542416;0.000000;0.840110;,
  0.966460;0.000000;0.256817;,
  1.000000;0.000000;-0.000001;,
  0.542421;0.000000;-0.840107;,
  0.841680;0.000000;0.539977;,
  0.841680;0.000000;0.539977;,
  0.479595;0.000000;0.877490;,
  0.000000;-1.000000;0.000000;,
  -0.000004;-1.000000;-0.000003;,
  -0.000000;-1.000000;-0.000004;,
  -0.000006;-1.000000;-0.000000;,
  -0.000004;-1.000000;0.000003;,
  -0.000000;-1.000000;0.000004;,
  0.000004;-1.000000;0.000003;,
  0.000006;-1.000000;0.000002;,
  0.841680;0.000000;0.539977;,
  0.000003;-1.000000;-0.000004;,
  0.542431;-0.840101;-0.000000;,
  -0.542418;0.840109;0.000000;,
  0.000004;-0.000003;-1.000000;,
  -0.000000;-0.000006;-1.000000;,
  -0.000004;-0.000003;-1.000000;,
  -0.000004;0.000002;1.000000;,
  0.000000;0.000005;1.000000;,
  0.000004;0.000002;1.000000;,
  -1.000000;0.000000;0.000000;,
  0.000000;0.000000;-1.000000;,
  1.000000;0.000000;0.000000;,
  0.000000;0.000000;1.000000;,
  0.000000;1.000000;0.000000;,
  0.000000;-1.000000;-0.000000;;
  332;
  4;1,2,10,9;,
  4;2,3,11,10;,
  4;3,4,12,11;,
  4;4,5,13,12;,
  4;134,6,14,135;,
  4;6,7,15,14;,
  4;7,8,16,15;,
  4;8,136,137,16;,
  4;9,10,18,17;,
  4;10,11,19,18;,
  4;11,12,20,19;,
  4;12,13,21,20;,
  4;13,14,22,21;,
  4;14,15,23,22;,
  4;15,16,24,23;,
  4;16,9,17,24;,
  4;17,18,26,25;,
  4;18,19,27,26;,
  4;19,20,28,27;,
  4;20,21,29,28;,
  4;21,22,30,138;,
  4;22,23,31,30;,
  4;23,24,32,31;,
  4;24,17,139,32;,
  4;25,26,34,33;,
  4;26,27,35,34;,
  4;27,28,36,35;,
  4;28,29,37,36;,
  4;138,30,38,140;,
  4;30,31,39,38;,
  4;31,32,40,39;,
  4;32,139,102,40;,
  4;33,34,42,41;,
  4;34,35,43,42;,
  4;35,36,44,43;,
  4;36,37,45,44;,
  4;140,38,46,140;,
  4;38,39,39,46;,
  4;39,40,40,39;,
  4;40,102,102,40;,
  3;47,47,47;,
  3;47,47,47;,
  3;47,47,47;,
  3;47,47,47;,
  3;47,47,47;,
  3;47,47,47;,
  3;47,47,47;,
  3;47,47,47;,
  4;49,50,2,1;,
  4;50,51,3,2;,
  4;51,52,4,3;,
  4;52,53,5,4;,
  4;141,54,6,134;,
  4;48,48,0,48;,
  4;54,142,7,6;,
  4;55,55,136,8;,
  4;143,143,144,145;,
  4;56,56,0,56;,
  4;57,57,8,7;,
  4;47,47,47,145;,
  3;58,58,58;,
  4;59,50,50,49;,
  3;58,58,58;,
  4;50,51,51,50;,
  3;58,58,58;,
  4;51,60,52,51;,
  3;58,58,58;,
  4;60,53,53,52;,
  3;58,58,58;,
  4;146,61,54,141;,
  3;58,58,58;,
  4;48,48,48,48;,
  4;61,147,142,54;,
  3;58,58,58;,
  4;62,62,55,55;,
  4;148,148,143,143;,
  3;58,58,58;,
  4;64,65,73,72;,
  4;65,66,74,73;,
  4;66,67,75,74;,
  4;67,68,76,75;,
  4;149,69,77,150;,
  4;69,70,78,77;,
  4;70,71,79,78;,
  4;71,151,152,79;,
  4;72,73,81,80;,
  4;73,74,82,81;,
  4;74,75,83,82;,
  4;75,76,84,83;,
  4;76,77,85,84;,
  4;77,78,86,85;,
  4;78,79,87,86;,
  4;79,72,80,87;,
  4;80,81,89,88;,
  4;81,82,90,89;,
  4;82,83,91,90;,
  4;83,84,92,91;,
  4;84,85,93,153;,
  4;85,86,94,93;,
  4;86,87,95,94;,
  4;87,80,154,95;,
  4;96,97,65,64;,
  4;97,98,66,65;,
  4;98,99,67,66;,
  4;99,100,68,67;,
  4;155,101,69,149;,
  4;63,63,63,63;,
  4;101,156,70,69;,
  4;102,102,151,71;,
  4;157,157,157,157;,
  4;111,105,105,104;,
  4;105,112,106,105;,
  4;112,107,107,106;,
  4;107,113,108,107;,
  4;158,114,109,159;,
  4;48,48,103,48;,
  4;114,160,161,109;,
  4;115,115,123,110;,
  4;162,162,163,164;,
  4;116,116,103,116;,
  4;117,117,110,161;,
  4;47,47,47,164;,
  3;58,58,58;,
  4;104,105,105,111;,
  3;118,165,166;,
  4;105,119,112,105;,
  3;118,167,165;,
  4;119,120,107,112;,
  3;118,168,167;,
  4;120,121,113,107;,
  3;118,169,168;,
  4;170,122,114,158;,
  3;118,171,169;,
  4;48,48,48,48;,
  4;122,172,160,114;,
  3;118,173,171;,
  4;123,123,115,115;,
  4;174,174,162,162;,
  3;118,166,175;,
  4;125,126,126,125;,
  4;126,127,127,126;,
  4;176,128,128,176;,
  4;128,129,129,128;,
  4;129,130,130,129;,
  4;130,131,131,130;,
  4;177,132,132,177;,
  4;132,125,125,132;,
  3;124,178,48;,
  3;124,179,178;,
  3;124,180,179;,
  3;124,48,180;,
  3;124,181,48;,
  3;124,182,181;,
  3;124,183,182;,
  3;124,48,183;,
  3;133,47,47;,
  3;133,47,47;,
  3;133,47,47;,
  3;133,47,47;,
  3;133,47,184;,
  3;133,184,185;,
  3;133,185,186;,
  3;133,186,47;,
  4;188,189,197,196;,
  4;189,190,198,197;,
  4;190,191,199,198;,
  4;191,192,200,199;,
  4;314,193,201,315;,
  4;193,194,202,201;,
  4;194,195,203,202;,
  4;195,316,317,203;,
  4;196,197,205,204;,
  4;197,198,206,205;,
  4;198,199,207,206;,
  4;199,200,208,207;,
  4;200,201,209,208;,
  4;201,202,210,209;,
  4;202,203,211,210;,
  4;203,196,204,211;,
  4;204,205,213,212;,
  4;205,206,214,213;,
  4;206,207,215,214;,
  4;207,208,216,215;,
  4;208,209,217,318;,
  4;209,210,218,217;,
  4;210,211,219,218;,
  4;211,204,319,219;,
  4;212,213,221,220;,
  4;213,214,222,221;,
  4;214,215,223,222;,
  4;215,216,224,223;,
  4;318,217,225,320;,
  4;217,218,226,225;,
  4;218,219,227,226;,
  4;219,319,321,227;,
  4;220,221,221,220;,
  4;221,222,228,221;,
  4;222,223,223,228;,
  4;223,224,224,223;,
  4;320,225,229,322;,
  4;225,226,226,229;,
  4;226,227,230,226;,
  4;227,321,286,230;,
  3;231,231,231;,
  3;231,231,231;,
  3;231,231,231;,
  3;231,231,231;,
  3;231,231,231;,
  3;231,231,231;,
  3;231,231,231;,
  3;231,231,231;,
  4;233,234,189,188;,
  4;234,235,190,189;,
  4;235,236,191,190;,
  4;236,237,192,191;,
  4;323,238,193,314;,
  4;232,232,187,232;,
  4;238,324,194,193;,
  4;239,239,316,195;,
  4;325,325,326,327;,
  4;240,240,187,240;,
  4;241,241,195,194;,
  4;231,231,231,327;,
  3;242,242,242;,
  4;243,244,234,233;,
  3;242,242,242;,
  4;244,235,235,234;,
  3;242,242,242;,
  4;235,236,236,235;,
  3;242,242,242;,
  4;236,245,237,236;,
  3;242,242,242;,
  4;328,246,238,323;,
  3;242,242,242;,
  4;232,232,232,232;,
  4;246,329,324,238;,
  3;242,242,242;,
  4;247,247,239,239;,
  4;330,330,325,325;,
  3;242,242,242;,
  4;249,250,258,257;,
  4;250,251,259,258;,
  4;251,252,260,259;,
  4;252,253,261,260;,
  4;331,254,262,332;,
  4;254,255,263,262;,
  4;255,256,264,263;,
  4;256,333,334,264;,
  4;257,258,266,265;,
  4;258,259,267,266;,
  4;259,260,268,267;,
  4;260,261,269,268;,
  4;261,262,270,269;,
  4;262,263,271,270;,
  4;263,264,272,271;,
  4;264,257,265,272;,
  4;265,266,274,273;,
  4;266,267,275,274;,
  4;267,268,276,275;,
  4;268,269,277,276;,
  4;269,270,278,335;,
  4;270,271,279,278;,
  4;271,272,280,279;,
  4;272,265,336,280;,
  4;281,221,250,249;,
  4;221,282,251,250;,
  4;282,283,252,251;,
  4;283,284,253,252;,
  4;337,285,254,331;,
  4;248,248,248,248;,
  4;285,338,255,254;,
  4;286,286,333,256;,
  4;339,339,339,339;,
  4;288,295,289,288;,
  4;295,290,290,289;,
  4;290,291,291,290;,
  4;291,296,292,291;,
  4;340,293,293,341;,
  4;232,232,287,232;,
  4;293,342,343,293;,
  4;297,297,344,294;,
  4;345,345,346,347;,
  4;298,298,287,298;,
  4;299,299,294,343;,
  4;231,231,231,347;,
  3;348,348,348;,
  4;301,295,295,288;,
  3;300,349,350;,
  4;295,290,290,295;,
  3;300,351,349;,
  4;290,291,291,290;,
  3;300,352,351;,
  4;291,302,296,291;,
  3;300,353,352;,
  4;340,293,293,340;,
  3;300,354,353;,
  4;232,232,232,232;,
  4;293,342,342,293;,
  3;300,355,354;,
  4;303,303,297,297;,
  4;356,356,345,345;,
  3;300,350,357;,
  4;305,306,306,305;,
  4;306,307,307,306;,
  4;358,308,308,358;,
  4;308,309,309,308;,
  4;309,310,310,309;,
  4;310,311,311,310;,
  4;359,312,312,359;,
  4;312,305,305,312;,
  3;304,360,232;,
  3;304,361,360;,
  3;304,362,361;,
  3;304,232,362;,
  3;304,232,232;,
  3;304,232,232;,
  3;304,232,232;,
  3;304,232,232;,
  3;313,231,363;,
  3;313,363,364;,
  3;313,364,365;,
  3;313,365,231;,
  3;313,231,231;,
  3;313,231,231;,
  3;313,231,231;,
  3;313,231,231;,
  4;366,366,366,366;,
  4;367,367,367,367;,
  4;368,368,368,368;,
  4;369,369,369,369;,
  4;370,370,370,370;,
  4;371,371,371,371;;
 }
 MeshTextureCoords {
  460;
  0.000000;0.000000;,
  0.125000;0.000000;,
  0.125000;0.200000;,
  0.000000;0.200000;,
  0.250000;0.000000;,
  0.250000;0.200000;,
  0.375000;0.000000;,
  0.375000;0.200000;,
  0.500000;0.000000;,
  0.500000;0.200000;,
  0.625000;0.000000;,
  0.625000;0.200000;,
  0.750000;0.000000;,
  0.750000;0.200000;,
  0.875000;0.000000;,
  0.875000;0.200000;,
  1.000000;0.000000;,
  1.000000;0.200000;,
  0.125000;0.400000;,
  0.000000;0.400000;,
  0.250000;0.400000;,
  0.375000;0.400000;,
  0.500000;0.400000;,
  0.625000;0.400000;,
  0.750000;0.400000;,
  0.875000;0.400000;,
  1.000000;0.400000;,
  0.125000;0.600000;,
  0.000000;0.600000;,
  0.250000;0.600000;,
  0.375000;0.600000;,
  0.500000;0.600000;,
  0.625000;0.600000;,
  0.750000;0.600000;,
  0.875000;0.600000;,
  1.000000;0.600000;,
  0.125000;0.800000;,
  0.000000;0.800000;,
  0.250000;0.800000;,
  0.375000;0.800000;,
  0.500000;0.800000;,
  0.625000;0.800000;,
  0.750000;0.800000;,
  0.875000;0.800000;,
  1.000000;0.800000;,
  0.125000;1.000000;,
  0.000000;1.000000;,
  0.250000;1.000000;,
  0.375000;1.000000;,
  0.500000;1.000000;,
  0.625000;1.000000;,
  0.750000;1.000000;,
  0.875000;1.000000;,
  1.000000;1.000000;,
  0.062500;1.000000;,
  0.187500;1.000000;,
  0.312500;1.000000;,
  0.437500;1.000000;,
  0.562500;1.000000;,
  0.687500;1.000000;,
  0.812500;1.000000;,
  0.937500;1.000000;,
  0.000000;0.000000;,
  0.125000;0.000000;,
  0.250000;0.000000;,
  0.375000;0.000000;,
  0.500000;0.000000;,
  0.625000;0.000000;,
  0.750000;0.000000;,
  0.687500;0.000000;,
  0.687500;0.000000;,
  0.875000;0.000000;,
  1.000000;0.000000;,
  0.937500;0.000000;,
  0.937500;0.000000;,
  0.875000;0.000000;,
  0.812500;0.000000;,
  0.812500;0.000000;,
  0.750000;0.000000;,
  0.000000;0.000000;,
  0.125000;0.000000;,
  0.062500;0.000000;,
  0.250000;0.000000;,
  0.187500;0.000000;,
  0.375000;0.000000;,
  0.312500;0.000000;,
  0.500000;0.000000;,
  0.437500;0.000000;,
  0.625000;0.000000;,
  0.562500;0.000000;,
  0.750000;0.000000;,
  0.687500;0.000000;,
  0.875000;0.000000;,
  1.000000;0.000000;,
  0.937500;0.000000;,
  0.000000;0.000000;,
  0.125000;0.000000;,
  0.125000;0.200000;,
  0.000000;0.200000;,
  0.250000;0.000000;,
  0.250000;0.200000;,
  0.375000;0.000000;,
  0.375000;0.200000;,
  0.500000;0.000000;,
  0.500000;0.200000;,
  0.625000;0.000000;,
  0.625000;0.200000;,
  0.750000;0.000000;,
  0.750000;0.200000;,
  0.875000;0.000000;,
  0.875000;0.200000;,
  1.000000;0.000000;,
  1.000000;0.200000;,
  0.125000;0.400000;,
  0.000000;0.400000;,
  0.250000;0.400000;,
  0.375000;0.400000;,
  0.500000;0.400000;,
  0.625000;0.400000;,
  0.750000;0.400000;,
  0.875000;0.400000;,
  1.000000;0.400000;,
  0.125000;0.600000;,
  0.000000;0.600000;,
  0.250000;0.600000;,
  0.375000;0.600000;,
  0.500000;0.600000;,
  0.625000;0.600000;,
  0.750000;0.600000;,
  0.875000;0.600000;,
  1.000000;0.600000;,
  0.000000;0.000000;,
  0.125000;0.000000;,
  0.250000;0.000000;,
  0.375000;0.000000;,
  0.500000;0.000000;,
  0.625000;0.000000;,
  0.750000;0.000000;,
  0.687500;0.000000;,
  0.687500;0.000000;,
  0.875000;0.000000;,
  1.000000;0.000000;,
  0.937500;0.000000;,
  0.937500;0.000000;,
  0.000000;0.000000;,
  0.125000;0.000000;,
  0.125000;0.000000;,
  0.000000;0.000000;,
  0.250000;0.000000;,
  0.250000;0.000000;,
  0.375000;0.000000;,
  0.375000;0.000000;,
  0.500000;0.000000;,
  0.500000;0.000000;,
  0.625000;0.000000;,
  0.625000;0.000000;,
  0.750000;0.000000;,
  0.687500;0.000000;,
  0.687500;0.000000;,
  0.750000;0.000000;,
  0.875000;0.000000;,
  1.000000;0.000000;,
  1.000000;0.000000;,
  0.875000;0.000000;,
  0.937500;0.000000;,
  0.937500;0.000000;,
  0.875000;0.000000;,
  0.812500;0.000000;,
  0.812500;0.000000;,
  0.750000;0.000000;,
  0.000000;0.000000;,
  0.125000;0.000000;,
  0.062500;0.000000;,
  0.250000;0.000000;,
  0.187500;0.000000;,
  0.375000;0.000000;,
  0.312500;0.000000;,
  0.500000;0.000000;,
  0.437500;0.000000;,
  0.625000;0.000000;,
  0.562500;0.000000;,
  0.750000;0.000000;,
  0.687500;0.000000;,
  0.875000;0.000000;,
  1.000000;0.000000;,
  0.937500;0.000000;,
  0.000000;0.000000;,
  0.125000;0.000000;,
  0.125000;1.000000;,
  0.000000;1.000000;,
  0.250000;0.000000;,
  0.250000;1.000000;,
  0.375000;0.000000;,
  0.375000;1.000000;,
  0.500000;0.000000;,
  0.500000;1.000000;,
  0.625000;0.000000;,
  0.625000;1.000000;,
  0.750000;0.000000;,
  0.750000;1.000000;,
  0.875000;0.000000;,
  0.875000;1.000000;,
  1.000000;0.000000;,
  1.000000;1.000000;,
  0.062500;0.000000;,
  0.187500;0.000000;,
  0.312500;0.000000;,
  0.437500;0.000000;,
  0.562500;0.000000;,
  0.687500;0.000000;,
  0.812500;0.000000;,
  0.937500;0.000000;,
  0.062500;1.000000;,
  0.187500;1.000000;,
  0.312500;1.000000;,
  0.437500;1.000000;,
  0.562500;1.000000;,
  0.687500;1.000000;,
  0.812500;1.000000;,
  0.937500;1.000000;,
  0.000000;0.000000;,
  0.125000;0.000000;,
  0.125000;0.200000;,
  0.000000;0.200000;,
  0.250000;0.000000;,
  0.250000;0.200000;,
  0.375000;0.000000;,
  0.375000;0.200000;,
  0.500000;0.000000;,
  0.500000;0.200000;,
  0.625000;0.000000;,
  0.625000;0.200000;,
  0.750000;0.000000;,
  0.750000;0.200000;,
  0.875000;0.000000;,
  0.875000;0.200000;,
  1.000000;0.000000;,
  1.000000;0.200000;,
  0.125000;0.400000;,
  0.000000;0.400000;,
  0.250000;0.400000;,
  0.375000;0.400000;,
  0.500000;0.400000;,
  0.625000;0.400000;,
  0.750000;0.400000;,
  0.875000;0.400000;,
  1.000000;0.400000;,
  0.125000;0.600000;,
  0.000000;0.600000;,
  0.250000;0.600000;,
  0.375000;0.600000;,
  0.500000;0.600000;,
  0.625000;0.600000;,
  0.750000;0.600000;,
  0.875000;0.600000;,
  1.000000;0.600000;,
  0.125000;0.800000;,
  0.000000;0.800000;,
  0.250000;0.800000;,
  0.375000;0.800000;,
  0.500000;0.800000;,
  0.625000;0.800000;,
  0.750000;0.800000;,
  0.875000;0.800000;,
  1.000000;0.800000;,
  0.125000;1.000000;,
  0.000000;1.000000;,
  0.250000;1.000000;,
  0.375000;1.000000;,
  0.500000;1.000000;,
  0.625000;1.000000;,
  0.750000;1.000000;,
  0.875000;1.000000;,
  1.000000;1.000000;,
  0.062500;1.000000;,
  0.187500;1.000000;,
  0.312500;1.000000;,
  0.437500;1.000000;,
  0.562500;1.000000;,
  0.687500;1.000000;,
  0.812500;1.000000;,
  0.937500;1.000000;,
  0.000000;0.000000;,
  0.125000;0.000000;,
  0.250000;0.000000;,
  0.375000;0.000000;,
  0.500000;0.000000;,
  0.625000;0.000000;,
  0.750000;0.000000;,
  0.687500;0.000000;,
  0.687500;0.000000;,
  0.875000;0.000000;,
  1.000000;0.000000;,
  0.937500;0.000000;,
  0.937500;0.000000;,
  0.875000;0.000000;,
  0.812500;0.000000;,
  0.812500;0.000000;,
  0.750000;0.000000;,
  0.000000;0.000000;,
  0.125000;0.000000;,
  0.062500;0.000000;,
  0.250000;0.000000;,
  0.187500;0.000000;,
  0.375000;0.000000;,
  0.312500;0.000000;,
  0.500000;0.000000;,
  0.437500;0.000000;,
  0.625000;0.000000;,
  0.562500;0.000000;,
  0.750000;0.000000;,
  0.687500;0.000000;,
  0.875000;0.000000;,
  1.000000;0.000000;,
  0.937500;0.000000;,
  0.000000;0.000000;,
  0.125000;0.000000;,
  0.125000;0.200000;,
  0.000000;0.200000;,
  0.250000;0.000000;,
  0.250000;0.200000;,
  0.375000;0.000000;,
  0.375000;0.200000;,
  0.500000;0.000000;,
  0.500000;0.200000;,
  0.625000;0.000000;,
  0.625000;0.200000;,
  0.750000;0.000000;,
  0.750000;0.200000;,
  0.875000;0.000000;,
  0.875000;0.200000;,
  1.000000;0.000000;,
  1.000000;0.200000;,
  0.125000;0.400000;,
  0.000000;0.400000;,
  0.250000;0.400000;,
  0.375000;0.400000;,
  0.500000;0.400000;,
  0.625000;0.400000;,
  0.750000;0.400000;,
  0.875000;0.400000;,
  1.000000;0.400000;,
  0.125000;0.600000;,
  0.000000;0.600000;,
  0.250000;0.600000;,
  0.375000;0.600000;,
  0.500000;0.600000;,
  0.625000;0.600000;,
  0.750000;0.600000;,
  0.875000;0.600000;,
  1.000000;0.600000;,
  0.000000;0.000000;,
  0.125000;0.000000;,
  0.250000;0.000000;,
  0.375000;0.000000;,
  0.500000;0.000000;,
  0.625000;0.000000;,
  0.750000;0.000000;,
  0.687500;0.000000;,
  0.687500;0.000000;,
  0.875000;0.000000;,
  1.000000;0.000000;,
  0.937500;0.000000;,
  0.937500;0.000000;,
  0.000000;0.000000;,
  0.125000;0.000000;,
  0.125000;0.000000;,
  0.000000;0.000000;,
  0.250000;0.000000;,
  0.250000;0.000000;,
  0.375000;0.000000;,
  0.375000;0.000000;,
  0.500000;0.000000;,
  0.500000;0.000000;,
  0.625000;0.000000;,
  0.625000;0.000000;,
  0.750000;0.000000;,
  0.687500;0.000000;,
  0.687500;0.000000;,
  0.750000;0.000000;,
  0.875000;0.000000;,
  1.000000;0.000000;,
  1.000000;0.000000;,
  0.875000;0.000000;,
  0.937500;0.000000;,
  0.937500;0.000000;,
  0.875000;0.000000;,
  0.812500;0.000000;,
  0.812500;0.000000;,
  0.750000;0.000000;,
  0.000000;0.000000;,
  0.125000;0.000000;,
  0.062500;0.000000;,
  0.250000;0.000000;,
  0.187500;0.000000;,
  0.375000;0.000000;,
  0.312500;0.000000;,
  0.500000;0.000000;,
  0.437500;0.000000;,
  0.625000;0.000000;,
  0.562500;0.000000;,
  0.750000;0.000000;,
  0.687500;0.000000;,
  0.875000;0.000000;,
  1.000000;0.000000;,
  0.937500;0.000000;,
  0.000000;0.000000;,
  0.125000;0.000000;,
  0.125000;1.000000;,
  0.000000;1.000000;,
  0.250000;0.000000;,
  0.250000;1.000000;,
  0.375000;0.000000;,
  0.375000;1.000000;,
  0.500000;0.000000;,
  0.500000;1.000000;,
  0.625000;0.000000;,
  0.625000;1.000000;,
  0.750000;0.000000;,
  0.750000;1.000000;,
  0.875000;0.000000;,
  0.875000;1.000000;,
  1.000000;0.000000;,
  1.000000;1.000000;,
  0.062500;0.000000;,
  0.187500;0.000000;,
  0.312500;0.000000;,
  0.437500;0.000000;,
  0.562500;0.000000;,
  0.687500;0.000000;,
  0.812500;0.000000;,
  0.937500;0.000000;,
  0.062500;1.000000;,
  0.187500;1.000000;,
  0.312500;1.000000;,
  0.437500;1.000000;,
  0.562500;1.000000;,
  0.687500;1.000000;,
  0.812500;1.000000;,
  0.937500;1.000000;,
  0.000000;0.000000;,
  1.000000;0.000000;,
  1.000000;1.000000;,
  0.000000;1.000000;,
  0.000000;0.000000;,
  1.000000;0.000000;,
  1.000000;1.000000;,
  0.000000;1.000000;,
  0.000000;0.000000;,
  1.000000;0.000000;,
  1.000000;1.000000;,
  0.000000;1.000000;,
  0.000000;0.000000;,
  1.000000;0.000000;,
  1.000000;1.000000;,
  0.000000;1.000000;,
  1.000000;1.000000;,
  0.000000;1.000000;,
  0.000000;0.000000;,
  1.000000;0.000000;;
 }
}
