xof 0302txt 0064
template Header {
 <3D82AB43-62DA-11cf-AB39-0020AF71E433>
 WORD major;
 WORD minor;
 DWORD flags;
}

template Vector {
 <3D82AB5E-62DA-11cf-AB39-0020AF71E433>
 FLOAT x;
 FLOAT y;
 FLOAT z;
}

template Coords2d {
 <F6F23F44-7686-11cf-8F52-0040333594A3>
 FLOAT u;
 FLOAT v;
}

template Matrix4x4 {
 <F6F23F45-7686-11cf-8F52-0040333594A3>
 array FLOAT matrix[16];
}

template ColorRGBA {
 <35FF44E0-6C7C-11cf-8F52-0040333594A3>
 FLOAT red;
 FLOAT green;
 FLOAT blue;
 FLOAT alpha;
}

template ColorRGB {
 <D3E16E81-7835-11cf-8F52-0040333594A3>
 FLOAT red;
 FLOAT green;
 FLOAT blue;
}

template IndexedColor {
 <1630B820-7842-11cf-8F52-0040333594A3>
 DWORD index;
 ColorRGBA indexColor;
}

template Boolean {
 <4885AE61-78E8-11cf-8F52-0040333594A3>
 WORD truefalse;
}

template Boolean2d {
 <4885AE63-78E8-11cf-8F52-0040333594A3>
 Boolean u;
 Boolean v;
}

template MaterialWrap {
 <4885AE60-78E8-11cf-8F52-0040333594A3>
 Boolean u;
 Boolean v;
}

template TextureFilename {
 <A42790E1-7810-11cf-8F52-0040333594A3>
 STRING filename;
}

template Material {
 <3D82AB4D-62DA-11cf-AB39-0020AF71E433>
 ColorRGBA faceColor;
 FLOAT power;
 ColorRGB specularColor;
 ColorRGB emissiveColor;
 [...]
}

template MeshFace {
 <3D82AB5F-62DA-11cf-AB39-0020AF71E433>
 DWORD nFaceVertexIndices;
 array DWORD faceVertexIndices[nFaceVertexIndices];
}

template MeshFaceWraps {
 <4885AE62-78E8-11cf-8F52-0040333594A3>
 DWORD nFaceWrapValues;
 Boolean2d faceWrapValues;
}

template MeshTextureCoords {
 <F6F23F40-7686-11cf-8F52-0040333594A3>
 DWORD nTextureCoords;
 array Coords2d textureCoords[nTextureCoords];
}

template MeshMaterialList {
 <F6F23F42-7686-11cf-8F52-0040333594A3>
 DWORD nMaterials;
 DWORD nFaceIndexes;
 array DWORD faceIndexes[nFaceIndexes];
 [Material]
}

template MeshNormals {
 <F6F23F43-7686-11cf-8F52-0040333594A3>
 DWORD nNormals;
 array Vector normals[nNormals];
 DWORD nFaceNormals;
 array MeshFace faceNormals[nFaceNormals];
}

template MeshVertexColors {
 <1630B821-7842-11cf-8F52-0040333594A3>
 DWORD nVertexColors;
 array IndexedColor vertexColors[nVertexColors];
}

template Mesh {
 <3D82AB44-62DA-11cf-AB39-0020AF71E433>
 DWORD nVertices;
 array Vector vertices[nVertices];
 DWORD nFaces;
 array MeshFace faces[nFaces];
 [...]
}

Header{
1;
0;
1;
}

Mesh {
 208;
 -184.24240;6.30960;-86.96610;,
 188.12120;6.30960;-86.96610;,
 207.13091;-6.30960;-86.96610;,
 -207.13091;-6.30960;-86.96610;,
 -184.24240;6.30960;68.95560;,
 188.12120;6.30960;68.95560;,
 188.12120;6.30960;-86.96610;,
 -184.24240;6.30960;-86.96610;,
 -207.13091;-6.30960;86.96610;,
 -207.13091;-6.30960;-86.96610;,
 207.13091;-6.30960;-86.96610;,
 207.13091;-6.30960;86.96610;,
 -184.24240;232.37019;-86.96610;,
 -184.24240;232.37019;68.95560;,
 -207.13091;232.37019;-86.96610;,
 -207.13091;-6.30960;-86.96610;,
 -207.13091;232.37019;86.96610;,
 -207.13091;-6.30960;86.96610;,
 207.13091;232.37019;86.96610;,
 -207.13091;232.37019;86.96610;,
 -207.13091;-6.30960;86.96610;,
 207.13091;-6.30960;86.96610;,
 188.12120;232.37019;68.95560;,
 207.13091;232.37019;-86.96610;,
 207.13091;232.37019;86.96610;,
 207.13091;-6.30960;86.96610;,
 207.13091;-6.30960;-86.96610;,
 188.12120;232.37019;-86.96610;,
 -136.79210;179.25681;40.74430;,
 -45.84440;179.25681;40.74430;,
 -45.84440;29.49610;40.74430;,
 -136.79210;29.49610;40.74430;,
 -45.84440;179.25681;40.74430;,
 -45.84440;179.25681;72.97370;,
 -45.84440;29.49610;72.97370;,
 -45.84440;29.49610;40.74430;,
 -45.84440;179.25681;72.97370;,
 -136.79210;179.25681;72.97370;,
 -136.79210;29.49610;72.97370;,
 -45.84440;29.49610;72.97370;,
 -136.79210;179.25681;72.97370;,
 -136.79210;179.25681;40.74430;,
 -136.79210;29.49610;40.74430;,
 -136.79210;29.49610;72.97370;,
 -45.84440;179.25681;40.74430;,
 -136.79210;179.25681;40.74430;,
 -136.79210;29.49610;40.74430;,
 -45.84440;29.49610;40.74430;,
 -17.22880;167.45590;55.51600;,
 21.14750;167.45590;55.51600;,
 21.14750;104.26290;55.51600;,
 -17.22880;104.26290;55.51600;,
 21.14750;167.45590;55.51600;,
 21.14750;167.45590;69.11560;,
 21.14750;104.26290;69.11560;,
 21.14750;104.26290;55.51600;,
 21.14750;167.45590;69.11560;,
 -17.22880;167.45590;69.11560;,
 -17.22880;104.26290;69.11560;,
 21.14750;104.26290;69.11560;,
 -17.22880;167.45590;69.11560;,
 -17.22880;167.45590;55.51600;,
 -17.22880;104.26290;55.51600;,
 -17.22880;104.26290;69.11560;,
 21.14750;167.45590;55.51600;,
 -17.22880;167.45590;55.51600;,
 -17.22880;104.26290;55.51600;,
 21.14750;104.26290;55.51600;,
 29.29740;167.45590;55.51600;,
 67.67370;167.45590;55.51600;,
 67.67370;104.26290;55.51600;,
 29.29740;104.26290;55.51600;,
 67.67370;167.45590;55.51600;,
 67.67370;167.45590;69.11560;,
 67.67370;104.26290;69.11560;,
 67.67370;104.26290;55.51600;,
 67.67370;167.45590;69.11560;,
 29.29740;167.45590;69.11560;,
 29.29740;104.26290;69.11560;,
 67.67370;104.26290;69.11560;,
 29.29740;167.45590;69.11560;,
 29.29740;167.45590;55.51600;,
 29.29740;104.26290;55.51600;,
 29.29740;104.26290;69.11560;,
 67.67370;167.45590;55.51600;,
 29.29740;167.45590;55.51600;,
 29.29740;104.26290;55.51600;,
 67.67370;104.26290;55.51600;,
 75.81850;167.45590;55.51600;,
 114.19480;167.45590;55.51600;,
 114.19480;104.26290;55.51600;,
 75.81850;104.26290;55.51600;,
 114.19480;167.45590;55.51600;,
 114.19480;167.45590;69.11560;,
 114.19480;104.26290;69.11560;,
 114.19480;104.26290;55.51600;,
 114.19480;167.45590;69.11560;,
 75.81850;167.45590;69.11560;,
 75.81850;104.26290;69.11560;,
 114.19480;104.26290;69.11560;,
 75.81850;167.45590;69.11560;,
 75.81850;167.45590;55.51600;,
 75.81850;104.26290;55.51600;,
 75.81850;104.26290;69.11560;,
 114.19480;167.45590;55.51600;,
 75.81850;167.45590;55.51600;,
 75.81850;104.26290;55.51600;,
 114.19480;104.26290;55.51600;,
 -12.48070;89.05180;55.51600;,
 16.39930;89.05180;55.51600;,
 16.39930;25.85880;55.51600;,
 -12.48070;25.85880;55.51600;,
 16.39930;89.05180;55.51600;,
 16.39930;89.05180;69.11560;,
 16.39930;25.85880;69.11560;,
 16.39930;25.85880;55.51600;,
 16.39930;89.05180;69.11560;,
 -12.48070;89.05180;69.11560;,
 -12.48070;25.85880;69.11560;,
 16.39930;25.85880;69.11560;,
 -12.48070;89.05180;69.11560;,
 -12.48070;89.05180;55.51600;,
 -12.48070;25.85880;55.51600;,
 -12.48070;25.85880;69.11560;,
 16.39930;89.05180;55.51600;,
 -12.48070;89.05180;55.51600;,
 -12.48070;25.85880;55.51600;,
 16.39930;25.85880;55.51600;,
 32.47560;89.05180;55.51600;,
 61.35560;89.05180;55.51600;,
 61.35560;25.85880;55.51600;,
 32.47560;25.85880;55.51600;,
 61.35560;89.05180;55.51600;,
 61.35560;89.05180;69.11560;,
 61.35560;25.85880;69.11560;,
 61.35560;25.85880;55.51600;,
 61.35560;89.05180;69.11560;,
 32.47560;89.05180;69.11560;,
 32.47560;25.85880;69.11560;,
 61.35560;25.85880;69.11560;,
 32.47560;89.05180;69.11560;,
 32.47560;89.05180;55.51600;,
 32.47560;25.85880;55.51600;,
 32.47560;25.85880;69.11560;,
 61.35560;89.05180;55.51600;,
 32.47560;89.05180;55.51600;,
 32.47560;25.85880;55.51600;,
 61.35560;25.85880;55.51600;,
 76.83500;89.05180;55.51600;,
 105.71500;89.05180;55.51600;,
 105.71500;25.85880;55.51600;,
 76.83500;25.85880;55.51600;,
 105.71500;89.05180;55.51600;,
 105.71500;89.05180;69.11560;,
 105.71500;25.85880;69.11560;,
 105.71500;25.85880;55.51600;,
 105.71500;89.05180;69.11560;,
 76.83500;89.05180;69.11560;,
 76.83500;25.85880;69.11560;,
 105.71500;25.85880;69.11560;,
 76.83500;89.05180;69.11560;,
 76.83500;89.05180;55.51600;,
 76.83500;25.85880;55.51600;,
 76.83500;25.85880;69.11560;,
 105.71500;89.05180;55.51600;,
 76.83500;89.05180;55.51600;,
 76.83500;25.85880;55.51600;,
 105.71500;25.85880;55.51600;,
 -241.76469;242.75220;-104.59110;,
 241.76469;242.75220;-104.59110;,
 241.76469;222.58521;-104.59110;,
 -241.76469;222.58521;-104.59110;,
 241.76469;242.75220;-104.59110;,
 241.76469;242.75220;104.59110;,
 241.76469;222.58521;104.59110;,
 241.76469;222.58521;-104.59110;,
 241.76469;242.75220;104.59110;,
 -241.76469;242.75220;104.59110;,
 -241.76469;222.58521;104.59110;,
 241.76469;222.58521;104.59110;,
 -241.76469;242.75220;104.59110;,
 -241.76469;242.75220;-104.59110;,
 -241.76469;222.58521;-104.59110;,
 -241.76469;222.58521;104.59110;,
 241.76469;242.75220;-104.59110;,
 -241.76469;242.75220;-104.59110;,
 -241.76469;222.58521;-104.59110;,
 241.76469;222.58521;-104.59110;,
 311.86710;224.32040;-517.14117;,
 207.64700;224.32040;-83.03310;,
 207.64700;0.01000;-83.03310;,
 311.86710;0.01000;-517.14117;,
 207.64700;224.32040;-83.03310;,
 187.64211;224.32040;-87.83590;,
 187.64211;0.01000;-87.83590;,
 207.64700;0.01000;-83.03310;,
 187.64211;224.32040;-87.83590;,
 291.86209;224.32040;-521.94379;,
 291.86209;0.01000;-521.94379;,
 187.64211;0.01000;-87.83590;,
 291.86209;224.32040;-521.94379;,
 311.86710;224.32040;-517.14117;,
 311.86710;0.01000;-517.14117;,
 291.86209;0.01000;-521.94379;,
 207.64700;224.32040;-83.03310;,
 311.86710;224.32040;-517.14117;,
 311.86710;0.01000;-517.14117;,
 207.64700;0.01000;-83.03310;;
 
 68;
 4;0,1,2,3;,
 4;4,5,6,7;,
 4;8,9,10,11;,
 4;12,13,4,7;,
 4;14,12,7,15;,
 4;16,14,15,17;,
 4;16,13,12,14;,
 4;18,19,20,21;,
 4;13,22,5,4;,
 4;13,19,18,22;,
 4;23,24,25,26;,
 4;27,23,26,6;,
 4;22,27,6,5;,
 4;22,24,23,27;,
 4;28,29,30,31;,
 4;32,33,34,35;,
 4;36,37,38,39;,
 4;40,41,42,43;,
 4;40,33,44,45;,
 4;46,47,34,43;,
 4;48,49,50,51;,
 4;52,53,54,55;,
 4;56,57,58,59;,
 4;60,61,62,63;,
 4;60,53,64,65;,
 4;66,67,54,63;,
 4;68,69,70,71;,
 4;72,73,74,75;,
 4;76,77,78,79;,
 4;80,81,82,83;,
 4;80,73,84,85;,
 4;86,87,74,83;,
 4;88,89,90,91;,
 4;92,93,94,95;,
 4;96,97,98,99;,
 4;100,101,102,103;,
 4;100,93,104,105;,
 4;106,107,94,103;,
 4;108,109,110,111;,
 4;112,113,114,115;,
 4;116,117,118,119;,
 4;120,121,122,123;,
 4;120,113,124,125;,
 4;126,127,114,123;,
 4;128,129,130,131;,
 4;132,133,134,135;,
 4;136,137,138,139;,
 4;140,141,142,143;,
 4;140,133,144,145;,
 4;146,147,134,143;,
 4;148,149,150,151;,
 4;152,153,154,155;,
 4;156,157,158,159;,
 4;160,161,162,163;,
 4;160,153,164,165;,
 4;166,167,154,163;,
 4;168,169,170,171;,
 4;172,173,174,175;,
 4;176,177,178,179;,
 4;180,181,182,183;,
 4;180,173,184,185;,
 4;186,187,174,183;,
 4;188,189,190,191;,
 4;192,193,194,195;,
 4;196,197,198,199;,
 4;200,201,202,203;,
 4;200,193,204,205;,
 4;206,207,194,203;;
 
 MeshMaterialList {
  3;
  68;
  0,
  0,
  0,
  0,
  0,
  0,
  0,
  0,
  0,
  0,
  0,
  0,
  0,
  0,
  1,
  1,
  1,
  1,
  1,
  1,
  1,
  1,
  1,
  1,
  1,
  1,
  1,
  1,
  1,
  1,
  1,
  1,
  1,
  1,
  1,
  1,
  1,
  1,
  2,
  2,
  2,
  2,
  2,
  2,
  2,
  2,
  2,
  2,
  2,
  2,
  2,
  2,
  2,
  2,
  2,
  2,
  0,
  0,
  0,
  0,
  0,
  0,
  0,
  0,
  0,
  0,
  0,
  0;;
  Material {
   0.752800;0.696800;0.620800;1.000000;;
   5.000000;
   0.000000;0.000000;0.000000;;
   0.000000;0.000000;0.000000;;
  }
  Material {
   0.132000;0.132000;0.132000;1.000000;;
   5.000000;
   0.000000;0.000000;0.000000;;
   0.000000;0.000000;0.000000;;
  }
  Material {
   0.517600;0.517600;0.517600;1.000000;;
   5.000000;
   0.000000;0.000000;0.000000;;
   0.000000;0.000000;0.000000;;
  }
 }
 MeshNormals {
  12;
  0.000000;0.000000;-1.000000;,
  0.000000;1.000000;0.000000;,
  0.000000;-1.000000;-0.000000;,
  1.000000;0.000000;0.000000;,
  -1.000000;0.000000;0.000000;,
  0.000000;0.000000;1.000000;,
  0.972370;0.000000;0.233445;,
  -0.233448;0.000000;0.972369;,
  -0.972370;0.000000;-0.233445;,
  0.233438;0.000000;-0.972372;,
  0.000000;1.000000;0.000000;,
  0.000000;-1.000000;-0.000000;;
  68;
  4;0,0,0,0;,
  4;1,1,1,1;,
  4;2,2,2,2;,
  4;3,3,3,3;,
  4;0,0,0,0;,
  4;4,4,4,4;,
  4;1,1,1,1;,
  4;5,5,5,5;,
  4;0,0,0,0;,
  4;1,1,1,1;,
  4;3,3,3,3;,
  4;0,0,0,0;,
  4;4,4,4,4;,
  4;1,1,1,1;,
  4;0,0,0,0;,
  4;3,3,3,3;,
  4;5,5,5,5;,
  4;4,4,4,4;,
  4;1,1,1,1;,
  4;2,2,2,2;,
  4;0,0,0,0;,
  4;3,3,3,3;,
  4;5,5,5,5;,
  4;4,4,4,4;,
  4;1,1,1,1;,
  4;2,2,2,2;,
  4;0,0,0,0;,
  4;3,3,3,3;,
  4;5,5,5,5;,
  4;4,4,4,4;,
  4;1,1,1,1;,
  4;2,2,2,2;,
  4;0,0,0,0;,
  4;3,3,3,3;,
  4;5,5,5,5;,
  4;4,4,4,4;,
  4;1,1,1,1;,
  4;2,2,2,2;,
  4;0,0,0,0;,
  4;3,3,3,3;,
  4;5,5,5,5;,
  4;4,4,4,4;,
  4;1,1,1,1;,
  4;2,2,2,2;,
  4;0,0,0,0;,
  4;3,3,3,3;,
  4;5,5,5,5;,
  4;4,4,4,4;,
  4;1,1,1,1;,
  4;2,2,2,2;,
  4;0,0,0,0;,
  4;3,3,3,3;,
  4;5,5,5,5;,
  4;4,4,4,4;,
  4;1,1,1,1;,
  4;2,2,2,2;,
  4;0,0,0,0;,
  4;3,3,3,3;,
  4;5,5,5,5;,
  4;4,4,4,4;,
  4;1,1,1,1;,
  4;2,2,2,2;,
  4;6,6,6,6;,
  4;7,7,7,7;,
  4;8,8,8,8;,
  4;9,9,9,9;,
  4;10,10,10,10;,
  4;11,11,11,11;;
 }
 MeshTextureCoords {
  208;
  0.055250;0.000000;,
  0.954110;0.000000;,
  0.954110;1.000000;,
  0.055250;1.000000;,
  0.055250;0.103550;,
  0.954110;0.103550;,
  0.954110;1.000000;,
  0.055250;1.000000;,
  0.055250;0.896450;,
  0.055250;0.000000;,
  0.954110;0.000000;,
  0.954110;0.896450;,
  0.055250;1.000000;,
  0.055250;0.103550;,
  0.000000;1.000000;,
  0.000000;1.000000;,
  0.000000;0.103550;,
  0.000000;0.103550;,
  0.954110;0.000000;,
  0.055250;0.000000;,
  0.055250;0.000000;,
  0.954110;0.000000;,
  0.954110;0.103550;,
  1.000000;1.000000;,
  1.000000;0.103550;,
  1.000000;0.103550;,
  1.000000;1.000000;,
  0.954110;1.000000;,
  0.000000;0.000000;,
  1.000000;0.000000;,
  1.000000;1.000000;,
  0.000000;1.000000;,
  0.000000;0.000000;,
  1.000000;0.000000;,
  1.000000;1.000000;,
  0.000000;1.000000;,
  0.000000;0.000000;,
  1.000000;0.000000;,
  1.000000;1.000000;,
  0.000000;1.000000;,
  0.000000;0.000000;,
  1.000000;0.000000;,
  1.000000;1.000000;,
  0.000000;1.000000;,
  1.000000;1.000000;,
  0.000000;1.000000;,
  0.000000;0.000000;,
  1.000000;0.000000;,
  0.000000;0.000000;,
  1.000000;0.000000;,
  1.000000;1.000000;,
  0.000000;1.000000;,
  0.000000;0.000000;,
  1.000000;0.000000;,
  1.000000;1.000000;,
  0.000000;1.000000;,
  0.000000;0.000000;,
  1.000000;0.000000;,
  1.000000;1.000000;,
  0.000000;1.000000;,
  0.000000;0.000000;,
  1.000000;0.000000;,
  1.000000;1.000000;,
  0.000000;1.000000;,
  1.000000;1.000000;,
  0.000000;1.000000;,
  0.000000;0.000000;,
  1.000000;0.000000;,
  0.000000;0.000000;,
  1.000000;0.000000;,
  1.000000;1.000000;,
  0.000000;1.000000;,
  0.000000;0.000000;,
  1.000000;0.000000;,
  1.000000;1.000000;,
  0.000000;1.000000;,
  0.000000;0.000000;,
  1.000000;0.000000;,
  1.000000;1.000000;,
  0.000000;1.000000;,
  0.000000;0.000000;,
  1.000000;0.000000;,
  1.000000;1.000000;,
  0.000000;1.000000;,
  1.000000;1.000000;,
  0.000000;1.000000;,
  0.000000;0.000000;,
  1.000000;0.000000;,
  0.000000;0.000000;,
  1.000000;0.000000;,
  1.000000;1.000000;,
  0.000000;1.000000;,
  0.000000;0.000000;,
  1.000000;0.000000;,
  1.000000;1.000000;,
  0.000000;1.000000;,
  0.000000;0.000000;,
  1.000000;0.000000;,
  1.000000;1.000000;,
  0.000000;1.000000;,
  0.000000;0.000000;,
  1.000000;0.000000;,
  1.000000;1.000000;,
  0.000000;1.000000;,
  1.000000;1.000000;,
  0.000000;1.000000;,
  0.000000;0.000000;,
  1.000000;0.000000;,
  0.000000;0.000000;,
  1.000000;0.000000;,
  1.000000;1.000000;,
  0.000000;1.000000;,
  0.000000;0.000000;,
  1.000000;0.000000;,
  1.000000;1.000000;,
  0.000000;1.000000;,
  0.000000;0.000000;,
  1.000000;0.000000;,
  1.000000;1.000000;,
  0.000000;1.000000;,
  0.000000;0.000000;,
  1.000000;0.000000;,
  1.000000;1.000000;,
  0.000000;1.000000;,
  1.000000;1.000000;,
  0.000000;1.000000;,
  0.000000;0.000000;,
  1.000000;0.000000;,
  0.000000;0.000000;,
  1.000000;0.000000;,
  1.000000;1.000000;,
  0.000000;1.000000;,
  0.000000;0.000000;,
  1.000000;0.000000;,
  1.000000;1.000000;,
  0.000000;1.000000;,
  0.000000;0.000000;,
  1.000000;0.000000;,
  1.000000;1.000000;,
  0.000000;1.000000;,
  0.000000;0.000000;,
  1.000000;0.000000;,
  1.000000;1.000000;,
  0.000000;1.000000;,
  1.000000;1.000000;,
  0.000000;1.000000;,
  0.000000;0.000000;,
  1.000000;0.000000;,
  0.000000;0.000000;,
  1.000000;0.000000;,
  1.000000;1.000000;,
  0.000000;1.000000;,
  0.000000;0.000000;,
  1.000000;0.000000;,
  1.000000;1.000000;,
  0.000000;1.000000;,
  0.000000;0.000000;,
  1.000000;0.000000;,
  1.000000;1.000000;,
  0.000000;1.000000;,
  0.000000;0.000000;,
  1.000000;0.000000;,
  1.000000;1.000000;,
  0.000000;1.000000;,
  1.000000;1.000000;,
  0.000000;1.000000;,
  0.000000;0.000000;,
  1.000000;0.000000;,
  0.000000;0.000000;,
  1.000000;0.000000;,
  1.000000;1.000000;,
  0.000000;1.000000;,
  0.000000;0.000000;,
  1.000000;0.000000;,
  1.000000;1.000000;,
  0.000000;1.000000;,
  0.000000;0.000000;,
  1.000000;0.000000;,
  1.000000;1.000000;,
  0.000000;1.000000;,
  0.000000;0.000000;,
  1.000000;0.000000;,
  1.000000;1.000000;,
  0.000000;1.000000;,
  1.000000;1.000000;,
  0.000000;1.000000;,
  0.000000;0.000000;,
  1.000000;0.000000;,
  0.000000;0.000000;,
  1.000000;0.000000;,
  1.000000;1.000000;,
  0.000000;1.000000;,
  0.000000;0.000000;,
  1.000000;0.000000;,
  1.000000;1.000000;,
  0.000000;1.000000;,
  0.000000;0.000000;,
  1.000000;0.000000;,
  1.000000;1.000000;,
  0.000000;1.000000;,
  0.000000;0.000000;,
  1.000000;0.000000;,
  1.000000;1.000000;,
  0.000000;1.000000;,
  1.000000;1.000000;,
  0.000000;1.000000;,
  0.000000;0.000000;,
  1.000000;0.000000;;
 }
}
