xof 0302txt 0064
template Header {
 <3D82AB43-62DA-11cf-AB39-0020AF71E433>
 WORD major;
 WORD minor;
 DWORD flags;
}

template Vector {
 <3D82AB5E-62DA-11cf-AB39-0020AF71E433>
 FLOAT x;
 FLOAT y;
 FLOAT z;
}

template Coords2d {
 <F6F23F44-7686-11cf-8F52-0040333594A3>
 FLOAT u;
 FLOAT v;
}

template Matrix4x4 {
 <F6F23F45-7686-11cf-8F52-0040333594A3>
 array FLOAT matrix[16];
}

template ColorRGBA {
 <35FF44E0-6C7C-11cf-8F52-0040333594A3>
 FLOAT red;
 FLOAT green;
 FLOAT blue;
 FLOAT alpha;
}

template ColorRGB {
 <D3E16E81-7835-11cf-8F52-0040333594A3>
 FLOAT red;
 FLOAT green;
 FLOAT blue;
}

template IndexedColor {
 <1630B820-7842-11cf-8F52-0040333594A3>
 DWORD index;
 ColorRGBA indexColor;
}

template Boolean {
 <4885AE61-78E8-11cf-8F52-0040333594A3>
 WORD truefalse;
}

template Boolean2d {
 <4885AE63-78E8-11cf-8F52-0040333594A3>
 Boolean u;
 Boolean v;
}

template MaterialWrap {
 <4885AE60-78E8-11cf-8F52-0040333594A3>
 Boolean u;
 Boolean v;
}

template TextureFilename {
 <A42790E1-7810-11cf-8F52-0040333594A3>
 STRING filename;
}

template Material {
 <3D82AB4D-62DA-11cf-AB39-0020AF71E433>
 ColorRGBA faceColor;
 FLOAT power;
 ColorRGB specularColor;
 ColorRGB emissiveColor;
 [...]
}

template MeshFace {
 <3D82AB5F-62DA-11cf-AB39-0020AF71E433>
 DWORD nFaceVertexIndices;
 array DWORD faceVertexIndices[nFaceVertexIndices];
}

template MeshFaceWraps {
 <4885AE62-78E8-11cf-8F52-0040333594A3>
 DWORD nFaceWrapValues;
 Boolean2d faceWrapValues;
}

template MeshTextureCoords {
 <F6F23F40-7686-11cf-8F52-0040333594A3>
 DWORD nTextureCoords;
 array Coords2d textureCoords[nTextureCoords];
}

template MeshMaterialList {
 <F6F23F42-7686-11cf-8F52-0040333594A3>
 DWORD nMaterials;
 DWORD nFaceIndexes;
 array DWORD faceIndexes[nFaceIndexes];
 [Material]
}

template MeshNormals {
 <F6F23F43-7686-11cf-8F52-0040333594A3>
 DWORD nNormals;
 array Vector normals[nNormals];
 DWORD nFaceNormals;
 array MeshFace faceNormals[nFaceNormals];
}

template MeshVertexColors {
 <1630B821-7842-11cf-8F52-0040333594A3>
 DWORD nVertexColors;
 array IndexedColor vertexColors[nVertexColors];
}

template Mesh {
 <3D82AB44-62DA-11cf-AB39-0020AF71E433>
 DWORD nVertices;
 array Vector vertices[nVertices];
 DWORD nFaces;
 array MeshFace faces[nFaces];
 [...]
}

Header{
1;
0;
1;
}

Mesh {
 352;
 -0.92621;304.90400;0.73029;,
 340.29055;304.90400;0.73029;,
 339.53479;304.14737;-109.55289;,
 -0.17041;304.14737;-109.55289;,
 -0.17041;-0.69773;-109.55289;,
 339.53479;-0.69773;-109.55289;,
 340.29055;-1.45429;0.73029;,
 -0.92621;-1.45429;0.73029;,
 18.78979;285.20725;-107.42853;,
 320.57459;285.20725;-107.42853;,
 321.33039;285.96388;-93.93728;,
 18.03399;285.96388;-93.93728;,
 320.57459;18.24238;-107.42853;,
 18.78979;18.24238;-107.42853;,
 18.03399;17.48575;-93.93728;,
 321.33039;17.48575;-93.93728;,
 321.33039;98.95679;-93.93728;,
 320.57459;99.25415;-107.42853;,
 320.57459;18.24238;-107.42853;,
 321.33039;17.48575;-93.93728;,
 321.33039;98.95679;-93.93728;,
 321.33039;17.48575;-93.93728;,
 18.03399;17.48575;-93.93728;,
 18.03399;98.95679;-93.93728;,
 339.53479;106.75500;-109.55289;,
 339.53479;-0.69773;-109.55289;,
 18.03399;98.95679;-93.93728;,
 18.03399;17.48575;-93.93728;,
 18.78979;18.24238;-107.42853;,
 18.78979;99.25415;-107.42853;,
 -0.17041;-0.69773;-109.55289;,
 -0.17041;106.75500;-109.55289;,
 321.33039;112.11972;-93.93728;,
 320.57459;112.34296;-107.42853;,
 18.03399;112.11972;-93.93728;,
 18.78979;112.34296;-107.42853;,
 321.33039;189.81208;-93.93728;,
 320.57459;189.59748;-107.42853;,
 321.33039;189.81208;-93.93728;,
 321.33039;112.11972;-93.93728;,
 18.03399;112.11972;-93.93728;,
 18.03399;189.81208;-93.93728;,
 339.53479;194.97129;-109.55289;,
 339.53479;106.75500;-109.55289;,
 18.03399;189.81208;-93.93728;,
 18.78979;189.59748;-107.42853;,
 -0.17041;106.75500;-109.55289;,
 -0.17041;194.97129;-109.55289;,
 340.29055;304.90400;0.73029;,
 340.29055;-1.45429;0.73029;,
 -0.92621;-1.45429;0.73029;,
 -0.92621;304.90400;0.73029;,
 340.29055;304.90400;0.73029;,
 -0.92621;304.90400;0.73029;,
 -0.92621;-1.45429;0.73029;,
 340.29055;-1.45429;0.73029;,
 321.33039;197.58132;-93.93728;,
 321.33039;285.96388;-93.93728;,
 320.57459;285.20725;-107.42853;,
 320.57459;197.32288;-107.42853;,
 321.33039;197.58132;-93.93728;,
 18.03399;197.58132;-93.93728;,
 18.03399;285.96388;-93.93728;,
 321.33039;285.96388;-93.93728;,
 339.53479;304.14737;-109.55289;,
 339.53479;194.97129;-109.55289;,
 18.03399;197.58132;-93.93728;,
 18.78979;197.32288;-107.42853;,
 18.78979;285.20725;-107.42853;,
 18.03399;285.96388;-93.93728;,
 -0.17041;194.97129;-109.55289;,
 -0.17041;304.14737;-109.55289;,
 321.33039;99.63278;-107.88122;,
 321.33039;112.79579;-107.88122;,
 18.03399;99.63278;-107.88122;,
 18.03399;112.79579;-107.88122;,
 321.33039;189.81208;-107.88122;,
 321.33039;197.58132;-107.88122;,
 18.03399;189.81208;-107.88122;,
 18.03399;197.58132;-107.88122;,
 339.53479;106.75500;-109.55289;,
 339.53479;194.97129;-109.55289;,
 -0.17041;194.97129;-109.55289;,
 -0.17041;106.75500;-109.55289;,
 340.29055;-1.45429;0.73029;,
 340.29055;304.90400;0.73029;,
 -0.92621;304.90400;0.73029;,
 -0.92621;-1.45429;0.73029;,
 -340.14729;304.90400;0.73029;,
 1.06975;304.90400;0.73029;,
 0.31395;304.14737;-109.55289;,
 -339.39154;304.14737;-109.55289;,
 -339.39154;-0.69773;-109.55289;,
 0.31395;-0.69773;-109.55289;,
 1.06975;-1.45429;0.73029;,
 -340.14729;-1.45429;0.73029;,
 -320.43130;285.20725;-107.42853;,
 -18.64624;285.20725;-107.42853;,
 -17.89044;285.96388;-93.93728;,
 -321.18709;285.96388;-93.93728;,
 -18.64624;18.24238;-107.42853;,
 -320.43130;18.24238;-107.42853;,
 -321.18709;17.48575;-93.93728;,
 -17.89044;17.48575;-93.93728;,
 -17.89044;98.95679;-93.93728;,
 -18.64624;99.25415;-107.42853;,
 -18.64624;18.24238;-107.42853;,
 -17.89044;17.48575;-93.93728;,
 -17.89044;98.95679;-93.93728;,
 -17.89044;17.48575;-93.93728;,
 -321.18709;17.48575;-93.93728;,
 -321.18709;98.95679;-93.93728;,
 0.31395;106.75500;-109.55289;,
 0.31395;-0.69773;-109.55289;,
 -321.18709;98.95679;-93.93728;,
 -321.18709;17.48575;-93.93728;,
 -320.43130;18.24238;-107.42853;,
 -320.43130;99.25415;-107.42853;,
 -339.39154;-0.69773;-109.55289;,
 -339.39154;106.75500;-109.55289;,
 -17.89044;112.11972;-93.93728;,
 -18.64624;112.34296;-107.42853;,
 -321.18709;112.11972;-93.93728;,
 -320.43130;112.34296;-107.42853;,
 -17.89044;189.81208;-93.93728;,
 -18.64624;189.59748;-107.42853;,
 -17.89044;189.81208;-93.93728;,
 -17.89044;112.11972;-93.93728;,
 -321.18709;112.11972;-93.93728;,
 -321.18709;189.81208;-93.93728;,
 0.31395;194.97129;-109.55289;,
 0.31395;106.75500;-109.55289;,
 -321.18709;189.81208;-93.93728;,
 -320.43130;189.59748;-107.42853;,
 -339.39154;106.75500;-109.55289;,
 -339.39154;194.97129;-109.55289;,
 1.06975;304.90400;0.73029;,
 1.06975;-1.45429;0.73029;,
 -340.14729;-1.45429;0.73029;,
 -340.14729;304.90400;0.73029;,
 1.06975;304.90400;0.73029;,
 -340.14729;304.90400;0.73029;,
 -340.14729;-1.45429;0.73029;,
 1.06975;-1.45429;0.73029;,
 -17.89044;197.58132;-93.93728;,
 -17.89044;285.96388;-93.93728;,
 -18.64624;285.20725;-107.42853;,
 -18.64624;197.32288;-107.42853;,
 -17.89044;197.58132;-93.93728;,
 -321.18709;197.58132;-93.93728;,
 -321.18709;285.96388;-93.93728;,
 -17.89044;285.96388;-93.93728;,
 0.31395;304.14737;-109.55289;,
 0.31395;194.97129;-109.55289;,
 -321.18709;197.58132;-93.93728;,
 -320.43130;197.32288;-107.42853;,
 -320.43130;285.20725;-107.42853;,
 -321.18709;285.96388;-93.93728;,
 -339.39154;194.97129;-109.55289;,
 -339.39154;304.14737;-109.55289;,
 -17.89044;99.63278;-107.88122;,
 -17.89044;112.79579;-107.88122;,
 -321.18709;99.63278;-107.88122;,
 -321.18709;112.79579;-107.88122;,
 -17.89044;189.81208;-107.88122;,
 -17.89044;197.58132;-107.88122;,
 -321.18709;189.81208;-107.88122;,
 -321.18709;197.58132;-107.88122;,
 0.31395;106.75500;-109.55289;,
 0.31395;194.97129;-109.55289;,
 -339.39154;194.97129;-109.55289;,
 -339.39154;106.75500;-109.55289;,
 1.06975;-1.45429;0.73029;,
 1.06975;304.90400;0.73029;,
 -340.14729;304.90400;0.73029;,
 -340.14729;-1.45429;0.73029;,
 1.06945;304.90400;0.76752;,
 -340.14729;304.90400;0.76755;,
 -339.39154;304.14737;111.05071;,
 0.31367;304.14737;111.05067;,
 0.31367;-0.69774;111.05067;,
 -339.39154;-0.69774;111.05071;,
 -340.14729;-1.45429;0.76755;,
 1.06945;-1.45429;0.76752;,
 -18.64653;285.20725;108.92631;,
 -320.43134;285.20725;108.92636;,
 -321.18714;285.96388;95.43510;,
 -17.89074;285.96388;95.43508;,
 -320.43134;18.24238;108.92636;,
 -18.64653;18.24238;108.92631;,
 -17.89074;17.48575;95.43508;,
 -321.18714;17.48575;95.43510;,
 -321.18714;98.95679;95.43510;,
 -320.43134;99.25415;108.92636;,
 -320.43134;18.24238;108.92636;,
 -321.18714;17.48575;95.43510;,
 -321.18714;98.95679;95.43510;,
 -321.18714;17.48575;95.43510;,
 -17.89074;17.48575;95.43508;,
 -17.89074;98.95679;95.43508;,
 -339.39154;106.75500;111.05071;,
 -339.39154;-0.69774;111.05071;,
 -17.89074;98.95679;95.43508;,
 -17.89074;17.48575;95.43508;,
 -18.64653;18.24238;108.92631;,
 -18.64653;99.25415;108.92631;,
 0.31367;-0.69774;111.05067;,
 0.31367;106.75500;111.05067;,
 -321.18714;112.11972;95.43510;,
 -320.43134;112.34296;108.92636;,
 -17.89074;112.11972;95.43508;,
 -18.64653;112.34296;108.92631;,
 -321.18714;189.81208;95.43510;,
 -320.43134;189.59748;108.92636;,
 -321.18714;189.81208;95.43510;,
 -321.18714;112.11972;95.43510;,
 -17.89074;112.11972;95.43508;,
 -17.89074;189.81208;95.43508;,
 -339.39154;194.97129;111.05071;,
 -339.39154;106.75500;111.05071;,
 -17.89074;189.81208;95.43508;,
 -18.64653;189.59748;108.92631;,
 0.31367;106.75500;111.05067;,
 0.31367;194.97129;111.05067;,
 -340.14729;304.90400;0.76755;,
 -340.14729;-1.45429;0.76755;,
 1.06945;-1.45429;0.76752;,
 1.06945;304.90400;0.76752;,
 -340.14729;304.90400;0.76755;,
 1.06945;304.90400;0.76752;,
 1.06945;-1.45429;0.76752;,
 -340.14729;-1.45429;0.76755;,
 -321.18714;197.58132;95.43510;,
 -321.18714;285.96388;95.43510;,
 -320.43134;285.20725;108.92636;,
 -320.43134;197.32288;108.92636;,
 -321.18714;197.58132;95.43510;,
 -17.89074;197.58132;95.43508;,
 -17.89074;285.96388;95.43508;,
 -321.18714;285.96388;95.43510;,
 -339.39154;304.14737;111.05071;,
 -339.39154;194.97129;111.05071;,
 -17.89074;197.58132;95.43508;,
 -18.64653;197.32288;108.92631;,
 -18.64653;285.20725;108.92631;,
 -17.89074;285.96388;95.43508;,
 0.31367;194.97129;111.05067;,
 0.31367;304.14737;111.05067;,
 -321.18714;99.63278;109.37905;,
 -321.18714;112.79579;109.37905;,
 -17.89073;99.63278;109.37900;,
 -17.89073;112.79579;109.37900;,
 -321.18714;189.81208;109.37905;,
 -321.18714;197.58132;109.37905;,
 -17.89073;189.81208;109.37900;,
 -17.89073;197.58132;109.37900;,
 -339.39154;106.75500;111.05071;,
 -339.39154;194.97129;111.05071;,
 0.31367;194.97129;111.05067;,
 0.31367;106.75500;111.05067;,
 -340.14729;-1.45429;0.76755;,
 -340.14729;304.90400;0.76755;,
 1.06945;304.90400;0.76752;,
 1.06945;-1.45429;0.76752;,
 340.29055;304.90400;0.76748;,
 -0.92650;304.90400;0.76752;,
 -0.17069;304.14737;111.05067;,
 339.53479;304.14737;111.05065;,
 339.53479;-0.69774;111.05065;,
 -0.17069;-0.69774;111.05067;,
 -0.92650;-1.45429;0.76752;,
 340.29055;-1.45429;0.76748;,
 320.57455;285.20725;108.92629;,
 18.78950;285.20725;108.92631;,
 18.03369;285.96388;95.43508;,
 321.33035;285.96388;95.43506;,
 18.78950;18.24238;108.92631;,
 320.57455;18.24238;108.92629;,
 321.33035;17.48575;95.43506;,
 18.03369;17.48575;95.43508;,
 18.03369;98.95679;95.43508;,
 18.78950;99.25415;108.92631;,
 18.78950;18.24238;108.92631;,
 18.03369;17.48575;95.43508;,
 18.03369;98.95679;95.43508;,
 18.03369;17.48575;95.43508;,
 321.33035;17.48575;95.43506;,
 321.33035;98.95679;95.43506;,
 -0.17069;106.75500;111.05067;,
 -0.17069;-0.69774;111.05067;,
 321.33035;98.95679;95.43506;,
 321.33035;17.48575;95.43506;,
 320.57455;18.24238;108.92629;,
 320.57455;99.25415;108.92629;,
 339.53479;-0.69774;111.05065;,
 339.53479;106.75500;111.05065;,
 18.03369;112.11972;95.43508;,
 18.78950;112.34296;108.92631;,
 321.33035;112.11972;95.43506;,
 320.57455;112.34296;108.92629;,
 18.03369;189.81208;95.43508;,
 18.78950;189.59748;108.92631;,
 18.03369;189.81208;95.43508;,
 18.03369;112.11972;95.43508;,
 321.33035;112.11972;95.43506;,
 321.33035;189.81208;95.43506;,
 -0.17069;194.97129;111.05067;,
 -0.17069;106.75500;111.05067;,
 321.33035;189.81208;95.43506;,
 320.57455;189.59748;108.92629;,
 339.53479;106.75500;111.05065;,
 339.53479;194.97129;111.05065;,
 -0.92650;304.90400;0.76752;,
 -0.92650;-1.45429;0.76752;,
 340.29055;-1.45429;0.76748;,
 340.29055;304.90400;0.76748;,
 -0.92650;304.90400;0.76752;,
 340.29055;304.90400;0.76748;,
 340.29055;-1.45429;0.76748;,
 -0.92650;-1.45429;0.76752;,
 18.03369;197.58132;95.43508;,
 18.03369;285.96388;95.43508;,
 18.78950;285.20725;108.92631;,
 18.78950;197.32288;108.92631;,
 18.03369;197.58132;95.43508;,
 321.33035;197.58132;95.43506;,
 321.33035;285.96388;95.43506;,
 18.03369;285.96388;95.43508;,
 -0.17069;304.14737;111.05067;,
 -0.17069;194.97129;111.05067;,
 321.33035;197.58132;95.43506;,
 320.57455;197.32288;108.92629;,
 320.57455;285.20725;108.92629;,
 321.33035;285.96388;95.43506;,
 339.53479;194.97129;111.05065;,
 339.53479;304.14737;111.05065;,
 18.03370;99.63278;109.37900;,
 18.03370;112.79579;109.37900;,
 321.33035;99.63278;109.37898;,
 321.33035;112.79579;109.37898;,
 18.03370;189.81208;109.37900;,
 18.03370;197.58132;109.37900;,
 321.33035;189.81208;109.37898;,
 321.33035;197.58132;109.37898;,
 -0.17069;106.75500;111.05067;,
 -0.17069;194.97129;111.05067;,
 339.53479;194.97129;111.05065;,
 339.53479;106.75500;111.05065;,
 -0.92650;-1.45429;0.76752;,
 -0.92650;304.90400;0.76752;,
 340.29055;304.90400;0.76748;,
 340.29055;-1.45429;0.76748;;
 
 184;
 4;0,1,2,3;,
 4;4,5,6,7;,
 4;8,9,10,11;,
 4;3,2,9,8;,
 4;12,13,14,15;,
 4;5,4,13,12;,
 4;16,17,18,19;,
 4;20,21,22,23;,
 4;17,24,25,18;,
 4;26,27,28,29;,
 4;29,28,30,31;,
 4;32,33,17,16;,
 4;34,26,29,35;,
 4;36,37,33,32;,
 4;38,39,40,41;,
 4;37,42,43,33;,
 4;44,34,35,45;,
 4;45,35,46,47;,
 4;42,48,49,43;,
 4;47,46,50,51;,
 4;52,53,54,55;,
 4;56,57,58,59;,
 4;56,59,37,36;,
 4;60,61,62,63;,
 4;59,58,64,65;,
 4;66,44,45,67;,
 4;66,67,68,69;,
 4;67,70,71,68;,
 4;72,73,39,20;,
 4;74,72,20,23;,
 4;75,74,23,40;,
 4;73,75,40,39;,
 4;73,72,74,75;,
 4;76,77,60,38;,
 4;78,76,38,41;,
 4;79,78,41,61;,
 4;77,79,61,60;,
 4;77,76,78,79;,
 3;80,17,33;,
 3;81,37,59;,
 3;82,67,45;,
 3;83,35,29;,
 3;84,25,24;,
 3;85,65,64;,
 3;86,71,70;,
 3;87,31,30;,
 4;88,89,90,91;,
 4;92,93,94,95;,
 4;96,97,98,99;,
 4;91,90,97,96;,
 4;100,101,102,103;,
 4;93,92,101,100;,
 4;104,105,106,107;,
 4;108,109,110,111;,
 4;105,112,113,106;,
 4;114,115,116,117;,
 4;117,116,118,119;,
 4;120,121,105,104;,
 4;122,114,117,123;,
 4;124,125,121,120;,
 4;126,127,128,129;,
 4;125,130,131,121;,
 4;132,122,123,133;,
 4;133,123,134,135;,
 4;130,136,137,131;,
 4;135,134,138,139;,
 4;140,141,142,143;,
 4;144,145,146,147;,
 4;144,147,125,124;,
 4;148,149,150,151;,
 4;147,146,152,153;,
 4;154,132,133,155;,
 4;154,155,156,157;,
 4;155,158,159,156;,
 4;160,161,127,108;,
 4;162,160,108,111;,
 4;163,162,111,128;,
 4;161,163,128,127;,
 4;161,160,162,163;,
 4;164,165,148,126;,
 4;166,164,126,129;,
 4;167,166,129,149;,
 4;165,167,149,148;,
 4;165,164,166,167;,
 3;168,105,121;,
 3;169,125,147;,
 3;170,155,133;,
 3;171,123,117;,
 3;172,113,112;,
 3;173,153,152;,
 3;174,159,158;,
 3;175,119,118;,
 4;176,177,178,179;,
 4;180,181,182,183;,
 4;184,185,186,187;,
 4;179,178,185,184;,
 4;188,189,190,191;,
 4;181,180,189,188;,
 4;192,193,194,195;,
 4;196,197,198,199;,
 4;193,200,201,194;,
 4;202,203,204,205;,
 4;205,204,206,207;,
 4;208,209,193,192;,
 4;210,202,205,211;,
 4;212,213,209,208;,
 4;214,215,216,217;,
 4;213,218,219,209;,
 4;220,210,211,221;,
 4;221,211,222,223;,
 4;218,224,225,219;,
 4;223,222,226,227;,
 4;228,229,230,231;,
 4;232,233,234,235;,
 4;232,235,213,212;,
 4;236,237,238,239;,
 4;235,234,240,241;,
 4;242,220,221,243;,
 4;242,243,244,245;,
 4;243,246,247,244;,
 4;248,249,215,196;,
 4;250,248,196,199;,
 4;251,250,199,216;,
 4;249,251,216,215;,
 4;249,248,250,251;,
 4;252,253,236,214;,
 4;254,252,214,217;,
 4;255,254,217,237;,
 4;253,255,237,236;,
 4;253,252,254,255;,
 3;256,193,209;,
 3;257,213,235;,
 3;258,243,221;,
 3;259,211,205;,
 3;260,201,200;,
 3;261,241,240;,
 3;262,247,246;,
 3;263,207,206;,
 4;264,265,266,267;,
 4;268,269,270,271;,
 4;272,273,274,275;,
 4;267,266,273,272;,
 4;276,277,278,279;,
 4;269,268,277,276;,
 4;280,281,282,283;,
 4;284,285,286,287;,
 4;281,288,289,282;,
 4;290,291,292,293;,
 4;293,292,294,295;,
 4;296,297,281,280;,
 4;298,290,293,299;,
 4;300,301,297,296;,
 4;302,303,304,305;,
 4;301,306,307,297;,
 4;308,298,299,309;,
 4;309,299,310,311;,
 4;306,312,313,307;,
 4;311,310,314,315;,
 4;316,317,318,319;,
 4;320,321,322,323;,
 4;320,323,301,300;,
 4;324,325,326,327;,
 4;323,322,328,329;,
 4;330,308,309,331;,
 4;330,331,332,333;,
 4;331,334,335,332;,
 4;336,337,303,284;,
 4;338,336,284,287;,
 4;339,338,287,304;,
 4;337,339,304,303;,
 4;337,336,338,339;,
 4;340,341,324,302;,
 4;342,340,302,305;,
 4;343,342,305,325;,
 4;341,343,325,324;,
 4;341,340,342,343;,
 3;344,281,297;,
 3;345,301,323;,
 3;346,331,309;,
 3;347,299,293;,
 3;348,289,288;,
 3;349,329,328;,
 3;350,335,334;,
 3;351,295,294;;
 
 MeshMaterialList {
  2;
  184;
  0,
  0,
  0,
  0,
  0,
  0,
  0,
  1,
  0,
  0,
  0,
  0,
  0,
  0,
  1,
  0,
  0,
  0,
  0,
  0,
  0,
  0,
  0,
  1,
  0,
  0,
  0,
  0,
  1,
  1,
  1,
  0,
  0,
  1,
  1,
  1,
  1,
  1,
  0,
  0,
  0,
  0,
  0,
  0,
  0,
  0,
  0,
  0,
  0,
  0,
  0,
  0,
  0,
  1,
  0,
  0,
  0,
  0,
  0,
  0,
  1,
  0,
  0,
  0,
  0,
  0,
  0,
  0,
  0,
  1,
  0,
  0,
  0,
  0,
  1,
  1,
  1,
  0,
  0,
  1,
  1,
  1,
  1,
  1,
  0,
  0,
  0,
  0,
  0,
  0,
  0,
  0,
  0,
  0,
  0,
  0,
  0,
  0,
  0,
  1,
  0,
  0,
  0,
  0,
  0,
  0,
  1,
  0,
  0,
  0,
  0,
  0,
  0,
  0,
  0,
  1,
  0,
  0,
  0,
  0,
  1,
  1,
  1,
  0,
  0,
  1,
  1,
  1,
  1,
  1,
  0,
  0,
  0,
  0,
  0,
  0,
  0,
  0,
  0,
  0,
  0,
  0,
  0,
  0,
  0,
  1,
  0,
  0,
  0,
  0,
  0,
  0,
  1,
  0,
  0,
  0,
  0,
  0,
  0,
  0,
  0,
  1,
  0,
  0,
  0,
  0,
  1,
  1,
  1,
  0,
  0,
  1,
  1,
  1,
  1,
  1,
  0,
  0,
  0,
  0,
  0,
  0,
  0,
  0;;
  Material {
   0.298400;0.200800;0.150400;1.000000;;
   5.000000;
   0.000000;0.000000;0.000000;;
   0.000000;0.000000;0.000000;;
  }
  Material {
   0.800000;0.800000;0.800000;1.000000;;
   5.000000;
   0.000000;0.000000;0.000000;;
   0.000000;0.000000;0.000000;;
   TextureFilename {
    "data/TEXTURE/book.jpg";
   }
  }
 }
 MeshNormals {
  138;
  0.000000;-0.998431;0.055995;,
  0.000000;0.998431;0.055995;,
  0.000000;0.999976;-0.006861;,
  0.000000;-0.999976;-0.006860;,
  -0.998434;0.000000;0.055934;,
  0.000000;0.000000;-1.000000;,
  0.998434;0.000000;0.055934;,
  -0.111347;0.000000;-0.993782;,
  0.111347;0.000000;-0.993782;,
  -0.998435;0.000000;0.055934;,
  0.998435;0.000000;0.055934;,
  -0.998435;0.000000;0.055934;,
  0.998435;0.000000;0.055934;,
  1.000000;0.000000;0.000000;,
  0.000000;-0.998827;-0.048422;,
  -1.000000;0.000000;0.000000;,
  0.000000;-1.000000;-0.000000;,
  0.055847;-0.055905;-0.996873;,
  -0.055847;-0.055905;-0.996873;,
  -0.055847;0.055905;-0.996873;,
  0.055847;0.055905;-0.996873;,
  -0.111347;0.000000;-0.993782;,
  0.111347;0.000000;-0.993782;,
  -0.111347;0.000000;-0.993782;,
  -0.111347;0.000000;-0.993782;,
  0.111347;0.000000;-0.993782;,
  0.111347;0.000000;-0.993782;,
  0.999977;0.000000;-0.006853;,
  -0.999977;0.000000;-0.006853;,
  0.000000;0.000000;1.000000;,
  -0.998434;0.000000;0.055934;,
  0.998434;0.000000;0.055934;,
  0.000000;0.998827;0.048428;,
  0.000000;1.000000;0.000000;,
  0.999977;0.000000;-0.006853;,
  -0.999977;0.000000;-0.006853;,
  0.000000;-0.998431;0.055995;,
  0.000000;0.998431;0.055995;,
  0.000000;0.999976;-0.006861;,
  0.000000;-0.999976;-0.006860;,
  -0.998434;0.000000;0.055934;,
  0.000000;0.000000;-1.000000;,
  0.998434;0.000000;0.055934;,
  -0.111347;0.000000;-0.993782;,
  0.111346;0.000000;-0.993782;,
  -0.998435;0.000000;0.055934;,
  0.998435;0.000000;0.055934;,
  -0.998435;0.000000;0.055934;,
  0.998435;0.000000;0.055934;,
  0.111346;0.000000;-0.993782;,
  1.000000;0.000000;0.000000;,
  0.000000;-0.998827;-0.048422;,
  -1.000000;0.000000;0.000000;,
  0.000000;-1.000000;-0.000000;,
  0.055847;-0.055905;-0.996873;,
  -0.055847;-0.055905;-0.996873;,
  -0.055847;0.055905;-0.996873;,
  0.055847;0.055905;-0.996873;,
  -0.111347;0.000000;-0.993782;,
  -0.111347;0.000000;-0.993782;,
  0.111346;0.000000;-0.993782;,
  0.999977;0.000000;-0.006853;,
  -0.999977;0.000000;-0.006853;,
  0.000000;0.000000;1.000000;,
  -0.998434;0.000000;0.055934;,
  0.998434;0.000000;0.055934;,
  0.000000;0.998827;0.048428;,
  0.000000;1.000000;0.000000;,
  0.999977;0.000000;-0.006853;,
  -0.999977;0.000000;-0.006853;,
  -0.000000;-0.998431;-0.055995;,
  -0.000000;0.998431;-0.055995;,
  0.000000;0.999976;0.006861;,
  0.000000;-0.999976;0.006860;,
  0.998435;0.000000;-0.055934;,
  0.000000;0.000000;1.000000;,
  -0.998435;0.000000;-0.055934;,
  0.111346;0.000000;0.993782;,
  -0.111346;0.000000;0.993782;,
  0.998434;0.000000;-0.055934;,
  -0.998434;0.000000;-0.055934;,
  0.998434;0.000000;-0.055934;,
  -0.998434;0.000000;-0.055934;,
  0.998435;0.000000;-0.055934;,
  -0.998435;0.000000;-0.055934;,
  -1.000000;0.000000;0.000000;,
  0.000000;-0.998827;0.048422;,
  1.000000;0.000000;-0.000000;,
  0.000000;-1.000000;-0.000000;,
  1.000000;0.000000;-0.000000;,
  -0.000000;-0.998431;-0.055995;,
  -0.000000;0.998431;-0.055995;,
  0.000000;0.999976;0.006861;,
  0.000000;-0.999976;0.006860;,
  0.998435;0.000000;-0.055934;,
  0.000000;0.000000;1.000000;,
  -0.998435;0.000000;-0.055934;,
  0.111346;0.000000;0.993782;,
  -0.111346;0.000000;0.993782;,
  0.998435;0.000000;-0.055934;,
  -0.998435;0.000000;-0.055934;,
  0.998434;0.000000;-0.055934;,
  0.000000;0.000000;1.000000;,
  -0.998434;0.000000;-0.055934;,
  -0.998435;0.000000;-0.055934;,
  0.111346;0.000000;0.993782;,
  -1.000000;0.000000;0.000000;,
  0.000000;-0.998827;0.048422;,
  1.000000;0.000000;0.000000;,
  -1.000000;0.000000;0.000000;,
  -0.055847;-0.055905;0.996873;,
  0.055847;-0.055905;0.996873;,
  0.055847;0.055905;0.996873;,
  -0.055847;0.055905;0.996873;,
  0.998435;0.000000;-0.055934;,
  0.111346;0.000000;0.993782;,
  -0.998435;0.000000;-0.055934;,
  -0.111346;0.000000;0.993782;,
  -0.999977;0.000000;0.006853;,
  0.999977;0.000000;0.006853;,
  -0.000000;0.000000;-1.000000;,
  -0.000000;0.998827;-0.048428;,
  0.000000;0.000000;1.000000;,
  0.000000;1.000000;0.000000;,
  -0.999977;0.000000;0.006853;,
  -0.055846;-0.055905;0.996873;,
  0.055847;-0.055905;0.996873;,
  0.055847;0.055905;0.996873;,
  -0.055846;0.055905;0.996873;,
  0.111346;0.000000;0.993782;,
  -0.111346;0.000000;0.993782;,
  0.111346;0.000000;0.993782;,
  -0.999977;0.000000;0.006853;,
  -0.999977;0.000000;0.006853;,
  0.999977;0.000000;0.006853;,
  -0.000000;0.000000;-1.000000;,
  -0.000000;0.998827;-0.048428;,
  0.999977;0.000000;0.006853;;
  184;
  4;2,2,2,2;,
  4;3,3,3,3;,
  4;0,0,0,0;,
  4;17,18,18,17;,
  4;1,1,1,1;,
  4;19,20,20,19;,
  4;4,4,4,4;,
  4;5,5,5,5;,
  4;21,7,19,19;,
  4;6,6,6,6;,
  4;22,20,20,8;,
  4;9,9,4,4;,
  4;10,6,6,10;,
  4;11,11,9,9;,
  4;5,5,5,5;,
  4;23,7,7,24;,
  4;12,10,10,12;,
  4;25,26,8,8;,
  4;27,27,27,27;,
  4;28,28,28,28;,
  4;29,29,29,29;,
  4;11,30,30,11;,
  4;11,11,11,11;,
  4;5,5,5,5;,
  4;23,18,18,7;,
  4;12,12,12,12;,
  4;12,12,31,31;,
  4;25,8,17,17;,
  4;13,13,13,13;,
  4;14,14,14,14;,
  4;15,15,15,15;,
  4;32,32,32,32;,
  4;5,5,5,5;,
  4;13,13,13,13;,
  4;16,16,16,16;,
  4;15,15,15,15;,
  4;33,33,33,33;,
  4;5,5,5,5;,
  3;7,21,24;,
  3;7,23,23;,
  3;8,25,25;,
  3;8,26,22;,
  3;27,27,27;,
  3;27,27,34;,
  3;28,35,28;,
  3;28,28,28;,
  4;38,38,38,38;,
  4;39,39,39,39;,
  4;36,36,36,36;,
  4;54,55,55,54;,
  4;37,37,37,37;,
  4;56,57,57,56;,
  4;40,40,40,40;,
  4;41,41,41,41;,
  4;58,43,56,56;,
  4;42,42,42,42;,
  4;49,57,57,44;,
  4;45,45,40,40;,
  4;46,42,42,46;,
  4;47,47,45,45;,
  4;41,41,41,41;,
  4;43,43,43,59;,
  4;48,46,46,48;,
  4;60,49,44,49;,
  4;61,61,61,61;,
  4;62,62,62,62;,
  4;63,63,63,63;,
  4;47,64,64,47;,
  4;47,47,47,47;,
  4;41,41,41,41;,
  4;59,55,55,43;,
  4;48,48,48,48;,
  4;48,48,65,65;,
  4;49,49,54,54;,
  4;50,50,50,50;,
  4;51,51,51,51;,
  4;52,52,52,52;,
  4;66,66,66,66;,
  4;41,41,41,41;,
  4;50,50,50,50;,
  4;53,53,53,53;,
  4;52,52,52,52;,
  4;67,67,67,67;,
  4;41,41,41,41;,
  3;43,58,59;,
  3;43,43,59;,
  3;49,49,60;,
  3;44,49,49;,
  3;61,61,61;,
  3;61,61,68;,
  3;62,69,62;,
  3;62,62,62;,
  4;72,72,72,72;,
  4;73,73,73,73;,
  4;70,70,70,70;,
  4;110,111,111,110;,
  4;71,71,71,71;,
  4;112,113,113,112;,
  4;74,74,114,114;,
  4;75,75,75,75;,
  4;115,77,112,112;,
  4;76,116,116,76;,
  4;117,113,113,78;,
  4;79,79,74,74;,
  4;80,76,76,80;,
  4;81,81,79,79;,
  4;75,75,75,75;,
  4;115,77,77,115;,
  4;82,80,80,82;,
  4;117,117,78,78;,
  4;118,118,118,118;,
  4;119,119,119,119;,
  4;120,120,120,120;,
  4;83,114,114,83;,
  4;83,83,81,81;,
  4;75,75,75,75;,
  4;115,111,111,77;,
  4;84,82,82,84;,
  4;84,84,116,116;,
  4;117,78,110,110;,
  4;85,85,85,85;,
  4;86,86,86,86;,
  4;87,87,87,87;,
  4;121,121,121,121;,
  4;122,122,122,122;,
  4;85,85,85,85;,
  4;88,88,88,88;,
  4;89,89,89,89;,
  4;123,123,123,123;,
  4;122,122,122,122;,
  3;77,115,115;,
  3;77,115,115;,
  3;78,117,117;,
  3;78,117,117;,
  3;118,124,118;,
  3;118,118,118;,
  3;119,119,119;,
  3;119,119,119;,
  4;92,92,92,92;,
  4;93,93,93,93;,
  4;90,90,90,90;,
  4;125,126,126,125;,
  4;91,91,91,91;,
  4;127,128,128,127;,
  4;94,94,94,94;,
  4;95,95,95,95;,
  4;129,97,127,127;,
  4;96,96,96,96;,
  4;130,128,128,98;,
  4;99,99,94,94;,
  4;100,96,96,100;,
  4;101,101,99,99;,
  4;102,102,102,102;,
  4;131,105,97,131;,
  4;103,100,100,103;,
  4;98,130,98,98;,
  4;132,132,133,133;,
  4;134,134,134,134;,
  4;135,135,135,135;,
  4;99,94,94,99;,
  4;99,99,101,101;,
  4;102,102,102,102;,
  4;129,126,126,105;,
  4;104,103,103,104;,
  4;104,104,96,96;,
  4;98,98,125,125;,
  4;106,106,106,106;,
  4;107,107,107,107;,
  4;108,108,108,108;,
  4;136,136,136,136;,
  4;102,102,102,102;,
  4;109,109,109,109;,
  4;88,88,88,88;,
  4;108,108,108,108;,
  4;123,123,123,123;,
  4;95,95,95,95;,
  3;97,129,131;,
  3;105,131,129;,
  3;98,98,98;,
  3;98,130,130;,
  3;133,133,133;,
  3;132,132,132;,
  3;134,134,134;,
  3;134,134,137;;
 }
 MeshTextureCoords {
  352;
  0.000000;0.000000;,
  1.000000;0.000000;,
  1.000000;1.000000;,
  0.000000;1.000000;,
  0.000000;0.000000;,
  1.000000;0.000000;,
  1.000000;1.000000;,
  0.000000;1.000000;,
  0.000000;1.000000;,
  1.000000;1.000000;,
  1.000000;1.000000;,
  0.000000;1.000000;,
  1.000000;0.000000;,
  0.000000;0.000000;,
  0.000000;0.000000;,
  1.000000;0.000000;,
  0.000000;0.696550;,
  0.000000;0.696550;,
  0.000000;1.000000;,
  0.000000;1.000000;,
  1.000000;0.696550;,
  1.000000;1.000000;,
  0.000000;1.000000;,
  0.000000;0.696550;,
  0.000000;0.696550;,
  0.000000;1.000000;,
  1.000000;0.696550;,
  1.000000;1.000000;,
  1.000000;1.000000;,
  1.000000;0.696550;,
  1.000000;1.000000;,
  1.000000;0.696550;,
  0.000000;0.647520;,
  0.000000;0.647520;,
  1.000000;0.647520;,
  1.000000;0.647520;,
  0.000000;0.358140;,
  0.000000;0.358140;,
  1.000000;0.358140;,
  1.000000;0.647520;,
  0.000000;0.647520;,
  0.000000;0.358140;,
  0.000000;0.358140;,
  0.000000;0.647520;,
  1.000000;0.358140;,
  1.000000;0.358140;,
  1.000000;0.647520;,
  1.000000;0.358140;,
  1.000000;0.358140;,
  1.000000;0.647520;,
  0.000000;0.647520;,
  0.000000;0.358140;,
  0.000000;0.358140;,
  1.000000;0.358140;,
  1.000000;0.647520;,
  0.000000;0.647520;,
  0.000000;0.329200;,
  0.000000;0.000000;,
  0.000000;0.000000;,
  0.000000;0.329200;,
  1.000000;0.329200;,
  0.000000;0.329200;,
  0.000000;0.000000;,
  1.000000;0.000000;,
  0.000000;0.000000;,
  0.000000;0.329200;,
  1.000000;0.329200;,
  1.000000;0.329200;,
  1.000000;0.000000;,
  1.000000;0.000000;,
  1.000000;0.329200;,
  1.000000;0.000000;,
  1.000000;0.696550;,
  1.000000;0.647520;,
  0.000000;0.696550;,
  0.000000;0.647520;,
  1.000000;0.358140;,
  1.000000;0.329200;,
  0.000000;0.358140;,
  0.000000;0.329200;,
  0.000000;0.672030;,
  0.000000;0.343670;,
  1.000000;0.343670;,
  1.000000;0.672030;,
  1.000000;0.848270;,
  1.000000;0.164600;,
  0.000000;0.164600;,
  0.000000;0.848270;,
  0.000000;0.000000;,
  1.000000;0.000000;,
  1.000000;1.000000;,
  0.000000;1.000000;,
  0.000000;0.000000;,
  1.000000;0.000000;,
  1.000000;1.000000;,
  0.000000;1.000000;,
  0.000000;1.000000;,
  1.000000;1.000000;,
  1.000000;1.000000;,
  0.000000;1.000000;,
  1.000000;0.000000;,
  0.000000;0.000000;,
  0.000000;0.000000;,
  1.000000;0.000000;,
  0.000000;0.696550;,
  0.000000;0.696550;,
  0.000000;1.000000;,
  0.000000;1.000000;,
  1.000000;0.696550;,
  1.000000;1.000000;,
  0.000000;1.000000;,
  0.000000;0.696550;,
  0.000000;0.696550;,
  0.000000;1.000000;,
  1.000000;0.696550;,
  1.000000;1.000000;,
  1.000000;1.000000;,
  1.000000;0.696550;,
  1.000000;1.000000;,
  1.000000;0.696550;,
  0.000000;0.647520;,
  0.000000;0.647520;,
  1.000000;0.647520;,
  1.000000;0.647520;,
  0.000000;0.358140;,
  0.000000;0.358140;,
  1.000000;0.358140;,
  1.000000;0.647520;,
  0.000000;0.647520;,
  0.000000;0.358140;,
  0.000000;0.358140;,
  0.000000;0.647520;,
  1.000000;0.358140;,
  1.000000;0.358140;,
  1.000000;0.647520;,
  1.000000;0.358140;,
  1.000000;0.358140;,
  1.000000;0.647520;,
  0.000000;0.647520;,
  0.000000;0.358140;,
  0.000000;0.358140;,
  1.000000;0.358140;,
  1.000000;0.647520;,
  0.000000;0.647520;,
  0.000000;0.329200;,
  0.000000;0.000000;,
  0.000000;0.000000;,
  0.000000;0.329200;,
  1.000000;0.329200;,
  0.000000;0.329200;,
  0.000000;0.000000;,
  1.000000;0.000000;,
  0.000000;0.000000;,
  0.000000;0.329200;,
  1.000000;0.329200;,
  1.000000;0.329200;,
  1.000000;0.000000;,
  1.000000;0.000000;,
  1.000000;0.329200;,
  1.000000;0.000000;,
  1.000000;0.696550;,
  1.000000;0.647520;,
  0.000000;0.696550;,
  0.000000;0.647520;,
  1.000000;0.358140;,
  1.000000;0.329200;,
  0.000000;0.358140;,
  0.000000;0.329200;,
  0.000000;0.672030;,
  0.000000;0.343670;,
  1.000000;0.343670;,
  1.000000;0.672030;,
  1.000000;0.848270;,
  1.000000;0.164600;,
  0.000000;0.164600;,
  0.000000;0.848270;,
  0.000000;0.000000;,
  1.000000;0.000000;,
  1.000000;1.000000;,
  0.000000;1.000000;,
  0.000000;0.000000;,
  1.000000;0.000000;,
  1.000000;1.000000;,
  0.000000;1.000000;,
  0.000000;1.000000;,
  1.000000;1.000000;,
  1.000000;1.000000;,
  0.000000;1.000000;,
  1.000000;0.000000;,
  0.000000;0.000000;,
  0.000000;0.000000;,
  1.000000;0.000000;,
  0.000000;0.696550;,
  0.000000;0.696550;,
  0.000000;1.000000;,
  0.000000;1.000000;,
  1.000000;0.696550;,
  1.000000;1.000000;,
  0.000000;1.000000;,
  0.000000;0.696550;,
  0.000000;0.696550;,
  0.000000;1.000000;,
  1.000000;0.696550;,
  1.000000;1.000000;,
  1.000000;1.000000;,
  1.000000;0.696550;,
  1.000000;1.000000;,
  1.000000;0.696550;,
  0.000000;0.647520;,
  0.000000;0.647520;,
  1.000000;0.647520;,
  1.000000;0.647520;,
  0.000000;0.358140;,
  0.000000;0.358140;,
  1.000000;0.358140;,
  1.000000;0.647520;,
  0.000000;0.647520;,
  0.000000;0.358140;,
  0.000000;0.358140;,
  0.000000;0.647520;,
  1.000000;0.358140;,
  1.000000;0.358140;,
  1.000000;0.647520;,
  1.000000;0.358140;,
  1.000000;0.358140;,
  1.000000;0.647520;,
  0.000000;0.647520;,
  0.000000;0.358140;,
  0.000000;0.358140;,
  1.000000;0.358140;,
  1.000000;0.647520;,
  0.000000;0.647520;,
  0.000000;0.329200;,
  0.000000;0.000000;,
  0.000000;0.000000;,
  0.000000;0.329200;,
  1.000000;0.329200;,
  0.000000;0.329200;,
  0.000000;0.000000;,
  1.000000;0.000000;,
  0.000000;0.000000;,
  0.000000;0.329200;,
  1.000000;0.329200;,
  1.000000;0.329200;,
  1.000000;0.000000;,
  1.000000;0.000000;,
  1.000000;0.329200;,
  1.000000;0.000000;,
  1.000000;0.696550;,
  1.000000;0.647520;,
  0.000000;0.696550;,
  0.000000;0.647520;,
  1.000000;0.358140;,
  1.000000;0.329200;,
  0.000000;0.358140;,
  0.000000;0.329200;,
  0.000000;0.672030;,
  0.000000;0.343670;,
  1.000000;0.343670;,
  1.000000;0.672030;,
  1.000000;0.848270;,
  1.000000;0.164600;,
  0.000000;0.164600;,
  0.000000;0.848270;,
  0.000000;0.000000;,
  1.000000;0.000000;,
  1.000000;1.000000;,
  0.000000;1.000000;,
  0.000000;0.000000;,
  1.000000;0.000000;,
  1.000000;1.000000;,
  0.000000;1.000000;,
  0.000000;1.000000;,
  1.000000;1.000000;,
  1.000000;1.000000;,
  0.000000;1.000000;,
  1.000000;0.000000;,
  0.000000;0.000000;,
  0.000000;0.000000;,
  1.000000;0.000000;,
  0.000000;0.696550;,
  0.000000;0.696550;,
  0.000000;1.000000;,
  0.000000;1.000000;,
  1.000000;0.696550;,
  1.000000;1.000000;,
  0.000000;1.000000;,
  0.000000;0.696550;,
  0.000000;0.696550;,
  0.000000;1.000000;,
  1.000000;0.696550;,
  1.000000;1.000000;,
  1.000000;1.000000;,
  1.000000;0.696550;,
  1.000000;1.000000;,
  1.000000;0.696550;,
  0.000000;0.647520;,
  0.000000;0.647520;,
  1.000000;0.647520;,
  1.000000;0.647520;,
  0.000000;0.358140;,
  0.000000;0.358140;,
  1.000000;0.358140;,
  1.000000;0.647520;,
  0.000000;0.647520;,
  0.000000;0.358140;,
  0.000000;0.358140;,
  0.000000;0.647520;,
  1.000000;0.358140;,
  1.000000;0.358140;,
  1.000000;0.647520;,
  1.000000;0.358140;,
  1.000000;0.358140;,
  1.000000;0.647520;,
  0.000000;0.647520;,
  0.000000;0.358140;,
  0.000000;0.358140;,
  1.000000;0.358140;,
  1.000000;0.647520;,
  0.000000;0.647520;,
  0.000000;0.329200;,
  0.000000;0.000000;,
  0.000000;0.000000;,
  0.000000;0.329200;,
  1.000000;0.329200;,
  0.000000;0.329200;,
  0.000000;0.000000;,
  1.000000;0.000000;,
  0.000000;0.000000;,
  0.000000;0.329200;,
  1.000000;0.329200;,
  1.000000;0.329200;,
  1.000000;0.000000;,
  1.000000;0.000000;,
  1.000000;0.329200;,
  1.000000;0.000000;,
  1.000000;0.696550;,
  1.000000;0.647520;,
  0.000000;0.696550;,
  0.000000;0.647520;,
  1.000000;0.358140;,
  1.000000;0.329200;,
  0.000000;0.358140;,
  0.000000;0.329200;,
  0.000000;0.672030;,
  0.000000;0.343670;,
  1.000000;0.343670;,
  1.000000;0.672030;,
  1.000000;0.848270;,
  1.000000;0.164600;,
  0.000000;0.164600;,
  0.000000;0.848270;;
 }
}
