xof 0302txt 0064
template Header {
 <3D82AB43-62DA-11cf-AB39-0020AF71E433>
 WORD major;
 WORD minor;
 DWORD flags;
}

template Vector {
 <3D82AB5E-62DA-11cf-AB39-0020AF71E433>
 FLOAT x;
 FLOAT y;
 FLOAT z;
}

template Coords2d {
 <F6F23F44-7686-11cf-8F52-0040333594A3>
 FLOAT u;
 FLOAT v;
}

template Matrix4x4 {
 <F6F23F45-7686-11cf-8F52-0040333594A3>
 array FLOAT matrix[16];
}

template ColorRGBA {
 <35FF44E0-6C7C-11cf-8F52-0040333594A3>
 FLOAT red;
 FLOAT green;
 FLOAT blue;
 FLOAT alpha;
}

template ColorRGB {
 <D3E16E81-7835-11cf-8F52-0040333594A3>
 FLOAT red;
 FLOAT green;
 FLOAT blue;
}

template IndexedColor {
 <1630B820-7842-11cf-8F52-0040333594A3>
 DWORD index;
 ColorRGBA indexColor;
}

template Boolean {
 <4885AE61-78E8-11cf-8F52-0040333594A3>
 WORD truefalse;
}

template Boolean2d {
 <4885AE63-78E8-11cf-8F52-0040333594A3>
 Boolean u;
 Boolean v;
}

template MaterialWrap {
 <4885AE60-78E8-11cf-8F52-0040333594A3>
 Boolean u;
 Boolean v;
}

template TextureFilename {
 <A42790E1-7810-11cf-8F52-0040333594A3>
 STRING filename;
}

template Material {
 <3D82AB4D-62DA-11cf-AB39-0020AF71E433>
 ColorRGBA faceColor;
 FLOAT power;
 ColorRGB specularColor;
 ColorRGB emissiveColor;
 [...]
}

template MeshFace {
 <3D82AB5F-62DA-11cf-AB39-0020AF71E433>
 DWORD nFaceVertexIndices;
 array DWORD faceVertexIndices[nFaceVertexIndices];
}

template MeshFaceWraps {
 <4885AE62-78E8-11cf-8F52-0040333594A3>
 DWORD nFaceWrapValues;
 Boolean2d faceWrapValues;
}

template MeshTextureCoords {
 <F6F23F40-7686-11cf-8F52-0040333594A3>
 DWORD nTextureCoords;
 array Coords2d textureCoords[nTextureCoords];
}

template MeshMaterialList {
 <F6F23F42-7686-11cf-8F52-0040333594A3>
 DWORD nMaterials;
 DWORD nFaceIndexes;
 array DWORD faceIndexes[nFaceIndexes];
 [Material]
}

template MeshNormals {
 <F6F23F43-7686-11cf-8F52-0040333594A3>
 DWORD nNormals;
 array Vector normals[nNormals];
 DWORD nFaceNormals;
 array MeshFace faceNormals[nFaceNormals];
}

template MeshVertexColors {
 <1630B821-7842-11cf-8F52-0040333594A3>
 DWORD nVertexColors;
 array IndexedColor vertexColors[nVertexColors];
}

template Mesh {
 <3D82AB44-62DA-11cf-AB39-0020AF71E433>
 DWORD nVertices;
 array Vector vertices[nVertices];
 DWORD nFaces;
 array MeshFace faces[nFaces];
 [...]
}

Header{
1;
0;
1;
}

Mesh {
 88;
 -170.60841;306.34450;55.58288;,
 170.60841;306.34450;55.58288;,
 169.85262;305.58787;-54.70030;,
 -169.85262;305.58787;-54.70030;,
 -169.85262;0.74277;-54.70030;,
 169.85262;0.74277;-54.70030;,
 170.60841;-0.01379;55.58288;,
 -170.60841;-0.01379;55.58288;,
 -150.89241;286.64775;-52.57594;,
 150.89241;286.64775;-52.57594;,
 151.64821;287.40438;-39.08470;,
 -151.64821;287.40438;-39.08470;,
 150.89241;19.68288;-52.57594;,
 -150.89241;19.68288;-52.57594;,
 -151.64821;18.92625;-39.08470;,
 151.64821;18.92625;-39.08470;,
 151.64821;100.39730;-39.08470;,
 150.89241;100.69465;-52.57594;,
 150.89241;19.68288;-52.57594;,
 151.64821;18.92625;-39.08470;,
 151.64821;100.39730;-39.08470;,
 151.64821;18.92625;-39.08470;,
 -151.64821;18.92625;-39.08470;,
 -151.64821;100.39730;-39.08470;,
 169.85262;108.19550;-54.70030;,
 169.85262;0.74277;-54.70030;,
 -151.64821;100.39730;-39.08470;,
 -151.64821;18.92625;-39.08470;,
 -150.89241;19.68288;-52.57594;,
 -150.89241;100.69465;-52.57594;,
 -169.85262;0.74277;-54.70030;,
 -169.85262;108.19550;-54.70030;,
 151.64821;113.56023;-39.08470;,
 150.89241;113.78346;-52.57594;,
 -151.64821;113.56023;-39.08470;,
 -150.89241;113.78346;-52.57594;,
 151.64821;191.25259;-39.08470;,
 150.89241;191.03798;-52.57594;,
 151.64821;191.25259;-39.08470;,
 151.64821;113.56023;-39.08470;,
 -151.64821;113.56023;-39.08470;,
 -151.64821;191.25259;-39.08470;,
 169.85262;196.41180;-54.70030;,
 169.85262;108.19550;-54.70030;,
 -151.64821;191.25259;-39.08470;,
 -150.89241;191.03798;-52.57594;,
 -169.85262;108.19550;-54.70030;,
 -169.85262;196.41180;-54.70030;,
 170.60841;306.34450;55.58288;,
 170.60841;-0.01379;55.58288;,
 -170.60841;-0.01379;55.58288;,
 -170.60841;306.34450;55.58288;,
 170.60841;306.34450;55.58288;,
 -170.60841;306.34450;55.58288;,
 -170.60841;-0.01379;55.58288;,
 170.60841;-0.01379;55.58288;,
 151.64821;199.02182;-39.08470;,
 151.64821;287.40438;-39.08470;,
 150.89241;286.64775;-52.57594;,
 150.89241;198.76338;-52.57594;,
 151.64821;199.02182;-39.08470;,
 -151.64821;199.02182;-39.08470;,
 -151.64821;287.40438;-39.08470;,
 151.64821;287.40438;-39.08470;,
 169.85262;305.58787;-54.70030;,
 169.85262;196.41180;-54.70030;,
 -151.64821;199.02182;-39.08470;,
 -150.89241;198.76338;-52.57594;,
 -150.89241;286.64775;-52.57594;,
 -151.64821;287.40438;-39.08470;,
 -169.85262;196.41180;-54.70030;,
 -169.85262;305.58787;-54.70030;,
 151.64821;101.07329;-53.02863;,
 151.64821;114.23629;-53.02863;,
 -151.64821;101.07329;-53.02863;,
 -151.64821;114.23629;-53.02863;,
 151.64821;191.25259;-53.02863;,
 151.64821;199.02182;-53.02863;,
 -151.64821;191.25259;-53.02863;,
 -151.64821;199.02182;-53.02863;,
 169.85262;108.19550;-54.70030;,
 169.85262;196.41180;-54.70030;,
 -169.85262;196.41180;-54.70030;,
 -169.85262;108.19550;-54.70030;,
 170.60841;-0.01379;55.58288;,
 170.60841;306.34450;55.58288;,
 -170.60841;306.34450;55.58288;,
 -170.60841;-0.01379;55.58288;;
 
 46;
 4;0,1,2,3;,
 4;4,5,6,7;,
 4;8,9,10,11;,
 4;3,2,9,8;,
 4;12,13,14,15;,
 4;5,4,13,12;,
 4;16,17,18,19;,
 4;20,21,22,23;,
 4;17,24,25,18;,
 4;26,27,28,29;,
 4;29,28,30,31;,
 4;32,33,17,16;,
 4;34,26,29,35;,
 4;36,37,33,32;,
 4;38,39,40,41;,
 4;37,42,43,33;,
 4;44,34,35,45;,
 4;45,35,46,47;,
 4;42,48,49,43;,
 4;47,46,50,51;,
 4;52,53,54,55;,
 4;56,57,58,59;,
 4;56,59,37,36;,
 4;60,61,62,63;,
 4;59,58,64,65;,
 4;66,44,45,67;,
 4;66,67,68,69;,
 4;67,70,71,68;,
 4;72,73,39,20;,
 4;74,72,20,23;,
 4;75,74,23,40;,
 4;73,75,40,39;,
 4;73,72,74,75;,
 4;76,77,60,38;,
 4;78,76,38,41;,
 4;79,78,41,61;,
 4;77,79,61,60;,
 4;77,76,78,79;,
 3;80,17,33;,
 3;81,37,59;,
 3;82,67,45;,
 3;83,35,29;,
 3;84,25,24;,
 3;85,65,64;,
 3;86,71,70;,
 3;87,31,30;;
 
 MeshMaterialList {
  2;
  46;
  0,
  0,
  0,
  0,
  0,
  0,
  0,
  1,
  0,
  0,
  0,
  0,
  0,
  0,
  1,
  0,
  0,
  0,
  0,
  0,
  0,
  0,
  0,
  1,
  0,
  0,
  0,
  0,
  1,
  1,
  1,
  0,
  0,
  1,
  1,
  1,
  1,
  1,
  0,
  0,
  0,
  0,
  0,
  0,
  0,
  0;;
  Material {
   0.298400;0.200800;0.150400;1.000000;;
   5.000000;
   0.000000;0.000000;0.000000;;
   0.000000;0.000000;0.000000;;
  }
  Material {
   0.800000;0.800000;0.800000;1.000000;;
   5.000000;
   0.000000;0.000000;0.000000;;
   0.000000;0.000000;0.000000;;
   TextureFilename {
    "data/TEXTURE/book.jpg";
   }
  }
 }
 MeshNormals {
  30;
  0.000000;-0.998431;0.055995;,
  0.000000;0.998431;0.055995;,
  0.000000;0.999976;-0.006861;,
  0.000000;-0.999976;-0.006860;,
  -0.998434;0.000000;0.055934;,
  0.000000;0.000000;-1.000000;,
  0.998434;0.000000;0.055934;,
  -0.111346;0.000000;-0.993782;,
  0.111346;0.000000;-0.993782;,
  -0.998435;0.000000;0.055934;,
  0.998435;0.000000;0.055934;,
  -0.998435;0.000000;0.055934;,
  0.998435;0.000000;0.055934;,
  1.000000;0.000000;0.000000;,
  0.000000;-0.998827;-0.048422;,
  -1.000000;0.000000;0.000000;,
  0.000000;-1.000000;-0.000000;,
  0.055847;-0.055905;-0.996873;,
  -0.055847;-0.055905;-0.996873;,
  -0.055847;0.055905;-0.996873;,
  0.055847;0.055905;-0.996873;,
  0.999977;0.000000;-0.006853;,
  0.999977;0.000000;-0.006853;,
  -0.999977;0.000000;-0.006853;,
  -0.999977;0.000000;-0.006853;,
  0.000000;0.000000;1.000000;,
  0.000000;0.998827;0.048428;,
  0.000000;1.000000;0.000000;,
  0.999977;0.000000;-0.006853;,
  -0.999977;0.000000;-0.006853;;
  46;
  4;2,2,2,2;,
  4;3,3,3,3;,
  4;0,0,0,0;,
  4;17,18,18,17;,
  4;1,1,1,1;,
  4;19,20,20,19;,
  4;4,4,4,4;,
  4;5,5,5,5;,
  4;7,7,19,19;,
  4;6,6,6,6;,
  4;8,20,20,8;,
  4;9,9,4,4;,
  4;10,6,6,10;,
  4;11,11,9,9;,
  4;5,5,5,5;,
  4;7,7,7,7;,
  4;12,10,10,12;,
  4;8,8,8,8;,
  4;21,21,22,22;,
  4;23,24,24,23;,
  4;25,25,25,25;,
  4;4,4,4,4;,
  4;4,4,11,11;,
  4;5,5,5,5;,
  4;7,18,18,7;,
  4;6,12,12,6;,
  4;6,6,6,6;,
  4;8,8,17,17;,
  4;13,13,13,13;,
  4;14,14,14,14;,
  4;15,15,15,15;,
  4;26,26,26,26;,
  4;5,5,5,5;,
  4;13,13,13,13;,
  4;16,16,16,16;,
  4;15,15,15,15;,
  4;27,27,27,27;,
  4;5,5,5,5;,
  3;7,7,7;,
  3;7,7,7;,
  3;8,8,8;,
  3;8,8,8;,
  3;22,21,22;,
  3;21,21,28;,
  3;23,29,23;,
  3;24,24,23;;
 }
 MeshTextureCoords {
  88;
  0.000000;0.000000;,
  1.000000;0.000000;,
  1.000000;1.000000;,
  0.000000;1.000000;,
  0.000000;0.000000;,
  1.000000;0.000000;,
  1.000000;1.000000;,
  0.000000;1.000000;,
  0.000000;1.000000;,
  1.000000;1.000000;,
  1.000000;1.000000;,
  0.000000;1.000000;,
  1.000000;0.000000;,
  0.000000;0.000000;,
  0.000000;0.000000;,
  1.000000;0.000000;,
  0.000000;0.696550;,
  0.000000;0.696550;,
  0.000000;1.000000;,
  0.000000;1.000000;,
  1.000000;0.696550;,
  1.000000;1.000000;,
  0.000000;1.000000;,
  0.000000;0.696550;,
  0.000000;0.696550;,
  0.000000;1.000000;,
  1.000000;0.696550;,
  1.000000;1.000000;,
  1.000000;1.000000;,
  1.000000;0.696550;,
  1.000000;1.000000;,
  1.000000;0.696550;,
  0.000000;0.647520;,
  0.000000;0.647520;,
  1.000000;0.647520;,
  1.000000;0.647520;,
  0.000000;0.358140;,
  0.000000;0.358140;,
  1.000000;0.358140;,
  1.000000;0.647520;,
  0.000000;0.647520;,
  0.000000;0.358140;,
  0.000000;0.358140;,
  0.000000;0.647520;,
  1.000000;0.358140;,
  1.000000;0.358140;,
  1.000000;0.647520;,
  1.000000;0.358140;,
  1.000000;0.358140;,
  1.000000;0.647520;,
  0.000000;0.647520;,
  0.000000;0.358140;,
  0.000000;0.358140;,
  1.000000;0.358140;,
  1.000000;0.647520;,
  0.000000;0.647520;,
  0.000000;0.329200;,
  0.000000;0.000000;,
  0.000000;0.000000;,
  0.000000;0.329200;,
  1.000000;0.329200;,
  0.000000;0.329200;,
  0.000000;0.000000;,
  1.000000;0.000000;,
  0.000000;0.000000;,
  0.000000;0.329200;,
  1.000000;0.329200;,
  1.000000;0.329200;,
  1.000000;0.000000;,
  1.000000;0.000000;,
  1.000000;0.329200;,
  1.000000;0.000000;,
  1.000000;0.696550;,
  1.000000;0.647520;,
  0.000000;0.696550;,
  0.000000;0.647520;,
  1.000000;0.358140;,
  1.000000;0.329200;,
  0.000000;0.358140;,
  0.000000;0.329200;,
  0.000000;0.672030;,
  0.000000;0.343670;,
  1.000000;0.343670;,
  1.000000;0.672030;,
  1.000000;0.848270;,
  1.000000;0.164600;,
  0.000000;0.164600;,
  0.000000;0.848270;;
 }
}
