xof 0302txt 0064
template Header {
 <3D82AB43-62DA-11cf-AB39-0020AF71E433>
 WORD major;
 WORD minor;
 DWORD flags;
}

template Vector {
 <3D82AB5E-62DA-11cf-AB39-0020AF71E433>
 FLOAT x;
 FLOAT y;
 FLOAT z;
}

template Coords2d {
 <F6F23F44-7686-11cf-8F52-0040333594A3>
 FLOAT u;
 FLOAT v;
}

template Matrix4x4 {
 <F6F23F45-7686-11cf-8F52-0040333594A3>
 array FLOAT matrix[16];
}

template ColorRGBA {
 <35FF44E0-6C7C-11cf-8F52-0040333594A3>
 FLOAT red;
 FLOAT green;
 FLOAT blue;
 FLOAT alpha;
}

template ColorRGB {
 <D3E16E81-7835-11cf-8F52-0040333594A3>
 FLOAT red;
 FLOAT green;
 FLOAT blue;
}

template IndexedColor {
 <1630B820-7842-11cf-8F52-0040333594A3>
 DWORD index;
 ColorRGBA indexColor;
}

template Boolean {
 <4885AE61-78E8-11cf-8F52-0040333594A3>
 WORD truefalse;
}

template Boolean2d {
 <4885AE63-78E8-11cf-8F52-0040333594A3>
 Boolean u;
 Boolean v;
}

template MaterialWrap {
 <4885AE60-78E8-11cf-8F52-0040333594A3>
 Boolean u;
 Boolean v;
}

template TextureFilename {
 <A42790E1-7810-11cf-8F52-0040333594A3>
 STRING filename;
}

template Material {
 <3D82AB4D-62DA-11cf-AB39-0020AF71E433>
 ColorRGBA faceColor;
 FLOAT power;
 ColorRGB specularColor;
 ColorRGB emissiveColor;
 [...]
}

template MeshFace {
 <3D82AB5F-62DA-11cf-AB39-0020AF71E433>
 DWORD nFaceVertexIndices;
 array DWORD faceVertexIndices[nFaceVertexIndices];
}

template MeshFaceWraps {
 <4885AE62-78E8-11cf-8F52-0040333594A3>
 DWORD nFaceWrapValues;
 Boolean2d faceWrapValues;
}

template MeshTextureCoords {
 <F6F23F40-7686-11cf-8F52-0040333594A3>
 DWORD nTextureCoords;
 array Coords2d textureCoords[nTextureCoords];
}

template MeshMaterialList {
 <F6F23F42-7686-11cf-8F52-0040333594A3>
 DWORD nMaterials;
 DWORD nFaceIndexes;
 array DWORD faceIndexes[nFaceIndexes];
 [Material]
}

template MeshNormals {
 <F6F23F43-7686-11cf-8F52-0040333594A3>
 DWORD nNormals;
 array Vector normals[nNormals];
 DWORD nFaceNormals;
 array MeshFace faceNormals[nFaceNormals];
}

template MeshVertexColors {
 <1630B821-7842-11cf-8F52-0040333594A3>
 DWORD nVertexColors;
 array IndexedColor vertexColors[nVertexColors];
}

template Mesh {
 <3D82AB44-62DA-11cf-AB39-0020AF71E433>
 DWORD nVertices;
 array Vector vertices[nVertices];
 DWORD nFaces;
 array MeshFace faces[nFaces];
 [...]
}

Header{
1;
0;
1;
}

Mesh {
 96;
 -36.96970;88.78790;-50.00000;,
 -50.00000;100.00000;-50.00000;,
 50.00000;100.00000;-50.00000;,
 36.96970;88.78790;-50.00000;,
 -36.96970;88.78790;50.00000;,
 36.96970;88.78790;50.00000;,
 50.00000;100.00000;50.00000;,
 -50.00000;100.00000;50.00000;,
 -50.00000;0.00000;-50.00000;,
 -50.00000;100.00000;-50.00000;,
 -36.96970;11.81820;-50.00000;,
 36.96970;11.81820;-50.00000;,
 50.00000;0.00000;-50.00000;,
 -50.00000;0.00000;-50.00000;,
 -50.00000;0.00000;50.00000;,
 -36.96970;11.81820;50.00000;,
 -50.00000;100.00000;50.00000;,
 50.00000;100.00000;-50.00000;,
 50.00000;0.00000;-50.00000;,
 -50.00000;0.00000;50.00000;,
 50.00000;0.00000;50.00000;,
 36.96970;11.81820;50.00000;,
 50.00000;0.00000;50.00000;,
 50.00000;100.00000;50.00000;,
 -50.00000;88.78790;-36.32915;,
 -50.00000;100.00000;-50.00000;,
 -50.00000;0.00000;-50.00000;,
 -50.00000;11.81820;-36.32915;,
 -36.96970;100.00000;-36.32915;,
 36.96970;100.00000;-36.32915;,
 50.00000;100.00000;-50.00000;,
 -50.00000;100.00000;-50.00000;,
 -36.96970;0.00000;-36.32915;,
 -50.00000;0.00000;-50.00000;,
 50.00000;0.00000;-50.00000;,
 36.96970;0.00000;-36.32915;,
 50.00000;88.78790;-36.32915;,
 50.00000;11.81820;-36.32915;,
 50.00000;0.00000;-50.00000;,
 50.00000;100.00000;-50.00000;,
 -50.00000;100.00000;50.00000;,
 -50.00000;100.00000;-50.00000;,
 -50.00000;88.78790;35.37885;,
 -50.00000;100.00000;50.00000;,
 -36.96970;100.00000;35.37885;,
 -50.00000;100.00000;-50.00000;,
 -50.00000;11.81820;35.37885;,
 -50.00000;0.00000;50.00000;,
 -50.00000;100.00000;50.00000;,
 -50.00000;100.00000;50.00000;,
 50.00000;100.00000;50.00000;,
 36.96970;100.00000;35.37885;,
 -50.00000;0.00000;-50.00000;,
 -50.00000;0.00000;50.00000;,
 50.00000;100.00000;50.00000;,
 50.00000;100.00000;-50.00000;,
 -50.00000;0.00000;50.00000;,
 -50.00000;0.00000;-50.00000;,
 -36.96970;0.00000;35.37885;,
 50.00000;100.00000;50.00000;,
 50.00000;88.78790;35.37885;,
 50.00000;100.00000;-50.00000;,
 36.96970;0.00000;35.37885;,
 50.00000;0.00000;50.00000;,
 -50.00000;0.00000;50.00000;,
 50.00000;100.00000;50.00000;,
 50.00000;0.00000;50.00000;,
 50.00000;11.81820;35.37885;,
 50.00000;0.00000;-50.00000;,
 50.00000;0.00000;50.00000;,
 50.00000;0.00000;50.00000;,
 50.00000;0.00000;-50.00000;,
 -36.96970;88.78790;-44.54545;,
 -36.96970;11.81820;-44.54545;,
 36.96970;88.78790;-44.54545;,
 36.96970;11.81820;-44.54545;,
 36.96970;11.81820;44.54545;,
 -36.96970;11.81820;44.54545;,
 36.96970;88.78790;44.54545;,
 -36.96970;88.78790;44.54545;,
 -44.54545;88.78790;-36.32915;,
 -44.54545;88.78790;35.37885;,
 -44.54545;11.81820;-36.32915;,
 -44.54545;11.81820;35.37885;,
 36.96970;94.54545;35.37885;,
 -36.96970;94.54545;35.37885;,
 36.96970;94.54545;-36.32915;,
 -36.96970;94.54545;-36.32915;,
 -36.96970;5.45455;-36.32915;,
 -36.96970;5.45455;35.37885;,
 36.96970;5.45455;-36.32915;,
 36.96970;5.45455;35.37885;,
 44.54545;11.81820;35.37885;,
 44.54545;88.78790;35.37885;,
 44.54545;11.81820;-36.32915;,
 44.54545;88.78790;-36.32915;;
 
 54;
 4;0,1,2,3;,
 4;4,5,6,7;,
 4;8,9,0,10;,
 4;10,11,12,13;,
 4;14,15,4,16;,
 4;11,3,17,18;,
 4;15,19,20,21;,
 4;21,22,23,5;,
 4;24,25,26,27;,
 4;28,29,30,31;,
 4;32,33,34,35;,
 4;36,37,38,39;,
 4;40,41,24,42;,
 4;43,44,28,45;,
 4;42,46,47,48;,
 4;44,49,50,51;,
 4;46,27,52,53;,
 4;51,54,55,29;,
 4;56,57,32,58;,
 4;59,60,36,61;,
 4;58,62,63,64;,
 4;60,65,66,67;,
 4;62,35,68,69;,
 4;67,70,71,37;,
 4;72,73,10,0;,
 4;74,72,0,3;,
 4;75,74,3,11;,
 4;73,75,11,10;,
 4;73,72,74,75;,
 4;76,77,15,21;,
 4;78,76,21,5;,
 4;79,78,5,4;,
 4;77,79,4,15;,
 4;77,76,78,79;,
 4;80,81,42,24;,
 4;82,80,24,27;,
 4;83,82,27,46;,
 4;81,83,46,42;,
 4;81,80,82,83;,
 4;84,85,44,51;,
 4;86,84,51,29;,
 4;87,86,29,28;,
 4;85,87,28,44;,
 4;85,84,86,87;,
 4;88,89,58,32;,
 4;90,88,32,35;,
 4;91,90,35,62;,
 4;89,91,62,58;,
 4;89,88,90,91;,
 4;92,93,60,67;,
 4;94,92,67,37;,
 4;95,94,37,36;,
 4;93,95,36,60;,
 4;93,92,94,95;;
 
 MeshMaterialList {
  1;
  54;
  0,
  0,
  0,
  0,
  0,
  0,
  0,
  0,
  0,
  0,
  0,
  0,
  0,
  0,
  0,
  0,
  0,
  0,
  0,
  0,
  0,
  0,
  0,
  0,
  0,
  0,
  0,
  0,
  0,
  0,
  0,
  0,
  0,
  0,
  0,
  0,
  0,
  0,
  0,
  0,
  0,
  0,
  0,
  0,
  0,
  0,
  0,
  0,
  0,
  0,
  0,
  0,
  0,
  0;;
  Material {
   0.800000;0.659200;0.633600;1.000000;;
   5.000000;
   0.000000;0.000000;0.000000;;
   0.000000;0.000000;0.000000;;
   TextureFilename {
    "data/TEXTURE/wood_box.jpg";
   }
  }
 }
 MeshNormals {
  6;
  0.000000;0.000000;-1.000000;,
  0.000000;0.000000;1.000000;,
  -1.000000;0.000000;0.000000;,
  0.000000;1.000000;0.000000;,
  0.000000;-1.000000;-0.000000;,
  1.000000;0.000000;0.000000;;
  54;
  4;0,0,0,0;,
  4;1,1,1,1;,
  4;0,0,0,0;,
  4;0,0,0,0;,
  4;1,1,1,1;,
  4;0,0,0,0;,
  4;1,1,1,1;,
  4;1,1,1,1;,
  4;2,2,2,2;,
  4;3,3,3,3;,
  4;4,4,4,4;,
  4;5,5,5,5;,
  4;2,2,2,2;,
  4;3,3,3,3;,
  4;2,2,2,2;,
  4;3,3,3,3;,
  4;2,2,2,2;,
  4;3,3,3,3;,
  4;4,4,4,4;,
  4;5,5,5,5;,
  4;4,4,4,4;,
  4;5,5,5,5;,
  4;4,4,4,4;,
  4;5,5,5,5;,
  4;5,5,5,5;,
  4;4,4,4,4;,
  4;2,2,2,2;,
  4;3,3,3,3;,
  4;0,0,0,0;,
  4;3,3,3,3;,
  4;2,2,2,2;,
  4;4,4,4,4;,
  4;5,5,5,5;,
  4;1,1,1,1;,
  4;4,4,4,4;,
  4;1,1,1,1;,
  4;3,3,3,3;,
  4;0,0,0,0;,
  4;2,2,2,2;,
  4;0,0,0,0;,
  4;2,2,2,2;,
  4;1,1,1,1;,
  4;5,5,5,5;,
  4;3,3,3,3;,
  4;5,5,5,5;,
  4;1,1,1,1;,
  4;2,2,2,2;,
  4;0,0,0,0;,
  4;4,4,4,4;,
  4;0,0,0,0;,
  4;3,3,3,3;,
  4;1,1,1,1;,
  4;4,4,4,4;,
  4;5,5,5,5;;
 }
 MeshTextureCoords {
  96;
  0.130300;0.112120;,
  0.130300;0.000000;,
  0.869700;0.000000;,
  0.869700;0.112120;,
  0.869700;0.112120;,
  0.130300;0.112120;,
  0.130300;0.000000;,
  0.869700;0.000000;,
  0.000000;0.881820;,
  0.000000;0.112120;,
  0.130300;0.881820;,
  0.869700;0.881820;,
  0.869700;1.000000;,
  0.130300;1.000000;,
  1.000000;0.881820;,
  0.869700;0.881820;,
  1.000000;0.112120;,
  1.000000;0.112120;,
  1.000000;0.881820;,
  0.869700;1.000000;,
  0.130300;1.000000;,
  0.130300;0.881820;,
  0.000000;0.881820;,
  0.000000;0.112120;,
  0.863290;0.112120;,
  1.000000;0.112120;,
  1.000000;0.881820;,
  0.863290;0.881820;,
  0.130300;0.863290;,
  0.869700;0.863290;,
  0.869700;1.000000;,
  0.130300;1.000000;,
  0.130300;0.136710;,
  0.130300;0.000000;,
  0.869700;0.000000;,
  0.869700;0.136710;,
  0.136710;0.112120;,
  0.136710;0.881820;,
  0.000000;0.881820;,
  0.000000;0.112120;,
  0.146210;0.000000;,
  0.863290;0.000000;,
  0.146210;0.112120;,
  0.000000;0.146210;,
  0.130300;0.146210;,
  0.000000;0.863290;,
  0.146210;0.881820;,
  0.000000;0.881820;,
  0.000000;0.112120;,
  0.130300;0.000000;,
  0.869700;0.000000;,
  0.869700;0.146210;,
  0.863290;1.000000;,
  0.146210;1.000000;,
  1.000000;0.146210;,
  1.000000;0.863290;,
  0.000000;0.853790;,
  0.000000;0.136710;,
  0.130300;0.853790;,
  0.853790;0.000000;,
  0.853790;0.112120;,
  0.136710;0.000000;,
  0.869700;0.853790;,
  0.869700;1.000000;,
  0.130300;1.000000;,
  1.000000;0.112120;,
  1.000000;0.881820;,
  0.853790;0.881820;,
  1.000000;0.136710;,
  1.000000;0.853790;,
  0.853790;1.000000;,
  0.136710;1.000000;,
  0.130300;0.112120;,
  0.130300;0.881820;,
  0.869700;0.112120;,
  0.869700;0.881820;,
  0.130300;0.881820;,
  0.869700;0.881820;,
  0.130300;0.112120;,
  0.869700;0.112120;,
  0.863290;0.112120;,
  0.146210;0.112120;,
  0.863290;0.881820;,
  0.146210;0.881820;,
  0.869700;0.146210;,
  0.130300;0.146210;,
  0.869700;0.863290;,
  0.130300;0.863290;,
  0.130300;0.136710;,
  0.130300;0.853790;,
  0.869700;0.136710;,
  0.869700;0.853790;,
  0.853790;0.881820;,
  0.853790;0.112120;,
  0.136710;0.881820;,
  0.136710;0.112120;;
 }
}
