xof 0302txt 0064
template Header {
 <3D82AB43-62DA-11cf-AB39-0020AF71E433>
 WORD major;
 WORD minor;
 DWORD flags;
}

template Vector {
 <3D82AB5E-62DA-11cf-AB39-0020AF71E433>
 FLOAT x;
 FLOAT y;
 FLOAT z;
}

template Coords2d {
 <F6F23F44-7686-11cf-8F52-0040333594A3>
 FLOAT u;
 FLOAT v;
}

template Matrix4x4 {
 <F6F23F45-7686-11cf-8F52-0040333594A3>
 array FLOAT matrix[16];
}

template ColorRGBA {
 <35FF44E0-6C7C-11cf-8F52-0040333594A3>
 FLOAT red;
 FLOAT green;
 FLOAT blue;
 FLOAT alpha;
}

template ColorRGB {
 <D3E16E81-7835-11cf-8F52-0040333594A3>
 FLOAT red;
 FLOAT green;
 FLOAT blue;
}

template IndexedColor {
 <1630B820-7842-11cf-8F52-0040333594A3>
 DWORD index;
 ColorRGBA indexColor;
}

template Boolean {
 <4885AE61-78E8-11cf-8F52-0040333594A3>
 WORD truefalse;
}

template Boolean2d {
 <4885AE63-78E8-11cf-8F52-0040333594A3>
 Boolean u;
 Boolean v;
}

template MaterialWrap {
 <4885AE60-78E8-11cf-8F52-0040333594A3>
 Boolean u;
 Boolean v;
}

template TextureFilename {
 <A42790E1-7810-11cf-8F52-0040333594A3>
 STRING filename;
}

template Material {
 <3D82AB4D-62DA-11cf-AB39-0020AF71E433>
 ColorRGBA faceColor;
 FLOAT power;
 ColorRGB specularColor;
 ColorRGB emissiveColor;
 [...]
}

template MeshFace {
 <3D82AB5F-62DA-11cf-AB39-0020AF71E433>
 DWORD nFaceVertexIndices;
 array DWORD faceVertexIndices[nFaceVertexIndices];
}

template MeshFaceWraps {
 <4885AE62-78E8-11cf-8F52-0040333594A3>
 DWORD nFaceWrapValues;
 Boolean2d faceWrapValues;
}

template MeshTextureCoords {
 <F6F23F40-7686-11cf-8F52-0040333594A3>
 DWORD nTextureCoords;
 array Coords2d textureCoords[nTextureCoords];
}

template MeshMaterialList {
 <F6F23F42-7686-11cf-8F52-0040333594A3>
 DWORD nMaterials;
 DWORD nFaceIndexes;
 array DWORD faceIndexes[nFaceIndexes];
 [Material]
}

template MeshNormals {
 <F6F23F43-7686-11cf-8F52-0040333594A3>
 DWORD nNormals;
 array Vector normals[nNormals];
 DWORD nFaceNormals;
 array MeshFace faceNormals[nFaceNormals];
}

template MeshVertexColors {
 <1630B821-7842-11cf-8F52-0040333594A3>
 DWORD nVertexColors;
 array IndexedColor vertexColors[nVertexColors];
}

template Mesh {
 <3D82AB44-62DA-11cf-AB39-0020AF71E433>
 DWORD nVertices;
 array Vector vertices[nVertices];
 DWORD nFaces;
 array MeshFace faces[nFaces];
 [...]
}

Header{
1;
0;
1;
}

Mesh {
 208;
 -129.62465;25.20135;-50.00000;,
 129.62465;25.20135;-50.00000;,
 129.62465;15.41515;-50.00000;,
 -129.62465;15.41515;-50.00000;,
 129.62465;25.20135;-50.00000;,
 129.62465;25.20135;50.00000;,
 129.62465;15.41515;50.00000;,
 129.62465;15.41515;-50.00000;,
 129.62465;25.20135;50.00000;,
 -129.62465;25.20135;50.00000;,
 -129.62465;15.41515;50.00000;,
 129.62465;15.41515;50.00000;,
 -129.62465;25.20135;50.00000;,
 -129.62465;25.20135;-50.00000;,
 -129.62465;15.41515;-50.00000;,
 -129.62465;15.41515;50.00000;,
 129.62465;25.20135;-50.00000;,
 -129.62465;25.20135;-50.00000;,
 -129.62465;15.41515;-50.00000;,
 129.62465;15.41515;-50.00000;,
 -129.62465;133.45766;-50.00000;,
 129.62465;133.45766;-50.00000;,
 129.62465;123.67140;-50.00000;,
 -129.62465;123.67140;-50.00000;,
 129.62465;133.45766;-50.00000;,
 129.62465;133.45766;50.00000;,
 129.62465;123.67140;50.00000;,
 129.62465;123.67140;-50.00000;,
 129.62465;133.45766;50.00000;,
 -129.62465;133.45766;50.00000;,
 -129.62465;123.67140;50.00000;,
 129.62465;123.67140;50.00000;,
 -129.62465;133.45766;50.00000;,
 -129.62465;133.45766;-50.00000;,
 -129.62465;123.67140;-50.00000;,
 -129.62465;123.67140;50.00000;,
 129.62465;133.45766;-50.00000;,
 -129.62465;133.45766;-50.00000;,
 -129.62465;123.67140;-50.00000;,
 129.62465;123.67140;-50.00000;,
 -129.62465;248.75430;-50.00000;,
 129.62465;248.75430;-50.00000;,
 129.62465;238.96805;-50.00000;,
 -129.62465;238.96805;-50.00000;,
 129.62465;248.75430;-50.00000;,
 129.62465;248.75430;50.00000;,
 129.62465;238.96805;50.00000;,
 129.62465;238.96805;-50.00000;,
 129.62465;248.75430;50.00000;,
 -129.62465;248.75430;50.00000;,
 -129.62465;238.96805;50.00000;,
 129.62465;238.96805;50.00000;,
 -129.62465;248.75430;50.00000;,
 -129.62465;248.75430;-50.00000;,
 -129.62465;238.96805;-50.00000;,
 -129.62465;238.96805;50.00000;,
 129.62465;248.75430;-50.00000;,
 -129.62465;248.75430;-50.00000;,
 -129.62465;238.96805;-50.00000;,
 129.62465;238.96805;-50.00000;,
 124.48810;351.61896;-34.29705;,
 119.34540;351.61896;-34.29705;,
 119.34540;-1.33480;-34.29705;,
 124.48810;-1.33480;-34.29705;,
 119.34540;351.61896;-41.49885;,
 119.34540;351.61896;-34.29705;,
 124.48810;351.61896;-34.29705;,
 124.48810;351.61896;-45.71960;,
 119.34540;351.61896;-41.49885;,
 119.34540;-1.33480;-41.49885;,
 119.34540;-1.33480;-34.29705;,
 124.48810;351.61896;-45.71960;,
 124.48810;-1.33480;-34.29705;,
 124.48810;-1.33480;-45.71960;,
 119.34540;-1.33480;-41.49885;,
 124.48810;-1.33480;-45.71960;,
 112.31500;351.61896;-45.71960;,
 112.31500;351.61896;-41.49885;,
 124.48810;351.61896;-45.71960;,
 112.31500;-1.33480;-45.71960;,
 124.48810;-1.33480;-45.71960;,
 112.31500;-1.33480;-41.49885;,
 -124.48810;351.61896;-34.29705;,
 -124.48810;-1.33480;-34.29705;,
 -119.34540;-1.33480;-34.29705;,
 -119.34540;351.61896;-34.29705;,
 -119.34540;351.61896;-41.49885;,
 -124.48810;351.61896;-45.71960;,
 -124.48810;351.61896;-34.29705;,
 -119.34540;351.61896;-34.29705;,
 -119.34540;351.61896;-41.49885;,
 -119.34540;-1.33480;-34.29705;,
 -119.34540;-1.33480;-41.49885;,
 -124.48810;351.61896;-45.71960;,
 -124.48810;-1.33480;-45.71960;,
 -124.48810;-1.33480;-34.29705;,
 -119.34540;-1.33480;-41.49885;,
 -124.48810;-1.33480;-45.71960;,
 -112.31500;351.61896;-45.71960;,
 -124.48810;351.61896;-45.71960;,
 -112.31500;351.61896;-41.49885;,
 -112.31500;-1.33480;-45.71960;,
 -124.48810;-1.33480;-45.71960;,
 -112.31500;-1.33480;-41.49885;,
 124.48810;351.61896;34.29705;,
 124.48810;-1.33480;34.29705;,
 119.34540;-1.33480;34.29705;,
 119.34540;351.61896;34.29705;,
 119.34540;351.61896;41.49885;,
 124.48810;351.61896;45.71960;,
 124.48810;351.61896;34.29705;,
 119.34540;351.61896;34.29705;,
 119.34540;351.61896;41.49885;,
 119.34540;-1.33480;34.29705;,
 119.34540;-1.33480;41.49885;,
 124.48810;351.61896;45.71960;,
 124.48810;-1.33480;45.71960;,
 124.48810;-1.33480;34.29705;,
 119.34540;-1.33480;41.49885;,
 124.48810;-1.33480;45.71960;,
 112.31500;351.61896;45.71960;,
 124.48810;351.61896;45.71960;,
 112.31500;351.61896;41.49885;,
 112.31500;-1.33480;45.71960;,
 124.48810;-1.33480;45.71960;,
 112.31500;-1.33480;41.49885;,
 -124.48810;351.61896;34.29705;,
 -119.34540;351.61896;34.29705;,
 -119.34540;-1.33480;34.29705;,
 -124.48810;-1.33480;34.29705;,
 -119.34540;351.61896;41.49885;,
 -119.34540;351.61896;34.29705;,
 -124.48810;351.61896;34.29705;,
 -124.48810;351.61896;45.71960;,
 -119.34540;351.61896;41.49885;,
 -119.34540;-1.33480;41.49885;,
 -119.34540;-1.33480;34.29705;,
 -124.48810;351.61896;45.71960;,
 -124.48810;-1.33480;34.29705;,
 -124.48810;-1.33480;45.71960;,
 -119.34540;-1.33480;41.49885;,
 -124.48810;-1.33480;45.71960;,
 -112.31500;351.61896;45.71960;,
 -112.31500;351.61896;41.49885;,
 -124.48810;351.61896;45.71960;,
 -112.31500;-1.33480;45.71960;,
 -124.48810;-1.33480;45.71960;,
 -112.31500;-1.33480;41.49885;,
 118.34965;244.87930;28.52170;,
 121.83485;244.88995;28.55020;,
 122.83855;26.54985;-40.95605;,
 119.35335;26.53920;-40.98460;,
 121.83485;244.88995;28.55020;,
 121.78820;243.08784;37.70835;,
 122.79190;24.74780;-31.79790;,
 122.83855;26.54985;-40.95605;,
 121.78820;243.08784;37.70835;,
 118.30300;243.07730;37.67985;,
 119.30670;24.73720;-31.82635;,
 122.79190;24.74780;-31.79790;,
 118.30300;243.07730;37.67985;,
 118.34965;244.87930;28.52170;,
 119.35335;26.53920;-40.98460;,
 119.30670;24.73720;-31.82635;,
 121.83485;244.88995;28.55020;,
 118.34965;244.87930;28.52170;,
 119.35335;26.53920;-40.98460;,
 122.83855;26.54985;-40.95605;,
 -118.34965;244.87930;28.52170;,
 -119.35335;26.53920;-40.98460;,
 -122.83855;26.54985;-40.95605;,
 -121.83485;244.88995;28.55020;,
 -121.83485;244.88995;28.55020;,
 -122.83855;26.54985;-40.95605;,
 -122.79190;24.74780;-31.79790;,
 -121.78820;243.08784;37.70835;,
 -121.78820;243.08784;37.70835;,
 -122.79190;24.74780;-31.79790;,
 -119.30670;24.73720;-31.82635;,
 -118.30300;243.07730;37.67985;,
 -118.30300;243.07730;37.67985;,
 -119.30670;24.73720;-31.82635;,
 -119.35335;26.53920;-40.98460;,
 -118.34965;244.87930;28.52170;,
 -118.34965;244.87930;28.52170;,
 -121.83485;244.88995;28.55020;,
 -119.35335;26.53920;-40.98460;,
 -122.83855;26.54985;-40.95605;,
 -129.62465;348.75424;-50.00000;,
 129.62465;348.75424;-50.00000;,
 129.62465;338.96805;-50.00000;,
 -129.62465;338.96805;-50.00000;,
 129.62465;348.75424;-50.00000;,
 129.62465;348.75424;50.00000;,
 129.62465;338.96805;50.00000;,
 129.62465;338.96805;-50.00000;,
 129.62465;348.75424;50.00000;,
 -129.62465;348.75424;50.00000;,
 -129.62465;338.96805;50.00000;,
 129.62465;338.96805;50.00000;,
 -129.62465;348.75424;50.00000;,
 -129.62465;348.75424;-50.00000;,
 -129.62465;338.96805;-50.00000;,
 -129.62465;338.96805;50.00000;,
 129.62465;348.75424;-50.00000;,
 -129.62465;348.75424;-50.00000;,
 -129.62465;338.96805;-50.00000;,
 129.62465;338.96805;-50.00000;;
 
 76;
 4;0,1,2,3;,
 4;4,5,6,7;,
 4;8,9,10,11;,
 4;12,13,14,15;,
 4;12,5,16,17;,
 4;18,19,6,15;,
 4;20,21,22,23;,
 4;24,25,26,27;,
 4;28,29,30,31;,
 4;32,33,34,35;,
 4;32,25,36,37;,
 4;38,39,26,35;,
 4;40,41,42,43;,
 4;44,45,46,47;,
 4;48,49,50,51;,
 4;52,53,54,55;,
 4;52,45,56,57;,
 4;58,59,46,55;,
 4;60,61,62,63;,
 4;64,65,66,67;,
 4;68,69,70,65;,
 4;71,66,72,73;,
 4;74,75,72,70;,
 4;76,77,68,78;,
 4;79,76,78,80;,
 4;81,79,80,69;,
 4;77,81,69,68;,
 4;77,76,79,81;,
 4;82,83,84,85;,
 4;86,87,88,89;,
 4;90,89,91,92;,
 4;93,94,95,88;,
 4;96,91,95,97;,
 4;98,99,90,100;,
 4;101,102,99,98;,
 4;103,92,102,101;,
 4;100,90,92,103;,
 4;100,103,101,98;,
 4;104,105,106,107;,
 4;108,109,110,111;,
 4;112,111,113,114;,
 4;115,116,117,110;,
 4;118,113,117,119;,
 4;120,121,112,122;,
 4;123,124,121,120;,
 4;125,114,124,123;,
 4;122,112,114,125;,
 4;122,125,123,120;,
 4;126,127,128,129;,
 4;130,131,132,133;,
 4;134,135,136,131;,
 4;137,132,138,139;,
 4;140,141,138,136;,
 4;142,143,134,144;,
 4;145,142,144,146;,
 4;147,145,146,135;,
 4;143,147,135,134;,
 4;143,142,145,147;,
 4;148,149,150,151;,
 4;152,153,154,155;,
 4;156,157,158,159;,
 4;160,161,162,163;,
 4;160,153,164,165;,
 4;166,167,154,163;,
 4;168,169,170,171;,
 4;172,173,174,175;,
 4;176,177,178,179;,
 4;180,181,182,183;,
 4;180,184,185,175;,
 4;186,181,174,187;,
 4;188,189,190,191;,
 4;192,193,194,195;,
 4;196,197,198,199;,
 4;200,201,202,203;,
 4;200,193,204,205;,
 4;206,207,194,203;;
 
 MeshMaterialList {
  1;
  76;
  0,
  0,
  0,
  0,
  0,
  0,
  0,
  0,
  0,
  0,
  0,
  0,
  0,
  0,
  0,
  0,
  0,
  0,
  0,
  0,
  0,
  0,
  0,
  0,
  0,
  0,
  0,
  0,
  0,
  0,
  0,
  0,
  0,
  0,
  0,
  0,
  0,
  0,
  0,
  0,
  0,
  0,
  0,
  0,
  0,
  0,
  0,
  0,
  0,
  0,
  0,
  0,
  0,
  0,
  0,
  0,
  0,
  0,
  0,
  0,
  0,
  0,
  0,
  0,
  0,
  0,
  0,
  0,
  0,
  0,
  0,
  0,
  0,
  0,
  0,
  0;;
  Material {
   0.094400;0.144000;0.094400;1.000000;;
   5.000000;
   0.410000;0.410000;0.410000;;
   0.000000;0.000000;0.000000;;
  }
 }
 MeshNormals {
  42;
  0.000000;0.000000;-1.000000;,
  1.000000;0.000000;0.000000;,
  0.000000;0.000000;1.000000;,
  -1.000000;0.000000;0.000000;,
  0.000000;1.000000;0.000000;,
  0.000000;-1.000000;-0.000000;,
  0.000000;0.000000;-1.000000;,
  1.000000;0.000000;0.000000;,
  0.000000;0.000000;1.000000;,
  -1.000000;0.000000;0.000000;,
  0.000000;1.000000;0.000000;,
  0.000000;-1.000000;-0.000000;,
  0.000000;0.000000;-1.000000;,
  1.000000;0.000000;0.000000;,
  0.000000;0.000000;1.000000;,
  -1.000000;0.000000;0.000000;,
  0.000000;1.000000;0.000000;,
  0.000000;-1.000000;-0.000000;,
  0.000000;1.000000;0.000000;,
  1.000000;0.000000;0.000000;,
  0.000000;0.000000;1.000000;,
  -1.000000;0.000000;0.000000;,
  0.000000;0.000000;-1.000000;,
  0.000000;-1.000000;-0.000000;,
  0.006871;0.303362;-0.952851;,
  0.999980;0.002800;0.005644;,
  -0.006865;-0.303361;0.952851;,
  -0.006871;0.303362;-0.952851;,
  -0.999980;0.002800;0.005644;,
  0.006865;-0.303361;0.952851;,
  -0.999980;-0.002800;-0.005644;,
  -0.004562;0.981179;0.193044;,
  0.004570;-0.981180;-0.193040;,
  0.999980;-0.002800;-0.005644;,
  0.004562;0.981179;0.193044;,
  -0.004570;-0.981180;-0.193040;,
  0.000000;0.000000;-1.000000;,
  1.000000;0.000000;0.000000;,
  0.000000;0.000000;1.000000;,
  -1.000000;0.000000;0.000000;,
  0.000000;1.000000;0.000000;,
  0.000000;-1.000000;-0.000000;;
  76;
  4;0,0,0,0;,
  4;1,1,1,1;,
  4;2,2,2,2;,
  4;3,3,3,3;,
  4;4,4,4,4;,
  4;5,5,5,5;,
  4;6,6,6,6;,
  4;7,7,7,7;,
  4;8,8,8,8;,
  4;9,9,9,9;,
  4;10,10,10,10;,
  4;11,11,11,11;,
  4;12,12,12,12;,
  4;13,13,13,13;,
  4;14,14,14,14;,
  4;15,15,15,15;,
  4;16,16,16,16;,
  4;17,17,17,17;,
  4;20,20,20,20;,
  4;18,18,18,18;,
  4;21,21,21,21;,
  4;19,19,19,19;,
  4;23,23,23,23;,
  4;18,18,18,18;,
  4;22,22,22,22;,
  4;23,23,23,23;,
  4;20,20,20,20;,
  4;21,21,21,21;,
  4;20,20,20,20;,
  4;18,18,18,18;,
  4;19,19,19,19;,
  4;21,21,21,21;,
  4;23,23,23,23;,
  4;18,18,18,18;,
  4;22,22,22,22;,
  4;23,23,23,23;,
  4;20,20,20,20;,
  4;19,19,19,19;,
  4;22,22,22,22;,
  4;18,18,18,18;,
  4;21,21,21,21;,
  4;19,19,19,19;,
  4;23,23,23,23;,
  4;18,18,18,18;,
  4;20,20,20,20;,
  4;23,23,23,23;,
  4;22,22,22,22;,
  4;21,21,21,21;,
  4;22,22,22,22;,
  4;18,18,18,18;,
  4;19,19,19,19;,
  4;21,21,21,21;,
  4;23,23,23,23;,
  4;18,18,18,18;,
  4;20,20,20,20;,
  4;23,23,23,23;,
  4;22,22,22,22;,
  4;19,19,19,19;,
  4;24,24,24,24;,
  4;25,25,25,25;,
  4;26,26,26,26;,
  4;30,30,30,30;,
  4;31,31,31,31;,
  4;32,32,32,32;,
  4;27,27,27,27;,
  4;28,28,28,28;,
  4;29,29,29,29;,
  4;33,33,33,33;,
  4;34,34,34,34;,
  4;35,35,35,35;,
  4;36,36,36,36;,
  4;37,37,37,37;,
  4;38,38,38,38;,
  4;39,39,39,39;,
  4;40,40,40,40;,
  4;41,41,41,41;;
 }
 MeshTextureCoords {
  208;
  0.000000;0.000000;,
  1.000000;0.000000;,
  1.000000;1.000000;,
  0.000000;1.000000;,
  0.000000;0.000000;,
  1.000000;0.000000;,
  1.000000;1.000000;,
  0.000000;1.000000;,
  0.000000;0.000000;,
  1.000000;0.000000;,
  1.000000;1.000000;,
  0.000000;1.000000;,
  0.000000;0.000000;,
  1.000000;0.000000;,
  1.000000;1.000000;,
  0.000000;1.000000;,
  1.000000;1.000000;,
  0.000000;1.000000;,
  0.000000;0.000000;,
  1.000000;0.000000;,
  0.000000;0.000000;,
  1.000000;0.000000;,
  1.000000;1.000000;,
  0.000000;1.000000;,
  0.000000;0.000000;,
  1.000000;0.000000;,
  1.000000;1.000000;,
  0.000000;1.000000;,
  0.000000;0.000000;,
  1.000000;0.000000;,
  1.000000;1.000000;,
  0.000000;1.000000;,
  0.000000;0.000000;,
  1.000000;0.000000;,
  1.000000;1.000000;,
  0.000000;1.000000;,
  1.000000;1.000000;,
  0.000000;1.000000;,
  0.000000;0.000000;,
  1.000000;0.000000;,
  0.000000;0.000000;,
  1.000000;0.000000;,
  1.000000;1.000000;,
  0.000000;1.000000;,
  0.000000;0.000000;,
  1.000000;0.000000;,
  1.000000;1.000000;,
  0.000000;1.000000;,
  0.000000;0.000000;,
  1.000000;0.000000;,
  1.000000;1.000000;,
  0.000000;1.000000;,
  0.000000;0.000000;,
  1.000000;0.000000;,
  1.000000;1.000000;,
  0.000000;1.000000;,
  1.000000;1.000000;,
  0.000000;1.000000;,
  0.000000;0.000000;,
  1.000000;0.000000;,
  0.000000;0.000000;,
  1.000000;0.000000;,
  1.000000;1.000000;,
  0.000000;1.000000;,
  0.000000;0.630490;,
  0.000000;0.000000;,
  1.000000;0.000000;,
  1.000000;0.630490;,
  0.630490;0.000000;,
  0.630490;1.000000;,
  0.000000;1.000000;,
  0.369510;0.000000;,
  1.000000;1.000000;,
  0.369510;1.000000;,
  0.000000;0.369510;,
  1.000000;0.369510;,
  1.000000;0.000000;,
  0.630490;0.000000;,
  1.000000;0.000000;,
  1.000000;1.000000;,
  1.000000;1.000000;,
  0.630490;1.000000;,
  0.000000;0.000000;,
  0.000000;1.000000;,
  1.000000;1.000000;,
  1.000000;0.000000;,
  0.000000;0.630490;,
  1.000000;0.630490;,
  1.000000;0.000000;,
  0.000000;0.000000;,
  0.630490;0.000000;,
  0.000000;1.000000;,
  0.630490;1.000000;,
  0.369510;0.000000;,
  0.369510;1.000000;,
  1.000000;1.000000;,
  0.000000;0.369510;,
  1.000000;0.369510;,
  1.000000;0.000000;,
  1.000000;0.000000;,
  0.630490;0.000000;,
  1.000000;1.000000;,
  1.000000;1.000000;,
  0.630490;1.000000;,
  0.000000;0.000000;,
  0.000000;1.000000;,
  1.000000;1.000000;,
  1.000000;0.000000;,
  0.000000;0.630490;,
  1.000000;0.630490;,
  1.000000;0.000000;,
  0.000000;0.000000;,
  0.630490;0.000000;,
  0.000000;1.000000;,
  0.630490;1.000000;,
  0.369510;0.000000;,
  0.369510;1.000000;,
  1.000000;1.000000;,
  0.000000;0.369510;,
  1.000000;0.369510;,
  1.000000;0.000000;,
  1.000000;0.000000;,
  0.630490;0.000000;,
  1.000000;1.000000;,
  1.000000;1.000000;,
  0.630490;1.000000;,
  0.000000;0.000000;,
  1.000000;0.000000;,
  1.000000;1.000000;,
  0.000000;1.000000;,
  0.000000;0.630490;,
  0.000000;0.000000;,
  1.000000;0.000000;,
  1.000000;0.630490;,
  0.630490;0.000000;,
  0.630490;1.000000;,
  0.000000;1.000000;,
  0.369510;0.000000;,
  1.000000;1.000000;,
  0.369510;1.000000;,
  0.000000;0.369510;,
  1.000000;0.369510;,
  1.000000;0.000000;,
  0.630490;0.000000;,
  1.000000;0.000000;,
  1.000000;1.000000;,
  1.000000;1.000000;,
  0.630490;1.000000;,
  0.000000;0.000000;,
  1.000000;0.000000;,
  1.000000;1.000000;,
  0.000000;1.000000;,
  0.000000;0.000000;,
  1.000000;0.000000;,
  1.000000;1.000000;,
  0.000000;1.000000;,
  0.000000;0.000000;,
  1.000000;0.000000;,
  1.000000;1.000000;,
  0.000000;1.000000;,
  0.000000;0.000000;,
  1.000000;0.000000;,
  1.000000;1.000000;,
  0.000000;1.000000;,
  1.000000;1.000000;,
  0.000000;1.000000;,
  0.000000;0.000000;,
  1.000000;0.000000;,
  0.000000;0.000000;,
  0.000000;1.000000;,
  1.000000;1.000000;,
  1.000000;0.000000;,
  0.000000;0.000000;,
  0.000000;1.000000;,
  1.000000;1.000000;,
  1.000000;0.000000;,
  0.000000;0.000000;,
  0.000000;1.000000;,
  1.000000;1.000000;,
  1.000000;0.000000;,
  0.000000;0.000000;,
  0.000000;1.000000;,
  1.000000;1.000000;,
  1.000000;0.000000;,
  0.000000;1.000000;,
  1.000000;1.000000;,
  0.000000;0.000000;,
  1.000000;0.000000;,
  0.000000;0.000000;,
  1.000000;0.000000;,
  1.000000;1.000000;,
  0.000000;1.000000;,
  0.000000;0.000000;,
  1.000000;0.000000;,
  1.000000;1.000000;,
  0.000000;1.000000;,
  0.000000;0.000000;,
  1.000000;0.000000;,
  1.000000;1.000000;,
  0.000000;1.000000;,
  0.000000;0.000000;,
  1.000000;0.000000;,
  1.000000;1.000000;,
  0.000000;1.000000;,
  1.000000;1.000000;,
  0.000000;1.000000;,
  0.000000;0.000000;,
  1.000000;0.000000;;
 }
}
