xof 0302txt 0064
template Header {
 <3D82AB43-62DA-11cf-AB39-0020AF71E433>
 WORD major;
 WORD minor;
 DWORD flags;
}

template Vector {
 <3D82AB5E-62DA-11cf-AB39-0020AF71E433>
 FLOAT x;
 FLOAT y;
 FLOAT z;
}

template Coords2d {
 <F6F23F44-7686-11cf-8F52-0040333594A3>
 FLOAT u;
 FLOAT v;
}

template Matrix4x4 {
 <F6F23F45-7686-11cf-8F52-0040333594A3>
 array FLOAT matrix[16];
}

template ColorRGBA {
 <35FF44E0-6C7C-11cf-8F52-0040333594A3>
 FLOAT red;
 FLOAT green;
 FLOAT blue;
 FLOAT alpha;
}

template ColorRGB {
 <D3E16E81-7835-11cf-8F52-0040333594A3>
 FLOAT red;
 FLOAT green;
 FLOAT blue;
}

template IndexedColor {
 <1630B820-7842-11cf-8F52-0040333594A3>
 DWORD index;
 ColorRGBA indexColor;
}

template Boolean {
 <4885AE61-78E8-11cf-8F52-0040333594A3>
 WORD truefalse;
}

template Boolean2d {
 <4885AE63-78E8-11cf-8F52-0040333594A3>
 Boolean u;
 Boolean v;
}

template MaterialWrap {
 <4885AE60-78E8-11cf-8F52-0040333594A3>
 Boolean u;
 Boolean v;
}

template TextureFilename {
 <A42790E1-7810-11cf-8F52-0040333594A3>
 STRING filename;
}

template Material {
 <3D82AB4D-62DA-11cf-AB39-0020AF71E433>
 ColorRGBA faceColor;
 FLOAT power;
 ColorRGB specularColor;
 ColorRGB emissiveColor;
 [...]
}

template MeshFace {
 <3D82AB5F-62DA-11cf-AB39-0020AF71E433>
 DWORD nFaceVertexIndices;
 array DWORD faceVertexIndices[nFaceVertexIndices];
}

template MeshFaceWraps {
 <4885AE62-78E8-11cf-8F52-0040333594A3>
 DWORD nFaceWrapValues;
 Boolean2d faceWrapValues;
}

template MeshTextureCoords {
 <F6F23F40-7686-11cf-8F52-0040333594A3>
 DWORD nTextureCoords;
 array Coords2d textureCoords[nTextureCoords];
}

template MeshMaterialList {
 <F6F23F42-7686-11cf-8F52-0040333594A3>
 DWORD nMaterials;
 DWORD nFaceIndexes;
 array DWORD faceIndexes[nFaceIndexes];
 [Material]
}

template MeshNormals {
 <F6F23F43-7686-11cf-8F52-0040333594A3>
 DWORD nNormals;
 array Vector normals[nNormals];
 DWORD nFaceNormals;
 array MeshFace faceNormals[nFaceNormals];
}

template MeshVertexColors {
 <1630B821-7842-11cf-8F52-0040333594A3>
 DWORD nVertexColors;
 array IndexedColor vertexColors[nVertexColors];
}

template Mesh {
 <3D82AB44-62DA-11cf-AB39-0020AF71E433>
 DWORD nVertices;
 array Vector vertices[nVertices];
 DWORD nFaces;
 array MeshFace faces[nFaces];
 [...]
}

Header{
1;
0;
1;
}

Mesh {
 220;
 -476.07944;132.71091;-1.32928;,
 -468.75714;132.71091;10.01162;,
 -433.46643;212.76590;8.38712;,
 -437.90244;217.20180;-1.32928;,
 -451.07944;132.71091;14.70912;,
 -422.75723;202.05650;12.41152;,
 -433.40186;132.71091;10.01162;,
 -412.04794;191.34720;8.38712;,
 -426.07944;132.71091;-1.32928;,
 -407.61203;186.91119;-1.32928;,
 -433.40186;132.71091;-12.67008;,
 -412.04794;191.34720;-11.04538;,
 -451.07944;132.71091;-17.36768;,
 -422.75723;202.05650;-15.06998;,
 -468.75714;132.71091;-12.67008;,
 -433.46643;212.76590;-11.04538;,
 -476.07944;132.71091;-1.32928;,
 -437.90244;217.20180;-1.32928;,
 -388.28354;261.30161;10.01162;,
 -388.28354;268.62390;-1.32928;,
 -388.28354;243.62390;14.70912;,
 -388.28354;225.94620;10.01162;,
 -388.28354;218.62390;-1.32928;,
 -388.28354;225.94620;-12.67008;,
 -388.28354;243.62390;-17.36768;,
 -388.28354;261.30161;-12.67008;,
 -388.28354;268.62390;-1.32928;,
 -334.31635;284.78619;10.01161;,
 -334.31635;292.10849;-1.32929;,
 -334.31635;267.10849;14.70911;,
 -334.31635;249.43080;10.01161;,
 -334.31635;242.10851;-1.32929;,
 -334.31635;249.43080;-12.67008;,
 -334.31635;267.10849;-17.36768;,
 -334.31635;284.78619;-12.67008;,
 -334.31635;292.10849;-1.32929;,
 -0.34936;284.78619;10.01160;,
 -0.34936;292.10849;-1.32930;,
 -0.34935;267.10849;14.70910;,
 -0.34936;249.43080;10.01160;,
 -0.34936;242.10851;-1.32930;,
 -0.34936;249.43080;-12.67010;,
 -0.34936;267.10849;-17.36770;,
 -0.34936;284.78619;-12.67010;,
 -0.34936;292.10849;-1.32930;,
 333.61765;284.78619;10.01159;,
 333.61765;292.10849;-1.32931;,
 333.61765;267.10849;14.70908;,
 333.61765;249.43080;10.01159;,
 333.61765;242.10851;-1.32931;,
 333.61765;249.43080;-12.67011;,
 333.61765;267.10849;-17.36771;,
 333.61765;284.78619;-12.67011;,
 333.61765;292.10849;-1.32931;,
 333.61765;267.10849;-1.32931;,
 333.61765;267.10849;-1.32931;,
 333.61765;267.10849;-1.32931;,
 333.61765;267.10849;-1.32931;,
 333.61765;267.10849;-1.32931;,
 333.61765;267.10849;-1.32931;,
 333.61765;267.10849;-1.32931;,
 333.61765;267.10849;-1.32931;,
 -476.07944;132.16290;-1.32928;,
 -468.75714;132.16290;10.01162;,
 -451.07944;132.16290;14.70912;,
 -433.40186;132.16290;10.01162;,
 -426.07944;132.16290;-1.32928;,
 -433.40186;132.16290;-12.67008;,
 -451.07944;132.16290;-17.36768;,
 -451.07944;132.16290;-1.32928;,
 -451.07944;132.71091;-1.32928;,
 -468.75714;132.16290;-12.67008;,
 -476.07944;132.16290;-1.32928;,
 -451.07944;132.16290;-1.32928;,
 -451.07944;132.71091;-1.32928;,
 -468.75714;1.12340;-12.66998;,
 -451.07944;1.12340;-1.32928;,
 -451.07944;132.71091;-1.32928;,
 -451.07944;1.12340;-17.36768;,
 -476.07944;0.57539;-1.32928;,
 -468.75714;0.57539;10.01162;,
 -451.07944;0.57539;-1.32928;,
 -451.07944;0.57539;14.70912;,
 -451.07944;0.57539;-1.32928;,
 -433.40186;0.57539;10.01162;,
 -451.07944;0.57539;-1.32928;,
 -426.07944;0.57539;-1.32928;,
 -451.07944;0.57539;-1.32928;,
 -433.40186;0.57539;-12.66998;,
 -451.07944;0.57539;-1.32928;,
 -451.07944;0.57539;-17.36768;,
 -451.07944;0.57539;-1.32928;,
 -468.75714;0.57539;-12.66998;,
 -476.07944;0.57539;-1.32928;,
 -451.07944;0.57539;-1.32928;,
 333.90305;292.00879;-1.32931;,
 333.90305;284.68649;10.01159;,
 384.94467;256.19681;8.24278;,
 389.31467;260.56699;-1.32932;,
 333.90305;267.00879;14.70908;,
 374.39435;245.64670;12.20749;,
 333.90305;249.33110;10.01159;,
 363.84415;235.09650;8.24278;,
 333.90305;242.00870;-1.32931;,
 359.47397;230.72630;-1.32932;,
 333.90305;249.33110;-12.67011;,
 363.84415;235.09650;-10.90122;,
 333.90305;267.00879;-17.36771;,
 374.39435;245.64670;-14.86612;,
 333.90305;284.68649;-12.67011;,
 384.94467;256.19681;-10.90122;,
 333.90305;292.00879;-1.32931;,
 389.31467;260.56699;-1.32932;,
 433.63934;211.17290;10.01158;,
 440.96176;211.17290;-1.32932;,
 415.96176;211.17290;14.70908;,
 398.28397;211.17290;10.01158;,
 390.96167;211.17290;-1.32932;,
 398.28397;211.17290;-12.67012;,
 415.96176;211.17290;-17.36772;,
 433.63934;211.17290;-12.67012;,
 440.96176;211.17290;-1.32932;,
 466.76337;128.35130;10.01158;,
 474.08566;128.35130;-1.32932;,
 449.08566;128.35130;14.70908;,
 431.40805;128.35130;10.01158;,
 424.08566;128.35130;-1.32932;,
 431.40805;128.35130;-12.67012;,
 449.08566;128.35130;-17.36772;,
 466.76337;128.35130;-12.67012;,
 474.08566;128.35130;-1.32932;,
 333.35504;292.00879;-1.32931;,
 333.35504;284.68649;10.01159;,
 333.35504;267.00879;14.70908;,
 333.35504;249.33110;10.01159;,
 333.35504;242.00870;-1.32931;,
 333.35504;249.33110;-12.67011;,
 333.35504;267.00879;-17.36771;,
 333.35504;267.00879;-1.32931;,
 333.90305;267.00879;-1.32931;,
 333.35504;284.68649;-12.67011;,
 333.35504;292.00879;-1.32931;,
 333.35504;267.00879;-1.32931;,
 333.90305;267.00879;-1.32931;,
 423.78397;128.05721;-1.32932;,
 431.10626;128.05721;10.01158;,
 431.10626;128.60510;10.01158;,
 423.78397;128.60510;-1.32932;,
 448.78397;128.05721;14.70908;,
 448.78397;128.60510;14.70908;,
 466.46167;128.05721;10.01158;,
 466.46167;128.60510;10.01158;,
 473.78397;128.05721;-1.32932;,
 473.78397;128.60510;-1.32932;,
 466.46167;128.05721;-12.67012;,
 466.46167;128.60510;-12.67012;,
 448.78397;128.05721;-17.36772;,
 448.78397;128.05721;-1.32932;,
 448.78397;128.60510;-1.32932;,
 448.78397;128.60510;-17.36772;,
 431.10626;128.05721;-12.67012;,
 423.78397;128.05721;-1.32932;,
 423.78397;128.60510;-1.32932;,
 431.10626;128.60510;-12.67012;,
 448.78397;128.05721;-1.32932;,
 448.78397;128.60510;-1.32932;,
 431.10626;-2.98230;-12.67012;,
 448.78397;-2.98230;-1.32932;,
 448.78397;128.60510;-1.32932;,
 448.78397;-2.98230;-17.36772;,
 423.78397;-3.53020;-1.32932;,
 431.10626;-3.53020;10.01158;,
 448.78397;-3.53030;-1.32932;,
 448.78397;-3.53020;14.70908;,
 448.78397;-3.53030;-1.32932;,
 466.46167;-3.53020;10.01158;,
 448.78397;-3.53030;-1.32932;,
 473.78397;-3.53020;-1.32932;,
 448.78397;-3.53030;-1.32932;,
 466.46167;-3.53020;-12.67012;,
 448.78397;-3.53030;-1.32932;,
 448.78397;-3.53020;-17.36772;,
 448.78397;-3.53030;-1.32932;,
 431.10626;-3.53020;-12.67012;,
 423.78397;-3.53020;-1.32932;,
 448.78397;-3.53030;-1.32932;,
 -439.91855;161.69679;11.51762;,
 -439.91855;148.12041;7.90992;,
 435.24554;148.12041;7.90988;,
 435.24554;161.69679;11.51758;,
 -439.91846;142.49680;-0.79978;,
 435.24554;142.49680;-0.79982;,
 -439.91855;148.12041;-9.50948;,
 435.24554;148.12041;-9.50952;,
 -439.91855;161.69679;-13.11738;,
 435.24554;161.69679;-13.11742;,
 -439.91855;175.27330;-9.50948;,
 435.24554;175.27330;-9.50952;,
 -439.91855;180.89680;-0.79978;,
 435.24545;180.89680;-0.79982;,
 -439.91855;175.27330;7.90992;,
 435.24554;175.27330;7.90988;,
 -439.91855;161.69679;11.51762;,
 435.24554;161.69679;11.51758;,
 -439.91855;161.69679;-0.79978;,
 -439.91855;161.69679;-0.79978;,
 -439.91855;161.69679;-0.79978;,
 -439.91855;161.69679;-0.79978;,
 -439.91855;161.69679;-0.79978;,
 -439.91855;161.69679;-0.79978;,
 -439.91855;161.69679;-0.79978;,
 -439.91855;161.69679;-0.79978;,
 435.24554;161.69679;-0.79982;,
 435.24554;161.69679;-0.79982;,
 435.24554;161.69679;-0.79982;,
 435.24554;161.69679;-0.79982;,
 435.24554;161.69679;-0.79982;,
 435.24554;161.69679;-0.79982;,
 435.24554;161.69679;-0.79982;,
 435.24554;161.69679;-0.79982;;
 
 163;
 4;0,1,2,3;,
 4;1,4,5,2;,
 4;4,6,7,5;,
 4;6,8,9,7;,
 4;8,10,11,9;,
 4;10,12,13,11;,
 4;12,14,15,13;,
 4;14,16,17,15;,
 4;3,2,18,19;,
 4;2,5,20,18;,
 4;5,7,21,20;,
 4;7,9,22,21;,
 4;9,11,23,22;,
 4;11,13,24,23;,
 4;13,15,25,24;,
 4;15,17,26,25;,
 4;19,18,27,28;,
 4;18,20,29,27;,
 4;20,21,30,29;,
 4;21,22,31,30;,
 4;22,23,32,31;,
 4;23,24,33,32;,
 4;24,25,34,33;,
 4;25,26,35,34;,
 4;28,27,36,37;,
 4;27,29,38,36;,
 4;29,30,39,38;,
 4;30,31,40,39;,
 4;31,32,41,40;,
 4;32,33,42,41;,
 4;33,34,43,42;,
 4;34,35,44,43;,
 4;37,36,45,46;,
 4;36,38,47,45;,
 4;38,39,48,47;,
 4;39,40,49,48;,
 4;40,41,50,49;,
 4;41,42,51,50;,
 4;42,43,52,51;,
 4;43,44,53,52;,
 3;54,46,45;,
 3;55,45,47;,
 3;56,47,48;,
 3;57,48,49;,
 3;58,49,50;,
 3;59,50,51;,
 3;60,51,52;,
 3;61,52,53;,
 4;62,63,1,0;,
 4;63,64,4,1;,
 4;64,65,6,4;,
 4;65,66,8,6;,
 4;66,67,10,8;,
 4;68,69,70,12;,
 4;67,68,12,10;,
 4;71,72,16,14;,
 4;73,71,14,74;,
 4;75,76,77,14;,
 4;78,75,14,12;,
 4;76,78,12,77;,
 3;76,75,78;,
 4;79,80,63,62;,
 3;81,80,79;,
 4;80,82,64,63;,
 3;83,82,80;,
 4;82,84,65,64;,
 3;85,84,82;,
 4;84,86,66,65;,
 3;87,86,84;,
 4;86,88,67,66;,
 3;89,88,86;,
 4;90,91,69,68;,
 4;88,90,68,67;,
 3;91,90,88;,
 4;92,93,72,71;,
 4;94,92,71,73;,
 3;94,93,92;,
 4;95,96,97,98;,
 4;96,99,100,97;,
 4;99,101,102,100;,
 4;101,103,104,102;,
 4;103,105,106,104;,
 4;105,107,108,106;,
 4;107,109,110,108;,
 4;109,111,112,110;,
 4;98,97,113,114;,
 4;97,100,115,113;,
 4;100,102,116,115;,
 4;102,104,117,116;,
 4;104,106,118,117;,
 4;106,108,119,118;,
 4;108,110,120,119;,
 4;110,112,121,120;,
 4;114,113,122,123;,
 4;113,115,124,122;,
 4;115,116,125,124;,
 4;116,117,126,125;,
 4;117,118,127,126;,
 4;118,119,128,127;,
 4;119,120,129,128;,
 4;120,121,130,129;,
 4;131,132,96,95;,
 4;132,133,99,96;,
 4;133,134,101,99;,
 4;134,135,103,101;,
 4;135,136,105,103;,
 4;137,138,139,107;,
 4;136,137,107,105;,
 4;140,141,111,109;,
 4;142,140,109,143;,
 4;144,145,146,147;,
 4;145,148,149,146;,
 4;148,150,151,149;,
 4;150,152,153,151;,
 4;152,154,155,153;,
 4;156,157,158,159;,
 4;154,156,159,155;,
 4;160,161,162,163;,
 4;164,160,163,165;,
 4;166,167,168,163;,
 4;169,166,163,159;,
 4;167,169,159,168;,
 3;167,166,169;,
 4;170,171,145,144;,
 3;172,171,170;,
 4;171,173,148,145;,
 3;174,173,171;,
 4;173,175,150,148;,
 3;176,175,173;,
 4;175,177,152,150;,
 3;178,177,175;,
 4;177,179,154,152;,
 3;180,179,177;,
 4;181,182,157,156;,
 4;179,181,156,154;,
 3;182,181,179;,
 4;183,184,161,160;,
 4;185,183,160,164;,
 3;185,184,183;,
 4;186,187,188,189;,
 4;187,190,191,188;,
 4;190,192,193,191;,
 4;192,194,195,193;,
 4;194,196,197,195;,
 4;196,198,199,197;,
 4;198,200,201,199;,
 4;200,202,203,201;,
 3;204,187,186;,
 3;205,190,187;,
 3;206,192,190;,
 3;207,194,192;,
 3;208,196,194;,
 3;209,198,196;,
 3;210,200,198;,
 3;211,202,200;,
 3;212,189,188;,
 3;213,188,191;,
 3;214,191,193;,
 3;215,193,195;,
 3;216,195,197;,
 3;217,197,199;,
 3;218,199,201;,
 3;219,201,203;;
 
 MeshMaterialList {
  3;
  163;
  1,
  1,
  1,
  1,
  1,
  1,
  1,
  1,
  1,
  1,
  1,
  1,
  1,
  1,
  1,
  1,
  1,
  1,
  1,
  1,
  1,
  1,
  1,
  1,
  1,
  1,
  1,
  1,
  1,
  1,
  1,
  1,
  1,
  1,
  1,
  1,
  1,
  1,
  1,
  1,
  1,
  1,
  1,
  1,
  1,
  1,
  1,
  1,
  1,
  1,
  1,
  1,
  1,
  1,
  1,
  1,
  1,
  1,
  1,
  1,
  1,
  1,
  1,
  1,
  1,
  1,
  1,
  1,
  1,
  1,
  1,
  1,
  1,
  1,
  1,
  1,
  1,
  1,
  1,
  1,
  1,
  1,
  1,
  1,
  1,
  1,
  1,
  1,
  1,
  1,
  1,
  1,
  1,
  1,
  1,
  1,
  1,
  1,
  1,
  1,
  1,
  1,
  1,
  1,
  1,
  1,
  1,
  1,
  1,
  1,
  1,
  1,
  1,
  1,
  1,
  1,
  1,
  1,
  1,
  1,
  1,
  1,
  1,
  1,
  1,
  1,
  1,
  1,
  1,
  1,
  1,
  1,
  1,
  1,
  1,
  1,
  1,
  1,
  1,
  1,
  1,
  1,
  1,
  1,
  1,
  1,
  1,
  1,
  1,
  1,
  1,
  1,
  1,
  1,
  1,
  1,
  1,
  1,
  1,
  1,
  1,
  1,
  1;;
  Material {
   0.592800;0.094400;0.225600;1.000000;;
   5.000000;
   0.000000;0.000000;0.000000;;
   0.000000;0.000000;0.000000;;
  }
  Material {
   0.800000;0.800000;0.000000;1.000000;;
   5.000000;
   0.000000;0.000000;0.000000;;
   0.000000;0.000000;0.000000;;
  }
  Material {
   1.000000;1.000000;1.000000;1.000000;;
   0.000000;
   0.000000;0.000000;0.000000;;
   0.000000;0.000000;0.000000;;
  }
 }
 MeshNormals {
  181;
  -0.877487;0.000000;0.479601;,
  -0.824808;0.180146;0.535947;,
  -0.575503;0.131153;0.807215;,
  0.005452;0.014474;0.999880;,
  0.586875;-0.095351;0.804044;,
  0.834566;-0.141109;0.532529;,
  0.586875;-0.095350;-0.804043;,
  0.005452;0.014475;-0.999880;,
  -0.575504;0.131153;-0.807214;,
  -0.784024;0.589581;0.194169;,
  -0.521478;0.343905;0.780891;,
  -0.007332;0.008928;0.999933;,
  0.555036;-0.288224;0.780296;,
  0.860488;-0.472383;0.190825;,
  0.555036;-0.288224;-0.780296;,
  -0.007333;0.008929;-0.999933;,
  -0.521479;0.343905;-0.780890;,
  -0.578694;0.815545;-0.000003;,
  -0.368821;0.497887;0.784907;,
  -0.012833;-0.005674;0.999901;,
  0.388486;-0.480248;0.786410;,
  0.647970;-0.761666;-0.000003;,
  0.388485;-0.480249;-0.786409;,
  -0.012834;-0.005674;-0.999901;,
  -0.368822;0.497887;-0.784907;,
  -0.174350;0.827241;0.534111;,
  -0.122932;0.579240;0.805834;,
  0.000000;-0.000000;1.000000;,
  0.122933;-0.579240;0.805834;,
  0.174350;-0.827241;0.534111;,
  0.122933;-0.579241;-0.805834;,
  -0.000000;-0.000000;-1.000000;,
  -0.122933;0.579241;-0.805834;,
  0.000000;0.840108;0.542419;,
  0.000000;0.588017;0.808849;,
  0.000000;-0.000000;1.000000;,
  0.000000;-0.588017;0.808848;,
  0.000000;-0.840108;0.542419;,
  -0.000000;-0.588018;-0.808848;,
  -0.000000;-0.000000;-1.000000;,
  -0.000000;0.588018;-0.808848;,
  0.000000;0.840108;0.542419;,
  0.000000;0.588017;0.808848;,
  0.000000;-0.588017;0.808848;,
  0.000000;-0.840108;0.542419;,
  -0.000000;-0.588018;-0.808848;,
  -0.000000;0.588018;-0.808848;,
  1.000000;0.000000;0.000000;,
  -1.000000;0.000000;0.000000;,
  -0.840108;0.000000;0.542419;,
  -0.588017;0.000000;0.808849;,
  0.000001;0.000000;1.000000;,
  0.588015;0.000000;0.808850;,
  0.840104;0.000000;0.542425;,
  0.588015;-0.000000;-0.808850;,
  -0.840105;-0.000000;-0.542423;,
  -0.539966;0.000000;0.841687;,
  -0.256825;-0.000000;-0.966458;,
  0.000000;-1.000000;-0.000000;,
  -0.840108;0.000000;0.542419;,
  -0.588017;0.000000;0.808849;,
  0.000001;0.000000;1.000000;,
  0.588015;-0.000000;-0.808850;,
  -0.840105;-0.000000;-0.542424;,
  0.000000;1.000000;0.000000;,
  0.219868;0.812882;0.539334;,
  0.162810;0.562873;0.810350;,
  0.024088;-0.011199;0.999647;,
  -0.113986;-0.581474;0.805540;,
  -0.175387;-0.825962;0.535748;,
  -0.113986;-0.581475;-0.805540;,
  0.031979;-0.103338;-0.994132;,
  0.215809;0.653467;-0.725540;,
  0.611791;0.767344;0.192080;,
  0.372546;0.506563;0.777562;,
  0.017762;0.003595;0.999836;,
  -0.308181;-0.545188;0.779612;,
  -0.499411;-0.845162;0.190498;,
  -0.308182;-0.545189;-0.779611;,
  0.017763;0.003595;-0.999836;,
  0.372547;0.506564;-0.777561;,
  0.822473;0.568804;-0.000003;,
  0.499489;0.361938;0.787091;,
  -0.006537;0.014881;0.999868;,
  -0.484624;-0.377126;0.789250;,
  -0.773288;-0.634055;-0.000003;,
  -0.484625;-0.377127;-0.789249;,
  -0.006537;0.014882;-0.999868;,
  0.499489;0.361939;-0.787090;,
  0.796356;0.318498;0.514175;,
  0.565415;0.226134;0.793202;,
  0.000000;0.000000;1.000000;,
  -0.565415;-0.226135;0.793202;,
  -0.796357;-0.318498;0.514174;,
  -0.565416;-0.226135;-0.793201;,
  0.000000;0.000000;-1.000000;,
  0.565416;0.226135;-0.793201;,
  0.000000;0.840108;0.542419;,
  0.000000;0.588017;0.808848;,
  0.000000;-0.000000;1.000000;,
  0.000000;-0.588014;0.808850;,
  0.000000;-0.840104;0.542425;,
  0.000000;-0.588015;-0.808850;,
  0.000000;0.840106;-0.542422;,
  -0.877487;0.000000;0.479600;,
  -0.840108;0.000000;0.542419;,
  -0.588017;0.000000;0.808848;,
  0.000000;0.000000;1.000000;,
  0.588017;0.000000;0.808848;,
  0.840108;0.000000;0.542419;,
  0.588018;0.000000;-0.808848;,
  -0.588018;0.000000;-0.808848;,
  -0.840108;0.000000;0.542419;,
  -0.588017;0.000000;0.808848;,
  -0.840106;0.000000;-0.542422;,
  -0.539968;0.000000;0.841686;,
  -0.256823;0.000000;-0.966458;,
  0.000000;-1.000000;0.000001;,
  -0.840108;0.000000;0.542419;,
  0.588018;0.000000;-0.808848;,
  -0.840106;0.000000;-0.542422;,
  -1.000000;-0.000001;0.000000;,
  0.000000;-0.000001;1.000000;,
  0.000000;-0.588013;0.808851;,
  0.000000;-0.840101;0.542430;,
  -0.000000;-0.588019;-0.808847;,
  -0.000000;-0.000001;-1.000000;,
  -0.000000;0.588021;-0.808846;,
  -0.000000;0.840106;-0.542423;,
  0.000000;0.588016;0.808850;,
  1.000000;0.000001;0.000000;,
  0.834563;-0.141108;-0.532534;,
  0.812300;-0.279389;-0.511968;,
  -0.824805;0.180145;-0.535952;,
  -0.782510;0.354394;-0.511941;,
  0.174350;-0.827239;-0.534115;,
  -0.174349;0.827239;-0.534115;,
  -0.000000;-0.840106;-0.542422;,
  -0.000000;0.840106;-0.542422;,
  -0.000000;-0.840106;-0.542422;,
  -0.000000;0.840106;-0.542422;,
  0.840101;-0.000000;-0.542430;,
  0.256826;-0.000000;-0.966458;,
  0.539967;-0.000000;-0.841686;,
  0.539968;0.000000;-0.841686;,
  0.877487;0.000000;-0.479600;,
  0.840101;-0.000000;-0.542431;,
  0.256827;-0.000000;-0.966457;,
  0.539966;-0.000000;-0.841687;,
  -0.175386;-0.825959;-0.535753;,
  -0.345335;-0.786208;-0.512466;,
  0.219867;0.812879;-0.539339;,
  0.428941;0.745746;-0.509777;,
  -0.796355;-0.318498;-0.514177;,
  0.796354;0.318497;-0.514178;,
  0.000000;-0.840102;-0.542428;,
  0.000000;-0.256823;-0.966458;,
  0.000000;-0.539968;-0.841686;,
  0.840106;0.000000;-0.542422;,
  0.840106;0.000000;-0.542422;,
  0.256823;0.000000;-0.966459;,
  -0.000000;0.000000;-1.000000;,
  0.539968;0.000000;-0.841686;,
  0.877487;0.000000;-0.479600;,
  -0.000003;-1.000000;0.000005;,
  -0.000004;-1.000000;-0.000000;,
  0.000000;-1.000000;0.000007;,
  0.000003;-1.000000;0.000005;,
  0.000004;-1.000000;-0.000000;,
  0.840106;0.000000;-0.542422;,
  0.000003;-1.000000;-0.000005;,
  0.000002;-1.000000;-0.000007;,
  -0.000004;-1.000000;-0.000003;,
  -0.000000;-0.840101;-0.542430;,
  0.000000;0.840106;0.542423;,
  -1.000000;-0.000002;-0.000004;,
  -1.000000;-0.000005;0.000000;,
  -1.000000;-0.000002;0.000004;,
  1.000000;0.000002;0.000004;,
  1.000000;0.000005;0.000000;,
  1.000000;0.000002;-0.000004;;
  163;
  4;1,2,10,9;,
  4;2,3,11,10;,
  4;3,4,12,11;,
  4;4,5,13,12;,
  4;131,6,14,132;,
  4;6,7,15,14;,
  4;7,8,16,15;,
  4;8,133,134,16;,
  4;9,10,18,17;,
  4;10,11,19,18;,
  4;11,12,20,19;,
  4;12,13,21,20;,
  4;13,14,22,21;,
  4;14,15,23,22;,
  4;15,16,24,23;,
  4;16,9,17,24;,
  4;17,18,26,25;,
  4;18,19,27,26;,
  4;19,20,28,27;,
  4;20,21,29,28;,
  4;21,22,30,135;,
  4;22,23,31,30;,
  4;23,24,32,31;,
  4;24,17,136,32;,
  4;25,26,34,33;,
  4;26,27,35,34;,
  4;27,28,36,35;,
  4;28,29,37,36;,
  4;135,30,38,137;,
  4;30,31,39,38;,
  4;31,32,40,39;,
  4;32,136,138,40;,
  4;33,34,42,41;,
  4;34,35,35,42;,
  4;35,36,43,35;,
  4;36,37,44,43;,
  4;137,38,45,139;,
  4;38,39,39,45;,
  4;39,40,46,39;,
  4;40,138,140,46;,
  3;47,47,47;,
  3;47,47,47;,
  3;47,47,47;,
  3;47,47,47;,
  3;47,47,47;,
  3;47,47,47;,
  3;47,47,47;,
  3;47,47,47;,
  4;49,50,2,1;,
  4;50,51,3,2;,
  4;51,52,4,3;,
  4;52,53,5,4;,
  4;141,54,6,131;,
  4;48,48,0,48;,
  4;54,142,7,6;,
  4;55,55,133,8;,
  4;143,143,144,145;,
  4;56,56,0,56;,
  4;57,57,8,7;,
  4;47,47,47,145;,
  3;58,58,58;,
  4;59,60,50,49;,
  3;58,58,58;,
  4;60,61,51,50;,
  3;58,58,58;,
  4;61,52,52,51;,
  3;58,58,58;,
  4;52,53,53,52;,
  3;58,58,58;,
  4;146,62,54,141;,
  3;58,58,58;,
  4;48,48,48,48;,
  4;62,147,142,54;,
  3;58,58,58;,
  4;63,63,55,55;,
  4;148,148,143,143;,
  3;58,58,58;,
  4;65,66,74,73;,
  4;66,67,75,74;,
  4;67,68,76,75;,
  4;68,69,77,76;,
  4;149,70,78,150;,
  4;70,71,79,78;,
  4;71,72,80,79;,
  4;72,151,152,80;,
  4;73,74,82,81;,
  4;74,75,83,82;,
  4;75,76,84,83;,
  4;76,77,85,84;,
  4;77,78,86,85;,
  4;78,79,87,86;,
  4;79,80,88,87;,
  4;80,73,81,88;,
  4;81,82,90,89;,
  4;82,83,91,90;,
  4;83,84,92,91;,
  4;84,85,93,92;,
  4;85,86,94,153;,
  4;86,87,95,94;,
  4;87,88,96,95;,
  4;88,81,154,96;,
  4;97,98,66,65;,
  4;98,99,67,66;,
  4;99,100,68,67;,
  4;100,101,69,68;,
  4;155,102,70,149;,
  4;64,64,64,64;,
  4;102,156,71,70;,
  4;103,103,151,72;,
  4;157,157,157,157;,
  4;112,113,106,105;,
  4;113,107,107,106;,
  4;107,108,108,107;,
  4;108,109,109,108;,
  4;158,110,110,159;,
  4;48,48,104,48;,
  4;110,160,161,110;,
  4;114,114,114,111;,
  4;144,144,162,163;,
  4;115,115,104,115;,
  4;116,116,111,161;,
  4;47,47,47,163;,
  3;58,58,58;,
  4;118,60,113,112;,
  3;117,164,165;,
  4;60,107,107,113;,
  3;117,166,164;,
  4;107,108,108,107;,
  3;117,167,166;,
  4;108,109,109,108;,
  3;117,168,167;,
  4;169,119,110,158;,
  3;117,170,168;,
  4;48,48,48,48;,
  4;119,160,160,110;,
  3;117,171,170;,
  4;120,120,114,114;,
  4;162,162,144,144;,
  3;117,165,172;,
  4;122,123,123,122;,
  4;123,124,124,123;,
  4;173,125,125,173;,
  4;125,126,126,125;,
  4;126,127,127,126;,
  4;127,128,128,127;,
  4;174,129,129,174;,
  4;129,122,122,129;,
  3;121,175,48;,
  3;121,176,175;,
  3;121,177,176;,
  3;121,48,177;,
  3;121,48,48;,
  3;121,48,48;,
  3;121,48,48;,
  3;121,48,48;,
  3;130,47,47;,
  3;130,47,47;,
  3;130,47,47;,
  3;130,47,47;,
  3;130,47,178;,
  3;130,178,179;,
  3;130,179,180;,
  3;130,180,47;;
 }
 MeshTextureCoords {
  220;
  0.000000;0.000000;,
  0.125000;0.000000;,
  0.125000;0.200000;,
  0.000000;0.200000;,
  0.250000;0.000000;,
  0.250000;0.200000;,
  0.375000;0.000000;,
  0.375000;0.200000;,
  0.500000;0.000000;,
  0.500000;0.200000;,
  0.625000;0.000000;,
  0.625000;0.200000;,
  0.750000;0.000000;,
  0.750000;0.200000;,
  0.875000;0.000000;,
  0.875000;0.200000;,
  1.000000;0.000000;,
  1.000000;0.200000;,
  0.125000;0.400000;,
  0.000000;0.400000;,
  0.250000;0.400000;,
  0.375000;0.400000;,
  0.500000;0.400000;,
  0.625000;0.400000;,
  0.750000;0.400000;,
  0.875000;0.400000;,
  1.000000;0.400000;,
  0.125000;0.600000;,
  0.000000;0.600000;,
  0.250000;0.600000;,
  0.375000;0.600000;,
  0.500000;0.600000;,
  0.625000;0.600000;,
  0.750000;0.600000;,
  0.875000;0.600000;,
  1.000000;0.600000;,
  0.125000;0.800000;,
  0.000000;0.800000;,
  0.250000;0.800000;,
  0.375000;0.800000;,
  0.500000;0.800000;,
  0.625000;0.800000;,
  0.750000;0.800000;,
  0.875000;0.800000;,
  1.000000;0.800000;,
  0.125000;1.000000;,
  0.000000;1.000000;,
  0.250000;1.000000;,
  0.375000;1.000000;,
  0.500000;1.000000;,
  0.625000;1.000000;,
  0.750000;1.000000;,
  0.875000;1.000000;,
  1.000000;1.000000;,
  0.062500;1.000000;,
  0.187500;1.000000;,
  0.312500;1.000000;,
  0.437500;1.000000;,
  0.562500;1.000000;,
  0.687500;1.000000;,
  0.812500;1.000000;,
  0.937500;1.000000;,
  0.000000;0.000000;,
  0.125000;0.000000;,
  0.250000;0.000000;,
  0.375000;0.000000;,
  0.500000;0.000000;,
  0.625000;0.000000;,
  0.750000;0.000000;,
  0.687500;0.000000;,
  0.687500;0.000000;,
  0.875000;0.000000;,
  1.000000;0.000000;,
  0.937500;0.000000;,
  0.937500;0.000000;,
  0.875000;0.000000;,
  0.812500;0.000000;,
  0.812500;0.000000;,
  0.750000;0.000000;,
  0.000000;0.000000;,
  0.125000;0.000000;,
  0.062500;0.000000;,
  0.250000;0.000000;,
  0.187500;0.000000;,
  0.375000;0.000000;,
  0.312500;0.000000;,
  0.500000;0.000000;,
  0.437500;0.000000;,
  0.625000;0.000000;,
  0.562500;0.000000;,
  0.750000;0.000000;,
  0.687500;0.000000;,
  0.875000;0.000000;,
  1.000000;0.000000;,
  0.937500;0.000000;,
  0.000000;0.000000;,
  0.125000;0.000000;,
  0.125000;0.200000;,
  0.000000;0.200000;,
  0.250000;0.000000;,
  0.250000;0.200000;,
  0.375000;0.000000;,
  0.375000;0.200000;,
  0.500000;0.000000;,
  0.500000;0.200000;,
  0.625000;0.000000;,
  0.625000;0.200000;,
  0.750000;0.000000;,
  0.750000;0.200000;,
  0.875000;0.000000;,
  0.875000;0.200000;,
  1.000000;0.000000;,
  1.000000;0.200000;,
  0.125000;0.400000;,
  0.000000;0.400000;,
  0.250000;0.400000;,
  0.375000;0.400000;,
  0.500000;0.400000;,
  0.625000;0.400000;,
  0.750000;0.400000;,
  0.875000;0.400000;,
  1.000000;0.400000;,
  0.125000;0.600000;,
  0.000000;0.600000;,
  0.250000;0.600000;,
  0.375000;0.600000;,
  0.500000;0.600000;,
  0.625000;0.600000;,
  0.750000;0.600000;,
  0.875000;0.600000;,
  1.000000;0.600000;,
  0.000000;0.000000;,
  0.125000;0.000000;,
  0.250000;0.000000;,
  0.375000;0.000000;,
  0.500000;0.000000;,
  0.625000;0.000000;,
  0.750000;0.000000;,
  0.687500;0.000000;,
  0.687500;0.000000;,
  0.875000;0.000000;,
  1.000000;0.000000;,
  0.937500;0.000000;,
  0.937500;0.000000;,
  0.000000;0.000000;,
  0.125000;0.000000;,
  0.125000;0.000000;,
  0.000000;0.000000;,
  0.250000;0.000000;,
  0.250000;0.000000;,
  0.375000;0.000000;,
  0.375000;0.000000;,
  0.500000;0.000000;,
  0.500000;0.000000;,
  0.625000;0.000000;,
  0.625000;0.000000;,
  0.750000;0.000000;,
  0.687500;0.000000;,
  0.687500;0.000000;,
  0.750000;0.000000;,
  0.875000;0.000000;,
  1.000000;0.000000;,
  1.000000;0.000000;,
  0.875000;0.000000;,
  0.937500;0.000000;,
  0.937500;0.000000;,
  0.875000;0.000000;,
  0.812500;0.000000;,
  0.812500;0.000000;,
  0.750000;0.000000;,
  0.000000;0.000000;,
  0.125000;0.000000;,
  0.062500;0.000000;,
  0.250000;0.000000;,
  0.187500;0.000000;,
  0.375000;0.000000;,
  0.312500;0.000000;,
  0.500000;0.000000;,
  0.437500;0.000000;,
  0.625000;0.000000;,
  0.562500;0.000000;,
  0.750000;0.000000;,
  0.687500;0.000000;,
  0.875000;0.000000;,
  1.000000;0.000000;,
  0.937500;0.000000;,
  0.000000;0.000000;,
  0.125000;0.000000;,
  0.125000;1.000000;,
  0.000000;1.000000;,
  0.250000;0.000000;,
  0.250000;1.000000;,
  0.375000;0.000000;,
  0.375000;1.000000;,
  0.500000;0.000000;,
  0.500000;1.000000;,
  0.625000;0.000000;,
  0.625000;1.000000;,
  0.750000;0.000000;,
  0.750000;1.000000;,
  0.875000;0.000000;,
  0.875000;1.000000;,
  1.000000;0.000000;,
  1.000000;1.000000;,
  0.062500;0.000000;,
  0.187500;0.000000;,
  0.312500;0.000000;,
  0.437500;0.000000;,
  0.562500;0.000000;,
  0.687500;0.000000;,
  0.812500;0.000000;,
  0.937500;0.000000;,
  0.062500;1.000000;,
  0.187500;1.000000;,
  0.312500;1.000000;,
  0.437500;1.000000;,
  0.562500;1.000000;,
  0.687500;1.000000;,
  0.812500;1.000000;,
  0.937500;1.000000;;
 }
}
