xof 0302txt 0064
template Header {
 <3D82AB43-62DA-11cf-AB39-0020AF71E433>
 WORD major;
 WORD minor;
 DWORD flags;
}

template Vector {
 <3D82AB5E-62DA-11cf-AB39-0020AF71E433>
 FLOAT x;
 FLOAT y;
 FLOAT z;
}

template Coords2d {
 <F6F23F44-7686-11cf-8F52-0040333594A3>
 FLOAT u;
 FLOAT v;
}

template Matrix4x4 {
 <F6F23F45-7686-11cf-8F52-0040333594A3>
 array FLOAT matrix[16];
}

template ColorRGBA {
 <35FF44E0-6C7C-11cf-8F52-0040333594A3>
 FLOAT red;
 FLOAT green;
 FLOAT blue;
 FLOAT alpha;
}

template ColorRGB {
 <D3E16E81-7835-11cf-8F52-0040333594A3>
 FLOAT red;
 FLOAT green;
 FLOAT blue;
}

template IndexedColor {
 <1630B820-7842-11cf-8F52-0040333594A3>
 DWORD index;
 ColorRGBA indexColor;
}

template Boolean {
 <4885AE61-78E8-11cf-8F52-0040333594A3>
 WORD truefalse;
}

template Boolean2d {
 <4885AE63-78E8-11cf-8F52-0040333594A3>
 Boolean u;
 Boolean v;
}

template MaterialWrap {
 <4885AE60-78E8-11cf-8F52-0040333594A3>
 Boolean u;
 Boolean v;
}

template TextureFilename {
 <A42790E1-7810-11cf-8F52-0040333594A3>
 STRING filename;
}

template Material {
 <3D82AB4D-62DA-11cf-AB39-0020AF71E433>
 ColorRGBA faceColor;
 FLOAT power;
 ColorRGB specularColor;
 ColorRGB emissiveColor;
 [...]
}

template MeshFace {
 <3D82AB5F-62DA-11cf-AB39-0020AF71E433>
 DWORD nFaceVertexIndices;
 array DWORD faceVertexIndices[nFaceVertexIndices];
}

template MeshFaceWraps {
 <4885AE62-78E8-11cf-8F52-0040333594A3>
 DWORD nFaceWrapValues;
 Boolean2d faceWrapValues;
}

template MeshTextureCoords {
 <F6F23F40-7686-11cf-8F52-0040333594A3>
 DWORD nTextureCoords;
 array Coords2d textureCoords[nTextureCoords];
}

template MeshMaterialList {
 <F6F23F42-7686-11cf-8F52-0040333594A3>
 DWORD nMaterials;
 DWORD nFaceIndexes;
 array DWORD faceIndexes[nFaceIndexes];
 [Material]
}

template MeshNormals {
 <F6F23F43-7686-11cf-8F52-0040333594A3>
 DWORD nNormals;
 array Vector normals[nNormals];
 DWORD nFaceNormals;
 array MeshFace faceNormals[nFaceNormals];
}

template MeshVertexColors {
 <1630B821-7842-11cf-8F52-0040333594A3>
 DWORD nVertexColors;
 array IndexedColor vertexColors[nVertexColors];
}

template Mesh {
 <3D82AB44-62DA-11cf-AB39-0020AF71E433>
 DWORD nVertices;
 array Vector vertices[nVertices];
 DWORD nFaces;
 array MeshFace faces[nFaces];
 [...]
}

Header{
1;
0;
1;
}

Mesh {
 175;
 -57.20755;115.66635;37.62740;,
 -57.20755;115.66635;-37.62740;,
 -57.20755;4.19565;-37.62740;,
 -57.20755;4.19565;37.62740;,
 56.23640;-0.64270;30.51610;,
 56.23640;-0.64270;-30.51610;,
 61.66755;4.19565;-37.62740;,
 61.66755;4.19565;37.62740;,
 -51.77640;-0.64270;-30.51610;,
 -51.77640;-0.64270;30.51610;,
 -57.20755;4.19565;-37.62740;,
 -23.40730;4.19565;-37.62740;,
 20.71700;4.19565;-37.62740;,
 18.75015;-0.64270;-30.51610;,
 -21.77050;-0.64270;-30.51610;,
 -23.40730;4.19565;-37.62740;,
 -23.40730;101.73270;-37.62740;,
 20.71700;101.73270;-37.62740;,
 20.71700;4.19565;-37.62740;,
 18.75015;-0.64270;30.51610;,
 -21.77050;-0.64270;30.51610;,
 20.71700;4.19565;37.62740;,
 -23.40730;4.19565;37.62740;,
 -23.40730;101.73270;37.62740;,
 -23.40730;4.19565;37.62740;,
 20.71700;4.19565;37.62740;,
 20.71700;101.73270;37.62740;,
 20.71695;134.60545;37.62740;,
 20.71695;134.60545;-37.62740;,
 20.71700;101.73270;-37.62740;,
 20.71700;101.73270;37.62740;,
 -23.40730;133.24789;-37.62740;,
 -23.40730;133.24789;37.62740;,
 -23.40730;101.73270;37.62740;,
 -23.40730;101.73270;-37.62740;,
 -33.31895;133.47009;-37.62740;,
 -57.20755;115.66635;-37.62740;,
 -33.31895;133.47009;37.62740;,
 -23.40730;101.73270;-37.62740;,
 -23.40730;4.19565;-37.62740;,
 -57.20755;4.19565;-37.62740;,
 -57.20755;115.66635;-37.62740;,
 -23.40730;4.19565;-37.62740;,
 -21.77050;-0.64270;-30.51610;,
 -23.40730;101.73270;37.62740;,
 -57.20755;115.66635;37.62740;,
 -57.20755;4.19565;37.62740;,
 -23.40730;4.19565;37.62740;,
 -21.77050;-0.64270;30.51610;,
 -23.40730;4.19565;37.62740;,
 31.96515;125.49030;-37.62740;,
 31.96515;125.49030;37.62740;,
 61.66755;125.49030;37.62740;,
 61.66755;125.49030;-37.62740;,
 20.71700;101.73270;-37.62740;,
 61.66755;125.49030;-37.62740;,
 61.66755;4.19565;-37.62740;,
 20.71700;4.19565;-37.62740;,
 20.71700;4.19565;-37.62740;,
 18.75015;-0.64270;-30.51610;,
 20.71700;101.73270;37.62740;,
 20.71700;4.19565;37.62740;,
 61.66755;4.19565;37.62740;,
 61.66755;125.49030;37.62740;,
 18.75015;-0.64270;30.51610;,
 20.71700;4.19565;37.62740;,
 31.96515;134.60545;-37.62740;,
 31.96515;134.60545;37.62740;,
 -31.13105;134.00690;-5.65460;,
 31.13105;134.00690;-5.65460;,
 31.13105;127.58440;-5.65460;,
 -31.13105;127.58440;-5.65460;,
 31.13105;134.00690;-5.65460;,
 31.13105;134.00690;5.65460;,
 31.13105;127.58440;5.65460;,
 31.13105;127.58440;-5.65460;,
 31.13105;134.00690;5.65460;,
 -31.13105;134.00690;5.65460;,
 -31.13105;127.58440;5.65460;,
 31.13105;127.58440;5.65460;,
 -31.13105;134.00690;5.65460;,
 -31.13105;134.00690;-5.65460;,
 -31.13105;127.58440;-5.65460;,
 -31.13105;127.58440;5.65460;,
 31.13105;134.00690;-5.65460;,
 -31.13105;134.00690;-5.65460;,
 -31.13105;127.58440;-5.65460;,
 31.13105;127.58440;-5.65460;,
 -23.40730;107.39805;26.67135;,
 -23.40730;107.39805;-26.67135;,
 20.71700;107.39805;26.67135;,
 20.71700;107.39805;-26.67135;,
 71.22300;4.19565;15.18030;,
 71.22300;125.49030;15.18030;,
 71.22300;4.19565;-15.18030;,
 61.66755;4.19565;-37.62740;,
 71.22300;125.49030;-15.18030;,
 61.66755;125.49030;-37.62740;,
 71.22300;125.49030;-15.18030;,
 20.71700;101.73270;-37.62740;,
 -23.40730;101.73270;-37.62740;,
 -23.40730;101.73270;37.62740;,
 20.71700;101.73270;37.62740;,
 -23.40730;101.73270;-37.62740;,
 -23.40730;101.73270;37.62740;,
 20.71700;101.73270;-37.62740;,
 20.71700;101.73270;37.62740;,
 52.16935;134.57765;-16.11660;,
 63.56545;134.57765;-11.39615;,
 63.56545;124.03115;-11.39615;,
 52.16935;124.03115;-16.11660;,
 68.28595;134.57765;0.00000;,
 68.28595;124.03115;0.00000;,
 63.56545;134.57765;11.39615;,
 63.56545;124.03115;11.39615;,
 52.16935;134.57765;16.11660;,
 52.16935;124.03115;16.11660;,
 40.77315;134.57765;11.39615;,
 40.77315;124.03115;11.39615;,
 36.05275;134.57765;0.00000;,
 36.05275;124.03115;0.00000;,
 40.77315;134.57765;-11.39615;,
 40.77315;124.03115;-11.39615;,
 52.16935;134.57765;-16.11660;,
 52.16935;124.03115;-16.11660;,
 52.16935;134.57765;0.00000;,
 52.16935;134.57765;0.00000;,
 52.16935;134.57765;0.00000;,
 52.16935;134.57765;0.00000;,
 52.16935;134.57765;0.00000;,
 52.16935;134.57765;0.00000;,
 52.16935;134.57765;0.00000;,
 52.16935;134.57765;0.00000;,
 52.16935;124.03115;0.00000;,
 52.16935;124.03115;0.00000;,
 52.16935;124.03115;0.00000;,
 52.16935;124.03115;0.00000;,
 52.16935;124.03115;0.00000;,
 52.16935;124.03115;0.00000;,
 52.16935;124.03115;0.00000;,
 52.16935;124.03115;0.00000;,
 -49.28685;129.89120;-12.83360;,
 -42.20410;135.55785;-9.10715;,
 -36.97995;129.00024;-9.06450;,
 -44.06260;123.33355;-12.79095;,
 -39.27720;137.94859;-0.05835;,
 -34.05300;131.39085;-0.01565;,
 -42.22065;135.66255;9.01215;,
 -36.99650;129.10500;9.05485;,
 -49.31020;130.03931;12.79095;,
 -44.08600;123.48165;12.83360;,
 -56.39295;124.37265;9.06450;,
 -51.16875;117.81495;9.10715;,
 -59.31980;121.98205;0.01565;,
 -54.09565;115.42435;0.05835;,
 -56.37640;124.26790;-9.05485;,
 -51.15220;117.71020;-9.01215;,
 -49.28685;129.89120;-12.83360;,
 -44.06260;123.33355;-12.79095;,
 -49.29855;129.96526;-0.02135;,
 -49.29855;129.96526;-0.02135;,
 -49.29855;129.96526;-0.02135;,
 -49.29855;129.96526;-0.02135;,
 -49.29855;129.96526;-0.02135;,
 -49.29855;129.96526;-0.02135;,
 -49.29855;129.96526;-0.02135;,
 -49.29855;129.96526;-0.02135;,
 -44.07430;123.40760;0.02135;,
 -44.07430;123.40760;0.02135;,
 -44.07430;123.40760;0.02135;,
 -44.07430;123.40760;0.02135;,
 -44.07430;123.40760;0.02135;,
 -44.07430;123.40760;0.02135;,
 -44.07430;123.40760;0.02135;,
 -44.07430;123.40760;0.02135;;
 
 99;
 4;0,1,2,3;,
 4;4,5,6,7;,
 4;8,9,3,10;,
 4;11,12,13,14;,
 4;15,16,17,18;,
 4;14,13,19,20;,
 4;20,19,21,22;,
 4;23,24,25,26;,
 4;27,28,29,30;,
 4;31,32,33,34;,
 4;35,36,0,37;,
 4;35,37,32,31;,
 4;38,39,40,41;,
 4;42,43,8,10;,
 4;44,45,46,47;,
 4;43,48,9,8;,
 4;49,3,9,48;,
 4;50,51,52,53;,
 4;54,55,56,57;,
 4;58,6,5,59;,
 4;60,61,62,63;,
 4;59,5,4,64;,
 4;65,64,4,7;,
 4;66,67,51,50;,
 4;66,28,27,67;,
 4;68,69,70,71;,
 4;72,73,74,75;,
 4;76,77,78,79;,
 4;80,81,82,83;,
 4;80,73,84,85;,
 4;86,87,74,83;,
 4;88,89,34,33;,
 4;90,88,33,30;,
 4;91,90,30,29;,
 4;89,91,29,34;,
 4;89,88,90,91;,
 4;92,93,52,7;,
 4;94,92,7,95;,
 4;96,94,95,97;,
 4;96,93,92,94;,
 4;93,98,53,52;,
 3;99,28,50;,
 3;100,35,31;,
 3;101,32,37;,
 3;102,51,27;,
 3;36,35,103;,
 3;0,104,37;,
 3;53,105,50;,
 3;52,51,106;,
 3;27,51,67;,
 3;28,66,50;,
 4;107,108,109,110;,
 4;108,111,112,109;,
 4;111,113,114,112;,
 4;113,115,116,114;,
 4;115,117,118,116;,
 4;117,119,120,118;,
 4;119,121,122,120;,
 4;121,123,124,122;,
 3;125,108,107;,
 3;126,111,108;,
 3;127,113,111;,
 3;128,115,113;,
 3;129,117,115;,
 3;130,119,117;,
 3;131,121,119;,
 3;132,123,121;,
 3;133,110,109;,
 3;134,109,112;,
 3;135,112,114;,
 3;136,114,116;,
 3;137,116,118;,
 3;138,118,120;,
 3;139,120,122;,
 3;140,122,124;,
 4;141,142,143,144;,
 4;142,145,146,143;,
 4;145,147,148,146;,
 4;147,149,150,148;,
 4;149,151,152,150;,
 4;151,153,154,152;,
 4;153,155,156,154;,
 4;155,157,158,156;,
 3;159,142,141;,
 3;160,145,142;,
 3;161,147,145;,
 3;162,149,147;,
 3;163,151,149;,
 3;164,153,151;,
 3;165,155,153;,
 3;166,157,155;,
 3;167,144,143;,
 3;168,143,146;,
 3;169,146,148;,
 3;170,148,150;,
 3;171,150,152;,
 3;172,152,154;,
 3;173,154,156;,
 3;174,156,158;;
 
 MeshMaterialList {
  2;
  99;
  0,
  0,
  0,
  0,
  0,
  0,
  0,
  0,
  0,
  0,
  0,
  0,
  0,
  0,
  0,
  0,
  0,
  0,
  0,
  0,
  0,
  0,
  0,
  0,
  0,
  0,
  0,
  0,
  0,
  0,
  0,
  0,
  0,
  0,
  0,
  0,
  0,
  0,
  0,
  0,
  0,
  0,
  0,
  0,
  0,
  0,
  0,
  0,
  0,
  0,
  0,
  1,
  1,
  1,
  1,
  1,
  1,
  1,
  1,
  1,
  1,
  1,
  1,
  1,
  1,
  1,
  1,
  1,
  1,
  1,
  1,
  1,
  1,
  1,
  1,
  1,
  1,
  1,
  1,
  1,
  1,
  1,
  1,
  1,
  1,
  1,
  1,
  1,
  1,
  1,
  1,
  1,
  1,
  1,
  1,
  1,
  1,
  1,
  1;;
  Material {
   0.800000;0.100000;0.062400;1.000000;;
   5.000000;
   0.320000;0.320000;0.320000;;
   0.000000;0.000000;0.000000;;
  }
  Material {
   0.800000;0.746400;0.734400;1.000000;;
   5.000000;
   0.000000;0.000000;0.000000;;
   0.000000;0.000000;0.000000;;
  }
 }
 MeshNormals {
  67;
  -0.893749;0.448567;0.000000;,
  -0.912464;-0.409156;0.000000;,
  0.000000;1.000000;0.000000;,
  0.244830;-0.947201;-0.207045;,
  0.244830;-0.947201;0.207045;,
  -0.244830;-0.947201;-0.207045;,
  -0.244830;-0.947201;0.207045;,
  -1.000000;-0.000002;0.000000;,
  1.000000;0.000000;0.000000;,
  -0.304135;0.952629;0.000000;,
  0.000000;0.000000;-1.000000;,
  0.000000;-0.467695;-0.883890;,
  0.000000;0.000000;1.000000;,
  0.000000;-0.955715;-0.294294;,
  0.000000;-0.467695;0.883890;,
  0.000000;-0.955715;0.294294;,
  0.000000;0.971666;0.236358;,
  -1.000000;0.000000;0.000000;,
  0.979822;0.000000;-0.199871;,
  0.000000;-1.000000;-0.000000;,
  0.979822;0.000000;0.199871;,
  0.022412;0.999749;0.000000;,
  0.000000;-0.467695;-0.883890;,
  0.000000;-0.467695;0.883890;,
  0.000000;0.888270;0.459322;,
  0.000000;0.971666;-0.236358;,
  0.000000;0.888270;-0.459322;,
  0.920103;0.000000;0.391676;,
  0.920103;0.000000;-0.391676;,
  -0.000000;0.000000;1.000000;,
  0.000000;0.000000;-1.000000;,
  0.000000;1.000000;0.000000;,
  0.000002;0.000000;-1.000000;,
  0.707106;0.000000;-0.707108;,
  1.000000;0.000000;0.000000;,
  0.707106;0.000000;0.707108;,
  0.000002;0.000000;1.000000;,
  -0.707108;0.000000;0.707106;,
  -1.000000;0.000000;0.000000;,
  -0.707108;0.000000;-0.707106;,
  0.000000;-1.000000;-0.000000;,
  -0.623087;0.782136;-0.005089;,
  0.000912;-0.005778;-0.999983;,
  0.553706;0.436499;-0.709139;,
  0.782150;0.623084;-0.002887;,
  0.552415;0.444674;0.705055;,
  -0.000911;0.005780;0.999983;,
  -0.553709;-0.436499;0.709137;,
  -0.782152;-0.623081;0.002888;,
  -0.552419;-0.444674;-0.705053;,
  0.623089;-0.782134;0.005090;,
  -0.623087;0.782136;-0.005095;,
  -0.623085;0.782137;-0.005089;,
  -0.623091;0.782133;-0.005089;,
  -0.623087;0.782136;-0.005082;,
  -0.623084;0.782138;-0.005087;,
  -0.623087;0.782136;-0.005090;,
  -0.623089;0.782135;-0.005091;,
  -0.623089;0.782135;-0.005089;,
  0.623090;-0.782133;0.005089;,
  0.623091;-0.782133;0.005088;,
  0.623089;-0.782134;0.005091;,
  0.623092;-0.782133;0.005092;,
  0.623090;-0.782134;0.005089;,
  0.623087;-0.782136;0.005090;,
  0.623087;-0.782136;0.005091;,
  0.623088;-0.782135;0.005090;;
  99;
  4;0,0,1,1;,
  4;4,3,3,4;,
  4;5,6,1,1;,
  4;11,11,13,13;,
  4;11,10,10,11;,
  4;13,13,15,15;,
  4;15,15,14,14;,
  4;12,14,14,12;,
  4;7,7,7,7;,
  4;8,8,8,8;,
  4;9,0,0,9;,
  4;9,9,21,21;,
  4;10,11,22,10;,
  4;11,13,5,22;,
  4;12,12,23,14;,
  4;13,15,6,5;,
  4;14,23,6,15;,
  4;2,2,2,2;,
  4;10,10,10,11;,
  4;11,3,3,13;,
  4;12,14,12,12;,
  4;13,3,4,15;,
  4;14,15,4,4;,
  4;8,8,8,8;,
  4;2,2,2,2;,
  4;10,10,10,10;,
  4;8,8,8,8;,
  4;12,12,12,12;,
  4;17,17,17,17;,
  4;2,2,2,2;,
  4;19,19,19,19;,
  4;17,17,17,17;,
  4;16,16,24,24;,
  4;8,8,8,8;,
  4;25,25,26,26;,
  4;25,16,16,25;,
  4;20,20,27,27;,
  4;19,19,4,3;,
  4;18,18,28,28;,
  4;18,20,20,18;,
  4;2,2,2,2;,
  3;10,10,10;,
  3;10,10,10;,
  3;12,12,12;,
  3;12,12,12;,
  3;10,10,10;,
  3;12,12,12;,
  3;10,10,10;,
  3;12,12,12;,
  3;12,12,29;,
  3;10,30,10;,
  4;32,33,33,32;,
  4;33,34,34,33;,
  4;34,35,35,34;,
  4;35,36,36,35;,
  4;36,37,37,36;,
  4;37,38,38,37;,
  4;38,39,39,38;,
  4;39,32,32,39;,
  3;31,31,31;,
  3;31,31,31;,
  3;31,31,31;,
  3;31,31,31;,
  3;31,31,31;,
  3;31,31,31;,
  3;31,31,31;,
  3;31,31,31;,
  3;40,40,40;,
  3;40,40,40;,
  3;40,40,40;,
  3;40,40,40;,
  3;40,40,40;,
  3;40,40,40;,
  3;40,40,40;,
  3;40,40,40;,
  4;42,43,43,42;,
  4;43,44,44,43;,
  4;44,45,45,44;,
  4;45,46,46,45;,
  4;46,47,47,46;,
  4;47,48,48,47;,
  4;48,49,49,48;,
  4;49,42,42,49;,
  3;41,51,52;,
  3;41,53,51;,
  3;41,54,53;,
  3;41,55,54;,
  3;41,56,55;,
  3;41,57,56;,
  3;41,58,57;,
  3;41,52,58;,
  3;50,59,60;,
  3;50,60,61;,
  3;50,61,62;,
  3;50,62,63;,
  3;50,63,64;,
  3;50,64,65;,
  3;50,65,66;,
  3;50,66,59;;
 }
 MeshTextureCoords {
  175;
  0.000000;0.000000;,
  1.000000;0.000000;,
  1.000000;1.000000;,
  0.000000;1.000000;,
  1.000000;1.000000;,
  1.000000;0.000000;,
  1.000000;0.000000;,
  1.000000;1.000000;,
  0.000000;0.000000;,
  0.000000;1.000000;,
  0.000000;0.000000;,
  0.349320;0.000000;,
  0.681070;0.000000;,
  0.681070;0.000000;,
  0.349320;0.000000;,
  0.349320;1.000000;,
  0.349320;0.000000;,
  0.681070;0.000000;,
  0.681070;1.000000;,
  0.681070;1.000000;,
  0.349320;1.000000;,
  0.681070;1.000000;,
  0.349320;1.000000;,
  0.650680;0.000000;,
  0.650680;1.000000;,
  0.318930;1.000000;,
  0.318930;0.000000;,
  0.681070;0.000000;,
  0.681070;1.000000;,
  0.681070;1.000000;,
  0.681070;0.000000;,
  0.349320;1.000000;,
  0.349320;0.000000;,
  0.349320;0.000000;,
  0.349320;1.000000;,
  0.246880;1.000000;,
  0.000000;1.000000;,
  0.246880;0.000000;,
  0.246880;0.000000;,
  0.246880;1.000000;,
  0.000000;1.000000;,
  0.000000;0.000000;,
  0.246880;0.000000;,
  0.246880;0.000000;,
  0.753120;0.000000;,
  1.000000;0.000000;,
  1.000000;1.000000;,
  0.753120;1.000000;,
  0.246880;1.000000;,
  0.246880;1.000000;,
  0.779380;1.000000;,
  0.779380;0.000000;,
  1.000000;0.000000;,
  1.000000;1.000000;,
  0.779380;0.000000;,
  1.000000;0.000000;,
  1.000000;1.000000;,
  0.779380;1.000000;,
  0.779380;0.000000;,
  0.779380;0.000000;,
  0.220620;0.000000;,
  0.220620;1.000000;,
  0.000000;1.000000;,
  0.000000;0.000000;,
  0.779380;1.000000;,
  0.779380;1.000000;,
  0.779380;1.000000;,
  0.779380;0.000000;,
  0.000000;0.000000;,
  1.000000;0.000000;,
  1.000000;1.000000;,
  0.000000;1.000000;,
  0.000000;0.000000;,
  1.000000;0.000000;,
  1.000000;1.000000;,
  0.000000;1.000000;,
  0.000000;0.000000;,
  1.000000;0.000000;,
  1.000000;1.000000;,
  0.000000;1.000000;,
  0.000000;0.000000;,
  1.000000;0.000000;,
  1.000000;1.000000;,
  0.000000;1.000000;,
  1.000000;1.000000;,
  0.000000;1.000000;,
  0.000000;0.000000;,
  1.000000;0.000000;,
  0.349320;0.000000;,
  0.349320;1.000000;,
  0.681070;0.000000;,
  0.681070;1.000000;,
  1.000000;1.000000;,
  1.000000;0.000000;,
  0.000000;1.000000;,
  0.000000;1.000000;,
  0.000000;0.000000;,
  0.000000;0.000000;,
  1.000000;1.000000;,
  0.730220;1.000000;,
  0.298100;1.000000;,
  0.298100;0.000000;,
  0.730220;0.000000;,
  0.246880;1.000000;,
  0.246880;0.000000;,
  0.779380;1.000000;,
  0.779380;0.000000;,
  0.000000;0.000000;,
  0.125000;0.000000;,
  0.125000;1.000000;,
  0.000000;1.000000;,
  0.250000;0.000000;,
  0.250000;1.000000;,
  0.375000;0.000000;,
  0.375000;1.000000;,
  0.500000;0.000000;,
  0.500000;1.000000;,
  0.625000;0.000000;,
  0.625000;1.000000;,
  0.750000;0.000000;,
  0.750000;1.000000;,
  0.875000;0.000000;,
  0.875000;1.000000;,
  1.000000;0.000000;,
  1.000000;1.000000;,
  0.062500;0.000000;,
  0.187500;0.000000;,
  0.312500;0.000000;,
  0.437500;0.000000;,
  0.562500;0.000000;,
  0.687500;0.000000;,
  0.812500;0.000000;,
  0.937500;0.000000;,
  0.062500;1.000000;,
  0.187500;1.000000;,
  0.312500;1.000000;,
  0.437500;1.000000;,
  0.562500;1.000000;,
  0.687500;1.000000;,
  0.812500;1.000000;,
  0.937500;1.000000;,
  0.000000;0.000000;,
  0.125000;0.000000;,
  0.125000;1.000000;,
  0.000000;1.000000;,
  0.250000;0.000000;,
  0.250000;1.000000;,
  0.375000;0.000000;,
  0.375000;1.000000;,
  0.500000;0.000000;,
  0.500000;1.000000;,
  0.625000;0.000000;,
  0.625000;1.000000;,
  0.750000;0.000000;,
  0.750000;1.000000;,
  0.875000;0.000000;,
  0.875000;1.000000;,
  1.000000;0.000000;,
  1.000000;1.000000;,
  0.062500;0.000000;,
  0.187500;0.000000;,
  0.312500;0.000000;,
  0.437500;0.000000;,
  0.562500;0.000000;,
  0.687500;0.000000;,
  0.812500;0.000000;,
  0.937500;0.000000;,
  0.062500;1.000000;,
  0.187500;1.000000;,
  0.312500;1.000000;,
  0.437500;1.000000;,
  0.562500;1.000000;,
  0.687500;1.000000;,
  0.812500;1.000000;,
  0.937500;1.000000;;
 }
}
