xof 0302txt 0064
template Header {
 <3D82AB43-62DA-11cf-AB39-0020AF71E433>
 WORD major;
 WORD minor;
 DWORD flags;
}

template Vector {
 <3D82AB5E-62DA-11cf-AB39-0020AF71E433>
 FLOAT x;
 FLOAT y;
 FLOAT z;
}

template Coords2d {
 <F6F23F44-7686-11cf-8F52-0040333594A3>
 FLOAT u;
 FLOAT v;
}

template Matrix4x4 {
 <F6F23F45-7686-11cf-8F52-0040333594A3>
 array FLOAT matrix[16];
}

template ColorRGBA {
 <35FF44E0-6C7C-11cf-8F52-0040333594A3>
 FLOAT red;
 FLOAT green;
 FLOAT blue;
 FLOAT alpha;
}

template ColorRGB {
 <D3E16E81-7835-11cf-8F52-0040333594A3>
 FLOAT red;
 FLOAT green;
 FLOAT blue;
}

template IndexedColor {
 <1630B820-7842-11cf-8F52-0040333594A3>
 DWORD index;
 ColorRGBA indexColor;
}

template Boolean {
 <4885AE61-78E8-11cf-8F52-0040333594A3>
 WORD truefalse;
}

template Boolean2d {
 <4885AE63-78E8-11cf-8F52-0040333594A3>
 Boolean u;
 Boolean v;
}

template MaterialWrap {
 <4885AE60-78E8-11cf-8F52-0040333594A3>
 Boolean u;
 Boolean v;
}

template TextureFilename {
 <A42790E1-7810-11cf-8F52-0040333594A3>
 STRING filename;
}

template Material {
 <3D82AB4D-62DA-11cf-AB39-0020AF71E433>
 ColorRGBA faceColor;
 FLOAT power;
 ColorRGB specularColor;
 ColorRGB emissiveColor;
 [...]
}

template MeshFace {
 <3D82AB5F-62DA-11cf-AB39-0020AF71E433>
 DWORD nFaceVertexIndices;
 array DWORD faceVertexIndices[nFaceVertexIndices];
}

template MeshFaceWraps {
 <4885AE62-78E8-11cf-8F52-0040333594A3>
 DWORD nFaceWrapValues;
 Boolean2d faceWrapValues;
}

template MeshTextureCoords {
 <F6F23F40-7686-11cf-8F52-0040333594A3>
 DWORD nTextureCoords;
 array Coords2d textureCoords[nTextureCoords];
}

template MeshMaterialList {
 <F6F23F42-7686-11cf-8F52-0040333594A3>
 DWORD nMaterials;
 DWORD nFaceIndexes;
 array DWORD faceIndexes[nFaceIndexes];
 [Material]
}

template MeshNormals {
 <F6F23F43-7686-11cf-8F52-0040333594A3>
 DWORD nNormals;
 array Vector normals[nNormals];
 DWORD nFaceNormals;
 array MeshFace faceNormals[nFaceNormals];
}

template MeshVertexColors {
 <1630B821-7842-11cf-8F52-0040333594A3>
 DWORD nVertexColors;
 array IndexedColor vertexColors[nVertexColors];
}

template Mesh {
 <3D82AB44-62DA-11cf-AB39-0020AF71E433>
 DWORD nVertices;
 array Vector vertices[nVertices];
 DWORD nFaces;
 array MeshFace faces[nFaces];
 [...]
}

Header{
1;
0;
1;
}

Mesh {
 171;
 0.00000;273.25260;-100.79094;,
 71.26998;273.25260;-71.26998;,
 71.26998;44.57778;-71.26998;,
 0.00000;44.57778;-100.79094;,
 100.79094;273.25260;0.00000;,
 100.79094;44.57778;0.00000;,
 71.26998;273.25260;71.26998;,
 71.26998;44.57778;71.26998;,
 0.00000;273.25260;100.79094;,
 0.00000;44.57778;100.79094;,
 -71.26998;273.25260;71.26998;,
 -71.26998;44.57778;71.26998;,
 -100.79094;273.25260;0.00000;,
 -100.79094;44.57778;0.00000;,
 -71.26998;273.25260;-71.26998;,
 -71.26998;44.57778;-71.26998;,
 0.00000;273.25260;-100.79094;,
 0.00000;44.57778;-100.79094;,
 0.00000;44.57778;0.00000;,
 0.00000;44.57778;0.00000;,
 0.00000;44.57778;0.00000;,
 0.00000;44.57778;0.00000;,
 0.00000;44.57778;0.00000;,
 0.00000;44.57778;0.00000;,
 0.00000;44.57778;0.00000;,
 0.00000;44.57778;0.00000;,
 0.00000;302.76326;-65.63562;,
 46.41138;302.76326;-46.41138;,
 0.00000;302.76326;0.00000;,
 65.63562;302.76326;0.00000;,
 0.00000;302.76326;0.00000;,
 46.41138;302.76326;46.41138;,
 0.00000;302.76326;0.00000;,
 0.00000;302.76326;65.63562;,
 0.00000;302.76326;0.00000;,
 -46.41138;302.76326;46.41138;,
 0.00000;302.76326;0.00000;,
 -65.63562;302.76326;0.00000;,
 0.00000;302.76326;0.00000;,
 -46.41138;302.76326;-46.41138;,
 0.00000;302.76326;0.00000;,
 0.00000;302.76326;-65.63562;,
 0.00000;302.76326;0.00000;,
 -16.00092;98.34954;-106.44474;,
 16.00092;98.34954;-106.44474;,
 16.00092;98.34954;-120.85273;,
 -16.00092;98.34954;-120.85273;,
 -16.00092;0.45288;-120.85273;,
 16.00092;0.45288;-120.85273;,
 16.00092;0.45288;-106.44474;,
 -16.00092;0.45288;-106.44474;,
 16.00092;25.08000;-120.85273;,
 16.00092;25.08000;-106.44474;,
 16.00092;0.45288;-120.85273;,
 16.00092;25.08000;-106.44474;,
 -16.00092;25.08000;-106.44474;,
 -16.00092;0.45288;-106.44474;,
 16.00092;0.45288;-106.44474;,
 -16.00092;25.08000;-120.85273;,
 -16.00092;0.45288;-120.85273;,
 -16.00092;25.08000;-106.44474;,
 16.00092;0.45288;-141.56340;,
 16.00092;14.43006;-141.56340;,
 16.00092;25.08000;-120.85273;,
 16.00092;0.45288;-120.85273;,
 -16.00092;0.45288;-141.56340;,
 -16.00092;0.45288;-120.85273;,
 -16.00092;14.43006;-141.56340;,
 -16.00092;25.08000;-120.85273;,
 16.00092;87.06210;-120.85273;,
 16.00092;98.34954;-120.85273;,
 16.00092;87.06210;-106.44474;,
 16.00092;87.06210;-120.85273;,
 -16.00092;87.06210;-120.85273;,
 -16.00092;98.34954;-120.85273;,
 16.00092;98.34954;-120.85273;,
 16.00092;87.06210;-106.44474;,
 -16.00092;87.06210;-106.44474;,
 -16.00092;87.06210;-120.85273;,
 -16.00092;87.06210;-106.44474;,
 -16.00092;98.34954;-120.85273;,
 16.00092;98.34954;-90.88422;,
 16.00092;87.06210;-90.88422;,
 16.00092;98.34954;-106.44474;,
 -16.00092;98.34954;-90.88422;,
 -16.00092;98.34954;-106.44474;,
 -16.00092;87.06210;-90.88422;,
 80.75688;45.65496;-8.79462;,
 91.76304;45.65496;-8.79462;,
 91.76304;-3.98004;-8.79462;,
 80.75688;-3.98004;-8.79462;,
 91.76304;45.65496;-8.79462;,
 91.76304;45.65496;8.79462;,
 91.76304;-3.98004;8.79462;,
 91.76304;-3.98004;-8.79462;,
 91.76304;45.65496;8.79462;,
 80.75688;45.65496;8.79462;,
 80.75688;-3.98004;8.79462;,
 91.76304;-3.98004;8.79462;,
 80.75688;45.65496;8.79462;,
 80.75688;45.65496;-8.79462;,
 80.75688;-3.98004;-8.79462;,
 80.75688;-3.98004;8.79462;,
 91.76304;45.65496;-8.79462;,
 80.75688;45.65496;-8.79462;,
 80.75688;-3.98004;-8.79462;,
 91.76304;-3.98004;-8.79462;,
 -80.75688;45.65496;-8.79462;,
 -80.75688;-3.98004;-8.79462;,
 -91.76304;-3.98004;-8.79462;,
 -91.76304;45.65496;-8.79462;,
 -91.76304;45.65496;-8.79462;,
 -91.76304;-3.98004;-8.79462;,
 -91.76304;-3.98004;8.79462;,
 -91.76304;45.65496;8.79462;,
 -91.76304;45.65496;8.79462;,
 -91.76304;-3.98004;8.79462;,
 -80.75688;-3.98004;8.79462;,
 -80.75688;45.65496;8.79462;,
 -80.75688;45.65496;8.79462;,
 -80.75688;-3.98004;8.79462;,
 -80.75688;-3.98004;-8.79462;,
 -80.75688;45.65496;-8.79462;,
 -80.75688;45.65496;-8.79462;,
 -91.76304;45.65496;-8.79462;,
 -80.75688;-3.98004;-8.79462;,
 -91.76304;-3.98004;-8.79462;,
 -16.00092;98.34954;106.44474;,
 -16.00092;98.34954;120.85273;,
 16.00092;98.34954;120.85273;,
 16.00092;98.34954;106.44474;,
 -16.00092;0.45288;120.85273;,
 -16.00092;0.45288;106.44474;,
 16.00092;0.45288;106.44474;,
 16.00092;0.45288;120.85273;,
 16.00092;25.08000;120.85273;,
 16.00092;0.45288;120.85273;,
 16.00092;25.08000;106.44474;,
 16.00092;25.08000;106.44474;,
 16.00092;0.45288;106.44474;,
 -16.00092;0.45288;106.44474;,
 -16.00092;25.08000;106.44474;,
 -16.00092;25.08000;120.85273;,
 -16.00092;25.08000;106.44474;,
 -16.00092;0.45288;120.85273;,
 16.00092;0.45288;141.56340;,
 16.00092;0.45288;120.85273;,
 16.00092;25.08000;120.85273;,
 16.00092;14.43006;141.56340;,
 -16.00092;0.45288;141.56340;,
 -16.00092;0.45288;120.85273;,
 -16.00092;14.43006;141.56340;,
 -16.00092;25.08000;120.85273;,
 16.00092;87.06210;120.85273;,
 16.00092;87.06210;106.44474;,
 16.00092;98.34954;120.85273;,
 16.00092;87.06210;120.85273;,
 -16.00092;87.06210;120.85273;,
 16.00092;98.34954;120.85273;,
 -16.00092;98.34954;120.85273;,
 16.00092;87.06210;106.44474;,
 -16.00092;87.06210;106.44474;,
 -16.00092;87.06210;120.85273;,
 -16.00092;87.06210;106.44474;,
 -16.00092;98.34954;120.85273;,
 16.00092;98.34954;90.88422;,
 16.00092;98.34954;106.44474;,
 16.00092;87.06210;90.88422;,
 -16.00092;98.34954;90.88422;,
 -16.00092;98.34954;106.44474;,
 -16.00092;87.06210;90.88422;;
 
 88;
 4;0,1,2,3;,
 4;1,4,5,2;,
 4;4,6,7,5;,
 4;6,8,9,7;,
 4;8,10,11,9;,
 4;10,12,13,11;,
 4;12,14,15,13;,
 4;14,16,17,15;,
 3;18,3,2;,
 3;19,2,5;,
 3;20,5,7;,
 3;21,7,9;,
 3;22,9,11;,
 3;23,11,13;,
 3;24,13,15;,
 3;25,15,17;,
 4;26,27,1,0;,
 3;28,27,26;,
 4;27,29,4,1;,
 3;30,29,27;,
 4;29,31,6,4;,
 3;32,31,29;,
 4;31,33,8,6;,
 3;34,33,31;,
 4;33,35,10,8;,
 3;36,35,33;,
 4;35,37,12,10;,
 3;38,37,35;,
 4;37,39,14,12;,
 3;40,39,37;,
 4;39,41,16,14;,
 3;42,41,39;,
 4;43,44,45,46;,
 4;47,48,49,50;,
 4;51,52,49,53;,
 4;54,55,56,57;,
 4;58,59,50,60;,
 4;61,62,63,64;,
 4;65,61,64,66;,
 4;67,65,66,68;,
 4;62,67,68,63;,
 4;62,61,65,67;,
 4;69,70,44,71;,
 4;69,71,52,51;,
 4;72,63,68,73;,
 4;72,73,74,75;,
 4;76,77,55,54;,
 4;78,58,60,79;,
 4;78,79,43,80;,
 4;81,82,76,83;,
 4;84,81,83,85;,
 4;86,84,85,77;,
 4;82,86,77,76;,
 4;82,81,84,86;,
 4;87,88,89,90;,
 4;91,92,93,94;,
 4;95,96,97,98;,
 4;99,100,101,102;,
 4;99,92,103,104;,
 4;105,106,93,102;,
 4;107,108,109,110;,
 4;111,112,113,114;,
 4;115,116,117,118;,
 4;119,120,121,122;,
 4;119,123,124,114;,
 4;125,120,113,126;,
 4;127,128,129,130;,
 4;131,132,133,134;,
 4;135,136,133,137;,
 4;138,139,140,141;,
 4;142,143,132,144;,
 4;145,146,147,148;,
 4;149,150,146,145;,
 4;151,152,150,149;,
 4;148,147,152,151;,
 4;148,151,149,145;,
 4;153,154,130,155;,
 4;153,135,137,154;,
 4;156,157,152,147;,
 4;156,158,159,157;,
 4;160,138,141,161;,
 4;162,163,143,142;,
 4;162,164,127,163;,
 4;165,166,160,167;,
 4;168,169,166,165;,
 4;170,161,169,168;,
 4;167,160,161,170;,
 4;167,170,168,165;;
 
 MeshMaterialList {
  2;
  88;
  0,
  0,
  0,
  0,
  0,
  0,
  0,
  0,
  0,
  0,
  0,
  0,
  0,
  0,
  0,
  0,
  0,
  0,
  0,
  0,
  0,
  0,
  0,
  0,
  0,
  0,
  0,
  0,
  0,
  0,
  0,
  0,
  1,
  1,
  1,
  1,
  1,
  1,
  1,
  1,
  1,
  1,
  1,
  1,
  1,
  1,
  1,
  1,
  1,
  1,
  1,
  1,
  1,
  1,
  1,
  1,
  1,
  1,
  1,
  1,
  1,
  1,
  1,
  1,
  1,
  1,
  1,
  1,
  1,
  1,
  1,
  1,
  1,
  1,
  1,
  1,
  1,
  1,
  1,
  1,
  1,
  1,
  1,
  1,
  1,
  1,
  1,
  1;;
  Material {
   0.467200;0.467200;0.467200;1.000000;;
   13.000000;
   0.570000;0.570000;0.570000;;
   0.000000;0.000000;0.000000;;
  }
  Material {
   0.323200;0.323200;0.323200;1.000000;;
   5.000000;
   0.000000;0.000000;0.000000;;
   0.000000;0.000000;0.000000;;
  }
 }
 MeshNormals {
  32;
  0.000000;0.431992;-0.901877;,
  0.637724;0.431992;-0.637724;,
  0.901877;0.431992;0.000000;,
  0.637724;0.431992;0.637724;,
  0.000000;0.431992;0.901877;,
  -0.637724;0.431992;0.637724;,
  -0.901877;0.431992;0.000000;,
  -0.637724;0.431992;-0.637724;,
  0.000000;0.000000;-1.000000;,
  0.707107;0.000000;-0.707107;,
  1.000000;0.000000;0.000000;,
  0.707107;0.000000;0.707107;,
  0.000000;0.000000;1.000000;,
  -0.707107;0.000000;0.707107;,
  -1.000000;0.000000;0.000000;,
  -0.707107;0.000000;-0.707107;,
  0.000000;-1.000000;-0.000000;,
  0.000000;1.000000;0.000000;,
  0.000000;0.941774;-0.336246;,
  0.237762;0.941774;-0.237762;,
  0.336246;0.941774;0.000000;,
  0.237762;0.941774;0.237762;,
  0.000000;0.941774;0.336246;,
  -0.237762;0.941774;0.237762;,
  -0.336246;0.941774;0.000000;,
  -0.237762;0.941774;-0.237762;,
  1.000000;0.000000;0.000000;,
  -1.000000;0.000000;0.000000;,
  0.000000;0.000000;1.000000;,
  0.000000;0.000000;-1.000000;,
  0.000000;0.889310;-0.457305;,
  0.000000;0.889310;0.457305;;
  88;
  4;0,1,9,8;,
  4;1,2,10,9;,
  4;2,3,11,10;,
  4;3,4,12,11;,
  4;4,5,13,12;,
  4;5,6,14,13;,
  4;6,7,15,14;,
  4;7,0,8,15;,
  3;16,16,16;,
  3;16,16,16;,
  3;16,16,16;,
  3;16,16,16;,
  3;16,16,16;,
  3;16,16,16;,
  3;16,16,16;,
  3;16,16,16;,
  4;18,19,1,0;,
  3;17,19,18;,
  4;19,20,2,1;,
  3;17,20,19;,
  4;20,21,3,2;,
  3;17,21,20;,
  4;21,22,4,3;,
  3;17,22,21;,
  4;22,23,5,4;,
  3;17,23,22;,
  4;23,24,6,5;,
  3;17,24,23;,
  4;24,25,7,6;,
  3;17,25,24;,
  4;25,18,0,7;,
  3;17,18,25;,
  4;17,17,17,17;,
  4;16,16,16,16;,
  4;26,26,26,26;,
  4;28,28,28,28;,
  4;27,27,27,27;,
  4;26,26,26,26;,
  4;16,16,16,16;,
  4;27,27,27,27;,
  4;30,30,30,30;,
  4;29,29,29,29;,
  4;26,26,26,26;,
  4;26,26,26,26;,
  4;29,29,29,29;,
  4;29,29,29,29;,
  4;28,28,28,28;,
  4;27,27,27,27;,
  4;27,27,27,27;,
  4;26,26,26,26;,
  4;17,17,17,17;,
  4;27,27,27,27;,
  4;16,16,16,16;,
  4;28,28,28,28;,
  4;29,29,29,29;,
  4;26,26,26,26;,
  4;28,28,28,28;,
  4;27,27,27,27;,
  4;17,17,17,17;,
  4;16,16,16,16;,
  4;29,29,29,29;,
  4;27,27,27,27;,
  4;28,28,28,28;,
  4;26,26,26,26;,
  4;17,17,17,17;,
  4;16,16,16,16;,
  4;17,17,17,17;,
  4;16,16,16,16;,
  4;26,26,26,26;,
  4;29,29,29,29;,
  4;27,27,27,27;,
  4;26,26,26,26;,
  4;16,16,16,16;,
  4;27,27,27,27;,
  4;31,31,31,31;,
  4;28,28,28,28;,
  4;26,26,26,26;,
  4;26,26,26,26;,
  4;28,28,28,28;,
  4;28,28,28,28;,
  4;29,29,29,29;,
  4;27,27,27,27;,
  4;27,27,27,27;,
  4;26,26,26,26;,
  4;17,17,17,17;,
  4;27,27,27,27;,
  4;16,16,16,16;,
  4;29,29,29,29;;
 }
 MeshTextureCoords {
  171;
  0.000000;0.000000;,
  0.125000;0.000000;,
  0.125000;1.000000;,
  0.000000;1.000000;,
  0.250000;0.000000;,
  0.250000;1.000000;,
  0.375000;0.000000;,
  0.375000;1.000000;,
  0.500000;0.000000;,
  0.500000;1.000000;,
  0.625000;0.000000;,
  0.625000;1.000000;,
  0.750000;0.000000;,
  0.750000;1.000000;,
  0.875000;0.000000;,
  0.875000;1.000000;,
  1.000000;0.000000;,
  1.000000;1.000000;,
  0.062500;1.000000;,
  0.187500;1.000000;,
  0.312500;1.000000;,
  0.437500;1.000000;,
  0.562500;1.000000;,
  0.687500;1.000000;,
  0.812500;1.000000;,
  0.937500;1.000000;,
  0.000000;0.000000;,
  0.125000;0.000000;,
  0.062500;0.000000;,
  0.250000;0.000000;,
  0.187500;0.000000;,
  0.375000;0.000000;,
  0.312500;0.000000;,
  0.500000;0.000000;,
  0.437500;0.000000;,
  0.625000;0.000000;,
  0.562500;0.000000;,
  0.750000;0.000000;,
  0.687500;0.000000;,
  0.875000;0.000000;,
  0.812500;0.000000;,
  1.000000;0.000000;,
  0.937500;0.000000;,
  0.000000;0.000000;,
  1.000000;0.000000;,
  1.000000;1.000000;,
  0.000000;1.000000;,
  0.000000;0.000000;,
  1.000000;0.000000;,
  1.000000;1.000000;,
  0.000000;1.000000;,
  0.000000;0.770510;,
  1.000000;0.770510;,
  0.000000;1.000000;,
  0.000000;0.770510;,
  1.000000;0.770510;,
  1.000000;1.000000;,
  0.000000;1.000000;,
  1.000000;0.770510;,
  1.000000;1.000000;,
  0.000000;0.770510;,
  1.000000;1.000000;,
  1.000000;0.770510;,
  1.000000;0.770510;,
  1.000000;1.000000;,
  0.000000;1.000000;,
  0.000000;1.000000;,
  0.000000;0.770510;,
  0.000000;0.770510;,
  0.000000;0.118700;,
  0.000000;0.000000;,
  1.000000;0.118700;,
  1.000000;0.118700;,
  0.000000;0.118700;,
  0.000000;0.000000;,
  1.000000;0.000000;,
  0.000000;0.118700;,
  1.000000;0.118700;,
  1.000000;0.118700;,
  0.000000;0.118700;,
  1.000000;0.000000;,
  0.000000;0.000000;,
  0.000000;0.118700;,
  0.000000;0.000000;,
  1.000000;0.000000;,
  1.000000;0.000000;,
  1.000000;0.118700;,
  0.000000;0.000000;,
  1.000000;0.000000;,
  1.000000;1.000000;,
  0.000000;1.000000;,
  0.000000;0.000000;,
  1.000000;0.000000;,
  1.000000;1.000000;,
  0.000000;1.000000;,
  0.000000;0.000000;,
  1.000000;0.000000;,
  1.000000;1.000000;,
  0.000000;1.000000;,
  0.000000;0.000000;,
  1.000000;0.000000;,
  1.000000;1.000000;,
  0.000000;1.000000;,
  1.000000;1.000000;,
  0.000000;1.000000;,
  0.000000;0.000000;,
  1.000000;0.000000;,
  0.000000;0.000000;,
  0.000000;1.000000;,
  1.000000;1.000000;,
  1.000000;0.000000;,
  0.000000;0.000000;,
  0.000000;1.000000;,
  1.000000;1.000000;,
  1.000000;0.000000;,
  0.000000;0.000000;,
  0.000000;1.000000;,
  1.000000;1.000000;,
  1.000000;0.000000;,
  0.000000;0.000000;,
  0.000000;1.000000;,
  1.000000;1.000000;,
  1.000000;0.000000;,
  0.000000;1.000000;,
  1.000000;1.000000;,
  0.000000;0.000000;,
  1.000000;0.000000;,
  0.000000;0.000000;,
  0.000000;1.000000;,
  1.000000;1.000000;,
  1.000000;0.000000;,
  0.000000;0.000000;,
  0.000000;1.000000;,
  1.000000;1.000000;,
  1.000000;0.000000;,
  0.000000;0.770510;,
  0.000000;1.000000;,
  1.000000;0.770510;,
  0.000000;0.770510;,
  0.000000;1.000000;,
  1.000000;1.000000;,
  1.000000;0.770510;,
  1.000000;0.770510;,
  0.000000;0.770510;,
  1.000000;1.000000;,
  1.000000;1.000000;,
  1.000000;1.000000;,
  1.000000;0.770510;,
  1.000000;0.770510;,
  0.000000;1.000000;,
  0.000000;1.000000;,
  0.000000;0.770510;,
  0.000000;0.770510;,
  0.000000;0.118700;,
  1.000000;0.118700;,
  0.000000;0.000000;,
  1.000000;0.118700;,
  0.000000;0.118700;,
  1.000000;0.000000;,
  0.000000;0.000000;,
  0.000000;0.118700;,
  1.000000;0.118700;,
  1.000000;0.118700;,
  0.000000;0.118700;,
  1.000000;0.000000;,
  0.000000;0.000000;,
  0.000000;0.000000;,
  0.000000;0.118700;,
  1.000000;0.000000;,
  1.000000;0.000000;,
  1.000000;0.118700;;
 }
}
