xof 0302txt 0064
template Header {
 <3D82AB43-62DA-11cf-AB39-0020AF71E433>
 WORD major;
 WORD minor;
 DWORD flags;
}

template Vector {
 <3D82AB5E-62DA-11cf-AB39-0020AF71E433>
 FLOAT x;
 FLOAT y;
 FLOAT z;
}

template Coords2d {
 <F6F23F44-7686-11cf-8F52-0040333594A3>
 FLOAT u;
 FLOAT v;
}

template Matrix4x4 {
 <F6F23F45-7686-11cf-8F52-0040333594A3>
 array FLOAT matrix[16];
}

template ColorRGBA {
 <35FF44E0-6C7C-11cf-8F52-0040333594A3>
 FLOAT red;
 FLOAT green;
 FLOAT blue;
 FLOAT alpha;
}

template ColorRGB {
 <D3E16E81-7835-11cf-8F52-0040333594A3>
 FLOAT red;
 FLOAT green;
 FLOAT blue;
}

template IndexedColor {
 <1630B820-7842-11cf-8F52-0040333594A3>
 DWORD index;
 ColorRGBA indexColor;
}

template Boolean {
 <4885AE61-78E8-11cf-8F52-0040333594A3>
 WORD truefalse;
}

template Boolean2d {
 <4885AE63-78E8-11cf-8F52-0040333594A3>
 Boolean u;
 Boolean v;
}

template MaterialWrap {
 <4885AE60-78E8-11cf-8F52-0040333594A3>
 Boolean u;
 Boolean v;
}

template TextureFilename {
 <A42790E1-7810-11cf-8F52-0040333594A3>
 STRING filename;
}

template Material {
 <3D82AB4D-62DA-11cf-AB39-0020AF71E433>
 ColorRGBA faceColor;
 FLOAT power;
 ColorRGB specularColor;
 ColorRGB emissiveColor;
 [...]
}

template MeshFace {
 <3D82AB5F-62DA-11cf-AB39-0020AF71E433>
 DWORD nFaceVertexIndices;
 array DWORD faceVertexIndices[nFaceVertexIndices];
}

template MeshFaceWraps {
 <4885AE62-78E8-11cf-8F52-0040333594A3>
 DWORD nFaceWrapValues;
 Boolean2d faceWrapValues;
}

template MeshTextureCoords {
 <F6F23F40-7686-11cf-8F52-0040333594A3>
 DWORD nTextureCoords;
 array Coords2d textureCoords[nTextureCoords];
}

template MeshMaterialList {
 <F6F23F42-7686-11cf-8F52-0040333594A3>
 DWORD nMaterials;
 DWORD nFaceIndexes;
 array DWORD faceIndexes[nFaceIndexes];
 [Material]
}

template MeshNormals {
 <F6F23F43-7686-11cf-8F52-0040333594A3>
 DWORD nNormals;
 array Vector normals[nNormals];
 DWORD nFaceNormals;
 array MeshFace faceNormals[nFaceNormals];
}

template MeshVertexColors {
 <1630B821-7842-11cf-8F52-0040333594A3>
 DWORD nVertexColors;
 array IndexedColor vertexColors[nVertexColors];
}

template Mesh {
 <3D82AB44-62DA-11cf-AB39-0020AF71E433>
 DWORD nVertices;
 array Vector vertices[nVertices];
 DWORD nFaces;
 array MeshFace faces[nFaces];
 [...]
}

Header{
1;
0;
1;
}

Mesh {
 855;
 0.00000;455.42099;-167.98489;,
 118.78330;455.42099;-118.78330;,
 118.78330;74.29630;-118.78330;,
 0.00000;74.29630;-167.98489;,
 167.98489;455.42099;0.00000;,
 167.98489;74.29630;0.00000;,
 118.78330;455.42099;118.78330;,
 118.78330;74.29630;118.78330;,
 0.00000;455.42099;167.98489;,
 0.00000;74.29630;167.98489;,
 -118.78330;455.42099;118.78330;,
 -118.78330;74.29630;118.78330;,
 -167.98489;455.42099;0.00000;,
 -167.98489;74.29630;0.00000;,
 -118.78330;455.42099;-118.78330;,
 -118.78330;74.29630;-118.78330;,
 0.00000;455.42099;-167.98489;,
 0.00000;74.29630;-167.98489;,
 0.00000;74.29630;0.00000;,
 0.00000;74.29630;0.00000;,
 0.00000;74.29630;0.00000;,
 0.00000;74.29630;0.00000;,
 0.00000;74.29630;0.00000;,
 0.00000;74.29630;0.00000;,
 0.00000;74.29630;0.00000;,
 0.00000;74.29630;0.00000;,
 0.00000;504.60541;-109.39270;,
 77.35230;504.60541;-77.35230;,
 0.00000;504.60541;0.00000;,
 109.39270;504.60541;0.00000;,
 0.00000;504.60541;0.00000;,
 77.35230;504.60541;77.35230;,
 0.00000;504.60541;0.00000;,
 0.00000;504.60541;109.39270;,
 0.00000;504.60541;0.00000;,
 -77.35230;504.60541;77.35230;,
 0.00000;504.60541;0.00000;,
 -109.39270;504.60541;0.00000;,
 0.00000;504.60541;0.00000;,
 -77.35230;504.60541;-77.35230;,
 0.00000;504.60541;0.00000;,
 0.00000;504.60541;-109.39270;,
 0.00000;504.60541;0.00000;,
 -26.66820;163.91589;-177.40790;,
 26.66820;163.91589;-177.40790;,
 26.66820;163.91589;-201.42120;,
 -26.66820;163.91589;-201.42120;,
 -26.66820;0.75480;-201.42120;,
 26.66820;0.75480;-201.42120;,
 26.66820;0.75480;-177.40790;,
 -26.66820;0.75480;-177.40790;,
 26.66820;41.80000;-201.42120;,
 26.66820;41.80000;-177.40790;,
 26.66820;0.75480;-201.42120;,
 26.66820;41.80000;-177.40790;,
 -26.66820;41.80000;-177.40790;,
 -26.66820;0.75480;-177.40790;,
 26.66820;0.75480;-177.40790;,
 -26.66820;41.80000;-201.42120;,
 -26.66820;0.75480;-201.42120;,
 -26.66820;41.80000;-177.40790;,
 26.66820;0.75480;-235.93900;,
 26.66820;24.05010;-235.93900;,
 26.66820;41.80000;-201.42120;,
 26.66820;0.75480;-201.42120;,
 -26.66820;0.75480;-235.93900;,
 -26.66820;0.75480;-201.42120;,
 -26.66820;24.05010;-235.93900;,
 -26.66820;41.80000;-201.42120;,
 26.66820;145.10350;-201.42120;,
 26.66820;163.91589;-201.42120;,
 26.66820;145.10350;-177.40790;,
 26.66820;145.10350;-201.42120;,
 -26.66820;145.10350;-201.42120;,
 -26.66820;163.91589;-201.42120;,
 26.66820;163.91589;-201.42120;,
 26.66820;145.10350;-177.40790;,
 -26.66820;145.10350;-177.40790;,
 -26.66820;145.10350;-201.42120;,
 -26.66820;145.10350;-177.40790;,
 -26.66820;163.91589;-201.42120;,
 26.66820;163.91589;-151.47369;,
 26.66820;145.10350;-151.47369;,
 26.66820;163.91589;-177.40790;,
 -26.66820;163.91589;-151.47369;,
 -26.66820;163.91589;-177.40790;,
 -26.66820;145.10350;-151.47369;,
 134.59480;76.09160;-14.65770;,
 152.93840;76.09160;-14.65770;,
 152.93840;-6.63340;-14.65770;,
 134.59480;-6.63340;-14.65770;,
 152.93840;76.09160;-14.65770;,
 152.93840;76.09160;14.65770;,
 152.93840;-6.63340;14.65770;,
 152.93840;-6.63340;-14.65770;,
 152.93840;76.09160;14.65770;,
 134.59480;76.09160;14.65770;,
 134.59480;-6.63340;14.65770;,
 152.93840;-6.63340;14.65770;,
 134.59480;76.09160;14.65770;,
 134.59480;76.09160;-14.65770;,
 134.59480;-6.63340;-14.65770;,
 134.59480;-6.63340;14.65770;,
 152.93840;76.09160;-14.65770;,
 134.59480;76.09160;-14.65770;,
 134.59480;-6.63340;-14.65770;,
 152.93840;-6.63340;-14.65770;,
 -134.59480;76.09160;-14.65770;,
 -134.59480;-6.63340;-14.65770;,
 -152.93840;-6.63340;-14.65770;,
 -152.93840;76.09160;-14.65770;,
 -152.93840;76.09160;-14.65770;,
 -152.93840;-6.63340;-14.65770;,
 -152.93840;-6.63340;14.65770;,
 -152.93840;76.09160;14.65770;,
 -152.93840;76.09160;14.65770;,
 -152.93840;-6.63340;14.65770;,
 -134.59480;-6.63340;14.65770;,
 -134.59480;76.09160;14.65770;,
 -134.59480;76.09160;14.65770;,
 -134.59480;-6.63340;14.65770;,
 -134.59480;-6.63340;-14.65770;,
 -134.59480;76.09160;-14.65770;,
 -134.59480;76.09160;-14.65770;,
 -152.93840;76.09160;-14.65770;,
 -134.59480;-6.63340;-14.65770;,
 -152.93840;-6.63340;-14.65770;,
 -26.66820;163.91589;177.40790;,
 -26.66820;163.91589;201.42120;,
 26.66820;163.91589;201.42120;,
 26.66820;163.91589;177.40790;,
 -26.66820;0.75480;201.42120;,
 -26.66820;0.75480;177.40790;,
 26.66820;0.75480;177.40790;,
 26.66820;0.75480;201.42120;,
 26.66820;41.80000;201.42120;,
 26.66820;0.75480;201.42120;,
 26.66820;41.80000;177.40790;,
 26.66820;41.80000;177.40790;,
 26.66820;0.75480;177.40790;,
 -26.66820;0.75480;177.40790;,
 -26.66820;41.80000;177.40790;,
 -26.66820;41.80000;201.42120;,
 -26.66820;41.80000;177.40790;,
 -26.66820;0.75480;201.42120;,
 26.66820;0.75480;235.93900;,
 26.66820;0.75480;201.42120;,
 26.66820;41.80000;201.42120;,
 26.66820;24.05010;235.93900;,
 -26.66820;0.75480;235.93900;,
 -26.66820;0.75480;201.42120;,
 -26.66820;24.05010;235.93900;,
 -26.66820;41.80000;201.42120;,
 26.66820;145.10350;201.42120;,
 26.66820;145.10350;177.40790;,
 26.66820;163.91589;201.42120;,
 26.66820;145.10350;201.42120;,
 -26.66820;145.10350;201.42120;,
 26.66820;163.91589;201.42120;,
 -26.66820;163.91589;201.42120;,
 26.66820;145.10350;177.40790;,
 -26.66820;145.10350;177.40790;,
 -26.66820;145.10350;201.42120;,
 -26.66820;145.10350;177.40790;,
 -26.66820;163.91589;201.42120;,
 26.66820;163.91589;151.47369;,
 26.66820;163.91589;177.40790;,
 26.66820;145.10350;151.47369;,
 -26.66820;163.91589;151.47369;,
 -26.66820;163.91589;177.40790;,
 -26.66820;145.10350;151.47369;,
 337.00000;455.42099;-167.98489;,
 455.78329;455.42099;-118.78330;,
 455.78329;74.29630;-118.78330;,
 337.00000;74.29630;-167.98489;,
 504.98489;455.42099;0.00000;,
 504.98489;74.29630;0.00000;,
 455.78329;455.42099;118.78330;,
 455.78329;74.29630;118.78330;,
 337.00000;455.42099;167.98489;,
 337.00000;74.29630;167.98489;,
 218.21671;455.42099;118.78330;,
 218.21671;74.29630;118.78330;,
 169.01511;455.42099;0.00000;,
 169.01511;74.29630;0.00000;,
 218.21671;455.42099;-118.78330;,
 218.21671;74.29630;-118.78330;,
 337.00000;455.42099;-167.98489;,
 337.00000;74.29630;-167.98489;,
 337.00000;74.29630;0.00000;,
 337.00000;74.29630;0.00000;,
 337.00000;74.29630;0.00000;,
 337.00000;74.29630;0.00000;,
 337.00000;74.29630;0.00000;,
 337.00000;74.29630;0.00000;,
 337.00000;74.29630;0.00000;,
 337.00000;74.29630;0.00000;,
 337.00000;504.60541;-109.39270;,
 414.35229;504.60541;-77.35230;,
 337.00000;504.60541;0.00000;,
 446.39270;504.60541;0.00000;,
 337.00000;504.60541;0.00000;,
 414.35229;504.60541;77.35230;,
 337.00000;504.60541;0.00000;,
 337.00000;504.60541;109.39270;,
 337.00000;504.60541;0.00000;,
 259.64771;504.60541;77.35230;,
 337.00000;504.60541;0.00000;,
 227.60730;504.60541;0.00000;,
 337.00000;504.60541;0.00000;,
 259.64771;504.60541;-77.35230;,
 337.00000;504.60541;0.00000;,
 337.00000;504.60541;-109.39270;,
 337.00000;504.60541;0.00000;,
 310.33179;163.91589;-177.40790;,
 363.66821;163.91589;-177.40790;,
 363.66821;163.91589;-201.42120;,
 310.33179;163.91589;-201.42120;,
 310.33179;0.75480;-201.42120;,
 363.66821;0.75480;-201.42120;,
 363.66821;0.75480;-177.40790;,
 310.33179;0.75480;-177.40790;,
 363.66821;41.80000;-201.42120;,
 363.66821;41.80000;-177.40790;,
 363.66821;0.75480;-201.42120;,
 363.66821;41.80000;-177.40790;,
 310.33179;41.80000;-177.40790;,
 310.33179;0.75480;-177.40790;,
 363.66821;0.75480;-177.40790;,
 310.33179;41.80000;-201.42120;,
 310.33179;0.75480;-201.42120;,
 310.33179;41.80000;-177.40790;,
 363.66821;0.75480;-235.93900;,
 363.66821;24.05010;-235.93900;,
 363.66821;41.80000;-201.42120;,
 363.66821;0.75480;-201.42120;,
 310.33179;0.75480;-235.93900;,
 310.33179;0.75480;-201.42120;,
 310.33179;24.05010;-235.93900;,
 310.33179;41.80000;-201.42120;,
 363.66821;145.10350;-201.42120;,
 363.66821;163.91589;-201.42120;,
 363.66821;145.10350;-177.40790;,
 363.66821;145.10350;-201.42120;,
 310.33179;145.10350;-201.42120;,
 310.33179;163.91589;-201.42120;,
 363.66821;163.91589;-201.42120;,
 363.66821;145.10350;-177.40790;,
 310.33179;145.10350;-177.40790;,
 310.33179;145.10350;-201.42120;,
 310.33179;145.10350;-177.40790;,
 310.33179;163.91589;-201.42120;,
 363.66821;163.91589;-151.47369;,
 363.66821;145.10350;-151.47369;,
 363.66821;163.91589;-177.40790;,
 310.33179;163.91589;-151.47369;,
 310.33179;163.91589;-177.40790;,
 310.33179;145.10350;-151.47369;,
 471.59479;76.09160;-14.65770;,
 489.93842;76.09160;-14.65770;,
 489.93842;-6.63340;-14.65770;,
 471.59479;-6.63340;-14.65770;,
 489.93842;76.09160;-14.65770;,
 489.93842;76.09160;14.65770;,
 489.93842;-6.63340;14.65770;,
 489.93842;-6.63340;-14.65770;,
 489.93842;76.09160;14.65770;,
 471.59479;76.09160;14.65770;,
 471.59479;-6.63340;14.65770;,
 489.93842;-6.63340;14.65770;,
 471.59479;76.09160;14.65770;,
 471.59479;76.09160;-14.65770;,
 471.59479;-6.63340;-14.65770;,
 471.59479;-6.63340;14.65770;,
 489.93842;76.09160;-14.65770;,
 471.59479;76.09160;-14.65770;,
 471.59479;-6.63340;-14.65770;,
 489.93842;-6.63340;-14.65770;,
 202.40520;76.09160;-14.65770;,
 202.40520;-6.63340;-14.65770;,
 184.06160;-6.63340;-14.65770;,
 184.06160;76.09160;-14.65770;,
 184.06160;76.09160;-14.65770;,
 184.06160;-6.63340;-14.65770;,
 184.06160;-6.63340;14.65770;,
 184.06160;76.09160;14.65770;,
 184.06160;76.09160;14.65770;,
 184.06160;-6.63340;14.65770;,
 202.40520;-6.63340;14.65770;,
 202.40520;76.09160;14.65770;,
 202.40520;76.09160;14.65770;,
 202.40520;-6.63340;14.65770;,
 202.40520;-6.63340;-14.65770;,
 202.40520;76.09160;-14.65770;,
 202.40520;76.09160;-14.65770;,
 184.06160;76.09160;-14.65770;,
 202.40520;-6.63340;-14.65770;,
 184.06160;-6.63340;-14.65770;,
 310.33179;163.91589;177.40790;,
 310.33179;163.91589;201.42120;,
 363.66821;163.91589;201.42120;,
 363.66821;163.91589;177.40790;,
 310.33179;0.75480;201.42120;,
 310.33179;0.75480;177.40790;,
 363.66821;0.75480;177.40790;,
 363.66821;0.75480;201.42120;,
 363.66821;41.80000;201.42120;,
 363.66821;0.75480;201.42120;,
 363.66821;41.80000;177.40790;,
 363.66821;41.80000;177.40790;,
 363.66821;0.75480;177.40790;,
 310.33179;0.75480;177.40790;,
 310.33179;41.80000;177.40790;,
 310.33179;41.80000;201.42120;,
 310.33179;41.80000;177.40790;,
 310.33179;0.75480;201.42120;,
 363.66821;0.75480;235.93900;,
 363.66821;0.75480;201.42120;,
 363.66821;41.80000;201.42120;,
 363.66821;24.05010;235.93900;,
 310.33179;0.75480;235.93900;,
 310.33179;0.75480;201.42120;,
 310.33179;24.05010;235.93900;,
 310.33179;41.80000;201.42120;,
 363.66821;145.10350;201.42120;,
 363.66821;145.10350;177.40790;,
 363.66821;163.91589;201.42120;,
 363.66821;145.10350;201.42120;,
 310.33179;145.10350;201.42120;,
 363.66821;163.91589;201.42120;,
 310.33179;163.91589;201.42120;,
 363.66821;145.10350;177.40790;,
 310.33179;145.10350;177.40790;,
 310.33179;145.10350;201.42120;,
 310.33179;145.10350;177.40790;,
 310.33179;163.91589;201.42120;,
 363.66821;163.91589;151.47369;,
 363.66821;163.91589;177.40790;,
 363.66821;145.10350;151.47369;,
 310.33179;163.91589;151.47369;,
 310.33179;163.91589;177.40790;,
 310.33179;145.10350;151.47369;,
 -337.00000;455.42099;-167.98489;,
 -218.21671;455.42099;-118.78330;,
 -218.21671;74.29630;-118.78330;,
 -337.00000;74.29630;-167.98489;,
 -169.01511;455.42099;0.00000;,
 -169.01511;74.29630;0.00000;,
 -218.21671;455.42099;118.78330;,
 -218.21671;74.29630;118.78330;,
 -337.00000;455.42099;167.98489;,
 -337.00000;74.29630;167.98489;,
 -455.78329;455.42099;118.78330;,
 -455.78329;74.29630;118.78330;,
 -504.98489;455.42099;0.00000;,
 -504.98489;74.29630;0.00000;,
 -455.78329;455.42099;-118.78330;,
 -455.78329;74.29630;-118.78330;,
 -337.00000;455.42099;-167.98489;,
 -337.00000;74.29630;-167.98489;,
 -337.00000;74.29630;0.00000;,
 -337.00000;74.29630;0.00000;,
 -337.00000;74.29630;0.00000;,
 -337.00000;74.29630;0.00000;,
 -337.00000;74.29630;0.00000;,
 -337.00000;74.29630;0.00000;,
 -337.00000;74.29630;0.00000;,
 -337.00000;74.29630;0.00000;,
 -337.00000;504.60541;-109.39270;,
 -259.64771;504.60541;-77.35230;,
 -337.00000;504.60541;0.00000;,
 -227.60730;504.60541;0.00000;,
 -337.00000;504.60541;0.00000;,
 -259.64771;504.60541;77.35230;,
 -337.00000;504.60541;0.00000;,
 -337.00000;504.60541;109.39270;,
 -337.00000;504.60541;0.00000;,
 -414.35229;504.60541;77.35230;,
 -337.00000;504.60541;0.00000;,
 -446.39270;504.60541;0.00000;,
 -337.00000;504.60541;0.00000;,
 -414.35229;504.60541;-77.35230;,
 -337.00000;504.60541;0.00000;,
 -337.00000;504.60541;-109.39270;,
 -337.00000;504.60541;0.00000;,
 -363.66821;163.91589;-177.40790;,
 -310.33179;163.91589;-177.40790;,
 -310.33179;163.91589;-201.42120;,
 -363.66821;163.91589;-201.42120;,
 -363.66821;0.75480;-201.42120;,
 -310.33179;0.75480;-201.42120;,
 -310.33179;0.75480;-177.40790;,
 -363.66821;0.75480;-177.40790;,
 -310.33179;41.80000;-201.42120;,
 -310.33179;41.80000;-177.40790;,
 -310.33179;0.75480;-201.42120;,
 -310.33179;41.80000;-177.40790;,
 -363.66821;41.80000;-177.40790;,
 -363.66821;0.75480;-177.40790;,
 -310.33179;0.75480;-177.40790;,
 -363.66821;41.80000;-201.42120;,
 -363.66821;0.75480;-201.42120;,
 -363.66821;41.80000;-177.40790;,
 -310.33179;0.75480;-235.93900;,
 -310.33179;24.05010;-235.93900;,
 -310.33179;41.80000;-201.42120;,
 -310.33179;0.75480;-201.42120;,
 -363.66821;0.75480;-235.93900;,
 -363.66821;0.75480;-201.42120;,
 -363.66821;24.05010;-235.93900;,
 -363.66821;41.80000;-201.42120;,
 -310.33179;145.10350;-201.42120;,
 -310.33179;163.91589;-201.42120;,
 -310.33179;145.10350;-177.40790;,
 -310.33179;145.10350;-201.42120;,
 -363.66821;145.10350;-201.42120;,
 -363.66821;163.91589;-201.42120;,
 -310.33179;163.91589;-201.42120;,
 -310.33179;145.10350;-177.40790;,
 -363.66821;145.10350;-177.40790;,
 -363.66821;145.10350;-201.42120;,
 -363.66821;145.10350;-177.40790;,
 -363.66821;163.91589;-201.42120;,
 -310.33179;163.91589;-151.47369;,
 -310.33179;145.10350;-151.47369;,
 -310.33179;163.91589;-177.40790;,
 -363.66821;163.91589;-151.47369;,
 -363.66821;163.91589;-177.40790;,
 -363.66821;145.10350;-151.47369;,
 -202.40520;76.09160;-14.65770;,
 -184.06160;76.09160;-14.65770;,
 -184.06160;-6.63340;-14.65770;,
 -202.40520;-6.63340;-14.65770;,
 -184.06160;76.09160;-14.65770;,
 -184.06160;76.09160;14.65770;,
 -184.06160;-6.63340;14.65770;,
 -184.06160;-6.63340;-14.65770;,
 -184.06160;76.09160;14.65770;,
 -202.40520;76.09160;14.65770;,
 -202.40520;-6.63340;14.65770;,
 -184.06160;-6.63340;14.65770;,
 -202.40520;76.09160;14.65770;,
 -202.40520;76.09160;-14.65770;,
 -202.40520;-6.63340;-14.65770;,
 -202.40520;-6.63340;14.65770;,
 -184.06160;76.09160;-14.65770;,
 -202.40520;76.09160;-14.65770;,
 -202.40520;-6.63340;-14.65770;,
 -184.06160;-6.63340;-14.65770;,
 -471.59479;76.09160;-14.65770;,
 -471.59479;-6.63340;-14.65770;,
 -489.93842;-6.63340;-14.65770;,
 -489.93842;76.09160;-14.65770;,
 -489.93842;76.09160;-14.65770;,
 -489.93842;-6.63340;-14.65770;,
 -489.93842;-6.63340;14.65770;,
 -489.93842;76.09160;14.65770;,
 -489.93842;76.09160;14.65770;,
 -489.93842;-6.63340;14.65770;,
 -471.59479;-6.63340;14.65770;,
 -471.59479;76.09160;14.65770;,
 -471.59479;76.09160;14.65770;,
 -471.59479;-6.63340;14.65770;,
 -471.59479;-6.63340;-14.65770;,
 -471.59479;76.09160;-14.65770;,
 -471.59479;76.09160;-14.65770;,
 -489.93842;76.09160;-14.65770;,
 -471.59479;-6.63340;-14.65770;,
 -489.93842;-6.63340;-14.65770;,
 -363.66821;163.91589;177.40790;,
 -363.66821;163.91589;201.42120;,
 -310.33179;163.91589;201.42120;,
 -310.33179;163.91589;177.40790;,
 -363.66821;0.75480;201.42120;,
 -363.66821;0.75480;177.40790;,
 -310.33179;0.75480;177.40790;,
 -310.33179;0.75480;201.42120;,
 -310.33179;41.80000;201.42120;,
 -310.33179;0.75480;201.42120;,
 -310.33179;41.80000;177.40790;,
 -310.33179;41.80000;177.40790;,
 -310.33179;0.75480;177.40790;,
 -363.66821;0.75480;177.40790;,
 -363.66821;41.80000;177.40790;,
 -363.66821;41.80000;201.42120;,
 -363.66821;41.80000;177.40790;,
 -363.66821;0.75480;201.42120;,
 -310.33179;0.75480;235.93900;,
 -310.33179;0.75480;201.42120;,
 -310.33179;41.80000;201.42120;,
 -310.33179;24.05010;235.93900;,
 -363.66821;0.75480;235.93900;,
 -363.66821;0.75480;201.42120;,
 -363.66821;24.05010;235.93900;,
 -363.66821;41.80000;201.42120;,
 -310.33179;145.10350;201.42120;,
 -310.33179;145.10350;177.40790;,
 -310.33179;163.91589;201.42120;,
 -310.33179;145.10350;201.42120;,
 -363.66821;145.10350;201.42120;,
 -310.33179;163.91589;201.42120;,
 -363.66821;163.91589;201.42120;,
 -310.33179;145.10350;177.40790;,
 -363.66821;145.10350;177.40790;,
 -363.66821;145.10350;201.42120;,
 -363.66821;145.10350;177.40790;,
 -363.66821;163.91589;201.42120;,
 -310.33179;163.91589;151.47369;,
 -310.33179;163.91589;177.40790;,
 -310.33179;145.10350;151.47369;,
 -363.66821;163.91589;151.47369;,
 -363.66821;163.91589;177.40790;,
 -363.66821;145.10350;151.47369;,
 -674.00000;455.42099;-167.98489;,
 -555.21667;455.42099;-118.78330;,
 -555.21667;74.29630;-118.78330;,
 -674.00000;74.29630;-167.98489;,
 -506.01511;455.42099;0.00000;,
 -506.01511;74.29630;0.00000;,
 -555.21667;455.42099;118.78330;,
 -555.21667;74.29630;118.78330;,
 -674.00000;455.42099;167.98489;,
 -674.00000;74.29630;167.98489;,
 -792.78333;455.42099;118.78330;,
 -792.78333;74.29630;118.78330;,
 -841.98486;455.42099;0.00000;,
 -841.98486;74.29630;0.00000;,
 -792.78333;455.42099;-118.78330;,
 -792.78333;74.29630;-118.78330;,
 -674.00000;455.42099;-167.98489;,
 -674.00000;74.29630;-167.98489;,
 -674.00000;74.29630;0.00000;,
 -674.00000;74.29630;0.00000;,
 -674.00000;74.29630;0.00000;,
 -674.00000;74.29630;0.00000;,
 -674.00000;74.29630;0.00000;,
 -674.00000;74.29630;0.00000;,
 -674.00000;74.29630;0.00000;,
 -674.00000;74.29630;0.00000;,
 -674.00000;504.60541;-109.39270;,
 -596.64771;504.60541;-77.35230;,
 -674.00000;504.60541;0.00000;,
 -564.60730;504.60541;0.00000;,
 -674.00000;504.60541;0.00000;,
 -596.64771;504.60541;77.35230;,
 -674.00000;504.60541;0.00000;,
 -674.00000;504.60541;109.39270;,
 -674.00000;504.60541;0.00000;,
 -751.35229;504.60541;77.35230;,
 -674.00000;504.60541;0.00000;,
 -783.39270;504.60541;0.00000;,
 -674.00000;504.60541;0.00000;,
 -751.35229;504.60541;-77.35230;,
 -674.00000;504.60541;0.00000;,
 -674.00000;504.60541;-109.39270;,
 -674.00000;504.60541;0.00000;,
 -700.66821;163.91589;-177.40790;,
 -647.33179;163.91589;-177.40790;,
 -647.33179;163.91589;-201.42120;,
 -700.66821;163.91589;-201.42120;,
 -700.66821;0.75480;-201.42120;,
 -647.33179;0.75480;-201.42120;,
 -647.33179;0.75480;-177.40790;,
 -700.66821;0.75480;-177.40790;,
 -647.33179;41.80000;-201.42120;,
 -647.33179;41.80000;-177.40790;,
 -647.33179;0.75480;-201.42120;,
 -647.33179;41.80000;-177.40790;,
 -700.66821;41.80000;-177.40790;,
 -700.66821;0.75480;-177.40790;,
 -647.33179;0.75480;-177.40790;,
 -700.66821;41.80000;-201.42120;,
 -700.66821;0.75480;-201.42120;,
 -700.66821;41.80000;-177.40790;,
 -647.33179;0.75480;-235.93900;,
 -647.33179;24.05010;-235.93900;,
 -647.33179;41.80000;-201.42120;,
 -647.33179;0.75480;-201.42120;,
 -700.66821;0.75480;-235.93900;,
 -700.66821;0.75480;-201.42120;,
 -700.66821;24.05010;-235.93900;,
 -700.66821;41.80000;-201.42120;,
 -647.33179;145.10350;-201.42120;,
 -647.33179;163.91589;-201.42120;,
 -647.33179;145.10350;-177.40790;,
 -647.33179;145.10350;-201.42120;,
 -700.66821;145.10350;-201.42120;,
 -700.66821;163.91589;-201.42120;,
 -647.33179;163.91589;-201.42120;,
 -647.33179;145.10350;-177.40790;,
 -700.66821;145.10350;-177.40790;,
 -700.66821;145.10350;-201.42120;,
 -700.66821;145.10350;-177.40790;,
 -700.66821;163.91589;-201.42120;,
 -647.33179;163.91589;-151.47369;,
 -647.33179;145.10350;-151.47369;,
 -647.33179;163.91589;-177.40790;,
 -700.66821;163.91589;-151.47369;,
 -700.66821;163.91589;-177.40790;,
 -700.66821;145.10350;-151.47369;,
 -539.40521;76.09160;-14.65770;,
 -521.06158;76.09160;-14.65770;,
 -521.06158;-6.63340;-14.65770;,
 -539.40521;-6.63340;-14.65770;,
 -521.06158;76.09160;-14.65770;,
 -521.06158;76.09160;14.65770;,
 -521.06158;-6.63340;14.65770;,
 -521.06158;-6.63340;-14.65770;,
 -521.06158;76.09160;14.65770;,
 -539.40521;76.09160;14.65770;,
 -539.40521;-6.63340;14.65770;,
 -521.06158;-6.63340;14.65770;,
 -539.40521;76.09160;14.65770;,
 -539.40521;76.09160;-14.65770;,
 -539.40521;-6.63340;-14.65770;,
 -539.40521;-6.63340;14.65770;,
 -521.06158;76.09160;-14.65770;,
 -539.40521;76.09160;-14.65770;,
 -539.40521;-6.63340;-14.65770;,
 -521.06158;-6.63340;-14.65770;,
 -808.59479;76.09160;-14.65770;,
 -808.59479;-6.63340;-14.65770;,
 -826.93842;-6.63340;-14.65770;,
 -826.93842;76.09160;-14.65770;,
 -826.93842;76.09160;-14.65770;,
 -826.93842;-6.63340;-14.65770;,
 -826.93842;-6.63340;14.65770;,
 -826.93842;76.09160;14.65770;,
 -826.93842;76.09160;14.65770;,
 -826.93842;-6.63340;14.65770;,
 -808.59479;-6.63340;14.65770;,
 -808.59479;76.09160;14.65770;,
 -808.59479;76.09160;14.65770;,
 -808.59479;-6.63340;14.65770;,
 -808.59479;-6.63340;-14.65770;,
 -808.59479;76.09160;-14.65770;,
 -808.59479;76.09160;-14.65770;,
 -826.93842;76.09160;-14.65770;,
 -808.59479;-6.63340;-14.65770;,
 -826.93842;-6.63340;-14.65770;,
 -700.66821;163.91589;177.40790;,
 -700.66821;163.91589;201.42120;,
 -647.33179;163.91589;201.42120;,
 -647.33179;163.91589;177.40790;,
 -700.66821;0.75480;201.42120;,
 -700.66821;0.75480;177.40790;,
 -647.33179;0.75480;177.40790;,
 -647.33179;0.75480;201.42120;,
 -647.33179;41.80000;201.42120;,
 -647.33179;0.75480;201.42120;,
 -647.33179;41.80000;177.40790;,
 -647.33179;41.80000;177.40790;,
 -647.33179;0.75480;177.40790;,
 -700.66821;0.75480;177.40790;,
 -700.66821;41.80000;177.40790;,
 -700.66821;41.80000;201.42120;,
 -700.66821;41.80000;177.40790;,
 -700.66821;0.75480;201.42120;,
 -647.33179;0.75480;235.93900;,
 -647.33179;0.75480;201.42120;,
 -647.33179;41.80000;201.42120;,
 -647.33179;24.05010;235.93900;,
 -700.66821;0.75480;235.93900;,
 -700.66821;0.75480;201.42120;,
 -700.66821;24.05010;235.93900;,
 -700.66821;41.80000;201.42120;,
 -647.33179;145.10350;201.42120;,
 -647.33179;145.10350;177.40790;,
 -647.33179;163.91589;201.42120;,
 -647.33179;145.10350;201.42120;,
 -700.66821;145.10350;201.42120;,
 -647.33179;163.91589;201.42120;,
 -700.66821;163.91589;201.42120;,
 -647.33179;145.10350;177.40790;,
 -700.66821;145.10350;177.40790;,
 -700.66821;145.10350;201.42120;,
 -700.66821;145.10350;177.40790;,
 -700.66821;163.91589;201.42120;,
 -647.33179;163.91589;151.47369;,
 -647.33179;163.91589;177.40790;,
 -647.33179;145.10350;151.47369;,
 -700.66821;163.91589;151.47369;,
 -700.66821;163.91589;177.40790;,
 -700.66821;145.10350;151.47369;,
 674.00000;455.42099;-167.98489;,
 792.78333;455.42099;-118.78330;,
 792.78333;74.29630;-118.78330;,
 674.00000;74.29630;-167.98489;,
 841.98486;455.42099;0.00000;,
 841.98486;74.29630;0.00000;,
 792.78333;455.42099;118.78330;,
 792.78333;74.29630;118.78330;,
 674.00000;455.42099;167.98489;,
 674.00000;74.29630;167.98489;,
 555.21667;455.42099;118.78330;,
 555.21667;74.29630;118.78330;,
 506.01511;455.42099;0.00000;,
 506.01511;74.29630;0.00000;,
 555.21667;455.42099;-118.78330;,
 555.21667;74.29630;-118.78330;,
 674.00000;455.42099;-167.98489;,
 674.00000;74.29630;-167.98489;,
 674.00000;74.29630;0.00000;,
 674.00000;74.29630;0.00000;,
 674.00000;74.29630;0.00000;,
 674.00000;74.29630;0.00000;,
 674.00000;74.29630;0.00000;,
 674.00000;74.29630;0.00000;,
 674.00000;74.29630;0.00000;,
 674.00000;74.29630;0.00000;,
 674.00000;504.60541;-109.39270;,
 751.35229;504.60541;-77.35230;,
 674.00000;504.60541;0.00000;,
 783.39270;504.60541;0.00000;,
 674.00000;504.60541;0.00000;,
 751.35229;504.60541;77.35230;,
 674.00000;504.60541;0.00000;,
 674.00000;504.60541;109.39270;,
 674.00000;504.60541;0.00000;,
 596.64771;504.60541;77.35230;,
 674.00000;504.60541;0.00000;,
 564.60730;504.60541;0.00000;,
 674.00000;504.60541;0.00000;,
 596.64771;504.60541;-77.35230;,
 674.00000;504.60541;0.00000;,
 674.00000;504.60541;-109.39270;,
 674.00000;504.60541;0.00000;,
 647.33179;163.91589;-177.40790;,
 700.66821;163.91589;-177.40790;,
 700.66821;163.91589;-201.42120;,
 647.33179;163.91589;-201.42120;,
 647.33179;0.75480;-201.42120;,
 700.66821;0.75480;-201.42120;,
 700.66821;0.75480;-177.40790;,
 647.33179;0.75480;-177.40790;,
 700.66821;41.80000;-201.42120;,
 700.66821;41.80000;-177.40790;,
 700.66821;0.75480;-201.42120;,
 700.66821;41.80000;-177.40790;,
 647.33179;41.80000;-177.40790;,
 647.33179;0.75480;-177.40790;,
 700.66821;0.75480;-177.40790;,
 647.33179;41.80000;-201.42120;,
 647.33179;0.75480;-201.42120;,
 647.33179;41.80000;-177.40790;,
 700.66821;0.75480;-235.93900;,
 700.66821;24.05010;-235.93900;,
 700.66821;41.80000;-201.42120;,
 700.66821;0.75480;-201.42120;,
 647.33179;0.75480;-235.93900;,
 647.33179;0.75480;-201.42120;,
 647.33179;24.05010;-235.93900;,
 647.33179;41.80000;-201.42120;,
 700.66821;145.10350;-201.42120;,
 700.66821;163.91589;-201.42120;,
 700.66821;145.10350;-177.40790;,
 700.66821;145.10350;-201.42120;,
 647.33179;145.10350;-201.42120;,
 647.33179;163.91589;-201.42120;,
 700.66821;163.91589;-201.42120;,
 700.66821;145.10350;-177.40790;,
 647.33179;145.10350;-177.40790;,
 647.33179;145.10350;-201.42120;,
 647.33179;145.10350;-177.40790;,
 647.33179;163.91589;-201.42120;,
 700.66821;163.91589;-151.47369;,
 700.66821;145.10350;-151.47369;,
 700.66821;163.91589;-177.40790;,
 647.33179;163.91589;-151.47369;,
 647.33179;163.91589;-177.40790;,
 647.33179;145.10350;-151.47369;,
 808.59479;76.09160;-14.65770;,
 826.93842;76.09160;-14.65770;,
 826.93842;-6.63340;-14.65770;,
 808.59479;-6.63340;-14.65770;,
 826.93842;76.09160;-14.65770;,
 826.93842;76.09160;14.65770;,
 826.93842;-6.63340;14.65770;,
 826.93842;-6.63340;-14.65770;,
 826.93842;76.09160;14.65770;,
 808.59479;76.09160;14.65770;,
 808.59479;-6.63340;14.65770;,
 826.93842;-6.63340;14.65770;,
 808.59479;76.09160;14.65770;,
 808.59479;76.09160;-14.65770;,
 808.59479;-6.63340;-14.65770;,
 808.59479;-6.63340;14.65770;,
 826.93842;76.09160;-14.65770;,
 808.59479;76.09160;-14.65770;,
 808.59479;-6.63340;-14.65770;,
 826.93842;-6.63340;-14.65770;,
 539.40521;76.09160;-14.65770;,
 539.40521;-6.63340;-14.65770;,
 521.06158;-6.63340;-14.65770;,
 521.06158;76.09160;-14.65770;,
 521.06158;76.09160;-14.65770;,
 521.06158;-6.63340;-14.65770;,
 521.06158;-6.63340;14.65770;,
 521.06158;76.09160;14.65770;,
 521.06158;76.09160;14.65770;,
 521.06158;-6.63340;14.65770;,
 539.40521;-6.63340;14.65770;,
 539.40521;76.09160;14.65770;,
 539.40521;76.09160;14.65770;,
 539.40521;-6.63340;14.65770;,
 539.40521;-6.63340;-14.65770;,
 539.40521;76.09160;-14.65770;,
 539.40521;76.09160;-14.65770;,
 521.06158;76.09160;-14.65770;,
 539.40521;-6.63340;-14.65770;,
 521.06158;-6.63340;-14.65770;,
 647.33179;163.91589;177.40790;,
 647.33179;163.91589;201.42120;,
 700.66821;163.91589;201.42120;,
 700.66821;163.91589;177.40790;,
 647.33179;0.75480;201.42120;,
 647.33179;0.75480;177.40790;,
 700.66821;0.75480;177.40790;,
 700.66821;0.75480;201.42120;,
 700.66821;41.80000;201.42120;,
 700.66821;0.75480;201.42120;,
 700.66821;41.80000;177.40790;,
 700.66821;41.80000;177.40790;,
 700.66821;0.75480;177.40790;,
 647.33179;0.75480;177.40790;,
 647.33179;41.80000;177.40790;,
 647.33179;41.80000;201.42120;,
 647.33179;41.80000;177.40790;,
 647.33179;0.75480;201.42120;,
 700.66821;0.75480;235.93900;,
 700.66821;0.75480;201.42120;,
 700.66821;41.80000;201.42120;,
 700.66821;24.05010;235.93900;,
 647.33179;0.75480;235.93900;,
 647.33179;0.75480;201.42120;,
 647.33179;24.05010;235.93900;,
 647.33179;41.80000;201.42120;,
 700.66821;145.10350;201.42120;,
 700.66821;145.10350;177.40790;,
 700.66821;163.91589;201.42120;,
 700.66821;145.10350;201.42120;,
 647.33179;145.10350;201.42120;,
 700.66821;163.91589;201.42120;,
 647.33179;163.91589;201.42120;,
 700.66821;145.10350;177.40790;,
 647.33179;145.10350;177.40790;,
 647.33179;145.10350;201.42120;,
 647.33179;145.10350;177.40790;,
 647.33179;163.91589;201.42120;,
 700.66821;163.91589;151.47369;,
 700.66821;163.91589;177.40790;,
 700.66821;145.10350;151.47369;,
 647.33179;163.91589;151.47369;,
 647.33179;163.91589;177.40790;,
 647.33179;145.10350;151.47369;;
 
 440;
 4;0,1,2,3;,
 4;1,4,5,2;,
 4;4,6,7,5;,
 4;6,8,9,7;,
 4;8,10,11,9;,
 4;10,12,13,11;,
 4;12,14,15,13;,
 4;14,16,17,15;,
 3;18,3,2;,
 3;19,2,5;,
 3;20,5,7;,
 3;21,7,9;,
 3;22,9,11;,
 3;23,11,13;,
 3;24,13,15;,
 3;25,15,17;,
 4;26,27,1,0;,
 3;28,27,26;,
 4;27,29,4,1;,
 3;30,29,27;,
 4;29,31,6,4;,
 3;32,31,29;,
 4;31,33,8,6;,
 3;34,33,31;,
 4;33,35,10,8;,
 3;36,35,33;,
 4;35,37,12,10;,
 3;38,37,35;,
 4;37,39,14,12;,
 3;40,39,37;,
 4;39,41,16,14;,
 3;42,41,39;,
 4;43,44,45,46;,
 4;47,48,49,50;,
 4;51,52,49,53;,
 4;54,55,56,57;,
 4;58,59,50,60;,
 4;61,62,63,64;,
 4;65,61,64,66;,
 4;67,65,66,68;,
 4;62,67,68,63;,
 4;62,61,65,67;,
 4;69,70,44,71;,
 4;69,71,52,51;,
 4;72,63,68,73;,
 4;72,73,74,75;,
 4;76,77,55,54;,
 4;78,58,60,79;,
 4;78,79,43,80;,
 4;81,82,76,83;,
 4;84,81,83,85;,
 4;86,84,85,77;,
 4;82,86,77,76;,
 4;82,81,84,86;,
 4;87,88,89,90;,
 4;91,92,93,94;,
 4;95,96,97,98;,
 4;99,100,101,102;,
 4;99,92,103,104;,
 4;105,106,93,102;,
 4;107,108,109,110;,
 4;111,112,113,114;,
 4;115,116,117,118;,
 4;119,120,121,122;,
 4;119,123,124,114;,
 4;125,120,113,126;,
 4;127,128,129,130;,
 4;131,132,133,134;,
 4;135,136,133,137;,
 4;138,139,140,141;,
 4;142,143,132,144;,
 4;145,146,147,148;,
 4;149,150,146,145;,
 4;151,152,150,149;,
 4;148,147,152,151;,
 4;148,151,149,145;,
 4;153,154,130,155;,
 4;153,135,137,154;,
 4;156,157,152,147;,
 4;156,158,159,157;,
 4;160,138,141,161;,
 4;162,163,143,142;,
 4;162,164,127,163;,
 4;165,166,160,167;,
 4;168,169,166,165;,
 4;170,161,169,168;,
 4;167,160,161,170;,
 4;167,170,168,165;,
 4;171,172,173,174;,
 4;172,175,176,173;,
 4;175,177,178,176;,
 4;177,179,180,178;,
 4;179,181,182,180;,
 4;181,183,184,182;,
 4;183,185,186,184;,
 4;185,187,188,186;,
 3;189,174,173;,
 3;190,173,176;,
 3;191,176,178;,
 3;192,178,180;,
 3;193,180,182;,
 3;194,182,184;,
 3;195,184,186;,
 3;196,186,188;,
 4;197,198,172,171;,
 3;199,198,197;,
 4;198,200,175,172;,
 3;201,200,198;,
 4;200,202,177,175;,
 3;203,202,200;,
 4;202,204,179,177;,
 3;205,204,202;,
 4;204,206,181,179;,
 3;207,206,204;,
 4;206,208,183,181;,
 3;209,208,206;,
 4;208,210,185,183;,
 3;211,210,208;,
 4;210,212,187,185;,
 3;213,212,210;,
 4;214,215,216,217;,
 4;218,219,220,221;,
 4;222,223,220,224;,
 4;225,226,227,228;,
 4;229,230,221,231;,
 4;232,233,234,235;,
 4;236,232,235,237;,
 4;238,236,237,239;,
 4;233,238,239,234;,
 4;233,232,236,238;,
 4;240,241,215,242;,
 4;240,242,223,222;,
 4;243,234,239,244;,
 4;243,244,245,246;,
 4;247,248,226,225;,
 4;249,229,231,250;,
 4;249,250,214,251;,
 4;252,253,247,254;,
 4;255,252,254,256;,
 4;257,255,256,248;,
 4;253,257,248,247;,
 4;253,252,255,257;,
 4;258,259,260,261;,
 4;262,263,264,265;,
 4;266,267,268,269;,
 4;270,271,272,273;,
 4;270,263,274,275;,
 4;276,277,264,273;,
 4;278,279,280,281;,
 4;282,283,284,285;,
 4;286,287,288,289;,
 4;290,291,292,293;,
 4;290,294,295,285;,
 4;296,291,284,297;,
 4;298,299,300,301;,
 4;302,303,304,305;,
 4;306,307,304,308;,
 4;309,310,311,312;,
 4;313,314,303,315;,
 4;316,317,318,319;,
 4;320,321,317,316;,
 4;322,323,321,320;,
 4;319,318,323,322;,
 4;319,322,320,316;,
 4;324,325,301,326;,
 4;324,306,308,325;,
 4;327,328,323,318;,
 4;327,329,330,328;,
 4;331,309,312,332;,
 4;333,334,314,313;,
 4;333,335,298,334;,
 4;336,337,331,338;,
 4;339,340,337,336;,
 4;341,332,340,339;,
 4;338,331,332,341;,
 4;338,341,339,336;,
 4;342,343,344,345;,
 4;343,346,347,344;,
 4;346,348,349,347;,
 4;348,350,351,349;,
 4;350,352,353,351;,
 4;352,354,355,353;,
 4;354,356,357,355;,
 4;356,358,359,357;,
 3;360,345,344;,
 3;361,344,347;,
 3;362,347,349;,
 3;363,349,351;,
 3;364,351,353;,
 3;365,353,355;,
 3;366,355,357;,
 3;367,357,359;,
 4;368,369,343,342;,
 3;370,369,368;,
 4;369,371,346,343;,
 3;372,371,369;,
 4;371,373,348,346;,
 3;374,373,371;,
 4;373,375,350,348;,
 3;376,375,373;,
 4;375,377,352,350;,
 3;378,377,375;,
 4;377,379,354,352;,
 3;380,379,377;,
 4;379,381,356,354;,
 3;382,381,379;,
 4;381,383,358,356;,
 3;384,383,381;,
 4;385,386,387,388;,
 4;389,390,391,392;,
 4;393,394,391,395;,
 4;396,397,398,399;,
 4;400,401,392,402;,
 4;403,404,405,406;,
 4;407,403,406,408;,
 4;409,407,408,410;,
 4;404,409,410,405;,
 4;404,403,407,409;,
 4;411,412,386,413;,
 4;411,413,394,393;,
 4;414,405,410,415;,
 4;414,415,416,417;,
 4;418,419,397,396;,
 4;420,400,402,421;,
 4;420,421,385,422;,
 4;423,424,418,425;,
 4;426,423,425,427;,
 4;428,426,427,419;,
 4;424,428,419,418;,
 4;424,423,426,428;,
 4;429,430,431,432;,
 4;433,434,435,436;,
 4;437,438,439,440;,
 4;441,442,443,444;,
 4;441,434,445,446;,
 4;447,448,435,444;,
 4;449,450,451,452;,
 4;453,454,455,456;,
 4;457,458,459,460;,
 4;461,462,463,464;,
 4;461,465,466,456;,
 4;467,462,455,468;,
 4;469,470,471,472;,
 4;473,474,475,476;,
 4;477,478,475,479;,
 4;480,481,482,483;,
 4;484,485,474,486;,
 4;487,488,489,490;,
 4;491,492,488,487;,
 4;493,494,492,491;,
 4;490,489,494,493;,
 4;490,493,491,487;,
 4;495,496,472,497;,
 4;495,477,479,496;,
 4;498,499,494,489;,
 4;498,500,501,499;,
 4;502,480,483,503;,
 4;504,505,485,484;,
 4;504,506,469,505;,
 4;507,508,502,509;,
 4;510,511,508,507;,
 4;512,503,511,510;,
 4;509,502,503,512;,
 4;509,512,510,507;,
 4;513,514,515,516;,
 4;514,517,518,515;,
 4;517,519,520,518;,
 4;519,521,522,520;,
 4;521,523,524,522;,
 4;523,525,526,524;,
 4;525,527,528,526;,
 4;527,529,530,528;,
 3;531,516,515;,
 3;532,515,518;,
 3;533,518,520;,
 3;534,520,522;,
 3;535,522,524;,
 3;536,524,526;,
 3;537,526,528;,
 3;538,528,530;,
 4;539,540,514,513;,
 3;541,540,539;,
 4;540,542,517,514;,
 3;543,542,540;,
 4;542,544,519,517;,
 3;545,544,542;,
 4;544,546,521,519;,
 3;547,546,544;,
 4;546,548,523,521;,
 3;549,548,546;,
 4;548,550,525,523;,
 3;551,550,548;,
 4;550,552,527,525;,
 3;553,552,550;,
 4;552,554,529,527;,
 3;555,554,552;,
 4;556,557,558,559;,
 4;560,561,562,563;,
 4;564,565,562,566;,
 4;567,568,569,570;,
 4;571,572,563,573;,
 4;574,575,576,577;,
 4;578,574,577,579;,
 4;580,578,579,581;,
 4;575,580,581,576;,
 4;575,574,578,580;,
 4;582,583,557,584;,
 4;582,584,565,564;,
 4;585,576,581,586;,
 4;585,586,587,588;,
 4;589,590,568,567;,
 4;591,571,573,592;,
 4;591,592,556,593;,
 4;594,595,589,596;,
 4;597,594,596,598;,
 4;599,597,598,590;,
 4;595,599,590,589;,
 4;595,594,597,599;,
 4;600,601,602,603;,
 4;604,605,606,607;,
 4;608,609,610,611;,
 4;612,613,614,615;,
 4;612,605,616,617;,
 4;618,619,606,615;,
 4;620,621,622,623;,
 4;624,625,626,627;,
 4;628,629,630,631;,
 4;632,633,634,635;,
 4;632,636,637,627;,
 4;638,633,626,639;,
 4;640,641,642,643;,
 4;644,645,646,647;,
 4;648,649,646,650;,
 4;651,652,653,654;,
 4;655,656,645,657;,
 4;658,659,660,661;,
 4;662,663,659,658;,
 4;664,665,663,662;,
 4;661,660,665,664;,
 4;661,664,662,658;,
 4;666,667,643,668;,
 4;666,648,650,667;,
 4;669,670,665,660;,
 4;669,671,672,670;,
 4;673,651,654,674;,
 4;675,676,656,655;,
 4;675,677,640,676;,
 4;678,679,673,680;,
 4;681,682,679,678;,
 4;683,674,682,681;,
 4;680,673,674,683;,
 4;680,683,681,678;,
 4;684,685,686,687;,
 4;685,688,689,686;,
 4;688,690,691,689;,
 4;690,692,693,691;,
 4;692,694,695,693;,
 4;694,696,697,695;,
 4;696,698,699,697;,
 4;698,700,701,699;,
 3;702,687,686;,
 3;703,686,689;,
 3;704,689,691;,
 3;705,691,693;,
 3;706,693,695;,
 3;707,695,697;,
 3;708,697,699;,
 3;709,699,701;,
 4;710,711,685,684;,
 3;712,711,710;,
 4;711,713,688,685;,
 3;714,713,711;,
 4;713,715,690,688;,
 3;716,715,713;,
 4;715,717,692,690;,
 3;718,717,715;,
 4;717,719,694,692;,
 3;720,719,717;,
 4;719,721,696,694;,
 3;722,721,719;,
 4;721,723,698,696;,
 3;724,723,721;,
 4;723,725,700,698;,
 3;726,725,723;,
 4;727,728,729,730;,
 4;731,732,733,734;,
 4;735,736,733,737;,
 4;738,739,740,741;,
 4;742,743,734,744;,
 4;745,746,747,748;,
 4;749,745,748,750;,
 4;751,749,750,752;,
 4;746,751,752,747;,
 4;746,745,749,751;,
 4;753,754,728,755;,
 4;753,755,736,735;,
 4;756,747,752,757;,
 4;756,757,758,759;,
 4;760,761,739,738;,
 4;762,742,744,763;,
 4;762,763,727,764;,
 4;765,766,760,767;,
 4;768,765,767,769;,
 4;770,768,769,761;,
 4;766,770,761,760;,
 4;766,765,768,770;,
 4;771,772,773,774;,
 4;775,776,777,778;,
 4;779,780,781,782;,
 4;783,784,785,786;,
 4;783,776,787,788;,
 4;789,790,777,786;,
 4;791,792,793,794;,
 4;795,796,797,798;,
 4;799,800,801,802;,
 4;803,804,805,806;,
 4;803,807,808,798;,
 4;809,804,797,810;,
 4;811,812,813,814;,
 4;815,816,817,818;,
 4;819,820,817,821;,
 4;822,823,824,825;,
 4;826,827,816,828;,
 4;829,830,831,832;,
 4;833,834,830,829;,
 4;835,836,834,833;,
 4;832,831,836,835;,
 4;832,835,833,829;,
 4;837,838,814,839;,
 4;837,819,821,838;,
 4;840,841,836,831;,
 4;840,842,843,841;,
 4;844,822,825,845;,
 4;846,847,827,826;,
 4;846,848,811,847;,
 4;849,850,844,851;,
 4;852,853,850,849;,
 4;854,845,853,852;,
 4;851,844,845,854;,
 4;851,854,852,849;;
 
 MeshMaterialList {
  2;
  440;
  0,
  0,
  0,
  0,
  0,
  0,
  0,
  0,
  0,
  0,
  0,
  0,
  0,
  0,
  0,
  0,
  0,
  0,
  0,
  0,
  0,
  0,
  0,
  0,
  0,
  0,
  0,
  0,
  0,
  0,
  0,
  0,
  1,
  1,
  1,
  1,
  1,
  1,
  1,
  1,
  1,
  1,
  1,
  1,
  1,
  1,
  1,
  1,
  1,
  1,
  1,
  1,
  1,
  1,
  1,
  1,
  1,
  1,
  1,
  1,
  1,
  1,
  1,
  1,
  1,
  1,
  1,
  1,
  1,
  1,
  1,
  1,
  1,
  1,
  1,
  1,
  1,
  1,
  1,
  1,
  1,
  1,
  1,
  1,
  1,
  1,
  1,
  1,
  0,
  0,
  0,
  0,
  0,
  0,
  0,
  0,
  0,
  0,
  0,
  0,
  0,
  0,
  0,
  0,
  0,
  0,
  0,
  0,
  0,
  0,
  0,
  0,
  0,
  0,
  0,
  0,
  0,
  0,
  0,
  0,
  1,
  1,
  1,
  1,
  1,
  1,
  1,
  1,
  1,
  1,
  1,
  1,
  1,
  1,
  1,
  1,
  1,
  1,
  1,
  1,
  1,
  1,
  1,
  1,
  1,
  1,
  1,
  1,
  1,
  1,
  1,
  1,
  1,
  1,
  1,
  1,
  1,
  1,
  1,
  1,
  1,
  1,
  1,
  1,
  1,
  1,
  1,
  1,
  1,
  1,
  1,
  1,
  1,
  1,
  1,
  1,
  0,
  0,
  0,
  0,
  0,
  0,
  0,
  0,
  0,
  0,
  0,
  0,
  0,
  0,
  0,
  0,
  0,
  0,
  0,
  0,
  0,
  0,
  0,
  0,
  0,
  0,
  0,
  0,
  0,
  0,
  0,
  0,
  1,
  1,
  1,
  1,
  1,
  1,
  1,
  1,
  1,
  1,
  1,
  1,
  1,
  1,
  1,
  1,
  1,
  1,
  1,
  1,
  1,
  1,
  1,
  1,
  1,
  1,
  1,
  1,
  1,
  1,
  1,
  1,
  1,
  1,
  1,
  1,
  1,
  1,
  1,
  1,
  1,
  1,
  1,
  1,
  1,
  1,
  1,
  1,
  1,
  1,
  1,
  1,
  1,
  1,
  1,
  1,
  0,
  0,
  0,
  0,
  0,
  0,
  0,
  0,
  0,
  0,
  0,
  0,
  0,
  0,
  0,
  0,
  0,
  0,
  0,
  0,
  0,
  0,
  0,
  0,
  0,
  0,
  0,
  0,
  0,
  0,
  0,
  0,
  1,
  1,
  1,
  1,
  1,
  1,
  1,
  1,
  1,
  1,
  1,
  1,
  1,
  1,
  1,
  1,
  1,
  1,
  1,
  1,
  1,
  1,
  1,
  1,
  1,
  1,
  1,
  1,
  1,
  1,
  1,
  1,
  1,
  1,
  1,
  1,
  1,
  1,
  1,
  1,
  1,
  1,
  1,
  1,
  1,
  1,
  1,
  1,
  1,
  1,
  1,
  1,
  1,
  1,
  1,
  1,
  0,
  0,
  0,
  0,
  0,
  0,
  0,
  0,
  0,
  0,
  0,
  0,
  0,
  0,
  0,
  0,
  0,
  0,
  0,
  0,
  0,
  0,
  0,
  0,
  0,
  0,
  0,
  0,
  0,
  0,
  0,
  0,
  1,
  1,
  1,
  1,
  1,
  1,
  1,
  1,
  1,
  1,
  1,
  1,
  1,
  1,
  1,
  1,
  1,
  1,
  1,
  1,
  1,
  1,
  1,
  1,
  1,
  1,
  1,
  1,
  1,
  1,
  1,
  1,
  1,
  1,
  1,
  1,
  1,
  1,
  1,
  1,
  1,
  1,
  1,
  1,
  1,
  1,
  1,
  1,
  1,
  1,
  1,
  1,
  1,
  1,
  1,
  1;;
  Material {
   0.467200;0.467200;0.467200;1.000000;;
   13.000000;
   0.570000;0.570000;0.570000;;
   0.000000;0.000000;0.000000;;
  }
  Material {
   0.323200;0.323200;0.323200;1.000000;;
   5.000000;
   0.000000;0.000000;0.000000;;
   0.000000;0.000000;0.000000;;
  }
 }
 MeshNormals {
  148;
  0.000000;0.431992;-0.901877;,
  0.637724;0.431992;-0.637724;,
  0.901877;0.431992;0.000000;,
  0.637724;0.431992;0.637724;,
  0.000000;0.431992;0.901877;,
  -0.637724;0.431992;0.637724;,
  -0.901877;0.431992;0.000000;,
  -0.637724;0.431992;-0.637724;,
  0.000000;0.000000;-1.000000;,
  0.707107;0.000000;-0.707107;,
  1.000000;0.000000;0.000000;,
  0.707107;0.000000;0.707107;,
  0.000000;0.000000;1.000000;,
  -0.707107;0.000000;0.707107;,
  -1.000000;0.000000;0.000000;,
  -0.707107;0.000000;-0.707107;,
  0.000000;-1.000000;-0.000000;,
  0.000000;1.000000;0.000000;,
  0.000000;0.941774;-0.336246;,
  0.237762;0.941774;-0.237762;,
  0.336246;0.941774;0.000000;,
  0.237762;0.941774;0.237762;,
  0.000000;0.941774;0.336246;,
  -0.237762;0.941774;0.237762;,
  -0.336246;0.941774;0.000000;,
  -0.237762;0.941774;-0.237762;,
  1.000000;0.000000;0.000000;,
  -1.000000;0.000000;0.000000;,
  0.000000;0.000000;1.000000;,
  0.000000;0.000000;-1.000000;,
  0.000000;0.889310;-0.457305;,
  0.000000;0.889310;0.457305;,
  0.000000;0.431992;-0.901877;,
  0.637724;0.431992;-0.637724;,
  0.901877;0.431992;0.000000;,
  0.637724;0.431992;0.637724;,
  0.000000;0.431992;0.901877;,
  -0.637724;0.431992;0.637724;,
  -0.901877;0.431992;0.000000;,
  -0.637724;0.431992;-0.637724;,
  0.000000;0.000000;-1.000000;,
  0.707107;0.000000;-0.707107;,
  1.000000;0.000000;0.000000;,
  0.707107;0.000000;0.707107;,
  0.000000;0.000000;1.000000;,
  -0.707107;0.000000;0.707107;,
  -1.000000;0.000000;0.000000;,
  -0.707107;0.000000;-0.707107;,
  0.000000;-1.000000;-0.000000;,
  0.000000;1.000000;0.000000;,
  0.000000;0.941774;-0.336246;,
  0.237762;0.941774;-0.237762;,
  0.336246;0.941774;0.000000;,
  0.237762;0.941774;0.237762;,
  0.000000;0.941774;0.336246;,
  -0.237762;0.941774;0.237762;,
  -0.336246;0.941774;0.000000;,
  -0.237762;0.941774;-0.237762;,
  0.000000;0.000000;1.000000;,
  0.000000;0.000000;-1.000000;,
  0.000000;0.889310;-0.457305;,
  0.000000;0.889310;0.457305;,
  0.000000;0.431992;-0.901877;,
  0.637724;0.431992;-0.637724;,
  0.901877;0.431992;0.000000;,
  0.637724;0.431992;0.637724;,
  0.000000;0.431992;0.901877;,
  -0.637724;0.431992;0.637724;,
  -0.901877;0.431992;0.000000;,
  -0.637724;0.431992;-0.637724;,
  0.000000;0.000000;-1.000000;,
  0.707107;0.000000;-0.707107;,
  1.000000;0.000000;0.000000;,
  0.707107;0.000000;0.707107;,
  0.000000;0.000000;1.000000;,
  -0.707107;0.000000;0.707107;,
  -1.000000;0.000000;0.000000;,
  -0.707107;0.000000;-0.707107;,
  0.000000;-1.000000;-0.000000;,
  0.000000;1.000000;0.000000;,
  0.000000;0.941774;-0.336246;,
  0.237762;0.941774;-0.237762;,
  0.336246;0.941774;0.000000;,
  0.237762;0.941774;0.237762;,
  0.000000;0.941774;0.336246;,
  -0.237762;0.941774;0.237762;,
  -0.336246;0.941774;0.000000;,
  -0.237762;0.941774;-0.237762;,
  0.000000;0.000000;1.000000;,
  0.000000;0.000000;-1.000000;,
  0.000000;0.889310;-0.457305;,
  0.000000;0.889310;0.457305;,
  0.000000;0.431992;-0.901877;,
  0.637724;0.431992;-0.637724;,
  0.901877;0.431992;0.000000;,
  0.637724;0.431992;0.637724;,
  0.000000;0.431992;0.901877;,
  -0.637724;0.431992;0.637724;,
  -0.901877;0.431992;0.000000;,
  -0.637724;0.431992;-0.637724;,
  0.000000;0.000000;-1.000000;,
  0.707107;0.000000;-0.707107;,
  1.000000;0.000000;0.000000;,
  0.707107;0.000000;0.707107;,
  0.000000;0.000000;1.000000;,
  -0.707107;0.000000;0.707107;,
  -1.000000;0.000000;0.000000;,
  -0.707107;0.000000;-0.707107;,
  0.000000;-1.000000;-0.000000;,
  0.000000;1.000000;0.000000;,
  0.000000;0.941774;-0.336246;,
  0.237762;0.941774;-0.237762;,
  0.336246;0.941774;0.000000;,
  0.237762;0.941774;0.237762;,
  0.000000;0.941774;0.336246;,
  -0.237762;0.941774;0.237762;,
  -0.336246;0.941774;0.000000;,
  -0.237762;0.941774;-0.237762;,
  0.000000;0.889310;-0.457305;,
  0.000000;0.889310;0.457305;,
  0.000000;0.431992;-0.901877;,
  0.637724;0.431992;-0.637724;,
  0.901877;0.431992;0.000000;,
  0.637724;0.431992;0.637724;,
  0.000000;0.431992;0.901877;,
  -0.637724;0.431992;0.637724;,
  -0.901877;0.431992;0.000000;,
  -0.637724;0.431992;-0.637724;,
  0.000000;0.000000;-1.000000;,
  0.707107;0.000000;-0.707107;,
  1.000000;0.000000;0.000000;,
  0.707107;0.000000;0.707107;,
  0.000000;0.000000;1.000000;,
  -0.707107;0.000000;0.707107;,
  -1.000000;0.000000;0.000000;,
  -0.707107;0.000000;-0.707107;,
  0.000000;-1.000000;-0.000000;,
  0.000000;1.000000;0.000000;,
  0.000000;0.941774;-0.336246;,
  0.237762;0.941774;-0.237762;,
  0.336246;0.941774;0.000000;,
  0.237762;0.941774;0.237762;,
  0.000000;0.941774;0.336246;,
  -0.237762;0.941774;0.237762;,
  -0.336246;0.941774;0.000000;,
  -0.237762;0.941774;-0.237762;,
  0.000000;0.889310;-0.457305;,
  0.000000;0.889310;0.457305;;
  440;
  4;0,1,9,8;,
  4;1,2,10,9;,
  4;2,3,11,10;,
  4;3,4,12,11;,
  4;4,5,13,12;,
  4;5,6,14,13;,
  4;6,7,15,14;,
  4;7,0,8,15;,
  3;16,16,16;,
  3;16,16,16;,
  3;16,16,16;,
  3;16,16,16;,
  3;16,16,16;,
  3;16,16,16;,
  3;16,16,16;,
  3;16,16,16;,
  4;18,19,1,0;,
  3;17,19,18;,
  4;19,20,2,1;,
  3;17,20,19;,
  4;20,21,3,2;,
  3;17,21,20;,
  4;21,22,4,3;,
  3;17,22,21;,
  4;22,23,5,4;,
  3;17,23,22;,
  4;23,24,6,5;,
  3;17,24,23;,
  4;24,25,7,6;,
  3;17,25,24;,
  4;25,18,0,7;,
  3;17,18,25;,
  4;17,17,17,17;,
  4;16,16,16,16;,
  4;26,26,26,26;,
  4;28,28,28,28;,
  4;27,27,27,27;,
  4;26,26,26,26;,
  4;16,16,16,16;,
  4;27,27,27,27;,
  4;30,30,30,30;,
  4;29,29,29,29;,
  4;26,26,26,26;,
  4;26,26,26,26;,
  4;29,29,29,29;,
  4;29,29,29,29;,
  4;28,28,28,28;,
  4;27,27,27,27;,
  4;27,27,27,27;,
  4;26,26,26,26;,
  4;17,17,17,17;,
  4;27,27,27,27;,
  4;16,16,16,16;,
  4;28,28,28,28;,
  4;29,29,29,29;,
  4;26,26,26,26;,
  4;28,28,28,28;,
  4;27,27,27,27;,
  4;17,17,17,17;,
  4;16,16,16,16;,
  4;29,29,29,29;,
  4;27,27,27,27;,
  4;28,28,28,28;,
  4;26,26,26,26;,
  4;17,17,17,17;,
  4;16,16,16,16;,
  4;17,17,17,17;,
  4;16,16,16,16;,
  4;26,26,26,26;,
  4;29,29,29,29;,
  4;27,27,27,27;,
  4;26,26,26,26;,
  4;16,16,16,16;,
  4;27,27,27,27;,
  4;31,31,31,31;,
  4;28,28,28,28;,
  4;26,26,26,26;,
  4;26,26,26,26;,
  4;28,28,28,28;,
  4;28,28,28,28;,
  4;29,29,29,29;,
  4;27,27,27,27;,
  4;27,27,27,27;,
  4;26,26,26,26;,
  4;17,17,17,17;,
  4;27,27,27,27;,
  4;16,16,16,16;,
  4;29,29,29,29;,
  4;32,33,41,40;,
  4;33,34,42,41;,
  4;34,35,43,42;,
  4;35,36,44,43;,
  4;36,37,45,44;,
  4;37,38,46,45;,
  4;38,39,47,46;,
  4;39,32,40,47;,
  3;48,48,48;,
  3;48,48,48;,
  3;48,48,48;,
  3;48,48,48;,
  3;48,48,48;,
  3;48,48,48;,
  3;48,48,48;,
  3;48,48,48;,
  4;50,51,33,32;,
  3;49,51,50;,
  4;51,52,34,33;,
  3;49,52,51;,
  4;52,53,35,34;,
  3;49,53,52;,
  4;53,54,36,35;,
  3;49,54,53;,
  4;54,55,37,36;,
  3;49,55,54;,
  4;55,56,38,37;,
  3;49,56,55;,
  4;56,57,39,38;,
  3;49,57,56;,
  4;57,50,32,39;,
  3;49,50,57;,
  4;49,49,49,49;,
  4;48,48,48,48;,
  4;42,42,42,42;,
  4;58,58,58,58;,
  4;46,46,46,46;,
  4;42,42,42,42;,
  4;48,48,48,48;,
  4;46,46,46,46;,
  4;60,60,60,60;,
  4;59,59,59,59;,
  4;42,42,42,42;,
  4;42,42,42,42;,
  4;59,59,59,59;,
  4;59,59,59,59;,
  4;58,58,58,58;,
  4;46,46,46,46;,
  4;46,46,46,46;,
  4;42,42,42,42;,
  4;49,49,49,49;,
  4;46,46,46,46;,
  4;48,48,48,48;,
  4;58,58,58,58;,
  4;59,59,59,59;,
  4;42,42,42,42;,
  4;58,58,58,58;,
  4;46,46,46,46;,
  4;49,49,49,49;,
  4;48,48,48,48;,
  4;59,59,59,59;,
  4;46,46,46,46;,
  4;58,58,58,58;,
  4;42,42,42,42;,
  4;49,49,49,49;,
  4;48,48,48,48;,
  4;49,49,49,49;,
  4;48,48,48,48;,
  4;42,42,42,42;,
  4;59,59,59,59;,
  4;46,46,46,46;,
  4;42,42,42,42;,
  4;48,48,48,48;,
  4;46,46,46,46;,
  4;61,61,61,61;,
  4;58,58,58,58;,
  4;42,42,42,42;,
  4;42,42,42,42;,
  4;58,58,58,58;,
  4;58,58,58,58;,
  4;59,59,59,59;,
  4;46,46,46,46;,
  4;46,46,46,46;,
  4;42,42,42,42;,
  4;49,49,49,49;,
  4;46,46,46,46;,
  4;48,48,48,48;,
  4;59,59,59,59;,
  4;62,63,71,70;,
  4;63,64,72,71;,
  4;64,65,73,72;,
  4;65,66,74,73;,
  4;66,67,75,74;,
  4;67,68,76,75;,
  4;68,69,77,76;,
  4;69,62,70,77;,
  3;78,78,78;,
  3;78,78,78;,
  3;78,78,78;,
  3;78,78,78;,
  3;78,78,78;,
  3;78,78,78;,
  3;78,78,78;,
  3;78,78,78;,
  4;80,81,63,62;,
  3;79,81,80;,
  4;81,82,64,63;,
  3;79,82,81;,
  4;82,83,65,64;,
  3;79,83,82;,
  4;83,84,66,65;,
  3;79,84,83;,
  4;84,85,67,66;,
  3;79,85,84;,
  4;85,86,68,67;,
  3;79,86,85;,
  4;86,87,69,68;,
  3;79,87,86;,
  4;87,80,62,69;,
  3;79,80,87;,
  4;79,79,79,79;,
  4;78,78,78,78;,
  4;72,72,72,72;,
  4;88,88,88,88;,
  4;76,76,76,76;,
  4;72,72,72,72;,
  4;78,78,78,78;,
  4;76,76,76,76;,
  4;90,90,90,90;,
  4;89,89,89,89;,
  4;72,72,72,72;,
  4;72,72,72,72;,
  4;89,89,89,89;,
  4;89,89,89,89;,
  4;88,88,88,88;,
  4;76,76,76,76;,
  4;76,76,76,76;,
  4;72,72,72,72;,
  4;79,79,79,79;,
  4;76,76,76,76;,
  4;78,78,78,78;,
  4;88,88,88,88;,
  4;89,89,89,89;,
  4;72,72,72,72;,
  4;88,88,88,88;,
  4;76,76,76,76;,
  4;79,79,79,79;,
  4;78,78,78,78;,
  4;89,89,89,89;,
  4;76,76,76,76;,
  4;88,88,88,88;,
  4;72,72,72,72;,
  4;79,79,79,79;,
  4;78,78,78,78;,
  4;79,79,79,79;,
  4;78,78,78,78;,
  4;72,72,72,72;,
  4;89,89,89,89;,
  4;76,76,76,76;,
  4;72,72,72,72;,
  4;78,78,78,78;,
  4;76,76,76,76;,
  4;91,91,91,91;,
  4;88,88,88,88;,
  4;72,72,72,72;,
  4;72,72,72,72;,
  4;88,88,88,88;,
  4;88,88,88,88;,
  4;89,89,89,89;,
  4;76,76,76,76;,
  4;76,76,76,76;,
  4;72,72,72,72;,
  4;79,79,79,79;,
  4;76,76,76,76;,
  4;78,78,78,78;,
  4;89,89,89,89;,
  4;92,93,101,100;,
  4;93,94,102,101;,
  4;94,95,103,102;,
  4;95,96,104,103;,
  4;96,97,105,104;,
  4;97,98,106,105;,
  4;98,99,107,106;,
  4;99,92,100,107;,
  3;108,108,108;,
  3;108,108,108;,
  3;108,108,108;,
  3;108,108,108;,
  3;108,108,108;,
  3;108,108,108;,
  3;108,108,108;,
  3;108,108,108;,
  4;110,111,93,92;,
  3;109,111,110;,
  4;111,112,94,93;,
  3;109,112,111;,
  4;112,113,95,94;,
  3;109,113,112;,
  4;113,114,96,95;,
  3;109,114,113;,
  4;114,115,97,96;,
  3;109,115,114;,
  4;115,116,98,97;,
  3;109,116,115;,
  4;116,117,99,98;,
  3;109,117,116;,
  4;117,110,92,99;,
  3;109,110,117;,
  4;109,109,109,109;,
  4;108,108,108,108;,
  4;102,102,102,102;,
  4;104,104,104,104;,
  4;106,106,106,106;,
  4;102,102,102,102;,
  4;108,108,108,108;,
  4;106,106,106,106;,
  4;118,118,118,118;,
  4;100,100,100,100;,
  4;102,102,102,102;,
  4;102,102,102,102;,
  4;100,100,100,100;,
  4;100,100,100,100;,
  4;104,104,104,104;,
  4;106,106,106,106;,
  4;106,106,106,106;,
  4;102,102,102,102;,
  4;109,109,109,109;,
  4;106,106,106,106;,
  4;108,108,108,108;,
  4;104,104,104,104;,
  4;100,100,100,100;,
  4;102,102,102,102;,
  4;104,104,104,104;,
  4;106,106,106,106;,
  4;109,109,109,109;,
  4;108,108,108,108;,
  4;100,100,100,100;,
  4;106,106,106,106;,
  4;104,104,104,104;,
  4;102,102,102,102;,
  4;109,109,109,109;,
  4;108,108,108,108;,
  4;109,109,109,109;,
  4;108,108,108,108;,
  4;102,102,102,102;,
  4;100,100,100,100;,
  4;106,106,106,106;,
  4;102,102,102,102;,
  4;108,108,108,108;,
  4;106,106,106,106;,
  4;119,119,119,119;,
  4;104,104,104,104;,
  4;102,102,102,102;,
  4;102,102,102,102;,
  4;104,104,104,104;,
  4;104,104,104,104;,
  4;100,100,100,100;,
  4;106,106,106,106;,
  4;106,106,106,106;,
  4;102,102,102,102;,
  4;109,109,109,109;,
  4;106,106,106,106;,
  4;108,108,108,108;,
  4;100,100,100,100;,
  4;120,121,129,128;,
  4;121,122,130,129;,
  4;122,123,131,130;,
  4;123,124,132,131;,
  4;124,125,133,132;,
  4;125,126,134,133;,
  4;126,127,135,134;,
  4;127,120,128,135;,
  3;136,136,136;,
  3;136,136,136;,
  3;136,136,136;,
  3;136,136,136;,
  3;136,136,136;,
  3;136,136,136;,
  3;136,136,136;,
  3;136,136,136;,
  4;138,139,121,120;,
  3;137,139,138;,
  4;139,140,122,121;,
  3;137,140,139;,
  4;140,141,123,122;,
  3;137,141,140;,
  4;141,142,124,123;,
  3;137,142,141;,
  4;142,143,125,124;,
  3;137,143,142;,
  4;143,144,126,125;,
  3;137,144,143;,
  4;144,145,127,126;,
  3;137,145,144;,
  4;145,138,120,127;,
  3;137,138,145;,
  4;137,137,137,137;,
  4;136,136,136,136;,
  4;130,130,130,130;,
  4;132,132,132,132;,
  4;134,134,134,134;,
  4;130,130,130,130;,
  4;136,136,136,136;,
  4;134,134,134,134;,
  4;146,146,146,146;,
  4;128,128,128,128;,
  4;130,130,130,130;,
  4;130,130,130,130;,
  4;128,128,128,128;,
  4;128,128,128,128;,
  4;132,132,132,132;,
  4;134,134,134,134;,
  4;134,134,134,134;,
  4;130,130,130,130;,
  4;137,137,137,137;,
  4;134,134,134,134;,
  4;136,136,136,136;,
  4;132,132,132,132;,
  4;128,128,128,128;,
  4;130,130,130,130;,
  4;132,132,132,132;,
  4;134,134,134,134;,
  4;137,137,137,137;,
  4;136,136,136,136;,
  4;128,128,128,128;,
  4;134,134,134,134;,
  4;132,132,132,132;,
  4;130,130,130,130;,
  4;137,137,137,137;,
  4;136,136,136,136;,
  4;137,137,137,137;,
  4;136,136,136,136;,
  4;130,130,130,130;,
  4;128,128,128,128;,
  4;134,134,134,134;,
  4;130,130,130,130;,
  4;136,136,136,136;,
  4;134,134,134,134;,
  4;147,147,147,147;,
  4;132,132,132,132;,
  4;130,130,130,130;,
  4;130,130,130,130;,
  4;132,132,132,132;,
  4;132,132,132,132;,
  4;128,128,128,128;,
  4;134,134,134,134;,
  4;134,134,134,134;,
  4;130,130,130,130;,
  4;137,137,137,137;,
  4;134,134,134,134;,
  4;136,136,136,136;,
  4;128,128,128,128;;
 }
 MeshTextureCoords {
  855;
  0.000000;0.000000;,
  0.125000;0.000000;,
  0.125000;1.000000;,
  0.000000;1.000000;,
  0.250000;0.000000;,
  0.250000;1.000000;,
  0.375000;0.000000;,
  0.375000;1.000000;,
  0.500000;0.000000;,
  0.500000;1.000000;,
  0.625000;0.000000;,
  0.625000;1.000000;,
  0.750000;0.000000;,
  0.750000;1.000000;,
  0.875000;0.000000;,
  0.875000;1.000000;,
  1.000000;0.000000;,
  1.000000;1.000000;,
  0.062500;1.000000;,
  0.187500;1.000000;,
  0.312500;1.000000;,
  0.437500;1.000000;,
  0.562500;1.000000;,
  0.687500;1.000000;,
  0.812500;1.000000;,
  0.937500;1.000000;,
  0.000000;0.000000;,
  0.125000;0.000000;,
  0.062500;0.000000;,
  0.250000;0.000000;,
  0.187500;0.000000;,
  0.375000;0.000000;,
  0.312500;0.000000;,
  0.500000;0.000000;,
  0.437500;0.000000;,
  0.625000;0.000000;,
  0.562500;0.000000;,
  0.750000;0.000000;,
  0.687500;0.000000;,
  0.875000;0.000000;,
  0.812500;0.000000;,
  1.000000;0.000000;,
  0.937500;0.000000;,
  0.000000;0.000000;,
  1.000000;0.000000;,
  1.000000;1.000000;,
  0.000000;1.000000;,
  0.000000;0.000000;,
  1.000000;0.000000;,
  1.000000;1.000000;,
  0.000000;1.000000;,
  0.000000;0.770510;,
  1.000000;0.770510;,
  0.000000;1.000000;,
  0.000000;0.770510;,
  1.000000;0.770510;,
  1.000000;1.000000;,
  0.000000;1.000000;,
  1.000000;0.770510;,
  1.000000;1.000000;,
  0.000000;0.770510;,
  1.000000;1.000000;,
  1.000000;0.770510;,
  1.000000;0.770510;,
  1.000000;1.000000;,
  0.000000;1.000000;,
  0.000000;1.000000;,
  0.000000;0.770510;,
  0.000000;0.770510;,
  0.000000;0.118700;,
  0.000000;0.000000;,
  1.000000;0.118700;,
  1.000000;0.118700;,
  0.000000;0.118700;,
  0.000000;0.000000;,
  1.000000;0.000000;,
  0.000000;0.118700;,
  1.000000;0.118700;,
  1.000000;0.118700;,
  0.000000;0.118700;,
  1.000000;0.000000;,
  0.000000;0.000000;,
  0.000000;0.118700;,
  0.000000;0.000000;,
  1.000000;0.000000;,
  1.000000;0.000000;,
  1.000000;0.118700;,
  0.000000;0.000000;,
  1.000000;0.000000;,
  1.000000;1.000000;,
  0.000000;1.000000;,
  0.000000;0.000000;,
  1.000000;0.000000;,
  1.000000;1.000000;,
  0.000000;1.000000;,
  0.000000;0.000000;,
  1.000000;0.000000;,
  1.000000;1.000000;,
  0.000000;1.000000;,
  0.000000;0.000000;,
  1.000000;0.000000;,
  1.000000;1.000000;,
  0.000000;1.000000;,
  1.000000;1.000000;,
  0.000000;1.000000;,
  0.000000;0.000000;,
  1.000000;0.000000;,
  0.000000;0.000000;,
  0.000000;1.000000;,
  1.000000;1.000000;,
  1.000000;0.000000;,
  0.000000;0.000000;,
  0.000000;1.000000;,
  1.000000;1.000000;,
  1.000000;0.000000;,
  0.000000;0.000000;,
  0.000000;1.000000;,
  1.000000;1.000000;,
  1.000000;0.000000;,
  0.000000;0.000000;,
  0.000000;1.000000;,
  1.000000;1.000000;,
  1.000000;0.000000;,
  0.000000;1.000000;,
  1.000000;1.000000;,
  0.000000;0.000000;,
  1.000000;0.000000;,
  0.000000;0.000000;,
  0.000000;1.000000;,
  1.000000;1.000000;,
  1.000000;0.000000;,
  0.000000;0.000000;,
  0.000000;1.000000;,
  1.000000;1.000000;,
  1.000000;0.000000;,
  0.000000;0.770510;,
  0.000000;1.000000;,
  1.000000;0.770510;,
  0.000000;0.770510;,
  0.000000;1.000000;,
  1.000000;1.000000;,
  1.000000;0.770510;,
  1.000000;0.770510;,
  0.000000;0.770510;,
  1.000000;1.000000;,
  1.000000;1.000000;,
  1.000000;1.000000;,
  1.000000;0.770510;,
  1.000000;0.770510;,
  0.000000;1.000000;,
  0.000000;1.000000;,
  0.000000;0.770510;,
  0.000000;0.770510;,
  0.000000;0.118700;,
  1.000000;0.118700;,
  0.000000;0.000000;,
  1.000000;0.118700;,
  0.000000;0.118700;,
  1.000000;0.000000;,
  0.000000;0.000000;,
  0.000000;0.118700;,
  1.000000;0.118700;,
  1.000000;0.118700;,
  0.000000;0.118700;,
  1.000000;0.000000;,
  0.000000;0.000000;,
  0.000000;0.000000;,
  0.000000;0.118700;,
  1.000000;0.000000;,
  1.000000;0.000000;,
  1.000000;0.118700;,
  0.000000;0.000000;,
  0.125000;0.000000;,
  0.125000;1.000000;,
  0.000000;1.000000;,
  0.250000;0.000000;,
  0.250000;1.000000;,
  0.375000;0.000000;,
  0.375000;1.000000;,
  0.500000;0.000000;,
  0.500000;1.000000;,
  0.625000;0.000000;,
  0.625000;1.000000;,
  0.750000;0.000000;,
  0.750000;1.000000;,
  0.875000;0.000000;,
  0.875000;1.000000;,
  1.000000;0.000000;,
  1.000000;1.000000;,
  0.062500;1.000000;,
  0.187500;1.000000;,
  0.312500;1.000000;,
  0.437500;1.000000;,
  0.562500;1.000000;,
  0.687500;1.000000;,
  0.812500;1.000000;,
  0.937500;1.000000;,
  0.000000;0.000000;,
  0.125000;0.000000;,
  0.062500;0.000000;,
  0.250000;0.000000;,
  0.187500;0.000000;,
  0.375000;0.000000;,
  0.312500;0.000000;,
  0.500000;0.000000;,
  0.437500;0.000000;,
  0.625000;0.000000;,
  0.562500;0.000000;,
  0.750000;0.000000;,
  0.687500;0.000000;,
  0.875000;0.000000;,
  0.812500;0.000000;,
  1.000000;0.000000;,
  0.937500;0.000000;,
  0.000000;0.000000;,
  1.000000;0.000000;,
  1.000000;1.000000;,
  0.000000;1.000000;,
  0.000000;0.000000;,
  1.000000;0.000000;,
  1.000000;1.000000;,
  0.000000;1.000000;,
  0.000000;0.770510;,
  1.000000;0.770510;,
  0.000000;1.000000;,
  0.000000;0.770510;,
  1.000000;0.770510;,
  1.000000;1.000000;,
  0.000000;1.000000;,
  1.000000;0.770510;,
  1.000000;1.000000;,
  0.000000;0.770510;,
  1.000000;1.000000;,
  1.000000;0.770510;,
  1.000000;0.770510;,
  1.000000;1.000000;,
  0.000000;1.000000;,
  0.000000;1.000000;,
  0.000000;0.770510;,
  0.000000;0.770510;,
  0.000000;0.118700;,
  0.000000;0.000000;,
  1.000000;0.118700;,
  1.000000;0.118700;,
  0.000000;0.118700;,
  0.000000;0.000000;,
  1.000000;0.000000;,
  0.000000;0.118700;,
  1.000000;0.118700;,
  1.000000;0.118700;,
  0.000000;0.118700;,
  1.000000;0.000000;,
  0.000000;0.000000;,
  0.000000;0.118700;,
  0.000000;0.000000;,
  1.000000;0.000000;,
  1.000000;0.000000;,
  1.000000;0.118700;,
  0.000000;0.000000;,
  1.000000;0.000000;,
  1.000000;1.000000;,
  0.000000;1.000000;,
  0.000000;0.000000;,
  1.000000;0.000000;,
  1.000000;1.000000;,
  0.000000;1.000000;,
  0.000000;0.000000;,
  1.000000;0.000000;,
  1.000000;1.000000;,
  0.000000;1.000000;,
  0.000000;0.000000;,
  1.000000;0.000000;,
  1.000000;1.000000;,
  0.000000;1.000000;,
  1.000000;1.000000;,
  0.000000;1.000000;,
  0.000000;0.000000;,
  1.000000;0.000000;,
  0.000000;0.000000;,
  0.000000;1.000000;,
  1.000000;1.000000;,
  1.000000;0.000000;,
  0.000000;0.000000;,
  0.000000;1.000000;,
  1.000000;1.000000;,
  1.000000;0.000000;,
  0.000000;0.000000;,
  0.000000;1.000000;,
  1.000000;1.000000;,
  1.000000;0.000000;,
  0.000000;0.000000;,
  0.000000;1.000000;,
  1.000000;1.000000;,
  1.000000;0.000000;,
  0.000000;1.000000;,
  1.000000;1.000000;,
  0.000000;0.000000;,
  1.000000;0.000000;,
  0.000000;0.000000;,
  0.000000;1.000000;,
  1.000000;1.000000;,
  1.000000;0.000000;,
  0.000000;0.000000;,
  0.000000;1.000000;,
  1.000000;1.000000;,
  1.000000;0.000000;,
  0.000000;0.770510;,
  0.000000;1.000000;,
  1.000000;0.770510;,
  0.000000;0.770510;,
  0.000000;1.000000;,
  1.000000;1.000000;,
  1.000000;0.770510;,
  1.000000;0.770510;,
  0.000000;0.770510;,
  1.000000;1.000000;,
  1.000000;1.000000;,
  1.000000;1.000000;,
  1.000000;0.770510;,
  1.000000;0.770510;,
  0.000000;1.000000;,
  0.000000;1.000000;,
  0.000000;0.770510;,
  0.000000;0.770510;,
  0.000000;0.118700;,
  1.000000;0.118700;,
  0.000000;0.000000;,
  1.000000;0.118700;,
  0.000000;0.118700;,
  1.000000;0.000000;,
  0.000000;0.000000;,
  0.000000;0.118700;,
  1.000000;0.118700;,
  1.000000;0.118700;,
  0.000000;0.118700;,
  1.000000;0.000000;,
  0.000000;0.000000;,
  0.000000;0.000000;,
  0.000000;0.118700;,
  1.000000;0.000000;,
  1.000000;0.000000;,
  1.000000;0.118700;,
  0.000000;0.000000;,
  0.125000;0.000000;,
  0.125000;1.000000;,
  0.000000;1.000000;,
  0.250000;0.000000;,
  0.250000;1.000000;,
  0.375000;0.000000;,
  0.375000;1.000000;,
  0.500000;0.000000;,
  0.500000;1.000000;,
  0.625000;0.000000;,
  0.625000;1.000000;,
  0.750000;0.000000;,
  0.750000;1.000000;,
  0.875000;0.000000;,
  0.875000;1.000000;,
  1.000000;0.000000;,
  1.000000;1.000000;,
  0.062500;1.000000;,
  0.187500;1.000000;,
  0.312500;1.000000;,
  0.437500;1.000000;,
  0.562500;1.000000;,
  0.687500;1.000000;,
  0.812500;1.000000;,
  0.937500;1.000000;,
  0.000000;0.000000;,
  0.125000;0.000000;,
  0.062500;0.000000;,
  0.250000;0.000000;,
  0.187500;0.000000;,
  0.375000;0.000000;,
  0.312500;0.000000;,
  0.500000;0.000000;,
  0.437500;0.000000;,
  0.625000;0.000000;,
  0.562500;0.000000;,
  0.750000;0.000000;,
  0.687500;0.000000;,
  0.875000;0.000000;,
  0.812500;0.000000;,
  1.000000;0.000000;,
  0.937500;0.000000;,
  0.000000;0.000000;,
  1.000000;0.000000;,
  1.000000;1.000000;,
  0.000000;1.000000;,
  0.000000;0.000000;,
  1.000000;0.000000;,
  1.000000;1.000000;,
  0.000000;1.000000;,
  0.000000;0.770510;,
  1.000000;0.770510;,
  0.000000;1.000000;,
  0.000000;0.770510;,
  1.000000;0.770510;,
  1.000000;1.000000;,
  0.000000;1.000000;,
  1.000000;0.770510;,
  1.000000;1.000000;,
  0.000000;0.770510;,
  1.000000;1.000000;,
  1.000000;0.770510;,
  1.000000;0.770510;,
  1.000000;1.000000;,
  0.000000;1.000000;,
  0.000000;1.000000;,
  0.000000;0.770510;,
  0.000000;0.770510;,
  0.000000;0.118700;,
  0.000000;0.000000;,
  1.000000;0.118700;,
  1.000000;0.118700;,
  0.000000;0.118700;,
  0.000000;0.000000;,
  1.000000;0.000000;,
  0.000000;0.118700;,
  1.000000;0.118700;,
  1.000000;0.118700;,
  0.000000;0.118700;,
  1.000000;0.000000;,
  0.000000;0.000000;,
  0.000000;0.118700;,
  0.000000;0.000000;,
  1.000000;0.000000;,
  1.000000;0.000000;,
  1.000000;0.118700;,
  0.000000;0.000000;,
  1.000000;0.000000;,
  1.000000;1.000000;,
  0.000000;1.000000;,
  0.000000;0.000000;,
  1.000000;0.000000;,
  1.000000;1.000000;,
  0.000000;1.000000;,
  0.000000;0.000000;,
  1.000000;0.000000;,
  1.000000;1.000000;,
  0.000000;1.000000;,
  0.000000;0.000000;,
  1.000000;0.000000;,
  1.000000;1.000000;,
  0.000000;1.000000;,
  1.000000;1.000000;,
  0.000000;1.000000;,
  0.000000;0.000000;,
  1.000000;0.000000;,
  0.000000;0.000000;,
  0.000000;1.000000;,
  1.000000;1.000000;,
  1.000000;0.000000;,
  0.000000;0.000000;,
  0.000000;1.000000;,
  1.000000;1.000000;,
  1.000000;0.000000;,
  0.000000;0.000000;,
  0.000000;1.000000;,
  1.000000;1.000000;,
  1.000000;0.000000;,
  0.000000;0.000000;,
  0.000000;1.000000;,
  1.000000;1.000000;,
  1.000000;0.000000;,
  0.000000;1.000000;,
  1.000000;1.000000;,
  0.000000;0.000000;,
  1.000000;0.000000;,
  0.000000;0.000000;,
  0.000000;1.000000;,
  1.000000;1.000000;,
  1.000000;0.000000;,
  0.000000;0.000000;,
  0.000000;1.000000;,
  1.000000;1.000000;,
  1.000000;0.000000;,
  0.000000;0.770510;,
  0.000000;1.000000;,
  1.000000;0.770510;,
  0.000000;0.770510;,
  0.000000;1.000000;,
  1.000000;1.000000;,
  1.000000;0.770510;,
  1.000000;0.770510;,
  0.000000;0.770510;,
  1.000000;1.000000;,
  1.000000;1.000000;,
  1.000000;1.000000;,
  1.000000;0.770510;,
  1.000000;0.770510;,
  0.000000;1.000000;,
  0.000000;1.000000;,
  0.000000;0.770510;,
  0.000000;0.770510;,
  0.000000;0.118700;,
  1.000000;0.118700;,
  0.000000;0.000000;,
  1.000000;0.118700;,
  0.000000;0.118700;,
  1.000000;0.000000;,
  0.000000;0.000000;,
  0.000000;0.118700;,
  1.000000;0.118700;,
  1.000000;0.118700;,
  0.000000;0.118700;,
  1.000000;0.000000;,
  0.000000;0.000000;,
  0.000000;0.000000;,
  0.000000;0.118700;,
  1.000000;0.000000;,
  1.000000;0.000000;,
  1.000000;0.118700;,
  0.000000;0.000000;,
  0.125000;0.000000;,
  0.125000;1.000000;,
  0.000000;1.000000;,
  0.250000;0.000000;,
  0.250000;1.000000;,
  0.375000;0.000000;,
  0.375000;1.000000;,
  0.500000;0.000000;,
  0.500000;1.000000;,
  0.625000;0.000000;,
  0.625000;1.000000;,
  0.750000;0.000000;,
  0.750000;1.000000;,
  0.875000;0.000000;,
  0.875000;1.000000;,
  1.000000;0.000000;,
  1.000000;1.000000;,
  0.062500;1.000000;,
  0.187500;1.000000;,
  0.312500;1.000000;,
  0.437500;1.000000;,
  0.562500;1.000000;,
  0.687500;1.000000;,
  0.812500;1.000000;,
  0.937500;1.000000;,
  0.000000;0.000000;,
  0.125000;0.000000;,
  0.062500;0.000000;,
  0.250000;0.000000;,
  0.187500;0.000000;,
  0.375000;0.000000;,
  0.312500;0.000000;,
  0.500000;0.000000;,
  0.437500;0.000000;,
  0.625000;0.000000;,
  0.562500;0.000000;,
  0.750000;0.000000;,
  0.687500;0.000000;,
  0.875000;0.000000;,
  0.812500;0.000000;,
  1.000000;0.000000;,
  0.937500;0.000000;,
  0.000000;0.000000;,
  1.000000;0.000000;,
  1.000000;1.000000;,
  0.000000;1.000000;,
  0.000000;0.000000;,
  1.000000;0.000000;,
  1.000000;1.000000;,
  0.000000;1.000000;,
  0.000000;0.770510;,
  1.000000;0.770510;,
  0.000000;1.000000;,
  0.000000;0.770510;,
  1.000000;0.770510;,
  1.000000;1.000000;,
  0.000000;1.000000;,
  1.000000;0.770510;,
  1.000000;1.000000;,
  0.000000;0.770510;,
  1.000000;1.000000;,
  1.000000;0.770510;,
  1.000000;0.770510;,
  1.000000;1.000000;,
  0.000000;1.000000;,
  0.000000;1.000000;,
  0.000000;0.770510;,
  0.000000;0.770510;,
  0.000000;0.118700;,
  0.000000;0.000000;,
  1.000000;0.118700;,
  1.000000;0.118700;,
  0.000000;0.118700;,
  0.000000;0.000000;,
  1.000000;0.000000;,
  0.000000;0.118700;,
  1.000000;0.118700;,
  1.000000;0.118700;,
  0.000000;0.118700;,
  1.000000;0.000000;,
  0.000000;0.000000;,
  0.000000;0.118700;,
  0.000000;0.000000;,
  1.000000;0.000000;,
  1.000000;0.000000;,
  1.000000;0.118700;,
  0.000000;0.000000;,
  1.000000;0.000000;,
  1.000000;1.000000;,
  0.000000;1.000000;,
  0.000000;0.000000;,
  1.000000;0.000000;,
  1.000000;1.000000;,
  0.000000;1.000000;,
  0.000000;0.000000;,
  1.000000;0.000000;,
  1.000000;1.000000;,
  0.000000;1.000000;,
  0.000000;0.000000;,
  1.000000;0.000000;,
  1.000000;1.000000;,
  0.000000;1.000000;,
  1.000000;1.000000;,
  0.000000;1.000000;,
  0.000000;0.000000;,
  1.000000;0.000000;,
  0.000000;0.000000;,
  0.000000;1.000000;,
  1.000000;1.000000;,
  1.000000;0.000000;,
  0.000000;0.000000;,
  0.000000;1.000000;,
  1.000000;1.000000;,
  1.000000;0.000000;,
  0.000000;0.000000;,
  0.000000;1.000000;,
  1.000000;1.000000;,
  1.000000;0.000000;,
  0.000000;0.000000;,
  0.000000;1.000000;,
  1.000000;1.000000;,
  1.000000;0.000000;,
  0.000000;1.000000;,
  1.000000;1.000000;,
  0.000000;0.000000;,
  1.000000;0.000000;,
  0.000000;0.000000;,
  0.000000;1.000000;,
  1.000000;1.000000;,
  1.000000;0.000000;,
  0.000000;0.000000;,
  0.000000;1.000000;,
  1.000000;1.000000;,
  1.000000;0.000000;,
  0.000000;0.770510;,
  0.000000;1.000000;,
  1.000000;0.770510;,
  0.000000;0.770510;,
  0.000000;1.000000;,
  1.000000;1.000000;,
  1.000000;0.770510;,
  1.000000;0.770510;,
  0.000000;0.770510;,
  1.000000;1.000000;,
  1.000000;1.000000;,
  1.000000;1.000000;,
  1.000000;0.770510;,
  1.000000;0.770510;,
  0.000000;1.000000;,
  0.000000;1.000000;,
  0.000000;0.770510;,
  0.000000;0.770510;,
  0.000000;0.118700;,
  1.000000;0.118700;,
  0.000000;0.000000;,
  1.000000;0.118700;,
  0.000000;0.118700;,
  1.000000;0.000000;,
  0.000000;0.000000;,
  0.000000;0.118700;,
  1.000000;0.118700;,
  1.000000;0.118700;,
  0.000000;0.118700;,
  1.000000;0.000000;,
  0.000000;0.000000;,
  0.000000;0.000000;,
  0.000000;0.118700;,
  1.000000;0.000000;,
  1.000000;0.000000;,
  1.000000;0.118700;,
  0.000000;0.000000;,
  0.125000;0.000000;,
  0.125000;1.000000;,
  0.000000;1.000000;,
  0.250000;0.000000;,
  0.250000;1.000000;,
  0.375000;0.000000;,
  0.375000;1.000000;,
  0.500000;0.000000;,
  0.500000;1.000000;,
  0.625000;0.000000;,
  0.625000;1.000000;,
  0.750000;0.000000;,
  0.750000;1.000000;,
  0.875000;0.000000;,
  0.875000;1.000000;,
  1.000000;0.000000;,
  1.000000;1.000000;,
  0.062500;1.000000;,
  0.187500;1.000000;,
  0.312500;1.000000;,
  0.437500;1.000000;,
  0.562500;1.000000;,
  0.687500;1.000000;,
  0.812500;1.000000;,
  0.937500;1.000000;,
  0.000000;0.000000;,
  0.125000;0.000000;,
  0.062500;0.000000;,
  0.250000;0.000000;,
  0.187500;0.000000;,
  0.375000;0.000000;,
  0.312500;0.000000;,
  0.500000;0.000000;,
  0.437500;0.000000;,
  0.625000;0.000000;,
  0.562500;0.000000;,
  0.750000;0.000000;,
  0.687500;0.000000;,
  0.875000;0.000000;,
  0.812500;0.000000;,
  1.000000;0.000000;,
  0.937500;0.000000;,
  0.000000;0.000000;,
  1.000000;0.000000;,
  1.000000;1.000000;,
  0.000000;1.000000;,
  0.000000;0.000000;,
  1.000000;0.000000;,
  1.000000;1.000000;,
  0.000000;1.000000;,
  0.000000;0.770510;,
  1.000000;0.770510;,
  0.000000;1.000000;,
  0.000000;0.770510;,
  1.000000;0.770510;,
  1.000000;1.000000;,
  0.000000;1.000000;,
  1.000000;0.770510;,
  1.000000;1.000000;,
  0.000000;0.770510;,
  1.000000;1.000000;,
  1.000000;0.770510;,
  1.000000;0.770510;,
  1.000000;1.000000;,
  0.000000;1.000000;,
  0.000000;1.000000;,
  0.000000;0.770510;,
  0.000000;0.770510;,
  0.000000;0.118700;,
  0.000000;0.000000;,
  1.000000;0.118700;,
  1.000000;0.118700;,
  0.000000;0.118700;,
  0.000000;0.000000;,
  1.000000;0.000000;,
  0.000000;0.118700;,
  1.000000;0.118700;,
  1.000000;0.118700;,
  0.000000;0.118700;,
  1.000000;0.000000;,
  0.000000;0.000000;,
  0.000000;0.118700;,
  0.000000;0.000000;,
  1.000000;0.000000;,
  1.000000;0.000000;,
  1.000000;0.118700;,
  0.000000;0.000000;,
  1.000000;0.000000;,
  1.000000;1.000000;,
  0.000000;1.000000;,
  0.000000;0.000000;,
  1.000000;0.000000;,
  1.000000;1.000000;,
  0.000000;1.000000;,
  0.000000;0.000000;,
  1.000000;0.000000;,
  1.000000;1.000000;,
  0.000000;1.000000;,
  0.000000;0.000000;,
  1.000000;0.000000;,
  1.000000;1.000000;,
  0.000000;1.000000;,
  1.000000;1.000000;,
  0.000000;1.000000;,
  0.000000;0.000000;,
  1.000000;0.000000;,
  0.000000;0.000000;,
  0.000000;1.000000;,
  1.000000;1.000000;,
  1.000000;0.000000;,
  0.000000;0.000000;,
  0.000000;1.000000;,
  1.000000;1.000000;,
  1.000000;0.000000;,
  0.000000;0.000000;,
  0.000000;1.000000;,
  1.000000;1.000000;,
  1.000000;0.000000;,
  0.000000;0.000000;,
  0.000000;1.000000;,
  1.000000;1.000000;,
  1.000000;0.000000;,
  0.000000;1.000000;,
  1.000000;1.000000;,
  0.000000;0.000000;,
  1.000000;0.000000;,
  0.000000;0.000000;,
  0.000000;1.000000;,
  1.000000;1.000000;,
  1.000000;0.000000;,
  0.000000;0.000000;,
  0.000000;1.000000;,
  1.000000;1.000000;,
  1.000000;0.000000;,
  0.000000;0.770510;,
  0.000000;1.000000;,
  1.000000;0.770510;,
  0.000000;0.770510;,
  0.000000;1.000000;,
  1.000000;1.000000;,
  1.000000;0.770510;,
  1.000000;0.770510;,
  0.000000;0.770510;,
  1.000000;1.000000;,
  1.000000;1.000000;,
  1.000000;1.000000;,
  1.000000;0.770510;,
  1.000000;0.770510;,
  0.000000;1.000000;,
  0.000000;1.000000;,
  0.000000;0.770510;,
  0.000000;0.770510;,
  0.000000;0.118700;,
  1.000000;0.118700;,
  0.000000;0.000000;,
  1.000000;0.118700;,
  0.000000;0.118700;,
  1.000000;0.000000;,
  0.000000;0.000000;,
  0.000000;0.118700;,
  1.000000;0.118700;,
  1.000000;0.118700;,
  0.000000;0.118700;,
  1.000000;0.000000;,
  0.000000;0.000000;,
  0.000000;0.000000;,
  0.000000;0.118700;,
  1.000000;0.000000;,
  1.000000;0.000000;,
  1.000000;0.118700;;
 }
}
