xof 0302txt 0064
template Header {
 <3D82AB43-62DA-11cf-AB39-0020AF71E433>
 WORD major;
 WORD minor;
 DWORD flags;
}

template Vector {
 <3D82AB5E-62DA-11cf-AB39-0020AF71E433>
 FLOAT x;
 FLOAT y;
 FLOAT z;
}

template Coords2d {
 <F6F23F44-7686-11cf-8F52-0040333594A3>
 FLOAT u;
 FLOAT v;
}

template Matrix4x4 {
 <F6F23F45-7686-11cf-8F52-0040333594A3>
 array FLOAT matrix[16];
}

template ColorRGBA {
 <35FF44E0-6C7C-11cf-8F52-0040333594A3>
 FLOAT red;
 FLOAT green;
 FLOAT blue;
 FLOAT alpha;
}

template ColorRGB {
 <D3E16E81-7835-11cf-8F52-0040333594A3>
 FLOAT red;
 FLOAT green;
 FLOAT blue;
}

template IndexedColor {
 <1630B820-7842-11cf-8F52-0040333594A3>
 DWORD index;
 ColorRGBA indexColor;
}

template Boolean {
 <4885AE61-78E8-11cf-8F52-0040333594A3>
 WORD truefalse;
}

template Boolean2d {
 <4885AE63-78E8-11cf-8F52-0040333594A3>
 Boolean u;
 Boolean v;
}

template MaterialWrap {
 <4885AE60-78E8-11cf-8F52-0040333594A3>
 Boolean u;
 Boolean v;
}

template TextureFilename {
 <A42790E1-7810-11cf-8F52-0040333594A3>
 STRING filename;
}

template Material {
 <3D82AB4D-62DA-11cf-AB39-0020AF71E433>
 ColorRGBA faceColor;
 FLOAT power;
 ColorRGB specularColor;
 ColorRGB emissiveColor;
 [...]
}

template MeshFace {
 <3D82AB5F-62DA-11cf-AB39-0020AF71E433>
 DWORD nFaceVertexIndices;
 array DWORD faceVertexIndices[nFaceVertexIndices];
}

template MeshFaceWraps {
 <4885AE62-78E8-11cf-8F52-0040333594A3>
 DWORD nFaceWrapValues;
 Boolean2d faceWrapValues;
}

template MeshTextureCoords {
 <F6F23F40-7686-11cf-8F52-0040333594A3>
 DWORD nTextureCoords;
 array Coords2d textureCoords[nTextureCoords];
}

template MeshMaterialList {
 <F6F23F42-7686-11cf-8F52-0040333594A3>
 DWORD nMaterials;
 DWORD nFaceIndexes;
 array DWORD faceIndexes[nFaceIndexes];
 [Material]
}

template MeshNormals {
 <F6F23F43-7686-11cf-8F52-0040333594A3>
 DWORD nNormals;
 array Vector normals[nNormals];
 DWORD nFaceNormals;
 array MeshFace faceNormals[nFaceNormals];
}

template MeshVertexColors {
 <1630B821-7842-11cf-8F52-0040333594A3>
 DWORD nVertexColors;
 array IndexedColor vertexColors[nVertexColors];
}

template Mesh {
 <3D82AB44-62DA-11cf-AB39-0020AF71E433>
 DWORD nVertices;
 array Vector vertices[nVertices];
 DWORD nFaces;
 array MeshFace faces[nFaces];
 [...]
}

Header{
1;
0;
1;
}

Mesh {
 210;
 0.00000;4.23467;10.49651;,
 7.42216;4.23467;7.42216;,
 12.22035;10.13791;12.22035;,
 0.00000;10.13791;17.28216;,
 10.49651;4.23467;-0.00000;,
 17.28216;10.13791;-0.00000;,
 7.42216;4.23467;-7.42217;,
 12.22035;10.02084;-12.22036;,
 -0.00000;4.23467;-10.49652;,
 -0.00000;10.02084;-17.28217;,
 -7.42216;4.23467;-7.42217;,
 -12.22035;10.02084;-12.22035;,
 -10.49651;4.23467;-0.00000;,
 -17.28216;10.13791;-0.00000;,
 -7.42216;4.23467;7.42216;,
 -12.22035;10.13791;12.22035;,
 0.00000;4.23467;10.49651;,
 0.00000;10.13791;17.28216;,
 14.84433;15.92400;14.84432;,
 0.00000;15.92400;20.99302;,
 20.99303;15.92400;-0.00000;,
 14.84433;15.92400;-14.84433;,
 -0.00000;15.92400;-20.99303;,
 -14.84433;15.92400;-14.84433;,
 -20.99303;15.92400;-0.00000;,
 -14.84433;15.92400;14.84432;,
 0.00000;15.92400;20.99302;,
 14.84433;156.72803;14.84433;,
 0.00000;156.72803;20.99303;,
 20.99303;156.72803;0.00000;,
 14.84433;156.72803;-14.84432;,
 -0.00000;156.72803;-20.99303;,
 -14.84433;156.72803;-14.84432;,
 -20.99303;156.72803;0.00000;,
 -14.84433;156.72803;14.84433;,
 0.00000;156.72803;20.99303;,
 12.90953;165.55165;12.90954;,
 0.00000;165.55165;18.25682;,
 18.25682;165.55165;0.00000;,
 12.90953;165.55165;-12.90953;,
 -0.00000;165.55165;-18.25681;,
 -12.90954;165.55165;-12.90953;,
 -18.25682;165.55165;0.00000;,
 -12.90953;165.55165;12.90954;,
 0.00000;165.55165;18.25682;,
 7.42216;171.95203;7.42217;,
 0.00000;171.95203;10.49652;,
 10.49651;171.95203;0.00000;,
 7.42216;171.95203;-7.42216;,
 -0.00000;171.95203;-10.49651;,
 -7.42216;171.95203;-7.42216;,
 -10.49651;171.95203;0.00000;,
 -7.42216;171.95203;7.42217;,
 0.00000;171.95203;10.49652;,
 0.00000;1.25624;-0.00000;,
 0.00000;1.25624;-0.00000;,
 0.00000;1.25624;-0.00000;,
 0.00000;1.25624;-0.00000;,
 0.00000;1.25624;-0.00000;,
 0.00000;1.25624;-0.00000;,
 0.00000;1.25624;-0.00000;,
 0.00000;1.25624;-0.00000;,
 0.00000;176.58725;0.00000;,
 0.00000;176.58725;0.00000;,
 0.00000;176.58725;0.00000;,
 0.00000;176.58725;0.00000;,
 0.00000;176.58725;0.00000;,
 0.00000;176.58725;0.00000;,
 0.00000;176.58725;0.00000;,
 0.00000;176.58725;0.00000;,
 50.00000;4.23467;10.49651;,
 57.42216;4.23467;7.42216;,
 62.22035;10.13791;12.22035;,
 50.00000;10.13791;17.28216;,
 60.49651;4.23467;-0.00000;,
 67.28217;10.13791;-0.00000;,
 57.42216;4.23467;-7.42217;,
 62.22035;10.02084;-12.22036;,
 50.00000;4.23467;-10.49652;,
 50.00000;10.02084;-17.28217;,
 42.57784;4.23467;-7.42217;,
 37.77965;10.02084;-12.22035;,
 39.50349;4.23467;-0.00000;,
 32.71784;10.13791;-0.00000;,
 42.57784;4.23467;7.42216;,
 37.77965;10.13791;12.22035;,
 50.00000;4.23467;10.49651;,
 50.00000;10.13791;17.28216;,
 64.84432;15.92400;14.84432;,
 50.00000;15.92400;20.99302;,
 70.99303;15.92400;-0.00000;,
 64.84432;15.92400;-14.84433;,
 50.00000;15.92400;-20.99303;,
 35.15567;15.92400;-14.84433;,
 29.00697;15.92400;-0.00000;,
 35.15567;15.92400;14.84432;,
 50.00000;15.92400;20.99302;,
 64.84432;156.72803;14.84433;,
 50.00000;156.72803;20.99303;,
 70.99303;156.72803;0.00000;,
 64.84432;156.72803;-14.84432;,
 50.00000;156.72803;-20.99303;,
 35.15567;156.72803;-14.84432;,
 29.00697;156.72803;0.00000;,
 35.15567;156.72803;14.84433;,
 50.00000;156.72803;20.99303;,
 62.90953;165.55165;12.90954;,
 50.00000;165.55165;18.25682;,
 68.25682;165.55165;0.00000;,
 62.90953;165.55165;-12.90953;,
 50.00000;165.55165;-18.25681;,
 37.09046;165.55165;-12.90953;,
 31.74318;165.55165;0.00000;,
 37.09047;165.55165;12.90954;,
 50.00000;165.55165;18.25682;,
 57.42216;171.95203;7.42217;,
 50.00000;171.95203;10.49652;,
 60.49651;171.95203;0.00000;,
 57.42216;171.95203;-7.42216;,
 50.00000;171.95203;-10.49651;,
 42.57784;171.95203;-7.42216;,
 39.50349;171.95203;0.00000;,
 42.57784;171.95203;7.42217;,
 50.00000;171.95203;10.49652;,
 50.00000;1.25624;-0.00000;,
 50.00000;1.25624;-0.00000;,
 50.00000;1.25624;-0.00000;,
 50.00000;1.25624;-0.00000;,
 50.00000;1.25624;-0.00000;,
 50.00000;1.25624;-0.00000;,
 50.00000;1.25624;-0.00000;,
 50.00000;1.25624;-0.00000;,
 50.00000;176.58725;0.00000;,
 50.00000;176.58725;0.00000;,
 50.00000;176.58725;0.00000;,
 50.00000;176.58725;0.00000;,
 50.00000;176.58725;0.00000;,
 50.00000;176.58725;0.00000;,
 50.00000;176.58725;0.00000;,
 50.00000;176.58725;0.00000;,
 -50.00000;4.23467;10.49651;,
 -42.57784;4.23467;7.42216;,
 -37.77965;10.13791;12.22035;,
 -50.00000;10.13791;17.28216;,
 -39.50349;4.23467;-0.00000;,
 -32.71784;10.13791;-0.00000;,
 -42.57784;4.23467;-7.42217;,
 -37.77965;10.02084;-12.22036;,
 -50.00000;4.23467;-10.49652;,
 -50.00000;10.02084;-17.28217;,
 -57.42216;4.23467;-7.42217;,
 -62.22035;10.02084;-12.22035;,
 -60.49651;4.23467;-0.00000;,
 -67.28217;10.13791;-0.00000;,
 -57.42216;4.23467;7.42216;,
 -62.22035;10.13791;12.22035;,
 -50.00000;4.23467;10.49651;,
 -50.00000;10.13791;17.28216;,
 -35.15567;15.92400;14.84432;,
 -50.00000;15.92400;20.99302;,
 -29.00697;15.92400;-0.00000;,
 -35.15567;15.92400;-14.84433;,
 -50.00000;15.92400;-20.99303;,
 -64.84433;15.92400;-14.84433;,
 -70.99303;15.92400;-0.00000;,
 -64.84432;15.92400;14.84432;,
 -50.00000;15.92400;20.99302;,
 -35.15567;156.72803;14.84433;,
 -50.00000;156.72803;20.99303;,
 -29.00697;156.72803;0.00000;,
 -35.15567;156.72803;-14.84432;,
 -50.00000;156.72803;-20.99303;,
 -64.84433;156.72803;-14.84432;,
 -70.99303;156.72803;0.00000;,
 -64.84432;156.72803;14.84433;,
 -50.00000;156.72803;20.99303;,
 -37.09047;165.55165;12.90954;,
 -50.00000;165.55165;18.25682;,
 -31.74318;165.55165;0.00000;,
 -37.09047;165.55165;-12.90953;,
 -50.00000;165.55165;-18.25681;,
 -62.90954;165.55165;-12.90953;,
 -68.25682;165.55165;0.00000;,
 -62.90953;165.55165;12.90954;,
 -50.00000;165.55165;18.25682;,
 -42.57784;171.95203;7.42217;,
 -50.00000;171.95203;10.49652;,
 -39.50349;171.95203;0.00000;,
 -42.57784;171.95203;-7.42216;,
 -50.00000;171.95203;-10.49651;,
 -57.42216;171.95203;-7.42216;,
 -60.49651;171.95203;0.00000;,
 -57.42216;171.95203;7.42217;,
 -50.00000;171.95203;10.49652;,
 -50.00000;1.25624;-0.00000;,
 -50.00000;1.25624;-0.00000;,
 -50.00000;1.25624;-0.00000;,
 -50.00000;1.25624;-0.00000;,
 -50.00000;1.25624;-0.00000;,
 -50.00000;1.25624;-0.00000;,
 -50.00000;1.25624;-0.00000;,
 -50.00000;1.25624;-0.00000;,
 -50.00000;176.58725;0.00000;,
 -50.00000;176.58725;0.00000;,
 -50.00000;176.58725;0.00000;,
 -50.00000;176.58725;0.00000;,
 -50.00000;176.58725;0.00000;,
 -50.00000;176.58725;0.00000;,
 -50.00000;176.58725;0.00000;,
 -50.00000;176.58725;0.00000;;
 
 168;
 4;0,1,2,3;,
 4;1,4,5,2;,
 4;4,6,7,5;,
 4;6,8,9,7;,
 4;8,10,11,9;,
 4;10,12,13,11;,
 4;12,14,15,13;,
 4;14,16,17,15;,
 4;3,2,18,19;,
 4;2,5,20,18;,
 4;5,7,21,20;,
 4;7,9,22,21;,
 4;9,11,23,22;,
 4;11,13,24,23;,
 4;13,15,25,24;,
 4;15,17,26,25;,
 4;19,18,27,28;,
 4;18,20,29,27;,
 4;20,21,30,29;,
 4;21,22,31,30;,
 4;22,23,32,31;,
 4;23,24,33,32;,
 4;24,25,34,33;,
 4;25,26,35,34;,
 4;28,27,36,37;,
 4;27,29,38,36;,
 4;29,30,39,38;,
 4;30,31,40,39;,
 4;31,32,41,40;,
 4;32,33,42,41;,
 4;33,34,43,42;,
 4;34,35,44,43;,
 4;37,36,45,46;,
 4;36,38,47,45;,
 4;38,39,48,47;,
 4;39,40,49,48;,
 4;40,41,50,49;,
 4;41,42,51,50;,
 4;42,43,52,51;,
 4;43,44,53,52;,
 3;54,1,0;,
 3;55,4,1;,
 3;56,6,4;,
 3;57,8,6;,
 3;58,10,8;,
 3;59,12,10;,
 3;60,14,12;,
 3;61,16,14;,
 3;62,46,45;,
 3;63,45,47;,
 3;64,47,48;,
 3;65,48,49;,
 3;66,49,50;,
 3;67,50,51;,
 3;68,51,52;,
 3;69,52,53;,
 4;70,71,72,73;,
 4;71,74,75,72;,
 4;74,76,77,75;,
 4;76,78,79,77;,
 4;78,80,81,79;,
 4;80,82,83,81;,
 4;82,84,85,83;,
 4;84,86,87,85;,
 4;73,72,88,89;,
 4;72,75,90,88;,
 4;75,77,91,90;,
 4;77,79,92,91;,
 4;79,81,93,92;,
 4;81,83,94,93;,
 4;83,85,95,94;,
 4;85,87,96,95;,
 4;89,88,97,98;,
 4;88,90,99,97;,
 4;90,91,100,99;,
 4;91,92,101,100;,
 4;92,93,102,101;,
 4;93,94,103,102;,
 4;94,95,104,103;,
 4;95,96,105,104;,
 4;98,97,106,107;,
 4;97,99,108,106;,
 4;99,100,109,108;,
 4;100,101,110,109;,
 4;101,102,111,110;,
 4;102,103,112,111;,
 4;103,104,113,112;,
 4;104,105,114,113;,
 4;107,106,115,116;,
 4;106,108,117,115;,
 4;108,109,118,117;,
 4;109,110,119,118;,
 4;110,111,120,119;,
 4;111,112,121,120;,
 4;112,113,122,121;,
 4;113,114,123,122;,
 3;124,71,70;,
 3;125,74,71;,
 3;126,76,74;,
 3;127,78,76;,
 3;128,80,78;,
 3;129,82,80;,
 3;130,84,82;,
 3;131,86,84;,
 3;132,116,115;,
 3;133,115,117;,
 3;134,117,118;,
 3;135,118,119;,
 3;136,119,120;,
 3;137,120,121;,
 3;138,121,122;,
 3;139,122,123;,
 4;140,141,142,143;,
 4;141,144,145,142;,
 4;144,146,147,145;,
 4;146,148,149,147;,
 4;148,150,151,149;,
 4;150,152,153,151;,
 4;152,154,155,153;,
 4;154,156,157,155;,
 4;143,142,158,159;,
 4;142,145,160,158;,
 4;145,147,161,160;,
 4;147,149,162,161;,
 4;149,151,163,162;,
 4;151,153,164,163;,
 4;153,155,165,164;,
 4;155,157,166,165;,
 4;159,158,167,168;,
 4;158,160,169,167;,
 4;160,161,170,169;,
 4;161,162,171,170;,
 4;162,163,172,171;,
 4;163,164,173,172;,
 4;164,165,174,173;,
 4;165,166,175,174;,
 4;168,167,176,177;,
 4;167,169,178,176;,
 4;169,170,179,178;,
 4;170,171,180,179;,
 4;171,172,181,180;,
 4;172,173,182,181;,
 4;173,174,183,182;,
 4;174,175,184,183;,
 4;177,176,185,186;,
 4;176,178,187,185;,
 4;178,179,188,187;,
 4;179,180,189,188;,
 4;180,181,190,189;,
 4;181,182,191,190;,
 4;182,183,192,191;,
 4;183,184,193,192;,
 3;194,141,140;,
 3;195,144,141;,
 3;196,146,144;,
 3;197,148,146;,
 3;198,150,148;,
 3;199,152,150;,
 3;200,154,152;,
 3;201,156,154;,
 3;202,186,185;,
 3;203,185,187;,
 3;204,187,188;,
 3;205,188,189;,
 3;206,189,190;,
 3;207,190,191;,
 3;208,191,192;,
 3;209,192,193;;
 
 MeshMaterialList {
  3;
  168;
  0,
  0,
  0,
  0,
  0,
  0,
  0,
  0,
  0,
  0,
  0,
  0,
  0,
  0,
  0,
  0,
  0,
  0,
  0,
  0,
  0,
  0,
  0,
  0,
  0,
  0,
  0,
  0,
  0,
  0,
  0,
  0,
  0,
  0,
  0,
  0,
  0,
  0,
  0,
  0,
  0,
  0,
  0,
  0,
  0,
  0,
  0,
  0,
  0,
  0,
  0,
  0,
  0,
  0,
  0,
  0,
  1,
  1,
  1,
  1,
  1,
  1,
  1,
  1,
  1,
  1,
  1,
  1,
  1,
  1,
  1,
  1,
  1,
  1,
  1,
  1,
  1,
  1,
  1,
  1,
  1,
  1,
  1,
  1,
  1,
  1,
  1,
  1,
  1,
  1,
  1,
  1,
  1,
  1,
  1,
  1,
  1,
  1,
  1,
  1,
  1,
  1,
  1,
  1,
  1,
  1,
  1,
  1,
  1,
  1,
  1,
  1,
  2,
  2,
  2,
  2,
  2,
  2,
  2,
  2,
  2,
  2,
  2,
  2,
  2,
  2,
  2,
  2,
  2,
  2,
  2,
  2,
  2,
  2,
  2,
  2,
  2,
  2,
  2,
  2,
  2,
  2,
  2,
  2,
  2,
  2,
  2,
  2,
  2,
  2,
  2,
  2,
  2,
  2,
  2,
  2,
  2,
  2,
  2,
  2,
  2,
  2,
  2,
  2,
  2,
  2,
  2,
  2;;
  Material {
   0.599216;0.599216;0.599216;1.000000;;
   5.000000;
   0.000000;0.000000;0.000000;;
   0.000000;0.000000;0.000000;;
  }
  Material {
   0.542745;0.693333;0.800000;1.000000;;
   5.000000;
   0.000000;0.000000;0.000000;;
   0.000000;0.000000;0.000000;;
  }
  Material {
   0.765490;0.702745;0.618039;1.000000;;
   5.000000;
   0.000000;0.000000;0.000000;;
   0.000000;0.000000;0.000000;;
  }
 }
 MeshNormals {
  150;
  -0.000000;-1.000000;-0.000000;,
  -0.000000;-0.880938;0.473231;,
  0.334625;-0.880938;0.334625;,
  0.472636;-0.881257;0.001077;,
  0.333217;-0.882656;-0.331489;,
  -0.000000;-0.883195;-0.469006;,
  -0.333217;-0.882656;-0.331489;,
  -0.472636;-0.881257;0.001077;,
  -0.334625;-0.880938;0.334625;,
  -0.000000;-0.654939;0.755682;,
  0.534348;-0.654939;0.534348;,
  0.756056;-0.654506;0.001384;,
  0.535248;-0.655293;-0.533011;,
  -0.000000;-0.655417;-0.755267;,
  -0.535248;-0.655293;-0.533011;,
  -0.756056;-0.654506;0.001384;,
  -0.534348;-0.654939;0.534348;,
  -0.000000;-0.284350;0.958721;,
  0.677918;-0.284350;0.677918;,
  0.959106;-0.283046;0.000310;,
  0.678885;-0.280931;-0.678375;,
  -0.000000;-0.279864;-0.960040;,
  -0.678885;-0.280931;-0.678375;,
  -0.959106;-0.283046;0.000310;,
  -0.677918;-0.284350;0.677918;,
  -0.000000;0.150267;0.988645;,
  0.699078;0.150267;0.699078;,
  0.988645;0.150267;-0.000000;,
  0.699078;0.150267;-0.699078;,
  -0.000000;0.150267;-0.988645;,
  -0.699078;0.150267;-0.699078;,
  -0.988645;0.150267;0.000000;,
  -0.699078;0.150267;0.699078;,
  -0.000000;0.561966;0.827160;,
  0.584890;0.561967;0.584890;,
  0.827160;0.561966;-0.000000;,
  0.584890;0.561967;-0.584890;,
  -0.000000;0.561966;-0.827160;,
  -0.584890;0.561967;-0.584890;,
  -0.827160;0.561966;0.000000;,
  -0.584890;0.561967;0.584890;,
  -0.000000;0.851798;0.523870;,
  0.370432;0.851798;0.370432;,
  0.523870;0.851798;-0.000000;,
  0.370432;0.851798;-0.370432;,
  -0.000000;0.851798;-0.523870;,
  -0.370432;0.851798;-0.370432;,
  -0.523870;0.851798;0.000000;,
  -0.370432;0.851798;0.370432;,
  0.000000;1.000000;0.000000;,
  0.000000;-1.000000;0.000000;,
  -0.000000;-0.880938;0.473231;,
  0.334625;-0.880938;0.334625;,
  0.472220;-0.881480;0.001216;,
  0.332820;-0.882876;-0.331301;,
  0.000000;-0.883195;-0.469006;,
  -0.332820;-0.882876;-0.331301;,
  -0.472220;-0.881480;0.001216;,
  -0.334625;-0.880938;0.334625;,
  -0.000000;-0.654939;0.755682;,
  0.534348;-0.654939;0.534348;,
  0.755729;-0.654882;0.001524;,
  0.534912;-0.655668;-0.532887;,
  0.000000;-0.655417;-0.755267;,
  -0.534912;-0.655668;-0.532887;,
  -0.755729;-0.654882;0.001525;,
  -0.534348;-0.654939;0.534348;,
  -0.000000;-0.284350;0.958721;,
  0.677918;-0.284350;0.677918;,
  0.959106;-0.283046;0.000310;,
  0.678885;-0.280931;-0.678375;,
  0.000000;-0.279864;-0.960040;,
  -0.678885;-0.280931;-0.678375;,
  -0.959106;-0.283046;0.000310;,
  -0.677918;-0.284350;0.677918;,
  -0.000000;0.150267;0.988645;,
  0.699078;0.150267;0.699078;,
  0.988645;0.150267;-0.000000;,
  0.699078;0.150267;-0.699078;,
  -0.000000;0.150267;-0.988645;,
  -0.699078;0.150267;-0.699078;,
  -0.988645;0.150267;0.000000;,
  -0.699078;0.150267;0.699078;,
  -0.000000;0.561966;0.827160;,
  0.584890;0.561967;0.584890;,
  0.827160;0.561966;-0.000000;,
  0.584890;0.561967;-0.584890;,
  -0.000000;0.561966;-0.827160;,
  -0.584890;0.561967;-0.584890;,
  -0.827160;0.561966;0.000000;,
  -0.584890;0.561967;0.584890;,
  -0.000000;0.851798;0.523870;,
  0.370432;0.851798;0.370432;,
  0.523870;0.851798;-0.000000;,
  0.370432;0.851798;-0.370432;,
  0.000000;0.851798;-0.523870;,
  -0.370432;0.851798;-0.370432;,
  -0.523870;0.851798;0.000000;,
  -0.370432;0.851798;0.370432;,
  -0.000000;1.000000;0.000000;,
  0.000000;-1.000000;0.000000;,
  -0.000000;-0.880938;0.473231;,
  0.334625;-0.880938;0.334625;,
  0.472636;-0.881257;0.001077;,
  0.333217;-0.882656;-0.331489;,
  0.000000;-0.883195;-0.469006;,
  -0.332820;-0.882876;-0.331301;,
  -0.472220;-0.881480;0.001216;,
  -0.334625;-0.880938;0.334625;,
  -0.000000;-0.654939;0.755682;,
  0.534348;-0.654939;0.534348;,
  0.756056;-0.654506;0.001384;,
  0.535248;-0.655293;-0.533011;,
  -0.000000;-0.655417;-0.755267;,
  -0.534912;-0.655668;-0.532887;,
  -0.755729;-0.654882;0.001525;,
  -0.534348;-0.654939;0.534348;,
  -0.000000;-0.284350;0.958721;,
  0.677918;-0.284350;0.677918;,
  0.959106;-0.283046;0.000310;,
  0.678885;-0.280931;-0.678375;,
  -0.000000;-0.279864;-0.960040;,
  -0.678886;-0.280931;-0.678375;,
  -0.959106;-0.283046;0.000310;,
  -0.677918;-0.284350;0.677918;,
  -0.000000;0.150267;0.988645;,
  0.699078;0.150267;0.699078;,
  0.988645;0.150267;-0.000000;,
  0.699078;0.150267;-0.699078;,
  -0.000000;0.150267;-0.988645;,
  -0.699078;0.150267;-0.699078;,
  -0.988645;0.150267;0.000000;,
  -0.699078;0.150267;0.699078;,
  -0.000000;0.561966;0.827160;,
  0.584890;0.561967;0.584890;,
  0.827160;0.561967;-0.000000;,
  0.584890;0.561967;-0.584890;,
  -0.000000;0.561966;-0.827160;,
  -0.584890;0.561967;-0.584890;,
  -0.827160;0.561966;0.000000;,
  -0.584890;0.561967;0.584890;,
  -0.000000;0.851798;0.523870;,
  0.370432;0.851798;0.370432;,
  0.523870;0.851798;-0.000000;,
  0.370432;0.851798;-0.370432;,
  0.000000;0.851798;-0.523870;,
  -0.370432;0.851798;-0.370432;,
  -0.523870;0.851798;0.000000;,
  -0.370432;0.851798;0.370432;,
  -0.000000;1.000000;0.000000;;
  168;
  4;1,2,10,9;,
  4;2,3,11,10;,
  4;3,4,12,11;,
  4;4,5,13,12;,
  4;5,6,14,13;,
  4;6,7,15,14;,
  4;7,8,16,15;,
  4;8,1,9,16;,
  4;9,10,18,17;,
  4;10,11,19,18;,
  4;11,12,20,19;,
  4;12,13,21,20;,
  4;13,14,22,21;,
  4;14,15,23,22;,
  4;15,16,24,23;,
  4;16,9,17,24;,
  4;17,18,26,25;,
  4;18,19,27,26;,
  4;19,20,28,27;,
  4;20,21,29,28;,
  4;21,22,30,29;,
  4;22,23,31,30;,
  4;23,24,32,31;,
  4;24,17,25,32;,
  4;25,26,34,33;,
  4;26,27,35,34;,
  4;27,28,36,35;,
  4;28,29,37,36;,
  4;29,30,38,37;,
  4;30,31,39,38;,
  4;31,32,40,39;,
  4;32,25,33,40;,
  4;33,34,42,41;,
  4;34,35,43,42;,
  4;35,36,44,43;,
  4;36,37,45,44;,
  4;37,38,46,45;,
  4;38,39,47,46;,
  4;39,40,48,47;,
  4;40,33,41,48;,
  3;0,2,1;,
  3;0,3,2;,
  3;0,4,3;,
  3;0,5,4;,
  3;0,6,5;,
  3;0,7,6;,
  3;0,8,7;,
  3;0,1,8;,
  3;49,41,42;,
  3;49,42,43;,
  3;49,43,44;,
  3;49,44,45;,
  3;49,45,46;,
  3;49,46,47;,
  3;49,47,48;,
  3;49,48,41;,
  4;51,52,60,59;,
  4;52,53,61,60;,
  4;53,54,62,61;,
  4;54,55,63,62;,
  4;55,56,64,63;,
  4;56,57,65,64;,
  4;57,58,66,65;,
  4;58,51,59,66;,
  4;59,60,68,67;,
  4;60,61,69,68;,
  4;61,62,70,69;,
  4;62,63,71,70;,
  4;63,64,72,71;,
  4;64,65,73,72;,
  4;65,66,74,73;,
  4;66,59,67,74;,
  4;67,68,76,75;,
  4;68,69,77,76;,
  4;69,70,78,77;,
  4;70,71,79,78;,
  4;71,72,80,79;,
  4;72,73,81,80;,
  4;73,74,82,81;,
  4;74,67,75,82;,
  4;75,76,84,83;,
  4;76,77,85,84;,
  4;77,78,86,85;,
  4;78,79,87,86;,
  4;79,80,88,87;,
  4;80,81,89,88;,
  4;81,82,90,89;,
  4;82,75,83,90;,
  4;83,84,92,91;,
  4;84,85,93,92;,
  4;85,86,94,93;,
  4;86,87,95,94;,
  4;87,88,96,95;,
  4;88,89,97,96;,
  4;89,90,98,97;,
  4;90,83,91,98;,
  3;50,52,51;,
  3;50,53,52;,
  3;50,54,53;,
  3;50,55,54;,
  3;50,56,55;,
  3;50,57,56;,
  3;50,58,57;,
  3;50,51,58;,
  3;99,91,92;,
  3;99,92,93;,
  3;99,93,94;,
  3;99,94,95;,
  3;99,95,96;,
  3;99,96,97;,
  3;99,97,98;,
  3;99,98,91;,
  4;101,102,110,109;,
  4;102,103,111,110;,
  4;103,104,112,111;,
  4;104,105,113,112;,
  4;105,106,114,113;,
  4;106,107,115,114;,
  4;107,108,116,115;,
  4;108,101,109,116;,
  4;109,110,118,117;,
  4;110,111,119,118;,
  4;111,112,120,119;,
  4;112,113,121,120;,
  4;113,114,122,121;,
  4;114,115,123,122;,
  4;115,116,124,123;,
  4;116,109,117,124;,
  4;117,118,126,125;,
  4;118,119,127,126;,
  4;119,120,128,127;,
  4;120,121,129,128;,
  4;121,122,130,129;,
  4;122,123,131,130;,
  4;123,124,132,131;,
  4;124,117,125,132;,
  4;125,126,134,133;,
  4;126,127,135,134;,
  4;127,128,136,135;,
  4;128,129,137,136;,
  4;129,130,138,137;,
  4;130,131,139,138;,
  4;131,132,140,139;,
  4;132,125,133,140;,
  4;133,134,142,141;,
  4;134,135,143,142;,
  4;135,136,144,143;,
  4;136,137,145,144;,
  4;137,138,146,145;,
  4;138,139,147,146;,
  4;139,140,148,147;,
  4;140,133,141,148;,
  3;100,102,101;,
  3;100,103,102;,
  3;100,104,103;,
  3;100,105,104;,
  3;100,106,105;,
  3;100,107,106;,
  3;100,108,107;,
  3;100,101,108;,
  3;149,141,142;,
  3;149,142,143;,
  3;149,143,144;,
  3;149,144,145;,
  3;149,145,146;,
  3;149,146,147;,
  3;149,147,148;,
  3;149,148,141;;
 }
 MeshTextureCoords {
  210;
  0.000000;0.000000;,
  0.125000;0.000000;,
  0.125000;0.200000;,
  0.000000;0.200000;,
  0.250000;0.000000;,
  0.250000;0.200000;,
  0.375000;0.000000;,
  0.375000;0.200000;,
  0.500000;0.000000;,
  0.500000;0.200000;,
  0.625000;0.000000;,
  0.625000;0.200000;,
  0.750000;0.000000;,
  0.750000;0.200000;,
  0.875000;0.000000;,
  0.875000;0.200000;,
  1.000000;0.000000;,
  1.000000;0.200000;,
  0.125000;0.400000;,
  0.000000;0.400000;,
  0.250000;0.400000;,
  0.375000;0.400000;,
  0.500000;0.400000;,
  0.625000;0.400000;,
  0.750000;0.400000;,
  0.875000;0.400000;,
  1.000000;0.400000;,
  0.125000;0.600000;,
  0.000000;0.600000;,
  0.250000;0.600000;,
  0.375000;0.600000;,
  0.500000;0.600000;,
  0.625000;0.600000;,
  0.750000;0.600000;,
  0.875000;0.600000;,
  1.000000;0.600000;,
  0.125000;0.800000;,
  0.000000;0.800000;,
  0.250000;0.800000;,
  0.375000;0.800000;,
  0.500000;0.800000;,
  0.625000;0.800000;,
  0.750000;0.800000;,
  0.875000;0.800000;,
  1.000000;0.800000;,
  0.125000;1.000000;,
  0.000000;1.000000;,
  0.250000;1.000000;,
  0.375000;1.000000;,
  0.500000;1.000000;,
  0.625000;1.000000;,
  0.750000;1.000000;,
  0.875000;1.000000;,
  1.000000;1.000000;,
  0.062500;0.000000;,
  0.187500;0.000000;,
  0.312500;0.000000;,
  0.437500;0.000000;,
  0.562500;0.000000;,
  0.687500;0.000000;,
  0.812500;0.000000;,
  0.937500;0.000000;,
  0.062500;1.000000;,
  0.187500;1.000000;,
  0.312500;1.000000;,
  0.437500;1.000000;,
  0.562500;1.000000;,
  0.687500;1.000000;,
  0.812500;1.000000;,
  0.937500;1.000000;,
  0.000000;0.000000;,
  0.125000;0.000000;,
  0.125000;0.200000;,
  0.000000;0.200000;,
  0.250000;0.000000;,
  0.250000;0.200000;,
  0.375000;0.000000;,
  0.375000;0.200000;,
  0.500000;0.000000;,
  0.500000;0.200000;,
  0.625000;0.000000;,
  0.625000;0.200000;,
  0.750000;0.000000;,
  0.750000;0.200000;,
  0.875000;0.000000;,
  0.875000;0.200000;,
  1.000000;0.000000;,
  1.000000;0.200000;,
  0.125000;0.400000;,
  0.000000;0.400000;,
  0.250000;0.400000;,
  0.375000;0.400000;,
  0.500000;0.400000;,
  0.625000;0.400000;,
  0.750000;0.400000;,
  0.875000;0.400000;,
  1.000000;0.400000;,
  0.125000;0.600000;,
  0.000000;0.600000;,
  0.250000;0.600000;,
  0.375000;0.600000;,
  0.500000;0.600000;,
  0.625000;0.600000;,
  0.750000;0.600000;,
  0.875000;0.600000;,
  1.000000;0.600000;,
  0.125000;0.800000;,
  0.000000;0.800000;,
  0.250000;0.800000;,
  0.375000;0.800000;,
  0.500000;0.800000;,
  0.625000;0.800000;,
  0.750000;0.800000;,
  0.875000;0.800000;,
  1.000000;0.800000;,
  0.125000;1.000000;,
  0.000000;1.000000;,
  0.250000;1.000000;,
  0.375000;1.000000;,
  0.500000;1.000000;,
  0.625000;1.000000;,
  0.750000;1.000000;,
  0.875000;1.000000;,
  1.000000;1.000000;,
  0.062500;0.000000;,
  0.187500;0.000000;,
  0.312500;0.000000;,
  0.437500;0.000000;,
  0.562500;0.000000;,
  0.687500;0.000000;,
  0.812500;0.000000;,
  0.937500;0.000000;,
  0.062500;1.000000;,
  0.187500;1.000000;,
  0.312500;1.000000;,
  0.437500;1.000000;,
  0.562500;1.000000;,
  0.687500;1.000000;,
  0.812500;1.000000;,
  0.937500;1.000000;,
  0.000000;0.000000;,
  0.125000;0.000000;,
  0.125000;0.200000;,
  0.000000;0.200000;,
  0.250000;0.000000;,
  0.250000;0.200000;,
  0.375000;0.000000;,
  0.375000;0.200000;,
  0.500000;0.000000;,
  0.500000;0.200000;,
  0.625000;0.000000;,
  0.625000;0.200000;,
  0.750000;0.000000;,
  0.750000;0.200000;,
  0.875000;0.000000;,
  0.875000;0.200000;,
  1.000000;0.000000;,
  1.000000;0.200000;,
  0.125000;0.400000;,
  0.000000;0.400000;,
  0.250000;0.400000;,
  0.375000;0.400000;,
  0.500000;0.400000;,
  0.625000;0.400000;,
  0.750000;0.400000;,
  0.875000;0.400000;,
  1.000000;0.400000;,
  0.125000;0.600000;,
  0.000000;0.600000;,
  0.250000;0.600000;,
  0.375000;0.600000;,
  0.500000;0.600000;,
  0.625000;0.600000;,
  0.750000;0.600000;,
  0.875000;0.600000;,
  1.000000;0.600000;,
  0.125000;0.800000;,
  0.000000;0.800000;,
  0.250000;0.800000;,
  0.375000;0.800000;,
  0.500000;0.800000;,
  0.625000;0.800000;,
  0.750000;0.800000;,
  0.875000;0.800000;,
  1.000000;0.800000;,
  0.125000;1.000000;,
  0.000000;1.000000;,
  0.250000;1.000000;,
  0.375000;1.000000;,
  0.500000;1.000000;,
  0.625000;1.000000;,
  0.750000;1.000000;,
  0.875000;1.000000;,
  1.000000;1.000000;,
  0.062500;0.000000;,
  0.187500;0.000000;,
  0.312500;0.000000;,
  0.437500;0.000000;,
  0.562500;0.000000;,
  0.687500;0.000000;,
  0.812500;0.000000;,
  0.937500;0.000000;,
  0.062500;1.000000;,
  0.187500;1.000000;,
  0.312500;1.000000;,
  0.437500;1.000000;,
  0.562500;1.000000;,
  0.687500;1.000000;,
  0.812500;1.000000;,
  0.937500;1.000000;;
 }
}
