xof 0302txt 0064
template Header {
 <3D82AB43-62DA-11cf-AB39-0020AF71E433>
 WORD major;
 WORD minor;
 DWORD flags;
}

template Vector {
 <3D82AB5E-62DA-11cf-AB39-0020AF71E433>
 FLOAT x;
 FLOAT y;
 FLOAT z;
}

template Coords2d {
 <F6F23F44-7686-11cf-8F52-0040333594A3>
 FLOAT u;
 FLOAT v;
}

template Matrix4x4 {
 <F6F23F45-7686-11cf-8F52-0040333594A3>
 array FLOAT matrix[16];
}

template ColorRGBA {
 <35FF44E0-6C7C-11cf-8F52-0040333594A3>
 FLOAT red;
 FLOAT green;
 FLOAT blue;
 FLOAT alpha;
}

template ColorRGB {
 <D3E16E81-7835-11cf-8F52-0040333594A3>
 FLOAT red;
 FLOAT green;
 FLOAT blue;
}

template IndexedColor {
 <1630B820-7842-11cf-8F52-0040333594A3>
 DWORD index;
 ColorRGBA indexColor;
}

template Boolean {
 <4885AE61-78E8-11cf-8F52-0040333594A3>
 WORD truefalse;
}

template Boolean2d {
 <4885AE63-78E8-11cf-8F52-0040333594A3>
 Boolean u;
 Boolean v;
}

template MaterialWrap {
 <4885AE60-78E8-11cf-8F52-0040333594A3>
 Boolean u;
 Boolean v;
}

template TextureFilename {
 <A42790E1-7810-11cf-8F52-0040333594A3>
 STRING filename;
}

template Material {
 <3D82AB4D-62DA-11cf-AB39-0020AF71E433>
 ColorRGBA faceColor;
 FLOAT power;
 ColorRGB specularColor;
 ColorRGB emissiveColor;
 [...]
}

template MeshFace {
 <3D82AB5F-62DA-11cf-AB39-0020AF71E433>
 DWORD nFaceVertexIndices;
 array DWORD faceVertexIndices[nFaceVertexIndices];
}

template MeshFaceWraps {
 <4885AE62-78E8-11cf-8F52-0040333594A3>
 DWORD nFaceWrapValues;
 Boolean2d faceWrapValues;
}

template MeshTextureCoords {
 <F6F23F40-7686-11cf-8F52-0040333594A3>
 DWORD nTextureCoords;
 array Coords2d textureCoords[nTextureCoords];
}

template MeshMaterialList {
 <F6F23F42-7686-11cf-8F52-0040333594A3>
 DWORD nMaterials;
 DWORD nFaceIndexes;
 array DWORD faceIndexes[nFaceIndexes];
 [Material]
}

template MeshNormals {
 <F6F23F43-7686-11cf-8F52-0040333594A3>
 DWORD nNormals;
 array Vector normals[nNormals];
 DWORD nFaceNormals;
 array MeshFace faceNormals[nFaceNormals];
}

template MeshVertexColors {
 <1630B821-7842-11cf-8F52-0040333594A3>
 DWORD nVertexColors;
 array IndexedColor vertexColors[nVertexColors];
}

template Mesh {
 <3D82AB44-62DA-11cf-AB39-0020AF71E433>
 DWORD nVertices;
 array Vector vertices[nVertices];
 DWORD nFaces;
 array MeshFace faces[nFaces];
 [...]
}

Header{
1;
0;
1;
}

Mesh {
 360;
 -91.92084;434.58229;-8.60068;,
 91.92084;434.58229;-8.60068;,
 91.92084;-16.58228;-8.60068;,
 -91.92084;-16.58228;-8.60068;,
 91.92084;434.58229;-8.60068;,
 91.92084;434.58229;8.60068;,
 91.92084;-16.58228;8.60068;,
 91.92084;-16.58228;-8.60068;,
 91.92084;434.58229;8.60068;,
 -91.92084;434.58229;8.60068;,
 -91.92084;-16.58228;8.60068;,
 91.92084;-16.58228;8.60068;,
 -91.92084;434.58229;8.60068;,
 -91.92084;434.58229;-8.60068;,
 -91.92084;-16.58228;-8.60068;,
 -91.92084;-16.58228;8.60068;,
 91.92084;434.58229;-8.60068;,
 -91.92084;434.58229;-8.60068;,
 -91.92084;-16.58228;-8.60068;,
 91.92084;-16.58228;-8.60068;,
 -108.55042;440.00001;-12.13366;,
 -89.44958;440.00001;-12.13366;,
 -89.44958;-22.00000;-12.13366;,
 -108.55042;-22.00000;-12.13366;,
 -89.44958;440.00001;-12.13366;,
 -89.44958;440.00001;12.13366;,
 -89.44958;-22.00000;12.13366;,
 -89.44958;-22.00000;-12.13366;,
 -89.44958;440.00001;12.13366;,
 -108.55042;440.00001;12.13366;,
 -108.55042;-22.00000;12.13366;,
 -89.44958;-22.00000;12.13366;,
 -108.55042;440.00001;12.13366;,
 -108.55042;440.00001;-12.13366;,
 -108.55042;-22.00000;-12.13366;,
 -108.55042;-22.00000;12.13366;,
 -89.44958;440.00001;-12.13366;,
 -108.55042;440.00001;-12.13366;,
 -108.55042;-22.00000;-12.13366;,
 -89.44958;-22.00000;-12.13366;,
 108.55042;440.00001;-12.13366;,
 108.55042;-22.00000;-12.13366;,
 89.44958;-22.00000;-12.13366;,
 89.44958;440.00001;-12.13366;,
 89.44958;440.00001;-12.13366;,
 89.44958;-22.00000;-12.13366;,
 89.44958;-22.00000;12.13366;,
 89.44958;440.00001;12.13366;,
 89.44958;440.00001;12.13366;,
 89.44958;-22.00000;12.13366;,
 108.55042;-22.00000;12.13366;,
 108.55042;440.00001;12.13366;,
 108.55042;440.00001;12.13366;,
 108.55042;-22.00000;12.13366;,
 108.55042;-22.00000;-12.13366;,
 108.55042;440.00001;-12.13366;,
 108.55042;440.00001;-12.13366;,
 89.44958;440.00001;-12.13366;,
 108.55042;-22.00000;-12.13366;,
 89.44958;-22.00000;-12.13366;,
 -105.69735;228.60069;-9.04057;,
 105.69735;228.60069;-9.04057;,
 105.69735;211.39932;-9.04057;,
 -105.69735;211.39932;-9.04057;,
 105.69735;228.60069;-9.04057;,
 105.69735;228.60069;9.04057;,
 105.69735;211.39932;9.04057;,
 105.69735;211.39932;-9.04057;,
 105.69735;228.60069;9.04057;,
 -105.69735;228.60069;9.04057;,
 -105.69735;211.39932;9.04057;,
 105.69735;211.39932;9.04057;,
 -105.69735;228.60069;9.04057;,
 -105.69735;228.60069;-9.04057;,
 -105.69735;211.39932;-9.04057;,
 -105.69735;211.39932;9.04057;,
 105.69735;228.60069;-9.04057;,
 -105.69735;228.60069;-9.04057;,
 -105.69735;211.39932;-9.04057;,
 105.69735;211.39932;-9.04057;,
 83.46162;435.34129;-4.43047;,
 94.22512;435.34129;-4.43047;,
 -82.61825;-22.00000;-4.43047;,
 -93.38175;-22.00000;-4.43047;,
 94.22512;435.34129;-4.43047;,
 94.22512;435.34129;4.43047;,
 -82.61825;-22.00000;4.43047;,
 -82.61825;-22.00000;-4.43047;,
 94.22512;435.34129;4.43047;,
 83.46162;435.34129;4.43047;,
 -93.38175;-22.00000;4.43047;,
 -82.61825;-22.00000;4.43047;,
 83.46162;435.34129;4.43047;,
 83.46162;435.34129;-4.43047;,
 -93.38175;-22.00000;-4.43047;,
 -93.38175;-22.00000;4.43047;,
 94.22512;435.34129;-4.43047;,
 83.46162;435.34129;-4.43047;,
 -93.38175;-22.00000;-4.43047;,
 -82.61825;-22.00000;-4.43047;,
 -83.46162;435.34129;-4.43047;,
 93.38175;-22.00000;-4.43047;,
 82.61825;-22.00000;-4.43047;,
 -94.22512;435.34129;-4.43047;,
 -94.22512;435.34129;-4.43047;,
 82.61825;-22.00000;-4.43047;,
 82.61825;-22.00000;4.43047;,
 -94.22512;435.34129;4.43047;,
 -94.22512;435.34129;4.43047;,
 82.61825;-22.00000;4.43047;,
 93.38175;-22.00000;4.43047;,
 -83.46162;435.34129;4.43047;,
 -83.46162;435.34129;4.43047;,
 93.38175;-22.00000;4.43047;,
 93.38175;-22.00000;-4.43047;,
 -83.46162;435.34129;-4.43047;,
 -83.46162;435.34129;-4.43047;,
 -94.22512;435.34129;-4.43047;,
 93.38175;-22.00000;-4.43047;,
 82.61825;-22.00000;-4.43047;,
 125.32917;434.58229;-8.60068;,
 309.17080;434.58229;-8.60068;,
 309.17080;-16.58228;-8.60068;,
 125.32917;-16.58228;-8.60068;,
 309.17080;434.58229;-8.60068;,
 309.17080;434.58229;8.60068;,
 309.17080;-16.58228;8.60068;,
 309.17080;-16.58228;-8.60068;,
 309.17080;434.58229;8.60068;,
 125.32917;434.58229;8.60068;,
 125.32917;-16.58228;8.60068;,
 309.17080;-16.58228;8.60068;,
 125.32917;434.58229;8.60068;,
 125.32917;434.58229;-8.60068;,
 125.32917;-16.58228;-8.60068;,
 125.32917;-16.58228;8.60068;,
 309.17080;434.58229;-8.60068;,
 125.32917;434.58229;-8.60068;,
 125.32917;-16.58228;-8.60068;,
 309.17080;-16.58228;-8.60068;,
 108.69959;440.00001;-12.13366;,
 127.80043;440.00001;-12.13366;,
 127.80043;-22.00000;-12.13366;,
 108.69959;-22.00000;-12.13366;,
 127.80043;440.00001;-12.13366;,
 127.80043;440.00001;12.13366;,
 127.80043;-22.00000;12.13366;,
 127.80043;-22.00000;-12.13366;,
 127.80043;440.00001;12.13366;,
 108.69959;440.00001;12.13366;,
 108.69959;-22.00000;12.13366;,
 127.80043;-22.00000;12.13366;,
 108.69959;440.00001;12.13366;,
 108.69959;440.00001;-12.13366;,
 108.69959;-22.00000;-12.13366;,
 108.69959;-22.00000;12.13366;,
 127.80043;440.00001;-12.13366;,
 108.69959;440.00001;-12.13366;,
 108.69959;-22.00000;-12.13366;,
 127.80043;-22.00000;-12.13366;,
 325.80038;440.00001;-12.13366;,
 325.80038;-22.00000;-12.13366;,
 306.69956;-22.00000;-12.13366;,
 306.69956;440.00001;-12.13366;,
 306.69956;440.00001;-12.13366;,
 306.69956;-22.00000;-12.13366;,
 306.69956;-22.00000;12.13366;,
 306.69956;440.00001;12.13366;,
 306.69956;440.00001;12.13366;,
 306.69956;-22.00000;12.13366;,
 325.80038;-22.00000;12.13366;,
 325.80038;440.00001;12.13366;,
 325.80038;440.00001;12.13366;,
 325.80038;-22.00000;12.13366;,
 325.80038;-22.00000;-12.13366;,
 325.80038;440.00001;-12.13366;,
 325.80038;440.00001;-12.13366;,
 306.69956;440.00001;-12.13366;,
 325.80038;-22.00000;-12.13366;,
 306.69956;-22.00000;-12.13366;,
 111.55266;228.60069;-9.04057;,
 322.94732;228.60069;-9.04057;,
 322.94732;211.39932;-9.04057;,
 111.55266;211.39932;-9.04057;,
 322.94732;228.60069;-9.04057;,
 322.94732;228.60069;9.04057;,
 322.94732;211.39932;9.04057;,
 322.94732;211.39932;-9.04057;,
 322.94732;228.60069;9.04057;,
 111.55266;228.60069;9.04057;,
 111.55266;211.39932;9.04057;,
 322.94732;211.39932;9.04057;,
 111.55266;228.60069;9.04057;,
 111.55266;228.60069;-9.04057;,
 111.55266;211.39932;-9.04057;,
 111.55266;211.39932;9.04057;,
 322.94732;228.60069;-9.04057;,
 111.55266;228.60069;-9.04057;,
 111.55266;211.39932;-9.04057;,
 322.94732;211.39932;-9.04057;,
 300.71160;435.34129;-4.43047;,
 311.47510;435.34129;-4.43047;,
 134.63176;-22.00000;-4.43047;,
 123.86826;-22.00000;-4.43047;,
 311.47510;435.34129;-4.43047;,
 311.47510;435.34129;4.43047;,
 134.63176;-22.00000;4.43047;,
 134.63176;-22.00000;-4.43047;,
 311.47510;435.34129;4.43047;,
 300.71160;435.34129;4.43047;,
 123.86826;-22.00000;4.43047;,
 134.63176;-22.00000;4.43047;,
 300.71160;435.34129;4.43047;,
 300.71160;435.34129;-4.43047;,
 123.86826;-22.00000;-4.43047;,
 123.86826;-22.00000;4.43047;,
 311.47510;435.34129;-4.43047;,
 300.71160;435.34129;-4.43047;,
 123.86826;-22.00000;-4.43047;,
 134.63176;-22.00000;-4.43047;,
 133.78839;435.34129;-4.43047;,
 310.63174;-22.00000;-4.43047;,
 299.86820;-22.00000;-4.43047;,
 123.02489;435.34129;-4.43047;,
 123.02489;435.34129;-4.43047;,
 299.86820;-22.00000;-4.43047;,
 299.86820;-22.00000;4.43047;,
 123.02489;435.34129;4.43047;,
 123.02489;435.34129;4.43047;,
 299.86820;-22.00000;4.43047;,
 310.63174;-22.00000;4.43047;,
 133.78839;435.34129;4.43047;,
 133.78839;435.34129;4.43047;,
 310.63174;-22.00000;4.43047;,
 310.63174;-22.00000;-4.43047;,
 133.78839;435.34129;-4.43047;,
 133.78839;435.34129;-4.43047;,
 123.02489;435.34129;-4.43047;,
 310.63174;-22.00000;-4.43047;,
 299.86820;-22.00000;-4.43047;,
 -309.24187;434.58229;-8.60068;,
 -125.40031;434.58229;-8.60068;,
 -125.40031;-16.58228;-8.60068;,
 -309.24187;-16.58228;-8.60068;,
 -125.40031;434.58229;-8.60068;,
 -125.40031;434.58229;8.60068;,
 -125.40031;-16.58228;8.60068;,
 -125.40031;-16.58228;-8.60068;,
 -125.40031;434.58229;8.60068;,
 -309.24187;434.58229;8.60068;,
 -309.24187;-16.58228;8.60068;,
 -125.40031;-16.58228;8.60068;,
 -309.24187;434.58229;8.60068;,
 -309.24187;434.58229;-8.60068;,
 -309.24187;-16.58228;-8.60068;,
 -309.24187;-16.58228;8.60068;,
 -125.40031;434.58229;-8.60068;,
 -309.24187;434.58229;-8.60068;,
 -309.24187;-16.58228;-8.60068;,
 -125.40031;-16.58228;-8.60068;,
 -325.87145;440.00001;-12.13366;,
 -306.77063;440.00001;-12.13366;,
 -306.77063;-22.00000;-12.13366;,
 -325.87145;-22.00000;-12.13366;,
 -306.77063;440.00001;-12.13366;,
 -306.77063;440.00001;12.13366;,
 -306.77063;-22.00000;12.13366;,
 -306.77063;-22.00000;-12.13366;,
 -306.77063;440.00001;12.13366;,
 -325.87145;440.00001;12.13366;,
 -325.87145;-22.00000;12.13366;,
 -306.77063;-22.00000;12.13366;,
 -325.87145;440.00001;12.13366;,
 -325.87145;440.00001;-12.13366;,
 -325.87145;-22.00000;-12.13366;,
 -325.87145;-22.00000;12.13366;,
 -306.77063;440.00001;-12.13366;,
 -325.87145;440.00001;-12.13366;,
 -325.87145;-22.00000;-12.13366;,
 -306.77063;-22.00000;-12.13366;,
 -108.77075;440.00001;-12.13366;,
 -108.77075;-22.00000;-12.13366;,
 -127.87155;-22.00000;-12.13366;,
 -127.87155;440.00001;-12.13366;,
 -127.87155;440.00001;-12.13366;,
 -127.87155;-22.00000;-12.13366;,
 -127.87155;-22.00000;12.13366;,
 -127.87155;440.00001;12.13366;,
 -127.87155;440.00001;12.13366;,
 -127.87155;-22.00000;12.13366;,
 -108.77075;-22.00000;12.13366;,
 -108.77075;440.00001;12.13366;,
 -108.77075;440.00001;12.13366;,
 -108.77075;-22.00000;12.13366;,
 -108.77075;-22.00000;-12.13366;,
 -108.77075;440.00001;-12.13366;,
 -108.77075;440.00001;-12.13366;,
 -127.87155;440.00001;-12.13366;,
 -108.77075;-22.00000;-12.13366;,
 -127.87155;-22.00000;-12.13366;,
 -323.01839;228.60069;-9.04057;,
 -111.62379;228.60069;-9.04057;,
 -111.62379;211.39932;-9.04057;,
 -323.01839;211.39932;-9.04057;,
 -111.62379;228.60069;-9.04057;,
 -111.62379;228.60069;9.04057;,
 -111.62379;211.39932;9.04057;,
 -111.62379;211.39932;-9.04057;,
 -111.62379;228.60069;9.04057;,
 -323.01839;228.60069;9.04057;,
 -323.01839;211.39932;9.04057;,
 -111.62379;211.39932;9.04057;,
 -323.01839;228.60069;9.04057;,
 -323.01839;228.60069;-9.04057;,
 -323.01839;211.39932;-9.04057;,
 -323.01839;211.39932;9.04057;,
 -111.62379;228.60069;-9.04057;,
 -323.01839;228.60069;-9.04057;,
 -323.01839;211.39932;-9.04057;,
 -111.62379;211.39932;-9.04057;,
 -133.85951;435.34129;-4.43047;,
 -123.09601;435.34129;-4.43047;,
 -299.93927;-22.00000;-4.43047;,
 -310.70281;-22.00000;-4.43047;,
 -123.09601;435.34129;-4.43047;,
 -123.09601;435.34129;4.43047;,
 -299.93927;-22.00000;4.43047;,
 -299.93927;-22.00000;-4.43047;,
 -123.09601;435.34129;4.43047;,
 -133.85951;435.34129;4.43047;,
 -310.70281;-22.00000;4.43047;,
 -299.93927;-22.00000;4.43047;,
 -133.85951;435.34129;4.43047;,
 -133.85951;435.34129;-4.43047;,
 -310.70281;-22.00000;-4.43047;,
 -310.70281;-22.00000;4.43047;,
 -123.09601;435.34129;-4.43047;,
 -133.85951;435.34129;-4.43047;,
 -310.70281;-22.00000;-4.43047;,
 -299.93927;-22.00000;-4.43047;,
 -300.78267;435.34129;-4.43047;,
 -123.93938;-22.00000;-4.43047;,
 -134.70291;-22.00000;-4.43047;,
 -311.54614;435.34129;-4.43047;,
 -311.54614;435.34129;-4.43047;,
 -134.70291;-22.00000;-4.43047;,
 -134.70291;-22.00000;4.43047;,
 -311.54614;435.34129;4.43047;,
 -311.54614;435.34129;4.43047;,
 -134.70291;-22.00000;4.43047;,
 -123.93938;-22.00000;4.43047;,
 -300.78267;435.34129;4.43047;,
 -300.78267;435.34129;4.43047;,
 -123.93938;-22.00000;4.43047;,
 -123.93938;-22.00000;-4.43047;,
 -300.78267;435.34129;-4.43047;,
 -300.78267;435.34129;-4.43047;,
 -311.54614;435.34129;-4.43047;,
 -123.93938;-22.00000;-4.43047;,
 -134.70291;-22.00000;-4.43047;;
 
 108;
 4;0,1,2,3;,
 4;4,5,6,7;,
 4;8,9,10,11;,
 4;12,13,14,15;,
 4;12,5,16,17;,
 4;18,19,6,15;,
 4;20,21,22,23;,
 4;24,25,26,27;,
 4;28,29,30,31;,
 4;32,33,34,35;,
 4;32,25,36,37;,
 4;38,39,26,35;,
 4;40,41,42,43;,
 4;44,45,46,47;,
 4;48,49,50,51;,
 4;52,53,54,55;,
 4;52,56,57,47;,
 4;58,53,46,59;,
 4;60,61,62,63;,
 4;64,65,66,67;,
 4;68,69,70,71;,
 4;72,73,74,75;,
 4;72,65,76,77;,
 4;78,79,66,75;,
 4;80,81,82,83;,
 4;84,85,86,87;,
 4;88,89,90,91;,
 4;92,93,94,95;,
 4;92,85,96,97;,
 4;98,99,86,95;,
 4;100,101,102,103;,
 4;104,105,106,107;,
 4;108,109,110,111;,
 4;112,113,114,115;,
 4;112,116,117,107;,
 4;118,113,106,119;,
 4;120,121,122,123;,
 4;124,125,126,127;,
 4;128,129,130,131;,
 4;132,133,134,135;,
 4;132,125,136,137;,
 4;138,139,126,135;,
 4;140,141,142,143;,
 4;144,145,146,147;,
 4;148,149,150,151;,
 4;152,153,154,155;,
 4;152,145,156,157;,
 4;158,159,146,155;,
 4;160,161,162,163;,
 4;164,165,166,167;,
 4;168,169,170,171;,
 4;172,173,174,175;,
 4;172,176,177,167;,
 4;178,173,166,179;,
 4;180,181,182,183;,
 4;184,185,186,187;,
 4;188,189,190,191;,
 4;192,193,194,195;,
 4;192,185,196,197;,
 4;198,199,186,195;,
 4;200,201,202,203;,
 4;204,205,206,207;,
 4;208,209,210,211;,
 4;212,213,214,215;,
 4;212,205,216,217;,
 4;218,219,206,215;,
 4;220,221,222,223;,
 4;224,225,226,227;,
 4;228,229,230,231;,
 4;232,233,234,235;,
 4;232,236,237,227;,
 4;238,233,226,239;,
 4;240,241,242,243;,
 4;244,245,246,247;,
 4;248,249,250,251;,
 4;252,253,254,255;,
 4;252,245,256,257;,
 4;258,259,246,255;,
 4;260,261,262,263;,
 4;264,265,266,267;,
 4;268,269,270,271;,
 4;272,273,274,275;,
 4;272,265,276,277;,
 4;278,279,266,275;,
 4;280,281,282,283;,
 4;284,285,286,287;,
 4;288,289,290,291;,
 4;292,293,294,295;,
 4;292,296,297,287;,
 4;298,293,286,299;,
 4;300,301,302,303;,
 4;304,305,306,307;,
 4;308,309,310,311;,
 4;312,313,314,315;,
 4;312,305,316,317;,
 4;318,319,306,315;,
 4;320,321,322,323;,
 4;324,325,326,327;,
 4;328,329,330,331;,
 4;332,333,334,335;,
 4;332,325,336,337;,
 4;338,339,326,335;,
 4;340,341,342,343;,
 4;344,345,346,347;,
 4;348,349,350,351;,
 4;352,353,354,355;,
 4;352,356,357,347;,
 4;358,353,346,359;;
 
 MeshMaterialList {
  2;
  108;
  0,
  0,
  0,
  0,
  0,
  0,
  1,
  1,
  1,
  1,
  1,
  1,
  1,
  1,
  1,
  1,
  1,
  1,
  1,
  1,
  1,
  1,
  1,
  1,
  1,
  1,
  1,
  1,
  1,
  1,
  1,
  1,
  1,
  1,
  1,
  1,
  0,
  0,
  0,
  0,
  0,
  0,
  1,
  1,
  1,
  1,
  1,
  1,
  1,
  1,
  1,
  1,
  1,
  1,
  1,
  1,
  1,
  1,
  1,
  1,
  1,
  1,
  1,
  1,
  1,
  1,
  1,
  1,
  1,
  1,
  1,
  1,
  0,
  0,
  0,
  0,
  0,
  0,
  1,
  1,
  1,
  1,
  1,
  1,
  1,
  1,
  1,
  1,
  1,
  1,
  1,
  1,
  1,
  1,
  1,
  1,
  1,
  1,
  1,
  1,
  1,
  1,
  1,
  1,
  1,
  1,
  1,
  1;;
  Material {
   0.800000;0.800000;0.800000;1.000000;;
   5.000000;
   0.000000;0.000000;0.000000;;
   0.000000;0.000000;0.000000;;
   TextureFilename {
    "data/TEXTURE/amime.png";
   }
  }
  Material {
   0.599200;0.599200;0.599200;1.000000;;
   15.000000;
   0.810000;0.810000;0.810000;;
   0.000000;0.000000;0.000000;;
  }
 }
 MeshNormals {
  30;
  0.000000;0.000000;-1.000000;,
  1.000000;0.000000;0.000000;,
  0.000000;0.000000;1.000000;,
  -1.000000;0.000000;0.000000;,
  0.932700;-0.360654;-0.000000;,
  -0.932700;-0.360654;0.000000;,
  0.000000;1.000000;0.000000;,
  0.000000;-1.000000;-0.000000;,
  -0.932700;0.360654;0.000000;,
  0.932700;0.360654;0.000000;,
  0.000000;0.000000;-1.000000;,
  1.000000;0.000000;0.000000;,
  0.000000;0.000000;1.000000;,
  -1.000000;0.000000;0.000000;,
  0.932700;-0.360654;-0.000000;,
  -0.932700;-0.360654;0.000000;,
  0.000000;1.000000;0.000000;,
  0.000000;-1.000000;-0.000000;,
  -0.932700;0.360654;0.000000;,
  0.932700;0.360654;0.000000;,
  0.000000;0.000000;-1.000000;,
  1.000000;0.000000;0.000000;,
  0.000000;0.000000;1.000000;,
  -1.000000;0.000000;0.000000;,
  0.932700;-0.360653;-0.000000;,
  -0.932700;-0.360653;0.000000;,
  0.000000;1.000000;0.000000;,
  0.000000;-1.000000;-0.000000;,
  -0.932700;0.360653;0.000000;,
  0.932700;0.360653;0.000000;;
  108;
  4;0,0,0,0;,
  4;1,1,1,1;,
  4;2,2,2,2;,
  4;3,3,3,3;,
  4;6,6,6,6;,
  4;7,7,7,7;,
  4;0,0,0,0;,
  4;1,1,1,1;,
  4;2,2,2,2;,
  4;3,3,3,3;,
  4;6,6,6,6;,
  4;7,7,7,7;,
  4;0,0,0,0;,
  4;3,3,3,3;,
  4;2,2,2,2;,
  4;1,1,1,1;,
  4;6,6,6,6;,
  4;7,7,7,7;,
  4;0,0,0,0;,
  4;1,1,1,1;,
  4;2,2,2,2;,
  4;3,3,3,3;,
  4;6,6,6,6;,
  4;7,7,7,7;,
  4;0,0,0,0;,
  4;4,4,4,4;,
  4;2,2,2,2;,
  4;8,8,8,8;,
  4;6,6,6,6;,
  4;7,7,7,7;,
  4;0,0,0,0;,
  4;5,5,5,5;,
  4;2,2,2,2;,
  4;9,9,9,9;,
  4;6,6,6,6;,
  4;7,7,7,7;,
  4;10,10,10,10;,
  4;11,11,11,11;,
  4;12,12,12,12;,
  4;13,13,13,13;,
  4;16,16,16,16;,
  4;17,17,17,17;,
  4;10,10,10,10;,
  4;11,11,11,11;,
  4;12,12,12,12;,
  4;13,13,13,13;,
  4;16,16,16,16;,
  4;17,17,17,17;,
  4;10,10,10,10;,
  4;13,13,13,13;,
  4;12,12,12,12;,
  4;11,11,11,11;,
  4;16,16,16,16;,
  4;17,17,17,17;,
  4;10,10,10,10;,
  4;11,11,11,11;,
  4;12,12,12,12;,
  4;13,13,13,13;,
  4;16,16,16,16;,
  4;17,17,17,17;,
  4;10,10,10,10;,
  4;14,14,14,14;,
  4;12,12,12,12;,
  4;18,18,18,18;,
  4;16,16,16,16;,
  4;17,17,17,17;,
  4;10,10,10,10;,
  4;15,15,15,15;,
  4;12,12,12,12;,
  4;19,19,19,19;,
  4;16,16,16,16;,
  4;17,17,17,17;,
  4;20,20,20,20;,
  4;21,21,21,21;,
  4;22,22,22,22;,
  4;23,23,23,23;,
  4;26,26,26,26;,
  4;27,27,27,27;,
  4;20,20,20,20;,
  4;21,21,21,21;,
  4;22,22,22,22;,
  4;23,23,23,23;,
  4;26,26,26,26;,
  4;27,27,27,27;,
  4;20,20,20,20;,
  4;23,23,23,23;,
  4;22,22,22,22;,
  4;21,21,21,21;,
  4;26,26,26,26;,
  4;27,27,27,27;,
  4;20,20,20,20;,
  4;21,21,21,21;,
  4;22,22,22,22;,
  4;23,23,23,23;,
  4;26,26,26,26;,
  4;27,27,27,27;,
  4;20,20,20,20;,
  4;24,24,24,24;,
  4;22,22,22,22;,
  4;28,28,28,28;,
  4;26,26,26,26;,
  4;27,27,27,27;,
  4;20,20,20,20;,
  4;25,25,25,25;,
  4;22,22,22,22;,
  4;29,29,29,29;,
  4;26,26,26,26;,
  4;27,27,27,27;;
 }
 MeshTextureCoords {
  360;
  0.000000;0.000000;,
  1.000000;0.000000;,
  1.000000;1.000000;,
  0.000000;1.000000;,
  0.000000;0.000000;,
  1.000000;0.000000;,
  1.000000;1.000000;,
  0.000000;1.000000;,
  0.000000;0.000000;,
  1.000000;0.000000;,
  1.000000;1.000000;,
  0.000000;1.000000;,
  0.000000;0.000000;,
  1.000000;0.000000;,
  1.000000;1.000000;,
  0.000000;1.000000;,
  1.000000;1.000000;,
  0.000000;1.000000;,
  0.000000;0.000000;,
  1.000000;0.000000;,
  0.000000;0.000000;,
  1.000000;0.000000;,
  1.000000;1.000000;,
  0.000000;1.000000;,
  0.000000;0.000000;,
  1.000000;0.000000;,
  1.000000;1.000000;,
  0.000000;1.000000;,
  0.000000;0.000000;,
  1.000000;0.000000;,
  1.000000;1.000000;,
  0.000000;1.000000;,
  0.000000;0.000000;,
  1.000000;0.000000;,
  1.000000;1.000000;,
  0.000000;1.000000;,
  1.000000;1.000000;,
  0.000000;1.000000;,
  0.000000;0.000000;,
  1.000000;0.000000;,
  0.000000;0.000000;,
  0.000000;1.000000;,
  1.000000;1.000000;,
  1.000000;0.000000;,
  0.000000;0.000000;,
  0.000000;1.000000;,
  1.000000;1.000000;,
  1.000000;0.000000;,
  0.000000;0.000000;,
  0.000000;1.000000;,
  1.000000;1.000000;,
  1.000000;0.000000;,
  0.000000;0.000000;,
  0.000000;1.000000;,
  1.000000;1.000000;,
  1.000000;0.000000;,
  0.000000;1.000000;,
  1.000000;1.000000;,
  0.000000;0.000000;,
  1.000000;0.000000;,
  0.000000;0.000000;,
  1.000000;0.000000;,
  1.000000;1.000000;,
  0.000000;1.000000;,
  0.000000;0.000000;,
  1.000000;0.000000;,
  1.000000;1.000000;,
  0.000000;1.000000;,
  0.000000;0.000000;,
  1.000000;0.000000;,
  1.000000;1.000000;,
  0.000000;1.000000;,
  0.000000;0.000000;,
  1.000000;0.000000;,
  1.000000;1.000000;,
  0.000000;1.000000;,
  1.000000;1.000000;,
  0.000000;1.000000;,
  0.000000;0.000000;,
  1.000000;0.000000;,
  0.000000;0.000000;,
  1.000000;0.000000;,
  1.000000;1.000000;,
  0.000000;1.000000;,
  0.000000;0.000000;,
  1.000000;0.000000;,
  1.000000;1.000000;,
  0.000000;1.000000;,
  0.000000;0.000000;,
  1.000000;0.000000;,
  1.000000;1.000000;,
  0.000000;1.000000;,
  0.000000;0.000000;,
  1.000000;0.000000;,
  1.000000;1.000000;,
  0.000000;1.000000;,
  1.000000;1.000000;,
  0.000000;1.000000;,
  0.000000;0.000000;,
  1.000000;0.000000;,
  0.000000;0.000000;,
  0.000000;1.000000;,
  1.000000;1.000000;,
  1.000000;0.000000;,
  0.000000;0.000000;,
  0.000000;1.000000;,
  1.000000;1.000000;,
  1.000000;0.000000;,
  0.000000;0.000000;,
  0.000000;1.000000;,
  1.000000;1.000000;,
  1.000000;0.000000;,
  0.000000;0.000000;,
  0.000000;1.000000;,
  1.000000;1.000000;,
  1.000000;0.000000;,
  0.000000;1.000000;,
  1.000000;1.000000;,
  0.000000;0.000000;,
  1.000000;0.000000;,
  0.000000;0.000000;,
  1.000000;0.000000;,
  1.000000;1.000000;,
  0.000000;1.000000;,
  0.000000;0.000000;,
  1.000000;0.000000;,
  1.000000;1.000000;,
  0.000000;1.000000;,
  0.000000;0.000000;,
  1.000000;0.000000;,
  1.000000;1.000000;,
  0.000000;1.000000;,
  0.000000;0.000000;,
  1.000000;0.000000;,
  1.000000;1.000000;,
  0.000000;1.000000;,
  1.000000;1.000000;,
  0.000000;1.000000;,
  0.000000;0.000000;,
  1.000000;0.000000;,
  0.000000;0.000000;,
  1.000000;0.000000;,
  1.000000;1.000000;,
  0.000000;1.000000;,
  0.000000;0.000000;,
  1.000000;0.000000;,
  1.000000;1.000000;,
  0.000000;1.000000;,
  0.000000;0.000000;,
  1.000000;0.000000;,
  1.000000;1.000000;,
  0.000000;1.000000;,
  0.000000;0.000000;,
  1.000000;0.000000;,
  1.000000;1.000000;,
  0.000000;1.000000;,
  1.000000;1.000000;,
  0.000000;1.000000;,
  0.000000;0.000000;,
  1.000000;0.000000;,
  0.000000;0.000000;,
  0.000000;1.000000;,
  1.000000;1.000000;,
  1.000000;0.000000;,
  0.000000;0.000000;,
  0.000000;1.000000;,
  1.000000;1.000000;,
  1.000000;0.000000;,
  0.000000;0.000000;,
  0.000000;1.000000;,
  1.000000;1.000000;,
  1.000000;0.000000;,
  0.000000;0.000000;,
  0.000000;1.000000;,
  1.000000;1.000000;,
  1.000000;0.000000;,
  0.000000;1.000000;,
  1.000000;1.000000;,
  0.000000;0.000000;,
  1.000000;0.000000;,
  0.000000;0.000000;,
  1.000000;0.000000;,
  1.000000;1.000000;,
  0.000000;1.000000;,
  0.000000;0.000000;,
  1.000000;0.000000;,
  1.000000;1.000000;,
  0.000000;1.000000;,
  0.000000;0.000000;,
  1.000000;0.000000;,
  1.000000;1.000000;,
  0.000000;1.000000;,
  0.000000;0.000000;,
  1.000000;0.000000;,
  1.000000;1.000000;,
  0.000000;1.000000;,
  1.000000;1.000000;,
  0.000000;1.000000;,
  0.000000;0.000000;,
  1.000000;0.000000;,
  0.000000;0.000000;,
  1.000000;0.000000;,
  1.000000;1.000000;,
  0.000000;1.000000;,
  0.000000;0.000000;,
  1.000000;0.000000;,
  1.000000;1.000000;,
  0.000000;1.000000;,
  0.000000;0.000000;,
  1.000000;0.000000;,
  1.000000;1.000000;,
  0.000000;1.000000;,
  0.000000;0.000000;,
  1.000000;0.000000;,
  1.000000;1.000000;,
  0.000000;1.000000;,
  1.000000;1.000000;,
  0.000000;1.000000;,
  0.000000;0.000000;,
  1.000000;0.000000;,
  0.000000;0.000000;,
  0.000000;1.000000;,
  1.000000;1.000000;,
  1.000000;0.000000;,
  0.000000;0.000000;,
  0.000000;1.000000;,
  1.000000;1.000000;,
  1.000000;0.000000;,
  0.000000;0.000000;,
  0.000000;1.000000;,
  1.000000;1.000000;,
  1.000000;0.000000;,
  0.000000;0.000000;,
  0.000000;1.000000;,
  1.000000;1.000000;,
  1.000000;0.000000;,
  0.000000;1.000000;,
  1.000000;1.000000;,
  0.000000;0.000000;,
  1.000000;0.000000;,
  0.000000;0.000000;,
  1.000000;0.000000;,
  1.000000;1.000000;,
  0.000000;1.000000;,
  0.000000;0.000000;,
  1.000000;0.000000;,
  1.000000;1.000000;,
  0.000000;1.000000;,
  0.000000;0.000000;,
  1.000000;0.000000;,
  1.000000;1.000000;,
  0.000000;1.000000;,
  0.000000;0.000000;,
  1.000000;0.000000;,
  1.000000;1.000000;,
  0.000000;1.000000;,
  1.000000;1.000000;,
  0.000000;1.000000;,
  0.000000;0.000000;,
  1.000000;0.000000;,
  0.000000;0.000000;,
  1.000000;0.000000;,
  1.000000;1.000000;,
  0.000000;1.000000;,
  0.000000;0.000000;,
  1.000000;0.000000;,
  1.000000;1.000000;,
  0.000000;1.000000;,
  0.000000;0.000000;,
  1.000000;0.000000;,
  1.000000;1.000000;,
  0.000000;1.000000;,
  0.000000;0.000000;,
  1.000000;0.000000;,
  1.000000;1.000000;,
  0.000000;1.000000;,
  1.000000;1.000000;,
  0.000000;1.000000;,
  0.000000;0.000000;,
  1.000000;0.000000;,
  0.000000;0.000000;,
  0.000000;1.000000;,
  1.000000;1.000000;,
  1.000000;0.000000;,
  0.000000;0.000000;,
  0.000000;1.000000;,
  1.000000;1.000000;,
  1.000000;0.000000;,
  0.000000;0.000000;,
  0.000000;1.000000;,
  1.000000;1.000000;,
  1.000000;0.000000;,
  0.000000;0.000000;,
  0.000000;1.000000;,
  1.000000;1.000000;,
  1.000000;0.000000;,
  0.000000;1.000000;,
  1.000000;1.000000;,
  0.000000;0.000000;,
  1.000000;0.000000;,
  0.000000;0.000000;,
  1.000000;0.000000;,
  1.000000;1.000000;,
  0.000000;1.000000;,
  0.000000;0.000000;,
  1.000000;0.000000;,
  1.000000;1.000000;,
  0.000000;1.000000;,
  0.000000;0.000000;,
  1.000000;0.000000;,
  1.000000;1.000000;,
  0.000000;1.000000;,
  0.000000;0.000000;,
  1.000000;0.000000;,
  1.000000;1.000000;,
  0.000000;1.000000;,
  1.000000;1.000000;,
  0.000000;1.000000;,
  0.000000;0.000000;,
  1.000000;0.000000;,
  0.000000;0.000000;,
  1.000000;0.000000;,
  1.000000;1.000000;,
  0.000000;1.000000;,
  0.000000;0.000000;,
  1.000000;0.000000;,
  1.000000;1.000000;,
  0.000000;1.000000;,
  0.000000;0.000000;,
  1.000000;0.000000;,
  1.000000;1.000000;,
  0.000000;1.000000;,
  0.000000;0.000000;,
  1.000000;0.000000;,
  1.000000;1.000000;,
  0.000000;1.000000;,
  1.000000;1.000000;,
  0.000000;1.000000;,
  0.000000;0.000000;,
  1.000000;0.000000;,
  0.000000;0.000000;,
  0.000000;1.000000;,
  1.000000;1.000000;,
  1.000000;0.000000;,
  0.000000;0.000000;,
  0.000000;1.000000;,
  1.000000;1.000000;,
  1.000000;0.000000;,
  0.000000;0.000000;,
  0.000000;1.000000;,
  1.000000;1.000000;,
  1.000000;0.000000;,
  0.000000;0.000000;,
  0.000000;1.000000;,
  1.000000;1.000000;,
  1.000000;0.000000;,
  0.000000;1.000000;,
  1.000000;1.000000;,
  0.000000;0.000000;,
  1.000000;0.000000;;
 }
}
