xof 0302txt 0064
template Header {
 <3D82AB43-62DA-11cf-AB39-0020AF71E433>
 WORD major;
 WORD minor;
 DWORD flags;
}

template Vector {
 <3D82AB5E-62DA-11cf-AB39-0020AF71E433>
 FLOAT x;
 FLOAT y;
 FLOAT z;
}

template Coords2d {
 <F6F23F44-7686-11cf-8F52-0040333594A3>
 FLOAT u;
 FLOAT v;
}

template Matrix4x4 {
 <F6F23F45-7686-11cf-8F52-0040333594A3>
 array FLOAT matrix[16];
}

template ColorRGBA {
 <35FF44E0-6C7C-11cf-8F52-0040333594A3>
 FLOAT red;
 FLOAT green;
 FLOAT blue;
 FLOAT alpha;
}

template ColorRGB {
 <D3E16E81-7835-11cf-8F52-0040333594A3>
 FLOAT red;
 FLOAT green;
 FLOAT blue;
}

template IndexedColor {
 <1630B820-7842-11cf-8F52-0040333594A3>
 DWORD index;
 ColorRGBA indexColor;
}

template Boolean {
 <4885AE61-78E8-11cf-8F52-0040333594A3>
 WORD truefalse;
}

template Boolean2d {
 <4885AE63-78E8-11cf-8F52-0040333594A3>
 Boolean u;
 Boolean v;
}

template MaterialWrap {
 <4885AE60-78E8-11cf-8F52-0040333594A3>
 Boolean u;
 Boolean v;
}

template TextureFilename {
 <A42790E1-7810-11cf-8F52-0040333594A3>
 STRING filename;
}

template Material {
 <3D82AB4D-62DA-11cf-AB39-0020AF71E433>
 ColorRGBA faceColor;
 FLOAT power;
 ColorRGB specularColor;
 ColorRGB emissiveColor;
 [...]
}

template MeshFace {
 <3D82AB5F-62DA-11cf-AB39-0020AF71E433>
 DWORD nFaceVertexIndices;
 array DWORD faceVertexIndices[nFaceVertexIndices];
}

template MeshFaceWraps {
 <4885AE62-78E8-11cf-8F52-0040333594A3>
 DWORD nFaceWrapValues;
 Boolean2d faceWrapValues;
}

template MeshTextureCoords {
 <F6F23F40-7686-11cf-8F52-0040333594A3>
 DWORD nTextureCoords;
 array Coords2d textureCoords[nTextureCoords];
}

template MeshMaterialList {
 <F6F23F42-7686-11cf-8F52-0040333594A3>
 DWORD nMaterials;
 DWORD nFaceIndexes;
 array DWORD faceIndexes[nFaceIndexes];
 [Material]
}

template MeshNormals {
 <F6F23F43-7686-11cf-8F52-0040333594A3>
 DWORD nNormals;
 array Vector normals[nNormals];
 DWORD nFaceNormals;
 array MeshFace faceNormals[nFaceNormals];
}

template MeshVertexColors {
 <1630B821-7842-11cf-8F52-0040333594A3>
 DWORD nVertexColors;
 array IndexedColor vertexColors[nVertexColors];
}

template Mesh {
 <3D82AB44-62DA-11cf-AB39-0020AF71E433>
 DWORD nVertices;
 array Vector vertices[nVertices];
 DWORD nFaces;
 array MeshFace faces[nFaces];
 [...]
}

Header{
1;
0;
1;
}

Mesh {
 240;
 -200.67246;434.58229;-8.60068;,
 -16.83078;434.58229;-8.60068;,
 -16.83078;-16.58228;-8.60068;,
 -200.67246;-16.58228;-8.60068;,
 -16.83078;434.58229;-8.60068;,
 -16.83078;434.58229;8.60068;,
 -16.83078;-16.58228;8.60068;,
 -16.83078;-16.58228;-8.60068;,
 -16.83078;434.58229;8.60068;,
 -200.67246;434.58229;8.60068;,
 -200.67246;-16.58228;8.60068;,
 -16.83078;-16.58228;8.60068;,
 -200.67246;434.58229;8.60068;,
 -200.67246;434.58229;-8.60068;,
 -200.67246;-16.58228;-8.60068;,
 -200.67246;-16.58228;8.60068;,
 -16.83078;434.58229;-8.60068;,
 -200.67246;434.58229;-8.60068;,
 -200.67246;-16.58228;-8.60068;,
 -16.83078;-16.58228;-8.60068;,
 -217.30204;440.00001;-12.13366;,
 -198.20122;440.00001;-12.13366;,
 -198.20122;-22.00000;-12.13366;,
 -217.30204;-22.00000;-12.13366;,
 -198.20122;440.00001;-12.13366;,
 -198.20122;440.00001;12.13366;,
 -198.20122;-22.00000;12.13366;,
 -198.20122;-22.00000;-12.13366;,
 -198.20122;440.00001;12.13366;,
 -217.30204;440.00001;12.13366;,
 -217.30204;-22.00000;12.13366;,
 -198.20122;-22.00000;12.13366;,
 -217.30204;440.00001;12.13366;,
 -217.30204;440.00001;-12.13366;,
 -217.30204;-22.00000;-12.13366;,
 -217.30204;-22.00000;12.13366;,
 -198.20122;440.00001;-12.13366;,
 -217.30204;440.00001;-12.13366;,
 -217.30204;-22.00000;-12.13366;,
 -198.20122;-22.00000;-12.13366;,
 -0.20121;440.00001;-12.13366;,
 -0.20121;-22.00000;-12.13366;,
 -19.30204;-22.00000;-12.13366;,
 -19.30204;440.00001;-12.13366;,
 -19.30204;440.00001;-12.13366;,
 -19.30204;-22.00000;-12.13366;,
 -19.30204;-22.00000;12.13366;,
 -19.30204;440.00001;12.13366;,
 -19.30204;440.00001;12.13366;,
 -19.30204;-22.00000;12.13366;,
 -0.20121;-22.00000;12.13366;,
 -0.20121;440.00001;12.13366;,
 -0.20121;440.00001;12.13366;,
 -0.20121;-22.00000;12.13366;,
 -0.20121;-22.00000;-12.13366;,
 -0.20121;440.00001;-12.13366;,
 -0.20121;440.00001;-12.13366;,
 -19.30204;440.00001;-12.13366;,
 -0.20121;-22.00000;-12.13366;,
 -19.30204;-22.00000;-12.13366;,
 -214.44898;228.60069;-9.04057;,
 -3.05427;228.60069;-9.04057;,
 -3.05427;211.39932;-9.04057;,
 -214.44898;211.39932;-9.04057;,
 -3.05427;228.60069;-9.04057;,
 -3.05427;228.60069;9.04057;,
 -3.05427;211.39932;9.04057;,
 -3.05427;211.39932;-9.04057;,
 -3.05427;228.60069;9.04057;,
 -214.44898;228.60069;9.04057;,
 -214.44898;211.39932;9.04057;,
 -3.05427;211.39932;9.04057;,
 -214.44898;228.60069;9.04057;,
 -214.44898;228.60069;-9.04057;,
 -214.44898;211.39932;-9.04057;,
 -214.44898;211.39932;9.04057;,
 -3.05427;228.60069;-9.04057;,
 -214.44898;228.60069;-9.04057;,
 -214.44898;211.39932;-9.04057;,
 -3.05427;211.39932;-9.04057;,
 -25.29001;435.34129;-4.43047;,
 -14.52650;435.34129;-4.43047;,
 -191.36988;-22.00000;-4.43047;,
 -202.13338;-22.00000;-4.43047;,
 -14.52650;435.34129;-4.43047;,
 -14.52650;435.34129;4.43047;,
 -191.36988;-22.00000;4.43047;,
 -191.36988;-22.00000;-4.43047;,
 -14.52650;435.34129;4.43047;,
 -25.29001;435.34129;4.43047;,
 -202.13338;-22.00000;4.43047;,
 -191.36988;-22.00000;4.43047;,
 -25.29001;435.34129;4.43047;,
 -25.29001;435.34129;-4.43047;,
 -202.13338;-22.00000;-4.43047;,
 -202.13338;-22.00000;4.43047;,
 -14.52650;435.34129;-4.43047;,
 -25.29001;435.34129;-4.43047;,
 -202.13338;-22.00000;-4.43047;,
 -191.36988;-22.00000;-4.43047;,
 -192.21324;435.34129;-4.43047;,
 -15.36987;-22.00000;-4.43047;,
 -26.13338;-22.00000;-4.43047;,
 -202.97674;435.34129;-4.43047;,
 -202.97674;435.34129;-4.43047;,
 -26.13338;-22.00000;-4.43047;,
 -26.13338;-22.00000;4.43047;,
 -202.97674;435.34129;4.43047;,
 -202.97674;435.34129;4.43047;,
 -26.13338;-22.00000;4.43047;,
 -15.36987;-22.00000;4.43047;,
 -192.21324;435.34129;4.43047;,
 -192.21324;435.34129;4.43047;,
 -15.36987;-22.00000;4.43047;,
 -15.36987;-22.00000;-4.43047;,
 -192.21324;435.34129;-4.43047;,
 -192.21324;435.34129;-4.43047;,
 -202.97674;435.34129;-4.43047;,
 -15.36987;-22.00000;-4.43047;,
 -26.13338;-22.00000;-4.43047;,
 16.46755;434.58229;-8.60068;,
 200.30917;434.58229;-8.60068;,
 200.30917;-16.58228;-8.60068;,
 16.46755;-16.58228;-8.60068;,
 200.30917;434.58229;-8.60068;,
 200.30917;434.58229;8.60068;,
 200.30917;-16.58228;8.60068;,
 200.30917;-16.58228;-8.60068;,
 200.30917;434.58229;8.60068;,
 16.46755;434.58229;8.60068;,
 16.46755;-16.58228;8.60068;,
 200.30917;-16.58228;8.60068;,
 16.46755;434.58229;8.60068;,
 16.46755;434.58229;-8.60068;,
 16.46755;-16.58228;-8.60068;,
 16.46755;-16.58228;8.60068;,
 200.30917;434.58229;-8.60068;,
 16.46755;434.58229;-8.60068;,
 16.46755;-16.58228;-8.60068;,
 200.30917;-16.58228;-8.60068;,
 -0.16203;440.00001;-12.13366;,
 18.93880;440.00001;-12.13366;,
 18.93880;-22.00000;-12.13366;,
 -0.16203;-22.00000;-12.13366;,
 18.93880;440.00001;-12.13366;,
 18.93880;440.00001;12.13366;,
 18.93880;-22.00000;12.13366;,
 18.93880;-22.00000;-12.13366;,
 18.93880;440.00001;12.13366;,
 -0.16203;440.00001;12.13366;,
 -0.16203;-22.00000;12.13366;,
 18.93880;-22.00000;12.13366;,
 -0.16203;440.00001;12.13366;,
 -0.16203;440.00001;-12.13366;,
 -0.16203;-22.00000;-12.13366;,
 -0.16203;-22.00000;12.13366;,
 18.93880;440.00001;-12.13366;,
 -0.16203;440.00001;-12.13366;,
 -0.16203;-22.00000;-12.13366;,
 18.93880;-22.00000;-12.13366;,
 216.93875;440.00001;-12.13366;,
 216.93875;-22.00000;-12.13366;,
 197.83793;-22.00000;-12.13366;,
 197.83793;440.00001;-12.13366;,
 197.83793;440.00001;-12.13366;,
 197.83793;-22.00000;-12.13366;,
 197.83793;-22.00000;12.13366;,
 197.83793;440.00001;12.13366;,
 197.83793;440.00001;12.13366;,
 197.83793;-22.00000;12.13366;,
 216.93875;-22.00000;12.13366;,
 216.93875;440.00001;12.13366;,
 216.93875;440.00001;12.13366;,
 216.93875;-22.00000;12.13366;,
 216.93875;-22.00000;-12.13366;,
 216.93875;440.00001;-12.13366;,
 216.93875;440.00001;-12.13366;,
 197.83793;440.00001;-12.13366;,
 216.93875;-22.00000;-12.13366;,
 197.83793;-22.00000;-12.13366;,
 2.69104;228.60069;-9.04057;,
 214.08569;228.60069;-9.04057;,
 214.08569;211.39932;-9.04057;,
 2.69104;211.39932;-9.04057;,
 214.08569;228.60069;-9.04057;,
 214.08569;228.60069;9.04057;,
 214.08569;211.39932;9.04057;,
 214.08569;211.39932;-9.04057;,
 214.08569;228.60069;9.04057;,
 2.69104;228.60069;9.04057;,
 2.69104;211.39932;9.04057;,
 214.08569;211.39932;9.04057;,
 2.69104;228.60069;9.04057;,
 2.69104;228.60069;-9.04057;,
 2.69104;211.39932;-9.04057;,
 2.69104;211.39932;9.04057;,
 214.08569;228.60069;-9.04057;,
 2.69104;228.60069;-9.04057;,
 2.69104;211.39932;-9.04057;,
 214.08569;211.39932;-9.04057;,
 191.84997;435.34129;-4.43047;,
 202.61347;435.34129;-4.43047;,
 25.77014;-22.00000;-4.43047;,
 15.00663;-22.00000;-4.43047;,
 202.61347;435.34129;-4.43047;,
 202.61347;435.34129;4.43047;,
 25.77014;-22.00000;4.43047;,
 25.77014;-22.00000;-4.43047;,
 202.61347;435.34129;4.43047;,
 191.84997;435.34129;4.43047;,
 15.00663;-22.00000;4.43047;,
 25.77014;-22.00000;4.43047;,
 191.84997;435.34129;4.43047;,
 191.84997;435.34129;-4.43047;,
 15.00663;-22.00000;-4.43047;,
 15.00663;-22.00000;4.43047;,
 202.61347;435.34129;-4.43047;,
 191.84997;435.34129;-4.43047;,
 15.00663;-22.00000;-4.43047;,
 25.77014;-22.00000;-4.43047;,
 24.92677;435.34129;-4.43047;,
 201.77011;-22.00000;-4.43047;,
 191.00657;-22.00000;-4.43047;,
 14.16326;435.34129;-4.43047;,
 14.16326;435.34129;-4.43047;,
 191.00657;-22.00000;-4.43047;,
 191.00657;-22.00000;4.43047;,
 14.16326;435.34129;4.43047;,
 14.16326;435.34129;4.43047;,
 191.00657;-22.00000;4.43047;,
 201.77011;-22.00000;4.43047;,
 24.92677;435.34129;4.43047;,
 24.92677;435.34129;4.43047;,
 201.77011;-22.00000;4.43047;,
 201.77011;-22.00000;-4.43047;,
 24.92677;435.34129;-4.43047;,
 24.92677;435.34129;-4.43047;,
 14.16326;435.34129;-4.43047;,
 201.77011;-22.00000;-4.43047;,
 191.00657;-22.00000;-4.43047;;
 
 72;
 4;0,1,2,3;,
 4;4,5,6,7;,
 4;8,9,10,11;,
 4;12,13,14,15;,
 4;12,5,16,17;,
 4;18,19,6,15;,
 4;20,21,22,23;,
 4;24,25,26,27;,
 4;28,29,30,31;,
 4;32,33,34,35;,
 4;32,25,36,37;,
 4;38,39,26,35;,
 4;40,41,42,43;,
 4;44,45,46,47;,
 4;48,49,50,51;,
 4;52,53,54,55;,
 4;52,56,57,47;,
 4;58,53,46,59;,
 4;60,61,62,63;,
 4;64,65,66,67;,
 4;68,69,70,71;,
 4;72,73,74,75;,
 4;72,65,76,77;,
 4;78,79,66,75;,
 4;80,81,82,83;,
 4;84,85,86,87;,
 4;88,89,90,91;,
 4;92,93,94,95;,
 4;92,85,96,97;,
 4;98,99,86,95;,
 4;100,101,102,103;,
 4;104,105,106,107;,
 4;108,109,110,111;,
 4;112,113,114,115;,
 4;112,116,117,107;,
 4;118,113,106,119;,
 4;120,121,122,123;,
 4;124,125,126,127;,
 4;128,129,130,131;,
 4;132,133,134,135;,
 4;132,125,136,137;,
 4;138,139,126,135;,
 4;140,141,142,143;,
 4;144,145,146,147;,
 4;148,149,150,151;,
 4;152,153,154,155;,
 4;152,145,156,157;,
 4;158,159,146,155;,
 4;160,161,162,163;,
 4;164,165,166,167;,
 4;168,169,170,171;,
 4;172,173,174,175;,
 4;172,176,177,167;,
 4;178,173,166,179;,
 4;180,181,182,183;,
 4;184,185,186,187;,
 4;188,189,190,191;,
 4;192,193,194,195;,
 4;192,185,196,197;,
 4;198,199,186,195;,
 4;200,201,202,203;,
 4;204,205,206,207;,
 4;208,209,210,211;,
 4;212,213,214,215;,
 4;212,205,216,217;,
 4;218,219,206,215;,
 4;220,221,222,223;,
 4;224,225,226,227;,
 4;228,229,230,231;,
 4;232,233,234,235;,
 4;232,236,237,227;,
 4;238,233,226,239;;
 
 MeshMaterialList {
  2;
  72;
  0,
  0,
  0,
  0,
  0,
  0,
  1,
  1,
  1,
  1,
  1,
  1,
  1,
  1,
  1,
  1,
  1,
  1,
  1,
  1,
  1,
  1,
  1,
  1,
  1,
  1,
  1,
  1,
  1,
  1,
  1,
  1,
  1,
  1,
  1,
  1,
  0,
  0,
  0,
  0,
  0,
  0,
  1,
  1,
  1,
  1,
  1,
  1,
  1,
  1,
  1,
  1,
  1,
  1,
  1,
  1,
  1,
  1,
  1,
  1,
  1,
  1,
  1,
  1,
  1,
  1,
  1,
  1,
  1,
  1,
  1,
  1;;
  Material {
   0.800000;0.800000;0.800000;1.000000;;
   5.000000;
   0.000000;0.000000;0.000000;;
   0.000000;0.000000;0.000000;;
   TextureFilename {
    "data/TEXTURE/amime.png";
   }
  }
  Material {
   0.599200;0.599200;0.599200;1.000000;;
   15.000000;
   0.810000;0.810000;0.810000;;
   0.000000;0.000000;0.000000;;
  }
 }
 MeshNormals {
  20;
  0.000000;0.000000;-1.000000;,
  1.000000;0.000000;0.000000;,
  0.000000;0.000000;1.000000;,
  -1.000000;0.000000;0.000000;,
  0.932700;-0.360654;-0.000000;,
  -0.932700;-0.360654;0.000000;,
  0.000000;1.000000;0.000000;,
  0.000000;-1.000000;-0.000000;,
  -0.932700;0.360654;0.000000;,
  0.932700;0.360654;0.000000;,
  0.000000;0.000000;-1.000000;,
  1.000000;0.000000;0.000000;,
  0.000000;0.000000;1.000000;,
  -1.000000;0.000000;0.000000;,
  0.932700;-0.360654;-0.000000;,
  -0.932700;-0.360653;0.000000;,
  0.000000;1.000000;0.000000;,
  0.000000;-1.000000;-0.000000;,
  -0.932700;0.360654;0.000000;,
  0.932700;0.360654;0.000000;;
  72;
  4;0,0,0,0;,
  4;1,1,1,1;,
  4;2,2,2,2;,
  4;3,3,3,3;,
  4;6,6,6,6;,
  4;7,7,7,7;,
  4;0,0,0,0;,
  4;1,1,1,1;,
  4;2,2,2,2;,
  4;3,3,3,3;,
  4;6,6,6,6;,
  4;7,7,7,7;,
  4;0,0,0,0;,
  4;3,3,3,3;,
  4;2,2,2,2;,
  4;1,1,1,1;,
  4;6,6,6,6;,
  4;7,7,7,7;,
  4;0,0,0,0;,
  4;1,1,1,1;,
  4;2,2,2,2;,
  4;3,3,3,3;,
  4;6,6,6,6;,
  4;7,7,7,7;,
  4;0,0,0,0;,
  4;4,4,4,4;,
  4;2,2,2,2;,
  4;8,8,8,8;,
  4;6,6,6,6;,
  4;7,7,7,7;,
  4;0,0,0,0;,
  4;5,5,5,5;,
  4;2,2,2,2;,
  4;9,9,9,9;,
  4;6,6,6,6;,
  4;7,7,7,7;,
  4;10,10,10,10;,
  4;11,11,11,11;,
  4;12,12,12,12;,
  4;13,13,13,13;,
  4;16,16,16,16;,
  4;17,17,17,17;,
  4;10,10,10,10;,
  4;11,11,11,11;,
  4;12,12,12,12;,
  4;13,13,13,13;,
  4;16,16,16,16;,
  4;17,17,17,17;,
  4;10,10,10,10;,
  4;13,13,13,13;,
  4;12,12,12,12;,
  4;11,11,11,11;,
  4;16,16,16,16;,
  4;17,17,17,17;,
  4;10,10,10,10;,
  4;11,11,11,11;,
  4;12,12,12,12;,
  4;13,13,13,13;,
  4;16,16,16,16;,
  4;17,17,17,17;,
  4;10,10,10,10;,
  4;14,14,14,14;,
  4;12,12,12,12;,
  4;18,18,18,18;,
  4;16,16,16,16;,
  4;17,17,17,17;,
  4;10,10,10,10;,
  4;15,15,15,15;,
  4;12,12,12,12;,
  4;19,19,19,19;,
  4;16,16,16,16;,
  4;17,17,17,17;;
 }
 MeshTextureCoords {
  240;
  0.000000;0.000000;,
  1.000000;0.000000;,
  1.000000;1.000000;,
  0.000000;1.000000;,
  0.000000;0.000000;,
  1.000000;0.000000;,
  1.000000;1.000000;,
  0.000000;1.000000;,
  0.000000;0.000000;,
  1.000000;0.000000;,
  1.000000;1.000000;,
  0.000000;1.000000;,
  0.000000;0.000000;,
  1.000000;0.000000;,
  1.000000;1.000000;,
  0.000000;1.000000;,
  1.000000;1.000000;,
  0.000000;1.000000;,
  0.000000;0.000000;,
  1.000000;0.000000;,
  0.000000;0.000000;,
  1.000000;0.000000;,
  1.000000;1.000000;,
  0.000000;1.000000;,
  0.000000;0.000000;,
  1.000000;0.000000;,
  1.000000;1.000000;,
  0.000000;1.000000;,
  0.000000;0.000000;,
  1.000000;0.000000;,
  1.000000;1.000000;,
  0.000000;1.000000;,
  0.000000;0.000000;,
  1.000000;0.000000;,
  1.000000;1.000000;,
  0.000000;1.000000;,
  1.000000;1.000000;,
  0.000000;1.000000;,
  0.000000;0.000000;,
  1.000000;0.000000;,
  0.000000;0.000000;,
  0.000000;1.000000;,
  1.000000;1.000000;,
  1.000000;0.000000;,
  0.000000;0.000000;,
  0.000000;1.000000;,
  1.000000;1.000000;,
  1.000000;0.000000;,
  0.000000;0.000000;,
  0.000000;1.000000;,
  1.000000;1.000000;,
  1.000000;0.000000;,
  0.000000;0.000000;,
  0.000000;1.000000;,
  1.000000;1.000000;,
  1.000000;0.000000;,
  0.000000;1.000000;,
  1.000000;1.000000;,
  0.000000;0.000000;,
  1.000000;0.000000;,
  0.000000;0.000000;,
  1.000000;0.000000;,
  1.000000;1.000000;,
  0.000000;1.000000;,
  0.000000;0.000000;,
  1.000000;0.000000;,
  1.000000;1.000000;,
  0.000000;1.000000;,
  0.000000;0.000000;,
  1.000000;0.000000;,
  1.000000;1.000000;,
  0.000000;1.000000;,
  0.000000;0.000000;,
  1.000000;0.000000;,
  1.000000;1.000000;,
  0.000000;1.000000;,
  1.000000;1.000000;,
  0.000000;1.000000;,
  0.000000;0.000000;,
  1.000000;0.000000;,
  0.000000;0.000000;,
  1.000000;0.000000;,
  1.000000;1.000000;,
  0.000000;1.000000;,
  0.000000;0.000000;,
  1.000000;0.000000;,
  1.000000;1.000000;,
  0.000000;1.000000;,
  0.000000;0.000000;,
  1.000000;0.000000;,
  1.000000;1.000000;,
  0.000000;1.000000;,
  0.000000;0.000000;,
  1.000000;0.000000;,
  1.000000;1.000000;,
  0.000000;1.000000;,
  1.000000;1.000000;,
  0.000000;1.000000;,
  0.000000;0.000000;,
  1.000000;0.000000;,
  0.000000;0.000000;,
  0.000000;1.000000;,
  1.000000;1.000000;,
  1.000000;0.000000;,
  0.000000;0.000000;,
  0.000000;1.000000;,
  1.000000;1.000000;,
  1.000000;0.000000;,
  0.000000;0.000000;,
  0.000000;1.000000;,
  1.000000;1.000000;,
  1.000000;0.000000;,
  0.000000;0.000000;,
  0.000000;1.000000;,
  1.000000;1.000000;,
  1.000000;0.000000;,
  0.000000;1.000000;,
  1.000000;1.000000;,
  0.000000;0.000000;,
  1.000000;0.000000;,
  0.000000;0.000000;,
  1.000000;0.000000;,
  1.000000;1.000000;,
  0.000000;1.000000;,
  0.000000;0.000000;,
  1.000000;0.000000;,
  1.000000;1.000000;,
  0.000000;1.000000;,
  0.000000;0.000000;,
  1.000000;0.000000;,
  1.000000;1.000000;,
  0.000000;1.000000;,
  0.000000;0.000000;,
  1.000000;0.000000;,
  1.000000;1.000000;,
  0.000000;1.000000;,
  1.000000;1.000000;,
  0.000000;1.000000;,
  0.000000;0.000000;,
  1.000000;0.000000;,
  0.000000;0.000000;,
  1.000000;0.000000;,
  1.000000;1.000000;,
  0.000000;1.000000;,
  0.000000;0.000000;,
  1.000000;0.000000;,
  1.000000;1.000000;,
  0.000000;1.000000;,
  0.000000;0.000000;,
  1.000000;0.000000;,
  1.000000;1.000000;,
  0.000000;1.000000;,
  0.000000;0.000000;,
  1.000000;0.000000;,
  1.000000;1.000000;,
  0.000000;1.000000;,
  1.000000;1.000000;,
  0.000000;1.000000;,
  0.000000;0.000000;,
  1.000000;0.000000;,
  0.000000;0.000000;,
  0.000000;1.000000;,
  1.000000;1.000000;,
  1.000000;0.000000;,
  0.000000;0.000000;,
  0.000000;1.000000;,
  1.000000;1.000000;,
  1.000000;0.000000;,
  0.000000;0.000000;,
  0.000000;1.000000;,
  1.000000;1.000000;,
  1.000000;0.000000;,
  0.000000;0.000000;,
  0.000000;1.000000;,
  1.000000;1.000000;,
  1.000000;0.000000;,
  0.000000;1.000000;,
  1.000000;1.000000;,
  0.000000;0.000000;,
  1.000000;0.000000;,
  0.000000;0.000000;,
  1.000000;0.000000;,
  1.000000;1.000000;,
  0.000000;1.000000;,
  0.000000;0.000000;,
  1.000000;0.000000;,
  1.000000;1.000000;,
  0.000000;1.000000;,
  0.000000;0.000000;,
  1.000000;0.000000;,
  1.000000;1.000000;,
  0.000000;1.000000;,
  0.000000;0.000000;,
  1.000000;0.000000;,
  1.000000;1.000000;,
  0.000000;1.000000;,
  1.000000;1.000000;,
  0.000000;1.000000;,
  0.000000;0.000000;,
  1.000000;0.000000;,
  0.000000;0.000000;,
  1.000000;0.000000;,
  1.000000;1.000000;,
  0.000000;1.000000;,
  0.000000;0.000000;,
  1.000000;0.000000;,
  1.000000;1.000000;,
  0.000000;1.000000;,
  0.000000;0.000000;,
  1.000000;0.000000;,
  1.000000;1.000000;,
  0.000000;1.000000;,
  0.000000;0.000000;,
  1.000000;0.000000;,
  1.000000;1.000000;,
  0.000000;1.000000;,
  1.000000;1.000000;,
  0.000000;1.000000;,
  0.000000;0.000000;,
  1.000000;0.000000;,
  0.000000;0.000000;,
  0.000000;1.000000;,
  1.000000;1.000000;,
  1.000000;0.000000;,
  0.000000;0.000000;,
  0.000000;1.000000;,
  1.000000;1.000000;,
  1.000000;0.000000;,
  0.000000;0.000000;,
  0.000000;1.000000;,
  1.000000;1.000000;,
  1.000000;0.000000;,
  0.000000;0.000000;,
  0.000000;1.000000;,
  1.000000;1.000000;,
  1.000000;0.000000;,
  0.000000;1.000000;,
  1.000000;1.000000;,
  0.000000;0.000000;,
  1.000000;0.000000;;
 }
}
