xof 0302txt 0064
template Header {
 <3D82AB43-62DA-11cf-AB39-0020AF71E433>
 WORD major;
 WORD minor;
 DWORD flags;
}

template Vector {
 <3D82AB5E-62DA-11cf-AB39-0020AF71E433>
 FLOAT x;
 FLOAT y;
 FLOAT z;
}

template Coords2d {
 <F6F23F44-7686-11cf-8F52-0040333594A3>
 FLOAT u;
 FLOAT v;
}

template Matrix4x4 {
 <F6F23F45-7686-11cf-8F52-0040333594A3>
 array FLOAT matrix[16];
}

template ColorRGBA {
 <35FF44E0-6C7C-11cf-8F52-0040333594A3>
 FLOAT red;
 FLOAT green;
 FLOAT blue;
 FLOAT alpha;
}

template ColorRGB {
 <D3E16E81-7835-11cf-8F52-0040333594A3>
 FLOAT red;
 FLOAT green;
 FLOAT blue;
}

template IndexedColor {
 <1630B820-7842-11cf-8F52-0040333594A3>
 DWORD index;
 ColorRGBA indexColor;
}

template Boolean {
 <4885AE61-78E8-11cf-8F52-0040333594A3>
 WORD truefalse;
}

template Boolean2d {
 <4885AE63-78E8-11cf-8F52-0040333594A3>
 Boolean u;
 Boolean v;
}

template MaterialWrap {
 <4885AE60-78E8-11cf-8F52-0040333594A3>
 Boolean u;
 Boolean v;
}

template TextureFilename {
 <A42790E1-7810-11cf-8F52-0040333594A3>
 STRING filename;
}

template Material {
 <3D82AB4D-62DA-11cf-AB39-0020AF71E433>
 ColorRGBA faceColor;
 FLOAT power;
 ColorRGB specularColor;
 ColorRGB emissiveColor;
 [...]
}

template MeshFace {
 <3D82AB5F-62DA-11cf-AB39-0020AF71E433>
 DWORD nFaceVertexIndices;
 array DWORD faceVertexIndices[nFaceVertexIndices];
}

template MeshFaceWraps {
 <4885AE62-78E8-11cf-8F52-0040333594A3>
 DWORD nFaceWrapValues;
 Boolean2d faceWrapValues;
}

template MeshTextureCoords {
 <F6F23F40-7686-11cf-8F52-0040333594A3>
 DWORD nTextureCoords;
 array Coords2d textureCoords[nTextureCoords];
}

template MeshMaterialList {
 <F6F23F42-7686-11cf-8F52-0040333594A3>
 DWORD nMaterials;
 DWORD nFaceIndexes;
 array DWORD faceIndexes[nFaceIndexes];
 [Material]
}

template MeshNormals {
 <F6F23F43-7686-11cf-8F52-0040333594A3>
 DWORD nNormals;
 array Vector normals[nNormals];
 DWORD nFaceNormals;
 array MeshFace faceNormals[nFaceNormals];
}

template MeshVertexColors {
 <1630B821-7842-11cf-8F52-0040333594A3>
 DWORD nVertexColors;
 array IndexedColor vertexColors[nVertexColors];
}

template Mesh {
 <3D82AB44-62DA-11cf-AB39-0020AF71E433>
 DWORD nVertices;
 array Vector vertices[nVertices];
 DWORD nFaces;
 array MeshFace faces[nFaces];
 [...]
}

Header{
1;
0;
1;
}

Mesh {
 264;
 189.29976;23.24918;-13.25124;,
 189.29976;23.24918;13.25124;,
 189.29976;1.20325;13.25124;,
 189.29976;1.20325;-13.25124;,
 -189.29976;23.24918;13.25124;,
 -189.29976;23.24918;-13.25124;,
 -189.29976;1.20325;-13.25124;,
 -189.29976;1.20325;13.25124;,
 158.31165;23.24918;13.25124;,
 158.31165;1.20325;13.25124;,
 189.29976;1.20325;13.25124;,
 189.29976;23.24918;13.25124;,
 158.31165;23.24918;-13.25124;,
 189.29976;23.24918;-13.25124;,
 189.29976;1.20325;-13.25124;,
 158.31165;1.20325;-13.25124;,
 158.31165;1.20325;13.25124;,
 158.31165;1.20325;-13.25124;,
 189.29976;1.20325;-13.25124;,
 -160.01953;23.24918;13.25124;,
 158.31165;23.24918;13.25124;,
 158.31165;23.24918;-13.25124;,
 -160.01953;23.24918;-13.25124;,
 -160.01953;23.24918;13.25124;,
 -189.29976;23.24918;13.25124;,
 -189.29976;1.20325;13.25124;,
 -160.01953;1.20325;13.25124;,
 -160.01953;23.24918;-13.25124;,
 -160.01953;1.20325;-13.25124;,
 -189.29976;1.20325;-13.25124;,
 -189.29976;23.24918;-13.25124;,
 -160.01953;1.20325;13.25124;,
 -189.29976;1.20325;-13.25124;,
 -160.01953;1.20325;-13.25124;,
 189.29976;431.06390;13.25124;,
 158.31165;431.06390;13.25124;,
 189.29976;431.06390;-13.25124;,
 189.29976;23.24918;-13.25124;,
 158.31165;431.06390;-13.25124;,
 -160.01953;431.06390;13.25124;,
 -160.01953;431.06390;-13.25124;,
 -189.29976;431.06390;-13.25124;,
 -189.29976;431.06390;13.25124;,
 -160.01953;401.22498;-13.25124;,
 -160.01953;401.22498;13.25124;,
 -189.29976;23.24918;-13.25124;,
 -189.29976;401.22498;-13.25124;,
 -189.29976;401.22498;13.25124;,
 158.45633;431.06390;-13.25124;,
 158.45633;401.22498;-13.25124;,
 158.45633;431.06390;13.25124;,
 158.45633;401.22498;13.25124;,
 -157.96689;402.04132;7.28332;,
 -130.24738;402.04132;7.28332;,
 -130.24738;402.04132;-7.28332;,
 -157.96689;402.04132;-7.28332;,
 -157.96689;24.29387;-7.28332;,
 -130.24738;24.29387;-7.28332;,
 -130.24738;24.29387;7.28332;,
 -157.96689;24.29387;7.28332;,
 -157.96689;56.76459;-7.28332;,
 -130.24738;56.76459;-7.28332;,
 -130.24738;24.29387;-7.28332;,
 -157.96689;24.29387;-7.28332;,
 -157.96689;56.76459;-7.28332;,
 -157.96689;24.29387;-7.28332;,
 -157.96689;56.76459;7.28332;,
 -157.96689;56.76459;7.28332;,
 -157.96689;24.29387;7.28332;,
 -130.24738;24.29387;7.28332;,
 -130.24738;56.76459;7.28332;,
 153.63870;56.76459;7.28332;,
 153.63870;56.76459;-7.28332;,
 -130.24738;56.76459;-7.28332;,
 -130.24738;56.76459;7.28332;,
 153.63870;24.29387;7.28332;,
 153.63870;24.29387;-7.28332;,
 -130.24738;24.29387;-7.28332;,
 -157.96689;366.37085;-7.28332;,
 -157.96689;402.04132;-7.28332;,
 -130.24738;402.04132;-7.28332;,
 -130.24738;366.37085;-7.28332;,
 -157.96689;366.37085;-7.28332;,
 -157.96689;366.37085;7.28332;,
 -157.96689;402.04132;-7.28332;,
 -130.24738;366.37085;-7.28332;,
 -130.24738;366.37085;7.28332;,
 -157.96689;366.37085;7.28332;,
 -130.24738;366.37085;7.28332;,
 -130.24738;402.04132;7.28332;,
 -157.96689;402.04132;7.28332;,
 152.77188;366.37085;-7.28332;,
 152.77188;402.04132;-7.28332;,
 152.77188;402.04132;7.28332;,
 152.77188;366.37085;7.28332;,
 114.14249;402.04132;-7.28332;,
 114.14249;366.37085;-7.28332;,
 -130.24738;402.04132;-7.28332;,
 114.14249;402.04132;7.28332;,
 114.14249;366.37085;7.28332;,
 153.63870;56.76459;-7.28332;,
 114.14249;56.47510;-7.28332;,
 153.63870;56.76459;7.28332;,
 114.14249;56.47510;7.28332;,
 -128.93294;151.70117;-6.02587;,
 128.93294;151.70117;-6.02587;,
 128.93294;128.98557;-6.02587;,
 -128.93294;128.98557;-6.02587;,
 128.93294;151.70117;-6.02587;,
 128.93294;151.70117;6.02587;,
 128.93294;128.98557;6.02587;,
 128.93294;128.98557;-6.02587;,
 128.93294;151.70117;6.02587;,
 -128.93294;151.70117;6.02587;,
 -128.93294;128.98557;6.02587;,
 128.93294;128.98557;6.02587;,
 -128.93294;151.70117;6.02587;,
 -128.93294;151.70117;-6.02587;,
 -128.93294;128.98557;-6.02587;,
 -128.93294;128.98557;6.02587;,
 128.93294;151.70117;-6.02587;,
 -128.93294;151.70117;-6.02587;,
 -128.93294;128.98557;-6.02587;,
 128.93294;128.98557;-6.02587;,
 -128.93294;225.91969;-6.02587;,
 128.93294;225.91969;-6.02587;,
 128.93294;203.20409;-6.02587;,
 -128.93294;203.20409;-6.02587;,
 128.93294;225.91969;-6.02587;,
 128.93294;225.91969;6.02587;,
 128.93294;203.20409;6.02587;,
 128.93294;203.20409;-6.02587;,
 128.93294;225.91969;6.02587;,
 -128.93294;225.91969;6.02587;,
 -128.93294;203.20409;6.02587;,
 128.93294;203.20409;6.02587;,
 -128.93294;225.91969;6.02587;,
 -128.93294;225.91969;-6.02587;,
 -128.93294;203.20409;-6.02587;,
 -128.93294;203.20409;6.02587;,
 128.93294;225.91969;-6.02587;,
 -128.93294;225.91969;-6.02587;,
 -128.93294;203.20409;-6.02587;,
 128.93294;203.20409;-6.02587;,
 -128.93294;325.49677;-6.02587;,
 128.93294;325.49677;-6.02587;,
 128.93294;302.78107;-6.02587;,
 -128.93294;302.78107;-6.02587;,
 128.93294;325.49677;-6.02587;,
 128.93294;325.49677;6.02587;,
 128.93294;302.78107;6.02587;,
 128.93294;302.78107;-6.02587;,
 128.93294;325.49677;6.02587;,
 -128.93294;325.49677;6.02587;,
 -128.93294;302.78107;6.02587;,
 128.93294;302.78107;6.02587;,
 -128.93294;325.49677;6.02587;,
 -128.93294;325.49677;-6.02587;,
 -128.93294;302.78107;-6.02587;,
 -128.93294;302.78107;6.02587;,
 128.93294;325.49677;-6.02587;,
 -128.93294;325.49677;-6.02587;,
 -128.93294;302.78107;-6.02587;,
 128.93294;302.78107;-6.02587;,
 87.23293;231.21213;-11.10093;,
 157.73764;231.21213;-11.10093;,
 157.73764;168.19757;-11.10093;,
 87.23293;168.19757;-11.10093;,
 157.73764;231.21213;-11.10093;,
 157.73764;231.21213;-4.13817;,
 157.73764;168.19757;-4.13817;,
 157.73764;168.19757;-11.10093;,
 157.73764;231.21213;-4.13817;,
 87.23293;231.21213;-4.13817;,
 87.23293;168.19757;-4.13817;,
 157.73764;168.19757;-4.13817;,
 87.23293;231.21213;-4.13817;,
 87.23293;231.21213;-11.10093;,
 87.23293;168.19757;-11.10093;,
 87.23293;168.19757;-4.13817;,
 157.73764;231.21213;-11.10093;,
 87.23293;231.21213;-11.10093;,
 87.23293;168.19757;-11.10093;,
 157.73764;168.19757;-11.10093;,
 -99.67389;369.04352;-1.92306;,
 -88.36884;369.04352;-1.92306;,
 -88.36884;51.23164;-1.92306;,
 -99.67389;51.23164;-1.92306;,
 -88.36884;369.04352;-1.92306;,
 -88.36884;369.04352;1.92306;,
 -88.36884;51.23164;1.92306;,
 -88.36884;51.23164;-1.92306;,
 -88.36884;369.04352;1.92306;,
 -99.67389;369.04352;1.92306;,
 -99.67389;51.23164;1.92306;,
 -88.36884;51.23164;1.92306;,
 -99.67389;369.04352;1.92306;,
 -99.67389;369.04352;-1.92306;,
 -99.67389;51.23164;-1.92306;,
 -99.67389;51.23164;1.92306;,
 -88.36884;369.04352;-1.92306;,
 -99.67389;369.04352;-1.92306;,
 -99.67389;51.23164;-1.92306;,
 -88.36884;51.23164;-1.92306;,
 -46.21858;369.04352;-1.92306;,
 -34.91351;369.04352;-1.92306;,
 -34.91351;51.23164;-1.92306;,
 -46.21858;51.23164;-1.92306;,
 -34.91351;369.04352;-1.92306;,
 -34.91351;369.04352;1.92306;,
 -34.91351;51.23164;1.92306;,
 -34.91351;51.23164;-1.92306;,
 -34.91351;369.04352;1.92306;,
 -46.21858;369.04352;1.92306;,
 -46.21858;51.23164;1.92306;,
 -34.91351;51.23164;1.92306;,
 -46.21858;369.04352;1.92306;,
 -46.21858;369.04352;-1.92306;,
 -46.21858;51.23164;-1.92306;,
 -46.21858;51.23164;1.92306;,
 -34.91351;369.04352;-1.92306;,
 -46.21858;369.04352;-1.92306;,
 -46.21858;51.23164;-1.92306;,
 -34.91351;51.23164;-1.92306;,
 9.31528;369.04352;-1.92306;,
 20.62035;369.04352;-1.92306;,
 20.62035;51.23164;-1.92306;,
 9.31528;51.23164;-1.92306;,
 20.62035;369.04352;-1.92306;,
 20.62035;369.04352;1.92306;,
 20.62035;51.23164;1.92306;,
 20.62035;51.23164;-1.92306;,
 20.62035;369.04352;1.92306;,
 9.31528;369.04352;1.92306;,
 9.31528;51.23164;1.92306;,
 20.62035;51.23164;1.92306;,
 9.31528;369.04352;1.92306;,
 9.31528;369.04352;-1.92306;,
 9.31528;51.23164;-1.92306;,
 9.31528;51.23164;1.92306;,
 20.62035;369.04352;-1.92306;,
 9.31528;369.04352;-1.92306;,
 9.31528;51.23164;-1.92306;,
 20.62035;51.23164;-1.92306;,
 60.81567;369.04352;-1.92306;,
 72.12073;369.04352;-1.92306;,
 72.12073;51.23164;-1.92306;,
 60.81567;51.23164;-1.92306;,
 72.12073;369.04352;-1.92306;,
 72.12073;369.04352;1.92306;,
 72.12073;51.23164;1.92306;,
 72.12073;51.23164;-1.92306;,
 72.12073;369.04352;1.92306;,
 60.81567;369.04352;1.92306;,
 60.81567;51.23164;1.92306;,
 72.12073;51.23164;1.92306;,
 60.81567;369.04352;1.92306;,
 60.81567;369.04352;-1.92306;,
 60.81567;51.23164;-1.92306;,
 60.81567;51.23164;1.92306;,
 72.12073;369.04352;-1.92306;,
 60.81567;369.04352;-1.92306;,
 60.81567;51.23164;-1.92306;,
 72.12073;51.23164;-1.92306;;
 
 108;
 4;0,1,2,3;,
 4;4,5,6,7;,
 4;8,9,10,11;,
 4;12,13,14,15;,
 4;16,17,18,2;,
 4;19,20,21,22;,
 4;23,24,25,26;,
 4;23,26,9,8;,
 4;27,12,15,28;,
 4;27,28,29,30;,
 4;31,7,32,33;,
 4;31,33,17,16;,
 4;34,35,20,1;,
 4;36,34,1,37;,
 4;38,36,37,21;,
 4;35,38,21,20;,
 4;35,34,36,38;,
 4;39,40,41,42;,
 4;43,44,19,22;,
 4;43,22,45,46;,
 4;43,46,41,40;,
 4;44,39,42,47;,
 4;44,47,4,19;,
 4;46,45,4,47;,
 4;46,47,42,41;,
 4;48,49,43,40;,
 4;50,48,40,39;,
 4;51,50,39,44;,
 4;49,51,44,43;,
 4;49,48,50,51;,
 4;52,53,54,55;,
 4;56,57,58,59;,
 4;60,61,62,63;,
 4;64,65,59,66;,
 4;67,68,69,70;,
 4;71,72,73,74;,
 4;75,71,74,58;,
 4;76,75,58,77;,
 4;72,76,77,73;,
 4;72,71,75,76;,
 4;78,79,80,81;,
 4;78,81,61,60;,
 4;82,64,66,83;,
 4;82,83,52,84;,
 4;85,86,74,73;,
 4;87,67,70,88;,
 4;87,88,89,90;,
 4;91,92,93,94;,
 4;95,92,91,96;,
 4;95,96,85,97;,
 4;95,97,53,98;,
 4;95,98,93,92;,
 4;96,99,86,85;,
 4;98,53,86,99;,
 4;98,99,94,93;,
 4;100,101,96,91;,
 4;102,100,91,94;,
 4;103,102,94,99;,
 4;101,103,99,96;,
 4;101,100,102,103;,
 4;104,105,106,107;,
 4;108,109,110,111;,
 4;112,113,114,115;,
 4;116,117,118,119;,
 4;116,109,120,121;,
 4;122,123,110,119;,
 4;124,125,126,127;,
 4;128,129,130,131;,
 4;132,133,134,135;,
 4;136,137,138,139;,
 4;136,129,140,141;,
 4;142,143,130,139;,
 4;144,145,146,147;,
 4;148,149,150,151;,
 4;152,153,154,155;,
 4;156,157,158,159;,
 4;156,149,160,161;,
 4;162,163,150,159;,
 4;164,165,166,167;,
 4;168,169,170,171;,
 4;172,173,174,175;,
 4;176,177,178,179;,
 4;176,169,180,181;,
 4;182,183,170,179;,
 4;184,185,186,187;,
 4;188,189,190,191;,
 4;192,193,194,195;,
 4;196,197,198,199;,
 4;196,189,200,201;,
 4;202,203,190,199;,
 4;204,205,206,207;,
 4;208,209,210,211;,
 4;212,213,214,215;,
 4;216,217,218,219;,
 4;216,209,220,221;,
 4;222,223,210,219;,
 4;224,225,226,227;,
 4;228,229,230,231;,
 4;232,233,234,235;,
 4;236,237,238,239;,
 4;236,229,240,241;,
 4;242,243,230,239;,
 4;244,245,246,247;,
 4;248,249,250,251;,
 4;252,253,254,255;,
 4;256,257,258,259;,
 4;256,249,260,261;,
 4;262,263,250,259;;
 
 MeshMaterialList {
  2;
  108;
  0,
  0,
  0,
  0,
  0,
  0,
  0,
  0,
  0,
  0,
  0,
  0,
  0,
  0,
  0,
  0,
  0,
  0,
  0,
  0,
  0,
  0,
  0,
  0,
  0,
  0,
  0,
  0,
  0,
  0,
  0,
  0,
  0,
  0,
  0,
  0,
  0,
  0,
  0,
  0,
  0,
  0,
  0,
  0,
  0,
  0,
  0,
  0,
  0,
  0,
  0,
  0,
  0,
  0,
  0,
  0,
  0,
  0,
  0,
  0,
  0,
  0,
  0,
  0,
  0,
  0,
  0,
  0,
  0,
  0,
  0,
  0,
  0,
  0,
  0,
  0,
  0,
  0,
  1,
  1,
  1,
  1,
  1,
  1,
  0,
  0,
  0,
  0,
  0,
  0,
  0,
  0,
  0,
  0,
  0,
  0,
  0,
  0,
  0,
  0,
  0,
  0,
  0,
  0,
  0,
  0,
  0,
  0;;
  Material {
   0.633600;0.568000;0.398400;1.000000;;
   5.000000;
   0.570000;0.570000;0.570000;;
   0.000000;0.000000;0.000000;;
  }
  Material {
   0.517600;0.517600;0.517600;1.000000;;
   5.000000;
   0.630000;0.630000;0.630000;;
   0.000000;0.000000;0.000000;;
  }
 }
 MeshNormals {
  8;
  -1.000000;0.000000;0.000000;,
  1.000000;0.000000;0.000000;,
  0.000000;0.000000;1.000000;,
  0.000000;0.000000;-1.000000;,
  0.000000;1.000000;0.000000;,
  0.000000;-1.000000;-0.000000;,
  0.999999;0.001400;0.000000;,
  0.007329;-0.999973;-0.000000;;
  108;
  4;1,1,1,1;,
  4;0,0,0,0;,
  4;2,2,2,2;,
  4;3,3,3,3;,
  4;5,5,5,5;,
  4;4,4,4,4;,
  4;2,2,2,2;,
  4;2,2,2,2;,
  4;3,3,3,3;,
  4;3,3,3,3;,
  4;5,5,5,5;,
  4;5,5,5,5;,
  4;2,2,2,2;,
  4;1,1,1,1;,
  4;3,3,3,3;,
  4;0,0,0,0;,
  4;4,4,4,4;,
  4;4,4,4,4;,
  4;1,1,1,1;,
  4;3,3,3,3;,
  4;3,3,3,3;,
  4;2,2,2,2;,
  4;2,2,2,2;,
  4;0,0,0,0;,
  4;0,0,0,0;,
  4;3,3,3,3;,
  4;4,4,4,4;,
  4;2,2,2,2;,
  4;5,5,5,5;,
  4;1,1,1,1;,
  4;4,4,4,4;,
  4;5,5,5,5;,
  4;3,3,3,3;,
  4;0,0,0,0;,
  4;2,2,2,2;,
  4;4,4,4,4;,
  4;2,2,2,2;,
  4;5,5,5,5;,
  4;3,3,3,3;,
  4;6,6,1,1;,
  4;3,3,3,3;,
  4;3,3,3,3;,
  4;0,0,0,0;,
  4;0,0,0,0;,
  4;1,1,1,1;,
  4;2,2,2,2;,
  4;2,2,2,2;,
  4;6,1,1,6;,
  4;3,3,3,3;,
  4;3,3,3,3;,
  4;4,4,4,4;,
  4;4,4,4,4;,
  4;5,5,5,5;,
  4;2,2,2,2;,
  4;2,2,2,2;,
  4;3,3,3,3;,
  4;6,6,6,6;,
  4;2,2,2,2;,
  4;0,0,0,0;,
  4;7,7,7,7;,
  4;3,3,3,3;,
  4;1,1,1,1;,
  4;2,2,2,2;,
  4;0,0,0,0;,
  4;4,4,4,4;,
  4;5,5,5,5;,
  4;3,3,3,3;,
  4;1,1,1,1;,
  4;2,2,2,2;,
  4;0,0,0,0;,
  4;4,4,4,4;,
  4;5,5,5,5;,
  4;3,3,3,3;,
  4;1,1,1,1;,
  4;2,2,2,2;,
  4;0,0,0,0;,
  4;4,4,4,4;,
  4;5,5,5,5;,
  4;3,3,3,3;,
  4;1,1,1,1;,
  4;2,2,2,2;,
  4;0,0,0,0;,
  4;4,4,4,4;,
  4;5,5,5,5;,
  4;3,3,3,3;,
  4;1,1,1,1;,
  4;2,2,2,2;,
  4;0,0,0,0;,
  4;4,4,4,4;,
  4;5,5,5,5;,
  4;3,3,3,3;,
  4;1,1,1,1;,
  4;2,2,2,2;,
  4;0,0,0,0;,
  4;4,4,4,4;,
  4;5,5,5,5;,
  4;3,3,3,3;,
  4;1,1,1,1;,
  4;2,2,2,2;,
  4;0,0,0,0;,
  4;4,4,4,4;,
  4;5,5,5,5;,
  4;3,3,3,3;,
  4;1,1,1,1;,
  4;2,2,2,2;,
  4;0,0,0,0;,
  4;4,4,4,4;,
  4;5,5,5,5;;
 }
 MeshTextureCoords {
  264;
  0.000000;0.000000;,
  1.000000;0.000000;,
  1.000000;1.000000;,
  0.000000;1.000000;,
  0.000000;0.000000;,
  1.000000;0.000000;,
  1.000000;1.000000;,
  0.000000;1.000000;,
  0.081850;0.000000;,
  0.081850;1.000000;,
  0.000000;1.000000;,
  0.000000;0.000000;,
  0.918150;0.000000;,
  1.000000;0.000000;,
  1.000000;1.000000;,
  0.918150;1.000000;,
  0.918150;1.000000;,
  0.918150;0.000000;,
  1.000000;0.000000;,
  0.077340;0.000000;,
  0.918150;0.000000;,
  0.918150;1.000000;,
  0.077340;1.000000;,
  0.922660;0.000000;,
  1.000000;0.000000;,
  1.000000;1.000000;,
  0.922660;1.000000;,
  0.077340;0.000000;,
  0.077340;1.000000;,
  0.000000;1.000000;,
  0.000000;0.000000;,
  0.077340;1.000000;,
  0.000000;0.000000;,
  0.077340;0.000000;,
  1.000000;0.000000;,
  0.918150;0.000000;,
  1.000000;1.000000;,
  1.000000;1.000000;,
  0.918150;1.000000;,
  0.077340;0.000000;,
  0.077340;1.000000;,
  0.000000;1.000000;,
  0.000000;0.000000;,
  0.077340;1.000000;,
  0.077340;0.000000;,
  0.000000;1.000000;,
  0.000000;1.000000;,
  0.000000;0.000000;,
  0.077340;1.000000;,
  0.077340;1.000000;,
  0.077340;0.000000;,
  0.077340;0.000000;,
  0.000000;0.000000;,
  1.000000;0.000000;,
  1.000000;1.000000;,
  0.000000;1.000000;,
  0.000000;0.000000;,
  1.000000;0.000000;,
  1.000000;1.000000;,
  0.000000;1.000000;,
  0.000000;0.914040;,
  1.000000;0.914040;,
  1.000000;1.000000;,
  0.000000;1.000000;,
  1.000000;0.914040;,
  1.000000;1.000000;,
  0.000000;0.914040;,
  1.000000;0.914040;,
  1.000000;1.000000;,
  0.000000;1.000000;,
  0.000000;0.914040;,
  1.000000;0.914040;,
  0.000000;0.914040;,
  0.000000;0.914040;,
  1.000000;0.914040;,
  1.000000;1.000000;,
  0.000000;1.000000;,
  0.000000;1.000000;,
  0.000000;0.094430;,
  0.000000;0.000000;,
  1.000000;0.000000;,
  1.000000;0.094430;,
  1.000000;0.094430;,
  0.000000;0.094430;,
  1.000000;0.000000;,
  0.000000;0.094430;,
  1.000000;0.094430;,
  1.000000;0.094430;,
  0.000000;0.094430;,
  0.000000;0.000000;,
  1.000000;0.000000;,
  0.000000;0.094430;,
  0.000000;0.000000;,
  1.000000;0.000000;,
  1.000000;0.094430;,
  0.000000;0.000000;,
  0.000000;0.094430;,
  0.000000;0.000000;,
  1.000000;0.000000;,
  1.000000;0.094430;,
  0.000000;0.094430;,
  0.000000;0.094430;,
  1.000000;0.094430;,
  1.000000;0.094430;,
  0.000000;0.000000;,
  1.000000;0.000000;,
  1.000000;1.000000;,
  0.000000;1.000000;,
  0.000000;0.000000;,
  1.000000;0.000000;,
  1.000000;1.000000;,
  0.000000;1.000000;,
  0.000000;0.000000;,
  1.000000;0.000000;,
  1.000000;1.000000;,
  0.000000;1.000000;,
  0.000000;0.000000;,
  1.000000;0.000000;,
  1.000000;1.000000;,
  0.000000;1.000000;,
  1.000000;1.000000;,
  0.000000;1.000000;,
  0.000000;0.000000;,
  1.000000;0.000000;,
  0.000000;0.000000;,
  1.000000;0.000000;,
  1.000000;1.000000;,
  0.000000;1.000000;,
  0.000000;0.000000;,
  1.000000;0.000000;,
  1.000000;1.000000;,
  0.000000;1.000000;,
  0.000000;0.000000;,
  1.000000;0.000000;,
  1.000000;1.000000;,
  0.000000;1.000000;,
  0.000000;0.000000;,
  1.000000;0.000000;,
  1.000000;1.000000;,
  0.000000;1.000000;,
  1.000000;1.000000;,
  0.000000;1.000000;,
  0.000000;0.000000;,
  1.000000;0.000000;,
  0.000000;0.000000;,
  1.000000;0.000000;,
  1.000000;1.000000;,
  0.000000;1.000000;,
  0.000000;0.000000;,
  1.000000;0.000000;,
  1.000000;1.000000;,
  0.000000;1.000000;,
  0.000000;0.000000;,
  1.000000;0.000000;,
  1.000000;1.000000;,
  0.000000;1.000000;,
  0.000000;0.000000;,
  1.000000;0.000000;,
  1.000000;1.000000;,
  0.000000;1.000000;,
  1.000000;1.000000;,
  0.000000;1.000000;,
  0.000000;0.000000;,
  1.000000;0.000000;,
  0.000000;0.000000;,
  1.000000;0.000000;,
  1.000000;1.000000;,
  0.000000;1.000000;,
  0.000000;0.000000;,
  1.000000;0.000000;,
  1.000000;1.000000;,
  0.000000;1.000000;,
  0.000000;0.000000;,
  1.000000;0.000000;,
  1.000000;1.000000;,
  0.000000;1.000000;,
  0.000000;0.000000;,
  1.000000;0.000000;,
  1.000000;1.000000;,
  0.000000;1.000000;,
  1.000000;1.000000;,
  0.000000;1.000000;,
  0.000000;0.000000;,
  1.000000;0.000000;,
  0.000000;0.000000;,
  1.000000;0.000000;,
  1.000000;1.000000;,
  0.000000;1.000000;,
  0.000000;0.000000;,
  1.000000;0.000000;,
  1.000000;1.000000;,
  0.000000;1.000000;,
  0.000000;0.000000;,
  1.000000;0.000000;,
  1.000000;1.000000;,
  0.000000;1.000000;,
  0.000000;0.000000;,
  1.000000;0.000000;,
  1.000000;1.000000;,
  0.000000;1.000000;,
  1.000000;1.000000;,
  0.000000;1.000000;,
  0.000000;0.000000;,
  1.000000;0.000000;,
  0.000000;0.000000;,
  1.000000;0.000000;,
  1.000000;1.000000;,
  0.000000;1.000000;,
  0.000000;0.000000;,
  1.000000;0.000000;,
  1.000000;1.000000;,
  0.000000;1.000000;,
  0.000000;0.000000;,
  1.000000;0.000000;,
  1.000000;1.000000;,
  0.000000;1.000000;,
  0.000000;0.000000;,
  1.000000;0.000000;,
  1.000000;1.000000;,
  0.000000;1.000000;,
  1.000000;1.000000;,
  0.000000;1.000000;,
  0.000000;0.000000;,
  1.000000;0.000000;,
  0.000000;0.000000;,
  1.000000;0.000000;,
  1.000000;1.000000;,
  0.000000;1.000000;,
  0.000000;0.000000;,
  1.000000;0.000000;,
  1.000000;1.000000;,
  0.000000;1.000000;,
  0.000000;0.000000;,
  1.000000;0.000000;,
  1.000000;1.000000;,
  0.000000;1.000000;,
  0.000000;0.000000;,
  1.000000;0.000000;,
  1.000000;1.000000;,
  0.000000;1.000000;,
  1.000000;1.000000;,
  0.000000;1.000000;,
  0.000000;0.000000;,
  1.000000;0.000000;,
  0.000000;0.000000;,
  1.000000;0.000000;,
  1.000000;1.000000;,
  0.000000;1.000000;,
  0.000000;0.000000;,
  1.000000;0.000000;,
  1.000000;1.000000;,
  0.000000;1.000000;,
  0.000000;0.000000;,
  1.000000;0.000000;,
  1.000000;1.000000;,
  0.000000;1.000000;,
  0.000000;0.000000;,
  1.000000;0.000000;,
  1.000000;1.000000;,
  0.000000;1.000000;,
  1.000000;1.000000;,
  0.000000;1.000000;,
  0.000000;0.000000;,
  1.000000;0.000000;;
 }
}
