xof 0302txt 0064
template Header {
 <3D82AB43-62DA-11cf-AB39-0020AF71E433>
 WORD major;
 WORD minor;
 DWORD flags;
}

template Vector {
 <3D82AB5E-62DA-11cf-AB39-0020AF71E433>
 FLOAT x;
 FLOAT y;
 FLOAT z;
}

template Coords2d {
 <F6F23F44-7686-11cf-8F52-0040333594A3>
 FLOAT u;
 FLOAT v;
}

template Matrix4x4 {
 <F6F23F45-7686-11cf-8F52-0040333594A3>
 array FLOAT matrix[16];
}

template ColorRGBA {
 <35FF44E0-6C7C-11cf-8F52-0040333594A3>
 FLOAT red;
 FLOAT green;
 FLOAT blue;
 FLOAT alpha;
}

template ColorRGB {
 <D3E16E81-7835-11cf-8F52-0040333594A3>
 FLOAT red;
 FLOAT green;
 FLOAT blue;
}

template IndexedColor {
 <1630B820-7842-11cf-8F52-0040333594A3>
 DWORD index;
 ColorRGBA indexColor;
}

template Boolean {
 <4885AE61-78E8-11cf-8F52-0040333594A3>
 WORD truefalse;
}

template Boolean2d {
 <4885AE63-78E8-11cf-8F52-0040333594A3>
 Boolean u;
 Boolean v;
}

template MaterialWrap {
 <4885AE60-78E8-11cf-8F52-0040333594A3>
 Boolean u;
 Boolean v;
}

template TextureFilename {
 <A42790E1-7810-11cf-8F52-0040333594A3>
 STRING filename;
}

template Material {
 <3D82AB4D-62DA-11cf-AB39-0020AF71E433>
 ColorRGBA faceColor;
 FLOAT power;
 ColorRGB specularColor;
 ColorRGB emissiveColor;
 [...]
}

template MeshFace {
 <3D82AB5F-62DA-11cf-AB39-0020AF71E433>
 DWORD nFaceVertexIndices;
 array DWORD faceVertexIndices[nFaceVertexIndices];
}

template MeshFaceWraps {
 <4885AE62-78E8-11cf-8F52-0040333594A3>
 DWORD nFaceWrapValues;
 Boolean2d faceWrapValues;
}

template MeshTextureCoords {
 <F6F23F40-7686-11cf-8F52-0040333594A3>
 DWORD nTextureCoords;
 array Coords2d textureCoords[nTextureCoords];
}

template MeshMaterialList {
 <F6F23F42-7686-11cf-8F52-0040333594A3>
 DWORD nMaterials;
 DWORD nFaceIndexes;
 array DWORD faceIndexes[nFaceIndexes];
 [Material]
}

template MeshNormals {
 <F6F23F43-7686-11cf-8F52-0040333594A3>
 DWORD nNormals;
 array Vector normals[nNormals];
 DWORD nFaceNormals;
 array MeshFace faceNormals[nFaceNormals];
}

template MeshVertexColors {
 <1630B821-7842-11cf-8F52-0040333594A3>
 DWORD nVertexColors;
 array IndexedColor vertexColors[nVertexColors];
}

template Mesh {
 <3D82AB44-62DA-11cf-AB39-0020AF71E433>
 DWORD nVertices;
 array Vector vertices[nVertices];
 DWORD nFaces;
 array MeshFace faces[nFaces];
 [...]
}

Header{
1;
0;
1;
}

Mesh {
 196;
 -49.89531;1.67934;28.44616;,
 -49.89531;-1.67934;28.44616;,
 -49.89531;-1.67934;32.09944;,
 -49.89531;1.67934;32.09944;,
 49.89532;1.67934;28.44615;,
 49.89532;1.67934;32.09943;,
 49.89532;-1.67934;32.09943;,
 49.89532;-1.67934;28.44615;,
 -49.89531;1.67934;-23.95619;,
 -49.89532;1.67934;-27.90056;,
 -49.89532;-1.67934;-27.90056;,
 -49.89531;-1.67934;-23.95619;,
 49.89531;1.67934;-23.95620;,
 49.89531;-1.67934;-23.95620;,
 49.89531;-1.67934;-27.90057;,
 49.89531;1.67934;-27.90057;,
 -45.86100;1.67934;-27.90056;,
 -45.86100;-1.67934;-27.90056;,
 -49.89532;-1.67934;-27.90056;,
 -49.89532;1.67934;-27.90056;,
 -45.86100;-1.67934;-27.90056;,
 -45.86100;-1.67934;-23.95619;,
 -49.89531;-1.67934;-23.95619;,
 -45.86100;1.67934;32.09944;,
 -49.89531;1.67934;32.09944;,
 -49.89531;-1.67934;32.09944;,
 -45.86100;-1.67934;32.09944;,
 -45.86100;-1.67934;28.44616;,
 -49.89531;-1.67934;28.44616;,
 -45.86100;-1.67934;32.09944;,
 -49.89531;-1.67934;32.09944;,
 44.93226;1.67934;-23.95620;,
 -45.86100;1.67934;-23.95619;,
 -45.86100;1.67934;28.44616;,
 44.93227;1.67934;28.44615;,
 44.93226;1.67934;-27.90057;,
 49.89531;1.67934;-27.90057;,
 49.89531;-1.67934;-27.90057;,
 44.93226;-1.67934;-27.90057;,
 44.93226;-1.67934;-27.90057;,
 49.89531;-1.67934;-23.95620;,
 44.93226;-1.67934;-23.95620;,
 44.93227;1.67934;32.09943;,
 44.93227;-1.67934;32.09943;,
 49.89532;-1.67934;32.09943;,
 49.89532;1.67934;32.09943;,
 49.89532;-1.67934;28.44615;,
 44.93227;-1.67934;28.44615;,
 44.93227;-1.67934;32.09943;,
 49.89532;-1.67934;32.09943;,
 -49.89532;25.95678;-27.90056;,
 -45.86100;25.95678;-27.90056;,
 -45.86100;1.67934;-27.90056;,
 -49.89531;25.95678;-23.95619;,
 -49.89531;1.67934;-23.95619;,
 -45.86100;25.95678;-23.95619;,
 -49.89531;25.95678;28.44616;,
 -49.89531;1.67934;28.44616;,
 -45.86100;25.95678;28.44616;,
 -49.89531;25.95678;32.09944;,
 -49.89531;1.67934;32.09944;,
 -45.86100;25.95678;32.09944;,
 -45.86100;1.67934;32.09944;,
 49.89531;25.95678;-27.90057;,
 49.89531;25.95678;-23.95620;,
 49.89531;1.67934;-23.95620;,
 44.93226;25.95678;-27.90057;,
 44.93226;1.67934;-27.90057;,
 44.93226;25.95678;-23.95620;,
 44.93227;25.95678;28.44615;,
 49.89532;25.95678;28.44615;,
 49.89532;1.67934;28.44615;,
 44.93227;25.95678;32.09943;,
 44.93227;1.67934;32.09943;,
 49.89532;25.95678;32.09943;,
 49.89532;1.67934;32.09943;,
 53.23759;30.79593;32.09943;,
 -53.23758;30.79593;32.09944;,
 -53.23758;26.22018;32.09944;,
 53.23759;26.22018;32.09943;,
 -53.23758;30.79593;32.09944;,
 -53.23759;30.79593;-27.90056;,
 -53.23759;26.22018;-27.90056;,
 -53.23758;26.22018;32.09944;,
 -53.23759;30.79593;-27.90056;,
 53.23758;30.79593;-27.90057;,
 53.23758;26.22018;-27.90057;,
 -53.23759;26.22018;-27.90056;,
 53.23758;30.79593;-27.90057;,
 53.23759;30.79593;32.09943;,
 53.23759;26.22018;32.09943;,
 53.23758;26.22018;-27.90057;,
 -53.23758;30.79593;32.09944;,
 53.23759;30.79593;32.09943;,
 53.23759;26.22018;32.09943;,
 -53.23758;26.22018;32.09944;,
 7.92105;28.05939;-27.50993;,
 -7.92105;28.05939;-27.50993;,
 -7.92105;21.30762;-27.50993;,
 7.92105;21.30762;-27.50993;,
 -7.92105;28.05939;-27.50993;,
 -7.92105;28.05939;-30.67347;,
 -7.92105;21.30762;-30.67347;,
 -7.92105;21.30762;-27.50993;,
 -7.92105;28.05939;-30.67347;,
 7.92105;28.05939;-30.67347;,
 7.92105;21.30762;-30.67347;,
 -7.92105;21.30762;-30.67347;,
 7.92105;28.05939;-30.67347;,
 7.92105;28.05939;-27.50993;,
 7.92105;21.30762;-27.50993;,
 7.92105;21.30762;-30.67347;,
 -7.92105;28.05939;-27.50993;,
 7.92105;28.05939;-27.50993;,
 7.92105;21.30762;-27.50993;,
 -7.92105;21.30762;-27.50993;,
 -4.66854;21.94713;-29.99661;,
 -4.66854;21.94713;-31.78821;,
 -4.66854;14.14464;-31.78821;,
 -4.66854;14.14464;-29.99661;,
 4.66854;21.94713;-31.78821;,
 4.66854;21.94713;-29.99661;,
 4.66854;14.14464;-29.82576;,
 4.66854;14.14464;-31.95905;,
 -0.01113;21.94713;-29.41733;,
 4.66854;21.94713;-29.99661;,
 -0.01113;21.94713;-32.36751;,
 -4.66854;21.94713;-29.99661;,
 -0.01113;21.94713;-29.41733;,
 -4.66854;21.94713;-29.99661;,
 -4.66854;14.14464;-29.99661;,
 -0.01113;14.14464;-29.41733;,
 4.66854;14.14464;-29.82576;,
 4.66854;21.94713;-29.99661;,
 -0.01113;21.94713;-32.36751;,
 4.66854;21.94713;-31.78821;,
 4.66854;14.14464;-31.95905;,
 -0.01113;14.14464;-32.36751;,
 -4.66854;14.14464;-31.78821;,
 -4.66854;21.94713;-31.78821;,
 -0.01113;14.14464;-29.41733;,
 -4.66854;14.14464;-29.99661;,
 -0.01113;14.14464;-32.36751;,
 4.66854;14.14464;-29.82576;,
 4.14996;23.58267;-30.61017;,
 2.86728;23.58267;-30.61017;,
 2.86728;20.52765;-30.61017;,
 4.14996;20.52765;-30.61017;,
 2.86728;23.58267;-30.61017;,
 2.86728;23.58267;-31.64528;,
 2.86728;20.52765;-31.64528;,
 2.86728;20.52765;-30.61017;,
 2.86728;23.58267;-31.64528;,
 4.14996;23.58267;-31.64528;,
 4.14996;20.52765;-31.64528;,
 2.86728;20.52765;-31.64528;,
 4.14996;23.58267;-31.64528;,
 4.14996;23.58267;-30.61017;,
 4.14996;20.52765;-30.61017;,
 4.14996;20.52765;-31.64528;,
 4.14996;20.52765;-30.61017;,
 2.86728;20.52765;-30.61017;,
 1.86093;24.93669;-31.64528;,
 2.91162;25.67241;-31.64528;,
 1.86093;24.93669;-30.61017;,
 2.86728;23.58267;-30.61017;,
 2.91162;25.67241;-30.61017;,
 4.14996;23.58267;-30.61017;,
 -0.03960;25.56708;-31.64528;,
 -0.03414;26.84928;-31.64528;,
 -0.03960;25.56708;-30.61017;,
 -0.03735;26.84928;-30.61017;,
 -4.22742;23.58267;-30.61017;,
 -4.22742;20.52765;-30.61017;,
 -2.94474;20.52765;-30.61017;,
 -2.94474;23.58267;-30.61017;,
 -2.94474;23.58267;-30.61017;,
 -2.94474;20.52765;-30.61017;,
 -2.94474;20.52765;-31.64528;,
 -2.94474;23.58267;-31.64528;,
 -2.94474;23.58267;-31.64528;,
 -2.94474;20.52765;-31.64528;,
 -4.22742;20.52765;-31.64528;,
 -4.22742;23.58267;-31.64528;,
 -4.22742;23.58267;-31.64528;,
 -4.22742;20.52765;-31.64528;,
 -4.22742;20.52765;-30.61017;,
 -4.22742;23.58267;-30.61017;,
 -4.22742;20.52765;-30.61017;,
 -2.94474;20.52765;-30.61017;,
 -1.93839;24.93669;-31.64528;,
 -2.98908;25.67241;-31.64528;,
 -1.93839;24.93669;-30.61017;,
 -2.94474;23.58267;-30.61017;,
 -2.98908;25.67241;-30.61017;,
 -4.22742;23.58267;-30.61017;;
 
 96;
 4;0,1,2,3;,
 4;4,5,6,7;,
 4;8,9,10,11;,
 4;8,11,1,0;,
 4;12,4,7,13;,
 4;12,13,14,15;,
 4;16,17,18,19;,
 4;20,21,22,10;,
 4;23,24,25,26;,
 4;21,27,28,22;,
 4;29,30,28,27;,
 4;31,32,33,34;,
 4;35,36,37,38;,
 4;35,38,17,16;,
 4;39,14,40,41;,
 4;39,41,21,20;,
 4;42,23,26,43;,
 4;42,43,44,45;,
 4;41,40,46,47;,
 4;41,47,27,21;,
 4;48,29,27,47;,
 4;48,47,46,49;,
 4;50,51,52,9;,
 4;53,50,9,54;,
 4;55,51,50,53;,
 4;56,53,54,57;,
 4;55,58,33,32;,
 4;55,53,56,58;,
 4;59,56,57,60;,
 4;61,59,60,62;,
 4;58,56,59,61;,
 4;63,64,65,15;,
 4;66,63,15,67;,
 4;68,64,63,66;,
 4;51,66,67,52;,
 4;68,55,32,31;,
 4;68,66,51,55;,
 4;69,68,31,34;,
 4;64,70,71,65;,
 4;68,69,70,64;,
 4;58,69,34,33;,
 4;72,61,62,73;,
 4;69,58,61,72;,
 4;74,72,73,75;,
 4;70,74,75,71;,
 4;69,72,74,70;,
 4;76,77,78,79;,
 4;80,81,82,83;,
 4;84,85,86,87;,
 4;88,89,90,91;,
 4;88,81,92,93;,
 4;94,95,82,91;,
 4;96,97,98,99;,
 4;100,101,102,103;,
 4;104,105,106,107;,
 4;108,109,110,111;,
 4;108,101,112,113;,
 4;114,115,102,111;,
 4;116,117,118,119;,
 4;120,121,122,123;,
 4;124,125,120,126;,
 4;124,126,117,127;,
 4;128,129,130,131;,
 4;128,131,132,133;,
 4;134,135,136,137;,
 4;134,137,138,139;,
 4;140,141,118,142;,
 4;140,142,123,143;,
 4;144,145,146,147;,
 4;148,149,150,151;,
 4;152,153,154,155;,
 4;156,157,158,159;,
 4;160,161,150,159;,
 4;162,163,156,149;,
 4;164,162,149,165;,
 4;166,164,165,167;,
 4;163,166,167,156;,
 4;168,169,163,162;,
 4;170,168,162,164;,
 4;171,170,164,166;,
 4;169,171,166,163;,
 4;169,168,170,171;,
 4;172,173,174,175;,
 4;176,177,178,179;,
 4;180,181,182,183;,
 4;184,185,186,187;,
 4;188,185,178,189;,
 4;190,179,184,191;,
 4;192,193,179,190;,
 4;194,195,193,192;,
 4;191,184,195,194;,
 4;168,190,191,169;,
 4;170,192,190,168;,
 4;171,194,192,170;,
 4;169,191,194,171;,
 4;169,171,170,168;;
 
 MeshMaterialList {
  4;
  96;
  0,
  0,
  0,
  0,
  0,
  0,
  0,
  0,
  0,
  0,
  0,
  0,
  0,
  0,
  0,
  0,
  0,
  0,
  0,
  0,
  0,
  0,
  0,
  0,
  0,
  0,
  0,
  0,
  0,
  0,
  0,
  0,
  0,
  0,
  0,
  0,
  0,
  0,
  0,
  0,
  0,
  0,
  0,
  0,
  0,
  0,
  0,
  0,
  0,
  0,
  0,
  0,
  3,
  3,
  3,
  3,
  3,
  3,
  1,
  1,
  1,
  1,
  1,
  1,
  1,
  1,
  1,
  1,
  2,
  2,
  2,
  2,
  2,
  2,
  2,
  2,
  2,
  2,
  2,
  2,
  2,
  2,
  2,
  2,
  2,
  2,
  2,
  2,
  2,
  2,
  2,
  2,
  2,
  2,
  2,
  2;;
  Material {
   0.439200;0.511200;0.417600;1.000000;;
   5.000000;
   0.000000;0.000000;0.000000;;
   0.000000;0.000000;0.000000;;
  }
  Material {
   0.615200;0.577600;0.364000;1.000000;;
   6.000000;
   0.570000;0.570000;0.570000;;
   0.000000;0.000000;0.000000;;
  }
  Material {
   0.467200;0.467200;0.467200;1.000000;;
   5.000000;
   0.790000;0.790000;0.790000;;
   0.000000;0.000000;0.000000;;
  }
  Material {
   0.125600;0.125600;0.125600;1.000000;;
   5.000000;
   0.000000;0.000000;0.000000;;
   0.000000;0.000000;0.000000;;
  }
 }
 MeshNormals {
  60;
  1.000000;0.000000;0.000000;,
  -1.000000;0.000000;0.000000;,
  -1.000000;0.000000;0.000001;,
  -1.000000;0.000000;0.000001;,
  1.000000;0.000000;-0.000001;,
  1.000000;0.000000;-0.000001;,
  -1.000000;0.000000;0.000000;,
  1.000000;0.000000;-0.000000;,
  -1.000000;0.000000;0.000001;,
  -1.000000;0.000000;0.000001;,
  1.000000;0.000000;-0.000001;,
  1.000000;0.000000;-0.000001;,
  0.000000;1.000000;0.000000;,
  -0.000000;0.000000;-1.000000;,
  0.000000;0.000000;1.000000;,
  0.000000;-1.000000;-0.000000;,
  0.000000;0.000000;1.000000;,
  0.000000;0.000000;-1.000000;,
  -1.000000;0.000000;0.000000;,
  1.000000;0.000000;-0.000000;,
  1.000000;0.000000;-0.000000;,
  -1.000000;0.000000;0.000000;,
  0.000000;0.000000;1.000000;,
  -0.000000;0.000000;-1.000000;,
  0.000000;0.000000;1.000000;,
  -1.000000;0.000000;0.000000;,
  -0.000000;0.000000;-1.000000;,
  0.000000;0.000000;1.000000;,
  -1.000000;0.000000;0.000000;,
  0.000000;0.000000;-1.000000;,
  1.000000;0.000000;-0.000000;,
  0.000000;1.000000;0.000000;,
  0.000000;-1.000000;-0.000000;,
  1.000000;0.000000;-0.000000;,
  1.000000;0.000000;-0.000000;,
  -1.000000;0.000000;0.000000;,
  0.000000;1.000000;0.000000;,
  -0.009321;0.005469;0.999942;,
  -0.009321;0.005468;-0.999942;,
  0.000000;0.000000;1.000000;,
  -0.949368;-0.314166;0.000000;,
  -1.000000;0.000000;0.000000;,
  0.000000;0.000000;-1.000000;,
  -0.585873;-0.810403;0.000000;,
  0.000137;-1.000000;-0.000000;,
  0.949368;-0.314166;-0.000000;,
  1.000000;0.000000;-0.000000;,
  0.585984;-0.810323;-0.000000;,
  -0.123426;0.000000;0.992354;,
  0.104905;0.010865;0.994423;,
  0.104911;0.010865;-0.994422;,
  -0.123431;0.000000;-0.992353;,
  0.000000;-1.000000;-0.000000;,
  0.964442;0.264295;-0.000000;,
  0.650220;0.759746;0.000303;,
  0.000348;1.000000;0.000001;,
  -0.999994;0.003007;-0.001550;,
  -0.964442;0.264295;0.000000;,
  -0.649956;0.759972;-0.000303;,
  0.999994;-0.003007;0.001550;;
  96;
  4;6,6,1,1;,
  4;7,0,0,7;,
  4;8,2,3,9;,
  4;8,9,6,6;,
  4;10,7,7,11;,
  4;10,11,5,4;,
  4;13,13,17,17;,
  4;15,15,15,15;,
  4;14,16,16,14;,
  4;15,15,15,15;,
  4;15,15,15,15;,
  4;12,12,12,12;,
  4;13,17,17,13;,
  4;13,13,13,13;,
  4;15,15,15,15;,
  4;15,15,15,15;,
  4;14,14,14,14;,
  4;14,14,16,16;,
  4;15,15,15,15;,
  4;15,15,15,15;,
  4;15,15,15,15;,
  4;15,15,15,15;,
  4;17,13,13,17;,
  4;8,2,2,8;,
  4;12,12,12,12;,
  4;18,8,8,6;,
  4;20,20,20,20;,
  4;12,12,12,12;,
  4;1,18,6,1;,
  4;14,16,16,14;,
  4;12,12,12,12;,
  4;4,10,10,4;,
  4;13,17,17,13;,
  4;12,12,12,12;,
  4;13,13,13,13;,
  4;22,22,22,22;,
  4;12,12,12,12;,
  4;21,21,21,21;,
  4;10,19,7,10;,
  4;12,12,12,12;,
  4;23,23,23,23;,
  4;14,14,14,14;,
  4;12,12,12,12;,
  4;16,14,14,16;,
  4;19,0,0,7;,
  4;12,12,12,12;,
  4;24,24,24,24;,
  4;25,25,25,25;,
  4;26,26,26,26;,
  4;30,30,30,30;,
  4;31,31,31,31;,
  4;32,32,32,32;,
  4;27,27,27,27;,
  4;28,28,28,28;,
  4;29,29,29,29;,
  4;33,33,33,33;,
  4;31,31,31,31;,
  4;32,32,32,32;,
  4;35,35,35,35;,
  4;34,34,34,34;,
  4;36,36,36,36;,
  4;36,36,36,36;,
  4;37,48,48,37;,
  4;37,37,49,49;,
  4;38,50,50,38;,
  4;38,38,51,51;,
  4;52,52,52,52;,
  4;52,52,52,52;,
  4;39,39,39,39;,
  4;40,40,41,41;,
  4;42,42,42,42;,
  4;53,53,46,46;,
  4;52,52,52,52;,
  4;42,42,42,42;,
  4;43,43,40,40;,
  4;39,39,39,39;,
  4;54,54,53,53;,
  4;42,42,42,42;,
  4;44,44,43,43;,
  4;39,39,39,39;,
  4;55,55,54,54;,
  4;56,56,56,56;,
  4;39,39,39,39;,
  4;45,46,46,45;,
  4;42,42,42,42;,
  4;57,41,41,57;,
  4;52,52,52,52;,
  4;42,42,42,42;,
  4;47,45,45,47;,
  4;39,39,39,39;,
  4;58,57,57,58;,
  4;42,42,42,42;,
  4;44,47,47,44;,
  4;39,39,39,39;,
  4;55,58,58,55;,
  4;59,59,59,59;;
 }
 MeshTextureCoords {
  196;
  0.060890;0.000000;,
  0.060890;1.000000;,
  0.000000;1.000000;,
  0.000000;0.000000;,
  0.939110;0.000000;,
  1.000000;0.000000;,
  1.000000;1.000000;,
  0.939110;1.000000;,
  0.934260;0.000000;,
  1.000000;0.000000;,
  1.000000;1.000000;,
  0.934260;1.000000;,
  0.065740;0.000000;,
  0.065740;1.000000;,
  0.000000;1.000000;,
  0.000000;0.000000;,
  0.040430;0.000000;,
  0.040430;1.000000;,
  0.000000;1.000000;,
  0.000000;0.000000;,
  0.959570;1.000000;,
  0.959570;0.934260;,
  1.000000;0.934260;,
  0.959570;0.000000;,
  1.000000;0.000000;,
  1.000000;1.000000;,
  0.959570;1.000000;,
  0.959570;0.060890;,
  1.000000;0.060890;,
  0.959570;0.000000;,
  1.000000;0.000000;,
  0.049730;0.065740;,
  0.959570;0.065740;,
  0.959570;0.939110;,
  0.049730;0.939110;,
  0.950270;0.000000;,
  1.000000;0.000000;,
  1.000000;1.000000;,
  0.950270;1.000000;,
  0.049730;1.000000;,
  0.000000;0.934260;,
  0.049730;0.934260;,
  0.049730;0.000000;,
  0.049730;1.000000;,
  0.000000;1.000000;,
  0.000000;0.000000;,
  0.000000;0.060890;,
  0.049730;0.060890;,
  0.049730;0.000000;,
  0.000000;0.000000;,
  1.000000;0.000000;,
  0.959570;0.000000;,
  0.959570;0.000000;,
  1.000000;0.065740;,
  1.000000;0.065740;,
  0.959570;0.065740;,
  1.000000;0.939110;,
  1.000000;0.939110;,
  0.959570;0.939110;,
  1.000000;1.000000;,
  1.000000;1.000000;,
  0.959570;1.000000;,
  0.959570;1.000000;,
  0.000000;0.000000;,
  0.000000;0.065740;,
  0.000000;0.065740;,
  0.049730;0.000000;,
  0.049730;0.000000;,
  0.049730;0.065740;,
  0.049730;0.939110;,
  0.000000;0.939110;,
  0.000000;0.939110;,
  0.049730;1.000000;,
  0.049730;1.000000;,
  0.000000;1.000000;,
  0.000000;1.000000;,
  0.000000;0.000000;,
  1.000000;0.000000;,
  1.000000;1.000000;,
  0.000000;1.000000;,
  0.000000;0.000000;,
  1.000000;0.000000;,
  1.000000;1.000000;,
  0.000000;1.000000;,
  0.000000;0.000000;,
  1.000000;0.000000;,
  1.000000;1.000000;,
  0.000000;1.000000;,
  0.000000;0.000000;,
  1.000000;0.000000;,
  1.000000;1.000000;,
  0.000000;1.000000;,
  1.000000;1.000000;,
  0.000000;1.000000;,
  0.000000;0.000000;,
  1.000000;0.000000;,
  0.000000;0.000000;,
  1.000000;0.000000;,
  1.000000;1.000000;,
  0.000000;1.000000;,
  0.000000;0.000000;,
  1.000000;0.000000;,
  1.000000;1.000000;,
  0.000000;1.000000;,
  0.000000;0.000000;,
  1.000000;0.000000;,
  1.000000;1.000000;,
  0.000000;1.000000;,
  0.000000;0.000000;,
  1.000000;0.000000;,
  1.000000;1.000000;,
  0.000000;1.000000;,
  1.000000;1.000000;,
  0.000000;1.000000;,
  0.000000;0.000000;,
  1.000000;0.000000;,
  0.000000;0.000000;,
  1.000000;0.000000;,
  1.000000;1.000000;,
  0.000000;1.000000;,
  0.000000;0.000000;,
  1.000000;0.000000;,
  1.000000;1.000000;,
  0.000000;1.000000;,
  0.501190;1.000000;,
  0.000000;1.000000;,
  0.501190;0.000000;,
  1.000000;1.000000;,
  0.501190;0.000000;,
  1.000000;0.000000;,
  1.000000;1.000000;,
  0.501190;1.000000;,
  0.000000;1.000000;,
  0.000000;0.000000;,
  0.498810;0.000000;,
  1.000000;0.000000;,
  1.000000;1.000000;,
  0.498810;1.000000;,
  0.000000;1.000000;,
  0.000000;0.000000;,
  0.501190;0.000000;,
  1.000000;0.000000;,
  0.501190;1.000000;,
  0.000000;0.000000;,
  0.000000;0.000000;,
  1.000000;0.000000;,
  1.000000;1.000000;,
  0.000000;1.000000;,
  0.000000;0.000000;,
  1.000000;0.000000;,
  1.000000;1.000000;,
  0.000000;1.000000;,
  0.000000;0.000000;,
  1.000000;0.000000;,
  1.000000;1.000000;,
  0.000000;1.000000;,
  0.000000;0.000000;,
  1.000000;0.000000;,
  1.000000;1.000000;,
  0.000000;1.000000;,
  0.000000;0.000000;,
  1.000000;0.000000;,
  1.000000;0.000000;,
  0.000000;0.000000;,
  1.000000;1.000000;,
  1.000000;1.000000;,
  0.000000;1.000000;,
  0.000000;1.000000;,
  1.000000;0.000000;,
  0.000000;0.000000;,
  1.000000;1.000000;,
  0.000000;1.000000;,
  0.000000;0.000000;,
  0.000000;1.000000;,
  1.000000;1.000000;,
  1.000000;0.000000;,
  0.000000;0.000000;,
  0.000000;1.000000;,
  1.000000;1.000000;,
  1.000000;0.000000;,
  0.000000;0.000000;,
  0.000000;1.000000;,
  1.000000;1.000000;,
  1.000000;0.000000;,
  0.000000;0.000000;,
  0.000000;1.000000;,
  1.000000;1.000000;,
  1.000000;0.000000;,
  0.000000;0.000000;,
  1.000000;0.000000;,
  1.000000;0.000000;,
  0.000000;0.000000;,
  1.000000;1.000000;,
  1.000000;1.000000;,
  0.000000;1.000000;,
  0.000000;1.000000;;
 }
}
