xof 0302txt 0064
template Header {
 <3D82AB43-62DA-11cf-AB39-0020AF71E433>
 WORD major;
 WORD minor;
 DWORD flags;
}

template Vector {
 <3D82AB5E-62DA-11cf-AB39-0020AF71E433>
 FLOAT x;
 FLOAT y;
 FLOAT z;
}

template Coords2d {
 <F6F23F44-7686-11cf-8F52-0040333594A3>
 FLOAT u;
 FLOAT v;
}

template Matrix4x4 {
 <F6F23F45-7686-11cf-8F52-0040333594A3>
 array FLOAT matrix[16];
}

template ColorRGBA {
 <35FF44E0-6C7C-11cf-8F52-0040333594A3>
 FLOAT red;
 FLOAT green;
 FLOAT blue;
 FLOAT alpha;
}

template ColorRGB {
 <D3E16E81-7835-11cf-8F52-0040333594A3>
 FLOAT red;
 FLOAT green;
 FLOAT blue;
}

template IndexedColor {
 <1630B820-7842-11cf-8F52-0040333594A3>
 DWORD index;
 ColorRGBA indexColor;
}

template Boolean {
 <4885AE61-78E8-11cf-8F52-0040333594A3>
 WORD truefalse;
}

template Boolean2d {
 <4885AE63-78E8-11cf-8F52-0040333594A3>
 Boolean u;
 Boolean v;
}

template MaterialWrap {
 <4885AE60-78E8-11cf-8F52-0040333594A3>
 Boolean u;
 Boolean v;
}

template TextureFilename {
 <A42790E1-7810-11cf-8F52-0040333594A3>
 STRING filename;
}

template Material {
 <3D82AB4D-62DA-11cf-AB39-0020AF71E433>
 ColorRGBA faceColor;
 FLOAT power;
 ColorRGB specularColor;
 ColorRGB emissiveColor;
 [...]
}

template MeshFace {
 <3D82AB5F-62DA-11cf-AB39-0020AF71E433>
 DWORD nFaceVertexIndices;
 array DWORD faceVertexIndices[nFaceVertexIndices];
}

template MeshFaceWraps {
 <4885AE62-78E8-11cf-8F52-0040333594A3>
 DWORD nFaceWrapValues;
 Boolean2d faceWrapValues;
}

template MeshTextureCoords {
 <F6F23F40-7686-11cf-8F52-0040333594A3>
 DWORD nTextureCoords;
 array Coords2d textureCoords[nTextureCoords];
}

template MeshMaterialList {
 <F6F23F42-7686-11cf-8F52-0040333594A3>
 DWORD nMaterials;
 DWORD nFaceIndexes;
 array DWORD faceIndexes[nFaceIndexes];
 [Material]
}

template MeshNormals {
 <F6F23F43-7686-11cf-8F52-0040333594A3>
 DWORD nNormals;
 array Vector normals[nNormals];
 DWORD nFaceNormals;
 array MeshFace faceNormals[nFaceNormals];
}

template MeshVertexColors {
 <1630B821-7842-11cf-8F52-0040333594A3>
 DWORD nVertexColors;
 array IndexedColor vertexColors[nVertexColors];
}

template Mesh {
 <3D82AB44-62DA-11cf-AB39-0020AF71E433>
 DWORD nVertices;
 array Vector vertices[nVertices];
 DWORD nFaces;
 array MeshFace faces[nFaces];
 [...]
}

Header{
1;
0;
1;
}

Mesh {
 196;
 33.50328;6.96987;-41.49912;,
 43.17615;8.15895;-41.49912;,
 43.17615;-0.46194;-41.49912;,
 31.87365;-0.46194;-41.49912;,
 33.50328;6.96987;44.85318;,
 31.87365;-0.46194;44.85318;,
 43.17615;-0.46194;44.85318;,
 43.17615;8.15895;44.85318;,
 -33.48777;6.96987;-41.49912;,
 -31.85814;-0.46194;-41.49912;,
 -43.17615;-0.46194;-41.49912;,
 -43.17615;8.15895;-41.49912;,
 -33.48777;6.96987;44.85318;,
 -43.17615;8.15895;44.85318;,
 -43.17615;-0.46194;44.85318;,
 -31.85814;-0.46194;44.85318;,
 -43.17615;8.15895;33.20895;,
 -43.17615;8.15895;-41.49912;,
 -43.17615;-0.46194;-41.49912;,
 -43.17615;-0.46194;33.20895;,
 -43.17615;-0.46194;44.85318;,
 -43.17615;8.15895;44.85318;,
 -43.17615;-0.46194;33.20895;,
 -43.17615;-0.46194;-41.49912;,
 -31.85814;-0.46194;-41.49912;,
 -31.85814;-0.46194;33.20895;,
 -31.85814;-0.46194;44.85318;,
 -33.48777;6.96987;33.20895;,
 33.50328;6.96987;33.20895;,
 33.50328;6.96987;-41.49912;,
 -33.48777;6.96987;-41.49912;,
 31.87365;-0.46194;-41.49912;,
 31.87365;-0.46194;33.20895;,
 31.87365;-0.46194;44.85318;,
 43.17615;-0.46194;-41.49912;,
 43.17615;-0.46194;33.20895;,
 43.17615;-0.46194;44.85318;,
 43.17615;8.15895;33.20895;,
 43.17615;8.15895;44.85318;,
 43.17615;-0.46194;33.20895;,
 43.17615;-0.46194;-41.49912;,
 43.17615;8.15895;-41.49912;,
 -43.17615;71.54757;44.85318;,
 -43.17615;71.54757;33.20895;,
 -43.17615;8.15895;33.20895;,
 -33.48777;75.96747;44.85318;,
 -33.48777;6.96987;44.85318;,
 -33.48777;75.96747;-41.49912;,
 -33.48777;75.96747;33.20895;,
 -43.17615;71.54757;-41.49912;,
 -43.17615;8.15895;-41.49912;,
 33.50328;75.96747;44.85318;,
 33.50328;6.96987;44.85318;,
 33.50328;75.96747;33.20895;,
 43.17615;71.54757;44.85318;,
 43.17615;71.54757;33.20895;,
 43.17615;8.15895;33.20895;,
 43.17615;71.54757;-41.49912;,
 43.17615;8.15895;-41.49912;,
 33.50328;75.96747;-41.49912;,
 -43.17615;83.91271;44.85318;,
 -43.17615;83.91271;33.20895;,
 -31.85814;83.91271;44.85318;,
 -31.85814;83.91271;33.20895;,
 -31.85814;83.91271;-41.49912;,
 -43.17615;83.91271;-41.49912;,
 31.87365;83.91271;44.85318;,
 31.87365;83.91271;33.20895;,
 43.17615;83.91271;44.85318;,
 43.17615;83.91271;33.20895;,
 43.17615;83.91271;-41.49912;,
 31.87365;83.91271;-41.49912;,
 31.87365;83.91271;-41.49912;,
 -31.85814;83.91271;-41.49912;,
 33.50328;75.96747;-41.49912;,
 -33.48777;75.96747;-41.49912;,
 -33.14688;11.53512;17.01039;,
 -33.14688;6.93651;17.01039;,
 -33.14688;6.93651;21.82722;,
 -33.14688;11.53512;21.82722;,
 33.14688;11.53512;17.01039;,
 33.14688;11.53512;21.82722;,
 33.14688;6.93651;21.82722;,
 33.14688;6.93651;17.01039;,
 -33.14688;11.53512;-32.85288;,
 -33.14688;11.53512;-38.17281;,
 -33.14688;6.93651;-38.17281;,
 -33.14688;6.93651;-32.85288;,
 33.14688;11.53512;-32.85288;,
 33.14688;6.93651;-32.85288;,
 33.14688;6.93651;-38.17281;,
 33.14688;11.53512;-38.17281;,
 -27.18660;11.53512;21.82722;,
 -33.14688;11.53512;21.82722;,
 -33.14688;6.93651;21.82722;,
 -27.18660;6.93651;21.82722;,
 -27.18660;6.93651;21.82722;,
 -33.14688;6.93651;17.01039;,
 -27.18660;6.93651;17.01039;,
 -33.14688;6.93651;-32.85288;,
 -27.18660;6.93651;-32.85288;,
 -33.14688;6.93651;-38.17281;,
 -27.18660;6.93651;-38.17281;,
 -27.18660;11.53512;-38.17281;,
 -27.18660;6.93651;-38.17281;,
 -33.14688;6.93651;-38.17281;,
 -33.14688;11.53512;-38.17281;,
 27.21318;11.53512;21.82722;,
 27.21318;6.93651;21.82722;,
 33.14688;6.93651;21.82722;,
 33.14688;11.53512;21.82722;,
 27.21318;6.93651;21.82722;,
 27.21318;6.93651;17.01039;,
 33.14688;6.93651;17.01039;,
 27.21318;11.53512;17.01039;,
 27.21318;11.53512;-32.85288;,
 -27.18660;11.53512;-32.85288;,
 -27.18660;11.53512;17.01039;,
 27.21318;6.93651;-32.85288;,
 33.14688;6.93651;-32.85288;,
 27.21318;6.93651;-38.17281;,
 33.14688;6.93651;-38.17281;,
 27.21318;11.53512;-38.17281;,
 33.14688;11.53512;-38.17281;,
 33.14688;6.93651;-38.17281;,
 27.21318;6.93651;-38.17281;,
 -33.14688;71.37921;21.82722;,
 -33.14688;71.37921;17.01039;,
 -33.14688;11.53512;17.01039;,
 -27.18660;71.37921;21.82722;,
 -27.18660;11.53512;21.82722;,
 -27.18660;71.37921;17.01039;,
 -27.18660;71.37921;-32.85288;,
 -33.14688;71.37921;-32.85288;,
 -33.14688;11.53512;-32.85288;,
 33.14688;71.37921;21.82722;,
 27.21318;71.37921;21.82722;,
 27.21318;11.53512;21.82722;,
 33.14688;71.37921;17.01039;,
 33.14688;11.53512;17.01039;,
 27.21318;71.37921;17.01039;,
 33.14688;71.37921;-32.85288;,
 33.14688;11.53512;-32.85288;,
 27.21318;71.37921;-32.85288;,
 -33.14688;70.55955;-38.17281;,
 -27.18660;70.55955;-38.17281;,
 -27.18660;11.53512;-38.17281;,
 -33.14688;11.53512;-38.17281;,
 33.14688;70.55955;-38.17281;,
 33.14688;11.53512;-38.17281;,
 27.21318;70.55955;-38.17281;,
 27.21318;11.53512;-38.17281;,
 16.90533;43.30098;-43.75047;,
 16.90533;42.07458;-39.17361;,
 16.90533;39.78645;-39.78669;,
 16.90533;41.01282;-44.36361;,
 -16.90533;42.07458;-39.17361;,
 -16.90533;43.30098;-43.75047;,
 -16.90533;41.01282;-44.36361;,
 -16.90533;39.78645;-39.78669;,
 -14.38941;42.07458;-39.17361;,
 -16.90533;42.07458;-39.17361;,
 -16.90533;39.78645;-39.78669;,
 -14.38941;39.78645;-39.78669;,
 -14.38941;39.78645;-39.78669;,
 -16.90533;41.01282;-44.36361;,
 -14.38941;41.01282;-44.36361;,
 -14.38941;43.30098;-43.75047;,
 -14.38941;41.01282;-44.36361;,
 -16.90533;41.01282;-44.36361;,
 -16.90533;43.30098;-43.75047;,
 14.83545;42.07458;-39.17361;,
 14.83545;43.30098;-43.75047;,
 -14.38941;43.30098;-43.75047;,
 -14.38941;42.07458;-39.17361;,
 14.83545;42.07458;-39.17361;,
 14.83545;39.78645;-39.78669;,
 16.90533;39.78645;-39.78669;,
 16.90533;42.07458;-39.17361;,
 14.83545;43.30098;-43.75047;,
 16.90533;43.30098;-43.75047;,
 16.90533;41.01282;-44.36361;,
 14.83545;41.01282;-44.36361;,
 14.83545;39.78645;-39.78669;,
 14.83545;41.01282;-44.36361;,
 16.90533;41.01282;-44.36361;,
 -14.38941;51.19836;-41.63436;,
 -14.38941;49.97199;-37.05750;,
 -16.90533;51.19836;-41.63436;,
 -16.90533;43.30098;-43.75047;,
 -16.90533;49.97199;-37.05750;,
 16.90533;49.97199;-37.05750;,
 14.83545;49.97199;-37.05750;,
 16.90533;51.19836;-41.63436;,
 16.90533;43.30098;-43.75047;,
 14.83545;51.19836;-41.63436;;
 
 122;
 4;0,1,2,3;,
 4;4,5,6,7;,
 4;8,0,3,9;,
 4;8,9,10,11;,
 4;12,13,14,15;,
 4;12,15,5,4;,
 4;16,17,18,19;,
 4;16,19,20,21;,
 4;22,23,24,25;,
 4;22,25,26,20;,
 4;27,28,29,30;,
 4;25,24,31,32;,
 4;25,32,33,26;,
 4;32,31,34,35;,
 4;32,35,36,33;,
 4;37,38,36,39;,
 4;37,39,40,41;,
 4;42,43,44,21;,
 4;45,42,21,46;,
 4;47,48,27,30;,
 4;49,47,30,50;,
 4;43,49,50,44;,
 4;51,45,46,52;,
 4;48,53,28,27;,
 4;54,51,52,38;,
 4;55,54,38,56;,
 4;57,55,56,58;,
 4;59,57,58,29;,
 4;53,59,29,28;,
 4;60,61,43,42;,
 4;62,60,42,45;,
 4;61,60,62,63;,
 4;64,63,48,47;,
 4;65,64,47,49;,
 4;61,65,49,43;,
 4;61,63,64,65;,
 4;66,62,45,51;,
 4;63,62,66,67;,
 4;68,66,51,54;,
 4;69,68,54,55;,
 4;67,66,68,69;,
 4;70,69,55,57;,
 4;71,70,57,59;,
 4;67,71,59,53;,
 4;67,69,70,71;,
 4;72,73,63,67;,
 4;74,72,67,53;,
 4;75,74,53,48;,
 4;73,75,48,63;,
 4;73,72,74,75;,
 4;76,77,78,79;,
 4;80,81,82,83;,
 4;84,85,86,87;,
 4;84,87,77,76;,
 4;88,80,83,89;,
 4;88,89,90,91;,
 4;92,93,94,95;,
 4;96,78,97,98;,
 4;98,97,99,100;,
 4;100,99,101,102;,
 4;103,104,105,106;,
 4;107,92,95,108;,
 4;107,108,109,110;,
 4;111,96,98,112;,
 4;111,112,113,82;,
 4;114,115,116,117;,
 4;112,98,100,118;,
 4;112,118,119,113;,
 4;118,100,102,120;,
 4;118,120,121,119;,
 4;122,123,124,125;,
 4;122,125,104,103;,
 4;126,127,128,79;,
 4;129,126,79,130;,
 4;129,131,127,126;,
 4;132,131,117,116;,
 4;133,132,116,134;,
 4;127,133,134,128;,
 4;131,132,133,127;,
 4;135,136,137,81;,
 4;138,135,81,139;,
 4;136,135,138,140;,
 4;131,140,114,117;,
 4;136,129,130,137;,
 4;136,140,131,129;,
 4;141,138,139,142;,
 4;143,141,142,115;,
 4;140,143,115,114;,
 4;140,138,141,143;,
 4;144,145,146,147;,
 4;133,144,147,134;,
 4;132,133,134,116;,
 4;132,145,144,133;,
 4;141,143,115,142;,
 4;148,141,142,149;,
 4;150,148,149,151;,
 4;143,141,148,150;,
 4;145,150,151,146;,
 4;143,132,116,115;,
 4;143,150,145,132;,
 4;152,153,154,155;,
 4;156,157,158,159;,
 4;160,161,162,163;,
 4;164,159,165,166;,
 4;167,168,169,170;,
 4;171,172,173,174;,
 4;175,160,163,176;,
 4;175,176,177,178;,
 4;179,180,181,182;,
 4;179,182,168,167;,
 4;183,164,166,184;,
 4;183,184,185,154;,
 4;186,187,174,173;,
 4;188,186,173,189;,
 4;190,188,189,156;,
 4;187,190,156,174;,
 4;187,186,188,190;,
 4;191,192,171,153;,
 4;193,191,153,194;,
 4;195,193,194,172;,
 4;192,195,172,171;,
 4;192,191,193,195;;
 
 MeshMaterialList {
  3;
  122;
  0,
  0,
  0,
  0,
  0,
  0,
  0,
  0,
  0,
  0,
  0,
  0,
  0,
  0,
  0,
  0,
  0,
  0,
  0,
  0,
  0,
  0,
  0,
  0,
  0,
  0,
  0,
  0,
  0,
  0,
  0,
  0,
  0,
  0,
  0,
  0,
  0,
  0,
  0,
  0,
  0,
  0,
  0,
  0,
  0,
  0,
  0,
  0,
  0,
  0,
  1,
  1,
  1,
  1,
  1,
  1,
  1,
  1,
  1,
  1,
  1,
  1,
  1,
  1,
  1,
  1,
  1,
  1,
  1,
  1,
  1,
  1,
  1,
  1,
  1,
  1,
  1,
  1,
  1,
  1,
  1,
  1,
  1,
  1,
  1,
  1,
  1,
  1,
  1,
  1,
  1,
  1,
  1,
  1,
  1,
  1,
  1,
  1,
  1,
  1,
  2,
  2,
  2,
  2,
  2,
  2,
  2,
  2,
  2,
  2,
  2,
  2,
  2,
  2,
  2,
  2,
  2,
  2,
  2,
  2,
  2,
  2;;
  Material {
   0.460800;0.460800;0.460800;1.000000;;
   0.000000;
   0.000000;0.000000;0.000000;;
   0.000000;0.000000;0.000000;;
  }
  Material {
   0.661600;0.661600;0.661600;1.000000;;
   0.000000;
   0.000000;0.000000;0.000000;;
   0.000000;0.000000;0.000000;;
  }
  Material {
   0.194400;0.194400;0.194400;1.000000;;
   9.000000;
   0.730000;0.730000;0.730000;;
   0.000000;0.000000;0.000000;;
  }
 }
 MeshNormals {
  39;
  0.000000;0.000000;-1.000000;,
  0.000000;0.000000;1.000000;,
  -1.000000;0.000000;0.000000;,
  0.000000;1.000000;0.000000;,
  0.000000;-1.000000;-0.000000;,
  1.000000;0.000000;0.000000;,
  0.994889;-0.100979;-0.000000;,
  0.979607;-0.200925;-0.000000;,
  -0.994889;-0.100979;0.000000;,
  -0.979607;-0.200925;0.000000;,
  0.979607;0.200925;0.000000;,
  -0.979607;0.200925;0.000000;,
  -1.000000;0.000000;0.000000;,
  1.000000;0.000000;0.000000;,
  0.000000;0.000000;1.000000;,
  0.000000;1.000000;0.000000;,
  0.000000;-1.000000;0.000000;,
  0.000000;0.000000;-1.000000;,
  0.000000;-0.258814;0.965927;,
  0.000000;-0.258812;0.965928;,
  0.000000;0.258827;-0.965924;,
  0.000000;-0.965927;-0.258816;,
  0.000000;0.965924;0.258825;,
  0.000000;0.258830;-0.965923;,
  0.000000;0.258820;-0.965925;,
  0.000000;-0.258819;0.965926;,
  0.000000;0.258820;-0.965925;,
  0.000000;0.994807;-0.101782;,
  0.000000;0.997080;-0.076361;,
  0.000000;0.988338;-0.152276;,
  0.000000;0.988338;-0.152276;,
  0.000000;-0.258816;0.965927;,
  0.000000;0.258830;-0.965923;,
  0.000000;0.258825;-0.965924;,
  0.000000;0.258825;-0.965924;,
  0.000000;-0.965927;-0.258816;,
  0.000000;-0.258819;0.965926;,
  0.000000;0.965926;0.258819;,
  0.000000;0.965926;0.258819;;
  122;
  4;0,0,0,0;,
  4;1,1,1,1;,
  4;0,0,0,0;,
  4;0,0,0,0;,
  4;1,1,1,1;,
  4;1,1,1,1;,
  4;2,2,2,2;,
  4;2,2,2,2;,
  4;4,4,4,4;,
  4;4,4,4,4;,
  4;3,3,3,3;,
  4;4,4,4,4;,
  4;4,4,4,4;,
  4;4,4,4,4;,
  4;4,4,4,4;,
  4;5,5,5,5;,
  4;5,5,5,5;,
  4;2,2,2,2;,
  4;1,1,1,1;,
  4;6,6,5,5;,
  4;0,0,0,0;,
  4;2,2,2,2;,
  4;1,1,1,1;,
  4;0,0,0,0;,
  4;1,1,1,1;,
  4;5,5,5,5;,
  4;5,5,5,5;,
  4;0,0,0,0;,
  4;8,8,2,2;,
  4;2,2,2,2;,
  4;1,1,1,1;,
  4;3,3,3,3;,
  4;7,7,6,6;,
  4;0,0,0,0;,
  4;2,2,2,2;,
  4;3,3,3,3;,
  4;1,1,1,1;,
  4;3,3,3,3;,
  4;1,1,1,1;,
  4;5,5,5,5;,
  4;3,3,3,3;,
  4;5,5,5,5;,
  4;0,0,0,0;,
  4;9,9,8,8;,
  4;3,3,3,3;,
  4;3,3,3,3;,
  4;10,10,10,10;,
  4;4,4,4,4;,
  4;11,11,11,11;,
  4;0,0,0,0;,
  4;12,12,12,12;,
  4;13,13,13,13;,
  4;12,12,12,12;,
  4;12,12,12,12;,
  4;13,13,13,13;,
  4;13,13,13,13;,
  4;14,14,14,14;,
  4;16,16,16,16;,
  4;16,16,16,16;,
  4;16,16,16,16;,
  4;17,17,17,17;,
  4;14,14,14,14;,
  4;14,14,14,14;,
  4;16,16,16,16;,
  4;16,16,16,16;,
  4;15,15,15,15;,
  4;16,16,16,16;,
  4;16,16,16,16;,
  4;16,16,16,16;,
  4;16,16,16,16;,
  4;17,17,17,17;,
  4;17,17,17,17;,
  4;12,12,12,12;,
  4;14,14,14,14;,
  4;15,15,15,15;,
  4;13,13,13,13;,
  4;17,17,17,17;,
  4;12,12,12,12;,
  4;15,27,28,15;,
  4;14,14,14,14;,
  4;13,13,13,13;,
  4;15,15,15,15;,
  4;17,17,17,17;,
  4;14,14,14,14;,
  4;15,15,15,15;,
  4;13,13,13,13;,
  4;17,17,17,17;,
  4;12,12,12,12;,
  4;15,15,28,27;,
  4;17,17,17,17;,
  4;12,12,12,12;,
  4;14,14,14,14;,
  4;27,29,30,28;,
  4;14,14,14,14;,
  4;13,13,13,13;,
  4;17,17,17,17;,
  4;27,28,30,29;,
  4;17,17,17,17;,
  4;14,14,14,14;,
  4;27,29,29,27;,
  4;13,13,13,13;,
  4;12,12,12,12;,
  4;18,31,19,19;,
  4;21,21,21,21;,
  4;20,23,32,33;,
  4;22,22,22,22;,
  4;18,18,19,19;,
  4;18,19,19,31;,
  4;20,34,32,23;,
  4;20,23,23,20;,
  4;35,21,21,35;,
  4;35,35,35,35;,
  4;13,13,13,13;,
  4;24,24,20,33;,
  4;12,12,12,12;,
  4;36,36,31,18;,
  4;37,37,37,37;,
  4;25,25,18,31;,
  4;13,13,13,13;,
  4;26,26,34,20;,
  4;12,12,12,12;,
  4;38,38,38,38;;
 }
 MeshTextureCoords {
  196;
  0.869110;0.000000;,
  1.000000;0.000000;,
  1.000000;1.000000;,
  0.869110;1.000000;,
  0.130890;0.000000;,
  0.130890;1.000000;,
  0.000000;1.000000;,
  0.000000;0.000000;,
  0.131070;0.000000;,
  0.131070;1.000000;,
  0.000000;1.000000;,
  0.000000;0.000000;,
  0.868930;0.000000;,
  1.000000;0.000000;,
  1.000000;1.000000;,
  0.868930;1.000000;,
  0.134850;0.000000;,
  1.000000;0.000000;,
  1.000000;1.000000;,
  0.134850;1.000000;,
  0.000000;1.000000;,
  0.000000;0.000000;,
  0.000000;0.865150;,
  0.000000;0.000000;,
  0.131070;0.000000;,
  0.131070;0.865150;,
  0.131070;1.000000;,
  0.131070;0.134850;,
  0.869110;0.134850;,
  0.869110;1.000000;,
  0.131070;1.000000;,
  0.869110;0.000000;,
  0.869110;0.865150;,
  0.869110;1.000000;,
  1.000000;0.000000;,
  1.000000;0.865150;,
  1.000000;1.000000;,
  0.865150;0.000000;,
  1.000000;0.000000;,
  0.865150;1.000000;,
  0.000000;1.000000;,
  0.000000;0.000000;,
  0.000000;0.000000;,
  0.000000;0.134850;,
  0.000000;0.134850;,
  0.131070;0.000000;,
  0.131070;0.000000;,
  0.131070;1.000000;,
  0.131070;0.134850;,
  0.000000;1.000000;,
  0.000000;1.000000;,
  0.869110;0.000000;,
  0.869110;0.000000;,
  0.869110;0.134850;,
  1.000000;0.000000;,
  1.000000;0.134850;,
  1.000000;0.134850;,
  1.000000;1.000000;,
  1.000000;1.000000;,
  0.869110;1.000000;,
  0.000000;0.000000;,
  0.000000;0.134850;,
  0.131070;0.000000;,
  0.131070;0.134850;,
  0.131070;1.000000;,
  0.000000;1.000000;,
  0.869110;0.000000;,
  0.869110;0.134850;,
  1.000000;0.000000;,
  1.000000;0.134850;,
  1.000000;1.000000;,
  0.869110;1.000000;,
  0.869110;0.134850;,
  0.131070;0.134850;,
  0.869110;0.134850;,
  0.131070;0.134850;,
  0.080280;0.000000;,
  0.080280;1.000000;,
  0.000000;1.000000;,
  0.000000;0.000000;,
  0.919720;0.000000;,
  1.000000;0.000000;,
  1.000000;1.000000;,
  0.919720;1.000000;,
  0.911330;0.000000;,
  1.000000;0.000000;,
  1.000000;1.000000;,
  0.911330;1.000000;,
  0.088670;0.000000;,
  0.088670;1.000000;,
  0.000000;1.000000;,
  0.000000;0.000000;,
  0.910090;0.000000;,
  1.000000;0.000000;,
  1.000000;1.000000;,
  0.910090;1.000000;,
  0.089910;1.000000;,
  0.000000;0.919720;,
  0.089910;0.919720;,
  0.000000;0.088670;,
  0.089910;0.088670;,
  0.000000;0.000000;,
  0.089910;0.000000;,
  0.089910;0.000000;,
  0.089910;1.000000;,
  0.000000;1.000000;,
  0.000000;0.000000;,
  0.089510;0.000000;,
  0.089510;1.000000;,
  0.000000;1.000000;,
  0.000000;0.000000;,
  0.910490;1.000000;,
  0.910490;0.919720;,
  1.000000;0.919720;,
  0.910490;0.080280;,
  0.910490;0.911330;,
  0.089910;0.911330;,
  0.089910;0.080280;,
  0.910490;0.088670;,
  1.000000;0.088670;,
  0.910490;0.000000;,
  1.000000;0.000000;,
  0.910490;0.000000;,
  1.000000;0.000000;,
  1.000000;1.000000;,
  0.910490;1.000000;,
  0.000000;0.000000;,
  0.000000;0.080280;,
  0.000000;0.080280;,
  0.089910;0.000000;,
  0.089910;0.000000;,
  0.089910;0.080280;,
  0.089910;0.911330;,
  0.000000;0.911330;,
  0.000000;0.911330;,
  1.000000;0.000000;,
  0.910490;0.000000;,
  0.910490;0.000000;,
  1.000000;0.080280;,
  1.000000;0.080280;,
  0.910490;0.080280;,
  1.000000;0.911330;,
  1.000000;0.911330;,
  0.910490;0.911330;,
  0.000000;1.000000;,
  0.089910;1.000000;,
  0.089910;1.000000;,
  0.000000;1.000000;,
  1.000000;1.000000;,
  1.000000;1.000000;,
  0.910490;1.000000;,
  0.910490;1.000000;,
  0.000000;0.000000;,
  1.000000;0.000000;,
  1.000000;1.000000;,
  0.000000;1.000000;,
  0.000000;0.000000;,
  1.000000;0.000000;,
  1.000000;1.000000;,
  0.000000;1.000000;,
  0.925590;0.000000;,
  1.000000;0.000000;,
  1.000000;1.000000;,
  0.925590;1.000000;,
  0.074410;1.000000;,
  0.000000;0.000000;,
  0.074410;0.000000;,
  0.074410;0.000000;,
  0.074410;1.000000;,
  0.000000;1.000000;,
  0.000000;0.000000;,
  0.938780;0.000000;,
  0.938780;1.000000;,
  0.074410;1.000000;,
  0.074410;0.000000;,
  0.061220;0.000000;,
  0.061220;1.000000;,
  0.000000;1.000000;,
  0.000000;0.000000;,
  0.938780;0.000000;,
  1.000000;0.000000;,
  1.000000;1.000000;,
  0.938780;1.000000;,
  0.938780;1.000000;,
  0.938780;0.000000;,
  1.000000;0.000000;,
  0.074410;1.000000;,
  0.074410;0.000000;,
  0.000000;1.000000;,
  0.000000;1.000000;,
  0.000000;0.000000;,
  1.000000;0.000000;,
  0.938780;0.000000;,
  1.000000;1.000000;,
  1.000000;1.000000;,
  0.938780;1.000000;;
 }
}
