xof 0302txt 0064
template Header {
 <3D82AB43-62DA-11cf-AB39-0020AF71E433>
 WORD major;
 WORD minor;
 DWORD flags;
}

template Vector {
 <3D82AB5E-62DA-11cf-AB39-0020AF71E433>
 FLOAT x;
 FLOAT y;
 FLOAT z;
}

template Coords2d {
 <F6F23F44-7686-11cf-8F52-0040333594A3>
 FLOAT u;
 FLOAT v;
}

template Matrix4x4 {
 <F6F23F45-7686-11cf-8F52-0040333594A3>
 array FLOAT matrix[16];
}

template ColorRGBA {
 <35FF44E0-6C7C-11cf-8F52-0040333594A3>
 FLOAT red;
 FLOAT green;
 FLOAT blue;
 FLOAT alpha;
}

template ColorRGB {
 <D3E16E81-7835-11cf-8F52-0040333594A3>
 FLOAT red;
 FLOAT green;
 FLOAT blue;
}

template IndexedColor {
 <1630B820-7842-11cf-8F52-0040333594A3>
 DWORD index;
 ColorRGBA indexColor;
}

template Boolean {
 <4885AE61-78E8-11cf-8F52-0040333594A3>
 WORD truefalse;
}

template Boolean2d {
 <4885AE63-78E8-11cf-8F52-0040333594A3>
 Boolean u;
 Boolean v;
}

template MaterialWrap {
 <4885AE60-78E8-11cf-8F52-0040333594A3>
 Boolean u;
 Boolean v;
}

template TextureFilename {
 <A42790E1-7810-11cf-8F52-0040333594A3>
 STRING filename;
}

template Material {
 <3D82AB4D-62DA-11cf-AB39-0020AF71E433>
 ColorRGBA faceColor;
 FLOAT power;
 ColorRGB specularColor;
 ColorRGB emissiveColor;
 [...]
}

template MeshFace {
 <3D82AB5F-62DA-11cf-AB39-0020AF71E433>
 DWORD nFaceVertexIndices;
 array DWORD faceVertexIndices[nFaceVertexIndices];
}

template MeshFaceWraps {
 <4885AE62-78E8-11cf-8F52-0040333594A3>
 DWORD nFaceWrapValues;
 Boolean2d faceWrapValues;
}

template MeshTextureCoords {
 <F6F23F40-7686-11cf-8F52-0040333594A3>
 DWORD nTextureCoords;
 array Coords2d textureCoords[nTextureCoords];
}

template MeshMaterialList {
 <F6F23F42-7686-11cf-8F52-0040333594A3>
 DWORD nMaterials;
 DWORD nFaceIndexes;
 array DWORD faceIndexes[nFaceIndexes];
 [Material]
}

template MeshNormals {
 <F6F23F43-7686-11cf-8F52-0040333594A3>
 DWORD nNormals;
 array Vector normals[nNormals];
 DWORD nFaceNormals;
 array MeshFace faceNormals[nFaceNormals];
}

template MeshVertexColors {
 <1630B821-7842-11cf-8F52-0040333594A3>
 DWORD nVertexColors;
 array IndexedColor vertexColors[nVertexColors];
}

template Mesh {
 <3D82AB44-62DA-11cf-AB39-0020AF71E433>
 DWORD nVertices;
 array Vector vertices[nVertices];
 DWORD nFaces;
 array MeshFace faces[nFaces];
 [...]
}

Header{
1;
0;
1;
}

Mesh {
 168;
 -44.93370;1.61364;-26.69340;,
 -44.93370;-1.61364;-26.69343;,
 -44.93370;-1.61364;26.92017;,
 -44.93370;1.61364;26.92017;,
 44.93370;1.61364;-26.69340;,
 44.93370;1.61364;26.92017;,
 44.93370;-1.61364;26.92017;,
 44.93370;-1.61364;-26.69343;,
 41.67894;-1.61364;30.00000;,
 41.67894;-3.59535;26.92017;,
 44.93370;-1.61364;26.92017;,
 44.93370;1.61364;30.00000;,
 41.67894;-3.59535;-26.69343;,
 44.93370;-1.61364;-26.69343;,
 41.67894;-1.61364;-30.00000;,
 44.93370;1.58493;-30.00000;,
 -41.69847;1.61364;30.00000;,
 -41.69847;-1.61364;30.00000;,
 41.67894;-1.61364;30.00000;,
 41.67894;1.61364;30.00000;,
 -38.69340;1.61364;24.98784;,
 38.67387;1.61364;24.98784;,
 38.67387;1.61364;-24.76110;,
 -38.69340;1.61364;-24.76110;,
 -41.69847;-1.61364;30.00000;,
 -44.93370;1.61364;30.00000;,
 -44.93370;-1.61364;26.92017;,
 -41.69847;-3.59535;26.92017;,
 -44.93370;-1.61364;-26.69343;,
 -41.69847;-3.59535;-26.69343;,
 -41.69847;1.61364;-30.00000;,
 41.67894;1.61364;-30.00000;,
 41.67894;-1.61364;-30.00000;,
 -41.69847;-1.61364;-30.00000;,
 -44.93370;1.61364;-30.00000;,
 -41.69847;-1.61364;-30.00000;,
 44.93370;13.40955;30.00000;,
 41.67894;13.40955;30.00000;,
 41.67894;1.61364;30.00000;,
 44.93370;1.61364;30.00000;,
 44.93370;13.40955;26.92017;,
 44.93370;1.61364;26.92017;,
 41.67894;13.40955;26.92017;,
 44.93370;13.40955;-26.69340;,
 44.93370;1.61364;-26.69340;,
 41.67894;13.40955;-26.69340;,
 44.93370;13.40955;-30.00000;,
 44.93370;1.58493;-30.00000;,
 41.67894;13.40955;-30.00000;,
 41.67894;1.61364;-30.00000;,
 -41.69847;13.40955;30.00000;,
 -41.69847;1.61364;30.00000;,
 -41.69847;13.40955;26.92017;,
 -44.93370;13.40955;30.00000;,
 -44.93370;13.40955;26.92017;,
 -44.93370;1.61364;26.92017;,
 -44.93370;1.61364;30.00000;,
 -41.69847;13.40955;-26.69340;,
 -44.93370;13.40955;-26.69340;,
 -44.93370;1.61364;-26.69340;,
 -41.69847;13.40955;-30.00000;,
 -41.69847;1.61364;-30.00000;,
 -44.93370;13.40955;-30.00000;,
 -44.93370;1.61364;-30.00000;,
 -44.93370;1.61364;30.00000;,
 -44.93370;1.61364;30.00000;,
 -44.93370;1.61364;-30.00000;,
 -44.93370;1.61364;-30.00000;,
 44.93370;1.58493;-30.00000;,
 44.93370;1.58493;-30.00000;,
 44.93370;1.61364;30.00000;,
 44.93370;1.61364;30.00000;,
 47.94360;69.03705;-1.64322;,
 47.94360;67.13979;-3.82578;,
 47.94360;69.20052;-5.61714;,
 47.94360;71.09778;-3.43461;,
 -47.94360;69.03705;-1.64322;,
 -47.94360;71.09778;-3.43461;,
 -47.94360;69.20052;-5.61714;,
 -47.94360;67.13979;-3.82578;,
 47.94360;22.50435;38.80704;,
 47.94360;20.03979;40.94946;,
 47.94360;18.14253;38.76690;,
 47.94360;20.60709;36.62448;,
 -47.94360;22.50435;38.80704;,
 -47.94360;20.60709;36.62448;,
 -47.94360;18.14253;38.76690;,
 -47.94360;20.03979;40.94946;,
 -45.09201;71.09778;-3.43461;,
 -45.09201;69.20052;-5.61714;,
 -47.94360;69.20052;-5.61714;,
 -47.94360;71.09778;-3.43461;,
 -45.09201;71.09778;-3.43461;,
 -47.94360;71.09778;-3.43461;,
 -47.94360;69.03705;-1.64322;,
 -45.09201;69.03705;-1.64322;,
 -47.94360;22.50435;38.80704;,
 -45.09201;22.50435;38.80704;,
 -45.09201;20.03979;40.94946;,
 -45.09201;20.03979;40.94946;,
 -47.94360;20.03979;40.94946;,
 -47.94360;18.14253;38.76690;,
 -45.09201;18.14253;38.76690;,
 45.64419;71.09778;-3.43461;,
 47.94360;71.09778;-3.43461;,
 47.94360;69.20052;-5.61714;,
 45.64419;69.20052;-5.61714;,
 45.64419;71.09778;-3.43461;,
 45.64419;69.03705;-1.64322;,
 47.94360;69.03705;-1.64322;,
 47.94360;71.09778;-3.43461;,
 45.64419;22.50435;38.80704;,
 47.94360;22.50435;38.80704;,
 45.64419;67.13979;-3.82578;,
 45.64419;20.60709;36.62448;,
 -45.09201;20.60709;36.62448;,
 -45.09201;67.13979;-3.82578;,
 45.64419;20.03979;40.94946;,
 45.64419;20.03979;40.94946;,
 45.64419;18.14253;38.76690;,
 47.94360;18.14253;38.76690;,
 47.94360;20.03979;40.94946;,
 -47.94360;61.68954;-14.25756;,
 -47.94360;59.62878;-12.46617;,
 -47.94360;67.13979;-3.82578;,
 -47.94360;69.20052;-5.61714;,
 -45.09201;61.68954;-14.25756;,
 -45.09201;69.20052;-5.61714;,
 -45.09201;59.62878;-12.46617;,
 -45.09201;13.09611;27.98406;,
 -47.94360;13.09611;27.98406;,
 -47.94360;20.60709;36.62448;,
 -47.94360;10.63155;30.12648;,
 -45.09201;10.63155;30.12648;,
 -45.09201;18.14253;38.76690;,
 47.94360;61.68954;-14.25756;,
 45.64419;61.68954;-14.25756;,
 45.64419;69.20052;-5.61714;,
 47.94360;69.20052;-5.61714;,
 47.94360;59.62878;-12.46617;,
 47.94360;67.13979;-3.82578;,
 45.64419;59.62878;-12.46617;,
 47.94360;13.09611;27.98406;,
 47.94360;20.60709;36.62448;,
 45.64419;13.09611;27.98406;,
 47.94360;10.63155;30.12648;,
 45.64419;10.63155;30.12648;,
 45.64419;18.14253;38.76690;,
 -8.70837;66.22440;-11.36412;,
 8.70837;66.22440;-11.36412;,
 8.70837;60.33834;-18.13527;,
 -8.70837;60.33834;-18.13527;,
 8.70837;66.22440;-11.36412;,
 8.70837;64.36380;-9.74676;,
 8.70837;58.47777;-16.51788;,
 8.70837;60.33834;-18.13527;,
 8.70837;64.36380;-9.74676;,
 -8.70837;64.36380;-9.74676;,
 -8.70837;58.47777;-16.51788;,
 8.70837;58.47777;-16.51788;,
 -8.70837;64.36380;-9.74676;,
 -8.70837;66.22440;-11.36412;,
 -8.70837;60.33834;-18.13527;,
 -8.70837;58.47777;-16.51788;,
 8.70837;66.22440;-11.36412;,
 -8.70837;66.22440;-11.36412;,
 -8.70837;60.33834;-18.13527;,
 8.70837;60.33834;-18.13527;;
 
 98;
 4;0,1,2,3;,
 4;4,5,6,7;,
 4;8,9,10,11;,
 4;9,12,13,10;,
 4;12,14,15,13;,
 4;16,17,18,19;,
 4;20,21,22,23;,
 4;24,25,26,27;,
 4;24,27,9,8;,
 4;27,26,28,29;,
 4;27,29,12,9;,
 4;30,31,32,33;,
 4;29,28,34,35;,
 4;29,35,14,12;,
 4;36,37,38,39;,
 4;40,36,39,41;,
 4;37,36,40,42;,
 4;43,40,41,44;,
 4;42,45,22,21;,
 4;42,40,43,45;,
 4;46,43,44,47;,
 4;48,46,47,49;,
 4;45,43,46,48;,
 4;37,50,51,38;,
 4;52,42,21,20;,
 4;50,37,42,52;,
 4;53,54,55,56;,
 4;50,53,56,51;,
 4;50,52,54,53;,
 4;57,52,20,23;,
 4;54,58,59,55;,
 4;52,57,58,54;,
 4;45,57,23,22;,
 4;60,48,49,61;,
 4;57,45,48,60;,
 4;62,60,61,63;,
 4;58,62,63,59;,
 4;57,60,62,58;,
 3;64,3,2;,
 3;65,17,16;,
 3;66,1,0;,
 3;67,30,33;,
 3;68,4,7;,
 3;69,32,31;,
 3;70,6,5;,
 3;71,19,18;,
 4;72,73,74,75;,
 4;76,77,78,79;,
 4;80,81,82,83;,
 4;80,83,73,72;,
 4;84,76,79,85;,
 4;84,85,86,87;,
 4;88,89,90,91;,
 4;92,93,94,95;,
 4;95,94,96,97;,
 4;97,96,87,98;,
 4;99,100,101,102;,
 4;103,104,105,106;,
 4;103,106,89,88;,
 4;107,92,95,108;,
 4;107,108,109,110;,
 4;108,95,97,111;,
 4;108,111,112,109;,
 4;113,114,115,116;,
 4;111,97,98,117;,
 4;111,117,81,112;,
 4;118,99,102,119;,
 4;118,119,120,121;,
 4;122,123,124,125;,
 4;126,122,125,127;,
 4;126,128,123,122;,
 4;129,128,116,115;,
 4;123,130,131,124;,
 4;128,129,130,123;,
 4;132,133,134,86;,
 4;130,132,86,131;,
 4;129,133,132,130;,
 4;135,136,137,138;,
 4;139,135,138,140;,
 4;136,135,139,141;,
 4;128,141,113,116;,
 4;136,126,127,137;,
 4;136,141,128,126;,
 4;142,139,140,143;,
 4;141,144,114,113;,
 4;141,139,142,144;,
 4;145,142,143,82;,
 4;146,145,82,147;,
 4;144,142,145,146;,
 4;133,146,147,134;,
 4;144,129,115,114;,
 4;144,146,133,129;,
 4;148,149,150,151;,
 4;152,153,154,155;,
 4;156,157,158,159;,
 4;160,161,162,163;,
 4;160,153,164,165;,
 4;166,167,154,163;;
 
 MeshMaterialList {
  2;
  98;
  0,
  0,
  0,
  0,
  0,
  0,
  0,
  0,
  0,
  0,
  0,
  0,
  0,
  0,
  0,
  0,
  0,
  0,
  0,
  0,
  0,
  0,
  0,
  0,
  0,
  0,
  0,
  0,
  0,
  0,
  0,
  0,
  0,
  0,
  0,
  0,
  0,
  0,
  0,
  0,
  0,
  0,
  0,
  0,
  0,
  0,
  0,
  0,
  0,
  0,
  0,
  0,
  0,
  0,
  0,
  0,
  0,
  0,
  0,
  0,
  0,
  0,
  0,
  0,
  0,
  0,
  0,
  0,
  0,
  0,
  0,
  0,
  0,
  0,
  0,
  0,
  0,
  0,
  0,
  0,
  0,
  0,
  0,
  0,
  0,
  0,
  0,
  0,
  0,
  0,
  0,
  0,
  1,
  1,
  1,
  1,
  1,
  1;;
  Material {
   0.552000;0.552000;0.552000;1.000000;;
   10.000000;
   0.610000;0.610000;0.610000;;
   0.000000;0.000000;0.000000;;
  }
  Material {
   0.674400;0.630400;0.323200;1.000000;;
   20.000000;
   0.730000;0.730000;0.730000;;
   0.000000;0.000000;0.000000;;
  }
 }
 MeshNormals {
  61;
  -0.198263;-0.254292;-0.946587;,
  0.947462;-0.254708;-0.193495;,
  0.191921;-0.247880;0.949590;,
  -0.946670;-0.249376;0.204030;,
  -1.000000;0.000000;0.000000;,
  1.000000;0.000000;0.000000;,
  -0.883665;-0.440752;0.157712;,
  0.883064;-0.441818;0.158099;,
  -0.883931;-0.443096;-0.149439;,
  0.883120;-0.444676;-0.149538;,
  0.000000;0.000000;1.000000;,
  0.148124;-0.433654;0.888821;,
  0.000000;1.000000;0.000000;,
  0.281147;-0.913260;0.294810;,
  0.282547;-0.917872;-0.278707;,
  0.000000;0.000000;-1.000000;,
  0.152346;-0.446978;-0.881477;,
  -0.148813;-0.433470;0.888796;,
  -0.282475;-0.912897;0.294665;,
  -0.284219;-0.917297;-0.278900;,
  -0.153329;-0.446280;-0.881660;,
  -0.969049;0.246870;0.000000;,
  0.000000;0.161659;-0.986847;,
  0.969049;0.246870;0.000000;,
  0.000000;0.161656;0.986847;,
  -1.000000;0.000000;0.000000;,
  1.000000;0.000000;0.000000;,
  0.000000;0.754707;-0.656062;,
  0.000000;0.754709;-0.656060;,
  0.000000;0.656062;0.754707;,
  0.000000;-0.656059;-0.754710;,
  0.000000;0.656060;0.754709;,
  0.000000;0.656061;0.754708;,
  0.000000;-0.754711;0.656058;,
  0.000000;0.754711;-0.656058;,
  0.000000;-0.754711;0.656058;,
  0.000000;-0.656059;-0.754710;,
  0.000000;-0.754711;0.656058;,
  0.000000;0.754710;-0.656058;,
  0.000000;-0.754710;0.656058;,
  0.000000;0.754709;-0.656060;,
  0.000000;0.754707;-0.656062;,
  0.000000;0.656065;0.754705;,
  0.000000;0.656065;0.754705;,
  0.000000;-0.754711;0.656057;,
  0.000000;-0.754711;0.656057;,
  0.000000;0.754709;-0.656060;,
  0.000000;-0.754711;0.656058;,
  0.000000;0.754711;-0.656058;,
  0.000000;-0.656059;-0.754710;,
  0.000000;-0.656059;-0.754710;,
  0.000000;-0.656059;-0.754710;,
  0.000000;-0.656060;-0.754708;,
  0.000000;-0.656060;-0.754709;,
  0.000000;-0.656061;-0.754708;,
  0.000000;-0.656059;-0.754710;,
  0.000000;-0.656059;-0.754710;,
  0.000000;-0.754708;0.656061;,
  0.000000;0.754711;-0.656058;,
  0.000000;0.656051;0.754716;,
  0.000000;-0.656064;-0.754705;;
  98;
  4;4,8,6,4;,
  4;5,5,7,9;,
  4;11,13,7,2;,
  4;13,14,9,7;,
  4;14,16,1,9;,
  4;10,17,11,10;,
  4;12,12,12,12;,
  4;17,3,6,18;,
  4;17,18,13,11;,
  4;18,6,8,19;,
  4;18,19,14,13;,
  4;15,15,16,20;,
  4;19,8,0,20;,
  4;19,20,16,14;,
  4;10,10,10,2;,
  4;5,5,5,5;,
  4;12,12,12,12;,
  4;5,5,5,5;,
  4;21,21,21,21;,
  4;12,12,12,12;,
  4;5,5,5,1;,
  4;15,15,15,15;,
  4;12,12,12,12;,
  4;10,10,10,10;,
  4;22,22,22,22;,
  4;12,12,12,12;,
  4;4,4,4,3;,
  4;10,10,10,10;,
  4;12,12,12,12;,
  4;23,23,23,23;,
  4;4,4,4,4;,
  4;12,12,12,12;,
  4;24,24,24,24;,
  4;15,15,15,15;,
  4;12,12,12,12;,
  4;15,15,15,0;,
  4;4,4,4,4;,
  4;12,12,12,12;,
  3;3,4,6;,
  3;10,17,10;,
  3;4,8,4;,
  3;0,15,20;,
  3;1,5,9;,
  3;15,16,15;,
  3;5,7,5;,
  3;2,10,11;,
  4;26,26,26,26;,
  4;25,25,25,25;,
  4;26,26,26,26;,
  4;26,26,26,26;,
  4;25,25,25,25;,
  4;25,25,25,25;,
  4;27,28,40,41;,
  4;42,43,29,29;,
  4;29,29,31,31;,
  4;31,31,32,32;,
  4;44,45,33,33;,
  4;27,41,46,28;,
  4;27,28,28,27;,
  4;42,42,29,29;,
  4;42,29,29,42;,
  4;29,29,31,31;,
  4;29,31,31,29;,
  4;30,30,30,30;,
  4;31,31,32,32;,
  4;31,32,32,31;,
  4;44,44,33,33;,
  4;44,33,47,45;,
  4;25,25,25,25;,
  4;34,48,40,28;,
  4;49,36,50,51;,
  4;26,26,26,26;,
  4;25,25,25,25;,
  4;36,52,53,50;,
  4;35,37,33,33;,
  4;25,25,25,25;,
  4;52,54,54,53;,
  4;34,34,28,46;,
  4;26,26,26,26;,
  4;55,55,56,36;,
  4;57,57,57,57;,
  4;34,34,28,28;,
  4;55,36,36,49;,
  4;26,26,26,26;,
  4;25,25,25,25;,
  4;36,56,53,52;,
  4;26,26,26,26;,
  4;35,37,47,33;,
  4;52,53,54,54;,
  4;37,35,33,33;,
  4;58,58,58,58;,
  4;52,54,54,52;,
  4;38,38,38,38;,
  4;26,26,26,26;,
  4;39,39,39,39;,
  4;25,25,25,25;,
  4;59,59,59,59;,
  4;60,60,60,60;;
 }
 MeshTextureCoords {
  168;
  0.944890;0.000000;,
  0.944890;1.000000;,
  0.051330;1.000000;,
  0.051330;0.000000;,
  0.055110;0.000000;,
  0.948670;0.000000;,
  0.948670;1.000000;,
  0.055110;1.000000;,
  0.963780;1.000000;,
  0.963780;0.948670;,
  1.000000;0.948670;,
  1.000000;1.000000;,
  0.963780;0.055110;,
  1.000000;0.055110;,
  0.963780;0.000000;,
  1.000000;0.000000;,
  0.964000;0.000000;,
  0.964000;1.000000;,
  0.036220;1.000000;,
  0.036220;0.000000;,
  0.036000;0.051330;,
  0.963780;0.051330;,
  0.963780;0.944890;,
  0.036000;0.944890;,
  0.036000;1.000000;,
  0.000000;1.000000;,
  0.000000;0.948670;,
  0.036000;0.948670;,
  0.000000;0.055110;,
  0.036000;0.055110;,
  0.036000;0.000000;,
  0.963780;0.000000;,
  0.963780;1.000000;,
  0.036000;1.000000;,
  0.000000;0.000000;,
  0.036000;0.000000;,
  1.000000;0.000000;,
  0.963780;0.000000;,
  0.963780;0.000000;,
  1.000000;0.000000;,
  1.000000;0.051330;,
  1.000000;0.051330;,
  0.963780;0.051330;,
  1.000000;0.944890;,
  1.000000;0.944890;,
  0.963780;0.944890;,
  1.000000;1.000000;,
  1.000000;1.000000;,
  0.963780;1.000000;,
  0.963780;1.000000;,
  0.036000;0.000000;,
  0.036000;0.000000;,
  0.036000;0.051330;,
  0.000000;0.000000;,
  0.000000;0.051330;,
  0.000000;0.051330;,
  0.000000;0.000000;,
  0.036000;0.944890;,
  0.000000;0.944890;,
  0.000000;0.944890;,
  0.036000;1.000000;,
  0.036000;1.000000;,
  0.000000;1.000000;,
  0.000000;1.000000;,
  0.000000;0.500000;,
  1.000000;0.500000;,
  1.000000;0.500000;,
  0.000000;0.500000;,
  0.000000;0.500000;,
  1.000000;0.500000;,
  1.000000;0.500000;,
  0.000000;0.500000;,
  0.040360;0.000000;,
  0.040360;1.000000;,
  0.000000;1.000000;,
  0.000000;0.000000;,
  0.959640;0.000000;,
  1.000000;0.000000;,
  1.000000;1.000000;,
  0.959640;1.000000;,
  0.951730;0.000000;,
  1.000000;0.000000;,
  1.000000;1.000000;,
  0.951730;1.000000;,
  0.048270;0.000000;,
  0.048270;1.000000;,
  0.000000;1.000000;,
  0.000000;0.000000;,
  0.029740;0.000000;,
  0.029740;1.000000;,
  0.000000;1.000000;,
  0.000000;0.000000;,
  0.029740;1.000000;,
  0.000000;1.000000;,
  0.000000;0.959640;,
  0.029740;0.959640;,
  0.000000;0.048270;,
  0.029740;0.048270;,
  0.029740;0.000000;,
  0.970260;0.000000;,
  1.000000;0.000000;,
  1.000000;1.000000;,
  0.970260;1.000000;,
  0.976020;0.000000;,
  1.000000;0.000000;,
  1.000000;1.000000;,
  0.976020;1.000000;,
  0.976020;1.000000;,
  0.976020;0.959640;,
  1.000000;0.959640;,
  1.000000;1.000000;,
  0.976020;0.048270;,
  1.000000;0.048270;,
  0.976020;0.040360;,
  0.976020;0.951730;,
  0.029740;0.951730;,
  0.029740;0.040360;,
  0.976020;0.000000;,
  0.023980;0.000000;,
  0.023980;1.000000;,
  0.000000;1.000000;,
  0.000000;0.000000;,
  0.000000;0.000000;,
  0.000000;0.040360;,
  0.000000;0.040360;,
  0.000000;0.000000;,
  0.029740;0.000000;,
  0.029740;0.000000;,
  0.029740;0.040360;,
  0.029740;0.951730;,
  0.000000;0.951730;,
  0.000000;0.951730;,
  0.000000;1.000000;,
  0.029740;1.000000;,
  0.029740;1.000000;,
  1.000000;0.000000;,
  0.976020;0.000000;,
  0.976020;0.000000;,
  1.000000;0.000000;,
  1.000000;0.040360;,
  1.000000;0.040360;,
  0.976020;0.040360;,
  1.000000;0.951730;,
  1.000000;0.951730;,
  0.976020;0.951730;,
  1.000000;1.000000;,
  0.976020;1.000000;,
  0.976020;1.000000;,
  0.000000;0.000000;,
  1.000000;0.000000;,
  1.000000;1.000000;,
  0.000000;1.000000;,
  0.000000;0.000000;,
  1.000000;0.000000;,
  1.000000;1.000000;,
  0.000000;1.000000;,
  0.000000;0.000000;,
  1.000000;0.000000;,
  1.000000;1.000000;,
  0.000000;1.000000;,
  0.000000;0.000000;,
  1.000000;0.000000;,
  1.000000;1.000000;,
  0.000000;1.000000;,
  1.000000;1.000000;,
  0.000000;1.000000;,
  0.000000;0.000000;,
  1.000000;0.000000;;
 }
}
