xof 0302txt 0064
template Header {
 <3D82AB43-62DA-11cf-AB39-0020AF71E433>
 WORD major;
 WORD minor;
 DWORD flags;
}

template Vector {
 <3D82AB5E-62DA-11cf-AB39-0020AF71E433>
 FLOAT x;
 FLOAT y;
 FLOAT z;
}

template Coords2d {
 <F6F23F44-7686-11cf-8F52-0040333594A3>
 FLOAT u;
 FLOAT v;
}

template Matrix4x4 {
 <F6F23F45-7686-11cf-8F52-0040333594A3>
 array FLOAT matrix[16];
}

template ColorRGBA {
 <35FF44E0-6C7C-11cf-8F52-0040333594A3>
 FLOAT red;
 FLOAT green;
 FLOAT blue;
 FLOAT alpha;
}

template ColorRGB {
 <D3E16E81-7835-11cf-8F52-0040333594A3>
 FLOAT red;
 FLOAT green;
 FLOAT blue;
}

template IndexedColor {
 <1630B820-7842-11cf-8F52-0040333594A3>
 DWORD index;
 ColorRGBA indexColor;
}

template Boolean {
 <4885AE61-78E8-11cf-8F52-0040333594A3>
 WORD truefalse;
}

template Boolean2d {
 <4885AE63-78E8-11cf-8F52-0040333594A3>
 Boolean u;
 Boolean v;
}

template MaterialWrap {
 <4885AE60-78E8-11cf-8F52-0040333594A3>
 Boolean u;
 Boolean v;
}

template TextureFilename {
 <A42790E1-7810-11cf-8F52-0040333594A3>
 STRING filename;
}

template Material {
 <3D82AB4D-62DA-11cf-AB39-0020AF71E433>
 ColorRGBA faceColor;
 FLOAT power;
 ColorRGB specularColor;
 ColorRGB emissiveColor;
 [...]
}

template MeshFace {
 <3D82AB5F-62DA-11cf-AB39-0020AF71E433>
 DWORD nFaceVertexIndices;
 array DWORD faceVertexIndices[nFaceVertexIndices];
}

template MeshFaceWraps {
 <4885AE62-78E8-11cf-8F52-0040333594A3>
 DWORD nFaceWrapValues;
 Boolean2d faceWrapValues;
}

template MeshTextureCoords {
 <F6F23F40-7686-11cf-8F52-0040333594A3>
 DWORD nTextureCoords;
 array Coords2d textureCoords[nTextureCoords];
}

template MeshMaterialList {
 <F6F23F42-7686-11cf-8F52-0040333594A3>
 DWORD nMaterials;
 DWORD nFaceIndexes;
 array DWORD faceIndexes[nFaceIndexes];
 [Material]
}

template MeshNormals {
 <F6F23F43-7686-11cf-8F52-0040333594A3>
 DWORD nNormals;
 array Vector normals[nNormals];
 DWORD nFaceNormals;
 array MeshFace faceNormals[nFaceNormals];
}

template MeshVertexColors {
 <1630B821-7842-11cf-8F52-0040333594A3>
 DWORD nVertexColors;
 array IndexedColor vertexColors[nVertexColors];
}

template Mesh {
 <3D82AB44-62DA-11cf-AB39-0020AF71E433>
 DWORD nVertices;
 array Vector vertices[nVertices];
 DWORD nFaces;
 array MeshFace faces[nFaces];
 [...]
}

Header{
1;
0;
1;
}

Mesh {
 40;
 -31.41746;79.44498;0.00868;,
 0.00015;79.44498;-0.01252;,
 0.00015;0.00034;-0.01252;,
 -31.41746;0.00034;0.00868;,
 0.00020;79.44498;-0.01246;,
 0.00020;0.00034;-0.01246;,
 -31.41746;79.44498;0.00872;,
 -31.41746;0.00034;0.00872;,
 -29.60868;43.13716;-0.02579;,
 -26.90803;43.13716;-0.02762;,
 -26.90803;36.30809;-0.02762;,
 -29.60868;36.30809;-0.02579;,
 -26.90803;43.13716;-0.02762;,
 -26.90803;36.30809;-0.02762;,
 -29.60868;43.13716;-0.02579;,
 -29.60868;36.30809;-0.02579;,
 -24.16758;69.81307;-0.11503;,
 -7.89270;69.81307;-0.16920;,
 -7.89270;68.08056;-0.16920;,
 -24.16758;68.08056;-0.11503;,
 -7.89267;69.81307;-0.16917;,
 -7.89267;68.08056;-0.16917;,
 -24.16762;69.81307;-0.11502;,
 -24.16762;68.08056;-0.11502;,
 -24.16758;66.73695;-0.11503;,
 -7.89270;66.73695;-0.16920;,
 -7.89270;65.00436;-0.16920;,
 -24.16758;65.00436;-0.11503;,
 -7.89267;66.73695;-0.16917;,
 -7.89267;65.00436;-0.16917;,
 -24.16762;66.73695;-0.11502;,
 -24.16762;65.00436;-0.11502;,
 -24.16758;63.74870;-0.11503;,
 -7.89270;63.74870;-0.16920;,
 -7.89270;62.01601;-0.16920;,
 -24.16758;62.01601;-0.11503;,
 -7.89267;63.74870;-0.16917;,
 -7.89267;62.01601;-0.16917;,
 -24.16762;63.74870;-0.11502;,
 -24.16762;62.01601;-0.11502;;
 
 30;
 4;0,1,2,3;,
 4;1,4,5,2;,
 4;4,6,7,5;,
 4;6,0,3,7;,
 4;6,4,1,0;,
 4;3,2,5,7;,
 4;8,9,10,11;,
 4;9,12,13,10;,
 4;12,14,15,13;,
 4;14,8,11,15;,
 4;14,12,9,8;,
 4;11,10,13,15;,
 4;16,17,18,19;,
 4;17,20,21,18;,
 4;20,22,23,21;,
 4;22,16,19,23;,
 4;22,20,17,16;,
 4;19,18,21,23;,
 4;24,25,26,27;,
 4;25,28,29,26;,
 4;28,30,31,29;,
 4;30,24,27,31;,
 4;30,28,25,24;,
 4;27,26,29,31;,
 4;32,33,34,35;,
 4;33,36,37,34;,
 4;36,38,39,37;,
 4;38,32,35,39;,
 4;38,36,33,32;,
 4;35,34,37,39;;
 
 MeshMaterialList {
  4;
  30;
  0,
  0,
  0,
  0,
  0,
  0,
  1,
  1,
  1,
  1,
  1,
  1,
  2,
  2,
  2,
  2,
  2,
  2,
  2,
  2,
  2,
  2,
  2,
  2,
  2,
  2,
  2,
  2,
  2,
  2;;
  Material {
   0.530400;0.530400;0.530400;1.000000;;
   5.000000;
   0.000000;0.000000;0.000000;;
   0.000000;0.000000;0.000000;;
  }
  Material {
   0.800000;0.800000;0.800000;1.000000;;
   5.000000;
   0.000000;0.000000;0.000000;;
   0.000000;0.000000;0.000000;;
  }
  Material {
   0.000000;0.000000;0.000000;1.000000;;
   5.000000;
   0.000000;0.000000;0.000000;;
   0.000000;0.000000;0.000000;;
  }
  Material {
   0.269804;0.269804;0.269804;1.000000;;
   5.000000;
   0.000000;0.000000;0.000000;;
   0.000000;0.000000;0.000000;;
  }
 }
 MeshNormals {
  18;
  -0.000675;0.000000;-1.000000;,
  0.430113;0.000000;-0.902775;,
  0.777016;0.000000;-0.629481;,
  0.000674;0.000000;1.000000;,
  -0.000680;0.000000;-1.000000;,
  0.000000;0.000000;0.000000;,
  0.000680;0.000000;1.000000;,
  -0.150341;0.000000;-0.988634;,
  0.352994;0.000000;-0.935626;,
  0.663035;0.000000;-0.748588;,
  0.003328;0.000000;0.999994;,
  -0.150341;0.000000;-0.988634;,
  0.003328;0.000000;0.999995;,
  -1.000000;0.000000;0.000000;,
  0.000000;1.000000;0.000000;,
  0.000000;-1.000000;-0.000000;,
  -0.294086;0.000000;-0.955779;,
  -0.294086;0.000000;-0.955779;;
  30;
  4;0,1,1,0;,
  4;1,2,2,1;,
  4;3,3,3,3;,
  4;13,13,13,13;,
  4;14,14,14,14;,
  4;15,15,15,15;,
  4;4,4,4,4;,
  4;5,5,5,5;,
  4;6,6,6,6;,
  4;5,5,5,5;,
  4;5,5,5,5;,
  4;5,5,5,5;,
  4;7,8,8,7;,
  4;8,9,9,8;,
  4;10,10,10,10;,
  4;16,7,7,16;,
  4;14,14,14,14;,
  4;15,15,15,15;,
  4;11,8,8,11;,
  4;8,9,9,8;,
  4;12,12,12,12;,
  4;17,11,11,17;,
  4;14,14,14,14;,
  4;15,15,15,15;,
  4;7,8,8,7;,
  4;8,9,9,8;,
  4;10,10,10,10;,
  4;16,7,7,16;,
  4;14,14,14,14;,
  4;15,15,15,15;;
 }
}
