xof 0302txt 0064
template Header {
 <3D82AB43-62DA-11cf-AB39-0020AF71E433>
 WORD major;
 WORD minor;
 DWORD flags;
}

template Vector {
 <3D82AB5E-62DA-11cf-AB39-0020AF71E433>
 FLOAT x;
 FLOAT y;
 FLOAT z;
}

template Coords2d {
 <F6F23F44-7686-11cf-8F52-0040333594A3>
 FLOAT u;
 FLOAT v;
}

template Matrix4x4 {
 <F6F23F45-7686-11cf-8F52-0040333594A3>
 array FLOAT matrix[16];
}

template ColorRGBA {
 <35FF44E0-6C7C-11cf-8F52-0040333594A3>
 FLOAT red;
 FLOAT green;
 FLOAT blue;
 FLOAT alpha;
}

template ColorRGB {
 <D3E16E81-7835-11cf-8F52-0040333594A3>
 FLOAT red;
 FLOAT green;
 FLOAT blue;
}

template IndexedColor {
 <1630B820-7842-11cf-8F52-0040333594A3>
 DWORD index;
 ColorRGBA indexColor;
}

template Boolean {
 <4885AE61-78E8-11cf-8F52-0040333594A3>
 WORD truefalse;
}

template Boolean2d {
 <4885AE63-78E8-11cf-8F52-0040333594A3>
 Boolean u;
 Boolean v;
}

template MaterialWrap {
 <4885AE60-78E8-11cf-8F52-0040333594A3>
 Boolean u;
 Boolean v;
}

template TextureFilename {
 <A42790E1-7810-11cf-8F52-0040333594A3>
 STRING filename;
}

template Material {
 <3D82AB4D-62DA-11cf-AB39-0020AF71E433>
 ColorRGBA faceColor;
 FLOAT power;
 ColorRGB specularColor;
 ColorRGB emissiveColor;
 [...]
}

template MeshFace {
 <3D82AB5F-62DA-11cf-AB39-0020AF71E433>
 DWORD nFaceVertexIndices;
 array DWORD faceVertexIndices[nFaceVertexIndices];
}

template MeshFaceWraps {
 <4885AE62-78E8-11cf-8F52-0040333594A3>
 DWORD nFaceWrapValues;
 Boolean2d faceWrapValues;
}

template MeshTextureCoords {
 <F6F23F40-7686-11cf-8F52-0040333594A3>
 DWORD nTextureCoords;
 array Coords2d textureCoords[nTextureCoords];
}

template MeshMaterialList {
 <F6F23F42-7686-11cf-8F52-0040333594A3>
 DWORD nMaterials;
 DWORD nFaceIndexes;
 array DWORD faceIndexes[nFaceIndexes];
 [Material]
}

template MeshNormals {
 <F6F23F43-7686-11cf-8F52-0040333594A3>
 DWORD nNormals;
 array Vector normals[nNormals];
 DWORD nFaceNormals;
 array MeshFace faceNormals[nFaceNormals];
}

template MeshVertexColors {
 <1630B821-7842-11cf-8F52-0040333594A3>
 DWORD nVertexColors;
 array IndexedColor vertexColors[nVertexColors];
}

template Mesh {
 <3D82AB44-62DA-11cf-AB39-0020AF71E433>
 DWORD nVertices;
 array Vector vertices[nVertices];
 DWORD nFaces;
 array MeshFace faces[nFaces];
 [...]
}

Header{
1;
0;
1;
}

Mesh {
 136;
 -3.42212;20.76723;-6.80144;,
 3.42212;20.76723;-6.80144;,
 3.43924;0.12932;-5.40422;,
 -3.43924;0.12932;-5.40422;,
 3.42212;20.76723;3.81402;,
 3.43924;0.12932;5.21124;,
 -3.42212;20.76723;3.81402;,
 -3.43924;0.12932;5.21124;,
 -3.42212;28.33444;-32.92145;,
 3.42212;28.33444;-32.92145;,
 3.43924;20.76723;-32.92145;,
 -3.43924;20.76723;-32.92145;,
 3.42212;28.33444;7.06865;,
 3.43924;20.76723;7.06865;,
 -3.42212;28.33444;7.06865;,
 -3.43924;20.76723;7.06865;,
 -3.42212;20.76723;-32.92145;,
 3.42212;20.76723;-32.92145;,
 3.43924;7.00862;-32.92145;,
 -3.43924;7.00862;-32.92145;,
 3.42212;20.76723;-22.30600;,
 3.43924;7.00862;-22.30600;,
 -3.42212;20.76723;-22.30600;,
 -3.43924;7.00862;-22.30600;,
 -3.42212;11.76911;-22.48505;,
 3.42212;11.76911;-22.48505;,
 3.43924;7.01354;-22.48505;,
 -3.43924;7.01354;-22.48505;,
 3.42212;11.76911;-5.02819;,
 3.43924;7.01354;-5.02819;,
 -3.42212;11.76911;-5.02819;,
 -3.43924;7.01354;-5.02819;,
 0.00000;26.71491;-32.72036;,
 0.52462;26.64862;-32.72036;,
 0.52462;26.64862;-43.74848;,
 0.00000;26.71491;-43.74848;,
 1.01628;26.45397;-32.72036;,
 1.01628;26.45397;-43.74848;,
 1.44408;26.14315;-32.72036;,
 1.44408;26.14315;-43.74848;,
 1.78114;25.73572;-32.72036;,
 1.78114;25.73572;-43.74848;,
 2.00629;25.25725;-32.72036;,
 2.00629;25.25725;-43.74848;,
 2.10538;24.73782;-32.72036;,
 2.10538;24.73782;-43.74848;,
 2.07217;24.21009;-32.72036;,
 2.07217;24.21009;-43.74848;,
 1.90877;23.70718;-32.72036;,
 1.90877;23.70718;-43.74848;,
 1.62543;23.26070;-32.72036;,
 1.62543;23.26070;-43.74848;,
 1.23995;22.89872;-32.72036;,
 1.23995;22.89872;-43.74848;,
 0.77657;22.64399;-32.72036;,
 0.77657;22.64399;-43.74848;,
 0.26439;22.51248;-32.72036;,
 0.26439;22.51248;-43.74848;,
 -0.26440;22.51248;-32.72036;,
 -0.26440;22.51248;-43.74848;,
 -0.77658;22.64399;-32.72036;,
 -0.77658;22.64399;-43.74848;,
 -1.23995;22.89872;-32.72036;,
 -1.23995;22.89873;-43.74848;,
 -1.62543;23.26070;-32.72036;,
 -1.62543;23.26070;-43.74848;,
 -1.90877;23.70718;-32.72036;,
 -1.90877;23.70718;-43.74848;,
 -2.07217;24.21009;-32.72036;,
 -2.07217;24.21009;-43.74848;,
 -2.10538;24.73782;-32.72036;,
 -2.10538;24.73782;-43.74848;,
 -2.00629;25.25725;-32.72036;,
 -2.00629;25.25725;-43.74848;,
 -1.78114;25.73572;-32.72036;,
 -1.78114;25.73572;-43.74848;,
 -1.44408;26.14315;-32.72036;,
 -1.44408;26.14315;-43.74848;,
 -1.01627;26.45397;-32.72036;,
 -1.01627;26.45397;-43.74848;,
 -0.52462;26.64862;-32.72036;,
 -0.52462;26.64862;-43.74848;,
 0.00000;24.60537;-32.72036;,
 0.00000;24.60537;-43.74848;,
 0.00000;27.41980;-43.71148;,
 0.70061;27.33127;-43.71148;,
 0.70061;27.33127;-63.12164;,
 0.00000;27.41980;-63.12164;,
 1.35720;27.07130;-43.71148;,
 1.35720;27.07130;-63.12164;,
 1.92851;26.65624;-43.71148;,
 1.92851;26.65624;-63.12164;,
 2.37864;26.11212;-43.71148;,
 2.37864;26.11212;-63.12164;,
 2.67933;25.47312;-43.71148;,
 2.67933;25.47312;-63.12164;,
 2.81165;24.77946;-43.71148;,
 2.81165;24.77946;-63.12164;,
 2.76730;24.07469;-43.71148;,
 2.76730;24.07469;-63.12164;,
 2.54909;23.40307;-43.71148;,
 2.54909;23.40307;-63.12164;,
 2.17070;22.80685;-43.71148;,
 2.17070;22.80686;-63.12164;,
 1.65591;22.32344;-43.71148;,
 1.65591;22.32344;-63.12164;,
 1.03708;21.98323;-43.71148;,
 1.03708;21.98323;-63.12164;,
 0.35309;21.80761;-43.71148;,
 0.35309;21.80761;-63.12164;,
 -0.35309;21.80761;-43.71148;,
 -0.35309;21.80761;-63.12164;,
 -1.03708;21.98323;-43.71148;,
 -1.03708;21.98323;-63.12164;,
 -1.65592;22.32344;-43.71148;,
 -1.65592;22.32344;-63.12164;,
 -2.17070;22.80686;-43.71148;,
 -2.17070;22.80686;-63.12164;,
 -2.54909;23.40307;-43.71148;,
 -2.54909;23.40307;-63.12164;,
 -2.76730;24.07469;-43.71148;,
 -2.76730;24.07469;-63.12164;,
 -2.81165;24.77946;-43.71148;,
 -2.81165;24.77946;-63.12164;,
 -2.67933;25.47313;-43.71148;,
 -2.67933;25.47313;-63.12164;,
 -2.37864;26.11212;-43.71148;,
 -2.37864;26.11212;-63.12164;,
 -1.92851;26.65624;-43.71148;,
 -1.92851;26.65624;-63.12164;,
 -1.35720;27.07130;-43.71148;,
 -1.35720;27.07130;-63.12164;,
 -0.70061;27.33127;-43.71148;,
 -0.70061;27.33127;-63.12164;,
 0.00000;24.60257;-43.71148;,
 0.00000;24.60257;-63.12164;;
 
 174;
 4;0,1,2,3;,
 4;1,4,5,2;,
 4;4,6,7,5;,
 4;6,0,3,7;,
 4;6,4,1,0;,
 4;3,2,5,7;,
 4;8,9,10,11;,
 4;9,12,13,10;,
 4;12,14,15,13;,
 4;14,8,11,15;,
 4;14,12,9,8;,
 4;11,10,13,15;,
 4;16,17,18,19;,
 4;17,20,21,18;,
 4;20,22,23,21;,
 4;22,16,19,23;,
 4;22,20,17,16;,
 4;19,18,21,23;,
 4;24,25,26,27;,
 4;25,28,29,26;,
 4;28,30,31,29;,
 4;30,24,27,31;,
 4;30,28,25,24;,
 4;27,26,29,31;,
 4;32,33,34,35;,
 4;33,36,37,34;,
 4;36,38,39,37;,
 4;38,40,41,39;,
 4;40,42,43,41;,
 4;42,44,45,43;,
 4;44,46,47,45;,
 4;46,48,49,47;,
 4;48,50,51,49;,
 4;50,52,53,51;,
 4;52,54,55,53;,
 4;54,56,57,55;,
 4;56,58,59,57;,
 4;58,60,61,59;,
 4;60,62,63,61;,
 4;62,64,65,63;,
 4;64,66,67,65;,
 4;66,68,69,67;,
 4;68,70,71,69;,
 4;70,72,73,71;,
 4;72,74,75,73;,
 4;74,76,77,75;,
 4;76,78,79,77;,
 4;78,80,81,79;,
 4;80,32,35,81;,
 3;82,33,32;,
 3;82,36,33;,
 3;82,38,36;,
 3;82,40,38;,
 3;82,42,40;,
 3;82,44,42;,
 3;82,46,44;,
 3;82,48,46;,
 3;82,50,48;,
 3;82,52,50;,
 3;82,54,52;,
 3;82,56,54;,
 3;82,58,56;,
 3;82,60,58;,
 3;82,62,60;,
 3;82,64,62;,
 3;82,66,64;,
 3;82,68,66;,
 3;82,70,68;,
 3;82,72,70;,
 3;82,74,72;,
 3;82,76,74;,
 3;82,78,76;,
 3;82,80,78;,
 3;82,32,80;,
 3;83,35,34;,
 3;83,34,37;,
 3;83,37,39;,
 3;83,39,41;,
 3;83,41,43;,
 3;83,43,45;,
 3;83,45,47;,
 3;83,47,49;,
 3;83,49,51;,
 3;83,51,53;,
 3;83,53,55;,
 3;83,55,57;,
 3;83,57,59;,
 3;83,59,61;,
 3;83,61,63;,
 3;83,63,65;,
 3;83,65,67;,
 3;83,67,69;,
 3;83,69,71;,
 3;83,71,73;,
 3;83,73,75;,
 3;83,75,77;,
 3;83,77,79;,
 3;83,79,81;,
 3;83,81,35;,
 4;84,85,86,87;,
 4;85,88,89,86;,
 4;88,90,91,89;,
 4;90,92,93,91;,
 4;92,94,95,93;,
 4;94,96,97,95;,
 4;96,98,99,97;,
 4;98,100,101,99;,
 4;100,102,103,101;,
 4;102,104,105,103;,
 4;104,106,107,105;,
 4;106,108,109,107;,
 4;108,110,111,109;,
 4;110,112,113,111;,
 4;112,114,115,113;,
 4;114,116,117,115;,
 4;116,118,119,117;,
 4;118,120,121,119;,
 4;120,122,123,121;,
 4;122,124,125,123;,
 4;124,126,127,125;,
 4;126,128,129,127;,
 4;128,130,131,129;,
 4;130,132,133,131;,
 4;132,84,87,133;,
 3;134,85,84;,
 3;134,88,85;,
 3;134,90,88;,
 3;134,92,90;,
 3;134,94,92;,
 3;134,96,94;,
 3;134,98,96;,
 3;134,100,98;,
 3;134,102,100;,
 3;134,104,102;,
 3;134,106,104;,
 3;134,108,106;,
 3;134,110,108;,
 3;134,112,110;,
 3;134,114,112;,
 3;134,116,114;,
 3;134,118,116;,
 3;134,120,118;,
 3;134,122,120;,
 3;134,124,122;,
 3;134,126,124;,
 3;134,128,126;,
 3;134,130,128;,
 3;134,132,130;,
 3;134,84,132;,
 3;135,87,86;,
 3;135,86,89;,
 3;135,89,91;,
 3;135,91,93;,
 3;135,93,95;,
 3;135,95,97;,
 3;135,97,99;,
 3;135,99,101;,
 3;135,101,103;,
 3;135,103,105;,
 3;135,105,107;,
 3;135,107,109;,
 3;135,109,111;,
 3;135,111,113;,
 3;135,113,115;,
 3;135,115,117;,
 3;135,117,119;,
 3;135,119,121;,
 3;135,121,123;,
 3;135,123,125;,
 3;135,125,127;,
 3;135,127,129;,
 3;135,129,131;,
 3;135,131,133;,
 3;135,133,87;;
 
 MeshMaterialList {
  1;
  174;
  0,
  0,
  0,
  0,
  0,
  0,
  0,
  0,
  0,
  0,
  0,
  0,
  0,
  0,
  0,
  0,
  0,
  0,
  0,
  0,
  0,
  0,
  0,
  0,
  0,
  0,
  0,
  0,
  0,
  0,
  0,
  0,
  0,
  0,
  0,
  0,
  0,
  0,
  0,
  0,
  0,
  0,
  0,
  0,
  0,
  0,
  0,
  0,
  0,
  0,
  0,
  0,
  0,
  0,
  0,
  0,
  0,
  0,
  0,
  0,
  0,
  0,
  0,
  0,
  0,
  0,
  0,
  0,
  0,
  0,
  0,
  0,
  0,
  0,
  0,
  0,
  0,
  0,
  0,
  0,
  0,
  0,
  0,
  0,
  0,
  0,
  0,
  0,
  0,
  0,
  0,
  0,
  0,
  0,
  0,
  0,
  0,
  0,
  0,
  0,
  0,
  0,
  0,
  0,
  0,
  0,
  0,
  0,
  0,
  0,
  0,
  0,
  0,
  0,
  0,
  0,
  0,
  0,
  0,
  0,
  0,
  0,
  0,
  0,
  0,
  0,
  0,
  0,
  0,
  0,
  0,
  0,
  0,
  0,
  0,
  0,
  0,
  0,
  0,
  0,
  0,
  0,
  0,
  0,
  0,
  0,
  0,
  0,
  0,
  0,
  0,
  0,
  0,
  0,
  0,
  0,
  0,
  0,
  0,
  0,
  0,
  0,
  0,
  0,
  0,
  0,
  0,
  0,
  0,
  0,
  0,
  0,
  0,
  0;;
  Material {
   0.000000;0.000000;0.000000;1.000000;;
   5.000000;
   0.000000;0.000000;0.000000;;
   0.000000;0.000000;0.000000;;
  }
 }
 MeshNormals {
  64;
  0.000000;-0.067547;-0.997716;,
  1.000000;0.000829;0.000000;,
  0.000000;0.067547;0.997716;,
  0.000000;0.000000;-1.000000;,
  0.999997;0.002262;0.000000;,
  0.000000;0.000000;1.000000;,
  0.999999;0.001244;0.000000;,
  0.999994;0.003599;0.000000;,
  -0.000001;1.000000;0.000000;,
  0.248692;0.968583;0.000000;,
  0.481749;0.876309;0.000000;,
  0.684549;0.728967;0.000000;,
  0.844328;0.535826;0.000000;,
  0.951057;0.309016;0.000000;,
  0.998027;0.062790;0.000000;,
  0.982287;-0.187384;-0.000000;,
  0.904831;-0.425772;-0.000000;,
  0.770514;-0.637423;-0.000000;,
  0.587773;-0.809026;-0.000000;,
  0.368115;-0.929780;-0.000000;,
  0.125333;-0.992115;-0.000000;,
  -0.125333;-0.992115;0.000000;,
  -0.368120;-0.929778;-0.000000;,
  -0.587777;-0.809023;-0.000000;,
  -0.770513;-0.637424;-0.000000;,
  -0.904830;-0.425773;0.000000;,
  -0.982287;-0.187384;0.000000;,
  -0.998027;0.062790;0.000000;,
  -0.951057;0.309016;0.000000;,
  -0.844328;0.535826;0.000000;,
  -0.684546;0.728970;0.000000;,
  -0.481745;0.876311;0.000000;,
  -0.248693;0.968582;0.000000;,
  0.000000;1.000000;0.000000;,
  0.248713;0.968577;0.000000;,
  0.481744;0.876312;0.000000;,
  0.684538;0.728978;0.000000;,
  0.844332;0.535820;0.000000;,
  0.951057;0.309015;0.000000;,
  0.998027;0.062787;0.000000;,
  0.982287;-0.187382;-0.000000;,
  0.904823;-0.425787;-0.000000;,
  0.770507;-0.637432;-0.000000;,
  0.587788;-0.809015;-0.000000;,
  0.368128;-0.929775;-0.000000;,
  0.125335;-0.992114;-0.000000;,
  -0.125336;-0.992114;0.000000;,
  -0.368127;-0.929776;0.000000;,
  -0.587789;-0.809014;0.000000;,
  -0.770509;-0.637430;0.000000;,
  -0.904823;-0.425788;0.000000;,
  -0.982287;-0.187382;0.000000;,
  -0.998027;0.062786;0.000000;,
  -0.951058;0.309014;0.000000;,
  -0.844331;0.535823;0.000000;,
  -0.684536;0.728980;0.000000;,
  -0.481744;0.876312;0.000000;,
  -0.248713;0.968577;0.000000;,
  -1.000000;0.000829;0.000000;,
  0.000000;1.000000;0.000000;,
  0.000000;-1.000000;-0.000000;,
  -0.999997;0.002262;0.000000;,
  -0.999999;0.001244;0.000000;,
  -0.999994;0.003599;0.000000;;
  174;
  4;0,0,0,0;,
  4;1,1,1,1;,
  4;2,2,2,2;,
  4;58,58,58,58;,
  4;59,59,59,59;,
  4;60,60,60,60;,
  4;3,3,3,3;,
  4;4,4,4,4;,
  4;5,5,5,5;,
  4;61,61,61,61;,
  4;59,59,59,59;,
  4;60,60,60,60;,
  4;3,3,3,3;,
  4;6,6,6,6;,
  4;5,5,5,5;,
  4;62,62,62,62;,
  4;59,59,59,59;,
  4;60,60,60,60;,
  4;3,3,3,3;,
  4;7,7,7,7;,
  4;5,5,5,5;,
  4;63,63,63,63;,
  4;59,59,59,59;,
  4;60,60,60,60;,
  4;8,9,9,8;,
  4;9,10,10,9;,
  4;10,11,11,10;,
  4;11,12,12,11;,
  4;12,13,13,12;,
  4;13,14,14,13;,
  4;14,15,15,14;,
  4;15,16,16,15;,
  4;16,17,17,16;,
  4;17,18,18,17;,
  4;18,19,19,18;,
  4;19,20,20,19;,
  4;20,21,21,20;,
  4;21,22,22,21;,
  4;22,23,23,22;,
  4;23,24,24,23;,
  4;24,25,25,24;,
  4;25,26,26,25;,
  4;26,27,27,26;,
  4;27,28,28,27;,
  4;28,29,29,28;,
  4;29,30,30,29;,
  4;30,31,31,30;,
  4;31,32,32,31;,
  4;32,8,8,32;,
  3;5,5,5;,
  3;5,5,5;,
  3;5,5,5;,
  3;5,5,5;,
  3;5,5,5;,
  3;5,5,5;,
  3;5,5,5;,
  3;5,5,5;,
  3;5,5,5;,
  3;5,5,5;,
  3;5,5,5;,
  3;5,5,5;,
  3;5,5,5;,
  3;5,5,5;,
  3;5,5,5;,
  3;5,5,5;,
  3;5,5,5;,
  3;5,5,5;,
  3;5,5,5;,
  3;5,5,5;,
  3;5,5,5;,
  3;5,5,5;,
  3;5,5,5;,
  3;5,5,5;,
  3;5,5,5;,
  3;3,3,3;,
  3;3,3,3;,
  3;3,3,3;,
  3;3,3,3;,
  3;3,3,3;,
  3;3,3,3;,
  3;3,3,3;,
  3;3,3,3;,
  3;3,3,3;,
  3;3,3,3;,
  3;3,3,3;,
  3;3,3,3;,
  3;3,3,3;,
  3;3,3,3;,
  3;3,3,3;,
  3;3,3,3;,
  3;3,3,3;,
  3;3,3,3;,
  3;3,3,3;,
  3;3,3,3;,
  3;3,3,3;,
  3;3,3,3;,
  3;3,3,3;,
  3;3,3,3;,
  3;3,3,3;,
  4;33,34,34,33;,
  4;34,35,35,34;,
  4;35,36,36,35;,
  4;36,37,37,36;,
  4;37,38,38,37;,
  4;38,39,39,38;,
  4;39,40,40,39;,
  4;40,41,41,40;,
  4;41,42,42,41;,
  4;42,43,43,42;,
  4;43,44,44,43;,
  4;44,45,45,44;,
  4;45,46,46,45;,
  4;46,47,47,46;,
  4;47,48,48,47;,
  4;48,49,49,48;,
  4;49,50,50,49;,
  4;50,51,51,50;,
  4;51,52,52,51;,
  4;52,53,53,52;,
  4;53,54,54,53;,
  4;54,55,55,54;,
  4;55,56,56,55;,
  4;56,57,57,56;,
  4;57,33,33,57;,
  3;5,5,5;,
  3;5,5,5;,
  3;5,5,5;,
  3;5,5,5;,
  3;5,5,5;,
  3;5,5,5;,
  3;5,5,5;,
  3;5,5,5;,
  3;5,5,5;,
  3;5,5,5;,
  3;5,5,5;,
  3;5,5,5;,
  3;5,5,5;,
  3;5,5,5;,
  3;5,5,5;,
  3;5,5,5;,
  3;5,5,5;,
  3;5,5,5;,
  3;5,5,5;,
  3;5,5,5;,
  3;5,5,5;,
  3;5,5,5;,
  3;5,5,5;,
  3;5,5,5;,
  3;5,5,5;,
  3;3,3,3;,
  3;3,3,3;,
  3;3,3,3;,
  3;3,3,3;,
  3;3,3,3;,
  3;3,3,3;,
  3;3,3,3;,
  3;3,3,3;,
  3;3,3,3;,
  3;3,3,3;,
  3;3,3,3;,
  3;3,3,3;,
  3;3,3,3;,
  3;3,3,3;,
  3;3,3,3;,
  3;3,3,3;,
  3;3,3,3;,
  3;3,3,3;,
  3;3,3,3;,
  3;3,3,3;,
  3;3,3,3;,
  3;3,3,3;,
  3;3,3,3;,
  3;3,3,3;,
  3;3,3,3;;
 }
}
