xof 0302txt 0064
template Header {
 <3D82AB43-62DA-11cf-AB39-0020AF71E433>
 WORD major;
 WORD minor;
 DWORD flags;
}

template Vector {
 <3D82AB5E-62DA-11cf-AB39-0020AF71E433>
 FLOAT x;
 FLOAT y;
 FLOAT z;
}

template Coords2d {
 <F6F23F44-7686-11cf-8F52-0040333594A3>
 FLOAT u;
 FLOAT v;
}

template Matrix4x4 {
 <F6F23F45-7686-11cf-8F52-0040333594A3>
 array FLOAT matrix[16];
}

template ColorRGBA {
 <35FF44E0-6C7C-11cf-8F52-0040333594A3>
 FLOAT red;
 FLOAT green;
 FLOAT blue;
 FLOAT alpha;
}

template ColorRGB {
 <D3E16E81-7835-11cf-8F52-0040333594A3>
 FLOAT red;
 FLOAT green;
 FLOAT blue;
}

template IndexedColor {
 <1630B820-7842-11cf-8F52-0040333594A3>
 DWORD index;
 ColorRGBA indexColor;
}

template Boolean {
 <4885AE61-78E8-11cf-8F52-0040333594A3>
 WORD truefalse;
}

template Boolean2d {
 <4885AE63-78E8-11cf-8F52-0040333594A3>
 Boolean u;
 Boolean v;
}

template MaterialWrap {
 <4885AE60-78E8-11cf-8F52-0040333594A3>
 Boolean u;
 Boolean v;
}

template TextureFilename {
 <A42790E1-7810-11cf-8F52-0040333594A3>
 STRING filename;
}

template Material {
 <3D82AB4D-62DA-11cf-AB39-0020AF71E433>
 ColorRGBA faceColor;
 FLOAT power;
 ColorRGB specularColor;
 ColorRGB emissiveColor;
 [...]
}

template MeshFace {
 <3D82AB5F-62DA-11cf-AB39-0020AF71E433>
 DWORD nFaceVertexIndices;
 array DWORD faceVertexIndices[nFaceVertexIndices];
}

template MeshFaceWraps {
 <4885AE62-78E8-11cf-8F52-0040333594A3>
 DWORD nFaceWrapValues;
 Boolean2d faceWrapValues;
}

template MeshTextureCoords {
 <F6F23F40-7686-11cf-8F52-0040333594A3>
 DWORD nTextureCoords;
 array Coords2d textureCoords[nTextureCoords];
}

template MeshMaterialList {
 <F6F23F42-7686-11cf-8F52-0040333594A3>
 DWORD nMaterials;
 DWORD nFaceIndexes;
 array DWORD faceIndexes[nFaceIndexes];
 [Material]
}

template MeshNormals {
 <F6F23F43-7686-11cf-8F52-0040333594A3>
 DWORD nNormals;
 array Vector normals[nNormals];
 DWORD nFaceNormals;
 array MeshFace faceNormals[nFaceNormals];
}

template MeshVertexColors {
 <1630B821-7842-11cf-8F52-0040333594A3>
 DWORD nVertexColors;
 array IndexedColor vertexColors[nVertexColors];
}

template Mesh {
 <3D82AB44-62DA-11cf-AB39-0020AF71E433>
 DWORD nVertices;
 array Vector vertices[nVertices];
 DWORD nFaces;
 array MeshFace faces[nFaces];
 [...]
}

Header{
1;
0;
1;
}

Mesh {
 252;
 -19.70536;12.81830;10.00000;,
 19.70536;12.81830;10.00000;,
 19.70536;12.81830;-10.00000;,
 -19.70536;12.81830;-10.00000;,
 -19.70536;-0.46827;-10.00000;,
 19.70536;-0.46827;-10.00000;,
 19.70536;-0.46827;10.00000;,
 -19.70536;-0.46827;10.00000;,
 -19.70536;8.16385;-10.00000;,
 -19.70536;12.81830;-10.00000;,
 19.70536;12.81830;-10.00000;,
 19.70536;8.16385;-10.00000;,
 -19.70536;8.16385;-10.00000;,
 -19.70536;8.16385;10.00000;,
 -19.70536;12.81830;-10.00000;,
 19.70536;8.16385;-10.00000;,
 19.70536;12.81830;-10.00000;,
 19.70536;8.16385;10.00000;,
 -19.70536;8.16385;10.00000;,
 19.70536;8.16385;10.00000;,
 19.70536;12.81830;10.00000;,
 -19.70536;12.81830;10.00000;,
 19.70536;3.48718;10.00000;,
 19.70536;-0.46827;-10.00000;,
 19.70536;3.48718;-10.00000;,
 19.70536;3.48718;10.00000;,
 -19.70536;3.48718;10.00000;,
 -19.70536;-0.46827;10.00000;,
 19.70536;-0.46827;10.00000;,
 19.70536;3.48718;-10.00000;,
 19.70536;-0.46827;-10.00000;,
 -19.70536;-0.46827;-10.00000;,
 -19.70536;3.48718;-10.00000;,
 -19.70536;3.48718;10.00000;,
 -19.70536;3.48718;-10.00000;,
 -19.70536;-0.46827;-10.00000;,
 19.66203;3.52191;-9.51643;,
 19.66203;3.52191;9.51643;,
 19.66203;8.12913;9.51643;,
 19.66203;8.12913;-9.51643;,
 -19.66203;8.12913;9.51643;,
 19.66203;8.12913;9.51643;,
 19.66203;3.52191;9.51643;,
 -19.66203;3.52191;9.51643;,
 -19.66203;3.52191;-9.51643;,
 19.66203;3.52191;-9.51643;,
 19.66203;8.12913;-9.51643;,
 -19.66203;8.12913;-9.51643;,
 -19.66203;8.12913;-9.51643;,
 -19.66203;8.12913;9.51643;,
 -19.66203;3.52191;9.51643;,
 -19.66203;3.52191;-9.51643;,
 18.89295;7.63330;-9.14420;,
 18.89295;7.63330;9.14420;,
 18.89295;7.63330;-9.14420;,
 -18.89295;7.63330;-9.14420;,
 18.89295;7.63330;9.14420;,
 -18.89295;7.63330;9.14420;,
 -18.89295;7.63330;-9.14420;,
 -18.89295;7.63330;9.14420;,
 18.89295;3.95882;-9.14420;,
 18.89295;3.95882;9.14420;,
 18.89295;3.95882;-9.14420;,
 -18.89295;3.95882;-9.14420;,
 18.89295;3.95882;9.14420;,
 -18.89295;3.95882;9.14420;,
 -18.89295;3.95882;-9.14420;,
 -18.89295;3.95882;9.14420;,
 13.79319;13.44175;-9.85149;,
 13.79319;13.44175;9.85149;,
 13.79319;12.78518;9.85149;,
 13.79319;12.78518;-9.85149;,
 8.24243;13.44175;9.85149;,
 8.24243;13.44175;-9.85149;,
 8.24243;12.78518;-9.85149;,
 8.24243;12.78518;9.85149;,
 13.79319;13.44175;-9.85149;,
 8.24243;13.44175;-9.85149;,
 8.24243;12.78518;-9.85149;,
 13.79319;12.78518;-9.85149;,
 8.15437;13.36835;-10.29331;,
 13.88124;13.36835;-10.29331;,
 13.88124;12.85857;-10.29331;,
 8.15437;12.85857;-10.29331;,
 8.24243;13.44175;-9.85149;,
 13.79319;13.44175;-9.85149;,
 13.79319;12.78518;-9.85149;,
 8.24243;12.78518;-9.85149;,
 13.88124;13.36835;10.29331;,
 8.15437;13.36835;10.29331;,
 8.15437;12.85857;10.29331;,
 13.88124;12.85857;10.29331;,
 13.79319;13.44175;9.85149;,
 8.24243;13.44175;9.85149;,
 8.24243;12.78518;9.85149;,
 13.79319;12.78518;9.85149;,
 8.15876;-0.56078;-9.96526;,
 13.87685;-0.56078;-9.96526;,
 8.19764;-0.62787;-10.31224;,
 13.83798;-0.62787;-10.31224;,
 13.87685;-0.55331;9.96526;,
 8.15876;-0.55331;9.96526;,
 13.83798;-0.62787;10.31224;,
 8.19764;-0.62787;10.31224;,
 13.48835;-0.85260;-10.00315;,
 8.54731;-0.85260;-10.00315;,
 8.36223;-0.82208;-10.18328;,
 13.67337;-0.82208;-10.18328;,
 8.23315;-0.82763;9.91791;,
 13.80250;-0.82763;9.91791;,
 13.67337;-0.82208;10.18328;,
 8.36223;-0.82208;10.18328;,
 8.15876;-0.56078;-9.96526;,
 13.87685;-0.56078;-9.96526;,
 13.48835;-0.85260;-10.00315;,
 8.54731;-0.85260;-10.00315;,
 1.34413;13.44175;-9.85149;,
 1.34413;13.44175;9.85149;,
 1.34413;12.78518;9.85149;,
 1.34413;12.78518;-9.85149;,
 -4.20662;13.44175;9.85149;,
 -4.20662;13.44175;-9.85149;,
 -4.20662;12.78518;-9.85149;,
 -4.20662;12.78518;9.85149;,
 1.34413;13.44175;-9.85149;,
 -4.20662;13.44175;-9.85149;,
 -4.20662;12.78518;-9.85149;,
 1.34413;12.78518;-9.85149;,
 -4.29468;13.36835;-10.29331;,
 1.43219;13.36835;-10.29331;,
 1.43219;12.85857;-10.29331;,
 -4.29468;12.85857;-10.29331;,
 -4.20662;13.44175;-9.85149;,
 1.34413;13.44175;-9.85149;,
 1.34413;12.78518;-9.85149;,
 -4.20662;12.78518;-9.85149;,
 1.43219;13.36835;10.29331;,
 -4.29468;13.36835;10.29331;,
 -4.29468;12.85857;10.29331;,
 1.43219;12.85857;10.29331;,
 1.34413;13.44175;9.85149;,
 -4.20662;13.44175;9.85149;,
 -4.20662;12.78518;9.85149;,
 1.34413;12.78518;9.85149;,
 -4.29029;-0.56078;-9.96526;,
 1.42779;-0.56078;-9.96526;,
 -4.25141;-0.62787;-10.31224;,
 1.38893;-0.62787;-10.31224;,
 1.42779;-0.55331;9.96526;,
 -4.29029;-0.55331;9.96526;,
 1.38893;-0.62787;10.31224;,
 -4.25141;-0.62787;10.31224;,
 1.03930;-0.85260;-10.00315;,
 -3.90175;-0.85260;-10.00315;,
 -4.08682;-0.82208;-10.18328;,
 1.22432;-0.82208;-10.18328;,
 -4.21590;-0.82763;9.91791;,
 1.35345;-0.82763;9.91791;,
 1.22432;-0.82208;10.18328;,
 -4.08682;-0.82208;10.18328;,
 -4.29029;-0.56078;-9.96526;,
 1.42779;-0.56078;-9.96526;,
 1.03930;-0.85260;-10.00315;,
 -3.90175;-0.85260;-10.00315;,
 -10.43020;13.44175;-9.85149;,
 -10.43020;13.44175;9.85149;,
 -10.43020;12.78518;9.85149;,
 -10.43020;12.78518;-9.85149;,
 -15.98096;13.44175;9.85149;,
 -15.98096;13.44175;-9.85149;,
 -15.98096;12.78518;-9.85149;,
 -15.98096;12.78518;9.85149;,
 -10.43020;13.44175;-9.85149;,
 -15.98096;13.44175;-9.85149;,
 -15.98096;12.78518;-9.85149;,
 -10.43020;12.78518;-9.85149;,
 -16.06902;13.36835;-10.29331;,
 -10.34215;13.36835;-10.29331;,
 -10.34215;12.85857;-10.29331;,
 -16.06902;12.85857;-10.29331;,
 -15.98096;13.44175;-9.85149;,
 -10.43020;13.44175;-9.85149;,
 -10.43020;12.78518;-9.85149;,
 -15.98096;12.78518;-9.85149;,
 -10.34215;13.36835;10.29331;,
 -16.06902;13.36835;10.29331;,
 -16.06902;12.85857;10.29331;,
 -10.34215;12.85857;10.29331;,
 -10.43020;13.44175;9.85149;,
 -15.98096;13.44175;9.85149;,
 -15.98096;12.78518;9.85149;,
 -10.43020;12.78518;9.85149;,
 -16.06463;-0.56078;-9.96526;,
 -10.34654;-0.56078;-9.96526;,
 -16.02576;-0.62787;-10.31224;,
 -10.38541;-0.62787;-10.31224;,
 -10.34654;-0.55331;9.96526;,
 -16.06463;-0.55331;9.96526;,
 -10.38541;-0.62787;10.31224;,
 -16.02576;-0.62787;10.31224;,
 -10.73504;-0.85260;-10.00315;,
 -15.67609;-0.85260;-10.00315;,
 -15.86116;-0.82208;-10.18328;,
 -10.55002;-0.82208;-10.18328;,
 -15.99024;-0.82763;9.91791;,
 -10.42089;-0.82763;9.91791;,
 -10.55002;-0.82208;10.18328;,
 -15.86116;-0.82208;10.18328;,
 -16.06463;-0.56078;-9.96526;,
 -10.34654;-0.56078;-9.96526;,
 -10.73504;-0.85260;-10.00315;,
 -15.67609;-0.85260;-10.00315;,
 -16.87298;15.12061;-3.91544;,
 -0.81380;15.12061;-3.91544;,
 -0.81380;13.14375;-3.91544;,
 -16.87298;13.14375;-3.91544;,
 -0.81380;15.12061;-3.91544;,
 -0.81380;15.12061;3.91544;,
 -0.81380;13.14375;3.91544;,
 -0.81380;13.14375;-3.91544;,
 -0.81380;15.12061;3.91544;,
 -16.87298;15.12061;3.91544;,
 -16.87298;13.14375;3.91544;,
 -0.81380;13.14375;3.91544;,
 -16.87298;15.12061;3.91544;,
 -16.87298;15.12061;-3.91544;,
 -16.87298;13.14375;-3.91544;,
 -16.87298;13.14375;3.91544;,
 -0.81380;15.12061;-3.91544;,
 -16.87298;15.12061;-3.91544;,
 -16.87298;13.14375;-3.91544;,
 -0.81380;13.14375;-3.91544;,
 -5.96158;15.30133;-3.14393;,
 -2.34689;15.30133;-3.14393;,
 -2.34689;14.88013;-3.14393;,
 -5.96158;14.88013;-3.14393;,
 -2.34689;15.30133;-3.14393;,
 -2.34689;15.30133;3.14393;,
 -2.34689;14.88013;3.14393;,
 -2.34689;14.88013;-3.14393;,
 -2.34689;15.30133;3.14393;,
 -5.96158;15.30133;3.14393;,
 -5.96158;14.88013;3.14393;,
 -2.34689;14.88013;3.14393;,
 -5.96158;15.30133;3.14393;,
 -5.96158;15.30133;-3.14393;,
 -5.96158;14.88013;-3.14393;,
 -5.96158;14.88013;3.14393;,
 -2.34689;15.30133;-3.14393;,
 -5.96158;15.30133;-3.14393;,
 -5.96158;14.88013;-3.14393;,
 -2.34689;14.88013;-3.14393;;
 
 144;
 4;0,1,2,3;,
 4;4,5,6,7;,
 4;8,9,10,11;,
 4;12,13,0,14;,
 4;15,16,1,17;,
 4;18,19,20,21;,
 4;22,6,23,24;,
 4;25,26,27,28;,
 4;29,30,31,32;,
 4;33,34,35,7;,
 4;36,37,22,24;,
 4;38,39,15,17;,
 4;40,41,19,18;,
 4;42,43,26,25;,
 4;44,45,29,32;,
 4;46,47,8,11;,
 4;48,49,13,12;,
 4;50,51,34,33;,
 4;52,39,38,53;,
 4;54,55,47,46;,
 4;56,41,40,57;,
 4;58,59,49,48;,
 4;60,52,53,61;,
 4;60,61,37,36;,
 4;62,45,44,63;,
 4;62,63,55,54;,
 4;64,56,57,65;,
 4;64,65,43,42;,
 4;66,51,50,67;,
 4;66,67,59,58;,
 4;68,69,70,71;,
 4;72,73,74,75;,
 4;72,69,76,77;,
 4;78,79,70,75;,
 4;80,81,82,83;,
 4;84,85,81,80;,
 4;85,86,82,81;,
 4;87,84,80,83;,
 4;88,89,90,91;,
 4;92,93,89,88;,
 4;93,94,90,89;,
 4;95,92,88,91;,
 4;86,87,96,97;,
 4;87,83,98,96;,
 4;83,82,99,98;,
 4;82,86,97,99;,
 4;94,95,100,101;,
 4;95,91,102,100;,
 4;91,90,103,102;,
 4;90,94,101,103;,
 4;104,105,106,107;,
 4;97,96,105,104;,
 4;96,98,106,105;,
 4;98,99,107,106;,
 4;99,97,104,107;,
 4;108,109,110,111;,
 4;100,102,110,109;,
 4;102,103,111,110;,
 4;103,101,108,111;,
 4;112,113,114,115;,
 4;101,100,113,112;,
 4;100,109,114,113;,
 4;109,108,115,114;,
 4;108,101,112,115;,
 4;116,117,118,119;,
 4;120,121,122,123;,
 4;120,117,124,125;,
 4;126,127,118,123;,
 4;128,129,130,131;,
 4;132,133,129,128;,
 4;133,134,130,129;,
 4;135,132,128,131;,
 4;136,137,138,139;,
 4;140,141,137,136;,
 4;141,142,138,137;,
 4;143,140,136,139;,
 4;134,135,144,145;,
 4;135,131,146,144;,
 4;131,130,147,146;,
 4;130,134,145,147;,
 4;142,143,148,149;,
 4;143,139,150,148;,
 4;139,138,151,150;,
 4;138,142,149,151;,
 4;152,153,154,155;,
 4;145,144,153,152;,
 4;144,146,154,153;,
 4;146,147,155,154;,
 4;147,145,152,155;,
 4;156,157,158,159;,
 4;148,150,158,157;,
 4;150,151,159,158;,
 4;151,149,156,159;,
 4;160,161,162,163;,
 4;149,148,161,160;,
 4;148,157,162,161;,
 4;157,156,163,162;,
 4;156,149,160,163;,
 4;164,165,166,167;,
 4;168,169,170,171;,
 4;168,165,172,173;,
 4;174,175,166,171;,
 4;176,177,178,179;,
 4;180,181,177,176;,
 4;181,182,178,177;,
 4;183,180,176,179;,
 4;184,185,186,187;,
 4;188,189,185,184;,
 4;189,190,186,185;,
 4;191,188,184,187;,
 4;182,183,192,193;,
 4;183,179,194,192;,
 4;179,178,195,194;,
 4;178,182,193,195;,
 4;190,191,196,197;,
 4;191,187,198,196;,
 4;187,186,199,198;,
 4;186,190,197,199;,
 4;200,201,202,203;,
 4;193,192,201,200;,
 4;192,194,202,201;,
 4;194,195,203,202;,
 4;195,193,200,203;,
 4;204,205,206,207;,
 4;196,198,206,205;,
 4;198,199,207,206;,
 4;199,197,204,207;,
 4;208,209,210,211;,
 4;197,196,209,208;,
 4;196,205,210,209;,
 4;205,204,211,210;,
 4;204,197,208,211;,
 4;212,213,214,215;,
 4;216,217,218,219;,
 4;220,221,222,223;,
 4;224,225,226,227;,
 4;224,217,228,229;,
 4;230,231,218,227;,
 4;232,233,234,235;,
 4;236,237,238,239;,
 4;240,241,242,243;,
 4;244,245,246,247;,
 4;244,237,248,249;,
 4;250,251,238,247;;
 
 MeshMaterialList {
  3;
  144;
  0,
  0,
  0,
  0,
  0,
  0,
  0,
  0,
  0,
  0,
  0,
  0,
  0,
  0,
  0,
  0,
  0,
  0,
  0,
  0,
  0,
  0,
  0,
  0,
  0,
  0,
  0,
  0,
  0,
  0,
  1,
  1,
  1,
  1,
  1,
  1,
  1,
  1,
  1,
  1,
  1,
  1,
  1,
  1,
  1,
  1,
  1,
  1,
  1,
  1,
  1,
  1,
  1,
  1,
  1,
  1,
  1,
  1,
  1,
  1,
  1,
  1,
  1,
  1,
  1,
  1,
  1,
  1,
  1,
  1,
  1,
  1,
  1,
  1,
  1,
  1,
  1,
  1,
  1,
  1,
  1,
  1,
  1,
  1,
  1,
  1,
  1,
  1,
  1,
  1,
  1,
  1,
  1,
  1,
  1,
  1,
  1,
  1,
  1,
  1,
  1,
  1,
  1,
  1,
  1,
  1,
  1,
  1,
  1,
  1,
  1,
  1,
  1,
  1,
  1,
  1,
  1,
  1,
  1,
  1,
  1,
  1,
  1,
  1,
  1,
  1,
  1,
  1,
  1,
  1,
  1,
  1,
  2,
  2,
  2,
  2,
  2,
  2,
  1,
  1,
  1,
  1,
  1,
  1;;
  Material {
   0.207200;0.442400;0.232000;1.000000;;
   5.000000;
   0.000000;0.000000;0.000000;;
   0.000000;0.000000;0.000000;;
  }
  Material {
   0.476800;0.476800;0.476800;1.000000;;
   5.000000;
   0.520000;0.520000;0.520000;;
   0.000000;0.000000;0.000000;;
  }
  Material {
   0.081600;0.081600;0.081600;1.000000;;
   5.000000;
   0.000000;0.000000;0.000000;;
   0.000000;0.000000;0.000000;;
  }
 }
 MeshNormals {
  168;
  0.000000;1.000000;0.000000;,
  0.000000;-1.000000;-0.000000;,
  0.000000;0.000000;-1.000000;,
  -0.901472;-0.432837;0.000000;,
  0.901472;-0.432837;-0.000000;,
  0.901504;0.432771;0.000000;,
  0.000000;0.000000;1.000000;,
  -0.330371;-0.911057;-0.246637;,
  0.330371;-0.911057;-0.246637;,
  -0.330371;-0.911057;0.246637;,
  0.330371;-0.911057;0.246637;,
  0.312771;0.920881;0.232709;,
  0.312771;0.920881;-0.232709;,
  -0.312771;0.920881;0.232709;,
  -0.312771;0.920881;-0.232709;,
  0.878025;-0.478615;-0.000000;,
  0.000000;-0.316447;-0.948610;,
  0.000000;-0.316447;0.948610;,
  1.000000;0.000000;0.000000;,
  0.000000;0.345541;-0.938403;,
  0.000000;0.345541;0.938403;,
  -1.000000;0.000000;0.000000;,
  -0.901504;0.432771;0.000000;,
  0.000000;-0.997432;0.071615;,
  0.000000;0.997431;0.071636;,
  0.000000;0.997431;-0.071636;,
  0.000000;-0.997432;-0.071615;,
  -0.878025;-0.478615;0.000000;,
  0.279298;0.858334;-0.430412;,
  0.279298;0.858334;0.430412;,
  -0.493952;0.869489;0.000000;,
  -0.995166;0.000000;0.098208;,
  -0.996807;0.000244;0.079845;,
  0.995167;0.000000;0.098197;,
  0.996808;0.000244;0.079839;,
  0.995167;0.000000;-0.098197;,
  0.996807;0.000245;-0.079850;,
  -0.995166;0.000000;-0.098208;,
  -0.996806;0.000244;-0.079856;,
  0.000000;0.000000;-1.000000;,
  0.000000;0.000702;-1.000000;,
  0.000000;0.000000;1.000000;,
  0.000000;0.000702;1.000000;,
  -0.909862;-0.387372;0.148638;,
  0.000000;-0.288235;-0.957560;,
  0.000000;-0.008529;-0.999964;,
  0.964221;-0.252978;0.079252;,
  0.000000;-0.288235;0.957560;,
  -0.365489;-0.930199;0.033893;,
  0.000000;-0.838521;-0.544869;,
  -0.307643;-0.951479;0.006590;,
  0.307670;-0.951470;0.006590;,
  0.000000;-0.876252;0.481854;,
  -0.348130;-0.833574;0.428905;,
  0.000000;-0.068767;0.997633;,
  0.416995;-0.908762;0.016346;,
  -0.416971;-0.908772;0.016356;,
  0.995166;0.000000;0.098208;,
  0.996806;0.000244;0.079855;,
  0.995166;0.000000;-0.098208;,
  0.996806;0.000244;-0.079866;,
  0.000000;0.000702;-1.000000;,
  0.000000;0.000702;1.000000;,
  -0.909864;-0.387371;0.148633;,
  0.000000;-0.288235;-0.957560;,
  0.000000;-0.008529;-0.999964;,
  0.964224;-0.252969;0.079237;,
  0.000000;-0.288235;0.957560;,
  -0.365491;-0.930198;0.033889;,
  0.000000;-0.838521;-0.544869;,
  -0.307644;-0.951479;0.006590;,
  0.307676;-0.951468;0.006590;,
  0.000000;-0.876252;0.481854;,
  -0.348129;-0.833575;0.428905;,
  0.000000;-0.068767;0.997633;,
  0.417002;-0.908758;0.016349;,
  -0.416974;-0.908771;0.016353;,
  -0.996807;0.000244;0.079850;,
  0.995167;0.000000;0.098198;,
  0.996808;0.000244;0.079839;,
  0.995167;0.000000;-0.098198;,
  0.996807;0.000245;-0.079850;,
  -0.996806;0.000245;-0.079861;,
  0.000000;0.000702;-1.000000;,
  0.000000;0.000702;1.000000;,
  -0.909860;-0.387373;0.148648;,
  0.000000;-0.288235;-0.957560;,
  0.964220;-0.252978;0.079254;,
  0.000000;-0.288235;0.957560;,
  -0.365487;-0.930199;0.033896;,
  0.000000;-0.838521;-0.544869;,
  -0.307644;-0.951479;0.006590;,
  0.307670;-0.951470;0.006590;,
  0.000000;-0.876252;0.481854;,
  -0.348129;-0.833578;0.428900;,
  0.416995;-0.908762;0.016346;,
  -0.416972;-0.908772;0.016357;,
  0.000000;0.996614;0.082220;,
  0.000000;0.996614;-0.082220;,
  0.000000;-1.000000;-0.000000;,
  0.000000;0.986480;-0.163884;,
  0.992812;0.000366;0.119684;,
  0.980715;0.000000;0.195445;,
  -0.980710;0.000000;0.195467;,
  -0.992811;0.000366;0.119694;,
  0.000000;0.986480;0.163884;,
  -0.992809;0.000366;-0.119710;,
  -0.980710;0.000000;-0.195467;,
  0.980715;0.000000;-0.195445;,
  0.992810;0.000367;-0.119701;,
  0.000000;-0.008524;0.999964;,
  -0.887036;-0.451776;0.095214;,
  0.887053;-0.451744;0.095202;,
  0.909865;-0.387372;0.148621;,
  0.930239;-0.363353;0.051288;,
  -0.930225;-0.363391;0.051268;,
  -0.964220;-0.252989;0.079223;,
  0.000000;-0.128759;0.991676;,
  0.000000;-0.553174;-0.833066;,
  0.666270;-0.709742;0.228802;,
  0.851671;-0.486300;0.195370;,
  -0.851673;-0.486321;0.195309;,
  0.000000;0.128759;-0.991676;,
  0.000000;1.000000;-0.000375;,
  0.000000;0.996614;0.082220;,
  0.000000;0.996614;-0.082220;,
  0.000000;0.986480;-0.163884;,
  0.992809;0.000366;0.119708;,
  0.980710;0.000000;0.195467;,
  0.000000;0.986480;0.163884;,
  0.980710;0.000000;-0.195467;,
  0.992807;0.000366;-0.119724;,
  0.000000;-0.008524;0.999964;,
  -0.887038;-0.451773;0.095211;,
  0.887057;-0.451734;0.095215;,
  0.909865;-0.387366;0.148640;,
  0.930244;-0.363340;0.051277;,
  -0.930225;-0.363390;0.051268;,
  -0.964220;-0.252990;0.079222;,
  0.000000;-0.128759;0.991676;,
  0.000000;-0.553174;-0.833066;,
  0.666276;-0.709733;0.228814;,
  0.851682;-0.486283;0.195365;,
  -0.851672;-0.486322;0.195308;,
  0.000000;0.128759;-0.991676;,
  0.992812;0.000366;0.119685;,
  0.980714;0.000000;0.195446;,
  -0.992810;0.000366;0.119701;,
  -0.992808;0.000367;-0.119717;,
  0.980714;0.000000;-0.195446;,
  0.992810;0.000367;-0.119701;,
  -0.887036;-0.451775;0.095221;,
  0.887053;-0.451745;0.095201;,
  0.909865;-0.387373;0.148619;,
  0.930238;-0.363354;0.051289;,
  -0.930225;-0.363393;0.051259;,
  -0.964220;-0.252994;0.079209;,
  0.000000;-0.553174;-0.833066;,
  0.666271;-0.709742;0.228800;,
  0.851671;-0.486299;0.195372;,
  -0.851671;-0.486330;0.195296;,
  0.000000;1.000000;-0.000375;,
  0.000000;0.000000;-1.000000;,
  1.000000;0.000000;0.000000;,
  0.000000;0.000000;1.000000;,
  -1.000000;0.000000;0.000000;,
  0.000000;1.000000;0.000000;,
  0.000000;-1.000000;-0.000000;;
  144;
  4;0,0,0,0;,
  4;1,1,1,1;,
  4;2,2,2,2;,
  4;3,3,21,21;,
  4;4,18,18,4;,
  4;6,6,6,6;,
  4;5,18,18,5;,
  4;6,6,6,6;,
  4;2,2,2,2;,
  4;22,22,21,21;,
  4;12,11,5,5;,
  4;10,8,4,4;,
  4;9,10,23,23;,
  4;11,13,24,24;,
  4;14,12,25,25;,
  4;8,7,26,26;,
  4;7,9,3,3;,
  4;13,14,22,22;,
  4;15,8,10,15;,
  4;16,16,7,8;,
  4;17,10,9,17;,
  4;27,27,9,7;,
  4;18,15,15,18;,
  4;28,29,11,12;,
  4;28,12,14,19;,
  4;2,19,16,16;,
  4;6,17,17,20;,
  4;29,20,13,11;,
  4;30,14,13,30;,
  4;21,21,27,27;,
  4;33,35,36,34;,
  4;37,31,32,38;,
  4;97,97,98,98;,
  4;99,99,99,99;,
  4;39,39,40,40;,
  4;98,98,100,100;,
  4;33,34,101,102;,
  4;32,31,103,104;,
  4;41,41,42,42;,
  4;97,97,105,105;,
  4;37,38,106,107;,
  4;36,35,108,109;,
  4;110,110,54,54;,
  4;32,104,43,111;,
  4;40,40,44,44;,
  4;101,34,112,113;,
  4;45,45,45,45;,
  4;36,109,46,114;,
  4;42,42,47,47;,
  4;106,38,115,116;,
  4;55,56,48,49;,
  4;54,54,117,117;,
  4;111,43,48,56;,
  4;44,44,49,118;,
  4;113,112,55,119;,
  4;50,51,52,53;,
  4;114,46,120,120;,
  4;47,47,53,52;,
  4;116,115,121,53;,
  4;122,122,122,122;,
  4;123,123,123,123;,
  4;114,51,55,112;,
  4;51,50,56,55;,
  4;50,115,111,56;,
  4;57,59,60,58;,
  4;37,31,32,38;,
  4;124,124,125,125;,
  4;99,99,99,99;,
  4;39,39,61,61;,
  4;125,125,126,126;,
  4;57,58,127,128;,
  4;32,31,103,104;,
  4;41,41,62,62;,
  4;124,124,129,129;,
  4;37,38,106,107;,
  4;60,59,130,131;,
  4;132,132,74,74;,
  4;32,104,63,133;,
  4;61,61,64,64;,
  4;127,58,134,135;,
  4;65,65,65,65;,
  4;60,131,66,136;,
  4;62,62,67,67;,
  4;106,38,137,138;,
  4;75,76,68,69;,
  4;74,74,139,139;,
  4;133,63,68,76;,
  4;64,64,69,140;,
  4;135,134,75,141;,
  4;70,71,72,73;,
  4;136,66,142,142;,
  4;67,67,73,72;,
  4;138,137,143,73;,
  4;144,144,144,144;,
  4;123,123,123,123;,
  4;136,71,75,134;,
  4;71,70,76,75;,
  4;70,137,133,76;,
  4;78,80,81,79;,
  4;37,31,77,82;,
  4;97,97,98,98;,
  4;99,99,99,99;,
  4;39,39,83,83;,
  4;98,98,100,100;,
  4;78,79,145,146;,
  4;77,31,103,147;,
  4;41,41,84,84;,
  4;97,97,105,105;,
  4;37,82,148,107;,
  4;81,80,149,150;,
  4;110,110,54,54;,
  4;77,147,85,151;,
  4;83,83,86,86;,
  4;145,79,152,153;,
  4;65,65,65,65;,
  4;81,150,87,154;,
  4;84,84,88,88;,
  4;148,82,155,156;,
  4;95,96,89,90;,
  4;54,54,117,117;,
  4;151,85,89,96;,
  4;86,86,90,157;,
  4;153,152,95,158;,
  4;91,92,93,94;,
  4;154,87,159,159;,
  4;88,88,94,93;,
  4;156,155,160,94;,
  4;122,122,122,122;,
  4;161,161,161,161;,
  4;154,92,95,152;,
  4;92,91,96,95;,
  4;91,155,151,96;,
  4;162,162,162,162;,
  4;163,163,163,163;,
  4;164,164,164,164;,
  4;165,165,165,165;,
  4;166,166,166,166;,
  4;167,167,167,167;,
  4;162,162,162,162;,
  4;163,163,163,163;,
  4;164,164,164,164;,
  4;165,165,165,165;,
  4;166,166,166,166;,
  4;167,167,167,167;;
 }
 MeshTextureCoords {
  252;
  0.000000;0.000000;,
  1.000000;0.000000;,
  1.000000;1.000000;,
  0.000000;1.000000;,
  0.000000;0.000000;,
  1.000000;0.000000;,
  1.000000;1.000000;,
  0.000000;1.000000;,
  0.000000;0.350310;,
  0.000000;0.000000;,
  1.000000;0.000000;,
  1.000000;0.350310;,
  1.000000;0.350310;,
  0.000000;0.350310;,
  1.000000;0.000000;,
  0.000000;0.350310;,
  0.000000;0.000000;,
  1.000000;0.350310;,
  1.000000;0.350310;,
  0.000000;0.350310;,
  0.000000;0.000000;,
  1.000000;0.000000;,
  1.000000;0.702300;,
  0.000000;1.000000;,
  0.000000;0.702300;,
  0.000000;0.702300;,
  1.000000;0.702300;,
  1.000000;1.000000;,
  0.000000;1.000000;,
  1.000000;0.702300;,
  1.000000;1.000000;,
  0.000000;1.000000;,
  0.000000;0.702300;,
  0.000000;0.702300;,
  1.000000;0.702300;,
  1.000000;1.000000;,
  0.000000;0.702300;,
  1.000000;0.702300;,
  1.000000;0.350310;,
  0.000000;0.350310;,
  1.000000;0.350310;,
  0.000000;0.350310;,
  0.000000;0.702300;,
  1.000000;0.702300;,
  0.000000;0.702300;,
  1.000000;0.702300;,
  1.000000;0.350310;,
  0.000000;0.350310;,
  1.000000;0.350310;,
  0.000000;0.350310;,
  0.000000;0.702300;,
  1.000000;0.702300;,
  0.000000;0.373340;,
  1.000000;0.373340;,
  1.000000;0.373340;,
  0.000000;0.373340;,
  0.000000;0.373340;,
  1.000000;0.373340;,
  1.000000;0.373340;,
  0.000000;0.373340;,
  0.000000;0.668190;,
  1.000000;0.668190;,
  1.000000;0.668190;,
  0.000000;0.668190;,
  0.000000;0.668190;,
  1.000000;0.668190;,
  1.000000;0.668190;,
  0.000000;0.668190;,
  0.000000;0.000000;,
  1.000000;0.000000;,
  1.000000;1.000000;,
  0.000000;1.000000;,
  0.000000;0.000000;,
  1.000000;0.000000;,
  1.000000;1.000000;,
  0.000000;1.000000;,
  1.000000;1.000000;,
  0.000000;1.000000;,
  0.000000;0.000000;,
  1.000000;0.000000;,
  0.000000;0.000000;,
  1.000000;0.000000;,
  1.000000;1.000000;,
  0.000000;1.000000;,
  0.000000;0.000000;,
  1.000000;0.000000;,
  1.000000;1.000000;,
  0.000000;1.000000;,
  0.000000;0.000000;,
  1.000000;0.000000;,
  1.000000;1.000000;,
  0.000000;1.000000;,
  0.000000;0.000000;,
  1.000000;0.000000;,
  1.000000;1.000000;,
  0.000000;1.000000;,
  0.000000;1.000000;,
  1.000000;1.000000;,
  0.000000;1.000000;,
  1.000000;1.000000;,
  0.000000;1.000000;,
  1.000000;1.000000;,
  0.000000;1.000000;,
  1.000000;1.000000;,
  1.000000;1.000000;,
  0.000000;1.000000;,
  0.000000;1.000000;,
  1.000000;1.000000;,
  1.000000;1.000000;,
  0.000000;1.000000;,
  0.000000;1.000000;,
  1.000000;1.000000;,
  1.000000;1.000000;,
  0.000000;1.000000;,
  0.000000;1.000000;,
  1.000000;1.000000;,
  0.000000;0.000000;,
  1.000000;0.000000;,
  1.000000;1.000000;,
  0.000000;1.000000;,
  0.000000;0.000000;,
  1.000000;0.000000;,
  1.000000;1.000000;,
  0.000000;1.000000;,
  1.000000;1.000000;,
  0.000000;1.000000;,
  0.000000;0.000000;,
  1.000000;0.000000;,
  0.000000;0.000000;,
  1.000000;0.000000;,
  1.000000;1.000000;,
  0.000000;1.000000;,
  0.000000;0.000000;,
  1.000000;0.000000;,
  1.000000;1.000000;,
  0.000000;1.000000;,
  0.000000;0.000000;,
  1.000000;0.000000;,
  1.000000;1.000000;,
  0.000000;1.000000;,
  0.000000;0.000000;,
  1.000000;0.000000;,
  1.000000;1.000000;,
  0.000000;1.000000;,
  0.000000;1.000000;,
  1.000000;1.000000;,
  0.000000;1.000000;,
  1.000000;1.000000;,
  0.000000;1.000000;,
  1.000000;1.000000;,
  0.000000;1.000000;,
  1.000000;1.000000;,
  1.000000;1.000000;,
  0.000000;1.000000;,
  0.000000;1.000000;,
  1.000000;1.000000;,
  1.000000;1.000000;,
  0.000000;1.000000;,
  0.000000;1.000000;,
  1.000000;1.000000;,
  1.000000;1.000000;,
  0.000000;1.000000;,
  0.000000;1.000000;,
  1.000000;1.000000;,
  0.000000;0.000000;,
  1.000000;0.000000;,
  1.000000;1.000000;,
  0.000000;1.000000;,
  0.000000;0.000000;,
  1.000000;0.000000;,
  1.000000;1.000000;,
  0.000000;1.000000;,
  1.000000;1.000000;,
  0.000000;1.000000;,
  0.000000;0.000000;,
  1.000000;0.000000;,
  0.000000;0.000000;,
  1.000000;0.000000;,
  1.000000;1.000000;,
  0.000000;1.000000;,
  0.000000;0.000000;,
  1.000000;0.000000;,
  1.000000;1.000000;,
  0.000000;1.000000;,
  0.000000;0.000000;,
  1.000000;0.000000;,
  1.000000;1.000000;,
  0.000000;1.000000;,
  0.000000;0.000000;,
  1.000000;0.000000;,
  1.000000;1.000000;,
  0.000000;1.000000;,
  0.000000;1.000000;,
  1.000000;1.000000;,
  0.000000;1.000000;,
  1.000000;1.000000;,
  0.000000;1.000000;,
  1.000000;1.000000;,
  0.000000;1.000000;,
  1.000000;1.000000;,
  1.000000;1.000000;,
  0.000000;1.000000;,
  0.000000;1.000000;,
  1.000000;1.000000;,
  1.000000;1.000000;,
  0.000000;1.000000;,
  0.000000;1.000000;,
  1.000000;1.000000;,
  1.000000;1.000000;,
  0.000000;1.000000;,
  0.000000;1.000000;,
  1.000000;1.000000;,
  0.000000;0.000000;,
  1.000000;0.000000;,
  1.000000;1.000000;,
  0.000000;1.000000;,
  0.000000;0.000000;,
  1.000000;0.000000;,
  1.000000;1.000000;,
  0.000000;1.000000;,
  0.000000;0.000000;,
  1.000000;0.000000;,
  1.000000;1.000000;,
  0.000000;1.000000;,
  0.000000;0.000000;,
  1.000000;0.000000;,
  1.000000;1.000000;,
  0.000000;1.000000;,
  1.000000;1.000000;,
  0.000000;1.000000;,
  0.000000;0.000000;,
  1.000000;0.000000;,
  0.000000;0.000000;,
  1.000000;0.000000;,
  1.000000;1.000000;,
  0.000000;1.000000;,
  0.000000;0.000000;,
  1.000000;0.000000;,
  1.000000;1.000000;,
  0.000000;1.000000;,
  0.000000;0.000000;,
  1.000000;0.000000;,
  1.000000;1.000000;,
  0.000000;1.000000;,
  0.000000;0.000000;,
  1.000000;0.000000;,
  1.000000;1.000000;,
  0.000000;1.000000;,
  1.000000;1.000000;,
  0.000000;1.000000;,
  0.000000;0.000000;,
  1.000000;0.000000;;
 }
}
