xof 0302txt 0064
template Header {
 <3D82AB43-62DA-11cf-AB39-0020AF71E433>
 WORD major;
 WORD minor;
 DWORD flags;
}

template Vector {
 <3D82AB5E-62DA-11cf-AB39-0020AF71E433>
 FLOAT x;
 FLOAT y;
 FLOAT z;
}

template Coords2d {
 <F6F23F44-7686-11cf-8F52-0040333594A3>
 FLOAT u;
 FLOAT v;
}

template Matrix4x4 {
 <F6F23F45-7686-11cf-8F52-0040333594A3>
 array FLOAT matrix[16];
}

template ColorRGBA {
 <35FF44E0-6C7C-11cf-8F52-0040333594A3>
 FLOAT red;
 FLOAT green;
 FLOAT blue;
 FLOAT alpha;
}

template ColorRGB {
 <D3E16E81-7835-11cf-8F52-0040333594A3>
 FLOAT red;
 FLOAT green;
 FLOAT blue;
}

template IndexedColor {
 <1630B820-7842-11cf-8F52-0040333594A3>
 DWORD index;
 ColorRGBA indexColor;
}

template Boolean {
 <4885AE61-78E8-11cf-8F52-0040333594A3>
 WORD truefalse;
}

template Boolean2d {
 <4885AE63-78E8-11cf-8F52-0040333594A3>
 Boolean u;
 Boolean v;
}

template MaterialWrap {
 <4885AE60-78E8-11cf-8F52-0040333594A3>
 Boolean u;
 Boolean v;
}

template TextureFilename {
 <A42790E1-7810-11cf-8F52-0040333594A3>
 STRING filename;
}

template Material {
 <3D82AB4D-62DA-11cf-AB39-0020AF71E433>
 ColorRGBA faceColor;
 FLOAT power;
 ColorRGB specularColor;
 ColorRGB emissiveColor;
 [...]
}

template MeshFace {
 <3D82AB5F-62DA-11cf-AB39-0020AF71E433>
 DWORD nFaceVertexIndices;
 array DWORD faceVertexIndices[nFaceVertexIndices];
}

template MeshFaceWraps {
 <4885AE62-78E8-11cf-8F52-0040333594A3>
 DWORD nFaceWrapValues;
 Boolean2d faceWrapValues;
}

template MeshTextureCoords {
 <F6F23F40-7686-11cf-8F52-0040333594A3>
 DWORD nTextureCoords;
 array Coords2d textureCoords[nTextureCoords];
}

template MeshMaterialList {
 <F6F23F42-7686-11cf-8F52-0040333594A3>
 DWORD nMaterials;
 DWORD nFaceIndexes;
 array DWORD faceIndexes[nFaceIndexes];
 [Material]
}

template MeshNormals {
 <F6F23F43-7686-11cf-8F52-0040333594A3>
 DWORD nNormals;
 array Vector normals[nNormals];
 DWORD nFaceNormals;
 array MeshFace faceNormals[nFaceNormals];
}

template MeshVertexColors {
 <1630B821-7842-11cf-8F52-0040333594A3>
 DWORD nVertexColors;
 array IndexedColor vertexColors[nVertexColors];
}

template Mesh {
 <3D82AB44-62DA-11cf-AB39-0020AF71E433>
 DWORD nVertices;
 array Vector vertices[nVertices];
 DWORD nFaces;
 array MeshFace faces[nFaces];
 [...]
}

Header{
1;
0;
1;
}

Mesh {
 92;
 -1.78608;13.91312;-0.52734;,
 5.88132;4.09929;-0.52734;,
 0.36459;-0.21085;-0.03780;,
 -7.30282;9.60297;-0.03780;,
 -7.27978;9.62098;0.38035;,
 0.38763;-0.19285;0.38035;,
 5.90436;4.11730;-0.10920;,
 -1.76304;13.93113;-0.10920;,
 -1.16795;13.61027;-0.54837;,
 5.73700;4.77233;-0.54837;,
 5.88132;4.09929;-0.52734;,
 -1.78608;13.91312;-0.52734;,
 -1.14491;13.62827;-0.13023;,
 -1.76304;13.93113;-0.10920;,
 5.76004;4.79033;-0.13023;,
 5.90436;4.11730;-0.10920;,
 -0.54026;0.28141;-0.00913;,
 -7.04407;8.60591;-0.00913;,
 -7.30282;9.60297;-0.03780;,
 0.36459;-0.21085;-0.03780;,
 -0.51722;0.29941;0.40901;,
 0.38763;-0.19285;0.38035;,
 -7.02103;8.62391;0.40901;,
 -7.27978;9.62098;0.38035;,
 5.54555;3.45452;-0.48108;,
 1.07144;-0.04105;-0.08405;,
 0.36459;-0.21085;-0.03780;,
 5.56860;3.47252;-0.06294;,
 1.09448;-0.02305;0.33408;,
 0.38763;-0.19285;0.38035;,
 -6.96705;10.24775;-0.08405;,
 -2.49293;13.74332;-0.48108;,
 -7.30282;9.60297;-0.03780;,
 -6.94401;10.26575;0.33408;,
 -7.27978;9.62098;0.38035;,
 -2.46989;13.76131;-0.06294;,
 -3.21439;13.04632;-0.48807;,
 -1.68671;11.09027;-0.48755;,
 -1.68022;11.09534;-0.36975;,
 -3.25665;13.11379;-0.37027;,
 -1.60040;11.46846;-0.50859;,
 -2.97731;13.23156;-0.50911;,
 -3.01957;13.29902;-0.39131;,
 -1.59391;11.47353;-0.39079;,
 -2.97731;13.23156;-0.50911;,
 -3.21439;13.04632;-0.48807;,
 -3.25665;13.11379;-0.37027;,
 -3.01957;13.29902;-0.39131;,
 -1.60040;11.46846;-0.50859;,
 -1.68671;11.09027;-0.48755;,
 -3.21439;13.04632;-0.48807;,
 -3.25665;13.11379;-0.37027;,
 -1.68022;11.09534;-0.36975;,
 -1.59391;11.47353;-0.39079;,
 -1.45737;11.28540;-0.50859;,
 -1.54369;10.90720;-0.48755;,
 -1.68671;11.09027;-0.48755;,
 -1.45088;11.29047;-0.39079;,
 -1.53720;10.91227;-0.36975;,
 -1.68022;11.09534;-0.36975;,
 -1.90516;9.63734;-0.29459;,
 -1.91165;9.63227;-0.41239;,
 -2.04819;9.82041;-0.29459;,
 -2.05468;9.81533;-0.41239;,
 -2.12300;9.57020;-0.27969;,
 -1.97997;9.38714;-0.27969;,
 -2.12949;9.56513;-0.39749;,
 -1.98646;9.38206;-0.39749;,
 3.72494;2.12836;-0.39993;,
 3.73143;2.13343;-0.28213;,
 3.79976;2.37857;-0.41482;,
 3.80625;2.38364;-0.29702;,
 -2.42217;8.93370;-0.31715;,
 3.22913;1.70036;-0.31715;,
 3.23652;1.70613;-0.18304;,
 -2.41478;8.93948;-0.18304;,
 3.22913;1.70036;-0.31715;,
 3.38881;1.82511;-0.33132;,
 3.39620;1.83089;-0.19721;,
 3.23652;1.70613;-0.18304;,
 3.38881;1.82511;-0.33132;,
 -2.38060;9.20961;-0.33132;,
 -2.37321;9.21538;-0.19721;,
 3.39620;1.83089;-0.19721;,
 -2.38060;9.20961;-0.33132;,
 -2.42217;8.93370;-0.31715;,
 -2.41478;8.93948;-0.18304;,
 -2.37321;9.21538;-0.19721;,
 3.22913;1.70036;-0.31715;,
 -2.42217;8.93370;-0.31715;,
 -2.41478;8.93948;-0.18304;,
 3.23652;1.70613;-0.18304;;
 
 50;
 4;0,1,2,3;,
 4;4,5,6,7;,
 4;8,9,10,11;,
 4;12,8,11,13;,
 4;14,12,13,15;,
 4;9,14,15,10;,
 4;9,8,12,14;,
 4;16,17,18,19;,
 4;20,16,19,21;,
 4;22,20,21,23;,
 4;17,22,23,18;,
 4;17,16,20,22;,
 4;24,25,26,1;,
 4;27,24,1,6;,
 4;28,27,6,29;,
 4;25,28,29,26;,
 4;25,24,27,28;,
 4;30,31,0,32;,
 4;33,30,32,34;,
 4;35,33,34,7;,
 4;31,35,7,0;,
 4;31,30,33,35;,
 4;36,37,38,39;,
 4;40,41,42,43;,
 4;44,45,46,47;,
 4;44,48,49,50;,
 4;51,52,53,47;,
 4;54,55,56,48;,
 4;57,54,48,53;,
 4;58,57,53,59;,
 4;55,54,57,58;,
 4;60,61,55,58;,
 4;62,60,58,59;,
 4;63,62,59,56;,
 4;61,63,56,55;,
 4;64,65,60,62;,
 4;66,64,62,63;,
 4;67,66,63,61;,
 4;67,65,64,66;,
 4;68,69,65,67;,
 4;70,68,67,61;,
 4;71,70,61,60;,
 4;69,71,60,65;,
 4;69,68,70,71;,
 4;72,73,74,75;,
 4;76,77,78,79;,
 4;80,81,82,83;,
 4;84,85,86,87;,
 4;84,77,88,89;,
 4;90,91,78,87;;
 
 MeshMaterialList {
  3;
  50;
  0,
  0,
  0,
  0,
  0,
  0,
  0,
  0,
  0,
  0,
  0,
  0,
  0,
  0,
  0,
  0,
  0,
  0,
  0,
  0,
  0,
  0,
  2,
  2,
  2,
  2,
  2,
  2,
  2,
  2,
  2,
  2,
  2,
  2,
  2,
  2,
  2,
  2,
  2,
  2,
  2,
  2,
  2,
  2,
  2,
  2,
  2,
  2,
  2,
  2;;
  Material {
   0.079120;0.079120;0.079120;1.000000;;
   22.000000;
   0.790000;0.790000;0.790000;;
   0.000000;0.000000;0.000000;;
  }
  Material {
   0.800000;0.800000;0.800000;1.000000;;
   5.000000;
   0.000000;0.000000;0.000000;;
   0.000000;0.000000;0.000000;;
  }
  Material {
   0.279200;0.266400;0.800000;1.000000;;
   5.000000;
   0.000000;0.000000;0.000000;;
   0.000000;0.000000;0.000000;;
  }
 }
 MeshNormals {
  69;
  -0.054974;-0.042943;-0.997564;,
  0.054963;0.042945;0.997564;,
  -0.054967;-0.042952;-0.997564;,
  0.054966;0.042941;0.997564;,
  -0.054968;-0.042952;-0.997564;,
  0.054973;0.042946;0.997564;,
  -0.054974;-0.042943;-0.997564;,
  0.054969;0.042951;0.997564;,
  -0.054975;-0.042951;-0.997563;,
  0.054976;0.042952;0.997563;,
  0.627774;0.775422;-0.067977;,
  -0.054974;-0.042951;-0.997564;,
  0.054955;0.042936;0.997565;,
  -0.644220;-0.761786;0.068288;,
  -0.054959;-0.042959;-0.997564;,
  0.054973;0.042941;0.997564;,
  0.768095;-0.640165;-0.014767;,
  -0.054979;-0.042933;-0.997564;,
  -0.768095;0.640166;0.014762;,
  0.054963;0.042954;0.997564;,
  0.107414;0.993022;-0.048673;,
  0.904261;0.421536;-0.067969;,
  0.989511;-0.136010;-0.048666;,
  -0.128601;-0.990449;0.049728;,
  -0.895006;-0.440795;0.068289;,
  -0.992140;0.114831;0.049721;,
  0.435328;-0.900151;0.014765;,
  -0.435330;0.900150;-0.014763;,
  -0.786212;-0.614015;0.069691;,
  -0.980213;-0.187966;0.062057;,
  0.786158;0.614081;-0.069718;,
  0.786227;0.613997;-0.069680;,
  -0.054966;-0.042944;-0.997564;,
  0.054971;0.042947;0.997564;,
  -0.054962;-0.042940;-0.997565;,
  0.974420;0.215730;-0.062971;,
  -0.958007;0.283862;0.040553;,
  0.054970;0.042947;0.997564;,
  0.979832;0.189913;-0.062151;,
  -0.981089;-0.183376;0.061948;,
  0.054972;0.042950;0.997564;,
  -0.054971;-0.042949;-0.997564;,
  0.054972;0.042949;0.997564;,
  -0.054971;-0.042948;-0.997564;,
  0.980739;0.185222;-0.062002;,
  -0.783758;-0.617137;0.069757;,
  -0.965591;-0.252052;0.064058;,
  -0.786091;-0.614162;0.069754;,
  0.615656;-0.788015;0.000009;,
  0.786091;0.614162;-0.069761;,
  -0.338200;0.332962;-0.880203;,
  -0.541978;0.630573;-0.555552;,
  -0.054869;-0.043000;-0.997567;,
  -0.054903;-0.042983;-0.997566;,
  0.054782;0.043056;0.997570;,
  0.054908;0.042983;0.997566;,
  0.054878;0.043003;0.997567;,
  0.054974;0.042950;0.997564;,
  0.966784;-0.252051;-0.042407;,
  0.054970;0.042947;0.997564;,
  -0.054971;-0.042948;-0.997564;,
  -0.054971;-0.042948;-0.997564;,
  -0.054971;-0.042949;-0.997564;,
  -0.784924;-0.615653;0.069756;,
  0.054972;0.042949;0.997564;,
  0.956648;-0.288445;-0.040290;,
  -0.987337;0.151237;0.047897;,
  -0.054973;-0.042949;-0.997564;,
  0.054972;0.042949;0.997564;;
  50;
  4;6,4,2,0;,
  4;1,3,5,7;,
  4;8,8,4,6;,
  4;10,10,20,20;,
  4;9,9,7,5;,
  4;21,21,22,22;,
  4;21,10,10,21;,
  4;11,11,0,2;,
  4;13,13,23,23;,
  4;12,12,3,1;,
  4;24,24,25,25;,
  4;24,13,13,24;,
  4;14,14,2,4;,
  4;16,16,22,22;,
  4;15,15,5,3;,
  4;26,26,23,23;,
  4;26,16,16,26;,
  4;17,17,6,0;,
  4;18,18,25,25;,
  4;19,19,1,7;,
  4;27,27,20,20;,
  4;27,18,18,27;,
  4;28,29,29,28;,
  4;30,31,31,30;,
  4;50,50,51,51;,
  4;50,52,53,50;,
  4;54,55,56,54;,
  4;34,32,53,52;,
  4;35,35,30,30;,
  4;33,57,56,55;,
  4;58,35,35,58;,
  4;38,38,58,58;,
  4;37,59,33,55;,
  4;36,36,29,29;,
  4;60,61,53,32;,
  4;40,42,59,37;,
  4;39,39,36,36;,
  4;41,62,61,60;,
  4;63,63,39,39;,
  4;45,45,63,63;,
  4;43,43,41,60;,
  4;44,44,38,38;,
  4;64,64,59,42;,
  4;65,65,44,44;,
  4;46,47,47,46;,
  4;48,48,48,48;,
  4;49,49,49,49;,
  4;66,46,46,66;,
  4;67,67,67,67;,
  4;68,68,68,68;;
 }
 MeshTextureCoords {
  92;
  0.000000;0.000000;,
  1.000000;0.000000;,
  1.000000;1.000000;,
  0.000000;1.000000;,
  0.000000;0.000000;,
  1.000000;0.000000;,
  1.000000;1.000000;,
  0.000000;1.000000;,
  1.000000;0.000000;,
  0.000000;0.000000;,
  0.000000;0.000000;,
  1.000000;0.000000;,
  1.000000;1.000000;,
  1.000000;1.000000;,
  0.000000;1.000000;,
  0.000000;1.000000;,
  1.000000;0.000000;,
  0.000000;0.000000;,
  0.000000;0.000000;,
  1.000000;0.000000;,
  1.000000;1.000000;,
  1.000000;1.000000;,
  0.000000;1.000000;,
  0.000000;1.000000;,
  1.000000;0.000000;,
  0.000000;0.000000;,
  0.000000;0.000000;,
  1.000000;1.000000;,
  0.000000;1.000000;,
  0.000000;1.000000;,
  1.000000;0.000000;,
  0.000000;0.000000;,
  1.000000;0.000000;,
  1.000000;1.000000;,
  1.000000;1.000000;,
  0.000000;1.000000;,
  0.000000;0.000000;,
  1.000000;0.000000;,
  1.000000;1.000000;,
  0.000000;1.000000;,
  0.000000;0.000000;,
  1.000000;0.000000;,
  1.000000;1.000000;,
  0.000000;1.000000;,
  0.000000;0.000000;,
  1.000000;0.000000;,
  1.000000;1.000000;,
  0.000000;1.000000;,
  1.000000;0.000000;,
  1.000000;1.000000;,
  0.000000;1.000000;,
  0.000000;0.000000;,
  1.000000;0.000000;,
  1.000000;1.000000;,
  1.000000;0.000000;,
  0.000000;0.000000;,
  0.000000;0.000000;,
  1.000000;1.000000;,
  0.000000;1.000000;,
  0.000000;1.000000;,
  0.000000;1.000000;,
  0.000000;0.000000;,
  0.000000;1.000000;,
  0.000000;0.000000;,
  0.000000;1.000000;,
  0.000000;1.000000;,
  0.000000;0.000000;,
  0.000000;0.000000;,
  0.000000;0.000000;,
  0.000000;1.000000;,
  0.000000;0.000000;,
  0.000000;1.000000;,
  0.000000;0.000000;,
  1.000000;0.000000;,
  1.000000;1.000000;,
  0.000000;1.000000;,
  0.000000;0.000000;,
  1.000000;0.000000;,
  1.000000;1.000000;,
  0.000000;1.000000;,
  0.000000;0.000000;,
  1.000000;0.000000;,
  1.000000;1.000000;,
  0.000000;1.000000;,
  0.000000;0.000000;,
  1.000000;0.000000;,
  1.000000;1.000000;,
  0.000000;1.000000;,
  1.000000;1.000000;,
  0.000000;1.000000;,
  0.000000;0.000000;,
  1.000000;0.000000;;
 }
}
