xof 0302txt 0064
template Header {
 <3D82AB43-62DA-11cf-AB39-0020AF71E433>
 WORD major;
 WORD minor;
 DWORD flags;
}

template Vector {
 <3D82AB5E-62DA-11cf-AB39-0020AF71E433>
 FLOAT x;
 FLOAT y;
 FLOAT z;
}

template Coords2d {
 <F6F23F44-7686-11cf-8F52-0040333594A3>
 FLOAT u;
 FLOAT v;
}

template Matrix4x4 {
 <F6F23F45-7686-11cf-8F52-0040333594A3>
 array FLOAT matrix[16];
}

template ColorRGBA {
 <35FF44E0-6C7C-11cf-8F52-0040333594A3>
 FLOAT red;
 FLOAT green;
 FLOAT blue;
 FLOAT alpha;
}

template ColorRGB {
 <D3E16E81-7835-11cf-8F52-0040333594A3>
 FLOAT red;
 FLOAT green;
 FLOAT blue;
}

template IndexedColor {
 <1630B820-7842-11cf-8F52-0040333594A3>
 DWORD index;
 ColorRGBA indexColor;
}

template Boolean {
 <4885AE61-78E8-11cf-8F52-0040333594A3>
 WORD truefalse;
}

template Boolean2d {
 <4885AE63-78E8-11cf-8F52-0040333594A3>
 Boolean u;
 Boolean v;
}

template MaterialWrap {
 <4885AE60-78E8-11cf-8F52-0040333594A3>
 Boolean u;
 Boolean v;
}

template TextureFilename {
 <A42790E1-7810-11cf-8F52-0040333594A3>
 STRING filename;
}

template Material {
 <3D82AB4D-62DA-11cf-AB39-0020AF71E433>
 ColorRGBA faceColor;
 FLOAT power;
 ColorRGB specularColor;
 ColorRGB emissiveColor;
 [...]
}

template MeshFace {
 <3D82AB5F-62DA-11cf-AB39-0020AF71E433>
 DWORD nFaceVertexIndices;
 array DWORD faceVertexIndices[nFaceVertexIndices];
}

template MeshFaceWraps {
 <4885AE62-78E8-11cf-8F52-0040333594A3>
 DWORD nFaceWrapValues;
 Boolean2d faceWrapValues;
}

template MeshTextureCoords {
 <F6F23F40-7686-11cf-8F52-0040333594A3>
 DWORD nTextureCoords;
 array Coords2d textureCoords[nTextureCoords];
}

template MeshMaterialList {
 <F6F23F42-7686-11cf-8F52-0040333594A3>
 DWORD nMaterials;
 DWORD nFaceIndexes;
 array DWORD faceIndexes[nFaceIndexes];
 [Material]
}

template MeshNormals {
 <F6F23F43-7686-11cf-8F52-0040333594A3>
 DWORD nNormals;
 array Vector normals[nNormals];
 DWORD nFaceNormals;
 array MeshFace faceNormals[nFaceNormals];
}

template MeshVertexColors {
 <1630B821-7842-11cf-8F52-0040333594A3>
 DWORD nVertexColors;
 array IndexedColor vertexColors[nVertexColors];
}

template Mesh {
 <3D82AB44-62DA-11cf-AB39-0020AF71E433>
 DWORD nVertices;
 array Vector vertices[nVertices];
 DWORD nFaces;
 array MeshFace faces[nFaces];
 [...]
}

Header{
1;
0;
1;
}

Mesh {
 64;
 -111.61070;20.87315;-54.15355;,
 111.61070;20.87315;-54.15355;,
 111.61070;-1.71610;-54.15355;,
 -111.61070;-1.71610;-54.15355;,
 111.61070;20.87315;-54.15355;,
 111.61070;20.87315;54.15355;,
 111.61070;-1.71610;54.15355;,
 111.61070;-1.71610;-54.15355;,
 111.61070;20.87315;54.15355;,
 -111.61070;20.87315;54.15355;,
 -111.61070;-1.71610;54.15355;,
 111.61070;-1.71610;54.15355;,
 -111.61070;20.87315;54.15355;,
 -111.61070;20.87315;-54.15355;,
 -111.61070;-1.71610;-54.15355;,
 -111.61070;-1.71610;54.15355;,
 111.61070;20.87315;-54.15355;,
 -111.61070;20.87315;-54.15355;,
 -111.61070;-1.71610;-54.15355;,
 111.61070;-1.71610;-54.15355;,
 96.58065;176.31606;-31.13105;,
 96.58065;176.31606;31.13105;,
 96.58065;9.09845;31.13105;,
 96.58065;9.09845;-31.13105;,
 -96.58065;176.31606;-31.13105;,
 -96.58065;9.09845;-31.13105;,
 -96.58065;9.09845;31.13105;,
 -96.58065;176.31606;31.13105;,
 73.81965;149.44341;-31.13105;,
 96.58065;176.31606;-31.13105;,
 96.58065;9.09845;-31.13105;,
 73.81965;54.48970;-31.13105;,
 73.81965;149.44341;31.13105;,
 73.81965;54.48970;31.13105;,
 96.58065;9.09845;31.13105;,
 96.58065;176.31606;31.13105;,
 -96.58065;176.31606;-31.13105;,
 96.58065;176.31606;-31.13105;,
 -76.06455;149.44341;-31.13105;,
 -96.58065;176.31606;-31.13105;,
 -96.58065;176.31606;31.13105;,
 96.58065;176.31606;31.13105;,
 96.58065;176.31606;-31.13105;,
 -76.06455;54.48970;-31.13105;,
 -96.58065;9.09845;-31.13105;,
 -96.58065;176.31606;-31.13105;,
 -96.58065;176.31606;31.13105;,
 -76.06455;149.44341;31.13105;,
 96.58065;176.31606;31.13105;,
 96.58065;9.09845;-31.13105;,
 -96.58065;9.09845;-31.13105;,
 -96.58065;176.31606;31.13105;,
 -96.58065;9.09845;31.13105;,
 -76.06455;54.48970;31.13105;,
 -96.58065;9.09845;-31.13105;,
 96.58065;9.09845;-31.13105;,
 96.58065;9.09845;31.13105;,
 -96.58065;9.09845;31.13105;,
 -96.58065;9.09845;31.13105;,
 96.58065;9.09845;31.13105;,
 73.81965;149.44341;-25.36075;,
 -76.06455;149.44341;-25.36075;,
 73.81965;54.48970;-25.36075;,
 -76.06455;54.48970;-25.36075;;
 
 24;
 4;0,1,2,3;,
 4;4,5,6,7;,
 4;8,9,10,11;,
 4;12,13,14,15;,
 4;12,5,16,17;,
 4;18,19,6,15;,
 4;20,21,22,23;,
 4;24,25,26,27;,
 4;28,29,30,31;,
 4;32,33,34,35;,
 4;36,37,28,38;,
 4;39,40,41,42;,
 4;38,43,44,45;,
 4;46,47,32,48;,
 4;43,31,49,50;,
 4;47,51,52,53;,
 4;47,53,33,32;,
 4;54,55,56,57;,
 4;53,58,59,33;,
 4;60,61,38,28;,
 4;62,60,28,31;,
 4;63,62,31,43;,
 4;61,63,43,38;,
 4;61,60,62,63;;
 
 MeshMaterialList {
  2;
  24;
  0,
  0,
  0,
  0,
  0,
  0,
  0,
  0,
  0,
  0,
  0,
  0,
  0,
  0,
  0,
  0,
  0,
  0,
  0,
  0,
  0,
  0,
  0,
  1;;
  Material {
   0.501600;0.473600;0.452000;1.000000;;
   0.000000;
   0.000000;0.000000;0.000000;;
   0.000000;0.000000;0.000000;;
  }
  Material {
   0.800000;0.800000;0.800000;1.000000;;
   5.000000;
   0.000000;0.000000;0.000000;;
   0.000000;0.000000;0.000000;;
   TextureFilename {
    "data/TEXTURE/stonemonument.png";
   }
  }
 }
 MeshNormals {
  6;
  0.000000;0.000000;-1.000000;,
  1.000000;0.000000;0.000000;,
  0.000000;0.000000;1.000000;,
  -1.000000;0.000000;0.000000;,
  0.000000;-1.000000;0.000000;,
  0.000000;1.000000;0.000000;;
  24;
  4;0,0,0,0;,
  4;1,1,1,1;,
  4;2,2,2,2;,
  4;3,3,3,3;,
  4;5,5,5,5;,
  4;4,4,4,4;,
  4;1,1,1,1;,
  4;3,3,3,3;,
  4;0,0,0,0;,
  4;2,2,2,2;,
  4;0,0,0,0;,
  4;5,5,5,5;,
  4;0,0,0,0;,
  4;2,2,2,2;,
  4;0,0,0,0;,
  4;2,2,2,2;,
  4;2,2,2,2;,
  4;4,4,4,4;,
  4;2,2,2,2;,
  4;4,4,4,4;,
  4;3,3,3,3;,
  4;5,5,5,5;,
  4;1,1,1,1;,
  4;0,0,0,0;;
 }
 MeshTextureCoords {
  64;
  0.000000;0.000000;,
  1.000000;0.000000;,
  1.000000;1.000000;,
  0.000000;1.000000;,
  0.000000;0.000000;,
  1.000000;0.000000;,
  1.000000;1.000000;,
  0.000000;1.000000;,
  0.000000;0.000000;,
  1.000000;0.000000;,
  1.000000;1.000000;,
  0.000000;1.000000;,
  0.000000;0.000000;,
  1.000000;0.000000;,
  1.000000;1.000000;,
  0.000000;1.000000;,
  1.000000;1.000000;,
  0.000000;1.000000;,
  0.000000;0.000000;,
  1.000000;0.000000;,
  0.000000;0.160700;,
  1.000000;0.160700;,
  1.000000;0.728550;,
  0.000000;0.728550;,
  1.000000;0.160700;,
  1.000000;0.728550;,
  0.000000;0.728550;,
  0.000000;0.160700;,
  0.882170;0.160700;,
  1.000000;0.160700;,
  1.000000;0.728550;,
  0.882170;0.728550;,
  0.117830;0.160700;,
  0.117830;0.728550;,
  0.000000;0.728550;,
  0.000000;0.160700;,
  0.106210;0.000000;,
  0.882170;0.000000;,
  0.106210;0.160700;,
  0.106210;1.000000;,
  0.106210;0.000000;,
  0.882170;0.000000;,
  0.882170;1.000000;,
  0.106210;0.728550;,
  0.000000;0.728550;,
  0.000000;0.160700;,
  0.893790;0.000000;,
  0.893790;0.160700;,
  0.117830;0.000000;,
  0.882170;1.000000;,
  0.106210;1.000000;,
  1.000000;0.160700;,
  1.000000;0.728550;,
  0.893790;0.728550;,
  0.106210;0.000000;,
  0.882170;0.000000;,
  0.882170;1.000000;,
  0.106210;1.000000;,
  0.893790;1.000000;,
  0.117830;1.000000;,
  0.882170;0.160700;,
  0.106210;0.160700;,
  0.882170;0.728550;,
  0.106210;0.728550;;
 }
}
