xof 0302txt 0064
template Header {
 <3D82AB43-62DA-11cf-AB39-0020AF71E433>
 WORD major;
 WORD minor;
 DWORD flags;
}

template Vector {
 <3D82AB5E-62DA-11cf-AB39-0020AF71E433>
 FLOAT x;
 FLOAT y;
 FLOAT z;
}

template Coords2d {
 <F6F23F44-7686-11cf-8F52-0040333594A3>
 FLOAT u;
 FLOAT v;
}

template Matrix4x4 {
 <F6F23F45-7686-11cf-8F52-0040333594A3>
 array FLOAT matrix[16];
}

template ColorRGBA {
 <35FF44E0-6C7C-11cf-8F52-0040333594A3>
 FLOAT red;
 FLOAT green;
 FLOAT blue;
 FLOAT alpha;
}

template ColorRGB {
 <D3E16E81-7835-11cf-8F52-0040333594A3>
 FLOAT red;
 FLOAT green;
 FLOAT blue;
}

template IndexedColor {
 <1630B820-7842-11cf-8F52-0040333594A3>
 DWORD index;
 ColorRGBA indexColor;
}

template Boolean {
 <4885AE61-78E8-11cf-8F52-0040333594A3>
 WORD truefalse;
}

template Boolean2d {
 <4885AE63-78E8-11cf-8F52-0040333594A3>
 Boolean u;
 Boolean v;
}

template MaterialWrap {
 <4885AE60-78E8-11cf-8F52-0040333594A3>
 Boolean u;
 Boolean v;
}

template TextureFilename {
 <A42790E1-7810-11cf-8F52-0040333594A3>
 STRING filename;
}

template Material {
 <3D82AB4D-62DA-11cf-AB39-0020AF71E433>
 ColorRGBA faceColor;
 FLOAT power;
 ColorRGB specularColor;
 ColorRGB emissiveColor;
 [...]
}

template MeshFace {
 <3D82AB5F-62DA-11cf-AB39-0020AF71E433>
 DWORD nFaceVertexIndices;
 array DWORD faceVertexIndices[nFaceVertexIndices];
}

template MeshFaceWraps {
 <4885AE62-78E8-11cf-8F52-0040333594A3>
 DWORD nFaceWrapValues;
 Boolean2d faceWrapValues;
}

template MeshTextureCoords {
 <F6F23F40-7686-11cf-8F52-0040333594A3>
 DWORD nTextureCoords;
 array Coords2d textureCoords[nTextureCoords];
}

template MeshMaterialList {
 <F6F23F42-7686-11cf-8F52-0040333594A3>
 DWORD nMaterials;
 DWORD nFaceIndexes;
 array DWORD faceIndexes[nFaceIndexes];
 [Material]
}

template MeshNormals {
 <F6F23F43-7686-11cf-8F52-0040333594A3>
 DWORD nNormals;
 array Vector normals[nNormals];
 DWORD nFaceNormals;
 array MeshFace faceNormals[nFaceNormals];
}

template MeshVertexColors {
 <1630B821-7842-11cf-8F52-0040333594A3>
 DWORD nVertexColors;
 array IndexedColor vertexColors[nVertexColors];
}

template Mesh {
 <3D82AB44-62DA-11cf-AB39-0020AF71E433>
 DWORD nVertices;
 array Vector vertices[nVertices];
 DWORD nFaces;
 array MeshFace faces[nFaces];
 [...]
}

Header{
1;
0;
1;
}

Mesh {
 298;
 0.45220;3.31291;-2.07950;,
 7.40755;3.31291;-9.03485;,
 0.45220;3.31291;-11.91585;,
 0.45220;3.31291;-2.07950;,
 10.28850;3.31291;-2.07950;,
 0.45220;3.31291;-2.07950;,
 7.40755;3.31291;4.87585;,
 0.45220;3.31291;-2.07950;,
 0.45220;3.31291;7.75685;,
 0.45220;3.31291;-2.07950;,
 -6.50315;3.31291;4.87580;,
 0.45220;3.31291;-2.07950;,
 -9.38416;3.31291;-2.07950;,
 0.45220;3.31291;-2.07950;,
 -6.50315;3.31291;-9.03485;,
 0.45220;3.31291;-2.07950;,
 0.45220;3.31291;-11.91585;,
 0.45220;2.27555;-2.07950;,
 0.45220;2.27555;-11.91585;,
 7.40755;2.27555;-9.03485;,
 0.45220;2.27555;-2.07950;,
 10.28850;2.27555;-2.07950;,
 0.45220;2.27555;-2.07950;,
 7.40755;2.27555;4.87585;,
 0.45220;2.27555;-2.07950;,
 0.45220;2.27555;7.75685;,
 0.45220;2.27555;-2.07950;,
 -6.50315;2.27555;4.87580;,
 0.45220;2.27555;-2.07950;,
 -9.38416;2.27555;-2.07950;,
 0.45220;2.27555;-2.07950;,
 -6.50315;2.27555;-9.03485;,
 0.45220;2.27555;-2.07950;,
 0.45220;2.27555;-11.91585;,
 9.53070;6.30406;-11.15805;,
 0.45220;6.30406;-14.91845;,
 0.45220;5.18626;-14.91845;,
 9.53070;5.18626;-11.15805;,
 13.29114;6.30406;-2.07950;,
 13.29114;5.18626;-2.07950;,
 9.53070;6.30406;6.99905;,
 9.53070;5.18626;6.99905;,
 0.45220;6.30406;10.75945;,
 0.45220;5.18626;10.75945;,
 -8.62631;6.30406;6.99905;,
 -8.62631;5.18626;6.99905;,
 -12.38680;6.30406;-2.07950;,
 -12.38680;5.18626;-2.07950;,
 -8.62631;6.30406;-11.15805;,
 -8.62631;5.18626;-11.15805;,
 0.45220;6.30406;-14.91845;,
 0.45220;5.18626;-14.91845;,
 10.99515;10.23857;-12.62245;,
 0.45220;10.23857;-16.98950;,
 0.45220;10.10437;-18.55350;,
 12.10110;10.10437;-13.72840;,
 15.36225;10.23857;-2.07950;,
 16.92624;10.10437;-2.07950;,
 10.99515;10.23857;8.46345;,
 12.10110;10.10437;9.56940;,
 0.45220;10.23857;12.83050;,
 0.45220;10.10437;14.39455;,
 -10.09075;10.23857;8.46345;,
 -11.19670;10.10437;9.56940;,
 -14.45786;10.23857;-2.07950;,
 -16.02185;10.10437;-2.07950;,
 -10.09075;10.23857;-12.62245;,
 -11.19670;10.10437;-13.72840;,
 0.45220;10.23857;-16.98950;,
 0.45220;10.10437;-18.55350;,
 11.30079;15.27555;-12.92810;,
 0.45220;15.27555;-17.42170;,
 0.45220;15.14137;-18.98575;,
 12.40670;15.14137;-14.03400;,
 15.79445;15.27555;-2.07950;,
 17.35840;15.14137;-2.07950;,
 11.30079;15.27555;8.76910;,
 12.40670;15.14137;9.87500;,
 0.45220;15.27555;13.26270;,
 0.45220;15.14137;14.82670;,
 -10.39640;15.27555;8.76910;,
 -11.50231;15.14137;9.87500;,
 -14.89000;15.27555;-2.07950;,
 -16.45405;15.14137;-2.07950;,
 -10.39640;15.27555;-12.92810;,
 -11.50231;15.14137;-14.03400;,
 0.45220;15.27555;-17.42170;,
 0.45220;15.14137;-18.98575;,
 10.52070;20.87461;-12.14800;,
 0.45220;20.87461;-16.31855;,
 0.45220;20.75261;-17.74110;,
 11.52659;20.75261;-13.15390;,
 14.69120;20.87461;-2.07950;,
 16.11380;20.75261;-2.07950;,
 10.52070;20.87461;7.98900;,
 11.52659;20.75261;8.99490;,
 0.45220;20.87461;12.15955;,
 0.45220;20.75261;13.58210;,
 -9.61630;20.87461;7.98900;,
 -10.62226;20.75261;8.99490;,
 -13.78685;20.87461;-2.07950;,
 -15.20941;20.75261;-2.07950;,
 -9.61630;20.87461;-12.14800;,
 -10.62226;20.75261;-13.15390;,
 0.45220;20.87461;-16.31855;,
 0.45220;20.75261;-17.74110;,
 0.45270;22.88971;-2.08010;,
 0.45270;22.88971;-2.08010;,
 0.45270;22.88971;-2.08010;,
 0.45270;22.88971;-2.08010;,
 0.45270;22.88971;-2.08010;,
 0.45270;22.88971;-2.08010;,
 0.45270;22.88971;-2.08010;,
 0.45270;22.88971;-2.08010;,
 0.45270;22.88971;-2.08010;,
 0.45270;22.88971;-2.08010;,
 0.45270;22.88971;-2.08010;,
 0.45270;22.88971;-2.08010;,
 0.45270;22.88971;-2.08010;,
 0.45270;22.88971;-2.08010;,
 0.45220;2.62657;-2.07950;,
 7.98535;2.62657;-9.61265;,
 0.45220;2.62657;-12.73295;,
 0.45220;2.62657;-2.07950;,
 11.10565;2.62657;-2.07950;,
 0.45220;2.62657;-2.07950;,
 7.98535;2.62657;5.45365;,
 0.45220;2.62657;-2.07950;,
 0.45220;2.62657;8.57395;,
 0.45220;2.62657;-2.07950;,
 -7.08095;2.62657;5.45365;,
 0.45220;2.62657;-2.07950;,
 -10.20125;2.62657;-2.07950;,
 0.45220;2.62657;-2.07950;,
 -7.08095;2.62657;-9.61265;,
 0.45220;2.62657;-2.07950;,
 0.45220;2.62657;-12.73295;,
 0.45220;1.50311;-2.07950;,
 0.45220;1.50311;-12.73295;,
 7.98535;1.50311;-9.61265;,
 0.45220;1.50311;-2.07950;,
 11.10565;1.50311;-2.07950;,
 0.45220;1.50311;-2.07950;,
 7.98535;1.50311;5.45365;,
 0.45220;1.50311;-2.07950;,
 0.45220;1.50311;8.57395;,
 0.45220;1.50311;-2.07950;,
 -7.08095;1.50311;5.45365;,
 0.45220;1.50311;-2.07950;,
 -10.20125;1.50311;-2.07950;,
 0.45220;1.50311;-2.07950;,
 -7.08095;1.50311;-9.61265;,
 0.45220;1.50311;-2.07950;,
 0.45220;1.50311;-12.73295;,
 10.28489;5.86621;-11.91220;,
 0.45220;5.86621;-15.98505;,
 0.45220;4.65547;-15.98505;,
 10.28489;4.65547;-11.91220;,
 14.35775;5.86621;-2.07950;,
 14.35775;4.65547;-2.07950;,
 10.28489;5.86621;7.75320;,
 10.28489;4.65547;7.75320;,
 0.45220;5.86621;11.82600;,
 0.45220;4.65547;11.82600;,
 -9.38050;5.86621;7.75320;,
 -9.38050;4.65547;7.75320;,
 -13.45336;5.86621;-2.07950;,
 -13.45336;4.65547;-2.07950;,
 -9.38050;5.86621;-11.91220;,
 -9.38050;4.65547;-11.91220;,
 0.45220;5.86621;-15.98505;,
 0.45220;4.65547;-15.98505;,
 11.87099;10.12761;-13.49830;,
 0.45220;10.12761;-18.22815;,
 0.45220;9.98216;-19.92205;,
 13.06880;9.98216;-14.69610;,
 16.60084;10.12761;-2.07950;,
 18.29474;9.98216;-2.07950;,
 11.87099;10.12761;9.33930;,
 13.06880;9.98216;10.53710;,
 0.45220;10.12761;14.06910;,
 0.45220;9.98216;15.76305;,
 -10.96660;10.12761;9.33930;,
 -12.16440;9.98216;10.53710;,
 -15.69641;10.12761;-2.07950;,
 -17.39035;9.98216;-2.07950;,
 -10.96660;10.12761;-13.49830;,
 -12.16440;9.98216;-14.69610;,
 0.45220;10.12761;-18.22815;,
 0.45220;9.98216;-19.92205;,
 12.20199;15.58307;-13.82930;,
 0.45220;15.58307;-18.69625;,
 0.45220;15.43766;-20.39015;,
 13.39979;15.43766;-15.02710;,
 17.06894;15.58307;-2.07950;,
 18.76285;15.43766;-2.07950;,
 12.20199;15.58307;9.67030;,
 13.39979;15.43766;10.86810;,
 0.45220;15.58307;14.53720;,
 0.45220;15.43766;16.23110;,
 -11.29760;15.58307;9.67030;,
 -12.49540;15.43766;10.86810;,
 -16.16455;15.58307;-2.07950;,
 -17.85845;15.43766;-2.07950;,
 -11.29760;15.58307;-13.82930;,
 -12.49540;15.43766;-15.02710;,
 0.45220;15.58307;-18.69625;,
 0.45220;15.43766;-20.39015;,
 11.35710;21.64717;-12.98440;,
 0.45220;21.64717;-17.50140;,
 0.45220;21.51501;-19.04215;,
 12.44660;21.51501;-14.07390;,
 15.87404;21.64717;-2.07950;,
 17.41485;21.51501;-2.07950;,
 11.35710;21.64717;8.82540;,
 12.44660;21.51501;9.91490;,
 0.45220;21.64717;13.34240;,
 0.45220;21.51501;14.88310;,
 -10.45271;21.64717;8.82540;,
 -11.54225;21.51501;9.91490;,
 -14.96971;21.64717;-2.07950;,
 -16.51045;21.51501;-2.07950;,
 -10.45271;21.64717;-12.98440;,
 -11.54225;21.51501;-14.07390;,
 0.45220;21.64717;-17.50140;,
 0.45220;21.51501;-19.04215;,
 5.93170;28.83557;-7.55900;,
 0.45220;28.83557;-9.82870;,
 0.45220;28.77151;-10.57630;,
 6.46035;28.77151;-8.08765;,
 8.20140;28.83557;-2.07950;,
 8.94895;28.77151;-2.07950;,
 5.93170;28.83557;3.40000;,
 6.46035;28.77151;3.92865;,
 0.45220;28.83557;5.66970;,
 0.45220;28.77151;6.41730;,
 -5.02735;28.83557;3.40000;,
 -5.55596;28.77151;3.92865;,
 -7.29701;28.83557;-2.07950;,
 -8.04460;28.77151;-2.07950;,
 -5.02735;28.83557;-7.55900;,
 -5.55596;28.77151;-8.08765;,
 0.45220;28.83557;-9.82870;,
 0.45220;28.77151;-10.57630;,
 3.74855;33.66922;-5.37585;,
 0.45220;33.66922;-6.74125;,
 0.45220;33.63285;-7.16460;,
 4.04790;33.63285;-5.67520;,
 5.11390;33.66922;-2.07950;,
 5.53730;33.63285;-2.07950;,
 3.74855;33.66922;1.21685;,
 4.04790;33.63285;1.51620;,
 0.45220;33.66922;2.58225;,
 0.45220;33.63285;3.00560;,
 -2.84416;33.66922;1.21685;,
 -3.14350;33.63285;1.51620;,
 -4.20955;33.66922;-2.07950;,
 -4.63291;33.63285;-2.07950;,
 -2.84416;33.66922;-5.37585;,
 -3.14350;33.63285;-5.67520;,
 0.45220;33.66922;-6.74125;,
 0.45220;33.63285;-7.16460;,
 3.71425;39.61511;-5.34160;,
 0.45220;39.61511;-6.69275;,
 0.45220;39.58076;-7.09155;,
 3.99624;39.58076;-5.62355;,
 5.06544;39.61511;-2.07950;,
 5.46425;39.58076;-2.07950;,
 3.71425;39.61511;1.18265;,
 3.99624;39.58076;1.46455;,
 0.45220;39.61511;2.53375;,
 0.45220;39.58076;2.93255;,
 -2.80985;39.61511;1.18265;,
 -3.09191;39.58076;1.46455;,
 -4.16110;39.61511;-2.07950;,
 -4.55985;39.58076;-2.07950;,
 -2.80985;39.61511;-5.34160;,
 -3.09191;39.58076;-5.62355;,
 0.45220;39.61511;-6.69275;,
 0.45220;39.58076;-7.09155;,
 4.18325;47.34185;-5.81055;,
 0.45220;47.34185;-7.35600;,
 0.45220;47.30761;-7.75475;,
 4.46519;47.30761;-6.09255;,
 5.72870;47.34185;-2.07950;,
 6.12745;47.30761;-2.07950;,
 4.18325;47.34185;1.65150;,
 4.46519;47.30761;1.93355;,
 0.45220;47.34185;3.19700;,
 0.45220;47.30761;3.59575;,
 -3.27890;47.34185;1.65150;,
 -3.56085;47.30761;1.93355;,
 -4.82430;47.34185;-2.07950;,
 -5.22310;47.30761;-2.07950;,
 -3.27890;47.34185;-5.81055;,
 -3.56085;47.30761;-6.09255;,
 0.45220;47.34185;-7.35600;,
 0.45220;47.30761;-7.75475;;
 
 248;
 3;0,1,2;,
 3;3,4,1;,
 3;5,6,4;,
 3;7,8,6;,
 3;9,10,8;,
 3;11,12,10;,
 3;13,14,12;,
 3;15,16,14;,
 3;17,18,19;,
 3;20,19,21;,
 3;22,21,23;,
 3;24,23,25;,
 3;26,25,27;,
 3;28,27,29;,
 3;30,29,31;,
 3;32,31,33;,
 4;34,35,2,1;,
 4;36,37,19,18;,
 4;38,34,1,4;,
 4;37,39,21,19;,
 4;40,38,4,6;,
 4;39,41,23,21;,
 4;42,40,6,8;,
 4;41,43,25,23;,
 4;44,42,8,10;,
 4;43,45,27,25;,
 4;46,44,10,12;,
 4;45,47,29,27;,
 4;48,46,12,14;,
 4;47,49,31,29;,
 4;50,48,14,16;,
 4;49,51,33,31;,
 4;52,53,35,34;,
 4;54,55,37,36;,
 4;56,52,34,38;,
 4;55,57,39,37;,
 4;58,56,38,40;,
 4;57,59,41,39;,
 4;60,58,40,42;,
 4;59,61,43,41;,
 4;62,60,42,44;,
 4;61,63,45,43;,
 4;64,62,44,46;,
 4;63,65,47,45;,
 4;66,64,46,48;,
 4;65,67,49,47;,
 4;68,66,48,50;,
 4;67,69,51,49;,
 4;70,71,53,52;,
 4;72,73,55,54;,
 4;74,70,52,56;,
 4;73,75,57,55;,
 4;76,74,56,58;,
 4;75,77,59,57;,
 4;78,76,58,60;,
 4;77,79,61,59;,
 4;80,78,60,62;,
 4;79,81,63,61;,
 4;82,80,62,64;,
 4;81,83,65,63;,
 4;84,82,64,66;,
 4;83,85,67,65;,
 4;86,84,66,68;,
 4;85,87,69,67;,
 4;88,89,71,70;,
 4;90,91,73,72;,
 4;92,88,70,74;,
 4;91,93,75,73;,
 4;94,92,74,76;,
 4;93,95,77,75;,
 4;96,94,76,78;,
 4;95,97,79,77;,
 4;98,96,78,80;,
 4;97,99,81,79;,
 4;100,98,80,82;,
 4;99,101,83,81;,
 4;102,100,82,84;,
 4;101,103,85,83;,
 4;104,102,84,86;,
 4;103,105,87,85;,
 3;106,96,98;,
 3;107,100,102;,
 3;108,103,101;,
 3;109,99,97;,
 3;110,94,96;,
 3;111,102,104;,
 3;112,97,95;,
 3;112,90,103;,
 3;113,92,94;,
 3;114,95,93;,
 3;106,104,88;,
 3;115,91,90;,
 3;116,88,92;,
 3;117,93,91;,
 3;118,98,100;,
 3;119,101,99;,
 3;120,121,122;,
 3;123,124,121;,
 3;125,126,124;,
 3;127,128,126;,
 3;129,130,128;,
 3;131,132,130;,
 3;133,134,132;,
 3;135,136,134;,
 3;137,138,139;,
 3;140,139,141;,
 3;142,141,143;,
 3;144,143,145;,
 3;146,145,147;,
 3;148,147,149;,
 3;150,149,151;,
 3;152,151,153;,
 4;154,155,122,121;,
 4;156,157,139,138;,
 4;158,154,121,124;,
 4;157,159,141,139;,
 4;160,158,124,126;,
 4;159,161,143,141;,
 4;162,160,126,128;,
 4;161,163,145,143;,
 4;164,162,128,130;,
 4;163,165,147,145;,
 4;166,164,130,132;,
 4;165,167,149,147;,
 4;168,166,132,134;,
 4;167,169,151,149;,
 4;170,168,134,136;,
 4;169,171,153,151;,
 4;172,173,155,154;,
 4;174,175,157,156;,
 4;176,172,154,158;,
 4;175,177,159,157;,
 4;178,176,158,160;,
 4;177,179,161,159;,
 4;180,178,160,162;,
 4;179,181,163,161;,
 4;182,180,162,164;,
 4;181,183,165,163;,
 4;184,182,164,166;,
 4;183,185,167,165;,
 4;186,184,166,168;,
 4;185,187,169,167;,
 4;188,186,168,170;,
 4;187,189,171,169;,
 4;190,191,173,172;,
 4;192,193,175,174;,
 4;194,190,172,176;,
 4;193,195,177,175;,
 4;196,194,176,178;,
 4;195,197,179,177;,
 4;198,196,178,180;,
 4;197,199,181,179;,
 4;200,198,180,182;,
 4;199,201,183,181;,
 4;202,200,182,184;,
 4;201,203,185,183;,
 4;204,202,184,186;,
 4;203,205,187,185;,
 4;206,204,186,188;,
 4;205,207,189,187;,
 4;208,209,191,190;,
 4;210,211,193,192;,
 4;212,208,190,194;,
 4;211,213,195,193;,
 4;214,212,194,196;,
 4;213,215,197,195;,
 4;216,214,196,198;,
 4;215,217,199,197;,
 4;218,216,198,200;,
 4;217,219,201,199;,
 4;220,218,200,202;,
 4;219,221,203,201;,
 4;222,220,202,204;,
 4;221,223,205,203;,
 4;224,222,204,206;,
 4;223,225,207,205;,
 4;226,227,209,208;,
 4;228,229,211,210;,
 4;230,226,208,212;,
 4;229,231,213,211;,
 4;232,230,212,214;,
 4;231,233,215,213;,
 4;234,232,214,216;,
 4;233,235,217,215;,
 4;236,234,216,218;,
 4;235,237,219,217;,
 4;238,236,218,220;,
 4;237,239,221,219;,
 4;240,238,220,222;,
 4;239,241,223,221;,
 4;242,240,222,224;,
 4;241,243,225,223;,
 4;244,245,227,226;,
 4;246,247,229,228;,
 4;248,244,226,230;,
 4;247,249,231,229;,
 4;250,248,230,232;,
 4;249,251,233,231;,
 4;252,250,232,234;,
 4;251,253,235,233;,
 4;254,252,234,236;,
 4;253,255,237,235;,
 4;256,254,236,238;,
 4;255,257,239,237;,
 4;258,256,238,240;,
 4;257,259,241,239;,
 4;260,258,240,242;,
 4;259,261,243,241;,
 4;262,263,245,244;,
 4;264,265,247,246;,
 4;266,262,244,248;,
 4;265,267,249,247;,
 4;268,266,248,250;,
 4;267,269,251,249;,
 4;270,268,250,252;,
 4;269,271,253,251;,
 4;272,270,252,254;,
 4;271,273,255,253;,
 4;274,272,254,256;,
 4;273,275,257,255;,
 4;276,274,256,258;,
 4;275,277,259,257;,
 4;278,276,258,260;,
 4;277,279,261,259;,
 4;280,281,263,262;,
 4;282,283,265,264;,
 4;281,280,283,282;,
 4;284,280,262,266;,
 4;283,285,267,265;,
 4;280,284,285,283;,
 4;286,284,266,268;,
 4;285,287,269,267;,
 4;284,286,287,285;,
 4;288,286,268,270;,
 4;287,289,271,269;,
 4;286,288,289,287;,
 4;290,288,270,272;,
 4;289,291,273,271;,
 4;288,290,291,289;,
 4;292,290,272,274;,
 4;291,293,275,273;,
 4;290,292,293,291;,
 4;294,292,274,276;,
 4;293,295,277,275;,
 4;292,294,295,293;,
 4;296,294,276,278;,
 4;295,297,279,277;,
 4;294,296,297,295;;
 
 MeshMaterialList {
  6;
  248;
  4,
  4,
  4,
  4,
  4,
  4,
  4,
  4,
  4,
  4,
  4,
  4,
  4,
  4,
  4,
  4,
  4,
  4,
  4,
  4,
  4,
  4,
  4,
  4,
  4,
  4,
  4,
  4,
  4,
  4,
  4,
  4,
  4,
  4,
  4,
  4,
  4,
  4,
  4,
  4,
  4,
  4,
  4,
  4,
  4,
  4,
  4,
  4,
  4,
  4,
  4,
  4,
  4,
  4,
  4,
  4,
  4,
  4,
  4,
  4,
  4,
  4,
  4,
  4,
  4,
  4,
  4,
  4,
  4,
  4,
  4,
  4,
  4,
  4,
  4,
  4,
  4,
  4,
  4,
  4,
  4,
  4,
  4,
  4,
  4,
  4,
  4,
  4,
  4,
  4,
  4,
  4,
  4,
  4,
  4,
  4,
  3,
  3,
  3,
  3,
  3,
  3,
  3,
  3,
  3,
  3,
  3,
  3,
  3,
  3,
  3,
  3,
  3,
  3,
  3,
  3,
  3,
  3,
  3,
  3,
  3,
  3,
  3,
  3,
  3,
  3,
  3,
  3,
  3,
  3,
  3,
  3,
  3,
  3,
  3,
  3,
  3,
  3,
  3,
  3,
  3,
  3,
  3,
  3,
  3,
  3,
  3,
  3,
  3,
  3,
  3,
  3,
  3,
  3,
  3,
  3,
  3,
  3,
  3,
  3,
  3,
  3,
  3,
  3,
  3,
  3,
  3,
  3,
  3,
  3,
  3,
  3,
  3,
  3,
  3,
  3,
  3,
  3,
  3,
  3,
  3,
  3,
  3,
  3,
  3,
  3,
  3,
  3,
  3,
  3,
  3,
  3,
  3,
  3,
  3,
  3,
  3,
  3,
  3,
  3,
  3,
  3,
  3,
  3,
  3,
  3,
  3,
  3,
  3,
  3,
  3,
  3,
  3,
  3,
  3,
  3,
  3,
  3,
  3,
  3,
  3,
  3,
  3,
  3,
  3,
  3,
  3,
  3,
  3,
  3,
  3,
  3,
  3,
  3,
  3,
  3,
  3,
  3,
  3,
  3,
  3,
  3,
  3,
  3,
  3,
  3,
  3,
  3;;
  Material {
   0.674400;0.674400;0.674400;1.000000;;
   20.000000;
   0.560000;0.560000;0.560000;;
   0.000000;0.000000;0.000000;;
  }
  Material {
   0.075200;0.075200;0.075200;1.000000;;
   9.000000;
   0.790000;0.790000;0.790000;;
   0.000000;0.000000;0.000000;;
  }
  Material {
   0.571200;0.775200;0.800000;0.510000;;
   5.000000;
   0.530000;0.530000;0.530000;;
   0.035700;0.048450;0.050000;;
  }
  Material {
   0.668000;0.668000;0.668000;0.370000;;
   5.000000;
   0.000000;0.000000;0.000000;;
   0.000000;0.000000;0.000000;;
  }
  Material {
   0.408000;0.106000;0.584000;1.000000;;
   5.000000;
   0.390000;0.390000;0.390000;;
   0.285600;0.074200;0.408800;;
  }
  Material {
   0.000000;0.460800;0.800000;1.000000;;
   5.000000;
   0.000000;0.000000;0.000000;;
   0.000000;0.576000;1.000000;;
  }
 }
 MeshNormals {
  252;
  0.000000;1.000000;0.000000;,
  -0.000000;0.927445;0.373960;,
  -0.264429;0.927445;0.264429;,
  -0.373959;0.927445;0.000000;,
  -0.264429;0.927445;-0.264429;,
  0.000000;0.927445;-0.373959;,
  0.264428;0.927446;-0.264429;,
  0.373959;0.927445;-0.000000;,
  0.264429;0.927445;0.264430;,
  0.000000;-0.929831;-0.367986;,
  0.260205;-0.929832;-0.260205;,
  0.367986;-0.929832;0.000000;,
  0.260205;-0.929832;0.260205;,
  -0.000000;-0.929832;0.367985;,
  -0.260204;-0.929832;0.260204;,
  -0.367984;-0.929832;0.000000;,
  -0.260204;-0.929832;-0.260206;,
  0.000000;-1.000000;-0.000000;,
  -0.000000;0.595267;0.803528;,
  -0.568178;0.595269;0.568179;,
  -0.803525;0.595271;0.000000;,
  -0.568178;0.595269;-0.568179;,
  0.000000;0.595268;-0.803527;,
  0.568178;0.595269;-0.568180;,
  0.803526;0.595270;-0.000000;,
  0.568178;0.595268;0.568181;,
  0.000000;-0.658814;-0.752306;,
  0.531959;-0.658816;-0.531960;,
  0.752303;-0.658817;0.000000;,
  0.531959;-0.658817;0.531959;,
  -0.000000;-0.658817;0.752303;,
  -0.531958;-0.658817;0.531959;,
  -0.752303;-0.658817;0.000000;,
  -0.531958;-0.658815;-0.531961;,
  -0.000000;0.282731;0.959199;,
  -0.678254;0.282733;0.678257;,
  -0.959198;0.282735;0.000000;,
  -0.678254;0.282733;-0.678257;,
  -0.000000;0.282730;-0.959199;,
  0.678255;0.282730;-0.678258;,
  0.959200;0.282730;0.000000;,
  0.678255;0.282730;0.678258;,
  0.000000;-0.356694;-0.934221;,
  0.660594;-0.356693;-0.660595;,
  0.934222;-0.356692;0.000000;,
  0.660595;-0.356691;0.660595;,
  0.000000;-0.356691;0.934223;,
  -0.660594;-0.356692;0.660596;,
  -0.934222;-0.356692;-0.000000;,
  -0.660593;-0.356693;-0.660596;,
  -0.000000;-0.054598;0.998508;,
  -0.706051;-0.054600;0.706053;,
  -0.998508;-0.054602;0.000000;,
  -0.706051;-0.054600;-0.706053;,
  -0.000000;-0.054598;-0.998508;,
  0.706052;-0.054599;-0.706052;,
  0.998508;-0.054601;-0.000000;,
  0.706052;-0.054599;0.706052;,
  0.000000;0.066514;-0.997786;,
  0.705541;0.066516;-0.705540;,
  0.997785;0.066517;0.000000;,
  0.705541;0.066517;0.705541;,
  0.000000;0.066517;0.997785;,
  -0.705540;0.066515;0.705541;,
  -0.997785;0.066514;0.000000;,
  -0.705541;0.066514;-0.705541;,
  -0.000000;-0.193314;0.981137;,
  -0.693768;-0.193319;0.693768;,
  -0.981135;-0.193323;0.000000;,
  -0.693768;-0.193319;-0.693768;,
  -0.000000;-0.193314;-0.981137;,
  0.693769;-0.193314;-0.693769;,
  0.981137;-0.193315;-0.000000;,
  0.693769;-0.193314;0.693769;,
  0.000000;0.216550;-0.976272;,
  0.690329;0.216549;-0.690328;,
  0.976272;0.216547;0.000000;,
  0.690329;0.216546;0.690329;,
  0.000000;0.216546;0.976273;,
  -0.690329;0.216545;0.690329;,
  -0.976272;0.216546;0.000000;,
  -0.690329;0.216547;-0.690328;,
  -0.000003;-1.000000;0.000003;,
  -0.000000;0.927445;0.373959;,
  -0.264429;0.927445;0.264429;,
  -0.373959;0.927445;0.000000;,
  -0.264429;0.927445;-0.264430;,
  -0.000000;0.927444;-0.373961;,
  0.264428;0.927445;-0.264430;,
  0.373958;0.927445;0.000000;,
  0.264428;0.927446;0.264429;,
  0.000000;-0.929836;-0.367974;,
  0.260197;-0.929836;-0.260197;,
  0.367974;-0.929836;-0.000000;,
  0.260197;-0.929836;0.260198;,
  0.000000;-0.929835;0.367976;,
  -0.260197;-0.929836;0.260198;,
  -0.367974;-0.929836;0.000000;,
  -0.260197;-0.929836;-0.260197;,
  -0.000000;0.595268;0.803527;,
  -0.568180;0.595268;0.568179;,
  -0.803527;0.595268;0.000000;,
  -0.568179;0.595267;-0.568181;,
  -0.000000;0.595266;-0.803529;,
  0.568179;0.595267;-0.568181;,
  0.803528;0.595267;0.000000;,
  0.568180;0.595268;0.568179;,
  0.000000;-0.658824;-0.752297;,
  0.531955;-0.658824;-0.531955;,
  0.752297;-0.658824;0.000000;,
  0.531954;-0.658824;0.531955;,
  0.000000;-0.658823;0.752298;,
  -0.531954;-0.658824;0.531955;,
  -0.752297;-0.658824;0.000000;,
  -0.531954;-0.658824;-0.531954;,
  -0.000000;0.282728;0.959200;,
  -0.678257;0.282728;0.678257;,
  -0.959200;0.282728;0.000000;,
  -0.678256;0.282728;-0.678258;,
  -0.000000;0.282728;-0.959200;,
  0.678256;0.282728;-0.678258;,
  0.959200;0.282728;0.000000;,
  0.678258;0.282728;0.678256;,
  0.000000;-0.356690;-0.934223;,
  0.660595;-0.356690;-0.660595;,
  0.934223;-0.356690;0.000000;,
  0.660595;-0.356690;0.660596;,
  0.000000;-0.356689;0.934223;,
  -0.660595;-0.356690;0.660596;,
  -0.934223;-0.356690;-0.000000;,
  -0.660595;-0.356690;-0.660595;,
  -0.000000;-0.054604;0.998508;,
  -0.706052;-0.054605;0.706051;,
  -0.998508;-0.054606;0.000000;,
  -0.706051;-0.054604;-0.706052;,
  -0.000000;-0.054602;-0.998508;,
  0.706051;-0.054602;-0.706053;,
  0.998508;-0.054602;-0.000000;,
  0.706052;-0.054603;0.706052;,
  0.000000;0.066514;-0.997786;,
  0.705541;0.066514;-0.705541;,
  0.997786;0.066514;0.000000;,
  0.705540;0.066516;0.705542;,
  0.000000;0.066516;0.997785;,
  -0.705540;0.066514;0.705542;,
  -0.997786;0.066512;-0.000000;,
  -0.705541;0.066513;-0.705541;,
  -0.000000;-0.490234;0.871591;,
  -0.616308;-0.490234;0.616307;,
  -0.871590;-0.490235;0.000000;,
  -0.616308;-0.490233;-0.616308;,
  -0.000000;-0.490232;-0.871592;,
  0.616308;-0.490232;-0.616309;,
  0.871591;-0.490234;-0.000000;,
  0.616308;-0.490233;0.616308;,
  0.000000;0.520127;-0.854089;,
  0.603932;0.520128;-0.603931;,
  0.854089;0.520128;0.000000;,
  0.603931;0.520127;0.603932;,
  0.000000;0.520126;0.854090;,
  -0.603932;0.520127;0.603933;,
  -0.854090;0.520126;-0.000000;,
  -0.603932;0.520127;-0.603932;,
  -0.000001;-0.639912;0.768448;,
  -0.543376;-0.639912;0.543374;,
  -0.768448;-0.639913;0.000000;,
  -0.543376;-0.639912;-0.543374;,
  -0.000001;-0.639912;-0.768448;,
  0.543375;-0.639912;-0.543374;,
  0.768448;-0.639912;0.000000;,
  0.543375;-0.639912;0.543374;,
  0.000000;0.673007;-0.739636;,
  0.523003;0.673007;-0.523001;,
  0.739637;0.673006;0.000000;,
  0.523003;0.673007;0.523001;,
  0.000000;0.673006;0.739637;,
  -0.523001;0.673007;0.523002;,
  -0.739636;0.673007;0.000000;,
  -0.523001;0.673007;-0.523002;,
  -0.000001;-0.287298;0.957841;,
  -0.677297;-0.287299;0.677294;,
  -0.957841;-0.287298;0.000001;,
  -0.677297;-0.287298;-0.677295;,
  -0.000001;-0.287295;-0.957842;,
  0.677294;-0.287297;-0.677299;,
  0.957841;-0.287298;0.000001;,
  0.677294;-0.287298;0.677298;,
  0.000001;0.310705;-0.950506;,
  0.672110;0.310704;-0.672109;,
  0.950507;0.310704;0.000000;,
  0.672110;0.310704;0.672109;,
  0.000001;0.310705;0.950507;,
  -0.672110;0.310704;0.672109;,
  -0.950507;0.310703;0.000000;,
  -0.672110;0.310704;-0.672109;,
  -0.000001;0.038739;0.999249;,
  -0.706576;0.038740;0.706576;,
  -0.999249;0.038741;0.000001;,
  -0.706575;0.038740;-0.706577;,
  -0.000001;0.038739;-0.999249;,
  0.706572;0.038740;-0.706580;,
  0.999249;0.038741;0.000001;,
  0.706573;0.038740;0.706579;,
  0.000002;-0.036677;-0.999327;,
  0.706630;-0.036676;-0.706632;,
  0.999327;-0.036675;-0.000000;,
  0.706630;-0.036676;0.706632;,
  0.000002;-0.036677;0.999327;,
  -0.706631;-0.036678;0.706631;,
  -0.999327;-0.036679;0.000000;,
  -0.706631;-0.036678;-0.706631;,
  -0.000001;0.085522;0.996336;,
  -0.704515;0.085523;0.704517;,
  -0.996336;0.085522;0.000000;,
  -0.704515;0.085518;-0.704518;,
  -0.000001;0.085516;-0.996337;,
  0.704513;0.085519;-0.704519;,
  0.996336;0.085522;0.000000;,
  0.704513;0.085523;0.704519;,
  0.000003;-0.085519;-0.996337;,
  0.704515;-0.085518;-0.704518;,
  0.996337;-0.085517;-0.000000;,
  0.704515;-0.085518;0.704518;,
  0.000003;-0.085519;0.996337;,
  -0.704516;-0.085520;0.704517;,
  -0.996337;-0.085520;0.000000;,
  -0.704516;-0.085520;-0.704517;,
  -0.000001;-0.990135;-0.140117;,
  0.099077;-0.990135;-0.099076;,
  0.140118;-0.990135;0.000001;,
  0.099081;-0.990134;0.099083;,
  0.000003;1.000000;-0.000003;,
  -0.095602;0.990818;-0.095603;,
  -0.135198;0.990819;-0.000001;,
  -0.095598;0.990819;0.095597;,
  0.000001;0.990819;0.135197;,
  -0.099082;-0.990134;-0.099080;,
  -0.000001;-0.990133;0.140128;,
  0.095603;0.990818;0.095601;,
  0.000001;0.990817;-0.135207;,
  -0.140128;-0.990133;0.000001;,
  0.135206;0.990817;-0.000001;,
  -0.099087;-0.990133;0.099087;,
  0.095607;0.990817;-0.095607;,
  0.000000;0.996334;-0.085552;,
  0.060496;0.996334;-0.060495;,
  0.085554;0.996334;-0.000000;,
  0.060494;0.996334;0.060492;,
  0.000000;0.996334;0.085546;,
  -0.060491;0.996334;0.060490;,
  -0.085549;0.996334;-0.000000;,
  -0.060493;0.996334;-0.060493;;
  248;
  3;0,2,1;,
  3;0,3,2;,
  3;0,4,3;,
  3;0,5,4;,
  3;0,6,5;,
  3;0,7,6;,
  3;0,8,7;,
  3;0,1,8;,
  3;17,9,10;,
  3;17,10,11;,
  3;17,11,12;,
  3;17,12,13;,
  3;17,13,14;,
  3;17,14,15;,
  3;17,15,16;,
  3;17,16,9;,
  4;19,18,1,2;,
  4;26,27,10,9;,
  4;20,19,2,3;,
  4;27,28,11,10;,
  4;21,20,3,4;,
  4;28,29,12,11;,
  4;22,21,4,5;,
  4;29,30,13,12;,
  4;23,22,5,6;,
  4;30,31,14,13;,
  4;24,23,6,7;,
  4;31,32,15,14;,
  4;25,24,7,8;,
  4;32,33,16,15;,
  4;18,25,8,1;,
  4;33,26,9,16;,
  4;35,34,18,19;,
  4;42,43,27,26;,
  4;36,35,19,20;,
  4;43,44,28,27;,
  4;37,36,20,21;,
  4;44,45,29,28;,
  4;38,37,21,22;,
  4;45,46,30,29;,
  4;39,38,22,23;,
  4;46,47,31,30;,
  4;40,39,23,24;,
  4;47,48,32,31;,
  4;41,40,24,25;,
  4;48,49,33,32;,
  4;34,41,25,18;,
  4;49,42,26,33;,
  4;51,50,34,35;,
  4;58,59,43,42;,
  4;52,51,35,36;,
  4;59,60,44,43;,
  4;53,52,36,37;,
  4;60,61,45,44;,
  4;54,53,37,38;,
  4;61,62,46,45;,
  4;55,54,38,39;,
  4;62,63,47,46;,
  4;56,55,39,40;,
  4;63,64,48,47;,
  4;57,56,40,41;,
  4;64,65,49,48;,
  4;50,57,41,34;,
  4;65,58,42,49;,
  4;67,66,50,51;,
  4;74,75,59,58;,
  4;68,67,51,52;,
  4;75,76,60,59;,
  4;69,68,52,53;,
  4;76,77,61,60;,
  4;70,69,53,54;,
  4;77,78,62,61;,
  4;71,70,54,55;,
  4;78,79,63,62;,
  4;72,71,55,56;,
  4;79,80,64,63;,
  4;73,72,56,57;,
  4;80,81,65,64;,
  4;66,73,57,50;,
  4;81,74,58,65;,
  3;82,227,228;,
  3;82,229,230;,
  3;231,232,233;,
  3;231,234,235;,
  3;82,236,227;,
  3;82,230,237;,
  3;231,235,238;,
  3;231,239,232;,
  3;82,240,236;,
  3;231,238,241;,
  3;82,237,242;,
  3;231,243,239;,
  3;82,242,240;,
  3;231,241,243;,
  3;82,228,229;,
  3;231,233,234;,
  3;0,84,83;,
  3;0,85,84;,
  3;0,86,85;,
  3;0,87,86;,
  3;0,88,87;,
  3;0,89,88;,
  3;0,90,89;,
  3;0,83,90;,
  3;17,91,92;,
  3;17,92,93;,
  3;17,93,94;,
  3;17,94,95;,
  3;17,95,96;,
  3;17,96,97;,
  3;17,97,98;,
  3;17,98,91;,
  4;100,99,83,84;,
  4;107,108,92,91;,
  4;101,100,84,85;,
  4;108,109,93,92;,
  4;102,101,85,86;,
  4;109,110,94,93;,
  4;103,102,86,87;,
  4;110,111,95,94;,
  4;104,103,87,88;,
  4;111,112,96,95;,
  4;105,104,88,89;,
  4;112,113,97,96;,
  4;106,105,89,90;,
  4;113,114,98,97;,
  4;99,106,90,83;,
  4;114,107,91,98;,
  4;116,115,99,100;,
  4;123,124,108,107;,
  4;117,116,100,101;,
  4;124,125,109,108;,
  4;118,117,101,102;,
  4;125,126,110,109;,
  4;119,118,102,103;,
  4;126,127,111,110;,
  4;120,119,103,104;,
  4;127,128,112,111;,
  4;121,120,104,105;,
  4;128,129,113,112;,
  4;122,121,105,106;,
  4;129,130,114,113;,
  4;115,122,106,99;,
  4;130,123,107,114;,
  4;132,131,115,116;,
  4;139,140,124,123;,
  4;133,132,116,117;,
  4;140,141,125,124;,
  4;134,133,117,118;,
  4;141,142,126,125;,
  4;135,134,118,119;,
  4;142,143,127,126;,
  4;136,135,119,120;,
  4;143,144,128,127;,
  4;137,136,120,121;,
  4;144,145,129,128;,
  4;138,137,121,122;,
  4;145,146,130,129;,
  4;131,138,122,115;,
  4;146,139,123,130;,
  4;148,147,131,132;,
  4;155,156,140,139;,
  4;149,148,132,133;,
  4;156,157,141,140;,
  4;150,149,133,134;,
  4;157,158,142,141;,
  4;151,150,134,135;,
  4;158,159,143,142;,
  4;152,151,135,136;,
  4;159,160,144,143;,
  4;153,152,136,137;,
  4;160,161,145,144;,
  4;154,153,137,138;,
  4;161,162,146,145;,
  4;147,154,138,131;,
  4;162,155,139,146;,
  4;164,163,147,148;,
  4;171,172,156,155;,
  4;165,164,148,149;,
  4;172,173,157,156;,
  4;166,165,149,150;,
  4;173,174,158,157;,
  4;167,166,150,151;,
  4;174,175,159,158;,
  4;168,167,151,152;,
  4;175,176,160,159;,
  4;169,168,152,153;,
  4;176,177,161,160;,
  4;170,169,153,154;,
  4;177,178,162,161;,
  4;163,170,154,147;,
  4;178,171,155,162;,
  4;180,179,163,164;,
  4;187,188,172,171;,
  4;181,180,164,165;,
  4;188,189,173,172;,
  4;182,181,165,166;,
  4;189,190,174,173;,
  4;183,182,166,167;,
  4;190,191,175,174;,
  4;184,183,167,168;,
  4;191,192,176,175;,
  4;185,184,168,169;,
  4;192,193,177,176;,
  4;186,185,169,170;,
  4;193,194,178,177;,
  4;179,186,170,163;,
  4;194,187,171,178;,
  4;196,195,179,180;,
  4;203,204,188,187;,
  4;197,196,180,181;,
  4;204,205,189,188;,
  4;198,197,181,182;,
  4;205,206,190,189;,
  4;199,198,182,183;,
  4;206,207,191,190;,
  4;200,199,183,184;,
  4;207,208,192,191;,
  4;201,200,184,185;,
  4;208,209,193,192;,
  4;202,201,185,186;,
  4;209,210,194,193;,
  4;195,202,186,179;,
  4;210,203,187,194;,
  4;212,211,195,196;,
  4;219,220,204,203;,
  4;244,245,245,244;,
  4;213,212,196,197;,
  4;220,221,205,204;,
  4;245,246,246,245;,
  4;214,213,197,198;,
  4;221,222,206,205;,
  4;246,247,247,246;,
  4;215,214,198,199;,
  4;222,223,207,206;,
  4;247,248,248,247;,
  4;216,215,199,200;,
  4;223,224,208,207;,
  4;248,249,249,248;,
  4;217,216,200,201;,
  4;224,225,209,208;,
  4;249,250,250,249;,
  4;218,217,201,202;,
  4;225,226,210,209;,
  4;250,251,251,250;,
  4;211,218,202,195;,
  4;226,219,203,210;,
  4;251,244,244,251;;
 }
 MeshTextureCoords {
  298;
  0.062500;0.000000;,
  0.125000;0.000000;,
  0.000000;0.000000;,
  0.187500;0.000000;,
  0.250000;0.000000;,
  0.312500;0.000000;,
  0.375000;0.000000;,
  0.437500;0.000000;,
  0.500000;0.000000;,
  0.562500;0.000000;,
  0.625000;0.000000;,
  0.687500;0.000000;,
  0.750000;0.000000;,
  0.812500;0.000000;,
  0.875000;0.000000;,
  0.937500;0.000000;,
  1.000000;0.000000;,
  0.062500;1.000000;,
  0.000000;1.000000;,
  0.125000;1.000000;,
  0.187500;1.000000;,
  0.250000;1.000000;,
  0.312500;1.000000;,
  0.375000;1.000000;,
  0.437500;1.000000;,
  0.500000;1.000000;,
  0.562500;1.000000;,
  0.625000;1.000000;,
  0.687500;1.000000;,
  0.750000;1.000000;,
  0.812500;1.000000;,
  0.875000;1.000000;,
  0.937500;1.000000;,
  1.000000;1.000000;,
  0.125000;0.000000;,
  0.000000;0.000000;,
  0.000000;1.000000;,
  0.125000;1.000000;,
  0.250000;0.000000;,
  0.250000;1.000000;,
  0.375000;0.000000;,
  0.375000;1.000000;,
  0.500000;0.000000;,
  0.500000;1.000000;,
  0.625000;0.000000;,
  0.625000;1.000000;,
  0.750000;0.000000;,
  0.750000;1.000000;,
  0.875000;0.000000;,
  0.875000;1.000000;,
  1.000000;0.000000;,
  1.000000;1.000000;,
  0.125000;0.000000;,
  0.000000;0.000000;,
  0.000000;1.000000;,
  0.125000;1.000000;,
  0.250000;0.000000;,
  0.250000;1.000000;,
  0.375000;0.000000;,
  0.375000;1.000000;,
  0.500000;0.000000;,
  0.500000;1.000000;,
  0.625000;0.000000;,
  0.625000;1.000000;,
  0.750000;0.000000;,
  0.750000;1.000000;,
  0.875000;0.000000;,
  0.875000;1.000000;,
  1.000000;0.000000;,
  1.000000;1.000000;,
  0.125000;0.000000;,
  0.000000;0.000000;,
  0.000000;1.000000;,
  0.125000;1.000000;,
  0.250000;0.000000;,
  0.250000;1.000000;,
  0.375000;0.000000;,
  0.375000;1.000000;,
  0.500000;0.000000;,
  0.500000;1.000000;,
  0.625000;0.000000;,
  0.625000;1.000000;,
  0.750000;0.000000;,
  0.750000;1.000000;,
  0.875000;0.000000;,
  0.875000;1.000000;,
  1.000000;0.000000;,
  1.000000;1.000000;,
  0.125000;0.000000;,
  0.000000;0.000000;,
  0.000000;1.000000;,
  0.125000;1.000000;,
  0.250000;0.000000;,
  0.250000;1.000000;,
  0.375000;0.000000;,
  0.375000;1.000000;,
  0.500000;0.000000;,
  0.500000;1.000000;,
  0.625000;0.000000;,
  0.625000;1.000000;,
  0.750000;0.000000;,
  0.750000;1.000000;,
  0.875000;0.000000;,
  0.875000;1.000000;,
  1.000000;0.000000;,
  1.000000;1.000000;,
  0.562500;0.000000;,
  0.812500;0.000000;,
  0.812500;1.000000;,
  0.562500;1.000000;,
  0.437500;0.000000;,
  0.937500;0.000000;,
  0.437500;1.000000;,
  0.312500;0.000000;,
  0.312500;1.000000;,
  0.062500;1.000000;,
  0.187500;0.000000;,
  0.187500;1.000000;,
  0.687500;0.000000;,
  0.687500;1.000000;,
  0.062500;0.000000;,
  0.125000;0.000000;,
  0.000000;0.000000;,
  0.187500;0.000000;,
  0.250000;0.000000;,
  0.312500;0.000000;,
  0.375000;0.000000;,
  0.437500;0.000000;,
  0.500000;0.000000;,
  0.562500;0.000000;,
  0.625000;0.000000;,
  0.687500;0.000000;,
  0.750000;0.000000;,
  0.812500;0.000000;,
  0.875000;0.000000;,
  0.937500;0.000000;,
  1.000000;0.000000;,
  0.062500;1.000000;,
  0.000000;1.000000;,
  0.125000;1.000000;,
  0.187500;1.000000;,
  0.250000;1.000000;,
  0.312500;1.000000;,
  0.375000;1.000000;,
  0.437500;1.000000;,
  0.500000;1.000000;,
  0.562500;1.000000;,
  0.625000;1.000000;,
  0.687500;1.000000;,
  0.750000;1.000000;,
  0.812500;1.000000;,
  0.875000;1.000000;,
  0.937500;1.000000;,
  1.000000;1.000000;,
  0.125000;0.000000;,
  0.000000;0.000000;,
  0.000000;1.000000;,
  0.125000;1.000000;,
  0.250000;0.000000;,
  0.250000;1.000000;,
  0.375000;0.000000;,
  0.375000;1.000000;,
  0.500000;0.000000;,
  0.500000;1.000000;,
  0.625000;0.000000;,
  0.625000;1.000000;,
  0.750000;0.000000;,
  0.750000;1.000000;,
  0.875000;0.000000;,
  0.875000;1.000000;,
  1.000000;0.000000;,
  1.000000;1.000000;,
  0.125000;0.000000;,
  0.000000;0.000000;,
  0.000000;1.000000;,
  0.125000;1.000000;,
  0.250000;0.000000;,
  0.250000;1.000000;,
  0.375000;0.000000;,
  0.375000;1.000000;,
  0.500000;0.000000;,
  0.500000;1.000000;,
  0.625000;0.000000;,
  0.625000;1.000000;,
  0.750000;0.000000;,
  0.750000;1.000000;,
  0.875000;0.000000;,
  0.875000;1.000000;,
  1.000000;0.000000;,
  1.000000;1.000000;,
  0.125000;0.000000;,
  0.000000;0.000000;,
  0.000000;1.000000;,
  0.125000;1.000000;,
  0.250000;0.000000;,
  0.250000;1.000000;,
  0.375000;0.000000;,
  0.375000;1.000000;,
  0.500000;0.000000;,
  0.500000;1.000000;,
  0.625000;0.000000;,
  0.625000;1.000000;,
  0.750000;0.000000;,
  0.750000;1.000000;,
  0.875000;0.000000;,
  0.875000;1.000000;,
  1.000000;0.000000;,
  1.000000;1.000000;,
  0.125000;0.000000;,
  0.000000;0.000000;,
  0.000000;1.000000;,
  0.125000;1.000000;,
  0.250000;0.000000;,
  0.250000;1.000000;,
  0.375000;0.000000;,
  0.375000;1.000000;,
  0.500000;0.000000;,
  0.500000;1.000000;,
  0.625000;0.000000;,
  0.625000;1.000000;,
  0.750000;0.000000;,
  0.750000;1.000000;,
  0.875000;0.000000;,
  0.875000;1.000000;,
  1.000000;0.000000;,
  1.000000;1.000000;,
  0.125000;0.000000;,
  0.000000;0.000000;,
  0.000000;1.000000;,
  0.125000;1.000000;,
  0.250000;0.000000;,
  0.250000;1.000000;,
  0.375000;0.000000;,
  0.375000;1.000000;,
  0.500000;0.000000;,
  0.500000;1.000000;,
  0.625000;0.000000;,
  0.625000;1.000000;,
  0.750000;0.000000;,
  0.750000;1.000000;,
  0.875000;0.000000;,
  0.875000;1.000000;,
  1.000000;0.000000;,
  1.000000;1.000000;,
  0.125000;0.000000;,
  0.000000;0.000000;,
  0.000000;1.000000;,
  0.125000;1.000000;,
  0.250000;0.000000;,
  0.250000;1.000000;,
  0.375000;0.000000;,
  0.375000;1.000000;,
  0.500000;0.000000;,
  0.500000;1.000000;,
  0.625000;0.000000;,
  0.625000;1.000000;,
  0.750000;0.000000;,
  0.750000;1.000000;,
  0.875000;0.000000;,
  0.875000;1.000000;,
  1.000000;0.000000;,
  1.000000;1.000000;,
  0.125000;0.000000;,
  0.000000;0.000000;,
  0.000000;1.000000;,
  0.125000;1.000000;,
  0.250000;0.000000;,
  0.250000;1.000000;,
  0.375000;0.000000;,
  0.375000;1.000000;,
  0.500000;0.000000;,
  0.500000;1.000000;,
  0.625000;0.000000;,
  0.625000;1.000000;,
  0.750000;0.000000;,
  0.750000;1.000000;,
  0.875000;0.000000;,
  0.875000;1.000000;,
  1.000000;0.000000;,
  1.000000;1.000000;,
  0.125000;0.000000;,
  0.000000;0.000000;,
  0.000000;1.000000;,
  0.125000;1.000000;,
  0.250000;0.000000;,
  0.250000;1.000000;,
  0.375000;0.000000;,
  0.375000;1.000000;,
  0.500000;0.000000;,
  0.500000;1.000000;,
  0.625000;0.000000;,
  0.625000;1.000000;,
  0.750000;0.000000;,
  0.750000;1.000000;,
  0.875000;0.000000;,
  0.875000;1.000000;,
  1.000000;0.000000;,
  1.000000;1.000000;;
 }
}
