xof 0302txt 0064
template Header {
 <3D82AB43-62DA-11cf-AB39-0020AF71E433>
 WORD major;
 WORD minor;
 DWORD flags;
}

template Vector {
 <3D82AB5E-62DA-11cf-AB39-0020AF71E433>
 FLOAT x;
 FLOAT y;
 FLOAT z;
}

template Coords2d {
 <F6F23F44-7686-11cf-8F52-0040333594A3>
 FLOAT u;
 FLOAT v;
}

template Matrix4x4 {
 <F6F23F45-7686-11cf-8F52-0040333594A3>
 array FLOAT matrix[16];
}

template ColorRGBA {
 <35FF44E0-6C7C-11cf-8F52-0040333594A3>
 FLOAT red;
 FLOAT green;
 FLOAT blue;
 FLOAT alpha;
}

template ColorRGB {
 <D3E16E81-7835-11cf-8F52-0040333594A3>
 FLOAT red;
 FLOAT green;
 FLOAT blue;
}

template IndexedColor {
 <1630B820-7842-11cf-8F52-0040333594A3>
 DWORD index;
 ColorRGBA indexColor;
}

template Boolean {
 <4885AE61-78E8-11cf-8F52-0040333594A3>
 WORD truefalse;
}

template Boolean2d {
 <4885AE63-78E8-11cf-8F52-0040333594A3>
 Boolean u;
 Boolean v;
}

template MaterialWrap {
 <4885AE60-78E8-11cf-8F52-0040333594A3>
 Boolean u;
 Boolean v;
}

template TextureFilename {
 <A42790E1-7810-11cf-8F52-0040333594A3>
 STRING filename;
}

template Material {
 <3D82AB4D-62DA-11cf-AB39-0020AF71E433>
 ColorRGBA faceColor;
 FLOAT power;
 ColorRGB specularColor;
 ColorRGB emissiveColor;
 [...]
}

template MeshFace {
 <3D82AB5F-62DA-11cf-AB39-0020AF71E433>
 DWORD nFaceVertexIndices;
 array DWORD faceVertexIndices[nFaceVertexIndices];
}

template MeshFaceWraps {
 <4885AE62-78E8-11cf-8F52-0040333594A3>
 DWORD nFaceWrapValues;
 Boolean2d faceWrapValues;
}

template MeshTextureCoords {
 <F6F23F40-7686-11cf-8F52-0040333594A3>
 DWORD nTextureCoords;
 array Coords2d textureCoords[nTextureCoords];
}

template MeshMaterialList {
 <F6F23F42-7686-11cf-8F52-0040333594A3>
 DWORD nMaterials;
 DWORD nFaceIndexes;
 array DWORD faceIndexes[nFaceIndexes];
 [Material]
}

template MeshNormals {
 <F6F23F43-7686-11cf-8F52-0040333594A3>
 DWORD nNormals;
 array Vector normals[nNormals];
 DWORD nFaceNormals;
 array MeshFace faceNormals[nFaceNormals];
}

template MeshVertexColors {
 <1630B821-7842-11cf-8F52-0040333594A3>
 DWORD nVertexColors;
 array IndexedColor vertexColors[nVertexColors];
}

template Mesh {
 <3D82AB44-62DA-11cf-AB39-0020AF71E433>
 DWORD nVertices;
 array Vector vertices[nVertices];
 DWORD nFaces;
 array MeshFace faces[nFaces];
 [...]
}

Header{
1;
0;
1;
}

Mesh {
 298;
 0.12792;2.48425;-2.07950;,
 0.12792;2.48425;-11.91585;,
 7.08327;2.48425;-9.03485;,
 0.12792;2.48425;-2.07950;,
 9.96427;2.48425;-2.07950;,
 0.12792;2.48425;-2.07950;,
 7.08327;2.48425;4.87585;,
 0.12792;2.48425;-2.07950;,
 0.12792;2.48425;7.75685;,
 0.12792;2.48425;-2.07950;,
 -6.82742;2.48425;4.87580;,
 0.12792;2.48425;-2.07950;,
 -9.70837;2.48425;-2.07950;,
 0.12792;2.48425;-2.07950;,
 -6.82742;2.48425;-9.03485;,
 0.12792;2.48425;-2.07950;,
 0.12792;2.48425;-11.91585;,
 0.12792;5.39491;-14.91845;,
 9.20647;5.39491;-11.15805;,
 12.96692;5.39491;-2.07950;,
 9.20647;5.39491;6.99905;,
 0.12792;5.39491;10.75945;,
 -8.95057;5.39491;6.99905;,
 -12.71102;5.39491;-2.07950;,
 -8.95057;5.39491;-11.15805;,
 0.12792;5.39491;-14.91845;,
 0.12792;10.31304;-18.55350;,
 11.77682;10.31304;-13.72840;,
 16.60202;10.31304;-2.07950;,
 11.77682;10.31304;9.56940;,
 0.12792;10.31304;14.39455;,
 -11.52092;10.31304;9.56940;,
 -16.34606;10.31304;-2.07950;,
 -11.52092;10.31304;-13.72840;,
 0.12792;10.31304;-18.55350;,
 0.12792;15.35000;-18.98575;,
 12.08247;15.35000;-14.03400;,
 17.03417;15.35000;-2.07950;,
 12.08247;15.35000;9.87500;,
 0.12792;15.35000;14.82670;,
 -11.82651;15.35000;9.87500;,
 -16.77826;15.35000;-2.07950;,
 -11.82651;15.35000;-14.03400;,
 0.12792;15.35000;-18.98575;,
 0.12792;20.96125;-17.74110;,
 11.20237;20.96125;-13.15390;,
 15.78957;20.96125;-2.07950;,
 11.20237;20.96125;8.99490;,
 0.12792;20.96125;13.58210;,
 -10.94652;20.96125;8.99490;,
 -15.53366;20.96125;-2.07950;,
 -10.94652;20.96125;-13.15390;,
 0.12792;20.96125;-17.74110;,
 0.12843;23.09840;-2.08010;,
 0.12843;23.09840;-2.08010;,
 0.12843;23.09840;-2.08010;,
 0.12843;23.09840;-2.08010;,
 0.12843;23.09840;-2.08010;,
 0.12843;23.09840;-2.08010;,
 0.12843;23.09840;-2.08010;,
 0.12792;3.52155;-2.07950;,
 7.08327;3.52155;-9.03485;,
 0.12792;3.52155;-11.91585;,
 0.12792;3.52155;-2.07950;,
 9.96427;3.52155;-2.07950;,
 0.12792;3.52155;-2.07950;,
 7.08327;3.52155;4.87585;,
 0.12792;3.52155;-2.07950;,
 0.12792;3.52155;7.75685;,
 0.12792;3.52155;-2.07950;,
 -6.82742;3.52155;4.87580;,
 0.12792;3.52155;-2.07950;,
 -9.70837;3.52155;-2.07950;,
 0.12792;3.52155;-2.07950;,
 -6.82742;3.52155;-9.03485;,
 0.12792;3.52155;-2.07950;,
 0.12792;3.52155;-11.91585;,
 9.20647;6.51270;-11.15805;,
 0.12792;6.51270;-14.91845;,
 12.96692;6.51270;-2.07950;,
 9.20647;6.51270;6.99905;,
 0.12792;6.51270;10.75945;,
 -8.95057;6.51270;6.99905;,
 -12.71102;6.51270;-2.07950;,
 -8.95057;6.51270;-11.15805;,
 0.12792;6.51270;-14.91845;,
 10.67092;10.44724;-12.62245;,
 0.12792;10.44724;-16.98950;,
 15.03797;10.44724;-2.07950;,
 10.67092;10.44724;8.46345;,
 0.12792;10.44724;12.83050;,
 -10.41502;10.44724;8.46345;,
 -14.78211;10.44724;-2.07950;,
 -10.41502;10.44724;-12.62245;,
 0.12792;10.44724;-16.98950;,
 10.97652;15.48425;-12.92810;,
 0.12792;15.48425;-17.42170;,
 15.47017;15.48425;-2.07950;,
 10.97652;15.48425;8.76910;,
 0.12792;15.48425;13.26270;,
 -10.72066;15.48425;8.76910;,
 -15.21426;15.48425;-2.07950;,
 -10.72066;15.48425;-12.92810;,
 0.12792;15.48425;-17.42170;,
 10.19642;21.08331;-12.14800;,
 0.12792;21.08331;-16.31855;,
 14.36697;21.08331;-2.07950;,
 10.19642;21.08331;7.98900;,
 0.12792;21.08331;12.15955;,
 -9.94057;21.08331;7.98900;,
 -14.11111;21.08331;-2.07950;,
 -9.94057;21.08331;-12.14800;,
 0.12792;21.08331;-16.31855;,
 0.12843;23.09840;-2.08010;,
 0.12843;23.09840;-2.08010;,
 0.12843;23.09840;-2.08010;,
 0.12843;23.09840;-2.08010;,
 0.12843;23.09840;-2.08010;,
 0.12843;23.09840;-2.08010;,
 0.12843;23.09840;-2.08010;,
 0.12792;2.83520;-2.07950;,
 7.66112;2.83520;-9.61265;,
 0.12792;2.83520;-12.73295;,
 0.12792;2.83520;-2.07950;,
 10.78137;2.83520;-2.07950;,
 0.12792;2.83520;-2.07950;,
 7.66112;2.83520;5.45365;,
 0.12792;2.83520;-2.07950;,
 0.12792;2.83520;8.57395;,
 0.12792;2.83520;-2.07950;,
 -7.40522;2.83520;5.45365;,
 0.12792;2.83520;-2.07950;,
 -10.52552;2.83520;-2.07950;,
 0.12792;2.83520;-2.07950;,
 -7.40522;2.83520;-9.61265;,
 0.12792;2.83520;-2.07950;,
 0.12792;2.83520;-12.73295;,
 0.12792;1.71175;-2.07950;,
 0.12792;1.71175;-12.73295;,
 7.66112;1.71175;-9.61265;,
 0.12792;1.71175;-2.07950;,
 10.78137;1.71175;-2.07950;,
 0.12792;1.71175;-2.07950;,
 7.66112;1.71175;5.45365;,
 0.12792;1.71175;-2.07950;,
 0.12792;1.71175;8.57395;,
 0.12792;1.71175;-2.07950;,
 -7.40522;1.71175;5.45365;,
 0.12792;1.71175;-2.07950;,
 -10.52552;1.71175;-2.07950;,
 0.12792;1.71175;-2.07950;,
 -7.40522;1.71175;-9.61265;,
 0.12792;1.71175;-2.07950;,
 0.12792;1.71175;-12.73295;,
 9.96062;6.07485;-11.91220;,
 0.12792;6.07485;-15.98505;,
 0.12792;4.86410;-15.98505;,
 9.96062;4.86410;-11.91220;,
 14.03347;6.07485;-2.07950;,
 14.03347;4.86410;-2.07950;,
 9.96062;6.07485;7.75320;,
 9.96062;4.86410;7.75320;,
 0.12792;6.07485;11.82600;,
 0.12792;4.86410;11.82600;,
 -9.70472;6.07485;7.75320;,
 -9.70472;4.86410;7.75320;,
 -13.77756;6.07485;-2.07950;,
 -13.77756;4.86410;-2.07950;,
 -9.70472;6.07485;-11.91220;,
 -9.70472;4.86410;-11.91220;,
 0.12792;6.07485;-15.98505;,
 0.12792;4.86410;-15.98505;,
 11.54672;10.33630;-13.49830;,
 0.12792;10.33630;-18.22815;,
 0.12792;10.19080;-19.92205;,
 12.74452;10.19080;-14.69610;,
 16.27657;10.33630;-2.07950;,
 17.97052;10.19080;-2.07950;,
 11.54672;10.33630;9.33930;,
 12.74452;10.19080;10.53710;,
 0.12792;10.33630;14.06910;,
 0.12792;10.19080;15.76305;,
 -11.29087;10.33630;9.33930;,
 -12.48861;10.19080;10.53710;,
 -16.02066;10.33630;-2.07950;,
 -17.71461;10.19080;-2.07950;,
 -11.29087;10.33630;-13.49830;,
 -12.48861;10.19080;-14.69610;,
 0.12792;10.33630;-18.22815;,
 0.12792;10.19080;-19.92205;,
 11.87772;15.79169;-13.82930;,
 0.12792;15.79169;-18.69625;,
 0.12792;15.64635;-20.39015;,
 13.07551;15.64635;-15.02710;,
 16.74467;15.79169;-2.07950;,
 18.43857;15.64635;-2.07950;,
 11.87772;15.79169;9.67030;,
 13.07551;15.64635;10.86810;,
 0.12792;15.79169;14.53720;,
 0.12792;15.64635;16.23110;,
 -11.62181;15.79169;9.67030;,
 -12.81961;15.64635;10.86810;,
 -16.48876;15.79169;-2.07950;,
 -18.18266;15.64635;-2.07950;,
 -11.62181;15.79169;-13.82930;,
 -12.81961;15.64635;-15.02710;,
 0.12792;15.79169;-18.69625;,
 0.12792;15.64635;-20.39015;,
 11.03287;21.85584;-12.98440;,
 0.12792;21.85584;-17.50140;,
 0.12792;21.72366;-19.04215;,
 12.12232;21.72366;-14.07390;,
 15.54982;21.85584;-2.07950;,
 17.09057;21.72366;-2.07950;,
 11.03287;21.85584;8.82540;,
 12.12232;21.72366;9.91490;,
 0.12792;21.85584;13.34240;,
 0.12792;21.72366;14.88310;,
 -10.77697;21.85584;8.82540;,
 -11.86647;21.72366;9.91490;,
 -15.29396;21.85584;-2.07950;,
 -16.83471;21.72366;-2.07950;,
 -10.77697;21.85584;-12.98440;,
 -11.86647;21.72366;-14.07390;,
 0.12792;21.85584;-17.50140;,
 0.12792;21.72366;-19.04215;,
 5.60747;29.04420;-7.55900;,
 0.12792;29.04420;-9.82870;,
 0.12792;28.98016;-10.57630;,
 6.13607;28.98016;-8.08765;,
 7.87712;29.04420;-2.07950;,
 8.62472;28.98016;-2.07950;,
 5.60747;29.04420;3.40000;,
 6.13607;28.98016;3.92865;,
 0.12792;29.04420;5.66970;,
 0.12792;28.98016;6.41730;,
 -5.35157;29.04420;3.40000;,
 -5.88022;28.98016;3.92865;,
 -7.62127;29.04420;-2.07950;,
 -8.36886;28.98016;-2.07950;,
 -5.35157;29.04420;-7.55900;,
 -5.88022;28.98016;-8.08765;,
 0.12792;29.04420;-9.82870;,
 0.12792;28.98016;-10.57630;,
 3.42427;33.87785;-5.37585;,
 0.12792;33.87785;-6.74125;,
 0.12792;33.84155;-7.16460;,
 3.72367;33.84155;-5.67520;,
 4.78967;33.87785;-2.07950;,
 5.21302;33.84155;-2.07950;,
 3.42427;33.87785;1.21685;,
 3.72367;33.84155;1.51620;,
 0.12792;33.87785;2.58225;,
 0.12792;33.84155;3.00560;,
 -3.16842;33.87785;1.21685;,
 -3.46777;33.84155;1.51620;,
 -4.53382;33.87785;-2.07950;,
 -4.95717;33.84155;-2.07950;,
 -3.16842;33.87785;-5.37585;,
 -3.46777;33.84155;-5.67520;,
 0.12792;33.87785;-6.74125;,
 0.12792;33.84155;-7.16460;,
 3.39002;39.82375;-5.34160;,
 0.12792;39.82375;-6.69275;,
 0.12792;39.78945;-7.09155;,
 3.67197;39.78945;-5.62355;,
 4.74122;39.82375;-2.07950;,
 5.13997;39.78945;-2.07950;,
 3.39002;39.82375;1.18265;,
 3.67197;39.78945;1.46455;,
 0.12792;39.82375;2.53375;,
 0.12792;39.78945;2.93255;,
 -3.13412;39.82375;1.18265;,
 -3.41612;39.78945;1.46455;,
 -4.48532;39.82375;-2.07950;,
 -4.88412;39.78945;-2.07950;,
 -3.13412;39.82375;-5.34160;,
 -3.41612;39.78945;-5.62355;,
 0.12792;39.82375;-6.69275;,
 0.12792;39.78945;-7.09155;,
 3.85902;47.55050;-5.81055;,
 0.12792;47.55050;-7.35600;,
 0.12792;47.51624;-7.75475;,
 4.14097;47.51624;-6.09255;,
 5.40442;47.55050;-2.07950;,
 5.80322;47.51624;-2.07950;,
 3.85902;47.55050;1.65150;,
 4.14097;47.51624;1.93355;,
 0.12792;47.55050;3.19700;,
 0.12792;47.51624;3.59575;,
 -3.60312;47.55050;1.65150;,
 -3.88512;47.51624;1.93355;,
 -5.14857;47.55050;-2.07950;,
 -5.54732;47.51624;-2.07950;,
 -3.60312;47.55050;-5.81055;,
 -3.88512;47.51624;-6.09255;,
 0.12792;47.55050;-7.35600;,
 0.12792;47.51624;-7.75475;;
 
 248;
 3;0,1,2;,
 3;3,2,4;,
 3;5,4,6;,
 3;7,6,8;,
 3;9,8,10;,
 3;11,10,12;,
 3;13,12,14;,
 3;15,14,16;,
 4;17,18,2,1;,
 4;18,19,4,2;,
 4;19,20,6,4;,
 4;20,21,8,6;,
 4;21,22,10,8;,
 4;22,23,12,10;,
 4;23,24,14,12;,
 4;24,25,16,14;,
 4;26,27,18,17;,
 4;27,28,19,18;,
 4;28,29,20,19;,
 4;29,30,21,20;,
 4;30,31,22,21;,
 4;31,32,23,22;,
 4;32,33,24,23;,
 4;33,34,25,24;,
 4;35,36,27,26;,
 4;36,37,28,27;,
 4;37,38,29,28;,
 4;38,39,30,29;,
 4;39,40,31,30;,
 4;40,41,32,31;,
 4;41,42,33,32;,
 4;42,43,34,33;,
 4;44,45,36,35;,
 4;45,46,37,36;,
 4;46,47,38,37;,
 4;47,48,39,38;,
 4;48,49,40,39;,
 4;49,50,41,40;,
 4;50,51,42,41;,
 4;51,52,43,42;,
 3;53,51,50;,
 3;54,49,48;,
 3;55,48,47;,
 3;55,44,51;,
 3;56,47,46;,
 3;57,45,44;,
 3;58,46,45;,
 3;59,50,49;,
 3;60,61,62;,
 3;63,64,61;,
 3;65,66,64;,
 3;67,68,66;,
 3;69,70,68;,
 3;71,72,70;,
 3;73,74,72;,
 3;75,76,74;,
 4;77,78,62,61;,
 4;79,77,61,64;,
 4;80,79,64,66;,
 4;81,80,66,68;,
 4;82,81,68,70;,
 4;83,82,70,72;,
 4;84,83,72,74;,
 4;85,84,74,76;,
 4;86,87,78,77;,
 4;88,86,77,79;,
 4;89,88,79,80;,
 4;90,89,80,81;,
 4;91,90,81,82;,
 4;92,91,82,83;,
 4;93,92,83,84;,
 4;94,93,84,85;,
 4;95,96,87,86;,
 4;97,95,86,88;,
 4;98,97,88,89;,
 4;99,98,89,90;,
 4;100,99,90,91;,
 4;101,100,91,92;,
 4;102,101,92,93;,
 4;103,102,93,94;,
 4;104,105,96,95;,
 4;106,104,95,97;,
 4;107,106,97,98;,
 4;108,107,98,99;,
 4;109,108,99,100;,
 4;110,109,100,101;,
 4;111,110,101,102;,
 4;112,111,102,103;,
 3;113,108,109;,
 3;114,110,111;,
 3;115,107,108;,
 3;116,111,112;,
 3;117,106,107;,
 3;113,112,104;,
 3;118,104,106;,
 3;119,109,110;,
 3;120,121,122;,
 3;123,124,121;,
 3;125,126,124;,
 3;127,128,126;,
 3;129,130,128;,
 3;131,132,130;,
 3;133,134,132;,
 3;135,136,134;,
 3;137,138,139;,
 3;140,139,141;,
 3;142,141,143;,
 3;144,143,145;,
 3;146,145,147;,
 3;148,147,149;,
 3;150,149,151;,
 3;152,151,153;,
 4;154,155,122,121;,
 4;156,157,139,138;,
 4;158,154,121,124;,
 4;157,159,141,139;,
 4;160,158,124,126;,
 4;159,161,143,141;,
 4;162,160,126,128;,
 4;161,163,145,143;,
 4;164,162,128,130;,
 4;163,165,147,145;,
 4;166,164,130,132;,
 4;165,167,149,147;,
 4;168,166,132,134;,
 4;167,169,151,149;,
 4;170,168,134,136;,
 4;169,171,153,151;,
 4;172,173,155,154;,
 4;174,175,157,156;,
 4;176,172,154,158;,
 4;175,177,159,157;,
 4;178,176,158,160;,
 4;177,179,161,159;,
 4;180,178,160,162;,
 4;179,181,163,161;,
 4;182,180,162,164;,
 4;181,183,165,163;,
 4;184,182,164,166;,
 4;183,185,167,165;,
 4;186,184,166,168;,
 4;185,187,169,167;,
 4;188,186,168,170;,
 4;187,189,171,169;,
 4;190,191,173,172;,
 4;192,193,175,174;,
 4;194,190,172,176;,
 4;193,195,177,175;,
 4;196,194,176,178;,
 4;195,197,179,177;,
 4;198,196,178,180;,
 4;197,199,181,179;,
 4;200,198,180,182;,
 4;199,201,183,181;,
 4;202,200,182,184;,
 4;201,203,185,183;,
 4;204,202,184,186;,
 4;203,205,187,185;,
 4;206,204,186,188;,
 4;205,207,189,187;,
 4;208,209,191,190;,
 4;210,211,193,192;,
 4;212,208,190,194;,
 4;211,213,195,193;,
 4;214,212,194,196;,
 4;213,215,197,195;,
 4;216,214,196,198;,
 4;215,217,199,197;,
 4;218,216,198,200;,
 4;217,219,201,199;,
 4;220,218,200,202;,
 4;219,221,203,201;,
 4;222,220,202,204;,
 4;221,223,205,203;,
 4;224,222,204,206;,
 4;223,225,207,205;,
 4;226,227,209,208;,
 4;228,229,211,210;,
 4;230,226,208,212;,
 4;229,231,213,211;,
 4;232,230,212,214;,
 4;231,233,215,213;,
 4;234,232,214,216;,
 4;233,235,217,215;,
 4;236,234,216,218;,
 4;235,237,219,217;,
 4;238,236,218,220;,
 4;237,239,221,219;,
 4;240,238,220,222;,
 4;239,241,223,221;,
 4;242,240,222,224;,
 4;241,243,225,223;,
 4;244,245,227,226;,
 4;246,247,229,228;,
 4;248,244,226,230;,
 4;247,249,231,229;,
 4;250,248,230,232;,
 4;249,251,233,231;,
 4;252,250,232,234;,
 4;251,253,235,233;,
 4;254,252,234,236;,
 4;253,255,237,235;,
 4;256,254,236,238;,
 4;255,257,239,237;,
 4;258,256,238,240;,
 4;257,259,241,239;,
 4;260,258,240,242;,
 4;259,261,243,241;,
 4;262,263,245,244;,
 4;264,265,247,246;,
 4;266,262,244,248;,
 4;265,267,249,247;,
 4;268,266,248,250;,
 4;267,269,251,249;,
 4;270,268,250,252;,
 4;269,271,253,251;,
 4;272,270,252,254;,
 4;271,273,255,253;,
 4;274,272,254,256;,
 4;273,275,257,255;,
 4;276,274,256,258;,
 4;275,277,259,257;,
 4;278,276,258,260;,
 4;277,279,261,259;,
 4;280,281,263,262;,
 4;282,283,265,264;,
 4;281,280,283,282;,
 4;284,280,262,266;,
 4;283,285,267,265;,
 4;280,284,285,283;,
 4;286,284,266,268;,
 4;285,287,269,267;,
 4;284,286,287,285;,
 4;288,286,268,270;,
 4;287,289,271,269;,
 4;286,288,289,287;,
 4;290,288,270,272;,
 4;289,291,273,271;,
 4;288,290,291,289;,
 4;292,290,272,274;,
 4;291,293,275,273;,
 4;290,292,293,291;,
 4;294,292,274,276;,
 4;293,295,277,275;,
 4;292,294,295,293;,
 4;296,294,276,278;,
 4;295,297,279,277;,
 4;294,296,297,295;;
 
 MeshMaterialList {
  6;
  248;
  5,
  5,
  5,
  5,
  5,
  5,
  5,
  5,
  5,
  5,
  5,
  5,
  5,
  5,
  5,
  5,
  5,
  5,
  5,
  5,
  5,
  5,
  5,
  5,
  5,
  5,
  5,
  5,
  5,
  5,
  5,
  5,
  5,
  5,
  5,
  5,
  5,
  5,
  5,
  5,
  5,
  5,
  5,
  5,
  5,
  5,
  5,
  5,
  5,
  5,
  5,
  5,
  5,
  5,
  5,
  5,
  5,
  5,
  5,
  5,
  5,
  5,
  5,
  5,
  5,
  5,
  5,
  5,
  5,
  5,
  5,
  5,
  5,
  5,
  5,
  5,
  5,
  5,
  5,
  5,
  5,
  5,
  5,
  5,
  5,
  5,
  5,
  5,
  5,
  5,
  5,
  5,
  5,
  5,
  5,
  5,
  3,
  3,
  3,
  3,
  3,
  3,
  3,
  3,
  3,
  3,
  3,
  3,
  3,
  3,
  3,
  3,
  3,
  3,
  3,
  3,
  3,
  3,
  3,
  3,
  3,
  3,
  3,
  3,
  3,
  3,
  3,
  3,
  3,
  3,
  3,
  3,
  3,
  3,
  3,
  3,
  3,
  3,
  3,
  3,
  3,
  3,
  3,
  3,
  3,
  3,
  3,
  3,
  3,
  3,
  3,
  3,
  3,
  3,
  3,
  3,
  3,
  3,
  3,
  3,
  3,
  3,
  3,
  3,
  3,
  3,
  3,
  3,
  3,
  3,
  3,
  3,
  3,
  3,
  3,
  3,
  3,
  3,
  3,
  3,
  3,
  3,
  3,
  3,
  3,
  3,
  3,
  3,
  3,
  3,
  3,
  3,
  3,
  3,
  3,
  3,
  3,
  3,
  3,
  3,
  3,
  3,
  3,
  3,
  3,
  3,
  3,
  3,
  3,
  3,
  3,
  3,
  3,
  3,
  3,
  3,
  3,
  3,
  3,
  3,
  3,
  3,
  3,
  3,
  3,
  3,
  3,
  3,
  3,
  3,
  3,
  3,
  3,
  3,
  3,
  3,
  3,
  3,
  3,
  3,
  3,
  3,
  3,
  3,
  3,
  3,
  3,
  3;;
  Material {
   0.674400;0.674400;0.674400;1.000000;;
   20.000000;
   0.560000;0.560000;0.560000;;
   0.000000;0.000000;0.000000;;
  }
  Material {
   0.075200;0.075200;0.075200;1.000000;;
   9.000000;
   0.790000;0.790000;0.790000;;
   0.000000;0.000000;0.000000;;
  }
  Material {
   0.571200;0.775200;0.800000;0.510000;;
   5.000000;
   0.530000;0.530000;0.530000;;
   0.035700;0.048450;0.050000;;
  }
  Material {
   0.668000;0.668000;0.668000;0.370000;;
   5.000000;
   0.000000;0.000000;0.000000;;
   0.000000;0.000000;0.000000;;
  }
  Material {
   0.408000;0.106000;0.584000;1.000000;;
   5.000000;
   0.390000;0.390000;0.390000;;
   0.285600;0.074200;0.408800;;
  }
  Material {
   0.000000;0.460800;0.800000;1.000000;;
   5.000000;
   0.000000;0.000000;0.000000;;
   0.000000;0.576000;1.000000;;
  }
 }
 MeshNormals {
  252;
  -0.000000;-0.929833;-0.367982;,
  0.260201;-0.929833;-0.260202;,
  0.367980;-0.929834;-0.000000;,
  0.260201;-0.929833;0.260202;,
  -0.000001;-0.929833;0.367982;,
  -0.260202;-0.929833;0.260201;,
  -0.367982;-0.929833;0.000000;,
  -0.260203;-0.929833;-0.260202;,
  0.000000;-1.000000;-0.000000;,
  -0.000001;-0.658816;-0.752304;,
  0.531956;-0.658818;-0.531959;,
  0.752301;-0.658820;0.000000;,
  0.531956;-0.658819;0.531959;,
  -0.000001;-0.658818;0.752302;,
  -0.531959;-0.658818;0.531958;,
  -0.752303;-0.658817;0.000000;,
  -0.531959;-0.658817;-0.531959;,
  -0.000001;-0.356692;-0.934222;,
  0.660593;-0.356692;-0.660596;,
  0.934222;-0.356692;0.000000;,
  0.660594;-0.356691;0.660596;,
  -0.000001;-0.356689;0.934223;,
  -0.660596;-0.356689;0.660595;,
  -0.934223;-0.356689;0.000000;,
  -0.660595;-0.356690;-0.660595;,
  -0.000001;0.066512;-0.997786;,
  0.705541;0.066513;-0.705541;,
  0.997786;0.066514;0.000000;,
  0.705540;0.066515;0.705541;,
  -0.000001;0.066515;0.997786;,
  -0.705541;0.066512;0.705541;,
  -0.997786;0.066510;0.000000;,
  -0.705542;0.066511;-0.705540;,
  -0.000001;0.216548;-0.976272;,
  0.690329;0.216548;-0.690328;,
  0.976273;0.216546;0.000000;,
  0.690328;0.216546;0.690329;,
  -0.000001;0.216544;0.976273;,
  -0.690330;0.216540;0.690329;,
  -0.976274;0.216537;0.000000;,
  -0.690331;0.216541;-0.690328;,
  0.000002;1.000000;-0.000003;,
  0.000000;1.000000;0.000000;,
  0.000000;0.927445;0.373960;,
  -0.264428;0.927446;0.264429;,
  -0.373958;0.927446;0.000000;,
  -0.264428;0.927446;-0.264429;,
  0.000001;0.927445;-0.373959;,
  0.264429;0.927445;-0.264428;,
  0.373959;0.927445;-0.000000;,
  0.264429;0.927445;0.264429;,
  0.000001;0.595266;0.803529;,
  -0.568179;0.595268;0.568181;,
  -0.803526;0.595269;-0.000000;,
  -0.568179;0.595268;-0.568181;,
  0.000001;0.595266;-0.803528;,
  0.568179;0.595269;-0.568179;,
  0.803526;0.595270;-0.000000;,
  0.568179;0.595267;0.568180;,
  0.000001;0.282728;0.959200;,
  -0.678256;0.282728;0.678258;,
  -0.959200;0.282728;0.000000;,
  -0.678256;0.282728;-0.678258;,
  0.000001;0.282729;-0.959200;,
  0.678256;0.282730;-0.678258;,
  0.959199;0.282731;0.000000;,
  0.678256;0.282730;0.678258;,
  0.000000;-0.054598;0.998508;,
  -0.706051;-0.054601;0.706053;,
  -0.998508;-0.054602;0.000000;,
  -0.706051;-0.054601;-0.706053;,
  0.000000;-0.054598;-0.998508;,
  0.706052;-0.054599;-0.706052;,
  0.998508;-0.054600;-0.000000;,
  0.706052;-0.054599;0.706052;,
  0.000000;-0.193314;0.981137;,
  -0.693768;-0.193317;0.693769;,
  -0.981136;-0.193319;0.000000;,
  -0.693768;-0.193317;-0.693769;,
  0.000000;-0.193314;-0.981137;,
  0.693769;-0.193314;-0.693768;,
  0.981137;-0.193314;-0.000000;,
  0.693769;-0.193314;0.693768;,
  -0.000003;-1.000000;0.000003;,
  0.000000;0.927445;0.373960;,
  -0.264430;0.927445;0.264429;,
  -0.373962;0.927444;0.000000;,
  -0.264430;0.927444;-0.264431;,
  0.000000;0.927444;-0.373963;,
  0.264431;0.927444;-0.264431;,
  0.373964;0.927443;0.000000;,
  0.264431;0.927444;0.264430;,
  -0.000000;-0.929836;-0.367974;,
  0.260198;-0.929836;-0.260197;,
  0.367976;-0.929835;-0.000000;,
  0.260197;-0.929836;0.260198;,
  -0.000000;-0.929835;0.367976;,
  -0.260198;-0.929835;0.260198;,
  -0.367977;-0.929835;0.000000;,
  -0.260198;-0.929836;-0.260197;,
  0.000001;0.595266;0.803529;,
  -0.568182;0.595265;0.568181;,
  -0.803530;0.595264;0.000000;,
  -0.568181;0.595264;-0.568182;,
  0.000001;0.595263;-0.803531;,
  0.568181;0.595264;-0.568182;,
  0.803530;0.595264;0.000000;,
  0.568182;0.595265;0.568180;,
  -0.000001;-0.658824;-0.752297;,
  0.531955;-0.658824;-0.531955;,
  0.752298;-0.658823;0.000000;,
  0.531954;-0.658824;0.531955;,
  -0.000001;-0.658823;0.752298;,
  -0.531955;-0.658823;0.531955;,
  -0.752299;-0.658822;-0.000000;,
  -0.531956;-0.658823;-0.531955;,
  0.000000;0.282727;0.959201;,
  -0.678257;0.282726;0.678257;,
  -0.959201;0.282726;0.000000;,
  -0.678256;0.282726;-0.678259;,
  0.000000;0.282726;-0.959201;,
  0.678257;0.282727;-0.678257;,
  0.959201;0.282726;0.000000;,
  0.678258;0.282726;0.678256;,
  -0.000001;-0.356689;-0.934223;,
  0.660595;-0.356689;-0.660596;,
  0.934223;-0.356689;0.000000;,
  0.660595;-0.356689;0.660597;,
  -0.000001;-0.356688;0.934223;,
  -0.660595;-0.356688;0.660596;,
  -0.934223;-0.356688;-0.000000;,
  -0.660596;-0.356689;-0.660596;,
  0.000001;-0.054603;0.998508;,
  -0.706052;-0.054601;0.706052;,
  -0.998508;-0.054601;0.000000;,
  -0.706051;-0.054601;-0.706053;,
  0.000001;-0.054601;-0.998508;,
  0.706052;-0.054601;-0.706052;,
  0.998508;-0.054601;-0.000000;,
  0.706053;-0.054602;0.706051;,
  -0.000001;0.066515;-0.997785;,
  0.705541;0.066517;-0.705541;,
  0.997785;0.066518;0.000000;,
  0.705540;0.066518;0.705542;,
  -0.000001;0.066517;0.997785;,
  -0.705540;0.066515;0.705541;,
  -0.997786;0.066514;0.000000;,
  -0.705541;0.066514;-0.705540;,
  0.000001;-0.490234;0.871591;,
  -0.616309;-0.490234;0.616307;,
  -0.871591;-0.490233;0.000000;,
  -0.616309;-0.490233;-0.616308;,
  0.000001;-0.490233;-0.871592;,
  0.616309;-0.490232;-0.616309;,
  0.871592;-0.490232;-0.000000;,
  0.616309;-0.490232;0.616308;,
  -0.000000;0.520127;-0.854089;,
  0.603932;0.520128;-0.603932;,
  0.854089;0.520128;-0.000000;,
  0.603931;0.520128;0.603933;,
  -0.000000;0.520126;0.854089;,
  -0.603932;0.520126;0.603933;,
  -0.854091;0.520124;0.000000;,
  -0.603933;0.520126;-0.603932;,
  0.000001;-0.639913;0.768447;,
  -0.543375;-0.639914;0.543373;,
  -0.768447;-0.639913;0.000000;,
  -0.543375;-0.639914;-0.543373;,
  0.000001;-0.639913;-0.768447;,
  0.543375;-0.639912;-0.543375;,
  0.768448;-0.639913;-0.000000;,
  0.543375;-0.639912;0.543375;,
  -0.000000;0.673005;-0.739638;,
  0.523004;0.673004;-0.523003;,
  0.739639;0.673003;-0.000000;,
  0.523004;0.673004;0.523003;,
  -0.000001;0.673004;0.739639;,
  -0.523003;0.673004;0.523003;,
  -0.739638;0.673005;0.000000;,
  -0.523003;0.673005;-0.523003;,
  0.000001;-0.287297;0.957842;,
  -0.677296;-0.287297;0.677297;,
  -0.957842;-0.287295;0.000001;,
  -0.677295;-0.287295;-0.677298;,
  0.000001;-0.287295;-0.957842;,
  0.677295;-0.287297;-0.677298;,
  0.957841;-0.287298;0.000001;,
  0.677295;-0.287298;0.677297;,
  -0.000001;0.310703;-0.950507;,
  0.672111;0.310703;-0.672109;,
  0.950507;0.310702;-0.000000;,
  0.672111;0.310703;0.672109;,
  -0.000001;0.310703;0.950507;,
  -0.672110;0.310702;0.672110;,
  -0.950507;0.310703;0.000000;,
  -0.672110;0.310702;-0.672110;,
  0.000002;0.038740;0.999249;,
  -0.706574;0.038741;0.706578;,
  -0.999249;0.038741;0.000001;,
  -0.706573;0.038740;-0.706579;,
  0.000002;0.038738;-0.999249;,
  0.706574;0.038738;-0.706578;,
  0.999249;0.038739;0.000001;,
  0.706575;0.038739;0.706577;,
  -0.000001;-0.036677;-0.999327;,
  0.706631;-0.036677;-0.706631;,
  0.999327;-0.036677;-0.000000;,
  0.706631;-0.036677;0.706631;,
  -0.000001;-0.036677;0.999327;,
  -0.706631;-0.036677;0.706631;,
  -0.999327;-0.036677;0.000000;,
  -0.706631;-0.036677;-0.706631;,
  0.000003;0.085521;0.996336;,
  -0.704515;0.085521;0.704517;,
  -0.996337;0.085519;0.000000;,
  -0.704515;0.085516;-0.704518;,
  0.000003;0.085514;-0.996337;,
  0.704515;0.085518;-0.704518;,
  0.996336;0.085522;0.000000;,
  0.704515;0.085522;0.704517;,
  -0.000000;-0.085521;-0.996336;,
  0.704514;-0.085523;-0.704518;,
  0.996336;-0.085524;-0.000000;,
  0.704514;-0.085523;0.704518;,
  -0.000000;-0.085521;0.996336;,
  -0.704516;-0.085522;0.704516;,
  -0.996336;-0.085521;0.000000;,
  -0.704516;-0.085522;-0.704516;,
  -0.095604;0.990818;-0.095605;,
  -0.135201;0.990818;-0.000001;,
  -0.095600;0.990819;0.095599;,
  0.000001;0.990818;0.135200;,
  0.095604;0.990818;0.095603;,
  0.000001;0.990817;-0.135210;,
  0.135209;0.990817;-0.000001;,
  0.095609;0.990817;-0.095609;,
  -0.000001;-0.990135;-0.140117;,
  0.099077;-0.990135;-0.099076;,
  0.140118;-0.990135;0.000001;,
  0.099081;-0.990134;0.099083;,
  -0.099082;-0.990134;-0.099080;,
  -0.000001;-0.990133;0.140128;,
  -0.140127;-0.990134;0.000001;,
  -0.099087;-0.990133;0.099087;,
  0.000000;0.996331;-0.085588;,
  0.060519;0.996331;-0.060520;,
  0.085586;0.996331;-0.000000;,
  0.060517;0.996331;0.060517;,
  0.000000;0.996331;0.085582;,
  -0.060517;0.996331;0.060516;,
  -0.085586;0.996331;-0.000000;,
  -0.060519;0.996331;-0.060519;;
  248;
  3;8,0,1;,
  3;8,1,2;,
  3;8,2,3;,
  3;8,3,4;,
  3;8,4,5;,
  3;8,5,6;,
  3;8,6,7;,
  3;8,7,0;,
  4;9,10,1,0;,
  4;10,11,2,1;,
  4;11,12,3,2;,
  4;12,13,4,3;,
  4;13,14,5,4;,
  4;14,15,6,5;,
  4;15,16,7,6;,
  4;16,9,0,7;,
  4;17,18,10,9;,
  4;18,19,11,10;,
  4;19,20,12,11;,
  4;20,21,13,12;,
  4;21,22,14,13;,
  4;22,23,15,14;,
  4;23,24,16,15;,
  4;24,17,9,16;,
  4;25,26,18,17;,
  4;26,27,19,18;,
  4;27,28,20,19;,
  4;28,29,21,20;,
  4;29,30,22,21;,
  4;30,31,23,22;,
  4;31,32,24,23;,
  4;32,25,17,24;,
  4;33,34,26,25;,
  4;34,35,27,26;,
  4;35,36,28,27;,
  4;36,37,29,28;,
  4;37,38,30,29;,
  4;38,39,31,30;,
  4;39,40,32,31;,
  4;40,33,25,32;,
  3;41,228,229;,
  3;41,230,231;,
  3;41,231,232;,
  3;41,233,228;,
  3;41,232,234;,
  3;41,235,233;,
  3;41,234,235;,
  3;41,229,230;,
  3;42,44,43;,
  3;42,45,44;,
  3;42,46,45;,
  3;42,47,46;,
  3;42,48,47;,
  3;42,49,48;,
  3;42,50,49;,
  3;42,43,50;,
  4;52,51,43,44;,
  4;53,52,44,45;,
  4;54,53,45,46;,
  4;55,54,46,47;,
  4;56,55,47,48;,
  4;57,56,48,49;,
  4;58,57,49,50;,
  4;51,58,50,43;,
  4;60,59,51,52;,
  4;61,60,52,53;,
  4;62,61,53,54;,
  4;63,62,54,55;,
  4;64,63,55,56;,
  4;65,64,56,57;,
  4;66,65,57,58;,
  4;59,66,58,51;,
  4;68,67,59,60;,
  4;69,68,60,61;,
  4;70,69,61,62;,
  4;71,70,62,63;,
  4;72,71,63,64;,
  4;73,72,64,65;,
  4;74,73,65,66;,
  4;67,74,66,59;,
  4;76,75,67,68;,
  4;77,76,68,69;,
  4;78,77,69,70;,
  4;79,78,70,71;,
  4;80,79,71,72;,
  4;81,80,72,73;,
  4;82,81,73,74;,
  4;75,82,74,67;,
  3;83,236,237;,
  3;83,238,239;,
  3;83,240,236;,
  3;83,239,241;,
  3;83,242,240;,
  3;83,241,243;,
  3;83,243,242;,
  3;83,237,238;,
  3;42,85,84;,
  3;42,86,85;,
  3;42,87,86;,
  3;42,88,87;,
  3;42,89,88;,
  3;42,90,89;,
  3;42,91,90;,
  3;42,84,91;,
  3;8,92,93;,
  3;8,93,94;,
  3;8,94,95;,
  3;8,95,96;,
  3;8,96,97;,
  3;8,97,98;,
  3;8,98,99;,
  3;8,99,92;,
  4;101,100,84,85;,
  4;108,109,93,92;,
  4;102,101,85,86;,
  4;109,110,94,93;,
  4;103,102,86,87;,
  4;110,111,95,94;,
  4;104,103,87,88;,
  4;111,112,96,95;,
  4;105,104,88,89;,
  4;112,113,97,96;,
  4;106,105,89,90;,
  4;113,114,98,97;,
  4;107,106,90,91;,
  4;114,115,99,98;,
  4;100,107,91,84;,
  4;115,108,92,99;,
  4;117,116,100,101;,
  4;124,125,109,108;,
  4;118,117,101,102;,
  4;125,126,110,109;,
  4;119,118,102,103;,
  4;126,127,111,110;,
  4;120,119,103,104;,
  4;127,128,112,111;,
  4;121,120,104,105;,
  4;128,129,113,112;,
  4;122,121,105,106;,
  4;129,130,114,113;,
  4;123,122,106,107;,
  4;130,131,115,114;,
  4;116,123,107,100;,
  4;131,124,108,115;,
  4;133,132,116,117;,
  4;140,141,125,124;,
  4;134,133,117,118;,
  4;141,142,126,125;,
  4;135,134,118,119;,
  4;142,143,127,126;,
  4;136,135,119,120;,
  4;143,144,128,127;,
  4;137,136,120,121;,
  4;144,145,129,128;,
  4;138,137,121,122;,
  4;145,146,130,129;,
  4;139,138,122,123;,
  4;146,147,131,130;,
  4;132,139,123,116;,
  4;147,140,124,131;,
  4;149,148,132,133;,
  4;156,157,141,140;,
  4;150,149,133,134;,
  4;157,158,142,141;,
  4;151,150,134,135;,
  4;158,159,143,142;,
  4;152,151,135,136;,
  4;159,160,144,143;,
  4;153,152,136,137;,
  4;160,161,145,144;,
  4;154,153,137,138;,
  4;161,162,146,145;,
  4;155,154,138,139;,
  4;162,163,147,146;,
  4;148,155,139,132;,
  4;163,156,140,147;,
  4;165,164,148,149;,
  4;172,173,157,156;,
  4;166,165,149,150;,
  4;173,174,158,157;,
  4;167,166,150,151;,
  4;174,175,159,158;,
  4;168,167,151,152;,
  4;175,176,160,159;,
  4;169,168,152,153;,
  4;176,177,161,160;,
  4;170,169,153,154;,
  4;177,178,162,161;,
  4;171,170,154,155;,
  4;178,179,163,162;,
  4;164,171,155,148;,
  4;179,172,156,163;,
  4;181,180,164,165;,
  4;188,189,173,172;,
  4;182,181,165,166;,
  4;189,190,174,173;,
  4;183,182,166,167;,
  4;190,191,175,174;,
  4;184,183,167,168;,
  4;191,192,176,175;,
  4;185,184,168,169;,
  4;192,193,177,176;,
  4;186,185,169,170;,
  4;193,194,178,177;,
  4;187,186,170,171;,
  4;194,195,179,178;,
  4;180,187,171,164;,
  4;195,188,172,179;,
  4;197,196,180,181;,
  4;204,205,189,188;,
  4;198,197,181,182;,
  4;205,206,190,189;,
  4;199,198,182,183;,
  4;206,207,191,190;,
  4;200,199,183,184;,
  4;207,208,192,191;,
  4;201,200,184,185;,
  4;208,209,193,192;,
  4;202,201,185,186;,
  4;209,210,194,193;,
  4;203,202,186,187;,
  4;210,211,195,194;,
  4;196,203,187,180;,
  4;211,204,188,195;,
  4;213,212,196,197;,
  4;220,221,205,204;,
  4;244,245,245,244;,
  4;214,213,197,198;,
  4;221,222,206,205;,
  4;245,246,246,245;,
  4;215,214,198,199;,
  4;222,223,207,206;,
  4;246,247,247,246;,
  4;216,215,199,200;,
  4;223,224,208,207;,
  4;247,248,248,247;,
  4;217,216,200,201;,
  4;224,225,209,208;,
  4;248,249,249,248;,
  4;218,217,201,202;,
  4;225,226,210,209;,
  4;249,250,250,249;,
  4;219,218,202,203;,
  4;226,227,211,210;,
  4;250,251,251,250;,
  4;212,219,203,196;,
  4;227,220,204,211;,
  4;251,244,244,251;;
 }
 MeshTextureCoords {
  298;
  0.062500;1.000000;,
  0.000000;1.000000;,
  0.125000;1.000000;,
  0.187500;1.000000;,
  0.250000;1.000000;,
  0.312500;1.000000;,
  0.375000;1.000000;,
  0.437500;1.000000;,
  0.500000;1.000000;,
  0.562500;1.000000;,
  0.625000;1.000000;,
  0.687500;1.000000;,
  0.750000;1.000000;,
  0.812500;1.000000;,
  0.875000;1.000000;,
  0.937500;1.000000;,
  1.000000;1.000000;,
  0.000000;1.000000;,
  0.125000;1.000000;,
  0.250000;1.000000;,
  0.375000;1.000000;,
  0.500000;1.000000;,
  0.625000;1.000000;,
  0.750000;1.000000;,
  0.875000;1.000000;,
  1.000000;1.000000;,
  0.000000;1.000000;,
  0.125000;1.000000;,
  0.250000;1.000000;,
  0.375000;1.000000;,
  0.500000;1.000000;,
  0.625000;1.000000;,
  0.750000;1.000000;,
  0.875000;1.000000;,
  1.000000;1.000000;,
  0.000000;1.000000;,
  0.125000;1.000000;,
  0.250000;1.000000;,
  0.375000;1.000000;,
  0.500000;1.000000;,
  0.625000;1.000000;,
  0.750000;1.000000;,
  0.875000;1.000000;,
  1.000000;1.000000;,
  0.000000;1.000000;,
  0.125000;1.000000;,
  0.250000;1.000000;,
  0.375000;1.000000;,
  0.500000;1.000000;,
  0.625000;1.000000;,
  0.750000;1.000000;,
  0.875000;1.000000;,
  1.000000;1.000000;,
  0.812500;1.000000;,
  0.562500;1.000000;,
  0.437500;1.000000;,
  0.312500;1.000000;,
  0.062500;1.000000;,
  0.187500;1.000000;,
  0.687500;1.000000;,
  0.062500;0.000000;,
  0.125000;0.000000;,
  0.000000;0.000000;,
  0.187500;0.000000;,
  0.250000;0.000000;,
  0.312500;0.000000;,
  0.375000;0.000000;,
  0.437500;0.000000;,
  0.500000;0.000000;,
  0.562500;0.000000;,
  0.625000;0.000000;,
  0.687500;0.000000;,
  0.750000;0.000000;,
  0.812500;0.000000;,
  0.875000;0.000000;,
  0.937500;0.000000;,
  1.000000;0.000000;,
  0.125000;0.000000;,
  0.000000;0.000000;,
  0.250000;0.000000;,
  0.375000;0.000000;,
  0.500000;0.000000;,
  0.625000;0.000000;,
  0.750000;0.000000;,
  0.875000;0.000000;,
  1.000000;0.000000;,
  0.125000;0.000000;,
  0.000000;0.000000;,
  0.250000;0.000000;,
  0.375000;0.000000;,
  0.500000;0.000000;,
  0.625000;0.000000;,
  0.750000;0.000000;,
  0.875000;0.000000;,
  1.000000;0.000000;,
  0.125000;0.000000;,
  0.000000;0.000000;,
  0.250000;0.000000;,
  0.375000;0.000000;,
  0.500000;0.000000;,
  0.625000;0.000000;,
  0.750000;0.000000;,
  0.875000;0.000000;,
  1.000000;0.000000;,
  0.125000;0.000000;,
  0.000000;0.000000;,
  0.250000;0.000000;,
  0.375000;0.000000;,
  0.500000;0.000000;,
  0.625000;0.000000;,
  0.750000;0.000000;,
  0.875000;0.000000;,
  1.000000;0.000000;,
  0.562500;0.000000;,
  0.812500;0.000000;,
  0.437500;0.000000;,
  0.937500;0.000000;,
  0.312500;0.000000;,
  0.187500;0.000000;,
  0.687500;0.000000;,
  0.062500;0.000000;,
  0.125000;0.000000;,
  0.000000;0.000000;,
  0.187500;0.000000;,
  0.250000;0.000000;,
  0.312500;0.000000;,
  0.375000;0.000000;,
  0.437500;0.000000;,
  0.500000;0.000000;,
  0.562500;0.000000;,
  0.625000;0.000000;,
  0.687500;0.000000;,
  0.750000;0.000000;,
  0.812500;0.000000;,
  0.875000;0.000000;,
  0.937500;0.000000;,
  1.000000;0.000000;,
  0.062500;1.000000;,
  0.000000;1.000000;,
  0.125000;1.000000;,
  0.187500;1.000000;,
  0.250000;1.000000;,
  0.312500;1.000000;,
  0.375000;1.000000;,
  0.437500;1.000000;,
  0.500000;1.000000;,
  0.562500;1.000000;,
  0.625000;1.000000;,
  0.687500;1.000000;,
  0.750000;1.000000;,
  0.812500;1.000000;,
  0.875000;1.000000;,
  0.937500;1.000000;,
  1.000000;1.000000;,
  0.125000;0.000000;,
  0.000000;0.000000;,
  0.000000;1.000000;,
  0.125000;1.000000;,
  0.250000;0.000000;,
  0.250000;1.000000;,
  0.375000;0.000000;,
  0.375000;1.000000;,
  0.500000;0.000000;,
  0.500000;1.000000;,
  0.625000;0.000000;,
  0.625000;1.000000;,
  0.750000;0.000000;,
  0.750000;1.000000;,
  0.875000;0.000000;,
  0.875000;1.000000;,
  1.000000;0.000000;,
  1.000000;1.000000;,
  0.125000;0.000000;,
  0.000000;0.000000;,
  0.000000;1.000000;,
  0.125000;1.000000;,
  0.250000;0.000000;,
  0.250000;1.000000;,
  0.375000;0.000000;,
  0.375000;1.000000;,
  0.500000;0.000000;,
  0.500000;1.000000;,
  0.625000;0.000000;,
  0.625000;1.000000;,
  0.750000;0.000000;,
  0.750000;1.000000;,
  0.875000;0.000000;,
  0.875000;1.000000;,
  1.000000;0.000000;,
  1.000000;1.000000;,
  0.125000;0.000000;,
  0.000000;0.000000;,
  0.000000;1.000000;,
  0.125000;1.000000;,
  0.250000;0.000000;,
  0.250000;1.000000;,
  0.375000;0.000000;,
  0.375000;1.000000;,
  0.500000;0.000000;,
  0.500000;1.000000;,
  0.625000;0.000000;,
  0.625000;1.000000;,
  0.750000;0.000000;,
  0.750000;1.000000;,
  0.875000;0.000000;,
  0.875000;1.000000;,
  1.000000;0.000000;,
  1.000000;1.000000;,
  0.125000;0.000000;,
  0.000000;0.000000;,
  0.000000;1.000000;,
  0.125000;1.000000;,
  0.250000;0.000000;,
  0.250000;1.000000;,
  0.375000;0.000000;,
  0.375000;1.000000;,
  0.500000;0.000000;,
  0.500000;1.000000;,
  0.625000;0.000000;,
  0.625000;1.000000;,
  0.750000;0.000000;,
  0.750000;1.000000;,
  0.875000;0.000000;,
  0.875000;1.000000;,
  1.000000;0.000000;,
  1.000000;1.000000;,
  0.125000;0.000000;,
  0.000000;0.000000;,
  0.000000;1.000000;,
  0.125000;1.000000;,
  0.250000;0.000000;,
  0.250000;1.000000;,
  0.375000;0.000000;,
  0.375000;1.000000;,
  0.500000;0.000000;,
  0.500000;1.000000;,
  0.625000;0.000000;,
  0.625000;1.000000;,
  0.750000;0.000000;,
  0.750000;1.000000;,
  0.875000;0.000000;,
  0.875000;1.000000;,
  1.000000;0.000000;,
  1.000000;1.000000;,
  0.125000;0.000000;,
  0.000000;0.000000;,
  0.000000;1.000000;,
  0.125000;1.000000;,
  0.250000;0.000000;,
  0.250000;1.000000;,
  0.375000;0.000000;,
  0.375000;1.000000;,
  0.500000;0.000000;,
  0.500000;1.000000;,
  0.625000;0.000000;,
  0.625000;1.000000;,
  0.750000;0.000000;,
  0.750000;1.000000;,
  0.875000;0.000000;,
  0.875000;1.000000;,
  1.000000;0.000000;,
  1.000000;1.000000;,
  0.125000;0.000000;,
  0.000000;0.000000;,
  0.000000;1.000000;,
  0.125000;1.000000;,
  0.250000;0.000000;,
  0.250000;1.000000;,
  0.375000;0.000000;,
  0.375000;1.000000;,
  0.500000;0.000000;,
  0.500000;1.000000;,
  0.625000;0.000000;,
  0.625000;1.000000;,
  0.750000;0.000000;,
  0.750000;1.000000;,
  0.875000;0.000000;,
  0.875000;1.000000;,
  1.000000;0.000000;,
  1.000000;1.000000;,
  0.125000;0.000000;,
  0.000000;0.000000;,
  0.000000;1.000000;,
  0.125000;1.000000;,
  0.250000;0.000000;,
  0.250000;1.000000;,
  0.375000;0.000000;,
  0.375000;1.000000;,
  0.500000;0.000000;,
  0.500000;1.000000;,
  0.625000;0.000000;,
  0.625000;1.000000;,
  0.750000;0.000000;,
  0.750000;1.000000;,
  0.875000;0.000000;,
  0.875000;1.000000;,
  1.000000;0.000000;,
  1.000000;1.000000;;
 }
}
