xof 0302txt 0064
template Header {
 <3D82AB43-62DA-11cf-AB39-0020AF71E433>
 WORD major;
 WORD minor;
 DWORD flags;
}

template Vector {
 <3D82AB5E-62DA-11cf-AB39-0020AF71E433>
 FLOAT x;
 FLOAT y;
 FLOAT z;
}

template Coords2d {
 <F6F23F44-7686-11cf-8F52-0040333594A3>
 FLOAT u;
 FLOAT v;
}

template Matrix4x4 {
 <F6F23F45-7686-11cf-8F52-0040333594A3>
 array FLOAT matrix[16];
}

template ColorRGBA {
 <35FF44E0-6C7C-11cf-8F52-0040333594A3>
 FLOAT red;
 FLOAT green;
 FLOAT blue;
 FLOAT alpha;
}

template ColorRGB {
 <D3E16E81-7835-11cf-8F52-0040333594A3>
 FLOAT red;
 FLOAT green;
 FLOAT blue;
}

template IndexedColor {
 <1630B820-7842-11cf-8F52-0040333594A3>
 DWORD index;
 ColorRGBA indexColor;
}

template Boolean {
 <4885AE61-78E8-11cf-8F52-0040333594A3>
 WORD truefalse;
}

template Boolean2d {
 <4885AE63-78E8-11cf-8F52-0040333594A3>
 Boolean u;
 Boolean v;
}

template MaterialWrap {
 <4885AE60-78E8-11cf-8F52-0040333594A3>
 Boolean u;
 Boolean v;
}

template TextureFilename {
 <A42790E1-7810-11cf-8F52-0040333594A3>
 STRING filename;
}

template Material {
 <3D82AB4D-62DA-11cf-AB39-0020AF71E433>
 ColorRGBA faceColor;
 FLOAT power;
 ColorRGB specularColor;
 ColorRGB emissiveColor;
 [...]
}

template MeshFace {
 <3D82AB5F-62DA-11cf-AB39-0020AF71E433>
 DWORD nFaceVertexIndices;
 array DWORD faceVertexIndices[nFaceVertexIndices];
}

template MeshFaceWraps {
 <4885AE62-78E8-11cf-8F52-0040333594A3>
 DWORD nFaceWrapValues;
 Boolean2d faceWrapValues;
}

template MeshTextureCoords {
 <F6F23F40-7686-11cf-8F52-0040333594A3>
 DWORD nTextureCoords;
 array Coords2d textureCoords[nTextureCoords];
}

template MeshMaterialList {
 <F6F23F42-7686-11cf-8F52-0040333594A3>
 DWORD nMaterials;
 DWORD nFaceIndexes;
 array DWORD faceIndexes[nFaceIndexes];
 [Material]
}

template MeshNormals {
 <F6F23F43-7686-11cf-8F52-0040333594A3>
 DWORD nNormals;
 array Vector normals[nNormals];
 DWORD nFaceNormals;
 array MeshFace faceNormals[nFaceNormals];
}

template MeshVertexColors {
 <1630B821-7842-11cf-8F52-0040333594A3>
 DWORD nVertexColors;
 array IndexedColor vertexColors[nVertexColors];
}

template Mesh {
 <3D82AB44-62DA-11cf-AB39-0020AF71E433>
 DWORD nVertices;
 array Vector vertices[nVertices];
 DWORD nFaces;
 array MeshFace faces[nFaces];
 [...]
}

Header{
1;
0;
1;
}

Mesh {
 404;
 158.24480;16.35290;-54.15355;,
 158.24480;16.35290;54.15355;,
 158.24480;3.47790;54.15355;,
 158.24480;3.47790;-54.15355;,
 -158.24480;16.35290;54.15355;,
 -158.24480;16.35290;-54.15355;,
 -158.24480;3.47790;-54.15355;,
 -158.24480;3.47790;54.15355;,
 -146.32706;16.35290;-54.15355;,
 -146.32706;3.47790;-54.15355;,
 -158.24480;3.47790;-54.15355;,
 -158.24480;16.35290;-54.15355;,
 -146.32706;3.47790;-54.15355;,
 -146.32706;3.47790;54.15355;,
 -158.24480;3.47790;-54.15355;,
 -146.32706;16.35290;54.15355;,
 -158.24480;16.35290;54.15355;,
 -158.24480;3.47790;54.15355;,
 -146.32706;3.47790;54.15355;,
 146.49574;16.35290;-54.15355;,
 158.24480;16.35290;-54.15355;,
 158.24480;3.47790;-54.15355;,
 146.49574;3.47790;-54.15355;,
 146.49574;3.47790;-54.15355;,
 158.24480;3.47790;-54.15355;,
 146.49574;3.47790;54.15355;,
 146.49574;16.35290;54.15355;,
 146.49574;3.47790;54.15355;,
 158.24480;3.47790;54.15355;,
 158.24480;16.35290;54.15355;,
 -79.51775;16.35290;54.15355;,
 -79.51775;16.35290;-54.15355;,
 -146.32706;16.35290;-54.15355;,
 -146.32706;16.35290;54.15355;,
 -79.51775;16.35290;54.15355;,
 -79.51775;3.47790;54.15355;,
 -79.51775;16.35290;-54.15355;,
 -79.51775;3.47790;-54.15355;,
 -79.51775;3.47790;54.15355;,
 -79.51775;3.47790;-54.15355;,
 -71.60650;16.35290;54.15355;,
 -71.60650;3.47790;54.15355;,
 -71.60650;16.35290;-54.15355;,
 -71.60650;3.47790;-54.15355;,
 -71.60650;3.47790;54.15355;,
 -71.60650;3.47790;-54.15355;,
 -5.43140;16.35290;54.15355;,
 -5.43140;16.35290;-54.15355;,
 -71.60650;16.35290;-54.15355;,
 -71.60650;16.35290;54.15355;,
 -5.43140;16.35290;54.15355;,
 -5.43140;3.47790;54.15355;,
 -5.43140;16.35290;-54.15355;,
 -5.43140;3.47790;-54.15355;,
 -5.43140;3.47790;54.15355;,
 -5.43140;3.47790;-54.15355;,
 3.98980;16.35290;54.15355;,
 3.98980;3.47790;54.15355;,
 3.98980;16.35290;-54.15355;,
 3.98980;3.47790;-54.15355;,
 3.98980;3.47790;54.15355;,
 3.98980;3.47790;-54.15355;,
 70.14445;16.35290;54.15355;,
 70.14445;16.35290;-54.15355;,
 3.98980;16.35290;-54.15355;,
 3.98980;16.35290;54.15355;,
 70.14445;16.35290;54.15355;,
 70.14445;3.47790;54.15355;,
 70.14445;16.35290;-54.15355;,
 70.14445;3.47790;-54.15355;,
 70.14445;3.47790;54.15355;,
 70.14445;3.47790;-54.15355;,
 78.85455;16.35290;54.15355;,
 146.49574;16.35290;54.15355;,
 146.49574;16.35290;-54.15355;,
 78.85455;16.35290;-54.15355;,
 78.85455;16.35290;54.15355;,
 78.85455;3.47790;54.15355;,
 78.85455;16.35290;-54.15355;,
 78.85455;3.47790;-54.15355;,
 78.85455;3.47790;54.15355;,
 78.85455;3.47790;-54.15355;,
 -158.24480;335.33551;-54.15355;,
 -146.32706;335.33551;-54.15355;,
 -158.24480;16.35290;-54.15355;,
 -158.24480;335.33551;54.15355;,
 -146.32706;335.33551;54.15355;,
 146.49574;334.94876;54.15355;,
 146.49574;334.94876;-54.15355;,
 158.24480;334.94876;54.15355;,
 158.24480;334.94876;-54.15355;,
 158.24480;16.35290;-54.15355;,
 -71.60650;333.41476;-54.15355;,
 -71.60650;333.41476;54.15355;,
 -79.51775;333.41476;-54.15355;,
 -79.51775;333.41476;54.15355;,
 3.98980;333.41476;-54.15355;,
 3.98980;333.41476;54.15355;,
 -5.43140;333.41476;-54.15355;,
 -5.43140;333.41476;54.15355;,
 78.85455;333.41476;-54.15355;,
 78.85455;333.41476;54.15355;,
 70.14445;333.41476;-54.15355;,
 70.14445;333.41476;54.15355;,
 -155.99146;335.28195;43.98480;,
 148.11646;335.28195;43.98480;,
 148.11646;9.22960;43.98480;,
 -155.99146;9.22960;43.98480;,
 148.11646;335.28195;43.98480;,
 148.11646;335.28195;53.86915;,
 148.11646;9.22960;53.86915;,
 148.11646;9.22960;43.98480;,
 148.11646;335.28195;53.86915;,
 -155.99146;335.28195;53.86915;,
 -155.99146;9.22960;53.86915;,
 148.11646;9.22960;53.86915;,
 -155.99146;335.28195;53.86915;,
 -155.99146;335.28195;43.98480;,
 -155.99146;9.22960;43.98480;,
 -155.99146;9.22960;53.86915;,
 148.11646;335.28195;43.98480;,
 -155.99146;335.28195;43.98480;,
 -155.99146;9.22960;43.98480;,
 148.11646;9.22960;43.98480;,
 -149.05190;90.67120;-50.00000;,
 149.05190;90.67120;-50.00000;,
 149.05190;83.23280;-50.00000;,
 -149.05190;83.23280;-50.00000;,
 149.05190;90.67120;-50.00000;,
 149.05190;90.67120;50.00000;,
 149.05190;83.23280;50.00000;,
 149.05190;83.23280;-50.00000;,
 149.05190;90.67120;50.00000;,
 -149.05190;90.67120;50.00000;,
 -149.05190;83.23280;50.00000;,
 149.05190;83.23280;50.00000;,
 -149.05190;90.67120;50.00000;,
 -149.05190;90.67120;-50.00000;,
 -149.05190;83.23280;-50.00000;,
 -149.05190;83.23280;50.00000;,
 149.05190;90.67120;-50.00000;,
 -149.05190;90.67120;-50.00000;,
 -149.05190;83.23280;-50.00000;,
 149.05190;83.23280;-50.00000;,
 -149.05190;174.77319;-50.00000;,
 149.05190;174.77319;-50.00000;,
 149.05190;167.33475;-50.00000;,
 -149.05190;167.33475;-50.00000;,
 149.05190;174.77319;-50.00000;,
 149.05190;174.77319;50.00000;,
 149.05190;167.33475;50.00000;,
 149.05190;167.33475;-50.00000;,
 149.05190;174.77319;50.00000;,
 -149.05190;174.77319;50.00000;,
 -149.05190;167.33475;50.00000;,
 149.05190;167.33475;50.00000;,
 -149.05190;174.77319;50.00000;,
 -149.05190;174.77319;-50.00000;,
 -149.05190;167.33475;-50.00000;,
 -149.05190;167.33475;50.00000;,
 149.05190;174.77319;-50.00000;,
 -149.05190;174.77319;-50.00000;,
 -149.05190;167.33475;-50.00000;,
 149.05190;167.33475;-50.00000;,
 -149.05190;253.77805;-50.00000;,
 149.05190;253.77805;-50.00000;,
 149.05190;246.33960;-50.00000;,
 -149.05190;246.33960;-50.00000;,
 149.05190;253.77805;-50.00000;,
 149.05190;253.77805;50.00000;,
 149.05190;246.33960;50.00000;,
 149.05190;246.33960;-50.00000;,
 149.05190;253.77805;50.00000;,
 -149.05190;253.77805;50.00000;,
 -149.05190;246.33960;50.00000;,
 149.05190;246.33960;50.00000;,
 -149.05190;253.77805;50.00000;,
 -149.05190;253.77805;-50.00000;,
 -149.05190;246.33960;-50.00000;,
 -149.05190;246.33960;50.00000;,
 149.05190;253.77805;-50.00000;,
 -149.05190;253.77805;-50.00000;,
 -149.05190;246.33960;-50.00000;,
 149.05190;246.33960;-50.00000;,
 -149.05190;335.33145;-50.00000;,
 149.05190;335.33145;-50.00000;,
 149.05190;327.89301;-50.00000;,
 -149.05190;327.89301;-50.00000;,
 149.05190;335.33145;-50.00000;,
 149.05190;335.33145;50.00000;,
 149.05190;327.89301;50.00000;,
 149.05190;327.89301;-50.00000;,
 149.05190;335.33145;50.00000;,
 -149.05190;335.33145;50.00000;,
 -149.05190;327.89301;50.00000;,
 149.05190;327.89301;50.00000;,
 -149.05190;335.33145;50.00000;,
 -149.05190;335.33145;-50.00000;,
 -149.05190;327.89301;-50.00000;,
 -149.05190;327.89301;50.00000;,
 149.05190;335.33145;-50.00000;,
 -149.05190;335.33145;-50.00000;,
 -149.05190;327.89301;-50.00000;,
 149.05190;327.89301;-50.00000;,
 9.29222;65.15000;-45.08590;,
 63.98202;65.15000;-45.08590;,
 63.98202;15.40480;-45.08590;,
 9.29222;15.40480;-45.08590;,
 63.98202;65.15000;-45.08590;,
 63.98202;65.15000;18.43080;,
 63.98202;15.40480;18.43080;,
 63.98202;15.40480;-45.08590;,
 63.98202;65.15000;18.43080;,
 9.29222;65.15000;18.43080;,
 9.29222;15.40480;18.43080;,
 63.98202;15.40480;18.43080;,
 9.29222;65.15000;18.43080;,
 9.29222;65.15000;-45.08590;,
 9.29222;15.40480;-45.08590;,
 9.29222;15.40480;18.43080;,
 63.98202;65.15000;-45.08590;,
 9.29222;65.15000;-45.08590;,
 9.29222;15.40480;-45.08590;,
 63.98202;15.40480;-45.08590;,
 5.43390;70.20995;-48.02200;,
 68.00732;70.20995;-48.02200;,
 68.00732;57.83850;-48.02200;,
 5.43390;57.83850;-48.02200;,
 68.00732;70.20995;-48.02200;,
 68.00732;70.20995;20.08830;,
 68.00732;57.83850;20.08830;,
 68.00732;57.83850;-48.02200;,
 68.00732;70.20995;20.08830;,
 5.43390;70.20995;20.08830;,
 5.43390;57.83850;20.08830;,
 68.00732;57.83850;20.08830;,
 5.43390;70.20995;20.08830;,
 5.43390;70.20995;-48.02200;,
 5.43390;57.83850;-48.02200;,
 5.43390;57.83850;20.08830;,
 68.00732;70.20995;-48.02200;,
 5.43390;70.20995;-48.02200;,
 5.43390;57.83850;-48.02200;,
 68.00732;57.83850;-48.02200;,
 84.78176;223.94620;-45.08590;,
 139.47151;223.94620;-45.08590;,
 139.47151;174.20100;-45.08590;,
 84.78176;174.20100;-45.08590;,
 139.47151;223.94620;-45.08590;,
 139.47151;223.94620;18.43080;,
 139.47151;174.20100;18.43080;,
 139.47151;174.20100;-45.08590;,
 139.47151;223.94620;18.43080;,
 84.78176;223.94620;18.43080;,
 84.78176;174.20100;18.43080;,
 139.47151;174.20100;18.43080;,
 84.78176;223.94620;18.43080;,
 84.78176;223.94620;-45.08590;,
 84.78176;174.20100;-45.08590;,
 84.78176;174.20100;18.43080;,
 139.47151;223.94620;-45.08590;,
 84.78176;223.94620;-45.08590;,
 84.78176;174.20100;-45.08590;,
 139.47151;174.20100;-45.08590;,
 80.92348;229.00615;-48.02200;,
 143.49681;229.00615;-48.02200;,
 143.49681;216.63475;-48.02200;,
 80.92348;216.63475;-48.02200;,
 143.49681;229.00615;-48.02200;,
 143.49681;229.00615;20.08830;,
 143.49681;216.63475;20.08830;,
 143.49681;216.63475;-48.02200;,
 143.49681;229.00615;20.08830;,
 80.92348;229.00615;20.08830;,
 80.92348;216.63475;20.08830;,
 143.49681;216.63475;20.08830;,
 80.92348;229.00615;20.08830;,
 80.92348;229.00615;-48.02200;,
 80.92348;216.63475;-48.02200;,
 80.92348;216.63475;20.08830;,
 143.49681;229.00615;-48.02200;,
 80.92348;229.00615;-48.02200;,
 80.92348;216.63475;-48.02200;,
 143.49681;216.63475;-48.02200;,
 -66.21408;303.16156;-45.08590;,
 -11.52433;303.16156;-45.08590;,
 -11.52433;253.41640;-45.08590;,
 -66.21408;253.41640;-45.08590;,
 -11.52433;303.16156;-45.08590;,
 -11.52433;303.16156;18.43080;,
 -11.52433;253.41640;18.43080;,
 -11.52433;253.41640;-45.08590;,
 -11.52433;303.16156;18.43080;,
 -66.21408;303.16156;18.43080;,
 -66.21408;253.41640;18.43080;,
 -11.52433;253.41640;18.43080;,
 -66.21408;303.16156;18.43080;,
 -66.21408;303.16156;-45.08590;,
 -66.21408;253.41640;-45.08590;,
 -66.21408;253.41640;18.43080;,
 -11.52433;303.16156;-45.08590;,
 -66.21408;303.16156;-45.08590;,
 -66.21408;253.41640;-45.08590;,
 -11.52433;253.41640;-45.08590;,
 -70.07240;308.22156;-48.02200;,
 -7.49903;308.22156;-48.02200;,
 -7.49903;295.85010;-48.02200;,
 -70.07240;295.85010;-48.02200;,
 -7.49903;308.22156;-48.02200;,
 -7.49903;308.22156;20.08830;,
 -7.49903;295.85010;20.08830;,
 -7.49903;295.85010;-48.02200;,
 -7.49903;308.22156;20.08830;,
 -70.07240;308.22156;20.08830;,
 -70.07240;295.85010;20.08830;,
 -7.49903;295.85010;20.08830;,
 -70.07240;308.22156;20.08830;,
 -70.07240;308.22156;-48.02200;,
 -70.07240;295.85010;-48.02200;,
 -70.07240;295.85010;20.08830;,
 -7.49903;308.22156;-48.02200;,
 -70.07240;308.22156;-48.02200;,
 -70.07240;295.85010;-48.02200;,
 -7.49903;295.85010;-48.02200;,
 -140.93723;303.16156;-45.08590;,
 -86.24750;303.16156;-45.08590;,
 -86.24750;253.41640;-45.08590;,
 -140.93723;253.41640;-45.08590;,
 -86.24750;303.16156;-45.08590;,
 -86.24750;303.16156;18.43080;,
 -86.24750;253.41640;18.43080;,
 -86.24750;253.41640;-45.08590;,
 -86.24750;303.16156;18.43080;,
 -140.93723;303.16156;18.43080;,
 -140.93723;253.41640;18.43080;,
 -86.24750;253.41640;18.43080;,
 -140.93723;303.16156;18.43080;,
 -140.93723;303.16156;-45.08590;,
 -140.93723;253.41640;-45.08590;,
 -140.93723;253.41640;18.43080;,
 -86.24750;303.16156;-45.08590;,
 -140.93723;303.16156;-45.08590;,
 -140.93723;253.41640;-45.08590;,
 -86.24750;253.41640;-45.08590;,
 -144.79553;308.22156;-48.02200;,
 -82.22220;308.22156;-48.02200;,
 -82.22220;295.85010;-48.02200;,
 -144.79553;295.85010;-48.02200;,
 -82.22220;308.22156;-48.02200;,
 -82.22220;308.22156;20.08830;,
 -82.22220;295.85010;20.08830;,
 -82.22220;295.85010;-48.02200;,
 -82.22220;308.22156;20.08830;,
 -144.79553;308.22156;20.08830;,
 -144.79553;295.85010;20.08830;,
 -82.22220;295.85010;20.08830;,
 -144.79553;308.22156;20.08830;,
 -144.79553;308.22156;-48.02200;,
 -144.79553;295.85010;-48.02200;,
 -144.79553;295.85010;20.08830;,
 -82.22220;308.22156;-48.02200;,
 -144.79553;308.22156;-48.02200;,
 -144.79553;295.85010;-48.02200;,
 -82.22220;295.85010;-48.02200;,
 -140.47745;141.04961;-45.08590;,
 -85.78772;141.04961;-45.08590;,
 -85.78772;91.30445;-45.08590;,
 -140.47745;91.30445;-45.08590;,
 -85.78772;141.04961;-45.08590;,
 -85.78772;141.04961;18.43080;,
 -85.78772;91.30445;18.43080;,
 -85.78772;91.30445;-45.08590;,
 -85.78772;141.04961;18.43080;,
 -140.47745;141.04961;18.43080;,
 -140.47745;91.30445;18.43080;,
 -85.78772;91.30445;18.43080;,
 -140.47745;141.04961;18.43080;,
 -140.47745;141.04961;-45.08590;,
 -140.47745;91.30445;-45.08590;,
 -140.47745;91.30445;18.43080;,
 -85.78772;141.04961;-45.08590;,
 -140.47745;141.04961;-45.08590;,
 -140.47745;91.30445;-45.08590;,
 -85.78772;91.30445;-45.08590;,
 -144.33572;146.10960;-48.02200;,
 -81.76242;146.10960;-48.02200;,
 -81.76242;133.73814;-48.02200;,
 -144.33572;133.73814;-48.02200;,
 -81.76242;146.10960;-48.02200;,
 -81.76242;146.10960;20.08830;,
 -81.76242;133.73814;20.08830;,
 -81.76242;133.73814;-48.02200;,
 -81.76242;146.10960;20.08830;,
 -144.33572;146.10960;20.08830;,
 -144.33572;133.73814;20.08830;,
 -81.76242;133.73814;20.08830;,
 -144.33572;146.10960;20.08830;,
 -144.33572;146.10960;-48.02200;,
 -144.33572;133.73814;-48.02200;,
 -144.33572;133.73814;20.08830;,
 -81.76242;146.10960;-48.02200;,
 -144.33572;146.10960;-48.02200;,
 -144.33572;133.73814;-48.02200;,
 -81.76242;133.73814;-48.02200;;
 
 148;
 4;0,1,2,3;,
 4;4,5,6,7;,
 4;8,9,10,11;,
 4;12,13,7,14;,
 4;15,16,17,18;,
 4;19,20,21,22;,
 4;23,24,2,25;,
 4;26,27,28,29;,
 4;30,31,32,33;,
 4;34,15,18,35;,
 4;36,37,9,8;,
 4;38,13,12,39;,
 4;40,34,35,41;,
 4;42,43,37,36;,
 4;44,38,39,45;,
 4;46,47,48,49;,
 4;50,40,41,51;,
 4;52,53,43,42;,
 4;54,44,45,55;,
 4;56,50,51,57;,
 4;58,59,53,52;,
 4;60,54,55,61;,
 4;62,63,64,65;,
 4;66,56,57,67;,
 4;68,69,59,58;,
 4;70,60,61,71;,
 4;72,73,74,75;,
 4;76,66,67,77;,
 4;76,77,27,26;,
 4;78,19,22,79;,
 4;78,79,69,68;,
 4;80,70,71,81;,
 4;80,81,23,25;,
 4;82,83,32,84;,
 4;85,82,84,4;,
 4;86,85,4,33;,
 4;83,86,33,32;,
 4;83,82,85,86;,
 4;87,88,74,73;,
 4;89,87,73,1;,
 4;90,89,1,91;,
 4;88,90,91,74;,
 4;88,87,89,90;,
 4;92,93,49,48;,
 4;94,92,48,31;,
 4;95,94,31,30;,
 4;93,95,30,49;,
 4;93,92,94,95;,
 4;96,97,65,64;,
 4;98,96,64,47;,
 4;99,98,47,46;,
 4;97,99,46,65;,
 4;97,96,98,99;,
 4;100,101,72,75;,
 4;102,100,75,63;,
 4;103,102,63,62;,
 4;101,103,62,72;,
 4;101,100,102,103;,
 4;104,105,106,107;,
 4;108,109,110,111;,
 4;112,113,114,115;,
 4;116,117,118,119;,
 4;116,109,120,121;,
 4;122,123,110,119;,
 4;124,125,126,127;,
 4;128,129,130,131;,
 4;132,133,134,135;,
 4;136,137,138,139;,
 4;136,129,140,141;,
 4;142,143,130,139;,
 4;144,145,146,147;,
 4;148,149,150,151;,
 4;152,153,154,155;,
 4;156,157,158,159;,
 4;156,149,160,161;,
 4;162,163,150,159;,
 4;164,165,166,167;,
 4;168,169,170,171;,
 4;172,173,174,175;,
 4;176,177,178,179;,
 4;176,169,180,181;,
 4;182,183,170,179;,
 4;184,185,186,187;,
 4;188,189,190,191;,
 4;192,193,194,195;,
 4;196,197,198,199;,
 4;196,189,200,201;,
 4;202,203,190,199;,
 4;204,205,206,207;,
 4;208,209,210,211;,
 4;212,213,214,215;,
 4;216,217,218,219;,
 4;216,209,220,221;,
 4;222,223,210,219;,
 4;224,225,226,227;,
 4;228,229,230,231;,
 4;232,233,234,235;,
 4;236,237,238,239;,
 4;236,229,240,241;,
 4;242,243,230,239;,
 4;244,245,246,247;,
 4;248,249,250,251;,
 4;252,253,254,255;,
 4;256,257,258,259;,
 4;256,249,260,261;,
 4;262,263,250,259;,
 4;264,265,266,267;,
 4;268,269,270,271;,
 4;272,273,274,275;,
 4;276,277,278,279;,
 4;276,269,280,281;,
 4;282,283,270,279;,
 4;284,285,286,287;,
 4;288,289,290,291;,
 4;292,293,294,295;,
 4;296,297,298,299;,
 4;296,289,300,301;,
 4;302,303,290,299;,
 4;304,305,306,307;,
 4;308,309,310,311;,
 4;312,313,314,315;,
 4;316,317,318,319;,
 4;316,309,320,321;,
 4;322,323,310,319;,
 4;324,325,326,327;,
 4;328,329,330,331;,
 4;332,333,334,335;,
 4;336,337,338,339;,
 4;336,329,340,341;,
 4;342,343,330,339;,
 4;344,345,346,347;,
 4;348,349,350,351;,
 4;352,353,354,355;,
 4;356,357,358,359;,
 4;356,349,360,361;,
 4;362,363,350,359;,
 4;364,365,366,367;,
 4;368,369,370,371;,
 4;372,373,374,375;,
 4;376,377,378,379;,
 4;376,369,380,381;,
 4;382,383,370,379;,
 4;384,385,386,387;,
 4;388,389,390,391;,
 4;392,393,394,395;,
 4;396,397,398,399;,
 4;396,389,400,401;,
 4;402,403,390,399;;
 
 MeshMaterialList {
  3;
  148;
  0,
  0,
  0,
  0,
  0,
  0,
  0,
  0,
  0,
  0,
  0,
  0,
  0,
  0,
  0,
  0,
  0,
  0,
  0,
  0,
  0,
  0,
  0,
  0,
  0,
  0,
  0,
  0,
  0,
  0,
  0,
  0,
  0,
  0,
  0,
  0,
  0,
  0,
  0,
  0,
  0,
  0,
  0,
  0,
  0,
  0,
  0,
  0,
  0,
  0,
  0,
  0,
  0,
  0,
  0,
  0,
  0,
  0,
  0,
  0,
  0,
  0,
  0,
  0,
  0,
  0,
  0,
  0,
  0,
  0,
  0,
  0,
  0,
  0,
  0,
  0,
  0,
  0,
  0,
  0,
  0,
  0,
  0,
  0,
  0,
  0,
  0,
  0,
  1,
  1,
  1,
  1,
  1,
  1,
  1,
  1,
  1,
  1,
  1,
  1,
  1,
  1,
  1,
  1,
  1,
  1,
  1,
  1,
  1,
  1,
  1,
  1,
  2,
  2,
  2,
  2,
  2,
  2,
  2,
  2,
  2,
  2,
  2,
  2,
  1,
  1,
  1,
  1,
  1,
  1,
  1,
  1,
  1,
  1,
  1,
  1,
  2,
  2,
  2,
  2,
  2,
  2,
  2,
  2,
  2,
  2,
  2,
  2;;
  Material {
   0.501600;0.501600;0.501600;1.000000;;
   12.000000;
   0.370000;0.370000;0.370000;;
   0.000000;0.000000;0.000000;;
  }
  Material {
   0.545600;0.452000;0.292000;1.000000;;
   5.000000;
   0.000000;0.000000;0.000000;;
   0.000000;0.000000;0.000000;;
  }
  Material {
   0.715200;0.731200;0.605600;1.000000;;
   5.000000;
   0.000000;0.000000;0.000000;;
   0.000000;0.000000;0.000000;;
  }
 }
 MeshNormals {
  36;
  -1.000000;0.000000;0.000000;,
  1.000000;0.000000;0.000000;,
  0.000000;0.000000;-1.000000;,
  0.000000;0.000000;1.000000;,
  0.000000;-1.000000;-0.000000;,
  0.000000;1.000000;0.000000;,
  0.000000;0.000000;-1.000000;,
  1.000000;0.000000;0.000000;,
  0.000000;0.000000;1.000000;,
  -1.000000;0.000000;0.000000;,
  0.000000;1.000000;0.000000;,
  0.000000;-1.000000;-0.000000;,
  0.000000;0.000000;-1.000000;,
  1.000000;0.000000;0.000000;,
  0.000000;0.000000;1.000000;,
  -1.000000;0.000000;0.000000;,
  0.000000;1.000000;0.000000;,
  0.000000;-1.000000;-0.000000;,
  0.000000;0.000000;-1.000000;,
  1.000000;0.000000;0.000000;,
  0.000000;0.000000;1.000000;,
  -1.000000;0.000000;0.000000;,
  0.000000;1.000000;0.000000;,
  0.000000;-1.000000;-0.000000;,
  0.000000;0.000000;-1.000000;,
  1.000000;0.000000;0.000000;,
  0.000000;0.000000;1.000000;,
  -1.000000;0.000000;0.000000;,
  0.000000;1.000000;0.000000;,
  0.000000;-1.000000;-0.000000;,
  0.000000;0.000000;-1.000000;,
  1.000000;0.000000;0.000000;,
  0.000000;0.000000;1.000000;,
  -1.000000;0.000000;0.000000;,
  0.000000;1.000000;0.000000;,
  0.000000;-1.000000;-0.000000;;
  148;
  4;1,1,1,1;,
  4;0,0,0,0;,
  4;2,2,2,2;,
  4;4,4,4,4;,
  4;3,3,3,3;,
  4;2,2,2,2;,
  4;4,4,4,4;,
  4;3,3,3,3;,
  4;5,5,5,5;,
  4;3,3,3,3;,
  4;2,2,2,2;,
  4;4,4,4,4;,
  4;3,3,3,3;,
  4;2,2,2,2;,
  4;4,4,4,4;,
  4;5,5,5,5;,
  4;3,3,3,3;,
  4;2,2,2,2;,
  4;4,4,4,4;,
  4;3,3,3,3;,
  4;2,2,2,2;,
  4;4,4,4,4;,
  4;5,5,5,5;,
  4;3,3,3,3;,
  4;2,2,2,2;,
  4;4,4,4,4;,
  4;5,5,5,5;,
  4;3,3,3,3;,
  4;3,3,3,3;,
  4;2,2,2,2;,
  4;2,2,2,2;,
  4;4,4,4,4;,
  4;4,4,4,4;,
  4;2,2,2,2;,
  4;0,0,0,0;,
  4;3,3,3,3;,
  4;1,1,1,1;,
  4;5,5,5,5;,
  4;0,0,0,0;,
  4;3,3,3,3;,
  4;1,1,1,1;,
  4;2,2,2,2;,
  4;5,5,5,5;,
  4;1,1,1,1;,
  4;2,2,2,2;,
  4;0,0,0,0;,
  4;3,3,3,3;,
  4;5,5,5,5;,
  4;1,1,1,1;,
  4;2,2,2,2;,
  4;0,0,0,0;,
  4;3,3,3,3;,
  4;5,5,5,5;,
  4;1,1,1,1;,
  4;2,2,2,2;,
  4;0,0,0,0;,
  4;3,3,3,3;,
  4;5,5,5,5;,
  4;2,2,2,2;,
  4;1,1,1,1;,
  4;3,3,3,3;,
  4;0,0,0,0;,
  4;5,5,5,5;,
  4;4,4,4,4;,
  4;2,2,2,2;,
  4;1,1,1,1;,
  4;3,3,3,3;,
  4;0,0,0,0;,
  4;5,5,5,5;,
  4;4,4,4,4;,
  4;2,2,2,2;,
  4;1,1,1,1;,
  4;3,3,3,3;,
  4;0,0,0,0;,
  4;5,5,5,5;,
  4;4,4,4,4;,
  4;2,2,2,2;,
  4;1,1,1,1;,
  4;3,3,3,3;,
  4;0,0,0,0;,
  4;5,5,5,5;,
  4;4,4,4,4;,
  4;2,2,2,2;,
  4;1,1,1,1;,
  4;3,3,3,3;,
  4;0,0,0,0;,
  4;5,5,5,5;,
  4;4,4,4,4;,
  4;6,6,6,6;,
  4;7,7,7,7;,
  4;8,8,8,8;,
  4;9,9,9,9;,
  4;10,10,10,10;,
  4;11,11,11,11;,
  4;6,6,6,6;,
  4;7,7,7,7;,
  4;8,8,8,8;,
  4;9,9,9,9;,
  4;10,10,10,10;,
  4;11,11,11,11;,
  4;12,12,12,12;,
  4;13,13,13,13;,
  4;14,14,14,14;,
  4;15,15,15,15;,
  4;16,16,16,16;,
  4;17,17,17,17;,
  4;12,12,12,12;,
  4;13,13,13,13;,
  4;14,14,14,14;,
  4;15,15,15,15;,
  4;16,16,16,16;,
  4;17,17,17,17;,
  4;18,18,18,18;,
  4;19,19,19,19;,
  4;20,20,20,20;,
  4;21,21,21,21;,
  4;22,22,22,22;,
  4;23,23,23,23;,
  4;18,18,18,18;,
  4;19,19,19,19;,
  4;20,20,20,20;,
  4;21,21,21,21;,
  4;22,22,22,22;,
  4;23,23,23,23;,
  4;24,24,24,24;,
  4;25,25,25,25;,
  4;26,26,26,26;,
  4;27,27,27,27;,
  4;28,28,28,28;,
  4;29,29,29,29;,
  4;24,24,24,24;,
  4;25,25,25,25;,
  4;26,26,26,26;,
  4;27,27,27,27;,
  4;28,28,28,28;,
  4;29,29,29,29;,
  4;30,30,30,30;,
  4;31,31,31,31;,
  4;32,32,32,32;,
  4;33,33,33,33;,
  4;34,34,34,34;,
  4;35,35,35,35;,
  4;30,30,30,30;,
  4;31,31,31,31;,
  4;32,32,32,32;,
  4;33,33,33,33;,
  4;34,34,34,34;,
  4;35,35,35,35;;
 }
 MeshTextureCoords {
  404;
  0.000000;0.000000;,
  1.000000;0.000000;,
  1.000000;1.000000;,
  0.000000;1.000000;,
  0.000000;0.000000;,
  1.000000;0.000000;,
  1.000000;1.000000;,
  0.000000;1.000000;,
  0.037660;0.000000;,
  0.037660;1.000000;,
  0.000000;1.000000;,
  0.000000;0.000000;,
  0.037660;0.000000;,
  0.037660;1.000000;,
  0.000000;0.000000;,
  0.962340;0.000000;,
  1.000000;0.000000;,
  1.000000;1.000000;,
  0.962340;1.000000;,
  0.962880;0.000000;,
  1.000000;0.000000;,
  1.000000;1.000000;,
  0.962880;1.000000;,
  0.962880;0.000000;,
  1.000000;0.000000;,
  0.962880;1.000000;,
  0.037120;0.000000;,
  0.037120;1.000000;,
  0.000000;1.000000;,
  0.000000;0.000000;,
  0.248750;0.000000;,
  0.248750;1.000000;,
  0.037660;1.000000;,
  0.037660;0.000000;,
  0.751250;0.000000;,
  0.751250;1.000000;,
  0.248750;0.000000;,
  0.248750;1.000000;,
  0.248750;1.000000;,
  0.248750;0.000000;,
  0.730730;0.000000;,
  0.730730;1.000000;,
  0.269270;0.000000;,
  0.269270;1.000000;,
  0.269270;1.000000;,
  0.269270;0.000000;,
  0.482840;0.000000;,
  0.482840;1.000000;,
  0.269270;1.000000;,
  0.269270;0.000000;,
  0.517160;0.000000;,
  0.517160;1.000000;,
  0.482840;0.000000;,
  0.482840;1.000000;,
  0.482840;1.000000;,
  0.482840;0.000000;,
  0.487390;0.000000;,
  0.487390;1.000000;,
  0.512610;0.000000;,
  0.512610;1.000000;,
  0.512610;1.000000;,
  0.512610;0.000000;,
  0.721630;0.000000;,
  0.721630;1.000000;,
  0.512610;1.000000;,
  0.512610;0.000000;,
  0.278370;0.000000;,
  0.278370;1.000000;,
  0.721630;0.000000;,
  0.721630;1.000000;,
  0.721630;1.000000;,
  0.721630;0.000000;,
  0.749150;0.000000;,
  0.962880;0.000000;,
  0.962880;1.000000;,
  0.749150;1.000000;,
  0.250850;0.000000;,
  0.250850;1.000000;,
  0.749150;0.000000;,
  0.749150;1.000000;,
  0.749150;1.000000;,
  0.749150;0.000000;,
  0.000000;1.000000;,
  0.037660;1.000000;,
  0.000000;1.000000;,
  0.000000;0.000000;,
  0.037660;0.000000;,
  0.962880;0.000000;,
  0.962880;1.000000;,
  1.000000;0.000000;,
  1.000000;1.000000;,
  1.000000;1.000000;,
  0.269270;1.000000;,
  0.269270;0.000000;,
  0.248750;1.000000;,
  0.248750;0.000000;,
  0.512610;1.000000;,
  0.512610;0.000000;,
  0.482840;1.000000;,
  0.482840;0.000000;,
  0.749150;1.000000;,
  0.749150;0.000000;,
  0.721630;1.000000;,
  0.721630;0.000000;,
  0.000000;0.000000;,
  1.000000;0.000000;,
  1.000000;1.000000;,
  0.000000;1.000000;,
  0.000000;0.000000;,
  1.000000;0.000000;,
  1.000000;1.000000;,
  0.000000;1.000000;,
  0.000000;0.000000;,
  1.000000;0.000000;,
  1.000000;1.000000;,
  0.000000;1.000000;,
  0.000000;0.000000;,
  1.000000;0.000000;,
  1.000000;1.000000;,
  0.000000;1.000000;,
  1.000000;1.000000;,
  0.000000;1.000000;,
  0.000000;0.000000;,
  1.000000;0.000000;,
  0.000000;0.000000;,
  1.000000;0.000000;,
  1.000000;1.000000;,
  0.000000;1.000000;,
  0.000000;0.000000;,
  1.000000;0.000000;,
  1.000000;1.000000;,
  0.000000;1.000000;,
  0.000000;0.000000;,
  1.000000;0.000000;,
  1.000000;1.000000;,
  0.000000;1.000000;,
  0.000000;0.000000;,
  1.000000;0.000000;,
  1.000000;1.000000;,
  0.000000;1.000000;,
  1.000000;1.000000;,
  0.000000;1.000000;,
  0.000000;0.000000;,
  1.000000;0.000000;,
  0.000000;0.000000;,
  1.000000;0.000000;,
  1.000000;1.000000;,
  0.000000;1.000000;,
  0.000000;0.000000;,
  1.000000;0.000000;,
  1.000000;1.000000;,
  0.000000;1.000000;,
  0.000000;0.000000;,
  1.000000;0.000000;,
  1.000000;1.000000;,
  0.000000;1.000000;,
  0.000000;0.000000;,
  1.000000;0.000000;,
  1.000000;1.000000;,
  0.000000;1.000000;,
  1.000000;1.000000;,
  0.000000;1.000000;,
  0.000000;0.000000;,
  1.000000;0.000000;,
  0.000000;0.000000;,
  1.000000;0.000000;,
  1.000000;1.000000;,
  0.000000;1.000000;,
  0.000000;0.000000;,
  1.000000;0.000000;,
  1.000000;1.000000;,
  0.000000;1.000000;,
  0.000000;0.000000;,
  1.000000;0.000000;,
  1.000000;1.000000;,
  0.000000;1.000000;,
  0.000000;0.000000;,
  1.000000;0.000000;,
  1.000000;1.000000;,
  0.000000;1.000000;,
  1.000000;1.000000;,
  0.000000;1.000000;,
  0.000000;0.000000;,
  1.000000;0.000000;,
  0.000000;0.000000;,
  1.000000;0.000000;,
  1.000000;1.000000;,
  0.000000;1.000000;,
  0.000000;0.000000;,
  1.000000;0.000000;,
  1.000000;1.000000;,
  0.000000;1.000000;,
  0.000000;0.000000;,
  1.000000;0.000000;,
  1.000000;1.000000;,
  0.000000;1.000000;,
  0.000000;0.000000;,
  1.000000;0.000000;,
  1.000000;1.000000;,
  0.000000;1.000000;,
  1.000000;1.000000;,
  0.000000;1.000000;,
  0.000000;0.000000;,
  1.000000;0.000000;,
  0.000000;0.000000;,
  1.000000;0.000000;,
  1.000000;1.000000;,
  0.000000;1.000000;,
  0.000000;0.000000;,
  1.000000;0.000000;,
  1.000000;1.000000;,
  0.000000;1.000000;,
  0.000000;0.000000;,
  1.000000;0.000000;,
  1.000000;1.000000;,
  0.000000;1.000000;,
  0.000000;0.000000;,
  1.000000;0.000000;,
  1.000000;1.000000;,
  0.000000;1.000000;,
  1.000000;1.000000;,
  0.000000;1.000000;,
  0.000000;0.000000;,
  1.000000;0.000000;,
  0.000000;0.000000;,
  1.000000;0.000000;,
  1.000000;1.000000;,
  0.000000;1.000000;,
  0.000000;0.000000;,
  1.000000;0.000000;,
  1.000000;1.000000;,
  0.000000;1.000000;,
  0.000000;0.000000;,
  1.000000;0.000000;,
  1.000000;1.000000;,
  0.000000;1.000000;,
  0.000000;0.000000;,
  1.000000;0.000000;,
  1.000000;1.000000;,
  0.000000;1.000000;,
  1.000000;1.000000;,
  0.000000;1.000000;,
  0.000000;0.000000;,
  1.000000;0.000000;,
  0.000000;0.000000;,
  1.000000;0.000000;,
  1.000000;1.000000;,
  0.000000;1.000000;,
  0.000000;0.000000;,
  1.000000;0.000000;,
  1.000000;1.000000;,
  0.000000;1.000000;,
  0.000000;0.000000;,
  1.000000;0.000000;,
  1.000000;1.000000;,
  0.000000;1.000000;,
  0.000000;0.000000;,
  1.000000;0.000000;,
  1.000000;1.000000;,
  0.000000;1.000000;,
  1.000000;1.000000;,
  0.000000;1.000000;,
  0.000000;0.000000;,
  1.000000;0.000000;,
  0.000000;0.000000;,
  1.000000;0.000000;,
  1.000000;1.000000;,
  0.000000;1.000000;,
  0.000000;0.000000;,
  1.000000;0.000000;,
  1.000000;1.000000;,
  0.000000;1.000000;,
  0.000000;0.000000;,
  1.000000;0.000000;,
  1.000000;1.000000;,
  0.000000;1.000000;,
  0.000000;0.000000;,
  1.000000;0.000000;,
  1.000000;1.000000;,
  0.000000;1.000000;,
  1.000000;1.000000;,
  0.000000;1.000000;,
  0.000000;0.000000;,
  1.000000;0.000000;,
  0.000000;0.000000;,
  1.000000;0.000000;,
  1.000000;1.000000;,
  0.000000;1.000000;,
  0.000000;0.000000;,
  1.000000;0.000000;,
  1.000000;1.000000;,
  0.000000;1.000000;,
  0.000000;0.000000;,
  1.000000;0.000000;,
  1.000000;1.000000;,
  0.000000;1.000000;,
  0.000000;0.000000;,
  1.000000;0.000000;,
  1.000000;1.000000;,
  0.000000;1.000000;,
  1.000000;1.000000;,
  0.000000;1.000000;,
  0.000000;0.000000;,
  1.000000;0.000000;,
  0.000000;0.000000;,
  1.000000;0.000000;,
  1.000000;1.000000;,
  0.000000;1.000000;,
  0.000000;0.000000;,
  1.000000;0.000000;,
  1.000000;1.000000;,
  0.000000;1.000000;,
  0.000000;0.000000;,
  1.000000;0.000000;,
  1.000000;1.000000;,
  0.000000;1.000000;,
  0.000000;0.000000;,
  1.000000;0.000000;,
  1.000000;1.000000;,
  0.000000;1.000000;,
  1.000000;1.000000;,
  0.000000;1.000000;,
  0.000000;0.000000;,
  1.000000;0.000000;,
  0.000000;0.000000;,
  1.000000;0.000000;,
  1.000000;1.000000;,
  0.000000;1.000000;,
  0.000000;0.000000;,
  1.000000;0.000000;,
  1.000000;1.000000;,
  0.000000;1.000000;,
  0.000000;0.000000;,
  1.000000;0.000000;,
  1.000000;1.000000;,
  0.000000;1.000000;,
  0.000000;0.000000;,
  1.000000;0.000000;,
  1.000000;1.000000;,
  0.000000;1.000000;,
  1.000000;1.000000;,
  0.000000;1.000000;,
  0.000000;0.000000;,
  1.000000;0.000000;,
  0.000000;0.000000;,
  1.000000;0.000000;,
  1.000000;1.000000;,
  0.000000;1.000000;,
  0.000000;0.000000;,
  1.000000;0.000000;,
  1.000000;1.000000;,
  0.000000;1.000000;,
  0.000000;0.000000;,
  1.000000;0.000000;,
  1.000000;1.000000;,
  0.000000;1.000000;,
  0.000000;0.000000;,
  1.000000;0.000000;,
  1.000000;1.000000;,
  0.000000;1.000000;,
  1.000000;1.000000;,
  0.000000;1.000000;,
  0.000000;0.000000;,
  1.000000;0.000000;,
  0.000000;0.000000;,
  1.000000;0.000000;,
  1.000000;1.000000;,
  0.000000;1.000000;,
  0.000000;0.000000;,
  1.000000;0.000000;,
  1.000000;1.000000;,
  0.000000;1.000000;,
  0.000000;0.000000;,
  1.000000;0.000000;,
  1.000000;1.000000;,
  0.000000;1.000000;,
  0.000000;0.000000;,
  1.000000;0.000000;,
  1.000000;1.000000;,
  0.000000;1.000000;,
  1.000000;1.000000;,
  0.000000;1.000000;,
  0.000000;0.000000;,
  1.000000;0.000000;,
  0.000000;0.000000;,
  1.000000;0.000000;,
  1.000000;1.000000;,
  0.000000;1.000000;,
  0.000000;0.000000;,
  1.000000;0.000000;,
  1.000000;1.000000;,
  0.000000;1.000000;,
  0.000000;0.000000;,
  1.000000;0.000000;,
  1.000000;1.000000;,
  0.000000;1.000000;,
  0.000000;0.000000;,
  1.000000;0.000000;,
  1.000000;1.000000;,
  0.000000;1.000000;,
  1.000000;1.000000;,
  0.000000;1.000000;,
  0.000000;0.000000;,
  1.000000;0.000000;;
 }
}
