xof 0302txt 0064
template Header {
 <3D82AB43-62DA-11cf-AB39-0020AF71E433>
 WORD major;
 WORD minor;
 DWORD flags;
}

template Vector {
 <3D82AB5E-62DA-11cf-AB39-0020AF71E433>
 FLOAT x;
 FLOAT y;
 FLOAT z;
}

template Coords2d {
 <F6F23F44-7686-11cf-8F52-0040333594A3>
 FLOAT u;
 FLOAT v;
}

template Matrix4x4 {
 <F6F23F45-7686-11cf-8F52-0040333594A3>
 array FLOAT matrix[16];
}

template ColorRGBA {
 <35FF44E0-6C7C-11cf-8F52-0040333594A3>
 FLOAT red;
 FLOAT green;
 FLOAT blue;
 FLOAT alpha;
}

template ColorRGB {
 <D3E16E81-7835-11cf-8F52-0040333594A3>
 FLOAT red;
 FLOAT green;
 FLOAT blue;
}

template IndexedColor {
 <1630B820-7842-11cf-8F52-0040333594A3>
 DWORD index;
 ColorRGBA indexColor;
}

template Boolean {
 <4885AE61-78E8-11cf-8F52-0040333594A3>
 WORD truefalse;
}

template Boolean2d {
 <4885AE63-78E8-11cf-8F52-0040333594A3>
 Boolean u;
 Boolean v;
}

template MaterialWrap {
 <4885AE60-78E8-11cf-8F52-0040333594A3>
 Boolean u;
 Boolean v;
}

template TextureFilename {
 <A42790E1-7810-11cf-8F52-0040333594A3>
 STRING filename;
}

template Material {
 <3D82AB4D-62DA-11cf-AB39-0020AF71E433>
 ColorRGBA faceColor;
 FLOAT power;
 ColorRGB specularColor;
 ColorRGB emissiveColor;
 [...]
}

template MeshFace {
 <3D82AB5F-62DA-11cf-AB39-0020AF71E433>
 DWORD nFaceVertexIndices;
 array DWORD faceVertexIndices[nFaceVertexIndices];
}

template MeshFaceWraps {
 <4885AE62-78E8-11cf-8F52-0040333594A3>
 DWORD nFaceWrapValues;
 Boolean2d faceWrapValues;
}

template MeshTextureCoords {
 <F6F23F40-7686-11cf-8F52-0040333594A3>
 DWORD nTextureCoords;
 array Coords2d textureCoords[nTextureCoords];
}

template MeshMaterialList {
 <F6F23F42-7686-11cf-8F52-0040333594A3>
 DWORD nMaterials;
 DWORD nFaceIndexes;
 array DWORD faceIndexes[nFaceIndexes];
 [Material]
}

template MeshNormals {
 <F6F23F43-7686-11cf-8F52-0040333594A3>
 DWORD nNormals;
 array Vector normals[nNormals];
 DWORD nFaceNormals;
 array MeshFace faceNormals[nFaceNormals];
}

template MeshVertexColors {
 <1630B821-7842-11cf-8F52-0040333594A3>
 DWORD nVertexColors;
 array IndexedColor vertexColors[nVertexColors];
}

template Mesh {
 <3D82AB44-62DA-11cf-AB39-0020AF71E433>
 DWORD nVertices;
 array Vector vertices[nVertices];
 DWORD nFaces;
 array MeshFace faces[nFaces];
 [...]
}

Header{
1;
0;
1;
}

Mesh {
 440;
 -35.74713;164.32698;-64.61235;,
 -10.59852;164.32698;-39.89892;,
 -10.59852;153.67947;-39.89892;,
 -35.74713;153.67947;-64.61235;,
 -10.29084;164.32698;-4.64112;,
 -10.29084;153.67947;-4.64112;,
 -35.00427;164.32698;20.50746;,
 -35.00427;153.67947;20.50746;,
 -70.26207;164.32698;20.81517;,
 -70.26207;153.67947;20.81517;,
 -95.41065;164.32698;-3.89823;,
 -95.41065;153.67947;-3.89823;,
 -95.71836;164.32698;-39.15606;,
 -95.71836;153.67947;-39.15606;,
 -71.00493;164.32698;-64.30464;,
 -71.00493;153.67947;-64.30464;,
 -35.74713;164.32698;-64.61235;,
 -35.74713;153.67947;-64.61235;,
 -35.74713;89.79448;-64.61235;,
 -10.59852;89.79448;-39.89892;,
 -10.59852;79.14697;-39.89892;,
 -35.74713;79.14697;-64.61235;,
 -10.29084;89.79448;-4.64112;,
 -10.29084;79.14697;-4.64112;,
 -35.00427;89.79448;20.50746;,
 -35.00427;79.14697;20.50746;,
 -70.26207;89.79448;20.81517;,
 -70.26207;79.14697;20.81517;,
 -95.41065;89.79448;-3.89823;,
 -95.41065;79.14697;-3.89823;,
 -95.71836;89.79448;-39.15606;,
 -95.71836;79.14697;-39.15606;,
 -71.00493;89.79448;-64.30464;,
 -71.00493;79.14697;-64.30464;,
 -35.74713;89.79448;-64.61235;,
 -35.74713;79.14697;-64.61235;,
 -35.74713;9.93807;-64.61235;,
 -10.59852;9.93807;-39.89892;,
 -10.59852;-0.70941;-39.89892;,
 -35.74713;-0.70941;-64.61235;,
 -10.29084;9.93807;-4.64112;,
 -10.29084;-0.70941;-4.64112;,
 -35.00427;9.93807;20.50746;,
 -35.00427;-0.70941;20.50746;,
 -70.26207;9.93807;20.81517;,
 -70.26207;-0.70941;20.81517;,
 -95.41065;9.93807;-3.89823;,
 -95.41065;-0.70941;-3.89823;,
 -95.71836;9.93807;-39.15606;,
 -95.71836;-0.70941;-39.15606;,
 -71.00493;9.93807;-64.30464;,
 -71.00493;-0.70941;-64.30464;,
 -35.74713;9.93807;-64.61235;,
 -35.74713;-0.70941;-64.61235;,
 -53.00457;164.32698;-21.89859;,
 -53.00457;164.32698;-21.89859;,
 -53.00457;164.32698;-21.89859;,
 -53.00457;164.32698;-21.89859;,
 -53.00457;164.32698;-21.89859;,
 -53.00457;164.32698;-21.89859;,
 -53.00457;164.32698;-21.89859;,
 -53.00457;164.32698;-21.89859;,
 -53.00457;-0.70941;-21.89859;,
 -53.00457;-0.70941;-21.89859;,
 -53.00457;-0.70941;-21.89859;,
 -53.00457;-0.70941;-21.89859;,
 -53.00457;-0.70941;-21.89859;,
 -53.00457;-0.70941;-21.89859;,
 -53.00457;-0.70941;-21.89859;,
 -53.00457;-0.70941;-21.89859;,
 -14.12463;153.67947;-38.40216;,
 -37.18209;153.67947;-61.06071;,
 -37.18209;89.79448;-61.06071;,
 -14.12463;89.79448;-38.40216;,
 -13.84248;153.67947;-6.07608;,
 -13.84248;89.79448;-6.07608;,
 -36.50106;153.67947;16.98135;,
 -36.50106;89.79448;16.98135;,
 -68.82708;153.67947;17.26353;,
 -68.82708;89.79448;17.26353;,
 -91.88469;153.67947;-5.39505;,
 -91.88469;89.79448;-5.39505;,
 -92.16675;153.67947;-37.72110;,
 -92.16675;89.79448;-37.72110;,
 -69.50814;153.67947;-60.77856;,
 -69.50814;89.79448;-60.77856;,
 -37.18209;153.67947;-61.06071;,
 -37.18209;89.79448;-61.06071;,
 -14.12463;79.14697;-38.40216;,
 -37.18209;79.14697;-61.06071;,
 -37.18209;9.93807;-61.06071;,
 -14.12463;9.93807;-38.40216;,
 -13.84248;79.14697;-6.07608;,
 -13.84248;9.93807;-6.07608;,
 -36.50106;79.14697;16.98135;,
 -36.50106;9.93807;16.98135;,
 -68.82708;79.14697;17.26353;,
 -68.82708;9.93807;17.26353;,
 -91.88469;79.14697;-5.39505;,
 -91.88469;9.93807;-5.39505;,
 -92.16675;79.14697;-37.72110;,
 -92.16675;9.93807;-37.72110;,
 -69.50814;79.14697;-60.77856;,
 -69.50814;9.93807;-60.77856;,
 -37.18209;79.14697;-61.06071;,
 -37.18209;9.93807;-61.06071;,
 -77.02573;147.45348;-61.24764;,
 -28.49226;147.45348;-61.24764;,
 -28.49226;96.52440;-61.24764;,
 -77.02573;96.52440;-61.24764;,
 73.26207;164.32698;-64.61235;,
 98.41069;164.32698;-39.89892;,
 98.41069;153.67947;-39.89892;,
 73.26207;153.67947;-64.61235;,
 98.71840;164.32698;-4.64112;,
 98.71840;153.67947;-4.64112;,
 74.00493;164.32698;20.50746;,
 74.00493;153.67947;20.50746;,
 38.74710;164.32698;20.81517;,
 38.74710;153.67947;20.81517;,
 13.59852;164.32698;-3.89823;,
 13.59852;153.67947;-3.89823;,
 13.29084;164.32698;-39.15606;,
 13.29084;153.67947;-39.15606;,
 38.00424;164.32698;-64.30464;,
 38.00424;153.67947;-64.30464;,
 73.26207;164.32698;-64.61235;,
 73.26207;153.67947;-64.61235;,
 73.26207;89.79448;-64.61235;,
 98.41069;89.79448;-39.89892;,
 98.41069;79.14697;-39.89892;,
 73.26207;79.14697;-64.61235;,
 98.71840;89.79448;-4.64112;,
 98.71840;79.14697;-4.64112;,
 74.00493;89.79448;20.50746;,
 74.00493;79.14697;20.50746;,
 38.74710;89.79448;20.81517;,
 38.74710;79.14697;20.81517;,
 13.59852;89.79448;-3.89823;,
 13.59852;79.14697;-3.89823;,
 13.29084;89.79448;-39.15606;,
 13.29084;79.14697;-39.15606;,
 38.00424;89.79448;-64.30464;,
 38.00424;79.14697;-64.30464;,
 73.26207;89.79448;-64.61235;,
 73.26207;79.14697;-64.61235;,
 73.26207;9.93807;-64.61235;,
 98.41069;9.93807;-39.89892;,
 98.41069;-0.70941;-39.89892;,
 73.26207;-0.70941;-64.61235;,
 98.71840;9.93807;-4.64112;,
 98.71840;-0.70941;-4.64112;,
 74.00493;9.93807;20.50746;,
 74.00493;-0.70941;20.50746;,
 38.74710;9.93807;20.81517;,
 38.74710;-0.70941;20.81517;,
 13.59852;9.93807;-3.89823;,
 13.59852;-0.70941;-3.89823;,
 13.29084;9.93807;-39.15606;,
 13.29084;-0.70941;-39.15606;,
 38.00424;9.93807;-64.30464;,
 38.00424;-0.70941;-64.30464;,
 73.26207;9.93807;-64.61235;,
 73.26207;-0.70941;-64.61235;,
 56.00457;164.32698;-21.89859;,
 56.00457;164.32698;-21.89859;,
 56.00457;164.32698;-21.89859;,
 56.00457;164.32698;-21.89859;,
 56.00457;164.32698;-21.89859;,
 56.00457;164.32698;-21.89859;,
 56.00457;164.32698;-21.89859;,
 56.00457;164.32698;-21.89859;,
 56.00457;-0.70941;-21.89859;,
 56.00457;-0.70941;-21.89859;,
 56.00457;-0.70941;-21.89859;,
 56.00457;-0.70941;-21.89859;,
 56.00457;-0.70941;-21.89859;,
 56.00457;-0.70941;-21.89859;,
 56.00457;-0.70941;-21.89859;,
 56.00457;-0.70941;-21.89859;,
 94.88457;153.67947;-38.40216;,
 71.82708;153.67947;-61.06071;,
 71.82708;89.79448;-61.06071;,
 94.88457;89.79448;-38.40216;,
 95.16673;153.67947;-6.07608;,
 95.16673;89.79448;-6.07608;,
 72.50811;153.67947;16.98135;,
 72.50811;89.79448;16.98135;,
 40.18209;153.67947;17.26353;,
 40.18209;89.79448;17.26353;,
 17.12451;153.67947;-5.39505;,
 17.12451;89.79448;-5.39505;,
 16.84245;153.67947;-37.72110;,
 16.84245;89.79448;-37.72110;,
 39.50106;153.67947;-60.77856;,
 39.50106;89.79448;-60.77856;,
 71.82708;153.67947;-61.06071;,
 71.82708;89.79448;-61.06071;,
 94.88457;79.14697;-38.40216;,
 71.82708;79.14697;-61.06071;,
 71.82708;9.93807;-61.06071;,
 94.88457;9.93807;-38.40216;,
 95.16673;79.14697;-6.07608;,
 95.16673;9.93807;-6.07608;,
 72.50811;79.14697;16.98135;,
 72.50811;9.93807;16.98135;,
 40.18209;79.14697;17.26353;,
 40.18209;9.93807;17.26353;,
 17.12451;79.14697;-5.39505;,
 17.12451;9.93807;-5.39505;,
 16.84245;79.14697;-37.72110;,
 16.84245;9.93807;-37.72110;,
 39.50106;79.14697;-60.77856;,
 39.50106;9.93807;-60.77856;,
 71.82708;79.14697;-61.06071;,
 71.82708;9.93807;-61.06071;,
 31.98342;147.45348;-61.24764;,
 80.51692;147.45348;-61.24764;,
 80.51692;96.52440;-61.24764;,
 31.98342;96.52440;-61.24764;,
 -12.88881;164.32698;112.61232;,
 -38.03742;164.32698;87.89895;,
 -38.03742;153.67947;87.89895;,
 -12.88881;153.67947;112.61232;,
 -38.34510;164.32698;52.64109;,
 -38.34510;153.67947;52.64109;,
 -13.63167;164.32698;27.49254;,
 -13.63167;153.67947;27.49254;,
 21.62613;164.32698;27.18486;,
 21.62613;153.67947;27.18486;,
 46.77471;164.32698;51.89829;,
 46.77471;153.67947;51.89829;,
 47.08242;164.32698;87.15606;,
 47.08242;153.67947;87.15606;,
 22.36899;164.32698;112.30464;,
 22.36899;153.67947;112.30464;,
 -12.88881;164.32698;112.61232;,
 -12.88881;153.67947;112.61232;,
 -12.88881;89.79448;112.61232;,
 -38.03742;89.79448;87.89895;,
 -38.03742;79.14697;87.89895;,
 -12.88881;79.14697;112.61232;,
 -38.34510;89.79448;52.64109;,
 -38.34510;79.14697;52.64109;,
 -13.63167;89.79448;27.49254;,
 -13.63167;79.14697;27.49254;,
 21.62613;89.79448;27.18486;,
 21.62613;79.14697;27.18486;,
 46.77471;89.79448;51.89829;,
 46.77471;79.14697;51.89829;,
 47.08242;89.79448;87.15606;,
 47.08242;79.14697;87.15606;,
 22.36899;89.79448;112.30464;,
 22.36899;79.14697;112.30464;,
 -12.88881;89.79448;112.61232;,
 -12.88881;79.14697;112.61232;,
 -12.88881;9.93807;112.61232;,
 -38.03742;9.93807;87.89895;,
 -38.03742;-0.70941;87.89895;,
 -12.88881;-0.70941;112.61232;,
 -38.34510;9.93807;52.64109;,
 -38.34510;-0.70941;52.64109;,
 -13.63167;9.93807;27.49254;,
 -13.63167;-0.70941;27.49254;,
 21.62613;9.93807;27.18486;,
 21.62613;-0.70941;27.18486;,
 46.77471;9.93807;51.89829;,
 46.77471;-0.70941;51.89829;,
 47.08242;9.93807;87.15606;,
 47.08242;-0.70941;87.15606;,
 22.36899;9.93807;112.30464;,
 22.36899;-0.70941;112.30464;,
 -12.88881;9.93807;112.61232;,
 -12.88881;-0.70941;112.61232;,
 4.36866;164.32698;69.89856;,
 4.36866;164.32698;69.89856;,
 4.36866;164.32698;69.89856;,
 4.36866;164.32698;69.89856;,
 4.36866;164.32698;69.89856;,
 4.36866;164.32698;69.89856;,
 4.36866;164.32698;69.89856;,
 4.36866;164.32698;69.89856;,
 4.36866;-0.70941;69.89856;,
 4.36866;-0.70941;69.89856;,
 4.36866;-0.70941;69.89856;,
 4.36866;-0.70941;69.89856;,
 4.36866;-0.70941;69.89856;,
 4.36866;-0.70941;69.89856;,
 4.36866;-0.70941;69.89856;,
 4.36866;-0.70941;69.89856;,
 -34.51131;153.67947;86.40214;,
 -11.45385;153.67947;109.06065;,
 -11.45385;89.79448;109.06065;,
 -34.51131;89.79448;86.40214;,
 -34.79346;153.67947;54.07608;,
 -34.79346;89.79448;54.07608;,
 -12.13488;153.67947;31.01865;,
 -12.13488;89.79448;31.01865;,
 20.19117;153.67947;30.73647;,
 20.19117;89.79448;30.73647;,
 43.24875;153.67947;53.39505;,
 43.24875;89.79448;53.39505;,
 43.53078;153.67947;85.72108;,
 43.53078;89.79448;85.72108;,
 20.87220;153.67947;108.77857;,
 20.87220;89.79448;108.77857;,
 -11.45385;153.67947;109.06065;,
 -11.45385;89.79448;109.06065;,
 -34.51131;79.14697;86.40214;,
 -11.45385;79.14697;109.06065;,
 -11.45385;9.93807;109.06065;,
 -34.51131;9.93807;86.40214;,
 -34.79346;79.14697;54.07608;,
 -34.79346;9.93807;54.07608;,
 -12.13488;79.14697;31.01865;,
 -12.13488;9.93807;31.01865;,
 20.19117;79.14697;30.73647;,
 20.19117;9.93807;30.73647;,
 43.24875;79.14697;53.39505;,
 43.24875;9.93807;53.39505;,
 43.53078;79.14697;85.72108;,
 43.53078;9.93807;85.72108;,
 20.87220;79.14697;108.77857;,
 20.87220;9.93807;108.77857;,
 -11.45385;79.14697;109.06065;,
 -11.45385;9.93807;109.06065;,
 28.38981;147.45348;109.24761;,
 -20.14365;147.45348;109.24761;,
 -20.14365;96.52440;109.24761;,
 28.38981;96.52440;109.24761;,
 21.62613;330.70940;-18.71376;,
 46.77471;330.70940;5.99967;,
 46.77471;320.06196;5.99967;,
 21.62613;320.06196;-18.71376;,
 47.08242;330.70940;41.25747;,
 47.08242;320.06196;41.25747;,
 22.36899;330.70940;66.40608;,
 22.36899;320.06196;66.40608;,
 -12.88881;330.70940;66.71376;,
 -12.88881;320.06196;66.71376;,
 -38.03742;330.70940;42.00033;,
 -38.03742;320.06196;42.00033;,
 -38.34510;330.70940;6.74253;,
 -38.34510;320.06196;6.74253;,
 -13.63167;330.70940;-18.40605;,
 -13.63167;320.06196;-18.40605;,
 21.62613;330.70940;-18.71376;,
 21.62613;320.06196;-18.71376;,
 21.62613;256.17690;-18.71376;,
 46.77471;256.17690;5.99967;,
 46.77471;245.52948;5.99967;,
 21.62613;245.52948;-18.71376;,
 47.08242;256.17690;41.25747;,
 47.08242;245.52948;41.25747;,
 22.36899;256.17690;66.40608;,
 22.36899;245.52948;66.40608;,
 -12.88881;256.17690;66.71376;,
 -12.88881;245.52948;66.71376;,
 -38.03742;256.17690;42.00033;,
 -38.03742;245.52948;42.00033;,
 -38.34510;256.17690;6.74253;,
 -38.34510;245.52948;6.74253;,
 -13.63167;256.17690;-18.40605;,
 -13.63167;245.52948;-18.40605;,
 21.62613;256.17690;-18.71376;,
 21.62613;245.52948;-18.71376;,
 21.62613;176.32058;-18.71376;,
 46.77471;176.32058;5.99967;,
 46.77471;165.67297;5.99967;,
 21.62613;165.67297;-18.71376;,
 47.08242;176.32058;41.25747;,
 47.08242;165.67297;41.25747;,
 22.36899;176.32058;66.40608;,
 22.36899;165.67297;66.40608;,
 -12.88881;176.32058;66.71376;,
 -12.88881;165.67297;66.71376;,
 -38.03742;176.32058;42.00033;,
 -38.03742;165.67297;42.00033;,
 -38.34510;176.32058;6.74253;,
 -38.34510;165.67297;6.74253;,
 -13.63167;176.32058;-18.40605;,
 -13.63167;165.67297;-18.40605;,
 21.62613;176.32058;-18.71376;,
 21.62613;165.67297;-18.71376;,
 4.36866;330.70940;24.00000;,
 4.36866;330.70940;24.00000;,
 4.36866;330.70940;24.00000;,
 4.36866;330.70940;24.00000;,
 4.36866;330.70940;24.00000;,
 4.36866;330.70940;24.00000;,
 4.36866;330.70940;24.00000;,
 4.36866;330.70940;24.00000;,
 4.36866;165.67297;24.00000;,
 4.36866;165.67297;24.00000;,
 4.36866;165.67297;24.00000;,
 4.36866;165.67297;24.00000;,
 4.36866;165.67297;24.00000;,
 4.36866;165.67297;24.00000;,
 4.36866;165.67297;24.00000;,
 4.36866;165.67297;24.00000;,
 43.24860;320.06196;7.49649;,
 20.19117;320.06196;-15.16212;,
 20.19117;256.17690;-15.16212;,
 43.24860;256.17690;7.49649;,
 43.53078;320.06196;39.82254;,
 43.53078;256.17690;39.82254;,
 20.87220;320.06196;62.87994;,
 20.87220;256.17690;62.87994;,
 -11.45385;320.06196;63.16215;,
 -11.45385;256.17690;63.16215;,
 -34.51143;320.06196;40.50354;,
 -34.51143;256.17690;40.50354;,
 -34.79346;320.06196;8.17749;,
 -34.79346;256.17690;8.17749;,
 -12.13488;320.06196;-14.87997;,
 -12.13488;256.17690;-14.87997;,
 20.19117;320.06196;-15.16212;,
 20.19117;256.17690;-15.16212;,
 43.24860;245.52948;7.49649;,
 20.19117;245.52948;-15.16212;,
 20.19117;176.32058;-15.16212;,
 43.24860;176.32058;7.49649;,
 43.53078;245.52948;39.82254;,
 43.53078;176.32058;39.82254;,
 20.87220;245.52948;62.87994;,
 20.87220;176.32058;62.87994;,
 -11.45385;245.52948;63.16215;,
 -11.45385;176.32058;63.16215;,
 -34.51143;245.52948;40.50354;,
 -34.51143;176.32058;40.50354;,
 -34.79346;245.52948;8.17749;,
 -34.79346;176.32058;8.17749;,
 -12.13488;245.52948;-14.87997;,
 -12.13488;176.32058;-14.87997;,
 20.19117;245.52948;-15.16212;,
 20.19117;176.32058;-15.16212;,
 -19.65249;313.83597;-15.34899;,
 28.88097;313.83597;-15.34899;,
 28.88097;262.90674;-15.34899;,
 -19.65249;262.90674;-15.34899;;
 
 356;
 4;0,1,2,3;,
 4;1,4,5,2;,
 4;4,6,7,5;,
 4;6,8,9,7;,
 4;8,10,11,9;,
 4;10,12,13,11;,
 4;12,14,15,13;,
 4;14,16,17,15;,
 4;18,19,20,21;,
 4;19,22,23,20;,
 4;22,24,25,23;,
 4;24,26,27,25;,
 4;26,28,29,27;,
 4;28,30,31,29;,
 4;30,32,33,31;,
 4;32,34,35,33;,
 4;36,37,38,39;,
 4;37,40,41,38;,
 4;40,42,43,41;,
 4;42,44,45,43;,
 4;44,46,47,45;,
 4;46,48,49,47;,
 4;48,50,51,49;,
 4;50,52,53,51;,
 3;54,1,0;,
 3;55,4,1;,
 3;56,6,4;,
 3;57,8,6;,
 3;58,10,8;,
 3;59,12,10;,
 3;60,14,12;,
 3;61,16,14;,
 3;62,39,38;,
 3;63,38,41;,
 3;64,41,43;,
 3;65,43,45;,
 3;66,45,47;,
 3;67,47,49;,
 3;68,49,51;,
 3;69,51,53;,
 4;70,71,3,2;,
 4;72,73,19,18;,
 4;71,70,73,72;,
 4;74,70,2,5;,
 4;73,75,22,19;,
 4;70,74,75,73;,
 4;76,74,5,7;,
 4;75,77,24,22;,
 4;74,76,77,75;,
 4;78,76,7,9;,
 4;77,79,26,24;,
 4;76,78,79,77;,
 4;80,78,9,11;,
 4;79,81,28,26;,
 4;78,80,81,79;,
 4;82,80,11,13;,
 4;81,83,30,28;,
 4;80,82,83,81;,
 4;84,82,13,15;,
 4;83,85,32,30;,
 4;82,84,85,83;,
 4;86,84,15,17;,
 4;85,87,34,32;,
 4;84,86,87,85;,
 4;88,89,21,20;,
 4;90,91,37,36;,
 4;89,88,91,90;,
 4;92,88,20,23;,
 4;91,93,40,37;,
 4;88,92,93,91;,
 4;94,92,23,25;,
 4;93,95,42,40;,
 4;92,94,95,93;,
 4;96,94,25,27;,
 4;95,97,44,42;,
 4;94,96,97,95;,
 4;98,96,27,29;,
 4;97,99,46,44;,
 4;96,98,99,97;,
 4;100,98,29,31;,
 4;99,101,48,46;,
 4;98,100,101,99;,
 4;102,100,31,33;,
 4;101,103,50,48;,
 4;100,102,103,101;,
 4;104,102,33,35;,
 4;103,105,52,50;,
 4;102,104,105,103;,
 4;106,107,108,109;,
 4;110,111,112,113;,
 4;111,114,115,112;,
 4;114,116,117,115;,
 4;116,118,119,117;,
 4;118,120,121,119;,
 4;120,122,123,121;,
 4;122,124,125,123;,
 4;124,126,127,125;,
 4;128,129,130,131;,
 4;129,132,133,130;,
 4;132,134,135,133;,
 4;134,136,137,135;,
 4;136,138,139,137;,
 4;138,140,141,139;,
 4;140,142,143,141;,
 4;142,144,145,143;,
 4;146,147,148,149;,
 4;147,150,151,148;,
 4;150,152,153,151;,
 4;152,154,155,153;,
 4;154,156,157,155;,
 4;156,158,159,157;,
 4;158,160,161,159;,
 4;160,162,163,161;,
 3;164,111,110;,
 3;165,114,111;,
 3;166,116,114;,
 3;167,118,116;,
 3;168,120,118;,
 3;169,122,120;,
 3;170,124,122;,
 3;171,126,124;,
 3;172,149,148;,
 3;173,148,151;,
 3;174,151,153;,
 3;175,153,155;,
 3;176,155,157;,
 3;177,157,159;,
 3;178,159,161;,
 3;179,161,163;,
 4;180,181,113,112;,
 4;182,183,129,128;,
 4;181,180,183,182;,
 4;184,180,112,115;,
 4;183,185,132,129;,
 4;180,184,185,183;,
 4;186,184,115,117;,
 4;185,187,134,132;,
 4;184,186,187,185;,
 4;188,186,117,119;,
 4;187,189,136,134;,
 4;186,188,189,187;,
 4;190,188,119,121;,
 4;189,191,138,136;,
 4;188,190,191,189;,
 4;192,190,121,123;,
 4;191,193,140,138;,
 4;190,192,193,191;,
 4;194,192,123,125;,
 4;193,195,142,140;,
 4;192,194,195,193;,
 4;196,194,125,127;,
 4;195,197,144,142;,
 4;194,196,197,195;,
 4;198,199,131,130;,
 4;200,201,147,146;,
 4;199,198,201,200;,
 4;202,198,130,133;,
 4;201,203,150,147;,
 4;198,202,203,201;,
 4;204,202,133,135;,
 4;203,205,152,150;,
 4;202,204,205,203;,
 4;206,204,135,137;,
 4;205,207,154,152;,
 4;204,206,207,205;,
 4;208,206,137,139;,
 4;207,209,156,154;,
 4;206,208,209,207;,
 4;210,208,139,141;,
 4;209,211,158,156;,
 4;208,210,211,209;,
 4;212,210,141,143;,
 4;211,213,160,158;,
 4;210,212,213,211;,
 4;214,212,143,145;,
 4;213,215,162,160;,
 4;212,214,215,213;,
 4;216,217,218,219;,
 4;220,221,222,223;,
 4;221,224,225,222;,
 4;224,226,227,225;,
 4;226,228,229,227;,
 4;228,230,231,229;,
 4;230,232,233,231;,
 4;232,234,235,233;,
 4;234,236,237,235;,
 4;238,239,240,241;,
 4;239,242,243,240;,
 4;242,244,245,243;,
 4;244,246,247,245;,
 4;246,248,249,247;,
 4;248,250,251,249;,
 4;250,252,253,251;,
 4;252,254,255,253;,
 4;256,257,258,259;,
 4;257,260,261,258;,
 4;260,262,263,261;,
 4;262,264,265,263;,
 4;264,266,267,265;,
 4;266,268,269,267;,
 4;268,270,271,269;,
 4;270,272,273,271;,
 3;274,221,220;,
 3;275,224,221;,
 3;276,226,224;,
 3;277,228,226;,
 3;278,230,228;,
 3;279,232,230;,
 3;280,234,232;,
 3;281,236,234;,
 3;282,259,258;,
 3;283,258,261;,
 3;284,261,263;,
 3;285,263,265;,
 3;286,265,267;,
 3;287,267,269;,
 3;288,269,271;,
 3;289,271,273;,
 4;290,291,223,222;,
 4;292,293,239,238;,
 4;291,290,293,292;,
 4;294,290,222,225;,
 4;293,295,242,239;,
 4;290,294,295,293;,
 4;296,294,225,227;,
 4;295,297,244,242;,
 4;294,296,297,295;,
 4;298,296,227,229;,
 4;297,299,246,244;,
 4;296,298,299,297;,
 4;300,298,229,231;,
 4;299,301,248,246;,
 4;298,300,301,299;,
 4;302,300,231,233;,
 4;301,303,250,248;,
 4;300,302,303,301;,
 4;304,302,233,235;,
 4;303,305,252,250;,
 4;302,304,305,303;,
 4;306,304,235,237;,
 4;305,307,254,252;,
 4;304,306,307,305;,
 4;308,309,241,240;,
 4;310,311,257,256;,
 4;309,308,311,310;,
 4;312,308,240,243;,
 4;311,313,260,257;,
 4;308,312,313,311;,
 4;314,312,243,245;,
 4;313,315,262,260;,
 4;312,314,315,313;,
 4;316,314,245,247;,
 4;315,317,264,262;,
 4;314,316,317,315;,
 4;318,316,247,249;,
 4;317,319,266,264;,
 4;316,318,319,317;,
 4;320,318,249,251;,
 4;319,321,268,266;,
 4;318,320,321,319;,
 4;322,320,251,253;,
 4;321,323,270,268;,
 4;320,322,323,321;,
 4;324,322,253,255;,
 4;323,325,272,270;,
 4;322,324,325,323;,
 4;326,327,328,329;,
 4;330,331,332,333;,
 4;331,334,335,332;,
 4;334,336,337,335;,
 4;336,338,339,337;,
 4;338,340,341,339;,
 4;340,342,343,341;,
 4;342,344,345,343;,
 4;344,346,347,345;,
 4;348,349,350,351;,
 4;349,352,353,350;,
 4;352,354,355,353;,
 4;354,356,357,355;,
 4;356,358,359,357;,
 4;358,360,361,359;,
 4;360,362,363,361;,
 4;362,364,365,363;,
 4;366,367,368,369;,
 4;367,370,371,368;,
 4;370,372,373,371;,
 4;372,374,375,373;,
 4;374,376,377,375;,
 4;376,378,379,377;,
 4;378,380,381,379;,
 4;380,382,383,381;,
 3;384,331,330;,
 3;385,334,331;,
 3;386,336,334;,
 3;387,338,336;,
 3;388,340,338;,
 3;389,342,340;,
 3;390,344,342;,
 3;391,346,344;,
 3;392,369,368;,
 3;393,368,371;,
 3;394,371,373;,
 3;395,373,375;,
 3;396,375,377;,
 3;397,377,379;,
 3;398,379,381;,
 3;399,381,383;,
 4;400,401,333,332;,
 4;402,403,349,348;,
 4;401,400,403,402;,
 4;404,400,332,335;,
 4;403,405,352,349;,
 4;400,404,405,403;,
 4;406,404,335,337;,
 4;405,407,354,352;,
 4;404,406,407,405;,
 4;408,406,337,339;,
 4;407,409,356,354;,
 4;406,408,409,407;,
 4;410,408,339,341;,
 4;409,411,358,356;,
 4;408,410,411,409;,
 4;412,410,341,343;,
 4;411,413,360,358;,
 4;410,412,413,411;,
 4;414,412,343,345;,
 4;413,415,362,360;,
 4;412,414,415,413;,
 4;416,414,345,347;,
 4;415,417,364,362;,
 4;414,416,417,415;,
 4;418,419,351,350;,
 4;420,421,367,366;,
 4;419,418,421,420;,
 4;422,418,350,353;,
 4;421,423,370,367;,
 4;418,422,423,421;,
 4;424,422,353,355;,
 4;423,425,372,370;,
 4;422,424,425,423;,
 4;426,424,355,357;,
 4;425,427,374,372;,
 4;424,426,427,425;,
 4;428,426,357,359;,
 4;427,429,376,374;,
 4;426,428,429,427;,
 4;430,428,359,361;,
 4;429,431,378,376;,
 4;428,430,431,429;,
 4;432,430,361,363;,
 4;431,433,380,378;,
 4;430,432,433,431;,
 4;434,432,363,365;,
 4;433,435,382,380;,
 4;432,434,435,433;,
 4;436,437,438,439;;
 
 MeshMaterialList {
  3;
  356;
  1,
  1,
  1,
  1,
  1,
  1,
  1,
  1,
  1,
  1,
  1,
  1,
  1,
  1,
  1,
  1,
  1,
  1,
  1,
  1,
  1,
  1,
  1,
  1,
  1,
  1,
  1,
  1,
  1,
  1,
  1,
  1,
  1,
  1,
  1,
  1,
  1,
  1,
  1,
  1,
  1,
  1,
  0,
  1,
  1,
  0,
  1,
  1,
  0,
  1,
  1,
  0,
  1,
  1,
  0,
  1,
  1,
  0,
  1,
  1,
  0,
  1,
  1,
  0,
  1,
  1,
  0,
  1,
  1,
  0,
  1,
  1,
  0,
  1,
  1,
  0,
  1,
  1,
  0,
  1,
  1,
  0,
  1,
  1,
  0,
  1,
  1,
  0,
  2,
  1,
  1,
  1,
  1,
  1,
  1,
  1,
  1,
  1,
  1,
  1,
  1,
  1,
  1,
  1,
  1,
  1,
  1,
  1,
  1,
  1,
  1,
  1,
  1,
  1,
  1,
  1,
  1,
  1,
  1,
  1,
  1,
  1,
  1,
  1,
  1,
  1,
  1,
  1,
  1,
  1,
  1,
  0,
  1,
  1,
  0,
  1,
  1,
  0,
  1,
  1,
  0,
  1,
  1,
  0,
  1,
  1,
  0,
  1,
  1,
  0,
  1,
  1,
  0,
  1,
  1,
  0,
  1,
  1,
  0,
  1,
  1,
  0,
  1,
  1,
  0,
  1,
  1,
  0,
  1,
  1,
  0,
  1,
  1,
  0,
  1,
  1,
  0,
  2,
  1,
  1,
  1,
  1,
  1,
  1,
  1,
  1,
  1,
  1,
  1,
  1,
  1,
  1,
  1,
  1,
  1,
  1,
  1,
  1,
  1,
  1,
  1,
  1,
  1,
  1,
  1,
  1,
  1,
  1,
  1,
  1,
  1,
  1,
  1,
  1,
  1,
  1,
  1,
  1,
  1,
  1,
  0,
  1,
  1,
  0,
  1,
  1,
  0,
  1,
  1,
  0,
  1,
  1,
  0,
  1,
  1,
  0,
  1,
  1,
  0,
  1,
  1,
  0,
  1,
  1,
  0,
  1,
  1,
  0,
  1,
  1,
  0,
  1,
  1,
  0,
  1,
  1,
  0,
  1,
  1,
  0,
  1,
  1,
  0,
  1,
  1,
  0,
  2,
  1,
  1,
  1,
  1,
  1,
  1,
  1,
  1,
  1,
  1,
  1,
  1,
  1,
  1,
  1,
  1,
  1,
  1,
  1,
  1,
  1,
  1,
  1,
  1,
  1,
  1,
  1,
  1,
  1,
  1,
  1,
  1,
  1,
  1,
  1,
  1,
  1,
  1,
  1,
  1,
  1,
  1,
  0,
  1,
  1,
  0,
  1,
  1,
  0,
  1,
  1,
  0,
  1,
  1,
  0,
  1,
  1,
  0,
  1,
  1,
  0,
  1,
  1,
  0,
  1,
  1,
  0,
  1,
  1,
  0,
  1,
  1,
  0,
  1,
  1,
  0,
  1,
  1,
  0,
  1,
  1,
  0,
  1,
  1,
  0,
  1,
  1,
  0,
  2;;
  Material {
   0.076110;0.328630;0.076110;1.000000;;
   48.000000;
   0.000000;0.000000;0.000000;;
   0.000000;0.000000;0.000000;;
  }
  Material {
   0.047200;0.376800;0.094400;1.000000;;
   5.000000;
   0.220000;0.220000;0.220000;;
   0.000000;0.000000;0.000000;;
  }
  Material {
   0.800000;0.800000;0.800000;1.000000;;
   5.000000;
   0.000000;0.000000;0.000000;;
   0.000000;0.000000;0.000000;;
   TextureFilename {
    "data/TEXTURE/cyuima-ku.png";
   }
  }
 }
 MeshNormals {
  107;
  0.000000;1.000000;0.000000;,
  0.374606;0.000000;-0.927184;,
  0.920505;0.000000;-0.390731;,
  0.927184;0.000000;0.374607;,
  0.390732;0.000000;0.920505;,
  -0.374606;0.000000;0.927184;,
  -0.920505;0.000000;0.390732;,
  -0.927184;0.000000;-0.374606;,
  -0.390732;0.000000;-0.920505;,
  0.374606;0.000000;-0.927184;,
  0.920505;0.000000;-0.390731;,
  -0.374606;0.000000;0.927184;,
  -0.920505;0.000000;0.390732;,
  -0.927184;0.000000;-0.374606;,
  0.000000;-1.000000;-0.000000;,
  0.000000;0.000000;-1.000000;,
  0.374606;0.000000;-0.927184;,
  0.920505;0.000000;-0.390731;,
  0.927184;0.000000;0.374607;,
  0.390731;0.000000;0.920505;,
  -0.374605;0.000000;0.927185;,
  -0.920505;0.000000;0.390731;,
  -0.927183;0.000000;-0.374608;,
  -0.390731;0.000000;-0.920505;,
  0.374606;0.000000;-0.927184;,
  0.927184;0.000000;0.374607;,
  0.390731;0.000000;0.920505;,
  0.000000;1.000000;0.000000;,
  0.374606;0.000000;-0.927184;,
  0.920505;0.000000;-0.390732;,
  0.927184;0.000000;0.374607;,
  0.390731;0.000000;0.920505;,
  -0.374606;0.000000;0.927184;,
  -0.920505;0.000000;0.390731;,
  -0.927184;0.000000;-0.374606;,
  -0.390732;0.000000;-0.920505;,
  -0.374606;0.000000;0.927184;,
  -0.920505;0.000000;0.390731;,
  -0.927184;0.000000;-0.374606;,
  -0.390732;0.000000;-0.920505;,
  0.000000;-1.000000;-0.000000;,
  0.000000;0.000000;-1.000000;,
  0.374606;0.000000;-0.927184;,
  0.920505;0.000000;-0.390732;,
  0.927184;0.000000;0.374607;,
  0.390731;0.000000;0.920505;,
  -0.374605;0.000000;0.927184;,
  -0.920505;0.000000;0.390731;,
  -0.927183;0.000000;-0.374608;,
  -0.390731;0.000000;-0.920505;,
  0.374606;0.000000;-0.927184;,
  0.920505;0.000000;-0.390732;,
  0.927184;0.000000;0.374607;,
  0.390731;0.000000;0.920505;,
  -0.920505;0.000000;0.390731;,
  0.000000;1.000000;0.000000;,
  -0.374606;0.000000;0.927184;,
  -0.920505;0.000000;0.390732;,
  -0.927184;0.000000;-0.374607;,
  -0.390731;0.000000;-0.920505;,
  0.374607;0.000000;-0.927184;,
  0.920505;0.000000;-0.390732;,
  0.927184;0.000000;0.374606;,
  0.390731;0.000000;0.920505;,
  0.374607;0.000000;-0.927184;,
  0.920505;0.000000;-0.390732;,
  0.000000;-1.000000;-0.000000;,
  0.000000;0.000000;1.000000;,
  -0.374607;0.000000;0.927184;,
  -0.920505;0.000000;0.390732;,
  -0.927184;0.000000;-0.374607;,
  -0.390731;0.000000;-0.920505;,
  0.374605;0.000000;-0.927184;,
  0.920505;0.000000;-0.390730;,
  0.927183;0.000000;0.374608;,
  0.390730;0.000000;0.920505;,
  -0.920505;0.000000;0.390732;,
  -0.390731;0.000000;-0.920505;,
  0.927183;0.000000;0.374608;,
  0.390730;0.000000;0.920505;,
  0.000000;1.000000;0.000000;,
  0.374606;0.000000;-0.927184;,
  0.920505;0.000000;-0.390732;,
  0.927184;0.000000;0.374606;,
  0.390731;0.000000;0.920505;,
  -0.374606;0.000000;0.927184;,
  -0.920505;0.000000;0.390731;,
  -0.927184;0.000000;-0.374607;,
  -0.390731;0.000000;-0.920505;,
  0.927184;0.000000;0.374606;,
  0.390731;0.000000;0.920505;,
  -0.374606;0.000000;0.927184;,
  -0.920505;0.000000;0.390731;,
  -0.927184;0.000000;-0.374607;,
  0.374606;0.000000;-0.927184;,
  0.920505;0.000000;-0.390732;,
  0.390731;0.000000;0.920505;,
  0.000000;-1.000000;-0.000000;,
  0.000000;0.000000;-1.000000;,
  0.374607;0.000000;-0.927184;,
  0.920505;0.000000;-0.390731;,
  0.927184;0.000000;0.374607;,
  0.390731;0.000000;0.920505;,
  -0.374605;0.000000;0.927185;,
  -0.920505;0.000000;0.390730;,
  -0.927183;0.000000;-0.374608;,
  -0.390731;0.000000;-0.920505;;
  356;
  4;1,2,2,1;,
  4;2,3,3,2;,
  4;3,4,4,3;,
  4;4,5,5,4;,
  4;5,6,6,5;,
  4;6,7,7,6;,
  4;7,8,8,7;,
  4;8,1,1,8;,
  4;1,2,2,1;,
  4;2,3,3,2;,
  4;3,4,4,3;,
  4;4,5,5,4;,
  4;5,6,6,5;,
  4;6,7,7,6;,
  4;7,8,8,7;,
  4;8,1,1,8;,
  4;9,10,10,9;,
  4;10,3,3,10;,
  4;3,4,4,3;,
  4;4,11,11,4;,
  4;11,12,12,11;,
  4;12,13,13,12;,
  4;13,8,8,13;,
  4;8,9,9,8;,
  3;0,0,0;,
  3;0,0,0;,
  3;0,0,0;,
  3;0,0,0;,
  3;0,0,0;,
  3;0,0,0;,
  3;0,0,0;,
  3;0,0,0;,
  3;14,14,14;,
  3;14,14,14;,
  3;14,14,14;,
  3;14,14,14;,
  3;14,14,14;,
  3;14,14,14;,
  3;14,14,14;,
  3;14,14,14;,
  4;14,14,14,14;,
  4;0,0,0,0;,
  4;16,17,17,16;,
  4;14,14,14,14;,
  4;0,0,0,0;,
  4;17,18,18,17;,
  4;14,14,14,14;,
  4;0,0,0,0;,
  4;18,19,19,18;,
  4;14,14,14,14;,
  4;0,0,0,0;,
  4;19,20,20,19;,
  4;14,14,14,14;,
  4;0,0,0,0;,
  4;20,21,21,20;,
  4;14,14,14,14;,
  4;0,0,0,0;,
  4;21,22,22,21;,
  4;14,14,14,14;,
  4;0,0,0,0;,
  4;22,23,23,22;,
  4;14,14,14,14;,
  4;0,0,0,0;,
  4;23,16,16,23;,
  4;14,14,14,14;,
  4;0,0,0,0;,
  4;24,17,17,24;,
  4;14,14,14,14;,
  4;0,0,0,0;,
  4;17,25,25,17;,
  4;14,14,14,14;,
  4;0,0,0,0;,
  4;25,26,26,25;,
  4;14,14,14,14;,
  4;0,0,0,0;,
  4;26,20,20,26;,
  4;14,14,14,14;,
  4;0,0,0,0;,
  4;20,21,21,20;,
  4;14,14,14,14;,
  4;0,0,0,0;,
  4;21,22,22,21;,
  4;14,14,14,14;,
  4;0,0,0,0;,
  4;22,23,23,22;,
  4;14,14,14,14;,
  4;0,0,0,0;,
  4;23,24,24,23;,
  4;15,15,15,15;,
  4;28,29,29,28;,
  4;29,30,30,29;,
  4;30,31,31,30;,
  4;31,32,32,31;,
  4;32,33,33,32;,
  4;33,34,34,33;,
  4;34,35,35,34;,
  4;35,28,28,35;,
  4;28,29,29,28;,
  4;29,30,30,29;,
  4;30,31,31,30;,
  4;31,32,32,31;,
  4;32,33,33,32;,
  4;33,34,34,33;,
  4;34,35,35,34;,
  4;35,28,28,35;,
  4;28,29,29,28;,
  4;29,30,30,29;,
  4;30,31,31,30;,
  4;31,36,36,31;,
  4;36,37,37,36;,
  4;37,38,38,37;,
  4;38,39,39,38;,
  4;39,28,28,39;,
  3;27,27,27;,
  3;27,27,27;,
  3;27,27,27;,
  3;27,27,27;,
  3;27,27,27;,
  3;27,27,27;,
  3;27,27,27;,
  3;27,27,27;,
  3;40,40,40;,
  3;40,40,40;,
  3;40,40,40;,
  3;40,40,40;,
  3;40,40,40;,
  3;40,40,40;,
  3;40,40,40;,
  3;40,40,40;,
  4;40,40,40,40;,
  4;27,27,27,27;,
  4;42,43,43,42;,
  4;40,40,40,40;,
  4;27,27,27,27;,
  4;43,44,44,43;,
  4;40,40,40,40;,
  4;27,27,27,27;,
  4;44,45,45,44;,
  4;40,40,40,40;,
  4;27,27,27,27;,
  4;45,46,46,45;,
  4;40,40,40,40;,
  4;27,27,27,27;,
  4;46,47,47,46;,
  4;40,40,40,40;,
  4;27,27,27,27;,
  4;47,48,48,47;,
  4;40,40,40,40;,
  4;27,27,27,27;,
  4;48,49,49,48;,
  4;40,40,40,40;,
  4;27,27,27,27;,
  4;49,42,42,49;,
  4;40,40,40,40;,
  4;27,27,27,27;,
  4;50,51,51,50;,
  4;40,40,40,40;,
  4;27,27,27,27;,
  4;51,52,52,51;,
  4;40,40,40,40;,
  4;27,27,27,27;,
  4;52,53,53,52;,
  4;40,40,40,40;,
  4;27,27,27,27;,
  4;53,46,46,53;,
  4;40,40,40,40;,
  4;27,27,27,27;,
  4;46,54,54,46;,
  4;40,40,40,40;,
  4;27,27,27,27;,
  4;54,48,48,54;,
  4;40,40,40,40;,
  4;27,27,27,27;,
  4;48,49,49,48;,
  4;40,40,40,40;,
  4;27,27,27,27;,
  4;49,50,50,49;,
  4;41,41,41,41;,
  4;56,57,57,56;,
  4;57,58,58,57;,
  4;58,59,59,58;,
  4;59,60,60,59;,
  4;60,61,61,60;,
  4;61,62,62,61;,
  4;62,63,63,62;,
  4;63,56,56,63;,
  4;56,57,57,56;,
  4;57,58,58,57;,
  4;58,59,59,58;,
  4;59,60,60,59;,
  4;60,61,61,60;,
  4;61,62,62,61;,
  4;62,63,63,62;,
  4;63,56,56,63;,
  4;56,57,57,56;,
  4;57,58,58,57;,
  4;58,59,59,58;,
  4;59,64,64,59;,
  4;64,65,65,64;,
  4;65,62,62,65;,
  4;62,63,63,62;,
  4;63,56,56,63;,
  3;55,55,55;,
  3;55,55,55;,
  3;55,55,55;,
  3;55,55,55;,
  3;55,55,55;,
  3;55,55,55;,
  3;55,55,55;,
  3;55,55,55;,
  3;66,66,66;,
  3;66,66,66;,
  3;66,66,66;,
  3;66,66,66;,
  3;66,66,66;,
  3;66,66,66;,
  3;66,66,66;,
  3;66,66,66;,
  4;66,66,66,66;,
  4;55,55,55,55;,
  4;68,69,69,68;,
  4;66,66,66,66;,
  4;55,55,55,55;,
  4;69,70,70,69;,
  4;66,66,66,66;,
  4;55,55,55,55;,
  4;70,71,71,70;,
  4;66,66,66,66;,
  4;55,55,55,55;,
  4;71,72,72,71;,
  4;66,66,66,66;,
  4;55,55,55,55;,
  4;72,73,73,72;,
  4;66,66,66,66;,
  4;55,55,55,55;,
  4;73,74,74,73;,
  4;66,66,66,66;,
  4;55,55,55,55;,
  4;74,75,75,74;,
  4;66,66,66,66;,
  4;55,55,55,55;,
  4;75,68,68,75;,
  4;66,66,66,66;,
  4;55,55,55,55;,
  4;68,76,76,68;,
  4;66,66,66,66;,
  4;55,55,55,55;,
  4;76,70,70,76;,
  4;66,66,66,66;,
  4;55,55,55,55;,
  4;70,77,77,70;,
  4;66,66,66,66;,
  4;55,55,55,55;,
  4;77,72,72,77;,
  4;66,66,66,66;,
  4;55,55,55,55;,
  4;72,73,73,72;,
  4;66,66,66,66;,
  4;55,55,55,55;,
  4;73,78,78,73;,
  4;66,66,66,66;,
  4;55,55,55,55;,
  4;78,79,79,78;,
  4;66,66,66,66;,
  4;55,55,55,55;,
  4;79,68,68,79;,
  4;67,67,67,67;,
  4;81,82,82,81;,
  4;82,83,83,82;,
  4;83,84,84,83;,
  4;84,85,85,84;,
  4;85,86,86,85;,
  4;86,87,87,86;,
  4;87,88,88,87;,
  4;88,81,81,88;,
  4;81,82,82,81;,
  4;82,89,89,82;,
  4;89,90,90,89;,
  4;90,91,91,90;,
  4;91,92,92,91;,
  4;92,93,93,92;,
  4;93,88,88,93;,
  4;88,81,81,88;,
  4;94,95,95,94;,
  4;95,89,89,95;,
  4;89,96,96,89;,
  4;96,85,85,96;,
  4;85,92,92,85;,
  4;92,93,93,92;,
  4;93,88,88,93;,
  4;88,94,94,88;,
  3;80,80,80;,
  3;80,80,80;,
  3;80,80,80;,
  3;80,80,80;,
  3;80,80,80;,
  3;80,80,80;,
  3;80,80,80;,
  3;80,80,80;,
  3;97,97,97;,
  3;97,97,97;,
  3;97,97,97;,
  3;97,97,97;,
  3;97,97,97;,
  3;97,97,97;,
  3;97,97,97;,
  3;97,97,97;,
  4;97,97,97,97;,
  4;80,80,80,80;,
  4;99,100,100,99;,
  4;97,97,97,97;,
  4;80,80,80,80;,
  4;100,101,101,100;,
  4;97,97,97,97;,
  4;80,80,80,80;,
  4;101,102,102,101;,
  4;97,97,97,97;,
  4;80,80,80,80;,
  4;102,103,103,102;,
  4;97,97,97,97;,
  4;80,80,80,80;,
  4;103,104,104,103;,
  4;97,97,97,97;,
  4;80,80,80,80;,
  4;104,105,105,104;,
  4;97,97,97,97;,
  4;80,80,80,80;,
  4;105,106,106,105;,
  4;97,97,97,97;,
  4;80,80,80,80;,
  4;106,99,99,106;,
  4;97,97,97,97;,
  4;80,80,80,80;,
  4;99,100,100,99;,
  4;97,97,97,97;,
  4;80,80,80,80;,
  4;100,101,101,100;,
  4;97,97,97,97;,
  4;80,80,80,80;,
  4;101,102,102,101;,
  4;97,97,97,97;,
  4;80,80,80,80;,
  4;102,103,103,102;,
  4;97,97,97,97;,
  4;80,80,80,80;,
  4;103,104,104,103;,
  4;97,97,97,97;,
  4;80,80,80,80;,
  4;104,105,105,104;,
  4;97,97,97,97;,
  4;80,80,80,80;,
  4;105,106,106,105;,
  4;97,97,97,97;,
  4;80,80,80,80;,
  4;106,99,99,106;,
  4;98,98,98,98;;
 }
 MeshTextureCoords {
  440;
  0.000000;0.000000;,
  0.125000;0.000000;,
  0.125000;0.200000;,
  0.000000;0.200000;,
  0.250000;0.000000;,
  0.250000;0.200000;,
  0.375000;0.000000;,
  0.375000;0.200000;,
  0.500000;0.000000;,
  0.500000;0.200000;,
  0.625000;0.000000;,
  0.625000;0.200000;,
  0.750000;0.000000;,
  0.750000;0.200000;,
  0.875000;0.000000;,
  0.875000;0.200000;,
  1.000000;0.000000;,
  1.000000;0.200000;,
  0.000000;0.400000;,
  0.125000;0.400000;,
  0.125000;0.600000;,
  0.000000;0.600000;,
  0.250000;0.400000;,
  0.250000;0.600000;,
  0.375000;0.400000;,
  0.375000;0.600000;,
  0.500000;0.400000;,
  0.500000;0.600000;,
  0.625000;0.400000;,
  0.625000;0.600000;,
  0.750000;0.400000;,
  0.750000;0.600000;,
  0.875000;0.400000;,
  0.875000;0.600000;,
  1.000000;0.400000;,
  1.000000;0.600000;,
  0.000000;0.800000;,
  0.125000;0.800000;,
  0.125000;1.000000;,
  0.000000;1.000000;,
  0.250000;0.800000;,
  0.250000;1.000000;,
  0.375000;0.800000;,
  0.375000;1.000000;,
  0.500000;0.800000;,
  0.500000;1.000000;,
  0.625000;0.800000;,
  0.625000;1.000000;,
  0.750000;0.800000;,
  0.750000;1.000000;,
  0.875000;0.800000;,
  0.875000;1.000000;,
  1.000000;0.800000;,
  1.000000;1.000000;,
  0.062500;0.000000;,
  0.187500;0.000000;,
  0.312500;0.000000;,
  0.437500;0.000000;,
  0.562500;0.000000;,
  0.687500;0.000000;,
  0.812500;0.000000;,
  0.937500;0.000000;,
  0.062500;1.000000;,
  0.187500;1.000000;,
  0.312500;1.000000;,
  0.437500;1.000000;,
  0.562500;1.000000;,
  0.687500;1.000000;,
  0.812500;1.000000;,
  0.937500;1.000000;,
  0.125000;0.200000;,
  0.000000;0.200000;,
  0.000000;0.400000;,
  0.125000;0.400000;,
  0.250000;0.200000;,
  0.250000;0.400000;,
  0.375000;0.200000;,
  0.375000;0.400000;,
  0.500000;0.200000;,
  0.500000;0.400000;,
  0.625000;0.200000;,
  0.625000;0.400000;,
  0.750000;0.200000;,
  0.750000;0.400000;,
  0.875000;0.200000;,
  0.875000;0.400000;,
  1.000000;0.200000;,
  1.000000;0.400000;,
  0.125000;0.600000;,
  0.000000;0.600000;,
  0.000000;0.800000;,
  0.125000;0.800000;,
  0.250000;0.600000;,
  0.250000;0.800000;,
  0.375000;0.600000;,
  0.375000;0.800000;,
  0.500000;0.600000;,
  0.500000;0.800000;,
  0.625000;0.600000;,
  0.625000;0.800000;,
  0.750000;0.600000;,
  0.750000;0.800000;,
  0.875000;0.600000;,
  0.875000;0.800000;,
  1.000000;0.600000;,
  1.000000;0.800000;,
  0.000000;0.000000;,
  1.000000;0.000000;,
  1.000000;1.000000;,
  0.000000;1.000000;,
  0.000000;0.000000;,
  0.125000;0.000000;,
  0.125000;0.200000;,
  0.000000;0.200000;,
  0.250000;0.000000;,
  0.250000;0.200000;,
  0.375000;0.000000;,
  0.375000;0.200000;,
  0.500000;0.000000;,
  0.500000;0.200000;,
  0.625000;0.000000;,
  0.625000;0.200000;,
  0.750000;0.000000;,
  0.750000;0.200000;,
  0.875000;0.000000;,
  0.875000;0.200000;,
  1.000000;0.000000;,
  1.000000;0.200000;,
  0.000000;0.400000;,
  0.125000;0.400000;,
  0.125000;0.600000;,
  0.000000;0.600000;,
  0.250000;0.400000;,
  0.250000;0.600000;,
  0.375000;0.400000;,
  0.375000;0.600000;,
  0.500000;0.400000;,
  0.500000;0.600000;,
  0.625000;0.400000;,
  0.625000;0.600000;,
  0.750000;0.400000;,
  0.750000;0.600000;,
  0.875000;0.400000;,
  0.875000;0.600000;,
  1.000000;0.400000;,
  1.000000;0.600000;,
  0.000000;0.800000;,
  0.125000;0.800000;,
  0.125000;1.000000;,
  0.000000;1.000000;,
  0.250000;0.800000;,
  0.250000;1.000000;,
  0.375000;0.800000;,
  0.375000;1.000000;,
  0.500000;0.800000;,
  0.500000;1.000000;,
  0.625000;0.800000;,
  0.625000;1.000000;,
  0.750000;0.800000;,
  0.750000;1.000000;,
  0.875000;0.800000;,
  0.875000;1.000000;,
  1.000000;0.800000;,
  1.000000;1.000000;,
  0.062500;0.000000;,
  0.187500;0.000000;,
  0.312500;0.000000;,
  0.437500;0.000000;,
  0.562500;0.000000;,
  0.687500;0.000000;,
  0.812500;0.000000;,
  0.937500;0.000000;,
  0.062500;1.000000;,
  0.187500;1.000000;,
  0.312500;1.000000;,
  0.437500;1.000000;,
  0.562500;1.000000;,
  0.687500;1.000000;,
  0.812500;1.000000;,
  0.937500;1.000000;,
  0.125000;0.200000;,
  0.000000;0.200000;,
  0.000000;0.400000;,
  0.125000;0.400000;,
  0.250000;0.200000;,
  0.250000;0.400000;,
  0.375000;0.200000;,
  0.375000;0.400000;,
  0.500000;0.200000;,
  0.500000;0.400000;,
  0.625000;0.200000;,
  0.625000;0.400000;,
  0.750000;0.200000;,
  0.750000;0.400000;,
  0.875000;0.200000;,
  0.875000;0.400000;,
  1.000000;0.200000;,
  1.000000;0.400000;,
  0.125000;0.600000;,
  0.000000;0.600000;,
  0.000000;0.800000;,
  0.125000;0.800000;,
  0.250000;0.600000;,
  0.250000;0.800000;,
  0.375000;0.600000;,
  0.375000;0.800000;,
  0.500000;0.600000;,
  0.500000;0.800000;,
  0.625000;0.600000;,
  0.625000;0.800000;,
  0.750000;0.600000;,
  0.750000;0.800000;,
  0.875000;0.600000;,
  0.875000;0.800000;,
  1.000000;0.600000;,
  1.000000;0.800000;,
  0.000000;0.000000;,
  1.000000;0.000000;,
  1.000000;1.000000;,
  0.000000;1.000000;,
  0.000000;0.000000;,
  0.125000;0.000000;,
  0.125000;0.200000;,
  0.000000;0.200000;,
  0.250000;0.000000;,
  0.250000;0.200000;,
  0.375000;0.000000;,
  0.375000;0.200000;,
  0.500000;0.000000;,
  0.500000;0.200000;,
  0.625000;0.000000;,
  0.625000;0.200000;,
  0.750000;0.000000;,
  0.750000;0.200000;,
  0.875000;0.000000;,
  0.875000;0.200000;,
  1.000000;0.000000;,
  1.000000;0.200000;,
  0.000000;0.400000;,
  0.125000;0.400000;,
  0.125000;0.600000;,
  0.000000;0.600000;,
  0.250000;0.400000;,
  0.250000;0.600000;,
  0.375000;0.400000;,
  0.375000;0.600000;,
  0.500000;0.400000;,
  0.500000;0.600000;,
  0.625000;0.400000;,
  0.625000;0.600000;,
  0.750000;0.400000;,
  0.750000;0.600000;,
  0.875000;0.400000;,
  0.875000;0.600000;,
  1.000000;0.400000;,
  1.000000;0.600000;,
  0.000000;0.800000;,
  0.125000;0.800000;,
  0.125000;1.000000;,
  0.000000;1.000000;,
  0.250000;0.800000;,
  0.250000;1.000000;,
  0.375000;0.800000;,
  0.375000;1.000000;,
  0.500000;0.800000;,
  0.500000;1.000000;,
  0.625000;0.800000;,
  0.625000;1.000000;,
  0.750000;0.800000;,
  0.750000;1.000000;,
  0.875000;0.800000;,
  0.875000;1.000000;,
  1.000000;0.800000;,
  1.000000;1.000000;,
  0.062500;0.000000;,
  0.187500;0.000000;,
  0.312500;0.000000;,
  0.437500;0.000000;,
  0.562500;0.000000;,
  0.687500;0.000000;,
  0.812500;0.000000;,
  0.937500;0.000000;,
  0.062500;1.000000;,
  0.187500;1.000000;,
  0.312500;1.000000;,
  0.437500;1.000000;,
  0.562500;1.000000;,
  0.687500;1.000000;,
  0.812500;1.000000;,
  0.937500;1.000000;,
  0.125000;0.200000;,
  0.000000;0.200000;,
  0.000000;0.400000;,
  0.125000;0.400000;,
  0.250000;0.200000;,
  0.250000;0.400000;,
  0.375000;0.200000;,
  0.375000;0.400000;,
  0.500000;0.200000;,
  0.500000;0.400000;,
  0.625000;0.200000;,
  0.625000;0.400000;,
  0.750000;0.200000;,
  0.750000;0.400000;,
  0.875000;0.200000;,
  0.875000;0.400000;,
  1.000000;0.200000;,
  1.000000;0.400000;,
  0.125000;0.600000;,
  0.000000;0.600000;,
  0.000000;0.800000;,
  0.125000;0.800000;,
  0.250000;0.600000;,
  0.250000;0.800000;,
  0.375000;0.600000;,
  0.375000;0.800000;,
  0.500000;0.600000;,
  0.500000;0.800000;,
  0.625000;0.600000;,
  0.625000;0.800000;,
  0.750000;0.600000;,
  0.750000;0.800000;,
  0.875000;0.600000;,
  0.875000;0.800000;,
  1.000000;0.600000;,
  1.000000;0.800000;,
  0.000000;0.000000;,
  1.000000;0.000000;,
  1.000000;1.000000;,
  0.000000;1.000000;,
  0.000000;0.000000;,
  0.125000;0.000000;,
  0.125000;0.200000;,
  0.000000;0.200000;,
  0.250000;0.000000;,
  0.250000;0.200000;,
  0.375000;0.000000;,
  0.375000;0.200000;,
  0.500000;0.000000;,
  0.500000;0.200000;,
  0.625000;0.000000;,
  0.625000;0.200000;,
  0.750000;0.000000;,
  0.750000;0.200000;,
  0.875000;0.000000;,
  0.875000;0.200000;,
  1.000000;0.000000;,
  1.000000;0.200000;,
  0.000000;0.400000;,
  0.125000;0.400000;,
  0.125000;0.600000;,
  0.000000;0.600000;,
  0.250000;0.400000;,
  0.250000;0.600000;,
  0.375000;0.400000;,
  0.375000;0.600000;,
  0.500000;0.400000;,
  0.500000;0.600000;,
  0.625000;0.400000;,
  0.625000;0.600000;,
  0.750000;0.400000;,
  0.750000;0.600000;,
  0.875000;0.400000;,
  0.875000;0.600000;,
  1.000000;0.400000;,
  1.000000;0.600000;,
  0.000000;0.800000;,
  0.125000;0.800000;,
  0.125000;1.000000;,
  0.000000;1.000000;,
  0.250000;0.800000;,
  0.250000;1.000000;,
  0.375000;0.800000;,
  0.375000;1.000000;,
  0.500000;0.800000;,
  0.500000;1.000000;,
  0.625000;0.800000;,
  0.625000;1.000000;,
  0.750000;0.800000;,
  0.750000;1.000000;,
  0.875000;0.800000;,
  0.875000;1.000000;,
  1.000000;0.800000;,
  1.000000;1.000000;,
  0.062500;0.000000;,
  0.187500;0.000000;,
  0.312500;0.000000;,
  0.437500;0.000000;,
  0.562500;0.000000;,
  0.687500;0.000000;,
  0.812500;0.000000;,
  0.937500;0.000000;,
  0.062500;1.000000;,
  0.187500;1.000000;,
  0.312500;1.000000;,
  0.437500;1.000000;,
  0.562500;1.000000;,
  0.687500;1.000000;,
  0.812500;1.000000;,
  0.937500;1.000000;,
  0.125000;0.200000;,
  0.000000;0.200000;,
  0.000000;0.400000;,
  0.125000;0.400000;,
  0.250000;0.200000;,
  0.250000;0.400000;,
  0.375000;0.200000;,
  0.375000;0.400000;,
  0.500000;0.200000;,
  0.500000;0.400000;,
  0.625000;0.200000;,
  0.625000;0.400000;,
  0.750000;0.200000;,
  0.750000;0.400000;,
  0.875000;0.200000;,
  0.875000;0.400000;,
  1.000000;0.200000;,
  1.000000;0.400000;,
  0.125000;0.600000;,
  0.000000;0.600000;,
  0.000000;0.800000;,
  0.125000;0.800000;,
  0.250000;0.600000;,
  0.250000;0.800000;,
  0.375000;0.600000;,
  0.375000;0.800000;,
  0.500000;0.600000;,
  0.500000;0.800000;,
  0.625000;0.600000;,
  0.625000;0.800000;,
  0.750000;0.600000;,
  0.750000;0.800000;,
  0.875000;0.600000;,
  0.875000;0.800000;,
  1.000000;0.600000;,
  1.000000;0.800000;,
  0.000000;0.000000;,
  1.000000;0.000000;,
  1.000000;1.000000;,
  0.000000;1.000000;;
 }
}
