xof 0302txt 0064
template Header {
 <3D82AB43-62DA-11cf-AB39-0020AF71E433>
 WORD major;
 WORD minor;
 DWORD flags;
}

template Vector {
 <3D82AB5E-62DA-11cf-AB39-0020AF71E433>
 FLOAT x;
 FLOAT y;
 FLOAT z;
}

template Coords2d {
 <F6F23F44-7686-11cf-8F52-0040333594A3>
 FLOAT u;
 FLOAT v;
}

template Matrix4x4 {
 <F6F23F45-7686-11cf-8F52-0040333594A3>
 array FLOAT matrix[16];
}

template ColorRGBA {
 <35FF44E0-6C7C-11cf-8F52-0040333594A3>
 FLOAT red;
 FLOAT green;
 FLOAT blue;
 FLOAT alpha;
}

template ColorRGB {
 <D3E16E81-7835-11cf-8F52-0040333594A3>
 FLOAT red;
 FLOAT green;
 FLOAT blue;
}

template IndexedColor {
 <1630B820-7842-11cf-8F52-0040333594A3>
 DWORD index;
 ColorRGBA indexColor;
}

template Boolean {
 <4885AE61-78E8-11cf-8F52-0040333594A3>
 WORD truefalse;
}

template Boolean2d {
 <4885AE63-78E8-11cf-8F52-0040333594A3>
 Boolean u;
 Boolean v;
}

template MaterialWrap {
 <4885AE60-78E8-11cf-8F52-0040333594A3>
 Boolean u;
 Boolean v;
}

template TextureFilename {
 <A42790E1-7810-11cf-8F52-0040333594A3>
 STRING filename;
}

template Material {
 <3D82AB4D-62DA-11cf-AB39-0020AF71E433>
 ColorRGBA faceColor;
 FLOAT power;
 ColorRGB specularColor;
 ColorRGB emissiveColor;
 [...]
}

template MeshFace {
 <3D82AB5F-62DA-11cf-AB39-0020AF71E433>
 DWORD nFaceVertexIndices;
 array DWORD faceVertexIndices[nFaceVertexIndices];
}

template MeshFaceWraps {
 <4885AE62-78E8-11cf-8F52-0040333594A3>
 DWORD nFaceWrapValues;
 Boolean2d faceWrapValues;
}

template MeshTextureCoords {
 <F6F23F40-7686-11cf-8F52-0040333594A3>
 DWORD nTextureCoords;
 array Coords2d textureCoords[nTextureCoords];
}

template MeshMaterialList {
 <F6F23F42-7686-11cf-8F52-0040333594A3>
 DWORD nMaterials;
 DWORD nFaceIndexes;
 array DWORD faceIndexes[nFaceIndexes];
 [Material]
}

template MeshNormals {
 <F6F23F43-7686-11cf-8F52-0040333594A3>
 DWORD nNormals;
 array Vector normals[nNormals];
 DWORD nFaceNormals;
 array MeshFace faceNormals[nFaceNormals];
}

template MeshVertexColors {
 <1630B821-7842-11cf-8F52-0040333594A3>
 DWORD nVertexColors;
 array IndexedColor vertexColors[nVertexColors];
}

template Mesh {
 <3D82AB44-62DA-11cf-AB39-0020AF71E433>
 DWORD nVertices;
 array Vector vertices[nVertices];
 DWORD nFaces;
 array MeshFace faces[nFaces];
 [...]
}

Header{
1;
0;
1;
}

Mesh {
 180;
 -158.24506;335.40167;-52.04161;,
 -147.69534;335.40167;-52.04161;,
 -147.69534;321.00128;-52.04161;,
 -158.24506;321.00128;-52.04161;,
 147.69534;335.40167;-52.04161;,
 147.69534;321.00128;-52.04161;,
 158.24506;335.40167;-52.04161;,
 158.24506;321.00128;-52.04161;,
 -147.69534;230.99832;-52.04161;,
 -158.24506;230.99832;-52.04161;,
 158.24506;230.99832;-52.04161;,
 147.69534;230.99832;-52.04161;,
 -147.69534;216.59770;-52.04161;,
 -158.24506;216.59770;-52.04161;,
 147.69534;216.59770;-52.04161;,
 158.24506;216.59770;-52.04161;,
 -147.69534;109.79440;-52.04161;,
 -158.24506;109.79440;-52.04161;,
 158.24506;109.79440;-52.04161;,
 147.69534;109.79440;-52.04161;,
 -147.69534;95.39397;-52.04161;,
 -158.24506;95.39397;-52.04161;,
 147.69534;95.39397;-52.04161;,
 158.24506;95.39397;-52.04161;,
 -147.69534;13.79138;-52.04161;,
 -158.24506;13.79138;-52.04161;,
 158.24506;13.79138;-52.04161;,
 147.69534;13.79138;-52.04161;,
 -147.69534;-0.60898;-52.04161;,
 -158.24506;-0.60898;-52.04161;,
 147.69534;-0.60898;-52.04161;,
 158.24506;-0.60898;-52.04161;,
 158.24506;335.40167;-52.04161;,
 158.24506;335.40167;52.04161;,
 158.24506;321.00128;52.04161;,
 158.24506;321.00128;-52.04161;,
 158.24506;230.99832;52.04161;,
 158.24506;230.99832;-52.04161;,
 158.24506;216.59770;52.04161;,
 158.24506;216.59770;-52.04161;,
 158.24506;109.79440;52.04161;,
 158.24506;109.79440;-52.04161;,
 158.24506;95.39397;52.04161;,
 158.24506;95.39397;-52.04161;,
 158.24506;13.79138;52.04161;,
 158.24506;13.79138;-52.04161;,
 158.24506;-0.60898;52.04161;,
 158.24506;-0.60898;-52.04161;,
 158.24506;335.40167;52.04161;,
 147.69534;335.40167;52.04161;,
 147.69534;321.00128;52.04161;,
 158.24506;321.00128;52.04161;,
 -147.69534;335.40167;52.04161;,
 -147.69534;321.00128;52.04161;,
 -158.24506;335.40167;52.04161;,
 -158.24506;321.00128;52.04161;,
 147.69534;230.99832;52.04161;,
 158.24506;230.99832;52.04161;,
 -147.69534;230.99832;52.04161;,
 -158.24506;230.99832;52.04161;,
 147.69534;216.59770;52.04161;,
 158.24506;216.59770;52.04161;,
 -147.69534;216.59770;52.04161;,
 -158.24506;216.59770;52.04161;,
 147.69534;109.79440;52.04161;,
 158.24506;109.79440;52.04161;,
 -147.69534;109.79440;52.04161;,
 -158.24506;109.79440;52.04161;,
 147.69534;95.39397;52.04161;,
 158.24506;95.39397;52.04161;,
 -147.69534;95.39397;52.04161;,
 -158.24506;95.39397;52.04161;,
 147.69534;13.79138;52.04161;,
 158.24506;13.79138;52.04161;,
 -147.69534;13.79138;52.04161;,
 -158.24506;13.79138;52.04161;,
 147.69534;-0.60898;52.04161;,
 158.24506;-0.60898;52.04161;,
 -147.69534;-0.60898;52.04161;,
 -158.24506;-0.60898;52.04161;,
 -158.24506;335.40167;52.04161;,
 -158.24506;335.40167;-52.04161;,
 -158.24506;321.00128;-52.04161;,
 -158.24506;321.00128;52.04161;,
 -158.24506;230.99832;-52.04161;,
 -158.24506;230.99832;52.04161;,
 -158.24506;216.59770;-52.04161;,
 -158.24506;216.59770;52.04161;,
 -158.24506;109.79440;-52.04161;,
 -158.24506;109.79440;52.04161;,
 -158.24506;95.39397;-52.04161;,
 -158.24506;95.39397;52.04161;,
 -158.24506;13.79138;-52.04161;,
 -158.24506;13.79138;52.04161;,
 -158.24506;-0.60898;-52.04161;,
 -158.24506;-0.60898;52.04161;,
 -147.69534;335.40167;52.04161;,
 -147.69534;335.40167;-52.04161;,
 -158.24506;335.40167;-52.04161;,
 147.69534;335.40167;52.04161;,
 147.69534;335.40167;-52.04161;,
 158.24506;335.40167;-52.04161;,
 -158.24506;-0.60898;-52.04161;,
 -147.69534;-0.60898;-52.04161;,
 -147.69534;-0.60898;52.04161;,
 147.69534;-0.60898;-52.04161;,
 147.69534;-0.60898;52.04161;,
 158.24506;-0.60898;-52.04161;,
 147.69534;321.00128;47.55188;,
 -147.69534;321.00128;47.55188;,
 147.69534;230.99832;47.55188;,
 -147.69534;230.99832;47.55188;,
 147.69534;216.59770;47.55188;,
 -147.69534;216.59770;47.55188;,
 147.69534;109.79440;47.55188;,
 -147.69534;109.79440;47.55188;,
 147.69534;95.39397;47.55188;,
 -147.69534;95.39397;47.55188;,
 147.69534;13.79138;47.55188;,
 -147.69534;13.79138;47.55188;,
 -5.57868;335.40167;-52.04161;,
 4.97103;335.40167;-52.04161;,
 4.97103;321.00128;-52.04161;,
 -5.57868;321.00128;-52.04161;,
 4.97103;230.99832;-52.04161;,
 -5.57868;230.99832;-52.04161;,
 4.97103;216.59770;-52.04161;,
 -5.57868;216.59770;-52.04161;,
 4.97103;109.79440;-52.04161;,
 -5.57868;109.79440;-52.04161;,
 4.97103;95.39397;-52.04161;,
 -5.57868;95.39397;-52.04161;,
 4.97103;13.79138;-52.04161;,
 -5.57868;13.79138;-52.04161;,
 4.97103;-0.60898;-52.04161;,
 -5.57868;-0.60898;-52.04161;,
 4.97103;335.40167;-52.04161;,
 4.97103;335.40167;52.04161;,
 4.97103;321.00128;52.04161;,
 4.97103;321.00128;-52.04161;,
 4.97103;230.99832;52.04161;,
 4.97103;230.99832;-52.04161;,
 4.97103;216.59770;52.04161;,
 4.97103;216.59770;-52.04161;,
 4.97103;109.79440;52.04161;,
 4.97103;109.79440;-52.04161;,
 4.97103;95.39397;52.04161;,
 4.97103;95.39397;-52.04161;,
 4.97103;13.79138;52.04161;,
 4.97103;13.79138;-52.04161;,
 4.97103;-0.60898;52.04161;,
 4.97103;-0.60898;-52.04161;,
 4.97103;335.40167;52.04161;,
 -5.57868;335.40167;52.04161;,
 -5.57868;321.00128;52.04161;,
 4.97103;321.00128;52.04161;,
 -5.57868;230.99832;52.04161;,
 4.97103;230.99832;52.04161;,
 -5.57868;216.59770;52.04161;,
 4.97103;216.59770;52.04161;,
 -5.57868;109.79440;52.04161;,
 4.97103;109.79440;52.04161;,
 -5.57868;95.39397;52.04161;,
 4.97103;95.39397;52.04161;,
 -5.57868;13.79138;52.04161;,
 4.97103;13.79138;52.04161;,
 -5.57868;-0.60898;52.04161;,
 4.97103;-0.60898;52.04161;,
 -5.57868;335.40167;52.04161;,
 4.97103;335.40167;-52.04161;,
 -5.57868;335.40167;-52.04161;,
 -5.57868;-0.60898;-52.04161;,
 4.97103;-0.60898;-52.04161;,
 -5.57868;-0.60898;52.04161;,
 -5.57868;230.99832;47.55188;,
 -5.57868;321.00128;47.55188;,
 -5.57868;109.79440;47.55188;,
 -5.57868;216.59770;47.55188;,
 -5.57868;13.79138;47.55188;,
 -5.57868;95.39397;47.55188;;
 
 100;
 4;0,1,2,3;,
 4;1,4,5,2;,
 4;4,6,7,5;,
 4;3,2,8,9;,
 4;5,7,10,11;,
 4;9,8,12,13;,
 4;8,11,14,12;,
 4;11,10,15,14;,
 4;13,12,16,17;,
 4;14,15,18,19;,
 4;17,16,20,21;,
 4;16,19,22,20;,
 4;19,18,23,22;,
 4;21,20,24,25;,
 4;22,23,26,27;,
 4;25,24,28,29;,
 4;24,27,30,28;,
 4;27,26,31,30;,
 4;32,33,34,35;,
 4;35,34,36,37;,
 4;37,36,38,39;,
 4;39,38,40,41;,
 4;41,40,42,43;,
 4;43,42,44,45;,
 4;45,44,46,47;,
 4;48,49,50,51;,
 4;49,52,53,50;,
 4;52,54,55,53;,
 4;51,50,56,57;,
 4;50,53,58,56;,
 4;53,55,59,58;,
 4;57,56,60,61;,
 4;56,58,62,60;,
 4;58,59,63,62;,
 4;61,60,64,65;,
 4;60,62,66,64;,
 4;62,63,67,66;,
 4;65,64,68,69;,
 4;64,66,70,68;,
 4;66,67,71,70;,
 4;69,68,72,73;,
 4;68,70,74,72;,
 4;70,71,75,74;,
 4;73,72,76,77;,
 4;72,74,78,76;,
 4;74,75,79,78;,
 4;80,81,82,83;,
 4;83,82,84,85;,
 4;85,84,86,87;,
 4;87,86,88,89;,
 4;89,88,90,91;,
 4;91,90,92,93;,
 4;93,92,94,95;,
 4;80,96,97,98;,
 4;96,99,100,97;,
 4;99,33,101,100;,
 4;102,103,104,95;,
 4;103,105,106,104;,
 4;105,107,46,106;,
 4;108,109,2,5;,
 4;110,108,5,11;,
 4;111,110,11,8;,
 4;109,111,8,2;,
 4;109,108,110,111;,
 4;112,113,12,14;,
 4;114,112,14,19;,
 4;115,114,19,16;,
 4;113,115,16,12;,
 4;113,112,114,115;,
 4;116,117,20,22;,
 4;118,116,22,27;,
 4;119,118,27,24;,
 4;117,119,24,20;,
 4;117,116,118,119;,
 4;120,121,122,123;,
 4;123,122,124,125;,
 4;125,124,126,127;,
 4;127,126,128,129;,
 4;129,128,130,131;,
 4;131,130,132,133;,
 4;133,132,134,135;,
 4;136,137,138,139;,
 4;139,138,140,141;,
 4;141,140,142,143;,
 4;143,142,144,145;,
 4;145,144,146,147;,
 4;147,146,148,149;,
 4;149,148,150,151;,
 4;152,153,154,155;,
 4;155,154,156,157;,
 4;157,156,158,159;,
 4;159,158,160,161;,
 4;161,160,162,163;,
 4;163,162,164,165;,
 4;165,164,166,167;,
 4;168,137,169,170;,
 4;171,172,150,173;,
 4;174,175,123,125;,
 4;176,177,127,129;,
 4;178,179,131,133;;
 
 MeshMaterialList {
  1;
  100;
  0,
  0,
  0,
  0,
  0,
  0,
  0,
  0,
  0,
  0,
  0,
  0,
  0,
  0,
  0,
  0,
  0,
  0,
  0,
  0,
  0,
  0,
  0,
  0,
  0,
  0,
  0,
  0,
  0,
  0,
  0,
  0,
  0,
  0,
  0,
  0,
  0,
  0,
  0,
  0,
  0,
  0,
  0,
  0,
  0,
  0,
  0,
  0,
  0,
  0,
  0,
  0,
  0,
  0,
  0,
  0,
  0,
  0,
  0,
  0,
  0,
  0,
  0,
  0,
  0,
  0,
  0,
  0,
  0,
  0,
  0,
  0,
  0,
  0,
  0,
  0,
  0,
  0,
  0,
  0,
  0,
  0,
  0,
  0,
  0,
  0,
  0,
  0,
  0,
  0,
  0,
  0,
  0,
  0,
  0,
  0,
  0,
  0,
  0,
  0;;
  Material {
   1.000000;1.000000;1.000000;1.000000;;
   0.000000;
   0.000000;0.000000;0.000000;;
   0.000000;0.000000;0.000000;;
  }
 }
 MeshNormals {
  6;
  0.000000;0.000000;-1.000000;,
  1.000000;0.000000;0.000000;,
  0.000000;0.000000;1.000000;,
  0.000000;-1.000000;0.000000;,
  0.000000;1.000000;0.000000;,
  -1.000000;0.000000;0.000000;;
  100;
  4;0,0,0,0;,
  4;0,0,0,0;,
  4;0,0,0,0;,
  4;0,0,0,0;,
  4;0,0,0,0;,
  4;0,0,0,0;,
  4;0,0,0,0;,
  4;0,0,0,0;,
  4;0,0,0,0;,
  4;0,0,0,0;,
  4;0,0,0,0;,
  4;0,0,0,0;,
  4;0,0,0,0;,
  4;0,0,0,0;,
  4;0,0,0,0;,
  4;0,0,0,0;,
  4;0,0,0,0;,
  4;0,0,0,0;,
  4;1,1,1,1;,
  4;1,1,1,1;,
  4;1,1,1,1;,
  4;1,1,1,1;,
  4;1,1,1,1;,
  4;1,1,1,1;,
  4;1,1,1,1;,
  4;2,2,2,2;,
  4;2,2,2,2;,
  4;2,2,2,2;,
  4;2,2,2,2;,
  4;2,2,2,2;,
  4;2,2,2,2;,
  4;2,2,2,2;,
  4;2,2,2,2;,
  4;2,2,2,2;,
  4;2,2,2,2;,
  4;2,2,2,2;,
  4;2,2,2,2;,
  4;2,2,2,2;,
  4;2,2,2,2;,
  4;2,2,2,2;,
  4;2,2,2,2;,
  4;2,2,2,2;,
  4;2,2,2,2;,
  4;2,2,2,2;,
  4;2,2,2,2;,
  4;2,2,2,2;,
  4;5,5,5,5;,
  4;5,5,5,5;,
  4;5,5,5,5;,
  4;5,5,5,5;,
  4;5,5,5,5;,
  4;5,5,5,5;,
  4;5,5,5,5;,
  4;4,4,4,4;,
  4;4,4,4,4;,
  4;4,4,4,4;,
  4;3,3,3,3;,
  4;3,3,3,3;,
  4;3,3,3,3;,
  4;3,3,3,3;,
  4;5,5,5,5;,
  4;4,4,4,4;,
  4;1,1,1,1;,
  4;0,0,0,0;,
  4;3,3,3,3;,
  4;5,5,5,5;,
  4;4,4,4,4;,
  4;1,1,1,1;,
  4;0,0,0,0;,
  4;3,3,3,3;,
  4;5,5,5,5;,
  4;4,4,4,4;,
  4;1,1,1,1;,
  4;0,0,0,0;,
  4;0,0,0,0;,
  4;0,0,0,0;,
  4;0,0,0,0;,
  4;0,0,0,0;,
  4;0,0,0,0;,
  4;0,0,0,0;,
  4;0,0,0,0;,
  4;1,1,1,1;,
  4;1,1,1,1;,
  4;1,1,1,1;,
  4;1,1,1,1;,
  4;1,1,1,1;,
  4;1,1,1,1;,
  4;1,1,1,1;,
  4;2,2,2,2;,
  4;2,2,2,2;,
  4;2,2,2,2;,
  4;2,2,2,2;,
  4;2,2,2,2;,
  4;2,2,2,2;,
  4;2,2,2,2;,
  4;4,4,4,4;,
  4;3,3,3,3;,
  4;5,5,5,5;,
  4;5,5,5,5;,
  4;5,5,5,5;;
 }
 MeshTextureCoords {
  180;
  0.000000;0.000000;,
  0.333333;0.000000;,
  0.333333;0.142857;,
  0.000000;0.142857;,
  0.666667;0.000000;,
  0.666667;0.142857;,
  1.000000;0.000000;,
  1.000000;0.142857;,
  0.333333;0.285714;,
  0.000000;0.285714;,
  1.000000;0.285714;,
  0.666667;0.285714;,
  0.333333;0.428571;,
  0.000000;0.428571;,
  0.666667;0.428571;,
  1.000000;0.428571;,
  0.333333;0.571429;,
  0.000000;0.571429;,
  1.000000;0.571429;,
  0.666667;0.571429;,
  0.333333;0.714286;,
  0.000000;0.714286;,
  0.666667;0.714286;,
  1.000000;0.714286;,
  0.333333;0.857143;,
  0.000000;0.857143;,
  1.000000;0.857143;,
  0.666667;0.857143;,
  0.333333;1.000000;,
  0.000000;1.000000;,
  0.666667;1.000000;,
  1.000000;1.000000;,
  0.000000;0.000000;,
  1.000000;0.000000;,
  1.000000;0.142857;,
  0.000000;0.142857;,
  1.000000;0.285714;,
  0.000000;0.285714;,
  1.000000;0.428571;,
  0.000000;0.428571;,
  1.000000;0.571429;,
  0.000000;0.571429;,
  1.000000;0.714286;,
  0.000000;0.714286;,
  1.000000;0.857143;,
  0.000000;0.857143;,
  1.000000;1.000000;,
  0.000000;1.000000;,
  0.000000;0.000000;,
  0.333333;0.000000;,
  0.333333;0.142857;,
  0.000000;0.142857;,
  0.666667;0.000000;,
  0.666667;0.142857;,
  1.000000;0.000000;,
  1.000000;0.142857;,
  0.333333;0.285714;,
  0.000000;0.285714;,
  0.666667;0.285714;,
  1.000000;0.285714;,
  0.333333;0.428571;,
  0.000000;0.428571;,
  0.666667;0.428571;,
  1.000000;0.428571;,
  0.333333;0.571429;,
  0.000000;0.571429;,
  0.666667;0.571429;,
  1.000000;0.571429;,
  0.333333;0.714286;,
  0.000000;0.714286;,
  0.666667;0.714286;,
  1.000000;0.714286;,
  0.333333;0.857143;,
  0.000000;0.857143;,
  0.666667;0.857143;,
  1.000000;0.857143;,
  0.333333;1.000000;,
  0.000000;1.000000;,
  0.666667;1.000000;,
  1.000000;1.000000;,
  0.000000;0.000000;,
  1.000000;0.000000;,
  1.000000;0.142857;,
  0.000000;0.142857;,
  1.000000;0.285714;,
  0.000000;0.285714;,
  1.000000;0.428571;,
  0.000000;0.428571;,
  1.000000;0.571429;,
  0.000000;0.571429;,
  1.000000;0.714286;,
  0.000000;0.714286;,
  1.000000;0.857143;,
  0.000000;0.857143;,
  1.000000;1.000000;,
  0.000000;1.000000;,
  0.333333;0.000000;,
  0.333333;1.000000;,
  0.000000;1.000000;,
  0.666667;0.000000;,
  0.666667;1.000000;,
  1.000000;1.000000;,
  0.000000;0.000000;,
  0.333333;0.000000;,
  0.333333;1.000000;,
  0.666667;0.000000;,
  0.666667;1.000000;,
  1.000000;0.000000;,
  0.666667;0.142857;,
  0.333333;0.142857;,
  0.666667;0.285714;,
  0.333333;0.285714;,
  0.666667;0.428571;,
  0.333333;0.428571;,
  0.666667;0.571429;,
  0.333333;0.571429;,
  0.666667;0.714286;,
  0.333333;0.714286;,
  0.666667;0.857143;,
  0.333333;0.857143;,
  0.666667;0.000000;,
  1.000000;0.000000;,
  1.000000;0.142857;,
  0.666667;0.142857;,
  1.000000;0.285714;,
  0.666667;0.285714;,
  1.000000;0.428571;,
  0.666667;0.428571;,
  1.000000;0.571429;,
  0.666667;0.571429;,
  1.000000;0.714286;,
  0.666667;0.714286;,
  1.000000;0.857143;,
  0.666667;0.857143;,
  1.000000;1.000000;,
  0.666667;1.000000;,
  0.000000;0.000000;,
  1.000000;0.000000;,
  1.000000;0.142857;,
  0.000000;0.142857;,
  1.000000;0.285714;,
  0.000000;0.285714;,
  1.000000;0.428571;,
  0.000000;0.428571;,
  1.000000;0.571429;,
  0.000000;0.571429;,
  1.000000;0.714286;,
  0.000000;0.714286;,
  1.000000;0.857143;,
  0.000000;0.857143;,
  1.000000;1.000000;,
  0.000000;1.000000;,
  0.000000;0.000000;,
  0.333333;0.000000;,
  0.333333;0.142857;,
  0.000000;0.142857;,
  0.333333;0.285714;,
  0.000000;0.285714;,
  0.333333;0.428571;,
  0.000000;0.428571;,
  0.333333;0.571429;,
  0.000000;0.571429;,
  0.333333;0.714286;,
  0.000000;0.714286;,
  0.333333;0.857143;,
  0.000000;0.857143;,
  0.333333;1.000000;,
  0.000000;1.000000;,
  0.666667;0.000000;,
  1.000000;1.000000;,
  0.666667;1.000000;,
  0.666667;0.000000;,
  1.000000;0.000000;,
  0.666667;1.000000;,
  0.666667;0.285714;,
  0.666667;0.142857;,
  0.666667;0.571429;,
  0.666667;0.428571;,
  0.666667;0.857143;,
  0.666667;0.714286;;
 }
}
