xof 0302txt 0064
template Header {
 <3D82AB43-62DA-11cf-AB39-0020AF71E433>
 WORD major;
 WORD minor;
 DWORD flags;
}

template Vector {
 <3D82AB5E-62DA-11cf-AB39-0020AF71E433>
 FLOAT x;
 FLOAT y;
 FLOAT z;
}

template Coords2d {
 <F6F23F44-7686-11cf-8F52-0040333594A3>
 FLOAT u;
 FLOAT v;
}

template Matrix4x4 {
 <F6F23F45-7686-11cf-8F52-0040333594A3>
 array FLOAT matrix[16];
}

template ColorRGBA {
 <35FF44E0-6C7C-11cf-8F52-0040333594A3>
 FLOAT red;
 FLOAT green;
 FLOAT blue;
 FLOAT alpha;
}

template ColorRGB {
 <D3E16E81-7835-11cf-8F52-0040333594A3>
 FLOAT red;
 FLOAT green;
 FLOAT blue;
}

template IndexedColor {
 <1630B820-7842-11cf-8F52-0040333594A3>
 DWORD index;
 ColorRGBA indexColor;
}

template Boolean {
 <4885AE61-78E8-11cf-8F52-0040333594A3>
 WORD truefalse;
}

template Boolean2d {
 <4885AE63-78E8-11cf-8F52-0040333594A3>
 Boolean u;
 Boolean v;
}

template MaterialWrap {
 <4885AE60-78E8-11cf-8F52-0040333594A3>
 Boolean u;
 Boolean v;
}

template TextureFilename {
 <A42790E1-7810-11cf-8F52-0040333594A3>
 STRING filename;
}

template Material {
 <3D82AB4D-62DA-11cf-AB39-0020AF71E433>
 ColorRGBA faceColor;
 FLOAT power;
 ColorRGB specularColor;
 ColorRGB emissiveColor;
 [...]
}

template MeshFace {
 <3D82AB5F-62DA-11cf-AB39-0020AF71E433>
 DWORD nFaceVertexIndices;
 array DWORD faceVertexIndices[nFaceVertexIndices];
}

template MeshFaceWraps {
 <4885AE62-78E8-11cf-8F52-0040333594A3>
 DWORD nFaceWrapValues;
 Boolean2d faceWrapValues;
}

template MeshTextureCoords {
 <F6F23F40-7686-11cf-8F52-0040333594A3>
 DWORD nTextureCoords;
 array Coords2d textureCoords[nTextureCoords];
}

template MeshMaterialList {
 <F6F23F42-7686-11cf-8F52-0040333594A3>
 DWORD nMaterials;
 DWORD nFaceIndexes;
 array DWORD faceIndexes[nFaceIndexes];
 [Material]
}

template MeshNormals {
 <F6F23F43-7686-11cf-8F52-0040333594A3>
 DWORD nNormals;
 array Vector normals[nNormals];
 DWORD nFaceNormals;
 array MeshFace faceNormals[nFaceNormals];
}

template MeshVertexColors {
 <1630B821-7842-11cf-8F52-0040333594A3>
 DWORD nVertexColors;
 array IndexedColor vertexColors[nVertexColors];
}

template Mesh {
 <3D82AB44-62DA-11cf-AB39-0020AF71E433>
 DWORD nVertices;
 array Vector vertices[nVertices];
 DWORD nFaces;
 array MeshFace faces[nFaces];
 [...]
}

Header{
1;
0;
1;
}

Mesh {
 720;
 -0.20425;337.19446;-104.64585;,
 10.34545;337.19446;-104.64585;,
 10.34545;322.79404;-104.64585;,
 -0.20425;322.79404;-104.64585;,
 305.73621;337.19446;-104.64585;,
 305.73621;322.79404;-104.64585;,
 316.28589;337.19446;-104.64585;,
 316.28589;322.79404;-104.64585;,
 10.34545;232.79105;-104.64585;,
 -0.20425;232.79105;-104.64585;,
 316.28589;232.79105;-104.64585;,
 305.73621;232.79105;-104.64585;,
 10.34545;218.39040;-104.64585;,
 -0.20425;218.39040;-104.64585;,
 305.73621;218.39040;-104.64585;,
 316.28589;218.39040;-104.64585;,
 10.34545;111.58715;-104.64585;,
 -0.20425;111.58715;-104.64585;,
 316.28589;111.58715;-104.64585;,
 305.73621;111.58715;-104.64585;,
 10.34545;97.18670;-104.64585;,
 -0.20425;97.18670;-104.64585;,
 305.73621;97.18670;-104.64585;,
 316.28589;97.18670;-104.64585;,
 10.34545;15.58410;-104.64585;,
 -0.20425;15.58410;-104.64585;,
 316.28589;15.58410;-104.64585;,
 305.73621;15.58410;-104.64585;,
 10.34545;1.18375;-104.64585;,
 -0.20425;1.18375;-104.64585;,
 305.73621;1.18375;-104.64585;,
 316.28589;1.18375;-104.64585;,
 316.28589;337.19446;-104.64585;,
 316.28589;337.19446;-0.56265;,
 316.28589;322.79404;-0.56265;,
 316.28589;322.79404;-104.64585;,
 316.28589;232.79105;-0.56265;,
 316.28589;232.79105;-104.64585;,
 316.28589;218.39040;-0.56265;,
 316.28589;218.39040;-104.64585;,
 316.28589;111.58715;-0.56265;,
 316.28589;111.58715;-104.64585;,
 316.28589;97.18670;-0.56265;,
 316.28589;97.18670;-104.64585;,
 316.28589;15.58410;-0.56265;,
 316.28589;15.58410;-104.64585;,
 316.28589;1.18375;-0.56265;,
 316.28589;1.18375;-104.64585;,
 316.28589;337.19446;-0.56265;,
 305.73621;337.19446;-0.56265;,
 305.73621;322.79404;-0.56265;,
 316.28589;322.79404;-0.56265;,
 10.34545;337.19446;-0.56265;,
 10.34545;322.79404;-0.56265;,
 -0.20425;337.19446;-0.56265;,
 -0.20425;322.79404;-0.56265;,
 305.73621;232.79105;-0.56265;,
 316.28589;232.79105;-0.56265;,
 10.34545;232.79105;-0.56265;,
 -0.20425;232.79105;-0.56265;,
 305.73621;218.39040;-0.56265;,
 316.28589;218.39040;-0.56265;,
 10.34545;218.39040;-0.56265;,
 -0.20425;218.39040;-0.56265;,
 305.73621;111.58715;-0.56265;,
 316.28589;111.58715;-0.56265;,
 10.34545;111.58715;-0.56265;,
 -0.20425;111.58715;-0.56265;,
 305.73621;97.18670;-0.56265;,
 316.28589;97.18670;-0.56265;,
 10.34545;97.18670;-0.56265;,
 -0.20425;97.18670;-0.56265;,
 305.73621;15.58410;-0.56265;,
 316.28589;15.58410;-0.56265;,
 10.34545;15.58410;-0.56265;,
 -0.20425;15.58410;-0.56265;,
 305.73621;1.18375;-0.56265;,
 316.28589;1.18375;-0.56265;,
 10.34545;1.18375;-0.56265;,
 -0.20425;1.18375;-0.56265;,
 -0.20425;337.19446;-0.56265;,
 -0.20425;337.19446;-104.64585;,
 -0.20425;322.79404;-104.64585;,
 -0.20425;322.79404;-0.56265;,
 -0.20425;232.79105;-104.64585;,
 -0.20425;232.79105;-0.56265;,
 -0.20425;218.39040;-104.64585;,
 -0.20425;218.39040;-0.56265;,
 -0.20425;111.58715;-104.64585;,
 -0.20425;111.58715;-0.56265;,
 -0.20425;97.18670;-104.64585;,
 -0.20425;97.18670;-0.56265;,
 -0.20425;15.58410;-104.64585;,
 -0.20425;15.58410;-0.56265;,
 -0.20425;1.18375;-104.64585;,
 -0.20425;1.18375;-0.56265;,
 10.34545;337.19446;-0.56265;,
 10.34545;337.19446;-104.64585;,
 -0.20425;337.19446;-104.64585;,
 305.73621;337.19446;-0.56265;,
 305.73621;337.19446;-104.64585;,
 316.28589;337.19446;-104.64585;,
 -0.20425;1.18375;-104.64585;,
 10.34545;1.18375;-104.64585;,
 10.34545;1.18375;-0.56265;,
 305.73621;1.18375;-104.64585;,
 305.73621;1.18375;-0.56265;,
 316.28589;1.18375;-104.64585;,
 305.73621;322.79404;-5.05235;,
 10.34545;322.79404;-5.05235;,
 305.73621;232.79105;-5.05235;,
 10.34545;232.79105;-5.05235;,
 305.73621;218.39040;-5.05235;,
 10.34545;218.39040;-5.05235;,
 305.73621;111.58715;-5.05235;,
 10.34545;111.58715;-5.05235;,
 305.73621;97.18670;-5.05235;,
 10.34545;97.18670;-5.05235;,
 305.73621;15.58410;-5.05235;,
 10.34545;15.58410;-5.05235;,
 152.46210;337.19446;-104.64585;,
 163.01180;337.19446;-104.64585;,
 163.01180;322.79404;-104.64585;,
 152.46210;322.79404;-104.64585;,
 163.01180;232.79105;-104.64585;,
 152.46210;232.79105;-104.64585;,
 163.01180;218.39040;-104.64585;,
 152.46210;218.39040;-104.64585;,
 163.01180;111.58715;-104.64585;,
 152.46210;111.58715;-104.64585;,
 163.01180;97.18670;-104.64585;,
 152.46210;97.18670;-104.64585;,
 163.01180;15.58410;-104.64585;,
 152.46210;15.58410;-104.64585;,
 163.01180;1.18375;-104.64585;,
 152.46210;1.18375;-104.64585;,
 163.01180;337.19446;-104.64585;,
 163.01180;337.19446;-0.56265;,
 163.01180;322.79404;-0.56265;,
 163.01180;322.79404;-104.64585;,
 163.01180;232.79105;-0.56265;,
 163.01180;232.79105;-104.64585;,
 163.01180;218.39040;-0.56265;,
 163.01180;218.39040;-104.64585;,
 163.01180;111.58715;-0.56265;,
 163.01180;111.58715;-104.64585;,
 163.01180;97.18670;-0.56265;,
 163.01180;97.18670;-104.64585;,
 163.01180;15.58410;-0.56265;,
 163.01180;15.58410;-104.64585;,
 163.01180;1.18375;-0.56265;,
 163.01180;1.18375;-104.64585;,
 163.01180;337.19446;-0.56265;,
 152.46210;337.19446;-0.56265;,
 152.46210;322.79404;-0.56265;,
 163.01180;322.79404;-0.56265;,
 152.46210;232.79105;-0.56265;,
 163.01180;232.79105;-0.56265;,
 152.46210;218.39040;-0.56265;,
 163.01180;218.39040;-0.56265;,
 152.46210;111.58715;-0.56265;,
 163.01180;111.58715;-0.56265;,
 152.46210;97.18670;-0.56265;,
 163.01180;97.18670;-0.56265;,
 152.46210;15.58410;-0.56265;,
 163.01180;15.58410;-0.56265;,
 152.46210;1.18375;-0.56265;,
 163.01180;1.18375;-0.56265;,
 152.46210;337.19446;-0.56265;,
 163.01180;337.19446;-104.64585;,
 152.46210;337.19446;-104.64585;,
 152.46210;1.18375;-104.64585;,
 163.01180;1.18375;-104.64585;,
 152.46210;1.18375;-0.56265;,
 152.46210;232.79105;-5.05235;,
 152.46210;322.79404;-5.05235;,
 152.46210;111.58715;-5.05235;,
 152.46210;218.39040;-5.05235;,
 152.46210;15.58410;-5.05235;,
 152.46210;97.18670;-5.05235;,
 316.28589;337.19446;103.38865;,
 305.73621;337.19446;103.38865;,
 305.73621;322.79404;103.38865;,
 316.28589;322.79404;103.38865;,
 10.34545;337.19446;103.38865;,
 10.34545;322.79404;103.38865;,
 -0.20425;337.19446;103.38865;,
 -0.20425;322.79404;103.38865;,
 305.73621;232.79105;103.38865;,
 316.28589;232.79105;103.38865;,
 -0.20425;232.79105;103.38865;,
 10.34545;232.79105;103.38865;,
 305.73621;218.39040;103.38865;,
 316.28589;218.39040;103.38865;,
 10.34545;218.39040;103.38865;,
 -0.20425;218.39040;103.38865;,
 305.73621;111.58715;103.38865;,
 316.28589;111.58715;103.38865;,
 -0.20425;111.58715;103.38865;,
 10.34545;111.58715;103.38865;,
 305.73621;97.18670;103.38865;,
 316.28589;97.18670;103.38865;,
 10.34545;97.18670;103.38865;,
 -0.20425;97.18670;103.38865;,
 305.73621;15.58410;103.38865;,
 316.28589;15.58410;103.38865;,
 -0.20425;15.58410;103.38865;,
 10.34545;15.58410;103.38865;,
 305.73621;1.18375;103.38865;,
 316.28589;1.18375;103.38865;,
 10.34545;1.18375;103.38865;,
 -0.20425;1.18375;103.38865;,
 -0.20425;337.19446;103.38865;,
 -0.20425;337.19446;-0.69450;,
 -0.20425;322.79404;-0.69450;,
 -0.20425;322.79404;103.38865;,
 -0.20425;232.79105;-0.69450;,
 -0.20425;232.79105;103.38865;,
 -0.20425;218.39040;-0.69450;,
 -0.20425;218.39040;103.38865;,
 -0.20425;111.58715;-0.69450;,
 -0.20425;111.58715;103.38865;,
 -0.20425;97.18670;-0.69450;,
 -0.20425;97.18670;103.38865;,
 -0.20425;15.58410;-0.69450;,
 -0.20425;15.58410;103.38865;,
 -0.20425;1.18375;-0.69450;,
 -0.20425;1.18375;103.38865;,
 -0.20425;337.19446;-0.69450;,
 10.34545;337.19446;-0.69450;,
 10.34545;322.79404;-0.69450;,
 -0.20425;322.79404;-0.69450;,
 305.73621;337.19446;-0.69455;,
 305.73621;322.79404;-0.69455;,
 316.28589;337.19446;-0.69455;,
 316.28589;322.79404;-0.69455;,
 10.34545;232.79105;-0.69450;,
 -0.20425;232.79105;-0.69450;,
 305.73621;232.79105;-0.69455;,
 316.28589;232.79105;-0.69455;,
 10.34545;218.39040;-0.69450;,
 -0.20425;218.39040;-0.69450;,
 305.73621;218.39040;-0.69455;,
 316.28589;218.39040;-0.69455;,
 10.34545;111.58715;-0.69450;,
 -0.20425;111.58715;-0.69450;,
 305.73621;111.58715;-0.69455;,
 316.28589;111.58715;-0.69455;,
 10.34545;97.18670;-0.69450;,
 -0.20425;97.18670;-0.69450;,
 305.73621;97.18670;-0.69455;,
 316.28589;97.18670;-0.69455;,
 10.34545;15.58410;-0.69450;,
 -0.20425;15.58410;-0.69450;,
 305.73621;15.58410;-0.69455;,
 316.28589;15.58410;-0.69455;,
 10.34545;1.18375;-0.69450;,
 -0.20425;1.18375;-0.69450;,
 305.73621;1.18375;-0.69455;,
 316.28589;1.18375;-0.69455;,
 316.28589;337.19446;-0.69455;,
 316.28589;337.19446;103.38865;,
 316.28589;322.79404;103.38865;,
 316.28589;322.79404;-0.69455;,
 316.28589;232.79105;103.38865;,
 316.28589;232.79105;-0.69455;,
 316.28589;218.39040;103.38865;,
 316.28589;218.39040;-0.69455;,
 316.28589;111.58715;103.38865;,
 316.28589;111.58715;-0.69455;,
 316.28589;97.18670;103.38865;,
 316.28589;97.18670;-0.69455;,
 316.28589;15.58410;103.38865;,
 316.28589;15.58410;-0.69455;,
 316.28589;1.18375;103.38865;,
 316.28589;1.18375;-0.69455;,
 305.73621;337.19446;-0.69455;,
 305.73621;337.19446;103.38865;,
 316.28589;337.19446;103.38865;,
 10.34545;337.19446;-0.69450;,
 10.34545;337.19446;103.38865;,
 -0.20425;337.19446;103.38865;,
 316.28589;1.18375;103.38865;,
 305.73621;1.18375;103.38865;,
 305.73621;1.18375;-0.69455;,
 10.34545;1.18375;103.38865;,
 10.34545;1.18375;-0.69450;,
 -0.20425;1.18375;103.38865;,
 10.34545;322.79404;3.79525;,
 305.73621;322.79404;3.79520;,
 10.34545;232.79105;3.79525;,
 305.73621;232.79105;3.79520;,
 10.34545;218.39040;3.79525;,
 305.73621;218.39040;3.79520;,
 10.34545;111.58715;3.79525;,
 305.73621;111.58715;3.79520;,
 10.34545;97.18670;3.79525;,
 305.73621;97.18670;3.79520;,
 10.34545;15.58410;3.79525;,
 305.73621;15.58410;3.79520;,
 163.61945;337.19446;103.38865;,
 153.06975;337.19446;103.38865;,
 153.06975;322.79404;103.38865;,
 163.61945;322.79404;103.38865;,
 153.06975;232.79105;103.38865;,
 163.61945;232.79105;103.38865;,
 153.06975;218.39040;103.38865;,
 163.61945;218.39040;103.38865;,
 153.06975;111.58715;103.38865;,
 163.61945;111.58715;103.38865;,
 153.06975;97.18670;103.38865;,
 163.61945;97.18670;103.38865;,
 153.06975;15.58410;103.38865;,
 163.61945;15.58410;103.38865;,
 153.06975;1.18375;103.38865;,
 163.61945;1.18375;103.38865;,
 153.06975;337.19446;103.38865;,
 153.06975;337.19446;-0.69450;,
 153.06975;322.79404;-0.69450;,
 153.06975;322.79404;103.38865;,
 153.06975;232.79105;-0.69450;,
 153.06975;232.79105;103.38865;,
 153.06975;218.39040;-0.69450;,
 153.06975;218.39040;103.38865;,
 153.06975;111.58715;-0.69450;,
 153.06975;111.58715;103.38865;,
 153.06975;97.18670;-0.69450;,
 153.06975;97.18670;103.38865;,
 153.06975;15.58410;-0.69450;,
 153.06975;15.58410;103.38865;,
 153.06975;1.18375;-0.69450;,
 153.06975;1.18375;103.38865;,
 153.06975;337.19446;-0.69450;,
 163.61945;337.19446;-0.69450;,
 163.61945;322.79404;-0.69450;,
 153.06975;322.79404;-0.69450;,
 163.61945;232.79105;-0.69450;,
 153.06975;232.79105;-0.69450;,
 163.61945;218.39040;-0.69450;,
 153.06975;218.39040;-0.69450;,
 163.61945;111.58715;-0.69450;,
 153.06975;111.58715;-0.69450;,
 163.61945;97.18670;-0.69450;,
 153.06975;97.18670;-0.69450;,
 163.61945;15.58410;-0.69450;,
 153.06975;15.58410;-0.69450;,
 163.61945;1.18375;-0.69450;,
 153.06975;1.18375;-0.69450;,
 163.61945;337.19446;-0.69450;,
 153.06975;337.19446;103.38865;,
 163.61945;337.19446;103.38865;,
 163.61945;1.18375;103.38865;,
 153.06975;1.18375;103.38865;,
 163.61945;1.18375;-0.69450;,
 163.61945;232.79105;3.79520;,
 163.61945;322.79404;3.79520;,
 163.61945;111.58715;3.79520;,
 163.61945;218.39040;3.79520;,
 163.61945;15.58410;3.79520;,
 163.61945;97.18670;3.79520;,
 -316.20901;337.19446;-104.64585;,
 -305.65924;337.19446;-104.64585;,
 -305.65924;322.79404;-104.64585;,
 -316.20901;322.79404;-104.64585;,
 -10.26835;337.19446;-104.64585;,
 -10.26835;322.79404;-104.64585;,
 0.28135;337.19446;-104.64585;,
 0.28135;322.79404;-104.64585;,
 -305.65924;232.79105;-104.64585;,
 -316.20901;232.79105;-104.64585;,
 0.28135;232.79105;-104.64585;,
 -10.26835;232.79105;-104.64585;,
 -305.65924;218.39040;-104.64585;,
 -316.20901;218.39040;-104.64585;,
 -10.26835;218.39040;-104.64585;,
 0.28135;218.39040;-104.64585;,
 -305.65924;111.58715;-104.64585;,
 -316.20901;111.58715;-104.64585;,
 0.28135;111.58715;-104.64585;,
 -10.26835;111.58715;-104.64585;,
 -305.65924;97.18670;-104.64585;,
 -316.20901;97.18670;-104.64585;,
 -10.26835;97.18670;-104.64585;,
 0.28135;97.18670;-104.64585;,
 -305.65924;15.58410;-104.64585;,
 -316.20901;15.58410;-104.64585;,
 0.28135;15.58410;-104.64585;,
 -10.26835;15.58410;-104.64585;,
 -305.65924;1.18375;-104.64585;,
 -316.20901;1.18375;-104.64585;,
 -10.26835;1.18375;-104.64585;,
 0.28135;1.18375;-104.64585;,
 0.28135;337.19446;-104.64585;,
 0.28135;337.19446;-0.56265;,
 0.28135;322.79404;-0.56265;,
 0.28135;322.79404;-104.64585;,
 0.28135;232.79105;-0.56265;,
 0.28135;232.79105;-104.64585;,
 0.28135;218.39040;-0.56265;,
 0.28135;218.39040;-104.64585;,
 0.28135;111.58715;-0.56265;,
 0.28135;111.58715;-104.64585;,
 0.28135;97.18670;-0.56265;,
 0.28135;97.18670;-104.64585;,
 0.28135;15.58410;-0.56265;,
 0.28135;15.58410;-104.64585;,
 0.28135;1.18375;-0.56265;,
 0.28135;1.18375;-104.64585;,
 0.28135;337.19446;-0.56265;,
 -10.26835;337.19446;-0.56265;,
 -10.26835;322.79404;-0.56265;,
 0.28135;322.79404;-0.56265;,
 -305.65924;337.19446;-0.56265;,
 -305.65924;322.79404;-0.56265;,
 -316.20901;337.19446;-0.56265;,
 -316.20901;322.79404;-0.56265;,
 -10.26835;232.79105;-0.56265;,
 0.28135;232.79105;-0.56265;,
 -305.65924;232.79105;-0.56265;,
 -316.20901;232.79105;-0.56265;,
 -10.26835;218.39040;-0.56265;,
 0.28135;218.39040;-0.56265;,
 -305.65924;218.39040;-0.56265;,
 -316.20901;218.39040;-0.56265;,
 -10.26835;111.58715;-0.56265;,
 0.28135;111.58715;-0.56265;,
 -305.65924;111.58715;-0.56265;,
 -316.20901;111.58715;-0.56265;,
 -10.26835;97.18670;-0.56265;,
 0.28135;97.18670;-0.56265;,
 -305.65924;97.18670;-0.56265;,
 -316.20901;97.18670;-0.56265;,
 -10.26835;15.58410;-0.56265;,
 0.28135;15.58410;-0.56265;,
 -305.65924;15.58410;-0.56265;,
 -316.20901;15.58410;-0.56265;,
 -10.26835;1.18375;-0.56265;,
 0.28135;1.18375;-0.56265;,
 -305.65924;1.18375;-0.56265;,
 -316.20901;1.18375;-0.56265;,
 -316.20901;337.19446;-0.56265;,
 -316.20901;337.19446;-104.64585;,
 -316.20901;322.79404;-104.64585;,
 -316.20901;322.79404;-0.56265;,
 -316.20901;232.79105;-104.64585;,
 -316.20901;232.79105;-0.56265;,
 -316.20901;218.39040;-104.64585;,
 -316.20901;218.39040;-0.56265;,
 -316.20901;111.58715;-104.64585;,
 -316.20901;111.58715;-0.56265;,
 -316.20901;97.18670;-104.64585;,
 -316.20901;97.18670;-0.56265;,
 -316.20901;15.58410;-104.64585;,
 -316.20901;15.58410;-0.56265;,
 -316.20901;1.18375;-104.64585;,
 -316.20901;1.18375;-0.56265;,
 -305.65924;337.19446;-0.56265;,
 -305.65924;337.19446;-104.64585;,
 -316.20901;337.19446;-104.64585;,
 -10.26835;337.19446;-0.56265;,
 -10.26835;337.19446;-104.64585;,
 0.28135;337.19446;-104.64585;,
 -316.20901;1.18375;-104.64585;,
 -305.65924;1.18375;-104.64585;,
 -305.65924;1.18375;-0.56265;,
 -10.26835;1.18375;-104.64585;,
 -10.26835;1.18375;-0.56265;,
 0.28135;1.18375;-104.64585;,
 -10.26835;322.79404;-5.05235;,
 -305.65924;322.79404;-5.05235;,
 -10.26835;232.79105;-5.05235;,
 -305.65924;232.79105;-5.05235;,
 -10.26835;218.39040;-5.05235;,
 -305.65924;218.39040;-5.05235;,
 -10.26835;111.58715;-5.05235;,
 -305.65924;111.58715;-5.05235;,
 -10.26835;97.18670;-5.05235;,
 -305.65924;97.18670;-5.05235;,
 -10.26835;15.58410;-5.05235;,
 -305.65924;15.58410;-5.05235;,
 -163.54260;337.19446;-104.64585;,
 -152.99290;337.19446;-104.64585;,
 -152.99290;322.79404;-104.64585;,
 -163.54260;322.79404;-104.64585;,
 -152.99290;232.79105;-104.64585;,
 -163.54260;232.79105;-104.64585;,
 -152.99290;218.39040;-104.64585;,
 -163.54260;218.39040;-104.64585;,
 -152.99290;111.58715;-104.64585;,
 -163.54260;111.58715;-104.64585;,
 -152.99290;97.18670;-104.64585;,
 -163.54260;97.18670;-104.64585;,
 -152.99290;15.58410;-104.64585;,
 -163.54260;15.58410;-104.64585;,
 -152.99290;1.18375;-104.64585;,
 -163.54260;1.18375;-104.64585;,
 -152.99290;337.19446;-104.64585;,
 -152.99290;337.19446;-0.56265;,
 -152.99290;322.79404;-0.56265;,
 -152.99290;322.79404;-104.64585;,
 -152.99290;232.79105;-0.56265;,
 -152.99290;232.79105;-104.64585;,
 -152.99290;218.39040;-0.56265;,
 -152.99290;218.39040;-104.64585;,
 -152.99290;111.58715;-0.56265;,
 -152.99290;111.58715;-104.64585;,
 -152.99290;97.18670;-0.56265;,
 -152.99290;97.18670;-104.64585;,
 -152.99290;15.58410;-0.56265;,
 -152.99290;15.58410;-104.64585;,
 -152.99290;1.18375;-0.56265;,
 -152.99290;1.18375;-104.64585;,
 -152.99290;337.19446;-0.56265;,
 -163.54260;337.19446;-0.56265;,
 -163.54260;322.79404;-0.56265;,
 -152.99290;322.79404;-0.56265;,
 -163.54260;232.79105;-0.56265;,
 -152.99290;232.79105;-0.56265;,
 -163.54260;218.39040;-0.56265;,
 -152.99290;218.39040;-0.56265;,
 -163.54260;111.58715;-0.56265;,
 -152.99290;111.58715;-0.56265;,
 -163.54260;97.18670;-0.56265;,
 -152.99290;97.18670;-0.56265;,
 -163.54260;15.58410;-0.56265;,
 -152.99290;15.58410;-0.56265;,
 -163.54260;1.18375;-0.56265;,
 -152.99290;1.18375;-0.56265;,
 -163.54260;337.19446;-0.56265;,
 -152.99290;337.19446;-104.64585;,
 -163.54260;337.19446;-104.64585;,
 -163.54260;1.18375;-104.64585;,
 -152.99290;1.18375;-104.64585;,
 -163.54260;1.18375;-0.56265;,
 -163.54260;232.79105;-5.05235;,
 -163.54260;322.79404;-5.05235;,
 -163.54260;111.58715;-5.05235;,
 -163.54260;218.39040;-5.05235;,
 -163.54260;15.58410;-5.05235;,
 -163.54260;97.18670;-5.05235;,
 0.28140;337.19446;103.39380;,
 -10.26835;337.19446;103.39380;,
 -10.26835;322.79404;103.39380;,
 0.28140;322.79404;103.39380;,
 -305.65924;337.19446;103.39380;,
 -305.65924;322.79404;103.39380;,
 -316.20901;337.19446;103.39385;,
 -316.20901;322.79404;103.39385;,
 -10.26835;232.79105;103.39380;,
 0.28140;232.79105;103.39380;,
 -316.20901;232.79105;103.39385;,
 -305.65924;232.79105;103.39380;,
 -10.26835;218.39040;103.39380;,
 0.28140;218.39040;103.39380;,
 -305.65924;218.39040;103.39380;,
 -316.20901;218.39040;103.39385;,
 -10.26835;111.58715;103.39380;,
 0.28140;111.58715;103.39380;,
 -316.20901;111.58715;103.39385;,
 -305.65924;111.58715;103.39380;,
 -10.26835;97.18670;103.39380;,
 0.28140;97.18670;103.39380;,
 -305.65924;97.18670;103.39380;,
 -316.20901;97.18670;103.39385;,
 -10.26835;15.58410;103.39380;,
 0.28140;15.58410;103.39380;,
 -316.20901;15.58410;103.39385;,
 -305.65924;15.58410;103.39380;,
 -10.26835;1.18375;103.39380;,
 0.28140;1.18375;103.39380;,
 -305.65924;1.18375;103.39380;,
 -316.20901;1.18375;103.39385;,
 -316.20901;337.19446;103.39385;,
 -316.20901;337.19446;-0.68950;,
 -316.20901;322.79404;-0.68950;,
 -316.20901;322.79404;103.39385;,
 -316.20901;232.79105;-0.68950;,
 -316.20901;232.79105;103.39385;,
 -316.20901;218.39040;-0.68950;,
 -316.20901;218.39040;103.39385;,
 -316.20901;111.58715;-0.68950;,
 -316.20901;111.58715;103.39385;,
 -316.20901;97.18670;-0.68950;,
 -316.20901;97.18670;103.39385;,
 -316.20901;15.58410;-0.68950;,
 -316.20901;15.58410;103.39385;,
 -316.20901;1.18375;-0.68950;,
 -316.20901;1.18375;103.39385;,
 -316.20901;337.19446;-0.68950;,
 -305.65924;337.19446;-0.68950;,
 -305.65924;322.79404;-0.68950;,
 -316.20901;322.79404;-0.68950;,
 -10.26835;337.19446;-0.68950;,
 -10.26835;322.79404;-0.68950;,
 0.28140;337.19446;-0.68950;,
 0.28140;322.79404;-0.68950;,
 -305.65924;232.79105;-0.68950;,
 -316.20901;232.79105;-0.68950;,
 -10.26835;232.79105;-0.68950;,
 0.28140;232.79105;-0.68950;,
 -305.65924;218.39040;-0.68950;,
 -316.20901;218.39040;-0.68950;,
 -10.26835;218.39040;-0.68950;,
 0.28140;218.39040;-0.68950;,
 -305.65924;111.58715;-0.68950;,
 -316.20901;111.58715;-0.68950;,
 -10.26835;111.58715;-0.68950;,
 0.28140;111.58715;-0.68950;,
 -305.65924;97.18670;-0.68950;,
 -316.20901;97.18670;-0.68950;,
 -10.26835;97.18670;-0.68950;,
 0.28140;97.18670;-0.68950;,
 -305.65924;15.58410;-0.68950;,
 -316.20901;15.58410;-0.68950;,
 -10.26835;15.58410;-0.68950;,
 0.28140;15.58410;-0.68950;,
 -305.65924;1.18375;-0.68950;,
 -316.20901;1.18375;-0.68950;,
 -10.26835;1.18375;-0.68950;,
 0.28140;1.18375;-0.68950;,
 0.28140;337.19446;-0.68950;,
 0.28140;337.19446;103.39380;,
 0.28140;322.79404;103.39380;,
 0.28140;322.79404;-0.68950;,
 0.28140;232.79105;103.39380;,
 0.28140;232.79105;-0.68950;,
 0.28140;218.39040;103.39380;,
 0.28140;218.39040;-0.68950;,
 0.28140;111.58715;103.39380;,
 0.28140;111.58715;-0.68950;,
 0.28140;97.18670;103.39380;,
 0.28140;97.18670;-0.68950;,
 0.28140;15.58410;103.39380;,
 0.28140;15.58410;-0.68950;,
 0.28140;1.18375;103.39380;,
 0.28140;1.18375;-0.68950;,
 -10.26835;337.19446;-0.68950;,
 -10.26835;337.19446;103.39380;,
 0.28140;337.19446;103.39380;,
 -305.65924;337.19446;-0.68950;,
 -305.65924;337.19446;103.39380;,
 -316.20901;337.19446;103.39385;,
 0.28140;1.18375;103.39380;,
 -10.26835;1.18375;103.39380;,
 -10.26835;1.18375;-0.68950;,
 -305.65924;1.18375;103.39380;,
 -305.65924;1.18375;-0.68950;,
 -316.20901;1.18375;103.39385;,
 -305.65924;322.79404;3.80025;,
 -10.26835;322.79404;3.80020;,
 -305.65924;232.79105;3.80025;,
 -10.26835;232.79105;3.80020;,
 -305.65924;218.39040;3.80025;,
 -10.26835;218.39040;3.80020;,
 -305.65924;111.58715;3.80025;,
 -10.26835;111.58715;3.80020;,
 -305.65924;97.18670;3.80025;,
 -10.26835;97.18670;3.80020;,
 -305.65924;15.58410;3.80025;,
 -10.26835;15.58410;3.80020;,
 -152.38530;337.19446;103.39380;,
 -162.93500;337.19446;103.39380;,
 -162.93500;322.79404;103.39380;,
 -152.38530;322.79404;103.39380;,
 -162.93500;232.79105;103.39380;,
 -152.38530;232.79105;103.39380;,
 -162.93500;218.39040;103.39380;,
 -152.38530;218.39040;103.39380;,
 -162.93500;111.58715;103.39380;,
 -152.38530;111.58715;103.39380;,
 -162.93500;97.18670;103.39380;,
 -152.38530;97.18670;103.39380;,
 -162.93500;15.58410;103.39380;,
 -152.38530;15.58410;103.39380;,
 -162.93500;1.18375;103.39380;,
 -152.38530;1.18375;103.39380;,
 -162.93500;337.19446;103.39380;,
 -162.93500;337.19446;-0.68950;,
 -162.93500;322.79404;-0.68950;,
 -162.93500;322.79404;103.39380;,
 -162.93500;232.79105;-0.68950;,
 -162.93500;232.79105;103.39380;,
 -162.93500;218.39040;-0.68950;,
 -162.93500;218.39040;103.39380;,
 -162.93500;111.58715;-0.68950;,
 -162.93500;111.58715;103.39380;,
 -162.93500;97.18670;-0.68950;,
 -162.93500;97.18670;103.39380;,
 -162.93500;15.58410;-0.68950;,
 -162.93500;15.58410;103.39380;,
 -162.93500;1.18375;-0.68950;,
 -162.93500;1.18375;103.39380;,
 -162.93500;337.19446;-0.68950;,
 -152.38530;337.19446;-0.68950;,
 -152.38530;322.79404;-0.68950;,
 -162.93500;322.79404;-0.68950;,
 -152.38530;232.79105;-0.68950;,
 -162.93500;232.79105;-0.68950;,
 -152.38530;218.39040;-0.68950;,
 -162.93500;218.39040;-0.68950;,
 -152.38530;111.58715;-0.68950;,
 -162.93500;111.58715;-0.68950;,
 -152.38530;97.18670;-0.68950;,
 -162.93500;97.18670;-0.68950;,
 -152.38530;15.58410;-0.68950;,
 -162.93500;15.58410;-0.68950;,
 -152.38530;1.18375;-0.68950;,
 -162.93500;1.18375;-0.68950;,
 -152.38530;337.19446;-0.68950;,
 -162.93500;337.19446;103.39380;,
 -152.38530;337.19446;103.39380;,
 -152.38530;1.18375;103.39380;,
 -162.93500;1.18375;103.39380;,
 -152.38530;1.18375;-0.68950;,
 -152.38530;232.79105;3.80020;,
 -152.38530;322.79404;3.80020;,
 -152.38530;111.58715;3.80020;,
 -152.38530;218.39040;3.80020;,
 -152.38530;15.58410;3.80020;,
 -152.38530;97.18670;3.80020;;
 
 400;
 4;0,1,2,3;,
 4;1,4,5,2;,
 4;4,6,7,5;,
 4;3,2,8,9;,
 4;5,7,10,11;,
 4;9,8,12,13;,
 4;8,11,14,12;,
 4;11,10,15,14;,
 4;13,12,16,17;,
 4;14,15,18,19;,
 4;17,16,20,21;,
 4;16,19,22,20;,
 4;19,18,23,22;,
 4;21,20,24,25;,
 4;22,23,26,27;,
 4;25,24,28,29;,
 4;24,27,30,28;,
 4;27,26,31,30;,
 4;32,33,34,35;,
 4;35,34,36,37;,
 4;37,36,38,39;,
 4;39,38,40,41;,
 4;41,40,42,43;,
 4;43,42,44,45;,
 4;45,44,46,47;,
 4;48,49,50,51;,
 4;49,52,53,50;,
 4;52,54,55,53;,
 4;51,50,56,57;,
 4;50,53,58,56;,
 4;53,55,59,58;,
 4;57,56,60,61;,
 4;56,58,62,60;,
 4;58,59,63,62;,
 4;61,60,64,65;,
 4;60,62,66,64;,
 4;62,63,67,66;,
 4;65,64,68,69;,
 4;64,66,70,68;,
 4;66,67,71,70;,
 4;69,68,72,73;,
 4;68,70,74,72;,
 4;70,71,75,74;,
 4;73,72,76,77;,
 4;72,74,78,76;,
 4;74,75,79,78;,
 4;80,81,82,83;,
 4;83,82,84,85;,
 4;85,84,86,87;,
 4;87,86,88,89;,
 4;89,88,90,91;,
 4;91,90,92,93;,
 4;93,92,94,95;,
 4;80,96,97,98;,
 4;96,99,100,97;,
 4;99,33,101,100;,
 4;102,103,104,95;,
 4;103,105,106,104;,
 4;105,107,46,106;,
 4;108,109,2,5;,
 4;110,108,5,11;,
 4;111,110,11,8;,
 4;109,111,8,2;,
 4;109,108,110,111;,
 4;112,113,12,14;,
 4;114,112,14,19;,
 4;115,114,19,16;,
 4;113,115,16,12;,
 4;113,112,114,115;,
 4;116,117,20,22;,
 4;118,116,22,27;,
 4;119,118,27,24;,
 4;117,119,24,20;,
 4;117,116,118,119;,
 4;120,121,122,123;,
 4;123,122,124,125;,
 4;125,124,126,127;,
 4;127,126,128,129;,
 4;129,128,130,131;,
 4;131,130,132,133;,
 4;133,132,134,135;,
 4;136,137,138,139;,
 4;139,138,140,141;,
 4;141,140,142,143;,
 4;143,142,144,145;,
 4;145,144,146,147;,
 4;147,146,148,149;,
 4;149,148,150,151;,
 4;152,153,154,155;,
 4;155,154,156,157;,
 4;157,156,158,159;,
 4;159,158,160,161;,
 4;161,160,162,163;,
 4;163,162,164,165;,
 4;165,164,166,167;,
 4;168,137,169,170;,
 4;171,172,150,173;,
 4;174,175,123,125;,
 4;176,177,127,129;,
 4;178,179,131,133;,
 4;180,181,182,183;,
 4;181,184,185,182;,
 4;184,186,187,185;,
 4;183,182,188,189;,
 4;185,187,190,191;,
 4;189,188,192,193;,
 4;188,191,194,192;,
 4;191,190,195,194;,
 4;193,192,196,197;,
 4;194,195,198,199;,
 4;197,196,200,201;,
 4;196,199,202,200;,
 4;199,198,203,202;,
 4;201,200,204,205;,
 4;202,203,206,207;,
 4;205,204,208,209;,
 4;204,207,210,208;,
 4;207,206,211,210;,
 4;212,213,214,215;,
 4;215,214,216,217;,
 4;217,216,218,219;,
 4;219,218,220,221;,
 4;221,220,222,223;,
 4;223,222,224,225;,
 4;225,224,226,227;,
 4;228,229,230,231;,
 4;229,232,233,230;,
 4;232,234,235,233;,
 4;231,230,236,237;,
 4;230,233,238,236;,
 4;233,235,239,238;,
 4;237,236,240,241;,
 4;236,238,242,240;,
 4;238,239,243,242;,
 4;241,240,244,245;,
 4;240,242,246,244;,
 4;242,243,247,246;,
 4;245,244,248,249;,
 4;244,246,250,248;,
 4;246,247,251,250;,
 4;249,248,252,253;,
 4;248,250,254,252;,
 4;250,251,255,254;,
 4;253,252,256,257;,
 4;252,254,258,256;,
 4;254,255,259,258;,
 4;260,261,262,263;,
 4;263,262,264,265;,
 4;265,264,266,267;,
 4;267,266,268,269;,
 4;269,268,270,271;,
 4;271,270,272,273;,
 4;273,272,274,275;,
 4;260,276,277,278;,
 4;276,279,280,277;,
 4;279,213,281,280;,
 4;282,283,284,275;,
 4;283,285,286,284;,
 4;285,287,226,286;,
 4;288,289,182,185;,
 4;290,288,185,191;,
 4;291,290,191,188;,
 4;289,291,188,182;,
 4;289,288,290,291;,
 4;292,293,192,194;,
 4;294,292,194,199;,
 4;295,294,199,196;,
 4;293,295,196,192;,
 4;293,292,294,295;,
 4;296,297,200,202;,
 4;298,296,202,207;,
 4;299,298,207,204;,
 4;297,299,204,200;,
 4;297,296,298,299;,
 4;300,301,302,303;,
 4;303,302,304,305;,
 4;305,304,306,307;,
 4;307,306,308,309;,
 4;309,308,310,311;,
 4;311,310,312,313;,
 4;313,312,314,315;,
 4;316,317,318,319;,
 4;319,318,320,321;,
 4;321,320,322,323;,
 4;323,322,324,325;,
 4;325,324,326,327;,
 4;327,326,328,329;,
 4;329,328,330,331;,
 4;332,333,334,335;,
 4;335,334,336,337;,
 4;337,336,338,339;,
 4;339,338,340,341;,
 4;341,340,342,343;,
 4;343,342,344,345;,
 4;345,344,346,347;,
 4;348,317,349,350;,
 4;351,352,330,353;,
 4;354,355,303,305;,
 4;356,357,307,309;,
 4;358,359,311,313;,
 4;360,361,362,363;,
 4;361,364,365,362;,
 4;364,366,367,365;,
 4;363,362,368,369;,
 4;365,367,370,371;,
 4;369,368,372,373;,
 4;368,371,374,372;,
 4;371,370,375,374;,
 4;373,372,376,377;,
 4;374,375,378,379;,
 4;377,376,380,381;,
 4;376,379,382,380;,
 4;379,378,383,382;,
 4;381,380,384,385;,
 4;382,383,386,387;,
 4;385,384,388,389;,
 4;384,387,390,388;,
 4;387,386,391,390;,
 4;392,393,394,395;,
 4;395,394,396,397;,
 4;397,396,398,399;,
 4;399,398,400,401;,
 4;401,400,402,403;,
 4;403,402,404,405;,
 4;405,404,406,407;,
 4;408,409,410,411;,
 4;409,412,413,410;,
 4;412,414,415,413;,
 4;411,410,416,417;,
 4;410,413,418,416;,
 4;413,415,419,418;,
 4;417,416,420,421;,
 4;416,418,422,420;,
 4;418,419,423,422;,
 4;421,420,424,425;,
 4;420,422,426,424;,
 4;422,423,427,426;,
 4;425,424,428,429;,
 4;424,426,430,428;,
 4;426,427,431,430;,
 4;429,428,432,433;,
 4;428,430,434,432;,
 4;430,431,435,434;,
 4;433,432,436,437;,
 4;432,434,438,436;,
 4;434,435,439,438;,
 4;440,441,442,443;,
 4;443,442,444,445;,
 4;445,444,446,447;,
 4;447,446,448,449;,
 4;449,448,450,451;,
 4;451,450,452,453;,
 4;453,452,454,455;,
 4;440,456,457,458;,
 4;456,459,460,457;,
 4;459,393,461,460;,
 4;462,463,464,455;,
 4;463,465,466,464;,
 4;465,467,406,466;,
 4;468,469,362,365;,
 4;470,468,365,371;,
 4;471,470,371,368;,
 4;469,471,368,362;,
 4;469,468,470,471;,
 4;472,473,372,374;,
 4;474,472,374,379;,
 4;475,474,379,376;,
 4;473,475,376,372;,
 4;473,472,474,475;,
 4;476,477,380,382;,
 4;478,476,382,387;,
 4;479,478,387,384;,
 4;477,479,384,380;,
 4;477,476,478,479;,
 4;480,481,482,483;,
 4;483,482,484,485;,
 4;485,484,486,487;,
 4;487,486,488,489;,
 4;489,488,490,491;,
 4;491,490,492,493;,
 4;493,492,494,495;,
 4;496,497,498,499;,
 4;499,498,500,501;,
 4;501,500,502,503;,
 4;503,502,504,505;,
 4;505,504,506,507;,
 4;507,506,508,509;,
 4;509,508,510,511;,
 4;512,513,514,515;,
 4;515,514,516,517;,
 4;517,516,518,519;,
 4;519,518,520,521;,
 4;521,520,522,523;,
 4;523,522,524,525;,
 4;525,524,526,527;,
 4;528,497,529,530;,
 4;531,532,510,533;,
 4;534,535,483,485;,
 4;536,537,487,489;,
 4;538,539,491,493;,
 4;540,541,542,543;,
 4;541,544,545,542;,
 4;544,546,547,545;,
 4;543,542,548,549;,
 4;545,547,550,551;,
 4;549,548,552,553;,
 4;548,551,554,552;,
 4;551,550,555,554;,
 4;553,552,556,557;,
 4;554,555,558,559;,
 4;557,556,560,561;,
 4;556,559,562,560;,
 4;559,558,563,562;,
 4;561,560,564,565;,
 4;562,563,566,567;,
 4;565,564,568,569;,
 4;564,567,570,568;,
 4;567,566,571,570;,
 4;572,573,574,575;,
 4;575,574,576,577;,
 4;577,576,578,579;,
 4;579,578,580,581;,
 4;581,580,582,583;,
 4;583,582,584,585;,
 4;585,584,586,587;,
 4;588,589,590,591;,
 4;589,592,593,590;,
 4;592,594,595,593;,
 4;591,590,596,597;,
 4;590,593,598,596;,
 4;593,595,599,598;,
 4;597,596,600,601;,
 4;596,598,602,600;,
 4;598,599,603,602;,
 4;601,600,604,605;,
 4;600,602,606,604;,
 4;602,603,607,606;,
 4;605,604,608,609;,
 4;604,606,610,608;,
 4;606,607,611,610;,
 4;609,608,612,613;,
 4;608,610,614,612;,
 4;610,611,615,614;,
 4;613,612,616,617;,
 4;612,614,618,616;,
 4;614,615,619,618;,
 4;620,621,622,623;,
 4;623,622,624,625;,
 4;625,624,626,627;,
 4;627,626,628,629;,
 4;629,628,630,631;,
 4;631,630,632,633;,
 4;633,632,634,635;,
 4;620,636,637,638;,
 4;636,639,640,637;,
 4;639,573,641,640;,
 4;642,643,644,635;,
 4;643,645,646,644;,
 4;645,647,586,646;,
 4;648,649,542,545;,
 4;650,648,545,551;,
 4;651,650,551,548;,
 4;649,651,548,542;,
 4;649,648,650,651;,
 4;652,653,552,554;,
 4;654,652,554,559;,
 4;655,654,559,556;,
 4;653,655,556,552;,
 4;653,652,654,655;,
 4;656,657,560,562;,
 4;658,656,562,567;,
 4;659,658,567,564;,
 4;657,659,564,560;,
 4;657,656,658,659;,
 4;660,661,662,663;,
 4;663,662,664,665;,
 4;665,664,666,667;,
 4;667,666,668,669;,
 4;669,668,670,671;,
 4;671,670,672,673;,
 4;673,672,674,675;,
 4;676,677,678,679;,
 4;679,678,680,681;,
 4;681,680,682,683;,
 4;683,682,684,685;,
 4;685,684,686,687;,
 4;687,686,688,689;,
 4;689,688,690,691;,
 4;692,693,694,695;,
 4;695,694,696,697;,
 4;697,696,698,699;,
 4;699,698,700,701;,
 4;701,700,702,703;,
 4;703,702,704,705;,
 4;705,704,706,707;,
 4;708,677,709,710;,
 4;711,712,690,713;,
 4;714,715,663,665;,
 4;716,717,667,669;,
 4;718,719,671,673;;
 
 MeshMaterialList {
  1;
  400;
  0,
  0,
  0,
  0,
  0,
  0,
  0,
  0,
  0,
  0,
  0,
  0,
  0,
  0,
  0,
  0,
  0,
  0,
  0,
  0,
  0,
  0,
  0,
  0,
  0,
  0,
  0,
  0,
  0,
  0,
  0,
  0,
  0,
  0,
  0,
  0,
  0,
  0,
  0,
  0,
  0,
  0,
  0,
  0,
  0,
  0,
  0,
  0,
  0,
  0,
  0,
  0,
  0,
  0,
  0,
  0,
  0,
  0,
  0,
  0,
  0,
  0,
  0,
  0,
  0,
  0,
  0,
  0,
  0,
  0,
  0,
  0,
  0,
  0,
  0,
  0,
  0,
  0,
  0,
  0,
  0,
  0,
  0,
  0,
  0,
  0,
  0,
  0,
  0,
  0,
  0,
  0,
  0,
  0,
  0,
  0,
  0,
  0,
  0,
  0,
  0,
  0,
  0,
  0,
  0,
  0,
  0,
  0,
  0,
  0,
  0,
  0,
  0,
  0,
  0,
  0,
  0,
  0,
  0,
  0,
  0,
  0,
  0,
  0,
  0,
  0,
  0,
  0,
  0,
  0,
  0,
  0,
  0,
  0,
  0,
  0,
  0,
  0,
  0,
  0,
  0,
  0,
  0,
  0,
  0,
  0,
  0,
  0,
  0,
  0,
  0,
  0,
  0,
  0,
  0,
  0,
  0,
  0,
  0,
  0,
  0,
  0,
  0,
  0,
  0,
  0,
  0,
  0,
  0,
  0,
  0,
  0,
  0,
  0,
  0,
  0,
  0,
  0,
  0,
  0,
  0,
  0,
  0,
  0,
  0,
  0,
  0,
  0,
  0,
  0,
  0,
  0,
  0,
  0,
  0,
  0,
  0,
  0,
  0,
  0,
  0,
  0,
  0,
  0,
  0,
  0,
  0,
  0,
  0,
  0,
  0,
  0,
  0,
  0,
  0,
  0,
  0,
  0,
  0,
  0,
  0,
  0,
  0,
  0,
  0,
  0,
  0,
  0,
  0,
  0,
  0,
  0,
  0,
  0,
  0,
  0,
  0,
  0,
  0,
  0,
  0,
  0,
  0,
  0,
  0,
  0,
  0,
  0,
  0,
  0,
  0,
  0,
  0,
  0,
  0,
  0,
  0,
  0,
  0,
  0,
  0,
  0,
  0,
  0,
  0,
  0,
  0,
  0,
  0,
  0,
  0,
  0,
  0,
  0,
  0,
  0,
  0,
  0,
  0,
  0,
  0,
  0,
  0,
  0,
  0,
  0,
  0,
  0,
  0,
  0,
  0,
  0,
  0,
  0,
  0,
  0,
  0,
  0,
  0,
  0,
  0,
  0,
  0,
  0,
  0,
  0,
  0,
  0,
  0,
  0,
  0,
  0,
  0,
  0,
  0,
  0,
  0,
  0,
  0,
  0,
  0,
  0,
  0,
  0,
  0,
  0,
  0,
  0,
  0,
  0,
  0,
  0,
  0,
  0,
  0,
  0,
  0,
  0,
  0,
  0,
  0,
  0,
  0,
  0,
  0,
  0,
  0,
  0,
  0,
  0,
  0,
  0,
  0,
  0,
  0,
  0,
  0,
  0,
  0,
  0,
  0,
  0,
  0,
  0,
  0,
  0,
  0,
  0,
  0,
  0,
  0,
  0,
  0,
  0,
  0,
  0,
  0,
  0,
  0,
  0,
  0,
  0,
  0,
  0,
  0,
  0,
  0,
  0,
  0,
  0,
  0,
  0,
  0,
  0,
  0,
  0,
  0,
  0,
  0,
  0;;
  Material {
   1.000000;1.000000;1.000000;1.000000;;
   0.000000;
   0.000000;0.000000;0.000000;;
   0.000000;0.000000;0.000000;;
  }
 }
 MeshNormals {
  17;
  0.000000;0.000000;-1.000000;,
  1.000000;0.000000;0.000000;,
  0.000000;0.000000;1.000000;,
  0.000000;-1.000000;0.000000;,
  0.000000;1.000000;0.000000;,
  -1.000000;0.000000;0.000000;,
  -0.000000;0.000000;-1.000000;,
  -0.000000;0.000000;-1.000000;,
  -0.000000;0.000000;-1.000000;,
  0.000003;0.000000;1.000000;,
  0.000003;0.000000;1.000000;,
  0.000003;0.000000;1.000000;,
  0.000005;0.000000;1.000000;,
  0.000005;0.000000;1.000000;,
  0.000000;0.000000;1.000000;,
  0.000000;0.000000;1.000000;,
  0.000000;0.000000;1.000000;;
  400;
  4;0,0,0,0;,
  4;0,0,0,0;,
  4;0,0,0,0;,
  4;0,0,0,0;,
  4;0,0,0,0;,
  4;0,0,0,0;,
  4;0,0,0,0;,
  4;0,0,0,0;,
  4;0,0,0,0;,
  4;0,0,0,0;,
  4;0,0,0,0;,
  4;0,0,0,0;,
  4;0,0,0,0;,
  4;0,0,0,0;,
  4;0,0,0,0;,
  4;0,0,0,0;,
  4;0,0,0,0;,
  4;0,0,0,0;,
  4;1,1,1,1;,
  4;1,1,1,1;,
  4;1,1,1,1;,
  4;1,1,1,1;,
  4;1,1,1,1;,
  4;1,1,1,1;,
  4;1,1,1,1;,
  4;2,2,2,2;,
  4;2,2,2,2;,
  4;2,2,2,2;,
  4;2,2,2,2;,
  4;2,2,2,2;,
  4;2,2,2,2;,
  4;2,2,2,2;,
  4;2,2,2,2;,
  4;2,2,2,2;,
  4;2,2,2,2;,
  4;2,2,2,2;,
  4;2,2,2,2;,
  4;2,2,2,2;,
  4;2,2,2,2;,
  4;2,2,2,2;,
  4;2,2,2,2;,
  4;2,2,2,2;,
  4;2,2,2,2;,
  4;2,2,2,2;,
  4;2,2,2,2;,
  4;2,2,2,2;,
  4;5,5,5,5;,
  4;5,5,5,5;,
  4;5,5,5,5;,
  4;5,5,5,5;,
  4;5,5,5,5;,
  4;5,5,5,5;,
  4;5,5,5,5;,
  4;4,4,4,4;,
  4;4,4,4,4;,
  4;4,4,4,4;,
  4;3,3,3,3;,
  4;3,3,3,3;,
  4;3,3,3,3;,
  4;3,3,3,3;,
  4;5,5,5,5;,
  4;4,4,4,4;,
  4;1,1,1,1;,
  4;0,0,0,0;,
  4;3,3,3,3;,
  4;5,5,5,5;,
  4;4,4,4,4;,
  4;1,1,1,1;,
  4;0,0,0,0;,
  4;3,3,3,3;,
  4;5,5,5,5;,
  4;4,4,4,4;,
  4;1,1,1,1;,
  4;0,0,0,0;,
  4;0,0,0,0;,
  4;0,0,0,0;,
  4;0,0,0,0;,
  4;0,0,0,0;,
  4;0,0,0,0;,
  4;0,0,0,0;,
  4;0,0,0,0;,
  4;1,1,1,1;,
  4;1,1,1,1;,
  4;1,1,1,1;,
  4;1,1,1,1;,
  4;1,1,1,1;,
  4;1,1,1,1;,
  4;1,1,1,1;,
  4;2,2,2,2;,
  4;2,2,2,2;,
  4;2,2,2,2;,
  4;2,2,2,2;,
  4;2,2,2,2;,
  4;2,2,2,2;,
  4;2,2,2,2;,
  4;4,4,4,4;,
  4;3,3,3,3;,
  4;5,5,5,5;,
  4;5,5,5,5;,
  4;5,5,5,5;,
  4;2,2,2,2;,
  4;2,2,2,2;,
  4;2,2,2,2;,
  4;2,2,2,2;,
  4;2,2,2,2;,
  4;2,2,2,2;,
  4;2,2,2,2;,
  4;2,2,2,2;,
  4;2,2,2,2;,
  4;2,2,2,2;,
  4;2,2,2,2;,
  4;2,2,2,2;,
  4;2,2,2,2;,
  4;2,2,2,2;,
  4;2,2,2,2;,
  4;2,2,2,2;,
  4;2,2,2,2;,
  4;2,2,2,2;,
  4;5,5,5,5;,
  4;5,5,5,5;,
  4;5,5,5,5;,
  4;5,5,5,5;,
  4;5,5,5,5;,
  4;5,5,5,5;,
  4;5,5,5,5;,
  4;0,6,6,0;,
  4;6,6,6,6;,
  4;6,0,0,6;,
  4;0,6,6,0;,
  4;6,6,6,6;,
  4;6,0,0,6;,
  4;0,6,6,0;,
  4;6,6,6,6;,
  4;6,0,0,6;,
  4;0,6,6,0;,
  4;6,6,6,6;,
  4;6,0,0,6;,
  4;0,6,7,0;,
  4;6,6,7,7;,
  4;6,0,0,7;,
  4;0,7,6,0;,
  4;7,7,6,6;,
  4;7,0,0,6;,
  4;0,6,8,0;,
  4;6,6,8,8;,
  4;6,0,0,8;,
  4;1,1,1,1;,
  4;1,1,1,1;,
  4;1,1,1,1;,
  4;1,1,1,1;,
  4;1,1,1,1;,
  4;1,1,1,1;,
  4;1,1,1,1;,
  4;4,4,4,4;,
  4;4,4,4,4;,
  4;4,4,4,4;,
  4;3,3,3,3;,
  4;3,3,3,3;,
  4;3,3,3,3;,
  4;3,3,3,3;,
  4;1,1,1,1;,
  4;4,4,4,4;,
  4;5,5,5,5;,
  4;14,14,14,14;,
  4;3,3,3,3;,
  4;1,1,1,1;,
  4;4,4,4,4;,
  4;5,5,5,5;,
  4;14,14,14,14;,
  4;3,3,3,3;,
  4;1,1,1,1;,
  4;4,4,4,4;,
  4;5,5,5,5;,
  4;15,15,15,15;,
  4;2,2,2,2;,
  4;2,2,2,2;,
  4;2,2,2,2;,
  4;2,2,2,2;,
  4;2,2,2,2;,
  4;2,2,2,2;,
  4;2,2,2,2;,
  4;5,5,5,5;,
  4;5,5,5,5;,
  4;5,5,5,5;,
  4;5,5,5,5;,
  4;5,5,5,5;,
  4;5,5,5,5;,
  4;5,5,5,5;,
  4;0,0,0,0;,
  4;0,0,0,0;,
  4;0,0,0,0;,
  4;0,0,0,0;,
  4;0,0,0,0;,
  4;0,0,0,0;,
  4;0,0,0,0;,
  4;4,4,4,4;,
  4;3,3,3,3;,
  4;1,1,1,1;,
  4;1,1,1,1;,
  4;1,1,1,1;,
  4;0,0,0,0;,
  4;0,0,0,0;,
  4;0,0,0,0;,
  4;0,0,0,0;,
  4;0,0,0,0;,
  4;0,0,0,0;,
  4;0,0,0,0;,
  4;0,0,0,0;,
  4;0,0,0,0;,
  4;0,0,0,0;,
  4;0,0,0,0;,
  4;0,0,0,0;,
  4;0,0,0,0;,
  4;0,0,0,0;,
  4;0,0,0,0;,
  4;0,0,0,0;,
  4;0,0,0,0;,
  4;0,0,0,0;,
  4;1,1,1,1;,
  4;1,1,1,1;,
  4;1,1,1,1;,
  4;1,1,1,1;,
  4;1,1,1,1;,
  4;1,1,1,1;,
  4;1,1,1,1;,
  4;2,2,2,2;,
  4;2,2,2,2;,
  4;2,2,2,2;,
  4;2,2,2,2;,
  4;2,2,2,2;,
  4;2,2,2,2;,
  4;2,2,2,2;,
  4;2,2,2,2;,
  4;2,2,2,2;,
  4;2,2,2,2;,
  4;2,2,2,2;,
  4;2,2,2,2;,
  4;2,2,2,2;,
  4;2,2,2,2;,
  4;2,2,2,2;,
  4;2,2,2,2;,
  4;2,2,2,2;,
  4;2,2,2,2;,
  4;2,2,2,2;,
  4;2,2,2,2;,
  4;2,2,2,2;,
  4;5,5,5,5;,
  4;5,5,5,5;,
  4;5,5,5,5;,
  4;5,5,5,5;,
  4;5,5,5,5;,
  4;5,5,5,5;,
  4;5,5,5,5;,
  4;4,4,4,4;,
  4;4,4,4,4;,
  4;4,4,4,4;,
  4;3,3,3,3;,
  4;3,3,3,3;,
  4;3,3,3,3;,
  4;3,3,3,3;,
  4;5,5,5,5;,
  4;4,4,4,4;,
  4;1,1,1,1;,
  4;0,0,0,0;,
  4;3,3,3,3;,
  4;5,5,5,5;,
  4;4,4,4,4;,
  4;1,1,1,1;,
  4;0,0,0,0;,
  4;3,3,3,3;,
  4;5,5,5,5;,
  4;4,4,4,4;,
  4;1,1,1,1;,
  4;0,0,0,0;,
  4;0,0,0,0;,
  4;0,0,0,0;,
  4;0,0,0,0;,
  4;0,0,0,0;,
  4;0,0,0,0;,
  4;0,0,0,0;,
  4;0,0,0,0;,
  4;1,1,1,1;,
  4;1,1,1,1;,
  4;1,1,1,1;,
  4;1,1,1,1;,
  4;1,1,1,1;,
  4;1,1,1,1;,
  4;1,1,1,1;,
  4;2,2,2,2;,
  4;2,2,2,2;,
  4;2,2,2,2;,
  4;2,2,2,2;,
  4;2,2,2,2;,
  4;2,2,2,2;,
  4;2,2,2,2;,
  4;4,4,4,4;,
  4;3,3,3,3;,
  4;5,5,5,5;,
  4;5,5,5,5;,
  4;5,5,5,5;,
  4;2,2,2,2;,
  4;2,9,10,2;,
  4;9,12,12,10;,
  4;2,2,2,2;,
  4;10,12,12,10;,
  4;2,2,2,2;,
  4;2,10,11,2;,
  4;10,12,13,11;,
  4;2,2,2,2;,
  4;11,13,12,10;,
  4;2,2,2,2;,
  4;2,10,10,2;,
  4;10,12,12,10;,
  4;2,2,2,2;,
  4;10,12,12,10;,
  4;2,2,2,2;,
  4;2,10,9,2;,
  4;10,12,12,9;,
  4;5,5,5,5;,
  4;5,5,5,5;,
  4;5,5,5,5;,
  4;5,5,5,5;,
  4;5,5,5,5;,
  4;5,5,5,5;,
  4;5,5,5,5;,
  4;0,0,0,0;,
  4;0,0,0,0;,
  4;0,0,0,0;,
  4;0,0,0,0;,
  4;0,0,0,0;,
  4;0,0,0,0;,
  4;0,0,0,0;,
  4;0,0,0,0;,
  4;0,0,0,0;,
  4;0,0,0,0;,
  4;0,0,0,0;,
  4;0,0,0,0;,
  4;0,0,0,0;,
  4;0,0,0,0;,
  4;0,0,0,0;,
  4;0,0,0,0;,
  4;0,0,0,0;,
  4;0,0,0,0;,
  4;0,0,0,0;,
  4;0,0,0,0;,
  4;0,0,0,0;,
  4;1,1,1,1;,
  4;1,1,1,1;,
  4;1,1,1,1;,
  4;1,1,1,1;,
  4;1,1,1,1;,
  4;1,1,1,1;,
  4;1,1,1,1;,
  4;4,4,4,4;,
  4;4,4,4,4;,
  4;4,4,4,4;,
  4;3,3,3,3;,
  4;3,3,3,3;,
  4;3,3,3,3;,
  4;3,3,3,3;,
  4;1,1,1,1;,
  4;4,4,4,4;,
  4;5,5,5,5;,
  4;16,16,16,16;,
  4;3,3,3,3;,
  4;1,1,1,1;,
  4;4,4,4,4;,
  4;5,5,5,5;,
  4;16,16,16,16;,
  4;3,3,3,3;,
  4;1,1,1,1;,
  4;4,4,4,4;,
  4;5,5,5,5;,
  4;16,16,16,16;,
  4;2,2,2,2;,
  4;2,2,2,2;,
  4;2,2,2,2;,
  4;2,2,2,2;,
  4;2,2,2,2;,
  4;2,2,2,2;,
  4;2,2,2,2;,
  4;5,5,5,5;,
  4;5,5,5,5;,
  4;5,5,5,5;,
  4;5,5,5,5;,
  4;5,5,5,5;,
  4;5,5,5,5;,
  4;5,5,5,5;,
  4;0,0,0,0;,
  4;0,0,0,0;,
  4;0,0,0,0;,
  4;0,0,0,0;,
  4;0,0,0,0;,
  4;0,0,0,0;,
  4;0,0,0,0;,
  4;4,4,4,4;,
  4;3,3,3,3;,
  4;1,1,1,1;,
  4;1,1,1,1;,
  4;1,1,1,1;;
 }
 MeshTextureCoords {
  720;
  0.000000;0.000000;,
  0.333330;0.000000;,
  0.333330;0.142860;,
  0.000000;0.142860;,
  0.666670;0.000000;,
  0.666670;0.142860;,
  1.000000;0.000000;,
  1.000000;0.142860;,
  0.333330;0.285710;,
  0.000000;0.285710;,
  1.000000;0.285710;,
  0.666670;0.285710;,
  0.333330;0.428570;,
  0.000000;0.428570;,
  0.666670;0.428570;,
  1.000000;0.428570;,
  0.333330;0.571430;,
  0.000000;0.571430;,
  1.000000;0.571430;,
  0.666670;0.571430;,
  0.333330;0.714290;,
  0.000000;0.714290;,
  0.666670;0.714290;,
  1.000000;0.714290;,
  0.333330;0.857140;,
  0.000000;0.857140;,
  1.000000;0.857140;,
  0.666670;0.857140;,
  0.333330;1.000000;,
  0.000000;1.000000;,
  0.666670;1.000000;,
  1.000000;1.000000;,
  0.000000;0.000000;,
  1.000000;0.000000;,
  1.000000;0.142860;,
  0.000000;0.142860;,
  1.000000;0.285710;,
  0.000000;0.285710;,
  1.000000;0.428570;,
  0.000000;0.428570;,
  1.000000;0.571430;,
  0.000000;0.571430;,
  1.000000;0.714290;,
  0.000000;0.714290;,
  1.000000;0.857140;,
  0.000000;0.857140;,
  1.000000;1.000000;,
  0.000000;1.000000;,
  0.000000;0.000000;,
  0.333330;0.000000;,
  0.333330;0.142860;,
  0.000000;0.142860;,
  0.666670;0.000000;,
  0.666670;0.142860;,
  1.000000;0.000000;,
  1.000000;0.142860;,
  0.333330;0.285710;,
  0.000000;0.285710;,
  0.666670;0.285710;,
  1.000000;0.285710;,
  0.333330;0.428570;,
  0.000000;0.428570;,
  0.666670;0.428570;,
  1.000000;0.428570;,
  0.333330;0.571430;,
  0.000000;0.571430;,
  0.666670;0.571430;,
  1.000000;0.571430;,
  0.333330;0.714290;,
  0.000000;0.714290;,
  0.666670;0.714290;,
  1.000000;0.714290;,
  0.333330;0.857140;,
  0.000000;0.857140;,
  0.666670;0.857140;,
  1.000000;0.857140;,
  0.333330;1.000000;,
  0.000000;1.000000;,
  0.666670;1.000000;,
  1.000000;1.000000;,
  0.000000;0.000000;,
  1.000000;0.000000;,
  1.000000;0.142860;,
  0.000000;0.142860;,
  1.000000;0.285710;,
  0.000000;0.285710;,
  1.000000;0.428570;,
  0.000000;0.428570;,
  1.000000;0.571430;,
  0.000000;0.571430;,
  1.000000;0.714290;,
  0.000000;0.714290;,
  1.000000;0.857140;,
  0.000000;0.857140;,
  1.000000;1.000000;,
  0.000000;1.000000;,
  0.333330;0.000000;,
  0.333330;1.000000;,
  0.000000;1.000000;,
  0.666670;0.000000;,
  0.666670;1.000000;,
  1.000000;1.000000;,
  0.000000;0.000000;,
  0.333330;0.000000;,
  0.333330;1.000000;,
  0.666670;0.000000;,
  0.666670;1.000000;,
  1.000000;0.000000;,
  0.666670;0.142860;,
  0.333330;0.142860;,
  0.666670;0.285710;,
  0.333330;0.285710;,
  0.666670;0.428570;,
  0.333330;0.428570;,
  0.666670;0.571430;,
  0.333330;0.571430;,
  0.666670;0.714290;,
  0.333330;0.714290;,
  0.666670;0.857140;,
  0.333330;0.857140;,
  0.666670;0.000000;,
  1.000000;0.000000;,
  1.000000;0.142860;,
  0.666670;0.142860;,
  1.000000;0.285710;,
  0.666670;0.285710;,
  1.000000;0.428570;,
  0.666670;0.428570;,
  1.000000;0.571430;,
  0.666670;0.571430;,
  1.000000;0.714290;,
  0.666670;0.714290;,
  1.000000;0.857140;,
  0.666670;0.857140;,
  1.000000;1.000000;,
  0.666670;1.000000;,
  0.000000;0.000000;,
  1.000000;0.000000;,
  1.000000;0.142860;,
  0.000000;0.142860;,
  1.000000;0.285710;,
  0.000000;0.285710;,
  1.000000;0.428570;,
  0.000000;0.428570;,
  1.000000;0.571430;,
  0.000000;0.571430;,
  1.000000;0.714290;,
  0.000000;0.714290;,
  1.000000;0.857140;,
  0.000000;0.857140;,
  1.000000;1.000000;,
  0.000000;1.000000;,
  0.000000;0.000000;,
  0.333330;0.000000;,
  0.333330;0.142860;,
  0.000000;0.142860;,
  0.333330;0.285710;,
  0.000000;0.285710;,
  0.333330;0.428570;,
  0.000000;0.428570;,
  0.333330;0.571430;,
  0.000000;0.571430;,
  0.333330;0.714290;,
  0.000000;0.714290;,
  0.333330;0.857140;,
  0.000000;0.857140;,
  0.333330;1.000000;,
  0.000000;1.000000;,
  0.666670;0.000000;,
  1.000000;1.000000;,
  0.666670;1.000000;,
  0.666670;0.000000;,
  1.000000;0.000000;,
  0.666670;1.000000;,
  0.666670;0.285710;,
  0.666670;0.142860;,
  0.666670;0.571430;,
  0.666670;0.428570;,
  0.666670;0.857140;,
  0.666670;0.714290;,
  0.000000;0.000000;,
  0.333330;0.000000;,
  0.333330;0.142860;,
  0.000000;0.142860;,
  0.666670;0.000000;,
  0.666670;0.142860;,
  1.000000;0.000000;,
  1.000000;0.142860;,
  0.333330;0.285710;,
  0.000000;0.285710;,
  1.000000;0.285710;,
  0.666670;0.285710;,
  0.333330;0.428570;,
  0.000000;0.428570;,
  0.666670;0.428570;,
  1.000000;0.428570;,
  0.333330;0.571430;,
  0.000000;0.571430;,
  1.000000;0.571430;,
  0.666670;0.571430;,
  0.333330;0.714290;,
  0.000000;0.714290;,
  0.666670;0.714290;,
  1.000000;0.714290;,
  0.333330;0.857140;,
  0.000000;0.857140;,
  1.000000;0.857140;,
  0.666670;0.857140;,
  0.333330;1.000000;,
  0.000000;1.000000;,
  0.666670;1.000000;,
  1.000000;1.000000;,
  0.000000;0.000000;,
  1.000000;0.000000;,
  1.000000;0.142860;,
  0.000000;0.142860;,
  1.000000;0.285710;,
  0.000000;0.285710;,
  1.000000;0.428570;,
  0.000000;0.428570;,
  1.000000;0.571430;,
  0.000000;0.571430;,
  1.000000;0.714290;,
  0.000000;0.714290;,
  1.000000;0.857140;,
  0.000000;0.857140;,
  1.000000;1.000000;,
  0.000000;1.000000;,
  0.000000;0.000000;,
  0.333330;0.000000;,
  0.333330;0.142860;,
  0.000000;0.142860;,
  0.666670;0.000000;,
  0.666670;0.142860;,
  1.000000;0.000000;,
  1.000000;0.142860;,
  0.333330;0.285710;,
  0.000000;0.285710;,
  0.666670;0.285710;,
  1.000000;0.285710;,
  0.333330;0.428570;,
  0.000000;0.428570;,
  0.666670;0.428570;,
  1.000000;0.428570;,
  0.333330;0.571430;,
  0.000000;0.571430;,
  0.666670;0.571430;,
  1.000000;0.571430;,
  0.333330;0.714290;,
  0.000000;0.714290;,
  0.666670;0.714290;,
  1.000000;0.714290;,
  0.333330;0.857140;,
  0.000000;0.857140;,
  0.666670;0.857140;,
  1.000000;0.857140;,
  0.333330;1.000000;,
  0.000000;1.000000;,
  0.666670;1.000000;,
  1.000000;1.000000;,
  0.000000;0.000000;,
  1.000000;0.000000;,
  1.000000;0.142860;,
  0.000000;0.142860;,
  1.000000;0.285710;,
  0.000000;0.285710;,
  1.000000;0.428570;,
  0.000000;0.428570;,
  1.000000;0.571430;,
  0.000000;0.571430;,
  1.000000;0.714290;,
  0.000000;0.714290;,
  1.000000;0.857140;,
  0.000000;0.857140;,
  1.000000;1.000000;,
  0.000000;1.000000;,
  0.333330;0.000000;,
  0.333330;1.000000;,
  0.000000;1.000000;,
  0.666670;0.000000;,
  0.666670;1.000000;,
  1.000000;1.000000;,
  0.000000;0.000000;,
  0.333330;0.000000;,
  0.333330;1.000000;,
  0.666670;0.000000;,
  0.666670;1.000000;,
  1.000000;0.000000;,
  0.666670;0.142860;,
  0.333330;0.142860;,
  0.666670;0.285710;,
  0.333330;0.285710;,
  0.666670;0.428570;,
  0.333330;0.428570;,
  0.666670;0.571430;,
  0.333330;0.571430;,
  0.666670;0.714290;,
  0.333330;0.714290;,
  0.666670;0.857140;,
  0.333330;0.857140;,
  0.666670;0.000000;,
  1.000000;0.000000;,
  1.000000;0.142860;,
  0.666670;0.142860;,
  1.000000;0.285710;,
  0.666670;0.285710;,
  1.000000;0.428570;,
  0.666670;0.428570;,
  1.000000;0.571430;,
  0.666670;0.571430;,
  1.000000;0.714290;,
  0.666670;0.714290;,
  1.000000;0.857140;,
  0.666670;0.857140;,
  1.000000;1.000000;,
  0.666670;1.000000;,
  0.000000;0.000000;,
  1.000000;0.000000;,
  1.000000;0.142860;,
  0.000000;0.142860;,
  1.000000;0.285710;,
  0.000000;0.285710;,
  1.000000;0.428570;,
  0.000000;0.428570;,
  1.000000;0.571430;,
  0.000000;0.571430;,
  1.000000;0.714290;,
  0.000000;0.714290;,
  1.000000;0.857140;,
  0.000000;0.857140;,
  1.000000;1.000000;,
  0.000000;1.000000;,
  0.000000;0.000000;,
  0.333330;0.000000;,
  0.333330;0.142860;,
  0.000000;0.142860;,
  0.333330;0.285710;,
  0.000000;0.285710;,
  0.333330;0.428570;,
  0.000000;0.428570;,
  0.333330;0.571430;,
  0.000000;0.571430;,
  0.333330;0.714290;,
  0.000000;0.714290;,
  0.333330;0.857140;,
  0.000000;0.857140;,
  0.333330;1.000000;,
  0.000000;1.000000;,
  0.666670;0.000000;,
  1.000000;1.000000;,
  0.666670;1.000000;,
  0.666670;0.000000;,
  1.000000;0.000000;,
  0.666670;1.000000;,
  0.666670;0.285710;,
  0.666670;0.142860;,
  0.666670;0.571430;,
  0.666670;0.428570;,
  0.666670;0.857140;,
  0.666670;0.714290;,
  0.000000;0.000000;,
  0.333330;0.000000;,
  0.333330;0.142860;,
  0.000000;0.142860;,
  0.666670;0.000000;,
  0.666670;0.142860;,
  1.000000;0.000000;,
  1.000000;0.142860;,
  0.333330;0.285710;,
  0.000000;0.285710;,
  1.000000;0.285710;,
  0.666670;0.285710;,
  0.333330;0.428570;,
  0.000000;0.428570;,
  0.666670;0.428570;,
  1.000000;0.428570;,
  0.333330;0.571430;,
  0.000000;0.571430;,
  1.000000;0.571430;,
  0.666670;0.571430;,
  0.333330;0.714290;,
  0.000000;0.714290;,
  0.666670;0.714290;,
  1.000000;0.714290;,
  0.333330;0.857140;,
  0.000000;0.857140;,
  1.000000;0.857140;,
  0.666670;0.857140;,
  0.333330;1.000000;,
  0.000000;1.000000;,
  0.666670;1.000000;,
  1.000000;1.000000;,
  0.000000;0.000000;,
  1.000000;0.000000;,
  1.000000;0.142860;,
  0.000000;0.142860;,
  1.000000;0.285710;,
  0.000000;0.285710;,
  1.000000;0.428570;,
  0.000000;0.428570;,
  1.000000;0.571430;,
  0.000000;0.571430;,
  1.000000;0.714290;,
  0.000000;0.714290;,
  1.000000;0.857140;,
  0.000000;0.857140;,
  1.000000;1.000000;,
  0.000000;1.000000;,
  0.000000;0.000000;,
  0.333330;0.000000;,
  0.333330;0.142860;,
  0.000000;0.142860;,
  0.666670;0.000000;,
  0.666670;0.142860;,
  1.000000;0.000000;,
  1.000000;0.142860;,
  0.333330;0.285710;,
  0.000000;0.285710;,
  0.666670;0.285710;,
  1.000000;0.285710;,
  0.333330;0.428570;,
  0.000000;0.428570;,
  0.666670;0.428570;,
  1.000000;0.428570;,
  0.333330;0.571430;,
  0.000000;0.571430;,
  0.666670;0.571430;,
  1.000000;0.571430;,
  0.333330;0.714290;,
  0.000000;0.714290;,
  0.666670;0.714290;,
  1.000000;0.714290;,
  0.333330;0.857140;,
  0.000000;0.857140;,
  0.666670;0.857140;,
  1.000000;0.857140;,
  0.333330;1.000000;,
  0.000000;1.000000;,
  0.666670;1.000000;,
  1.000000;1.000000;,
  0.000000;0.000000;,
  1.000000;0.000000;,
  1.000000;0.142860;,
  0.000000;0.142860;,
  1.000000;0.285710;,
  0.000000;0.285710;,
  1.000000;0.428570;,
  0.000000;0.428570;,
  1.000000;0.571430;,
  0.000000;0.571430;,
  1.000000;0.714290;,
  0.000000;0.714290;,
  1.000000;0.857140;,
  0.000000;0.857140;,
  1.000000;1.000000;,
  0.000000;1.000000;,
  0.333330;0.000000;,
  0.333330;1.000000;,
  0.000000;1.000000;,
  0.666670;0.000000;,
  0.666670;1.000000;,
  1.000000;1.000000;,
  0.000000;0.000000;,
  0.333330;0.000000;,
  0.333330;1.000000;,
  0.666670;0.000000;,
  0.666670;1.000000;,
  1.000000;0.000000;,
  0.666670;0.142860;,
  0.333330;0.142860;,
  0.666670;0.285710;,
  0.333330;0.285710;,
  0.666670;0.428570;,
  0.333330;0.428570;,
  0.666670;0.571430;,
  0.333330;0.571430;,
  0.666670;0.714290;,
  0.333330;0.714290;,
  0.666670;0.857140;,
  0.333330;0.857140;,
  0.666670;0.000000;,
  1.000000;0.000000;,
  1.000000;0.142860;,
  0.666670;0.142860;,
  1.000000;0.285710;,
  0.666670;0.285710;,
  1.000000;0.428570;,
  0.666670;0.428570;,
  1.000000;0.571430;,
  0.666670;0.571430;,
  1.000000;0.714290;,
  0.666670;0.714290;,
  1.000000;0.857140;,
  0.666670;0.857140;,
  1.000000;1.000000;,
  0.666670;1.000000;,
  0.000000;0.000000;,
  1.000000;0.000000;,
  1.000000;0.142860;,
  0.000000;0.142860;,
  1.000000;0.285710;,
  0.000000;0.285710;,
  1.000000;0.428570;,
  0.000000;0.428570;,
  1.000000;0.571430;,
  0.000000;0.571430;,
  1.000000;0.714290;,
  0.000000;0.714290;,
  1.000000;0.857140;,
  0.000000;0.857140;,
  1.000000;1.000000;,
  0.000000;1.000000;,
  0.000000;0.000000;,
  0.333330;0.000000;,
  0.333330;0.142860;,
  0.000000;0.142860;,
  0.333330;0.285710;,
  0.000000;0.285710;,
  0.333330;0.428570;,
  0.000000;0.428570;,
  0.333330;0.571430;,
  0.000000;0.571430;,
  0.333330;0.714290;,
  0.000000;0.714290;,
  0.333330;0.857140;,
  0.000000;0.857140;,
  0.333330;1.000000;,
  0.000000;1.000000;,
  0.666670;0.000000;,
  1.000000;1.000000;,
  0.666670;1.000000;,
  0.666670;0.000000;,
  1.000000;0.000000;,
  0.666670;1.000000;,
  0.666670;0.285710;,
  0.666670;0.142860;,
  0.666670;0.571430;,
  0.666670;0.428570;,
  0.666670;0.857140;,
  0.666670;0.714290;,
  0.000000;0.000000;,
  0.333330;0.000000;,
  0.333330;0.142860;,
  0.000000;0.142860;,
  0.666670;0.000000;,
  0.666670;0.142860;,
  1.000000;0.000000;,
  1.000000;0.142860;,
  0.333330;0.285710;,
  0.000000;0.285710;,
  1.000000;0.285710;,
  0.666670;0.285710;,
  0.333330;0.428570;,
  0.000000;0.428570;,
  0.666670;0.428570;,
  1.000000;0.428570;,
  0.333330;0.571430;,
  0.000000;0.571430;,
  1.000000;0.571430;,
  0.666670;0.571430;,
  0.333330;0.714290;,
  0.000000;0.714290;,
  0.666670;0.714290;,
  1.000000;0.714290;,
  0.333330;0.857140;,
  0.000000;0.857140;,
  1.000000;0.857140;,
  0.666670;0.857140;,
  0.333330;1.000000;,
  0.000000;1.000000;,
  0.666670;1.000000;,
  1.000000;1.000000;,
  0.000000;0.000000;,
  1.000000;0.000000;,
  1.000000;0.142860;,
  0.000000;0.142860;,
  1.000000;0.285710;,
  0.000000;0.285710;,
  1.000000;0.428570;,
  0.000000;0.428570;,
  1.000000;0.571430;,
  0.000000;0.571430;,
  1.000000;0.714290;,
  0.000000;0.714290;,
  1.000000;0.857140;,
  0.000000;0.857140;,
  1.000000;1.000000;,
  0.000000;1.000000;,
  0.000000;0.000000;,
  0.333330;0.000000;,
  0.333330;0.142860;,
  0.000000;0.142860;,
  0.666670;0.000000;,
  0.666670;0.142860;,
  1.000000;0.000000;,
  1.000000;0.142860;,
  0.333330;0.285710;,
  0.000000;0.285710;,
  0.666670;0.285710;,
  1.000000;0.285710;,
  0.333330;0.428570;,
  0.000000;0.428570;,
  0.666670;0.428570;,
  1.000000;0.428570;,
  0.333330;0.571430;,
  0.000000;0.571430;,
  0.666670;0.571430;,
  1.000000;0.571430;,
  0.333330;0.714290;,
  0.000000;0.714290;,
  0.666670;0.714290;,
  1.000000;0.714290;,
  0.333330;0.857140;,
  0.000000;0.857140;,
  0.666670;0.857140;,
  1.000000;0.857140;,
  0.333330;1.000000;,
  0.000000;1.000000;,
  0.666670;1.000000;,
  1.000000;1.000000;,
  0.000000;0.000000;,
  1.000000;0.000000;,
  1.000000;0.142860;,
  0.000000;0.142860;,
  1.000000;0.285710;,
  0.000000;0.285710;,
  1.000000;0.428570;,
  0.000000;0.428570;,
  1.000000;0.571430;,
  0.000000;0.571430;,
  1.000000;0.714290;,
  0.000000;0.714290;,
  1.000000;0.857140;,
  0.000000;0.857140;,
  1.000000;1.000000;,
  0.000000;1.000000;,
  0.333330;0.000000;,
  0.333330;1.000000;,
  0.000000;1.000000;,
  0.666670;0.000000;,
  0.666670;1.000000;,
  1.000000;1.000000;,
  0.000000;0.000000;,
  0.333330;0.000000;,
  0.333330;1.000000;,
  0.666670;0.000000;,
  0.666670;1.000000;,
  1.000000;0.000000;,
  0.666670;0.142860;,
  0.333330;0.142860;,
  0.666670;0.285710;,
  0.333330;0.285710;,
  0.666670;0.428570;,
  0.333330;0.428570;,
  0.666670;0.571430;,
  0.333330;0.571430;,
  0.666670;0.714290;,
  0.333330;0.714290;,
  0.666670;0.857140;,
  0.333330;0.857140;,
  0.666670;0.000000;,
  1.000000;0.000000;,
  1.000000;0.142860;,
  0.666670;0.142860;,
  1.000000;0.285710;,
  0.666670;0.285710;,
  1.000000;0.428570;,
  0.666670;0.428570;,
  1.000000;0.571430;,
  0.666670;0.571430;,
  1.000000;0.714290;,
  0.666670;0.714290;,
  1.000000;0.857140;,
  0.666670;0.857140;,
  1.000000;1.000000;,
  0.666670;1.000000;,
  0.000000;0.000000;,
  1.000000;0.000000;,
  1.000000;0.142860;,
  0.000000;0.142860;,
  1.000000;0.285710;,
  0.000000;0.285710;,
  1.000000;0.428570;,
  0.000000;0.428570;,
  1.000000;0.571430;,
  0.000000;0.571430;,
  1.000000;0.714290;,
  0.000000;0.714290;,
  1.000000;0.857140;,
  0.000000;0.857140;,
  1.000000;1.000000;,
  0.000000;1.000000;,
  0.000000;0.000000;,
  0.333330;0.000000;,
  0.333330;0.142860;,
  0.000000;0.142860;,
  0.333330;0.285710;,
  0.000000;0.285710;,
  0.333330;0.428570;,
  0.000000;0.428570;,
  0.333330;0.571430;,
  0.000000;0.571430;,
  0.333330;0.714290;,
  0.000000;0.714290;,
  0.333330;0.857140;,
  0.000000;0.857140;,
  0.333330;1.000000;,
  0.000000;1.000000;,
  0.666670;0.000000;,
  1.000000;1.000000;,
  0.666670;1.000000;,
  0.666670;0.000000;,
  1.000000;0.000000;,
  0.666670;1.000000;,
  0.666670;0.285710;,
  0.666670;0.142860;,
  0.666670;0.571430;,
  0.666670;0.428570;,
  0.666670;0.857140;,
  0.666670;0.714290;;
 }
}
