xof 0302txt 0064
template Header {
 <3D82AB43-62DA-11cf-AB39-0020AF71E433>
 WORD major;
 WORD minor;
 DWORD flags;
}

template Vector {
 <3D82AB5E-62DA-11cf-AB39-0020AF71E433>
 FLOAT x;
 FLOAT y;
 FLOAT z;
}

template Coords2d {
 <F6F23F44-7686-11cf-8F52-0040333594A3>
 FLOAT u;
 FLOAT v;
}

template Matrix4x4 {
 <F6F23F45-7686-11cf-8F52-0040333594A3>
 array FLOAT matrix[16];
}

template ColorRGBA {
 <35FF44E0-6C7C-11cf-8F52-0040333594A3>
 FLOAT red;
 FLOAT green;
 FLOAT blue;
 FLOAT alpha;
}

template ColorRGB {
 <D3E16E81-7835-11cf-8F52-0040333594A3>
 FLOAT red;
 FLOAT green;
 FLOAT blue;
}

template IndexedColor {
 <1630B820-7842-11cf-8F52-0040333594A3>
 DWORD index;
 ColorRGBA indexColor;
}

template Boolean {
 <4885AE61-78E8-11cf-8F52-0040333594A3>
 WORD truefalse;
}

template Boolean2d {
 <4885AE63-78E8-11cf-8F52-0040333594A3>
 Boolean u;
 Boolean v;
}

template MaterialWrap {
 <4885AE60-78E8-11cf-8F52-0040333594A3>
 Boolean u;
 Boolean v;
}

template TextureFilename {
 <A42790E1-7810-11cf-8F52-0040333594A3>
 STRING filename;
}

template Material {
 <3D82AB4D-62DA-11cf-AB39-0020AF71E433>
 ColorRGBA faceColor;
 FLOAT power;
 ColorRGB specularColor;
 ColorRGB emissiveColor;
 [...]
}

template MeshFace {
 <3D82AB5F-62DA-11cf-AB39-0020AF71E433>
 DWORD nFaceVertexIndices;
 array DWORD faceVertexIndices[nFaceVertexIndices];
}

template MeshFaceWraps {
 <4885AE62-78E8-11cf-8F52-0040333594A3>
 DWORD nFaceWrapValues;
 Boolean2d faceWrapValues;
}

template MeshTextureCoords {
 <F6F23F40-7686-11cf-8F52-0040333594A3>
 DWORD nTextureCoords;
 array Coords2d textureCoords[nTextureCoords];
}

template MeshMaterialList {
 <F6F23F42-7686-11cf-8F52-0040333594A3>
 DWORD nMaterials;
 DWORD nFaceIndexes;
 array DWORD faceIndexes[nFaceIndexes];
 [Material]
}

template MeshNormals {
 <F6F23F43-7686-11cf-8F52-0040333594A3>
 DWORD nNormals;
 array Vector normals[nNormals];
 DWORD nFaceNormals;
 array MeshFace faceNormals[nFaceNormals];
}

template MeshVertexColors {
 <1630B821-7842-11cf-8F52-0040333594A3>
 DWORD nVertexColors;
 array IndexedColor vertexColors[nVertexColors];
}

template Mesh {
 <3D82AB44-62DA-11cf-AB39-0020AF71E433>
 DWORD nVertices;
 array Vector vertices[nVertices];
 DWORD nFaces;
 array MeshFace faces[nFaces];
 [...]
}

Header{
1;
0;
1;
}

Mesh {
 464;
 0.00000;78.50037;-41.16670;,
 29.10930;78.50037;-29.10930;,
 29.10930;69.13330;-29.10930;,
 0.00000;69.13330;-41.16670;,
 41.16670;78.50037;0.00000;,
 41.16670;69.13330;0.00000;,
 29.10930;78.50037;29.10930;,
 29.10930;69.13330;29.10930;,
 0.00000;78.50037;41.16670;,
 0.00000;69.13330;41.16670;,
 -29.10930;78.50037;29.10930;,
 -29.10930;69.13330;29.10930;,
 -41.16670;78.50037;0.00000;,
 -41.16670;69.13330;0.00000;,
 -29.10930;78.50037;-29.10930;,
 -29.10930;69.13330;-29.10930;,
 0.00000;78.50037;-41.16670;,
 0.00000;69.13330;-41.16670;,
 0.00000;78.50037;0.00000;,
 0.00000;78.50037;0.00000;,
 0.00000;78.50037;0.00000;,
 0.00000;78.50037;0.00000;,
 0.00000;78.50037;0.00000;,
 0.00000;78.50037;0.00000;,
 0.00000;78.50037;0.00000;,
 0.00000;78.50037;0.00000;,
 0.00000;69.13330;0.00000;,
 0.00000;69.13330;0.00000;,
 0.00000;69.13330;0.00000;,
 0.00000;69.13330;0.00000;,
 0.00000;69.13330;0.00000;,
 0.00000;69.13330;0.00000;,
 0.00000;69.13330;0.00000;,
 0.00000;69.13330;0.00000;,
 0.00000;71.90780;-10.03697;,
 7.09720;71.90780;-7.09720;,
 8.83883;8.01937;-8.83883;,
 0.00000;8.01937;-12.50000;,
 10.03697;71.90780;0.00000;,
 12.50000;8.01937;0.00000;,
 7.09720;71.90780;7.09720;,
 8.83883;8.01937;8.83883;,
 0.00000;71.90780;10.03697;,
 0.00000;8.01937;12.50000;,
 -7.09720;71.90780;7.09720;,
 -8.83883;8.01937;8.83883;,
 -10.03697;71.90780;0.00000;,
 -12.50000;8.01937;0.00000;,
 -7.09720;71.90780;-7.09720;,
 -8.83883;8.01937;-8.83883;,
 0.00000;71.90780;-10.03697;,
 0.00000;8.01937;-12.50000;,
 0.00000;71.90780;0.00000;,
 0.00000;71.90780;0.00000;,
 0.00000;71.90780;0.00000;,
 0.00000;71.90780;0.00000;,
 0.00000;71.90780;0.00000;,
 0.00000;71.90780;0.00000;,
 0.00000;71.90780;0.00000;,
 0.00000;71.90780;0.00000;,
 0.00000;8.01937;0.00000;,
 0.00000;8.01937;0.00000;,
 0.00000;8.01937;0.00000;,
 0.00000;8.01937;0.00000;,
 0.00000;8.01937;0.00000;,
 0.00000;8.01937;0.00000;,
 0.00000;8.01937;0.00000;,
 0.00000;8.01937;0.00000;,
 24.34880;7.26185;-26.61762;,
 28.65505;7.82618;-21.99340;,
 28.33138;3.38678;-21.15022;,
 24.02513;2.82242;-25.77438;,
 28.65505;7.82618;-21.99340;,
 6.58728;13.21362;-2.10035;,
 6.26360;8.77423;-1.25713;,
 28.33138;3.38678;-21.15022;,
 6.58728;13.21362;-2.10035;,
 2.28102;12.64930;-6.72452;,
 1.95735;8.20990;-5.88130;,
 6.26360;8.77423;-1.25713;,
 2.28102;12.64930;-6.72452;,
 24.34880;7.26185;-26.61762;,
 24.02513;2.82242;-25.77438;,
 1.95735;8.20990;-5.88130;,
 28.65505;7.82618;-21.99340;,
 24.34880;7.26185;-26.61762;,
 24.02513;2.82242;-25.77438;,
 28.33138;3.38678;-21.15022;,
 -27.48900;7.26185;-22.98000;,
 -22.86477;7.82618;-27.28622;,
 -22.02160;3.38678;-26.96255;,
 -26.64577;2.82242;-22.65630;,
 -22.86477;7.82618;-27.28622;,
 -2.97172;13.21362;-5.21847;,
 -2.12853;8.77423;-4.89477;,
 -22.02160;3.38678;-26.96255;,
 -2.97172;13.21362;-5.21847;,
 -7.59590;12.64930;-0.91220;,
 -6.75270;8.20990;-0.58852;,
 -2.12853;8.77423;-4.89477;,
 -7.59590;12.64930;-0.91220;,
 -27.48900;7.26185;-22.98000;,
 -26.64577;2.82242;-22.65630;,
 -6.75270;8.20990;-0.58852;,
 -22.86477;7.82618;-27.28622;,
 -27.48900;7.26185;-22.98000;,
 -26.64577;2.82242;-22.65630;,
 -22.02160;3.38678;-26.96255;,
 -24.45310;7.26185;27.52813;,
 -28.75935;7.82618;22.90392;,
 -28.43567;3.38678;22.06072;,
 -24.12943;2.82242;26.68490;,
 -28.75935;7.82618;22.90392;,
 -6.69158;13.21362;3.01085;,
 -6.36790;8.77423;2.16765;,
 -28.43567;3.38678;22.06072;,
 -6.69158;13.21362;3.01085;,
 -2.38532;12.64930;7.63503;,
 -2.06165;8.20990;6.79182;,
 -6.36790;8.77423;2.16765;,
 -2.38532;12.64930;7.63503;,
 -24.45310;7.26185;27.52813;,
 -24.12943;2.82242;26.68490;,
 -2.06165;8.20990;6.79182;,
 -28.75935;7.82618;22.90392;,
 -24.45310;7.26185;27.52813;,
 -24.12943;2.82242;26.68490;,
 -28.43567;3.38678;22.06072;,
 29.17280;7.26185;23.89050;,
 24.54857;7.82618;28.19675;,
 23.70538;3.38678;27.87308;,
 28.32955;2.82242;23.56680;,
 24.54857;7.82618;28.19675;,
 4.65553;13.21362;6.12897;,
 3.81230;8.77423;5.80530;,
 23.70538;3.38678;27.87308;,
 4.65553;13.21362;6.12897;,
 9.27970;12.64930;1.82273;,
 8.43647;8.20990;1.49902;,
 3.81230;8.77423;5.80530;,
 9.27970;12.64930;1.82273;,
 29.17280;7.26185;23.89050;,
 28.32955;2.82242;23.56680;,
 8.43647;8.20990;1.49902;,
 24.54857;7.82618;28.19675;,
 29.17280;7.26185;23.89050;,
 28.32955;2.82242;23.56680;,
 23.70538;3.38678;27.87308;,
 -20.80593;5.37515;-21.79493;,
 -19.85788;5.10848;-22.74300;,
 -20.80593;5.10848;-23.13568;,
 -20.80593;5.37515;-21.79493;,
 -19.46518;5.10848;-21.79493;,
 -20.80593;5.37515;-21.79493;,
 -19.85788;5.10848;-20.84685;,
 -20.80593;5.37515;-21.79493;,
 -20.80593;5.10848;-20.45418;,
 -20.80593;5.37515;-21.79493;,
 -21.75400;5.10848;-20.84685;,
 -20.80593;5.37515;-21.79493;,
 -22.14670;5.10848;-21.79493;,
 -20.80593;5.37515;-21.79493;,
 -21.75400;5.10848;-22.74300;,
 -20.80593;5.37515;-21.79493;,
 -20.80593;5.10848;-23.13568;,
 -19.05415;4.34898;-23.54670;,
 -20.80593;4.34898;-24.27233;,
 -18.32855;4.34898;-21.79493;,
 -19.05415;4.34898;-20.04315;,
 -20.80593;4.34898;-19.31753;,
 -22.55773;4.34898;-20.04315;,
 -23.28333;4.34898;-21.79493;,
 -22.55773;4.34898;-23.54670;,
 -20.80593;4.34898;-24.27233;,
 -18.51710;3.21235;-24.08377;,
 -20.80593;3.21235;-25.03180;,
 -17.56905;3.21235;-21.79493;,
 -18.51710;3.21235;-19.50607;,
 -20.80593;3.21235;-18.55805;,
 -23.09477;3.21235;-19.50607;,
 -24.04283;3.21235;-21.79493;,
 -23.09477;3.21235;-24.08377;,
 -20.80593;3.21235;-25.03180;,
 -18.32855;1.87160;-24.27233;,
 -20.80593;1.87160;-25.29850;,
 -17.30238;1.87160;-21.79493;,
 -18.32855;1.87160;-19.31753;,
 -20.80593;1.87160;-18.29135;,
 -23.28333;1.87160;-19.31753;,
 -24.30950;1.87160;-21.79493;,
 -23.28333;1.87160;-24.27233;,
 -20.80593;1.87160;-25.29850;,
 -18.51710;0.53083;-24.08377;,
 -20.80593;0.53083;-25.03180;,
 -17.56905;0.53083;-21.79493;,
 -18.51710;0.53083;-19.50607;,
 -20.80593;0.53083;-18.55805;,
 -23.09477;0.53083;-19.50607;,
 -24.04283;0.53083;-21.79493;,
 -23.09477;0.53083;-24.08377;,
 -20.80593;0.53083;-25.03180;,
 -19.05415;-0.60580;-23.54670;,
 -20.80593;-0.60580;-24.27233;,
 -18.32855;-0.60580;-21.79493;,
 -19.05415;-0.60580;-20.04315;,
 -20.80593;-0.60580;-19.31753;,
 -22.55773;-0.60580;-20.04315;,
 -23.28333;-0.60580;-21.79493;,
 -22.55773;-0.60580;-23.54670;,
 -20.80593;-0.60580;-24.27233;,
 -19.85788;-1.36528;-22.74300;,
 -20.80593;-1.36528;-23.13568;,
 -19.46518;-1.36528;-21.79493;,
 -19.85788;-1.36528;-20.84685;,
 -20.80593;-1.36528;-20.45418;,
 -21.75400;-1.36528;-20.84685;,
 -22.14670;-1.36528;-21.79493;,
 -21.75400;-1.36528;-22.74300;,
 -20.80593;-1.36528;-23.13568;,
 -20.80593;-1.63198;-21.79493;,
 -20.80593;-1.63198;-21.79493;,
 -20.80593;-1.63198;-21.79493;,
 -20.80593;-1.63198;-21.79493;,
 -20.80593;-1.63198;-21.79493;,
 -20.80593;-1.63198;-21.79493;,
 -20.80593;-1.63198;-21.79493;,
 -20.80593;-1.63198;-21.79493;,
 23.61740;5.37515;-21.79493;,
 24.56545;5.10848;-22.74300;,
 23.61740;5.10848;-23.13568;,
 23.61740;5.37515;-21.79493;,
 24.95815;5.10848;-21.79493;,
 23.61740;5.37515;-21.79493;,
 24.56545;5.10848;-20.84685;,
 23.61740;5.37515;-21.79493;,
 23.61740;5.10848;-20.45418;,
 23.61740;5.37515;-21.79493;,
 22.66932;5.10848;-20.84685;,
 23.61740;5.37515;-21.79493;,
 22.27662;5.10848;-21.79493;,
 23.61740;5.37515;-21.79493;,
 22.66932;5.10848;-22.74300;,
 23.61740;5.37515;-21.79493;,
 23.61740;5.10848;-23.13568;,
 25.36917;4.34898;-23.54670;,
 23.61740;4.34898;-24.27233;,
 26.09477;4.34898;-21.79493;,
 25.36917;4.34898;-20.04315;,
 23.61740;4.34898;-19.31753;,
 21.86560;4.34898;-20.04315;,
 21.14000;4.34898;-21.79493;,
 21.86560;4.34898;-23.54670;,
 23.61740;4.34898;-24.27233;,
 25.90623;3.21235;-24.08377;,
 23.61740;3.21235;-25.03180;,
 26.85427;3.21235;-21.79493;,
 25.90623;3.21235;-19.50607;,
 23.61740;3.21235;-18.55805;,
 21.32855;3.21235;-19.50607;,
 20.38050;3.21235;-21.79493;,
 21.32855;3.21235;-24.08377;,
 23.61740;3.21235;-25.03180;,
 26.09477;1.87160;-24.27233;,
 23.61740;1.87160;-25.29850;,
 27.12095;1.87160;-21.79493;,
 26.09477;1.87160;-19.31753;,
 23.61740;1.87160;-18.29135;,
 21.14000;1.87160;-19.31753;,
 20.11382;1.87160;-21.79493;,
 21.14000;1.87160;-24.27233;,
 23.61740;1.87160;-25.29850;,
 25.90623;0.53083;-24.08377;,
 23.61740;0.53083;-25.03180;,
 26.85427;0.53083;-21.79493;,
 25.90623;0.53083;-19.50607;,
 23.61740;0.53083;-18.55805;,
 21.32855;0.53083;-19.50607;,
 20.38050;0.53083;-21.79493;,
 21.32855;0.53083;-24.08377;,
 23.61740;0.53083;-25.03180;,
 25.36917;-0.60580;-23.54670;,
 23.61740;-0.60580;-24.27233;,
 26.09477;-0.60580;-21.79493;,
 25.36917;-0.60580;-20.04315;,
 23.61740;-0.60580;-19.31753;,
 21.86560;-0.60580;-20.04315;,
 21.14000;-0.60580;-21.79493;,
 21.86560;-0.60580;-23.54670;,
 23.61740;-0.60580;-24.27233;,
 24.56545;-1.36528;-22.74300;,
 23.61740;-1.36528;-23.13568;,
 24.95815;-1.36528;-21.79493;,
 24.56545;-1.36528;-20.84685;,
 23.61740;-1.36528;-20.45418;,
 22.66932;-1.36528;-20.84685;,
 22.27662;-1.36528;-21.79493;,
 22.66932;-1.36528;-22.74300;,
 23.61740;-1.36528;-23.13568;,
 23.61740;-1.63198;-21.79493;,
 23.61740;-1.63198;-21.79493;,
 23.61740;-1.63198;-21.79493;,
 23.61740;-1.63198;-21.79493;,
 23.61740;-1.63198;-21.79493;,
 23.61740;-1.63198;-21.79493;,
 23.61740;-1.63198;-21.79493;,
 23.61740;-1.63198;-21.79493;,
 23.61740;5.37515;23.19868;,
 24.56545;5.10848;22.25060;,
 23.61740;5.10848;21.85790;,
 23.61740;5.37515;23.19868;,
 24.95815;5.10848;23.19868;,
 23.61740;5.37515;23.19868;,
 24.56545;5.10848;24.14672;,
 23.61740;5.37515;23.19868;,
 23.61740;5.10848;24.53942;,
 23.61740;5.37515;23.19868;,
 22.66932;5.10848;24.14672;,
 23.61740;5.37515;23.19868;,
 22.27662;5.10848;23.19868;,
 23.61740;5.37515;23.19868;,
 22.66932;5.10848;22.25060;,
 23.61740;5.37515;23.19868;,
 23.61740;5.10848;21.85790;,
 25.36917;4.34898;21.44687;,
 23.61740;4.34898;20.72128;,
 26.09477;4.34898;23.19868;,
 25.36917;4.34898;24.95045;,
 23.61740;4.34898;25.67607;,
 21.86560;4.34898;24.95045;,
 21.14000;4.34898;23.19868;,
 21.86560;4.34898;21.44687;,
 23.61740;4.34898;20.72128;,
 25.90623;3.21235;20.90982;,
 23.61740;3.21235;19.96177;,
 26.85427;3.21235;23.19868;,
 25.90623;3.21235;25.48750;,
 23.61740;3.21235;26.43555;,
 21.32855;3.21235;25.48750;,
 20.38050;3.21235;23.19868;,
 21.32855;3.21235;20.90982;,
 23.61740;3.21235;19.96177;,
 26.09477;1.87160;20.72128;,
 23.61740;1.87160;19.69510;,
 27.12095;1.87160;23.19868;,
 26.09477;1.87160;25.67607;,
 23.61740;1.87160;26.70225;,
 21.14000;1.87160;25.67605;,
 20.11382;1.87160;23.19868;,
 21.14000;1.87160;20.72128;,
 23.61740;1.87160;19.69510;,
 25.90623;0.53083;20.90982;,
 23.61740;0.53083;19.96177;,
 26.85427;0.53083;23.19868;,
 25.90623;0.53083;25.48750;,
 23.61740;0.53083;26.43555;,
 21.32855;0.53083;25.48750;,
 20.38050;0.53083;23.19868;,
 21.32855;0.53083;20.90982;,
 23.61740;0.53083;19.96177;,
 25.36917;-0.60580;21.44687;,
 23.61740;-0.60580;20.72128;,
 26.09477;-0.60580;23.19868;,
 25.36917;-0.60580;24.95045;,
 23.61740;-0.60580;25.67607;,
 21.86560;-0.60580;24.95045;,
 21.14000;-0.60580;23.19868;,
 21.86560;-0.60580;21.44687;,
 23.61740;-0.60580;20.72128;,
 24.56545;-1.36528;22.25060;,
 23.61740;-1.36528;21.85790;,
 24.95815;-1.36528;23.19868;,
 24.56545;-1.36528;24.14672;,
 23.61740;-1.36528;24.53942;,
 22.66932;-1.36528;24.14672;,
 22.27662;-1.36528;23.19868;,
 22.66932;-1.36528;22.25060;,
 23.61740;-1.36528;21.85790;,
 23.61740;-1.63198;23.19868;,
 23.61740;-1.63198;23.19868;,
 23.61740;-1.63198;23.19868;,
 23.61740;-1.63198;23.19868;,
 23.61740;-1.63198;23.19868;,
 23.61740;-1.63198;23.19868;,
 23.61740;-1.63198;23.19868;,
 23.61740;-1.63198;23.19868;,
 -24.28595;5.37515;23.19868;,
 -23.33788;5.10848;22.25060;,
 -24.28595;5.10848;21.85790;,
 -24.28595;5.37515;23.19868;,
 -22.94518;5.10848;23.19868;,
 -24.28595;5.37515;23.19868;,
 -23.33788;5.10848;24.14672;,
 -24.28595;5.37515;23.19868;,
 -24.28595;5.10848;24.53942;,
 -24.28595;5.37515;23.19868;,
 -25.23400;5.10848;24.14672;,
 -24.28595;5.37515;23.19868;,
 -25.62670;5.10848;23.19868;,
 -24.28595;5.37515;23.19868;,
 -25.23400;5.10848;22.25060;,
 -24.28595;5.37515;23.19868;,
 -24.28595;5.10848;21.85790;,
 -22.53415;4.34898;21.44687;,
 -24.28595;4.34898;20.72128;,
 -21.80855;4.34898;23.19868;,
 -22.53415;4.34898;24.95045;,
 -24.28595;4.34898;25.67607;,
 -26.03773;4.34898;24.95045;,
 -26.76335;4.34898;23.19868;,
 -26.03773;4.34898;21.44687;,
 -24.28595;4.34898;20.72128;,
 -21.99710;3.21235;20.90982;,
 -24.28595;3.21235;19.96177;,
 -21.04907;3.21235;23.19868;,
 -21.99710;3.21235;25.48750;,
 -24.28595;3.21235;26.43555;,
 -26.57478;3.21235;25.48750;,
 -27.52283;3.21235;23.19868;,
 -26.57478;3.21235;20.90982;,
 -24.28595;3.21235;19.96177;,
 -21.80855;1.87160;20.72128;,
 -24.28595;1.87160;19.69510;,
 -20.78238;1.87160;23.19868;,
 -21.80855;1.87160;25.67607;,
 -24.28595;1.87160;26.70225;,
 -26.76335;1.87160;25.67605;,
 -27.78950;1.87160;23.19868;,
 -26.76335;1.87160;20.72128;,
 -24.28595;1.87160;19.69510;,
 -21.99710;0.53083;20.90982;,
 -24.28595;0.53083;19.96177;,
 -21.04907;0.53083;23.19868;,
 -21.99710;0.53083;25.48750;,
 -24.28595;0.53083;26.43555;,
 -26.57478;0.53083;25.48750;,
 -27.52283;0.53083;23.19868;,
 -26.57478;0.53083;20.90982;,
 -24.28595;0.53083;19.96177;,
 -22.53415;-0.60580;21.44687;,
 -24.28595;-0.60580;20.72128;,
 -21.80855;-0.60580;23.19868;,
 -22.53415;-0.60580;24.95045;,
 -24.28595;-0.60580;25.67607;,
 -26.03773;-0.60580;24.95045;,
 -26.76335;-0.60580;23.19868;,
 -26.03773;-0.60580;21.44687;,
 -24.28595;-0.60580;20.72128;,
 -23.33788;-1.36528;22.25060;,
 -24.28595;-1.36528;21.85790;,
 -22.94518;-1.36528;23.19868;,
 -23.33788;-1.36528;24.14672;,
 -24.28595;-1.36528;24.53942;,
 -25.23400;-1.36528;24.14672;,
 -25.62670;-1.36528;23.19868;,
 -25.23400;-1.36528;22.25060;,
 -24.28595;-1.36528;21.85790;,
 -24.28595;-1.63198;23.19868;,
 -24.28595;-1.63198;23.19868;,
 -24.28595;-1.63198;23.19868;,
 -24.28595;-1.63198;23.19868;,
 -24.28595;-1.63198;23.19868;,
 -24.28595;-1.63198;23.19868;,
 -24.28595;-1.63198;23.19868;,
 -24.28595;-1.63198;23.19868;;
 
 328;
 4;0,1,2,3;,
 4;1,4,5,2;,
 4;4,6,7,5;,
 4;6,8,9,7;,
 4;8,10,11,9;,
 4;10,12,13,11;,
 4;12,14,15,13;,
 4;14,16,17,15;,
 3;18,1,0;,
 3;19,4,1;,
 3;20,6,4;,
 3;21,8,6;,
 3;22,10,8;,
 3;23,12,10;,
 3;24,14,12;,
 3;25,16,14;,
 3;26,3,2;,
 3;27,2,5;,
 3;28,5,7;,
 3;29,7,9;,
 3;30,9,11;,
 3;31,11,13;,
 3;32,13,15;,
 3;33,15,17;,
 4;34,35,36,37;,
 4;35,38,39,36;,
 4;38,40,41,39;,
 4;40,42,43,41;,
 4;42,44,45,43;,
 4;44,46,47,45;,
 4;46,48,49,47;,
 4;48,50,51,49;,
 3;52,35,34;,
 3;53,38,35;,
 3;54,40,38;,
 3;55,42,40;,
 3;56,44,42;,
 3;57,46,44;,
 3;58,48,46;,
 3;59,50,48;,
 3;60,37,36;,
 3;61,36,39;,
 3;62,39,41;,
 3;63,41,43;,
 3;64,43,45;,
 3;65,45,47;,
 3;66,47,49;,
 3;67,49,51;,
 4;68,69,70,71;,
 4;72,73,74,75;,
 4;76,77,78,79;,
 4;80,81,82,83;,
 4;80,73,84,85;,
 4;86,87,74,83;,
 4;88,89,90,91;,
 4;92,93,94,95;,
 4;96,97,98,99;,
 4;100,101,102,103;,
 4;100,93,104,105;,
 4;106,107,94,103;,
 4;108,109,110,111;,
 4;112,113,114,115;,
 4;116,117,118,119;,
 4;120,121,122,123;,
 4;120,113,124,125;,
 4;126,127,114,123;,
 4;128,129,130,131;,
 4;132,133,134,135;,
 4;136,137,138,139;,
 4;140,141,142,143;,
 4;140,133,144,145;,
 4;146,147,134,143;,
 3;148,149,150;,
 3;151,152,149;,
 3;153,154,152;,
 3;155,156,154;,
 3;157,158,156;,
 3;159,160,158;,
 3;161,162,160;,
 3;163,164,162;,
 4;150,149,165,166;,
 4;149,152,167,165;,
 4;152,154,168,167;,
 4;154,156,169,168;,
 4;156,158,170,169;,
 4;158,160,171,170;,
 4;160,162,172,171;,
 4;162,164,173,172;,
 4;166,165,174,175;,
 4;165,167,176,174;,
 4;167,168,177,176;,
 4;168,169,178,177;,
 4;169,170,179,178;,
 4;170,171,180,179;,
 4;171,172,181,180;,
 4;172,173,182,181;,
 4;175,174,183,184;,
 4;174,176,185,183;,
 4;176,177,186,185;,
 4;177,178,187,186;,
 4;178,179,188,187;,
 4;179,180,189,188;,
 4;180,181,190,189;,
 4;181,182,191,190;,
 4;184,183,192,193;,
 4;183,185,194,192;,
 4;185,186,195,194;,
 4;186,187,196,195;,
 4;187,188,197,196;,
 4;188,189,198,197;,
 4;189,190,199,198;,
 4;190,191,200,199;,
 4;193,192,201,202;,
 4;192,194,203,201;,
 4;194,195,204,203;,
 4;195,196,205,204;,
 4;196,197,206,205;,
 4;197,198,207,206;,
 4;198,199,208,207;,
 4;199,200,209,208;,
 4;202,201,210,211;,
 4;201,203,212,210;,
 4;203,204,213,212;,
 4;204,205,214,213;,
 4;205,206,215,214;,
 4;206,207,216,215;,
 4;207,208,217,216;,
 4;208,209,218,217;,
 3;211,210,219;,
 3;210,212,220;,
 3;212,213,221;,
 3;213,214,222;,
 3;214,215,223;,
 3;215,216,224;,
 3;216,217,225;,
 3;217,218,226;,
 3;227,228,229;,
 3;230,231,228;,
 3;232,233,231;,
 3;234,235,233;,
 3;236,237,235;,
 3;238,239,237;,
 3;240,241,239;,
 3;242,243,241;,
 4;229,228,244,245;,
 4;228,231,246,244;,
 4;231,233,247,246;,
 4;233,235,248,247;,
 4;235,237,249,248;,
 4;237,239,250,249;,
 4;239,241,251,250;,
 4;241,243,252,251;,
 4;245,244,253,254;,
 4;244,246,255,253;,
 4;246,247,256,255;,
 4;247,248,257,256;,
 4;248,249,258,257;,
 4;249,250,259,258;,
 4;250,251,260,259;,
 4;251,252,261,260;,
 4;254,253,262,263;,
 4;253,255,264,262;,
 4;255,256,265,264;,
 4;256,257,266,265;,
 4;257,258,267,266;,
 4;258,259,268,267;,
 4;259,260,269,268;,
 4;260,261,270,269;,
 4;263,262,271,272;,
 4;262,264,273,271;,
 4;264,265,274,273;,
 4;265,266,275,274;,
 4;266,267,276,275;,
 4;267,268,277,276;,
 4;268,269,278,277;,
 4;269,270,279,278;,
 4;272,271,280,281;,
 4;271,273,282,280;,
 4;273,274,283,282;,
 4;274,275,284,283;,
 4;275,276,285,284;,
 4;276,277,286,285;,
 4;277,278,287,286;,
 4;278,279,288,287;,
 4;281,280,289,290;,
 4;280,282,291,289;,
 4;282,283,292,291;,
 4;283,284,293,292;,
 4;284,285,294,293;,
 4;285,286,295,294;,
 4;286,287,296,295;,
 4;287,288,297,296;,
 3;290,289,298;,
 3;289,291,299;,
 3;291,292,300;,
 3;292,293,301;,
 3;293,294,302;,
 3;294,295,303;,
 3;295,296,304;,
 3;296,297,305;,
 3;306,307,308;,
 3;309,310,307;,
 3;311,312,310;,
 3;313,314,312;,
 3;315,316,314;,
 3;317,318,316;,
 3;319,320,318;,
 3;321,322,320;,
 4;308,307,323,324;,
 4;307,310,325,323;,
 4;310,312,326,325;,
 4;312,314,327,326;,
 4;314,316,328,327;,
 4;316,318,329,328;,
 4;318,320,330,329;,
 4;320,322,331,330;,
 4;324,323,332,333;,
 4;323,325,334,332;,
 4;325,326,335,334;,
 4;326,327,336,335;,
 4;327,328,337,336;,
 4;328,329,338,337;,
 4;329,330,339,338;,
 4;330,331,340,339;,
 4;333,332,341,342;,
 4;332,334,343,341;,
 4;334,335,344,343;,
 4;335,336,345,344;,
 4;336,337,346,345;,
 4;337,338,347,346;,
 4;338,339,348,347;,
 4;339,340,349,348;,
 4;342,341,350,351;,
 4;341,343,352,350;,
 4;343,344,353,352;,
 4;344,345,354,353;,
 4;345,346,355,354;,
 4;346,347,356,355;,
 4;347,348,357,356;,
 4;348,349,358,357;,
 4;351,350,359,360;,
 4;350,352,361,359;,
 4;352,353,362,361;,
 4;353,354,363,362;,
 4;354,355,364,363;,
 4;355,356,365,364;,
 4;356,357,366,365;,
 4;357,358,367,366;,
 4;360,359,368,369;,
 4;359,361,370,368;,
 4;361,362,371,370;,
 4;362,363,372,371;,
 4;363,364,373,372;,
 4;364,365,374,373;,
 4;365,366,375,374;,
 4;366,367,376,375;,
 3;369,368,377;,
 3;368,370,378;,
 3;370,371,379;,
 3;371,372,380;,
 3;372,373,381;,
 3;373,374,382;,
 3;374,375,383;,
 3;375,376,384;,
 3;385,386,387;,
 3;388,389,386;,
 3;390,391,389;,
 3;392,393,391;,
 3;394,395,393;,
 3;396,397,395;,
 3;398,399,397;,
 3;400,401,399;,
 4;387,386,402,403;,
 4;386,389,404,402;,
 4;389,391,405,404;,
 4;391,393,406,405;,
 4;393,395,407,406;,
 4;395,397,408,407;,
 4;397,399,409,408;,
 4;399,401,410,409;,
 4;403,402,411,412;,
 4;402,404,413,411;,
 4;404,405,414,413;,
 4;405,406,415,414;,
 4;406,407,416,415;,
 4;407,408,417,416;,
 4;408,409,418,417;,
 4;409,410,419,418;,
 4;412,411,420,421;,
 4;411,413,422,420;,
 4;413,414,423,422;,
 4;414,415,424,423;,
 4;415,416,425,424;,
 4;416,417,426,425;,
 4;417,418,427,426;,
 4;418,419,428,427;,
 4;421,420,429,430;,
 4;420,422,431,429;,
 4;422,423,432,431;,
 4;423,424,433,432;,
 4;424,425,434,433;,
 4;425,426,435,434;,
 4;426,427,436,435;,
 4;427,428,437,436;,
 4;430,429,438,439;,
 4;429,431,440,438;,
 4;431,432,441,440;,
 4;432,433,442,441;,
 4;433,434,443,442;,
 4;434,435,444,443;,
 4;435,436,445,444;,
 4;436,437,446,445;,
 4;439,438,447,448;,
 4;438,440,449,447;,
 4;440,441,450,449;,
 4;441,442,451,450;,
 4;442,443,452,451;,
 4;443,444,453,452;,
 4;444,445,454,453;,
 4;445,446,455,454;,
 3;448,447,456;,
 3;447,449,457;,
 3;449,450,458;,
 3;450,451,459;,
 3;451,452,460;,
 3;452,453,461;,
 3;453,454,462;,
 3;454,455,463;;
 
 MeshMaterialList {
  2;
  328;
  0,
  0,
  0,
  0,
  0,
  0,
  0,
  0,
  0,
  0,
  0,
  0,
  0,
  0,
  0,
  0,
  0,
  0,
  0,
  0,
  0,
  0,
  0,
  0,
  1,
  1,
  1,
  1,
  1,
  1,
  1,
  1,
  1,
  1,
  1,
  1,
  1,
  1,
  1,
  1,
  1,
  1,
  1,
  1,
  1,
  1,
  1,
  1,
  1,
  1,
  1,
  1,
  1,
  1,
  1,
  1,
  1,
  1,
  1,
  1,
  1,
  1,
  1,
  1,
  1,
  1,
  1,
  1,
  1,
  1,
  1,
  1,
  0,
  0,
  0,
  0,
  0,
  0,
  0,
  0,
  0,
  0,
  0,
  0,
  0,
  0,
  0,
  0,
  0,
  0,
  0,
  0,
  0,
  0,
  0,
  0,
  0,
  0,
  0,
  0,
  0,
  0,
  0,
  0,
  0,
  0,
  0,
  0,
  0,
  0,
  0,
  0,
  0,
  0,
  0,
  0,
  0,
  0,
  0,
  0,
  0,
  0,
  0,
  0,
  0,
  0,
  0,
  0,
  0,
  0,
  0,
  0,
  0,
  0,
  0,
  0,
  0,
  0,
  0,
  0,
  0,
  0,
  0,
  0,
  0,
  0,
  0,
  0,
  0,
  0,
  0,
  0,
  0,
  0,
  0,
  0,
  0,
  0,
  0,
  0,
  0,
  0,
  0,
  0,
  0,
  0,
  0,
  0,
  0,
  0,
  0,
  0,
  0,
  0,
  0,
  0,
  0,
  0,
  0,
  0,
  0,
  0,
  0,
  0,
  0,
  0,
  0,
  0,
  0,
  0,
  0,
  0,
  0,
  0,
  0,
  0,
  0,
  0,
  0,
  0,
  0,
  0,
  0,
  0,
  0,
  0,
  0,
  0,
  0,
  0,
  0,
  0,
  0,
  0,
  0,
  0,
  0,
  0,
  0,
  0,
  0,
  0,
  0,
  0,
  0,
  0,
  0,
  0,
  0,
  0,
  0,
  0,
  0,
  0,
  0,
  0,
  0,
  0,
  0,
  0,
  0,
  0,
  0,
  0,
  0,
  0,
  0,
  0,
  0,
  0,
  0,
  0,
  0,
  0,
  0,
  0,
  0,
  0,
  0,
  0,
  0,
  0,
  0,
  0,
  0,
  0,
  0,
  0,
  0,
  0,
  0,
  0,
  0,
  0,
  0,
  0,
  0,
  0,
  0,
  0,
  0,
  0,
  0,
  0,
  0,
  0,
  0,
  0,
  0,
  0,
  0,
  0,
  0,
  0,
  0,
  0,
  0,
  0,
  0,
  0,
  0,
  0,
  0,
  0,
  0,
  0,
  0,
  0,
  0,
  0,
  0,
  0,
  0,
  0,
  0,
  0,
  0,
  0,
  0,
  0,
  0,
  0,
  0,
  0,
  0,
  0,
  0,
  0;;
  Material {
   0.000000;0.000000;0.000000;1.000000;;
   5.000000;
   0.000000;0.000000;0.000000;;
   0.000000;0.000000;0.000000;;
  }
  Material {
   0.800000;0.800000;0.800000;1.000000;;
   5.000000;
   0.000000;0.000000;0.000000;;
   0.000000;0.000000;0.000000;;
  }
 }
 MeshNormals {
  272;
  0.000000;1.000000;0.000000;,
  0.000000;0.000000;-1.000000;,
  0.707107;0.000000;-0.707107;,
  1.000000;0.000000;0.000000;,
  0.707107;0.000000;0.707107;,
  0.000000;0.000000;1.000000;,
  -0.707107;0.000000;0.707107;,
  -1.000000;0.000000;0.000000;,
  -0.707107;0.000000;-0.707107;,
  0.000000;-1.000000;-0.000000;,
  0.000000;0.038523;-0.999258;,
  0.706582;0.038523;-0.706582;,
  0.999258;0.038523;0.000000;,
  0.706582;0.038523;0.706582;,
  0.000000;0.038523;0.999258;,
  -0.706582;0.038523;0.706582;,
  -0.999258;0.038523;0.000000;,
  -0.706582;0.038523;-0.706582;,
  0.730840;-0.178419;-0.658817;,
  0.678800;0.088956;0.728915;,
  -0.730839;0.178422;0.658817;,
  -0.658814;-0.178419;-0.730842;,
  0.728916;0.088952;-0.678800;,
  0.658819;0.178420;0.730838;,
  -0.730840;-0.178419;0.658816;,
  -0.678800;0.088956;-0.728915;,
  0.730839;0.178418;-0.658818;,
  0.658816;-0.178423;0.730840;,
  -0.728915;0.088958;0.678800;,
  -0.658818;0.178424;-0.730838;,
  0.000001;1.000000;-0.000000;,
  0.000002;0.924735;-0.380612;,
  0.269133;0.924735;-0.269133;,
  0.380614;0.924734;-0.000000;,
  0.269133;0.924735;0.269134;,
  0.000002;0.924734;0.380613;,
  -0.269130;0.924736;0.269133;,
  -0.380612;0.924735;-0.000000;,
  -0.269130;0.924736;-0.269133;,
  0.000002;0.709231;-0.704976;,
  0.498493;0.709233;-0.498491;,
  0.704976;0.709231;-0.000000;,
  0.498493;0.709232;0.498492;,
  0.000002;0.709230;0.704977;,
  -0.498491;0.709233;0.498493;,
  -0.704977;0.709231;-0.000000;,
  -0.498491;0.709233;-0.498493;,
  0.000002;0.384555;-0.923102;,
  0.652732;0.384555;-0.652731;,
  0.923104;0.384551;-0.000000;,
  0.652732;0.384555;0.652731;,
  0.000002;0.384554;0.923103;,
  -0.652731;0.384554;0.652733;,
  -0.923104;0.384551;-0.000000;,
  -0.652731;0.384554;-0.652733;,
  0.000002;0.000002;-1.000000;,
  0.707107;0.000002;-0.707107;,
  1.000000;0.000002;-0.000000;,
  0.707107;0.000002;0.707107;,
  0.000002;0.000001;1.000000;,
  -0.707105;0.000001;0.707108;,
  -1.000000;0.000002;-0.000000;,
  -0.707105;0.000002;-0.707108;,
  0.000002;-0.384554;-0.923103;,
  0.652733;-0.384553;-0.652732;,
  0.923104;-0.384550;-0.000000;,
  0.652733;-0.384553;0.652732;,
  0.000002;-0.384553;0.923103;,
  -0.652731;-0.384553;0.652733;,
  -0.923104;-0.384550;-0.000000;,
  -0.652731;-0.384553;-0.652733;,
  0.000002;-0.709237;-0.704971;,
  0.498489;-0.709238;-0.498488;,
  0.704971;-0.709236;-0.000000;,
  0.498489;-0.709238;0.498488;,
  0.000002;-0.709236;0.704972;,
  -0.498487;-0.709238;0.498490;,
  -0.704971;-0.709236;-0.000000;,
  -0.498487;-0.709239;-0.498488;,
  0.000002;-0.924734;-0.380615;,
  0.269134;-0.924734;-0.269135;,
  0.380615;-0.924733;-0.000000;,
  0.269134;-0.924734;0.269135;,
  0.000002;-0.924733;0.380616;,
  -0.269132;-0.924735;0.269135;,
  -0.380614;-0.924734;-0.000000;,
  -0.269131;-0.924735;-0.269134;,
  0.000001;-1.000000;-0.000000;,
  0.000001;1.000000;-0.000000;,
  0.000001;0.924735;-0.380612;,
  0.269133;0.924735;-0.269133;,
  0.380614;0.924734;-0.000000;,
  0.269133;0.924735;0.269134;,
  0.000001;0.924734;0.380615;,
  -0.269131;0.924735;0.269134;,
  -0.380612;0.924735;-0.000000;,
  -0.269130;0.924736;-0.269133;,
  0.000002;0.709231;-0.704976;,
  0.498493;0.709233;-0.498491;,
  0.704976;0.709231;-0.000000;,
  0.498493;0.709232;0.498492;,
  0.000002;0.709229;0.704978;,
  -0.498492;0.709232;0.498494;,
  -0.704977;0.709230;-0.000000;,
  -0.498492;0.709232;-0.498493;,
  0.000002;0.384555;-0.923102;,
  0.652732;0.384555;-0.652731;,
  0.923103;0.384552;-0.000000;,
  0.652732;0.384555;0.652731;,
  0.000002;0.384554;0.923103;,
  -0.652731;0.384554;0.652733;,
  -0.923104;0.384552;-0.000000;,
  -0.652731;0.384554;-0.652733;,
  0.707107;0.000002;-0.707107;,
  1.000000;0.000002;-0.000000;,
  0.707107;0.000002;0.707107;,
  -0.707106;0.000001;0.707108;,
  -1.000000;0.000002;-0.000000;,
  -0.707105;0.000002;-0.707108;,
  0.000002;-0.384554;-0.923103;,
  0.652733;-0.384553;-0.652732;,
  0.923104;-0.384550;-0.000000;,
  0.652733;-0.384553;0.652732;,
  0.000002;-0.384554;0.923103;,
  -0.652731;-0.384554;0.652733;,
  -0.923104;-0.384550;-0.000000;,
  -0.652731;-0.384553;-0.652733;,
  0.000002;-0.709237;-0.704971;,
  0.498489;-0.709237;-0.498488;,
  0.704971;-0.709236;-0.000000;,
  0.498489;-0.709239;0.498487;,
  0.000002;-0.709238;0.704970;,
  -0.498487;-0.709239;0.498488;,
  -0.704971;-0.709236;-0.000000;,
  -0.498487;-0.709239;-0.498489;,
  0.000002;-0.924734;-0.380615;,
  0.269134;-0.924734;-0.269135;,
  0.380616;-0.924733;-0.000000;,
  0.269133;-0.924735;0.269134;,
  0.000001;-0.924734;0.380614;,
  -0.269131;-0.924735;0.269134;,
  -0.380614;-0.924734;-0.000000;,
  -0.269131;-0.924735;-0.269134;,
  0.000001;-1.000000;-0.000000;,
  0.000001;1.000000;0.000001;,
  0.000002;0.924735;-0.380611;,
  0.269134;0.924735;-0.269132;,
  0.380613;0.924734;0.000002;,
  0.269134;0.924735;0.269132;,
  0.000001;0.924736;0.380610;,
  -0.269132;0.924736;0.269132;,
  -0.380611;0.924735;0.000002;,
  -0.269132;0.924736;-0.269132;,
  0.000002;0.709231;-0.704976;,
  0.498494;0.709232;-0.498491;,
  0.704977;0.709230;0.000002;,
  0.498495;0.709231;0.498492;,
  0.000002;0.709231;0.704976;,
  -0.498493;0.709231;0.498493;,
  -0.704977;0.709231;0.000002;,
  -0.498492;0.709233;-0.498492;,
  0.000002;0.384550;-0.923104;,
  0.652734;0.384551;-0.652731;,
  0.923104;0.384551;0.000001;,
  0.652733;0.384554;0.652731;,
  0.000000;0.384553;0.923103;,
  -0.652733;0.384551;0.652733;,
  -0.923104;0.384551;0.000002;,
  -0.652733;0.384552;-0.652733;,
  0.000002;0.000002;-1.000000;,
  0.707108;0.000002;-0.707106;,
  1.000000;0.000002;0.000001;,
  0.707108;0.000002;0.707106;,
  -0.000001;0.000002;1.000000;,
  -0.707107;0.000001;0.707106;,
  -1.000000;0.000002;0.000002;,
  -0.707107;0.000002;-0.707107;,
  0.000002;-0.384548;-0.923105;,
  0.652735;-0.384550;-0.652732;,
  0.923104;-0.384550;0.000001;,
  0.652734;-0.384553;0.652731;,
  0.000000;-0.384552;0.923103;,
  -0.652734;-0.384550;0.652733;,
  -0.923105;-0.384549;0.000002;,
  -0.652733;-0.384550;-0.652733;,
  0.000002;-0.709236;-0.704971;,
  0.498490;-0.709238;-0.498487;,
  0.704971;-0.709236;0.000002;,
  0.498491;-0.709237;0.498488;,
  0.000002;-0.709236;0.704971;,
  -0.498489;-0.709237;0.498489;,
  -0.704971;-0.709236;0.000002;,
  -0.498488;-0.709238;-0.498488;,
  0.000001;-0.924735;-0.380612;,
  0.269135;-0.924735;-0.269132;,
  0.380614;-0.924734;0.000002;,
  0.269135;-0.924734;0.269133;,
  0.000001;-0.924735;0.380611;,
  -0.269133;-0.924735;0.269134;,
  -0.380613;-0.924735;0.000002;,
  -0.269133;-0.924735;-0.269133;,
  0.000001;-1.000000;0.000001;,
  -0.000001;1.000000;0.000001;,
  -0.000002;0.924735;-0.380611;,
  0.269132;0.924736;-0.269132;,
  0.380611;0.924735;0.000002;,
  0.269132;0.924735;0.269132;,
  -0.000002;0.924736;0.380610;,
  -0.269133;0.924735;0.269133;,
  -0.380610;0.924736;0.000002;,
  -0.269132;0.924735;-0.269132;,
  -0.000002;0.709230;-0.704977;,
  0.498494;0.709231;-0.498492;,
  0.704980;0.709227;0.000002;,
  0.498495;0.709230;0.498493;,
  -0.000002;0.709231;0.704976;,
  -0.498494;0.709230;0.498494;,
  -0.704977;0.709231;0.000002;,
  -0.498493;0.709231;-0.498493;,
  -0.000001;0.384551;-0.923104;,
  0.652734;0.384552;-0.652731;,
  0.923104;0.384551;0.000002;,
  0.652733;0.384555;0.652730;,
  -0.000002;0.384554;0.923102;,
  -0.652734;0.384552;0.652731;,
  -0.923104;0.384550;0.000002;,
  -0.652734;0.384552;-0.652732;,
  -0.000001;0.000002;-1.000000;,
  0.707108;0.000002;-0.707105;,
  1.000000;0.000002;0.000001;,
  0.707108;0.000002;0.707106;,
  -0.000003;0.000002;1.000000;,
  -0.707109;0.000002;0.707104;,
  -1.000000;0.000002;0.000002;,
  -0.707109;0.000002;-0.707105;,
  -0.000001;-0.384549;-0.923105;,
  0.652735;-0.384551;-0.652731;,
  0.923104;-0.384549;0.000002;,
  0.652734;-0.384553;0.652731;,
  -0.000002;-0.384552;0.923103;,
  -0.652735;-0.384550;0.652732;,
  -0.923105;-0.384549;0.000002;,
  -0.652734;-0.384551;-0.652732;,
  -0.000002;-0.709236;-0.704971;,
  0.498490;-0.709237;-0.498488;,
  0.704974;-0.709233;0.000002;,
  0.498491;-0.709236;0.498489;,
  -0.000002;-0.709236;0.704971;,
  -0.498490;-0.709236;0.498490;,
  -0.704971;-0.709237;0.000002;,
  -0.498489;-0.709238;-0.498489;,
  -0.000002;-0.924735;-0.380612;,
  0.269133;-0.924735;-0.269133;,
  0.380612;-0.924735;0.000002;,
  0.269133;-0.924735;0.269133;,
  -0.000002;-0.924735;0.380611;,
  -0.269134;-0.924735;0.269134;,
  -0.380611;-0.924735;0.000002;,
  -0.269133;-0.924735;-0.269133;,
  -0.000001;-1.000000;0.000001;,
  -0.678801;-0.088961;-0.728914;,
  0.071449;0.979925;-0.186124;,
  -0.071447;-0.979925;0.186126;,
  -0.728915;-0.088956;0.678800;,
  -0.186124;0.979925;-0.071449;,
  0.186126;-0.979925;0.071448;,
  0.678801;-0.088958;0.728914;,
  -0.071449;0.979925;0.186124;,
  0.071448;-0.979925;-0.186126;,
  0.728914;-0.088958;-0.678801;,
  0.186124;0.979925;0.071449;,
  -0.186126;-0.979925;-0.071447;;
  328;
  4;1,2,2,1;,
  4;2,3,3,2;,
  4;3,4,4,3;,
  4;4,5,5,4;,
  4;5,6,6,5;,
  4;6,7,7,6;,
  4;7,8,8,7;,
  4;8,1,1,8;,
  3;0,0,0;,
  3;0,0,0;,
  3;0,0,0;,
  3;0,0,0;,
  3;0,0,0;,
  3;0,0,0;,
  3;0,0,0;,
  3;0,0,0;,
  3;9,9,9;,
  3;9,9,9;,
  3;9,9,9;,
  3;9,9,9;,
  3;9,9,9;,
  3;9,9,9;,
  3;9,9,9;,
  3;9,9,9;,
  4;10,11,11,10;,
  4;11,12,12,11;,
  4;12,13,13,12;,
  4;13,14,14,13;,
  4;14,15,15,14;,
  4;15,16,16,15;,
  4;16,17,17,16;,
  4;17,10,10,17;,
  3;0,0,0;,
  3;0,0,0;,
  3;0,0,0;,
  3;0,0,0;,
  3;0,0,0;,
  3;0,0,0;,
  3;0,0,0;,
  3;0,0,0;,
  3;9,9,9;,
  3;9,9,9;,
  3;9,9,9;,
  3;9,9,9;,
  3;9,9,9;,
  3;9,9,9;,
  3;9,9,9;,
  3;9,9,9;,
  4;18,18,18,18;,
  4;19,19,19,19;,
  4;20,20,20,20;,
  4;260,260,260,260;,
  4;261,261,261,261;,
  4;262,262,262,262;,
  4;21,21,21,21;,
  4;22,22,22,22;,
  4;23,23,23,23;,
  4;263,263,263,263;,
  4;264,264,264,264;,
  4;265,265,265,265;,
  4;24,24,24,24;,
  4;25,25,25,25;,
  4;26,26,26,26;,
  4;266,266,266,266;,
  4;267,267,267,267;,
  4;268,268,268,268;,
  4;27,27,27,27;,
  4;28,28,28,28;,
  4;29,29,29,29;,
  4;269,269,269,269;,
  4;270,270,270,270;,
  4;271,271,271,271;,
  3;30,32,31;,
  3;30,33,32;,
  3;30,34,33;,
  3;30,35,34;,
  3;30,36,35;,
  3;30,37,36;,
  3;30,38,37;,
  3;30,31,38;,
  4;31,32,40,39;,
  4;32,33,41,40;,
  4;33,34,42,41;,
  4;34,35,43,42;,
  4;35,36,44,43;,
  4;36,37,45,44;,
  4;37,38,46,45;,
  4;38,31,39,46;,
  4;39,40,48,47;,
  4;40,41,49,48;,
  4;41,42,50,49;,
  4;42,43,51,50;,
  4;43,44,52,51;,
  4;44,45,53,52;,
  4;45,46,54,53;,
  4;46,39,47,54;,
  4;47,48,56,55;,
  4;48,49,57,56;,
  4;49,50,58,57;,
  4;50,51,59,58;,
  4;51,52,60,59;,
  4;52,53,61,60;,
  4;53,54,62,61;,
  4;54,47,55,62;,
  4;55,56,64,63;,
  4;56,57,65,64;,
  4;57,58,66,65;,
  4;58,59,67,66;,
  4;59,60,68,67;,
  4;60,61,69,68;,
  4;61,62,70,69;,
  4;62,55,63,70;,
  4;63,64,72,71;,
  4;64,65,73,72;,
  4;65,66,74,73;,
  4;66,67,75,74;,
  4;67,68,76,75;,
  4;68,69,77,76;,
  4;69,70,78,77;,
  4;70,63,71,78;,
  4;71,72,80,79;,
  4;72,73,81,80;,
  4;73,74,82,81;,
  4;74,75,83,82;,
  4;75,76,84,83;,
  4;76,77,85,84;,
  4;77,78,86,85;,
  4;78,71,79,86;,
  3;79,80,87;,
  3;80,81,87;,
  3;81,82,87;,
  3;82,83,87;,
  3;83,84,87;,
  3;84,85,87;,
  3;85,86,87;,
  3;86,79,87;,
  3;88,90,89;,
  3;88,91,90;,
  3;88,92,91;,
  3;88,93,92;,
  3;88,94,93;,
  3;88,95,94;,
  3;88,96,95;,
  3;88,89,96;,
  4;89,90,98,97;,
  4;90,91,99,98;,
  4;91,92,100,99;,
  4;92,93,101,100;,
  4;93,94,102,101;,
  4;94,95,103,102;,
  4;95,96,104,103;,
  4;96,89,97,104;,
  4;97,98,106,105;,
  4;98,99,107,106;,
  4;99,100,108,107;,
  4;100,101,109,108;,
  4;101,102,110,109;,
  4;102,103,111,110;,
  4;103,104,112,111;,
  4;104,97,105,112;,
  4;105,106,113,55;,
  4;106,107,114,113;,
  4;107,108,115,114;,
  4;108,109,59,115;,
  4;109,110,116,59;,
  4;110,111,117,116;,
  4;111,112,118,117;,
  4;112,105,55,118;,
  4;55,113,120,119;,
  4;113,114,121,120;,
  4;114,115,122,121;,
  4;115,59,123,122;,
  4;59,116,124,123;,
  4;116,117,125,124;,
  4;117,118,126,125;,
  4;118,55,119,126;,
  4;119,120,128,127;,
  4;120,121,129,128;,
  4;121,122,130,129;,
  4;122,123,131,130;,
  4;123,124,132,131;,
  4;124,125,133,132;,
  4;125,126,134,133;,
  4;126,119,127,134;,
  4;127,128,136,135;,
  4;128,129,137,136;,
  4;129,130,138,137;,
  4;130,131,139,138;,
  4;131,132,140,139;,
  4;132,133,141,140;,
  4;133,134,142,141;,
  4;134,127,135,142;,
  3;135,136,143;,
  3;136,137,143;,
  3;137,138,143;,
  3;138,139,143;,
  3;139,140,143;,
  3;140,141,143;,
  3;141,142,143;,
  3;142,135,143;,
  3;144,146,145;,
  3;144,147,146;,
  3;144,148,147;,
  3;144,149,148;,
  3;144,150,149;,
  3;144,151,150;,
  3;144,152,151;,
  3;144,145,152;,
  4;145,146,154,153;,
  4;146,147,155,154;,
  4;147,148,156,155;,
  4;148,149,157,156;,
  4;149,150,158,157;,
  4;150,151,159,158;,
  4;151,152,160,159;,
  4;152,145,153,160;,
  4;153,154,162,161;,
  4;154,155,163,162;,
  4;155,156,164,163;,
  4;156,157,165,164;,
  4;157,158,166,165;,
  4;158,159,167,166;,
  4;159,160,168,167;,
  4;160,153,161,168;,
  4;161,162,170,169;,
  4;162,163,171,170;,
  4;163,164,172,171;,
  4;164,165,173,172;,
  4;165,166,174,173;,
  4;166,167,175,174;,
  4;167,168,176,175;,
  4;168,161,169,176;,
  4;169,170,178,177;,
  4;170,171,179,178;,
  4;171,172,180,179;,
  4;172,173,181,180;,
  4;173,174,182,181;,
  4;174,175,183,182;,
  4;175,176,184,183;,
  4;176,169,177,184;,
  4;177,178,186,185;,
  4;178,179,187,186;,
  4;179,180,188,187;,
  4;180,181,189,188;,
  4;181,182,190,189;,
  4;182,183,191,190;,
  4;183,184,192,191;,
  4;184,177,185,192;,
  4;185,186,194,193;,
  4;186,187,195,194;,
  4;187,188,196,195;,
  4;188,189,197,196;,
  4;189,190,198,197;,
  4;190,191,199,198;,
  4;191,192,200,199;,
  4;192,185,193,200;,
  3;193,194,201;,
  3;194,195,201;,
  3;195,196,201;,
  3;196,197,201;,
  3;197,198,201;,
  3;198,199,201;,
  3;199,200,201;,
  3;200,193,201;,
  3;202,204,203;,
  3;202,205,204;,
  3;202,206,205;,
  3;202,207,206;,
  3;202,208,207;,
  3;202,209,208;,
  3;202,210,209;,
  3;202,203,210;,
  4;203,204,212,211;,
  4;204,205,213,212;,
  4;205,206,214,213;,
  4;206,207,215,214;,
  4;207,208,216,215;,
  4;208,209,217,216;,
  4;209,210,218,217;,
  4;210,203,211,218;,
  4;211,212,220,219;,
  4;212,213,221,220;,
  4;213,214,222,221;,
  4;214,215,223,222;,
  4;215,216,224,223;,
  4;216,217,225,224;,
  4;217,218,226,225;,
  4;218,211,219,226;,
  4;219,220,228,227;,
  4;220,221,229,228;,
  4;221,222,230,229;,
  4;222,223,231,230;,
  4;223,224,232,231;,
  4;224,225,233,232;,
  4;225,226,234,233;,
  4;226,219,227,234;,
  4;227,228,236,235;,
  4;228,229,237,236;,
  4;229,230,238,237;,
  4;230,231,239,238;,
  4;231,232,240,239;,
  4;232,233,241,240;,
  4;233,234,242,241;,
  4;234,227,235,242;,
  4;235,236,244,243;,
  4;236,237,245,244;,
  4;237,238,246,245;,
  4;238,239,247,246;,
  4;239,240,248,247;,
  4;240,241,249,248;,
  4;241,242,250,249;,
  4;242,235,243,250;,
  4;243,244,252,251;,
  4;244,245,253,252;,
  4;245,246,254,253;,
  4;246,247,255,254;,
  4;247,248,256,255;,
  4;248,249,257,256;,
  4;249,250,258,257;,
  4;250,243,251,258;,
  3;251,252,259;,
  3;252,253,259;,
  3;253,254,259;,
  3;254,255,259;,
  3;255,256,259;,
  3;256,257,259;,
  3;257,258,259;,
  3;258,251,259;;
 }
 MeshTextureCoords {
  464;
  0.000000;0.000000;,
  0.125000;0.000000;,
  0.125000;1.000000;,
  0.000000;1.000000;,
  0.250000;0.000000;,
  0.250000;1.000000;,
  0.375000;0.000000;,
  0.375000;1.000000;,
  0.500000;0.000000;,
  0.500000;1.000000;,
  0.625000;0.000000;,
  0.625000;1.000000;,
  0.750000;0.000000;,
  0.750000;1.000000;,
  0.875000;0.000000;,
  0.875000;1.000000;,
  1.000000;0.000000;,
  1.000000;1.000000;,
  0.062500;0.000000;,
  0.187500;0.000000;,
  0.312500;0.000000;,
  0.437500;0.000000;,
  0.562500;0.000000;,
  0.687500;0.000000;,
  0.812500;0.000000;,
  0.937500;0.000000;,
  0.062500;1.000000;,
  0.187500;1.000000;,
  0.312500;1.000000;,
  0.437500;1.000000;,
  0.562500;1.000000;,
  0.687500;1.000000;,
  0.812500;1.000000;,
  0.937500;1.000000;,
  0.000000;0.000000;,
  0.125000;0.000000;,
  0.125000;1.000000;,
  0.000000;1.000000;,
  0.250000;0.000000;,
  0.250000;1.000000;,
  0.375000;0.000000;,
  0.375000;1.000000;,
  0.500000;0.000000;,
  0.500000;1.000000;,
  0.625000;0.000000;,
  0.625000;1.000000;,
  0.750000;0.000000;,
  0.750000;1.000000;,
  0.875000;0.000000;,
  0.875000;1.000000;,
  1.000000;0.000000;,
  1.000000;1.000000;,
  0.062500;0.000000;,
  0.187500;0.000000;,
  0.312500;0.000000;,
  0.437500;0.000000;,
  0.562500;0.000000;,
  0.687500;0.000000;,
  0.812500;0.000000;,
  0.937500;0.000000;,
  0.062500;1.000000;,
  0.187500;1.000000;,
  0.312500;1.000000;,
  0.437500;1.000000;,
  0.562500;1.000000;,
  0.687500;1.000000;,
  0.812500;1.000000;,
  0.937500;1.000000;,
  0.000000;0.000000;,
  1.000000;0.000000;,
  1.000000;1.000000;,
  0.000000;1.000000;,
  0.000000;0.000000;,
  1.000000;0.000000;,
  1.000000;1.000000;,
  0.000000;1.000000;,
  0.000000;0.000000;,
  1.000000;0.000000;,
  1.000000;1.000000;,
  0.000000;1.000000;,
  0.000000;0.000000;,
  1.000000;0.000000;,
  1.000000;1.000000;,
  0.000000;1.000000;,
  1.000000;1.000000;,
  0.000000;1.000000;,
  0.000000;0.000000;,
  1.000000;0.000000;,
  0.000000;0.000000;,
  1.000000;0.000000;,
  1.000000;1.000000;,
  0.000000;1.000000;,
  0.000000;0.000000;,
  1.000000;0.000000;,
  1.000000;1.000000;,
  0.000000;1.000000;,
  0.000000;0.000000;,
  1.000000;0.000000;,
  1.000000;1.000000;,
  0.000000;1.000000;,
  0.000000;0.000000;,
  1.000000;0.000000;,
  1.000000;1.000000;,
  0.000000;1.000000;,
  1.000000;1.000000;,
  0.000000;1.000000;,
  0.000000;0.000000;,
  1.000000;0.000000;,
  0.000000;0.000000;,
  1.000000;0.000000;,
  1.000000;1.000000;,
  0.000000;1.000000;,
  0.000000;0.000000;,
  1.000000;0.000000;,
  1.000000;1.000000;,
  0.000000;1.000000;,
  0.000000;0.000000;,
  1.000000;0.000000;,
  1.000000;1.000000;,
  0.000000;1.000000;,
  0.000000;0.000000;,
  1.000000;0.000000;,
  1.000000;1.000000;,
  0.000000;1.000000;,
  1.000000;1.000000;,
  0.000000;1.000000;,
  0.000000;0.000000;,
  1.000000;0.000000;,
  0.000000;0.000000;,
  1.000000;0.000000;,
  1.000000;1.000000;,
  0.000000;1.000000;,
  0.000000;0.000000;,
  1.000000;0.000000;,
  1.000000;1.000000;,
  0.000000;1.000000;,
  0.000000;0.000000;,
  1.000000;0.000000;,
  1.000000;1.000000;,
  0.000000;1.000000;,
  0.000000;0.000000;,
  1.000000;0.000000;,
  1.000000;1.000000;,
  0.000000;1.000000;,
  1.000000;1.000000;,
  0.000000;1.000000;,
  0.000000;0.000000;,
  1.000000;0.000000;,
  0.062500;0.000000;,
  0.125000;0.125000;,
  0.000000;0.125000;,
  0.187500;0.000000;,
  0.250000;0.125000;,
  0.312500;0.000000;,
  0.375000;0.125000;,
  0.437500;0.000000;,
  0.500000;0.125000;,
  0.562500;0.000000;,
  0.625000;0.125000;,
  0.687500;0.000000;,
  0.750000;0.125000;,
  0.812500;0.000000;,
  0.875000;0.125000;,
  0.937500;0.000000;,
  1.000000;0.125000;,
  0.125000;0.250000;,
  0.000000;0.250000;,
  0.250000;0.250000;,
  0.375000;0.250000;,
  0.500000;0.250000;,
  0.625000;0.250000;,
  0.750000;0.250000;,
  0.875000;0.250000;,
  1.000000;0.250000;,
  0.125000;0.375000;,
  0.000000;0.375000;,
  0.250000;0.375000;,
  0.375000;0.375000;,
  0.500000;0.375000;,
  0.625000;0.375000;,
  0.750000;0.375000;,
  0.875000;0.375000;,
  1.000000;0.375000;,
  0.125000;0.500000;,
  0.000000;0.500000;,
  0.250000;0.500000;,
  0.375000;0.500000;,
  0.500000;0.500000;,
  0.625000;0.500000;,
  0.750000;0.500000;,
  0.875000;0.500000;,
  1.000000;0.500000;,
  0.125000;0.625000;,
  0.000000;0.625000;,
  0.250000;0.625000;,
  0.375000;0.625000;,
  0.500000;0.625000;,
  0.625000;0.625000;,
  0.750000;0.625000;,
  0.875000;0.625000;,
  1.000000;0.625000;,
  0.125000;0.750000;,
  0.000000;0.750000;,
  0.250000;0.750000;,
  0.375000;0.750000;,
  0.500000;0.750000;,
  0.625000;0.750000;,
  0.750000;0.750000;,
  0.875000;0.750000;,
  1.000000;0.750000;,
  0.125000;0.875000;,
  0.000000;0.875000;,
  0.250000;0.875000;,
  0.375000;0.875000;,
  0.500000;0.875000;,
  0.625000;0.875000;,
  0.750000;0.875000;,
  0.875000;0.875000;,
  1.000000;0.875000;,
  0.062500;1.000000;,
  0.187500;1.000000;,
  0.312500;1.000000;,
  0.437500;1.000000;,
  0.562500;1.000000;,
  0.687500;1.000000;,
  0.812500;1.000000;,
  0.937500;1.000000;,
  0.062500;0.000000;,
  0.125000;0.125000;,
  0.000000;0.125000;,
  0.187500;0.000000;,
  0.250000;0.125000;,
  0.312500;0.000000;,
  0.375000;0.125000;,
  0.437500;0.000000;,
  0.500000;0.125000;,
  0.562500;0.000000;,
  0.625000;0.125000;,
  0.687500;0.000000;,
  0.750000;0.125000;,
  0.812500;0.000000;,
  0.875000;0.125000;,
  0.937500;0.000000;,
  1.000000;0.125000;,
  0.125000;0.250000;,
  0.000000;0.250000;,
  0.250000;0.250000;,
  0.375000;0.250000;,
  0.500000;0.250000;,
  0.625000;0.250000;,
  0.750000;0.250000;,
  0.875000;0.250000;,
  1.000000;0.250000;,
  0.125000;0.375000;,
  0.000000;0.375000;,
  0.250000;0.375000;,
  0.375000;0.375000;,
  0.500000;0.375000;,
  0.625000;0.375000;,
  0.750000;0.375000;,
  0.875000;0.375000;,
  1.000000;0.375000;,
  0.125000;0.500000;,
  0.000000;0.500000;,
  0.250000;0.500000;,
  0.375000;0.500000;,
  0.500000;0.500000;,
  0.625000;0.500000;,
  0.750000;0.500000;,
  0.875000;0.500000;,
  1.000000;0.500000;,
  0.125000;0.625000;,
  0.000000;0.625000;,
  0.250000;0.625000;,
  0.375000;0.625000;,
  0.500000;0.625000;,
  0.625000;0.625000;,
  0.750000;0.625000;,
  0.875000;0.625000;,
  1.000000;0.625000;,
  0.125000;0.750000;,
  0.000000;0.750000;,
  0.250000;0.750000;,
  0.375000;0.750000;,
  0.500000;0.750000;,
  0.625000;0.750000;,
  0.750000;0.750000;,
  0.875000;0.750000;,
  1.000000;0.750000;,
  0.125000;0.875000;,
  0.000000;0.875000;,
  0.250000;0.875000;,
  0.375000;0.875000;,
  0.500000;0.875000;,
  0.625000;0.875000;,
  0.750000;0.875000;,
  0.875000;0.875000;,
  1.000000;0.875000;,
  0.062500;1.000000;,
  0.187500;1.000000;,
  0.312500;1.000000;,
  0.437500;1.000000;,
  0.562500;1.000000;,
  0.687500;1.000000;,
  0.812500;1.000000;,
  0.937500;1.000000;,
  0.062500;0.000000;,
  0.125000;0.125000;,
  0.000000;0.125000;,
  0.187500;0.000000;,
  0.250000;0.125000;,
  0.312500;0.000000;,
  0.375000;0.125000;,
  0.437500;0.000000;,
  0.500000;0.125000;,
  0.562500;0.000000;,
  0.625000;0.125000;,
  0.687500;0.000000;,
  0.750000;0.125000;,
  0.812500;0.000000;,
  0.875000;0.125000;,
  0.937500;0.000000;,
  1.000000;0.125000;,
  0.125000;0.250000;,
  0.000000;0.250000;,
  0.250000;0.250000;,
  0.375000;0.250000;,
  0.500000;0.250000;,
  0.625000;0.250000;,
  0.750000;0.250000;,
  0.875000;0.250000;,
  1.000000;0.250000;,
  0.125000;0.375000;,
  0.000000;0.375000;,
  0.250000;0.375000;,
  0.375000;0.375000;,
  0.500000;0.375000;,
  0.625000;0.375000;,
  0.750000;0.375000;,
  0.875000;0.375000;,
  1.000000;0.375000;,
  0.125000;0.500000;,
  0.000000;0.500000;,
  0.250000;0.500000;,
  0.375000;0.500000;,
  0.500000;0.500000;,
  0.625000;0.500000;,
  0.750000;0.500000;,
  0.875000;0.500000;,
  1.000000;0.500000;,
  0.125000;0.625000;,
  0.000000;0.625000;,
  0.250000;0.625000;,
  0.375000;0.625000;,
  0.500000;0.625000;,
  0.625000;0.625000;,
  0.750000;0.625000;,
  0.875000;0.625000;,
  1.000000;0.625000;,
  0.125000;0.750000;,
  0.000000;0.750000;,
  0.250000;0.750000;,
  0.375000;0.750000;,
  0.500000;0.750000;,
  0.625000;0.750000;,
  0.750000;0.750000;,
  0.875000;0.750000;,
  1.000000;0.750000;,
  0.125000;0.875000;,
  0.000000;0.875000;,
  0.250000;0.875000;,
  0.375000;0.875000;,
  0.500000;0.875000;,
  0.625000;0.875000;,
  0.750000;0.875000;,
  0.875000;0.875000;,
  1.000000;0.875000;,
  0.062500;1.000000;,
  0.187500;1.000000;,
  0.312500;1.000000;,
  0.437500;1.000000;,
  0.562500;1.000000;,
  0.687500;1.000000;,
  0.812500;1.000000;,
  0.937500;1.000000;,
  0.062500;0.000000;,
  0.125000;0.125000;,
  0.000000;0.125000;,
  0.187500;0.000000;,
  0.250000;0.125000;,
  0.312500;0.000000;,
  0.375000;0.125000;,
  0.437500;0.000000;,
  0.500000;0.125000;,
  0.562500;0.000000;,
  0.625000;0.125000;,
  0.687500;0.000000;,
  0.750000;0.125000;,
  0.812500;0.000000;,
  0.875000;0.125000;,
  0.937500;0.000000;,
  1.000000;0.125000;,
  0.125000;0.250000;,
  0.000000;0.250000;,
  0.250000;0.250000;,
  0.375000;0.250000;,
  0.500000;0.250000;,
  0.625000;0.250000;,
  0.750000;0.250000;,
  0.875000;0.250000;,
  1.000000;0.250000;,
  0.125000;0.375000;,
  0.000000;0.375000;,
  0.250000;0.375000;,
  0.375000;0.375000;,
  0.500000;0.375000;,
  0.625000;0.375000;,
  0.750000;0.375000;,
  0.875000;0.375000;,
  1.000000;0.375000;,
  0.125000;0.500000;,
  0.000000;0.500000;,
  0.250000;0.500000;,
  0.375000;0.500000;,
  0.500000;0.500000;,
  0.625000;0.500000;,
  0.750000;0.500000;,
  0.875000;0.500000;,
  1.000000;0.500000;,
  0.125000;0.625000;,
  0.000000;0.625000;,
  0.250000;0.625000;,
  0.375000;0.625000;,
  0.500000;0.625000;,
  0.625000;0.625000;,
  0.750000;0.625000;,
  0.875000;0.625000;,
  1.000000;0.625000;,
  0.125000;0.750000;,
  0.000000;0.750000;,
  0.250000;0.750000;,
  0.375000;0.750000;,
  0.500000;0.750000;,
  0.625000;0.750000;,
  0.750000;0.750000;,
  0.875000;0.750000;,
  1.000000;0.750000;,
  0.125000;0.875000;,
  0.000000;0.875000;,
  0.250000;0.875000;,
  0.375000;0.875000;,
  0.500000;0.875000;,
  0.625000;0.875000;,
  0.750000;0.875000;,
  0.875000;0.875000;,
  1.000000;0.875000;,
  0.062500;1.000000;,
  0.187500;1.000000;,
  0.312500;1.000000;,
  0.437500;1.000000;,
  0.562500;1.000000;,
  0.687500;1.000000;,
  0.812500;1.000000;,
  0.937500;1.000000;;
 }
}
