xof 0302txt 0064
template Header {
 <3D82AB43-62DA-11cf-AB39-0020AF71E433>
 WORD major;
 WORD minor;
 DWORD flags;
}

template Vector {
 <3D82AB5E-62DA-11cf-AB39-0020AF71E433>
 FLOAT x;
 FLOAT y;
 FLOAT z;
}

template Coords2d {
 <F6F23F44-7686-11cf-8F52-0040333594A3>
 FLOAT u;
 FLOAT v;
}

template Matrix4x4 {
 <F6F23F45-7686-11cf-8F52-0040333594A3>
 array FLOAT matrix[16];
}

template ColorRGBA {
 <35FF44E0-6C7C-11cf-8F52-0040333594A3>
 FLOAT red;
 FLOAT green;
 FLOAT blue;
 FLOAT alpha;
}

template ColorRGB {
 <D3E16E81-7835-11cf-8F52-0040333594A3>
 FLOAT red;
 FLOAT green;
 FLOAT blue;
}

template IndexedColor {
 <1630B820-7842-11cf-8F52-0040333594A3>
 DWORD index;
 ColorRGBA indexColor;
}

template Boolean {
 <4885AE61-78E8-11cf-8F52-0040333594A3>
 WORD truefalse;
}

template Boolean2d {
 <4885AE63-78E8-11cf-8F52-0040333594A3>
 Boolean u;
 Boolean v;
}

template MaterialWrap {
 <4885AE60-78E8-11cf-8F52-0040333594A3>
 Boolean u;
 Boolean v;
}

template TextureFilename {
 <A42790E1-7810-11cf-8F52-0040333594A3>
 STRING filename;
}

template Material {
 <3D82AB4D-62DA-11cf-AB39-0020AF71E433>
 ColorRGBA faceColor;
 FLOAT power;
 ColorRGB specularColor;
 ColorRGB emissiveColor;
 [...]
}

template MeshFace {
 <3D82AB5F-62DA-11cf-AB39-0020AF71E433>
 DWORD nFaceVertexIndices;
 array DWORD faceVertexIndices[nFaceVertexIndices];
}

template MeshFaceWraps {
 <4885AE62-78E8-11cf-8F52-0040333594A3>
 DWORD nFaceWrapValues;
 Boolean2d faceWrapValues;
}

template MeshTextureCoords {
 <F6F23F40-7686-11cf-8F52-0040333594A3>
 DWORD nTextureCoords;
 array Coords2d textureCoords[nTextureCoords];
}

template MeshMaterialList {
 <F6F23F42-7686-11cf-8F52-0040333594A3>
 DWORD nMaterials;
 DWORD nFaceIndexes;
 array DWORD faceIndexes[nFaceIndexes];
 [Material]
}

template MeshNormals {
 <F6F23F43-7686-11cf-8F52-0040333594A3>
 DWORD nNormals;
 array Vector normals[nNormals];
 DWORD nFaceNormals;
 array MeshFace faceNormals[nFaceNormals];
}

template MeshVertexColors {
 <1630B821-7842-11cf-8F52-0040333594A3>
 DWORD nVertexColors;
 array IndexedColor vertexColors[nVertexColors];
}

template Mesh {
 <3D82AB44-62DA-11cf-AB39-0020AF71E433>
 DWORD nVertices;
 array Vector vertices[nVertices];
 DWORD nFaces;
 array MeshFace faces[nFaces];
 [...]
}

Header{
1;
0;
1;
}

Mesh {
 516;
 -15.81870;51.65945;0.10445;,
 15.81870;51.65945;0.10445;,
 15.81870;51.65945;-20.09110;,
 -15.81870;51.65945;-20.09110;,
 -15.81870;51.06520;-22.61555;,
 15.81870;51.06520;-22.61555;,
 15.81870;46.31075;-22.61555;,
 -15.81870;46.31075;-22.61555;,
 -15.81870;45.71640;-20.09110;,
 15.81870;45.71640;-20.09110;,
 15.81870;45.71640;0.10445;,
 -15.81870;45.71640;0.10445;,
 19.77340;51.06520;0.10445;,
 19.77340;46.31075;0.10445;,
 19.77340;46.31075;-20.09110;,
 19.77340;51.06520;-20.09110;,
 -19.77340;46.31075;0.10445;,
 -19.77340;51.06520;0.10445;,
 -19.77340;51.06520;-20.09110;,
 -19.77340;46.31075;-20.09110;,
 -15.81870;51.65945;-20.09110;,
 15.81870;51.65945;-20.09110;,
 15.81870;51.61420;-21.05715;,
 -15.81870;51.61420;-21.05715;,
 15.81870;51.48540;-21.87615;,
 -15.81870;51.48540;-21.87615;,
 15.81870;51.29250;-22.42340;,
 -15.81870;51.29250;-22.42340;,
 15.81870;51.06520;-22.61555;,
 -15.81870;45.76170;-21.05715;,
 15.81870;45.76170;-21.05715;,
 15.81870;45.71640;-20.09110;,
 -15.81870;45.89050;-21.87615;,
 15.81870;45.89050;-21.87615;,
 -15.81870;46.08330;-22.42340;,
 15.81870;46.08330;-22.42340;,
 -15.81870;46.31075;-22.61555;,
 15.81870;46.31075;-22.61555;,
 -15.81870;51.61420;1.07050;,
 15.81870;51.61420;1.07050;,
 15.81870;51.65945;0.10445;,
 -15.81870;51.48540;1.88950;,
 15.81870;51.48540;1.88950;,
 -15.81870;51.29250;2.43675;,
 15.81870;51.29250;2.43675;,
 -15.81870;51.06520;2.62890;,
 15.81870;51.06520;2.62890;,
 -15.81870;45.71640;0.10445;,
 15.81870;45.71640;0.10445;,
 15.81870;45.76170;1.07050;,
 -15.81870;45.76170;1.07050;,
 15.81870;45.89050;1.88950;,
 -15.81870;45.89050;1.88950;,
 15.81870;46.08330;2.43675;,
 -15.81870;46.08330;2.43675;,
 15.81870;46.31075;2.62890;,
 -15.81870;46.31075;2.62890;,
 17.33210;51.61420;0.10445;,
 17.33210;51.61420;-20.09110;,
 18.61510;51.48540;0.10445;,
 18.61510;51.48540;-20.09110;,
 19.47235;51.29250;0.10445;,
 19.47235;51.29250;-20.09110;,
 19.77340;51.06520;-20.09110;,
 17.33210;45.76170;-20.09110;,
 17.33210;45.76170;0.10445;,
 18.61510;45.89050;-20.09110;,
 18.61510;45.89050;0.10445;,
 19.47235;46.08330;-20.09110;,
 19.47235;46.08330;0.10445;,
 19.77340;46.31075;-20.09110;,
 19.77340;46.31075;0.10445;,
 -17.33210;51.61420;-20.09110;,
 -17.33210;51.61420;0.10445;,
 -18.61510;51.48540;-20.09110;,
 -18.61510;51.48540;0.10445;,
 -19.47235;51.29250;-20.09110;,
 -19.47235;51.29250;0.10445;,
 -19.77340;51.06520;-20.09110;,
 -19.77340;51.06520;0.10445;,
 -17.33210;45.76170;0.10445;,
 -17.33210;45.76170;-20.09110;,
 -18.61510;45.89050;0.10445;,
 -18.61510;45.89050;-20.09110;,
 -19.47235;46.08330;0.10445;,
 -19.47235;46.08330;-20.09110;,
 -19.77340;46.31075;-20.09110;,
 17.33210;51.06520;-22.42340;,
 17.33210;46.31075;-22.42340;,
 18.61510;51.06520;-21.87615;,
 18.61510;46.31075;-21.87615;,
 19.47235;51.06520;-21.05715;,
 19.47235;46.31075;-21.05715;,
 17.33210;46.31075;2.43675;,
 17.33210;51.06520;2.43675;,
 18.61510;46.31075;1.88950;,
 18.61510;51.06520;1.88950;,
 19.47235;46.31075;1.07050;,
 19.47235;51.06520;1.07050;,
 -17.33210;46.31075;-22.42340;,
 -17.33210;51.06520;-22.42340;,
 -18.61510;46.31075;-21.87615;,
 -18.61510;51.06520;-21.87615;,
 -19.47235;46.31075;-21.05715;,
 -19.47235;51.06520;-21.05715;,
 -17.33210;51.06520;2.43675;,
 -17.33210;46.31075;2.43675;,
 -18.61510;51.06520;1.88950;,
 -18.61510;46.31075;1.88950;,
 -19.47235;51.06520;1.07050;,
 -19.47235;46.31075;1.07050;,
 17.79605;51.48540;-21.35330;,
 18.98285;51.29250;-21.25725;,
 17.64555;51.29250;-22.11090;,
 -17.79605;51.48540;-21.35330;,
 -18.98285;51.29250;-21.25725;,
 -17.64555;51.29250;-22.11090;,
 17.79605;45.89050;-21.35330;,
 18.98285;46.08330;-21.25725;,
 17.64555;46.08330;-22.11090;,
 17.79605;51.48540;1.36670;,
 18.98285;51.29250;1.27060;,
 17.64555;51.29250;2.12425;,
 -17.79605;45.89050;-21.35330;,
 -18.98285;46.08330;-21.25725;,
 -17.64555;46.08330;-22.11090;,
 17.79605;45.89050;1.36670;,
 18.98285;46.08330;1.27060;,
 17.64555;46.08330;2.12425;,
 -17.79605;51.48540;1.36670;,
 -18.98285;51.29250;1.27060;,
 -17.64555;51.29250;2.12425;,
 -17.79605;45.89050;1.36670;,
 -18.98285;46.08330;1.27060;,
 -17.64555;46.08330;2.12425;,
 15.81870;46.31075;14.17040;,
 -15.81870;46.31075;14.17040;,
 15.81870;46.31075;2.62890;,
 15.81870;51.06520;14.17040;,
 15.81870;51.06520;2.62890;,
 -15.81870;51.06520;14.17040;,
 -15.81870;51.06520;2.62890;,
 12.89325;51.22780;11.78390;,
 -12.89325;51.22780;11.78390;,
 12.89325;51.22780;5.01540;,
 -12.89325;51.22780;5.01540;,
 -27.48150;53.27535;24.17210;,
 27.48150;53.27535;24.17210;,
 27.48150;53.27535;10.05245;,
 -27.48150;53.27535;10.05245;,
 -27.48150;45.74810;10.05245;,
 27.48150;45.74810;10.05245;,
 27.48150;45.74810;24.17210;,
 -27.48150;45.74810;24.17210;,
 28.52135;50.85435;22.14150;,
 28.52135;50.85435;12.08305;,
 27.48150;53.27535;10.05245;,
 28.52135;46.77795;22.14150;,
 28.52135;46.77795;12.08305;,
 27.48150;45.74810;10.05245;,
 -28.52135;50.85435;12.08305;,
 -28.52135;50.85435;22.14150;,
 -27.48150;53.27535;10.05245;,
 -28.52135;46.77795;12.08305;,
 -27.48150;45.74810;10.05245;,
 -28.52135;46.77795;22.14150;,
 23.19500;51.20695;8.54680;,
 -23.19500;51.20695;8.54680;,
 -27.48150;53.27535;10.05245;,
 27.48150;53.27535;10.05245;,
 23.19500;46.42540;8.54680;,
 27.48150;45.74810;10.05245;,
 -23.19500;46.42540;8.54680;,
 -27.48150;45.74810;10.05245;,
 -17.71850;53.27535;25.78665;,
 17.71850;53.27535;25.78665;,
 27.48150;53.27535;24.17210;,
 -27.48150;53.27535;24.17210;,
 -17.71850;45.74810;25.78665;,
 -27.48150;45.74810;24.17210;,
 17.71850;45.74810;25.78665;,
 27.48150;45.74810;24.17210;,
 -17.71850;45.74810;29.33860;,
 -17.71850;53.27535;29.33860;,
 17.71850;53.27535;29.33860;,
 17.71850;45.74810;29.33860;,
 17.71850;54.19775;25.78665;,
 17.71850;56.33135;27.03300;,
 -17.71850;54.19775;25.78665;,
 -17.71850;56.33135;27.03300;,
 -17.71850;56.79425;29.32255;,
 17.71850;56.79425;29.32255;,
 -17.71850;32.85560;29.33860;,
 17.71850;32.85560;29.33860;,
 -17.71850;32.85560;25.78665;,
 17.71850;32.85560;25.78665;,
 -13.87685;17.83410;-21.79435;,
 13.87685;17.83410;-21.79435;,
 18.81135;2.90975;-27.41210;,
 -18.81135;2.90975;-27.41210;,
 13.87685;17.83410;-21.79435;,
 13.87685;17.83410;9.80210;,
 18.81135;2.90975;15.41980;,
 18.81135;2.90975;-27.41210;,
 -13.87685;17.83410;9.80210;,
 -13.87685;17.83410;-21.79435;,
 -18.81135;2.90975;-27.41210;,
 -18.81135;2.90975;15.41980;,
 10.28790;20.26750;5.71625;,
 -10.28790;20.26750;5.71625;,
 10.28790;20.26750;-17.70850;,
 13.87685;17.83410;-21.79435;,
 -10.28790;20.26750;-17.70850;,
 -13.87685;17.83410;-21.79435;,
 17.36850;0.81265;-25.76945;,
 -17.36850;0.81265;-25.76945;,
 -18.81135;2.90975;-27.41210;,
 18.81135;2.90975;-27.41210;,
 17.36850;0.81265;13.77720;,
 -17.36850;0.81265;13.77720;,
 -13.87685;18.30670;26.13780;,
 13.87685;18.30670;26.13780;,
 13.87685;17.83410;9.80210;,
 -13.87685;17.83410;9.80210;,
 -17.36850;-0.01455;31.25370;,
 -18.81135;2.90975;15.41980;,
 17.36850;-0.01455;31.25370;,
 18.81135;2.90975;15.41980;,
 17.36850;-0.01455;31.25370;,
 -17.36850;-0.01455;31.25370;,
 -15.18025;11.72810;38.82960;,
 15.18025;11.72810;38.82960;,
 -17.36850;0.00275;50.57005;,
 17.36850;0.00275;50.57005;,
 -12.87655;29.98935;28.46590;,
 12.87655;29.98935;28.46590;,
 12.87655;0.52395;28.46590;,
 -12.87655;0.52395;28.46590;,
 12.87655;29.98935;28.46590;,
 12.87655;13.05465;49.04345;,
 15.79820;0.52395;50.15540;,
 12.87655;0.52395;28.46590;,
 12.87655;13.05465;49.04345;,
 -12.87655;13.05465;49.04345;,
 -15.79820;0.52395;50.15540;,
 15.79820;0.52395;50.15540;,
 -12.87655;13.05465;49.04345;,
 -12.87655;29.98935;28.46590;,
 -12.87655;0.52395;28.46590;,
 -15.79820;0.52395;50.15540;,
 -12.87655;0.52395;28.46590;,
 12.87655;0.52395;28.46590;,
 12.87655;24.39615;50.03680;,
 -12.87655;24.39615;50.03680;,
 12.87655;36.96275;28.55890;,
 12.87655;29.98935;28.46590;,
 -12.87655;36.96275;28.55890;,
 -12.87655;29.98935;28.46590;,
 12.87655;42.37685;54.13325;,
 -12.87655;42.37685;54.13325;,
 12.87655;42.46030;28.50470;,
 -12.87655;42.46030;28.50470;,
 12.87655;61.33010;58.54985;,
 -12.87655;61.33010;58.54985;,
 12.87655;61.41350;28.60045;,
 -12.87655;61.41350;28.60045;,
 12.87655;79.38620;58.60755;,
 -12.87655;79.38620;58.60755;,
 12.87655;73.05725;28.65820;,
 -12.87655;73.05725;28.65820;,
 12.87655;92.07300;49.70400;,
 -12.87655;92.07300;49.70400;,
 12.87655;98.76960;34.37245;,
 -12.87655;98.76960;34.37245;,
 12.87655;100.77320;25.35610;,
 -12.87655;100.77320;25.35610;,
 12.87655;81.12275;21.45950;,
 -12.87655;81.12275;21.45950;,
 12.87655;100.77820;7.29605;,
 -12.87655;100.77820;7.29605;,
 12.87655;81.88395;9.96310;,
 -12.87655;81.88395;9.96310;,
 12.87655;100.21570;-6.32505;,
 -12.87655;100.21570;-6.32505;,
 12.87655;86.00380;-3.65810;,
 -12.87655;86.00380;-3.65810;,
 0.00000;100.25525;-37.68820;,
 14.84425;100.27835;-32.00750;,
 14.84425;69.46350;-25.19395;,
 0.00000;67.11050;-30.87460;,
 20.99295;100.34030;-18.29320;,
 20.99295;75.14415;-11.47960;,
 14.84425;100.56410;-4.57885;,
 14.84425;80.82480;2.23465;,
 0.00000;100.45035;1.10180;,
 0.00000;83.17785;7.91535;,
 -14.84425;100.56410;-4.57885;,
 -14.84425;80.82480;2.23465;,
 -20.99295;100.34030;-18.29320;,
 -20.99295;75.14415;-11.47960;,
 -14.84425;100.27835;-32.00750;,
 -14.84425;69.46350;-25.19395;,
 0.00000;100.25525;-37.68820;,
 0.00000;67.11050;-30.87460;,
 0.00000;100.34030;-18.29320;,
 0.00000;100.34030;-18.29320;,
 0.00000;100.34030;-18.29320;,
 0.00000;100.34030;-18.29320;,
 0.00000;100.34030;-18.29320;,
 0.00000;100.34030;-18.29320;,
 0.00000;100.34030;-18.29320;,
 0.00000;100.34030;-18.29320;,
 0.00000;75.14415;-11.47960;,
 0.00000;75.14415;-11.47960;,
 0.00000;75.14415;-11.47960;,
 0.00000;75.14415;-11.47960;,
 0.00000;75.14415;-11.47960;,
 0.00000;75.14415;-11.47960;,
 0.00000;75.14415;-11.47960;,
 0.00000;75.14415;-11.47960;,
 0.00000;73.80085;-27.68275;,
 2.84835;74.27145;-26.60080;,
 2.84835;61.92205;-21.23120;,
 0.00000;61.45160;-22.31315;,
 4.02815;75.40710;-23.98870;,
 4.02815;63.05785;-18.61910;,
 2.84835;76.54295;-21.37660;,
 2.84835;64.19365;-16.00700;,
 0.00000;77.01335;-20.29465;,
 0.00000;64.66405;-14.92500;,
 -2.84835;76.54295;-21.37660;,
 -2.84835;64.19365;-16.00700;,
 -4.02815;75.40710;-23.98870;,
 -4.02815;63.05785;-18.61910;,
 -2.84835;74.27145;-26.60080;,
 -2.84835;61.92205;-21.23120;,
 0.00000;73.80085;-27.68275;,
 0.00000;61.45160;-22.31315;,
 0.00000;75.40710;-23.98870;,
 0.00000;75.40710;-23.98870;,
 0.00000;75.40710;-23.98870;,
 0.00000;75.40710;-23.98870;,
 0.00000;75.40710;-23.98870;,
 0.00000;75.40710;-23.98870;,
 0.00000;75.40710;-23.98870;,
 0.00000;75.40710;-23.98870;,
 0.00000;63.05785;-18.61910;,
 0.00000;63.05785;-18.61910;,
 0.00000;63.05785;-18.61910;,
 0.00000;63.05785;-18.61910;,
 0.00000;63.05785;-18.61910;,
 0.00000;63.05785;-18.61910;,
 0.00000;63.05785;-18.61910;,
 0.00000;63.05785;-18.61910;,
 11.35390;79.00220;-10.89140;,
 13.60705;79.37430;-10.03550;,
 13.60705;69.60570;-5.78795;,
 11.35390;69.23340;-6.64385;,
 14.54030;80.27275;-7.96925;,
 14.54030;70.50410;-3.72170;,
 13.60705;81.17115;-5.90300;,
 13.60705;71.40240;-1.65545;,
 11.35390;81.54325;-5.04710;,
 11.35390;71.77460;-0.79960;,
 9.10075;81.17115;-5.90300;,
 9.10075;71.40240;-1.65545;,
 8.16750;80.27275;-7.96925;,
 8.16750;70.50410;-3.72170;,
 9.10075;79.37430;-10.03550;,
 9.10075;69.60570;-5.78795;,
 11.35390;79.00220;-10.89140;,
 11.35390;69.23340;-6.64385;,
 11.35390;80.27275;-7.96925;,
 11.35390;80.27275;-7.96925;,
 11.35390;80.27275;-7.96925;,
 11.35390;80.27275;-7.96925;,
 11.35390;80.27275;-7.96925;,
 11.35390;80.27275;-7.96925;,
 11.35390;80.27275;-7.96925;,
 11.35390;80.27275;-7.96925;,
 11.35390;70.50410;-3.72170;,
 11.35390;70.50410;-3.72170;,
 11.35390;70.50410;-3.72170;,
 11.35390;70.50410;-3.72170;,
 11.35390;70.50410;-3.72170;,
 11.35390;70.50410;-3.72170;,
 11.35390;70.50410;-3.72170;,
 11.35390;70.50410;-3.72170;,
 -9.35725;81.25070;-14.03100;,
 -5.70215;81.85440;-12.64260;,
 -5.70215;66.00755;-5.75215;,
 -9.35725;65.40385;-7.14055;,
 -4.18820;83.31195;-9.29065;,
 -4.18820;67.46495;-2.40025;,
 -5.70215;84.76935;-5.93880;,
 -5.70215;68.92250;0.95165;,
 -9.35725;85.37295;-4.55035;,
 -9.35725;69.52620;2.34005;,
 -13.01230;84.76935;-5.93880;,
 -13.01230;68.92250;0.95165;,
 -14.52630;83.31195;-9.29065;,
 -14.52630;67.46495;-2.40025;,
 -13.01230;81.85440;-12.64260;,
 -13.01230;66.00755;-5.75215;,
 -9.35725;81.25070;-14.03100;,
 -9.35725;65.40385;-7.14055;,
 -9.35725;83.31195;-9.29065;,
 -9.35725;83.31195;-9.29065;,
 -9.35725;83.31195;-9.29065;,
 -9.35725;83.31195;-9.29065;,
 -9.35725;83.31195;-9.29065;,
 -9.35725;83.31195;-9.29065;,
 -9.35725;83.31195;-9.29065;,
 -9.35725;83.31195;-9.29065;,
 -9.35725;67.46495;-2.40025;,
 -9.35725;67.46495;-2.40025;,
 -9.35725;67.46495;-2.40025;,
 -9.35725;67.46495;-2.40025;,
 -9.35725;67.46495;-2.40025;,
 -9.35725;67.46495;-2.40025;,
 -9.35725;67.46495;-2.40025;,
 -9.35725;67.46495;-2.40025;,
 -22.39920;112.36295;-38.73545;,
 22.39920;112.36295;-38.73545;,
 22.39920;97.85105;-38.73545;,
 -22.39920;97.85105;-38.73545;,
 22.39920;112.36295;-38.73545;,
 22.39920;120.55920;-9.26995;,
 22.39920;97.85105;-9.26995;,
 22.39920;97.85105;-38.73545;,
 -22.39920;120.55920;-9.26995;,
 -22.39920;112.36295;-38.73545;,
 -22.39920;97.85105;-38.73545;,
 -22.39920;97.85105;-9.26995;,
 -22.39920;97.85105;-38.73545;,
 22.39920;97.85105;-38.73545;,
 -11.25425;112.36295;0.09230;,
 11.25425;112.36295;0.09230;,
 22.39920;120.55920;-9.26995;,
 -22.39920;120.55920;-9.26995;,
 -11.25425;97.85105;0.09230;,
 -22.39920;97.85105;-9.26995;,
 11.25425;97.85105;0.09230;,
 22.39920;97.85105;-9.26995;,
 -22.39920;124.93560;-38.73545;,
 22.39920;124.93560;-38.73545;,
 22.39920;112.36295;-38.73545;,
 -22.39920;112.36295;-38.73545;,
 11.12735;107.41480;-58.75430;,
 19.45060;110.86260;-58.75435;,
 19.45060;106.49730;-37.65470;,
 11.12735;103.04935;-37.65475;,
 22.89825;119.18575;-58.75430;,
 22.89825;114.82065;-37.65475;,
 19.45060;127.50915;-58.75430;,
 19.45060;123.14395;-37.65470;,
 11.12735;130.95685;-58.75430;,
 11.12735;126.59135;-37.65475;,
 2.80400;127.50915;-58.75430;,
 2.80400;123.14395;-37.65470;,
 -0.64360;119.18575;-58.75430;,
 -0.64360;114.82065;-37.65475;,
 2.80400;110.86260;-58.75435;,
 2.80400;106.49730;-37.65470;,
 11.12735;107.41480;-58.75430;,
 11.12735;103.04935;-37.65475;,
 11.12735;119.18575;-58.75430;,
 11.12735;119.18575;-58.75430;,
 11.12735;119.18575;-58.75430;,
 11.12735;119.18575;-58.75430;,
 11.12735;119.18575;-58.75430;,
 11.12735;119.18575;-58.75430;,
 11.12735;119.18575;-58.75430;,
 11.12735;119.18575;-58.75430;,
 11.12735;114.82065;-37.65475;,
 11.12735;114.82065;-37.65475;,
 11.12735;114.82065;-37.65475;,
 11.12735;114.82065;-37.65475;,
 11.12735;114.82065;-37.65475;,
 11.12735;114.82065;-37.65475;,
 11.12735;114.82065;-37.65475;,
 11.12735;114.82065;-37.65475;,
 -13.65825;107.41480;-58.75430;,
 -5.33495;110.86260;-58.75435;,
 -5.33495;106.49730;-37.65470;,
 -13.65825;103.04935;-37.65475;,
 -1.88730;119.18575;-58.75430;,
 -1.88730;114.82065;-37.65475;,
 -5.33495;127.50915;-58.75430;,
 -5.33495;123.14395;-37.65470;,
 -13.65825;130.95685;-58.75430;,
 -13.65825;126.59135;-37.65475;,
 -21.98155;127.50915;-58.75430;,
 -21.98155;123.14395;-37.65470;,
 -25.42915;119.18575;-58.75430;,
 -25.42915;114.82065;-37.65475;,
 -21.98155;110.86260;-58.75435;,
 -21.98155;106.49730;-37.65470;,
 -13.65825;107.41480;-58.75430;,
 -13.65825;103.04935;-37.65475;,
 -13.65825;119.18575;-58.75430;,
 -13.65825;119.18575;-58.75430;,
 -13.65825;119.18575;-58.75430;,
 -13.65825;119.18575;-58.75430;,
 -13.65825;119.18575;-58.75430;,
 -13.65825;119.18575;-58.75430;,
 -13.65825;119.18575;-58.75430;,
 -13.65825;119.18575;-58.75430;,
 -13.65825;114.82065;-37.65475;,
 -13.65825;114.82065;-37.65475;,
 -13.65825;114.82065;-37.65475;,
 -13.65825;114.82065;-37.65475;,
 -13.65825;114.82065;-37.65475;,
 -13.65825;114.82065;-37.65475;,
 -13.65825;114.82065;-37.65475;,
 -13.65825;114.82065;-37.65475;;
 
 447;
 4;0,1,2,3;,
 4;4,5,6,7;,
 4;8,9,10,11;,
 4;12,13,14,15;,
 4;16,17,18,19;,
 4;20,21,22,23;,
 4;23,22,24,25;,
 4;25,24,26,27;,
 4;27,26,28,4;,
 4;29,30,31,8;,
 4;32,33,30,29;,
 4;34,35,33,32;,
 4;36,37,35,34;,
 4;38,39,40,0;,
 4;41,42,39,38;,
 4;43,44,42,41;,
 4;45,46,44,43;,
 4;47,48,49,50;,
 4;50,49,51,52;,
 4;52,51,53,54;,
 4;54,53,55,56;,
 4;21,40,57,58;,
 4;58,57,59,60;,
 4;60,59,61,62;,
 4;62,61,12,63;,
 4;48,31,64,65;,
 4;65,64,66,67;,
 4;67,66,68,69;,
 4;69,68,70,71;,
 4;0,20,72,73;,
 4;73,72,74,75;,
 4;75,74,76,77;,
 4;77,76,78,79;,
 4;8,47,80,81;,
 4;81,80,82,83;,
 4;83,82,84,85;,
 4;85,84,16,86;,
 4;37,28,87,88;,
 4;88,87,89,90;,
 4;90,89,91,92;,
 4;92,91,63,70;,
 4;46,55,93,94;,
 4;94,93,95,96;,
 4;96,95,97,98;,
 4;98,97,71,12;,
 4;4,36,99,100;,
 4;100,99,101,102;,
 4;102,101,103,104;,
 4;104,103,86,78;,
 4;56,45,105,106;,
 4;106,105,107,108;,
 4;108,107,109,110;,
 4;110,109,79,16;,
 3;21,58,22;,
 3;58,60,111;,
 3;111,22,58;,
 3;22,111,24;,
 3;60,62,112;,
 3;112,111,60;,
 3;111,112,113;,
 3;113,24,111;,
 3;24,113,26;,
 3;62,63,91;,
 3;91,112,62;,
 3;112,91,89;,
 3;89,113,112;,
 3;113,89,87;,
 3;87,26,113;,
 3;26,87,28;,
 3;23,72,20;,
 3;114,74,72;,
 3;72,23,114;,
 3;25,114,23;,
 3;115,76,74;,
 3;74,114,115;,
 3;116,115,114;,
 3;114,25,116;,
 3;27,116,25;,
 3;104,78,76;,
 3;76,115,104;,
 3;102,104,115;,
 3;115,116,102;,
 3;100,102,116;,
 3;116,27,100;,
 3;4,100,27;,
 3;30,64,31;,
 3;117,66,64;,
 3;64,30,117;,
 3;33,117,30;,
 3;118,68,66;,
 3;66,117,118;,
 3;119,118,117;,
 3;117,33,119;,
 3;35,119,33;,
 3;92,70,68;,
 3;68,118,92;,
 3;90,92,118;,
 3;118,119,90;,
 3;88,90,119;,
 3;119,35,88;,
 3;37,88,35;,
 3;39,57,40;,
 3;120,59,57;,
 3;57,39,120;,
 3;42,120,39;,
 3;121,61,59;,
 3;59,120,121;,
 3;122,121,120;,
 3;120,42,122;,
 3;44,122,42;,
 3;98,12,61;,
 3;61,121,98;,
 3;96,98,121;,
 3;121,122,96;,
 3;94,96,122;,
 3;122,44,94;,
 3;46,94,44;,
 3;8,81,29;,
 3;81,83,123;,
 3;123,29,81;,
 3;29,123,32;,
 3;83,85,124;,
 3;124,123,83;,
 3;123,124,125;,
 3;125,32,123;,
 3;32,125,34;,
 3;85,86,103;,
 3;103,124,85;,
 3;124,103,101;,
 3;101,125,124;,
 3;125,101,99;,
 3;99,34,125;,
 3;34,99,36;,
 3;48,65,49;,
 3;65,67,126;,
 3;126,49,65;,
 3;49,126,51;,
 3;67,69,127;,
 3;127,126,67;,
 3;126,127,128;,
 3;128,51,126;,
 3;51,128,53;,
 3;69,71,97;,
 3;97,127,69;,
 3;127,97,95;,
 3;95,128,127;,
 3;128,95,93;,
 3;93,53,128;,
 3;53,93,55;,
 3;0,73,38;,
 3;73,75,129;,
 3;129,38,73;,
 3;38,129,41;,
 3;75,77,130;,
 3;130,129,75;,
 3;129,130,131;,
 3;131,41,129;,
 3;41,131,43;,
 3;77,79,109;,
 3;109,130,77;,
 3;130,109,107;,
 3;107,131,130;,
 3;131,107,105;,
 3;105,43,131;,
 3;43,105,45;,
 3;50,80,47;,
 3;132,82,80;,
 3;80,50,132;,
 3;52,132,50;,
 3;133,84,82;,
 3;82,132,133;,
 3;134,133,132;,
 3;132,52,134;,
 3;54,134,52;,
 3;110,16,84;,
 3;84,133,110;,
 3;108,110,133;,
 3;133,134,108;,
 3;106,108,134;,
 3;134,54,106;,
 3;56,106,54;,
 4;135,136,56,137;,
 4;138,135,137,139;,
 4;136,140,141,56;,
 4;136,135,138,140;,
 4;142,143,140,138;,
 4;144,142,138,139;,
 4;145,144,139,141;,
 4;143,145,141,140;,
 4;143,142,144,145;,
 4;146,147,148,149;,
 4;150,151,152,153;,
 4;154,155,156,147;,
 4;157,154,147,152;,
 4;158,157,152,159;,
 4;155,158,159,156;,
 4;155,154,157,158;,
 4;160,161,146,162;,
 4;163,160,162,164;,
 4;165,163,164,153;,
 4;161,165,153,146;,
 4;161,160,163,165;,
 4;166,167,168,169;,
 4;170,166,169,171;,
 4;172,170,171,173;,
 4;167,172,173,168;,
 4;167,166,170,172;,
 4;174,175,176,177;,
 4;178,174,177,179;,
 4;180,178,179,181;,
 4;175,180,181,176;,
 4;182,183,174,178;,
 4;184,185,180,175;,
 4;184,183,182,185;,
 4;186,187,184,175;,
 4;188,186,175,174;,
 4;189,188,174,183;,
 4;189,187,186,188;,
 4;190,191,187,189;,
 4;191,190,183,184;,
 3;183,190,189;,
 3;184,187,191;,
 4;192,193,185,182;,
 4;194,192,182,178;,
 4;195,194,178,180;,
 4;193,195,180,185;,
 4;193,192,194,195;,
 4;196,197,198,199;,
 4;200,201,202,203;,
 4;204,205,206,207;,
 4;208,209,204,201;,
 4;210,208,201,211;,
 4;212,210,211,213;,
 4;209,212,213,204;,
 4;209,208,210,212;,
 4;214,215,216,217;,
 4;218,214,217,202;,
 4;215,219,207,216;,
 4;215,214,218,219;,
 4;220,221,222,223;,
 4;224,220,223,225;,
 4;221,226,227,222;,
 4;228,229,219,218;,
 3;229,207,219;,
 3;228,218,202;,
 4;230,231,221,220;,
 4;232,230,220,224;,
 4;233,232,224,226;,
 4;231,233,226,221;,
 4;231,230,232,233;,
 4;234,235,236,237;,
 4;238,239,240,241;,
 4;242,243,244,245;,
 4;246,247,248,249;,
 4;250,251,240,249;,
 4;252,253,246,239;,
 4;254,252,239,255;,
 4;256,254,255,257;,
 4;253,256,257,246;,
 4;258,259,253,252;,
 4;260,258,252,254;,
 4;261,260,254,256;,
 4;259,261,256,253;,
 4;262,263,259,258;,
 4;264,262,258,260;,
 4;265,264,260,261;,
 4;263,265,261,259;,
 4;266,267,263,262;,
 4;268,266,262,264;,
 4;269,268,264,265;,
 4;267,269,265,263;,
 4;270,271,267,266;,
 3;268,270,266;,
 3;269,267,271;,
 4;272,273,271,270;,
 3;268,272,270;,
 3;269,271,273;,
 4;274,275,273,272;,
 4;276,274,272,268;,
 4;277,276,268,269;,
 4;275,277,269,273;,
 4;278,279,275,274;,
 4;280,278,274,276;,
 4;281,280,276,277;,
 4;279,281,277,275;,
 4;282,283,279,278;,
 4;284,282,278,280;,
 4;285,284,280,281;,
 4;283,285,281,279;,
 4;283,282,284,285;,
 4;286,287,288,289;,
 4;287,290,291,288;,
 4;290,292,293,291;,
 4;292,294,295,293;,
 4;294,296,297,295;,
 4;296,298,299,297;,
 4;298,300,301,299;,
 4;300,302,303,301;,
 3;304,287,286;,
 3;305,290,287;,
 3;306,292,290;,
 3;307,294,292;,
 3;308,296,294;,
 3;309,298,296;,
 3;310,300,298;,
 3;311,302,300;,
 3;312,289,288;,
 3;313,288,291;,
 3;314,291,293;,
 3;315,293,295;,
 3;316,295,297;,
 3;317,297,299;,
 3;318,299,301;,
 3;319,301,303;,
 4;320,321,322,323;,
 4;321,324,325,322;,
 4;324,326,327,325;,
 4;326,328,329,327;,
 4;328,330,331,329;,
 4;330,332,333,331;,
 4;332,334,335,333;,
 4;334,336,337,335;,
 3;338,321,320;,
 3;339,324,321;,
 3;340,326,324;,
 3;341,328,326;,
 3;342,330,328;,
 3;343,332,330;,
 3;344,334,332;,
 3;345,336,334;,
 3;346,323,322;,
 3;347,322,325;,
 3;348,325,327;,
 3;349,327,329;,
 3;350,329,331;,
 3;351,331,333;,
 3;352,333,335;,
 3;353,335,337;,
 4;354,355,356,357;,
 4;355,358,359,356;,
 4;358,360,361,359;,
 4;360,362,363,361;,
 4;362,364,365,363;,
 4;364,366,367,365;,
 4;366,368,369,367;,
 4;368,370,371,369;,
 3;372,355,354;,
 3;373,358,355;,
 3;374,360,358;,
 3;375,362,360;,
 3;376,364,362;,
 3;377,366,364;,
 3;378,368,366;,
 3;379,370,368;,
 3;380,357,356;,
 3;381,356,359;,
 3;382,359,361;,
 3;383,361,363;,
 3;384,363,365;,
 3;385,365,367;,
 3;386,367,369;,
 3;387,369,371;,
 4;388,389,390,391;,
 4;389,392,393,390;,
 4;392,394,395,393;,
 4;394,396,397,395;,
 4;396,398,399,397;,
 4;398,400,401,399;,
 4;400,402,403,401;,
 4;402,404,405,403;,
 3;406,389,388;,
 3;407,392,389;,
 3;408,394,392;,
 3;409,396,394;,
 3;410,398,396;,
 3;411,400,398;,
 3;412,402,400;,
 3;413,404,402;,
 3;414,391,390;,
 3;415,390,393;,
 3;416,393,395;,
 3;417,395,397;,
 3;418,397,399;,
 3;419,399,401;,
 3;420,401,403;,
 3;421,403,405;,
 4;422,423,424,425;,
 4;426,427,428,429;,
 4;430,431,432,433;,
 4;434,435,428,433;,
 4;436,437,438,439;,
 4;440,436,439,441;,
 4;442,440,441,443;,
 4;437,442,443,438;,
 4;437,436,440,442;,
 4;444,445,446,447;,
 4;430,427,445,444;,
 3;430,444,447;,
 3;427,446,445;,
 4;448,449,450,451;,
 4;449,452,453,450;,
 4;452,454,455,453;,
 4;454,456,457,455;,
 4;456,458,459,457;,
 4;458,460,461,459;,
 4;460,462,463,461;,
 4;462,464,465,463;,
 3;466,449,448;,
 3;467,452,449;,
 3;468,454,452;,
 3;469,456,454;,
 3;470,458,456;,
 3;471,460,458;,
 3;472,462,460;,
 3;473,464,462;,
 3;474,451,450;,
 3;475,450,453;,
 3;476,453,455;,
 3;477,455,457;,
 3;478,457,459;,
 3;479,459,461;,
 3;480,461,463;,
 3;481,463,465;,
 4;482,483,484,485;,
 4;483,486,487,484;,
 4;486,488,489,487;,
 4;488,490,491,489;,
 4;490,492,493,491;,
 4;492,494,495,493;,
 4;494,496,497,495;,
 4;496,498,499,497;,
 3;500,483,482;,
 3;501,486,483;,
 3;502,488,486;,
 3;503,490,488;,
 3;504,492,490;,
 3;505,494,492;,
 3;506,496,494;,
 3;507,498,496;,
 3;508,485,484;,
 3;509,484,487;,
 3;510,487,489;,
 3;511,489,491;,
 3;512,491,493;,
 3;513,493,495;,
 3;514,495,497;,
 3;515,497,499;;
 
 MeshMaterialList {
  3;
  447;
  0,
  0,
  0,
  0,
  0,
  0,
  0,
  0,
  0,
  0,
  0,
  0,
  0,
  0,
  0,
  0,
  0,
  0,
  0,
  0,
  0,
  0,
  0,
  0,
  0,
  0,
  0,
  0,
  0,
  0,
  0,
  0,
  0,
  0,
  0,
  0,
  0,
  0,
  0,
  0,
  0,
  0,
  0,
  0,
  0,
  0,
  0,
  0,
  0,
  0,
  0,
  0,
  0,
  0,
  0,
  0,
  0,
  0,
  0,
  0,
  0,
  0,
  0,
  0,
  0,
  0,
  0,
  0,
  0,
  0,
  0,
  0,
  0,
  0,
  0,
  0,
  0,
  0,
  0,
  0,
  0,
  0,
  0,
  0,
  0,
  0,
  0,
  0,
  0,
  0,
  0,
  0,
  0,
  0,
  0,
  0,
  0,
  0,
  0,
  0,
  0,
  0,
  0,
  0,
  0,
  0,
  0,
  0,
  0,
  0,
  0,
  0,
  0,
  0,
  0,
  0,
  0,
  0,
  0,
  0,
  0,
  0,
  0,
  0,
  0,
  0,
  0,
  0,
  0,
  0,
  0,
  0,
  0,
  0,
  0,
  0,
  0,
  0,
  0,
  0,
  0,
  0,
  0,
  0,
  0,
  0,
  0,
  0,
  0,
  0,
  0,
  0,
  0,
  0,
  0,
  0,
  0,
  0,
  0,
  0,
  0,
  0,
  0,
  0,
  0,
  0,
  0,
  0,
  0,
  0,
  0,
  0,
  0,
  0,
  0,
  0,
  0,
  0,
  0,
  0,
  0,
  0,
  0,
  0,
  0,
  0,
  0,
  0,
  0,
  0,
  0,
  0,
  0,
  0,
  0,
  0,
  0,
  0,
  0,
  0,
  0,
  0,
  0,
  0,
  0,
  0,
  0,
  0,
  0,
  0,
  0,
  0,
  0,
  0,
  0,
  0,
  0,
  0,
  0,
  0,
  0,
  0,
  0,
  0,
  0,
  0,
  0,
  1,
  1,
  1,
  1,
  1,
  1,
  1,
  1,
  1,
  1,
  1,
  1,
  1,
  1,
  1,
  1,
  1,
  1,
  1,
  1,
  1,
  1,
  1,
  1,
  1,
  1,
  1,
  1,
  1,
  1,
  1,
  1,
  1,
  1,
  1,
  1,
  1,
  1,
  1,
  1,
  1,
  1,
  1,
  1,
  1,
  1,
  1,
  1,
  1,
  1,
  1,
  1,
  1,
  1,
  1,
  1,
  1,
  1,
  1,
  1,
  1,
  1,
  1,
  1,
  1,
  1,
  1,
  1,
  1,
  1,
  1,
  1,
  1,
  1,
  1,
  1,
  1,
  1,
  1,
  1,
  1,
  1,
  1,
  1,
  1,
  1,
  1,
  2,
  2,
  2,
  2,
  2,
  2,
  2,
  2,
  2,
  2,
  2,
  2,
  2,
  2,
  2,
  2,
  2,
  2,
  2,
  2,
  2,
  2,
  2,
  2,
  2,
  2,
  2,
  2,
  2,
  2,
  2,
  2,
  2,
  2,
  2,
  2,
  2,
  2,
  2,
  2,
  2,
  2,
  2,
  2,
  2,
  2,
  2,
  2,
  2,
  2,
  2,
  2,
  2,
  2,
  2,
  2,
  2,
  2,
  2,
  2,
  2,
  2,
  2,
  2,
  2,
  2,
  2,
  2,
  2,
  2,
  2,
  2,
  1,
  1,
  1,
  1,
  1,
  1,
  1,
  1,
  1,
  1,
  1,
  1,
  1,
  0,
  0,
  0,
  0,
  0,
  0,
  0,
  0,
  0,
  0,
  0,
  0,
  0,
  0,
  0,
  0,
  0,
  0,
  0,
  0,
  0,
  0,
  0,
  0,
  0,
  0,
  0,
  0,
  0,
  0,
  0,
  0,
  0,
  0,
  0,
  0,
  0,
  0,
  0,
  0,
  0,
  0,
  0,
  0,
  0,
  0,
  0,
  0;;
  Material {
   0.081600;0.081600;0.081600;1.000000;;
   66.000000;
   0.470000;0.470000;0.470000;;
   0.000000;0.000000;0.000000;;
  }
  Material {
   0.627200;0.627200;0.627200;1.000000;;
   67.000000;
   0.240000;0.240000;0.240000;;
   0.000000;0.000000;0.000000;;
  }
  Material {
   0.385600;0.385600;0.385600;1.000000;;
   20.000000;
   0.740000;0.740000;0.740000;;
   0.000000;0.000000;0.000000;;
  }
 }
 MeshNormals {
  374;
  -0.014941;0.999615;0.023398;,
  0.014941;0.999615;0.023398;,
  -0.014941;0.999615;-0.023398;,
  0.014941;0.999615;-0.023398;,
  -0.059307;0.343418;-0.937308;,
  0.059307;0.343418;-0.937308;,
  -0.059311;-0.343266;-0.937364;,
  0.059311;-0.343266;-0.937364;,
  -0.014957;-0.999614;-0.023424;,
  0.014957;-0.999614;-0.023424;,
  -0.014957;-0.999614;0.023424;,
  0.014957;-0.999614;0.023424;,
  -0.078470;-0.454152;0.887462;,
  0.078470;-0.454152;0.887462;,
  -0.078465;0.454349;0.887361;,
  0.078465;0.454349;0.887361;,
  0.885310;0.444818;0.135508;,
  0.885381;-0.444675;0.135518;,
  0.885310;0.444818;-0.135508;,
  0.885381;-0.444675;-0.135519;,
  -0.885381;-0.444675;0.135518;,
  -0.885310;0.444818;0.135508;,
  -0.885381;-0.444675;-0.135519;,
  -0.885310;0.444818;-0.135508;,
  -0.024717;0.994936;-0.097420;,
  0.024717;0.994936;-0.097420;,
  -0.033382;0.968261;-0.247703;,
  0.033382;0.968261;-0.247703;,
  -0.054731;0.808194;-0.586367;,
  0.054731;0.808194;-0.586367;,
  -0.024723;-0.994934;-0.097440;,
  0.024723;-0.994934;-0.097440;,
  -0.033370;-0.968284;-0.247615;,
  0.033370;-0.968284;-0.247615;,
  -0.054742;-0.808117;-0.586473;,
  0.054742;-0.808117;-0.586473;,
  -0.024716;0.994937;0.097419;,
  0.024716;0.994937;0.097419;,
  -0.033381;0.968260;0.247706;,
  0.033381;0.968260;0.247706;,
  -0.054731;0.808195;0.586366;,
  0.054731;0.808195;0.586366;,
  -0.024722;-0.994934;0.097439;,
  0.024722;-0.994934;0.097439;,
  -0.033369;-0.968283;0.247619;,
  0.033369;-0.968283;0.247619;,
  -0.054742;-0.808118;0.586472;,
  0.054742;-0.808118;0.586472;,
  0.062429;0.997296;0.038782;,
  0.062429;0.997296;-0.038783;,
  0.161563;0.985426;0.053234;,
  0.161562;0.985426;-0.053235;,
  0.431919;0.896613;0.097630;,
  0.431919;0.896613;-0.097630;,
  0.062442;-0.997294;0.038792;,
  0.062442;-0.997294;-0.038793;,
  0.161503;-0.985436;0.053215;,
  0.161502;-0.985437;-0.053215;,
  0.432040;-0.896551;0.097660;,
  0.432040;-0.896551;-0.097660;,
  -0.062429;0.997296;0.038782;,
  -0.062429;0.997296;-0.038783;,
  -0.161563;0.985426;0.053234;,
  -0.161562;0.985426;-0.053235;,
  -0.431919;0.896613;0.097630;,
  -0.431919;0.896613;-0.097630;,
  -0.062442;-0.997294;0.038792;,
  -0.062442;-0.997294;-0.038793;,
  -0.161503;-0.985436;0.053215;,
  -0.161502;-0.985437;-0.053215;,
  -0.432040;-0.896551;0.097660;,
  -0.432040;-0.896551;-0.097660;,
  0.224919;-0.425059;-0.876776;,
  0.224902;0.425237;-0.876694;,
  0.488822;-0.448524;-0.748251;,
  0.488773;0.448697;-0.748179;,
  0.733023;-0.516747;-0.442323;,
  0.732932;0.516915;-0.442278;,
  0.224919;-0.425060;0.876776;,
  0.224902;0.425238;0.876694;,
  0.488821;-0.448524;0.748251;,
  0.488773;0.448697;0.748179;,
  0.733023;-0.516747;0.442323;,
  0.732932;0.516915;0.442278;,
  -0.224919;-0.425059;-0.876776;,
  -0.224902;0.425237;-0.876694;,
  -0.488822;-0.448524;-0.748251;,
  -0.488773;0.448697;-0.748179;,
  -0.733023;-0.516747;-0.442323;,
  -0.732932;0.516915;-0.442278;,
  -0.224919;-0.425060;0.876776;,
  -0.224902;0.425238;0.876694;,
  -0.488821;-0.448524;0.748251;,
  -0.488773;0.448697;0.748179;,
  -0.733023;-0.516747;0.442323;,
  -0.732932;0.516915;0.442278;,
  0.101453;0.982147;-0.158412;,
  0.323407;0.899076;-0.295078;,
  0.179286;0.861969;-0.474200;,
  -0.101453;0.982147;-0.158412;,
  -0.323407;0.899076;-0.295078;,
  -0.179286;0.861969;-0.474200;,
  0.101419;-0.982159;-0.158360;,
  0.323464;-0.899037;-0.295133;,
  0.179315;-0.861929;-0.474263;,
  0.101454;0.982146;0.158417;,
  0.323410;0.899074;0.295081;,
  0.179288;0.861966;0.474205;,
  -0.101419;-0.982159;-0.158360;,
  -0.323464;-0.899037;-0.295133;,
  -0.179315;-0.861929;-0.474263;,
  0.101421;-0.982158;0.158365;,
  0.323466;-0.899035;0.295135;,
  0.179316;-0.861926;0.474268;,
  -0.101454;0.982146;0.158417;,
  -0.323410;0.899074;0.295081;,
  -0.179288;0.861966;0.474205;,
  -0.101421;-0.982158;0.158365;,
  -0.323466;-0.899035;0.295135;,
  -0.179316;-0.861926;0.474268;,
  0.000000;-1.000000;0.000000;,
  -1.000000;0.000000;0.000000;,
  1.000000;0.000000;0.000000;,
  -0.018514;0.999571;-0.022678;,
  0.018514;0.999571;-0.022678;,
  -0.018514;0.999571;0.022678;,
  0.018514;0.999571;0.022678;,
  0.000000;0.891213;-0.453586;,
  -0.256250;-0.954996;-0.149392;,
  0.256250;-0.954996;-0.149392;,
  -0.977731;0.137370;-0.158656;,
  -0.950907;-0.260484;-0.167103;,
  0.977731;0.137370;-0.158656;,
  0.950907;-0.260484;-0.167103;,
  0.977731;0.137370;0.158656;,
  0.950907;-0.260484;0.167103;,
  -0.977731;0.137370;0.158656;,
  -0.950907;-0.260484;0.167103;,
  -0.116953;0.207690;-0.971178;,
  0.000000;-0.911977;-0.410242;,
  0.116953;0.207690;-0.971178;,
  0.168094;0.000000;-0.985771;,
  0.000000;1.000000;0.000000;,
  0.251282;-0.967914;-0.000000;,
  -0.251282;-0.967914;0.000000;,
  -0.163158;0.000000;0.986600;,
  0.000000;0.261276;-0.965264;,
  0.000000;0.980168;-0.198171;,
  0.000000;0.000000;-1.000000;,
  0.000000;0.000000;1.000000;,
  -0.027774;0.999035;0.034020;,
  0.027774;0.999035;0.034020;,
  0.027774;0.999035;-0.034020;,
  -0.027774;0.999035;-0.034020;,
  0.827203;0.152527;-0.540806;,
  0.948692;0.206976;0.239047;,
  0.589716;0.000000;0.807611;,
  0.657622;0.000000;-0.753348;,
  -0.948692;0.206976;0.239047;,
  -0.827203;0.152527;-0.540806;,
  -0.657622;0.000000;-0.753348;,
  -0.589716;0.000000;0.807611;,
  -0.168094;0.000000;-0.985771;,
  0.163158;0.000000;0.986600;,
  0.000000;0.002281;0.999997;,
  0.000000;0.813413;-0.581686;,
  0.000000;0.004561;0.999990;,
  -0.218966;0.795633;-0.564820;,
  0.000000;-0.151644;-0.988435;,
  0.000000;0.641787;-0.766883;,
  0.716427;0.697604;0.009035;,
  0.988736;-0.149374;0.009406;,
  -0.716427;0.697604;0.009035;,
  -0.988736;-0.149374;0.009406;,
  -0.200991;0.962298;-0.183263;,
  0.200991;0.962298;-0.183263;,
  0.200991;0.962298;0.183263;,
  -0.200991;0.962298;0.183263;,
  0.000000;-0.899067;-0.437810;,
  0.469105;-0.882898;-0.020792;,
  -0.469105;-0.882898;-0.020792;,
  0.000000;0.974874;0.222758;,
  0.999268;-0.036524;0.011373;,
  -0.999268;-0.036524;0.011373;,
  0.000000;0.807154;0.590341;,
  0.000000;-1.000000;0.000896;,
  -0.982802;0.184649;-0.002329;,
  0.000000;0.006668;-0.999978;,
  0.000000;0.000000;-1.000000;,
  0.997994;0.054076;-0.032930;,
  0.991983;0.107936;-0.065727;,
  0.000000;0.000572;1.000000;,
  0.000000;0.088391;0.996086;,
  0.000000;0.001738;-0.999999;,
  1.000000;0.000000;0.000000;,
  0.000000;-0.155054;0.987906;,
  0.000000;-0.002403;-0.999997;,
  0.000000;-0.224540;0.974465;,
  0.000000;0.005006;-0.999987;,
  0.000000;-0.115808;0.993272;,
  0.000000;0.299690;0.954037;,
  0.000000;0.774205;0.632935;,
  0.000000;-0.354011;-0.935241;,
  0.000000;0.950723;0.310043;,
  0.000000;-0.898648;-0.438671;,
  0.000000;0.994014;0.109253;,
  0.000000;-0.983859;-0.178944;,
  0.000000;0.999790;-0.020497;,
  0.000000;-0.957176;-0.289506;,
  0.000000;0.999148;-0.041261;,
  -0.000000;0.999970;-0.007723;,
  0.000000;-0.208595;-0.978002;,
  0.692983;-0.156708;-0.703716;,
  0.999923;0.012016;-0.003168;,
  0.691442;0.238643;0.681878;,
  0.000000;0.346513;0.938045;,
  -0.691442;0.238643;0.681878;,
  -0.999923;0.012016;-0.003168;,
  -0.692983;-0.156708;-0.703716;,
  0.000000;-0.923879;0.382684;,
  -0.000000;0.917060;-0.398750;,
  0.000000;-0.398747;-0.917061;,
  0.707109;-0.281956;-0.648458;,
  1.000000;-0.000001;-0.000003;,
  0.707108;0.281957;0.648458;,
  0.000000;0.398749;0.917060;,
  -0.707108;0.281957;0.648458;,
  -1.000000;-0.000001;-0.000003;,
  -0.707109;-0.281956;-0.648458;,
  0.000000;-0.917059;0.398752;,
  0.000000;0.917064;-0.398740;,
  0.000000;-0.398749;-0.917060;,
  0.707115;-0.281955;-0.648451;,
  1.000000;0.000000;0.000002;,
  0.707108;0.281957;0.648459;,
  0.000000;0.398747;0.917061;,
  -0.707108;0.281957;0.648459;,
  -1.000000;0.000000;0.000002;,
  -0.707115;-0.281955;-0.648451;,
  0.000000;-0.917065;0.398737;,
  0.000000;0.917060;-0.398750;,
  -0.000002;-0.398751;-0.917059;,
  0.707108;-0.281959;-0.648458;,
  1.000000;0.000001;0.000002;,
  0.707107;0.281959;0.648459;,
  -0.000002;0.398751;0.917059;,
  -0.707104;0.281960;0.648461;,
  -1.000000;0.000001;0.000002;,
  -0.707106;-0.281960;-0.648460;,
  -0.000000;-0.917058;0.398755;,
  0.906425;0.000000;0.422367;,
  -0.906425;0.000000;0.422367;,
  0.000000;0.413099;0.910686;,
  0.000000;-1.000000;0.000000;,
  -0.342280;0.000000;0.939598;,
  0.960511;0.000000;0.278242;,
  -0.960511;0.000000;0.278242;,
  -0.000000;0.000001;-1.000000;,
  0.000002;-0.979261;-0.202603;,
  0.701856;-0.697546;-0.144316;,
  1.000000;-0.000002;-0.000001;,
  0.701846;0.697556;0.144317;,
  0.000002;0.979261;0.202602;,
  -0.701846;0.697556;0.144317;,
  -1.000000;-0.000002;-0.000001;,
  -0.701857;-0.697546;-0.144316;,
  -0.000000;-0.000000;1.000000;,
  0.000000;0.000001;-1.000000;,
  0.000000;-0.979261;-0.202603;,
  0.701856;-0.697547;-0.144316;,
  1.000000;-0.000002;-0.000001;,
  0.701845;0.697557;0.144317;,
  0.000000;0.979261;0.202602;,
  -0.701847;0.697555;0.144317;,
  -1.000000;-0.000002;-0.000001;,
  -0.701858;-0.697545;-0.144316;,
  -0.000000;-0.000000;1.000000;,
  0.797808;0.602911;0.000000;,
  0.989983;-0.141188;-0.000000;,
  -0.949449;0.313920;0.000000;,
  -0.989983;-0.141188;0.000000;,
  0.000000;0.859169;0.511693;,
  0.823841;-0.566821;-0.000000;,
  -0.823841;-0.566821;0.000000;,
  -0.973729;0.225866;0.028926;,
  0.973729;0.225866;0.028926;,
  0.000000;-0.999731;-0.023199;,
  0.982802;0.184649;-0.002329;,
  0.000000;0.707562;0.706652;,
  -0.997994;0.054076;-0.032930;,
  -0.991983;0.107936;-0.065727;,
  -1.000000;0.000000;0.000000;,
  0.000000;-0.184437;-0.982844;,
  0.000061;0.999990;-0.004451;,
  0.000000;0.999990;-0.004385;,
  0.000000;0.999946;-0.010417;,
  -0.004917;0.999928;-0.010995;,
  0.000000;0.999984;-0.005674;,
  0.004917;0.999928;-0.010995;,
  -0.000061;0.999990;-0.004451;,
  0.000000;-0.923880;0.382683;,
  0.000000;-0.923880;0.382683;,
  0.000000;-0.923880;0.382683;,
  -0.000000;-0.923879;0.382685;,
  0.000000;-0.923879;0.382685;,
  0.000000;-0.923879;0.382685;,
  -0.000000;-0.923880;0.382683;,
  -0.000023;0.917067;-0.398734;,
  0.000000;0.917058;-0.398755;,
  0.000000;0.917063;-0.398743;,
  -0.000009;0.917053;-0.398765;,
  0.000000;0.917057;-0.398756;,
  0.000009;0.917053;-0.398765;,
  0.000023;0.917067;-0.398734;,
  0.000000;-0.917057;0.398756;,
  -0.000001;-0.917057;0.398756;,
  0.000000;-0.917057;0.398757;,
  0.000009;-0.917060;0.398748;,
  0.000000;-0.917064;0.398740;,
  -0.000009;-0.917060;0.398748;,
  0.000001;-0.917057;0.398756;,
  0.000009;0.917060;-0.398749;,
  0.000000;0.917064;-0.398740;,
  0.000000;0.917061;-0.398747;,
  -0.000006;0.917068;-0.398732;,
  0.000000;0.917070;-0.398726;,
  0.000006;0.917068;-0.398732;,
  -0.000009;0.917060;-0.398749;,
  0.000000;-0.917047;0.398779;,
  0.000023;-0.917056;0.398758;,
  0.000000;-0.917073;0.398719;,
  -0.000017;-0.917074;0.398716;,
  0.000000;-0.917068;0.398732;,
  0.000017;-0.917074;0.398716;,
  -0.000023;-0.917056;0.398758;,
  0.000003;0.917053;-0.398765;,
  -0.000000;0.917054;-0.398763;,
  0.000000;0.917058;-0.398755;,
  -0.000009;0.917067;-0.398734;,
  0.000000;0.917070;-0.398726;,
  0.000009;0.917067;-0.398734;,
  -0.000003;0.917053;-0.398765;,
  -0.000000;-0.917063;0.398743;,
  0.000003;-0.917064;0.398740;,
  0.000000;-0.917057;0.398755;,
  0.000003;-0.917051;0.398770;,
  -0.000000;-0.917052;0.398767;,
  -0.000003;-0.917051;0.398770;,
  -0.000003;-0.917064;0.398740;,
  0.000000;0.907598;0.419840;,
  -0.643212;0.000000;0.765688;,
  0.643212;0.000000;0.765688;,
  0.342280;0.000000;0.939598;,
  0.000000;0.989149;0.146915;,
  -0.000003;0.000003;-1.000000;,
  -0.000000;0.000000;-1.000000;,
  0.000000;0.000003;-1.000000;,
  0.000003;0.000003;-1.000000;,
  -0.000000;0.000000;1.000000;,
  -0.000003;0.000003;1.000000;,
  0.000000;-0.000000;1.000000;,
  -0.000003;-0.000003;1.000000;,
  -0.000000;0.000000;1.000000;,
  0.000003;-0.000003;1.000000;,
  0.000003;0.000003;1.000000;,
  -0.000003;0.000003;-1.000000;,
  0.000003;0.000003;-1.000000;,
  0.000000;0.000000;1.000000;,
  -0.000003;0.000003;1.000000;,
  -0.000003;-0.000003;1.000000;,
  -0.000000;0.000000;1.000000;,
  0.000003;-0.000003;1.000000;,
  0.000000;-0.000000;1.000000;,
  0.000003;0.000003;1.000000;;
  447;
  4;0,1,3,2;,
  4;4,5,7,6;,
  4;8,9,11,10;,
  4;16,17,19,18;,
  4;20,21,23,22;,
  4;2,3,25,24;,
  4;24,25,27,26;,
  4;26,27,29,28;,
  4;28,29,5,4;,
  4;30,31,9,8;,
  4;32,33,31,30;,
  4;34,35,33,32;,
  4;6,7,35,34;,
  4;36,37,1,0;,
  4;38,39,37,36;,
  4;40,41,39,38;,
  4;14,15,41,40;,
  4;10,11,43,42;,
  4;42,43,45,44;,
  4;44,45,47,46;,
  4;46,47,13,12;,
  4;3,1,48,49;,
  4;49,48,50,51;,
  4;51,50,52,53;,
  4;53,52,16,18;,
  4;11,9,55,54;,
  4;54,55,57,56;,
  4;56,57,59,58;,
  4;58,59,19,17;,
  4;0,2,61,60;,
  4;60,61,63,62;,
  4;62,63,65,64;,
  4;64,65,23,21;,
  4;8,10,66,67;,
  4;67,66,68,69;,
  4;69,68,70,71;,
  4;71,70,20,22;,
  4;7,5,73,72;,
  4;72,73,75,74;,
  4;74,75,77,76;,
  4;76,77,18,19;,
  4;15,13,78,79;,
  4;79,78,80,81;,
  4;81,80,82,83;,
  4;83,82,17,16;,
  4;4,6,84,85;,
  4;85,84,86,87;,
  4;87,86,88,89;,
  4;89,88,22,23;,
  4;12,14,91,90;,
  4;90,91,93,92;,
  4;92,93,95,94;,
  4;94,95,21,20;,
  3;3,49,25;,
  3;49,51,96;,
  3;96,25,49;,
  3;25,96,27;,
  3;51,53,97;,
  3;97,96,51;,
  3;96,97,98;,
  3;98,27,96;,
  3;27,98,29;,
  3;53,18,77;,
  3;77,97,53;,
  3;97,77,75;,
  3;75,98,97;,
  3;98,75,73;,
  3;73,29,98;,
  3;29,73,5;,
  3;24,61,2;,
  3;99,63,61;,
  3;61,24,99;,
  3;26,99,24;,
  3;100,65,63;,
  3;63,99,100;,
  3;101,100,99;,
  3;99,26,101;,
  3;28,101,26;,
  3;89,23,65;,
  3;65,100,89;,
  3;87,89,100;,
  3;100,101,87;,
  3;85,87,101;,
  3;101,28,85;,
  3;4,85,28;,
  3;31,55,9;,
  3;102,57,55;,
  3;55,31,102;,
  3;33,102,31;,
  3;103,59,57;,
  3;57,102,103;,
  3;104,103,102;,
  3;102,33,104;,
  3;35,104,33;,
  3;76,19,59;,
  3;59,103,76;,
  3;74,76,103;,
  3;103,104,74;,
  3;72,74,104;,
  3;104,35,72;,
  3;7,72,35;,
  3;37,48,1;,
  3;105,50,48;,
  3;48,37,105;,
  3;39,105,37;,
  3;106,52,50;,
  3;50,105,106;,
  3;107,106,105;,
  3;105,39,107;,
  3;41,107,39;,
  3;83,16,52;,
  3;52,106,83;,
  3;81,83,106;,
  3;106,107,81;,
  3;79,81,107;,
  3;107,41,79;,
  3;15,79,41;,
  3;8,67,30;,
  3;67,69,108;,
  3;108,30,67;,
  3;30,108,32;,
  3;69,71,109;,
  3;109,108,69;,
  3;108,109,110;,
  3;110,32,108;,
  3;32,110,34;,
  3;71,22,88;,
  3;88,109,71;,
  3;109,88,86;,
  3;86,110,109;,
  3;110,86,84;,
  3;84,34,110;,
  3;34,84,6;,
  3;11,54,43;,
  3;54,56,111;,
  3;111,43,54;,
  3;43,111,45;,
  3;56,58,112;,
  3;112,111,56;,
  3;111,112,113;,
  3;113,45,111;,
  3;45,113,47;,
  3;58,17,82;,
  3;82,112,58;,
  3;112,82,80;,
  3;80,113,112;,
  3;113,80,78;,
  3;78,47,113;,
  3;47,78,13;,
  3;0,60,36;,
  3;60,62,114;,
  3;114,36,60;,
  3;36,114,38;,
  3;62,64,115;,
  3;115,114,62;,
  3;114,115,116;,
  3;116,38,114;,
  3;38,116,40;,
  3;64,21,95;,
  3;95,115,64;,
  3;115,95,93;,
  3;93,116,115;,
  3;116,93,91;,
  3;91,40,116;,
  3;40,91,14;,
  3;42,66,10;,
  3;117,68,66;,
  3;66,42,117;,
  3;44,117,42;,
  3;118,70,68;,
  3;68,117,118;,
  3;119,118,117;,
  3;117,44,119;,
  3;46,119,44;,
  3;94,20,70;,
  3;70,118,94;,
  3;92,94,118;,
  3;118,119,92;,
  3;90,92,119;,
  3;119,46,90;,
  3;12,90,46;,
  4;120,120,120,120;,
  4;122,122,122,122;,
  4;121,121,121,121;,
  4;149,149,149,149;,
  4;126,125,150,151;,
  4;124,126,151,152;,
  4;123,124,152,153;,
  4;125,123,153,150;,
  4;125,126,124,123;,
  4;142,142,127,127;,
  4;128,129,143,144;,
  4;134,132,154,155;,
  4;135,134,155,156;,
  4;133,135,143,129;,
  4;132,133,157,154;,
  4;132,134,135,133;,
  4;130,136,158,159;,
  4;131,130,159,160;,
  4;137,131,128,144;,
  4;136,137,161,158;,
  4;136,130,131,137;,
  4;140,138,127,127;,
  4;141,140,154,157;,
  4;139,139,129,128;,
  4;138,162,160,159;,
  4;138,140,141,162;,
  4;142,142,142,142;,
  4;145,145,145,161;,
  4;120,120,144,143;,
  4;163,163,156,163;,
  4;121,121,121,121;,
  4;122,122,122,122;,
  4;164,164,149,149;,
  4;122,122,122,122;,
  4;146,146,148,148;,
  4;121,121,121,121;,
  4;165,165,146,146;,
  4;147,147,165,165;,
  4;166,166,164,164;,
  3;121,121,121;,
  3;122,122,122;,
  4;149,149,149,149;,
  4;121,121,121,121;,
  4;148,148,148,148;,
  4;122,122,122,122;,
  4;120,120,120,120;,
  4;167,169,168,168;,
  4;277,170,171,278;,
  4;172,279,280,173;,
  4;176,177,281,281;,
  4;175,176,170,277;,
  4;174,175,169,167;,
  4;177,174,167,172;,
  4;177,176,175,174;,
  4;178,178,168,168;,
  4;179,282,278,171;,
  4;283,180,173,280;,
  4;178,178,179,180;,
  4;181,181,170,172;,
  4;183,284,172,173;,
  4;285,182,171,170;,
  4;286,286,180,179;,
  3;183,173,180;,
  3;182,179,171;,
  4;184,184,181,181;,
  4;186,186,284,183;,
  4;185,185,286,286;,
  4;287,287,182,285;,
  4;184,184,288,288;,
  4;187,187,188,188;,
  4;189,189,190,190;,
  4;191,191,192,192;,
  4;289,289,290,290;,
  4;253,253,253,253;,
  4;195,195,191,191;,
  4;194,194,189,189;,
  4;193,193,187,187;,
  4;291,291,289,289;,
  4;197,197,195,195;,
  4;194,194,194,194;,
  4;196,196,193,193;,
  4;291,291,291,291;,
  4;199,199,197,197;,
  4;194,194,194,194;,
  4;198,198,196,196;,
  4;291,291,291,291;,
  4;200,200,199,199;,
  4;194,194,194,194;,
  4;202,202,198,198;,
  4;291,291,291,291;,
  4;201,201,200,200;,
  3;194,194,194;,
  3;291,291,291;,
  4;203,203,201,201;,
  3;194,194,194;,
  3;291,291,291;,
  4;205,205,203,203;,
  4;194,194,194,194;,
  4;204,204,202,202;,
  4;291,291,291,291;,
  4;207,207,205,205;,
  4;194,194,194,194;,
  4;206,206,204,204;,
  4;291,291,291,291;,
  4;209,209,207,207;,
  4;194,194,194,194;,
  4;208,208,206,206;,
  4;291,291,291,291;,
  4;292,292,292,292;,
  4;211,212,212,211;,
  4;212,213,213,212;,
  4;213,214,214,213;,
  4;214,215,215,214;,
  4;215,216,216,215;,
  4;216,217,217,216;,
  4;217,218,218,217;,
  4;218,211,211,218;,
  3;210,293,294;,
  3;210,295,293;,
  3;210,296,295;,
  3;210,297,296;,
  3;210,298,297;,
  3;210,295,298;,
  3;210,299,295;,
  3;210,294,299;,
  3;219,300,301;,
  3;219,301,302;,
  3;219,302,303;,
  3;219,303,304;,
  3;219,304,305;,
  3;219,305,302;,
  3;219,302,306;,
  3;219,306,300;,
  4;221,222,222,221;,
  4;222,223,223,222;,
  4;223,224,224,223;,
  4;224,225,225,224;,
  4;225,226,226,225;,
  4;226,227,227,226;,
  4;227,228,228,227;,
  4;228,221,221,228;,
  3;220,307,308;,
  3;220,309,307;,
  3;220,310,309;,
  3;220,311,310;,
  3;220,312,311;,
  3;220,309,312;,
  3;220,313,309;,
  3;220,308,313;,
  3;229,314,315;,
  3;229,315,316;,
  3;229,316,317;,
  3;229,317,318;,
  3;229,318,319;,
  3;229,319,316;,
  3;229,316,320;,
  3;229,320,314;,
  4;231,232,232,231;,
  4;232,233,233,232;,
  4;233,234,234,233;,
  4;234,235,235,234;,
  4;235,236,236,235;,
  4;236,237,237,236;,
  4;237,238,238,237;,
  4;238,231,231,238;,
  3;230,321,322;,
  3;230,323,321;,
  3;230,324,323;,
  3;230,325,324;,
  3;230,326,325;,
  3;230,323,326;,
  3;230,327,323;,
  3;230,322,327;,
  3;239,328,329;,
  3;239,329,330;,
  3;239,330,331;,
  3;239,331,332;,
  3;239,332,333;,
  3;239,333,330;,
  3;239,330,334;,
  3;239,334,328;,
  4;241,242,242,241;,
  4;242,243,243,242;,
  4;243,244,244,243;,
  4;244,245,245,244;,
  4;245,246,246,245;,
  4;246,247,247,246;,
  4;247,248,248,247;,
  4;248,241,241,248;,
  3;240,335,336;,
  3;240,337,335;,
  3;240,338,337;,
  3;240,339,338;,
  3;240,340,339;,
  3;240,337,340;,
  3;240,341,337;,
  3;240,336,341;,
  3;249,342,343;,
  3;249,343,344;,
  3;249,344,345;,
  3;249,345,346;,
  3;249,346,347;,
  3;249,347,344;,
  3;249,344,348;,
  3;249,348,342;,
  4;188,188,188,188;,
  4;194,255,250,194;,
  4;256,291,291,251;,
  4;253,253,253,253;,
  4;252,252,349,349;,
  4;254,350,256,251;,
  4;253,253,253,253;,
  4;351,352,250,255;,
  4;252,252,254,352;,
  4;188,188,188,188;,
  4;349,349,353,353;,
  3;256,291,291;,
  3;255,194,194;,
  4;258,259,259,258;,
  4;259,260,260,259;,
  4;260,261,261,260;,
  4;261,262,262,261;,
  4;262,263,263,262;,
  4;263,264,264,263;,
  4;264,265,265,264;,
  4;265,258,258,265;,
  3;257,354,355;,
  3;257,356,354;,
  3;257,188,356;,
  3;257,188,188;,
  3;257,188,188;,
  3;257,356,188;,
  3;257,357,356;,
  3;257,355,357;,
  3;266,358,359;,
  3;266,359,360;,
  3;266,360,361;,
  3;266,361,362;,
  3;266,362,363;,
  3;266,363,360;,
  3;266,360,364;,
  3;266,364,358;,
  4;268,269,269,268;,
  4;269,270,270,269;,
  4;270,271,271,270;,
  4;271,272,272,271;,
  4;272,273,273,272;,
  4;273,274,274,273;,
  4;274,275,275,274;,
  4;275,268,268,275;,
  3;267,365,188;,
  3;267,356,365;,
  3;267,188,356;,
  3;267,188,188;,
  3;267,188,188;,
  3;267,356,188;,
  3;267,366,356;,
  3;267,188,366;,
  3;276,367,368;,
  3;276,368,360;,
  3;276,360,369;,
  3;276,369,370;,
  3;276,370,371;,
  3;276,371,372;,
  3;276,372,373;,
  3;276,373,367;;
 }
 MeshTextureCoords {
  516;
  0.000000;0.000000;,
  1.000000;0.000000;,
  1.000000;1.000000;,
  0.000000;1.000000;,
  0.000000;0.000000;,
  1.000000;0.000000;,
  1.000000;1.000000;,
  0.000000;1.000000;,
  0.000000;0.000000;,
  1.000000;0.000000;,
  1.000000;1.000000;,
  0.000000;1.000000;,
  0.000000;0.000000;,
  1.000000;0.000000;,
  1.000000;1.000000;,
  0.000000;1.000000;,
  0.000000;0.000000;,
  1.000000;0.000000;,
  1.000000;1.000000;,
  0.000000;1.000000;,
  0.000000;0.000000;,
  0.000000;0.000000;,
  0.000000;0.000000;,
  0.000000;0.000000;,
  0.000000;0.000000;,
  0.000000;0.000000;,
  0.000000;0.000000;,
  0.000000;0.000000;,
  0.000000;0.000000;,
  0.000000;0.000000;,
  0.000000;0.000000;,
  0.000000;0.000000;,
  0.000000;0.000000;,
  0.000000;0.000000;,
  0.000000;0.000000;,
  0.000000;0.000000;,
  0.000000;0.000000;,
  0.000000;0.000000;,
  0.000000;0.000000;,
  0.000000;0.000000;,
  0.000000;0.000000;,
  0.000000;0.000000;,
  0.000000;0.000000;,
  0.000000;0.000000;,
  0.000000;0.000000;,
  0.000000;0.000000;,
  0.000000;0.000000;,
  0.000000;0.000000;,
  0.000000;0.000000;,
  0.000000;0.000000;,
  0.000000;0.000000;,
  0.000000;0.000000;,
  0.000000;0.000000;,
  0.000000;0.000000;,
  0.000000;0.000000;,
  0.000000;0.000000;,
  0.000000;0.000000;,
  0.000000;0.000000;,
  0.000000;0.000000;,
  0.000000;0.000000;,
  0.000000;0.000000;,
  0.000000;0.000000;,
  0.000000;0.000000;,
  0.000000;0.000000;,
  0.000000;0.000000;,
  0.000000;0.000000;,
  0.000000;0.000000;,
  0.000000;0.000000;,
  0.000000;0.000000;,
  0.000000;0.000000;,
  0.000000;0.000000;,
  0.000000;0.000000;,
  0.000000;0.000000;,
  0.000000;0.000000;,
  0.000000;0.000000;,
  0.000000;0.000000;,
  0.000000;0.000000;,
  0.000000;0.000000;,
  0.000000;0.000000;,
  0.000000;0.000000;,
  0.000000;0.000000;,
  0.000000;0.000000;,
  0.000000;0.000000;,
  0.000000;0.000000;,
  0.000000;0.000000;,
  0.000000;0.000000;,
  0.000000;0.000000;,
  0.000000;0.000000;,
  0.000000;0.000000;,
  0.000000;0.000000;,
  0.000000;0.000000;,
  0.000000;0.000000;,
  0.000000;0.000000;,
  0.000000;0.000000;,
  0.000000;0.000000;,
  0.000000;0.000000;,
  0.000000;0.000000;,
  0.000000;0.000000;,
  0.000000;0.000000;,
  0.000000;0.000000;,
  0.000000;0.000000;,
  0.000000;0.000000;,
  0.000000;0.000000;,
  0.000000;0.000000;,
  0.000000;0.000000;,
  0.000000;0.000000;,
  0.000000;0.000000;,
  0.000000;0.000000;,
  0.000000;0.000000;,
  0.000000;0.000000;,
  0.000000;0.000000;,
  0.000000;0.000000;,
  0.000000;0.000000;,
  0.000000;0.000000;,
  0.000000;0.000000;,
  0.000000;0.000000;,
  0.000000;0.000000;,
  0.000000;0.000000;,
  0.000000;0.000000;,
  0.000000;0.000000;,
  0.000000;0.000000;,
  0.000000;0.000000;,
  0.000000;0.000000;,
  0.000000;0.000000;,
  0.000000;0.000000;,
  0.000000;0.000000;,
  0.000000;0.000000;,
  0.000000;0.000000;,
  0.000000;0.000000;,
  0.000000;0.000000;,
  0.000000;0.000000;,
  0.000000;0.000000;,
  0.000000;0.000000;,
  0.000000;0.000000;,
  0.000000;0.000000;,
  1.000000;0.000000;,
  0.000000;0.000000;,
  1.000000;0.000000;,
  1.000000;1.000000;,
  1.000000;1.000000;,
  0.000000;1.000000;,
  0.000000;1.000000;,
  1.000000;1.000000;,
  0.000000;1.000000;,
  1.000000;1.000000;,
  0.000000;1.000000;,
  0.000000;0.000000;,
  1.000000;0.000000;,
  1.000000;1.000000;,
  0.000000;1.000000;,
  0.000000;0.000000;,
  1.000000;0.000000;,
  1.000000;1.000000;,
  0.000000;1.000000;,
  1.000000;0.000000;,
  0.000000;0.000000;,
  0.000000;0.000000;,
  1.000000;1.000000;,
  0.000000;1.000000;,
  0.000000;1.000000;,
  1.000000;0.000000;,
  0.000000;0.000000;,
  1.000000;0.000000;,
  1.000000;1.000000;,
  1.000000;1.000000;,
  0.000000;1.000000;,
  1.000000;0.000000;,
  0.000000;0.000000;,
  0.000000;0.000000;,
  1.000000;0.000000;,
  1.000000;1.000000;,
  1.000000;1.000000;,
  0.000000;1.000000;,
  0.000000;1.000000;,
  1.000000;0.000000;,
  0.000000;0.000000;,
  0.000000;0.000000;,
  1.000000;0.000000;,
  1.000000;1.000000;,
  1.000000;1.000000;,
  0.000000;1.000000;,
  0.000000;1.000000;,
  1.000000;1.000000;,
  1.000000;0.000000;,
  0.000000;0.000000;,
  0.000000;1.000000;,
  0.000000;0.000000;,
  0.000000;0.000000;,
  1.000000;0.000000;,
  1.000000;0.000000;,
  1.000000;0.000000;,
  0.000000;0.000000;,
  1.000000;1.000000;,
  0.000000;1.000000;,
  1.000000;1.000000;,
  0.000000;1.000000;,
  0.000000;0.000000;,
  1.000000;0.000000;,
  1.000000;1.000000;,
  0.000000;1.000000;,
  0.000000;0.000000;,
  1.000000;0.000000;,
  1.000000;1.000000;,
  0.000000;1.000000;,
  0.000000;0.000000;,
  1.000000;0.000000;,
  1.000000;1.000000;,
  0.000000;1.000000;,
  1.000000;0.000000;,
  0.000000;0.000000;,
  1.000000;1.000000;,
  1.000000;1.000000;,
  0.000000;1.000000;,
  0.000000;1.000000;,
  1.000000;0.000000;,
  0.000000;0.000000;,
  0.000000;0.000000;,
  1.000000;0.000000;,
  1.000000;1.000000;,
  0.000000;1.000000;,
  1.000000;0.000000;,
  0.000000;0.000000;,
  0.000000;0.000000;,
  1.000000;0.000000;,
  1.000000;1.000000;,
  1.000000;1.000000;,
  0.000000;1.000000;,
  0.000000;1.000000;,
  1.000000;1.000000;,
  0.000000;1.000000;,
  1.000000;0.000000;,
  0.000000;0.000000;,
  1.000000;1.000000;,
  0.000000;1.000000;,
  0.000000;0.000000;,
  1.000000;0.000000;,
  1.000000;1.000000;,
  0.000000;1.000000;,
  0.000000;0.000000;,
  1.000000;0.000000;,
  1.000000;1.000000;,
  0.000000;1.000000;,
  0.000000;0.000000;,
  1.000000;0.000000;,
  1.000000;1.000000;,
  0.000000;1.000000;,
  0.000000;0.000000;,
  1.000000;0.000000;,
  1.000000;1.000000;,
  0.000000;1.000000;,
  0.000000;0.000000;,
  1.000000;0.000000;,
  1.000000;0.000000;,
  0.000000;0.000000;,
  1.000000;1.000000;,
  1.000000;1.000000;,
  0.000000;1.000000;,
  0.000000;1.000000;,
  1.000000;0.000000;,
  0.000000;0.000000;,
  1.000000;1.000000;,
  0.000000;1.000000;,
  1.000000;0.000000;,
  0.000000;0.000000;,
  1.000000;1.000000;,
  0.000000;1.000000;,
  1.000000;0.000000;,
  0.000000;0.000000;,
  1.000000;1.000000;,
  0.000000;1.000000;,
  1.000000;0.000000;,
  0.000000;0.000000;,
  1.000000;0.000000;,
  0.000000;0.000000;,
  1.000000;0.000000;,
  0.000000;0.000000;,
  1.000000;1.000000;,
  0.000000;1.000000;,
  1.000000;0.000000;,
  0.000000;0.000000;,
  1.000000;1.000000;,
  0.000000;1.000000;,
  1.000000;0.000000;,
  0.000000;0.000000;,
  1.000000;1.000000;,
  0.000000;1.000000;,
  0.000000;0.000000;,
  0.125000;0.000000;,
  0.125000;1.000000;,
  0.000000;1.000000;,
  0.250000;0.000000;,
  0.250000;1.000000;,
  0.375000;0.000000;,
  0.375000;1.000000;,
  0.500000;0.000000;,
  0.500000;1.000000;,
  0.625000;0.000000;,
  0.625000;1.000000;,
  0.750000;0.000000;,
  0.750000;1.000000;,
  0.875000;0.000000;,
  0.875000;1.000000;,
  1.000000;0.000000;,
  1.000000;1.000000;,
  0.062500;0.000000;,
  0.187500;0.000000;,
  0.312500;0.000000;,
  0.437500;0.000000;,
  0.562500;0.000000;,
  0.687500;0.000000;,
  0.812500;0.000000;,
  0.937500;0.000000;,
  0.062500;1.000000;,
  0.187500;1.000000;,
  0.312500;1.000000;,
  0.437500;1.000000;,
  0.562500;1.000000;,
  0.687500;1.000000;,
  0.812500;1.000000;,
  0.937500;1.000000;,
  0.000000;0.000000;,
  0.125000;0.000000;,
  0.125000;1.000000;,
  0.000000;1.000000;,
  0.250000;0.000000;,
  0.250000;1.000000;,
  0.375000;0.000000;,
  0.375000;1.000000;,
  0.500000;0.000000;,
  0.500000;1.000000;,
  0.625000;0.000000;,
  0.625000;1.000000;,
  0.750000;0.000000;,
  0.750000;1.000000;,
  0.875000;0.000000;,
  0.875000;1.000000;,
  1.000000;0.000000;,
  1.000000;1.000000;,
  0.062500;0.000000;,
  0.187500;0.000000;,
  0.312500;0.000000;,
  0.437500;0.000000;,
  0.562500;0.000000;,
  0.687500;0.000000;,
  0.812500;0.000000;,
  0.937500;0.000000;,
  0.062500;1.000000;,
  0.187500;1.000000;,
  0.312500;1.000000;,
  0.437500;1.000000;,
  0.562500;1.000000;,
  0.687500;1.000000;,
  0.812500;1.000000;,
  0.937500;1.000000;,
  0.000000;0.000000;,
  0.125000;0.000000;,
  0.125000;1.000000;,
  0.000000;1.000000;,
  0.250000;0.000000;,
  0.250000;1.000000;,
  0.375000;0.000000;,
  0.375000;1.000000;,
  0.500000;0.000000;,
  0.500000;1.000000;,
  0.625000;0.000000;,
  0.625000;1.000000;,
  0.750000;0.000000;,
  0.750000;1.000000;,
  0.875000;0.000000;,
  0.875000;1.000000;,
  1.000000;0.000000;,
  1.000000;1.000000;,
  0.062500;0.000000;,
  0.187500;0.000000;,
  0.312500;0.000000;,
  0.437500;0.000000;,
  0.562500;0.000000;,
  0.687500;0.000000;,
  0.812500;0.000000;,
  0.937500;0.000000;,
  0.062500;1.000000;,
  0.187500;1.000000;,
  0.312500;1.000000;,
  0.437500;1.000000;,
  0.562500;1.000000;,
  0.687500;1.000000;,
  0.812500;1.000000;,
  0.937500;1.000000;,
  0.000000;0.000000;,
  0.125000;0.000000;,
  0.125000;1.000000;,
  0.000000;1.000000;,
  0.250000;0.000000;,
  0.250000;1.000000;,
  0.375000;0.000000;,
  0.375000;1.000000;,
  0.500000;0.000000;,
  0.500000;1.000000;,
  0.625000;0.000000;,
  0.625000;1.000000;,
  0.750000;0.000000;,
  0.750000;1.000000;,
  0.875000;0.000000;,
  0.875000;1.000000;,
  1.000000;0.000000;,
  1.000000;1.000000;,
  0.062500;0.000000;,
  0.187500;0.000000;,
  0.312500;0.000000;,
  0.437500;0.000000;,
  0.562500;0.000000;,
  0.687500;0.000000;,
  0.812500;0.000000;,
  0.937500;0.000000;,
  0.062500;1.000000;,
  0.187500;1.000000;,
  0.312500;1.000000;,
  0.437500;1.000000;,
  0.562500;1.000000;,
  0.687500;1.000000;,
  0.812500;1.000000;,
  0.937500;1.000000;,
  0.000000;0.000000;,
  1.000000;0.000000;,
  1.000000;1.000000;,
  0.000000;1.000000;,
  0.000000;0.000000;,
  1.000000;0.000000;,
  1.000000;1.000000;,
  0.000000;1.000000;,
  0.000000;0.000000;,
  1.000000;0.000000;,
  1.000000;1.000000;,
  0.000000;1.000000;,
  0.000000;0.000000;,
  1.000000;0.000000;,
  1.000000;0.000000;,
  0.000000;0.000000;,
  0.000000;0.000000;,
  1.000000;0.000000;,
  1.000000;1.000000;,
  1.000000;1.000000;,
  0.000000;1.000000;,
  0.000000;1.000000;,
  0.000000;1.000000;,
  1.000000;1.000000;,
  1.000000;1.000000;,
  0.000000;1.000000;,
  0.000000;0.000000;,
  0.125000;0.000000;,
  0.125000;1.000000;,
  0.000000;1.000000;,
  0.250000;0.000000;,
  0.250000;1.000000;,
  0.375000;0.000000;,
  0.375000;1.000000;,
  0.500000;0.000000;,
  0.500000;1.000000;,
  0.625000;0.000000;,
  0.625000;1.000000;,
  0.750000;0.000000;,
  0.750000;1.000000;,
  0.875000;0.000000;,
  0.875000;1.000000;,
  1.000000;0.000000;,
  1.000000;1.000000;,
  0.062500;0.000000;,
  0.187500;0.000000;,
  0.312500;0.000000;,
  0.437500;0.000000;,
  0.562500;0.000000;,
  0.687500;0.000000;,
  0.812500;0.000000;,
  0.937500;0.000000;,
  0.062500;1.000000;,
  0.187500;1.000000;,
  0.312500;1.000000;,
  0.437500;1.000000;,
  0.562500;1.000000;,
  0.687500;1.000000;,
  0.812500;1.000000;,
  0.937500;1.000000;,
  0.000000;0.000000;,
  0.125000;0.000000;,
  0.125000;1.000000;,
  0.000000;1.000000;,
  0.250000;0.000000;,
  0.250000;1.000000;,
  0.375000;0.000000;,
  0.375000;1.000000;,
  0.500000;0.000000;,
  0.500000;1.000000;,
  0.625000;0.000000;,
  0.625000;1.000000;,
  0.750000;0.000000;,
  0.750000;1.000000;,
  0.875000;0.000000;,
  0.875000;1.000000;,
  1.000000;0.000000;,
  1.000000;1.000000;,
  0.062500;0.000000;,
  0.187500;0.000000;,
  0.312500;0.000000;,
  0.437500;0.000000;,
  0.562500;0.000000;,
  0.687500;0.000000;,
  0.812500;0.000000;,
  0.937500;0.000000;,
  0.062500;1.000000;,
  0.187500;1.000000;,
  0.312500;1.000000;,
  0.437500;1.000000;,
  0.562500;1.000000;,
  0.687500;1.000000;,
  0.812500;1.000000;,
  0.937500;1.000000;;
 }
}
