xof 0302txt 0064
template Header {
 <3D82AB43-62DA-11cf-AB39-0020AF71E433>
 WORD major;
 WORD minor;
 DWORD flags;
}

template Vector {
 <3D82AB5E-62DA-11cf-AB39-0020AF71E433>
 FLOAT x;
 FLOAT y;
 FLOAT z;
}

template Coords2d {
 <F6F23F44-7686-11cf-8F52-0040333594A3>
 FLOAT u;
 FLOAT v;
}

template Matrix4x4 {
 <F6F23F45-7686-11cf-8F52-0040333594A3>
 array FLOAT matrix[16];
}

template ColorRGBA {
 <35FF44E0-6C7C-11cf-8F52-0040333594A3>
 FLOAT red;
 FLOAT green;
 FLOAT blue;
 FLOAT alpha;
}

template ColorRGB {
 <D3E16E81-7835-11cf-8F52-0040333594A3>
 FLOAT red;
 FLOAT green;
 FLOAT blue;
}

template IndexedColor {
 <1630B820-7842-11cf-8F52-0040333594A3>
 DWORD index;
 ColorRGBA indexColor;
}

template Boolean {
 <4885AE61-78E8-11cf-8F52-0040333594A3>
 WORD truefalse;
}

template Boolean2d {
 <4885AE63-78E8-11cf-8F52-0040333594A3>
 Boolean u;
 Boolean v;
}

template MaterialWrap {
 <4885AE60-78E8-11cf-8F52-0040333594A3>
 Boolean u;
 Boolean v;
}

template TextureFilename {
 <A42790E1-7810-11cf-8F52-0040333594A3>
 STRING filename;
}

template Material {
 <3D82AB4D-62DA-11cf-AB39-0020AF71E433>
 ColorRGBA faceColor;
 FLOAT power;
 ColorRGB specularColor;
 ColorRGB emissiveColor;
 [...]
}

template MeshFace {
 <3D82AB5F-62DA-11cf-AB39-0020AF71E433>
 DWORD nFaceVertexIndices;
 array DWORD faceVertexIndices[nFaceVertexIndices];
}

template MeshFaceWraps {
 <4885AE62-78E8-11cf-8F52-0040333594A3>
 DWORD nFaceWrapValues;
 Boolean2d faceWrapValues;
}

template MeshTextureCoords {
 <F6F23F40-7686-11cf-8F52-0040333594A3>
 DWORD nTextureCoords;
 array Coords2d textureCoords[nTextureCoords];
}

template MeshMaterialList {
 <F6F23F42-7686-11cf-8F52-0040333594A3>
 DWORD nMaterials;
 DWORD nFaceIndexes;
 array DWORD faceIndexes[nFaceIndexes];
 [Material]
}

template MeshNormals {
 <F6F23F43-7686-11cf-8F52-0040333594A3>
 DWORD nNormals;
 array Vector normals[nNormals];
 DWORD nFaceNormals;
 array MeshFace faceNormals[nFaceNormals];
}

template MeshVertexColors {
 <1630B821-7842-11cf-8F52-0040333594A3>
 DWORD nVertexColors;
 array IndexedColor vertexColors[nVertexColors];
}

template Mesh {
 <3D82AB44-62DA-11cf-AB39-0020AF71E433>
 DWORD nVertices;
 array Vector vertices[nVertices];
 DWORD nFaces;
 array MeshFace faces[nFaces];
 [...]
}

Header{
1;
0;
1;
}

Mesh {
 209;
 -11.63675;716.38847;-11.69750;,
 48.99450;699.30603;-31.39775;,
 -11.63675;699.30603;-75.44900;,
 -11.63675;716.38847;-11.69750;,
 25.83550;699.30603;39.87875;,
 -11.63675;716.38847;-11.69750;,
 -89.84125;699.30603;39.87875;,
 -11.63675;716.38847;-11.69750;,
 -113.00025;699.30603;-31.39775;,
 -11.63675;716.38847;-11.69750;,
 -11.63675;699.30603;-75.44900;,
 116.53225;652.63672;-45.81950;,
 -11.63675;652.63672;-122.11850;,
 53.26700;652.63672;77.63525;,
 -117.27275;652.63672;77.63525;,
 -157.38550;652.63672;-45.81950;,
 -11.63675;652.63672;-122.11850;,
 132.77825;609.25499;-51.09800;,
 -11.63675;609.25499;-139.20075;,
 63.30775;609.25499;91.45500;,
 -127.31350;609.25499;91.45500;,
 -173.63174;609.25499;-51.09800;,
 -11.63675;609.25499;-139.20075;,
 128.16900;545.50350;-45.81950;,
 0.00000;545.50350;-122.11850;,
 64.90400;545.50350;77.63525;,
 -105.63600;545.50350;77.63525;,
 -145.74875;545.50350;-45.81950;,
 0.00000;545.50350;-122.11850;,
 -37.47225;498.83400;39.87875;,
 37.47225;498.83400;39.87875;,
 -60.63150;498.83400;-31.39775;,
 -37.92625;460.79075;-75.44900;,
 -59.95050;443.70876;-11.69750;,
 -59.95050;443.70876;-11.69750;,
 -59.95050;443.70876;-11.69750;,
 105.45750;488.14026;-50.73200;,
 -19.22800;488.48949;-109.29850;,
 -29.51575;437.87426;-63.98200;,
 -37.92625;460.79075;-75.44900;,
 33.73525;437.69974;-30.08650;,
 52.92175;487.79099;54.98975;,
 13.19550;437.52499;21.27475;,
 -31.08100;416.84650;-13.92150;,
 -59.95050;443.70876;-11.69750;,
 -31.08100;416.84650;-13.92150;,
 -59.95050;443.70876;-11.69750;,
 -1.20550;61.25775;-375.46574;,
 266.09825;59.82400;-263.45699;,
 266.09825;1.26925;-263.45699;,
 -1.65975;1.26925;-376.55174;,
 376.31973;59.82400;0.00000;,
 376.31973;1.26925;0.00000;,
 267.30350;61.25775;266.33825;,
 267.75801;1.26925;267.42426;,
 1.20550;61.25775;375.46574;,
 -266.09825;59.82400;263.45699;,
 -266.09825;1.26925;263.45699;,
 1.65975;1.26925;376.55174;,
 -376.31973;59.82400;0.00000;,
 -376.31973;1.26925;0.00000;,
 -267.30375;61.25775;-266.33825;,
 -267.75801;1.26925;-267.42426;,
 0.00000;1.26925;0.00000;,
 0.00000;1.26925;0.00000;,
 0.00000;1.26925;0.00000;,
 0.00000;1.26925;0.00000;,
 0.00000;1.26925;0.00000;,
 0.00000;1.26925;0.00000;,
 0.00000;1.26925;0.00000;,
 0.00000;1.26925;0.00000;,
 -1.65975;1.26925;-376.55174;,
 -0.83400;106.16400;-274.08550;,
 197.27800;103.29675;-192.41899;,
 278.99300;103.29675;0.00000;,
 198.11174;106.16400;194.38299;,
 0.83400;106.16400;274.08550;,
 -197.27800;103.29675;192.41875;,
 -278.99300;103.29675;0.00000;,
 -198.11174;106.16400;-194.38299;,
 0.00000;162.65224;-272.12151;,
 197.27800;162.65224;-192.41899;,
 0.00000;162.65224;0.00000;,
 278.99300;162.65224;0.00000;,
 0.00000;162.65224;0.00000;,
 197.27800;162.65224;192.41899;,
 0.00000;162.65224;0.00000;,
 0.00000;162.65224;272.12151;,
 0.00000;162.65224;0.00000;,
 -197.27800;162.65224;192.41875;,
 0.00000;162.65224;0.00000;,
 -278.99300;162.65224;0.00000;,
 0.00000;162.65224;0.00000;,
 -197.27800;162.65224;-192.41875;,
 0.00000;162.65224;0.00000;,
 0.00000;162.65224;-272.12151;,
 -0.83400;106.16400;-274.08550;,
 0.00000;162.65224;0.00000;,
 -19.91500;1.78800;-420.18623;,
 -14.53750;77.21475;-407.33276;,
 -1.20550;61.25775;-375.46574;,
 -286.01324;1.78800;-311.05875;,
 -280.63551;77.21475;-298.20499;,
 -10.17125;137.55925;-296.07250;,
 -207.44900;137.55925;-216.36974;,
 19.91500;1.78800;420.18623;,
 14.53750;77.21475;407.33276;,
 286.01324;1.78800;311.05900;,
 280.63551;77.21475;298.20524;,
 10.17125;137.55925;296.07250;,
 207.44900;137.55925;216.36974;,
 -1.20550;1159.72649;-375.46574;,
 -1.65975;1219.71527;-376.55174;,
 266.09825;1219.71527;-263.45699;,
 266.09825;1161.16028;-263.45699;,
 376.31973;1219.71527;0.00000;,
 376.31973;1161.16028;0.00000;,
 267.75801;1219.71527;267.42426;,
 267.30350;1159.72649;266.33825;,
 1.20550;1159.72649;375.46574;,
 1.65975;1219.71527;376.55174;,
 -266.09825;1219.71527;263.45699;,
 -266.09825;1161.16028;263.45699;,
 -376.31973;1219.71527;0.00000;,
 -376.31973;1161.16028;0.00000;,
 -267.75801;1219.71527;-267.42426;,
 -267.30375;1159.72649;-266.33825;,
 0.00000;1219.71527;0.00000;,
 0.00000;1219.71527;0.00000;,
 0.00000;1219.71527;0.00000;,
 0.00000;1219.71527;0.00000;,
 0.00000;1219.71527;0.00000;,
 0.00000;1219.71527;0.00000;,
 0.00000;1219.71527;0.00000;,
 0.00000;1219.71527;0.00000;,
 -1.65975;1219.71527;-376.55174;,
 -0.83400;1114.82025;-274.08550;,
 197.27800;1117.68753;-192.41899;,
 278.99300;1117.68753;0.00000;,
 198.11174;1114.82025;194.38299;,
 0.83400;1114.82025;274.08550;,
 -197.27800;1117.68753;192.41875;,
 -278.99300;1117.68753;0.00000;,
 -198.11174;1114.82025;-194.38299;,
 0.00000;1058.33221;-272.12151;,
 197.27800;1058.33221;-192.41899;,
 0.00000;1058.33221;0.00000;,
 278.99300;1058.33221;0.00000;,
 0.00000;1058.33221;0.00000;,
 197.27800;1058.33221;192.41899;,
 0.00000;1058.33221;0.00000;,
 0.00000;1058.33221;272.12151;,
 0.00000;1058.33221;0.00000;,
 -197.27800;1058.33221;192.41875;,
 0.00000;1058.33221;0.00000;,
 -278.99300;1058.33221;0.00000;,
 0.00000;1058.33221;0.00000;,
 -197.27800;1058.33221;-192.41875;,
 0.00000;1058.33221;0.00000;,
 -0.83400;1114.82025;-274.08550;,
 0.00000;1058.33221;-272.12151;,
 0.00000;1058.33221;0.00000;,
 -19.91500;1219.19624;-420.18623;,
 -1.20550;1159.72649;-375.46574;,
 -14.53750;1143.76953;-407.33276;,
 -286.01324;1219.19624;-311.05875;,
 -280.63551;1143.76953;-298.20499;,
 -10.17125;1083.42522;-296.07250;,
 -207.44900;1083.42522;-216.36974;,
 19.91500;1219.19624;420.18623;,
 14.53750;1143.76953;407.33276;,
 286.01324;1219.19624;311.05900;,
 280.63551;1143.76953;298.20524;,
 10.17125;1083.42522;296.07250;,
 207.44900;1083.42522;216.36974;,
 0.00000;1059.37950;-257.59399;,
 182.14649;1059.37950;-182.14649;,
 182.14649;163.19300;-182.14649;,
 0.00000;163.19300;-257.59399;,
 257.59399;1059.37950;0.00000;,
 257.59399;163.19300;0.00000;,
 182.14649;1059.37950;182.14649;,
 182.14649;163.19300;182.14649;,
 0.00000;1059.37950;257.59399;,
 0.00000;163.19300;257.59399;,
 -182.14649;1059.37950;182.14649;,
 -182.14649;163.19300;182.14649;,
 -257.59399;1059.37950;0.00000;,
 -257.59399;163.19300;0.00000;,
 -182.14649;1059.37950;-182.14649;,
 -182.14649;163.19300;-182.14649;,
 0.00000;1059.37950;-257.59399;,
 0.00000;163.19300;-257.59399;,
 0.00000;1059.37950;0.00000;,
 0.00000;1059.37950;0.00000;,
 0.00000;1059.37950;0.00000;,
 0.00000;1059.37950;0.00000;,
 0.00000;1059.37950;0.00000;,
 0.00000;1059.37950;0.00000;,
 0.00000;1059.37950;0.00000;,
 0.00000;1059.37950;0.00000;,
 0.00000;163.19300;0.00000;,
 0.00000;163.19300;0.00000;,
 0.00000;163.19300;0.00000;,
 0.00000;163.19300;0.00000;,
 0.00000;163.19300;0.00000;,
 0.00000;163.19300;0.00000;,
 0.00000;163.19300;0.00000;,
 0.00000;163.19300;0.00000;;
 
 164;
 3;0,1,2;,
 3;3,4,1;,
 3;5,6,4;,
 3;7,8,6;,
 3;9,10,8;,
 4;2,1,11,12;,
 4;1,4,13,11;,
 4;4,6,14,13;,
 4;6,8,15,14;,
 4;8,10,16,15;,
 4;12,11,17,18;,
 4;11,13,19,17;,
 4;13,14,20,19;,
 4;14,15,21,20;,
 4;15,16,22,21;,
 4;18,17,23,24;,
 4;17,19,25,23;,
 4;19,20,26,25;,
 4;20,21,27,26;,
 4;21,22,28,27;,
 4;25,26,29,30;,
 4;26,27,31,29;,
 4;27,28,32,31;,
 3;30,29,33;,
 3;29,31,34;,
 3;31,32,35;,
 4;36,37,24,23;,
 4;37,38,39,24;,
 4;37,36,40,38;,
 4;41,36,23,25;,
 4;42,41,25,30;,
 4;36,41,42,40;,
 4;38,43,44,39;,
 3;38,40,43;,
 4;45,42,30,46;,
 3;40,42,45;,
 4;47,48,49,50;,
 4;48,51,52,49;,
 4;51,53,54,52;,
 4;55,56,57,58;,
 4;56,59,60,57;,
 4;59,61,62,60;,
 3;63,50,49;,
 3;64,49,52;,
 3;65,52,54;,
 3;66,54,58;,
 3;67,58,57;,
 3;68,57,60;,
 3;69,60,62;,
 3;70,62,71;,
 4;72,73,48,47;,
 4;73,74,51,48;,
 4;74,75,53,51;,
 4;76,77,56,55;,
 4;77,78,59,56;,
 4;78,79,61,59;,
 4;80,81,73,72;,
 3;82,81,80;,
 4;81,83,74,73;,
 3;84,83,81;,
 4;83,85,75,74;,
 3;86,85,83;,
 4;85,87,76,75;,
 3;88,87,85;,
 4;87,89,77,76;,
 3;90,89,87;,
 4;89,91,78,77;,
 3;92,91,89;,
 4;91,93,79,78;,
 3;94,93,91;,
 4;93,95,96,79;,
 3;97,95,93;,
 4;98,99,100,71;,
 4;101,98,71,62;,
 4;102,101,62,61;,
 4;102,99,98,101;,
 4;103,104,79,96;,
 4;99,103,96,100;,
 4;104,102,61,79;,
 4;104,103,99,102;,
 4;105,106,55,58;,
 4;107,105,58,54;,
 4;108,107,54,53;,
 4;108,106,105,107;,
 4;109,110,75,76;,
 4;106,109,76,55;,
 4;110,108,53,75;,
 4;110,109,106,108;,
 4;111,112,113,114;,
 4;114,113,115,116;,
 4;116,115,117,118;,
 4;119,120,121,122;,
 4;122,121,123,124;,
 4;124,123,125,126;,
 3;127,113,112;,
 3;128,115,113;,
 3;129,117,115;,
 3;130,120,117;,
 3;131,121,120;,
 3;132,123,121;,
 3;133,125,123;,
 3;134,135,125;,
 4;136,111,114,137;,
 4;137,114,116,138;,
 4;138,116,118,139;,
 4;140,119,122,141;,
 4;141,122,124,142;,
 4;142,124,126,143;,
 4;144,136,137,145;,
 3;146,144,145;,
 4;145,137,138,147;,
 3;148,145,147;,
 4;147,138,139,149;,
 3;150,147,149;,
 4;149,139,140,151;,
 3;152,149,151;,
 4;151,140,141,153;,
 3;154,151,153;,
 4;153,141,142,155;,
 3;156,153,155;,
 4;155,142,143,157;,
 3;158,155,157;,
 4;157,143,159,160;,
 3;161,157,160;,
 4;162,135,163,164;,
 4;165,125,135,162;,
 4;166,126,125,165;,
 4;166,165,162,164;,
 4;167,159,143,168;,
 4;164,163,159,167;,
 4;168,143,126,166;,
 4;168,166,164,167;,
 4;169,120,119,170;,
 4;171,117,120,169;,
 4;172,118,117,171;,
 4;172,171,169,170;,
 4;173,140,139,174;,
 4;170,119,140,173;,
 4;174,139,118,172;,
 4;174,172,170,173;,
 4;175,176,177,178;,
 4;176,179,180,177;,
 4;179,181,182,180;,
 4;181,183,184,182;,
 4;183,185,186,184;,
 4;185,187,188,186;,
 4;187,189,190,188;,
 4;189,191,192,190;,
 3;193,176,175;,
 3;194,179,176;,
 3;195,181,179;,
 3;196,183,181;,
 3;197,185,183;,
 3;198,187,185;,
 3;199,189,187;,
 3;200,191,189;,
 3;201,178,177;,
 3;202,177,180;,
 3;203,180,182;,
 3;204,182,184;,
 3;205,184,186;,
 3;206,186,188;,
 3;207,188,190;,
 3;208,190,192;;
 
 MeshMaterialList {
  4;
  164;
  2,
  2,
  2,
  2,
  2,
  2,
  2,
  2,
  2,
  2,
  2,
  2,
  2,
  2,
  2,
  2,
  2,
  2,
  2,
  2,
  2,
  2,
  2,
  2,
  2,
  2,
  2,
  2,
  2,
  2,
  2,
  2,
  2,
  2,
  2,
  2,
  0,
  0,
  0,
  0,
  0,
  0,
  0,
  0,
  0,
  0,
  0,
  0,
  0,
  0,
  0,
  0,
  0,
  0,
  0,
  0,
  0,
  0,
  0,
  0,
  0,
  0,
  0,
  0,
  0,
  0,
  0,
  0,
  0,
  0,
  0,
  0,
  1,
  0,
  1,
  1,
  0,
  1,
  1,
  1,
  1,
  0,
  1,
  1,
  0,
  1,
  1,
  1,
  0,
  0,
  0,
  0,
  0,
  0,
  0,
  0,
  0,
  0,
  0,
  0,
  0,
  0,
  0,
  0,
  0,
  0,
  0,
  0,
  0,
  0,
  0,
  0,
  0,
  0,
  0,
  0,
  0,
  0,
  0,
  0,
  0,
  0,
  0,
  0,
  1,
  0,
  1,
  1,
  0,
  1,
  1,
  1,
  1,
  0,
  1,
  1,
  0,
  1,
  1,
  1,
  3,
  3,
  3,
  3,
  3,
  3,
  3,
  3,
  3,
  3,
  3,
  3,
  3,
  3,
  3,
  3,
  3,
  3,
  3,
  3,
  3,
  3,
  3,
  3;;
  Material {
   0.047200;0.047200;0.047200;1.000000;;
   12.000000;
   0.620000;0.620000;0.620000;;
   0.000000;0.000000;0.000000;;
  }
  Material {
   0.605600;0.605600;0.605600;1.000000;;
   5.000000;
   0.400000;0.400000;0.400000;;
   0.000000;0.000000;0.000000;;
  }
  Material {
   0.800000;0.429600;0.455200;1.000000;;
   5.000000;
   0.000000;0.000000;0.000000;;
   0.000000;0.000000;0.000000;;
  }
  Material {
   0.251200;0.615200;0.568000;0.750000;;
   5.000000;
   0.000000;0.000000;0.000000;;
   0.147580;0.361430;0.333700;;
  }
 }
 MeshNormals {
  160;
  0.040735;0.999131;-0.008878;,
  0.039593;0.868030;-0.494931;,
  0.426896;0.893692;-0.138110;,
  0.263063;0.878753;0.398235;,
  -0.254632;0.886572;0.386203;,
  -0.385146;0.903882;-0.186170;,
  0.032915;0.539147;-0.841568;,
  0.754568;0.614645;-0.229866;,
  0.439728;0.558851;0.703082;,
  -0.489182;0.554408;0.673300;,
  -0.837213;0.474423;0.272026;,
  0.031162;0.058587;-0.997796;,
  0.513899;0.093890;-0.852697;,
  0.887102;0.128399;0.443354;,
  0.000000;0.047445;0.998874;,
  -0.950573;-0.031886;0.308859;,
  -0.234009;-0.289933;-0.927997;,
  0.485665;-0.174940;-0.856461;,
  0.874960;-0.204068;0.439091;,
  -0.190140;-0.650452;0.735363;,
  -0.787400;-0.612017;-0.073734;,
  -0.803670;-0.326842;-0.497281;,
  -0.306814;-0.450148;0.838589;,
  -0.178268;-0.779480;0.600526;,
  -0.793068;-0.519804;-0.317564;,
  -0.215466;-0.515383;0.829430;,
  0.405970;-0.470444;-0.783499;,
  0.753470;-0.550367;0.359694;,
  -0.786316;-0.388193;-0.480639;,
  0.412443;-0.894799;-0.170956;,
  -0.575117;-0.171813;0.799826;,
  -0.077311;-0.967861;-0.239307;,
  -0.399617;0.474572;-0.784275;,
  -0.470836;0.006976;-0.882193;,
  -0.262765;-0.322691;0.909299;,
  -0.885943;-0.363650;0.287860;,
  -0.450758;-0.288902;-0.844602;,
  -0.946459;0.098209;0.307524;,
  -0.960793;-0.233205;-0.149973;,
  -0.800647;-0.163802;-0.576310;,
  0.267933;-0.808089;-0.524599;,
  -0.710287;-0.031458;0.703209;,
  0.493736;-0.843978;0.209584;,
  -0.412740;-0.304041;0.858606;,
  0.833953;0.104837;-0.541785;,
  0.707808;0.003708;-0.706396;,
  0.999982;0.003740;-0.004589;,
  0.973309;0.097287;-0.207859;,
  -0.833953;0.104837;0.541785;,
  -0.707808;0.003708;0.706396;,
  -0.999982;0.003739;0.004590;,
  -0.973309;0.097287;0.207858;,
  0.707808;0.003709;-0.706395;,
  0.999982;0.003742;-0.004589;,
  -0.707808;0.003709;0.706395;,
  -0.999982;0.003740;0.004589;,
  0.000000;-1.000000;-0.000000;,
  0.172441;0.903112;-0.393260;,
  0.289913;0.913764;-0.284582;,
  0.409146;0.912456;-0.004849;,
  0.407308;0.899341;0.159016;,
  -0.172441;0.903112;0.393260;,
  -0.289535;0.913936;0.284411;,
  -0.408765;0.912628;0.004685;,
  -0.407307;0.899341;-0.159016;,
  0.000000;1.000000;0.000000;,
  0.001974;0.027519;-0.999619;,
  0.702157;0.007166;-0.711986;,
  0.999971;0.007319;-0.001933;,
  0.702031;0.027743;0.711606;,
  -0.001975;0.027518;0.999619;,
  -0.702157;0.007166;0.711986;,
  -0.999971;0.007319;0.001934;,
  -0.702031;0.027745;-0.711605;,
  0.950484;0.140773;-0.277062;,
  -0.869022;0.130298;0.477309;,
  0.922520;0.000000;-0.385951;,
  -0.004161;-0.999940;-0.010147;,
  0.298132;0.605457;0.737929;,
  0.869022;0.130298;-0.477309;,
  -0.950484;0.140773;0.277062;,
  0.004161;-0.999940;0.010147;,
  -0.922520;0.000000;0.385951;,
  -0.298132;0.605457;-0.737929;,
  0.833953;-0.104838;-0.541785;,
  0.707808;-0.003708;-0.706396;,
  0.999982;-0.003740;-0.004589;,
  0.973309;-0.097288;-0.207858;,
  -0.833953;-0.104838;0.541785;,
  -0.707808;-0.003708;0.706396;,
  -0.999982;-0.003739;0.004590;,
  -0.973309;-0.097287;0.207858;,
  0.707808;-0.003709;-0.706395;,
  0.999982;-0.003742;-0.004589;,
  -0.707808;-0.003709;0.706395;,
  -0.999982;-0.003740;0.004589;,
  0.172441;-0.903112;-0.393260;,
  0.289913;-0.913764;-0.284582;,
  0.409146;-0.912456;-0.004849;,
  0.407308;-0.899341;0.159016;,
  -0.172441;-0.903112;0.393260;,
  -0.289535;-0.913936;0.284411;,
  -0.408765;-0.912628;0.004685;,
  -0.407307;-0.899341;-0.159015;,
  0.001974;-0.027520;-0.999619;,
  0.702157;-0.007166;-0.711986;,
  0.999971;-0.007319;-0.001933;,
  0.702031;-0.027743;0.711606;,
  -0.001975;-0.027518;0.999619;,
  -0.702157;-0.007166;0.711986;,
  -0.999971;-0.007319;0.001934;,
  -0.702031;-0.027745;-0.711605;,
  0.950484;-0.140774;-0.277061;,
  -0.869022;-0.130298;0.477309;,
  0.922520;-0.000001;-0.385950;,
  -0.004163;0.999940;-0.010152;,
  0.298131;-0.605460;0.737927;,
  0.869022;-0.130298;-0.477309;,
  -0.950484;-0.140774;0.277061;,
  0.004163;0.999940;0.010152;,
  -0.922520;-0.000001;0.385950;,
  -0.298131;-0.605460;-0.737927;,
  -0.001387;-0.999993;-0.003382;,
  0.001387;-0.999993;0.003382;,
  -0.922520;0.000001;0.385949;,
  -0.309438;0.576252;-0.756427;,
  -0.373122;0.181647;-0.909826;,
  0.947600;0.276977;-0.159180;,
  -0.791029;0.256922;0.555215;,
  -0.189033;0.865230;-0.464375;,
  0.922520;0.000002;-0.385950;,
  0.309437;0.576252;0.756427;,
  0.373122;0.181647;0.909827;,
  -0.947600;0.276977;0.159180;,
  0.791030;0.256920;-0.555215;,
  0.189033;0.865230;0.464375;,
  -0.001388;0.999993;-0.003384;,
  0.001388;0.999993;0.003384;,
  -0.922520;-0.000001;0.385949;,
  -0.309519;-0.575919;-0.756647;,
  -0.373122;-0.181647;-0.909826;,
  0.947599;-0.276978;-0.159180;,
  -0.791029;-0.256923;0.555215;,
  -0.189287;-0.864821;-0.465032;,
  0.922520;-0.000002;-0.385950;,
  0.309519;-0.575919;0.756647;,
  0.373122;-0.181647;0.909827;,
  -0.947599;-0.276978;0.159180;,
  0.791030;-0.256921;-0.555215;,
  0.189287;-0.864821;0.465032;,
  0.000000;1.000000;0.000000;,
  0.000000;0.000000;-1.000000;,
  0.707107;0.000000;-0.707107;,
  1.000000;0.000000;0.000000;,
  0.707107;0.000000;0.707107;,
  0.000000;0.000000;1.000000;,
  -0.707107;0.000000;0.707107;,
  -1.000000;0.000000;0.000000;,
  -0.707107;0.000000;-0.707107;,
  0.000000;-1.000000;-0.000000;;
  164;
  3;0,2,1;,
  3;0,3,2;,
  3;0,4,3;,
  3;0,5,4;,
  3;0,1,5;,
  4;1,2,7,6;,
  4;2,3,8,7;,
  4;3,4,9,8;,
  4;4,5,10,9;,
  4;5,1,6,32;,
  4;6,7,12,11;,
  4;7,8,13,13;,
  4;8,9,14,14;,
  4;9,10,15,15;,
  4;32,6,11,33;,
  4;11,12,17,16;,
  4;13,13,18,18;,
  4;14,14,19,34;,
  4;15,15,20,35;,
  4;33,11,16,36;,
  4;34,19,23,22;,
  4;19,20,24,23;,
  4;20,16,21,24;,
  3;22,23,25;,
  3;37,37,38;,
  3;24,21,38;,
  4;26,26,16,17;,
  4;39,28,21,16;,
  4;26,26,29,40;,
  4;27,27,18,18;,
  4;30,41,34,22;,
  4;27,27,42,29;,
  4;28,31,38,21;,
  3;40,29,31;,
  4;43,30,22,25;,
  3;29,42,31;,
  4;44,45,45,52;,
  4;45,46,46,45;,
  4;46,47,53,46;,
  4;48,49,49,54;,
  4;49,50,50,49;,
  4;50,51,55,50;,
  3;56,122,56;,
  3;56,56,56;,
  3;56,56,123;,
  3;56,123,123;,
  3;56,123,56;,
  3;56,56,56;,
  3;56,56,122;,
  3;56,122,122;,
  4;57,58,58,57;,
  4;58,59,59,58;,
  4;59,60,60,59;,
  4;61,62,62,61;,
  4;62,63,63,62;,
  4;63,64,64,63;,
  4;66,67,67,66;,
  3;65,65,65;,
  4;67,68,68,67;,
  3;65,65,65;,
  4;68,69,69,68;,
  3;65,65,65;,
  4;69,70,70,69;,
  3;65,65,65;,
  4;70,71,71,70;,
  3;65,65,65;,
  4;71,72,72,71;,
  3;65,65,65;,
  4;72,73,73,72;,
  3;65,65,65;,
  4;73,66,66,73;,
  3;65,65,65;,
  4;76,74,44,52;,
  4;77,77,122,122;,
  4;75,124,55,51;,
  4;125,125,126,126;,
  4;78,78,78,78;,
  4;74,127,127,44;,
  4;128,75,51,128;,
  4;129,129,125,125;,
  4;82,80,48,54;,
  4;81,81,123,123;,
  4;79,130,53,47;,
  4;131,131,132,132;,
  4;83,83,83,83;,
  4;80,133,133,48;,
  4;134,79,47,134;,
  4;135,135,131,131;,
  4;84,92,85,85;,
  4;85,85,86,86;,
  4;86,86,93,87;,
  4;88,94,89,89;,
  4;89,89,90,90;,
  4;90,90,95,91;,
  3;65,65,136;,
  3;65,65,65;,
  3;65,137,65;,
  3;65,137,137;,
  3;65,65,137;,
  3;65,65,65;,
  3;65,136,65;,
  3;65,136,136;,
  4;96,96,97,97;,
  4;97,97,98,98;,
  4;98,98,99,99;,
  4;100,100,101,101;,
  4;101,101,102,102;,
  4;102,102,103,103;,
  4;104,104,105,105;,
  3;56,56,56;,
  4;105,105,106,106;,
  3;56,56,56;,
  4;106,106,107,107;,
  3;56,56,56;,
  4;107,107,108,108;,
  3;56,56,56;,
  4;108,108,109,109;,
  3;56,56,56;,
  4;109,109,110,110;,
  3;56,56,56;,
  4;110,110,111,111;,
  3;56,56,56;,
  4;111,111,104,104;,
  3;56,56,56;,
  4;114,92,84,112;,
  4;115,136,136,115;,
  4;113,91,95,138;,
  4;139,140,140,139;,
  4;116,116,116,116;,
  4;112,84,141,141;,
  4;142,142,91,113;,
  4;143,139,139,143;,
  4;120,94,88,118;,
  4;119,137,137,119;,
  4;117,87,93,144;,
  4;145,146,146,145;,
  4;121,121,121,121;,
  4;118,88,147,147;,
  4;148,148,87,117;,
  4;149,145,145,149;,
  4;151,152,152,151;,
  4;152,153,153,152;,
  4;153,154,154,153;,
  4;154,155,155,154;,
  4;155,156,156,155;,
  4;156,157,157,156;,
  4;157,158,158,157;,
  4;158,151,151,158;,
  3;150,150,150;,
  3;150,150,150;,
  3;150,150,150;,
  3;150,150,150;,
  3;150,150,150;,
  3;150,150,150;,
  3;150,150,150;,
  3;150,150,150;,
  3;159,159,159;,
  3;159,159,159;,
  3;159,159,159;,
  3;159,159,159;,
  3;159,159,159;,
  3;159,159,159;,
  3;159,159,159;,
  3;159,159,159;;
 }
 MeshTextureCoords {
  209;
  0.100000;0.000000;,
  0.200000;0.166670;,
  0.000000;0.166670;,
  0.300000;0.000000;,
  0.400000;0.166670;,
  0.500000;0.000000;,
  0.600000;0.166670;,
  0.700000;0.000000;,
  0.800000;0.166670;,
  0.900000;0.000000;,
  1.000000;0.166670;,
  0.200000;0.333330;,
  0.000000;0.333330;,
  0.400000;0.333330;,
  0.600000;0.333330;,
  0.800000;0.333330;,
  1.000000;0.333330;,
  0.200000;0.500000;,
  0.000000;0.500000;,
  0.400000;0.500000;,
  0.600000;0.500000;,
  0.800000;0.500000;,
  1.000000;0.500000;,
  0.200000;0.666670;,
  0.000000;0.666670;,
  0.400000;0.666670;,
  0.600000;0.666670;,
  0.800000;0.666670;,
  1.000000;0.666670;,
  0.600000;0.833330;,
  0.400000;0.833330;,
  0.800000;0.833330;,
  1.000000;0.833330;,
  0.500000;1.000000;,
  0.700000;1.000000;,
  0.900000;1.000000;,
  0.200000;0.666670;,
  0.000000;0.666670;,
  0.000000;0.833330;,
  0.000000;0.833330;,
  0.200000;0.833330;,
  0.400000;0.666670;,
  0.400000;0.833330;,
  0.100000;1.000000;,
  0.100000;1.000000;,
  0.300000;1.000000;,
  0.300000;1.000000;,
  0.000000;0.000000;,
  0.125000;0.000000;,
  0.125000;1.000000;,
  0.000000;1.000000;,
  0.250000;0.000000;,
  0.250000;1.000000;,
  0.375000;0.000000;,
  0.375000;1.000000;,
  0.500000;0.000000;,
  0.625000;0.000000;,
  0.625000;1.000000;,
  0.500000;1.000000;,
  0.750000;0.000000;,
  0.750000;1.000000;,
  0.875000;0.000000;,
  0.875000;1.000000;,
  0.062500;1.000000;,
  0.187500;1.000000;,
  0.312500;1.000000;,
  0.437500;1.000000;,
  0.562500;1.000000;,
  0.687500;1.000000;,
  0.812500;1.000000;,
  0.937500;1.000000;,
  1.000000;1.000000;,
  0.000000;0.000000;,
  0.125000;0.000000;,
  0.250000;0.000000;,
  0.375000;0.000000;,
  0.500000;0.000000;,
  0.625000;0.000000;,
  0.750000;0.000000;,
  0.875000;0.000000;,
  0.000000;0.000000;,
  0.125000;0.000000;,
  0.062500;0.000000;,
  0.250000;0.000000;,
  0.187500;0.000000;,
  0.375000;0.000000;,
  0.312500;0.000000;,
  0.500000;0.000000;,
  0.437500;0.000000;,
  0.625000;0.000000;,
  0.562500;0.000000;,
  0.750000;0.000000;,
  0.687500;0.000000;,
  0.875000;0.000000;,
  0.812500;0.000000;,
  1.000000;0.000000;,
  1.000000;0.000000;,
  0.937500;0.000000;,
  1.000000;1.000000;,
  1.000000;0.000000;,
  1.000000;0.000000;,
  0.875000;1.000000;,
  0.875000;0.000000;,
  1.000000;0.000000;,
  0.875000;0.000000;,
  0.500000;1.000000;,
  0.500000;0.000000;,
  0.375000;1.000000;,
  0.375000;0.000000;,
  0.500000;0.000000;,
  0.375000;0.000000;,
  0.000000;0.000000;,
  0.000000;1.000000;,
  0.125000;1.000000;,
  0.125000;0.000000;,
  0.250000;1.000000;,
  0.250000;0.000000;,
  0.375000;1.000000;,
  0.375000;0.000000;,
  0.500000;0.000000;,
  0.500000;1.000000;,
  0.625000;1.000000;,
  0.625000;0.000000;,
  0.750000;1.000000;,
  0.750000;0.000000;,
  0.875000;1.000000;,
  0.875000;0.000000;,
  0.062500;1.000000;,
  0.187500;1.000000;,
  0.312500;1.000000;,
  0.437500;1.000000;,
  0.562500;1.000000;,
  0.687500;1.000000;,
  0.812500;1.000000;,
  0.937500;1.000000;,
  1.000000;1.000000;,
  0.000000;0.000000;,
  0.125000;0.000000;,
  0.250000;0.000000;,
  0.375000;0.000000;,
  0.500000;0.000000;,
  0.625000;0.000000;,
  0.750000;0.000000;,
  0.875000;0.000000;,
  0.000000;0.000000;,
  0.125000;0.000000;,
  0.062500;0.000000;,
  0.250000;0.000000;,
  0.187500;0.000000;,
  0.375000;0.000000;,
  0.312500;0.000000;,
  0.500000;0.000000;,
  0.437500;0.000000;,
  0.625000;0.000000;,
  0.562500;0.000000;,
  0.750000;0.000000;,
  0.687500;0.000000;,
  0.875000;0.000000;,
  0.812500;0.000000;,
  1.000000;0.000000;,
  1.000000;0.000000;,
  0.937500;0.000000;,
  1.000000;1.000000;,
  1.000000;0.000000;,
  1.000000;0.000000;,
  0.875000;1.000000;,
  0.875000;0.000000;,
  1.000000;0.000000;,
  0.875000;0.000000;,
  0.500000;1.000000;,
  0.500000;0.000000;,
  0.375000;1.000000;,
  0.375000;0.000000;,
  0.500000;0.000000;,
  0.375000;0.000000;,
  0.000000;0.000000;,
  0.125000;0.000000;,
  0.125000;1.000000;,
  0.000000;1.000000;,
  0.250000;0.000000;,
  0.250000;1.000000;,
  0.375000;0.000000;,
  0.375000;1.000000;,
  0.500000;0.000000;,
  0.500000;1.000000;,
  0.625000;0.000000;,
  0.625000;1.000000;,
  0.750000;0.000000;,
  0.750000;1.000000;,
  0.875000;0.000000;,
  0.875000;1.000000;,
  1.000000;0.000000;,
  1.000000;1.000000;,
  0.062500;0.000000;,
  0.187500;0.000000;,
  0.312500;0.000000;,
  0.437500;0.000000;,
  0.562500;0.000000;,
  0.687500;0.000000;,
  0.812500;0.000000;,
  0.937500;0.000000;,
  0.062500;1.000000;,
  0.187500;1.000000;,
  0.312500;1.000000;,
  0.437500;1.000000;,
  0.562500;1.000000;,
  0.687500;1.000000;,
  0.812500;1.000000;,
  0.937500;1.000000;;
 }
}
