xof 0302txt 0064
template Header {
 <3D82AB43-62DA-11cf-AB39-0020AF71E433>
 WORD major;
 WORD minor;
 DWORD flags;
}

template Vector {
 <3D82AB5E-62DA-11cf-AB39-0020AF71E433>
 FLOAT x;
 FLOAT y;
 FLOAT z;
}

template Coords2d {
 <F6F23F44-7686-11cf-8F52-0040333594A3>
 FLOAT u;
 FLOAT v;
}

template Matrix4x4 {
 <F6F23F45-7686-11cf-8F52-0040333594A3>
 array FLOAT matrix[16];
}

template ColorRGBA {
 <35FF44E0-6C7C-11cf-8F52-0040333594A3>
 FLOAT red;
 FLOAT green;
 FLOAT blue;
 FLOAT alpha;
}

template ColorRGB {
 <D3E16E81-7835-11cf-8F52-0040333594A3>
 FLOAT red;
 FLOAT green;
 FLOAT blue;
}

template IndexedColor {
 <1630B820-7842-11cf-8F52-0040333594A3>
 DWORD index;
 ColorRGBA indexColor;
}

template Boolean {
 <4885AE61-78E8-11cf-8F52-0040333594A3>
 WORD truefalse;
}

template Boolean2d {
 <4885AE63-78E8-11cf-8F52-0040333594A3>
 Boolean u;
 Boolean v;
}

template MaterialWrap {
 <4885AE60-78E8-11cf-8F52-0040333594A3>
 Boolean u;
 Boolean v;
}

template TextureFilename {
 <A42790E1-7810-11cf-8F52-0040333594A3>
 STRING filename;
}

template Material {
 <3D82AB4D-62DA-11cf-AB39-0020AF71E433>
 ColorRGBA faceColor;
 FLOAT power;
 ColorRGB specularColor;
 ColorRGB emissiveColor;
 [...]
}

template MeshFace {
 <3D82AB5F-62DA-11cf-AB39-0020AF71E433>
 DWORD nFaceVertexIndices;
 array DWORD faceVertexIndices[nFaceVertexIndices];
}

template MeshFaceWraps {
 <4885AE62-78E8-11cf-8F52-0040333594A3>
 DWORD nFaceWrapValues;
 Boolean2d faceWrapValues;
}

template MeshTextureCoords {
 <F6F23F40-7686-11cf-8F52-0040333594A3>
 DWORD nTextureCoords;
 array Coords2d textureCoords[nTextureCoords];
}

template MeshMaterialList {
 <F6F23F42-7686-11cf-8F52-0040333594A3>
 DWORD nMaterials;
 DWORD nFaceIndexes;
 array DWORD faceIndexes[nFaceIndexes];
 [Material]
}

template MeshNormals {
 <F6F23F43-7686-11cf-8F52-0040333594A3>
 DWORD nNormals;
 array Vector normals[nNormals];
 DWORD nFaceNormals;
 array MeshFace faceNormals[nFaceNormals];
}

template MeshVertexColors {
 <1630B821-7842-11cf-8F52-0040333594A3>
 DWORD nVertexColors;
 array IndexedColor vertexColors[nVertexColors];
}

template Mesh {
 <3D82AB44-62DA-11cf-AB39-0020AF71E433>
 DWORD nVertices;
 array Vector vertices[nVertices];
 DWORD nFaces;
 array MeshFace faces[nFaces];
 [...]
}

Header{
1;
0;
1;
}

Mesh {
 112;
 -100.02652;99.97421;-2.00000;,
 -96.02652;99.97421;-2.00000;,
 -96.02652;-0.02583;-2.00000;,
 -100.02652;-0.02583;-2.00000;,
 -96.02652;99.97421;2.00000;,
 -96.02652;-0.02583;2.00000;,
 -100.02652;99.97421;2.00000;,
 -100.02652;-0.02583;2.00000;,
 95.97349;99.97421;-2.00000;,
 99.97349;99.97421;-2.00000;,
 99.97349;-0.02583;-2.00000;,
 95.97349;-0.02583;-2.00000;,
 99.97349;99.97421;2.00000;,
 99.97349;-0.02583;2.00000;,
 95.97349;99.97421;2.00000;,
 95.97349;-0.02583;2.00000;,
 -2.02651;99.23165;-2.00000;,
 1.97349;99.23165;-2.00000;,
 1.97349;0.71674;-2.00000;,
 -2.02651;0.71674;-2.00000;,
 1.97349;99.23165;2.00000;,
 1.97349;0.71674;2.00000;,
 -2.02651;99.23165;2.00000;,
 -2.02651;0.71674;2.00000;,
 98.31600;51.97419;-2.00000;,
 98.31600;47.97419;-2.00000;,
 -98.36903;47.97419;-2.00000;,
 -98.36903;51.97419;-2.00000;,
 98.31600;47.97419;2.00000;,
 -98.36903;47.97419;2.00000;,
 98.31600;51.97419;2.00000;,
 -98.36903;51.97419;2.00000;,
 98.31600;99.84466;-2.00000;,
 98.31600;95.84466;-2.00000;,
 -98.36903;95.84467;-2.00000;,
 -98.36903;99.84467;-2.00000;,
 98.31600;95.84466;2.00000;,
 -98.36903;95.84467;2.00000;,
 98.31600;99.84466;2.00000;,
 -98.36903;99.84467;2.00000;,
 98.31600;4.05564;-2.00000;,
 98.31600;0.05564;-2.00000;,
 -98.36903;0.05564;-2.00000;,
 -98.36903;4.05564;-2.00000;,
 98.31600;0.05564;2.00000;,
 -98.36903;0.05564;2.00000;,
 98.31600;4.05564;2.00000;,
 -98.36903;4.05564;2.00000;,
 -21.02651;99.23165;-1.00000;,
 -19.02651;99.23165;-1.00000;,
 -19.02651;0.71674;-1.00000;,
 -21.02651;0.71674;-1.00000;,
 -19.02651;99.23165;1.00000;,
 -19.02651;0.71674;1.00000;,
 -21.02651;99.23165;1.00000;,
 -21.02651;0.71674;1.00000;,
 -41.02651;99.23165;-1.00000;,
 -39.02651;99.23165;-1.00000;,
 -39.02651;0.71674;-1.00000;,
 -41.02651;0.71674;-1.00000;,
 -39.02651;99.23165;1.00000;,
 -39.02651;0.71674;1.00000;,
 -41.02651;99.23165;1.00000;,
 -41.02651;0.71674;1.00000;,
 -61.02651;99.23165;-1.00000;,
 -59.02651;99.23165;-1.00000;,
 -59.02651;0.71674;-1.00000;,
 -61.02651;0.71674;-1.00000;,
 -59.02651;99.23165;1.00000;,
 -59.02651;0.71674;1.00000;,
 -61.02651;99.23165;1.00000;,
 -61.02651;0.71674;1.00000;,
 -81.02651;99.23165;-1.00000;,
 -79.02651;99.23165;-1.00000;,
 -79.02651;0.71674;-1.00000;,
 -81.02651;0.71674;-1.00000;,
 -79.02651;99.23165;1.00000;,
 -79.02651;0.71674;1.00000;,
 -81.02651;99.23165;1.00000;,
 -81.02651;0.71674;1.00000;,
 18.97349;99.23165;-1.00000;,
 20.97349;99.23165;-1.00000;,
 20.97349;0.71674;-1.00000;,
 18.97349;0.71674;-1.00000;,
 20.97349;99.23165;1.00000;,
 20.97349;0.71674;1.00000;,
 18.97349;99.23165;1.00000;,
 18.97349;0.71674;1.00000;,
 38.97349;99.23165;-1.00000;,
 40.97349;99.23165;-1.00000;,
 40.97349;0.71674;-1.00000;,
 38.97349;0.71674;-1.00000;,
 40.97349;99.23165;1.00000;,
 40.97349;0.71674;1.00000;,
 38.97349;99.23165;1.00000;,
 38.97349;0.71674;1.00000;,
 58.97349;99.23165;-1.00000;,
 60.97349;99.23165;-1.00000;,
 60.97349;0.71674;-1.00000;,
 58.97349;0.71674;-1.00000;,
 60.97349;99.23165;1.00000;,
 60.97349;0.71674;1.00000;,
 58.97349;99.23165;1.00000;,
 58.97349;0.71674;1.00000;,
 78.97349;99.23165;-1.00000;,
 80.97349;99.23165;-1.00000;,
 80.97349;0.71674;-1.00000;,
 78.97349;0.71674;-1.00000;,
 80.97349;99.23165;1.00000;,
 80.97349;0.71674;1.00000;,
 78.97349;99.23165;1.00000;,
 78.97349;0.71674;1.00000;;
 
 84;
 4;0,1,2,3;,
 4;1,4,5,2;,
 4;4,6,7,5;,
 4;6,0,3,7;,
 4;6,4,1,0;,
 4;3,2,5,7;,
 4;8,9,10,11;,
 4;9,12,13,10;,
 4;12,14,15,13;,
 4;14,8,11,15;,
 4;14,12,9,8;,
 4;11,10,13,15;,
 4;16,17,18,19;,
 4;17,20,21,18;,
 4;20,22,23,21;,
 4;22,16,19,23;,
 4;22,20,17,16;,
 4;19,18,21,23;,
 4;24,25,26,27;,
 4;25,28,29,26;,
 4;28,30,31,29;,
 4;30,24,27,31;,
 4;30,28,25,24;,
 4;27,26,29,31;,
 4;32,33,34,35;,
 4;33,36,37,34;,
 4;36,38,39,37;,
 4;38,32,35,39;,
 4;38,36,33,32;,
 4;35,34,37,39;,
 4;40,41,42,43;,
 4;41,44,45,42;,
 4;44,46,47,45;,
 4;46,40,43,47;,
 4;46,44,41,40;,
 4;43,42,45,47;,
 4;48,49,50,51;,
 4;49,52,53,50;,
 4;52,54,55,53;,
 4;54,48,51,55;,
 4;54,52,49,48;,
 4;51,50,53,55;,
 4;56,57,58,59;,
 4;57,60,61,58;,
 4;60,62,63,61;,
 4;62,56,59,63;,
 4;62,60,57,56;,
 4;59,58,61,63;,
 4;64,65,66,67;,
 4;65,68,69,66;,
 4;68,70,71,69;,
 4;70,64,67,71;,
 4;70,68,65,64;,
 4;67,66,69,71;,
 4;72,73,74,75;,
 4;73,76,77,74;,
 4;76,78,79,77;,
 4;78,72,75,79;,
 4;78,76,73,72;,
 4;75,74,77,79;,
 4;80,81,82,83;,
 4;81,84,85,82;,
 4;84,86,87,85;,
 4;86,80,83,87;,
 4;86,84,81,80;,
 4;83,82,85,87;,
 4;88,89,90,91;,
 4;89,92,93,90;,
 4;92,94,95,93;,
 4;94,88,91,95;,
 4;94,92,89,88;,
 4;91,90,93,95;,
 4;96,97,98,99;,
 4;97,100,101,98;,
 4;100,102,103,101;,
 4;102,96,99,103;,
 4;102,100,97,96;,
 4;99,98,101,103;,
 4;104,105,106,107;,
 4;105,108,109,106;,
 4;108,110,111,109;,
 4;110,104,107,111;,
 4;110,108,105,104;,
 4;107,106,109,111;;
 
 MeshMaterialList {
  1;
  84;
  0,
  0,
  0,
  0,
  0,
  0,
  0,
  0,
  0,
  0,
  0,
  0,
  0,
  0,
  0,
  0,
  0,
  0,
  0,
  0,
  0,
  0,
  0,
  0,
  0,
  0,
  0,
  0,
  0,
  0,
  0,
  0,
  0,
  0,
  0,
  0,
  0,
  0,
  0,
  0,
  0,
  0,
  0,
  0,
  0,
  0,
  0,
  0,
  0,
  0,
  0,
  0,
  0,
  0,
  0,
  0,
  0,
  0,
  0,
  0,
  0,
  0,
  0,
  0,
  0,
  0,
  0,
  0,
  0,
  0,
  0,
  0,
  0,
  0,
  0,
  0,
  0,
  0,
  0,
  0,
  0,
  0,
  0,
  0;;
  Material {
   0.800000;0.800000;0.800000;1.000000;;
   5.000000;
   0.000000;0.000000;0.000000;;
   0.000000;0.000000;0.000000;;
   TextureFilename {
    "af18.jpg";
   }
  }
 }
}
