xof 0302txt 0064
template Header {
 <3D82AB43-62DA-11cf-AB39-0020AF71E433>
 WORD major;
 WORD minor;
 DWORD flags;
}

template Vector {
 <3D82AB5E-62DA-11cf-AB39-0020AF71E433>
 FLOAT x;
 FLOAT y;
 FLOAT z;
}

template Coords2d {
 <F6F23F44-7686-11cf-8F52-0040333594A3>
 FLOAT u;
 FLOAT v;
}

template Matrix4x4 {
 <F6F23F45-7686-11cf-8F52-0040333594A3>
 array FLOAT matrix[16];
}

template ColorRGBA {
 <35FF44E0-6C7C-11cf-8F52-0040333594A3>
 FLOAT red;
 FLOAT green;
 FLOAT blue;
 FLOAT alpha;
}

template ColorRGB {
 <D3E16E81-7835-11cf-8F52-0040333594A3>
 FLOAT red;
 FLOAT green;
 FLOAT blue;
}

template IndexedColor {
 <1630B820-7842-11cf-8F52-0040333594A3>
 DWORD index;
 ColorRGBA indexColor;
}

template Boolean {
 <4885AE61-78E8-11cf-8F52-0040333594A3>
 WORD truefalse;
}

template Boolean2d {
 <4885AE63-78E8-11cf-8F52-0040333594A3>
 Boolean u;
 Boolean v;
}

template MaterialWrap {
 <4885AE60-78E8-11cf-8F52-0040333594A3>
 Boolean u;
 Boolean v;
}

template TextureFilename {
 <A42790E1-7810-11cf-8F52-0040333594A3>
 STRING filename;
}

template Material {
 <3D82AB4D-62DA-11cf-AB39-0020AF71E433>
 ColorRGBA faceColor;
 FLOAT power;
 ColorRGB specularColor;
 ColorRGB emissiveColor;
 [...]
}

template MeshFace {
 <3D82AB5F-62DA-11cf-AB39-0020AF71E433>
 DWORD nFaceVertexIndices;
 array DWORD faceVertexIndices[nFaceVertexIndices];
}

template MeshFaceWraps {
 <4885AE62-78E8-11cf-8F52-0040333594A3>
 DWORD nFaceWrapValues;
 Boolean2d faceWrapValues;
}

template MeshTextureCoords {
 <F6F23F40-7686-11cf-8F52-0040333594A3>
 DWORD nTextureCoords;
 array Coords2d textureCoords[nTextureCoords];
}

template MeshMaterialList {
 <F6F23F42-7686-11cf-8F52-0040333594A3>
 DWORD nMaterials;
 DWORD nFaceIndexes;
 array DWORD faceIndexes[nFaceIndexes];
 [Material]
}

template MeshNormals {
 <F6F23F43-7686-11cf-8F52-0040333594A3>
 DWORD nNormals;
 array Vector normals[nNormals];
 DWORD nFaceNormals;
 array MeshFace faceNormals[nFaceNormals];
}

template MeshVertexColors {
 <1630B821-7842-11cf-8F52-0040333594A3>
 DWORD nVertexColors;
 array IndexedColor vertexColors[nVertexColors];
}

template Mesh {
 <3D82AB44-62DA-11cf-AB39-0020AF71E433>
 DWORD nVertices;
 array Vector vertices[nVertices];
 DWORD nFaces;
 array MeshFace faces[nFaces];
 [...]
}

Header{
1;
0;
1;
}

Mesh {
 172;
 25.79596;1.47429;-10.00000;,
 25.79596;1.47429;10.00000;,
 25.79596;-0.29714;10.00000;,
 25.79596;-0.29714;-10.00000;,
 -25.79596;1.47429;10.00000;,
 -25.79596;1.47429;-10.00000;,
 -25.79596;-0.29714;-10.00000;,
 -25.79596;-0.29714;10.00000;,
 -24.04975;1.47429;-10.00000;,
 -24.04975;-0.29714;-10.00000;,
 -24.04975;-0.29714;10.00000;,
 -24.04975;1.47429;10.00000;,
 24.06368;1.47429;-10.00000;,
 24.06368;-0.29714;-10.00000;,
 24.06368;1.47429;10.00000;,
 24.06368;-0.29714;10.00000;,
 -25.79596;70.08584;-10.00000;,
 -24.04975;70.08584;-10.00000;,
 -25.79596;70.08584;10.00000;,
 -24.04975;70.08584;10.00000;,
 24.06368;70.08584;10.00000;,
 24.06368;70.08584;-10.00000;,
 25.79596;70.08584;10.00000;,
 25.79596;70.08584;-10.00000;,
 -25.66762;24.06453;-10.00000;,
 25.66762;24.06453;-10.00000;,
 25.66762;22.23930;-10.00000;,
 -25.66762;22.23930;-10.00000;,
 25.66762;24.06453;10.00000;,
 25.66762;22.23930;10.00000;,
 -25.66762;24.06453;10.00000;,
 -25.66762;22.23930;10.00000;,
 -25.66762;44.33075;-25.13126;,
 25.66762;44.33075;-25.13126;,
 25.66762;42.50552;-25.13126;,
 -25.66762;42.50552;-25.13126;,
 25.66762;44.33075;10.00000;,
 25.66762;42.50552;10.00000;,
 -25.66762;44.33075;10.00000;,
 -25.66762;42.50552;10.00000;,
 -25.66762;71.70076;-22.53972;,
 25.66762;71.70076;-22.53972;,
 25.66762;69.87552;-22.53972;,
 -25.66762;69.87552;-22.53972;,
 25.66762;71.70076;12.59154;,
 -25.66762;71.70076;12.59154;,
 -25.66762;69.87552;12.59154;,
 25.66762;69.87552;12.59154;,
 -25.66762;71.70076;10.07086;,
 -25.66762;69.87552;10.07086;,
 25.66762;71.70076;10.07086;,
 25.66762;69.87552;10.07086;,
 25.66762;55.89469;10.07086;,
 -25.66762;55.89469;10.07086;,
 25.66762;55.89469;12.59154;,
 -25.66762;55.89469;12.59154;,
 -22.28804;2.95614;-7.75231;,
 -22.28804;1.56879;-7.75231;,
 -23.58100;1.56879;-7.75231;,
 -23.58100;2.95614;-7.75231;,
 -22.28804;2.95614;8.38717;,
 -23.58100;2.95614;8.38717;,
 -23.58100;1.56879;8.38717;,
 -22.28804;1.56879;8.38717;,
 21.85251;2.95614;-7.75231;,
 23.58100;2.95614;-7.75231;,
 23.58100;1.56879;-7.75231;,
 21.85251;1.56879;-7.75231;,
 21.85251;2.95614;8.38717;,
 21.85251;1.56879;8.38717;,
 23.58100;1.56879;8.38717;,
 23.58100;2.95614;8.38717;,
 23.58100;20.00057;8.38717;,
 21.85251;20.00057;8.38717;,
 21.85251;20.00057;-7.75231;,
 23.58100;20.00057;-7.75231;,
 -23.58100;18.61261;-7.75231;,
 -23.58100;20.00057;-7.75231;,
 -22.28804;20.00057;-7.75231;,
 -22.28804;18.61261;-7.75231;,
 -23.58100;18.61261;8.38717;,
 -22.28804;18.61261;8.38717;,
 -22.28804;20.00057;8.38717;,
 -23.58100;20.00057;8.38717;,
 21.86849;18.61261;-7.75231;,
 21.86849;18.61261;8.38717;,
 21.86849;18.61261;6.97173;,
 -22.28804;18.61261;6.97173;,
 21.85251;20.00057;6.97173;,
 -22.28804;2.95614;6.97173;,
 -22.28804;20.00057;6.97173;,
 21.85251;2.95614;6.97173;,
 -23.58100;20.00057;6.97173;,
 21.85251;20.00057;6.97173;,
 -23.58100;18.61261;6.97173;,
 23.58100;20.00057;6.97173;,
 -23.58100;2.95614;6.97173;,
 23.58100;2.95614;6.97173;,
 -23.58100;1.56879;6.97173;,
 23.58100;1.56879;6.97173;,
 -22.28804;1.56879;6.97173;,
 21.85251;1.56879;6.97173;,
 21.29185;4.12988;-8.47384;,
 21.29185;3.04091;-8.47384;,
 21.29185;3.04091;-9.59340;,
 21.29185;4.12988;-9.59340;,
 21.29185;16.59521;-9.59340;,
 21.29185;16.59521;-8.47384;,
 -21.60617;4.12988;-8.47384;,
 -21.60617;16.59521;-8.47384;,
 -21.60617;16.59521;-9.59340;,
 -21.60617;4.12988;-9.59340;,
 -21.60617;3.04091;-9.59340;,
 -21.60617;3.04091;-8.47384;,
 -21.60617;3.04091;-0.13453;,
 -21.60617;4.12988;-0.13453;,
 21.29185;4.12988;-0.13453;,
 21.29185;3.04091;-0.13453;,
 -20.30775;4.12988;-9.59340;,
 -20.30775;3.04091;-9.59340;,
 -20.30775;16.59521;-9.59340;,
 -20.30775;3.04091;-8.47384;,
 -20.30775;16.59521;-8.47384;,
 -20.30775;3.04091;-0.13453;,
 -20.30775;4.12988;-0.13453;,
 -20.30775;4.12988;-8.47384;,
 19.95461;4.12988;-9.59340;,
 19.95461;3.04091;-9.59340;,
 19.95461;16.59521;-9.59340;,
 19.95461;3.04091;-8.47384;,
 19.95461;16.59521;-8.47384;,
 19.95461;3.04091;-0.13453;,
 19.95461;4.12988;-8.47384;,
 19.95461;4.12988;-0.13453;,
 -20.30775;16.59521;-0.05287;,
 -21.60617;16.59521;-0.05287;,
 19.95461;16.59521;-0.05287;,
 21.29185;16.59521;-0.05287;,
 21.29185;16.59521;-1.05275;,
 19.95461;16.59521;-1.05275;,
 21.29185;4.12988;-1.12471;,
 19.95461;4.12988;-1.12471;,
 -20.31182;4.12988;-1.12471;,
 -20.31182;16.59521;-1.05275;,
 -20.31182;4.12988;-0.13453;,
 -21.60617;16.59521;-1.04625;,
 -20.30775;4.12988;-1.11827;,
 -21.60617;4.12988;-1.11827;,
 10.00000;14.72523;-12.69733;,
 10.00000;14.72523;-11.25348;,
 10.00000;12.56268;-11.25348;,
 10.00000;12.56268;-12.69733;,
 -10.00000;14.72523;-11.25348;,
 -10.00000;14.72523;-12.69733;,
 -10.00000;12.56268;-12.69733;,
 -10.00000;12.56268;-11.25348;,
 7.28891;14.72523;-12.69733;,
 7.28891;12.56268;-12.69733;,
 7.28891;14.72523;-11.25348;,
 7.28891;12.56268;-11.25348;,
 -7.55236;14.72523;-12.69733;,
 -7.55236;12.56268;-12.69733;,
 -7.55236;14.72523;-11.25348;,
 -7.55236;12.56268;-11.25348;,
 7.28891;12.56268;-9.28215;,
 7.28891;14.72523;-9.28215;,
 10.00000;12.56268;-9.28215;,
 10.00000;14.72523;-9.28215;,
 -10.00000;14.72523;-9.28215;,
 -7.55236;14.72523;-9.28215;,
 -10.00000;12.56268;-9.28215;,
 -7.55236;12.56268;-9.28215;;
 
 170;
 4;0,1,2,3;,
 4;4,5,6,7;,
 4;8,9,6,5;,
 4;9,10,7,6;,
 4;11,4,7,10;,
 4;12,0,3,13;,
 4;12,13,9,8;,
 4;12,8,11,14;,
 4;13,3,2,15;,
 4;13,15,10,9;,
 4;14,11,10,15;,
 4;14,15,2,1;,
 4;16,17,8,5;,
 4;18,16,5,4;,
 4;19,18,4,11;,
 4;17,19,11,8;,
 4;17,16,18,19;,
 4;20,21,12,14;,
 4;22,20,14,1;,
 4;23,22,1,0;,
 4;21,23,0,12;,
 4;21,20,22,23;,
 4;24,25,26,27;,
 4;25,28,29,26;,
 4;28,30,31,29;,
 4;30,24,27,31;,
 4;30,28,25,24;,
 4;27,26,29,31;,
 4;32,33,34,35;,
 4;33,36,37,34;,
 4;36,38,39,37;,
 4;38,32,35,39;,
 4;38,36,33,32;,
 4;35,34,37,39;,
 4;40,41,42,43;,
 4;44,45,46,47;,
 4;48,40,43,49;,
 4;48,49,46,45;,
 4;48,45,44,50;,
 4;48,50,41,40;,
 4;49,43,42,51;,
 4;50,44,47,51;,
 4;50,51,42,41;,
 4;52,53,49,51;,
 4;54,52,51,47;,
 4;55,54,47,46;,
 4;53,55,46,49;,
 4;53,52,54,55;,
 4;56,57,58,59;,
 4;60,61,62,63;,
 4;64,65,66,67;,
 4;64,67,57,56;,
 4;68,60,63,69;,
 4;68,69,70,71;,
 4;72,73,68,71;,
 4;74,75,65,64;,
 4;76,77,78,79;,
 4;76,79,56,59;,
 4;80,61,60,81;,
 4;80,81,82,83;,
 4;74,84,79,78;,
 4;85,73,82,81;,
 4;86,87,79,84;,
 4;86,84,74,88;,
 4;86,88,73,85;,
 4;87,81,60,89;,
 4;87,89,56,79;,
 4;88,74,78,90;,
 4;88,90,82,73;,
 4;89,60,68,91;,
 4;89,91,64,56;,
 4;90,78,77,92;,
 4;90,92,83,82;,
 4;91,68,73,93;,
 4;91,93,74,64;,
 4;92,77,76,94;,
 4;92,94,80,83;,
 4;93,73,72,95;,
 4;93,95,75,74;,
 4;94,76,59,96;,
 4;94,96,61,80;,
 4;95,72,71,97;,
 4;95,97,65,75;,
 4;96,59,58,98;,
 4;96,98,62,61;,
 4;97,71,70,99;,
 4;97,99,66,65;,
 4;98,58,57,100;,
 4;98,100,63,62;,
 4;99,70,69,101;,
 4;99,101,67,66;,
 4;100,57,67,101;,
 4;100,101,69,63;,
 4;68,91,86,85;,
 4;60,68,85,81;,
 4;89,60,81,87;,
 4;91,89,87,86;,
 4;91,68,60,89;,
 4;102,103,104,105;,
 4;102,105,106,107;,
 4;108,109,110,111;,
 4;108,111,112,113;,
 4;114,115,108,113;,
 4;116,117,103,102;,
 4;118,119,112,111;,
 4;118,111,110,120;,
 4;119,121,113,112;,
 4;120,110,109,122;,
 4;121,123,114,113;,
 4;123,124,115,114;,
 4;125,108,115,124;,
 4;126,105,104,127;,
 4;126,127,119,118;,
 4;126,118,120,128;,
 4;126,128,106,105;,
 4;127,104,103,129;,
 4;127,129,121,119;,
 4;128,120,122,130;,
 4;128,130,107,106;,
 4;129,103,117,131;,
 4;129,131,123,121;,
 4;130,122,125,132;,
 4;131,117,116,133;,
 4;131,133,124,123;,
 4;132,125,124,133;,
 4;132,133,116,102;,
 4;134,135,115,124;,
 4;136,133,116,137;,
 4;138,107,130,139;,
 4;138,139,136,137;,
 4;138,137,116,140;,
 4;138,140,102,107;,
 4;139,130,132,141;,
 4;140,116,133,141;,
 4;140,141,132,102;,
 4;142,143,139,141;,
 4;144,142,141,133;,
 4;134,144,133,136;,
 4;143,134,136,139;,
 4;143,142,144,134;,
 4;143,122,109,145;,
 4;143,145,135,134;,
 4;143,134,124,146;,
 4;143,146,125,122;,
 4;145,109,108,147;,
 4;145,147,115,135;,
 4;146,124,115,147;,
 4;146,147,108,125;,
 4;148,149,150,151;,
 4;152,153,154,155;,
 4;156,148,151,157;,
 4;156,158,149,148;,
 4;157,151,150,159;,
 4;160,156,157,161;,
 4;160,161,154,153;,
 4;160,153,152,162;,
 4;160,162,158,156;,
 4;161,157,159,163;,
 4;161,163,155,154;,
 4;162,163,159,158;,
 4;164,165,158,159;,
 4;166,164,159,150;,
 4;167,166,150,149;,
 4;165,167,149,158;,
 4;165,164,166,167;,
 4;168,169,162,152;,
 4;170,168,152,155;,
 4;171,170,155,163;,
 4;169,171,163,162;,
 4;169,168,170,171;;
 
 MeshMaterialList {
  5;
  170;
  0,
  0,
  0,
  0,
  0,
  0,
  1,
  1,
  0,
  0,
  1,
  0,
  0,
  0,
  0,
  0,
  0,
  0,
  0,
  0,
  0,
  0,
  1,
  0,
  1,
  0,
  1,
  0,
  1,
  1,
  1,
  1,
  1,
  0,
  1,
  1,
  1,
  1,
  1,
  1,
  0,
  1,
  1,
  1,
  1,
  1,
  1,
  1,
  2,
  2,
  2,
  2,
  2,
  2,
  2,
  2,
  2,
  2,
  2,
  2,
  2,
  2,
  2,
  2,
  2,
  2,
  2,
  2,
  2,
  2,
  2,
  2,
  2,
  2,
  2,
  2,
  2,
  2,
  2,
  2,
  2,
  2,
  2,
  2,
  2,
  2,
  2,
  2,
  2,
  2,
  2,
  2,
  2,
  2,
  2,
  2,
  2,
  2,
  4,
  4,
  4,
  4,
  4,
  4,
  4,
  4,
  4,
  4,
  4,
  4,
  4,
  4,
  4,
  4,
  4,
  4,
  4,
  4,
  4,
  4,
  4,
  4,
  4,
  4,
  4,
  4,
  4,
  4,
  4,
  4,
  4,
  4,
  4,
  4,
  4,
  4,
  4,
  4,
  4,
  4,
  4,
  4,
  4,
  4,
  4,
  4,
  4,
  4,
  0,
  0,
  0,
  0,
  0,
  0,
  0,
  0,
  0,
  0,
  0,
  0,
  0,
  0,
  0,
  0,
  0,
  0,
  0,
  0,
  0,
  0;;
  Material {
   0.109600;0.109600;0.109600;1.000000;;
   5.000000;
   0.000000;0.000000;0.000000;;
   0.000000;0.000000;0.000000;;
  }
  Material {
   0.558400;0.558400;0.558400;1.000000;;
   32.000000;
   0.190000;0.190000;0.190000;;
   0.000000;0.000000;0.000000;;
  }
  Material {
   0.605600;0.605600;0.552000;1.000000;;
   5.000000;
   0.000000;0.000000;0.000000;;
   0.000000;0.000000;0.000000;;
  }
  Material {
   0.724800;0.724800;0.724800;1.000000;;
   5.000000;
   0.000000;0.000000;0.000000;;
   0.000000;0.000000;0.000000;;
  }
  Material {
   0.800000;0.800000;0.724800;0.830000;;
   5.000000;
   0.000000;0.000000;0.000000;;
   0.000000;0.000000;0.000000;;
  }
 }
 MeshNormals {
  50;
  -1.000000;0.000000;0.000000;,
  1.000000;0.000000;0.000000;,
  0.000000;0.000000;-1.000000;,
  0.000000;0.000000;1.000000;,
  0.000000;-1.000000;-0.000000;,
  0.000000;1.000000;0.000000;,
  0.000000;0.000000;-1.000000;,
  1.000000;0.000000;0.000000;,
  0.000000;0.000000;1.000000;,
  -1.000000;0.000000;0.000000;,
  0.000000;1.000000;0.000000;,
  0.000000;-1.000000;-0.000000;,
  0.000000;0.000000;-1.000000;,
  0.000000;0.000000;1.000000;,
  -1.000000;0.000000;0.000000;,
  0.000000;1.000000;0.000000;,
  0.000000;-1.000000;-0.000000;,
  1.000000;0.000000;0.000000;,
  0.000000;0.000000;-1.000000;,
  0.000000;0.000000;1.000000;,
  0.000000;-1.000000;0.000000;,
  0.999934;0.011513;0.000000;,
  0.000000;1.000000;0.000000;,
  -1.000000;0.000000;0.000000;,
  1.000000;0.000000;0.000000;,
  0.999973;0.007335;0.000000;,
  0.999934;0.011513;0.000000;,
  0.999934;0.011513;0.000000;,
  0.999986;0.005246;0.000000;,
  0.999999;-0.001021;-0.000000;,
  -1.000000;0.000000;0.000000;,
  1.000000;0.000000;0.000000;,
  0.000000;0.000000;-1.000000;,
  0.000000;-1.000000;-0.000000;,
  0.000000;1.000000;0.000000;,
  0.000000;0.000000;1.000000;,
  0.000000;-0.006551;0.999979;,
  0.000000;-0.002184;0.999998;,
  0.000000;-0.003275;0.999995;,
  0.000000;0.005773;-0.999983;,
  1.000000;0.000170;-0.000880;,
  -0.999998;0.000150;0.002035;,
  0.999998;0.000177;-0.002035;,
  1.000000;0.000163;0.000274;,
  -1.000000;0.000000;0.000000;,
  1.000000;0.000000;0.000000;,
  0.000000;0.000000;-1.000000;,
  0.000000;1.000000;0.000000;,
  0.000000;-1.000000;-0.000000;,
  0.000000;-0.000000;1.000000;;
  170;
  4;1,1,1,1;,
  4;0,0,0,0;,
  4;2,2,2,2;,
  4;4,4,4,4;,
  4;3,3,3,3;,
  4;2,2,2,2;,
  4;2,2,2,2;,
  4;5,5,5,5;,
  4;4,4,4,4;,
  4;4,4,4,4;,
  4;3,3,3,3;,
  4;3,3,3,3;,
  4;2,2,2,2;,
  4;0,0,0,0;,
  4;3,3,3,3;,
  4;1,1,1,1;,
  4;5,5,5,5;,
  4;0,0,0,0;,
  4;3,3,3,3;,
  4;1,1,1,1;,
  4;2,2,2,2;,
  4;5,5,5,5;,
  4;2,2,2,2;,
  4;1,1,1,1;,
  4;3,3,3,3;,
  4;0,0,0,0;,
  4;5,5,5,5;,
  4;4,4,4,4;,
  4;6,6,6,6;,
  4;7,7,7,7;,
  4;8,8,8,8;,
  4;9,9,9,9;,
  4;10,10,10,10;,
  4;11,11,11,11;,
  4;12,12,12,12;,
  4;13,13,13,13;,
  4;14,14,14,14;,
  4;14,14,14,14;,
  4;15,15,15,15;,
  4;15,15,15,15;,
  4;16,16,16,16;,
  4;17,17,17,17;,
  4;17,17,17,17;,
  4;12,12,12,12;,
  4;17,17,17,17;,
  4;13,13,13,13;,
  4;14,14,14,14;,
  4;16,16,16,16;,
  4;18,18,18,18;,
  4;19,19,19,19;,
  4;18,18,18,18;,
  4;18,18,18,18;,
  4;19,19,19,19;,
  4;19,19,19,19;,
  4;19,19,19,19;,
  4;18,18,18,18;,
  4;18,18,18,18;,
  4;18,18,18,18;,
  4;19,19,19,19;,
  4;19,19,19,19;,
  4;18,18,18,18;,
  4;19,19,19,19;,
  4;20,20,20,20;,
  4;25,26,26,21;,
  4;25,21,27,28;,
  4;24,24,24,24;,
  4;24,24,24,24;,
  4;22,22,22,22;,
  4;22,22,22,22;,
  4;22,22,22,22;,
  4;22,22,22,22;,
  4;22,22,22,22;,
  4;22,22,22,22;,
  4;23,23,23,23;,
  4;23,23,23,23;,
  4;23,23,23,23;,
  4;23,23,23,23;,
  4;22,22,22,22;,
  4;22,22,22,22;,
  4;23,23,23,23;,
  4;23,23,23,23;,
  4;24,24,24,24;,
  4;24,24,24,24;,
  4;23,23,23,23;,
  4;23,23,23,23;,
  4;24,24,24,24;,
  4;24,24,24,24;,
  4;20,20,20,20;,
  4;20,20,20,20;,
  4;20,20,20,20;,
  4;20,20,20,20;,
  4;20,20,20,20;,
  4;20,20,20,20;,
  4;29,29,25,28;,
  4;19,19,19,19;,
  4;23,23,23,23;,
  4;18,18,18,18;,
  4;20,20,20,20;,
  4;31,31,31,31;,
  4;31,31,31,31;,
  4;30,30,30,30;,
  4;30,30,30,30;,
  4;30,30,30,30;,
  4;31,31,31,31;,
  4;32,32,32,32;,
  4;32,32,32,32;,
  4;33,33,33,33;,
  4;34,34,34,34;,
  4;33,33,33,33;,
  4;35,37,38,35;,
  4;34,34,34,34;,
  4;32,32,32,32;,
  4;32,32,32,32;,
  4;32,32,32,32;,
  4;32,32,32,32;,
  4;33,33,33,33;,
  4;33,33,33,33;,
  4;34,34,34,34;,
  4;34,34,34,34;,
  4;33,33,33,33;,
  4;33,33,33,33;,
  4;35,35,35,35;,
  4;35,35,38,38;,
  4;35,38,37,35;,
  4;34,34,34,34;,
  4;34,34,34,34;,
  4;36,36,38,37;,
  4;36,38,38,36;,
  4;34,34,34,34;,
  4;34,34,34,34;,
  4;31,31,31,31;,
  4;31,31,31,31;,
  4;30,30,30,30;,
  4;33,33,33,33;,
  4;33,33,33,33;,
  4;39,39,39,39;,
  4;33,33,33,33;,
  4;36,36,38,36;,
  4;34,34,34,34;,
  4;41,41,41,41;,
  4;34,34,34,34;,
  4;34,34,34,34;,
  4;40,42,42,40;,
  4;40,40,43,43;,
  4;30,30,30,30;,
  4;30,30,30,30;,
  4;33,33,33,33;,
  4;33,33,33,33;,
  4;45,45,45,45;,
  4;44,44,44,44;,
  4;46,46,46,46;,
  4;47,47,47,47;,
  4;48,48,48,48;,
  4;46,46,46,46;,
  4;46,46,46,46;,
  4;47,47,47,47;,
  4;47,47,47,47;,
  4;48,48,48,48;,
  4;48,48,48,48;,
  4;49,49,49,49;,
  4;44,44,44,44;,
  4;48,48,48,48;,
  4;45,45,45,45;,
  4;47,47,47,47;,
  4;49,49,49,49;,
  4;47,47,47,47;,
  4;44,44,44,44;,
  4;48,48,48,48;,
  4;45,45,45,45;,
  4;49,49,49,49;;
 }
}
