xof 0302txt 0064
template Header {
 <3D82AB43-62DA-11cf-AB39-0020AF71E433>
 WORD major;
 WORD minor;
 DWORD flags;
}

template Vector {
 <3D82AB5E-62DA-11cf-AB39-0020AF71E433>
 FLOAT x;
 FLOAT y;
 FLOAT z;
}

template Coords2d {
 <F6F23F44-7686-11cf-8F52-0040333594A3>
 FLOAT u;
 FLOAT v;
}

template Matrix4x4 {
 <F6F23F45-7686-11cf-8F52-0040333594A3>
 array FLOAT matrix[16];
}

template ColorRGBA {
 <35FF44E0-6C7C-11cf-8F52-0040333594A3>
 FLOAT red;
 FLOAT green;
 FLOAT blue;
 FLOAT alpha;
}

template ColorRGB {
 <D3E16E81-7835-11cf-8F52-0040333594A3>
 FLOAT red;
 FLOAT green;
 FLOAT blue;
}

template IndexedColor {
 <1630B820-7842-11cf-8F52-0040333594A3>
 DWORD index;
 ColorRGBA indexColor;
}

template Boolean {
 <4885AE61-78E8-11cf-8F52-0040333594A3>
 WORD truefalse;
}

template Boolean2d {
 <4885AE63-78E8-11cf-8F52-0040333594A3>
 Boolean u;
 Boolean v;
}

template MaterialWrap {
 <4885AE60-78E8-11cf-8F52-0040333594A3>
 Boolean u;
 Boolean v;
}

template TextureFilename {
 <A42790E1-7810-11cf-8F52-0040333594A3>
 STRING filename;
}

template Material {
 <3D82AB4D-62DA-11cf-AB39-0020AF71E433>
 ColorRGBA faceColor;
 FLOAT power;
 ColorRGB specularColor;
 ColorRGB emissiveColor;
 [...]
}

template MeshFace {
 <3D82AB5F-62DA-11cf-AB39-0020AF71E433>
 DWORD nFaceVertexIndices;
 array DWORD faceVertexIndices[nFaceVertexIndices];
}

template MeshFaceWraps {
 <4885AE62-78E8-11cf-8F52-0040333594A3>
 DWORD nFaceWrapValues;
 Boolean2d faceWrapValues;
}

template MeshTextureCoords {
 <F6F23F40-7686-11cf-8F52-0040333594A3>
 DWORD nTextureCoords;
 array Coords2d textureCoords[nTextureCoords];
}

template MeshMaterialList {
 <F6F23F42-7686-11cf-8F52-0040333594A3>
 DWORD nMaterials;
 DWORD nFaceIndexes;
 array DWORD faceIndexes[nFaceIndexes];
 [Material]
}

template MeshNormals {
 <F6F23F43-7686-11cf-8F52-0040333594A3>
 DWORD nNormals;
 array Vector normals[nNormals];
 DWORD nFaceNormals;
 array MeshFace faceNormals[nFaceNormals];
}

template MeshVertexColors {
 <1630B821-7842-11cf-8F52-0040333594A3>
 DWORD nVertexColors;
 array IndexedColor vertexColors[nVertexColors];
}

template Mesh {
 <3D82AB44-62DA-11cf-AB39-0020AF71E433>
 DWORD nVertices;
 array Vector vertices[nVertices];
 DWORD nFaces;
 array MeshFace faces[nFaces];
 [...]
}

Header{
1;
0;
1;
}

Mesh {
 160;
 0.00000;2.63630;0.00000;,
 35.35535;2.63630;-35.35535;,
 0.00000;2.63630;-50.00000;,
 0.00000;2.63630;0.00000;,
 50.00000;2.63630;0.00000;,
 0.00000;2.63630;0.00000;,
 35.35535;2.63630;35.35535;,
 0.00000;2.63630;0.00000;,
 0.00000;2.63630;50.00000;,
 0.00000;2.63630;0.00000;,
 -35.35535;2.63630;35.35535;,
 0.00000;2.63630;0.00000;,
 -50.00000;2.63630;0.00000;,
 0.00000;2.63630;0.00000;,
 -35.35535;2.63630;-35.35535;,
 0.00000;2.63630;0.00000;,
 0.00000;2.63630;-50.00000;,
 0.00000;-2.63630;-0.00000;,
 0.00000;-2.63630;-50.00000;,
 35.35535;-2.63630;-35.35535;,
 0.00000;-2.63630;-0.00000;,
 50.00000;-2.63630;0.00000;,
 0.00000;-2.63630;-0.00000;,
 35.35535;-2.63630;35.35535;,
 0.00000;-2.63630;-0.00000;,
 -0.00000;-2.63630;50.00000;,
 0.00000;-2.63630;-0.00000;,
 -35.35535;-2.63630;35.35535;,
 0.00000;-2.63630;-0.00000;,
 -50.00000;-2.63630;0.00000;,
 0.00000;-2.63630;-0.00000;,
 -35.35535;-2.63630;-35.35535;,
 0.00000;-2.63630;-0.00000;,
 0.00000;-2.63630;-50.00000;,
 46.14790;17.84110;-46.14790;,
 0.00000;17.84110;-65.26300;,
 0.00000;12.15890;-65.26300;,
 46.14790;12.15890;-46.14790;,
 65.26300;17.84110;0.00000;,
 65.26300;12.15890;0.00000;,
 46.14790;17.84110;46.14790;,
 46.14790;12.15890;46.14790;,
 0.00000;17.84110;65.26295;,
 0.00000;12.15890;65.26295;,
 -46.14790;17.84110;46.14790;,
 -46.14790;12.15890;46.14790;,
 -65.26300;17.84110;0.00000;,
 -65.26300;12.15890;0.00000;,
 -46.14790;17.84110;-46.14790;,
 -46.14790;12.15890;-46.14790;,
 0.00000;17.84110;-65.26300;,
 0.00000;12.15890;-65.26300;,
 53.59195;37.84110;-53.59195;,
 0.00000;37.84110;-75.79050;,
 0.00000;37.15890;-83.74060;,
 59.21355;37.15890;-59.21355;,
 75.79045;37.84110;0.00000;,
 83.74055;37.15890;0.00000;,
 53.59195;37.84110;53.59195;,
 59.21350;37.15890;59.21350;,
 0.00000;37.84110;75.79045;,
 0.00000;37.15890;83.74055;,
 -53.59195;37.84110;53.59195;,
 -59.21355;37.15890;59.21350;,
 -75.79045;37.84110;0.00000;,
 -83.74055;37.15890;0.00000;,
 -53.59195;37.84110;-53.59195;,
 -59.21355;37.15890;-59.21350;,
 0.00000;37.84110;-75.79050;,
 0.00000;37.15890;-83.74060;,
 55.14545;63.44520;-55.14545;,
 0.00000;63.44520;-77.98745;,
 0.00000;62.76300;-85.93755;,
 60.76705;62.76300;-60.76705;,
 77.98745;63.44520;0.00000;,
 85.93755;62.76300;0.00000;,
 55.14545;63.44520;55.14545;,
 60.76705;62.76300;60.76705;,
 0.00000;63.44520;77.98745;,
 0.00000;62.76300;85.93755;,
 -55.14545;63.44520;55.14545;,
 -60.76705;62.76300;60.76700;,
 -77.98745;63.44520;0.00000;,
 -85.93755;62.76300;0.00000;,
 -55.14545;63.44520;-55.14545;,
 -60.76705;62.76300;-60.76700;,
 0.00000;63.44520;-77.98745;,
 0.00000;62.76300;-85.93755;,
 51.18015;91.90620;-51.18015;,
 0.00000;91.90620;-72.37970;,
 0.00000;91.28570;-79.61100;,
 56.29350;91.28570;-56.29350;,
 72.37970;91.90620;0.00000;,
 79.61100;91.28570;0.00000;,
 51.18015;91.90620;51.18015;,
 56.29345;91.28570;56.29345;,
 0.00000;91.90620;72.37970;,
 0.00000;91.28570;79.61100;,
 -51.18015;91.90620;51.18015;,
 -56.29350;91.28570;56.29345;,
 -72.37970;91.90620;0.00000;,
 -79.61100;91.28570;0.00000;,
 -51.18015;91.90620;-51.18015;,
 -56.29350;91.28570;-56.29345;,
 0.00000;91.90620;-72.37970;,
 0.00000;91.28570;-79.61100;,
 30.62200;121.81735;-30.62200;,
 0.00000;121.81735;-43.30610;,
 0.00000;121.45880;-47.48390;,
 33.57620;121.45880;-33.57620;,
 43.30610;121.81735;0.00000;,
 47.48390;121.45880;0.00000;,
 30.62200;121.81735;30.62200;,
 33.57620;121.45880;33.57620;,
 0.00000;121.81735;43.30610;,
 0.00000;121.45880;47.48390;,
 -30.62200;121.81735;30.62200;,
 -33.57620;121.45880;33.57620;,
 -43.30610;121.81735;0.00000;,
 -47.48390;121.45880;0.00000;,
 -30.62200;121.81735;-30.62200;,
 -33.57620;121.45880;-33.57620;,
 0.00000;121.81735;-43.30610;,
 0.00000;121.45880;-47.48390;,
 32.04480;143.22235;-32.04480;,
 0.00000;143.22235;-45.31825;,
 0.00000;142.86916;-49.43395;,
 34.95505;142.86916;-34.95510;,
 45.31825;143.22235;0.00000;,
 49.43395;142.86916;0.00000;,
 32.04480;143.22235;32.04480;,
 34.95505;142.86916;34.95505;,
 0.00000;143.22235;45.31825;,
 0.00000;142.86916;49.43390;,
 -32.04480;143.22235;32.04480;,
 -34.95505;142.86916;34.95505;,
 -45.31825;143.22235;0.00000;,
 -49.43395;142.86916;0.00000;,
 -32.04480;143.22235;-32.04480;,
 -34.95505;142.86916;-34.95510;,
 0.00000;143.22235;-45.31825;,
 0.00000;142.86916;-49.43395;,
 43.85455;170.01781;-43.85455;,
 0.00000;170.01781;-62.01975;,
 0.00000;169.55765;-67.38070;,
 47.64535;169.55765;-47.64535;,
 62.01970;170.01781;0.00000;,
 67.38070;169.55765;0.00000;,
 43.85450;170.01781;43.85450;,
 47.64535;169.55765;47.64535;,
 0.00000;170.01781;62.01970;,
 0.00000;169.55765;67.38070;,
 -43.85450;170.01781;43.85450;,
 -47.64535;169.55765;47.64535;,
 -62.01970;170.01781;0.00000;,
 -67.38070;169.55765;0.00000;,
 -43.85450;170.01781;-43.85455;,
 -47.64535;169.55765;-47.64535;,
 0.00000;170.01781;-62.01975;,
 0.00000;169.55765;-67.38070;;
 
 136;
 3;0,1,2;,
 3;3,4,1;,
 3;5,6,4;,
 3;7,8,6;,
 3;9,10,8;,
 3;11,12,10;,
 3;13,14,12;,
 3;15,16,14;,
 3;17,18,19;,
 3;20,19,21;,
 3;22,21,23;,
 3;24,23,25;,
 3;26,25,27;,
 3;28,27,29;,
 3;30,29,31;,
 3;32,31,33;,
 4;34,35,2,1;,
 4;36,37,19,18;,
 4;38,34,1,4;,
 4;37,39,21,19;,
 4;40,38,4,6;,
 4;39,41,23,21;,
 4;42,40,6,8;,
 4;41,43,25,23;,
 4;44,42,8,10;,
 4;43,45,27,25;,
 4;46,44,10,12;,
 4;45,47,29,27;,
 4;48,46,12,14;,
 4;47,49,31,29;,
 4;50,48,14,16;,
 4;49,51,33,31;,
 4;52,53,35,34;,
 4;54,55,37,36;,
 4;56,52,34,38;,
 4;55,57,39,37;,
 4;58,56,38,40;,
 4;57,59,41,39;,
 4;60,58,40,42;,
 4;59,61,43,41;,
 4;62,60,42,44;,
 4;61,63,45,43;,
 4;64,62,44,46;,
 4;63,65,47,45;,
 4;66,64,46,48;,
 4;65,67,49,47;,
 4;68,66,48,50;,
 4;67,69,51,49;,
 4;70,71,53,52;,
 4;72,73,55,54;,
 4;74,70,52,56;,
 4;73,75,57,55;,
 4;76,74,56,58;,
 4;75,77,59,57;,
 4;78,76,58,60;,
 4;77,79,61,59;,
 4;80,78,60,62;,
 4;79,81,63,61;,
 4;82,80,62,64;,
 4;81,83,65,63;,
 4;84,82,64,66;,
 4;83,85,67,65;,
 4;86,84,66,68;,
 4;85,87,69,67;,
 4;88,89,71,70;,
 4;90,91,73,72;,
 4;92,88,70,74;,
 4;91,93,75,73;,
 4;94,92,74,76;,
 4;93,95,77,75;,
 4;96,94,76,78;,
 4;95,97,79,77;,
 4;98,96,78,80;,
 4;97,99,81,79;,
 4;100,98,80,82;,
 4;99,101,83,81;,
 4;102,100,82,84;,
 4;101,103,85,83;,
 4;104,102,84,86;,
 4;103,105,87,85;,
 4;106,107,89,88;,
 4;108,109,91,90;,
 4;110,106,88,92;,
 4;109,111,93,91;,
 4;112,110,92,94;,
 4;111,113,95,93;,
 4;114,112,94,96;,
 4;113,115,97,95;,
 4;116,114,96,98;,
 4;115,117,99,97;,
 4;118,116,98,100;,
 4;117,119,101,99;,
 4;120,118,100,102;,
 4;119,121,103,101;,
 4;122,120,102,104;,
 4;121,123,105,103;,
 4;124,125,107,106;,
 4;126,127,109,108;,
 4;128,124,106,110;,
 4;127,129,111,109;,
 4;130,128,110,112;,
 4;129,131,113,111;,
 4;132,130,112,114;,
 4;131,133,115,113;,
 4;134,132,114,116;,
 4;133,135,117,115;,
 4;136,134,116,118;,
 4;135,137,119,117;,
 4;138,136,118,120;,
 4;137,139,121,119;,
 4;140,138,120,122;,
 4;139,141,123,121;,
 4;142,143,125,124;,
 4;144,145,127,126;,
 4;143,142,145,144;,
 4;146,142,124,128;,
 4;145,147,129,127;,
 4;142,146,147,145;,
 4;148,146,128,130;,
 4;147,149,131,129;,
 4;146,148,149,147;,
 4;150,148,130,132;,
 4;149,151,133,131;,
 4;148,150,151,149;,
 4;152,150,132,134;,
 4;151,153,135,133;,
 4;150,152,153,151;,
 4;154,152,134,136;,
 4;153,155,137,135;,
 4;152,154,155,153;,
 4;156,154,136,138;,
 4;155,157,139,137;,
 4;154,156,157,155;,
 4;158,156,138,140;,
 4;157,159,141,139;,
 4;156,158,159,157;;
 
 MeshMaterialList {
  1;
  136;
  0,
  0,
  0,
  0,
  0,
  0,
  0,
  0,
  0,
  0,
  0,
  0,
  0,
  0,
  0,
  0,
  0,
  0,
  0,
  0,
  0,
  0,
  0,
  0,
  0,
  0,
  0,
  0,
  0,
  0,
  0,
  0,
  0,
  0,
  0,
  0,
  0,
  0,
  0,
  0,
  0,
  0,
  0,
  0,
  0,
  0,
  0,
  0,
  0,
  0,
  0,
  0,
  0,
  0,
  0,
  0,
  0,
  0,
  0,
  0,
  0,
  0,
  0,
  0,
  0,
  0,
  0,
  0,
  0,
  0,
  0,
  0,
  0,
  0,
  0,
  0,
  0,
  0,
  0,
  0,
  0,
  0,
  0,
  0,
  0,
  0,
  0,
  0,
  0,
  0,
  0,
  0,
  0,
  0,
  0,
  0,
  0,
  0,
  0,
  0,
  0,
  0,
  0,
  0,
  0,
  0,
  0,
  0,
  0,
  0,
  0,
  0,
  0,
  0,
  0,
  0,
  0,
  0,
  0,
  0,
  0,
  0,
  0,
  0,
  0,
  0,
  0,
  0,
  0,
  0,
  0,
  0,
  0,
  0,
  0,
  0;;
  Material {
   0.408000;0.232000;0.244800;1.000000;;
   5.000000;
   0.000000;0.000000;0.000000;;
   0.000000;0.000000;0.000000;;
  }
 }
 MeshNormals {
  138;
  0.000000;1.000000;0.000000;,
  0.000000;0.927444;0.373962;,
  -0.264431;0.927444;0.264431;,
  -0.373962;0.927444;0.000000;,
  -0.264431;0.927444;-0.264431;,
  0.000000;0.927444;-0.373962;,
  0.264431;0.927444;-0.264431;,
  0.373962;0.927444;0.000000;,
  0.264431;0.927444;0.264431;,
  0.000000;-0.929835;-0.367978;,
  0.260199;-0.929835;-0.260199;,
  0.367978;-0.929835;-0.000000;,
  0.260199;-0.929835;0.260200;,
  0.000000;-0.929834;0.367978;,
  -0.260199;-0.929835;0.260200;,
  -0.367978;-0.929835;0.000000;,
  -0.260199;-0.929835;-0.260199;,
  0.000000;-1.000000;-0.000000;,
  0.000000;0.595266;0.803529;,
  -0.568181;0.595265;0.568181;,
  -0.803529;0.595265;0.000000;,
  -0.568181;0.595265;-0.568181;,
  0.000000;0.595265;-0.803529;,
  0.568181;0.595265;-0.568181;,
  0.803529;0.595265;0.000000;,
  0.568181;0.595265;0.568181;,
  -0.000000;-0.658819;-0.752301;,
  0.531957;-0.658819;-0.531957;,
  0.752301;-0.658819;0.000000;,
  0.531957;-0.658819;0.531958;,
  0.000000;-0.658819;0.752302;,
  -0.531957;-0.658819;0.531958;,
  -0.752302;-0.658819;0.000000;,
  -0.531958;-0.658819;-0.531957;,
  0.000000;0.282728;0.959200;,
  -0.678257;0.282728;0.678257;,
  -0.959200;0.282728;0.000000;,
  -0.678257;0.282729;-0.678257;,
  0.000000;0.282729;-0.959200;,
  0.678257;0.282729;-0.678257;,
  0.959200;0.282728;0.000000;,
  0.678257;0.282728;0.678257;,
  -0.000000;-0.356689;-0.934223;,
  0.660596;-0.356689;-0.660595;,
  0.934223;-0.356689;0.000000;,
  0.660595;-0.356689;0.660595;,
  -0.000000;-0.356689;0.934223;,
  -0.660596;-0.356689;0.660595;,
  -0.934223;-0.356689;0.000000;,
  -0.660596;-0.356689;-0.660595;,
  0.000000;-0.054601;0.998508;,
  -0.706052;-0.054601;0.706052;,
  -0.998508;-0.054601;0.000000;,
  -0.706052;-0.054601;-0.706052;,
  0.000000;-0.054601;-0.998508;,
  0.706052;-0.054601;-0.706052;,
  0.998508;-0.054601;-0.000000;,
  0.706052;-0.054601;0.706052;,
  -0.000000;0.066513;-0.997786;,
  0.705541;0.066513;-0.705541;,
  0.997786;0.066512;0.000000;,
  0.705541;0.066512;0.705541;,
  -0.000000;0.066512;0.997786;,
  -0.705541;0.066512;0.705541;,
  -0.997786;0.066512;0.000000;,
  -0.705541;0.066513;-0.705541;,
  0.000000;-0.468803;0.883303;,
  -0.624589;-0.468803;0.624589;,
  -0.883303;-0.468803;0.000000;,
  -0.624589;-0.468803;-0.624589;,
  0.000000;-0.468803;-0.883303;,
  0.624589;-0.468803;-0.624589;,
  0.883303;-0.468803;-0.000000;,
  0.624589;-0.468803;0.624589;,
  -0.000000;0.499679;-0.866211;,
  0.612503;0.499679;-0.612503;,
  0.866210;0.499680;0.000000;,
  0.612503;0.499680;0.612503;,
  -0.000000;0.499679;0.866210;,
  -0.612503;0.499679;0.612503;,
  -0.866210;0.499679;0.000000;,
  -0.612503;0.499679;-0.612503;,
  0.000000;-0.340176;0.940362;,
  -0.664936;-0.340175;0.664936;,
  -0.940362;-0.340176;0.000000;,
  -0.664936;-0.340175;-0.664936;,
  0.000000;-0.340176;-0.940362;,
  0.664936;-0.340175;-0.664936;,
  0.940362;-0.340176;-0.000000;,
  0.664936;-0.340175;0.664936;,
  -0.000000;0.364122;-0.931351;,
  0.658565;0.364123;-0.658565;,
  0.931351;0.364123;0.000000;,
  0.658564;0.364123;0.658565;,
  0.000000;0.364123;0.931351;,
  -0.658564;0.364123;0.658565;,
  -0.931351;0.364123;0.000000;,
  -0.658565;0.364123;-0.658565;,
  0.000000;0.322097;0.946707;,
  -0.669423;0.322097;0.669423;,
  -0.946707;0.322097;-0.000000;,
  -0.669423;0.322096;-0.669423;,
  0.000000;0.322097;-0.946707;,
  0.669423;0.322096;-0.669423;,
  0.946707;0.322097;-0.000000;,
  0.669423;0.322097;0.669423;,
  0.000000;-0.337559;-0.941304;,
  0.665603;-0.337559;-0.665603;,
  0.941304;-0.337559;0.000000;,
  0.665603;-0.337559;0.665603;,
  0.000000;-0.337559;0.941304;,
  -0.665603;-0.337559;0.665603;,
  -0.941304;-0.337559;0.000000;,
  -0.665603;-0.337559;-0.665603;,
  0.000000;0.528959;0.848647;,
  -0.600085;0.528958;0.600084;,
  -0.848648;0.528958;-0.000000;,
  -0.600085;0.528957;-0.600085;,
  0.000000;0.528958;-0.848648;,
  0.600085;0.528957;-0.600085;,
  0.848648;0.528958;-0.000000;,
  0.600085;0.528958;0.600085;,
  0.000000;-0.558020;-0.829828;,
  0.586777;-0.558020;-0.586777;,
  0.829827;-0.558020;0.000000;,
  0.586776;-0.558021;0.586776;,
  0.000000;-0.558021;0.829827;,
  -0.586776;-0.558021;0.586776;,
  -0.829827;-0.558020;0.000000;,
  -0.586777;-0.558020;-0.586777;,
  0.000000;0.996336;-0.085520;,
  0.060472;0.996336;-0.060472;,
  0.085520;0.996337;-0.000000;,
  0.060471;0.996336;0.060471;,
  0.000000;0.996336;0.085520;,
  -0.060471;0.996336;0.060471;,
  -0.085520;0.996337;-0.000000;,
  -0.060472;0.996336;-0.060472;;
  136;
  3;0,2,1;,
  3;0,3,2;,
  3;0,4,3;,
  3;0,5,4;,
  3;0,6,5;,
  3;0,7,6;,
  3;0,8,7;,
  3;0,1,8;,
  3;17,9,10;,
  3;17,10,11;,
  3;17,11,12;,
  3;17,12,13;,
  3;17,13,14;,
  3;17,14,15;,
  3;17,15,16;,
  3;17,16,9;,
  4;19,18,1,2;,
  4;26,27,10,9;,
  4;20,19,2,3;,
  4;27,28,11,10;,
  4;21,20,3,4;,
  4;28,29,12,11;,
  4;22,21,4,5;,
  4;29,30,13,12;,
  4;23,22,5,6;,
  4;30,31,14,13;,
  4;24,23,6,7;,
  4;31,32,15,14;,
  4;25,24,7,8;,
  4;32,33,16,15;,
  4;18,25,8,1;,
  4;33,26,9,16;,
  4;35,34,18,19;,
  4;42,43,27,26;,
  4;36,35,19,20;,
  4;43,44,28,27;,
  4;37,36,20,21;,
  4;44,45,29,28;,
  4;38,37,21,22;,
  4;45,46,30,29;,
  4;39,38,22,23;,
  4;46,47,31,30;,
  4;40,39,23,24;,
  4;47,48,32,31;,
  4;41,40,24,25;,
  4;48,49,33,32;,
  4;34,41,25,18;,
  4;49,42,26,33;,
  4;51,50,34,35;,
  4;58,59,43,42;,
  4;52,51,35,36;,
  4;59,60,44,43;,
  4;53,52,36,37;,
  4;60,61,45,44;,
  4;54,53,37,38;,
  4;61,62,46,45;,
  4;55,54,38,39;,
  4;62,63,47,46;,
  4;56,55,39,40;,
  4;63,64,48,47;,
  4;57,56,40,41;,
  4;64,65,49,48;,
  4;50,57,41,34;,
  4;65,58,42,49;,
  4;67,66,50,51;,
  4;74,75,59,58;,
  4;68,67,51,52;,
  4;75,76,60,59;,
  4;69,68,52,53;,
  4;76,77,61,60;,
  4;70,69,53,54;,
  4;77,78,62,61;,
  4;71,70,54,55;,
  4;78,79,63,62;,
  4;72,71,55,56;,
  4;79,80,64,63;,
  4;73,72,56,57;,
  4;80,81,65,64;,
  4;66,73,57,50;,
  4;81,74,58,65;,
  4;83,82,66,67;,
  4;90,91,75,74;,
  4;84,83,67,68;,
  4;91,92,76,75;,
  4;85,84,68,69;,
  4;92,93,77,76;,
  4;86,85,69,70;,
  4;93,94,78,77;,
  4;87,86,70,71;,
  4;94,95,79,78;,
  4;88,87,71,72;,
  4;95,96,80,79;,
  4;89,88,72,73;,
  4;96,97,81,80;,
  4;82,89,73,66;,
  4;97,90,74,81;,
  4;99,98,82,83;,
  4;106,107,91,90;,
  4;100,99,83,84;,
  4;107,108,92,91;,
  4;101,100,84,85;,
  4;108,109,93,92;,
  4;102,101,85,86;,
  4;109,110,94,93;,
  4;103,102,86,87;,
  4;110,111,95,94;,
  4;104,103,87,88;,
  4;111,112,96,95;,
  4;105,104,88,89;,
  4;112,113,97,96;,
  4;98,105,89,82;,
  4;113,106,90,97;,
  4;115,114,98,99;,
  4;122,123,107,106;,
  4;130,131,131,130;,
  4;116,115,99,100;,
  4;123,124,108,107;,
  4;131,132,132,131;,
  4;117,116,100,101;,
  4;124,125,109,108;,
  4;132,133,133,132;,
  4;118,117,101,102;,
  4;125,126,110,109;,
  4;133,134,134,133;,
  4;119,118,102,103;,
  4;126,127,111,110;,
  4;134,135,135,134;,
  4;120,119,103,104;,
  4;127,128,112,111;,
  4;135,136,136,135;,
  4;121,120,104,105;,
  4;128,129,113,112;,
  4;136,137,137,136;,
  4;114,121,105,98;,
  4;129,122,106,113;,
  4;137,130,130,137;;
 }
 MeshTextureCoords {
  160;
  0.062500;0.000000;,
  0.125000;0.000000;,
  0.000000;0.000000;,
  0.187500;0.000000;,
  0.250000;0.000000;,
  0.312500;0.000000;,
  0.375000;0.000000;,
  0.437500;0.000000;,
  0.500000;0.000000;,
  0.562500;0.000000;,
  0.625000;0.000000;,
  0.687500;0.000000;,
  0.750000;0.000000;,
  0.812500;0.000000;,
  0.875000;0.000000;,
  0.937500;0.000000;,
  1.000000;0.000000;,
  0.062500;1.000000;,
  0.000000;1.000000;,
  0.125000;1.000000;,
  0.187500;1.000000;,
  0.250000;1.000000;,
  0.312500;1.000000;,
  0.375000;1.000000;,
  0.437500;1.000000;,
  0.500000;1.000000;,
  0.562500;1.000000;,
  0.625000;1.000000;,
  0.687500;1.000000;,
  0.750000;1.000000;,
  0.812500;1.000000;,
  0.875000;1.000000;,
  0.937500;1.000000;,
  1.000000;1.000000;,
  0.125000;0.000000;,
  0.000000;0.000000;,
  0.000000;1.000000;,
  0.125000;1.000000;,
  0.250000;0.000000;,
  0.250000;1.000000;,
  0.375000;0.000000;,
  0.375000;1.000000;,
  0.500000;0.000000;,
  0.500000;1.000000;,
  0.625000;0.000000;,
  0.625000;1.000000;,
  0.750000;0.000000;,
  0.750000;1.000000;,
  0.875000;0.000000;,
  0.875000;1.000000;,
  1.000000;0.000000;,
  1.000000;1.000000;,
  0.125000;0.000000;,
  0.000000;0.000000;,
  0.000000;1.000000;,
  0.125000;1.000000;,
  0.250000;0.000000;,
  0.250000;1.000000;,
  0.375000;0.000000;,
  0.375000;1.000000;,
  0.500000;0.000000;,
  0.500000;1.000000;,
  0.625000;0.000000;,
  0.625000;1.000000;,
  0.750000;0.000000;,
  0.750000;1.000000;,
  0.875000;0.000000;,
  0.875000;1.000000;,
  1.000000;0.000000;,
  1.000000;1.000000;,
  0.125000;0.000000;,
  0.000000;0.000000;,
  0.000000;1.000000;,
  0.125000;1.000000;,
  0.250000;0.000000;,
  0.250000;1.000000;,
  0.375000;0.000000;,
  0.375000;1.000000;,
  0.500000;0.000000;,
  0.500000;1.000000;,
  0.625000;0.000000;,
  0.625000;1.000000;,
  0.750000;0.000000;,
  0.750000;1.000000;,
  0.875000;0.000000;,
  0.875000;1.000000;,
  1.000000;0.000000;,
  1.000000;1.000000;,
  0.125000;0.000000;,
  0.000000;0.000000;,
  0.000000;1.000000;,
  0.125000;1.000000;,
  0.250000;0.000000;,
  0.250000;1.000000;,
  0.375000;0.000000;,
  0.375000;1.000000;,
  0.500000;0.000000;,
  0.500000;1.000000;,
  0.625000;0.000000;,
  0.625000;1.000000;,
  0.750000;0.000000;,
  0.750000;1.000000;,
  0.875000;0.000000;,
  0.875000;1.000000;,
  1.000000;0.000000;,
  1.000000;1.000000;,
  0.125000;0.000000;,
  0.000000;0.000000;,
  0.000000;1.000000;,
  0.125000;1.000000;,
  0.250000;0.000000;,
  0.250000;1.000000;,
  0.375000;0.000000;,
  0.375000;1.000000;,
  0.500000;0.000000;,
  0.500000;1.000000;,
  0.625000;0.000000;,
  0.625000;1.000000;,
  0.750000;0.000000;,
  0.750000;1.000000;,
  0.875000;0.000000;,
  0.875000;1.000000;,
  1.000000;0.000000;,
  1.000000;1.000000;,
  0.125000;0.000000;,
  0.000000;0.000000;,
  0.000000;1.000000;,
  0.125000;1.000000;,
  0.250000;0.000000;,
  0.250000;1.000000;,
  0.375000;0.000000;,
  0.375000;1.000000;,
  0.500000;0.000000;,
  0.500000;1.000000;,
  0.625000;0.000000;,
  0.625000;1.000000;,
  0.750000;0.000000;,
  0.750000;1.000000;,
  0.875000;0.000000;,
  0.875000;1.000000;,
  1.000000;0.000000;,
  1.000000;1.000000;,
  0.125000;0.000000;,
  0.000000;0.000000;,
  0.000000;1.000000;,
  0.125000;1.000000;,
  0.250000;0.000000;,
  0.250000;1.000000;,
  0.375000;0.000000;,
  0.375000;1.000000;,
  0.500000;0.000000;,
  0.500000;1.000000;,
  0.625000;0.000000;,
  0.625000;1.000000;,
  0.750000;0.000000;,
  0.750000;1.000000;,
  0.875000;0.000000;,
  0.875000;1.000000;,
  1.000000;0.000000;,
  1.000000;1.000000;;
 }
}
