xof 0302txt 0064
template Header {
 <3D82AB43-62DA-11cf-AB39-0020AF71E433>
 WORD major;
 WORD minor;
 DWORD flags;
}

template Vector {
 <3D82AB5E-62DA-11cf-AB39-0020AF71E433>
 FLOAT x;
 FLOAT y;
 FLOAT z;
}

template Coords2d {
 <F6F23F44-7686-11cf-8F52-0040333594A3>
 FLOAT u;
 FLOAT v;
}

template Matrix4x4 {
 <F6F23F45-7686-11cf-8F52-0040333594A3>
 array FLOAT matrix[16];
}

template ColorRGBA {
 <35FF44E0-6C7C-11cf-8F52-0040333594A3>
 FLOAT red;
 FLOAT green;
 FLOAT blue;
 FLOAT alpha;
}

template ColorRGB {
 <D3E16E81-7835-11cf-8F52-0040333594A3>
 FLOAT red;
 FLOAT green;
 FLOAT blue;
}

template IndexedColor {
 <1630B820-7842-11cf-8F52-0040333594A3>
 DWORD index;
 ColorRGBA indexColor;
}

template Boolean {
 <4885AE61-78E8-11cf-8F52-0040333594A3>
 WORD truefalse;
}

template Boolean2d {
 <4885AE63-78E8-11cf-8F52-0040333594A3>
 Boolean u;
 Boolean v;
}

template MaterialWrap {
 <4885AE60-78E8-11cf-8F52-0040333594A3>
 Boolean u;
 Boolean v;
}

template TextureFilename {
 <A42790E1-7810-11cf-8F52-0040333594A3>
 STRING filename;
}

template Material {
 <3D82AB4D-62DA-11cf-AB39-0020AF71E433>
 ColorRGBA faceColor;
 FLOAT power;
 ColorRGB specularColor;
 ColorRGB emissiveColor;
 [...]
}

template MeshFace {
 <3D82AB5F-62DA-11cf-AB39-0020AF71E433>
 DWORD nFaceVertexIndices;
 array DWORD faceVertexIndices[nFaceVertexIndices];
}

template MeshFaceWraps {
 <4885AE62-78E8-11cf-8F52-0040333594A3>
 DWORD nFaceWrapValues;
 Boolean2d faceWrapValues;
}

template MeshTextureCoords {
 <F6F23F40-7686-11cf-8F52-0040333594A3>
 DWORD nTextureCoords;
 array Coords2d textureCoords[nTextureCoords];
}

template MeshMaterialList {
 <F6F23F42-7686-11cf-8F52-0040333594A3>
 DWORD nMaterials;
 DWORD nFaceIndexes;
 array DWORD faceIndexes[nFaceIndexes];
 [Material]
}

template MeshNormals {
 <F6F23F43-7686-11cf-8F52-0040333594A3>
 DWORD nNormals;
 array Vector normals[nNormals];
 DWORD nFaceNormals;
 array MeshFace faceNormals[nFaceNormals];
}

template MeshVertexColors {
 <1630B821-7842-11cf-8F52-0040333594A3>
 DWORD nVertexColors;
 array IndexedColor vertexColors[nVertexColors];
}

template Mesh {
 <3D82AB44-62DA-11cf-AB39-0020AF71E433>
 DWORD nVertices;
 array Vector vertices[nVertices];
 DWORD nFaces;
 array MeshFace faces[nFaces];
 [...]
}

Header{
1;
0;
1;
}

Mesh {
 132;
 147.04961;21.36325;-60.73600;,
 160.18405;21.36325;-60.73600;,
 160.18405;12.97895;-60.73600;,
 147.04961;12.97895;-60.73600;,
 160.18405;21.36325;-60.73600;,
 160.18405;21.36325;60.73600;,
 160.18405;12.97895;60.73600;,
 160.18405;12.97895;-60.73600;,
 160.18405;21.36325;60.73600;,
 147.04961;21.36325;60.73600;,
 147.04961;12.97895;60.73600;,
 160.18405;12.97895;60.73600;,
 147.04961;21.36325;60.73600;,
 147.04961;21.36325;-60.73600;,
 147.04961;12.97895;-60.73600;,
 147.04961;12.97895;60.73600;,
 160.18405;21.36325;-60.73600;,
 147.04961;21.36325;-60.73600;,
 147.04961;12.97895;-60.73600;,
 160.18405;12.97895;-60.73600;,
 -147.04961;21.36325;-60.73600;,
 -147.04961;12.97895;-60.73600;,
 -160.18405;12.97895;-60.73600;,
 -160.18405;21.36325;-60.73600;,
 -160.18405;21.36325;-60.73600;,
 -160.18405;12.97895;-60.73600;,
 -160.18405;12.97895;60.73600;,
 -160.18405;21.36325;60.73600;,
 -160.18405;21.36325;60.73600;,
 -160.18405;12.97895;60.73600;,
 -147.04961;12.97895;60.73600;,
 -147.04961;21.36325;60.73600;,
 -147.04961;21.36325;60.73600;,
 -147.04961;12.97895;60.73600;,
 -147.04961;12.97895;-60.73600;,
 -147.04961;21.36325;-60.73600;,
 -147.04961;21.36325;-60.73600;,
 -160.18405;21.36325;-60.73600;,
 -147.04961;12.97895;-60.73600;,
 -160.18405;12.97895;-60.73600;,
 -153.57970;144.05080;-3.83200;,
 153.57970;144.05080;-3.83200;,
 153.57970;128.72000;-3.83200;,
 -153.57970;128.72000;-3.83200;,
 153.57970;144.05080;-3.83200;,
 153.57970;144.05080;3.83240;,
 153.57970;128.72000;3.83240;,
 153.57970;128.72000;-3.83200;,
 153.57970;144.05080;3.83240;,
 -153.57970;144.05080;3.83240;,
 -153.57970;128.72000;3.83240;,
 153.57970;128.72000;3.83240;,
 -153.57970;144.05080;3.83240;,
 -153.57970;144.05080;-3.83200;,
 -153.57970;128.72000;-3.83200;,
 -153.57970;128.72000;3.83240;,
 153.57970;144.05080;-3.83200;,
 -153.57970;144.05080;-3.83200;,
 -153.57970;128.72000;-3.83200;,
 153.57970;128.72000;-3.83200;,
 150.21565;203.77975;-10.28795;,
 158.39349;203.77975;-10.28795;,
 158.39349;18.72050;-10.28795;,
 150.21565;18.72050;-10.28795;,
 158.39349;203.77975;-10.28795;,
 158.39349;203.77975;10.28795;,
 158.39349;18.72050;10.28795;,
 158.39349;18.72050;-10.28795;,
 158.39349;203.77975;10.28795;,
 150.21565;203.77975;10.28795;,
 150.21565;18.72050;10.28795;,
 158.39349;18.72050;10.28795;,
 150.21565;203.77975;10.28795;,
 150.21565;203.77975;-10.28795;,
 150.21565;18.72050;-10.28795;,
 150.21565;18.72050;10.28795;,
 158.39349;203.77975;-10.28795;,
 150.21565;203.77975;-10.28795;,
 150.21565;18.72050;-10.28795;,
 158.39349;18.72050;-10.28795;,
 -150.21565;203.77975;-10.28795;,
 -150.21565;18.72050;-10.28795;,
 -158.39349;18.72050;-10.28795;,
 -158.39349;203.77975;-10.28795;,
 -158.39349;203.77975;-10.28795;,
 -158.39349;18.72050;-10.28795;,
 -158.39349;18.72050;10.28795;,
 -158.39349;203.77975;10.28795;,
 -158.39349;203.77975;10.28795;,
 -158.39349;18.72050;10.28795;,
 -150.21565;18.72050;10.28795;,
 -150.21565;203.77975;10.28795;,
 -150.21565;203.77975;10.28795;,
 -150.21565;18.72050;10.28795;,
 -150.21565;18.72050;-10.28795;,
 -150.21565;203.77975;-10.28795;,
 -150.21565;203.77975;-10.28795;,
 -158.39349;203.77975;-10.28795;,
 -150.21565;18.72050;-10.28795;,
 -158.39349;18.72050;-10.28795;,
 -154.76570;346.76285;26.07425;,
 155.47086;345.39154;25.86625;,
 155.47224;347.71069;17.57370;,
 -154.76421;349.08194;17.78170;,
 -155.47086;113.29890;-33.46040;,
 154.76570;111.92765;-33.66845;,
 154.76421;109.60855;-22.00930;,
 -155.47224;110.97980;-21.80130;,
 154.79350;121.39965;-28.41780;,
 155.47224;347.71069;17.57370;,
 154.79201;119.08055;-20.12525;,
 154.76570;111.92765;-33.66845;,
 154.79350;121.39965;-28.41780;,
 -155.44299;122.77095;-28.20975;,
 -154.76421;349.08194;17.78170;,
 155.47224;347.71069;17.57370;,
 154.79201;119.08055;-20.12525;,
 155.47086;345.39154;25.86625;,
 -154.76570;346.76285;26.07425;,
 -155.44444;120.45185;-19.91720;,
 -155.47224;110.97980;-21.80130;,
 154.76421;109.60855;-22.00930;,
 -155.44299;122.77095;-28.20975;,
 -155.47086;113.29890;-33.46040;,
 -155.44444;120.45185;-19.91720;,
 -154.76421;349.08194;17.78170;,
 154.76814;117.03900;-48.84325;,
 154.79594;126.51105;-46.95920;,
 154.76570;111.92765;-33.66845;,
 -155.46840;118.41025;-48.63520;,
 -155.47086;113.29890;-33.46040;,
 -155.44060;127.88230;-46.75115;;
 
 44;
 4;0,1,2,3;,
 4;4,5,6,7;,
 4;8,9,10,11;,
 4;12,13,14,15;,
 4;12,5,16,17;,
 4;18,19,6,15;,
 4;20,21,22,23;,
 4;24,25,26,27;,
 4;28,29,30,31;,
 4;32,33,34,35;,
 4;32,36,37,27;,
 4;38,33,26,39;,
 4;40,41,42,43;,
 4;44,45,46,47;,
 4;48,49,50,51;,
 4;52,53,54,55;,
 4;52,45,56,57;,
 4;58,59,46,55;,
 4;60,61,62,63;,
 4;64,65,66,67;,
 4;68,69,70,71;,
 4;72,73,74,75;,
 4;72,65,76,77;,
 4;78,79,66,75;,
 4;80,81,82,83;,
 4;84,85,86,87;,
 4;88,89,90,91;,
 4;92,93,94,95;,
 4;92,96,97,87;,
 4;98,93,86,99;,
 4;100,101,102,103;,
 4;104,105,106,107;,
 4;108,109,101,110;,
 4;108,110,106,111;,
 4;112,113,114,115;,
 4;116,117,118,119;,
 4;116,119,120,121;,
 4;122,123,107,124;,
 4;122,124,100,125;,
 4;126,127,112,128;,
 4;129,126,128,130;,
 4;131,129,130,113;,
 4;127,131,113,112;,
 4;127,126,129,131;;
 
 MeshMaterialList {
  1;
  44;
  0,
  0,
  0,
  0,
  0,
  0,
  0,
  0,
  0,
  0,
  0,
  0,
  0,
  0,
  0,
  0,
  0,
  0,
  0,
  0,
  0,
  0,
  0,
  0,
  0,
  0,
  0,
  0,
  0,
  0,
  0,
  0,
  0,
  0,
  0,
  0,
  0,
  0,
  0,
  0,
  0,
  0,
  0,
  0;;
  Material {
   0.580000;0.633600;0.615200;1.000000;;
   5.000000;
   0.560000;0.560000;0.560000;;
   0.000000;0.000000;0.000000;;
  }
 }
 MeshNormals {
  28;
  0.000000;0.000000;-1.000000;,
  1.000000;0.000000;0.000000;,
  0.000000;0.000000;1.000000;,
  -1.000000;0.000000;0.000000;,
  0.000000;1.000000;0.000000;,
  0.000000;-1.000000;-0.000000;,
  0.004437;0.963038;0.269327;,
  -0.004443;-0.966221;-0.257678;,
  -0.004466;-0.980776;-0.195085;,
  0.999996;-0.002768;-0.000602;,
  0.999996;-0.002805;-0.000563;,
  0.000223;0.199151;-0.979969;,
  -0.000214;-0.197119;0.980380;,
  -0.004403;-0.947675;-0.319207;,
  0.999996;-0.002695;-0.000682;,
  -0.999996;0.002681;0.000672;,
  0.999996;-0.002872;-0.000629;,
  0.999996;-0.002738;-0.000496;,
  0.999996;-0.002716;-0.000589;,
  -0.000223;-0.199151;0.979969;,
  -0.000205;-0.195087;0.980786;,
  -0.999996;0.002764;0.000600;,
  -0.999996;0.002710;0.000588;,
  -0.999996;0.002738;0.000504;,
  -0.999996;0.002805;0.000565;,
  -0.999996;0.002872;0.000626;,
  0.004439;0.964030;0.265758;,
  0.000205;0.195084;-0.980787;;
  44;
  4;0,0,0,0;,
  4;1,1,1,1;,
  4;2,2,2,2;,
  4;3,3,3,3;,
  4;4,4,4,4;,
  4;5,5,5,5;,
  4;0,0,0,0;,
  4;3,3,3,3;,
  4;2,2,2,2;,
  4;1,1,1,1;,
  4;4,4,4,4;,
  4;5,5,5,5;,
  4;0,0,0,0;,
  4;1,1,1,1;,
  4;2,2,2,2;,
  4;3,3,3,3;,
  4;4,4,4,4;,
  4;5,5,5,5;,
  4;0,0,0,0;,
  4;1,1,1,1;,
  4;2,2,2,2;,
  4;3,3,3,3;,
  4;4,4,4,4;,
  4;5,5,5,5;,
  4;0,0,0,0;,
  4;3,3,3,3;,
  4;2,2,2,2;,
  4;1,1,1,1;,
  4;4,4,4,4;,
  4;5,5,5,5;,
  4;6,6,6,6;,
  4;7,7,8,8;,
  4;9,16,16,10;,
  4;9,10,17,18;,
  4;11,11,11,11;,
  4;12,19,19,12;,
  4;12,12,20,20;,
  4;21,22,23,24;,
  4;21,24,25,25;,
  4;14,14,9,18;,
  4;13,13,7,7;,
  4;15,15,22,21;,
  4;26,26,26,26;,
  4;27,27,27,27;;
 }
 MeshTextureCoords {
  132;
  0.000000;0.000000;,
  1.000000;0.000000;,
  1.000000;1.000000;,
  0.000000;1.000000;,
  0.000000;0.000000;,
  1.000000;0.000000;,
  1.000000;1.000000;,
  0.000000;1.000000;,
  0.000000;0.000000;,
  1.000000;0.000000;,
  1.000000;1.000000;,
  0.000000;1.000000;,
  0.000000;0.000000;,
  1.000000;0.000000;,
  1.000000;1.000000;,
  0.000000;1.000000;,
  1.000000;1.000000;,
  0.000000;1.000000;,
  0.000000;0.000000;,
  1.000000;0.000000;,
  0.000000;0.000000;,
  0.000000;1.000000;,
  1.000000;1.000000;,
  1.000000;0.000000;,
  0.000000;0.000000;,
  0.000000;1.000000;,
  1.000000;1.000000;,
  1.000000;0.000000;,
  0.000000;0.000000;,
  0.000000;1.000000;,
  1.000000;1.000000;,
  1.000000;0.000000;,
  0.000000;0.000000;,
  0.000000;1.000000;,
  1.000000;1.000000;,
  1.000000;0.000000;,
  0.000000;1.000000;,
  1.000000;1.000000;,
  0.000000;0.000000;,
  1.000000;0.000000;,
  0.000000;0.000000;,
  1.000000;0.000000;,
  1.000000;1.000000;,
  0.000000;1.000000;,
  0.000000;0.000000;,
  1.000000;0.000000;,
  1.000000;1.000000;,
  0.000000;1.000000;,
  0.000000;0.000000;,
  1.000000;0.000000;,
  1.000000;1.000000;,
  0.000000;1.000000;,
  0.000000;0.000000;,
  1.000000;0.000000;,
  1.000000;1.000000;,
  0.000000;1.000000;,
  1.000000;1.000000;,
  0.000000;1.000000;,
  0.000000;0.000000;,
  1.000000;0.000000;,
  0.000000;0.000000;,
  1.000000;0.000000;,
  1.000000;1.000000;,
  0.000000;1.000000;,
  0.000000;0.000000;,
  1.000000;0.000000;,
  1.000000;1.000000;,
  0.000000;1.000000;,
  0.000000;0.000000;,
  1.000000;0.000000;,
  1.000000;1.000000;,
  0.000000;1.000000;,
  0.000000;0.000000;,
  1.000000;0.000000;,
  1.000000;1.000000;,
  0.000000;1.000000;,
  1.000000;1.000000;,
  0.000000;1.000000;,
  0.000000;0.000000;,
  1.000000;0.000000;,
  0.000000;0.000000;,
  0.000000;1.000000;,
  1.000000;1.000000;,
  1.000000;0.000000;,
  0.000000;0.000000;,
  0.000000;1.000000;,
  1.000000;1.000000;,
  1.000000;0.000000;,
  0.000000;0.000000;,
  0.000000;1.000000;,
  1.000000;1.000000;,
  1.000000;0.000000;,
  0.000000;0.000000;,
  0.000000;1.000000;,
  1.000000;1.000000;,
  1.000000;0.000000;,
  0.000000;1.000000;,
  1.000000;1.000000;,
  0.000000;0.000000;,
  1.000000;0.000000;,
  0.000000;0.000000;,
  1.000000;0.000000;,
  1.000000;1.000000;,
  0.000000;1.000000;,
  0.000000;0.000000;,
  1.000000;0.000000;,
  1.000000;1.000000;,
  0.000000;1.000000;,
  0.000000;0.960650;,
  0.000000;0.000000;,
  1.000000;0.960650;,
  0.000000;1.000000;,
  1.000000;0.960650;,
  0.000000;0.960650;,
  0.000000;0.000000;,
  1.000000;0.000000;,
  0.000000;0.960650;,
  0.000000;0.000000;,
  1.000000;0.000000;,
  1.000000;0.960650;,
  1.000000;1.000000;,
  0.000000;1.000000;,
  1.000000;0.960650;,
  1.000000;1.000000;,
  0.000000;0.960650;,
  1.000000;0.000000;,
  1.000000;1.000000;,
  1.000000;0.960650;,
  1.000000;1.000000;,
  0.000000;1.000000;,
  0.000000;1.000000;,
  0.000000;0.960650;;
 }
}
