xof 0302txt 0064
template Header {
 <3D82AB43-62DA-11cf-AB39-0020AF71E433>
 WORD major;
 WORD minor;
 DWORD flags;
}

template Vector {
 <3D82AB5E-62DA-11cf-AB39-0020AF71E433>
 FLOAT x;
 FLOAT y;
 FLOAT z;
}

template Coords2d {
 <F6F23F44-7686-11cf-8F52-0040333594A3>
 FLOAT u;
 FLOAT v;
}

template Matrix4x4 {
 <F6F23F45-7686-11cf-8F52-0040333594A3>
 array FLOAT matrix[16];
}

template ColorRGBA {
 <35FF44E0-6C7C-11cf-8F52-0040333594A3>
 FLOAT red;
 FLOAT green;
 FLOAT blue;
 FLOAT alpha;
}

template ColorRGB {
 <D3E16E81-7835-11cf-8F52-0040333594A3>
 FLOAT red;
 FLOAT green;
 FLOAT blue;
}

template IndexedColor {
 <1630B820-7842-11cf-8F52-0040333594A3>
 DWORD index;
 ColorRGBA indexColor;
}

template Boolean {
 <4885AE61-78E8-11cf-8F52-0040333594A3>
 WORD truefalse;
}

template Boolean2d {
 <4885AE63-78E8-11cf-8F52-0040333594A3>
 Boolean u;
 Boolean v;
}

template MaterialWrap {
 <4885AE60-78E8-11cf-8F52-0040333594A3>
 Boolean u;
 Boolean v;
}

template TextureFilename {
 <A42790E1-7810-11cf-8F52-0040333594A3>
 STRING filename;
}

template Material {
 <3D82AB4D-62DA-11cf-AB39-0020AF71E433>
 ColorRGBA faceColor;
 FLOAT power;
 ColorRGB specularColor;
 ColorRGB emissiveColor;
 [...]
}

template MeshFace {
 <3D82AB5F-62DA-11cf-AB39-0020AF71E433>
 DWORD nFaceVertexIndices;
 array DWORD faceVertexIndices[nFaceVertexIndices];
}

template MeshFaceWraps {
 <4885AE62-78E8-11cf-8F52-0040333594A3>
 DWORD nFaceWrapValues;
 Boolean2d faceWrapValues;
}

template MeshTextureCoords {
 <F6F23F40-7686-11cf-8F52-0040333594A3>
 DWORD nTextureCoords;
 array Coords2d textureCoords[nTextureCoords];
}

template MeshMaterialList {
 <F6F23F42-7686-11cf-8F52-0040333594A3>
 DWORD nMaterials;
 DWORD nFaceIndexes;
 array DWORD faceIndexes[nFaceIndexes];
 [Material]
}

template MeshNormals {
 <F6F23F43-7686-11cf-8F52-0040333594A3>
 DWORD nNormals;
 array Vector normals[nNormals];
 DWORD nFaceNormals;
 array MeshFace faceNormals[nFaceNormals];
}

template MeshVertexColors {
 <1630B821-7842-11cf-8F52-0040333594A3>
 DWORD nVertexColors;
 array IndexedColor vertexColors[nVertexColors];
}

template Mesh {
 <3D82AB44-62DA-11cf-AB39-0020AF71E433>
 DWORD nVertices;
 array Vector vertices[nVertices];
 DWORD nFaces;
 array MeshFace faces[nFaces];
 [...]
}

Header{
1;
0;
1;
}

Mesh {
 148;
 -4.08890;314.67279;-30.36425;,
 4.08890;314.67279;-30.36425;,
 4.08890;125.32715;-30.36425;,
 -4.08890;125.32715;-30.36425;,
 4.08890;314.67279;-30.36425;,
 4.08890;314.67279;30.36425;,
 4.08890;125.32715;30.36425;,
 4.08890;125.32715;-30.36425;,
 4.08890;314.67279;30.36425;,
 -4.08890;314.67279;30.36425;,
 -4.08890;125.32715;30.36425;,
 4.08890;125.32715;30.36425;,
 -4.08890;314.67279;30.36425;,
 -4.08890;314.67279;-30.36425;,
 -4.08890;125.32715;-30.36425;,
 -4.08890;125.32715;30.36425;,
 4.08890;314.67279;-30.36425;,
 -4.08890;314.67279;-30.36425;,
 -4.08890;125.32715;-30.36425;,
 4.08890;125.32715;-30.36425;,
 -134.22980;117.13370;-40.21855;,
 -134.22980;8.20000;50.21855;,
 -134.22980;317.86514;50.21855;,
 -134.22980;133.51770;-40.21855;,
 134.22980;117.13370;-40.21855;,
 134.22980;133.51770;-40.21855;,
 134.22980;317.86514;50.21855;,
 134.22980;8.20000;50.21855;,
 -134.22980;133.51770;-68.17070;,
 -134.22980;117.13370;-68.17070;,
 -134.22980;117.13370;-40.21855;,
 -134.22980;133.51770;-40.21855;,
 134.22980;117.13370;-68.17070;,
 134.22980;133.51770;-68.17070;,
 134.22980;133.51770;-40.21855;,
 134.22980;117.13370;-40.21855;,
 -134.22980;317.86514;50.21855;,
 134.22980;317.86514;50.21855;,
 134.22980;317.86514;-40.21855;,
 -134.22980;317.86514;-40.21855;,
 -134.22980;317.86514;50.21855;,
 -134.22980;8.20000;50.21855;,
 134.22980;8.20000;50.21855;,
 134.22980;317.86514;50.21855;,
 -123.87915;133.51770;-40.21855;,
 123.11035;133.51770;-40.21855;,
 134.22980;133.51770;-68.17070;,
 -134.22980;133.51770;-68.17070;,
 134.22980;117.13370;-68.17070;,
 -134.22980;117.13370;-68.17070;,
 134.22980;117.13370;-40.21855;,
 -134.22980;117.13370;-40.21855;,
 123.11035;302.92929;-40.21855;,
 134.22980;317.86514;-40.21855;,
 -123.87915;302.92929;-40.21855;,
 -134.22980;317.86514;-40.21855;,
 134.22980;317.86514;-40.21855;,
 -134.22980;317.86514;-40.21855;,
 123.11035;133.51770;30.38455;,
 123.11035;302.92929;30.38455;,
 -123.87915;133.51770;30.38455;,
 -123.87915;302.92929;30.38455;,
 -134.22980;8.20000;50.21855;,
 -134.22980;8.20000;-57.75010;,
 134.22980;8.20000;50.21855;,
 134.22980;8.20000;-57.75010;,
 134.22980;317.86514;50.21855;,
 134.22980;317.86514;-40.21855;,
 -134.22980;317.86514;50.21855;,
 -134.22980;317.86514;-40.21855;,
 134.22980;133.51770;-68.17070;,
 -134.22980;133.51770;-68.17070;,
 -132.23665;194.03615;-31.37710;,
 132.23665;194.03615;-31.37710;,
 132.23665;186.70821;-31.37710;,
 -132.23665;186.70821;-31.37710;,
 132.23665;194.03615;-31.37710;,
 132.23665;194.03615;32.13950;,
 132.23665;186.70821;32.13950;,
 132.23665;186.70821;-31.37710;,
 132.23665;194.03615;32.13950;,
 -132.23665;194.03615;32.13950;,
 -132.23665;186.70821;32.13950;,
 132.23665;186.70821;32.13950;,
 -132.23665;194.03615;32.13950;,
 -132.23665;194.03615;-31.37710;,
 -132.23665;186.70821;-31.37710;,
 -132.23665;186.70821;32.13950;,
 132.23665;194.03615;-31.37710;,
 -132.23665;194.03615;-31.37710;,
 -132.23665;186.70821;-31.37710;,
 132.23665;186.70821;-31.37710;,
 -132.23665;251.99530;-31.37710;,
 132.23665;251.99530;-31.37710;,
 132.23665;244.66730;-31.37710;,
 -132.23665;244.66730;-31.37710;,
 132.23665;251.99530;-31.37710;,
 132.23665;251.99530;32.13950;,
 132.23665;244.66730;32.13950;,
 132.23665;244.66730;-31.37710;,
 132.23665;251.99530;32.13950;,
 -132.23665;251.99530;32.13950;,
 -132.23665;244.66730;32.13950;,
 132.23665;244.66730;32.13950;,
 -132.23665;251.99530;32.13950;,
 -132.23665;251.99530;-31.37710;,
 -132.23665;244.66730;-31.37710;,
 -132.23665;244.66730;32.13950;,
 132.23665;251.99530;-31.37710;,
 -132.23665;251.99530;-31.37710;,
 -132.23665;244.66730;-31.37710;,
 132.23665;244.66730;-31.37710;,
 -121.48640;10.45870;-45.94825;,
 -121.48640;10.45870;40.94825;,
 -134.22980;8.20000;50.21855;,
 -134.22980;8.20000;-57.75010;,
 121.48640;10.45870;-45.94825;,
 134.22980;8.20000;-57.75010;,
 121.48640;10.45870;40.94825;,
 134.22980;8.20000;50.21855;,
 -121.48640;0.96910;-45.94825;,
 -121.48640;0.96910;40.94825;,
 121.48640;0.96910;-45.94825;,
 121.48640;0.96910;40.94825;,
 134.22980;117.13370;-57.75010;,
 -134.22980;117.13370;-57.75010;,
 -134.22980;8.20000;-57.75010;,
 134.22980;8.20000;-57.75010;,
 -127.06430;307.34119;-32.55855;,
 127.06430;307.34119;-32.55855;,
 127.06430;122.65885;-32.55855;,
 -127.06430;122.65885;-32.55855;,
 127.06430;307.34119;-32.55855;,
 127.06430;307.34119;-27.44145;,
 127.06430;122.65885;-27.44145;,
 127.06430;122.65885;-32.55855;,
 127.06430;307.34119;-27.44145;,
 -127.06430;307.34119;-27.44145;,
 -127.06430;122.65885;-27.44145;,
 127.06430;122.65885;-27.44145;,
 -127.06430;307.34119;-27.44145;,
 -127.06430;307.34119;-32.55855;,
 -127.06430;122.65885;-32.55855;,
 -127.06430;122.65885;-27.44145;,
 127.06430;307.34119;-32.55855;,
 -127.06430;307.34119;-32.55855;,
 -127.06430;122.65885;-32.55855;,
 127.06430;122.65885;-32.55855;;
 
 60;
 4;0,1,2,3;,
 4;4,5,6,7;,
 4;8,9,10,11;,
 4;12,13,14,15;,
 4;12,5,16,17;,
 4;18,19,6,15;,
 4;20,21,22,23;,
 4;24,25,26,27;,
 4;28,29,30,31;,
 4;32,33,34,35;,
 4;36,37,38,39;,
 4;40,41,42,43;,
 4;44,45,46,47;,
 4;47,46,48,49;,
 4;49,48,50,51;,
 4;52,53,34,45;,
 4;52,54,55,56;,
 4;54,44,31,57;,
 4;58,59,52,45;,
 4;60,58,45,44;,
 4;61,60,44,54;,
 4;59,61,54,52;,
 4;59,58,60,61;,
 3;62,20,63;,
 3;64,65,24;,
 3;66,25,67;,
 3;68,69,23;,
 3;70,45,34;,
 3;71,31,44;,
 4;72,73,74,75;,
 4;76,77,78,79;,
 4;80,81,82,83;,
 4;84,85,86,87;,
 4;84,77,88,89;,
 4;90,91,78,87;,
 4;92,93,94,95;,
 4;96,97,98,99;,
 4;100,101,102,103;,
 4;104,105,106,107;,
 4;104,97,108,109;,
 4;110,111,98,107;,
 4;112,113,114,115;,
 4;116,112,115,117;,
 4;118,116,117,119;,
 4;113,118,119,114;,
 4;120,121,113,112;,
 4;122,120,112,116;,
 4;123,122,116,118;,
 4;121,123,118,113;,
 4;121,120,122,123;,
 4;124,125,51,50;,
 4;126,125,124,127;,
 3;127,124,50;,
 3;126,51,125;,
 4;128,129,130,131;,
 4;132,133,134,135;,
 4;136,137,138,139;,
 4;140,141,142,143;,
 4;140,133,144,145;,
 4;146,147,134,143;;
 
 MeshMaterialList {
  6;
  60;
  0,
  0,
  0,
  0,
  0,
  0,
  0,
  0,
  1,
  1,
  0,
  0,
  1,
  1,
  1,
  0,
  0,
  0,
  0,
  1,
  0,
  0,
  0,
  0,
  0,
  0,
  0,
  1,
  1,
  0,
  0,
  0,
  0,
  0,
  0,
  0,
  0,
  0,
  0,
  0,
  0,
  0,
  0,
  0,
  0,
  1,
  1,
  1,
  1,
  1,
  0,
  0,
  0,
  0,
  2,
  2,
  2,
  2,
  2,
  2;;
  Material {
   0.674400;0.674400;0.674400;1.000000;;
   20.000000;
   0.560000;0.560000;0.560000;;
   0.000000;0.000000;0.000000;;
  }
  Material {
   0.075200;0.075200;0.075200;1.000000;;
   9.000000;
   0.790000;0.790000;0.790000;;
   0.000000;0.000000;0.000000;;
  }
  Material {
   0.571200;0.775200;0.800000;0.510000;;
   5.000000;
   0.530000;0.530000;0.530000;;
   0.035700;0.048450;0.050000;;
  }
  Material {
   0.668000;0.668000;0.668000;0.370000;;
   5.000000;
   0.000000;0.000000;0.000000;;
   0.000000;0.000000;0.000000;;
  }
  Material {
   0.408000;0.106000;0.584000;1.000000;;
   5.000000;
   0.390000;0.390000;0.390000;;
   0.285600;0.074200;0.408800;;
  }
  Material {
   0.000000;0.460800;0.800000;1.000000;;
   5.000000;
   0.000000;0.000000;0.000000;;
   0.000000;0.576000;1.000000;;
  }
 }
 MeshNormals {
  16;
  0.000000;0.000000;-1.000000;,
  1.000000;0.000000;0.000000;,
  0.000000;0.000000;1.000000;,
  -1.000000;0.000000;0.000000;,
  0.000000;1.000000;0.000000;,
  -0.088223;-0.988887;-0.119665;,
  -0.087989;-0.991603;0.094770;,
  0.088223;-0.988887;-0.119665;,
  0.087989;-0.991603;0.094770;,
  0.000000;-1.000000;-0.000000;,
  0.000000;0.000000;-1.000000;,
  1.000000;0.000000;0.000000;,
  0.000000;0.000000;1.000000;,
  -1.000000;0.000000;0.000000;,
  0.000000;1.000000;0.000000;,
  0.000000;-1.000000;-0.000000;;
  60;
  4;0,0,0,0;,
  4;1,1,1,1;,
  4;2,2,2,2;,
  4;3,3,3,3;,
  4;4,4,4,4;,
  4;9,9,9,9;,
  4;3,3,3,3;,
  4;1,1,1,1;,
  4;3,3,3,3;,
  4;1,1,1,1;,
  4;4,4,4,4;,
  4;2,2,2,2;,
  4;4,4,4,4;,
  4;0,0,0,0;,
  4;9,9,9,9;,
  4;0,0,0,0;,
  4;0,0,0,0;,
  4;0,0,0,0;,
  4;3,3,3,3;,
  4;4,4,4,4;,
  4;1,1,1,1;,
  4;9,9,9,9;,
  4;0,0,0,0;,
  3;3,3,3;,
  3;1,1,1;,
  3;1,1,1;,
  3;3,3,3;,
  3;4,4,4;,
  3;4,4,4;,
  4;0,0,0,0;,
  4;1,1,1,1;,
  4;2,2,2,2;,
  4;3,3,3,3;,
  4;4,4,4,4;,
  4;9,9,9,9;,
  4;0,0,0,0;,
  4;1,1,1,1;,
  4;2,2,2,2;,
  4;3,3,3,3;,
  4;4,4,4,4;,
  4;9,9,9,9;,
  4;8,7,7,8;,
  4;6,8,8,6;,
  4;5,6,6,5;,
  4;7,5,5,7;,
  4;3,3,3,3;,
  4;0,0,0,0;,
  4;1,1,1,1;,
  4;2,2,2,2;,
  4;9,9,9,9;,
  4;4,4,4,4;,
  4;0,0,0,0;,
  3;1,1,1;,
  3;3,3,3;,
  4;10,10,10,10;,
  4;11,11,11,11;,
  4;12,12,12,12;,
  4;13,13,13,13;,
  4;14,14,14,14;,
  4;15,15,15,15;;
 }
 MeshTextureCoords {
  148;
  0.000000;0.000000;,
  1.000000;0.000000;,
  1.000000;1.000000;,
  0.000000;1.000000;,
  0.000000;0.000000;,
  1.000000;0.000000;,
  1.000000;1.000000;,
  0.000000;1.000000;,
  0.000000;0.000000;,
  1.000000;0.000000;,
  1.000000;1.000000;,
  0.000000;1.000000;,
  0.000000;0.000000;,
  1.000000;0.000000;,
  1.000000;1.000000;,
  0.000000;1.000000;,
  1.000000;1.000000;,
  0.000000;1.000000;,
  0.000000;0.000000;,
  1.000000;0.000000;,
  1.000000;0.654150;,
  0.000000;0.654150;,
  0.000000;0.596380;,
  1.000000;0.596380;,
  0.000000;0.654150;,
  0.000000;0.596380;,
  1.000000;0.596380;,
  1.000000;0.654150;,
  0.000000;0.596380;,
  0.000000;0.654150;,
  0.000000;0.654150;,
  0.000000;0.596380;,
  1.000000;0.654150;,
  1.000000;0.596380;,
  1.000000;0.596380;,
  1.000000;0.654150;,
  0.094500;0.000000;,
  0.902630;0.000000;,
  0.902630;1.000000;,
  0.094500;1.000000;,
  0.905500;0.596380;,
  0.905500;0.654150;,
  0.097370;0.654150;,
  0.097370;0.596380;,
  0.094500;0.596380;,
  0.902630;0.596380;,
  0.902630;0.596380;,
  0.094500;0.596380;,
  0.902630;0.654150;,
  0.094500;0.654150;,
  0.902630;0.654150;,
  0.094500;0.654150;,
  0.902630;0.052670;,
  1.000000;0.052670;,
  0.094500;0.052670;,
  0.094500;0.000000;,
  0.902630;0.000000;,
  0.000000;0.052670;,
  0.902630;0.596380;,
  0.902630;0.052670;,
  0.094500;0.596380;,
  0.094500;0.052670;,
  0.000000;0.827080;,
  1.000000;1.000000;,
  1.000000;0.827080;,
  0.000000;1.000000;,
  1.000000;0.324520;,
  0.000000;0.052670;,
  0.000000;0.324520;,
  1.000000;0.052670;,
  0.951320;0.596380;,
  0.047250;0.596380;,
  0.000000;0.000000;,
  1.000000;0.000000;,
  1.000000;1.000000;,
  0.000000;1.000000;,
  0.000000;0.000000;,
  1.000000;0.000000;,
  1.000000;1.000000;,
  0.000000;1.000000;,
  0.000000;0.000000;,
  1.000000;0.000000;,
  1.000000;1.000000;,
  0.000000;1.000000;,
  0.000000;0.000000;,
  1.000000;0.000000;,
  1.000000;1.000000;,
  0.000000;1.000000;,
  1.000000;1.000000;,
  0.000000;1.000000;,
  0.000000;0.000000;,
  1.000000;0.000000;,
  0.000000;0.000000;,
  1.000000;0.000000;,
  1.000000;1.000000;,
  0.000000;1.000000;,
  0.000000;0.000000;,
  1.000000;0.000000;,
  1.000000;1.000000;,
  0.000000;1.000000;,
  0.000000;0.000000;,
  1.000000;0.000000;,
  1.000000;1.000000;,
  0.000000;1.000000;,
  0.000000;0.000000;,
  1.000000;0.000000;,
  1.000000;1.000000;,
  0.000000;1.000000;,
  1.000000;1.000000;,
  0.000000;1.000000;,
  0.000000;0.000000;,
  1.000000;0.000000;,
  0.094500;0.000000;,
  0.094500;1.000000;,
  0.094500;1.000000;,
  0.094500;0.000000;,
  0.902630;0.000000;,
  0.902630;0.000000;,
  0.902630;1.000000;,
  0.902630;1.000000;,
  0.094500;0.000000;,
  0.094500;1.000000;,
  0.902630;0.000000;,
  0.902630;1.000000;,
  0.902630;0.654150;,
  0.094500;0.654150;,
  0.094500;1.000000;,
  0.902630;1.000000;,
  0.000000;0.000000;,
  1.000000;0.000000;,
  1.000000;1.000000;,
  0.000000;1.000000;,
  0.000000;0.000000;,
  1.000000;0.000000;,
  1.000000;1.000000;,
  0.000000;1.000000;,
  0.000000;0.000000;,
  1.000000;0.000000;,
  1.000000;1.000000;,
  0.000000;1.000000;,
  0.000000;0.000000;,
  1.000000;0.000000;,
  1.000000;1.000000;,
  0.000000;1.000000;,
  1.000000;1.000000;,
  0.000000;1.000000;,
  0.000000;0.000000;,
  1.000000;0.000000;;
 }
}
