xof 0302txt 0064
template Header {
 <3D82AB43-62DA-11cf-AB39-0020AF71E433>
 WORD major;
 WORD minor;
 DWORD flags;
}

template Vector {
 <3D82AB5E-62DA-11cf-AB39-0020AF71E433>
 FLOAT x;
 FLOAT y;
 FLOAT z;
}

template Coords2d {
 <F6F23F44-7686-11cf-8F52-0040333594A3>
 FLOAT u;
 FLOAT v;
}

template Matrix4x4 {
 <F6F23F45-7686-11cf-8F52-0040333594A3>
 array FLOAT matrix[16];
}

template ColorRGBA {
 <35FF44E0-6C7C-11cf-8F52-0040333594A3>
 FLOAT red;
 FLOAT green;
 FLOAT blue;
 FLOAT alpha;
}

template ColorRGB {
 <D3E16E81-7835-11cf-8F52-0040333594A3>
 FLOAT red;
 FLOAT green;
 FLOAT blue;
}

template IndexedColor {
 <1630B820-7842-11cf-8F52-0040333594A3>
 DWORD index;
 ColorRGBA indexColor;
}

template Boolean {
 <4885AE61-78E8-11cf-8F52-0040333594A3>
 WORD truefalse;
}

template Boolean2d {
 <4885AE63-78E8-11cf-8F52-0040333594A3>
 Boolean u;
 Boolean v;
}

template MaterialWrap {
 <4885AE60-78E8-11cf-8F52-0040333594A3>
 Boolean u;
 Boolean v;
}

template TextureFilename {
 <A42790E1-7810-11cf-8F52-0040333594A3>
 STRING filename;
}

template Material {
 <3D82AB4D-62DA-11cf-AB39-0020AF71E433>
 ColorRGBA faceColor;
 FLOAT power;
 ColorRGB specularColor;
 ColorRGB emissiveColor;
 [...]
}

template MeshFace {
 <3D82AB5F-62DA-11cf-AB39-0020AF71E433>
 DWORD nFaceVertexIndices;
 array DWORD faceVertexIndices[nFaceVertexIndices];
}

template MeshFaceWraps {
 <4885AE62-78E8-11cf-8F52-0040333594A3>
 DWORD nFaceWrapValues;
 Boolean2d faceWrapValues;
}

template MeshTextureCoords {
 <F6F23F40-7686-11cf-8F52-0040333594A3>
 DWORD nTextureCoords;
 array Coords2d textureCoords[nTextureCoords];
}

template MeshMaterialList {
 <F6F23F42-7686-11cf-8F52-0040333594A3>
 DWORD nMaterials;
 DWORD nFaceIndexes;
 array DWORD faceIndexes[nFaceIndexes];
 [Material]
}

template MeshNormals {
 <F6F23F43-7686-11cf-8F52-0040333594A3>
 DWORD nNormals;
 array Vector normals[nNormals];
 DWORD nFaceNormals;
 array MeshFace faceNormals[nFaceNormals];
}

template MeshVertexColors {
 <1630B821-7842-11cf-8F52-0040333594A3>
 DWORD nVertexColors;
 array IndexedColor vertexColors[nVertexColors];
}

template Mesh {
 <3D82AB44-62DA-11cf-AB39-0020AF71E433>
 DWORD nVertices;
 array Vector vertices[nVertices];
 DWORD nFaces;
 array MeshFace faces[nFaces];
 [...]
}

Header{
1;
0;
1;
}

Mesh {
 744;
 -39.92025;192.61005;-2.07950;,
 -39.92025;192.61005;-11.91585;,
 -32.96490;192.61005;-9.03485;,
 -39.92025;192.61005;-2.07950;,
 -30.08390;192.61005;-2.07950;,
 -39.92025;192.61005;-2.07950;,
 -32.96490;192.61005;4.87585;,
 -39.92025;192.61005;-2.07950;,
 -39.92025;192.61005;7.75685;,
 -39.92025;192.61005;-2.07950;,
 -46.87560;192.61005;4.87580;,
 -39.92025;192.61005;-2.07950;,
 -49.75655;192.61005;-2.07950;,
 -39.92025;192.61005;-2.07950;,
 -46.87560;192.61005;-9.03485;,
 -39.92025;192.61005;-2.07950;,
 -39.92025;192.61005;-11.91585;,
 -39.92025;195.52071;-14.91845;,
 -30.84170;195.52071;-11.15805;,
 -27.08125;195.52071;-2.07950;,
 -30.84170;195.52071;6.99905;,
 -39.92025;195.52071;10.75945;,
 -48.99875;195.52071;6.99905;,
 -52.75920;195.52071;-2.07950;,
 -48.99875;195.52071;-11.15805;,
 -39.92025;195.52071;-14.91845;,
 -39.92025;200.43884;-18.55350;,
 -28.27135;200.43884;-13.72840;,
 -23.44615;200.43884;-2.07950;,
 -28.27135;200.43884;9.56940;,
 -39.92025;200.43884;14.39455;,
 -51.56910;200.43884;9.56940;,
 -56.39425;200.43884;-2.07950;,
 -51.56910;200.43884;-13.72840;,
 -39.92025;200.43884;-18.55350;,
 -39.92025;205.47580;-18.98575;,
 -27.96570;205.47580;-14.03400;,
 -23.01400;205.47580;-2.07950;,
 -27.96570;205.47580;9.87500;,
 -39.92025;205.47580;14.82670;,
 -51.87470;205.47580;9.87500;,
 -56.82645;205.47580;-2.07950;,
 -51.87470;205.47580;-14.03400;,
 -39.92025;205.47580;-18.98575;,
 -39.92025;211.08705;-17.74110;,
 -28.84580;211.08705;-13.15390;,
 -24.25860;211.08705;-2.07950;,
 -28.84580;211.08705;8.99490;,
 -39.92025;211.08705;13.58210;,
 -50.99470;211.08705;8.99490;,
 -55.58185;211.08705;-2.07950;,
 -50.99470;211.08705;-13.15390;,
 -39.92025;211.08705;-17.74110;,
 -39.91975;213.22420;-2.08010;,
 -39.91975;213.22420;-2.08010;,
 -39.91975;213.22420;-2.08010;,
 -39.91975;213.22420;-2.08010;,
 -39.91975;213.22420;-2.08010;,
 -39.91975;213.22420;-2.08010;,
 -39.91975;213.22420;-2.08010;,
 -39.92025;193.64735;-2.07950;,
 -32.96490;193.64735;-9.03485;,
 -39.92025;193.64735;-11.91585;,
 -39.92025;193.64735;-2.07950;,
 -30.08390;193.64735;-2.07950;,
 -39.92025;193.64735;-2.07950;,
 -32.96490;193.64735;4.87585;,
 -39.92025;193.64735;-2.07950;,
 -39.92025;193.64735;7.75685;,
 -39.92025;193.64735;-2.07950;,
 -46.87560;193.64735;4.87580;,
 -39.92025;193.64735;-2.07950;,
 -49.75655;193.64735;-2.07950;,
 -39.92025;193.64735;-2.07950;,
 -46.87560;193.64735;-9.03485;,
 -39.92025;193.64735;-2.07950;,
 -39.92025;193.64735;-11.91585;,
 -30.84170;196.63850;-11.15805;,
 -39.92025;196.63850;-14.91845;,
 -27.08125;196.63850;-2.07950;,
 -30.84170;196.63850;6.99905;,
 -39.92025;196.63850;10.75945;,
 -48.99875;196.63850;6.99905;,
 -52.75920;196.63850;-2.07950;,
 -48.99875;196.63850;-11.15805;,
 -39.92025;196.63850;-14.91845;,
 -29.37725;200.57304;-12.62245;,
 -39.92025;200.57304;-16.98950;,
 -25.01020;200.57304;-2.07950;,
 -29.37725;200.57304;8.46345;,
 -39.92025;200.57304;12.83050;,
 -50.46320;200.57304;8.46345;,
 -54.83030;200.57304;-2.07950;,
 -50.46320;200.57304;-12.62245;,
 -39.92025;200.57304;-16.98950;,
 -29.07165;205.61005;-12.92810;,
 -39.92025;205.61005;-17.42170;,
 -24.57800;205.61005;-2.07950;,
 -29.07165;205.61005;8.76910;,
 -39.92025;205.61005;13.26270;,
 -50.76885;205.61005;8.76910;,
 -55.26245;205.61005;-2.07950;,
 -50.76885;205.61005;-12.92810;,
 -39.92025;205.61005;-17.42170;,
 -29.85175;211.20911;-12.14800;,
 -39.92025;211.20911;-16.31855;,
 -25.68120;211.20911;-2.07950;,
 -29.85175;211.20911;7.98900;,
 -39.92025;211.20911;12.15955;,
 -49.98875;211.20911;7.98900;,
 -54.15930;211.20911;-2.07950;,
 -49.98875;211.20911;-12.14800;,
 -39.92025;211.20911;-16.31855;,
 -39.91975;213.22420;-2.08010;,
 -39.91975;213.22420;-2.08010;,
 -39.91975;213.22420;-2.08010;,
 -39.91975;213.22420;-2.08010;,
 -39.91975;213.22420;-2.08010;,
 -39.91975;213.22420;-2.08010;,
 -39.91975;213.22420;-2.08010;,
 -39.92025;192.96100;-2.07950;,
 -32.38705;192.96100;-9.61265;,
 -39.92025;192.96100;-12.73295;,
 -39.92025;192.96100;-2.07950;,
 -29.26680;192.96100;-2.07950;,
 -39.92025;192.96100;-2.07950;,
 -32.38705;192.96100;5.45365;,
 -39.92025;192.96100;-2.07950;,
 -39.92025;192.96100;8.57395;,
 -39.92025;192.96100;-2.07950;,
 -47.45340;192.96100;5.45365;,
 -39.92025;192.96100;-2.07950;,
 -50.57370;192.96100;-2.07950;,
 -39.92025;192.96100;-2.07950;,
 -47.45340;192.96100;-9.61265;,
 -39.92025;192.96100;-2.07950;,
 -39.92025;192.96100;-12.73295;,
 -39.92025;191.83755;-2.07950;,
 -39.92025;191.83755;-12.73295;,
 -32.38705;191.83755;-9.61265;,
 -39.92025;191.83755;-2.07950;,
 -29.26680;191.83755;-2.07950;,
 -39.92025;191.83755;-2.07950;,
 -32.38705;191.83755;5.45365;,
 -39.92025;191.83755;-2.07950;,
 -39.92025;191.83755;8.57395;,
 -39.92025;191.83755;-2.07950;,
 -47.45340;191.83755;5.45365;,
 -39.92025;191.83755;-2.07950;,
 -50.57370;191.83755;-2.07950;,
 -39.92025;191.83755;-2.07950;,
 -47.45340;191.83755;-9.61265;,
 -39.92025;191.83755;-2.07950;,
 -39.92025;191.83755;-12.73295;,
 -30.08755;196.20065;-11.91220;,
 -39.92025;196.20065;-15.98505;,
 -39.92025;194.98990;-15.98505;,
 -30.08755;194.98990;-11.91220;,
 -26.01470;196.20065;-2.07950;,
 -26.01470;194.98990;-2.07950;,
 -30.08755;196.20065;7.75320;,
 -30.08755;194.98990;7.75320;,
 -39.92025;196.20065;11.82600;,
 -39.92025;194.98990;11.82600;,
 -49.75290;196.20065;7.75320;,
 -49.75290;194.98990;7.75320;,
 -53.82575;196.20065;-2.07950;,
 -53.82575;194.98990;-2.07950;,
 -49.75290;196.20065;-11.91220;,
 -49.75290;194.98990;-11.91220;,
 -39.92025;196.20065;-15.98505;,
 -39.92025;194.98990;-15.98505;,
 -28.50145;200.46210;-13.49830;,
 -39.92025;200.46210;-18.22815;,
 -39.92025;200.31660;-19.92205;,
 -27.30365;200.31660;-14.69610;,
 -23.77160;200.46210;-2.07950;,
 -22.07765;200.31660;-2.07950;,
 -28.50145;200.46210;9.33930;,
 -27.30365;200.31660;10.53710;,
 -39.92025;200.46210;14.06910;,
 -39.92025;200.31660;15.76305;,
 -51.33905;200.46210;9.33930;,
 -52.53680;200.31660;10.53710;,
 -56.06885;200.46210;-2.07950;,
 -57.76280;200.31660;-2.07950;,
 -51.33905;200.46210;-13.49830;,
 -52.53680;200.31660;-14.69610;,
 -39.92025;200.46210;-18.22815;,
 -39.92025;200.31660;-19.92205;,
 -28.17045;205.91750;-13.82930;,
 -39.92025;205.91750;-18.69625;,
 -39.92025;205.77216;-20.39015;,
 -26.97265;205.77216;-15.02710;,
 -23.30350;205.91750;-2.07950;,
 -21.60960;205.77216;-2.07950;,
 -28.17045;205.91750;9.67030;,
 -26.97265;205.77216;10.86810;,
 -39.92025;205.91750;14.53720;,
 -39.92025;205.77216;16.23110;,
 -51.67000;205.91750;9.67030;,
 -52.86780;205.77216;10.86810;,
 -56.53695;205.91750;-2.07950;,
 -58.23085;205.77216;-2.07950;,
 -51.67000;205.91750;-13.82930;,
 -52.86780;205.77216;-15.02710;,
 -39.92025;205.91750;-18.69625;,
 -39.92025;205.77216;-20.39015;,
 -29.01530;211.98164;-12.98440;,
 -39.92025;211.98164;-17.50140;,
 -39.92025;211.84946;-19.04215;,
 -27.92585;211.84946;-14.07390;,
 -24.49835;211.98164;-2.07950;,
 -22.95760;211.84946;-2.07950;,
 -29.01530;211.98164;8.82540;,
 -27.92585;211.84946;9.91490;,
 -39.92025;211.98164;13.34240;,
 -39.92025;211.84946;14.88310;,
 -50.82515;211.98164;8.82540;,
 -51.91465;211.84946;9.91490;,
 -55.34215;211.98164;-2.07950;,
 -56.88290;211.84946;-2.07950;,
 -50.82515;211.98164;-12.98440;,
 -51.91465;211.84946;-14.07390;,
 -39.92025;211.98164;-17.50140;,
 -39.92025;211.84946;-19.04215;,
 -34.44070;219.17000;-7.55900;,
 -39.92025;219.17000;-9.82870;,
 -39.92025;219.10596;-10.57630;,
 -33.91210;219.10596;-8.08765;,
 -32.17105;219.17000;-2.07950;,
 -31.42345;219.10596;-2.07950;,
 -34.44070;219.17000;3.40000;,
 -33.91210;219.10596;3.92865;,
 -39.92025;219.17000;5.66970;,
 -39.92025;219.10596;6.41730;,
 -45.39975;219.17000;3.40000;,
 -45.92840;219.10596;3.92865;,
 -47.66945;219.17000;-2.07950;,
 -48.41705;219.10596;-2.07950;,
 -45.39975;219.17000;-7.55900;,
 -45.92840;219.10596;-8.08765;,
 -39.92025;219.17000;-9.82870;,
 -39.92025;219.10596;-10.57630;,
 -36.62390;224.00365;-5.37585;,
 -39.92025;224.00365;-6.74125;,
 -39.92025;223.96735;-7.16460;,
 -36.32450;223.96735;-5.67520;,
 -35.25850;224.00365;-2.07950;,
 -34.83515;223.96735;-2.07950;,
 -36.62390;224.00365;1.21685;,
 -36.32450;223.96735;1.51620;,
 -39.92025;224.00365;2.58225;,
 -39.92025;223.96735;3.00560;,
 -43.21660;224.00365;1.21685;,
 -43.51595;223.96735;1.51620;,
 -44.58200;224.00365;-2.07950;,
 -45.00535;223.96735;-2.07950;,
 -43.21660;224.00365;-5.37585;,
 -43.51595;223.96735;-5.67520;,
 -39.92025;224.00365;-6.74125;,
 -39.92025;223.96735;-7.16460;,
 -36.65815;229.94955;-5.34160;,
 -39.92025;229.94955;-6.69275;,
 -39.92025;229.91525;-7.09155;,
 -36.37620;229.91525;-5.62355;,
 -35.30695;229.94955;-2.07950;,
 -34.90820;229.91525;-2.07950;,
 -36.65815;229.94955;1.18265;,
 -36.37620;229.91525;1.46455;,
 -39.92025;229.94955;2.53375;,
 -39.92025;229.91525;2.93255;,
 -43.18230;229.94955;1.18265;,
 -43.46430;229.91525;1.46455;,
 -44.53350;229.94955;-2.07950;,
 -44.93230;229.91525;-2.07950;,
 -43.18230;229.94955;-5.34160;,
 -43.46430;229.91525;-5.62355;,
 -39.92025;229.94955;-6.69275;,
 -39.92025;229.91525;-7.09155;,
 -36.18915;237.67630;-5.81055;,
 -39.92025;237.67630;-7.35600;,
 -39.92025;237.64204;-7.75475;,
 -35.90720;237.64204;-6.09255;,
 -34.64375;237.67630;-2.07950;,
 -34.24495;237.64204;-2.07950;,
 -36.18915;237.67630;1.65150;,
 -35.90720;237.64204;1.93355;,
 -39.92025;237.67630;3.19700;,
 -39.92025;237.64204;3.59575;,
 -43.65130;237.67630;1.65150;,
 -43.93330;237.64204;1.93355;,
 -45.19675;237.67630;-2.07950;,
 -45.59550;237.64204;-2.07950;,
 -43.65130;237.67630;-5.81055;,
 -43.93330;237.64204;-6.09255;,
 -39.92025;237.67630;-7.35600;,
 -39.92025;237.64204;-7.75475;,
 87.32980;135.55405;-2.07950;,
 94.28515;135.55405;-9.03485;,
 87.32980;135.55405;-11.91585;,
 87.32980;135.55405;-2.07950;,
 97.16610;135.55405;-2.07950;,
 87.32980;135.55405;-2.07950;,
 94.28515;135.55405;4.87585;,
 87.32980;135.55405;-2.07950;,
 87.32980;135.55405;7.75685;,
 87.32980;135.55405;-2.07950;,
 80.37445;135.55405;4.87580;,
 87.32980;135.55405;-2.07950;,
 77.49345;135.55405;-2.07950;,
 87.32980;135.55405;-2.07950;,
 80.37445;135.55405;-9.03485;,
 87.32980;135.55405;-2.07950;,
 87.32980;135.55405;-11.91585;,
 87.32980;134.51669;-2.07950;,
 87.32980;134.51669;-11.91585;,
 94.28515;134.51669;-9.03485;,
 87.32980;134.51669;-2.07950;,
 97.16610;134.51669;-2.07950;,
 87.32980;134.51669;-2.07950;,
 94.28515;134.51669;4.87585;,
 87.32980;134.51669;-2.07950;,
 87.32980;134.51669;7.75685;,
 87.32980;134.51669;-2.07950;,
 80.37445;134.51669;4.87580;,
 87.32980;134.51669;-2.07950;,
 77.49345;134.51669;-2.07950;,
 87.32980;134.51669;-2.07950;,
 80.37445;134.51669;-9.03485;,
 87.32980;134.51669;-2.07950;,
 87.32980;134.51669;-11.91585;,
 96.40830;138.54520;-11.15805;,
 87.32980;138.54520;-14.91845;,
 87.32980;137.42740;-14.91845;,
 96.40830;137.42740;-11.15805;,
 100.16875;138.54520;-2.07950;,
 100.16875;137.42740;-2.07950;,
 96.40830;138.54520;6.99905;,
 96.40830;137.42740;6.99905;,
 87.32980;138.54520;10.75945;,
 87.32980;137.42740;10.75945;,
 78.25130;138.54520;6.99905;,
 78.25130;137.42740;6.99905;,
 74.49080;138.54520;-2.07950;,
 74.49080;137.42740;-2.07950;,
 78.25130;138.54520;-11.15805;,
 78.25130;137.42740;-11.15805;,
 87.32980;138.54520;-14.91845;,
 87.32980;137.42740;-14.91845;,
 97.87275;142.47971;-12.62245;,
 87.32980;142.47971;-16.98950;,
 87.32980;142.34550;-18.55350;,
 98.97870;142.34550;-13.72840;,
 102.23985;142.47971;-2.07950;,
 103.80385;142.34550;-2.07950;,
 97.87275;142.47971;8.46345;,
 98.97870;142.34550;9.56940;,
 87.32980;142.47971;12.83050;,
 87.32980;142.34550;14.39455;,
 76.78685;142.47971;8.46345;,
 75.68090;142.34550;9.56940;,
 72.41975;142.47971;-2.07950;,
 70.85575;142.34550;-2.07950;,
 76.78685;142.47971;-12.62245;,
 75.68090;142.34550;-13.72840;,
 87.32980;142.47971;-16.98950;,
 87.32980;142.34550;-18.55350;,
 98.17840;147.51669;-12.92810;,
 87.32980;147.51669;-17.42170;,
 87.32980;147.38251;-18.98575;,
 99.28430;147.38251;-14.03400;,
 102.67205;147.51669;-2.07950;,
 104.23600;147.38251;-2.07950;,
 98.17840;147.51669;8.76910;,
 99.28430;147.38251;9.87500;,
 87.32980;147.51669;13.26270;,
 87.32980;147.38251;14.82670;,
 76.48120;147.51669;8.76910;,
 75.37530;147.38251;9.87500;,
 71.98760;147.51669;-2.07950;,
 70.42355;147.38251;-2.07950;,
 76.48120;147.51669;-12.92810;,
 75.37530;147.38251;-14.03400;,
 87.32980;147.51669;-17.42170;,
 87.32980;147.38251;-18.98575;,
 97.39830;153.11575;-12.14800;,
 87.32980;153.11575;-16.31855;,
 87.32980;152.99374;-17.74110;,
 98.40420;152.99374;-13.15390;,
 101.56880;153.11575;-2.07950;,
 102.99140;152.99374;-2.07950;,
 97.39830;153.11575;7.98900;,
 98.40420;152.99374;8.99490;,
 87.32980;153.11575;12.15955;,
 87.32980;152.99374;13.58210;,
 77.26130;153.11575;7.98900;,
 76.25535;152.99374;8.99490;,
 73.09075;153.11575;-2.07950;,
 71.66820;152.99374;-2.07950;,
 77.26130;153.11575;-12.14800;,
 76.25535;152.99374;-13.15390;,
 87.32980;153.11575;-16.31855;,
 87.32980;152.99374;-17.74110;,
 87.33030;155.13084;-2.08010;,
 87.33030;155.13084;-2.08010;,
 87.33030;155.13084;-2.08010;,
 87.33030;155.13084;-2.08010;,
 87.33030;155.13084;-2.08010;,
 87.33030;155.13084;-2.08010;,
 87.33030;155.13084;-2.08010;,
 87.33030;155.13084;-2.08010;,
 87.33030;155.13084;-2.08010;,
 87.33030;155.13084;-2.08010;,
 87.33030;155.13084;-2.08010;,
 87.33030;155.13084;-2.08010;,
 87.33030;155.13084;-2.08010;,
 87.33030;155.13084;-2.08010;,
 87.32980;134.86771;-2.07950;,
 94.86295;134.86771;-9.61265;,
 87.32980;134.86771;-12.73295;,
 87.32980;134.86771;-2.07950;,
 97.98325;134.86771;-2.07950;,
 87.32980;134.86771;-2.07950;,
 94.86295;134.86771;5.45365;,
 87.32980;134.86771;-2.07950;,
 87.32980;134.86771;8.57395;,
 87.32980;134.86771;-2.07950;,
 79.79665;134.86771;5.45365;,
 87.32980;134.86771;-2.07950;,
 76.67635;134.86771;-2.07950;,
 87.32980;134.86771;-2.07950;,
 79.79665;134.86771;-9.61265;,
 87.32980;134.86771;-2.07950;,
 87.32980;134.86771;-12.73295;,
 87.32980;133.74425;-2.07950;,
 87.32980;133.74425;-12.73295;,
 94.86295;133.74425;-9.61265;,
 87.32980;133.74425;-2.07950;,
 97.98325;133.74425;-2.07950;,
 87.32980;133.74425;-2.07950;,
 94.86295;133.74425;5.45365;,
 87.32980;133.74425;-2.07950;,
 87.32980;133.74425;8.57395;,
 87.32980;133.74425;-2.07950;,
 79.79665;133.74425;5.45365;,
 87.32980;133.74425;-2.07950;,
 76.67635;133.74425;-2.07950;,
 87.32980;133.74425;-2.07950;,
 79.79665;133.74425;-9.61265;,
 87.32980;133.74425;-2.07950;,
 87.32980;133.74425;-12.73295;,
 97.16250;138.10735;-11.91220;,
 87.32980;138.10735;-15.98505;,
 87.32980;136.89661;-15.98505;,
 97.16250;136.89661;-11.91220;,
 101.23535;138.10735;-2.07950;,
 101.23535;136.89661;-2.07950;,
 97.16250;138.10735;7.75320;,
 97.16250;136.89661;7.75320;,
 87.32980;138.10735;11.82600;,
 87.32980;136.89661;11.82600;,
 77.49710;138.10735;7.75320;,
 77.49710;136.89661;7.75320;,
 73.42425;138.10735;-2.07950;,
 73.42425;136.89661;-2.07950;,
 77.49710;138.10735;-11.91220;,
 77.49710;136.89661;-11.91220;,
 87.32980;138.10735;-15.98505;,
 87.32980;136.89661;-15.98505;,
 98.74860;142.36874;-13.49830;,
 87.32980;142.36874;-18.22815;,
 87.32980;142.22330;-19.92205;,
 99.94640;142.22330;-14.69610;,
 103.47845;142.36874;-2.07950;,
 105.17235;142.22330;-2.07950;,
 98.74860;142.36874;9.33930;,
 99.94640;142.22330;10.53710;,
 87.32980;142.36874;14.06910;,
 87.32980;142.22330;15.76305;,
 75.91100;142.36874;9.33930;,
 74.71320;142.22330;10.53710;,
 71.18120;142.36874;-2.07950;,
 69.48725;142.22330;-2.07950;,
 75.91100;142.36874;-13.49830;,
 74.71320;142.22330;-14.69610;,
 87.32980;142.36874;-18.22815;,
 87.32980;142.22330;-19.92205;,
 99.07960;147.82420;-13.82930;,
 87.32980;147.82420;-18.69625;,
 87.32980;147.67880;-20.39015;,
 100.27740;147.67880;-15.02710;,
 103.94655;147.82420;-2.07950;,
 105.64045;147.67880;-2.07950;,
 99.07960;147.82420;9.67030;,
 100.27740;147.67880;10.86810;,
 87.32980;147.82420;14.53720;,
 87.32980;147.67880;16.23110;,
 75.58000;147.82420;9.67030;,
 74.38220;147.67880;10.86810;,
 70.71305;147.82420;-2.07950;,
 69.01915;147.67880;-2.07950;,
 75.58000;147.82420;-13.82930;,
 74.38220;147.67880;-15.02710;,
 87.32980;147.82420;-18.69625;,
 87.32980;147.67880;-20.39015;,
 98.23470;153.88831;-12.98440;,
 87.32980;153.88831;-17.50140;,
 87.32980;153.75615;-19.04215;,
 99.32420;153.75615;-14.07390;,
 102.75165;153.88831;-2.07950;,
 104.29245;153.75615;-2.07950;,
 98.23470;153.88831;8.82540;,
 99.32420;153.75615;9.91490;,
 87.32980;153.88831;13.34240;,
 87.32980;153.75615;14.88310;,
 76.42490;153.88831;8.82540;,
 75.33535;153.75615;9.91490;,
 71.90790;153.88831;-2.07950;,
 70.36715;153.75615;-2.07950;,
 76.42490;153.88831;-12.98440;,
 75.33535;153.75615;-14.07390;,
 87.32980;153.88831;-17.50140;,
 87.32980;153.75615;-19.04215;,
 92.80930;161.07671;-7.55900;,
 87.32980;161.07671;-9.82870;,
 87.32980;161.01265;-10.57630;,
 93.33795;161.01265;-8.08765;,
 95.07900;161.07671;-2.07950;,
 95.82655;161.01265;-2.07950;,
 92.80930;161.07671;3.40000;,
 93.33795;161.01265;3.92865;,
 87.32980;161.07671;5.66970;,
 87.32980;161.01265;6.41730;,
 81.85025;161.07671;3.40000;,
 81.32165;161.01265;3.92865;,
 79.58060;161.07671;-2.07950;,
 78.83300;161.01265;-2.07950;,
 81.85025;161.07671;-7.55900;,
 81.32165;161.01265;-8.08765;,
 87.32980;161.07671;-9.82870;,
 87.32980;161.01265;-10.57630;,
 90.62615;165.91035;-5.37585;,
 87.32980;165.91035;-6.74125;,
 87.32980;165.87399;-7.16460;,
 90.92550;165.87399;-5.67520;,
 91.99150;165.91035;-2.07950;,
 92.41490;165.87399;-2.07950;,
 90.62615;165.91035;1.21685;,
 90.92550;165.87399;1.51620;,
 87.32980;165.91035;2.58225;,
 87.32980;165.87399;3.00560;,
 84.03345;165.91035;1.21685;,
 83.73410;165.87399;1.51620;,
 82.66805;165.91035;-2.07950;,
 82.24470;165.87399;-2.07950;,
 84.03345;165.91035;-5.37585;,
 83.73410;165.87399;-5.67520;,
 87.32980;165.91035;-6.74125;,
 87.32980;165.87399;-7.16460;,
 90.59185;171.85625;-5.34160;,
 87.32980;171.85625;-6.69275;,
 87.32980;171.82190;-7.09155;,
 90.87385;171.82190;-5.62355;,
 91.94305;171.85625;-2.07950;,
 92.34185;171.82190;-2.07950;,
 90.59185;171.85625;1.18265;,
 90.87385;171.82190;1.46455;,
 87.32980;171.85625;2.53375;,
 87.32980;171.82190;2.93255;,
 84.06775;171.85625;1.18265;,
 83.78570;171.82190;1.46455;,
 82.71650;171.85625;-2.07950;,
 82.31775;171.82190;-2.07950;,
 84.06775;171.85625;-5.34160;,
 83.78570;171.82190;-5.62355;,
 87.32980;171.85625;-6.69275;,
 87.32980;171.82190;-7.09155;,
 91.06085;179.58299;-5.81055;,
 87.32980;179.58299;-7.35600;,
 87.32980;179.54875;-7.75475;,
 91.34280;179.54875;-6.09255;,
 92.60630;179.58299;-2.07950;,
 93.00505;179.54875;-2.07950;,
 91.06085;179.58299;1.65150;,
 91.34280;179.54875;1.93355;,
 87.32980;179.58299;3.19700;,
 87.32980;179.54875;3.59575;,
 83.59870;179.58299;1.65150;,
 83.31675;179.54875;1.93355;,
 82.05330;179.58299;-2.07950;,
 81.65450;179.54875;-2.07950;,
 83.59870;179.58299;-5.81055;,
 83.31675;179.54875;-6.09255;,
 87.32980;179.58299;-7.35600;,
 87.32980;179.54875;-7.75475;,
 -4.08890;314.67279;-30.36425;,
 4.08890;314.67279;-30.36425;,
 4.08890;125.32715;-30.36425;,
 -4.08890;125.32715;-30.36425;,
 4.08890;314.67279;-30.36425;,
 4.08890;314.67279;30.36425;,
 4.08890;125.32715;30.36425;,
 4.08890;125.32715;-30.36425;,
 4.08890;314.67279;30.36425;,
 -4.08890;314.67279;30.36425;,
 -4.08890;125.32715;30.36425;,
 4.08890;125.32715;30.36425;,
 -4.08890;314.67279;30.36425;,
 -4.08890;314.67279;-30.36425;,
 -4.08890;125.32715;-30.36425;,
 -4.08890;125.32715;30.36425;,
 4.08890;314.67279;-30.36425;,
 -4.08890;314.67279;-30.36425;,
 -4.08890;125.32715;-30.36425;,
 4.08890;125.32715;-30.36425;,
 -134.22980;117.13370;-40.21855;,
 -134.22980;8.20000;50.21855;,
 -134.22980;317.86514;50.21855;,
 -134.22980;133.51770;-40.21855;,
 134.22980;117.13370;-40.21855;,
 134.22980;133.51770;-40.21855;,
 134.22980;317.86514;50.21855;,
 134.22980;8.20000;50.21855;,
 -134.22980;133.51770;-68.17070;,
 -134.22980;117.13370;-68.17070;,
 -134.22980;117.13370;-40.21855;,
 -134.22980;133.51770;-40.21855;,
 134.22980;117.13370;-68.17070;,
 134.22980;133.51770;-68.17070;,
 134.22980;133.51770;-40.21855;,
 134.22980;117.13370;-40.21855;,
 -134.22980;317.86514;50.21855;,
 134.22980;317.86514;50.21855;,
 134.22980;317.86514;-40.21855;,
 -134.22980;317.86514;-40.21855;,
 -134.22980;317.86514;50.21855;,
 -134.22980;8.20000;50.21855;,
 134.22980;8.20000;50.21855;,
 134.22980;317.86514;50.21855;,
 -123.87915;133.51770;-40.21855;,
 123.11035;133.51770;-40.21855;,
 134.22980;133.51770;-68.17070;,
 -134.22980;133.51770;-68.17070;,
 134.22980;117.13370;-68.17070;,
 -134.22980;117.13370;-68.17070;,
 134.22980;117.13370;-40.21855;,
 -134.22980;117.13370;-40.21855;,
 123.11035;302.92929;-40.21855;,
 134.22980;317.86514;-40.21855;,
 -123.87915;302.92929;-40.21855;,
 -134.22980;317.86514;-40.21855;,
 134.22980;317.86514;-40.21855;,
 -134.22980;317.86514;-40.21855;,
 123.11035;133.51770;30.38455;,
 123.11035;302.92929;30.38455;,
 -123.87915;133.51770;30.38455;,
 -123.87915;302.92929;30.38455;,
 -134.22980;8.20000;50.21855;,
 -134.22980;8.20000;-57.75010;,
 134.22980;8.20000;50.21855;,
 134.22980;8.20000;-57.75010;,
 134.22980;317.86514;50.21855;,
 134.22980;317.86514;-40.21855;,
 -134.22980;317.86514;50.21855;,
 -134.22980;317.86514;-40.21855;,
 134.22980;133.51770;-68.17070;,
 -134.22980;133.51770;-68.17070;,
 -132.23665;194.03615;-31.37710;,
 132.23665;194.03615;-31.37710;,
 132.23665;186.70821;-31.37710;,
 -132.23665;186.70821;-31.37710;,
 132.23665;194.03615;-31.37710;,
 132.23665;194.03615;32.13950;,
 132.23665;186.70821;32.13950;,
 132.23665;186.70821;-31.37710;,
 132.23665;194.03615;32.13950;,
 -132.23665;194.03615;32.13950;,
 -132.23665;186.70821;32.13950;,
 132.23665;186.70821;32.13950;,
 -132.23665;194.03615;32.13950;,
 -132.23665;194.03615;-31.37710;,
 -132.23665;186.70821;-31.37710;,
 -132.23665;186.70821;32.13950;,
 132.23665;194.03615;-31.37710;,
 -132.23665;194.03615;-31.37710;,
 -132.23665;186.70821;-31.37710;,
 132.23665;186.70821;-31.37710;,
 -132.23665;251.99530;-31.37710;,
 132.23665;251.99530;-31.37710;,
 132.23665;244.66730;-31.37710;,
 -132.23665;244.66730;-31.37710;,
 132.23665;251.99530;-31.37710;,
 132.23665;251.99530;32.13950;,
 132.23665;244.66730;32.13950;,
 132.23665;244.66730;-31.37710;,
 132.23665;251.99530;32.13950;,
 -132.23665;251.99530;32.13950;,
 -132.23665;244.66730;32.13950;,
 132.23665;244.66730;32.13950;,
 -132.23665;251.99530;32.13950;,
 -132.23665;251.99530;-31.37710;,
 -132.23665;244.66730;-31.37710;,
 -132.23665;244.66730;32.13950;,
 132.23665;251.99530;-31.37710;,
 -132.23665;251.99530;-31.37710;,
 -132.23665;244.66730;-31.37710;,
 132.23665;244.66730;-31.37710;,
 -121.48640;10.45870;-45.94825;,
 -121.48640;10.45870;40.94825;,
 -134.22980;8.20000;50.21855;,
 -134.22980;8.20000;-57.75010;,
 121.48640;10.45870;-45.94825;,
 134.22980;8.20000;-57.75010;,
 121.48640;10.45870;40.94825;,
 134.22980;8.20000;50.21855;,
 -121.48640;0.96910;-45.94825;,
 -121.48640;0.96910;40.94825;,
 121.48640;0.96910;-45.94825;,
 121.48640;0.96910;40.94825;,
 134.22980;117.13370;-57.75010;,
 -134.22980;117.13370;-57.75010;,
 -134.22980;8.20000;-57.75010;,
 134.22980;8.20000;-57.75010;,
 -127.06430;307.34119;-32.55855;,
 127.06430;307.34119;-32.55855;,
 127.06430;122.65885;-32.55855;,
 -127.06430;122.65885;-32.55855;,
 127.06430;307.34119;-32.55855;,
 127.06430;307.34119;-27.44145;,
 127.06430;122.65885;-27.44145;,
 127.06430;122.65885;-32.55855;,
 127.06430;307.34119;-27.44145;,
 -127.06430;307.34119;-27.44145;,
 -127.06430;122.65885;-27.44145;,
 127.06430;122.65885;-27.44145;,
 -127.06430;307.34119;-27.44145;,
 -127.06430;307.34119;-32.55855;,
 -127.06430;122.65885;-32.55855;,
 -127.06430;122.65885;-27.44145;,
 127.06430;307.34119;-32.55855;,
 -127.06430;307.34119;-32.55855;,
 -127.06430;122.65885;-32.55855;,
 127.06430;122.65885;-32.55855;;
 
 556;
 3;0,1,2;,
 3;3,2,4;,
 3;5,4,6;,
 3;7,6,8;,
 3;9,8,10;,
 3;11,10,12;,
 3;13,12,14;,
 3;15,14,16;,
 4;17,18,2,1;,
 4;18,19,4,2;,
 4;19,20,6,4;,
 4;20,21,8,6;,
 4;21,22,10,8;,
 4;22,23,12,10;,
 4;23,24,14,12;,
 4;24,25,16,14;,
 4;26,27,18,17;,
 4;27,28,19,18;,
 4;28,29,20,19;,
 4;29,30,21,20;,
 4;30,31,22,21;,
 4;31,32,23,22;,
 4;32,33,24,23;,
 4;33,34,25,24;,
 4;35,36,27,26;,
 4;36,37,28,27;,
 4;37,38,29,28;,
 4;38,39,30,29;,
 4;39,40,31,30;,
 4;40,41,32,31;,
 4;41,42,33,32;,
 4;42,43,34,33;,
 4;44,45,36,35;,
 4;45,46,37,36;,
 4;46,47,38,37;,
 4;47,48,39,38;,
 4;48,49,40,39;,
 4;49,50,41,40;,
 4;50,51,42,41;,
 4;51,52,43,42;,
 3;53,51,50;,
 3;54,49,48;,
 3;55,48,47;,
 3;55,44,51;,
 3;56,47,46;,
 3;57,45,44;,
 3;58,46,45;,
 3;59,50,49;,
 3;60,61,62;,
 3;63,64,61;,
 3;65,66,64;,
 3;67,68,66;,
 3;69,70,68;,
 3;71,72,70;,
 3;73,74,72;,
 3;75,76,74;,
 4;77,78,62,61;,
 4;79,77,61,64;,
 4;80,79,64,66;,
 4;81,80,66,68;,
 4;82,81,68,70;,
 4;83,82,70,72;,
 4;84,83,72,74;,
 4;85,84,74,76;,
 4;86,87,78,77;,
 4;88,86,77,79;,
 4;89,88,79,80;,
 4;90,89,80,81;,
 4;91,90,81,82;,
 4;92,91,82,83;,
 4;93,92,83,84;,
 4;94,93,84,85;,
 4;95,96,87,86;,
 4;97,95,86,88;,
 4;98,97,88,89;,
 4;99,98,89,90;,
 4;100,99,90,91;,
 4;101,100,91,92;,
 4;102,101,92,93;,
 4;103,102,93,94;,
 4;104,105,96,95;,
 4;106,104,95,97;,
 4;107,106,97,98;,
 4;108,107,98,99;,
 4;109,108,99,100;,
 4;110,109,100,101;,
 4;111,110,101,102;,
 4;112,111,102,103;,
 3;113,108,109;,
 3;114,110,111;,
 3;115,107,108;,
 3;116,111,112;,
 3;117,106,107;,
 3;113,112,104;,
 3;118,104,106;,
 3;119,109,110;,
 3;120,121,122;,
 3;123,124,121;,
 3;125,126,124;,
 3;127,128,126;,
 3;129,130,128;,
 3;131,132,130;,
 3;133,134,132;,
 3;135,136,134;,
 3;137,138,139;,
 3;140,139,141;,
 3;142,141,143;,
 3;144,143,145;,
 3;146,145,147;,
 3;148,147,149;,
 3;150,149,151;,
 3;152,151,153;,
 4;154,155,122,121;,
 4;156,157,139,138;,
 4;158,154,121,124;,
 4;157,159,141,139;,
 4;160,158,124,126;,
 4;159,161,143,141;,
 4;162,160,126,128;,
 4;161,163,145,143;,
 4;164,162,128,130;,
 4;163,165,147,145;,
 4;166,164,130,132;,
 4;165,167,149,147;,
 4;168,166,132,134;,
 4;167,169,151,149;,
 4;170,168,134,136;,
 4;169,171,153,151;,
 4;172,173,155,154;,
 4;174,175,157,156;,
 4;176,172,154,158;,
 4;175,177,159,157;,
 4;178,176,158,160;,
 4;177,179,161,159;,
 4;180,178,160,162;,
 4;179,181,163,161;,
 4;182,180,162,164;,
 4;181,183,165,163;,
 4;184,182,164,166;,
 4;183,185,167,165;,
 4;186,184,166,168;,
 4;185,187,169,167;,
 4;188,186,168,170;,
 4;187,189,171,169;,
 4;190,191,173,172;,
 4;192,193,175,174;,
 4;194,190,172,176;,
 4;193,195,177,175;,
 4;196,194,176,178;,
 4;195,197,179,177;,
 4;198,196,178,180;,
 4;197,199,181,179;,
 4;200,198,180,182;,
 4;199,201,183,181;,
 4;202,200,182,184;,
 4;201,203,185,183;,
 4;204,202,184,186;,
 4;203,205,187,185;,
 4;206,204,186,188;,
 4;205,207,189,187;,
 4;208,209,191,190;,
 4;210,211,193,192;,
 4;212,208,190,194;,
 4;211,213,195,193;,
 4;214,212,194,196;,
 4;213,215,197,195;,
 4;216,214,196,198;,
 4;215,217,199,197;,
 4;218,216,198,200;,
 4;217,219,201,199;,
 4;220,218,200,202;,
 4;219,221,203,201;,
 4;222,220,202,204;,
 4;221,223,205,203;,
 4;224,222,204,206;,
 4;223,225,207,205;,
 4;226,227,209,208;,
 4;228,229,211,210;,
 4;230,226,208,212;,
 4;229,231,213,211;,
 4;232,230,212,214;,
 4;231,233,215,213;,
 4;234,232,214,216;,
 4;233,235,217,215;,
 4;236,234,216,218;,
 4;235,237,219,217;,
 4;238,236,218,220;,
 4;237,239,221,219;,
 4;240,238,220,222;,
 4;239,241,223,221;,
 4;242,240,222,224;,
 4;241,243,225,223;,
 4;244,245,227,226;,
 4;246,247,229,228;,
 4;248,244,226,230;,
 4;247,249,231,229;,
 4;250,248,230,232;,
 4;249,251,233,231;,
 4;252,250,232,234;,
 4;251,253,235,233;,
 4;254,252,234,236;,
 4;253,255,237,235;,
 4;256,254,236,238;,
 4;255,257,239,237;,
 4;258,256,238,240;,
 4;257,259,241,239;,
 4;260,258,240,242;,
 4;259,261,243,241;,
 4;262,263,245,244;,
 4;264,265,247,246;,
 4;266,262,244,248;,
 4;265,267,249,247;,
 4;268,266,248,250;,
 4;267,269,251,249;,
 4;270,268,250,252;,
 4;269,271,253,251;,
 4;272,270,252,254;,
 4;271,273,255,253;,
 4;274,272,254,256;,
 4;273,275,257,255;,
 4;276,274,256,258;,
 4;275,277,259,257;,
 4;278,276,258,260;,
 4;277,279,261,259;,
 4;280,281,263,262;,
 4;282,283,265,264;,
 4;281,280,283,282;,
 4;284,280,262,266;,
 4;283,285,267,265;,
 4;280,284,285,283;,
 4;286,284,266,268;,
 4;285,287,269,267;,
 4;284,286,287,285;,
 4;288,286,268,270;,
 4;287,289,271,269;,
 4;286,288,289,287;,
 4;290,288,270,272;,
 4;289,291,273,271;,
 4;288,290,291,289;,
 4;292,290,272,274;,
 4;291,293,275,273;,
 4;290,292,293,291;,
 4;294,292,274,276;,
 4;293,295,277,275;,
 4;292,294,295,293;,
 4;296,294,276,278;,
 4;295,297,279,277;,
 4;294,296,297,295;,
 3;298,299,300;,
 3;301,302,299;,
 3;303,304,302;,
 3;305,306,304;,
 3;307,308,306;,
 3;309,310,308;,
 3;311,312,310;,
 3;313,314,312;,
 3;315,316,317;,
 3;318,317,319;,
 3;320,319,321;,
 3;322,321,323;,
 3;324,323,325;,
 3;326,325,327;,
 3;328,327,329;,
 3;330,329,331;,
 4;332,333,300,299;,
 4;334,335,317,316;,
 4;336,332,299,302;,
 4;335,337,319,317;,
 4;338,336,302,304;,
 4;337,339,321,319;,
 4;340,338,304,306;,
 4;339,341,323,321;,
 4;342,340,306,308;,
 4;341,343,325,323;,
 4;344,342,308,310;,
 4;343,345,327,325;,
 4;346,344,310,312;,
 4;345,347,329,327;,
 4;348,346,312,314;,
 4;347,349,331,329;,
 4;350,351,333,332;,
 4;352,353,335,334;,
 4;354,350,332,336;,
 4;353,355,337,335;,
 4;356,354,336,338;,
 4;355,357,339,337;,
 4;358,356,338,340;,
 4;357,359,341,339;,
 4;360,358,340,342;,
 4;359,361,343,341;,
 4;362,360,342,344;,
 4;361,363,345,343;,
 4;364,362,344,346;,
 4;363,365,347,345;,
 4;366,364,346,348;,
 4;365,367,349,347;,
 4;368,369,351,350;,
 4;370,371,353,352;,
 4;372,368,350,354;,
 4;371,373,355,353;,
 4;374,372,354,356;,
 4;373,375,357,355;,
 4;376,374,356,358;,
 4;375,377,359,357;,
 4;378,376,358,360;,
 4;377,379,361,359;,
 4;380,378,360,362;,
 4;379,381,363,361;,
 4;382,380,362,364;,
 4;381,383,365,363;,
 4;384,382,364,366;,
 4;383,385,367,365;,
 4;386,387,369,368;,
 4;388,389,371,370;,
 4;390,386,368,372;,
 4;389,391,373,371;,
 4;392,390,372,374;,
 4;391,393,375,373;,
 4;394,392,374,376;,
 4;393,395,377,375;,
 4;396,394,376,378;,
 4;395,397,379,377;,
 4;398,396,378,380;,
 4;397,399,381,379;,
 4;400,398,380,382;,
 4;399,401,383,381;,
 4;402,400,382,384;,
 4;401,403,385,383;,
 3;404,394,396;,
 3;405,398,400;,
 3;406,401,399;,
 3;407,397,395;,
 3;408,392,394;,
 3;409,400,402;,
 3;410,395,393;,
 3;410,388,401;,
 3;411,390,392;,
 3;412,393,391;,
 3;404,402,386;,
 3;413,389,388;,
 3;414,386,390;,
 3;415,391,389;,
 3;416,396,398;,
 3;417,399,397;,
 3;418,419,420;,
 3;421,422,419;,
 3;423,424,422;,
 3;425,426,424;,
 3;427,428,426;,
 3;429,430,428;,
 3;431,432,430;,
 3;433,434,432;,
 3;435,436,437;,
 3;438,437,439;,
 3;440,439,441;,
 3;442,441,443;,
 3;444,443,445;,
 3;446,445,447;,
 3;448,447,449;,
 3;450,449,451;,
 4;452,453,420,419;,
 4;454,455,437,436;,
 4;456,452,419,422;,
 4;455,457,439,437;,
 4;458,456,422,424;,
 4;457,459,441,439;,
 4;460,458,424,426;,
 4;459,461,443,441;,
 4;462,460,426,428;,
 4;461,463,445,443;,
 4;464,462,428,430;,
 4;463,465,447,445;,
 4;466,464,430,432;,
 4;465,467,449,447;,
 4;468,466,432,434;,
 4;467,469,451,449;,
 4;470,471,453,452;,
 4;472,473,455,454;,
 4;474,470,452,456;,
 4;473,475,457,455;,
 4;476,474,456,458;,
 4;475,477,459,457;,
 4;478,476,458,460;,
 4;477,479,461,459;,
 4;480,478,460,462;,
 4;479,481,463,461;,
 4;482,480,462,464;,
 4;481,483,465,463;,
 4;484,482,464,466;,
 4;483,485,467,465;,
 4;486,484,466,468;,
 4;485,487,469,467;,
 4;488,489,471,470;,
 4;490,491,473,472;,
 4;492,488,470,474;,
 4;491,493,475,473;,
 4;494,492,474,476;,
 4;493,495,477,475;,
 4;496,494,476,478;,
 4;495,497,479,477;,
 4;498,496,478,480;,
 4;497,499,481,479;,
 4;500,498,480,482;,
 4;499,501,483,481;,
 4;502,500,482,484;,
 4;501,503,485,483;,
 4;504,502,484,486;,
 4;503,505,487,485;,
 4;506,507,489,488;,
 4;508,509,491,490;,
 4;510,506,488,492;,
 4;509,511,493,491;,
 4;512,510,492,494;,
 4;511,513,495,493;,
 4;514,512,494,496;,
 4;513,515,497,495;,
 4;516,514,496,498;,
 4;515,517,499,497;,
 4;518,516,498,500;,
 4;517,519,501,499;,
 4;520,518,500,502;,
 4;519,521,503,501;,
 4;522,520,502,504;,
 4;521,523,505,503;,
 4;524,525,507,506;,
 4;526,527,509,508;,
 4;528,524,506,510;,
 4;527,529,511,509;,
 4;530,528,510,512;,
 4;529,531,513,511;,
 4;532,530,512,514;,
 4;531,533,515,513;,
 4;534,532,514,516;,
 4;533,535,517,515;,
 4;536,534,516,518;,
 4;535,537,519,517;,
 4;538,536,518,520;,
 4;537,539,521,519;,
 4;540,538,520,522;,
 4;539,541,523,521;,
 4;542,543,525,524;,
 4;544,545,527,526;,
 4;546,542,524,528;,
 4;545,547,529,527;,
 4;548,546,528,530;,
 4;547,549,531,529;,
 4;550,548,530,532;,
 4;549,551,533,531;,
 4;552,550,532,534;,
 4;551,553,535,533;,
 4;554,552,534,536;,
 4;553,555,537,535;,
 4;556,554,536,538;,
 4;555,557,539,537;,
 4;558,556,538,540;,
 4;557,559,541,539;,
 4;560,561,543,542;,
 4;562,563,545,544;,
 4;564,560,542,546;,
 4;563,565,547,545;,
 4;566,564,546,548;,
 4;565,567,549,547;,
 4;568,566,548,550;,
 4;567,569,551,549;,
 4;570,568,550,552;,
 4;569,571,553,551;,
 4;572,570,552,554;,
 4;571,573,555,553;,
 4;574,572,554,556;,
 4;573,575,557,555;,
 4;576,574,556,558;,
 4;575,577,559,557;,
 4;578,579,561,560;,
 4;580,581,563,562;,
 4;579,578,581,580;,
 4;582,578,560,564;,
 4;581,583,565,563;,
 4;578,582,583,581;,
 4;584,582,564,566;,
 4;583,585,567,565;,
 4;582,584,585,583;,
 4;586,584,566,568;,
 4;585,587,569,567;,
 4;584,586,587,585;,
 4;588,586,568,570;,
 4;587,589,571,569;,
 4;586,588,589,587;,
 4;590,588,570,572;,
 4;589,591,573,571;,
 4;588,590,591,589;,
 4;592,590,572,574;,
 4;591,593,575,573;,
 4;590,592,593,591;,
 4;594,592,574,576;,
 4;593,595,577,575;,
 4;592,594,595,593;,
 4;596,597,598,599;,
 4;600,601,602,603;,
 4;604,605,606,607;,
 4;608,609,610,611;,
 4;608,601,612,613;,
 4;614,615,602,611;,
 4;616,617,618,619;,
 4;620,621,622,623;,
 4;624,625,626,627;,
 4;628,629,630,631;,
 4;632,633,634,635;,
 4;636,637,638,639;,
 4;640,641,642,643;,
 4;643,642,644,645;,
 4;645,644,646,647;,
 4;648,649,630,641;,
 4;648,650,651,652;,
 4;650,640,627,653;,
 4;654,655,648,641;,
 4;656,654,641,640;,
 4;657,656,640,650;,
 4;655,657,650,648;,
 4;655,654,656,657;,
 3;658,616,659;,
 3;660,661,620;,
 3;662,621,663;,
 3;664,665,619;,
 3;666,641,630;,
 3;667,627,640;,
 4;668,669,670,671;,
 4;672,673,674,675;,
 4;676,677,678,679;,
 4;680,681,682,683;,
 4;680,673,684,685;,
 4;686,687,674,683;,
 4;688,689,690,691;,
 4;692,693,694,695;,
 4;696,697,698,699;,
 4;700,701,702,703;,
 4;700,693,704,705;,
 4;706,707,694,703;,
 4;708,709,710,711;,
 4;712,708,711,713;,
 4;714,712,713,715;,
 4;709,714,715,710;,
 4;716,717,709,708;,
 4;718,716,708,712;,
 4;719,718,712,714;,
 4;717,719,714,709;,
 4;717,716,718,719;,
 4;720,721,647,646;,
 4;722,721,720,723;,
 3;723,720,646;,
 3;722,647,721;,
 4;724,725,726,727;,
 4;728,729,730,731;,
 4;732,733,734,735;,
 4;736,737,738,739;,
 4;736,729,740,741;,
 4;742,743,730,739;;
 
 MeshMaterialList {
  6;
  556;
  5,
  5,
  5,
  5,
  5,
  5,
  5,
  5,
  5,
  5,
  5,
  5,
  5,
  5,
  5,
  5,
  5,
  5,
  5,
  5,
  5,
  5,
  5,
  5,
  5,
  5,
  5,
  5,
  5,
  5,
  5,
  5,
  5,
  5,
  5,
  5,
  5,
  5,
  5,
  5,
  5,
  5,
  5,
  5,
  5,
  5,
  5,
  5,
  5,
  5,
  5,
  5,
  5,
  5,
  5,
  5,
  5,
  5,
  5,
  5,
  5,
  5,
  5,
  5,
  5,
  5,
  5,
  5,
  5,
  5,
  5,
  5,
  5,
  5,
  5,
  5,
  5,
  5,
  5,
  5,
  5,
  5,
  5,
  5,
  5,
  5,
  5,
  5,
  5,
  5,
  5,
  5,
  5,
  5,
  5,
  5,
  3,
  3,
  3,
  3,
  3,
  3,
  3,
  3,
  3,
  3,
  3,
  3,
  3,
  3,
  3,
  3,
  3,
  3,
  3,
  3,
  3,
  3,
  3,
  3,
  3,
  3,
  3,
  3,
  3,
  3,
  3,
  3,
  3,
  3,
  3,
  3,
  3,
  3,
  3,
  3,
  3,
  3,
  3,
  3,
  3,
  3,
  3,
  3,
  3,
  3,
  3,
  3,
  3,
  3,
  3,
  3,
  3,
  3,
  3,
  3,
  3,
  3,
  3,
  3,
  3,
  3,
  3,
  3,
  3,
  3,
  3,
  3,
  3,
  3,
  3,
  3,
  3,
  3,
  3,
  3,
  3,
  3,
  3,
  3,
  3,
  3,
  3,
  3,
  3,
  3,
  3,
  3,
  3,
  3,
  3,
  3,
  3,
  3,
  3,
  3,
  3,
  3,
  3,
  3,
  3,
  3,
  3,
  3,
  3,
  3,
  3,
  3,
  3,
  3,
  3,
  3,
  3,
  3,
  3,
  3,
  3,
  3,
  3,
  3,
  3,
  3,
  3,
  3,
  3,
  3,
  3,
  3,
  3,
  3,
  3,
  3,
  3,
  3,
  3,
  3,
  3,
  3,
  3,
  3,
  3,
  3,
  3,
  3,
  3,
  3,
  3,
  3,
  4,
  4,
  4,
  4,
  4,
  4,
  4,
  4,
  4,
  4,
  4,
  4,
  4,
  4,
  4,
  4,
  4,
  4,
  4,
  4,
  4,
  4,
  4,
  4,
  4,
  4,
  4,
  4,
  4,
  4,
  4,
  4,
  4,
  4,
  4,
  4,
  4,
  4,
  4,
  4,
  4,
  4,
  4,
  4,
  4,
  4,
  4,
  4,
  4,
  4,
  4,
  4,
  4,
  4,
  4,
  4,
  4,
  4,
  4,
  4,
  4,
  4,
  4,
  4,
  4,
  4,
  4,
  4,
  4,
  4,
  4,
  4,
  4,
  4,
  4,
  4,
  4,
  4,
  4,
  4,
  4,
  4,
  4,
  4,
  4,
  4,
  4,
  4,
  4,
  4,
  4,
  4,
  4,
  4,
  4,
  4,
  3,
  3,
  3,
  3,
  3,
  3,
  3,
  3,
  3,
  3,
  3,
  3,
  3,
  3,
  3,
  3,
  3,
  3,
  3,
  3,
  3,
  3,
  3,
  3,
  3,
  3,
  3,
  3,
  3,
  3,
  3,
  3,
  3,
  3,
  3,
  3,
  3,
  3,
  3,
  3,
  3,
  3,
  3,
  3,
  3,
  3,
  3,
  3,
  3,
  3,
  3,
  3,
  3,
  3,
  3,
  3,
  3,
  3,
  3,
  3,
  3,
  3,
  3,
  3,
  3,
  3,
  3,
  3,
  3,
  3,
  3,
  3,
  3,
  3,
  3,
  3,
  3,
  3,
  3,
  3,
  3,
  3,
  3,
  3,
  3,
  3,
  3,
  3,
  3,
  3,
  3,
  3,
  3,
  3,
  3,
  3,
  3,
  3,
  3,
  3,
  3,
  3,
  3,
  3,
  3,
  3,
  3,
  3,
  3,
  3,
  3,
  3,
  3,
  3,
  3,
  3,
  3,
  3,
  3,
  3,
  3,
  3,
  3,
  3,
  3,
  3,
  3,
  3,
  3,
  3,
  3,
  3,
  3,
  3,
  3,
  3,
  3,
  3,
  3,
  3,
  3,
  3,
  3,
  3,
  3,
  3,
  3,
  3,
  3,
  3,
  3,
  3,
  0,
  0,
  0,
  0,
  0,
  0,
  0,
  0,
  1,
  1,
  0,
  0,
  1,
  1,
  1,
  0,
  0,
  0,
  0,
  1,
  0,
  0,
  0,
  0,
  0,
  0,
  0,
  1,
  1,
  0,
  0,
  0,
  0,
  0,
  0,
  0,
  0,
  0,
  0,
  0,
  0,
  0,
  0,
  0,
  0,
  1,
  1,
  1,
  1,
  1,
  0,
  0,
  0,
  0,
  2,
  2,
  2,
  2,
  2,
  2;;
  Material {
   0.674400;0.674400;0.674400;1.000000;;
   20.000000;
   0.560000;0.560000;0.560000;;
   0.000000;0.000000;0.000000;;
  }
  Material {
   0.075200;0.075200;0.075200;1.000000;;
   9.000000;
   0.790000;0.790000;0.790000;;
   0.000000;0.000000;0.000000;;
  }
  Material {
   0.571200;0.775200;0.800000;0.510000;;
   5.000000;
   0.530000;0.530000;0.530000;;
   0.035700;0.048450;0.050000;;
  }
  Material {
   0.668000;0.668000;0.668000;0.370000;;
   5.000000;
   0.000000;0.000000;0.000000;;
   0.000000;0.000000;0.000000;;
  }
  Material {
   0.408000;0.106000;0.584000;1.000000;;
   5.000000;
   0.390000;0.390000;0.390000;;
   0.285600;0.074200;0.408800;;
  }
  Material {
   0.000000;0.460800;0.800000;1.000000;;
   5.000000;
   0.000000;0.000000;0.000000;;
   0.000000;0.576000;1.000000;;
  }
 }
 MeshNormals {
  520;
  -0.000000;-0.929833;-0.367983;,
  0.260201;-0.929833;-0.260202;,
  0.367980;-0.929834;-0.000000;,
  0.260201;-0.929833;0.260202;,
  -0.000000;-0.929833;0.367981;,
  -0.260202;-0.929833;0.260201;,
  -0.367982;-0.929833;0.000000;,
  -0.260203;-0.929833;-0.260202;,
  0.000000;-1.000000;-0.000000;,
  -0.000001;-0.658816;-0.752304;,
  0.531956;-0.658818;-0.531959;,
  0.752301;-0.658820;-0.000000;,
  0.531956;-0.658819;0.531959;,
  -0.000001;-0.658818;0.752302;,
  -0.531958;-0.658818;0.531957;,
  -0.752304;-0.658817;0.000000;,
  -0.531959;-0.658817;-0.531959;,
  -0.000001;-0.356692;-0.934222;,
  0.660593;-0.356692;-0.660596;,
  0.934222;-0.356692;-0.000000;,
  0.660594;-0.356691;0.660596;,
  -0.000001;-0.356689;0.934223;,
  -0.660596;-0.356689;0.660596;,
  -0.934223;-0.356690;0.000000;,
  -0.660595;-0.356691;-0.660595;,
  -0.000001;0.066512;-0.997786;,
  0.705541;0.066513;-0.705541;,
  0.997786;0.066514;0.000000;,
  0.705540;0.066515;0.705542;,
  -0.000001;0.066515;0.997785;,
  -0.705541;0.066512;0.705541;,
  -0.997786;0.066509;0.000000;,
  -0.705541;0.066510;-0.705541;,
  -0.000001;0.216548;-0.976272;,
  0.690329;0.216548;-0.690328;,
  0.976272;0.216546;0.000000;,
  0.690328;0.216546;0.690329;,
  -0.000001;0.216544;0.976273;,
  -0.690330;0.216540;0.690330;,
  -0.976274;0.216537;0.000000;,
  -0.690330;0.216542;-0.690329;,
  0.000002;1.000000;-0.000003;,
  0.000000;1.000000;0.000000;,
  0.000000;0.927445;0.373960;,
  -0.264428;0.927446;0.264429;,
  -0.373957;0.927446;0.000000;,
  -0.264428;0.927446;-0.264429;,
  0.000001;0.927445;-0.373958;,
  0.264429;0.927446;-0.264428;,
  0.373959;0.927445;-0.000000;,
  0.264429;0.927445;0.264429;,
  0.000001;0.595266;0.803529;,
  -0.568178;0.595268;0.568181;,
  -0.803526;0.595269;0.000000;,
  -0.568178;0.595268;-0.568181;,
  0.000001;0.595267;-0.803528;,
  0.568179;0.595269;-0.568179;,
  0.803526;0.595270;-0.000000;,
  0.568179;0.595268;0.568180;,
  0.000001;0.282728;0.959200;,
  -0.678256;0.282728;0.678258;,
  -0.959200;0.282728;0.000000;,
  -0.678256;0.282728;-0.678258;,
  0.000001;0.282728;-0.959200;,
  0.678255;0.282730;-0.678258;,
  0.959199;0.282731;0.000000;,
  0.678255;0.282730;0.678258;,
  0.000000;-0.054598;0.998508;,
  -0.706051;-0.054601;0.706053;,
  -0.998508;-0.054602;0.000000;,
  -0.706051;-0.054600;-0.706053;,
  0.000000;-0.054598;-0.998508;,
  0.706052;-0.054599;-0.706052;,
  0.998508;-0.054600;0.000000;,
  0.706052;-0.054599;0.706052;,
  0.000000;-0.193314;0.981137;,
  -0.693767;-0.193316;0.693769;,
  -0.981136;-0.193319;0.000000;,
  -0.693767;-0.193316;-0.693769;,
  0.000000;-0.193315;-0.981137;,
  0.693769;-0.193314;-0.693769;,
  0.981137;-0.193314;-0.000000;,
  0.693769;-0.193314;0.693769;,
  -0.000003;-1.000000;0.000003;,
  0.000000;0.927445;0.373961;,
  -0.264431;0.927444;0.264430;,
  -0.373963;0.927444;0.000000;,
  -0.264431;0.927444;-0.264431;,
  0.000000;0.927444;-0.373963;,
  0.264432;0.927444;-0.264432;,
  0.373964;0.927443;0.000000;,
  0.264431;0.927444;0.264430;,
  -0.000000;-0.929836;-0.367974;,
  0.260197;-0.929836;-0.260197;,
  0.367975;-0.929836;-0.000000;,
  0.260197;-0.929836;0.260197;,
  -0.000000;-0.929835;0.367976;,
  -0.260198;-0.929835;0.260198;,
  -0.367977;-0.929835;0.000000;,
  -0.260198;-0.929836;-0.260197;,
  0.000000;0.595265;0.803529;,
  -0.568182;0.595264;0.568181;,
  -0.803531;0.595263;0.000000;,
  -0.568181;0.595264;-0.568183;,
  0.000001;0.595263;-0.803531;,
  0.568181;0.595264;-0.568182;,
  0.803530;0.595264;-0.000000;,
  0.568182;0.595265;0.568180;,
  -0.000001;-0.658824;-0.752297;,
  0.531954;-0.658824;-0.531954;,
  0.752297;-0.658824;-0.000000;,
  0.531954;-0.658824;0.531955;,
  -0.000001;-0.658823;0.752298;,
  -0.531955;-0.658823;0.531955;,
  -0.752298;-0.658823;0.000000;,
  -0.531955;-0.658823;-0.531955;,
  0.000000;0.282727;0.959201;,
  -0.678257;0.282726;0.678257;,
  -0.959201;0.282727;0.000000;,
  -0.678256;0.282726;-0.678259;,
  0.000000;0.282726;-0.959201;,
  0.678257;0.282726;-0.678258;,
  0.959201;0.282726;-0.000000;,
  0.678258;0.282726;0.678256;,
  -0.000001;-0.356689;-0.934223;,
  0.660595;-0.356689;-0.660596;,
  0.934223;-0.356689;-0.000000;,
  0.660594;-0.356689;0.660597;,
  -0.000001;-0.356688;0.934224;,
  -0.660595;-0.356689;0.660596;,
  -0.934223;-0.356689;0.000000;,
  -0.660596;-0.356689;-0.660596;,
  0.000001;-0.054603;0.998508;,
  -0.706052;-0.054602;0.706052;,
  -0.998508;-0.054601;0.000000;,
  -0.706051;-0.054601;-0.706053;,
  0.000001;-0.054601;-0.998508;,
  0.706052;-0.054601;-0.706052;,
  0.998508;-0.054601;-0.000000;,
  0.706053;-0.054602;0.706051;,
  -0.000001;0.066515;-0.997785;,
  0.705540;0.066517;-0.705541;,
  0.997785;0.066518;0.000000;,
  0.705539;0.066518;0.705542;,
  -0.000001;0.066517;0.997785;,
  -0.705540;0.066516;0.705542;,
  -0.997786;0.066514;0.000000;,
  -0.705541;0.066514;-0.705541;,
  0.000001;-0.490235;0.871590;,
  -0.616309;-0.490234;0.616307;,
  -0.871592;-0.490233;0.000000;,
  -0.616309;-0.490233;-0.616308;,
  0.000001;-0.490233;-0.871592;,
  0.616309;-0.490232;-0.616309;,
  0.871592;-0.490232;0.000000;,
  0.616309;-0.490232;0.616308;,
  -0.000000;0.520127;-0.854089;,
  0.603932;0.520128;-0.603932;,
  0.854088;0.520128;0.000000;,
  0.603931;0.520128;0.603933;,
  -0.000000;0.520126;0.854089;,
  -0.603932;0.520126;0.603933;,
  -0.854090;0.520125;0.000000;,
  -0.603933;0.520126;-0.603932;,
  0.000001;-0.639913;0.768447;,
  -0.543375;-0.639914;0.543373;,
  -0.768447;-0.639913;-0.000000;,
  -0.543375;-0.639914;-0.543373;,
  0.000001;-0.639913;-0.768447;,
  0.543375;-0.639912;-0.543375;,
  0.768447;-0.639913;0.000000;,
  0.543375;-0.639912;0.543375;,
  -0.000000;0.673005;-0.739638;,
  0.523004;0.673004;-0.523003;,
  0.739640;0.673003;0.000000;,
  0.523004;0.673004;0.523003;,
  -0.000000;0.673004;0.739639;,
  -0.523003;0.673005;0.523004;,
  -0.739638;0.673005;0.000000;,
  -0.523003;0.673005;-0.523003;,
  0.000001;-0.287297;0.957842;,
  -0.677295;-0.287297;0.677297;,
  -0.957842;-0.287296;0.000001;,
  -0.677295;-0.287296;-0.677298;,
  0.000001;-0.287295;-0.957842;,
  0.677295;-0.287297;-0.677298;,
  0.957841;-0.287298;0.000001;,
  0.677295;-0.287298;0.677297;,
  -0.000001;0.310703;-0.950507;,
  0.672111;0.310703;-0.672109;,
  0.950507;0.310702;0.000000;,
  0.672111;0.310703;0.672109;,
  -0.000001;0.310703;0.950507;,
  -0.672110;0.310702;0.672110;,
  -0.950507;0.310703;0.000000;,
  -0.672110;0.310702;-0.672110;,
  0.000002;0.038740;0.999249;,
  -0.706574;0.038741;0.706578;,
  -0.999249;0.038741;0.000001;,
  -0.706573;0.038740;-0.706579;,
  0.000002;0.038738;-0.999249;,
  0.706574;0.038739;-0.706578;,
  0.999249;0.038739;0.000001;,
  0.706574;0.038739;0.706577;,
  -0.000001;-0.036677;-0.999327;,
  0.706631;-0.036677;-0.706631;,
  0.999327;-0.036677;-0.000000;,
  0.706631;-0.036677;0.706631;,
  -0.000001;-0.036677;0.999327;,
  -0.706631;-0.036677;0.706631;,
  -0.999327;-0.036677;0.000000;,
  -0.706631;-0.036677;-0.706631;,
  0.000002;0.085521;0.996336;,
  -0.704515;0.085521;0.704517;,
  -0.996337;0.085518;0.000000;,
  -0.704515;0.085516;-0.704518;,
  0.000002;0.085515;-0.996337;,
  0.704515;0.085518;-0.704518;,
  0.996336;0.085522;0.000000;,
  0.704515;0.085522;0.704518;,
  0.000000;-0.085521;-0.996336;,
  0.704514;-0.085523;-0.704518;,
  0.996336;-0.085524;-0.000000;,
  0.704514;-0.085523;0.704518;,
  0.000000;-0.085521;0.996336;,
  -0.704516;-0.085522;0.704516;,
  -0.996336;-0.085521;0.000000;,
  -0.704516;-0.085522;-0.704516;,
  -0.095604;0.990818;-0.095605;,
  -0.135200;0.990818;-0.000001;,
  -0.095600;0.990819;0.095599;,
  0.000001;0.990818;0.135200;,
  0.095604;0.990818;0.095603;,
  0.000001;0.990817;-0.135210;,
  0.135209;0.990817;-0.000001;,
  0.095609;0.990817;-0.095609;,
  -0.000001;-0.990135;-0.140117;,
  0.099077;-0.990135;-0.099076;,
  0.140118;-0.990135;0.000001;,
  0.099081;-0.990134;0.099083;,
  -0.099082;-0.990134;-0.099080;,
  -0.000001;-0.990133;0.140128;,
  -0.140127;-0.990134;0.000001;,
  -0.099087;-0.990133;0.099087;,
  0.000000;0.996331;-0.085588;,
  0.060519;0.996331;-0.060520;,
  0.085586;0.996331;-0.000000;,
  0.060517;0.996331;0.060517;,
  0.000000;0.996331;0.085582;,
  -0.060517;0.996331;0.060515;,
  -0.085586;0.996331;-0.000000;,
  -0.060519;0.996331;-0.060519;,
  0.000000;1.000000;0.000000;,
  -0.000000;0.927445;0.373960;,
  -0.264429;0.927445;0.264429;,
  -0.373959;0.927445;0.000000;,
  -0.264429;0.927445;-0.264429;,
  0.000000;0.927445;-0.373959;,
  0.264428;0.927446;-0.264429;,
  0.373959;0.927445;-0.000000;,
  0.264429;0.927445;0.264430;,
  0.000000;-0.929831;-0.367986;,
  0.260205;-0.929832;-0.260205;,
  0.367986;-0.929832;0.000000;,
  0.260205;-0.929832;0.260205;,
  -0.000000;-0.929832;0.367985;,
  -0.260204;-0.929832;0.260204;,
  -0.367984;-0.929832;0.000000;,
  -0.260204;-0.929832;-0.260206;,
  0.000000;-1.000000;-0.000000;,
  -0.000000;0.595267;0.803528;,
  -0.568178;0.595269;0.568179;,
  -0.803525;0.595271;0.000000;,
  -0.568178;0.595269;-0.568179;,
  0.000000;0.595268;-0.803527;,
  0.568178;0.595269;-0.568180;,
  0.803526;0.595270;-0.000000;,
  0.568178;0.595268;0.568181;,
  0.000000;-0.658814;-0.752306;,
  0.531959;-0.658816;-0.531960;,
  0.752303;-0.658817;0.000000;,
  0.531959;-0.658817;0.531959;,
  -0.000000;-0.658817;0.752303;,
  -0.531958;-0.658817;0.531959;,
  -0.752303;-0.658817;0.000000;,
  -0.531958;-0.658815;-0.531961;,
  -0.000000;0.282731;0.959199;,
  -0.678254;0.282733;0.678257;,
  -0.959198;0.282735;0.000000;,
  -0.678254;0.282733;-0.678257;,
  -0.000000;0.282730;-0.959199;,
  0.678255;0.282730;-0.678258;,
  0.959200;0.282730;0.000000;,
  0.678255;0.282730;0.678258;,
  0.000000;-0.356694;-0.934221;,
  0.660594;-0.356693;-0.660595;,
  0.934222;-0.356692;0.000000;,
  0.660595;-0.356691;0.660595;,
  0.000000;-0.356691;0.934223;,
  -0.660594;-0.356692;0.660596;,
  -0.934222;-0.356692;-0.000000;,
  -0.660593;-0.356693;-0.660596;,
  -0.000000;-0.054598;0.998508;,
  -0.706051;-0.054600;0.706053;,
  -0.998508;-0.054602;0.000000;,
  -0.706051;-0.054600;-0.706053;,
  -0.000000;-0.054598;-0.998508;,
  0.706052;-0.054599;-0.706052;,
  0.998508;-0.054601;-0.000000;,
  0.706052;-0.054599;0.706052;,
  0.000000;0.066514;-0.997786;,
  0.705541;0.066516;-0.705540;,
  0.997785;0.066517;0.000000;,
  0.705541;0.066517;0.705541;,
  0.000000;0.066517;0.997785;,
  -0.705540;0.066515;0.705541;,
  -0.997785;0.066514;0.000000;,
  -0.705541;0.066514;-0.705541;,
  -0.000000;-0.193314;0.981137;,
  -0.693768;-0.193319;0.693768;,
  -0.981135;-0.193323;0.000000;,
  -0.693768;-0.193319;-0.693768;,
  -0.000000;-0.193314;-0.981137;,
  0.693769;-0.193314;-0.693769;,
  0.981137;-0.193315;-0.000000;,
  0.693769;-0.193314;0.693769;,
  0.000000;0.216550;-0.976272;,
  0.690329;0.216549;-0.690328;,
  0.976272;0.216547;0.000000;,
  0.690329;0.216546;0.690329;,
  0.000000;0.216546;0.976273;,
  -0.690329;0.216545;0.690329;,
  -0.976272;0.216546;0.000000;,
  -0.690329;0.216547;-0.690328;,
  -0.000003;-1.000000;0.000003;,
  -0.000000;0.927445;0.373959;,
  -0.264429;0.927445;0.264429;,
  -0.373959;0.927445;0.000000;,
  -0.264429;0.927445;-0.264430;,
  -0.000000;0.927444;-0.373961;,
  0.264428;0.927445;-0.264430;,
  0.373958;0.927445;0.000000;,
  0.264428;0.927446;0.264429;,
  0.000000;-0.929836;-0.367974;,
  0.260197;-0.929836;-0.260197;,
  0.367974;-0.929836;-0.000000;,
  0.260197;-0.929836;0.260198;,
  0.000000;-0.929835;0.367976;,
  -0.260197;-0.929836;0.260198;,
  -0.367974;-0.929836;0.000000;,
  -0.260197;-0.929836;-0.260197;,
  -0.000000;0.595268;0.803527;,
  -0.568180;0.595268;0.568179;,
  -0.803527;0.595268;0.000000;,
  -0.568179;0.595267;-0.568181;,
  -0.000000;0.595266;-0.803529;,
  0.568179;0.595267;-0.568181;,
  0.803528;0.595267;0.000000;,
  0.568180;0.595268;0.568179;,
  0.000000;-0.658824;-0.752297;,
  0.531955;-0.658824;-0.531955;,
  0.752297;-0.658824;0.000000;,
  0.531954;-0.658824;0.531955;,
  0.000000;-0.658823;0.752298;,
  -0.531954;-0.658824;0.531955;,
  -0.752297;-0.658824;0.000000;,
  -0.531954;-0.658824;-0.531954;,
  -0.000000;0.282728;0.959200;,
  -0.678257;0.282728;0.678257;,
  -0.959200;0.282728;0.000000;,
  -0.678256;0.282728;-0.678258;,
  -0.000000;0.282728;-0.959200;,
  0.678256;0.282728;-0.678258;,
  0.959200;0.282728;0.000000;,
  0.678258;0.282728;0.678256;,
  0.000000;-0.356690;-0.934223;,
  0.660595;-0.356690;-0.660595;,
  0.934223;-0.356690;0.000000;,
  0.660595;-0.356690;0.660596;,
  0.000000;-0.356689;0.934223;,
  -0.660595;-0.356690;0.660596;,
  -0.934223;-0.356690;-0.000000;,
  -0.660595;-0.356690;-0.660595;,
  -0.000000;-0.054604;0.998508;,
  -0.706052;-0.054605;0.706051;,
  -0.998508;-0.054606;0.000000;,
  -0.706051;-0.054604;-0.706052;,
  -0.000000;-0.054602;-0.998508;,
  0.706051;-0.054602;-0.706053;,
  0.998508;-0.054602;-0.000000;,
  0.706052;-0.054603;0.706052;,
  0.000000;0.066514;-0.997786;,
  0.705541;0.066514;-0.705541;,
  0.997786;0.066514;0.000000;,
  0.705540;0.066516;0.705542;,
  0.000000;0.066516;0.997785;,
  -0.705540;0.066514;0.705542;,
  -0.997786;0.066512;-0.000000;,
  -0.705541;0.066513;-0.705541;,
  -0.000000;-0.490234;0.871591;,
  -0.616308;-0.490234;0.616307;,
  -0.871590;-0.490235;0.000000;,
  -0.616308;-0.490233;-0.616308;,
  -0.000000;-0.490232;-0.871592;,
  0.616308;-0.490232;-0.616309;,
  0.871591;-0.490234;-0.000000;,
  0.616308;-0.490233;0.616308;,
  0.000000;0.520127;-0.854089;,
  0.603932;0.520128;-0.603931;,
  0.854089;0.520128;0.000000;,
  0.603931;0.520127;0.603932;,
  0.000000;0.520126;0.854090;,
  -0.603932;0.520127;0.603933;,
  -0.854090;0.520126;-0.000000;,
  -0.603932;0.520127;-0.603932;,
  -0.000001;-0.639912;0.768448;,
  -0.543376;-0.639912;0.543374;,
  -0.768448;-0.639913;0.000000;,
  -0.543376;-0.639912;-0.543374;,
  -0.000001;-0.639912;-0.768448;,
  0.543375;-0.639912;-0.543374;,
  0.768448;-0.639912;0.000000;,
  0.543375;-0.639912;0.543374;,
  0.000000;0.673007;-0.739636;,
  0.523003;0.673007;-0.523001;,
  0.739637;0.673006;0.000000;,
  0.523003;0.673007;0.523001;,
  0.000000;0.673006;0.739637;,
  -0.523001;0.673007;0.523002;,
  -0.739636;0.673007;0.000000;,
  -0.523001;0.673007;-0.523002;,
  -0.000001;-0.287298;0.957841;,
  -0.677297;-0.287299;0.677294;,
  -0.957841;-0.287298;0.000001;,
  -0.677297;-0.287298;-0.677295;,
  -0.000001;-0.287295;-0.957842;,
  0.677294;-0.287297;-0.677299;,
  0.957841;-0.287298;0.000001;,
  0.677294;-0.287298;0.677298;,
  0.000001;0.310705;-0.950506;,
  0.672110;0.310704;-0.672109;,
  0.950507;0.310704;0.000000;,
  0.672110;0.310704;0.672109;,
  0.000001;0.310705;0.950507;,
  -0.672110;0.310704;0.672109;,
  -0.950507;0.310703;0.000000;,
  -0.672110;0.310704;-0.672109;,
  -0.000001;0.038739;0.999249;,
  -0.706576;0.038740;0.706576;,
  -0.999249;0.038741;0.000001;,
  -0.706575;0.038740;-0.706577;,
  -0.000001;0.038739;-0.999249;,
  0.706572;0.038740;-0.706580;,
  0.999249;0.038741;0.000001;,
  0.706573;0.038740;0.706579;,
  0.000002;-0.036677;-0.999327;,
  0.706630;-0.036676;-0.706632;,
  0.999327;-0.036675;-0.000000;,
  0.706630;-0.036676;0.706632;,
  0.000002;-0.036677;0.999327;,
  -0.706631;-0.036678;0.706631;,
  -0.999327;-0.036679;0.000000;,
  -0.706631;-0.036678;-0.706631;,
  -0.000001;0.085522;0.996336;,
  -0.704515;0.085523;0.704517;,
  -0.996336;0.085522;0.000000;,
  -0.704515;0.085518;-0.704518;,
  -0.000001;0.085516;-0.996337;,
  0.704513;0.085519;-0.704519;,
  0.996336;0.085522;0.000000;,
  0.704513;0.085523;0.704519;,
  0.000003;-0.085519;-0.996337;,
  0.704515;-0.085518;-0.704518;,
  0.996337;-0.085517;-0.000000;,
  0.704515;-0.085518;0.704518;,
  0.000003;-0.085519;0.996337;,
  -0.704516;-0.085520;0.704517;,
  -0.996337;-0.085520;0.000000;,
  -0.704516;-0.085520;-0.704517;,
  -0.000001;-0.990135;-0.140117;,
  0.099077;-0.990135;-0.099076;,
  0.140118;-0.990135;0.000001;,
  0.099081;-0.990134;0.099083;,
  0.000003;1.000000;-0.000003;,
  -0.095602;0.990818;-0.095603;,
  -0.135198;0.990819;-0.000001;,
  -0.095598;0.990819;0.095597;,
  0.000001;0.990819;0.135197;,
  -0.099082;-0.990134;-0.099080;,
  -0.000001;-0.990133;0.140128;,
  0.095603;0.990818;0.095601;,
  0.000001;0.990817;-0.135207;,
  -0.140128;-0.990133;0.000001;,
  0.135206;0.990817;-0.000001;,
  -0.099087;-0.990133;0.099087;,
  0.095607;0.990817;-0.095607;,
  0.000000;0.996334;-0.085552;,
  0.060496;0.996334;-0.060495;,
  0.085554;0.996334;-0.000000;,
  0.060494;0.996334;0.060492;,
  0.000000;0.996334;0.085546;,
  -0.060491;0.996334;0.060490;,
  -0.085549;0.996334;-0.000000;,
  -0.060493;0.996334;-0.060493;,
  0.000000;0.000000;-1.000000;,
  1.000000;0.000000;0.000000;,
  0.000000;0.000000;1.000000;,
  -1.000000;0.000000;0.000000;,
  0.000000;1.000000;0.000000;,
  -0.088223;-0.988887;-0.119665;,
  -0.087989;-0.991603;0.094770;,
  0.088223;-0.988887;-0.119665;,
  0.087989;-0.991603;0.094770;,
  0.000000;-1.000000;-0.000000;,
  0.000000;0.000000;-1.000000;,
  1.000000;0.000000;0.000000;,
  0.000000;0.000000;1.000000;,
  -1.000000;0.000000;0.000000;,
  0.000000;1.000000;0.000000;,
  0.000000;-1.000000;-0.000000;;
  556;
  3;8,0,1;,
  3;8,1,2;,
  3;8,2,3;,
  3;8,3,4;,
  3;8,4,5;,
  3;8,5,6;,
  3;8,6,7;,
  3;8,7,0;,
  4;9,10,1,0;,
  4;10,11,2,1;,
  4;11,12,3,2;,
  4;12,13,4,3;,
  4;13,14,5,4;,
  4;14,15,6,5;,
  4;15,16,7,6;,
  4;16,9,0,7;,
  4;17,18,10,9;,
  4;18,19,11,10;,
  4;19,20,12,11;,
  4;20,21,13,12;,
  4;21,22,14,13;,
  4;22,23,15,14;,
  4;23,24,16,15;,
  4;24,17,9,16;,
  4;25,26,18,17;,
  4;26,27,19,18;,
  4;27,28,20,19;,
  4;28,29,21,20;,
  4;29,30,22,21;,
  4;30,31,23,22;,
  4;31,32,24,23;,
  4;32,25,17,24;,
  4;33,34,26,25;,
  4;34,35,27,26;,
  4;35,36,28,27;,
  4;36,37,29,28;,
  4;37,38,30,29;,
  4;38,39,31,30;,
  4;39,40,32,31;,
  4;40,33,25,32;,
  3;41,228,229;,
  3;41,230,231;,
  3;41,231,232;,
  3;41,233,228;,
  3;41,232,234;,
  3;41,235,233;,
  3;41,234,235;,
  3;41,229,230;,
  3;42,44,43;,
  3;42,45,44;,
  3;42,46,45;,
  3;42,47,46;,
  3;42,48,47;,
  3;42,49,48;,
  3;42,50,49;,
  3;42,43,50;,
  4;52,51,43,44;,
  4;53,52,44,45;,
  4;54,53,45,46;,
  4;55,54,46,47;,
  4;56,55,47,48;,
  4;57,56,48,49;,
  4;58,57,49,50;,
  4;51,58,50,43;,
  4;60,59,51,52;,
  4;61,60,52,53;,
  4;62,61,53,54;,
  4;63,62,54,55;,
  4;64,63,55,56;,
  4;65,64,56,57;,
  4;66,65,57,58;,
  4;59,66,58,51;,
  4;68,67,59,60;,
  4;69,68,60,61;,
  4;70,69,61,62;,
  4;71,70,62,63;,
  4;72,71,63,64;,
  4;73,72,64,65;,
  4;74,73,65,66;,
  4;67,74,66,59;,
  4;76,75,67,68;,
  4;77,76,68,69;,
  4;78,77,69,70;,
  4;79,78,70,71;,
  4;80,79,71,72;,
  4;81,80,72,73;,
  4;82,81,73,74;,
  4;75,82,74,67;,
  3;83,236,237;,
  3;83,238,239;,
  3;83,240,236;,
  3;83,239,241;,
  3;83,242,240;,
  3;83,241,243;,
  3;83,243,242;,
  3;83,237,238;,
  3;42,85,84;,
  3;42,86,85;,
  3;42,87,86;,
  3;42,88,87;,
  3;42,89,88;,
  3;42,90,89;,
  3;42,91,90;,
  3;42,84,91;,
  3;8,92,93;,
  3;8,93,94;,
  3;8,94,95;,
  3;8,95,96;,
  3;8,96,97;,
  3;8,97,98;,
  3;8,98,99;,
  3;8,99,92;,
  4;101,100,84,85;,
  4;108,109,93,92;,
  4;102,101,85,86;,
  4;109,110,94,93;,
  4;103,102,86,87;,
  4;110,111,95,94;,
  4;104,103,87,88;,
  4;111,112,96,95;,
  4;105,104,88,89;,
  4;112,113,97,96;,
  4;106,105,89,90;,
  4;113,114,98,97;,
  4;107,106,90,91;,
  4;114,115,99,98;,
  4;100,107,91,84;,
  4;115,108,92,99;,
  4;117,116,100,101;,
  4;124,125,109,108;,
  4;118,117,101,102;,
  4;125,126,110,109;,
  4;119,118,102,103;,
  4;126,127,111,110;,
  4;120,119,103,104;,
  4;127,128,112,111;,
  4;121,120,104,105;,
  4;128,129,113,112;,
  4;122,121,105,106;,
  4;129,130,114,113;,
  4;123,122,106,107;,
  4;130,131,115,114;,
  4;116,123,107,100;,
  4;131,124,108,115;,
  4;133,132,116,117;,
  4;140,141,125,124;,
  4;134,133,117,118;,
  4;141,142,126,125;,
  4;135,134,118,119;,
  4;142,143,127,126;,
  4;136,135,119,120;,
  4;143,144,128,127;,
  4;137,136,120,121;,
  4;144,145,129,128;,
  4;138,137,121,122;,
  4;145,146,130,129;,
  4;139,138,122,123;,
  4;146,147,131,130;,
  4;132,139,123,116;,
  4;147,140,124,131;,
  4;149,148,132,133;,
  4;156,157,141,140;,
  4;150,149,133,134;,
  4;157,158,142,141;,
  4;151,150,134,135;,
  4;158,159,143,142;,
  4;152,151,135,136;,
  4;159,160,144,143;,
  4;153,152,136,137;,
  4;160,161,145,144;,
  4;154,153,137,138;,
  4;161,162,146,145;,
  4;155,154,138,139;,
  4;162,163,147,146;,
  4;148,155,139,132;,
  4;163,156,140,147;,
  4;165,164,148,149;,
  4;172,173,157,156;,
  4;166,165,149,150;,
  4;173,174,158,157;,
  4;167,166,150,151;,
  4;174,175,159,158;,
  4;168,167,151,152;,
  4;175,176,160,159;,
  4;169,168,152,153;,
  4;176,177,161,160;,
  4;170,169,153,154;,
  4;177,178,162,161;,
  4;171,170,154,155;,
  4;178,179,163,162;,
  4;164,171,155,148;,
  4;179,172,156,163;,
  4;181,180,164,165;,
  4;188,189,173,172;,
  4;182,181,165,166;,
  4;189,190,174,173;,
  4;183,182,166,167;,
  4;190,191,175,174;,
  4;184,183,167,168;,
  4;191,192,176,175;,
  4;185,184,168,169;,
  4;192,193,177,176;,
  4;186,185,169,170;,
  4;193,194,178,177;,
  4;187,186,170,171;,
  4;194,195,179,178;,
  4;180,187,171,164;,
  4;195,188,172,179;,
  4;197,196,180,181;,
  4;204,205,189,188;,
  4;198,197,181,182;,
  4;205,206,190,189;,
  4;199,198,182,183;,
  4;206,207,191,190;,
  4;200,199,183,184;,
  4;207,208,192,191;,
  4;201,200,184,185;,
  4;208,209,193,192;,
  4;202,201,185,186;,
  4;209,210,194,193;,
  4;203,202,186,187;,
  4;210,211,195,194;,
  4;196,203,187,180;,
  4;211,204,188,195;,
  4;213,212,196,197;,
  4;220,221,205,204;,
  4;244,245,245,244;,
  4;214,213,197,198;,
  4;221,222,206,205;,
  4;245,246,246,245;,
  4;215,214,198,199;,
  4;222,223,207,206;,
  4;246,247,247,246;,
  4;216,215,199,200;,
  4;223,224,208,207;,
  4;247,248,248,247;,
  4;217,216,200,201;,
  4;224,225,209,208;,
  4;248,249,249,248;,
  4;218,217,201,202;,
  4;225,226,210,209;,
  4;249,250,250,249;,
  4;219,218,202,203;,
  4;226,227,211,210;,
  4;250,251,251,250;,
  4;212,219,203,196;,
  4;227,220,204,211;,
  4;251,244,244,251;,
  3;252,254,253;,
  3;252,255,254;,
  3;252,256,255;,
  3;252,257,256;,
  3;252,258,257;,
  3;252,259,258;,
  3;252,260,259;,
  3;252,253,260;,
  3;269,261,262;,
  3;269,262,263;,
  3;269,263,264;,
  3;269,264,265;,
  3;269,265,266;,
  3;269,266,267;,
  3;269,267,268;,
  3;269,268,261;,
  4;271,270,253,254;,
  4;278,279,262,261;,
  4;272,271,254,255;,
  4;279,280,263,262;,
  4;273,272,255,256;,
  4;280,281,264,263;,
  4;274,273,256,257;,
  4;281,282,265,264;,
  4;275,274,257,258;,
  4;282,283,266,265;,
  4;276,275,258,259;,
  4;283,284,267,266;,
  4;277,276,259,260;,
  4;284,285,268,267;,
  4;270,277,260,253;,
  4;285,278,261,268;,
  4;287,286,270,271;,
  4;294,295,279,278;,
  4;288,287,271,272;,
  4;295,296,280,279;,
  4;289,288,272,273;,
  4;296,297,281,280;,
  4;290,289,273,274;,
  4;297,298,282,281;,
  4;291,290,274,275;,
  4;298,299,283,282;,
  4;292,291,275,276;,
  4;299,300,284,283;,
  4;293,292,276,277;,
  4;300,301,285,284;,
  4;286,293,277,270;,
  4;301,294,278,285;,
  4;303,302,286,287;,
  4;310,311,295,294;,
  4;304,303,287,288;,
  4;311,312,296,295;,
  4;305,304,288,289;,
  4;312,313,297,296;,
  4;306,305,289,290;,
  4;313,314,298,297;,
  4;307,306,290,291;,
  4;314,315,299,298;,
  4;308,307,291,292;,
  4;315,316,300,299;,
  4;309,308,292,293;,
  4;316,317,301,300;,
  4;302,309,293,286;,
  4;317,310,294,301;,
  4;319,318,302,303;,
  4;326,327,311,310;,
  4;320,319,303,304;,
  4;327,328,312,311;,
  4;321,320,304,305;,
  4;328,329,313,312;,
  4;322,321,305,306;,
  4;329,330,314,313;,
  4;323,322,306,307;,
  4;330,331,315,314;,
  4;324,323,307,308;,
  4;331,332,316,315;,
  4;325,324,308,309;,
  4;332,333,317,316;,
  4;318,325,309,302;,
  4;333,326,310,317;,
  3;334,479,480;,
  3;334,481,482;,
  3;483,484,485;,
  3;483,486,487;,
  3;334,488,479;,
  3;334,482,489;,
  3;483,487,490;,
  3;483,491,484;,
  3;334,492,488;,
  3;483,490,493;,
  3;334,489,494;,
  3;483,495,491;,
  3;334,494,492;,
  3;483,493,495;,
  3;334,480,481;,
  3;483,485,486;,
  3;252,336,335;,
  3;252,337,336;,
  3;252,338,337;,
  3;252,339,338;,
  3;252,340,339;,
  3;252,341,340;,
  3;252,342,341;,
  3;252,335,342;,
  3;269,343,344;,
  3;269,344,345;,
  3;269,345,346;,
  3;269,346,347;,
  3;269,347,348;,
  3;269,348,349;,
  3;269,349,350;,
  3;269,350,343;,
  4;352,351,335,336;,
  4;359,360,344,343;,
  4;353,352,336,337;,
  4;360,361,345,344;,
  4;354,353,337,338;,
  4;361,362,346,345;,
  4;355,354,338,339;,
  4;362,363,347,346;,
  4;356,355,339,340;,
  4;363,364,348,347;,
  4;357,356,340,341;,
  4;364,365,349,348;,
  4;358,357,341,342;,
  4;365,366,350,349;,
  4;351,358,342,335;,
  4;366,359,343,350;,
  4;368,367,351,352;,
  4;375,376,360,359;,
  4;369,368,352,353;,
  4;376,377,361,360;,
  4;370,369,353,354;,
  4;377,378,362,361;,
  4;371,370,354,355;,
  4;378,379,363,362;,
  4;372,371,355,356;,
  4;379,380,364,363;,
  4;373,372,356,357;,
  4;380,381,365,364;,
  4;374,373,357,358;,
  4;381,382,366,365;,
  4;367,374,358,351;,
  4;382,375,359,366;,
  4;384,383,367,368;,
  4;391,392,376,375;,
  4;385,384,368,369;,
  4;392,393,377,376;,
  4;386,385,369,370;,
  4;393,394,378,377;,
  4;387,386,370,371;,
  4;394,395,379,378;,
  4;388,387,371,372;,
  4;395,396,380,379;,
  4;389,388,372,373;,
  4;396,397,381,380;,
  4;390,389,373,374;,
  4;397,398,382,381;,
  4;383,390,374,367;,
  4;398,391,375,382;,
  4;400,399,383,384;,
  4;407,408,392,391;,
  4;401,400,384,385;,
  4;408,409,393,392;,
  4;402,401,385,386;,
  4;409,410,394,393;,
  4;403,402,386,387;,
  4;410,411,395,394;,
  4;404,403,387,388;,
  4;411,412,396,395;,
  4;405,404,388,389;,
  4;412,413,397,396;,
  4;406,405,389,390;,
  4;413,414,398,397;,
  4;399,406,390,383;,
  4;414,407,391,398;,
  4;416,415,399,400;,
  4;423,424,408,407;,
  4;417,416,400,401;,
  4;424,425,409,408;,
  4;418,417,401,402;,
  4;425,426,410,409;,
  4;419,418,402,403;,
  4;426,427,411,410;,
  4;420,419,403,404;,
  4;427,428,412,411;,
  4;421,420,404,405;,
  4;428,429,413,412;,
  4;422,421,405,406;,
  4;429,430,414,413;,
  4;415,422,406,399;,
  4;430,423,407,414;,
  4;432,431,415,416;,
  4;439,440,424,423;,
  4;433,432,416,417;,
  4;440,441,425,424;,
  4;434,433,417,418;,
  4;441,442,426,425;,
  4;435,434,418,419;,
  4;442,443,427,426;,
  4;436,435,419,420;,
  4;443,444,428,427;,
  4;437,436,420,421;,
  4;444,445,429,428;,
  4;438,437,421,422;,
  4;445,446,430,429;,
  4;431,438,422,415;,
  4;446,439,423,430;,
  4;448,447,431,432;,
  4;455,456,440,439;,
  4;449,448,432,433;,
  4;456,457,441,440;,
  4;450,449,433,434;,
  4;457,458,442,441;,
  4;451,450,434,435;,
  4;458,459,443,442;,
  4;452,451,435,436;,
  4;459,460,444,443;,
  4;453,452,436,437;,
  4;460,461,445,444;,
  4;454,453,437,438;,
  4;461,462,446,445;,
  4;447,454,438,431;,
  4;462,455,439,446;,
  4;464,463,447,448;,
  4;471,472,456,455;,
  4;496,497,497,496;,
  4;465,464,448,449;,
  4;472,473,457,456;,
  4;497,498,498,497;,
  4;466,465,449,450;,
  4;473,474,458,457;,
  4;498,499,499,498;,
  4;467,466,450,451;,
  4;474,475,459,458;,
  4;499,500,500,499;,
  4;468,467,451,452;,
  4;475,476,460,459;,
  4;500,501,501,500;,
  4;469,468,452,453;,
  4;476,477,461,460;,
  4;501,502,502,501;,
  4;470,469,453,454;,
  4;477,478,462,461;,
  4;502,503,503,502;,
  4;463,470,454,447;,
  4;478,471,455,462;,
  4;503,496,496,503;,
  4;504,504,504,504;,
  4;505,505,505,505;,
  4;506,506,506,506;,
  4;507,507,507,507;,
  4;508,508,508,508;,
  4;513,513,513,513;,
  4;507,507,507,507;,
  4;505,505,505,505;,
  4;507,507,507,507;,
  4;505,505,505,505;,
  4;508,508,508,508;,
  4;506,506,506,506;,
  4;508,508,508,508;,
  4;504,504,504,504;,
  4;513,513,513,513;,
  4;504,504,504,504;,
  4;504,504,504,504;,
  4;504,504,504,504;,
  4;507,507,507,507;,
  4;508,508,508,508;,
  4;505,505,505,505;,
  4;513,513,513,513;,
  4;504,504,504,504;,
  3;507,507,507;,
  3;505,505,505;,
  3;505,505,505;,
  3;507,507,507;,
  3;508,508,508;,
  3;508,508,508;,
  4;504,504,504,504;,
  4;505,505,505,505;,
  4;506,506,506,506;,
  4;507,507,507,507;,
  4;508,508,508,508;,
  4;513,513,513,513;,
  4;504,504,504,504;,
  4;505,505,505,505;,
  4;506,506,506,506;,
  4;507,507,507,507;,
  4;508,508,508,508;,
  4;513,513,513,513;,
  4;512,511,511,512;,
  4;510,512,512,510;,
  4;509,510,510,509;,
  4;511,509,509,511;,
  4;507,507,507,507;,
  4;504,504,504,504;,
  4;505,505,505,505;,
  4;506,506,506,506;,
  4;513,513,513,513;,
  4;508,508,508,508;,
  4;504,504,504,504;,
  3;505,505,505;,
  3;507,507,507;,
  4;514,514,514,514;,
  4;515,515,515,515;,
  4;516,516,516,516;,
  4;517,517,517,517;,
  4;518,518,518,518;,
  4;519,519,519,519;;
 }
 MeshTextureCoords {
  744;
  0.062500;1.000000;,
  0.000000;1.000000;,
  0.125000;1.000000;,
  0.187500;1.000000;,
  0.250000;1.000000;,
  0.312500;1.000000;,
  0.375000;1.000000;,
  0.437500;1.000000;,
  0.500000;1.000000;,
  0.562500;1.000000;,
  0.625000;1.000000;,
  0.687500;1.000000;,
  0.750000;1.000000;,
  0.812500;1.000000;,
  0.875000;1.000000;,
  0.937500;1.000000;,
  1.000000;1.000000;,
  0.000000;1.000000;,
  0.125000;1.000000;,
  0.250000;1.000000;,
  0.375000;1.000000;,
  0.500000;1.000000;,
  0.625000;1.000000;,
  0.750000;1.000000;,
  0.875000;1.000000;,
  1.000000;1.000000;,
  0.000000;1.000000;,
  0.125000;1.000000;,
  0.250000;1.000000;,
  0.375000;1.000000;,
  0.500000;1.000000;,
  0.625000;1.000000;,
  0.750000;1.000000;,
  0.875000;1.000000;,
  1.000000;1.000000;,
  0.000000;1.000000;,
  0.125000;1.000000;,
  0.250000;1.000000;,
  0.375000;1.000000;,
  0.500000;1.000000;,
  0.625000;1.000000;,
  0.750000;1.000000;,
  0.875000;1.000000;,
  1.000000;1.000000;,
  0.000000;1.000000;,
  0.125000;1.000000;,
  0.250000;1.000000;,
  0.375000;1.000000;,
  0.500000;1.000000;,
  0.625000;1.000000;,
  0.750000;1.000000;,
  0.875000;1.000000;,
  1.000000;1.000000;,
  0.812500;1.000000;,
  0.562500;1.000000;,
  0.437500;1.000000;,
  0.312500;1.000000;,
  0.062500;1.000000;,
  0.187500;1.000000;,
  0.687500;1.000000;,
  0.062500;0.000000;,
  0.125000;0.000000;,
  0.000000;0.000000;,
  0.187500;0.000000;,
  0.250000;0.000000;,
  0.312500;0.000000;,
  0.375000;0.000000;,
  0.437500;0.000000;,
  0.500000;0.000000;,
  0.562500;0.000000;,
  0.625000;0.000000;,
  0.687500;0.000000;,
  0.750000;0.000000;,
  0.812500;0.000000;,
  0.875000;0.000000;,
  0.937500;0.000000;,
  1.000000;0.000000;,
  0.125000;0.000000;,
  0.000000;0.000000;,
  0.250000;0.000000;,
  0.375000;0.000000;,
  0.500000;0.000000;,
  0.625000;0.000000;,
  0.750000;0.000000;,
  0.875000;0.000000;,
  1.000000;0.000000;,
  0.125000;0.000000;,
  0.000000;0.000000;,
  0.250000;0.000000;,
  0.375000;0.000000;,
  0.500000;0.000000;,
  0.625000;0.000000;,
  0.750000;0.000000;,
  0.875000;0.000000;,
  1.000000;0.000000;,
  0.125000;0.000000;,
  0.000000;0.000000;,
  0.250000;0.000000;,
  0.375000;0.000000;,
  0.500000;0.000000;,
  0.625000;0.000000;,
  0.750000;0.000000;,
  0.875000;0.000000;,
  1.000000;0.000000;,
  0.125000;0.000000;,
  0.000000;0.000000;,
  0.250000;0.000000;,
  0.375000;0.000000;,
  0.500000;0.000000;,
  0.625000;0.000000;,
  0.750000;0.000000;,
  0.875000;0.000000;,
  1.000000;0.000000;,
  0.562500;0.000000;,
  0.812500;0.000000;,
  0.437500;0.000000;,
  0.937500;0.000000;,
  0.312500;0.000000;,
  0.187500;0.000000;,
  0.687500;0.000000;,
  0.062500;0.000000;,
  0.125000;0.000000;,
  0.000000;0.000000;,
  0.187500;0.000000;,
  0.250000;0.000000;,
  0.312500;0.000000;,
  0.375000;0.000000;,
  0.437500;0.000000;,
  0.500000;0.000000;,
  0.562500;0.000000;,
  0.625000;0.000000;,
  0.687500;0.000000;,
  0.750000;0.000000;,
  0.812500;0.000000;,
  0.875000;0.000000;,
  0.937500;0.000000;,
  1.000000;0.000000;,
  0.062500;1.000000;,
  0.000000;1.000000;,
  0.125000;1.000000;,
  0.187500;1.000000;,
  0.250000;1.000000;,
  0.312500;1.000000;,
  0.375000;1.000000;,
  0.437500;1.000000;,
  0.500000;1.000000;,
  0.562500;1.000000;,
  0.625000;1.000000;,
  0.687500;1.000000;,
  0.750000;1.000000;,
  0.812500;1.000000;,
  0.875000;1.000000;,
  0.937500;1.000000;,
  1.000000;1.000000;,
  0.125000;0.000000;,
  0.000000;0.000000;,
  0.000000;1.000000;,
  0.125000;1.000000;,
  0.250000;0.000000;,
  0.250000;1.000000;,
  0.375000;0.000000;,
  0.375000;1.000000;,
  0.500000;0.000000;,
  0.500000;1.000000;,
  0.625000;0.000000;,
  0.625000;1.000000;,
  0.750000;0.000000;,
  0.750000;1.000000;,
  0.875000;0.000000;,
  0.875000;1.000000;,
  1.000000;0.000000;,
  1.000000;1.000000;,
  0.125000;0.000000;,
  0.000000;0.000000;,
  0.000000;1.000000;,
  0.125000;1.000000;,
  0.250000;0.000000;,
  0.250000;1.000000;,
  0.375000;0.000000;,
  0.375000;1.000000;,
  0.500000;0.000000;,
  0.500000;1.000000;,
  0.625000;0.000000;,
  0.625000;1.000000;,
  0.750000;0.000000;,
  0.750000;1.000000;,
  0.875000;0.000000;,
  0.875000;1.000000;,
  1.000000;0.000000;,
  1.000000;1.000000;,
  0.125000;0.000000;,
  0.000000;0.000000;,
  0.000000;1.000000;,
  0.125000;1.000000;,
  0.250000;0.000000;,
  0.250000;1.000000;,
  0.375000;0.000000;,
  0.375000;1.000000;,
  0.500000;0.000000;,
  0.500000;1.000000;,
  0.625000;0.000000;,
  0.625000;1.000000;,
  0.750000;0.000000;,
  0.750000;1.000000;,
  0.875000;0.000000;,
  0.875000;1.000000;,
  1.000000;0.000000;,
  1.000000;1.000000;,
  0.125000;0.000000;,
  0.000000;0.000000;,
  0.000000;1.000000;,
  0.125000;1.000000;,
  0.250000;0.000000;,
  0.250000;1.000000;,
  0.375000;0.000000;,
  0.375000;1.000000;,
  0.500000;0.000000;,
  0.500000;1.000000;,
  0.625000;0.000000;,
  0.625000;1.000000;,
  0.750000;0.000000;,
  0.750000;1.000000;,
  0.875000;0.000000;,
  0.875000;1.000000;,
  1.000000;0.000000;,
  1.000000;1.000000;,
  0.125000;0.000000;,
  0.000000;0.000000;,
  0.000000;1.000000;,
  0.125000;1.000000;,
  0.250000;0.000000;,
  0.250000;1.000000;,
  0.375000;0.000000;,
  0.375000;1.000000;,
  0.500000;0.000000;,
  0.500000;1.000000;,
  0.625000;0.000000;,
  0.625000;1.000000;,
  0.750000;0.000000;,
  0.750000;1.000000;,
  0.875000;0.000000;,
  0.875000;1.000000;,
  1.000000;0.000000;,
  1.000000;1.000000;,
  0.125000;0.000000;,
  0.000000;0.000000;,
  0.000000;1.000000;,
  0.125000;1.000000;,
  0.250000;0.000000;,
  0.250000;1.000000;,
  0.375000;0.000000;,
  0.375000;1.000000;,
  0.500000;0.000000;,
  0.500000;1.000000;,
  0.625000;0.000000;,
  0.625000;1.000000;,
  0.750000;0.000000;,
  0.750000;1.000000;,
  0.875000;0.000000;,
  0.875000;1.000000;,
  1.000000;0.000000;,
  1.000000;1.000000;,
  0.125000;0.000000;,
  0.000000;0.000000;,
  0.000000;1.000000;,
  0.125000;1.000000;,
  0.250000;0.000000;,
  0.250000;1.000000;,
  0.375000;0.000000;,
  0.375000;1.000000;,
  0.500000;0.000000;,
  0.500000;1.000000;,
  0.625000;0.000000;,
  0.625000;1.000000;,
  0.750000;0.000000;,
  0.750000;1.000000;,
  0.875000;0.000000;,
  0.875000;1.000000;,
  1.000000;0.000000;,
  1.000000;1.000000;,
  0.125000;0.000000;,
  0.000000;0.000000;,
  0.000000;1.000000;,
  0.125000;1.000000;,
  0.250000;0.000000;,
  0.250000;1.000000;,
  0.375000;0.000000;,
  0.375000;1.000000;,
  0.500000;0.000000;,
  0.500000;1.000000;,
  0.625000;0.000000;,
  0.625000;1.000000;,
  0.750000;0.000000;,
  0.750000;1.000000;,
  0.875000;0.000000;,
  0.875000;1.000000;,
  1.000000;0.000000;,
  1.000000;1.000000;,
  0.062500;0.000000;,
  0.125000;0.000000;,
  0.000000;0.000000;,
  0.187500;0.000000;,
  0.250000;0.000000;,
  0.312500;0.000000;,
  0.375000;0.000000;,
  0.437500;0.000000;,
  0.500000;0.000000;,
  0.562500;0.000000;,
  0.625000;0.000000;,
  0.687500;0.000000;,
  0.750000;0.000000;,
  0.812500;0.000000;,
  0.875000;0.000000;,
  0.937500;0.000000;,
  1.000000;0.000000;,
  0.062500;1.000000;,
  0.000000;1.000000;,
  0.125000;1.000000;,
  0.187500;1.000000;,
  0.250000;1.000000;,
  0.312500;1.000000;,
  0.375000;1.000000;,
  0.437500;1.000000;,
  0.500000;1.000000;,
  0.562500;1.000000;,
  0.625000;1.000000;,
  0.687500;1.000000;,
  0.750000;1.000000;,
  0.812500;1.000000;,
  0.875000;1.000000;,
  0.937500;1.000000;,
  1.000000;1.000000;,
  0.125000;0.000000;,
  0.000000;0.000000;,
  0.000000;1.000000;,
  0.125000;1.000000;,
  0.250000;0.000000;,
  0.250000;1.000000;,
  0.375000;0.000000;,
  0.375000;1.000000;,
  0.500000;0.000000;,
  0.500000;1.000000;,
  0.625000;0.000000;,
  0.625000;1.000000;,
  0.750000;0.000000;,
  0.750000;1.000000;,
  0.875000;0.000000;,
  0.875000;1.000000;,
  1.000000;0.000000;,
  1.000000;1.000000;,
  0.125000;0.000000;,
  0.000000;0.000000;,
  0.000000;1.000000;,
  0.125000;1.000000;,
  0.250000;0.000000;,
  0.250000;1.000000;,
  0.375000;0.000000;,
  0.375000;1.000000;,
  0.500000;0.000000;,
  0.500000;1.000000;,
  0.625000;0.000000;,
  0.625000;1.000000;,
  0.750000;0.000000;,
  0.750000;1.000000;,
  0.875000;0.000000;,
  0.875000;1.000000;,
  1.000000;0.000000;,
  1.000000;1.000000;,
  0.125000;0.000000;,
  0.000000;0.000000;,
  0.000000;1.000000;,
  0.125000;1.000000;,
  0.250000;0.000000;,
  0.250000;1.000000;,
  0.375000;0.000000;,
  0.375000;1.000000;,
  0.500000;0.000000;,
  0.500000;1.000000;,
  0.625000;0.000000;,
  0.625000;1.000000;,
  0.750000;0.000000;,
  0.750000;1.000000;,
  0.875000;0.000000;,
  0.875000;1.000000;,
  1.000000;0.000000;,
  1.000000;1.000000;,
  0.125000;0.000000;,
  0.000000;0.000000;,
  0.000000;1.000000;,
  0.125000;1.000000;,
  0.250000;0.000000;,
  0.250000;1.000000;,
  0.375000;0.000000;,
  0.375000;1.000000;,
  0.500000;0.000000;,
  0.500000;1.000000;,
  0.625000;0.000000;,
  0.625000;1.000000;,
  0.750000;0.000000;,
  0.750000;1.000000;,
  0.875000;0.000000;,
  0.875000;1.000000;,
  1.000000;0.000000;,
  1.000000;1.000000;,
  0.562500;0.000000;,
  0.812500;0.000000;,
  0.812500;1.000000;,
  0.562500;1.000000;,
  0.437500;0.000000;,
  0.937500;0.000000;,
  0.437500;1.000000;,
  0.312500;0.000000;,
  0.312500;1.000000;,
  0.062500;1.000000;,
  0.187500;0.000000;,
  0.187500;1.000000;,
  0.687500;0.000000;,
  0.687500;1.000000;,
  0.062500;0.000000;,
  0.125000;0.000000;,
  0.000000;0.000000;,
  0.187500;0.000000;,
  0.250000;0.000000;,
  0.312500;0.000000;,
  0.375000;0.000000;,
  0.437500;0.000000;,
  0.500000;0.000000;,
  0.562500;0.000000;,
  0.625000;0.000000;,
  0.687500;0.000000;,
  0.750000;0.000000;,
  0.812500;0.000000;,
  0.875000;0.000000;,
  0.937500;0.000000;,
  1.000000;0.000000;,
  0.062500;1.000000;,
  0.000000;1.000000;,
  0.125000;1.000000;,
  0.187500;1.000000;,
  0.250000;1.000000;,
  0.312500;1.000000;,
  0.375000;1.000000;,
  0.437500;1.000000;,
  0.500000;1.000000;,
  0.562500;1.000000;,
  0.625000;1.000000;,
  0.687500;1.000000;,
  0.750000;1.000000;,
  0.812500;1.000000;,
  0.875000;1.000000;,
  0.937500;1.000000;,
  1.000000;1.000000;,
  0.125000;0.000000;,
  0.000000;0.000000;,
  0.000000;1.000000;,
  0.125000;1.000000;,
  0.250000;0.000000;,
  0.250000;1.000000;,
  0.375000;0.000000;,
  0.375000;1.000000;,
  0.500000;0.000000;,
  0.500000;1.000000;,
  0.625000;0.000000;,
  0.625000;1.000000;,
  0.750000;0.000000;,
  0.750000;1.000000;,
  0.875000;0.000000;,
  0.875000;1.000000;,
  1.000000;0.000000;,
  1.000000;1.000000;,
  0.125000;0.000000;,
  0.000000;0.000000;,
  0.000000;1.000000;,
  0.125000;1.000000;,
  0.250000;0.000000;,
  0.250000;1.000000;,
  0.375000;0.000000;,
  0.375000;1.000000;,
  0.500000;0.000000;,
  0.500000;1.000000;,
  0.625000;0.000000;,
  0.625000;1.000000;,
  0.750000;0.000000;,
  0.750000;1.000000;,
  0.875000;0.000000;,
  0.875000;1.000000;,
  1.000000;0.000000;,
  1.000000;1.000000;,
  0.125000;0.000000;,
  0.000000;0.000000;,
  0.000000;1.000000;,
  0.125000;1.000000;,
  0.250000;0.000000;,
  0.250000;1.000000;,
  0.375000;0.000000;,
  0.375000;1.000000;,
  0.500000;0.000000;,
  0.500000;1.000000;,
  0.625000;0.000000;,
  0.625000;1.000000;,
  0.750000;0.000000;,
  0.750000;1.000000;,
  0.875000;0.000000;,
  0.875000;1.000000;,
  1.000000;0.000000;,
  1.000000;1.000000;,
  0.125000;0.000000;,
  0.000000;0.000000;,
  0.000000;1.000000;,
  0.125000;1.000000;,
  0.250000;0.000000;,
  0.250000;1.000000;,
  0.375000;0.000000;,
  0.375000;1.000000;,
  0.500000;0.000000;,
  0.500000;1.000000;,
  0.625000;0.000000;,
  0.625000;1.000000;,
  0.750000;0.000000;,
  0.750000;1.000000;,
  0.875000;0.000000;,
  0.875000;1.000000;,
  1.000000;0.000000;,
  1.000000;1.000000;,
  0.125000;0.000000;,
  0.000000;0.000000;,
  0.000000;1.000000;,
  0.125000;1.000000;,
  0.250000;0.000000;,
  0.250000;1.000000;,
  0.375000;0.000000;,
  0.375000;1.000000;,
  0.500000;0.000000;,
  0.500000;1.000000;,
  0.625000;0.000000;,
  0.625000;1.000000;,
  0.750000;0.000000;,
  0.750000;1.000000;,
  0.875000;0.000000;,
  0.875000;1.000000;,
  1.000000;0.000000;,
  1.000000;1.000000;,
  0.125000;0.000000;,
  0.000000;0.000000;,
  0.000000;1.000000;,
  0.125000;1.000000;,
  0.250000;0.000000;,
  0.250000;1.000000;,
  0.375000;0.000000;,
  0.375000;1.000000;,
  0.500000;0.000000;,
  0.500000;1.000000;,
  0.625000;0.000000;,
  0.625000;1.000000;,
  0.750000;0.000000;,
  0.750000;1.000000;,
  0.875000;0.000000;,
  0.875000;1.000000;,
  1.000000;0.000000;,
  1.000000;1.000000;,
  0.125000;0.000000;,
  0.000000;0.000000;,
  0.000000;1.000000;,
  0.125000;1.000000;,
  0.250000;0.000000;,
  0.250000;1.000000;,
  0.375000;0.000000;,
  0.375000;1.000000;,
  0.500000;0.000000;,
  0.500000;1.000000;,
  0.625000;0.000000;,
  0.625000;1.000000;,
  0.750000;0.000000;,
  0.750000;1.000000;,
  0.875000;0.000000;,
  0.875000;1.000000;,
  1.000000;0.000000;,
  1.000000;1.000000;,
  0.125000;0.000000;,
  0.000000;0.000000;,
  0.000000;1.000000;,
  0.125000;1.000000;,
  0.250000;0.000000;,
  0.250000;1.000000;,
  0.375000;0.000000;,
  0.375000;1.000000;,
  0.500000;0.000000;,
  0.500000;1.000000;,
  0.625000;0.000000;,
  0.625000;1.000000;,
  0.750000;0.000000;,
  0.750000;1.000000;,
  0.875000;0.000000;,
  0.875000;1.000000;,
  1.000000;0.000000;,
  1.000000;1.000000;,
  0.000000;0.000000;,
  1.000000;0.000000;,
  1.000000;1.000000;,
  0.000000;1.000000;,
  0.000000;0.000000;,
  1.000000;0.000000;,
  1.000000;1.000000;,
  0.000000;1.000000;,
  0.000000;0.000000;,
  1.000000;0.000000;,
  1.000000;1.000000;,
  0.000000;1.000000;,
  0.000000;0.000000;,
  1.000000;0.000000;,
  1.000000;1.000000;,
  0.000000;1.000000;,
  1.000000;1.000000;,
  0.000000;1.000000;,
  0.000000;0.000000;,
  1.000000;0.000000;,
  1.000000;0.654150;,
  0.000000;0.654150;,
  0.000000;0.596380;,
  1.000000;0.596380;,
  0.000000;0.654150;,
  0.000000;0.596380;,
  1.000000;0.596380;,
  1.000000;0.654150;,
  0.000000;0.596380;,
  0.000000;0.654150;,
  0.000000;0.654150;,
  0.000000;0.596380;,
  1.000000;0.654150;,
  1.000000;0.596380;,
  1.000000;0.596380;,
  1.000000;0.654150;,
  0.094500;0.000000;,
  0.902630;0.000000;,
  0.902630;1.000000;,
  0.094500;1.000000;,
  0.905500;0.596380;,
  0.905500;0.654150;,
  0.097370;0.654150;,
  0.097370;0.596380;,
  0.094500;0.596380;,
  0.902630;0.596380;,
  0.902630;0.596380;,
  0.094500;0.596380;,
  0.902630;0.654150;,
  0.094500;0.654150;,
  0.902630;0.654150;,
  0.094500;0.654150;,
  0.902630;0.052670;,
  1.000000;0.052670;,
  0.094500;0.052670;,
  0.094500;0.000000;,
  0.902630;0.000000;,
  0.000000;0.052670;,
  0.902630;0.596380;,
  0.902630;0.052670;,
  0.094500;0.596380;,
  0.094500;0.052670;,
  0.000000;0.827080;,
  1.000000;1.000000;,
  1.000000;0.827080;,
  0.000000;1.000000;,
  1.000000;0.324520;,
  0.000000;0.052670;,
  0.000000;0.324520;,
  1.000000;0.052670;,
  0.951320;0.596380;,
  0.047250;0.596380;,
  0.000000;0.000000;,
  1.000000;0.000000;,
  1.000000;1.000000;,
  0.000000;1.000000;,
  0.000000;0.000000;,
  1.000000;0.000000;,
  1.000000;1.000000;,
  0.000000;1.000000;,
  0.000000;0.000000;,
  1.000000;0.000000;,
  1.000000;1.000000;,
  0.000000;1.000000;,
  0.000000;0.000000;,
  1.000000;0.000000;,
  1.000000;1.000000;,
  0.000000;1.000000;,
  1.000000;1.000000;,
  0.000000;1.000000;,
  0.000000;0.000000;,
  1.000000;0.000000;,
  0.000000;0.000000;,
  1.000000;0.000000;,
  1.000000;1.000000;,
  0.000000;1.000000;,
  0.000000;0.000000;,
  1.000000;0.000000;,
  1.000000;1.000000;,
  0.000000;1.000000;,
  0.000000;0.000000;,
  1.000000;0.000000;,
  1.000000;1.000000;,
  0.000000;1.000000;,
  0.000000;0.000000;,
  1.000000;0.000000;,
  1.000000;1.000000;,
  0.000000;1.000000;,
  1.000000;1.000000;,
  0.000000;1.000000;,
  0.000000;0.000000;,
  1.000000;0.000000;,
  0.094500;0.000000;,
  0.094500;1.000000;,
  0.094500;1.000000;,
  0.094500;0.000000;,
  0.902630;0.000000;,
  0.902630;0.000000;,
  0.902630;1.000000;,
  0.902630;1.000000;,
  0.094500;0.000000;,
  0.094500;1.000000;,
  0.902630;0.000000;,
  0.902630;1.000000;,
  0.902630;0.654150;,
  0.094500;0.654150;,
  0.094500;1.000000;,
  0.902630;1.000000;,
  0.000000;0.000000;,
  1.000000;0.000000;,
  1.000000;1.000000;,
  0.000000;1.000000;,
  0.000000;0.000000;,
  1.000000;0.000000;,
  1.000000;1.000000;,
  0.000000;1.000000;,
  0.000000;0.000000;,
  1.000000;0.000000;,
  1.000000;1.000000;,
  0.000000;1.000000;,
  0.000000;0.000000;,
  1.000000;0.000000;,
  1.000000;1.000000;,
  0.000000;1.000000;,
  1.000000;1.000000;,
  0.000000;1.000000;,
  0.000000;0.000000;,
  1.000000;0.000000;;
 }
}
