xof 0302txt 0064
template Header {
 <3D82AB43-62DA-11cf-AB39-0020AF71E433>
 WORD major;
 WORD minor;
 DWORD flags;
}

template Vector {
 <3D82AB5E-62DA-11cf-AB39-0020AF71E433>
 FLOAT x;
 FLOAT y;
 FLOAT z;
}

template Coords2d {
 <F6F23F44-7686-11cf-8F52-0040333594A3>
 FLOAT u;
 FLOAT v;
}

template Matrix4x4 {
 <F6F23F45-7686-11cf-8F52-0040333594A3>
 array FLOAT matrix[16];
}

template ColorRGBA {
 <35FF44E0-6C7C-11cf-8F52-0040333594A3>
 FLOAT red;
 FLOAT green;
 FLOAT blue;
 FLOAT alpha;
}

template ColorRGB {
 <D3E16E81-7835-11cf-8F52-0040333594A3>
 FLOAT red;
 FLOAT green;
 FLOAT blue;
}

template IndexedColor {
 <1630B820-7842-11cf-8F52-0040333594A3>
 DWORD index;
 ColorRGBA indexColor;
}

template Boolean {
 <4885AE61-78E8-11cf-8F52-0040333594A3>
 WORD truefalse;
}

template Boolean2d {
 <4885AE63-78E8-11cf-8F52-0040333594A3>
 Boolean u;
 Boolean v;
}

template MaterialWrap {
 <4885AE60-78E8-11cf-8F52-0040333594A3>
 Boolean u;
 Boolean v;
}

template TextureFilename {
 <A42790E1-7810-11cf-8F52-0040333594A3>
 STRING filename;
}

template Material {
 <3D82AB4D-62DA-11cf-AB39-0020AF71E433>
 ColorRGBA faceColor;
 FLOAT power;
 ColorRGB specularColor;
 ColorRGB emissiveColor;
 [...]
}

template MeshFace {
 <3D82AB5F-62DA-11cf-AB39-0020AF71E433>
 DWORD nFaceVertexIndices;
 array DWORD faceVertexIndices[nFaceVertexIndices];
}

template MeshFaceWraps {
 <4885AE62-78E8-11cf-8F52-0040333594A3>
 DWORD nFaceWrapValues;
 Boolean2d faceWrapValues;
}

template MeshTextureCoords {
 <F6F23F40-7686-11cf-8F52-0040333594A3>
 DWORD nTextureCoords;
 array Coords2d textureCoords[nTextureCoords];
}

template MeshMaterialList {
 <F6F23F42-7686-11cf-8F52-0040333594A3>
 DWORD nMaterials;
 DWORD nFaceIndexes;
 array DWORD faceIndexes[nFaceIndexes];
 [Material]
}

template MeshNormals {
 <F6F23F43-7686-11cf-8F52-0040333594A3>
 DWORD nNormals;
 array Vector normals[nNormals];
 DWORD nFaceNormals;
 array MeshFace faceNormals[nFaceNormals];
}

template MeshVertexColors {
 <1630B821-7842-11cf-8F52-0040333594A3>
 DWORD nVertexColors;
 array IndexedColor vertexColors[nVertexColors];
}

template Mesh {
 <3D82AB44-62DA-11cf-AB39-0020AF71E433>
 DWORD nVertices;
 array Vector vertices[nVertices];
 DWORD nFaces;
 array MeshFace faces[nFaces];
 [...]
}

Header{
1;
0;
1;
}

Mesh {
 67;
 0.00000;26.00000;-4.90064;,
 3.46527;26.00000;-3.46527;,
 3.96480;22.00000;-3.96480;,
 0.00000;22.00000;-5.60707;,
 4.90064;26.00000;0.00000;,
 5.60707;22.00000;0.00000;,
 3.46527;26.00000;3.46527;,
 3.96480;22.00000;3.96480;,
 0.00000;26.00000;4.90064;,
 0.00000;22.00000;5.60707;,
 -3.46527;26.00000;3.46527;,
 -3.96480;22.00000;3.96480;,
 -4.90064;26.00000;0.00000;,
 -5.60707;22.00000;0.00000;,
 -3.46527;26.00000;-3.46527;,
 -3.96480;22.00000;-3.96480;,
 4.69751;19.12518;-4.69751;,
 0.00000;19.12518;-6.64328;,
 6.64328;19.12518;0.00000;,
 4.69751;19.12518;4.69751;,
 0.00000;19.12518;6.64328;,
 -4.69751;19.12518;4.69751;,
 -6.64328;19.12518;0.00000;,
 -4.69751;19.12518;-4.69751;,
 5.51038;15.86096;-5.51038;,
 0.00000;15.86096;-7.79286;,
 7.79286;15.86096;0.00000;,
 5.51038;15.86096;5.51038;,
 0.00000;15.86096;7.79286;,
 -5.51038;15.86096;5.51038;,
 -7.79286;15.86096;0.00000;,
 -5.51038;15.86096;-5.51038;,
 5.96814;12.38994;-5.96814;,
 0.00000;12.38994;-8.44022;,
 8.44022;12.38994;0.00000;,
 5.96814;12.38994;5.96814;,
 0.00000;12.38994;8.44022;,
 -5.96814;12.38994;5.96814;,
 -8.44022;12.38994;0.00000;,
 -5.96814;12.38994;-5.96814;,
 5.96814;0.01386;-5.96814;,
 0.00000;0.01386;-8.44022;,
 8.44022;0.01386;0.00000;,
 5.96814;0.01386;5.96814;,
 0.00000;0.01386;8.44022;,
 -5.96814;0.01386;5.96814;,
 -8.44022;0.01386;0.00000;,
 -5.96814;0.01386;-5.96814;,
 0.00000;26.00000;0.00000;,
 0.00000;0.01386;0.00000;,
 0.00000;30.00000;-5.25506;,
 3.71588;30.00000;-3.71588;,
 3.96480;26.00000;-3.96480;,
 0.00000;26.00000;-5.60707;,
 5.25506;30.00000;0.00000;,
 5.60707;26.00000;0.00000;,
 3.71588;30.00000;3.71588;,
 3.96480;26.00000;3.96480;,
 0.00000;30.00000;5.25506;,
 0.00000;26.00000;5.60707;,
 -3.71588;30.00000;3.71588;,
 -3.96480;26.00000;3.96480;,
 -5.25506;30.00000;0.00000;,
 -5.60707;26.00000;0.00000;,
 -3.71588;30.00000;-3.71588;,
 -3.96480;26.00000;-3.96480;,
 0.00000;30.00000;0.00000;;
 
 72;
 4;0,1,2,3;,
 4;1,4,5,2;,
 4;4,6,7,5;,
 4;6,8,9,7;,
 4;8,10,11,9;,
 4;10,12,13,11;,
 4;12,14,15,13;,
 4;14,0,3,15;,
 4;3,2,16,17;,
 4;2,5,18,16;,
 4;5,7,19,18;,
 4;7,9,20,19;,
 4;9,11,21,20;,
 4;11,13,22,21;,
 4;13,15,23,22;,
 4;15,3,17,23;,
 4;17,16,24,25;,
 4;16,18,26,24;,
 4;18,19,27,26;,
 4;19,20,28,27;,
 4;20,21,29,28;,
 4;21,22,30,29;,
 4;22,23,31,30;,
 4;23,17,25,31;,
 4;25,24,32,33;,
 4;24,26,34,32;,
 4;26,27,35,34;,
 4;27,28,36,35;,
 4;28,29,37,36;,
 4;29,30,38,37;,
 4;30,31,39,38;,
 4;31,25,33,39;,
 4;33,32,40,41;,
 4;32,34,42,40;,
 4;34,35,43,42;,
 4;35,36,44,43;,
 4;36,37,45,44;,
 4;37,38,46,45;,
 4;38,39,47,46;,
 4;39,33,41,47;,
 3;48,1,0;,
 3;48,4,1;,
 3;48,6,4;,
 3;48,8,6;,
 3;48,10,8;,
 3;48,12,10;,
 3;48,14,12;,
 3;48,0,14;,
 3;49,41,40;,
 3;49,40,42;,
 3;49,42,43;,
 3;49,43,44;,
 3;49,44,45;,
 3;49,45,46;,
 3;49,46,47;,
 3;49,47,41;,
 4;50,51,52,53;,
 4;51,54,55,52;,
 4;54,56,57,55;,
 4;56,58,59,57;,
 4;58,60,61,59;,
 4;60,62,63,61;,
 4;62,64,65,63;,
 4;64,50,53,65;,
 3;66,51,50;,
 3;66,54,51;,
 3;66,56,54;,
 3;66,58,56;,
 3;66,60,58;,
 3;66,62,60;,
 3;66,64,62;,
 3;66,50,64;;
 
 MeshMaterialList {
  2;
  72;
  0,
  0,
  0,
  0,
  0,
  0,
  0,
  0,
  0,
  0,
  0,
  0,
  0,
  0,
  0,
  0,
  0,
  0,
  0,
  0,
  0,
  0,
  0,
  0,
  0,
  0,
  0,
  0,
  0,
  0,
  0,
  0,
  0,
  0,
  0,
  0,
  0,
  0,
  0,
  0,
  0,
  0,
  0,
  0,
  0,
  0,
  0,
  0,
  0,
  0,
  0,
  0,
  0,
  0,
  0,
  0,
  1,
  1,
  1,
  1,
  1,
  1,
  1,
  1,
  1,
  1,
  1,
  1,
  1,
  1,
  1,
  1;;
  Material {
   0.448800;0.235200;0.200800;1.000000;;
   5.000000;
   0.000000;0.000000;0.000000;;
   0.000000;0.000000;0.000000;;
  }
  Material {
   0.800000;0.800000;0.800000;1.000000;;
   5.000000;
   0.000000;0.000000;0.000000;;
   0.000000;0.000000;0.000000;;
  }
 }
 MeshNormals {
  59;
  0.000000;1.000000;0.000000;,
  0.000000;0.173918;-0.984760;,
  0.696331;0.173918;-0.696331;,
  0.984760;0.173918;0.000000;,
  0.696331;0.173918;0.696331;,
  0.000000;0.173918;0.984760;,
  -0.696331;0.173918;0.696331;,
  -0.984760;0.173918;0.000000;,
  -0.696331;0.173918;-0.696331;,
  0.000000;0.257705;-0.966224;,
  0.683223;0.257705;-0.683223;,
  0.966224;0.257705;0.000000;,
  0.683223;0.257705;0.683223;,
  0.000000;0.257705;0.966224;,
  -0.683223;0.257705;0.683223;,
  -0.966224;0.257705;0.000000;,
  -0.683223;0.257705;-0.683223;,
  0.000000;0.335636;-0.941992;,
  0.666089;0.335636;-0.666089;,
  0.941992;0.335636;0.000000;,
  0.666089;0.335636;0.666089;,
  0.000000;0.335636;0.941992;,
  -0.666089;0.335636;0.666089;,
  -0.941992;0.335636;0.000000;,
  -0.666089;0.335636;-0.666089;,
  0.000000;0.258741;-0.965947;,
  0.683028;0.258741;-0.683028;,
  0.965947;0.258741;0.000000;,
  0.683028;0.258741;0.683028;,
  0.000000;0.258741;0.965947;,
  -0.683028;0.258741;0.683028;,
  -0.965947;0.258741;0.000000;,
  -0.683028;0.258741;-0.683028;,
  0.000000;0.092177;-0.995743;,
  0.704096;0.092177;-0.704096;,
  0.995743;0.092177;0.000000;,
  0.704096;0.092177;0.704096;,
  0.000000;0.092177;0.995743;,
  -0.704096;0.092177;0.704096;,
  -0.995743;0.092177;0.000000;,
  -0.704096;0.092177;-0.704096;,
  0.000000;0.000000;-1.000000;,
  0.707107;0.000000;-0.707107;,
  1.000000;0.000000;0.000000;,
  0.707107;0.000000;0.707107;,
  0.000000;0.000000;1.000000;,
  -0.707107;0.000000;0.707107;,
  -1.000000;0.000000;0.000000;,
  -0.707107;0.000000;-0.707107;,
  0.000000;-1.000000;-0.000000;,
  0.000000;1.000000;0.000000;,
  0.000000;0.087666;-0.996150;,
  0.704384;0.087666;-0.704384;,
  0.996150;0.087666;0.000000;,
  0.704384;0.087666;0.704384;,
  0.000000;0.087666;0.996150;,
  -0.704384;0.087666;0.704384;,
  -0.996150;0.087666;0.000000;,
  -0.704384;0.087666;-0.704384;;
  72;
  4;1,2,10,9;,
  4;2,3,11,10;,
  4;3,4,12,11;,
  4;4,5,13,12;,
  4;5,6,14,13;,
  4;6,7,15,14;,
  4;7,8,16,15;,
  4;8,1,9,16;,
  4;9,10,18,17;,
  4;10,11,19,18;,
  4;11,12,20,19;,
  4;12,13,21,20;,
  4;13,14,22,21;,
  4;14,15,23,22;,
  4;15,16,24,23;,
  4;16,9,17,24;,
  4;17,18,26,25;,
  4;18,19,27,26;,
  4;19,20,28,27;,
  4;20,21,29,28;,
  4;21,22,30,29;,
  4;22,23,31,30;,
  4;23,24,32,31;,
  4;24,17,25,32;,
  4;25,26,34,33;,
  4;26,27,35,34;,
  4;27,28,36,35;,
  4;28,29,37,36;,
  4;29,30,38,37;,
  4;30,31,39,38;,
  4;31,32,40,39;,
  4;32,25,33,40;,
  4;33,34,42,41;,
  4;34,35,43,42;,
  4;35,36,44,43;,
  4;36,37,45,44;,
  4;37,38,46,45;,
  4;38,39,47,46;,
  4;39,40,48,47;,
  4;40,33,41,48;,
  3;0,0,0;,
  3;0,0,0;,
  3;0,0,0;,
  3;0,0,0;,
  3;0,0,0;,
  3;0,0,0;,
  3;0,0,0;,
  3;0,0,0;,
  3;49,49,49;,
  3;49,49,49;,
  3;49,49,49;,
  3;49,49,49;,
  3;49,49,49;,
  3;49,49,49;,
  3;49,49,49;,
  3;49,49,49;,
  4;51,52,52,51;,
  4;52,53,53,52;,
  4;53,54,54,53;,
  4;54,55,55,54;,
  4;55,56,56,55;,
  4;56,57,57,56;,
  4;57,58,58,57;,
  4;58,51,51,58;,
  3;50,50,50;,
  3;50,50,50;,
  3;50,50,50;,
  3;50,50,50;,
  3;50,50,50;,
  3;50,50,50;,
  3;50,50,50;,
  3;50,50,50;;
 }
}
