xof 0302txt 0064
template Header {
 <3D82AB43-62DA-11cf-AB39-0020AF71E433>
 WORD major;
 WORD minor;
 DWORD flags;
}

template Vector {
 <3D82AB5E-62DA-11cf-AB39-0020AF71E433>
 FLOAT x;
 FLOAT y;
 FLOAT z;
}

template Coords2d {
 <F6F23F44-7686-11cf-8F52-0040333594A3>
 FLOAT u;
 FLOAT v;
}

template Matrix4x4 {
 <F6F23F45-7686-11cf-8F52-0040333594A3>
 array FLOAT matrix[16];
}

template ColorRGBA {
 <35FF44E0-6C7C-11cf-8F52-0040333594A3>
 FLOAT red;
 FLOAT green;
 FLOAT blue;
 FLOAT alpha;
}

template ColorRGB {
 <D3E16E81-7835-11cf-8F52-0040333594A3>
 FLOAT red;
 FLOAT green;
 FLOAT blue;
}

template IndexedColor {
 <1630B820-7842-11cf-8F52-0040333594A3>
 DWORD index;
 ColorRGBA indexColor;
}

template Boolean {
 <4885AE61-78E8-11cf-8F52-0040333594A3>
 WORD truefalse;
}

template Boolean2d {
 <4885AE63-78E8-11cf-8F52-0040333594A3>
 Boolean u;
 Boolean v;
}

template MaterialWrap {
 <4885AE60-78E8-11cf-8F52-0040333594A3>
 Boolean u;
 Boolean v;
}

template TextureFilename {
 <A42790E1-7810-11cf-8F52-0040333594A3>
 STRING filename;
}

template Material {
 <3D82AB4D-62DA-11cf-AB39-0020AF71E433>
 ColorRGBA faceColor;
 FLOAT power;
 ColorRGB specularColor;
 ColorRGB emissiveColor;
 [...]
}

template MeshFace {
 <3D82AB5F-62DA-11cf-AB39-0020AF71E433>
 DWORD nFaceVertexIndices;
 array DWORD faceVertexIndices[nFaceVertexIndices];
}

template MeshFaceWraps {
 <4885AE62-78E8-11cf-8F52-0040333594A3>
 DWORD nFaceWrapValues;
 Boolean2d faceWrapValues;
}

template MeshTextureCoords {
 <F6F23F40-7686-11cf-8F52-0040333594A3>
 DWORD nTextureCoords;
 array Coords2d textureCoords[nTextureCoords];
}

template MeshMaterialList {
 <F6F23F42-7686-11cf-8F52-0040333594A3>
 DWORD nMaterials;
 DWORD nFaceIndexes;
 array DWORD faceIndexes[nFaceIndexes];
 [Material]
}

template MeshNormals {
 <F6F23F43-7686-11cf-8F52-0040333594A3>
 DWORD nNormals;
 array Vector normals[nNormals];
 DWORD nFaceNormals;
 array MeshFace faceNormals[nFaceNormals];
}

template MeshVertexColors {
 <1630B821-7842-11cf-8F52-0040333594A3>
 DWORD nVertexColors;
 array IndexedColor vertexColors[nVertexColors];
}

template Mesh {
 <3D82AB44-62DA-11cf-AB39-0020AF71E433>
 DWORD nVertices;
 array Vector vertices[nVertices];
 DWORD nFaces;
 array MeshFace faces[nFaces];
 [...]
}

Header{
1;
0;
1;
}

Mesh {
 303;
 -83.35087;343.47368;-6.20838;,
 83.35087;343.47368;-6.20838;,
 83.35087;5.00332;-6.20838;,
 -83.35087;5.00332;-6.20838;,
 83.35087;343.47368;-6.20838;,
 83.35087;343.47368;1.74669;,
 83.35087;5.00332;1.74669;,
 83.35087;5.00332;-6.20838;,
 83.35087;343.47368;1.74669;,
 -83.35087;343.47368;1.74669;,
 -83.35087;5.00332;1.74669;,
 83.35087;5.00332;1.74669;,
 -83.35087;343.47368;1.74669;,
 -83.35087;343.47368;-6.20838;,
 -83.35087;5.00332;-6.20838;,
 -83.35087;5.00332;1.74669;,
 83.35087;343.47368;-6.20838;,
 -83.35087;343.47368;-6.20838;,
 -83.35087;5.00332;-6.20838;,
 83.35087;5.00332;-6.20838;,
 82.42957;323.03457;-2.23084;,
 85.44754;326.70068;-10.46312;,
 85.44754;21.77610;-10.46312;,
 82.42957;25.44230;-2.23084;,
 92.73333;335.55139;-13.87304;,
 92.73333;12.92608;-13.87304;,
 100.01902;344.40136;-10.46312;,
 100.01902;4.07590;-10.46312;,
 103.03686;348.06700;-2.23084;,
 103.03686;0.41017;-2.23084;,
 100.01902;344.40149;6.00144;,
 100.01902;4.07590;6.00144;,
 92.73333;335.55139;9.41136;,
 92.73333;12.92608;9.41136;,
 85.44754;326.70068;6.00144;,
 85.44754;21.77610;6.00144;,
 82.42957;323.03457;-2.23084;,
 82.42957;25.44230;-2.23084;,
 -85.44770;21.77610;-10.46312;,
 -82.42957;25.44230;-2.23084;,
 -92.73333;12.92608;-13.87304;,
 -100.01902;4.07590;-10.46312;,
 -103.03686;0.41017;-2.23084;,
 -100.01902;4.07590;6.00144;,
 -92.73333;12.92621;9.41136;,
 -85.44770;21.77632;6.00144;,
 -82.42957;25.44230;-2.23084;,
 -85.44754;326.70068;-10.46312;,
 -82.42957;323.03453;-2.23084;,
 -92.73333;335.55139;-13.87304;,
 -100.01902;344.40106;-10.46312;,
 -103.03686;348.06688;-2.23084;,
 -100.01902;344.40128;6.00144;,
 -92.73333;335.55139;9.41136;,
 -85.44754;326.70081;6.00144;,
 -82.42957;323.03453;-2.23084;,
 85.44754;326.70068;-10.46312;,
 82.42957;323.03457;-2.23084;,
 92.73333;335.55139;-13.87304;,
 100.01902;344.40136;-10.46312;,
 103.03686;348.06700;-2.23084;,
 100.01902;344.40149;6.00144;,
 92.73333;335.55139;9.41136;,
 85.44754;326.70068;6.00144;,
 82.42957;323.03457;-2.23084;,
 -59.92080;201.38853;-23.05193;,
 -55.89318;201.38853;-21.25406;,
 -55.89318;135.46350;-21.25406;,
 -59.92080;135.46350;-23.05193;,
 -54.22485;201.38853;-16.91354;,
 -54.22485;135.46350;-16.91354;,
 -55.89318;201.38853;-12.57300;,
 -55.89318;135.46350;-12.57300;,
 -59.92080;201.38853;-10.77513;,
 -59.92080;135.46350;-10.77513;,
 -63.94839;201.38853;-12.57300;,
 -63.94839;135.46350;-12.57300;,
 -65.61673;201.38853;-16.91354;,
 -65.61673;135.46350;-16.91354;,
 -63.94839;201.38853;-21.25406;,
 -63.94839;135.46350;-21.25406;,
 -59.92080;201.38853;-23.05193;,
 -59.92080;135.46350;-23.05193;,
 -59.92080;201.38853;-16.91354;,
 -59.92080;201.38853;-16.91354;,
 -59.92080;201.38853;-16.91354;,
 -59.92080;201.38853;-16.91354;,
 -59.92080;201.38853;-16.91354;,
 -59.92080;201.38853;-16.91354;,
 -59.92080;201.38853;-16.91354;,
 -59.92080;201.38853;-16.91354;,
 -59.92080;135.46350;-16.91354;,
 -59.92080;135.46350;-16.91354;,
 -59.92080;135.46350;-16.91354;,
 -59.92080;135.46350;-16.91354;,
 -59.92080;135.46350;-16.91354;,
 -59.92080;135.46350;-16.91354;,
 -59.92080;135.46350;-16.91354;,
 -59.92080;135.46350;-16.91354;,
 55.03153;202.57570;20.45664;,
 51.00390;202.57570;18.73769;,
 51.00390;136.65068;18.73769;,
 55.03153;136.65068;20.45664;,
 49.33557;202.57570;14.58768;,
 49.33557;136.65068;14.58768;,
 51.00390;202.57570;10.43768;,
 51.00390;136.65068;10.43768;,
 55.03153;202.57570;8.71874;,
 55.03153;136.65068;8.71874;,
 59.05914;202.57570;10.43768;,
 59.05914;136.65068;10.43768;,
 60.72748;202.57570;14.58768;,
 60.72748;136.65068;14.58768;,
 59.05914;202.57570;18.73769;,
 59.05914;136.65068;18.73769;,
 55.03153;202.57570;20.45664;,
 55.03153;136.65068;20.45664;,
 55.03153;202.57570;14.58768;,
 55.03153;202.57570;14.58768;,
 55.03153;202.57570;14.58768;,
 55.03153;202.57570;14.58768;,
 55.03153;202.57570;14.58768;,
 55.03153;202.57570;14.58768;,
 55.03153;202.57570;14.58768;,
 55.03153;202.57570;14.58768;,
 55.03153;136.65068;14.58768;,
 55.03153;136.65068;14.58768;,
 55.03153;136.65068;14.58768;,
 55.03153;136.65068;14.58768;,
 55.03153;136.65068;14.58768;,
 55.03153;136.65068;14.58768;,
 55.03153;136.65068;14.58768;,
 55.03153;136.65068;14.58768;,
 55.03153;180.89057;14.17068;,
 51.00390;182.55736;14.11972;,
 51.00390;182.52083;-3.35761;,
 55.03153;180.85410;-3.33832;,
 49.33557;186.58129;13.99653;,
 49.33557;186.54459;-3.40483;,
 51.00390;190.60499;13.87379;,
 51.00390;190.56831;-3.45170;,
 55.03153;192.27163;13.82238;,
 55.03153;192.23534;-3.47117;,
 59.05914;190.60499;13.87379;,
 59.05913;190.56831;-3.45171;,
 60.72748;186.58129;13.99653;,
 60.72747;186.54459;-3.40483;,
 59.05914;182.55736;14.11972;,
 59.05913;182.52083;-3.35761;,
 55.03153;180.89057;14.17068;,
 55.03153;180.85410;-3.33832;,
 55.03153;186.58129;13.99653;,
 55.03153;186.58129;13.99653;,
 55.03153;186.58129;13.99653;,
 55.03153;186.58129;13.99653;,
 55.03153;186.58129;13.99653;,
 55.03153;186.58129;13.99653;,
 55.03153;186.58129;13.99653;,
 55.03153;186.58129;13.99653;,
 55.03153;186.54459;-3.40483;,
 55.03153;186.54459;-3.40483;,
 55.03153;186.54459;-3.40483;,
 55.03153;186.54459;-3.40483;,
 55.03153;186.54459;-3.40483;,
 55.03153;186.54459;-3.40483;,
 55.03153;186.54459;-3.40483;,
 55.03153;186.54459;-3.40483;,
 55.03153;144.63599;14.17068;,
 51.00390;146.30275;14.11972;,
 51.00390;146.26627;-3.35761;,
 55.03153;144.59943;-3.33832;,
 49.33557;150.32667;13.99653;,
 49.33557;150.29003;-3.40483;,
 51.00390;154.35044;13.87379;,
 51.00390;154.31372;-3.45170;,
 55.03153;156.01707;13.82238;,
 55.03153;155.98072;-3.47117;,
 59.05914;154.35044;13.87379;,
 59.05913;154.31372;-3.45171;,
 60.72748;150.32667;13.99653;,
 60.72747;150.29003;-3.40483;,
 59.05914;146.30275;14.11972;,
 59.05913;146.26627;-3.35761;,
 55.03153;144.63599;14.17068;,
 55.03153;144.59943;-3.33832;,
 55.03153;150.32667;13.99653;,
 55.03153;150.32667;13.99653;,
 55.03153;150.32667;13.99653;,
 55.03153;150.32667;13.99653;,
 55.03153;150.32667;13.99653;,
 55.03153;150.32667;13.99653;,
 55.03153;150.32667;13.99653;,
 55.03153;150.32667;13.99653;,
 55.03153;150.29003;-3.40483;,
 55.03153;150.29003;-3.40483;,
 55.03153;150.29003;-3.40483;,
 55.03153;150.29003;-3.40483;,
 55.03153;150.29003;-3.40483;,
 55.03153;150.29003;-3.40483;,
 55.03153;150.29003;-3.40483;,
 55.03153;150.29003;-3.40483;,
 -59.92080;201.38853;-23.05193;,
 -55.89318;201.38853;-21.25406;,
 -55.89318;135.46350;-21.25406;,
 -59.92080;135.46350;-23.05193;,
 -54.22485;201.38853;-16.91354;,
 -54.22485;135.46350;-16.91354;,
 -55.89318;201.38853;-12.57300;,
 -55.89318;135.46350;-12.57300;,
 -59.92080;201.38853;-10.77513;,
 -59.92080;135.46350;-10.77513;,
 -63.94839;201.38853;-12.57300;,
 -63.94839;135.46350;-12.57300;,
 -65.61673;201.38853;-16.91354;,
 -65.61673;135.46350;-16.91354;,
 -63.94839;201.38853;-21.25406;,
 -63.94839;135.46350;-21.25406;,
 -59.92080;201.38853;-23.05193;,
 -59.92080;135.46350;-23.05193;,
 -59.92080;201.38853;-16.91354;,
 -59.92080;201.38853;-16.91354;,
 -59.92080;201.38853;-16.91354;,
 -59.92080;201.38853;-16.91354;,
 -59.92080;201.38853;-16.91354;,
 -59.92080;201.38853;-16.91354;,
 -59.92080;201.38853;-16.91354;,
 -59.92080;201.38853;-16.91354;,
 -59.92080;135.46350;-16.91354;,
 -59.92080;135.46350;-16.91354;,
 -59.92080;135.46350;-16.91354;,
 -59.92080;135.46350;-16.91354;,
 -59.92080;135.46350;-16.91354;,
 -59.92080;135.46350;-16.91354;,
 -59.92080;135.46350;-16.91354;,
 -59.92080;135.46350;-16.91354;,
 -59.92080;179.70342;-16.47739;,
 -55.89318;181.37030;-16.42409;,
 -55.89318;182.52083;-6.34969;,
 -59.92080;180.85410;-6.36899;,
 -54.22485;185.39417;-16.29524;,
 -54.22485;186.54459;-6.30248;,
 -55.89318;189.41789;-16.16686;,
 -55.89318;190.56831;-6.25560;,
 -59.92080;191.08451;-16.11310;,
 -59.92080;192.23534;-6.23614;,
 -63.94839;189.41789;-16.16686;,
 -63.94839;190.56831;-6.25560;,
 -65.61673;185.39417;-16.29524;,
 -65.61673;186.54459;-6.30248;,
 -63.94839;181.37030;-16.42409;,
 -63.94839;182.52083;-6.34969;,
 -59.92080;179.70342;-16.47739;,
 -59.92080;180.85410;-6.36899;,
 -59.92080;185.39417;-16.29524;,
 -59.92080;185.39417;-16.29524;,
 -59.92080;185.39417;-16.29524;,
 -59.92080;185.39417;-16.29524;,
 -59.92080;185.39417;-16.29524;,
 -59.92080;185.39417;-16.29524;,
 -59.92080;185.39417;-16.29524;,
 -59.92080;185.39417;-16.29524;,
 -59.92080;186.54459;-6.30248;,
 -59.92080;186.54459;-6.30248;,
 -59.92080;186.54459;-6.30248;,
 -59.92080;186.54459;-6.30248;,
 -59.92080;186.54459;-6.30248;,
 -59.92080;186.54459;-6.30248;,
 -59.92080;186.54459;-6.30248;,
 -59.92080;186.54459;-6.30248;,
 -59.92080;143.44888;-16.47739;,
 -55.89318;145.11570;-16.42409;,
 -55.89318;146.26627;-6.34969;,
 -59.92080;144.59943;-6.36899;,
 -54.22485;149.13960;-16.29524;,
 -54.22485;150.29003;-6.30248;,
 -55.89318;153.16334;-16.16686;,
 -55.89318;154.31372;-6.25560;,
 -59.92080;154.82995;-16.11310;,
 -59.92080;155.98072;-6.23614;,
 -63.94839;153.16334;-16.16686;,
 -63.94839;154.31372;-6.25560;,
 -65.61673;149.13960;-16.29524;,
 -65.61673;150.29003;-6.30248;,
 -63.94839;145.11570;-16.42409;,
 -63.94839;146.26627;-6.34969;,
 -59.92080;143.44888;-16.47739;,
 -59.92080;144.59943;-6.36899;,
 -59.92080;149.13960;-16.29524;,
 -59.92080;149.13960;-16.29524;,
 -59.92080;149.13960;-16.29524;,
 -59.92080;149.13960;-16.29524;,
 -59.92080;149.13960;-16.29524;,
 -59.92080;149.13960;-16.29524;,
 -59.92080;149.13960;-16.29524;,
 -59.92080;149.13960;-16.29524;,
 -59.92080;150.29003;-6.30248;,
 -59.92080;150.29003;-6.30248;,
 -59.92080;150.29003;-6.30248;,
 -59.92080;150.29003;-6.30248;,
 -59.92080;150.29003;-6.30248;,
 -59.92080;150.29003;-6.30248;,
 -59.92080;150.29003;-6.30248;,
 -59.92080;150.29003;-6.30248;;
 
 206;
 4;0,1,2,3;,
 4;4,5,6,7;,
 4;8,9,10,11;,
 4;12,13,14,15;,
 4;12,5,16,17;,
 4;18,19,6,15;,
 4;20,21,22,23;,
 4;21,24,25,22;,
 4;24,26,27,25;,
 4;26,28,29,27;,
 4;28,30,31,29;,
 4;30,32,33,31;,
 4;32,34,35,33;,
 4;34,36,37,35;,
 4;23,22,38,39;,
 4;22,25,40,38;,
 4;25,27,41,40;,
 4;27,29,42,41;,
 4;29,31,43,42;,
 4;31,33,44,43;,
 4;33,35,45,44;,
 4;35,37,46,45;,
 4;39,38,47,48;,
 4;38,40,49,47;,
 4;40,41,50,49;,
 4;41,42,51,50;,
 4;42,43,52,51;,
 4;43,44,53,52;,
 4;44,45,54,53;,
 4;45,46,55,54;,
 4;48,47,56,57;,
 4;47,49,58,56;,
 4;49,50,59,58;,
 4;50,51,60,59;,
 4;51,52,61,60;,
 4;52,53,62,61;,
 4;53,54,63,62;,
 4;54,55,64,63;,
 4;65,66,67,68;,
 4;66,69,70,67;,
 4;69,71,72,70;,
 4;71,73,74,72;,
 4;73,75,76,74;,
 4;75,77,78,76;,
 4;77,79,80,78;,
 4;79,81,82,80;,
 3;83,66,65;,
 3;84,69,66;,
 3;85,71,69;,
 3;86,73,71;,
 3;87,75,73;,
 3;88,77,75;,
 3;89,79,77;,
 3;90,81,79;,
 3;91,68,67;,
 3;92,67,70;,
 3;93,70,72;,
 3;94,72,74;,
 3;95,74,76;,
 3;96,76,78;,
 3;97,78,80;,
 3;98,80,82;,
 4;99,100,101,102;,
 4;100,103,104,101;,
 4;103,105,106,104;,
 4;105,107,108,106;,
 4;107,109,110,108;,
 4;109,111,112,110;,
 4;111,113,114,112;,
 4;113,115,116,114;,
 3;117,100,99;,
 3;118,103,100;,
 3;119,105,103;,
 3;120,107,105;,
 3;121,109,107;,
 3;122,111,109;,
 3;123,113,111;,
 3;124,115,113;,
 3;125,102,101;,
 3;126,101,104;,
 3;127,104,106;,
 3;128,106,108;,
 3;129,108,110;,
 3;130,110,112;,
 3;131,112,114;,
 3;132,114,116;,
 4;133,134,135,136;,
 4;134,137,138,135;,
 4;137,139,140,138;,
 4;139,141,142,140;,
 4;141,143,144,142;,
 4;143,145,146,144;,
 4;145,147,148,146;,
 4;147,149,150,148;,
 3;151,134,133;,
 3;152,137,134;,
 3;153,139,137;,
 3;154,141,139;,
 3;155,143,141;,
 3;156,145,143;,
 3;157,147,145;,
 3;158,149,147;,
 3;159,136,135;,
 3;160,135,138;,
 3;161,138,140;,
 3;162,140,142;,
 3;163,142,144;,
 3;164,144,146;,
 3;165,146,148;,
 3;166,148,150;,
 4;167,168,169,170;,
 4;168,171,172,169;,
 4;171,173,174,172;,
 4;173,175,176,174;,
 4;175,177,178,176;,
 4;177,179,180,178;,
 4;179,181,182,180;,
 4;181,183,184,182;,
 3;185,168,167;,
 3;186,171,168;,
 3;187,173,171;,
 3;188,175,173;,
 3;189,177,175;,
 3;190,179,177;,
 3;191,181,179;,
 3;192,183,181;,
 3;193,170,169;,
 3;194,169,172;,
 3;195,172,174;,
 3;196,174,176;,
 3;197,176,178;,
 3;198,178,180;,
 3;199,180,182;,
 3;200,182,184;,
 4;201,202,203,204;,
 4;202,205,206,203;,
 4;205,207,208,206;,
 4;207,209,210,208;,
 4;209,211,212,210;,
 4;211,213,214,212;,
 4;213,215,216,214;,
 4;215,217,218,216;,
 3;219,202,201;,
 3;220,205,202;,
 3;221,207,205;,
 3;222,209,207;,
 3;223,211,209;,
 3;224,213,211;,
 3;225,215,213;,
 3;226,217,215;,
 3;227,204,203;,
 3;228,203,206;,
 3;229,206,208;,
 3;230,208,210;,
 3;231,210,212;,
 3;232,212,214;,
 3;233,214,216;,
 3;234,216,218;,
 4;235,236,237,238;,
 4;236,239,240,237;,
 4;239,241,242,240;,
 4;241,243,244,242;,
 4;243,245,246,244;,
 4;245,247,248,246;,
 4;247,249,250,248;,
 4;249,251,252,250;,
 3;253,236,235;,
 3;254,239,236;,
 3;255,241,239;,
 3;256,243,241;,
 3;257,245,243;,
 3;258,247,245;,
 3;259,249,247;,
 3;260,251,249;,
 3;261,238,237;,
 3;262,237,240;,
 3;263,240,242;,
 3;264,242,244;,
 3;265,244,246;,
 3;266,246,248;,
 3;267,248,250;,
 3;268,250,252;,
 4;269,270,271,272;,
 4;270,273,274,271;,
 4;273,275,276,274;,
 4;275,277,278,276;,
 4;277,279,280,278;,
 4;279,281,282,280;,
 4;281,283,284,282;,
 4;283,285,286,284;,
 3;287,270,269;,
 3;288,273,270;,
 3;289,275,273;,
 3;290,277,275;,
 3;291,279,277;,
 3;292,281,279;,
 3;293,283,281;,
 3;294,285,283;,
 3;295,272,271;,
 3;296,271,274;,
 3;297,274,276;,
 3;298,276,278;,
 3;299,278,280;,
 3;300,280,282;,
 3;301,282,284;,
 3;302,284,286;;
 
 MeshMaterialList {
  3;
  206;
  2,
  2,
  2,
  2,
  2,
  2,
  0,
  0,
  0,
  0,
  0,
  0,
  0,
  0,
  0,
  0,
  0,
  0,
  0,
  0,
  0,
  0,
  0,
  0,
  0,
  0,
  0,
  0,
  0,
  0,
  0,
  0,
  0,
  0,
  0,
  0,
  0,
  0,
  1,
  1,
  1,
  1,
  1,
  1,
  1,
  1,
  1,
  1,
  1,
  1,
  1,
  1,
  1,
  1,
  1,
  1,
  1,
  1,
  1,
  1,
  1,
  1,
  1,
  1,
  1,
  1,
  1,
  1,
  1,
  1,
  1,
  1,
  1,
  1,
  1,
  1,
  1,
  1,
  1,
  1,
  1,
  1,
  1,
  1,
  1,
  1,
  1,
  1,
  1,
  1,
  1,
  1,
  1,
  1,
  1,
  1,
  1,
  1,
  1,
  1,
  1,
  1,
  1,
  1,
  1,
  1,
  1,
  1,
  1,
  1,
  1,
  1,
  1,
  1,
  1,
  1,
  1,
  1,
  1,
  1,
  1,
  1,
  1,
  1,
  1,
  1,
  1,
  1,
  1,
  1,
  1,
  1,
  1,
  1,
  1,
  1,
  1,
  1,
  1,
  1,
  1,
  1,
  1,
  1,
  1,
  1,
  1,
  1,
  1,
  1,
  1,
  1,
  1,
  1,
  1,
  1,
  1,
  1,
  1,
  1,
  1,
  1,
  1,
  1,
  1,
  1,
  1,
  1,
  1,
  1,
  1,
  1,
  1,
  1,
  1,
  1,
  1,
  1,
  1,
  1,
  1,
  1,
  1,
  1,
  1,
  1,
  1,
  1,
  1,
  1,
  1,
  1,
  1,
  1,
  1,
  1,
  1,
  1,
  1,
  1,
  1,
  1,
  1,
  1,
  1,
  1;;
  Material {
   0.000000;0.000000;0.000000;1.000000;;
   5.000000;
   0.000000;0.000000;0.000000;;
   0.000000;0.000000;0.000000;;
  }
  Material {
   0.800000;0.800000;0.800000;1.000000;;
   5.000000;
   0.000000;0.000000;0.000000;;
   0.000000;0.000000;0.000000;;
  }
  Material {
   1.000000;1.000000;1.000000;1.000000;;
   0.000000;
   0.000000;0.000000;0.000000;;
   0.000000;0.000000;0.000000;;
  }
 }
 MeshNormals {
  177;
  0.000000;0.000000;-1.000000;,
  1.000000;0.000000;0.000000;,
  0.000000;0.000000;1.000000;,
  -1.000000;0.000000;-0.000000;,
  -0.524454;-0.138354;-0.840123;,
  0.000001;0.000008;-1.000000;,
  0.524460;0.138367;-0.840117;,
  1.000000;0.000000;-0.000000;,
  0.524460;0.138364;0.840117;,
  0.000001;0.000006;1.000000;,
  -0.524454;-0.138355;0.840122;,
  -0.524455;0.138364;-0.840120;,
  0.000001;0.000002;-1.000000;,
  0.524460;-0.138362;-0.840118;,
  0.524460;-0.138361;0.840118;,
  0.000001;0.000002;1.000000;,
  -0.524455;0.138363;0.840121;,
  0.000000;1.000000;-0.000005;,
  0.162042;0.486641;-0.858442;,
  -0.000000;0.000002;-1.000000;,
  -0.162044;-0.486652;-0.858436;,
  0.000000;-1.000000;-0.000000;,
  -0.162044;-0.486651;0.858436;,
  -0.000000;0.000002;1.000000;,
  0.162043;0.486643;0.858441;,
  1.000000;-0.000000;-0.000000;,
  0.524453;-0.138354;-0.840123;,
  -0.000000;0.000008;-1.000000;,
  -0.524461;0.138367;-0.840117;,
  -1.000000;0.000000;0.000000;,
  -0.524460;0.138364;0.840117;,
  -0.000000;0.000006;1.000000;,
  0.524453;-0.138355;0.840123;,
  0.000000;1.000000;0.000000;,
  -0.000001;0.000000;-1.000000;,
  0.725557;0.000000;-0.688162;,
  1.000000;0.000000;-0.000001;,
  0.725557;0.000000;0.688162;,
  -0.000001;0.000000;1.000000;,
  -0.725558;0.000000;0.688161;,
  -1.000000;0.000000;-0.000001;,
  -0.725558;0.000000;-0.688161;,
  0.000000;-1.000000;-0.000000;,
  0.000000;0.913506;-0.406825;,
  0.000000;-0.913526;-0.406781;,
  0.000000;-0.913526;0.406781;,
  0.000001;0.913511;0.406815;,
  0.938893;-0.000000;-0.344209;,
  -0.938901;0.000000;-0.344187;,
  -0.938901;0.000000;0.344187;,
  0.938893;-0.000000;0.344209;,
  -0.000000;-1.000000;0.000003;,
  0.000000;-0.913509;-0.406819;,
  -0.000001;0.913526;-0.406781;,
  -0.000001;1.000000;-0.000009;,
  -0.000001;0.913533;0.406765;,
  -0.000000;-0.913506;0.406825;,
  0.000000;1.000000;0.000000;,
  0.000001;0.000000;1.000000;,
  -0.714545;0.000000;0.699589;,
  -1.000000;0.000000;-0.000000;,
  -0.714544;0.000000;-0.699591;,
  0.000001;0.000000;-1.000000;,
  0.714544;0.000000;-0.699591;,
  1.000000;0.000000;-0.000000;,
  0.714545;0.000000;0.699589;,
  0.000000;-1.000000;-0.000000;,
  -0.000000;0.030567;0.999533;,
  0.000001;-0.999998;0.002086;,
  -0.706882;-0.707330;0.001478;,
  -1.000000;0.000006;-0.000003;,
  -0.706884;0.707328;-0.001492;,
  0.000001;0.999998;-0.002108;,
  0.706884;0.707328;-0.001492;,
  1.000000;0.000006;-0.000003;,
  0.706882;-0.707330;0.001478;,
  -0.000000;-0.011682;-0.999932;,
  -0.000000;0.030567;0.999533;,
  0.000001;-0.999998;0.002088;,
  -0.706885;-0.707327;0.001479;,
  -1.000000;0.000005;-0.000003;,
  -0.706883;0.707329;-0.001493;,
  0.000001;0.999998;-0.002110;,
  0.706883;0.707329;-0.001493;,
  1.000000;0.000005;-0.000004;,
  0.706885;-0.707327;0.001478;,
  -0.000000;-0.011682;-0.999932;,
  0.000007;0.030594;0.999532;,
  -0.000000;0.030587;0.999532;,
  0.000000;0.030545;0.999533;,
  0.000050;0.030540;0.999534;,
  -0.000000;0.030590;0.999532;,
  -0.000050;0.030540;0.999534;,
  0.000000;0.030545;0.999533;,
  -0.000007;0.030594;0.999532;,
  -0.000000;-0.011687;-0.999932;,
  -0.000023;-0.011711;-0.999931;,
  0.000000;-0.011691;-0.999932;,
  -0.000004;-0.011653;-0.999932;,
  -0.000000;-0.011657;-0.999932;,
  0.000004;-0.011653;-0.999932;,
  0.000000;-0.011691;-0.999932;,
  0.000023;-0.011710;-0.999931;,
  0.000007;0.030594;0.999532;,
  -0.000000;0.030588;0.999532;,
  0.000000;0.030545;0.999533;,
  0.000050;0.030540;0.999534;,
  -0.000000;0.030590;0.999532;,
  -0.000050;0.030540;0.999534;,
  -0.000007;0.030594;0.999532;,
  -0.000000;-0.011687;-0.999932;,
  -0.000023;-0.011710;-0.999931;,
  0.000000;-0.011691;-0.999932;,
  -0.000004;-0.011653;-0.999932;,
  -0.000000;-0.011657;-0.999932;,
  0.000004;-0.011653;-0.999932;,
  0.000000;-0.011691;-0.999932;,
  0.000023;-0.011710;-0.999931;,
  0.000000;1.000000;0.000000;,
  -0.000001;0.000000;-1.000000;,
  0.725557;0.000000;-0.688162;,
  1.000000;0.000000;-0.000001;,
  0.725557;0.000000;0.688162;,
  -0.000001;0.000000;1.000000;,
  -0.725558;0.000000;0.688161;,
  -1.000000;0.000000;-0.000001;,
  -0.725558;0.000000;-0.688161;,
  0.000000;-1.000000;-0.000000;,
  0.000000;0.031970;-0.999489;,
  -0.000001;-0.993563;0.113285;,
  0.704621;-0.705001;0.080517;,
  1.000000;0.000001;-0.000194;,
  0.704565;0.704905;-0.081832;,
  -0.000001;0.993306;-0.115516;,
  -0.704565;0.704905;-0.081832;,
  -1.000000;0.000001;-0.000194;,
  -0.704621;-0.705001;0.080517;,
  -0.000000;-0.011681;0.999932;,
  0.000000;0.031970;-0.999489;,
  -0.000001;-0.993563;0.113280;,
  0.704625;-0.704998;0.080515;,
  1.000000;0.000003;-0.000194;,
  0.704563;0.704907;-0.081829;,
  -0.000000;0.993306;-0.115511;,
  -0.704563;0.704907;-0.081829;,
  -1.000000;0.000003;-0.000194;,
  -0.704625;-0.704997;0.080515;,
  -0.000000;-0.011681;0.999932;,
  -0.000006;0.031998;-0.999488;,
  0.000000;0.031991;-0.999488;,
  0.000000;0.031947;-0.999490;,
  -0.000051;0.031941;-0.999490;,
  0.000000;0.031993;-0.999488;,
  0.000051;0.031941;-0.999490;,
  0.000006;0.031998;-0.999488;,
  -0.000000;-0.011687;0.999932;,
  0.000023;-0.011710;0.999931;,
  0.000000;-0.011691;0.999932;,
  0.000004;-0.011653;0.999932;,
  -0.000000;-0.011656;0.999932;,
  -0.000004;-0.011653;0.999932;,
  0.000000;-0.011691;0.999932;,
  -0.000023;-0.011710;0.999931;,
  -0.000006;0.031998;-0.999488;,
  0.000000;0.031992;-0.999488;,
  0.000000;0.031947;-0.999490;,
  -0.000051;0.031941;-0.999490;,
  0.000000;0.031993;-0.999488;,
  0.000051;0.031941;-0.999490;,
  0.000006;0.031998;-0.999488;,
  -0.000000;-0.011687;0.999932;,
  0.000023;-0.011710;0.999931;,
  0.000000;-0.011691;0.999932;,
  0.000004;-0.011653;0.999932;,
  -0.000000;-0.011656;0.999932;,
  -0.000004;-0.011653;0.999932;,
  -0.000023;-0.011710;0.999931;;
  206;
  4;0,0,0,0;,
  4;1,1,1,1;,
  4;2,2,2,2;,
  4;29,29,29,29;,
  4;33,33,33,33;,
  4;42,42,42,42;,
  4;3,4,11,3;,
  4;4,5,12,11;,
  4;5,6,13,12;,
  4;6,7,7,13;,
  4;7,8,14,7;,
  4;8,9,15,14;,
  4;9,10,16,15;,
  4;10,3,3,16;,
  4;17,43,18,17;,
  4;11,12,19,18;,
  4;12,13,20,19;,
  4;44,21,21,20;,
  4;21,45,22,21;,
  4;14,15,23,22;,
  4;15,16,24,23;,
  4;46,17,17,24;,
  4;25,47,26,25;,
  4;18,19,27,26;,
  4;19,20,28,27;,
  4;48,29,29,28;,
  4;29,49,30,29;,
  4;22,23,31,30;,
  4;23,24,32,31;,
  4;50,25,25,32;,
  4;51,52,52,51;,
  4;26,27,5,4;,
  4;27,28,6,5;,
  4;53,54,54,53;,
  4;54,55,55,54;,
  4;30,31,9,8;,
  4;31,32,10,9;,
  4;56,51,51,56;,
  4;34,35,35,34;,
  4;35,36,36,35;,
  4;36,37,37,36;,
  4;37,38,38,37;,
  4;38,39,39,38;,
  4;39,40,40,39;,
  4;40,41,41,40;,
  4;41,34,34,41;,
  3;33,33,33;,
  3;33,33,33;,
  3;33,33,33;,
  3;33,33,33;,
  3;33,33,33;,
  3;33,33,33;,
  3;33,33,33;,
  3;33,33,33;,
  3;42,42,42;,
  3;42,42,42;,
  3;42,42,42;,
  3;42,42,42;,
  3;42,42,42;,
  3;42,42,42;,
  3;42,42,42;,
  3;42,42,42;,
  4;58,59,59,58;,
  4;59,60,60,59;,
  4;60,61,61,60;,
  4;61,62,62,61;,
  4;62,63,63,62;,
  4;63,64,64,63;,
  4;64,65,65,64;,
  4;65,58,58,65;,
  3;57,57,57;,
  3;57,57,57;,
  3;57,57,57;,
  3;57,57,57;,
  3;57,57,57;,
  3;57,57,57;,
  3;57,57,57;,
  3;57,57,57;,
  3;66,66,66;,
  3;66,66,66;,
  3;66,66,66;,
  3;66,66,66;,
  3;66,66,66;,
  3;66,66,66;,
  3;66,66,66;,
  3;66,66,66;,
  4;68,69,69,68;,
  4;69,70,70,69;,
  4;70,71,71,70;,
  4;71,72,72,71;,
  4;72,73,73,72;,
  4;73,74,74,73;,
  4;74,75,75,74;,
  4;75,68,68,75;,
  3;67,87,88;,
  3;67,89,87;,
  3;67,90,89;,
  3;67,91,90;,
  3;67,92,91;,
  3;67,93,92;,
  3;67,94,93;,
  3;67,88,94;,
  3;76,95,96;,
  3;76,96,97;,
  3;76,97,98;,
  3;76,98,99;,
  3;76,99,100;,
  3;76,100,101;,
  3;76,101,102;,
  3;76,102,95;,
  4;78,79,79,78;,
  4;79,80,80,79;,
  4;80,81,81,80;,
  4;81,82,82,81;,
  4;82,83,83,82;,
  4;83,84,84,83;,
  4;84,85,85,84;,
  4;85,78,78,85;,
  3;77,103,104;,
  3;77,105,103;,
  3;77,106,105;,
  3;77,107,106;,
  3;77,108,107;,
  3;77,105,108;,
  3;77,109,105;,
  3;77,104,109;,
  3;86,110,111;,
  3;86,111,112;,
  3;86,112,113;,
  3;86,113,114;,
  3;86,114,115;,
  3;86,115,116;,
  3;86,116,117;,
  3;86,117,110;,
  4;119,120,120,119;,
  4;120,121,121,120;,
  4;121,122,122,121;,
  4;122,123,123,122;,
  4;123,124,124,123;,
  4;124,125,125,124;,
  4;125,126,126,125;,
  4;126,119,119,126;,
  3;118,118,118;,
  3;118,118,118;,
  3;118,118,118;,
  3;118,118,118;,
  3;118,118,118;,
  3;118,118,118;,
  3;118,118,118;,
  3;118,118,118;,
  3;127,127,127;,
  3;127,127,127;,
  3;127,127,127;,
  3;127,127,127;,
  3;127,127,127;,
  3;127,127,127;,
  3;127,127,127;,
  3;127,127,127;,
  4;129,130,130,129;,
  4;130,131,131,130;,
  4;131,132,132,131;,
  4;132,133,133,132;,
  4;133,134,134,133;,
  4;134,135,135,134;,
  4;135,136,136,135;,
  4;136,129,129,136;,
  3;128,148,149;,
  3;128,150,148;,
  3;128,151,150;,
  3;128,152,151;,
  3;128,153,152;,
  3;128,150,153;,
  3;128,154,150;,
  3;128,149,154;,
  3;137,155,156;,
  3;137,156,157;,
  3;137,157,158;,
  3;137,158,159;,
  3;137,159,160;,
  3;137,160,161;,
  3;137,161,162;,
  3;137,162,155;,
  4;139,140,140,139;,
  4;140,141,141,140;,
  4;141,142,142,141;,
  4;142,143,143,142;,
  4;143,144,144,143;,
  4;144,145,145,144;,
  4;145,146,146,145;,
  4;146,139,139,146;,
  3;138,163,164;,
  3;138,165,163;,
  3;138,166,165;,
  3;138,167,166;,
  3;138,168,167;,
  3;138,165,168;,
  3;138,169,165;,
  3;138,164,169;,
  3;147,170,171;,
  3;147,171,172;,
  3;147,172,173;,
  3;147,173,174;,
  3;147,174,175;,
  3;147,175,172;,
  3;147,172,176;,
  3;147,176,170;;
 }
 MeshTextureCoords {
  303;
  0.000000;0.000000;,
  1.000000;0.000000;,
  1.000000;1.000000;,
  0.000000;1.000000;,
  0.000000;0.000000;,
  1.000000;0.000000;,
  1.000000;1.000000;,
  0.000000;1.000000;,
  0.000000;0.000000;,
  1.000000;0.000000;,
  1.000000;1.000000;,
  0.000000;1.000000;,
  0.000000;0.000000;,
  1.000000;0.000000;,
  1.000000;1.000000;,
  0.000000;1.000000;,
  1.000000;1.000000;,
  0.000000;1.000000;,
  0.000000;0.000000;,
  1.000000;0.000000;,
  0.000000;0.000000;,
  0.000000;0.125000;,
  0.250000;0.125000;,
  0.250000;0.000000;,
  0.000000;0.250000;,
  0.250000;0.250000;,
  0.000000;0.375000;,
  0.250000;0.375000;,
  0.000000;0.500000;,
  0.250000;0.500000;,
  0.000000;0.625000;,
  0.250000;0.625000;,
  0.000000;0.750000;,
  0.250000;0.750000;,
  0.000000;0.875000;,
  0.250000;0.875000;,
  0.000000;1.000000;,
  0.250000;1.000000;,
  0.500000;0.125000;,
  0.500000;0.000000;,
  0.500000;0.250000;,
  0.500000;0.375000;,
  0.500000;0.500000;,
  0.500000;0.625000;,
  0.500000;0.750000;,
  0.500000;0.875000;,
  0.500000;1.000000;,
  0.750000;0.125000;,
  0.750000;0.000000;,
  0.750000;0.250000;,
  0.750000;0.375000;,
  0.750000;0.500000;,
  0.750000;0.625000;,
  0.750000;0.750000;,
  0.750000;0.875000;,
  0.750000;1.000000;,
  1.000000;0.125000;,
  1.000000;0.000000;,
  1.000000;0.250000;,
  1.000000;0.375000;,
  1.000000;0.500000;,
  1.000000;0.625000;,
  1.000000;0.750000;,
  1.000000;0.875000;,
  1.000000;1.000000;,
  0.000000;0.000000;,
  0.125000;0.000000;,
  0.125000;1.000000;,
  0.000000;1.000000;,
  0.250000;0.000000;,
  0.250000;1.000000;,
  0.375000;0.000000;,
  0.375000;1.000000;,
  0.500000;0.000000;,
  0.500000;1.000000;,
  0.625000;0.000000;,
  0.625000;1.000000;,
  0.750000;0.000000;,
  0.750000;1.000000;,
  0.875000;0.000000;,
  0.875000;1.000000;,
  1.000000;0.000000;,
  1.000000;1.000000;,
  0.062500;0.000000;,
  0.187500;0.000000;,
  0.312500;0.000000;,
  0.437500;0.000000;,
  0.562500;0.000000;,
  0.687500;0.000000;,
  0.812500;0.000000;,
  0.937500;0.000000;,
  0.062500;1.000000;,
  0.187500;1.000000;,
  0.312500;1.000000;,
  0.437500;1.000000;,
  0.562500;1.000000;,
  0.687500;1.000000;,
  0.812500;1.000000;,
  0.937500;1.000000;,
  0.000000;0.000000;,
  0.125000;0.000000;,
  0.125000;1.000000;,
  0.000000;1.000000;,
  0.250000;0.000000;,
  0.250000;1.000000;,
  0.375000;0.000000;,
  0.375000;1.000000;,
  0.500000;0.000000;,
  0.500000;1.000000;,
  0.625000;0.000000;,
  0.625000;1.000000;,
  0.750000;0.000000;,
  0.750000;1.000000;,
  0.875000;0.000000;,
  0.875000;1.000000;,
  1.000000;0.000000;,
  1.000000;1.000000;,
  0.062500;0.000000;,
  0.187500;0.000000;,
  0.312500;0.000000;,
  0.437500;0.000000;,
  0.562500;0.000000;,
  0.687500;0.000000;,
  0.812500;0.000000;,
  0.937500;0.000000;,
  0.062500;1.000000;,
  0.187500;1.000000;,
  0.312500;1.000000;,
  0.437500;1.000000;,
  0.562500;1.000000;,
  0.687500;1.000000;,
  0.812500;1.000000;,
  0.937500;1.000000;,
  0.000000;0.000000;,
  0.125000;0.000000;,
  0.125000;1.000000;,
  0.000000;1.000000;,
  0.250000;0.000000;,
  0.250000;1.000000;,
  0.375000;0.000000;,
  0.375000;1.000000;,
  0.500000;0.000000;,
  0.500000;1.000000;,
  0.625000;0.000000;,
  0.625000;1.000000;,
  0.750000;0.000000;,
  0.750000;1.000000;,
  0.875000;0.000000;,
  0.875000;1.000000;,
  1.000000;0.000000;,
  1.000000;1.000000;,
  0.062500;0.000000;,
  0.187500;0.000000;,
  0.312500;0.000000;,
  0.437500;0.000000;,
  0.562500;0.000000;,
  0.687500;0.000000;,
  0.812500;0.000000;,
  0.937500;0.000000;,
  0.062500;1.000000;,
  0.187500;1.000000;,
  0.312500;1.000000;,
  0.437500;1.000000;,
  0.562500;1.000000;,
  0.687500;1.000000;,
  0.812500;1.000000;,
  0.937500;1.000000;,
  0.000000;0.000000;,
  0.125000;0.000000;,
  0.125000;1.000000;,
  0.000000;1.000000;,
  0.250000;0.000000;,
  0.250000;1.000000;,
  0.375000;0.000000;,
  0.375000;1.000000;,
  0.500000;0.000000;,
  0.500000;1.000000;,
  0.625000;0.000000;,
  0.625000;1.000000;,
  0.750000;0.000000;,
  0.750000;1.000000;,
  0.875000;0.000000;,
  0.875000;1.000000;,
  1.000000;0.000000;,
  1.000000;1.000000;,
  0.062500;0.000000;,
  0.187500;0.000000;,
  0.312500;0.000000;,
  0.437500;0.000000;,
  0.562500;0.000000;,
  0.687500;0.000000;,
  0.812500;0.000000;,
  0.937500;0.000000;,
  0.062500;1.000000;,
  0.187500;1.000000;,
  0.312500;1.000000;,
  0.437500;1.000000;,
  0.562500;1.000000;,
  0.687500;1.000000;,
  0.812500;1.000000;,
  0.937500;1.000000;,
  0.000000;0.000000;,
  0.125000;0.000000;,
  0.125000;1.000000;,
  0.000000;1.000000;,
  0.250000;0.000000;,
  0.250000;1.000000;,
  0.375000;0.000000;,
  0.375000;1.000000;,
  0.500000;0.000000;,
  0.500000;1.000000;,
  0.625000;0.000000;,
  0.625000;1.000000;,
  0.750000;0.000000;,
  0.750000;1.000000;,
  0.875000;0.000000;,
  0.875000;1.000000;,
  1.000000;0.000000;,
  1.000000;1.000000;,
  0.062500;0.000000;,
  0.187500;0.000000;,
  0.312500;0.000000;,
  0.437500;0.000000;,
  0.562500;0.000000;,
  0.687500;0.000000;,
  0.812500;0.000000;,
  0.937500;0.000000;,
  0.062500;1.000000;,
  0.187500;1.000000;,
  0.312500;1.000000;,
  0.437500;1.000000;,
  0.562500;1.000000;,
  0.687500;1.000000;,
  0.812500;1.000000;,
  0.937500;1.000000;,
  0.000000;0.000000;,
  0.125000;0.000000;,
  0.125000;1.000000;,
  0.000000;1.000000;,
  0.250000;0.000000;,
  0.250000;1.000000;,
  0.375000;0.000000;,
  0.375000;1.000000;,
  0.500000;0.000000;,
  0.500000;1.000000;,
  0.625000;0.000000;,
  0.625000;1.000000;,
  0.750000;0.000000;,
  0.750000;1.000000;,
  0.875000;0.000000;,
  0.875000;1.000000;,
  1.000000;0.000000;,
  1.000000;1.000000;,
  0.062500;0.000000;,
  0.187500;0.000000;,
  0.312500;0.000000;,
  0.437500;0.000000;,
  0.562500;0.000000;,
  0.687500;0.000000;,
  0.812500;0.000000;,
  0.937500;0.000000;,
  0.062500;1.000000;,
  0.187500;1.000000;,
  0.312500;1.000000;,
  0.437500;1.000000;,
  0.562500;1.000000;,
  0.687500;1.000000;,
  0.812500;1.000000;,
  0.937500;1.000000;,
  0.000000;0.000000;,
  0.125000;0.000000;,
  0.125000;1.000000;,
  0.000000;1.000000;,
  0.250000;0.000000;,
  0.250000;1.000000;,
  0.375000;0.000000;,
  0.375000;1.000000;,
  0.500000;0.000000;,
  0.500000;1.000000;,
  0.625000;0.000000;,
  0.625000;1.000000;,
  0.750000;0.000000;,
  0.750000;1.000000;,
  0.875000;0.000000;,
  0.875000;1.000000;,
  1.000000;0.000000;,
  1.000000;1.000000;,
  0.062500;0.000000;,
  0.187500;0.000000;,
  0.312500;0.000000;,
  0.437500;0.000000;,
  0.562500;0.000000;,
  0.687500;0.000000;,
  0.812500;0.000000;,
  0.937500;0.000000;,
  0.062500;1.000000;,
  0.187500;1.000000;,
  0.312500;1.000000;,
  0.437500;1.000000;,
  0.562500;1.000000;,
  0.687500;1.000000;,
  0.812500;1.000000;,
  0.937500;1.000000;;
 }
}
