xof 0302txt 0064
template Header {
 <3D82AB43-62DA-11cf-AB39-0020AF71E433>
 WORD major;
 WORD minor;
 DWORD flags;
}

template Vector {
 <3D82AB5E-62DA-11cf-AB39-0020AF71E433>
 FLOAT x;
 FLOAT y;
 FLOAT z;
}

template Coords2d {
 <F6F23F44-7686-11cf-8F52-0040333594A3>
 FLOAT u;
 FLOAT v;
}

template Matrix4x4 {
 <F6F23F45-7686-11cf-8F52-0040333594A3>
 array FLOAT matrix[16];
}

template ColorRGBA {
 <35FF44E0-6C7C-11cf-8F52-0040333594A3>
 FLOAT red;
 FLOAT green;
 FLOAT blue;
 FLOAT alpha;
}

template ColorRGB {
 <D3E16E81-7835-11cf-8F52-0040333594A3>
 FLOAT red;
 FLOAT green;
 FLOAT blue;
}

template IndexedColor {
 <1630B820-7842-11cf-8F52-0040333594A3>
 DWORD index;
 ColorRGBA indexColor;
}

template Boolean {
 <4885AE61-78E8-11cf-8F52-0040333594A3>
 WORD truefalse;
}

template Boolean2d {
 <4885AE63-78E8-11cf-8F52-0040333594A3>
 Boolean u;
 Boolean v;
}

template MaterialWrap {
 <4885AE60-78E8-11cf-8F52-0040333594A3>
 Boolean u;
 Boolean v;
}

template TextureFilename {
 <A42790E1-7810-11cf-8F52-0040333594A3>
 STRING filename;
}

template Material {
 <3D82AB4D-62DA-11cf-AB39-0020AF71E433>
 ColorRGBA faceColor;
 FLOAT power;
 ColorRGB specularColor;
 ColorRGB emissiveColor;
 [...]
}

template MeshFace {
 <3D82AB5F-62DA-11cf-AB39-0020AF71E433>
 DWORD nFaceVertexIndices;
 array DWORD faceVertexIndices[nFaceVertexIndices];
}

template MeshFaceWraps {
 <4885AE62-78E8-11cf-8F52-0040333594A3>
 DWORD nFaceWrapValues;
 Boolean2d faceWrapValues;
}

template MeshTextureCoords {
 <F6F23F40-7686-11cf-8F52-0040333594A3>
 DWORD nTextureCoords;
 array Coords2d textureCoords[nTextureCoords];
}

template MeshMaterialList {
 <F6F23F42-7686-11cf-8F52-0040333594A3>
 DWORD nMaterials;
 DWORD nFaceIndexes;
 array DWORD faceIndexes[nFaceIndexes];
 [Material]
}

template MeshNormals {
 <F6F23F43-7686-11cf-8F52-0040333594A3>
 DWORD nNormals;
 array Vector normals[nNormals];
 DWORD nFaceNormals;
 array MeshFace faceNormals[nFaceNormals];
}

template MeshVertexColors {
 <1630B821-7842-11cf-8F52-0040333594A3>
 DWORD nVertexColors;
 array IndexedColor vertexColors[nVertexColors];
}

template Mesh {
 <3D82AB44-62DA-11cf-AB39-0020AF71E433>
 DWORD nVertices;
 array Vector vertices[nVertices];
 DWORD nFaces;
 array MeshFace faces[nFaces];
 [...]
}

Header{
1;
0;
1;
}

Mesh {
 148;
 -41.62575;101.71730;-5.01575;,
 41.62575;101.71730;-5.01575;,
 41.62575;1.71730;-5.01575;,
 -41.62575;1.71730;-5.01575;,
 41.62575;101.71730;2.61055;,
 41.62575;1.71730;2.61055;,
 -41.62575;101.71730;2.61055;,
 -41.62575;1.71730;2.61055;,
 41.35355;95.67865;-1.20260;,
 42.24520;96.76175;-9.09465;,
 42.24520;6.67280;-9.09465;,
 41.35355;7.75595;-1.20260;,
 44.39775;99.37660;-12.36364;,
 44.39775;4.05805;-12.36364;,
 46.55030;101.99135;-9.09465;,
 46.55030;1.44330;-9.09465;,
 47.44190;103.07435;-1.20260;,
 47.44190;0.36030;-1.20260;,
 46.55030;101.99140;6.68945;,
 46.55030;1.44330;6.68945;,
 44.39775;99.37660;9.95844;,
 44.39775;4.05805;9.95844;,
 42.24520;96.76175;6.68945;,
 42.24520;6.67280;6.68945;,
 -42.24525;6.67280;-9.09465;,
 -41.35355;7.75595;-1.20260;,
 -44.39775;4.05805;-12.36364;,
 -46.55030;1.44330;-9.09465;,
 -47.44190;0.36030;-1.20260;,
 -46.55030;1.44330;6.68945;,
 -44.39775;4.05810;9.95844;,
 -42.24525;6.67285;6.68945;,
 -42.24520;96.76175;-9.09465;,
 -41.35355;95.67860;-1.20260;,
 -44.39775;99.37660;-12.36364;,
 -46.55030;101.99125;-9.09465;,
 -47.44190;103.07430;-1.20260;,
 -46.55030;101.99130;6.68945;,
 -44.39775;99.37660;9.95844;,
 -42.24520;96.76180;6.68945;,
 34.31990;55.56035;-7.63460;,
 36.10482;56.29902;-7.62597;,
 36.10482;56.24644;-3.02360;,
 34.31990;55.50777;-3.03215;,
 36.84417;58.08230;-7.60512;,
 36.84417;58.02965;-3.00267;,
 36.10482;59.86550;-7.58435;,
 36.10482;59.81285;-2.98190;,
 34.31990;60.60410;-7.57565;,
 34.31990;60.55160;-2.97327;,
 32.53497;59.86550;-7.58435;,
 32.53497;59.81285;-2.98190;,
 31.79562;58.08230;-7.60512;,
 31.79562;58.02965;-3.00267;,
 32.53497;56.29902;-7.62597;,
 32.53497;56.24644;-3.02360;,
 34.31990;58.08230;-7.60512;,
 34.31990;58.02965;-3.00267;,
 34.25000;66.71408;-11.82433;,
 36.14503;66.71408;-11.03938;,
 36.14503;33.28593;-11.03938;,
 34.25000;33.28593;-11.82433;,
 36.93000;66.71408;-9.14435;,
 36.93000;33.28593;-9.14435;,
 36.14503;66.71408;-7.24932;,
 36.14503;33.28593;-7.24932;,
 34.25000;66.71408;-6.46437;,
 34.25000;33.28593;-6.46437;,
 32.35497;66.71408;-7.24932;,
 32.35497;33.28593;-7.24932;,
 31.57001;66.71408;-9.14435;,
 31.57001;33.28593;-9.14435;,
 32.35497;66.71408;-11.03938;,
 32.35497;33.28593;-11.03938;,
 34.25000;66.71408;-9.14435;,
 34.25000;33.28593;-9.14435;,
 34.31990;39.49340;-7.63460;,
 36.10482;40.23207;-7.62597;,
 36.10482;40.17950;-3.02360;,
 34.31990;39.44082;-3.03215;,
 36.84417;42.01535;-7.60512;,
 36.84417;41.96270;-3.00267;,
 36.10482;43.79855;-7.58435;,
 36.10482;43.74590;-2.98190;,
 34.31990;44.53715;-7.57565;,
 34.31990;44.48465;-2.97327;,
 32.53497;43.79855;-7.58435;,
 32.53497;43.74590;-2.98190;,
 31.79562;42.01535;-7.60512;,
 31.79562;41.96270;-3.00267;,
 32.53497;40.23207;-7.62597;,
 32.53497;40.17950;-3.02360;,
 34.31990;42.01535;-7.60512;,
 34.31990;41.96270;-3.00267;,
 34.18010;55.56035;5.21199;,
 32.39518;56.29902;5.20337;,
 32.39518;56.24644;0.60099;,
 34.18010;55.50777;0.60954;,
 31.65583;58.08230;5.18252;,
 31.65583;58.02965;0.58007;,
 32.39518;59.86550;5.16174;,
 32.39518;59.81285;0.55929;,
 34.18010;60.60410;5.15304;,
 34.18010;60.55160;0.55067;,
 35.96503;59.86550;5.16174;,
 35.96503;59.81285;0.55929;,
 36.70438;58.08230;5.18252;,
 36.70438;58.02965;0.58007;,
 35.96503;56.29902;5.20337;,
 35.96503;56.24644;0.60099;,
 34.18010;58.08230;5.18252;,
 34.18010;58.02965;0.58007;,
 34.25000;66.71408;9.40173;,
 32.35497;66.71408;8.61677;,
 32.35497;33.28593;8.61677;,
 34.25000;33.28593;9.40173;,
 31.57001;66.71408;6.72174;,
 31.57001;33.28593;6.72174;,
 32.35497;66.71408;4.82671;,
 32.35497;33.28593;4.82671;,
 34.25000;66.71408;4.04176;,
 34.25000;33.28593;4.04176;,
 36.14503;66.71408;4.82671;,
 36.14503;33.28593;4.82671;,
 36.93000;66.71408;6.72174;,
 36.93000;33.28593;6.72174;,
 36.14503;66.71408;8.61677;,
 36.14503;33.28593;8.61677;,
 34.25000;66.71408;6.72174;,
 34.25000;33.28593;6.72174;,
 34.18010;39.49340;5.21199;,
 32.39518;40.23207;5.20337;,
 32.39518;40.17950;0.60099;,
 34.18010;39.44082;0.60954;,
 31.65583;42.01535;5.18252;,
 31.65583;41.96270;0.58007;,
 32.39518;43.79855;5.16174;,
 32.39518;43.74590;0.55929;,
 34.18010;44.53715;5.15304;,
 34.18010;44.48465;0.55067;,
 35.96503;43.79855;5.16174;,
 35.96503;43.74590;0.55929;,
 36.70438;42.01535;5.18252;,
 36.70438;41.96270;0.58007;,
 35.96503;40.23207;5.20337;,
 35.96503;40.17950;0.60099;,
 34.18010;42.01535;5.18252;,
 34.18010;41.96270;0.58007;;
 
 182;
 4;0,1,2,3;,
 4;1,4,5,2;,
 4;4,6,7,5;,
 4;6,0,3,7;,
 4;6,4,1,0;,
 4;3,2,5,7;,
 4;8,9,10,11;,
 4;9,12,13,10;,
 4;12,14,15,13;,
 4;14,16,17,15;,
 4;16,18,19,17;,
 4;18,20,21,19;,
 4;20,22,23,21;,
 4;22,8,11,23;,
 4;11,10,24,25;,
 4;10,13,26,24;,
 4;13,15,27,26;,
 4;15,17,28,27;,
 4;17,19,29,28;,
 4;19,21,30,29;,
 4;21,23,31,30;,
 4;23,11,25,31;,
 4;25,24,32,33;,
 4;24,26,34,32;,
 4;26,27,35,34;,
 4;27,28,36,35;,
 4;28,29,37,36;,
 4;29,30,38,37;,
 4;30,31,39,38;,
 4;31,25,33,39;,
 4;33,32,9,8;,
 4;32,34,12,9;,
 4;34,35,14,12;,
 4;35,36,16,14;,
 4;36,37,18,16;,
 4;37,38,20,18;,
 4;38,39,22,20;,
 4;39,33,8,22;,
 4;40,41,42,43;,
 4;41,44,45,42;,
 4;44,46,47,45;,
 4;46,48,49,47;,
 4;48,50,51,49;,
 4;50,52,53,51;,
 4;52,54,55,53;,
 4;54,40,43,55;,
 3;56,41,40;,
 3;56,44,41;,
 3;56,46,44;,
 3;56,48,46;,
 3;56,50,48;,
 3;56,52,50;,
 3;56,54,52;,
 3;56,40,54;,
 3;57,43,42;,
 3;57,42,45;,
 3;57,45,47;,
 3;57,47,49;,
 3;57,49,51;,
 3;57,51,53;,
 3;57,53,55;,
 3;57,55,43;,
 4;58,59,60,61;,
 4;59,62,63,60;,
 4;62,64,65,63;,
 4;64,66,67,65;,
 4;66,68,69,67;,
 4;68,70,71,69;,
 4;70,72,73,71;,
 4;72,58,61,73;,
 3;74,59,58;,
 3;74,62,59;,
 3;74,64,62;,
 3;74,66,64;,
 3;74,68,66;,
 3;74,70,68;,
 3;74,72,70;,
 3;74,58,72;,
 3;75,61,60;,
 3;75,60,63;,
 3;75,63,65;,
 3;75,65,67;,
 3;75,67,69;,
 3;75,69,71;,
 3;75,71,73;,
 3;75,73,61;,
 4;76,77,78,79;,
 4;77,80,81,78;,
 4;80,82,83,81;,
 4;82,84,85,83;,
 4;84,86,87,85;,
 4;86,88,89,87;,
 4;88,90,91,89;,
 4;90,76,79,91;,
 3;92,77,76;,
 3;92,80,77;,
 3;92,82,80;,
 3;92,84,82;,
 3;92,86,84;,
 3;92,88,86;,
 3;92,90,88;,
 3;92,76,90;,
 3;93,79,78;,
 3;93,78,81;,
 3;93,81,83;,
 3;93,83,85;,
 3;93,85,87;,
 3;93,87,89;,
 3;93,89,91;,
 3;93,91,79;,
 4;94,95,96,97;,
 4;95,98,99,96;,
 4;98,100,101,99;,
 4;100,102,103,101;,
 4;102,104,105,103;,
 4;104,106,107,105;,
 4;106,108,109,107;,
 4;108,94,97,109;,
 3;110,95,94;,
 3;110,98,95;,
 3;110,100,98;,
 3;110,102,100;,
 3;110,104,102;,
 3;110,106,104;,
 3;110,108,106;,
 3;110,94,108;,
 3;111,97,96;,
 3;111,96,99;,
 3;111,99,101;,
 3;111,101,103;,
 3;111,103,105;,
 3;111,105,107;,
 3;111,107,109;,
 3;111,109,97;,
 4;112,113,114,115;,
 4;113,116,117,114;,
 4;116,118,119,117;,
 4;118,120,121,119;,
 4;120,122,123,121;,
 4;122,124,125,123;,
 4;124,126,127,125;,
 4;126,112,115,127;,
 3;128,113,112;,
 3;128,116,113;,
 3;128,118,116;,
 3;128,120,118;,
 3;128,122,120;,
 3;128,124,122;,
 3;128,126,124;,
 3;128,112,126;,
 3;129,115,114;,
 3;129,114,117;,
 3;129,117,119;,
 3;129,119,121;,
 3;129,121,123;,
 3;129,123,125;,
 3;129,125,127;,
 3;129,127,115;,
 4;130,131,132,133;,
 4;131,134,135,132;,
 4;134,136,137,135;,
 4;136,138,139,137;,
 4;138,140,141,139;,
 4;140,142,143,141;,
 4;142,144,145,143;,
 4;144,130,133,145;,
 3;146,131,130;,
 3;146,134,131;,
 3;146,136,134;,
 3;146,138,136;,
 3;146,140,138;,
 3;146,142,140;,
 3;146,144,142;,
 3;146,130,144;,
 3;147,133,132;,
 3;147,132,135;,
 3;147,135,137;,
 3;147,137,139;,
 3;147,139,141;,
 3;147,141,143;,
 3;147,143,145;,
 3;147,145,133;;
 
 MeshMaterialList {
  4;
  182;
  3,
  3,
  3,
  3,
  3,
  3,
  0,
  0,
  0,
  0,
  0,
  0,
  0,
  0,
  0,
  0,
  0,
  0,
  0,
  0,
  0,
  0,
  0,
  0,
  0,
  0,
  0,
  0,
  0,
  0,
  0,
  0,
  0,
  0,
  0,
  0,
  0,
  0,
  2,
  2,
  2,
  2,
  2,
  2,
  2,
  2,
  2,
  2,
  2,
  2,
  2,
  2,
  2,
  2,
  2,
  2,
  2,
  2,
  2,
  2,
  2,
  2,
  2,
  2,
  2,
  2,
  2,
  2,
  2,
  2,
  2,
  2,
  2,
  2,
  2,
  2,
  2,
  2,
  2,
  2,
  2,
  2,
  2,
  2,
  2,
  2,
  2,
  2,
  2,
  2,
  2,
  2,
  2,
  2,
  2,
  2,
  2,
  2,
  2,
  2,
  2,
  2,
  2,
  2,
  2,
  2,
  2,
  2,
  2,
  2,
  2,
  2,
  2,
  2,
  2,
  2,
  2,
  2,
  2,
  2,
  2,
  2,
  2,
  2,
  2,
  2,
  2,
  2,
  2,
  2,
  2,
  2,
  2,
  2,
  2,
  2,
  2,
  2,
  2,
  2,
  2,
  2,
  2,
  2,
  2,
  2,
  2,
  2,
  2,
  2,
  2,
  2,
  2,
  2,
  2,
  2,
  2,
  2,
  2,
  2,
  2,
  2,
  2,
  2,
  2,
  2,
  2,
  2,
  2,
  2,
  2,
  2,
  2,
  2,
  2,
  2,
  2,
  2,
  2,
  2,
  2,
  2;;
  Material {
   0.000000;0.000000;0.000000;1.000000;;
   5.000000;
   0.000000;0.000000;0.000000;;
   0.000000;0.000000;0.000000;;
  }
  Material {
   0.800000;0.800000;0.800000;1.000000;;
   5.000000;
   0.000000;0.000000;0.000000;;
   0.000000;0.000000;0.000000;;
  }
  Material {
   0.398431;0.398431;0.398431;1.000000;;
   5.000000;
   0.000000;0.000000;0.000000;;
   0.000000;0.000000;0.000000;;
  }
  Material {
   1.000000;1.000000;1.000000;1.000000;;
   0.000000;
   0.000000;0.000000;0.000000;;
   0.000000;0.000000;0.000000;;
  }
 }
 MeshNormals {
  155;
  0.000000;0.000000;-1.000000;,
  1.000000;0.000000;0.000000;,
  0.000000;0.000000;1.000000;,
  -1.000000;0.000000;-0.000000;,
  -0.940259;0.000000;-0.340460;,
  -0.835195;0.000000;-0.549954;,
  0.940260;0.000000;-0.340458;,
  1.000000;0.000000;-0.000000;,
  0.940260;0.000000;0.340458;,
  0.835194;0.000000;0.549955;,
  -0.940259;0.000000;0.340461;,
  0.000000;1.000000;-0.000002;,
  0.000000;0.918895;-0.394502;,
  0.000000;0.780921;-0.624629;,
  0.000000;-0.918899;-0.394493;,
  0.000000;-1.000000;-0.000000;,
  -0.000000;-0.918898;0.394496;,
  -0.000000;-0.780917;0.624635;,
  0.000000;0.918896;0.394501;,
  1.000000;-0.000000;0.000000;,
  0.940259;-0.000000;-0.340460;,
  0.835198;-0.000000;-0.549950;,
  -0.940260;0.000000;-0.340458;,
  -1.000000;0.000000;-0.000000;,
  -0.940260;0.000000;0.340458;,
  -0.835194;0.000000;0.549955;,
  0.940259;-0.000000;0.340460;,
  -1.000000;0.000000;0.000000;,
  0.000000;1.000000;0.000000;,
  0.000000;-1.000000;-0.000000;,
  0.835195;0.000000;-0.549954;,
  0.000000;-0.780921;-0.624630;,
  0.000000;0.780921;0.624630;,
  -0.835195;0.000000;-0.549954;,
  0.835197;-0.000000;0.549950;,
  0.000000;-1.000000;0.000002;,
  0.000000;-0.918892;-0.394509;,
  0.000000;-0.780909;-0.624645;,
  -0.000000;0.780927;-0.624622;,
  -0.000001;0.918900;-0.394490;,
  -0.000001;1.000000;-0.000003;,
  -0.000001;0.918899;0.394492;,
  -0.000000;0.780920;0.624631;,
  -0.000000;-0.780912;0.624641;,
  -0.000000;-0.918892;0.394509;,
  -0.000000;0.011679;-0.999932;,
  0.000001;-0.999935;-0.011423;,
  0.706891;-0.707276;-0.008081;,
  1.000000;0.000004;0.000002;,
  0.706889;0.707279;0.008083;,
  0.000001;0.999935;0.011422;,
  -0.706889;0.707279;0.008083;,
  -1.000000;0.000004;0.000002;,
  -0.706891;-0.707276;-0.008081;,
  0.000000;-0.011682;0.999932;,
  0.000000;1.000000;0.000000;,
  -0.000000;0.000000;-1.000000;,
  0.707104;0.000000;-0.707109;,
  1.000000;0.000000;0.000000;,
  0.707104;0.000000;0.707110;,
  -0.000000;0.000000;1.000000;,
  -0.707105;0.000000;0.707109;,
  -1.000000;0.000000;0.000000;,
  -0.707105;0.000000;-0.707108;,
  0.000000;-1.000000;-0.000000;,
  -0.000000;0.011679;-0.999932;,
  0.000001;-0.999935;-0.011423;,
  0.706891;-0.707276;-0.008081;,
  1.000000;0.000004;0.000002;,
  0.706889;0.707279;0.008082;,
  0.000001;0.999935;0.011422;,
  -0.706889;0.707278;0.008082;,
  -1.000000;0.000004;0.000002;,
  -0.706891;-0.707276;-0.008081;,
  0.000000;-0.011682;0.999932;,
  -0.000002;0.011689;-0.999932;,
  -0.000000;0.011686;-0.999932;,
  0.000000;0.011670;-0.999932;,
  -0.000019;0.011669;-0.999932;,
  -0.000000;0.011688;-0.999932;,
  0.000019;0.011669;-0.999932;,
  0.000002;0.011689;-0.999932;,
  0.000000;-0.011687;0.999932;,
  0.000024;-0.011710;0.999931;,
  0.000000;-0.011692;0.999932;,
  0.000004;-0.011653;0.999932;,
  0.000000;-0.011657;0.999932;,
  -0.000004;-0.011653;0.999932;,
  0.000000;-0.011692;0.999932;,
  -0.000024;-0.011710;0.999931;,
  -0.000002;0.011689;-0.999932;,
  -0.000000;0.011686;-0.999932;,
  0.000000;0.011670;-0.999932;,
  0.000002;0.011689;-0.999932;,
  0.000000;-0.011687;0.999932;,
  0.000024;-0.011710;0.999931;,
  0.000000;-0.011692;0.999932;,
  0.000004;-0.011653;0.999932;,
  0.000000;-0.011657;0.999932;,
  -0.000004;-0.011653;0.999932;,
  -0.000024;-0.011710;0.999931;,
  0.000000;0.011679;0.999932;,
  -0.000000;-0.999935;0.011423;,
  -0.706891;-0.707276;0.008081;,
  -1.000000;0.000004;-0.000002;,
  -0.706889;0.707278;-0.008083;,
  -0.000000;0.999935;-0.011422;,
  0.706889;0.707278;-0.008083;,
  1.000000;0.000004;-0.000002;,
  0.706892;-0.707276;0.008081;,
  -0.000000;-0.011682;-0.999932;,
  0.000000;1.000000;0.000000;,
  -0.000000;0.000000;1.000000;,
  -0.707105;0.000000;0.707108;,
  -1.000000;0.000000;0.000000;,
  -0.707105;0.000000;-0.707109;,
  -0.000000;0.000000;-1.000000;,
  0.707105;0.000000;-0.707109;,
  1.000000;0.000000;0.000000;,
  0.707105;0.000000;0.707109;,
  0.000000;-1.000000;-0.000000;,
  0.000000;0.011679;0.999932;,
  -0.000000;-0.999935;0.011423;,
  -0.706892;-0.707276;0.008081;,
  -1.000000;0.000004;-0.000002;,
  -0.706889;0.707278;-0.008082;,
  -0.000000;0.999935;-0.011422;,
  0.706890;0.707278;-0.008082;,
  1.000000;0.000004;-0.000002;,
  0.706892;-0.707275;0.008081;,
  -0.000000;-0.011682;-0.999932;,
  0.000002;0.011689;0.999932;,
  0.000000;0.011687;0.999932;,
  0.000000;0.011670;0.999932;,
  0.000019;0.011668;0.999932;,
  0.000000;0.011687;0.999932;,
  -0.000019;0.011668;0.999932;,
  -0.000002;0.011689;0.999932;,
  -0.000000;-0.011687;-0.999932;,
  -0.000023;-0.011711;-0.999931;,
  0.000000;-0.011692;-0.999932;,
  -0.000004;-0.011653;-0.999932;,
  -0.000000;-0.011657;-0.999932;,
  0.000004;-0.011653;-0.999932;,
  0.000023;-0.011711;-0.999931;,
  0.000002;0.011689;0.999932;,
  0.000000;0.011687;0.999932;,
  0.000000;0.011670;0.999932;,
  -0.000002;0.011689;0.999932;,
  -0.000000;-0.011687;-0.999932;,
  -0.000023;-0.011711;-0.999931;,
  0.000000;-0.011692;-0.999932;,
  -0.000004;-0.011653;-0.999932;,
  0.000004;-0.011653;-0.999932;,
  0.000023;-0.011711;-0.999931;;
  182;
  4;0,0,0,0;,
  4;1,1,1,1;,
  4;2,2,2,2;,
  4;27,27,27,27;,
  4;28,28,28,28;,
  4;29,29,29,29;,
  4;3,4,4,3;,
  4;4,5,5,4;,
  4;30,6,6,30;,
  4;6,7,7,6;,
  4;7,8,8,7;,
  4;8,9,9,8;,
  4;25,10,10,25;,
  4;10,3,3,10;,
  4;11,12,12,11;,
  4;12,13,13,12;,
  4;31,14,14,31;,
  4;14,15,15,14;,
  4;15,16,16,15;,
  4;16,17,17,16;,
  4;32,18,18,32;,
  4;18,11,11,18;,
  4;19,20,20,19;,
  4;20,21,21,20;,
  4;33,22,22,33;,
  4;22,23,23,22;,
  4;23,24,24,23;,
  4;24,25,25,24;,
  4;34,26,26,34;,
  4;26,19,19,26;,
  4;35,36,36,35;,
  4;36,37,37,36;,
  4;38,39,39,38;,
  4;39,40,40,39;,
  4;40,41,41,40;,
  4;41,42,42,41;,
  4;43,44,44,43;,
  4;44,35,35,44;,
  4;46,47,47,46;,
  4;47,48,48,47;,
  4;48,49,49,48;,
  4;49,50,50,49;,
  4;50,51,51,50;,
  4;51,52,52,51;,
  4;52,53,53,52;,
  4;53,46,46,53;,
  3;45,75,76;,
  3;45,77,75;,
  3;45,78,77;,
  3;45,79,78;,
  3;45,80,79;,
  3;45,77,80;,
  3;45,81,77;,
  3;45,76,81;,
  3;54,82,83;,
  3;54,83,84;,
  3;54,84,85;,
  3;54,85,86;,
  3;54,86,87;,
  3;54,87,88;,
  3;54,88,89;,
  3;54,89,82;,
  4;56,57,57,56;,
  4;57,58,58,57;,
  4;58,59,59,58;,
  4;59,60,60,59;,
  4;60,61,61,60;,
  4;61,62,62,61;,
  4;62,63,63,62;,
  4;63,56,56,63;,
  3;55,55,55;,
  3;55,55,55;,
  3;55,55,55;,
  3;55,55,55;,
  3;55,55,55;,
  3;55,55,55;,
  3;55,55,55;,
  3;55,55,55;,
  3;64,64,64;,
  3;64,64,64;,
  3;64,64,64;,
  3;64,64,64;,
  3;64,64,64;,
  3;64,64,64;,
  3;64,64,64;,
  3;64,64,64;,
  4;66,67,67,66;,
  4;67,68,68,67;,
  4;68,69,69,68;,
  4;69,70,70,69;,
  4;70,71,71,70;,
  4;71,72,72,71;,
  4;72,73,73,72;,
  4;73,66,66,73;,
  3;65,90,91;,
  3;65,92,90;,
  3;65,78,92;,
  3;65,79,78;,
  3;65,80,79;,
  3;65,92,80;,
  3;65,93,92;,
  3;65,91,93;,
  3;74,94,95;,
  3;74,95,96;,
  3;74,96,97;,
  3;74,97,98;,
  3;74,98,99;,
  3;74,99,96;,
  3;74,96,100;,
  3;74,100,94;,
  4;102,103,103,102;,
  4;103,104,104,103;,
  4;104,105,105,104;,
  4;105,106,106,105;,
  4;106,107,107,106;,
  4;107,108,108,107;,
  4;108,109,109,108;,
  4;109,102,102,109;,
  3;101,131,132;,
  3;101,133,131;,
  3;101,134,133;,
  3;101,135,134;,
  3;101,136,135;,
  3;101,133,136;,
  3;101,137,133;,
  3;101,132,137;,
  3;110,138,139;,
  3;110,139,140;,
  3;110,140,141;,
  3;110,141,142;,
  3;110,142,143;,
  3;110,143,140;,
  3;110,140,144;,
  3;110,144,138;,
  4;112,113,113,112;,
  4;113,114,114,113;,
  4;114,115,115,114;,
  4;115,116,116,115;,
  4;116,117,117,116;,
  4;117,118,118,117;,
  4;118,119,119,118;,
  4;119,112,112,119;,
  3;111,111,111;,
  3;111,111,111;,
  3;111,111,111;,
  3;111,111,111;,
  3;111,111,111;,
  3;111,111,111;,
  3;111,111,111;,
  3;111,111,111;,
  3;120,120,120;,
  3;120,120,120;,
  3;120,120,120;,
  3;120,120,120;,
  3;120,120,120;,
  3;120,120,120;,
  3;120,120,120;,
  3;120,120,120;,
  4;122,123,123,122;,
  4;123,124,124,123;,
  4;124,125,125,124;,
  4;125,126,126,125;,
  4;126,127,127,126;,
  4;127,128,128,127;,
  4;128,129,129,128;,
  4;129,122,122,129;,
  3;121,145,146;,
  3;121,147,145;,
  3;121,134,147;,
  3;121,135,134;,
  3;121,136,135;,
  3;121,147,136;,
  3;121,148,147;,
  3;121,146,148;,
  3;130,149,150;,
  3;130,150,151;,
  3;130,151,152;,
  3;130,152,142;,
  3;130,142,153;,
  3;130,153,151;,
  3;130,151,154;,
  3;130,154,149;;
 }
}
