xof 0302txt 0064
template Header {
 <3D82AB43-62DA-11cf-AB39-0020AF71E433>
 WORD major;
 WORD minor;
 DWORD flags;
}

template Vector {
 <3D82AB5E-62DA-11cf-AB39-0020AF71E433>
 FLOAT x;
 FLOAT y;
 FLOAT z;
}

template Coords2d {
 <F6F23F44-7686-11cf-8F52-0040333594A3>
 FLOAT u;
 FLOAT v;
}

template Matrix4x4 {
 <F6F23F45-7686-11cf-8F52-0040333594A3>
 array FLOAT matrix[16];
}

template ColorRGBA {
 <35FF44E0-6C7C-11cf-8F52-0040333594A3>
 FLOAT red;
 FLOAT green;
 FLOAT blue;
 FLOAT alpha;
}

template ColorRGB {
 <D3E16E81-7835-11cf-8F52-0040333594A3>
 FLOAT red;
 FLOAT green;
 FLOAT blue;
}

template IndexedColor {
 <1630B820-7842-11cf-8F52-0040333594A3>
 DWORD index;
 ColorRGBA indexColor;
}

template Boolean {
 <4885AE61-78E8-11cf-8F52-0040333594A3>
 WORD truefalse;
}

template Boolean2d {
 <4885AE63-78E8-11cf-8F52-0040333594A3>
 Boolean u;
 Boolean v;
}

template MaterialWrap {
 <4885AE60-78E8-11cf-8F52-0040333594A3>
 Boolean u;
 Boolean v;
}

template TextureFilename {
 <A42790E1-7810-11cf-8F52-0040333594A3>
 STRING filename;
}

template Material {
 <3D82AB4D-62DA-11cf-AB39-0020AF71E433>
 ColorRGBA faceColor;
 FLOAT power;
 ColorRGB specularColor;
 ColorRGB emissiveColor;
 [...]
}

template MeshFace {
 <3D82AB5F-62DA-11cf-AB39-0020AF71E433>
 DWORD nFaceVertexIndices;
 array DWORD faceVertexIndices[nFaceVertexIndices];
}

template MeshFaceWraps {
 <4885AE62-78E8-11cf-8F52-0040333594A3>
 DWORD nFaceWrapValues;
 Boolean2d faceWrapValues;
}

template MeshTextureCoords {
 <F6F23F40-7686-11cf-8F52-0040333594A3>
 DWORD nTextureCoords;
 array Coords2d textureCoords[nTextureCoords];
}

template MeshMaterialList {
 <F6F23F42-7686-11cf-8F52-0040333594A3>
 DWORD nMaterials;
 DWORD nFaceIndexes;
 array DWORD faceIndexes[nFaceIndexes];
 [Material]
}

template MeshNormals {
 <F6F23F43-7686-11cf-8F52-0040333594A3>
 DWORD nNormals;
 array Vector normals[nNormals];
 DWORD nFaceNormals;
 array MeshFace faceNormals[nFaceNormals];
}

template MeshVertexColors {
 <1630B821-7842-11cf-8F52-0040333594A3>
 DWORD nVertexColors;
 array IndexedColor vertexColors[nVertexColors];
}

template Mesh {
 <3D82AB44-62DA-11cf-AB39-0020AF71E433>
 DWORD nVertices;
 array Vector vertices[nVertices];
 DWORD nFaces;
 array MeshFace faces[nFaces];
 [...]
}

Header{
1;
0;
1;
}

Mesh {
 210;
 -10.00000;10.31544;-10.00000;,
 10.00000;10.31544;-10.00000;,
 10.00000;9.68456;-10.00000;,
 -10.00000;9.68456;-10.00000;,
 10.00000;10.31544;10.00000;,
 10.00000;9.68456;10.00000;,
 -10.00000;10.31544;10.00000;,
 -10.00000;9.68456;10.00000;,
 -9.99705;9.67797;9.01645;,
 -9.01365;9.67797;9.01645;,
 -9.01365;0.02227;9.01645;,
 -9.99705;0.02227;9.01645;,
 -9.01365;9.67797;9.99985;,
 -9.01365;0.02227;9.99985;,
 -9.99705;9.67797;9.99985;,
 -9.99705;0.02227;9.99985;,
 -9.99705;9.67797;-9.99924;,
 -9.01365;9.67797;-9.99924;,
 -9.01365;0.02227;-9.99924;,
 -9.99705;0.02227;-9.99924;,
 -9.01365;9.67797;-9.01584;,
 -9.01365;0.02227;-9.01584;,
 -9.99705;9.67797;-9.01584;,
 -9.99705;0.02227;-9.01584;,
 9.01554;9.67797;9.01645;,
 9.99894;9.67797;9.01645;,
 9.99894;0.02227;9.01645;,
 9.01554;0.02227;9.01645;,
 9.99894;9.67797;9.99985;,
 9.99894;0.02227;9.99985;,
 9.01554;9.67797;9.99985;,
 9.01554;0.02227;9.99985;,
 9.01554;9.67797;9.01645;,
 9.99894;9.67797;9.01645;,
 9.99894;0.02227;9.01645;,
 9.01554;0.02227;9.01645;,
 9.99894;9.67797;9.99985;,
 9.99894;0.02227;9.99985;,
 9.01554;9.67797;9.99985;,
 9.01554;0.02227;9.99985;,
 9.01554;9.67797;-10.00227;,
 9.99894;9.67797;-10.00227;,
 9.99894;0.02227;-10.00227;,
 9.01554;0.02227;-10.00227;,
 9.99894;9.67797;-9.01887;,
 9.99894;0.02227;-9.01887;,
 9.01554;9.67797;-9.01887;,
 9.01554;0.02227;-9.01887;,
 -0.22179;9.62561;-10.19562;,
 8.82775;9.62561;-10.19562;,
 8.82775;9.34015;-10.19562;,
 -0.22179;9.34015;-10.19562;,
 8.82775;9.62561;-1.14608;,
 8.82775;9.34015;-1.14608;,
 -0.22179;9.62561;-1.14608;,
 -0.22179;9.34015;-1.14608;,
 7.84351;9.34962;-10.19292;,
 8.82691;9.34962;-10.19292;,
 8.82691;8.77577;-10.19292;,
 7.84351;8.77577;-10.19292;,
 8.82691;9.34962;-9.20952;,
 8.82691;8.77577;-9.20952;,
 7.84351;9.34962;-9.20952;,
 7.84351;8.77577;-9.20952;,
 7.84752;9.34322;-2.12988;,
 8.83091;9.34322;-2.12988;,
 8.83091;8.76938;-2.12988;,
 7.84752;8.76938;-2.12988;,
 8.83091;9.34322;-1.14648;,
 8.83091;8.76938;-1.14648;,
 7.84752;9.34322;-1.14648;,
 7.84752;8.76938;-1.14648;,
 -0.22075;9.33983;-2.12837;,
 0.76265;9.33983;-2.12837;,
 0.76265;8.76598;-2.12837;,
 -0.22075;8.76598;-2.12837;,
 0.76265;9.33983;-1.14497;,
 0.76265;8.76598;-1.14497;,
 -0.22075;9.33983;-1.14497;,
 -0.22075;8.76598;-1.14497;,
 -0.22075;9.34268;-10.19392;,
 0.76265;9.34268;-10.19392;,
 0.76265;8.76884;-10.19392;,
 -0.22075;8.76884;-10.19392;,
 0.76265;9.34268;-9.21052;,
 0.76265;8.76884;-9.21052;,
 -0.22075;9.34268;-9.21052;,
 -0.22075;8.76884;-9.21052;,
 -0.22179;8.77207;-10.19562;,
 8.82775;8.77207;-10.19562;,
 8.82775;6.91931;-10.19562;,
 -0.22179;6.91931;-10.19562;,
 8.82775;8.77207;-1.14608;,
 8.82775;6.91931;-1.14608;,
 -0.22179;8.77207;-1.14608;,
 -0.22179;6.91931;-1.14608;,
 -0.22179;6.92042;-10.19562;,
 8.82775;6.92042;-10.19562;,
 8.82775;5.06766;-10.19562;,
 -0.22179;5.06766;-10.19562;,
 8.82775;6.92042;-1.14608;,
 8.82775;5.06766;-1.14608;,
 -0.22179;6.92042;-1.14608;,
 -0.22179;5.06766;-1.14608;,
 -0.22179;5.07031;-10.19562;,
 8.82775;5.07031;-10.19562;,
 8.82775;3.21755;-10.19562;,
 -0.22179;3.21755;-10.19562;,
 8.82775;5.07031;-1.14608;,
 8.82775;3.21755;-1.14608;,
 -0.22179;5.07031;-1.14608;,
 -0.22179;3.21755;-1.14608;,
 -0.22179;3.21758;-10.19562;,
 8.82775;3.21758;-10.19562;,
 8.82775;1.36482;-10.19562;,
 -0.22179;1.36482;-10.19562;,
 8.82775;3.21758;-1.14608;,
 8.82775;1.36482;-1.14608;,
 -0.22179;3.21758;-1.14608;,
 -0.22179;1.36482;-1.14608;,
 0.36822;1.34720;-10.09191;,
 0.64879;1.34720;-9.97569;,
 0.64879;0.55362;-9.97569;,
 0.36822;0.55362;-10.09191;,
 0.76501;1.34720;-9.69512;,
 0.76501;0.55362;-9.69512;,
 0.64879;1.34720;-9.41455;,
 0.64879;0.55362;-9.41455;,
 0.36822;1.34720;-9.29834;,
 0.36822;0.55362;-9.29834;,
 0.08765;1.34720;-9.41455;,
 0.08765;0.55362;-9.41455;,
 -0.02857;1.34720;-9.69512;,
 -0.02857;0.55362;-9.69512;,
 0.08765;1.34720;-9.97569;,
 0.08765;0.55362;-9.97569;,
 0.36822;1.34720;-9.69512;,
 0.36822;0.55362;-9.69512;,
 8.24217;1.34720;-10.09191;,
 8.52274;1.34720;-9.97569;,
 8.52274;0.55362;-9.97569;,
 8.24217;0.55362;-10.09191;,
 8.63896;1.34720;-9.69512;,
 8.63896;0.55362;-9.69512;,
 8.52274;1.34720;-9.41455;,
 8.52274;0.55362;-9.41455;,
 8.24217;1.34720;-9.29834;,
 8.24217;0.55362;-9.29834;,
 7.96160;1.34720;-9.41455;,
 7.96160;0.55362;-9.41455;,
 7.84538;1.34720;-9.69512;,
 7.84538;0.55362;-9.69512;,
 7.96160;1.34720;-9.97569;,
 7.96160;0.55362;-9.97569;,
 8.24217;1.34720;-9.69512;,
 8.24217;0.55362;-9.69512;,
 8.24217;1.34720;-2.12266;,
 8.52274;1.34720;-2.00645;,
 8.52274;0.55362;-2.00645;,
 8.24217;0.55362;-2.12266;,
 8.63896;1.34720;-1.72588;,
 8.63896;0.55362;-1.72588;,
 8.52274;1.34720;-1.44531;,
 8.52274;0.55362;-1.44531;,
 8.24217;1.34720;-1.32909;,
 8.24217;0.55362;-1.32909;,
 7.96160;1.34720;-1.44531;,
 7.96160;0.55362;-1.44531;,
 7.84538;1.34720;-1.72588;,
 7.84538;0.55362;-1.72588;,
 7.96160;1.34720;-2.00645;,
 7.96160;0.55362;-2.00645;,
 8.24217;1.34720;-1.72588;,
 8.24217;0.55362;-1.72588;,
 8.24217;1.34720;-2.12266;,
 8.52274;1.34720;-2.00645;,
 8.52274;0.55362;-2.00645;,
 8.24217;0.55362;-2.12266;,
 8.63896;1.34720;-1.72588;,
 8.63896;0.55362;-1.72588;,
 8.52274;1.34720;-1.44531;,
 8.52274;0.55362;-1.44531;,
 8.24217;1.34720;-1.32909;,
 8.24217;0.55362;-1.32909;,
 7.96160;1.34720;-1.44531;,
 7.96160;0.55362;-1.44531;,
 7.84538;1.34720;-1.72588;,
 7.84538;0.55362;-1.72588;,
 7.96160;1.34720;-2.00645;,
 7.96160;0.55362;-2.00645;,
 8.24217;1.34720;-1.72588;,
 8.24217;0.55362;-1.72588;,
 0.36822;1.34720;-2.23702;,
 0.64879;1.34720;-2.12081;,
 0.64879;0.55362;-2.12081;,
 0.36822;0.55362;-2.23702;,
 0.76501;1.34720;-1.84023;,
 0.76501;0.55362;-1.84023;,
 0.64879;1.34720;-1.55966;,
 0.64879;0.55362;-1.55966;,
 0.36822;1.34720;-1.44345;,
 0.36822;0.55362;-1.44345;,
 0.08765;1.34720;-1.55966;,
 0.08765;0.55362;-1.55966;,
 -0.02857;1.34720;-1.84023;,
 -0.02857;0.55362;-1.84023;,
 0.08765;1.34720;-2.12081;,
 0.08765;0.55362;-2.12081;,
 0.36822;1.34720;-1.84023;,
 0.36822;0.55362;-1.84023;;
 
 210;
 4;0,1,2,3;,
 4;1,4,5,2;,
 4;4,6,7,5;,
 4;6,0,3,7;,
 4;6,4,1,0;,
 4;3,2,5,7;,
 4;8,9,10,11;,
 4;9,12,13,10;,
 4;12,14,15,13;,
 4;14,8,11,15;,
 4;14,12,9,8;,
 4;11,10,13,15;,
 4;16,17,18,19;,
 4;17,20,21,18;,
 4;20,22,23,21;,
 4;22,16,19,23;,
 4;22,20,17,16;,
 4;19,18,21,23;,
 4;24,25,26,27;,
 4;25,28,29,26;,
 4;28,30,31,29;,
 4;30,24,27,31;,
 4;30,28,25,24;,
 4;27,26,29,31;,
 4;32,33,34,35;,
 4;33,36,37,34;,
 4;36,38,39,37;,
 4;38,32,35,39;,
 4;38,36,33,32;,
 4;35,34,37,39;,
 4;40,41,42,43;,
 4;41,44,45,42;,
 4;44,46,47,45;,
 4;46,40,43,47;,
 4;46,44,41,40;,
 4;43,42,45,47;,
 4;48,49,50,51;,
 4;49,52,53,50;,
 4;52,54,55,53;,
 4;54,48,51,55;,
 4;54,52,49,48;,
 4;51,50,53,55;,
 4;56,57,58,59;,
 4;57,60,61,58;,
 4;60,62,63,61;,
 4;62,56,59,63;,
 4;62,60,57,56;,
 4;59,58,61,63;,
 4;64,65,66,67;,
 4;65,68,69,66;,
 4;68,70,71,69;,
 4;70,64,67,71;,
 4;70,68,65,64;,
 4;67,66,69,71;,
 4;72,73,74,75;,
 4;73,76,77,74;,
 4;76,78,79,77;,
 4;78,72,75,79;,
 4;78,76,73,72;,
 4;75,74,77,79;,
 4;80,81,82,83;,
 4;81,84,85,82;,
 4;84,86,87,85;,
 4;86,80,83,87;,
 4;86,84,81,80;,
 4;83,82,85,87;,
 4;88,89,90,91;,
 4;89,92,93,90;,
 4;92,94,95,93;,
 4;94,88,91,95;,
 4;94,92,89,88;,
 4;91,90,93,95;,
 4;96,97,98,99;,
 4;97,100,101,98;,
 4;100,102,103,101;,
 4;102,96,99,103;,
 4;102,100,97,96;,
 4;99,98,101,103;,
 4;104,105,106,107;,
 4;105,108,109,106;,
 4;108,110,111,109;,
 4;110,104,107,111;,
 4;110,108,105,104;,
 4;107,106,109,111;,
 4;112,113,114,115;,
 4;113,116,117,114;,
 4;116,118,119,117;,
 4;118,112,115,119;,
 4;118,116,113,112;,
 4;115,114,117,119;,
 4;120,121,122,123;,
 4;121,124,125,122;,
 4;124,126,127,125;,
 4;126,128,129,127;,
 4;128,130,131,129;,
 4;130,132,133,131;,
 4;132,134,135,133;,
 4;134,120,123,135;,
 3;136,121,120;,
 3;136,124,121;,
 3;136,126,124;,
 3;136,128,126;,
 3;136,130,128;,
 3;136,132,130;,
 3;136,134,132;,
 3;136,120,134;,
 3;137,123,122;,
 3;137,122,125;,
 3;137,125,127;,
 3;137,127,129;,
 3;137,129,131;,
 3;137,131,133;,
 3;137,133,135;,
 3;137,135,123;,
 4;138,139,140,141;,
 4;139,142,143,140;,
 4;142,144,145,143;,
 4;144,146,147,145;,
 4;146,148,149,147;,
 4;148,150,151,149;,
 4;150,152,153,151;,
 4;152,138,141,153;,
 3;154,139,138;,
 3;154,142,139;,
 3;154,144,142;,
 3;154,146,144;,
 3;154,148,146;,
 3;154,150,148;,
 3;154,152,150;,
 3;154,138,152;,
 3;155,141,140;,
 3;155,140,143;,
 3;155,143,145;,
 3;155,145,147;,
 3;155,147,149;,
 3;155,149,151;,
 3;155,151,153;,
 3;155,153,141;,
 4;156,157,158,159;,
 4;157,160,161,158;,
 4;160,162,163,161;,
 4;162,164,165,163;,
 4;164,166,167,165;,
 4;166,168,169,167;,
 4;168,170,171,169;,
 4;170,156,159,171;,
 3;172,157,156;,
 3;172,160,157;,
 3;172,162,160;,
 3;172,164,162;,
 3;172,166,164;,
 3;172,168,166;,
 3;172,170,168;,
 3;172,156,170;,
 3;173,159,158;,
 3;173,158,161;,
 3;173,161,163;,
 3;173,163,165;,
 3;173,165,167;,
 3;173,167,169;,
 3;173,169,171;,
 3;173,171,159;,
 4;174,175,176,177;,
 4;175,178,179,176;,
 4;178,180,181,179;,
 4;180,182,183,181;,
 4;182,184,185,183;,
 4;184,186,187,185;,
 4;186,188,189,187;,
 4;188,174,177,189;,
 3;190,175,174;,
 3;190,178,175;,
 3;190,180,178;,
 3;190,182,180;,
 3;190,184,182;,
 3;190,186,184;,
 3;190,188,186;,
 3;190,174,188;,
 3;191,177,176;,
 3;191,176,179;,
 3;191,179,181;,
 3;191,181,183;,
 3;191,183,185;,
 3;191,185,187;,
 3;191,187,189;,
 3;191,189,177;,
 4;192,193,194,195;,
 4;193,196,197,194;,
 4;196,198,199,197;,
 4;198,200,201,199;,
 4;200,202,203,201;,
 4;202,204,205,203;,
 4;204,206,207,205;,
 4;206,192,195,207;,
 3;208,193,192;,
 3;208,196,193;,
 3;208,198,196;,
 3;208,200,198;,
 3;208,202,200;,
 3;208,204,202;,
 3;208,206,204;,
 3;208,192,206;,
 3;209,195,194;,
 3;209,194,197;,
 3;209,197,199;,
 3;209,199,201;,
 3;209,201,203;,
 3;209,203,205;,
 3;209,205,207;,
 3;209,207,195;;
 
 MeshMaterialList {
  1;
  210;
  0,
  0,
  0,
  0,
  0,
  0,
  0,
  0,
  0,
  0,
  0,
  0,
  0,
  0,
  0,
  0,
  0,
  0,
  0,
  0,
  0,
  0,
  0,
  0,
  0,
  0,
  0,
  0,
  0,
  0,
  0,
  0,
  0,
  0,
  0,
  0,
  0,
  0,
  0,
  0,
  0,
  0,
  0,
  0,
  0,
  0,
  0,
  0,
  0,
  0,
  0,
  0,
  0,
  0,
  0,
  0,
  0,
  0,
  0,
  0,
  0,
  0,
  0,
  0,
  0,
  0,
  0,
  0,
  0,
  0,
  0,
  0,
  0,
  0,
  0,
  0,
  0,
  0,
  0,
  0,
  0,
  0,
  0,
  0,
  0,
  0,
  0,
  0,
  0,
  0,
  0,
  0,
  0,
  0,
  0,
  0,
  0,
  0,
  0,
  0,
  0,
  0,
  0,
  0,
  0,
  0,
  0,
  0,
  0,
  0,
  0,
  0,
  0,
  0,
  0,
  0,
  0,
  0,
  0,
  0,
  0,
  0,
  0,
  0,
  0,
  0,
  0,
  0,
  0,
  0,
  0,
  0,
  0,
  0,
  0,
  0,
  0,
  0,
  0,
  0,
  0,
  0,
  0,
  0,
  0,
  0,
  0,
  0,
  0,
  0,
  0,
  0,
  0,
  0,
  0,
  0,
  0,
  0,
  0,
  0,
  0,
  0,
  0,
  0,
  0,
  0,
  0,
  0,
  0,
  0,
  0,
  0,
  0,
  0,
  0,
  0,
  0,
  0,
  0,
  0,
  0,
  0,
  0,
  0,
  0,
  0,
  0,
  0,
  0,
  0,
  0,
  0,
  0,
  0,
  0,
  0,
  0,
  0,
  0,
  0,
  0,
  0,
  0,
  0,
  0,
  0,
  0,
  0,
  0,
  0;;
  Material {
   1.000000;1.000000;1.000000;1.000000;;
   0.000000;
   0.000000;0.000000;0.000000;;
   0.000000;0.000000;0.000000;;
  }
 }
 MeshNormals {
  140;
  0.000000;0.000000;-1.000000;,
  1.000000;0.000000;0.000000;,
  0.000000;0.000000;1.000000;,
  -1.000000;0.000000;0.000000;,
  0.000000;1.000000;0.000000;,
  0.000000;-1.000000;-0.000000;,
  0.000000;0.000000;-1.000000;,
  1.000000;0.000000;0.000000;,
  0.000000;0.000000;1.000000;,
  -1.000000;0.000000;0.000000;,
  0.000000;1.000000;0.000000;,
  0.000000;-1.000000;-0.000000;,
  0.000000;0.000000;-1.000000;,
  1.000000;0.000000;0.000000;,
  0.000000;0.000000;1.000000;,
  -1.000000;0.000000;0.000000;,
  0.000000;1.000000;0.000000;,
  0.000000;-1.000000;-0.000000;,
  0.000000;0.000000;-1.000000;,
  1.000000;0.000000;0.000000;,
  0.000000;0.000000;1.000000;,
  -1.000000;0.000000;0.000000;,
  0.000000;1.000000;0.000000;,
  0.000000;-1.000000;-0.000000;,
  0.000000;0.000000;-1.000000;,
  1.000000;0.000000;0.000000;,
  0.000000;0.000000;1.000000;,
  -1.000000;0.000000;0.000000;,
  0.000000;1.000000;0.000000;,
  0.000000;-1.000000;-0.000000;,
  0.000000;0.000000;-1.000000;,
  1.000000;0.000000;0.000000;,
  0.000000;0.000000;1.000000;,
  -1.000000;0.000000;0.000000;,
  0.000000;1.000000;0.000000;,
  0.000000;-1.000000;-0.000000;,
  0.000000;0.000000;-1.000000;,
  1.000000;0.000000;0.000000;,
  0.000000;0.000000;1.000000;,
  -1.000000;0.000000;0.000000;,
  0.000000;1.000000;0.000000;,
  0.000000;-1.000000;-0.000000;,
  0.000000;0.000000;-1.000000;,
  1.000000;0.000000;0.000000;,
  0.000000;0.000000;1.000000;,
  -1.000000;0.000000;0.000000;,
  0.000000;1.000000;0.000000;,
  0.000000;-1.000000;-0.000000;,
  0.000000;0.000000;-1.000000;,
  1.000000;0.000000;0.000000;,
  0.000000;0.000000;1.000000;,
  -1.000000;0.000000;0.000000;,
  0.000000;1.000000;0.000000;,
  0.000000;-1.000000;-0.000000;,
  0.000000;0.000000;-1.000000;,
  1.000000;0.000000;0.000000;,
  0.000000;0.000000;1.000000;,
  -1.000000;0.000000;0.000000;,
  0.000000;1.000000;0.000000;,
  0.000000;-1.000000;-0.000000;,
  0.000000;0.000000;-1.000000;,
  1.000000;0.000000;0.000000;,
  0.000000;0.000000;1.000000;,
  -1.000000;0.000000;0.000000;,
  0.000000;1.000000;0.000000;,
  0.000000;-1.000000;-0.000000;,
  0.000000;0.000000;-1.000000;,
  1.000000;0.000000;0.000000;,
  0.000000;0.000000;1.000000;,
  -1.000000;0.000000;0.000000;,
  0.000000;1.000000;0.000000;,
  0.000000;-1.000000;-0.000000;,
  0.000000;0.000000;-1.000000;,
  1.000000;0.000000;0.000000;,
  0.000000;0.000000;1.000000;,
  -1.000000;0.000000;0.000000;,
  0.000000;1.000000;0.000000;,
  0.000000;-1.000000;-0.000000;,
  0.000000;0.000000;-1.000000;,
  1.000000;0.000000;0.000000;,
  0.000000;0.000000;1.000000;,
  -1.000000;0.000000;0.000000;,
  0.000000;1.000000;0.000000;,
  0.000000;-1.000000;-0.000000;,
  0.000000;0.000000;-1.000000;,
  1.000000;0.000000;0.000000;,
  0.000000;0.000000;1.000000;,
  -1.000000;0.000000;0.000000;,
  0.000000;1.000000;0.000000;,
  0.000000;-1.000000;-0.000000;,
  0.000000;1.000000;0.000000;,
  0.000000;0.000000;-1.000000;,
  0.707107;0.000000;-0.707107;,
  1.000000;0.000000;0.000000;,
  0.707107;0.000000;0.707107;,
  -0.000000;0.000000;1.000000;,
  -0.707107;0.000000;0.707107;,
  -1.000000;0.000000;0.000000;,
  -0.707107;0.000000;-0.707107;,
  0.000000;-1.000000;-0.000000;,
  0.000000;1.000000;0.000000;,
  0.000001;0.000000;-1.000000;,
  0.707107;0.000000;-0.707107;,
  1.000000;0.000000;0.000000;,
  0.707107;0.000000;0.707107;,
  0.000001;0.000000;1.000000;,
  -0.707106;0.000000;0.707107;,
  -1.000000;0.000000;0.000000;,
  -0.707106;0.000000;-0.707107;,
  0.000000;-1.000000;-0.000000;,
  0.000000;1.000000;0.000000;,
  0.000001;0.000000;-1.000000;,
  0.707107;0.000000;-0.707107;,
  1.000000;0.000000;0.000000;,
  0.707107;0.000000;0.707107;,
  0.000001;0.000000;1.000000;,
  -0.707106;0.000000;0.707107;,
  -1.000000;0.000000;0.000000;,
  -0.707106;0.000000;-0.707107;,
  0.000000;-1.000000;-0.000000;,
  0.000000;1.000000;0.000000;,
  0.000001;0.000000;-1.000000;,
  0.707107;0.000000;-0.707107;,
  1.000000;0.000000;0.000000;,
  0.707107;0.000000;0.707107;,
  0.000001;0.000000;1.000000;,
  -0.707106;0.000000;0.707107;,
  -1.000000;0.000000;0.000000;,
  -0.707106;0.000000;-0.707107;,
  0.000000;-1.000000;-0.000000;,
  0.000000;1.000000;0.000000;,
  0.000000;0.000000;-1.000000;,
  0.707107;0.000000;-0.707107;,
  1.000000;0.000000;0.000000;,
  0.707107;0.000000;0.707107;,
  -0.000000;0.000000;1.000000;,
  -0.707107;0.000000;0.707107;,
  -1.000000;0.000000;0.000000;,
  -0.707107;0.000000;-0.707107;,
  0.000000;-1.000000;-0.000000;;
  210;
  4;0,0,0,0;,
  4;1,1,1,1;,
  4;2,2,2,2;,
  4;3,3,3,3;,
  4;4,4,4,4;,
  4;5,5,5,5;,
  4;6,6,6,6;,
  4;7,7,7,7;,
  4;8,8,8,8;,
  4;9,9,9,9;,
  4;10,10,10,10;,
  4;11,11,11,11;,
  4;12,12,12,12;,
  4;13,13,13,13;,
  4;14,14,14,14;,
  4;15,15,15,15;,
  4;16,16,16,16;,
  4;17,17,17,17;,
  4;18,18,18,18;,
  4;19,19,19,19;,
  4;20,20,20,20;,
  4;21,21,21,21;,
  4;22,22,22,22;,
  4;23,23,23,23;,
  4;24,24,24,24;,
  4;25,25,25,25;,
  4;26,26,26,26;,
  4;27,27,27,27;,
  4;28,28,28,28;,
  4;29,29,29,29;,
  4;30,30,30,30;,
  4;31,31,31,31;,
  4;32,32,32,32;,
  4;33,33,33,33;,
  4;34,34,34,34;,
  4;35,35,35,35;,
  4;36,36,36,36;,
  4;37,37,37,37;,
  4;38,38,38,38;,
  4;39,39,39,39;,
  4;40,40,40,40;,
  4;41,41,41,41;,
  4;42,42,42,42;,
  4;43,43,43,43;,
  4;44,44,44,44;,
  4;45,45,45,45;,
  4;46,46,46,46;,
  4;47,47,47,47;,
  4;48,48,48,48;,
  4;49,49,49,49;,
  4;50,50,50,50;,
  4;51,51,51,51;,
  4;52,52,52,52;,
  4;53,53,53,53;,
  4;54,54,54,54;,
  4;55,55,55,55;,
  4;56,56,56,56;,
  4;57,57,57,57;,
  4;58,58,58,58;,
  4;59,59,59,59;,
  4;60,60,60,60;,
  4;61,61,61,61;,
  4;62,62,62,62;,
  4;63,63,63,63;,
  4;64,64,64,64;,
  4;65,65,65,65;,
  4;66,66,66,66;,
  4;67,67,67,67;,
  4;68,68,68,68;,
  4;69,69,69,69;,
  4;70,70,70,70;,
  4;71,71,71,71;,
  4;72,72,72,72;,
  4;73,73,73,73;,
  4;74,74,74,74;,
  4;75,75,75,75;,
  4;76,76,76,76;,
  4;77,77,77,77;,
  4;78,78,78,78;,
  4;79,79,79,79;,
  4;80,80,80,80;,
  4;81,81,81,81;,
  4;82,82,82,82;,
  4;83,83,83,83;,
  4;84,84,84,84;,
  4;85,85,85,85;,
  4;86,86,86,86;,
  4;87,87,87,87;,
  4;88,88,88,88;,
  4;89,89,89,89;,
  4;91,92,92,91;,
  4;92,93,93,92;,
  4;93,94,94,93;,
  4;94,95,95,94;,
  4;95,96,96,95;,
  4;96,97,97,96;,
  4;97,98,98,97;,
  4;98,91,91,98;,
  3;90,90,90;,
  3;90,90,90;,
  3;90,90,90;,
  3;90,90,90;,
  3;90,90,90;,
  3;90,90,90;,
  3;90,90,90;,
  3;90,90,90;,
  3;99,99,99;,
  3;99,99,99;,
  3;99,99,99;,
  3;99,99,99;,
  3;99,99,99;,
  3;99,99,99;,
  3;99,99,99;,
  3;99,99,99;,
  4;101,102,102,101;,
  4;102,103,103,102;,
  4;103,104,104,103;,
  4;104,105,105,104;,
  4;105,106,106,105;,
  4;106,107,107,106;,
  4;107,108,108,107;,
  4;108,101,101,108;,
  3;100,100,100;,
  3;100,100,100;,
  3;100,100,100;,
  3;100,100,100;,
  3;100,100,100;,
  3;100,100,100;,
  3;100,100,100;,
  3;100,100,100;,
  3;109,109,109;,
  3;109,109,109;,
  3;109,109,109;,
  3;109,109,109;,
  3;109,109,109;,
  3;109,109,109;,
  3;109,109,109;,
  3;109,109,109;,
  4;111,112,112,111;,
  4;112,113,113,112;,
  4;113,114,114,113;,
  4;114,115,115,114;,
  4;115,116,116,115;,
  4;116,117,117,116;,
  4;117,118,118,117;,
  4;118,111,111,118;,
  3;110,110,110;,
  3;110,110,110;,
  3;110,110,110;,
  3;110,110,110;,
  3;110,110,110;,
  3;110,110,110;,
  3;110,110,110;,
  3;110,110,110;,
  3;119,119,119;,
  3;119,119,119;,
  3;119,119,119;,
  3;119,119,119;,
  3;119,119,119;,
  3;119,119,119;,
  3;119,119,119;,
  3;119,119,119;,
  4;121,122,122,121;,
  4;122,123,123,122;,
  4;123,124,124,123;,
  4;124,125,125,124;,
  4;125,126,126,125;,
  4;126,127,127,126;,
  4;127,128,128,127;,
  4;128,121,121,128;,
  3;120,120,120;,
  3;120,120,120;,
  3;120,120,120;,
  3;120,120,120;,
  3;120,120,120;,
  3;120,120,120;,
  3;120,120,120;,
  3;120,120,120;,
  3;129,129,129;,
  3;129,129,129;,
  3;129,129,129;,
  3;129,129,129;,
  3;129,129,129;,
  3;129,129,129;,
  3;129,129,129;,
  3;129,129,129;,
  4;131,132,132,131;,
  4;132,133,133,132;,
  4;133,134,134,133;,
  4;134,135,135,134;,
  4;135,136,136,135;,
  4;136,137,137,136;,
  4;137,138,138,137;,
  4;138,131,131,138;,
  3;130,130,130;,
  3;130,130,130;,
  3;130,130,130;,
  3;130,130,130;,
  3;130,130,130;,
  3;130,130,130;,
  3;130,130,130;,
  3;130,130,130;,
  3;139,139,139;,
  3;139,139,139;,
  3;139,139,139;,
  3;139,139,139;,
  3;139,139,139;,
  3;139,139,139;,
  3;139,139,139;,
  3;139,139,139;;
 }
}
