xof 0302txt 0064
template Header {
 <3D82AB43-62DA-11cf-AB39-0020AF71E433>
 WORD major;
 WORD minor;
 DWORD flags;
}

template Vector {
 <3D82AB5E-62DA-11cf-AB39-0020AF71E433>
 FLOAT x;
 FLOAT y;
 FLOAT z;
}

template Coords2d {
 <F6F23F44-7686-11cf-8F52-0040333594A3>
 FLOAT u;
 FLOAT v;
}

template Matrix4x4 {
 <F6F23F45-7686-11cf-8F52-0040333594A3>
 array FLOAT matrix[16];
}

template ColorRGBA {
 <35FF44E0-6C7C-11cf-8F52-0040333594A3>
 FLOAT red;
 FLOAT green;
 FLOAT blue;
 FLOAT alpha;
}

template ColorRGB {
 <D3E16E81-7835-11cf-8F52-0040333594A3>
 FLOAT red;
 FLOAT green;
 FLOAT blue;
}

template IndexedColor {
 <1630B820-7842-11cf-8F52-0040333594A3>
 DWORD index;
 ColorRGBA indexColor;
}

template Boolean {
 <4885AE61-78E8-11cf-8F52-0040333594A3>
 WORD truefalse;
}

template Boolean2d {
 <4885AE63-78E8-11cf-8F52-0040333594A3>
 Boolean u;
 Boolean v;
}

template MaterialWrap {
 <4885AE60-78E8-11cf-8F52-0040333594A3>
 Boolean u;
 Boolean v;
}

template TextureFilename {
 <A42790E1-7810-11cf-8F52-0040333594A3>
 STRING filename;
}

template Material {
 <3D82AB4D-62DA-11cf-AB39-0020AF71E433>
 ColorRGBA faceColor;
 FLOAT power;
 ColorRGB specularColor;
 ColorRGB emissiveColor;
 [...]
}

template MeshFace {
 <3D82AB5F-62DA-11cf-AB39-0020AF71E433>
 DWORD nFaceVertexIndices;
 array DWORD faceVertexIndices[nFaceVertexIndices];
}

template MeshFaceWraps {
 <4885AE62-78E8-11cf-8F52-0040333594A3>
 DWORD nFaceWrapValues;
 Boolean2d faceWrapValues;
}

template MeshTextureCoords {
 <F6F23F40-7686-11cf-8F52-0040333594A3>
 DWORD nTextureCoords;
 array Coords2d textureCoords[nTextureCoords];
}

template MeshMaterialList {
 <F6F23F42-7686-11cf-8F52-0040333594A3>
 DWORD nMaterials;
 DWORD nFaceIndexes;
 array DWORD faceIndexes[nFaceIndexes];
 [Material]
}

template MeshNormals {
 <F6F23F43-7686-11cf-8F52-0040333594A3>
 DWORD nNormals;
 array Vector normals[nNormals];
 DWORD nFaceNormals;
 array MeshFace faceNormals[nFaceNormals];
}

template MeshVertexColors {
 <1630B821-7842-11cf-8F52-0040333594A3>
 DWORD nVertexColors;
 array IndexedColor vertexColors[nVertexColors];
}

template Mesh {
 <3D82AB44-62DA-11cf-AB39-0020AF71E433>
 DWORD nVertices;
 array Vector vertices[nVertices];
 DWORD nFaces;
 array MeshFace faces[nFaces];
 [...]
}

Header{
1;
0;
1;
}

Mesh {
 552;
 -257.50735;31.25000;-17.45755;,
 -157.50729;31.25000;-17.45755;,
 -157.50729;23.75000;-17.45755;,
 -257.50735;23.75000;-17.45755;,
 -157.50729;31.25000;-17.45755;,
 -157.50729;31.25000;17.45755;,
 -157.50729;23.75000;17.45755;,
 -157.50729;23.75000;-17.45755;,
 -157.50729;31.25000;17.45755;,
 -257.50735;31.25000;17.45755;,
 -257.50735;23.75000;17.45755;,
 -157.50729;23.75000;17.45755;,
 -257.50735;31.25000;17.45755;,
 -257.50735;31.25000;-17.45755;,
 -257.50735;23.75000;-17.45755;,
 -257.50735;23.75000;17.45755;,
 -157.50729;31.25000;-17.45755;,
 -257.50735;31.25000;-17.45755;,
 -257.50735;23.75000;-17.45755;,
 -157.50729;23.75000;-17.45755;,
 -132.50729;31.25000;-17.45755;,
 -32.50735;31.25000;-17.45755;,
 -32.50735;23.75000;-17.45755;,
 -132.50729;23.75000;-17.45755;,
 -32.50735;31.25000;-17.45755;,
 -32.50735;31.25000;17.45755;,
 -32.50735;23.75000;17.45755;,
 -32.50735;23.75000;-17.45755;,
 -32.50735;31.25000;17.45755;,
 -132.50729;31.25000;17.45755;,
 -132.50729;23.75000;17.45755;,
 -32.50735;23.75000;17.45755;,
 -132.50729;31.25000;17.45755;,
 -132.50729;31.25000;-17.45755;,
 -132.50729;23.75000;-17.45755;,
 -132.50729;23.75000;17.45755;,
 -32.50735;31.25000;-17.45755;,
 -132.50729;31.25000;-17.45755;,
 -132.50729;23.75000;-17.45755;,
 -32.50735;23.75000;-17.45755;,
 -253.38599;150.07132;-4.02868;,
 -245.32867;150.07132;-4.02868;,
 -245.32867;29.33976;-4.02868;,
 -253.38599;29.33976;-4.02868;,
 -245.32867;150.07132;-4.02868;,
 -245.32867;150.07132;4.02868;,
 -245.32867;29.33976;4.02868;,
 -245.32867;29.33976;-4.02868;,
 -245.32867;150.07132;4.02868;,
 -253.38599;150.07132;4.02868;,
 -253.38599;29.33976;4.02868;,
 -245.32867;29.33976;4.02868;,
 -253.38599;150.07132;4.02868;,
 -253.38599;150.07132;-4.02868;,
 -253.38599;29.33976;-4.02868;,
 -253.38599;29.33976;4.02868;,
 -245.32867;150.07132;-4.02868;,
 -253.38599;150.07132;-4.02868;,
 -253.38599;29.33976;-4.02868;,
 -245.32867;29.33976;-4.02868;,
 -169.88599;150.07132;-4.02868;,
 -161.82867;150.07132;-4.02868;,
 -161.82867;29.33976;-4.02868;,
 -169.88599;29.33976;-4.02868;,
 -161.82867;150.07132;-4.02868;,
 -161.82867;150.07132;4.02868;,
 -161.82867;29.33976;4.02868;,
 -161.82867;29.33976;-4.02868;,
 -161.82867;150.07132;4.02868;,
 -169.88599;150.07132;4.02868;,
 -169.88599;29.33976;4.02868;,
 -161.82867;29.33976;4.02868;,
 -169.88599;150.07132;4.02868;,
 -169.88599;150.07132;-4.02868;,
 -169.88599;29.33976;-4.02868;,
 -169.88599;29.33976;4.02868;,
 -161.82867;150.07132;-4.02868;,
 -169.88599;150.07132;-4.02868;,
 -169.88599;29.33976;-4.02868;,
 -161.82867;29.33976;-4.02868;,
 -128.38599;150.07132;-4.02868;,
 -120.32867;150.07132;-4.02868;,
 -120.32867;29.33976;-4.02868;,
 -128.38599;29.33976;-4.02868;,
 -120.32867;150.07132;-4.02868;,
 -120.32867;150.07132;4.02868;,
 -120.32867;29.33976;4.02868;,
 -120.32867;29.33976;-4.02868;,
 -120.32867;150.07132;4.02868;,
 -128.38599;150.07132;4.02868;,
 -128.38599;29.33976;4.02868;,
 -120.32867;29.33976;4.02868;,
 -128.38599;150.07132;4.02868;,
 -128.38599;150.07132;-4.02868;,
 -128.38599;29.33976;-4.02868;,
 -128.38599;29.33976;4.02868;,
 -120.32867;150.07132;-4.02868;,
 -128.38599;150.07132;-4.02868;,
 -128.38599;29.33976;-4.02868;,
 -120.32867;29.33976;-4.02868;,
 -44.63599;150.07132;-4.02868;,
 -36.57866;150.07132;-4.02868;,
 -36.57866;29.33976;-4.02868;,
 -44.63599;29.33976;-4.02868;,
 -36.57866;150.07132;-4.02868;,
 -36.57866;150.07132;4.02868;,
 -36.57866;29.33976;4.02868;,
 -36.57866;29.33976;-4.02868;,
 -36.57866;150.07132;4.02868;,
 -44.63599;150.07132;4.02868;,
 -44.63599;29.33976;4.02868;,
 -36.57866;29.33976;4.02868;,
 -44.63599;150.07132;4.02868;,
 -44.63599;150.07132;-4.02868;,
 -44.63599;29.33976;-4.02868;,
 -44.63599;29.33976;4.02868;,
 -36.57866;150.07132;-4.02868;,
 -44.63599;150.07132;-4.02868;,
 -44.63599;29.33976;-4.02868;,
 -36.57866;29.33976;-4.02868;,
 2.84225;163.85725;-11.14255;,
 2.84225;147.74260;-11.14255;,
 -287.55701;147.74260;-11.14255;,
 -287.55701;163.85725;-11.14255;,
 2.84225;147.74260;-11.14255;,
 2.84225;147.74260;11.14255;,
 -287.55701;147.74260;11.14255;,
 -287.55701;147.74260;-11.14255;,
 2.84225;147.74260;11.14255;,
 2.84225;163.85725;11.14255;,
 -287.55701;163.85725;11.14255;,
 -287.55701;147.74260;11.14255;,
 2.84225;163.85725;11.14255;,
 2.84225;163.85725;-11.14255;,
 -287.55701;163.85725;-11.14255;,
 -287.55701;163.85725;11.14255;,
 2.84225;147.74260;-11.14255;,
 2.84225;163.85725;-11.14255;,
 -287.55701;163.85725;-11.14255;,
 -287.55701;147.74260;-11.14255;,
 -282.50735;155.88560;-2.97080;,
 -279.16614;155.24640;-1.74320;,
 -279.16614;-2.16075;-83.68420;,
 -282.50735;-1.52170;-84.91185;,
 -277.78204;153.70370;1.22060;,
 -277.78204;-3.70365;-80.72055;,
 -279.16614;152.16090;4.18420;,
 -279.16614;-5.24640;-77.75680;,
 -282.50735;151.52174;5.41185;,
 -282.50735;-5.88550;-76.52920;,
 -285.84854;152.16090;4.18420;,
 -285.84854;-5.24640;-77.75680;,
 -287.23264;153.70370;1.22060;,
 -287.23264;-3.70365;-80.72055;,
 -285.84854;155.24640;-1.74320;,
 -285.84854;-2.16075;-83.68420;,
 -282.50735;155.88560;-2.97080;,
 -282.50735;-1.52170;-84.91185;,
 -282.50735;153.70370;1.22060;,
 -282.50735;153.70370;1.22060;,
 -282.50735;153.70370;1.22060;,
 -282.50735;153.70370;1.22060;,
 -282.50735;153.70370;1.22060;,
 -282.50735;153.70370;1.22060;,
 -282.50735;153.70370;1.22060;,
 -282.50735;153.70370;1.22060;,
 -282.50735;-3.70365;-80.72055;,
 -282.50735;-3.70365;-80.72055;,
 -282.50735;-3.70365;-80.72055;,
 -282.50735;-3.70365;-80.72055;,
 -282.50735;-3.70365;-80.72055;,
 -282.50735;-3.70365;-80.72055;,
 -282.50735;-3.70365;-80.72055;,
 -282.50735;-3.70365;-80.72055;,
 -282.50729;155.88560;3.47080;,
 -285.84854;155.24640;2.24315;,
 -285.84854;-2.16075;84.18420;,
 -282.50729;-1.52170;85.41185;,
 -287.23264;153.70370;-0.72060;,
 -287.23264;-3.70365;81.22050;,
 -285.84854;152.16090;-3.68425;,
 -285.84854;-5.24640;78.25680;,
 -282.50729;151.52174;-4.91185;,
 -282.50729;-5.88550;77.02920;,
 -279.16614;152.16090;-3.68425;,
 -279.16614;-5.24640;78.25680;,
 -277.78204;153.70370;-0.72060;,
 -277.78204;-3.70365;81.22050;,
 -279.16614;155.24640;2.24315;,
 -279.16614;-2.16075;84.18420;,
 -282.50729;155.88560;3.47080;,
 -282.50729;-1.52170;85.41185;,
 -282.50729;153.70370;-0.72060;,
 -282.50729;153.70370;-0.72060;,
 -282.50729;153.70370;-0.72060;,
 -282.50729;153.70370;-0.72060;,
 -282.50729;153.70370;-0.72060;,
 -282.50729;153.70370;-0.72060;,
 -282.50729;153.70370;-0.72060;,
 -282.50729;153.70370;-0.72060;,
 -282.50729;-3.70365;81.22050;,
 -282.50729;-3.70365;81.22050;,
 -282.50729;-3.70365;81.22050;,
 -282.50729;-3.70365;81.22050;,
 -282.50729;-3.70365;81.22050;,
 -282.50729;-3.70365;81.22050;,
 -282.50729;-3.70365;81.22050;,
 -282.50729;-3.70365;81.22050;,
 -2.50730;155.88560;-2.97080;,
 0.83390;155.24640;-1.74320;,
 0.83390;-2.16075;-83.68420;,
 -2.50730;-1.52170;-84.91185;,
 2.21800;153.70370;1.22060;,
 2.21800;-3.70365;-80.72055;,
 0.83390;152.16090;4.18420;,
 0.83390;-5.24640;-77.75680;,
 -2.50730;151.52174;5.41185;,
 -2.50730;-5.88550;-76.52920;,
 -5.84845;152.16090;4.18420;,
 -5.84845;-5.24640;-77.75680;,
 -7.23255;153.70370;1.22060;,
 -7.23255;-3.70365;-80.72055;,
 -5.84845;155.24640;-1.74320;,
 -5.84845;-2.16075;-83.68420;,
 -2.50730;155.88560;-2.97080;,
 -2.50730;-1.52170;-84.91185;,
 -2.50730;153.70370;1.22060;,
 -2.50730;153.70370;1.22060;,
 -2.50730;153.70370;1.22060;,
 -2.50730;153.70370;1.22060;,
 -2.50730;153.70370;1.22060;,
 -2.50730;153.70370;1.22060;,
 -2.50730;153.70370;1.22060;,
 -2.50730;153.70370;1.22060;,
 -2.50730;-3.70365;-80.72055;,
 -2.50730;-3.70365;-80.72055;,
 -2.50730;-3.70365;-80.72055;,
 -2.50730;-3.70365;-80.72055;,
 -2.50730;-3.70365;-80.72055;,
 -2.50730;-3.70365;-80.72055;,
 -2.50730;-3.70365;-80.72055;,
 -2.50730;-3.70365;-80.72055;,
 -2.50725;155.88560;3.47080;,
 -5.84845;155.24640;2.24315;,
 -5.84845;-2.16075;84.18420;,
 -2.50725;-1.52170;85.41185;,
 -7.23255;153.70370;-0.72060;,
 -7.23255;-3.70365;81.22050;,
 -5.84845;152.16090;-3.68425;,
 -5.84845;-5.24640;78.25680;,
 -2.50725;151.52174;-4.91185;,
 -2.50725;-5.88550;77.02920;,
 0.83390;152.16090;-3.68425;,
 0.83390;-5.24640;78.25680;,
 2.21800;153.70370;-0.72060;,
 2.21800;-3.70365;81.22050;,
 0.83390;155.24640;2.24315;,
 0.83390;-2.16075;84.18420;,
 -2.50725;155.88560;3.47080;,
 -2.50725;-1.52170;85.41185;,
 -2.50725;153.70370;-0.72060;,
 -2.50725;153.70370;-0.72060;,
 -2.50725;153.70370;-0.72060;,
 -2.50725;153.70370;-0.72060;,
 -2.50725;153.70370;-0.72060;,
 -2.50725;153.70370;-0.72060;,
 -2.50725;153.70370;-0.72060;,
 -2.50725;153.70370;-0.72060;,
 -2.50725;-3.70365;81.22050;,
 -2.50725;-3.70365;81.22050;,
 -2.50725;-3.70365;81.22050;,
 -2.50725;-3.70365;81.22050;,
 -2.50725;-3.70365;81.22050;,
 -2.50725;-3.70365;81.22050;,
 -2.50725;-3.70365;81.22050;,
 -2.50725;-3.70365;81.22050;,
 22.62135;31.25000;-17.45755;,
 122.62135;31.25000;-17.45755;,
 122.62135;23.75000;-17.45755;,
 22.62135;23.75000;-17.45755;,
 122.62135;31.25000;-17.45755;,
 122.62135;31.25000;17.45755;,
 122.62135;23.75000;17.45755;,
 122.62135;23.75000;-17.45755;,
 122.62135;31.25000;17.45755;,
 22.62135;31.25000;17.45755;,
 22.62135;23.75000;17.45755;,
 122.62135;23.75000;17.45755;,
 22.62135;31.25000;17.45755;,
 22.62135;31.25000;-17.45755;,
 22.62135;23.75000;-17.45755;,
 22.62135;23.75000;17.45755;,
 122.62135;31.25000;-17.45755;,
 22.62135;31.25000;-17.45755;,
 22.62135;23.75000;-17.45755;,
 122.62135;23.75000;-17.45755;,
 147.62132;31.25000;-17.45755;,
 247.62128;31.25000;-17.45755;,
 247.62128;23.75000;-17.45755;,
 147.62132;23.75000;-17.45755;,
 247.62128;31.25000;-17.45755;,
 247.62128;31.25000;17.45755;,
 247.62128;23.75000;17.45755;,
 247.62128;23.75000;-17.45755;,
 247.62128;31.25000;17.45755;,
 147.62132;31.25000;17.45755;,
 147.62132;23.75000;17.45755;,
 247.62128;23.75000;17.45755;,
 147.62132;31.25000;17.45755;,
 147.62132;31.25000;-17.45755;,
 147.62132;23.75000;-17.45755;,
 147.62132;23.75000;17.45755;,
 247.62128;31.25000;-17.45755;,
 147.62132;31.25000;-17.45755;,
 147.62132;23.75000;-17.45755;,
 247.62128;23.75000;-17.45755;,
 26.74272;150.07132;-4.02868;,
 34.80003;150.07132;-4.02868;,
 34.80003;29.33976;-4.02868;,
 26.74272;29.33976;-4.02868;,
 34.80003;150.07132;-4.02868;,
 34.80003;150.07132;4.02868;,
 34.80003;29.33976;4.02868;,
 34.80003;29.33976;-4.02868;,
 34.80003;150.07132;4.02868;,
 26.74272;150.07132;4.02868;,
 26.74272;29.33976;4.02868;,
 34.80003;29.33976;4.02868;,
 26.74272;150.07132;4.02868;,
 26.74272;150.07132;-4.02868;,
 26.74272;29.33976;-4.02868;,
 26.74272;29.33976;4.02868;,
 34.80003;150.07132;-4.02868;,
 26.74272;150.07132;-4.02868;,
 26.74272;29.33976;-4.02868;,
 34.80003;29.33976;-4.02868;,
 110.24266;150.07132;-4.02868;,
 118.29997;150.07132;-4.02868;,
 118.29997;29.33976;-4.02868;,
 110.24266;29.33976;-4.02868;,
 118.29997;150.07132;-4.02868;,
 118.29997;150.07132;4.02868;,
 118.29997;29.33976;4.02868;,
 118.29997;29.33976;-4.02868;,
 118.29997;150.07132;4.02868;,
 110.24266;150.07132;4.02868;,
 110.24266;29.33976;4.02868;,
 118.29997;29.33976;4.02868;,
 110.24266;150.07132;4.02868;,
 110.24266;150.07132;-4.02868;,
 110.24266;29.33976;-4.02868;,
 110.24266;29.33976;4.02868;,
 118.29997;150.07132;-4.02868;,
 110.24266;150.07132;-4.02868;,
 110.24266;29.33976;-4.02868;,
 118.29997;29.33976;-4.02868;,
 151.74261;150.07132;-4.02868;,
 159.79994;150.07132;-4.02868;,
 159.79994;29.33976;-4.02868;,
 151.74261;29.33976;-4.02868;,
 159.79994;150.07132;-4.02868;,
 159.79994;150.07132;4.02868;,
 159.79994;29.33976;4.02868;,
 159.79994;29.33976;-4.02868;,
 159.79994;150.07132;4.02868;,
 151.74261;150.07132;4.02868;,
 151.74261;29.33976;4.02868;,
 159.79994;29.33976;4.02868;,
 151.74261;150.07132;4.02868;,
 151.74261;150.07132;-4.02868;,
 151.74261;29.33976;-4.02868;,
 151.74261;29.33976;4.02868;,
 159.79994;150.07132;-4.02868;,
 151.74261;150.07132;-4.02868;,
 151.74261;29.33976;-4.02868;,
 159.79994;29.33976;-4.02868;,
 235.49268;150.07132;-4.02868;,
 243.54999;150.07132;-4.02868;,
 243.54999;29.33976;-4.02868;,
 235.49268;29.33976;-4.02868;,
 243.54999;150.07132;-4.02868;,
 243.54999;150.07132;4.02868;,
 243.54999;29.33976;4.02868;,
 243.54999;29.33976;-4.02868;,
 243.54999;150.07132;4.02868;,
 235.49268;150.07132;4.02868;,
 235.49268;29.33976;4.02868;,
 243.54999;29.33976;4.02868;,
 235.49268;150.07132;4.02868;,
 235.49268;150.07132;-4.02868;,
 235.49268;29.33976;-4.02868;,
 235.49268;29.33976;4.02868;,
 243.54999;150.07132;-4.02868;,
 235.49268;150.07132;-4.02868;,
 235.49268;29.33976;-4.02868;,
 243.54999;29.33976;-4.02868;,
 282.97104;163.85725;-11.14255;,
 282.97104;147.74260;-11.14255;,
 -7.42838;147.74260;-11.14255;,
 -7.42838;163.85725;-11.14255;,
 282.97104;147.74260;-11.14255;,
 282.97104;147.74260;11.14255;,
 -7.42838;147.74260;11.14255;,
 -7.42838;147.74260;-11.14255;,
 282.97104;147.74260;11.14255;,
 282.97104;163.85725;11.14255;,
 -7.42838;163.85725;11.14255;,
 -7.42838;147.74260;11.14255;,
 282.97104;163.85725;11.14255;,
 282.97104;163.85725;-11.14255;,
 -7.42838;163.85725;-11.14255;,
 -7.42838;163.85725;11.14255;,
 282.97104;147.74260;-11.14255;,
 282.97104;163.85725;-11.14255;,
 -7.42838;163.85725;-11.14255;,
 -7.42838;147.74260;-11.14255;,
 -2.37868;155.88560;-2.97080;,
 0.96250;155.24640;-1.74320;,
 0.96250;-2.16075;-83.68420;,
 -2.37868;-1.52170;-84.91185;,
 2.34659;153.70370;1.22060;,
 2.34659;-3.70365;-80.72055;,
 0.96250;152.16090;4.18420;,
 0.96250;-5.24640;-77.75680;,
 -2.37868;151.52174;5.41185;,
 -2.37868;-5.88550;-76.52920;,
 -5.71987;152.16090;4.18420;,
 -5.71987;-5.24640;-77.75680;,
 -7.10397;153.70370;1.22060;,
 -7.10397;-3.70365;-80.72055;,
 -5.71987;155.24640;-1.74320;,
 -5.71987;-2.16075;-83.68420;,
 -2.37868;155.88560;-2.97080;,
 -2.37868;-1.52170;-84.91185;,
 -2.37868;153.70370;1.22060;,
 -2.37868;153.70370;1.22060;,
 -2.37868;153.70370;1.22060;,
 -2.37868;153.70370;1.22060;,
 -2.37868;153.70370;1.22060;,
 -2.37868;153.70370;1.22060;,
 -2.37868;153.70370;1.22060;,
 -2.37868;153.70370;1.22060;,
 -2.37868;-3.70365;-80.72055;,
 -2.37868;-3.70365;-80.72055;,
 -2.37868;-3.70365;-80.72055;,
 -2.37868;-3.70365;-80.72055;,
 -2.37868;-3.70365;-80.72055;,
 -2.37868;-3.70365;-80.72055;,
 -2.37868;-3.70365;-80.72055;,
 -2.37868;-3.70365;-80.72055;,
 -2.37862;155.88560;3.47080;,
 -5.71987;155.24640;2.24315;,
 -5.71987;-2.16075;84.18420;,
 -2.37862;-1.52170;85.41185;,
 -7.10397;153.70370;-0.72060;,
 -7.10397;-3.70365;81.22050;,
 -5.71987;152.16090;-3.68425;,
 -5.71987;-5.24640;78.25680;,
 -2.37862;151.52174;-4.91185;,
 -2.37862;-5.88550;77.02920;,
 0.96250;152.16090;-3.68425;,
 0.96250;-5.24640;78.25680;,
 2.34659;153.70370;-0.72060;,
 2.34659;-3.70365;81.22050;,
 0.96250;155.24640;2.24315;,
 0.96250;-2.16075;84.18420;,
 -2.37862;155.88560;3.47080;,
 -2.37862;-1.52170;85.41185;,
 -2.37862;153.70370;-0.72060;,
 -2.37862;153.70370;-0.72060;,
 -2.37862;153.70370;-0.72060;,
 -2.37862;153.70370;-0.72060;,
 -2.37862;153.70370;-0.72060;,
 -2.37862;153.70370;-0.72060;,
 -2.37862;153.70370;-0.72060;,
 -2.37862;153.70370;-0.72060;,
 -2.37862;-3.70365;81.22050;,
 -2.37862;-3.70365;81.22050;,
 -2.37862;-3.70365;81.22050;,
 -2.37862;-3.70365;81.22050;,
 -2.37862;-3.70365;81.22050;,
 -2.37862;-3.70365;81.22050;,
 -2.37862;-3.70365;81.22050;,
 -2.37862;-3.70365;81.22050;,
 277.62149;155.88560;-2.97080;,
 280.96274;155.24640;-1.74320;,
 280.96274;-2.16075;-83.68420;,
 277.62149;-1.52170;-84.91185;,
 282.34683;153.70370;1.22060;,
 282.34683;-3.70365;-80.72055;,
 280.96274;152.16090;4.18420;,
 280.96274;-5.24640;-77.75680;,
 277.62149;151.52174;5.41185;,
 277.62149;-5.88550;-76.52920;,
 274.28030;152.16090;4.18420;,
 274.28030;-5.24640;-77.75680;,
 272.89621;153.70370;1.22060;,
 272.89621;-3.70365;-80.72055;,
 274.28030;155.24640;-1.74320;,
 274.28030;-2.16075;-83.68420;,
 277.62149;155.88560;-2.97080;,
 277.62149;-1.52170;-84.91185;,
 277.62149;153.70370;1.22060;,
 277.62149;153.70370;1.22060;,
 277.62149;153.70370;1.22060;,
 277.62149;153.70370;1.22060;,
 277.62149;153.70370;1.22060;,
 277.62149;153.70370;1.22060;,
 277.62149;153.70370;1.22060;,
 277.62149;153.70370;1.22060;,
 277.62149;-3.70365;-80.72055;,
 277.62149;-3.70365;-80.72055;,
 277.62149;-3.70365;-80.72055;,
 277.62149;-3.70365;-80.72055;,
 277.62149;-3.70365;-80.72055;,
 277.62149;-3.70365;-80.72055;,
 277.62149;-3.70365;-80.72055;,
 277.62149;-3.70365;-80.72055;,
 277.62155;155.88560;3.47080;,
 274.28030;155.24640;2.24315;,
 274.28030;-2.16075;84.18420;,
 277.62155;-1.52170;85.41185;,
 272.89621;153.70370;-0.72060;,
 272.89621;-3.70365;81.22050;,
 274.28030;152.16090;-3.68425;,
 274.28030;-5.24640;78.25680;,
 277.62155;151.52174;-4.91185;,
 277.62155;-5.88550;77.02920;,
 280.96274;152.16090;-3.68425;,
 280.96274;-5.24640;78.25680;,
 282.34683;153.70370;-0.72060;,
 282.34683;-3.70365;81.22050;,
 280.96274;155.24640;2.24315;,
 280.96274;-2.16075;84.18420;,
 277.62155;155.88560;3.47080;,
 277.62155;-1.52170;85.41185;,
 277.62155;153.70370;-0.72060;,
 277.62155;153.70370;-0.72060;,
 277.62155;153.70370;-0.72060;,
 277.62155;153.70370;-0.72060;,
 277.62155;153.70370;-0.72060;,
 277.62155;153.70370;-0.72060;,
 277.62155;153.70370;-0.72060;,
 277.62155;153.70370;-0.72060;,
 277.62155;-3.70365;81.22050;,
 277.62155;-3.70365;81.22050;,
 277.62155;-3.70365;81.22050;,
 277.62155;-3.70365;81.22050;,
 277.62155;-3.70365;81.22050;,
 277.62155;-3.70365;81.22050;,
 277.62155;-3.70365;81.22050;,
 277.62155;-3.70365;81.22050;;
 
 276;
 4;0,1,2,3;,
 4;4,5,6,7;,
 4;8,9,10,11;,
 4;12,13,14,15;,
 4;12,5,16,17;,
 4;18,19,6,15;,
 4;20,21,22,23;,
 4;24,25,26,27;,
 4;28,29,30,31;,
 4;32,33,34,35;,
 4;32,25,36,37;,
 4;38,39,26,35;,
 4;40,41,42,43;,
 4;44,45,46,47;,
 4;48,49,50,51;,
 4;52,53,54,55;,
 4;52,45,56,57;,
 4;58,59,46,55;,
 4;60,61,62,63;,
 4;64,65,66,67;,
 4;68,69,70,71;,
 4;72,73,74,75;,
 4;72,65,76,77;,
 4;78,79,66,75;,
 4;80,81,82,83;,
 4;84,85,86,87;,
 4;88,89,90,91;,
 4;92,93,94,95;,
 4;92,85,96,97;,
 4;98,99,86,95;,
 4;100,101,102,103;,
 4;104,105,106,107;,
 4;108,109,110,111;,
 4;112,113,114,115;,
 4;112,105,116,117;,
 4;118,119,106,115;,
 4;120,121,122,123;,
 4;124,125,126,127;,
 4;128,129,130,131;,
 4;132,133,134,135;,
 4;132,125,136,137;,
 4;138,139,126,135;,
 4;140,141,142,143;,
 4;141,144,145,142;,
 4;144,146,147,145;,
 4;146,148,149,147;,
 4;148,150,151,149;,
 4;150,152,153,151;,
 4;152,154,155,153;,
 4;154,156,157,155;,
 3;158,141,140;,
 3;159,144,141;,
 3;160,146,144;,
 3;161,148,146;,
 3;162,150,148;,
 3;163,152,150;,
 3;164,154,152;,
 3;165,156,154;,
 3;166,143,142;,
 3;167,142,145;,
 3;168,145,147;,
 3;169,147,149;,
 3;170,149,151;,
 3;171,151,153;,
 3;172,153,155;,
 3;173,155,157;,
 4;174,175,176,177;,
 4;175,178,179,176;,
 4;178,180,181,179;,
 4;180,182,183,181;,
 4;182,184,185,183;,
 4;184,186,187,185;,
 4;186,188,189,187;,
 4;188,190,191,189;,
 3;192,175,174;,
 3;193,178,175;,
 3;194,180,178;,
 3;195,182,180;,
 3;196,184,182;,
 3;197,186,184;,
 3;198,188,186;,
 3;199,190,188;,
 3;200,177,176;,
 3;201,176,179;,
 3;202,179,181;,
 3;203,181,183;,
 3;204,183,185;,
 3;205,185,187;,
 3;206,187,189;,
 3;207,189,191;,
 4;208,209,210,211;,
 4;209,212,213,210;,
 4;212,214,215,213;,
 4;214,216,217,215;,
 4;216,218,219,217;,
 4;218,220,221,219;,
 4;220,222,223,221;,
 4;222,224,225,223;,
 3;226,209,208;,
 3;227,212,209;,
 3;228,214,212;,
 3;229,216,214;,
 3;230,218,216;,
 3;231,220,218;,
 3;232,222,220;,
 3;233,224,222;,
 3;234,211,210;,
 3;235,210,213;,
 3;236,213,215;,
 3;237,215,217;,
 3;238,217,219;,
 3;239,219,221;,
 3;240,221,223;,
 3;241,223,225;,
 4;242,243,244,245;,
 4;243,246,247,244;,
 4;246,248,249,247;,
 4;248,250,251,249;,
 4;250,252,253,251;,
 4;252,254,255,253;,
 4;254,256,257,255;,
 4;256,258,259,257;,
 3;260,243,242;,
 3;261,246,243;,
 3;262,248,246;,
 3;263,250,248;,
 3;264,252,250;,
 3;265,254,252;,
 3;266,256,254;,
 3;267,258,256;,
 3;268,245,244;,
 3;269,244,247;,
 3;270,247,249;,
 3;271,249,251;,
 3;272,251,253;,
 3;273,253,255;,
 3;274,255,257;,
 3;275,257,259;,
 4;276,277,278,279;,
 4;280,281,282,283;,
 4;284,285,286,287;,
 4;288,289,290,291;,
 4;288,281,292,293;,
 4;294,295,282,291;,
 4;296,297,298,299;,
 4;300,301,302,303;,
 4;304,305,306,307;,
 4;308,309,310,311;,
 4;308,301,312,313;,
 4;314,315,302,311;,
 4;316,317,318,319;,
 4;320,321,322,323;,
 4;324,325,326,327;,
 4;328,329,330,331;,
 4;328,321,332,333;,
 4;334,335,322,331;,
 4;336,337,338,339;,
 4;340,341,342,343;,
 4;344,345,346,347;,
 4;348,349,350,351;,
 4;348,341,352,353;,
 4;354,355,342,351;,
 4;356,357,358,359;,
 4;360,361,362,363;,
 4;364,365,366,367;,
 4;368,369,370,371;,
 4;368,361,372,373;,
 4;374,375,362,371;,
 4;376,377,378,379;,
 4;380,381,382,383;,
 4;384,385,386,387;,
 4;388,389,390,391;,
 4;388,381,392,393;,
 4;394,395,382,391;,
 4;396,397,398,399;,
 4;400,401,402,403;,
 4;404,405,406,407;,
 4;408,409,410,411;,
 4;408,401,412,413;,
 4;414,415,402,411;,
 4;416,417,418,419;,
 4;417,420,421,418;,
 4;420,422,423,421;,
 4;422,424,425,423;,
 4;424,426,427,425;,
 4;426,428,429,427;,
 4;428,430,431,429;,
 4;430,432,433,431;,
 3;434,417,416;,
 3;435,420,417;,
 3;436,422,420;,
 3;437,424,422;,
 3;438,426,424;,
 3;439,428,426;,
 3;440,430,428;,
 3;441,432,430;,
 3;442,419,418;,
 3;443,418,421;,
 3;444,421,423;,
 3;445,423,425;,
 3;446,425,427;,
 3;447,427,429;,
 3;448,429,431;,
 3;449,431,433;,
 4;450,451,452,453;,
 4;451,454,455,452;,
 4;454,456,457,455;,
 4;456,458,459,457;,
 4;458,460,461,459;,
 4;460,462,463,461;,
 4;462,464,465,463;,
 4;464,466,467,465;,
 3;468,451,450;,
 3;469,454,451;,
 3;470,456,454;,
 3;471,458,456;,
 3;472,460,458;,
 3;473,462,460;,
 3;474,464,462;,
 3;475,466,464;,
 3;476,453,452;,
 3;477,452,455;,
 3;478,455,457;,
 3;479,457,459;,
 3;480,459,461;,
 3;481,461,463;,
 3;482,463,465;,
 3;483,465,467;,
 4;484,485,486,487;,
 4;485,488,489,486;,
 4;488,490,491,489;,
 4;490,492,493,491;,
 4;492,494,495,493;,
 4;494,496,497,495;,
 4;496,498,499,497;,
 4;498,500,501,499;,
 3;502,485,484;,
 3;503,488,485;,
 3;504,490,488;,
 3;505,492,490;,
 3;506,494,492;,
 3;507,496,494;,
 3;508,498,496;,
 3;509,500,498;,
 3;510,487,486;,
 3;511,486,489;,
 3;512,489,491;,
 3;513,491,493;,
 3;514,493,495;,
 3;515,495,497;,
 3;516,497,499;,
 3;517,499,501;,
 4;518,519,520,521;,
 4;519,522,523,520;,
 4;522,524,525,523;,
 4;524,526,527,525;,
 4;526,528,529,527;,
 4;528,530,531,529;,
 4;530,532,533,531;,
 4;532,534,535,533;,
 3;536,519,518;,
 3;537,522,519;,
 3;538,524,522;,
 3;539,526,524;,
 3;540,528,526;,
 3;541,530,528;,
 3;542,532,530;,
 3;543,534,532;,
 3;544,521,520;,
 3;545,520,523;,
 3;546,523,525;,
 3;547,525,527;,
 3;548,527,529;,
 3;549,529,531;,
 3;550,531,533;,
 3;551,533,535;;
 
 MeshMaterialList {
  4;
  276;
  3,
  3,
  3,
  3,
  3,
  3,
  3,
  3,
  3,
  3,
  3,
  3,
  2,
  2,
  2,
  2,
  2,
  2,
  2,
  2,
  2,
  2,
  2,
  2,
  2,
  2,
  2,
  2,
  2,
  2,
  2,
  2,
  2,
  2,
  2,
  2,
  1,
  1,
  1,
  1,
  1,
  1,
  0,
  0,
  0,
  0,
  0,
  0,
  0,
  0,
  0,
  0,
  0,
  0,
  0,
  0,
  0,
  0,
  0,
  0,
  0,
  0,
  0,
  0,
  0,
  0,
  0,
  0,
  0,
  0,
  0,
  0,
  0,
  0,
  0,
  0,
  0,
  0,
  0,
  0,
  0,
  0,
  0,
  0,
  0,
  0,
  0,
  0,
  0,
  0,
  0,
  0,
  0,
  0,
  0,
  0,
  0,
  0,
  0,
  0,
  0,
  0,
  0,
  0,
  0,
  0,
  0,
  0,
  0,
  0,
  0,
  0,
  0,
  0,
  0,
  0,
  0,
  0,
  0,
  0,
  0,
  0,
  0,
  0,
  0,
  0,
  0,
  0,
  0,
  0,
  0,
  0,
  0,
  0,
  0,
  0,
  0,
  0,
  3,
  3,
  3,
  3,
  3,
  3,
  3,
  3,
  3,
  3,
  3,
  3,
  2,
  2,
  2,
  2,
  2,
  2,
  2,
  2,
  2,
  2,
  2,
  2,
  2,
  2,
  2,
  2,
  2,
  2,
  2,
  2,
  2,
  2,
  2,
  2,
  1,
  1,
  1,
  1,
  1,
  1,
  0,
  0,
  0,
  0,
  0,
  0,
  0,
  0,
  0,
  0,
  0,
  0,
  0,
  0,
  0,
  0,
  0,
  0,
  0,
  0,
  0,
  0,
  0,
  0,
  0,
  0,
  0,
  0,
  0,
  0,
  0,
  0,
  0,
  0,
  0,
  0,
  0,
  0,
  0,
  0,
  0,
  0,
  0,
  0,
  0,
  0,
  0,
  0,
  0,
  0,
  0,
  0,
  0,
  0,
  0,
  0,
  0,
  0,
  0,
  0,
  0,
  0,
  0,
  0,
  0,
  0,
  0,
  0,
  0,
  0,
  0,
  0,
  0,
  0,
  0,
  0,
  0,
  0,
  0,
  0,
  0,
  0,
  0,
  0,
  0,
  0,
  0,
  0,
  0,
  0,
  0,
  0,
  0,
  0,
  0,
  0;;
  Material {
   0.800000;0.000000;0.000000;1.000000;;
   5.000000;
   0.000000;0.000000;0.000000;;
   0.000000;0.000000;0.000000;;
  }
  Material {
   0.000000;0.000000;0.800000;1.000000;;
   5.000000;
   0.000000;0.000000;0.000000;;
   0.000000;0.000000;0.000000;;
  }
  Material {
   0.476800;0.476800;0.476800;1.000000;;
   5.000000;
   0.000000;0.000000;0.000000;;
   0.000000;0.000000;0.000000;;
  }
  Material {
   1.000000;1.000000;1.000000;1.000000;;
   0.000000;
   0.000000;0.000000;0.000000;;
   0.000000;0.000000;0.000000;;
  }
 }
 MeshNormals {
  240;
  0.000000;0.000000;-1.000000;,
  1.000000;0.000000;0.000000;,
  0.000000;0.000000;1.000000;,
  -1.000000;0.000000;0.000000;,
  0.000000;1.000000;0.000000;,
  0.000000;-1.000000;-0.000000;,
  0.000000;0.000000;-1.000000;,
  1.000000;0.000000;0.000000;,
  0.000000;0.000000;1.000000;,
  -1.000000;0.000000;0.000000;,
  0.000000;1.000000;0.000000;,
  0.000000;-1.000000;-0.000000;,
  0.000000;0.000000;-1.000000;,
  1.000000;0.000000;0.000000;,
  0.000000;0.000000;1.000000;,
  -1.000000;0.000000;0.000000;,
  0.000000;1.000000;0.000000;,
  0.000000;-1.000000;-0.000000;,
  0.000000;0.000000;-1.000000;,
  1.000000;0.000000;0.000000;,
  0.000000;0.000000;1.000000;,
  -1.000000;0.000000;0.000000;,
  0.000000;1.000000;0.000000;,
  0.000000;-1.000000;-0.000000;,
  0.000000;0.000000;-1.000000;,
  1.000000;0.000000;0.000000;,
  0.000000;0.000000;1.000000;,
  -1.000000;0.000000;0.000000;,
  0.000000;1.000000;0.000000;,
  0.000000;-1.000000;-0.000000;,
  0.000000;0.000000;-1.000000;,
  1.000000;0.000000;0.000000;,
  0.000000;0.000000;1.000000;,
  -1.000000;0.000000;0.000000;,
  0.000000;1.000000;0.000000;,
  0.000000;-1.000000;-0.000000;,
  0.000000;0.000000;-1.000000;,
  0.000000;-1.000000;-0.000000;,
  0.000000;0.000000;1.000000;,
  0.000000;1.000000;0.000000;,
  1.000000;0.000000;0.000000;,
  -1.000000;0.000000;0.000000;,
  -0.000000;0.887012;0.461747;,
  -0.000002;0.461749;-0.887011;,
  0.707102;0.326508;-0.627215;,
  1.000000;-0.000001;0.000002;,
  0.707100;-0.326509;0.627217;,
  -0.000002;-0.461749;0.887011;,
  -0.707101;-0.326508;0.627216;,
  -1.000000;-0.000001;0.000002;,
  -0.707103;0.326507;-0.627214;,
  -0.000000;-0.887008;-0.461754;,
  0.000000;0.887012;-0.461747;,
  0.000005;0.461749;0.887011;,
  -0.707103;0.326507;0.627214;,
  -1.000000;-0.000001;-0.000003;,
  -0.707097;-0.326510;-0.627220;,
  0.000005;-0.461749;-0.887011;,
  0.707100;-0.326509;-0.627217;,
  1.000000;-0.000001;-0.000003;,
  0.707107;0.326506;0.627211;,
  0.000000;-0.887008;0.461754;,
  0.000021;0.887021;0.461729;,
  -0.000000;0.887011;0.461748;,
  0.000000;0.887018;0.461735;,
  -0.000006;0.887002;0.461766;,
  0.000000;0.886999;0.461771;,
  0.000006;0.887002;0.461766;,
  -0.000021;0.887021;0.461729;,
  -0.000000;-0.887002;-0.461765;,
  0.000007;-0.886999;-0.461771;,
  0.000000;-0.887008;-0.461753;,
  0.000008;-0.887017;-0.461736;,
  -0.000000;-0.887014;-0.461744;,
  -0.000008;-0.887017;-0.461736;,
  0.000000;-0.887008;-0.461754;,
  -0.000007;-0.886999;-0.461771;,
  -0.000018;0.887019;-0.461732;,
  0.000000;0.887011;-0.461748;,
  0.000000;0.887018;-0.461735;,
  0.000010;0.887004;-0.461762;,
  -0.000000;0.886999;-0.461771;,
  -0.000010;0.887004;-0.461762;,
  0.000000;0.887018;-0.461735;,
  0.000018;0.887019;-0.461732;,
  0.000000;-0.887005;0.461760;,
  -0.000006;-0.887002;0.461766;,
  0.000000;-0.887008;0.461754;,
  -0.000007;-0.887014;0.461742;,
  0.000000;-0.887011;0.461748;,
  0.000007;-0.887014;0.461742;,
  0.000006;-0.887002;0.461766;,
  -0.000000;0.887012;0.461747;,
  -0.000003;0.461749;-0.887011;,
  0.707102;0.326508;-0.627215;,
  1.000000;-0.000001;0.000002;,
  0.707100;-0.326508;0.627217;,
  -0.000003;-0.461749;0.887011;,
  -0.707102;-0.326508;0.627215;,
  -1.000000;-0.000001;0.000002;,
  -0.707104;0.326507;-0.627214;,
  -0.000000;-0.887008;-0.461754;,
  0.000000;0.887012;-0.461747;,
  0.000003;0.461749;0.887011;,
  -0.707104;0.326507;0.627213;,
  -1.000000;-0.000001;-0.000003;,
  -0.707098;-0.326510;-0.627219;,
  0.000003;-0.461749;-0.887011;,
  0.707100;-0.326509;-0.627217;,
  1.000000;-0.000001;-0.000003;,
  0.707106;0.326506;0.627212;,
  0.000000;-0.887008;0.461754;,
  0.000021;0.887021;0.461729;,
  -0.000000;0.887011;0.461748;,
  0.000000;0.887018;0.461735;,
  -0.000006;0.887002;0.461766;,
  0.000000;0.886999;0.461771;,
  0.000006;0.887002;0.461765;,
  -0.000021;0.887021;0.461729;,
  -0.000000;-0.887002;-0.461765;,
  0.000007;-0.886999;-0.461771;,
  0.000000;-0.887008;-0.461753;,
  0.000008;-0.887017;-0.461736;,
  -0.000000;-0.887013;-0.461744;,
  -0.000008;-0.887017;-0.461736;,
  0.000000;-0.887008;-0.461754;,
  -0.000007;-0.886999;-0.461771;,
  -0.000018;0.887019;-0.461732;,
  0.000000;0.887011;-0.461748;,
  0.000000;0.887018;-0.461735;,
  0.000010;0.887004;-0.461762;,
  -0.000000;0.886999;-0.461771;,
  -0.000010;0.887004;-0.461762;,
  0.000018;0.887019;-0.461732;,
  0.000000;-0.887005;0.461760;,
  -0.000006;-0.887002;0.461766;,
  0.000000;-0.887008;0.461754;,
  -0.000007;-0.887014;0.461742;,
  0.000000;-0.887011;0.461748;,
  0.000007;-0.887014;0.461742;,
  0.000000;-0.887008;0.461754;,
  0.000006;-0.887002;0.461766;,
  0.000000;0.000000;-1.000000;,
  1.000000;0.000000;0.000000;,
  0.000000;0.000000;1.000000;,
  0.000000;-1.000000;-0.000000;,
  0.000000;0.887012;0.461747;,
  0.000000;0.461749;-0.887011;,
  0.707104;0.326507;-0.627214;,
  1.000000;-0.000001;0.000002;,
  0.707102;-0.326508;0.627216;,
  0.000000;-0.461749;0.887011;,
  -0.707101;-0.326508;0.627217;,
  -1.000000;-0.000001;0.000002;,
  -0.707103;0.326508;-0.627215;,
  0.000000;-0.887008;-0.461754;,
  0.000000;0.887012;-0.461747;,
  0.000006;0.461749;0.887011;,
  -0.707102;0.326508;0.627215;,
  -1.000000;-0.000001;-0.000003;,
  -0.707096;-0.326510;-0.627221;,
  0.000006;-0.461749;-0.887011;,
  0.707102;-0.326508;-0.627215;,
  1.000000;-0.000001;-0.000003;,
  0.707108;0.326505;0.627210;,
  0.000000;-0.887008;0.461754;,
  -0.000000;0.887012;0.461747;,
  -0.000003;0.461749;-0.887011;,
  0.707101;0.326508;-0.627216;,
  1.000000;-0.000001;0.000002;,
  0.707099;-0.326509;0.627218;,
  -0.000003;-0.461749;0.887011;,
  -0.707101;-0.326508;0.627216;,
  -1.000000;-0.000001;0.000002;,
  -0.707103;0.326507;-0.627214;,
  -0.000000;-0.887008;-0.461754;,
  0.000000;0.887012;-0.461747;,
  0.000003;0.461749;0.887011;,
  -0.707103;0.326507;0.627214;,
  -1.000000;-0.000001;-0.000003;,
  -0.707097;-0.326510;-0.627220;,
  0.000003;-0.461749;-0.887011;,
  0.707099;-0.326509;-0.627218;,
  1.000000;-0.000001;-0.000003;,
  0.707105;0.326506;0.627213;,
  0.000000;-0.887008;0.461754;,
  -1.000000;0.000000;0.000000;,
  0.000000;1.000000;0.000000;,
  0.000021;0.887021;0.461729;,
  0.000000;0.887011;0.461748;,
  0.000000;0.887018;0.461735;,
  -0.000006;0.887002;0.461766;,
  0.000000;0.886999;0.461771;,
  0.000006;0.887002;0.461766;,
  -0.000021;0.887021;0.461729;,
  0.000000;-0.887002;-0.461765;,
  0.000007;-0.886999;-0.461771;,
  0.000000;-0.887008;-0.461753;,
  0.000008;-0.887017;-0.461736;,
  0.000000;-0.887014;-0.461744;,
  -0.000008;-0.887017;-0.461736;,
  -0.000007;-0.886999;-0.461771;,
  -0.000018;0.887019;-0.461732;,
  0.000000;0.887011;-0.461748;,
  0.000000;0.887018;-0.461735;,
  0.000010;0.887004;-0.461762;,
  -0.000000;0.886999;-0.461771;,
  -0.000010;0.887004;-0.461762;,
  0.000018;0.887019;-0.461732;,
  0.000000;-0.887005;0.461760;,
  -0.000006;-0.887002;0.461766;,
  0.000000;-0.887008;0.461754;,
  -0.000007;-0.887014;0.461742;,
  0.000000;-0.887011;0.461748;,
  0.000007;-0.887014;0.461742;,
  0.000000;-0.887008;0.461753;,
  0.000006;-0.887002;0.461766;,
  0.000021;0.887021;0.461729;,
  -0.000000;0.887011;0.461748;,
  0.000000;0.887018;0.461735;,
  -0.000006;0.887002;0.461766;,
  0.000000;0.886999;0.461771;,
  -0.000000;-0.887002;-0.461765;,
  0.000007;-0.886999;-0.461771;,
  0.000000;-0.887008;-0.461754;,
  0.000008;-0.887017;-0.461736;,
  -0.000000;-0.887013;-0.461744;,
  -0.000008;-0.887017;-0.461736;,
  -0.000007;-0.886999;-0.461771;,
  0.000000;0.887011;-0.461748;,
  0.000000;0.887018;-0.461735;,
  -0.000000;0.886999;-0.461771;,
  -0.000010;0.887004;-0.461762;,
  0.000018;0.887019;-0.461732;,
  0.000000;-0.887005;0.461760;,
  -0.000006;-0.887002;0.461766;,
  -0.000007;-0.887014;0.461742;,
  0.000000;-0.887011;0.461748;,
  0.000007;-0.887014;0.461742;,
  0.000006;-0.887002;0.461766;;
  276;
  4;0,0,0,0;,
  4;1,1,1,1;,
  4;2,2,2,2;,
  4;3,3,3,3;,
  4;4,4,4,4;,
  4;5,5,5,5;,
  4;6,6,6,6;,
  4;7,7,7,7;,
  4;8,8,8,8;,
  4;9,9,9,9;,
  4;10,10,10,10;,
  4;11,11,11,11;,
  4;12,12,12,12;,
  4;13,13,13,13;,
  4;14,14,14,14;,
  4;15,15,15,15;,
  4;16,16,16,16;,
  4;17,17,17,17;,
  4;18,18,18,18;,
  4;19,19,19,19;,
  4;20,20,20,20;,
  4;21,21,21,21;,
  4;22,22,22,22;,
  4;23,23,23,23;,
  4;24,24,24,24;,
  4;25,25,25,25;,
  4;26,26,26,26;,
  4;27,27,27,27;,
  4;28,28,28,28;,
  4;29,29,29,29;,
  4;30,30,30,30;,
  4;31,31,31,31;,
  4;32,32,32,32;,
  4;33,33,33,33;,
  4;34,34,34,34;,
  4;35,35,35,35;,
  4;36,36,36,36;,
  4;37,37,37,37;,
  4;38,38,38,38;,
  4;39,39,39,39;,
  4;40,40,40,40;,
  4;41,41,41,41;,
  4;43,44,44,43;,
  4;44,45,45,44;,
  4;45,46,46,45;,
  4;46,47,47,46;,
  4;47,48,48,47;,
  4;48,49,49,48;,
  4;49,50,50,49;,
  4;50,43,43,50;,
  3;42,62,63;,
  3;42,64,62;,
  3;42,65,64;,
  3;42,66,65;,
  3;42,67,66;,
  3;42,64,67;,
  3;42,68,64;,
  3;42,63,68;,
  3;51,69,70;,
  3;51,70,71;,
  3;51,71,72;,
  3;51,72,73;,
  3;51,73,74;,
  3;51,74,75;,
  3;51,75,76;,
  3;51,76,69;,
  4;53,54,54,53;,
  4;54,55,55,54;,
  4;55,56,56,55;,
  4;56,57,57,56;,
  4;57,58,58,57;,
  4;58,59,59,58;,
  4;59,60,60,59;,
  4;60,53,53,60;,
  3;52,77,78;,
  3;52,79,77;,
  3;52,80,79;,
  3;52,81,80;,
  3;52,82,81;,
  3;52,83,82;,
  3;52,84,83;,
  3;52,78,84;,
  3;61,85,86;,
  3;61,86,87;,
  3;61,87,88;,
  3;61,88,89;,
  3;61,89,90;,
  3;61,90,87;,
  3;61,87,91;,
  3;61,91,85;,
  4;93,94,94,93;,
  4;94,95,95,94;,
  4;95,96,96,95;,
  4;96,97,97,96;,
  4;97,98,98,97;,
  4;98,99,99,98;,
  4;99,100,100,99;,
  4;100,93,93,100;,
  3;92,112,113;,
  3;92,114,112;,
  3;92,115,114;,
  3;92,116,115;,
  3;92,117,116;,
  3;92,114,117;,
  3;92,118,114;,
  3;92,113,118;,
  3;101,119,120;,
  3;101,120,121;,
  3;101,121,122;,
  3;101,122,123;,
  3;101,123,124;,
  3;101,124,125;,
  3;101,125,126;,
  3;101,126,119;,
  4;103,104,104,103;,
  4;104,105,105,104;,
  4;105,106,106,105;,
  4;106,107,107,106;,
  4;107,108,108,107;,
  4;108,109,109,108;,
  4;109,110,110,109;,
  4;110,103,103,110;,
  3;102,127,128;,
  3;102,129,127;,
  3;102,130,129;,
  3;102,131,130;,
  3;102,132,131;,
  3;102,129,132;,
  3;102,133,129;,
  3;102,128,133;,
  3;111,134,135;,
  3;111,135,136;,
  3;111,136,137;,
  3;111,137,138;,
  3;111,138,139;,
  3;111,139,140;,
  3;111,140,141;,
  3;111,141,134;,
  4;142,142,142,142;,
  4;143,143,143,143;,
  4;144,144,144,144;,
  4;186,186,186,186;,
  4;187,187,187,187;,
  4;145,145,145,145;,
  4;142,142,142,142;,
  4;143,143,143,143;,
  4;144,144,144,144;,
  4;186,186,186,186;,
  4;187,187,187,187;,
  4;145,145,145,145;,
  4;142,142,142,142;,
  4;143,143,143,143;,
  4;144,144,144,144;,
  4;186,186,186,186;,
  4;187,187,187,187;,
  4;145,145,145,145;,
  4;142,142,142,142;,
  4;143,143,143,143;,
  4;144,144,144,144;,
  4;186,186,186,186;,
  4;187,187,187,187;,
  4;145,145,145,145;,
  4;142,142,142,142;,
  4;143,143,143,143;,
  4;144,144,144,144;,
  4;186,186,186,186;,
  4;187,187,187,187;,
  4;145,145,145,145;,
  4;142,142,142,142;,
  4;143,143,143,143;,
  4;144,144,144,144;,
  4;186,186,186,186;,
  4;187,187,187,187;,
  4;145,145,145,145;,
  4;142,142,142,142;,
  4;145,145,145,145;,
  4;144,144,144,144;,
  4;187,187,187,187;,
  4;143,143,143,143;,
  4;186,186,186,186;,
  4;147,148,148,147;,
  4;148,149,149,148;,
  4;149,150,150,149;,
  4;150,151,151,150;,
  4;151,152,152,151;,
  4;152,153,153,152;,
  4;153,154,154,153;,
  4;154,147,147,154;,
  3;146,188,189;,
  3;146,190,188;,
  3;146,191,190;,
  3;146,192,191;,
  3;146,193,192;,
  3;146,190,193;,
  3;146,194,190;,
  3;146,189,194;,
  3;155,195,196;,
  3;155,196,197;,
  3;155,197,198;,
  3;155,198,199;,
  3;155,199,200;,
  3;155,200,197;,
  3;155,197,201;,
  3;155,201,195;,
  4;157,158,158,157;,
  4;158,159,159,158;,
  4;159,160,160,159;,
  4;160,161,161,160;,
  4;161,162,162,161;,
  4;162,163,163,162;,
  4;163,164,164,163;,
  4;164,157,157,164;,
  3;156,202,203;,
  3;156,204,202;,
  3;156,205,204;,
  3;156,206,205;,
  3;156,207,206;,
  3;156,204,207;,
  3;156,208,204;,
  3;156,203,208;,
  3;165,209,210;,
  3;165,210,211;,
  3;165,211,212;,
  3;165,212,213;,
  3;165,213,214;,
  3;165,214,215;,
  3;165,215,216;,
  3;165,216,209;,
  4;167,168,168,167;,
  4;168,169,169,168;,
  4;169,170,170,169;,
  4;170,171,171,170;,
  4;171,172,172,171;,
  4;172,173,173,172;,
  4;173,174,174,173;,
  4;174,167,167,174;,
  3;166,217,218;,
  3;166,219,217;,
  3;166,220,219;,
  3;166,221,220;,
  3;166,193,221;,
  3;166,190,193;,
  3;166,194,190;,
  3;166,218,194;,
  3;175,222,223;,
  3;175,223,224;,
  3;175,224,225;,
  3;175,225,226;,
  3;175,226,227;,
  3;175,227,224;,
  3;175,224,228;,
  3;175,228,222;,
  4;177,178,178,177;,
  4;178,179,179,178;,
  4;179,180,180,179;,
  4;180,181,181,180;,
  4;181,182,182,181;,
  4;182,183,183,182;,
  4;183,184,184,183;,
  4;184,177,177,184;,
  3;176,202,229;,
  3;176,230,202;,
  3;176,205,230;,
  3;176,231,205;,
  3;176,232,231;,
  3;176,230,232;,
  3;176,233,230;,
  3;176,229,233;,
  3;185,234,235;,
  3;185,235,211;,
  3;185,211,236;,
  3;185,236,237;,
  3;185,237,238;,
  3;185,238,211;,
  3;185,211,239;,
  3;185,239,234;;
 }
 MeshTextureCoords {
  552;
  0.000000;0.000000;,
  1.000000;0.000000;,
  1.000000;1.000000;,
  0.000000;1.000000;,
  0.000000;0.000000;,
  1.000000;0.000000;,
  1.000000;1.000000;,
  0.000000;1.000000;,
  0.000000;0.000000;,
  1.000000;0.000000;,
  1.000000;1.000000;,
  0.000000;1.000000;,
  0.000000;0.000000;,
  1.000000;0.000000;,
  1.000000;1.000000;,
  0.000000;1.000000;,
  1.000000;1.000000;,
  0.000000;1.000000;,
  0.000000;0.000000;,
  1.000000;0.000000;,
  0.000000;0.000000;,
  1.000000;0.000000;,
  1.000000;1.000000;,
  0.000000;1.000000;,
  0.000000;0.000000;,
  1.000000;0.000000;,
  1.000000;1.000000;,
  0.000000;1.000000;,
  0.000000;0.000000;,
  1.000000;0.000000;,
  1.000000;1.000000;,
  0.000000;1.000000;,
  0.000000;0.000000;,
  1.000000;0.000000;,
  1.000000;1.000000;,
  0.000000;1.000000;,
  1.000000;1.000000;,
  0.000000;1.000000;,
  0.000000;0.000000;,
  1.000000;0.000000;,
  0.000000;0.000000;,
  1.000000;0.000000;,
  1.000000;1.000000;,
  0.000000;1.000000;,
  0.000000;0.000000;,
  1.000000;0.000000;,
  1.000000;1.000000;,
  0.000000;1.000000;,
  0.000000;0.000000;,
  1.000000;0.000000;,
  1.000000;1.000000;,
  0.000000;1.000000;,
  0.000000;0.000000;,
  1.000000;0.000000;,
  1.000000;1.000000;,
  0.000000;1.000000;,
  1.000000;1.000000;,
  0.000000;1.000000;,
  0.000000;0.000000;,
  1.000000;0.000000;,
  0.000000;0.000000;,
  1.000000;0.000000;,
  1.000000;1.000000;,
  0.000000;1.000000;,
  0.000000;0.000000;,
  1.000000;0.000000;,
  1.000000;1.000000;,
  0.000000;1.000000;,
  0.000000;0.000000;,
  1.000000;0.000000;,
  1.000000;1.000000;,
  0.000000;1.000000;,
  0.000000;0.000000;,
  1.000000;0.000000;,
  1.000000;1.000000;,
  0.000000;1.000000;,
  1.000000;1.000000;,
  0.000000;1.000000;,
  0.000000;0.000000;,
  1.000000;0.000000;,
  0.000000;0.000000;,
  1.000000;0.000000;,
  1.000000;1.000000;,
  0.000000;1.000000;,
  0.000000;0.000000;,
  1.000000;0.000000;,
  1.000000;1.000000;,
  0.000000;1.000000;,
  0.000000;0.000000;,
  1.000000;0.000000;,
  1.000000;1.000000;,
  0.000000;1.000000;,
  0.000000;0.000000;,
  1.000000;0.000000;,
  1.000000;1.000000;,
  0.000000;1.000000;,
  1.000000;1.000000;,
  0.000000;1.000000;,
  0.000000;0.000000;,
  1.000000;0.000000;,
  0.000000;0.000000;,
  1.000000;0.000000;,
  1.000000;1.000000;,
  0.000000;1.000000;,
  0.000000;0.000000;,
  1.000000;0.000000;,
  1.000000;1.000000;,
  0.000000;1.000000;,
  0.000000;0.000000;,
  1.000000;0.000000;,
  1.000000;1.000000;,
  0.000000;1.000000;,
  0.000000;0.000000;,
  1.000000;0.000000;,
  1.000000;1.000000;,
  0.000000;1.000000;,
  1.000000;1.000000;,
  0.000000;1.000000;,
  0.000000;0.000000;,
  1.000000;0.000000;,
  0.000000;0.000000;,
  1.000000;0.000000;,
  1.000000;1.000000;,
  0.000000;1.000000;,
  0.000000;0.000000;,
  1.000000;0.000000;,
  1.000000;1.000000;,
  0.000000;1.000000;,
  0.000000;0.000000;,
  1.000000;0.000000;,
  1.000000;1.000000;,
  0.000000;1.000000;,
  0.000000;0.000000;,
  1.000000;0.000000;,
  1.000000;1.000000;,
  0.000000;1.000000;,
  1.000000;1.000000;,
  0.000000;1.000000;,
  0.000000;0.000000;,
  1.000000;0.000000;,
  0.000000;0.000000;,
  0.125000;0.000000;,
  0.125000;1.000000;,
  0.000000;1.000000;,
  0.250000;0.000000;,
  0.250000;1.000000;,
  0.375000;0.000000;,
  0.375000;1.000000;,
  0.500000;0.000000;,
  0.500000;1.000000;,
  0.625000;0.000000;,
  0.625000;1.000000;,
  0.750000;0.000000;,
  0.750000;1.000000;,
  0.875000;0.000000;,
  0.875000;1.000000;,
  1.000000;0.000000;,
  1.000000;1.000000;,
  0.062500;0.000000;,
  0.187500;0.000000;,
  0.312500;0.000000;,
  0.437500;0.000000;,
  0.562500;0.000000;,
  0.687500;0.000000;,
  0.812500;0.000000;,
  0.937500;0.000000;,
  0.062500;1.000000;,
  0.187500;1.000000;,
  0.312500;1.000000;,
  0.437500;1.000000;,
  0.562500;1.000000;,
  0.687500;1.000000;,
  0.812500;1.000000;,
  0.937500;1.000000;,
  0.000000;0.000000;,
  0.125000;0.000000;,
  0.125000;1.000000;,
  0.000000;1.000000;,
  0.250000;0.000000;,
  0.250000;1.000000;,
  0.375000;0.000000;,
  0.375000;1.000000;,
  0.500000;0.000000;,
  0.500000;1.000000;,
  0.625000;0.000000;,
  0.625000;1.000000;,
  0.750000;0.000000;,
  0.750000;1.000000;,
  0.875000;0.000000;,
  0.875000;1.000000;,
  1.000000;0.000000;,
  1.000000;1.000000;,
  0.062500;0.000000;,
  0.187500;0.000000;,
  0.312500;0.000000;,
  0.437500;0.000000;,
  0.562500;0.000000;,
  0.687500;0.000000;,
  0.812500;0.000000;,
  0.937500;0.000000;,
  0.062500;1.000000;,
  0.187500;1.000000;,
  0.312500;1.000000;,
  0.437500;1.000000;,
  0.562500;1.000000;,
  0.687500;1.000000;,
  0.812500;1.000000;,
  0.937500;1.000000;,
  0.000000;0.000000;,
  0.125000;0.000000;,
  0.125000;1.000000;,
  0.000000;1.000000;,
  0.250000;0.000000;,
  0.250000;1.000000;,
  0.375000;0.000000;,
  0.375000;1.000000;,
  0.500000;0.000000;,
  0.500000;1.000000;,
  0.625000;0.000000;,
  0.625000;1.000000;,
  0.750000;0.000000;,
  0.750000;1.000000;,
  0.875000;0.000000;,
  0.875000;1.000000;,
  1.000000;0.000000;,
  1.000000;1.000000;,
  0.062500;0.000000;,
  0.187500;0.000000;,
  0.312500;0.000000;,
  0.437500;0.000000;,
  0.562500;0.000000;,
  0.687500;0.000000;,
  0.812500;0.000000;,
  0.937500;0.000000;,
  0.062500;1.000000;,
  0.187500;1.000000;,
  0.312500;1.000000;,
  0.437500;1.000000;,
  0.562500;1.000000;,
  0.687500;1.000000;,
  0.812500;1.000000;,
  0.937500;1.000000;,
  0.000000;0.000000;,
  0.125000;0.000000;,
  0.125000;1.000000;,
  0.000000;1.000000;,
  0.250000;0.000000;,
  0.250000;1.000000;,
  0.375000;0.000000;,
  0.375000;1.000000;,
  0.500000;0.000000;,
  0.500000;1.000000;,
  0.625000;0.000000;,
  0.625000;1.000000;,
  0.750000;0.000000;,
  0.750000;1.000000;,
  0.875000;0.000000;,
  0.875000;1.000000;,
  1.000000;0.000000;,
  1.000000;1.000000;,
  0.062500;0.000000;,
  0.187500;0.000000;,
  0.312500;0.000000;,
  0.437500;0.000000;,
  0.562500;0.000000;,
  0.687500;0.000000;,
  0.812500;0.000000;,
  0.937500;0.000000;,
  0.062500;1.000000;,
  0.187500;1.000000;,
  0.312500;1.000000;,
  0.437500;1.000000;,
  0.562500;1.000000;,
  0.687500;1.000000;,
  0.812500;1.000000;,
  0.937500;1.000000;,
  0.000000;0.000000;,
  1.000000;0.000000;,
  1.000000;1.000000;,
  0.000000;1.000000;,
  0.000000;0.000000;,
  1.000000;0.000000;,
  1.000000;1.000000;,
  0.000000;1.000000;,
  0.000000;0.000000;,
  1.000000;0.000000;,
  1.000000;1.000000;,
  0.000000;1.000000;,
  0.000000;0.000000;,
  1.000000;0.000000;,
  1.000000;1.000000;,
  0.000000;1.000000;,
  1.000000;1.000000;,
  0.000000;1.000000;,
  0.000000;0.000000;,
  1.000000;0.000000;,
  0.000000;0.000000;,
  1.000000;0.000000;,
  1.000000;1.000000;,
  0.000000;1.000000;,
  0.000000;0.000000;,
  1.000000;0.000000;,
  1.000000;1.000000;,
  0.000000;1.000000;,
  0.000000;0.000000;,
  1.000000;0.000000;,
  1.000000;1.000000;,
  0.000000;1.000000;,
  0.000000;0.000000;,
  1.000000;0.000000;,
  1.000000;1.000000;,
  0.000000;1.000000;,
  1.000000;1.000000;,
  0.000000;1.000000;,
  0.000000;0.000000;,
  1.000000;0.000000;,
  0.000000;0.000000;,
  1.000000;0.000000;,
  1.000000;1.000000;,
  0.000000;1.000000;,
  0.000000;0.000000;,
  1.000000;0.000000;,
  1.000000;1.000000;,
  0.000000;1.000000;,
  0.000000;0.000000;,
  1.000000;0.000000;,
  1.000000;1.000000;,
  0.000000;1.000000;,
  0.000000;0.000000;,
  1.000000;0.000000;,
  1.000000;1.000000;,
  0.000000;1.000000;,
  1.000000;1.000000;,
  0.000000;1.000000;,
  0.000000;0.000000;,
  1.000000;0.000000;,
  0.000000;0.000000;,
  1.000000;0.000000;,
  1.000000;1.000000;,
  0.000000;1.000000;,
  0.000000;0.000000;,
  1.000000;0.000000;,
  1.000000;1.000000;,
  0.000000;1.000000;,
  0.000000;0.000000;,
  1.000000;0.000000;,
  1.000000;1.000000;,
  0.000000;1.000000;,
  0.000000;0.000000;,
  1.000000;0.000000;,
  1.000000;1.000000;,
  0.000000;1.000000;,
  1.000000;1.000000;,
  0.000000;1.000000;,
  0.000000;0.000000;,
  1.000000;0.000000;,
  0.000000;0.000000;,
  1.000000;0.000000;,
  1.000000;1.000000;,
  0.000000;1.000000;,
  0.000000;0.000000;,
  1.000000;0.000000;,
  1.000000;1.000000;,
  0.000000;1.000000;,
  0.000000;0.000000;,
  1.000000;0.000000;,
  1.000000;1.000000;,
  0.000000;1.000000;,
  0.000000;0.000000;,
  1.000000;0.000000;,
  1.000000;1.000000;,
  0.000000;1.000000;,
  1.000000;1.000000;,
  0.000000;1.000000;,
  0.000000;0.000000;,
  1.000000;0.000000;,
  0.000000;0.000000;,
  1.000000;0.000000;,
  1.000000;1.000000;,
  0.000000;1.000000;,
  0.000000;0.000000;,
  1.000000;0.000000;,
  1.000000;1.000000;,
  0.000000;1.000000;,
  0.000000;0.000000;,
  1.000000;0.000000;,
  1.000000;1.000000;,
  0.000000;1.000000;,
  0.000000;0.000000;,
  1.000000;0.000000;,
  1.000000;1.000000;,
  0.000000;1.000000;,
  1.000000;1.000000;,
  0.000000;1.000000;,
  0.000000;0.000000;,
  1.000000;0.000000;,
  0.000000;0.000000;,
  1.000000;0.000000;,
  1.000000;1.000000;,
  0.000000;1.000000;,
  0.000000;0.000000;,
  1.000000;0.000000;,
  1.000000;1.000000;,
  0.000000;1.000000;,
  0.000000;0.000000;,
  1.000000;0.000000;,
  1.000000;1.000000;,
  0.000000;1.000000;,
  0.000000;0.000000;,
  1.000000;0.000000;,
  1.000000;1.000000;,
  0.000000;1.000000;,
  1.000000;1.000000;,
  0.000000;1.000000;,
  0.000000;0.000000;,
  1.000000;0.000000;,
  0.000000;0.000000;,
  0.125000;0.000000;,
  0.125000;1.000000;,
  0.000000;1.000000;,
  0.250000;0.000000;,
  0.250000;1.000000;,
  0.375000;0.000000;,
  0.375000;1.000000;,
  0.500000;0.000000;,
  0.500000;1.000000;,
  0.625000;0.000000;,
  0.625000;1.000000;,
  0.750000;0.000000;,
  0.750000;1.000000;,
  0.875000;0.000000;,
  0.875000;1.000000;,
  1.000000;0.000000;,
  1.000000;1.000000;,
  0.062500;0.000000;,
  0.187500;0.000000;,
  0.312500;0.000000;,
  0.437500;0.000000;,
  0.562500;0.000000;,
  0.687500;0.000000;,
  0.812500;0.000000;,
  0.937500;0.000000;,
  0.062500;1.000000;,
  0.187500;1.000000;,
  0.312500;1.000000;,
  0.437500;1.000000;,
  0.562500;1.000000;,
  0.687500;1.000000;,
  0.812500;1.000000;,
  0.937500;1.000000;,
  0.000000;0.000000;,
  0.125000;0.000000;,
  0.125000;1.000000;,
  0.000000;1.000000;,
  0.250000;0.000000;,
  0.250000;1.000000;,
  0.375000;0.000000;,
  0.375000;1.000000;,
  0.500000;0.000000;,
  0.500000;1.000000;,
  0.625000;0.000000;,
  0.625000;1.000000;,
  0.750000;0.000000;,
  0.750000;1.000000;,
  0.875000;0.000000;,
  0.875000;1.000000;,
  1.000000;0.000000;,
  1.000000;1.000000;,
  0.062500;0.000000;,
  0.187500;0.000000;,
  0.312500;0.000000;,
  0.437500;0.000000;,
  0.562500;0.000000;,
  0.687500;0.000000;,
  0.812500;0.000000;,
  0.937500;0.000000;,
  0.062500;1.000000;,
  0.187500;1.000000;,
  0.312500;1.000000;,
  0.437500;1.000000;,
  0.562500;1.000000;,
  0.687500;1.000000;,
  0.812500;1.000000;,
  0.937500;1.000000;,
  0.000000;0.000000;,
  0.125000;0.000000;,
  0.125000;1.000000;,
  0.000000;1.000000;,
  0.250000;0.000000;,
  0.250000;1.000000;,
  0.375000;0.000000;,
  0.375000;1.000000;,
  0.500000;0.000000;,
  0.500000;1.000000;,
  0.625000;0.000000;,
  0.625000;1.000000;,
  0.750000;0.000000;,
  0.750000;1.000000;,
  0.875000;0.000000;,
  0.875000;1.000000;,
  1.000000;0.000000;,
  1.000000;1.000000;,
  0.062500;0.000000;,
  0.187500;0.000000;,
  0.312500;0.000000;,
  0.437500;0.000000;,
  0.562500;0.000000;,
  0.687500;0.000000;,
  0.812500;0.000000;,
  0.937500;0.000000;,
  0.062500;1.000000;,
  0.187500;1.000000;,
  0.312500;1.000000;,
  0.437500;1.000000;,
  0.562500;1.000000;,
  0.687500;1.000000;,
  0.812500;1.000000;,
  0.937500;1.000000;,
  0.000000;0.000000;,
  0.125000;0.000000;,
  0.125000;1.000000;,
  0.000000;1.000000;,
  0.250000;0.000000;,
  0.250000;1.000000;,
  0.375000;0.000000;,
  0.375000;1.000000;,
  0.500000;0.000000;,
  0.500000;1.000000;,
  0.625000;0.000000;,
  0.625000;1.000000;,
  0.750000;0.000000;,
  0.750000;1.000000;,
  0.875000;0.000000;,
  0.875000;1.000000;,
  1.000000;0.000000;,
  1.000000;1.000000;,
  0.062500;0.000000;,
  0.187500;0.000000;,
  0.312500;0.000000;,
  0.437500;0.000000;,
  0.562500;0.000000;,
  0.687500;0.000000;,
  0.812500;0.000000;,
  0.937500;0.000000;,
  0.062500;1.000000;,
  0.187500;1.000000;,
  0.312500;1.000000;,
  0.437500;1.000000;,
  0.562500;1.000000;,
  0.687500;1.000000;,
  0.812500;1.000000;,
  0.937500;1.000000;;
 }
}
