xof 0302txt 0064
template Header {
 <3D82AB43-62DA-11cf-AB39-0020AF71E433>
 WORD major;
 WORD minor;
 DWORD flags;
}

template Vector {
 <3D82AB5E-62DA-11cf-AB39-0020AF71E433>
 FLOAT x;
 FLOAT y;
 FLOAT z;
}

template Coords2d {
 <F6F23F44-7686-11cf-8F52-0040333594A3>
 FLOAT u;
 FLOAT v;
}

template Matrix4x4 {
 <F6F23F45-7686-11cf-8F52-0040333594A3>
 array FLOAT matrix[16];
}

template ColorRGBA {
 <35FF44E0-6C7C-11cf-8F52-0040333594A3>
 FLOAT red;
 FLOAT green;
 FLOAT blue;
 FLOAT alpha;
}

template ColorRGB {
 <D3E16E81-7835-11cf-8F52-0040333594A3>
 FLOAT red;
 FLOAT green;
 FLOAT blue;
}

template IndexedColor {
 <1630B820-7842-11cf-8F52-0040333594A3>
 DWORD index;
 ColorRGBA indexColor;
}

template Boolean {
 <4885AE61-78E8-11cf-8F52-0040333594A3>
 WORD truefalse;
}

template Boolean2d {
 <4885AE63-78E8-11cf-8F52-0040333594A3>
 Boolean u;
 Boolean v;
}

template MaterialWrap {
 <4885AE60-78E8-11cf-8F52-0040333594A3>
 Boolean u;
 Boolean v;
}

template TextureFilename {
 <A42790E1-7810-11cf-8F52-0040333594A3>
 STRING filename;
}

template Material {
 <3D82AB4D-62DA-11cf-AB39-0020AF71E433>
 ColorRGBA faceColor;
 FLOAT power;
 ColorRGB specularColor;
 ColorRGB emissiveColor;
 [...]
}

template MeshFace {
 <3D82AB5F-62DA-11cf-AB39-0020AF71E433>
 DWORD nFaceVertexIndices;
 array DWORD faceVertexIndices[nFaceVertexIndices];
}

template MeshFaceWraps {
 <4885AE62-78E8-11cf-8F52-0040333594A3>
 DWORD nFaceWrapValues;
 Boolean2d faceWrapValues;
}

template MeshTextureCoords {
 <F6F23F40-7686-11cf-8F52-0040333594A3>
 DWORD nTextureCoords;
 array Coords2d textureCoords[nTextureCoords];
}

template MeshMaterialList {
 <F6F23F42-7686-11cf-8F52-0040333594A3>
 DWORD nMaterials;
 DWORD nFaceIndexes;
 array DWORD faceIndexes[nFaceIndexes];
 [Material]
}

template MeshNormals {
 <F6F23F43-7686-11cf-8F52-0040333594A3>
 DWORD nNormals;
 array Vector normals[nNormals];
 DWORD nFaceNormals;
 array MeshFace faceNormals[nFaceNormals];
}

template MeshVertexColors {
 <1630B821-7842-11cf-8F52-0040333594A3>
 DWORD nVertexColors;
 array IndexedColor vertexColors[nVertexColors];
}

template Mesh {
 <3D82AB44-62DA-11cf-AB39-0020AF71E433>
 DWORD nVertices;
 array Vector vertices[nVertices];
 DWORD nFaces;
 array MeshFace faces[nFaces];
 [...]
}

Header{
1;
0;
1;
}

Mesh {
 60;
 -336.01080;126.79540;-59.62270;,
 336.01080;126.79540;-59.62270;,
 336.01080;0.00000;-100.00000;,
 -336.01080;0.00000;-100.00000;,
 336.01080;126.79540;-59.62270;,
 336.01080;149.07150;100.00000;,
 336.01080;0.00000;100.00000;,
 336.01080;0.00000;-100.00000;,
 336.01080;149.07150;100.00000;,
 -336.01080;149.07150;100.00000;,
 -336.01080;0.00000;100.00000;,
 336.01080;0.00000;100.00000;,
 -336.01080;149.07150;100.00000;,
 -336.01080;126.79540;-59.62270;,
 -336.01080;0.00000;-100.00000;,
 -336.01080;0.00000;100.00000;,
 336.01080;126.79540;-59.62270;,
 -336.01080;126.79540;-59.62270;,
 -336.01080;0.00000;-100.00000;,
 336.01080;0.00000;-100.00000;,
 336.27899;126.79540;-59.62270;,
 1008.30017;126.79540;-59.62270;,
 1008.30017;0.00000;-100.00000;,
 336.27899;0.00000;-100.00000;,
 1008.30017;126.79540;-59.62270;,
 1008.30017;149.07150;100.00000;,
 1008.30017;0.00000;100.00000;,
 1008.30017;0.00000;-100.00000;,
 1008.30017;149.07150;100.00000;,
 336.27899;149.07150;100.00000;,
 336.27899;0.00000;100.00000;,
 1008.30017;0.00000;100.00000;,
 336.27899;149.07150;100.00000;,
 336.27899;126.79540;-59.62270;,
 336.27899;0.00000;-100.00000;,
 336.27899;0.00000;100.00000;,
 1008.30017;126.79540;-59.62270;,
 336.27899;126.79540;-59.62270;,
 336.27899;0.00000;-100.00000;,
 1008.30017;0.00000;-100.00000;,
 -1008.08356;126.79540;-59.62270;,
 -336.06335;126.79540;-59.62270;,
 -336.06335;0.00000;-100.00000;,
 -1008.08356;0.00000;-100.00000;,
 -336.06335;126.79540;-59.62270;,
 -336.06335;149.07150;100.00000;,
 -336.06335;0.00000;100.00000;,
 -336.06335;0.00000;-100.00000;,
 -336.06335;149.07150;100.00000;,
 -1008.08356;149.07150;100.00000;,
 -1008.08356;0.00000;100.00000;,
 -336.06335;0.00000;100.00000;,
 -1008.08356;149.07150;100.00000;,
 -1008.08356;126.79540;-59.62270;,
 -1008.08356;0.00000;-100.00000;,
 -1008.08356;0.00000;100.00000;,
 -336.06335;126.79540;-59.62270;,
 -1008.08356;126.79540;-59.62270;,
 -1008.08356;0.00000;-100.00000;,
 -336.06335;0.00000;-100.00000;;
 
 18;
 4;0,1,2,3;,
 4;4,5,6,7;,
 4;8,9,10,11;,
 4;12,13,14,15;,
 4;12,5,16,17;,
 4;18,19,6,15;,
 4;20,21,22,23;,
 4;24,25,26,27;,
 4;28,29,30,31;,
 4;32,33,34,35;,
 4;32,25,36,37;,
 4;38,39,26,35;,
 4;40,41,42,43;,
 4;44,45,46,47;,
 4;48,49,50,51;,
 4;52,53,54,55;,
 4;52,45,56,57;,
 4;58,59,46,55;;
 
 MeshMaterialList {
  4;
  18;
  0,
  2,
  0,
  2,
  1,
  3,
  0,
  2,
  0,
  2,
  1,
  3,
  0,
  2,
  0,
  2,
  1,
  3;;
  Material {
   0.800000;0.800000;0.800000;1.000000;;
   5.000000;
   0.000000;0.000000;0.000000;;
   0.000000;0.000000;0.000000;;
   TextureFilename {
    "data/TEXTURE/flagstone.jpg";
   }
  }
  Material {
   0.800000;0.800000;0.800000;1.000000;;
   5.000000;
   0.000000;0.000000;0.000000;;
   0.000000;0.000000;0.000000;;
   TextureFilename {
    "data/TEXTURE/zimen000.png";
   }
  }
  Material {
   0.800000;0.800000;0.800000;1.000000;;
   5.000000;
   0.000000;0.000000;0.000000;;
   0.000000;0.000000;0.000000;;
   TextureFilename {
    "data/TEXTURE/flagstone.jpg";
   }
  }
  Material {
   1.000000;1.000000;1.000000;1.000000;;
   0.000000;
   0.000000;0.000000;0.000000;;
   0.000000;0.000000;0.000000;;
  }
 }
 MeshNormals {
  18;
  0.000000;0.303431;-0.952853;,
  1.000000;0.000000;0.000000;,
  0.000000;0.000000;1.000000;,
  -1.000000;0.000000;0.000000;,
  0.000000;0.990402;-0.138215;,
  0.000000;-1.000000;-0.000000;,
  0.000000;0.303431;-0.952853;,
  1.000000;0.000000;0.000000;,
  0.000000;0.000000;1.000000;,
  -1.000000;0.000000;0.000000;,
  0.000000;0.990402;-0.138215;,
  0.000000;-1.000000;-0.000000;,
  0.000000;0.303431;-0.952854;,
  1.000000;0.000000;0.000000;,
  0.000000;0.000000;1.000000;,
  -1.000000;0.000000;0.000000;,
  0.000000;0.990402;-0.138215;,
  0.000000;-1.000000;-0.000000;;
  18;
  4;0,0,0,0;,
  4;1,1,1,1;,
  4;2,2,2,2;,
  4;3,3,3,3;,
  4;4,4,4,4;,
  4;5,5,5,5;,
  4;6,6,6,6;,
  4;7,7,7,7;,
  4;8,8,8,8;,
  4;9,9,9,9;,
  4;10,10,10,10;,
  4;11,11,11,11;,
  4;12,12,12,12;,
  4;13,13,13,13;,
  4;14,14,14,14;,
  4;15,15,15,15;,
  4;16,16,16,16;,
  4;17,17,17,17;;
 }
 MeshTextureCoords {
  60;
  -1.180054;-0.133977;,
  2.180054;-0.133977;,
  2.180054;0.500000;,
  -1.180054;0.500000;,
  0.000000;0.000000;,
  1.000000;0.000000;,
  1.000000;1.000000;,
  0.000000;1.000000;,
  2.180054;-0.245358;,
  -1.180054;-0.245358;,
  -1.180054;0.500000;,
  2.180054;0.500000;,
  0.000000;0.000000;,
  1.000000;0.000000;,
  1.000000;1.000000;,
  0.000000;1.000000;,
  1.000000;1.000000;,
  0.000000;1.000000;,
  0.000000;0.000000;,
  1.000000;0.000000;,
  2.181395;-0.133977;,
  5.541501;-0.133977;,
  5.541501;0.500000;,
  2.181395;0.500000;,
  0.000000;0.000000;,
  1.000000;0.000000;,
  1.000000;1.000000;,
  0.000000;1.000000;,
  5.541501;-0.245358;,
  2.181395;-0.245358;,
  2.181395;0.500000;,
  5.541501;0.500000;,
  0.000000;0.000000;,
  1.000000;0.000000;,
  1.000000;1.000000;,
  0.000000;1.000000;,
  1.000000;1.000000;,
  0.000000;1.000000;,
  0.000000;0.000000;,
  1.000000;0.000000;,
  -4.540418;-0.133977;,
  -1.180317;-0.133977;,
  -1.180317;0.500000;,
  -4.540418;0.500000;,
  0.000000;0.000000;,
  1.000000;0.000000;,
  1.000000;1.000000;,
  0.000000;1.000000;,
  -1.180317;-0.245358;,
  -4.540418;-0.245358;,
  -4.540418;0.500000;,
  -1.180317;0.500000;,
  0.000000;0.000000;,
  1.000000;0.000000;,
  1.000000;1.000000;,
  0.000000;1.000000;,
  1.000000;1.000000;,
  0.000000;1.000000;,
  0.000000;0.000000;,
  1.000000;0.000000;;
 }
}
