xof 0302txt 0064
template Header {
 <3D82AB43-62DA-11cf-AB39-0020AF71E433>
 WORD major;
 WORD minor;
 DWORD flags;
}

template Vector {
 <3D82AB5E-62DA-11cf-AB39-0020AF71E433>
 FLOAT x;
 FLOAT y;
 FLOAT z;
}

template Coords2d {
 <F6F23F44-7686-11cf-8F52-0040333594A3>
 FLOAT u;
 FLOAT v;
}

template Matrix4x4 {
 <F6F23F45-7686-11cf-8F52-0040333594A3>
 array FLOAT matrix[16];
}

template ColorRGBA {
 <35FF44E0-6C7C-11cf-8F52-0040333594A3>
 FLOAT red;
 FLOAT green;
 FLOAT blue;
 FLOAT alpha;
}

template ColorRGB {
 <D3E16E81-7835-11cf-8F52-0040333594A3>
 FLOAT red;
 FLOAT green;
 FLOAT blue;
}

template IndexedColor {
 <1630B820-7842-11cf-8F52-0040333594A3>
 DWORD index;
 ColorRGBA indexColor;
}

template Boolean {
 <4885AE61-78E8-11cf-8F52-0040333594A3>
 WORD truefalse;
}

template Boolean2d {
 <4885AE63-78E8-11cf-8F52-0040333594A3>
 Boolean u;
 Boolean v;
}

template MaterialWrap {
 <4885AE60-78E8-11cf-8F52-0040333594A3>
 Boolean u;
 Boolean v;
}

template TextureFilename {
 <A42790E1-7810-11cf-8F52-0040333594A3>
 STRING filename;
}

template Material {
 <3D82AB4D-62DA-11cf-AB39-0020AF71E433>
 ColorRGBA faceColor;
 FLOAT power;
 ColorRGB specularColor;
 ColorRGB emissiveColor;
 [...]
}

template MeshFace {
 <3D82AB5F-62DA-11cf-AB39-0020AF71E433>
 DWORD nFaceVertexIndices;
 array DWORD faceVertexIndices[nFaceVertexIndices];
}

template MeshFaceWraps {
 <4885AE62-78E8-11cf-8F52-0040333594A3>
 DWORD nFaceWrapValues;
 Boolean2d faceWrapValues;
}

template MeshTextureCoords {
 <F6F23F40-7686-11cf-8F52-0040333594A3>
 DWORD nTextureCoords;
 array Coords2d textureCoords[nTextureCoords];
}

template MeshMaterialList {
 <F6F23F42-7686-11cf-8F52-0040333594A3>
 DWORD nMaterials;
 DWORD nFaceIndexes;
 array DWORD faceIndexes[nFaceIndexes];
 [Material]
}

template MeshNormals {
 <F6F23F43-7686-11cf-8F52-0040333594A3>
 DWORD nNormals;
 array Vector normals[nNormals];
 DWORD nFaceNormals;
 array MeshFace faceNormals[nFaceNormals];
}

template MeshVertexColors {
 <1630B821-7842-11cf-8F52-0040333594A3>
 DWORD nVertexColors;
 array IndexedColor vertexColors[nVertexColors];
}

template Mesh {
 <3D82AB44-62DA-11cf-AB39-0020AF71E433>
 DWORD nVertices;
 array Vector vertices[nVertices];
 DWORD nFaces;
 array MeshFace faces[nFaces];
 [...]
}

Header{
1;
0;
1;
}

Mesh {
 238;
 12.02040;2310.00000;76.59631;,
 -42.98910;2310.00000;190.55132;,
 -42.98910;23.39940;190.55132;,
 12.02040;23.39940;76.59631;,
 -90.05130;2310.00000;83.14980;,
 -90.05130;23.39940;83.14980;,
 -225.35431;2310.00000;60.47131;,
 -225.35431;23.39940;60.47131;,
 -135.09240;2310.00000;-30.02339;,
 -135.09240;23.39940;-30.02339;,
 -157.99440;2310.00000;-153.16530;,
 -157.99440;23.39940;-153.16530;,
 -46.92930;2310.00000;-95.26079;,
 -46.92930;23.39940;-95.26079;,
 66.00180;2310.00000;-155.12069;,
 66.00180;23.39940;-155.12069;,
 48.12990;2310.00000;-19.09888;,
 48.12990;23.39940;-19.09888;,
 137.07900;2310.00000;57.30810;,
 137.07900;23.39940;57.30810;,
 12.02040;2310.00000;76.59631;,
 12.02040;23.39940;76.59631;,
 -44.65110;2310.00000;0.00932;,
 -44.65110;2310.00000;0.00932;,
 -44.65110;2310.00000;0.00932;,
 -44.65110;2310.00000;0.00932;,
 -44.65110;2310.00000;0.00932;,
 -44.65110;2310.00000;0.00932;,
 -44.65110;2310.00000;0.00932;,
 -44.65110;2310.00000;0.00932;,
 -44.65110;2310.00000;0.00932;,
 -44.65110;2310.00000;0.00932;,
 -44.65110;23.39940;0.00932;,
 -44.65110;23.39940;0.00932;,
 -44.65110;23.39940;0.00932;,
 -44.65110;23.39940;0.00932;,
 -44.65110;23.39940;0.00932;,
 -44.65110;23.39940;0.00932;,
 -44.65110;23.39940;0.00932;,
 -44.65110;23.39940;0.00932;,
 -44.65110;23.39940;0.00932;,
 -44.65110;23.39940;0.00932;,
 -265.46700;3229.02686;-298.40579;,
 218.81010;3229.02686;-302.63251;,
 218.81010;3045.92871;-302.63251;,
 -265.46700;3045.92871;-298.40579;,
 372.48001;3229.02686;156.63629;,
 372.48001;3045.92871;156.63629;,
 -16.82490;3229.02686;444.70711;,
 -16.82490;3045.92871;444.70711;,
 -411.09810;3229.02686;163.47510;,
 -411.09810;3045.92871;163.47510;,
 -265.46700;3229.02686;-298.40579;,
 -265.46700;3045.92871;-298.40579;,
 -20.42040;3229.02686;32.75551;,
 -20.42040;3229.02686;32.75551;,
 -20.42040;3229.02686;32.75551;,
 -20.42040;3229.02686;32.75551;,
 -20.42040;3229.02686;32.75551;,
 -20.42040;3045.92871;32.75551;,
 -20.42040;3045.92871;32.75551;,
 -20.42040;3045.92871;32.75551;,
 -20.42040;3045.92871;32.75551;,
 -20.42040;3045.92871;32.75551;,
 46.17960;2691.10419;122.75999;,
 -36.66930;2691.10419;294.38882;,
 -41.73990;2310.00000;211.06892;,
 18.76980;2310.00000;85.71810;,
 -107.55090;2691.10419;132.62943;,
 -93.50880;2310.00000;92.92591;,
 -311.33100;2691.10419;98.47410;,
 -242.34240;2310.00000;67.98001;,
 -175.38720;2691.10419;-37.82039;,
 -143.05440;2310.00000;-31.56420;,
 -209.88059;2691.10419;-223.28490;,
 -168.24720;2310.00000;-167.02080;,
 -42.60420;2691.10419;-136.07460;,
 -46.07520;2310.00000;-103.32510;,
 127.48080;2691.10419;-226.22969;,
 78.14910;2310.00000;-169.17120;,
 100.56420;2691.10419;-21.36749;,
 58.49010;2310.00000;-19.54740;,
 234.53130;2691.10419;93.71100;,
 156.33480;2310.00000;64.50121;,
 46.17960;2691.10419;122.75999;,
 18.76980;2310.00000;85.71810;,
 -39.17400;2691.10419;7.41151;,
 -39.17400;2691.10419;7.41151;,
 -39.17400;2691.10419;7.41151;,
 -39.17400;2691.10419;7.41151;,
 -39.17400;2691.10419;7.41151;,
 -39.17400;2691.10419;7.41151;,
 -39.17400;2691.10419;7.41151;,
 -39.17400;2691.10419;7.41151;,
 -39.17400;2691.10419;7.41151;,
 -39.17400;2691.10419;7.41151;,
 -43.56900;2310.00000;1.47180;,
 -43.56900;2310.00000;1.47180;,
 -43.56900;2310.00000;1.47180;,
 -43.56900;2310.00000;1.47180;,
 -43.56900;2310.00000;1.47180;,
 -43.56900;2310.00000;1.47180;,
 -43.56900;2310.00000;1.47180;,
 -43.56900;2310.00000;1.47180;,
 -43.56900;2310.00000;1.47180;,
 -43.56900;2310.00000;1.47180;,
 -337.93380;3055.55640;-395.13570;,
 277.15139;3055.55640;-400.50421;,
 137.94450;2670.73114;-239.49300;,
 -220.44960;2670.73114;-236.36549;,
 472.32751;3055.55640;182.81790;,
 251.66881;2670.73114;100.39350;,
 -21.37380;3058.98175;548.51848;,
 -35.68260;2675.97455;313.40250;,
 -522.90120;3055.55640;191.50378;,
 -328.22520;2670.73114;105.45451;,
 -337.93380;3055.55640;-395.13570;,
 -220.44960;2670.73114;-236.36549;,
 -25.94040;3045.92871;25.29540;,
 -25.94040;3045.92871;25.29540;,
 -25.94040;3045.92871;25.29540;,
 -25.94040;3045.92871;25.29540;,
 -25.94040;3045.92871;25.29540;,
 -38.34360;2691.10419;8.53381;,
 -38.34360;2691.10419;8.53381;,
 -38.34360;2691.10419;8.53381;,
 -38.34360;2691.10419;8.53381;,
 -38.34360;2691.10419;8.53381;,
 -70.18590;15.66000;21.41251;,
 -16.71750;15.66000;-18.15209;,
 -56.28210;15.66000;-71.62079;,
 -109.75050;15.66000;-32.05621;,
 -445.07822;442.92421;-541.13640;,
 431.63278;442.92421;-548.78787;,
 431.63278;19.69710;-548.78787;,
 -445.07822;19.69710;-541.13640;,
 709.82639;442.92421;282.64920;,
 709.82639;19.69710;282.64920;,
 5.05020;442.92421;804.15564;,
 5.05020;19.69710;804.15564;,
 -708.72029;442.92421;295.02869;,
 -708.72029;19.69710;295.02869;,
 -445.07822;442.92421;-541.13640;,
 -445.07822;19.69710;-541.13640;,
 -1.45830;442.92421;58.38121;,
 -1.45830;442.92421;58.38121;,
 -1.45830;442.92421;58.38121;,
 -1.45830;442.92421;58.38121;,
 -1.45830;442.92421;58.38121;,
 -1.45830;19.69710;58.38121;,
 -1.45830;19.69710;58.38121;,
 -1.45830;19.69710;58.38121;,
 -1.45830;19.69710;58.38121;,
 -1.45830;19.69710;58.38121;,
 -309.93361;595.65028;-744.02847;,
 -177.26340;595.65028;-742.47748;,
 -177.26340;4.53360;-742.47748;,
 -309.93361;4.53360;-744.02847;,
 -177.26340;595.65028;-742.47748;,
 -178.81380;595.65028;-564.80699;,
 -178.81380;4.53360;-564.80699;,
 -177.26340;4.53360;-742.47748;,
 -178.81380;595.65028;-564.80699;,
 -311.48371;595.65028;-566.35680;,
 -311.48371;4.53360;-566.35680;,
 -178.81380;4.53360;-564.80699;,
 -311.48371;595.65028;-566.35680;,
 -309.93361;595.65028;-744.02847;,
 -309.93361;4.53360;-744.02847;,
 -311.48371;4.53360;-566.35680;,
 -177.26340;595.65028;-742.47748;,
 -309.93361;595.65028;-744.02847;,
 -309.93361;4.53360;-744.02847;,
 -177.26340;4.53360;-742.47748;,
 163.21410;595.65028;-749.83708;,
 295.88370;595.65028;-748.28728;,
 295.88370;4.53360;-748.28728;,
 163.21410;4.53360;-749.83708;,
 295.88370;595.65028;-748.28728;,
 294.33360;595.65028;-570.61679;,
 294.33360;4.53360;-570.61679;,
 295.88370;4.53360;-748.28728;,
 294.33360;595.65028;-570.61679;,
 161.66370;595.65028;-572.16632;,
 161.66370;4.53360;-572.16632;,
 294.33360;4.53360;-570.61679;,
 161.66370;595.65028;-572.16632;,
 163.21410;595.65028;-749.83708;,
 163.21410;4.53360;-749.83708;,
 161.66370;4.53360;-572.16632;,
 295.88370;595.65028;-748.28728;,
 163.21410;595.65028;-749.83708;,
 163.21410;4.53360;-749.83708;,
 295.88370;4.53360;-748.28728;,
 331.44630;714.52982;-567.40228;,
 332.99641;714.52982;-745.07309;,
 -346.90741;714.52982;-751.79128;,
 -348.45749;714.52982;-574.12170;,
 332.99641;714.52982;-745.07309;,
 332.99641;596.85452;-745.07309;,
 -346.90741;596.85452;-751.79128;,
 -346.90741;714.52982;-751.79128;,
 332.99641;596.85452;-745.07309;,
 331.44630;596.85452;-567.40228;,
 -348.45749;596.85452;-574.12170;,
 -346.90741;596.85452;-751.79128;,
 331.44630;596.85452;-567.40228;,
 331.44630;714.52982;-567.40228;,
 -348.45749;714.52982;-574.12170;,
 -348.45749;596.85452;-574.12170;,
 332.99641;714.52982;-745.07309;,
 331.44630;714.52982;-567.40228;,
 -348.45749;714.52982;-574.12170;,
 -346.90741;714.52982;-751.79128;,
 -126.35880;352.48109;-634.92032;,
 105.90300;352.48109;-626.74530;,
 105.90300;9.27660;-626.74530;,
 -126.35880;9.27660;-634.92032;,
 105.90300;352.48109;-626.74530;,
 111.24990;352.48109;-534.90088;,
 111.24990;9.27660;-534.90088;,
 105.90300;9.27660;-626.74530;,
 111.24990;352.48109;-534.90088;,
 -121.01280;352.48109;-543.07471;,
 -121.01280;9.27660;-543.07471;,
 111.24990;9.27660;-534.90088;,
 -121.01280;352.48109;-543.07471;,
 -126.35880;352.48109;-634.92032;,
 -126.35880;9.27660;-634.92032;,
 -121.01280;9.27660;-543.07471;,
 105.90300;352.48109;-626.74530;,
 -126.35880;352.48109;-634.92032;,
 -126.35880;9.27660;-634.92032;,
 105.90300;9.27660;-626.74530;,
 -118.16339;340.90741;-638.24222;,
 98.73390;340.90741;-636.34918;,
 98.73390;20.85030;-636.34918;,
 -118.16339;20.85030;-638.24222;;
 
 131;
 4;0,1,2,3;,
 4;1,4,5,2;,
 4;4,6,7,5;,
 4;6,8,9,7;,
 4;8,10,11,9;,
 4;10,12,13,11;,
 4;12,14,15,13;,
 4;14,16,17,15;,
 4;16,18,19,17;,
 4;18,20,21,19;,
 3;22,1,0;,
 3;23,4,1;,
 3;24,6,4;,
 3;25,8,6;,
 3;26,10,8;,
 3;27,12,10;,
 3;28,14,12;,
 3;29,16,14;,
 3;30,18,16;,
 3;31,20,18;,
 3;32,3,2;,
 3;33,2,5;,
 3;34,5,7;,
 3;35,7,9;,
 3;36,9,11;,
 3;37,11,13;,
 3;38,13,15;,
 3;39,15,17;,
 3;40,17,19;,
 3;41,19,21;,
 4;42,43,44,45;,
 4;43,46,47,44;,
 4;46,48,49,47;,
 4;48,50,51,49;,
 4;50,52,53,51;,
 3;54,43,42;,
 3;55,46,43;,
 3;56,48,46;,
 3;57,50,48;,
 3;58,52,50;,
 3;59,45,44;,
 3;60,44,47;,
 3;61,47,49;,
 3;62,49,51;,
 3;63,51,53;,
 4;64,65,66,67;,
 4;65,68,69,66;,
 4;68,70,71,69;,
 4;70,72,73,71;,
 4;72,74,75,73;,
 4;74,76,77,75;,
 4;76,78,79,77;,
 4;78,80,81,79;,
 4;80,82,83,81;,
 4;82,84,85,83;,
 3;86,65,64;,
 3;87,68,65;,
 3;88,70,68;,
 3;89,72,70;,
 3;90,74,72;,
 3;91,76,74;,
 3;92,78,76;,
 3;93,80,78;,
 3;94,82,80;,
 3;95,84,82;,
 3;96,67,66;,
 3;97,66,69;,
 3;98,69,71;,
 3;99,71,73;,
 3;100,73,75;,
 3;101,75,77;,
 3;102,77,79;,
 3;103,79,81;,
 3;104,81,83;,
 3;105,83,85;,
 4;106,107,108,109;,
 4;107,110,111,108;,
 4;110,112,113,111;,
 4;112,114,115,113;,
 4;114,116,117,115;,
 3;118,107,106;,
 3;119,110,107;,
 3;120,112,110;,
 3;121,114,112;,
 3;122,116,114;,
 3;123,109,108;,
 3;124,108,111;,
 3;125,111,113;,
 3;126,113,115;,
 3;127,115,117;,
 4;128,129,130,131;,
 4;132,133,134,135;,
 4;133,136,137,134;,
 4;136,138,139,137;,
 4;138,140,141,139;,
 4;140,142,143,141;,
 3;144,133,132;,
 3;145,136,133;,
 3;146,138,136;,
 3;147,140,138;,
 3;148,142,140;,
 3;149,135,134;,
 3;150,134,137;,
 3;151,137,139;,
 3;152,139,141;,
 3;153,141,143;,
 4;154,155,156,157;,
 4;158,159,160,161;,
 4;162,163,164,165;,
 4;166,167,168,169;,
 4;166,159,170,171;,
 4;172,173,160,169;,
 4;174,175,176,177;,
 4;178,179,180,181;,
 4;182,183,184,185;,
 4;186,187,188,189;,
 4;186,179,190,191;,
 4;192,193,180,189;,
 4;194,195,196,197;,
 4;198,199,200,201;,
 4;202,203,204,205;,
 4;206,207,208,209;,
 4;206,199,210,211;,
 4;212,213,200,209;,
 4;214,215,216,217;,
 4;218,219,220,221;,
 4;222,223,224,225;,
 4;226,227,228,229;,
 4;226,219,230,231;,
 4;232,233,220,229;,
 4;234,235,236,237;;
 
 MeshMaterialList {
  5;
  131;
  1,
  1,
  1,
  1,
  1,
  1,
  1,
  1,
  1,
  1,
  1,
  1,
  1,
  1,
  1,
  1,
  1,
  1,
  1,
  1,
  1,
  1,
  1,
  1,
  1,
  1,
  1,
  1,
  1,
  1,
  1,
  1,
  1,
  1,
  1,
  1,
  1,
  1,
  1,
  1,
  1,
  1,
  1,
  1,
  1,
  1,
  1,
  1,
  1,
  1,
  1,
  1,
  1,
  1,
  1,
  1,
  1,
  1,
  1,
  1,
  1,
  1,
  1,
  1,
  1,
  1,
  1,
  1,
  1,
  1,
  1,
  1,
  1,
  1,
  1,
  2,
  2,
  2,
  2,
  2,
  1,
  1,
  1,
  1,
  1,
  1,
  1,
  1,
  1,
  1,
  2,
  1,
  1,
  1,
  1,
  1,
  1,
  1,
  1,
  1,
  1,
  1,
  1,
  1,
  1,
  1,
  3,
  3,
  3,
  3,
  3,
  3,
  3,
  3,
  3,
  3,
  3,
  3,
  3,
  3,
  3,
  3,
  3,
  3,
  2,
  2,
  2,
  2,
  2,
  2,
  4;;
  Material {
   0.800000;0.800000;0.800000;1.000000;;
   5.000000;
   0.000000;0.000000;0.000000;;
   0.000000;0.000000;0.000000;;
  }
  Material {
   0.674400;0.674400;0.674400;1.000000;;
   5.000000;
   0.000000;0.000000;0.000000;;
   0.000000;0.000000;0.000000;;
  }
  Material {
   0.238400;0.762400;0.800000;1.000000;;
   5.000000;
   0.000000;0.000000;0.000000;;
   0.000000;0.000000;0.000000;;
  }
  Material {
   0.800000;0.000000;0.000000;1.000000;;
   5.000000;
   0.000000;0.000000;0.000000;;
   0.000000;0.000000;0.000000;;
  }
  Material {
   0.000000;0.000000;0.000000;1.000000;;
   5.000000;
   0.000000;0.000000;0.000000;;
   0.000000;0.000000;0.000000;;
  }
 }
 MeshNormals {
  82;
  0.000000;1.000000;0.000000;,
  0.594822;0.000000;0.803858;,
  0.900562;0.000000;0.434728;,
  -0.614647;0.000000;0.788802;,
  -0.165307;0.000000;0.986242;,
  -0.955302;0.000000;-0.295630;,
  -0.983142;0.000000;0.182845;,
  -0.003408;0.000000;-0.999994;,
  -0.468333;0.000000;-0.883552;,
  0.934041;0.000000;-0.357164;,
  0.651602;0.000000;-0.758561;,
  0.000000;-1.000000;-0.000000;,
  -0.008728;0.000000;-0.999962;,
  0.948323;0.000000;-0.317306;,
  0.594823;0.000000;0.803856;,
  -0.580702;0.000000;0.814116;,
  0.590522;-0.120039;0.798044;,
  0.895451;-0.106416;0.432254;,
  -0.611943;-0.104225;0.784004;,
  -0.164333;-0.108199;0.980453;,
  -0.951747;-0.085584;-0.294709;,
  -0.979978;-0.080149;0.182260;,
  -0.003569;-0.085584;-0.996324;,
  -0.467136;-0.071478;-0.881292;,
  0.928662;-0.104225;-0.355982;,
  0.649752;-0.075345;-0.756403;,
  -0.000044;0.999997;-0.002615;,
  -0.008060;-0.383482;-0.923513;,
  0.856332;-0.429651;-0.286524;,
  0.525853;-0.456971;0.717396;,
  -0.519762;-0.430102;0.738146;,
  -0.000088;-0.999976;0.006878;,
  -0.915925;0.000000;0.401349;,
  -0.708017;0.000000;-0.706196;,
  0.462299;0.000000;-0.886724;,
  0.991479;0.000000;0.130270;,
  0.152431;0.000000;0.988314;,
  -0.953717;0.000000;-0.300707;,
  -0.913322;-0.075345;0.400208;,
  -0.706206;-0.071478;-0.704389;,
  0.460813;-0.080150;-0.883871;,
  0.985658;-0.108198;0.129505;,
  0.151562;-0.106416;0.982703;,
  -0.880803;-0.383483;-0.277717;,
  -0.010703;0.999830;0.014989;,
  0.010926;0.999831;0.014788;,
  -0.016535;0.999824;-0.008806;,
  -0.000235;0.999689;-0.024938;,
  0.016325;0.999825;-0.009105;,
  0.039554;-0.997779;0.053592;,
  -0.038840;-0.997766;0.054351;,
  -0.066473;-0.997723;-0.011417;,
  -0.000573;-0.998771;-0.049561;,
  0.065894;-0.997747;-0.012646;,
  0.000000;1.000000;0.000000;,
  -0.008727;0.000000;-0.999962;,
  0.948324;0.000000;-0.317303;,
  0.594822;0.000000;0.803857;,
  -0.580702;0.000000;0.814116;,
  0.000000;-1.000000;-0.000000;,
  -0.953717;0.000000;-0.300706;,
  0.011690;0.000000;-0.999932;,
  0.999962;0.000000;0.008726;,
  -0.011681;0.000000;0.999932;,
  0.011681;0.000000;-0.999932;,
  0.999962;0.000000;0.008724;,
  -0.011679;0.000000;0.999932;,
  0.000000;1.000000;0.000000;,
  0.009881;0.000000;-0.999951;,
  0.000000;-1.000000;0.000000;,
  -0.999962;0.000000;-0.008724;,
  -0.999962;0.000000;-0.008726;,
  -0.009882;0.000000;0.999951;,
  0.999962;0.000000;0.008724;,
  -0.999962;0.000000;-0.008724;,
  0.035176;0.000000;-0.999381;,
  0.998310;0.000000;-0.058119;,
  -0.035170;0.000000;0.999381;,
  -0.998310;0.000000;0.058108;,
  0.000000;1.000000;0.000000;,
  0.000000;-1.000000;-0.000000;,
  0.008727;0.000000;-0.999962;;
  131;
  4;1,2,2,1;,
  4;32,3,3,32;,
  4;3,4,4,3;,
  4;33,5,5,33;,
  4;5,6,6,5;,
  4;34,7,7,34;,
  4;7,8,8,7;,
  4;35,9,9,35;,
  4;9,10,10,9;,
  4;36,1,1,36;,
  3;0,0,0;,
  3;0,0,0;,
  3;0,0,0;,
  3;0,0,0;,
  3;0,0,0;,
  3;0,0,0;,
  3;0,0,0;,
  3;0,0,0;,
  3;0,0,0;,
  3;0,0,0;,
  3;11,11,11;,
  3;11,11,11;,
  3;11,11,11;,
  3;11,11,11;,
  3;11,11,11;,
  3;11,11,11;,
  3;11,11,11;,
  3;11,11,11;,
  3;11,11,11;,
  3;11,11,11;,
  4;12,12,12,12;,
  4;13,13,13,13;,
  4;14,14,14,14;,
  4;15,15,15,15;,
  4;37,37,37,37;,
  3;0,0,0;,
  3;0,0,0;,
  3;0,0,0;,
  3;0,0,0;,
  3;0,0,0;,
  3;11,11,11;,
  3;11,11,11;,
  3;11,11,11;,
  3;11,11,11;,
  3;11,11,11;,
  4;16,17,17,16;,
  4;38,18,18,38;,
  4;18,19,19,18;,
  4;39,20,20,39;,
  4;20,21,21,20;,
  4;40,22,22,40;,
  4;22,23,23,22;,
  4;41,24,24,41;,
  4;24,25,25,24;,
  4;42,16,16,42;,
  3;0,0,0;,
  3;0,0,0;,
  3;0,0,0;,
  3;0,0,0;,
  3;0,0,0;,
  3;0,0,0;,
  3;0,0,0;,
  3;0,0,0;,
  3;0,0,0;,
  3;0,0,0;,
  3;11,11,11;,
  3;11,11,11;,
  3;11,11,11;,
  3;11,11,11;,
  3;11,11,11;,
  3;11,11,11;,
  3;11,11,11;,
  3;11,11,11;,
  3;11,11,11;,
  3;11,11,11;,
  4;27,27,27,27;,
  4;28,28,28,28;,
  4;29,29,29,29;,
  4;30,30,30,30;,
  4;43,43,43,43;,
  3;26,44,45;,
  3;26,46,44;,
  3;26,47,46;,
  3;26,48,47;,
  3;26,45,48;,
  3;31,49,50;,
  3;31,50,51;,
  3;31,51,52;,
  3;31,52,53;,
  3;31,53,49;,
  4;0,0,0,0;,
  4;55,55,55,55;,
  4;56,56,56,56;,
  4;57,57,57,57;,
  4;58,58,58,58;,
  4;60,60,60,60;,
  3;54,54,54;,
  3;54,54,54;,
  3;54,54,54;,
  3;54,54,54;,
  3;54,54,54;,
  3;59,59,59;,
  3;59,59,59;,
  3;59,59,59;,
  3;59,59,59;,
  3;59,59,59;,
  4;61,61,61,61;,
  4;62,62,62,62;,
  4;63,63,63,63;,
  4;70,70,70,70;,
  4;67,67,67,67;,
  4;69,69,69,69;,
  4;64,64,64,64;,
  4;65,65,65,65;,
  4;66,66,66,66;,
  4;71,71,71,71;,
  4;67,67,67,67;,
  4;69,69,69,69;,
  4;67,67,67,67;,
  4;68,68,68,68;,
  4;69,69,69,69;,
  4;72,72,72,72;,
  4;73,73,73,73;,
  4;74,74,74,74;,
  4;75,75,75,75;,
  4;76,76,76,76;,
  4;77,77,77,77;,
  4;78,78,78,78;,
  4;79,79,79,79;,
  4;80,80,80,80;,
  4;81,81,81,81;;
 }
 MeshTextureCoords {
  238;
  0.000000;0.000000;,
  0.100000;0.000000;,
  0.100000;1.000000;,
  0.000000;1.000000;,
  0.200000;0.000000;,
  0.200000;1.000000;,
  0.300000;0.000000;,
  0.300000;1.000000;,
  0.400000;0.000000;,
  0.400000;1.000000;,
  0.500000;0.000000;,
  0.500000;1.000000;,
  0.600000;0.000000;,
  0.600000;1.000000;,
  0.700000;0.000000;,
  0.700000;1.000000;,
  0.800000;0.000000;,
  0.800000;1.000000;,
  0.900000;0.000000;,
  0.900000;1.000000;,
  1.000000;0.000000;,
  1.000000;1.000000;,
  0.050000;0.000000;,
  0.150000;0.000000;,
  0.250000;0.000000;,
  0.350000;0.000000;,
  0.450000;0.000000;,
  0.550000;0.000000;,
  0.650000;0.000000;,
  0.750000;0.000000;,
  0.850000;0.000000;,
  0.950000;0.000000;,
  0.050000;1.000000;,
  0.150000;1.000000;,
  0.250000;1.000000;,
  0.350000;1.000000;,
  0.450000;1.000000;,
  0.550000;1.000000;,
  0.650000;1.000000;,
  0.750000;1.000000;,
  0.850000;1.000000;,
  0.950000;1.000000;,
  0.000000;0.000000;,
  0.200000;0.000000;,
  0.200000;1.000000;,
  0.000000;1.000000;,
  0.400000;0.000000;,
  0.400000;1.000000;,
  0.600000;0.000000;,
  0.600000;1.000000;,
  0.800000;0.000000;,
  0.800000;1.000000;,
  1.000000;0.000000;,
  1.000000;1.000000;,
  0.100000;0.000000;,
  0.300000;0.000000;,
  0.500000;0.000000;,
  0.700000;0.000000;,
  0.900000;0.000000;,
  0.100000;1.000000;,
  0.300000;1.000000;,
  0.500000;1.000000;,
  0.700000;1.000000;,
  0.900000;1.000000;,
  0.000000;0.000000;,
  0.100000;0.000000;,
  0.100000;1.000000;,
  0.000000;1.000000;,
  0.200000;0.000000;,
  0.200000;1.000000;,
  0.300000;0.000000;,
  0.300000;1.000000;,
  0.400000;0.000000;,
  0.400000;1.000000;,
  0.500000;0.000000;,
  0.500000;1.000000;,
  0.600000;0.000000;,
  0.600000;1.000000;,
  0.700000;0.000000;,
  0.700000;1.000000;,
  0.800000;0.000000;,
  0.800000;1.000000;,
  0.900000;0.000000;,
  0.900000;1.000000;,
  1.000000;0.000000;,
  1.000000;1.000000;,
  0.050000;0.000000;,
  0.150000;0.000000;,
  0.250000;0.000000;,
  0.350000;0.000000;,
  0.450000;0.000000;,
  0.550000;0.000000;,
  0.650000;0.000000;,
  0.750000;0.000000;,
  0.850000;0.000000;,
  0.950000;0.000000;,
  0.050000;1.000000;,
  0.150000;1.000000;,
  0.250000;1.000000;,
  0.350000;1.000000;,
  0.450000;1.000000;,
  0.550000;1.000000;,
  0.650000;1.000000;,
  0.750000;1.000000;,
  0.850000;1.000000;,
  0.950000;1.000000;,
  0.000000;0.000000;,
  0.200000;0.000000;,
  0.200000;1.000000;,
  0.000000;1.000000;,
  0.400000;0.000000;,
  0.400000;1.000000;,
  0.600000;0.000000;,
  0.600000;1.000000;,
  0.800000;0.000000;,
  0.800000;1.000000;,
  1.000000;0.000000;,
  1.000000;1.000000;,
  0.100000;0.000000;,
  0.300000;0.000000;,
  0.500000;0.000000;,
  0.700000;0.000000;,
  0.900000;0.000000;,
  0.100000;1.000000;,
  0.300000;1.000000;,
  0.500000;1.000000;,
  0.700000;1.000000;,
  0.900000;1.000000;,
  0.000000;0.000000;,
  1.000000;0.000000;,
  1.000000;1.000000;,
  0.000000;1.000000;,
  0.000000;0.000000;,
  0.200000;0.000000;,
  0.200000;1.000000;,
  0.000000;1.000000;,
  0.400000;0.000000;,
  0.400000;1.000000;,
  0.600000;0.000000;,
  0.600000;1.000000;,
  0.800000;0.000000;,
  0.800000;1.000000;,
  1.000000;0.000000;,
  1.000000;1.000000;,
  0.100000;0.000000;,
  0.300000;0.000000;,
  0.500000;0.000000;,
  0.700000;0.000000;,
  0.900000;0.000000;,
  0.100000;1.000000;,
  0.300000;1.000000;,
  0.500000;1.000000;,
  0.700000;1.000000;,
  0.900000;1.000000;,
  0.000000;0.000000;,
  1.000000;0.000000;,
  1.000000;1.000000;,
  0.000000;1.000000;,
  0.000000;0.000000;,
  1.000000;0.000000;,
  1.000000;1.000000;,
  0.000000;1.000000;,
  0.000000;0.000000;,
  1.000000;0.000000;,
  1.000000;1.000000;,
  0.000000;1.000000;,
  0.000000;0.000000;,
  1.000000;0.000000;,
  1.000000;1.000000;,
  0.000000;1.000000;,
  1.000000;1.000000;,
  0.000000;1.000000;,
  0.000000;0.000000;,
  1.000000;0.000000;,
  0.000000;0.000000;,
  1.000000;0.000000;,
  1.000000;1.000000;,
  0.000000;1.000000;,
  0.000000;0.000000;,
  1.000000;0.000000;,
  1.000000;1.000000;,
  0.000000;1.000000;,
  0.000000;0.000000;,
  1.000000;0.000000;,
  1.000000;1.000000;,
  0.000000;1.000000;,
  0.000000;0.000000;,
  1.000000;0.000000;,
  1.000000;1.000000;,
  0.000000;1.000000;,
  1.000000;1.000000;,
  0.000000;1.000000;,
  0.000000;0.000000;,
  1.000000;0.000000;,
  0.000000;0.000000;,
  1.000000;0.000000;,
  1.000000;1.000000;,
  0.000000;1.000000;,
  0.000000;0.000000;,
  1.000000;0.000000;,
  1.000000;1.000000;,
  0.000000;1.000000;,
  0.000000;0.000000;,
  1.000000;0.000000;,
  1.000000;1.000000;,
  0.000000;1.000000;,
  0.000000;0.000000;,
  1.000000;0.000000;,
  1.000000;1.000000;,
  0.000000;1.000000;,
  1.000000;1.000000;,
  0.000000;1.000000;,
  0.000000;0.000000;,
  1.000000;0.000000;,
  0.000000;0.000000;,
  1.000000;0.000000;,
  1.000000;1.000000;,
  0.000000;1.000000;,
  0.000000;0.000000;,
  1.000000;0.000000;,
  1.000000;1.000000;,
  0.000000;1.000000;,
  0.000000;0.000000;,
  1.000000;0.000000;,
  1.000000;1.000000;,
  0.000000;1.000000;,
  0.000000;0.000000;,
  1.000000;0.000000;,
  1.000000;1.000000;,
  0.000000;1.000000;,
  1.000000;1.000000;,
  0.000000;1.000000;,
  0.000000;0.000000;,
  1.000000;0.000000;,
  0.000000;0.000000;,
  1.000000;0.000000;,
  1.000000;1.000000;,
  0.000000;1.000000;;
 }
}
