xof 0302txt 0064
template Header {
 <3D82AB43-62DA-11cf-AB39-0020AF71E433>
 WORD major;
 WORD minor;
 DWORD flags;
}

template Vector {
 <3D82AB5E-62DA-11cf-AB39-0020AF71E433>
 FLOAT x;
 FLOAT y;
 FLOAT z;
}

template Coords2d {
 <F6F23F44-7686-11cf-8F52-0040333594A3>
 FLOAT u;
 FLOAT v;
}

template Matrix4x4 {
 <F6F23F45-7686-11cf-8F52-0040333594A3>
 array FLOAT matrix[16];
}

template ColorRGBA {
 <35FF44E0-6C7C-11cf-8F52-0040333594A3>
 FLOAT red;
 FLOAT green;
 FLOAT blue;
 FLOAT alpha;
}

template ColorRGB {
 <D3E16E81-7835-11cf-8F52-0040333594A3>
 FLOAT red;
 FLOAT green;
 FLOAT blue;
}

template IndexedColor {
 <1630B820-7842-11cf-8F52-0040333594A3>
 DWORD index;
 ColorRGBA indexColor;
}

template Boolean {
 <4885AE61-78E8-11cf-8F52-0040333594A3>
 WORD truefalse;
}

template Boolean2d {
 <4885AE63-78E8-11cf-8F52-0040333594A3>
 Boolean u;
 Boolean v;
}

template MaterialWrap {
 <4885AE60-78E8-11cf-8F52-0040333594A3>
 Boolean u;
 Boolean v;
}

template TextureFilename {
 <A42790E1-7810-11cf-8F52-0040333594A3>
 STRING filename;
}

template Material {
 <3D82AB4D-62DA-11cf-AB39-0020AF71E433>
 ColorRGBA faceColor;
 FLOAT power;
 ColorRGB specularColor;
 ColorRGB emissiveColor;
 [...]
}

template MeshFace {
 <3D82AB5F-62DA-11cf-AB39-0020AF71E433>
 DWORD nFaceVertexIndices;
 array DWORD faceVertexIndices[nFaceVertexIndices];
}

template MeshFaceWraps {
 <4885AE62-78E8-11cf-8F52-0040333594A3>
 DWORD nFaceWrapValues;
 Boolean2d faceWrapValues;
}

template MeshTextureCoords {
 <F6F23F40-7686-11cf-8F52-0040333594A3>
 DWORD nTextureCoords;
 array Coords2d textureCoords[nTextureCoords];
}

template MeshMaterialList {
 <F6F23F42-7686-11cf-8F52-0040333594A3>
 DWORD nMaterials;
 DWORD nFaceIndexes;
 array DWORD faceIndexes[nFaceIndexes];
 [Material]
}

template MeshNormals {
 <F6F23F43-7686-11cf-8F52-0040333594A3>
 DWORD nNormals;
 array Vector normals[nNormals];
 DWORD nFaceNormals;
 array MeshFace faceNormals[nFaceNormals];
}

template MeshVertexColors {
 <1630B821-7842-11cf-8F52-0040333594A3>
 DWORD nVertexColors;
 array IndexedColor vertexColors[nVertexColors];
}

template Mesh {
 <3D82AB44-62DA-11cf-AB39-0020AF71E433>
 DWORD nVertices;
 array Vector vertices[nVertices];
 DWORD nFaces;
 array MeshFace faces[nFaces];
 [...]
}

Header{
1;
0;
1;
}

Mesh {
 30;
 -100.31896;2.04785;101.51793;,
 -100.31898;2.04785;-113.37627;,
 -100.31898;-2.04055;-113.37627;,
 -100.31896;-2.04055;101.51793;,
 114.70709;2.04785;-113.37628;,
 114.70709;-2.04055;-113.37628;,
 114.70711;2.04785;101.51791;,
 114.70711;-2.04055;101.51791;,
 114.96197;7.77185;97.62292;,
 114.96198;7.77185;114.28817;,
 114.96198;-2.59000;114.28817;,
 114.96197;-2.59000;97.62292;,
 -114.28246;7.77185;114.28819;,
 -114.28246;-2.59000;114.28819;,
 114.96198;-2.59000;114.28817;,
 114.96198;7.77185;114.28817;,
 -114.28246;7.77185;114.28819;,
 114.96197;7.77185;97.62292;,
 -97.17858;7.77185;97.62295;,
 -114.28246;-2.59000;114.28819;,
 -97.17858;-2.59000;97.62295;,
 114.96197;-2.59000;97.62292;,
 -97.17858;7.77185;97.62295;,
 -97.17858;-2.59000;97.62295;,
 -97.17859;-2.59000;-113.64175;,
 -97.17859;7.77185;-113.64175;,
 -114.28247;-2.59000;-113.64175;,
 -114.28246;-2.59000;114.28819;,
 -114.28247;7.77185;-113.64175;,
 -114.28246;7.77185;114.28819;;
 
 16;
 4;0,1,2,3;,
 4;1,4,5,2;,
 4;4,6,7,5;,
 4;6,0,3,7;,
 4;6,4,1,0;,
 4;3,2,5,7;,
 4;8,9,10,11;,
 4;12,13,14,15;,
 4;16,15,17,18;,
 4;19,20,21,14;,
 4;22,17,21,23;,
 4;24,25,22,23;,
 4;26,24,23,27;,
 4;28,26,27,29;,
 4;25,28,29,22;,
 4;25,24,26,28;;
 
 MeshMaterialList {
  2;
  16;
  0,
  0,
  0,
  0,
  0,
  0,
  1,
  1,
  1,
  1,
  1,
  1,
  1,
  1,
  1,
  1;;
  Material {
   0.552000;0.552000;0.552000;1.000000;;
   0.000000;
   0.000000;0.000000;0.000000;;
   0.000000;0.000000;0.000000;;
   TextureFilename {
    "data/TEXTURE/flagstone.jpg";
   }
  }
  Material {
   0.432800;0.432800;0.432800;1.000000;;
   0.000000;
   0.000000;0.000000;0.000000;;
   0.000000;0.000000;0.000000;;
  }
 }
 MeshNormals {
  14;
  -1.000000;0.000000;0.000000;,
  -0.000000;0.000000;-1.000000;,
  1.000000;0.000000;-0.000000;,
  0.000000;0.000000;1.000000;,
  0.000000;1.000000;0.000000;,
  0.000000;-1.000000;-0.000000;,
  1.000000;0.000000;-0.000000;,
  0.000000;0.000000;1.000000;,
  0.000000;1.000000;0.000000;,
  0.000000;-1.000000;-0.000000;,
  -1.000000;0.000000;0.000000;,
  1.000000;0.000000;-0.000000;,
  -0.000000;0.000000;-1.000000;,
  0.000000;0.000000;-1.000000;;
  16;
  4;0,0,0,0;,
  4;1,1,1,1;,
  4;2,2,2,2;,
  4;3,3,3,3;,
  4;4,4,4,4;,
  4;5,5,5,5;,
  4;6,6,6,6;,
  4;7,7,7,7;,
  4;8,8,8,8;,
  4;9,9,9,9;,
  4;12,12,12,12;,
  4;11,11,11,11;,
  4;9,9,9,9;,
  4;10,10,10,10;,
  4;8,8,8,8;,
  4;13,13,13,13;;
 }
 MeshTextureCoords {
  30;
  -0.001585;-0.515132;,
  -0.001585;1.633681;,
  -0.001585;1.274869;,
  -0.001585;-0.873944;,
  1.073535;1.633682;,
  1.073535;1.274869;,
  1.073535;-0.515131;,
  1.073535;-0.873944;,
  0.000000;0.000000;,
  1.000000;0.000000;,
  1.000000;1.000000;,
  0.000000;1.000000;,
  0.859960;0.000000;,
  0.859960;1.000000;,
  0.000000;1.000000;,
  0.000000;0.000000;,
  0.000000;0.859960;,
  1.000000;0.000000;,
  1.000000;0.859960;,
  0.000000;0.140040;,
  1.000000;0.140040;,
  1.000000;1.000000;,
  0.140040;0.000000;,
  0.140040;1.000000;,
  0.140040;1.000000;,
  0.140040;0.000000;,
  0.000000;1.000000;,
  0.000000;1.000000;,
  0.000000;0.000000;,
  0.000000;0.000000;;
 }
}
