xof 0302txt 0064
template Header {
 <3D82AB43-62DA-11cf-AB39-0020AF71E433>
 WORD major;
 WORD minor;
 DWORD flags;
}

template Vector {
 <3D82AB5E-62DA-11cf-AB39-0020AF71E433>
 FLOAT x;
 FLOAT y;
 FLOAT z;
}

template Coords2d {
 <F6F23F44-7686-11cf-8F52-0040333594A3>
 FLOAT u;
 FLOAT v;
}

template Matrix4x4 {
 <F6F23F45-7686-11cf-8F52-0040333594A3>
 array FLOAT matrix[16];
}

template ColorRGBA {
 <35FF44E0-6C7C-11cf-8F52-0040333594A3>
 FLOAT red;
 FLOAT green;
 FLOAT blue;
 FLOAT alpha;
}

template ColorRGB {
 <D3E16E81-7835-11cf-8F52-0040333594A3>
 FLOAT red;
 FLOAT green;
 FLOAT blue;
}

template IndexedColor {
 <1630B820-7842-11cf-8F52-0040333594A3>
 DWORD index;
 ColorRGBA indexColor;
}

template Boolean {
 <4885AE61-78E8-11cf-8F52-0040333594A3>
 WORD truefalse;
}

template Boolean2d {
 <4885AE63-78E8-11cf-8F52-0040333594A3>
 Boolean u;
 Boolean v;
}

template MaterialWrap {
 <4885AE60-78E8-11cf-8F52-0040333594A3>
 Boolean u;
 Boolean v;
}

template TextureFilename {
 <A42790E1-7810-11cf-8F52-0040333594A3>
 STRING filename;
}

template Material {
 <3D82AB4D-62DA-11cf-AB39-0020AF71E433>
 ColorRGBA faceColor;
 FLOAT power;
 ColorRGB specularColor;
 ColorRGB emissiveColor;
 [...]
}

template MeshFace {
 <3D82AB5F-62DA-11cf-AB39-0020AF71E433>
 DWORD nFaceVertexIndices;
 array DWORD faceVertexIndices[nFaceVertexIndices];
}

template MeshFaceWraps {
 <4885AE62-78E8-11cf-8F52-0040333594A3>
 DWORD nFaceWrapValues;
 Boolean2d faceWrapValues;
}

template MeshTextureCoords {
 <F6F23F40-7686-11cf-8F52-0040333594A3>
 DWORD nTextureCoords;
 array Coords2d textureCoords[nTextureCoords];
}

template MeshMaterialList {
 <F6F23F42-7686-11cf-8F52-0040333594A3>
 DWORD nMaterials;
 DWORD nFaceIndexes;
 array DWORD faceIndexes[nFaceIndexes];
 [Material]
}

template MeshNormals {
 <F6F23F43-7686-11cf-8F52-0040333594A3>
 DWORD nNormals;
 array Vector normals[nNormals];
 DWORD nFaceNormals;
 array MeshFace faceNormals[nFaceNormals];
}

template MeshVertexColors {
 <1630B821-7842-11cf-8F52-0040333594A3>
 DWORD nVertexColors;
 array IndexedColor vertexColors[nVertexColors];
}

template Mesh {
 <3D82AB44-62DA-11cf-AB39-0020AF71E433>
 DWORD nVertices;
 array Vector vertices[nVertices];
 DWORD nFaces;
 array MeshFace faces[nFaces];
 [...]
}

Header{
1;
0;
1;
}

Mesh {
 42;
 -87.69130;4.09570;-127.44101;,
 112.30890;4.09570;-127.44101;,
 112.30890;-4.08110;-127.44101;,
 -87.69130;-4.08110;-127.44101;,
 112.30890;4.09570;-127.44101;,
 112.30890;4.09570;172.55899;,
 112.30890;-4.08110;172.55899;,
 112.30890;-4.08110;-127.44101;,
 112.30890;4.09570;172.55899;,
 -87.69130;4.09570;172.55899;,
 -87.69130;-4.08110;172.55899;,
 112.30890;-4.08110;172.55899;,
 -87.69130;4.09570;172.55899;,
 -87.69130;4.09570;-127.44101;,
 -87.69130;-4.08110;-127.44101;,
 -87.69130;-4.08110;172.55899;,
 112.30890;4.09570;-127.44101;,
 -87.69130;4.09570;-127.44101;,
 -87.69130;-4.08110;-127.44101;,
 112.30890;-4.08110;-127.44101;,
 -82.19610;15.54370;172.55899;,
 -112.70520;15.54370;172.55899;,
 -112.70520;-5.18000;172.55899;,
 -82.19610;-5.18000;172.55899;,
 -112.70520;15.54370;-171.26608;,
 -112.70520;-5.18000;-171.26608;,
 -112.70520;-5.18000;172.55899;,
 -112.70520;15.54370;172.55899;,
 -112.70520;15.54370;-171.26608;,
 -82.19610;15.54370;172.55899;,
 -82.19610;15.54370;-123.11607;,
 -112.70520;-5.18000;-171.26608;,
 -82.19610;-5.18000;-123.11607;,
 -82.19610;-5.18000;172.55899;,
 -82.19610;15.54370;-123.11607;,
 -82.19610;-5.18000;-123.11607;,
 114.06410;-5.18000;-123.11607;,
 114.06410;15.54370;-123.11607;,
 114.06410;-5.18000;-171.26608;,
 -112.70520;-5.18000;-171.26608;,
 114.06410;15.54370;-171.26608;,
 -112.70520;15.54370;-171.26608;;
 
 16;
 4;0,1,2,3;,
 4;4,5,6,7;,
 4;8,9,10,11;,
 4;12,13,14,15;,
 4;12,5,16,17;,
 4;18,19,6,15;,
 4;20,21,22,23;,
 4;24,25,26,27;,
 4;28,27,29,30;,
 4;31,32,33,26;,
 4;34,29,33,35;,
 4;36,37,34,35;,
 4;38,36,35,39;,
 4;40,38,39,41;,
 4;37,40,41,34;,
 4;37,36,38,40;;
 
 MeshMaterialList {
  2;
  16;
  0,
  0,
  0,
  0,
  0,
  0,
  1,
  1,
  1,
  1,
  1,
  1,
  1,
  1,
  1,
  1;;
  Material {
   0.552000;0.552000;0.552000;1.000000;;
   0.000000;
   0.000000;0.000000;0.000000;;
   0.000000;0.000000;0.000000;;
   TextureFilename {
    "data/TEXTURE/flagstone.jpg";
   }
  }
  Material {
   0.432800;0.432800;0.432800;1.000000;;
   0.000000;
   0.000000;0.000000;0.000000;;
   0.000000;0.000000;0.000000;;
  }
 }
 MeshNormals {
  6;
  0.000000;0.000000;-1.000000;,
  1.000000;0.000000;0.000000;,
  0.000000;0.000000;1.000000;,
  -1.000000;0.000000;0.000000;,
  0.000000;1.000000;0.000000;,
  0.000000;-1.000000;-0.000000;;
  16;
  4;0,0,0,0;,
  4;1,1,1,1;,
  4;2,2,2,2;,
  4;3,3,3,3;,
  4;4,4,4,4;,
  4;5,5,5,5;,
  4;2,2,2,2;,
  4;3,3,3,3;,
  4;4,4,4,4;,
  4;5,5,5,5;,
  4;1,1,1,1;,
  4;2,2,2,2;,
  4;5,5,5,5;,
  4;0,0,0,0;,
  4;4,4,4,4;,
  4;1,1,1,1;;
 }
 MeshTextureCoords {
  42;
  0.000000;0.000000;,
  1.000000;0.000000;,
  1.000000;1.000000;,
  0.000000;1.000000;,
  0.000000;0.000000;,
  1.000000;0.000000;,
  1.000000;1.000000;,
  0.000000;1.000000;,
  0.000000;0.000000;,
  1.000000;0.000000;,
  1.000000;1.000000;,
  0.000000;1.000000;,
  0.000000;0.000000;,
  1.000000;0.000000;,
  1.000000;1.000000;,
  0.000000;1.000000;,
  1.000000;1.000000;,
  0.000000;1.000000;,
  0.000000;0.000000;,
  1.000000;0.000000;,
  0.000000;0.000000;,
  1.000000;0.000000;,
  1.000000;1.000000;,
  0.000000;1.000000;,
  0.859960;0.000000;,
  0.859960;1.000000;,
  0.000000;1.000000;,
  0.000000;0.000000;,
  0.000000;0.859960;,
  1.000000;0.000000;,
  1.000000;0.859960;,
  0.000000;0.140040;,
  1.000000;0.140040;,
  1.000000;1.000000;,
  0.140040;0.000000;,
  0.140040;1.000000;,
  0.140040;1.000000;,
  0.140040;0.000000;,
  0.000000;1.000000;,
  0.000000;1.000000;,
  0.000000;0.000000;,
  0.000000;0.000000;;
 }
}
