xof 0302txt 0064
template Header {
 <3D82AB43-62DA-11cf-AB39-0020AF71E433>
 WORD major;
 WORD minor;
 DWORD flags;
}

template Vector {
 <3D82AB5E-62DA-11cf-AB39-0020AF71E433>
 FLOAT x;
 FLOAT y;
 FLOAT z;
}

template Coords2d {
 <F6F23F44-7686-11cf-8F52-0040333594A3>
 FLOAT u;
 FLOAT v;
}

template Matrix4x4 {
 <F6F23F45-7686-11cf-8F52-0040333594A3>
 array FLOAT matrix[16];
}

template ColorRGBA {
 <35FF44E0-6C7C-11cf-8F52-0040333594A3>
 FLOAT red;
 FLOAT green;
 FLOAT blue;
 FLOAT alpha;
}

template ColorRGB {
 <D3E16E81-7835-11cf-8F52-0040333594A3>
 FLOAT red;
 FLOAT green;
 FLOAT blue;
}

template IndexedColor {
 <1630B820-7842-11cf-8F52-0040333594A3>
 DWORD index;
 ColorRGBA indexColor;
}

template Boolean {
 <4885AE61-78E8-11cf-8F52-0040333594A3>
 WORD truefalse;
}

template Boolean2d {
 <4885AE63-78E8-11cf-8F52-0040333594A3>
 Boolean u;
 Boolean v;
}

template MaterialWrap {
 <4885AE60-78E8-11cf-8F52-0040333594A3>
 Boolean u;
 Boolean v;
}

template TextureFilename {
 <A42790E1-7810-11cf-8F52-0040333594A3>
 STRING filename;
}

template Material {
 <3D82AB4D-62DA-11cf-AB39-0020AF71E433>
 ColorRGBA faceColor;
 FLOAT power;
 ColorRGB specularColor;
 ColorRGB emissiveColor;
 [...]
}

template MeshFace {
 <3D82AB5F-62DA-11cf-AB39-0020AF71E433>
 DWORD nFaceVertexIndices;
 array DWORD faceVertexIndices[nFaceVertexIndices];
}

template MeshFaceWraps {
 <4885AE62-78E8-11cf-8F52-0040333594A3>
 DWORD nFaceWrapValues;
 Boolean2d faceWrapValues;
}

template MeshTextureCoords {
 <F6F23F40-7686-11cf-8F52-0040333594A3>
 DWORD nTextureCoords;
 array Coords2d textureCoords[nTextureCoords];
}

template MeshMaterialList {
 <F6F23F42-7686-11cf-8F52-0040333594A3>
 DWORD nMaterials;
 DWORD nFaceIndexes;
 array DWORD faceIndexes[nFaceIndexes];
 [Material]
}

template MeshNormals {
 <F6F23F43-7686-11cf-8F52-0040333594A3>
 DWORD nNormals;
 array Vector normals[nNormals];
 DWORD nFaceNormals;
 array MeshFace faceNormals[nFaceNormals];
}

template MeshVertexColors {
 <1630B821-7842-11cf-8F52-0040333594A3>
 DWORD nVertexColors;
 array IndexedColor vertexColors[nVertexColors];
}

template Mesh {
 <3D82AB44-62DA-11cf-AB39-0020AF71E433>
 DWORD nVertices;
 array Vector vertices[nVertices];
 DWORD nFaces;
 array MeshFace faces[nFaces];
 [...]
}

Header{
1;
0;
1;
}

Mesh {
 56;
 100.23910;2.04785;250.00017;,
 0.23900;2.04785;250.00017;,
 0.23900;-2.04055;250.00017;,
 100.23910;-2.04055;250.00017;,
 0.23895;2.04785;-249.99982;,
 0.23895;-2.04055;-249.99982;,
 100.23905;2.04785;-249.99982;,
 100.23905;-2.04055;-249.99982;,
 114.24605;7.77185;250.00017;,
 98.49155;7.77185;250.00017;,
 98.49155;-2.59000;250.00017;,
 114.24605;-2.59000;250.00017;,
 98.49155;7.77185;250.00017;,
 98.49150;7.77185;-249.99982;,
 98.49150;-2.59000;-249.99982;,
 98.49155;-2.59000;250.00017;,
 98.49150;7.77185;-249.99982;,
 114.24600;7.77185;-249.99982;,
 114.24600;-2.59000;-249.99982;,
 98.49150;-2.59000;-249.99982;,
 114.24600;7.77185;-249.99982;,
 114.24605;7.77185;250.00017;,
 114.24605;-2.59000;250.00017;,
 114.24600;-2.59000;-249.99982;,
 98.49155;7.77185;250.00017;,
 114.24605;7.77185;250.00017;,
 114.24605;-2.59000;250.00017;,
 98.49155;-2.59000;250.00017;,
 0.23755;2.04785;250.00017;,
 -99.76245;2.04785;250.00017;,
 -99.76245;-2.04055;250.00017;,
 0.23755;-2.04055;250.00017;,
 -99.76250;2.04785;-249.99982;,
 -99.76250;-2.04055;-249.99982;,
 0.23750;2.04785;-249.99982;,
 0.23750;-2.04055;-249.99982;,
 -97.25395;7.77185;250.00017;,
 -113.50845;7.77185;250.00017;,
 -113.50845;-2.59000;250.00017;,
 -97.25395;-2.59000;250.00017;,
 -113.50845;7.77185;250.00017;,
 -113.50850;7.77185;-249.99982;,
 -113.50850;-2.59000;-249.99982;,
 -113.50845;-2.59000;250.00017;,
 -113.50850;7.77185;-249.99982;,
 -97.25400;7.77185;-249.99982;,
 -97.25400;-2.59000;-249.99982;,
 -113.50850;-2.59000;-249.99982;,
 -97.25400;7.77185;-249.99982;,
 -97.25395;7.77185;250.00017;,
 -97.25395;-2.59000;250.00017;,
 -97.25400;-2.59000;-249.99982;,
 -113.50845;7.77185;250.00017;,
 -97.25395;7.77185;250.00017;,
 -97.25395;-2.59000;250.00017;,
 -113.50845;-2.59000;250.00017;;
 
 24;
 4;0,1,2,3;,
 4;1,4,5,2;,
 4;4,6,7,5;,
 4;6,0,3,7;,
 4;6,4,1,0;,
 4;3,2,5,7;,
 4;8,9,10,11;,
 4;12,13,14,15;,
 4;16,17,18,19;,
 4;20,21,22,23;,
 4;20,13,24,25;,
 4;26,27,14,23;,
 4;28,29,30,31;,
 4;29,32,33,30;,
 4;32,34,35,33;,
 4;34,28,31,35;,
 4;34,32,29,28;,
 4;31,30,33,35;,
 4;36,37,38,39;,
 4;40,41,42,43;,
 4;44,45,46,47;,
 4;48,49,50,51;,
 4;48,41,52,53;,
 4;54,55,42,51;;
 
 MeshMaterialList {
  2;
  24;
  0,
  0,
  0,
  0,
  0,
  0,
  1,
  1,
  1,
  1,
  1,
  1,
  0,
  0,
  0,
  0,
  0,
  0,
  1,
  1,
  1,
  1,
  1,
  1;;
  Material {
   0.552000;0.552000;0.552000;1.000000;;
   0.000000;
   0.000000;0.000000;0.000000;;
   0.000000;0.000000;0.000000;;
   TextureFilename {
    "data/TEXTURE/flagstone.jpg";
   }
  }
  Material {
   0.432800;0.432800;0.432800;1.000000;;
   0.000000;
   0.000000;0.000000;0.000000;;
   0.000000;0.000000;0.000000;;
  }
 }
 MeshNormals {
  16;
  0.000000;0.000000;1.000000;,
  -1.000000;0.000000;0.000000;,
  0.000000;0.000000;-1.000000;,
  -1.000000;0.000000;0.000000;,
  1.000000;0.000000;-0.000000;,
  0.000000;1.000000;0.000000;,
  0.000000;-1.000000;0.000000;,
  1.000000;0.000000;-0.000000;,
  0.000000;0.000000;1.000000;,
  -1.000000;0.000000;0.000000;,
  0.000000;0.000000;-1.000000;,
  -1.000000;0.000000;0.000000;,
  1.000000;0.000000;-0.000000;,
  0.000000;1.000000;0.000000;,
  0.000000;-1.000000;0.000000;,
  1.000000;0.000000;-0.000000;;
  24;
  4;0,0,0,0;,
  4;1,1,1,1;,
  4;2,2,2,2;,
  4;4,4,4,4;,
  4;5,5,5,5;,
  4;6,6,6,6;,
  4;0,0,0,0;,
  4;3,3,3,3;,
  4;2,2,2,2;,
  4;7,7,7,7;,
  4;5,5,5,5;,
  4;6,6,6,6;,
  4;8,8,8,8;,
  4;9,9,9,9;,
  4;10,10,10,10;,
  4;12,12,12,12;,
  4;13,13,13,13;,
  4;14,14,14,14;,
  4;8,8,8,8;,
  4;11,11,11,11;,
  4;10,10,10,10;,
  4;15,15,15,15;,
  4;13,13,13,13;,
  4;14,14,14,14;;
 }
 MeshTextureCoords {
  56;
  1.001195;-1.999865;,
  0.501200;-1.999865;,
  0.501200;-2.358678;,
  1.001195;-2.358678;,
  0.501200;2.999835;,
  0.501200;2.641022;,
  1.001195;2.999835;,
  1.001195;2.641022;,
  0.000000;0.000000;,
  1.000000;0.000000;,
  1.000000;1.000000;,
  0.000000;1.000000;,
  0.000000;0.000000;,
  1.000000;0.000000;,
  1.000000;1.000000;,
  0.000000;1.000000;,
  0.000000;0.000000;,
  1.000000;0.000000;,
  1.000000;1.000000;,
  0.000000;1.000000;,
  0.000000;0.000000;,
  1.000000;0.000000;,
  1.000000;1.000000;,
  0.000000;1.000000;,
  1.000000;1.000000;,
  0.000000;1.000000;,
  0.000000;0.000000;,
  1.000000;0.000000;,
  0.501193;-1.999865;,
  0.001198;-1.999865;,
  0.001198;-2.358678;,
  0.501193;-2.358678;,
  0.001197;2.999835;,
  0.001197;2.641022;,
  0.501193;2.999835;,
  0.501193;2.641022;,
  0.000000;0.000000;,
  1.000000;0.000000;,
  1.000000;1.000000;,
  0.000000;1.000000;,
  0.000000;0.000000;,
  1.000000;0.000000;,
  1.000000;1.000000;,
  0.000000;1.000000;,
  0.000000;0.000000;,
  1.000000;0.000000;,
  1.000000;1.000000;,
  0.000000;1.000000;,
  0.000000;0.000000;,
  1.000000;0.000000;,
  1.000000;1.000000;,
  0.000000;1.000000;,
  1.000000;1.000000;,
  0.000000;1.000000;,
  0.000000;0.000000;,
  1.000000;0.000000;;
 }
}
