xof 0302txt 0064
template Header {
 <3D82AB43-62DA-11cf-AB39-0020AF71E433>
 WORD major;
 WORD minor;
 DWORD flags;
}

template Vector {
 <3D82AB5E-62DA-11cf-AB39-0020AF71E433>
 FLOAT x;
 FLOAT y;
 FLOAT z;
}

template Coords2d {
 <F6F23F44-7686-11cf-8F52-0040333594A3>
 FLOAT u;
 FLOAT v;
}

template Matrix4x4 {
 <F6F23F45-7686-11cf-8F52-0040333594A3>
 array FLOAT matrix[16];
}

template ColorRGBA {
 <35FF44E0-6C7C-11cf-8F52-0040333594A3>
 FLOAT red;
 FLOAT green;
 FLOAT blue;
 FLOAT alpha;
}

template ColorRGB {
 <D3E16E81-7835-11cf-8F52-0040333594A3>
 FLOAT red;
 FLOAT green;
 FLOAT blue;
}

template IndexedColor {
 <1630B820-7842-11cf-8F52-0040333594A3>
 DWORD index;
 ColorRGBA indexColor;
}

template Boolean {
 <4885AE61-78E8-11cf-8F52-0040333594A3>
 WORD truefalse;
}

template Boolean2d {
 <4885AE63-78E8-11cf-8F52-0040333594A3>
 Boolean u;
 Boolean v;
}

template MaterialWrap {
 <4885AE60-78E8-11cf-8F52-0040333594A3>
 Boolean u;
 Boolean v;
}

template TextureFilename {
 <A42790E1-7810-11cf-8F52-0040333594A3>
 STRING filename;
}

template Material {
 <3D82AB4D-62DA-11cf-AB39-0020AF71E433>
 ColorRGBA faceColor;
 FLOAT power;
 ColorRGB specularColor;
 ColorRGB emissiveColor;
 [...]
}

template MeshFace {
 <3D82AB5F-62DA-11cf-AB39-0020AF71E433>
 DWORD nFaceVertexIndices;
 array DWORD faceVertexIndices[nFaceVertexIndices];
}

template MeshFaceWraps {
 <4885AE62-78E8-11cf-8F52-0040333594A3>
 DWORD nFaceWrapValues;
 Boolean2d faceWrapValues;
}

template MeshTextureCoords {
 <F6F23F40-7686-11cf-8F52-0040333594A3>
 DWORD nTextureCoords;
 array Coords2d textureCoords[nTextureCoords];
}

template MeshMaterialList {
 <F6F23F42-7686-11cf-8F52-0040333594A3>
 DWORD nMaterials;
 DWORD nFaceIndexes;
 array DWORD faceIndexes[nFaceIndexes];
 [Material]
}

template MeshNormals {
 <F6F23F43-7686-11cf-8F52-0040333594A3>
 DWORD nNormals;
 array Vector normals[nNormals];
 DWORD nFaceNormals;
 array MeshFace faceNormals[nFaceNormals];
}

template MeshVertexColors {
 <1630B821-7842-11cf-8F52-0040333594A3>
 DWORD nVertexColors;
 array IndexedColor vertexColors[nVertexColors];
}

template Mesh {
 <3D82AB44-62DA-11cf-AB39-0020AF71E433>
 DWORD nVertices;
 array Vector vertices[nVertices];
 DWORD nFaces;
 array MeshFace faces[nFaces];
 [...]
}

Header{
1;
0;
1;
}

Mesh {
 610;
 -61.04715;114.03853;-67.13930;,
 60.43980;114.03853;-67.13930;,
 60.43980;99.59677;-67.13930;,
 -61.04715;99.59677;-67.13930;,
 60.43980;114.03853;-67.13930;,
 60.43980;114.03853;54.34765;,
 60.43980;99.59677;54.34765;,
 60.43980;99.59677;-67.13930;,
 60.43980;114.03853;54.34765;,
 -61.04715;114.03853;54.34765;,
 -61.04715;99.59677;54.34765;,
 60.43980;99.59677;54.34765;,
 -61.04715;114.03853;54.34765;,
 -61.04715;114.03853;-67.13930;,
 -61.04715;99.59677;-67.13930;,
 -61.04715;99.59677;54.34765;,
 60.43980;114.03853;-67.13930;,
 -61.04715;114.03853;-67.13930;,
 -61.04715;99.59677;-67.13930;,
 60.43980;99.59677;-67.13930;,
 -61.04715;272.71967;68.84980;,
 60.43980;272.71967;68.84980;,
 60.43980;272.71967;54.40815;,
 -61.04715;272.71967;54.40815;,
 60.43980;272.71967;68.84980;,
 60.43980;113.73310;68.84980;,
 60.43980;113.73310;54.40815;,
 60.43980;272.71967;54.40815;,
 60.43980;113.73310;68.84980;,
 -61.04715;113.73310;68.84980;,
 -61.04715;113.73310;54.40815;,
 60.43980;113.73310;54.40815;,
 -61.04715;113.73310;68.84980;,
 -61.04715;272.71967;68.84980;,
 -61.04715;272.71967;54.40815;,
 -61.04715;113.73310;54.40815;,
 60.43980;272.71967;68.84980;,
 -61.04715;272.71967;68.84980;,
 -61.04715;272.71967;54.40815;,
 60.43980;272.71967;54.40815;,
 -61.04715;114.03853;54.34130;,
 60.43980;114.03853;54.34130;,
 60.43980;99.59677;54.34130;,
 -61.04715;99.59677;54.34130;,
 60.43980;114.03853;54.34130;,
 60.43980;114.03853;68.85532;,
 60.43980;99.59677;68.85532;,
 60.43980;99.59677;54.34130;,
 60.43980;114.03853;68.85532;,
 -61.04715;114.03853;68.85532;,
 -61.04715;99.59677;68.85532;,
 60.43980;99.59677;68.85532;,
 -61.04715;114.03853;68.85532;,
 -61.04715;114.03853;54.34130;,
 -61.04715;99.59677;54.34130;,
 -61.04715;99.59677;68.85532;,
 60.43980;114.03853;54.34130;,
 -61.04715;114.03853;54.34130;,
 -61.04715;99.59677;54.34130;,
 60.43980;99.59677;54.34130;,
 -0.30367;100.16720;-24.93005;,
 12.80210;100.16720;-19.50160;,
 12.80210;22.22943;-19.50160;,
 -0.30367;22.22943;-24.93005;,
 18.23055;100.16720;-6.39582;,
 18.23055;22.22943;-6.39582;,
 12.80210;100.16720;6.70993;,
 12.80210;22.22943;6.70993;,
 -0.30367;100.16720;12.13840;,
 -0.30367;22.22943;12.13840;,
 -13.40942;100.16720;6.70993;,
 -13.40942;22.22943;6.70993;,
 -18.83790;100.16720;-6.39582;,
 -18.83790;22.22943;-6.39582;,
 -13.40942;100.16720;-19.50160;,
 -13.40942;22.22943;-19.50160;,
 -0.30367;100.16720;-24.93005;,
 -0.30367;22.22943;-24.93005;,
 -0.30367;100.16720;-6.39582;,
 -0.30367;100.16720;-6.39582;,
 -0.30367;100.16720;-6.39582;,
 -0.30367;100.16720;-6.39582;,
 -0.30367;100.16720;-6.39582;,
 -0.30367;100.16720;-6.39582;,
 -0.30367;100.16720;-6.39582;,
 -0.30367;100.16720;-6.39582;,
 -0.30367;22.22943;-6.39582;,
 -0.30367;22.22943;-6.39582;,
 -0.30367;22.22943;-6.39582;,
 -0.30367;22.22943;-6.39582;,
 -0.30367;22.22943;-6.39582;,
 -0.30367;22.22943;-6.39582;,
 -0.30367;22.22943;-6.39582;,
 -0.30367;22.22943;-6.39582;,
 -42.32333;13.76217;-55.46758;,
 -35.54282;13.76217;-60.04110;,
 -34.84980;9.57903;-59.01395;,
 -41.63033;9.57903;-54.44040;,
 -35.54282;13.76217;-60.04110;,
 -4.09560;30.42020;-13.41897;,
 -3.40278;26.23702;-12.39157;,
 -34.84980;9.57903;-59.01395;,
 -4.09560;30.42020;-13.41897;,
 -10.87613;30.42020;-8.84545;,
 -10.18330;26.23702;-7.81805;,
 -3.40278;26.23702;-12.39157;,
 -10.87613;30.42020;-8.84545;,
 -42.32333;13.76217;-55.46758;,
 -41.63033;9.57903;-54.44040;,
 -10.18330;26.23702;-7.81805;,
 -35.54282;13.76217;-60.04110;,
 -42.32333;13.76217;-55.46758;,
 -41.63033;9.57903;-54.44040;,
 -34.84980;9.57903;-59.01395;,
 36.80135;13.76217;-59.46328;,
 43.37603;13.76217;-54.59830;,
 42.63897;9.57903;-53.60220;,
 36.06435;9.57903;-58.46715;,
 43.37603;13.76217;-54.59830;,
 9.92510;30.42020;-9.39223;,
 9.18810;26.23702;-8.39610;,
 42.63897;9.57903;-53.60220;,
 9.92510;30.42020;-9.39223;,
 3.35068;30.42020;-14.25700;,
 2.61368;26.23702;-13.26110;,
 9.18810;26.23702;-8.39610;,
 3.35068;30.42020;-14.25700;,
 36.80135;13.76217;-59.46328;,
 36.06435;9.57903;-58.46715;,
 2.61368;26.23702;-13.26110;,
 43.37603;13.76217;-54.59830;,
 36.80135;13.76217;-59.46328;,
 36.06435;9.57903;-58.46715;,
 42.63897;9.57903;-53.60220;,
 46.65538;13.76217;34.76850;,
 41.02550;13.76217;40.70123;,
 40.12663;9.57903;39.84822;,
 45.75647;9.57903;33.91565;,
 41.02550;13.76217;40.70123;,
 0.23275;30.42020;1.99057;,
 -0.66593;26.23702;1.13752;,
 40.12663;9.57903;39.84822;,
 0.23275;30.42020;1.99057;,
 5.86285;30.42020;-3.94220;,
 4.96395;26.23702;-4.79502;,
 -0.66593;26.23702;1.13752;,
 5.86285;30.42020;-3.94220;,
 46.65538;13.76217;34.76850;,
 45.75647;9.57903;33.91565;,
 4.96395;26.23702;-4.79502;,
 41.02550;13.76217;40.70123;,
 46.65538;13.76217;34.76850;,
 45.75647;9.57903;33.91565;,
 40.12663;9.57903;39.84822;,
 38.22080;12.36235;-53.56605;,
 39.98032;11.86732;-55.32582;,
 38.22080;11.86732;-56.05452;,
 38.22080;12.36235;-53.56605;,
 40.70930;11.86732;-53.56605;,
 38.22080;12.36235;-53.56605;,
 39.98032;11.86732;-51.80650;,
 38.22080;12.36235;-53.56605;,
 38.22080;11.86732;-51.07750;,
 38.22080;12.36235;-53.56605;,
 36.46105;11.86732;-51.80650;,
 38.22080;12.36235;-53.56605;,
 35.73230;11.86732;-53.56605;,
 38.22080;12.36235;-53.56605;,
 36.46105;11.86732;-55.32582;,
 38.22080;12.36235;-53.56605;,
 38.22080;11.86732;-56.05452;,
 41.47208;10.45757;-56.81752;,
 38.22080;10.45757;-58.16428;,
 42.81885;10.45757;-53.56605;,
 41.47208;10.45757;-50.31472;,
 38.22080;10.45757;-48.96780;,
 34.96930;10.45757;-50.31472;,
 33.62255;10.45757;-53.56605;,
 34.96930;10.45757;-56.81752;,
 38.22080;10.45757;-58.16428;,
 42.46888;8.34807;-57.81425;,
 38.22080;8.34807;-59.57380;,
 44.22860;8.34807;-53.56605;,
 42.46888;8.34807;-49.31800;,
 38.22080;8.34807;-47.55822;,
 33.97255;8.34807;-49.31800;,
 32.21280;8.34807;-53.56605;,
 33.97255;8.34807;-57.81425;,
 38.22080;8.34807;-59.57380;,
 42.81885;5.85932;-58.16428;,
 38.22080;5.85932;-60.06882;,
 44.72358;5.85932;-53.56605;,
 42.81885;5.85932;-48.96780;,
 38.22080;5.85932;-47.06325;,
 33.62255;5.85932;-48.96803;,
 31.71782;5.85932;-53.56605;,
 33.62255;5.85932;-58.16428;,
 38.22080;5.85932;-60.06882;,
 42.46888;3.37077;-57.81425;,
 38.22080;3.37077;-59.57380;,
 44.22860;3.37077;-53.56605;,
 42.46888;3.37077;-49.31800;,
 38.22080;3.37077;-47.55822;,
 33.97255;3.37077;-49.31800;,
 32.21280;3.37077;-53.56605;,
 33.97255;3.37077;-57.81425;,
 38.22080;3.37077;-59.57380;,
 41.47208;1.26130;-56.81752;,
 38.22080;1.26130;-58.16428;,
 42.81885;1.26130;-53.56605;,
 41.47208;1.26130;-50.31472;,
 38.22080;1.26130;-48.96780;,
 34.96930;1.26130;-50.31472;,
 33.62255;1.26130;-53.56605;,
 34.96930;1.26130;-56.81752;,
 38.22080;1.26130;-58.16428;,
 39.98032;-0.14842;-55.32582;,
 38.22080;-0.14842;-56.05452;,
 40.70930;-0.14842;-53.56605;,
 39.98032;-0.14842;-51.80650;,
 38.22080;-0.14842;-51.07750;,
 36.46105;-0.14842;-51.80650;,
 35.73230;-0.14842;-53.56605;,
 36.46105;-0.14842;-55.32582;,
 38.22080;-0.14842;-56.05452;,
 38.22080;-0.64342;-53.56605;,
 38.22080;-0.64342;-53.56605;,
 38.22080;-0.64342;-53.56605;,
 38.22080;-0.64342;-53.56605;,
 38.22080;-0.64342;-53.56605;,
 38.22080;-0.64342;-53.56605;,
 38.22080;-0.64342;-53.56605;,
 38.22080;-0.64342;-53.56605;,
 -39.44638;13.76217;43.24175;,
 -45.93520;13.76217;38.26285;,
 -45.18065;9.57903;37.27982;,
 -38.69202;9.57903;42.25870;,
 -45.93520;13.76217;38.26285;,
 -11.70040;30.42020;-6.35273;,
 -10.94608;26.23702;-7.33572;,
 -45.18065;9.57903;37.27982;,
 -11.70040;30.42020;-6.35273;,
 -5.21177;30.42020;-1.37360;,
 -4.45745;26.23702;-2.35683;,
 -10.94608;26.23702;-7.33572;,
 -5.21177;30.42020;-1.37360;,
 -39.44638;13.76217;43.24175;,
 -38.69202;9.57903;42.25870;,
 -4.45745;26.23702;-2.35683;,
 -45.93520;13.76217;38.26285;,
 -39.44638;13.76217;43.24175;,
 -38.69202;9.57903;42.25870;,
 -45.18065;9.57903;37.27982;,
 -37.11763;12.36235;-53.56605;,
 -35.35790;11.86732;-55.32582;,
 -37.11763;11.86732;-56.05452;,
 -37.11763;12.36235;-53.56605;,
 -34.62912;11.86732;-53.56605;,
 -37.11763;12.36235;-53.56605;,
 -35.35790;11.86732;-51.80650;,
 -37.11763;12.36235;-53.56605;,
 -37.11763;11.86732;-51.07750;,
 -37.11763;12.36235;-53.56605;,
 -38.87740;11.86732;-51.80650;,
 -37.11763;12.36235;-53.56605;,
 -39.60612;11.86732;-53.56605;,
 -37.11763;12.36235;-53.56605;,
 -38.87740;11.86732;-55.32582;,
 -37.11763;12.36235;-53.56605;,
 -37.11763;11.86732;-56.05452;,
 -33.86612;10.45757;-56.81752;,
 -37.11763;10.45757;-58.16428;,
 -32.51937;10.45757;-53.56605;,
 -33.86612;10.45757;-50.31472;,
 -37.11763;10.45757;-48.96780;,
 -40.36913;10.45757;-50.31472;,
 -41.71590;10.45757;-53.56605;,
 -40.36913;10.45757;-56.81752;,
 -37.11763;10.45757;-58.16428;,
 -32.86940;8.34807;-57.81425;,
 -37.11763;8.34807;-59.57380;,
 -31.10985;8.34807;-53.56605;,
 -32.86940;8.34807;-49.31800;,
 -37.11763;8.34807;-47.55822;,
 -41.36588;8.34807;-49.31800;,
 -43.12545;8.34807;-53.56605;,
 -41.36588;8.34807;-57.81425;,
 -37.11763;8.34807;-59.57380;,
 -32.51937;5.85932;-58.16428;,
 -37.11763;5.85932;-60.06882;,
 -30.61488;5.85932;-53.56605;,
 -32.51937;5.85932;-48.96780;,
 -37.11763;5.85932;-47.06325;,
 -41.71590;5.85932;-48.96803;,
 -43.62045;5.85932;-53.56605;,
 -41.71590;5.85932;-58.16428;,
 -37.11763;5.85932;-60.06882;,
 -32.86940;3.37077;-57.81425;,
 -37.11763;3.37077;-59.57380;,
 -31.10985;3.37077;-53.56605;,
 -32.86940;3.37077;-49.31800;,
 -37.11763;3.37077;-47.55822;,
 -41.36588;3.37077;-49.31800;,
 -43.12545;3.37077;-53.56605;,
 -41.36588;3.37077;-57.81425;,
 -37.11763;3.37077;-59.57380;,
 -33.86612;1.26130;-56.81752;,
 -37.11763;1.26130;-58.16428;,
 -32.51937;1.26130;-53.56605;,
 -33.86612;1.26130;-50.31472;,
 -37.11763;1.26130;-48.96780;,
 -40.36913;1.26130;-50.31472;,
 -41.71590;1.26130;-53.56605;,
 -40.36913;1.26130;-56.81752;,
 -37.11763;1.26130;-58.16428;,
 -35.35790;-0.14842;-55.32582;,
 -37.11763;-0.14842;-56.05452;,
 -34.62912;-0.14842;-53.56605;,
 -35.35790;-0.14842;-51.80650;,
 -37.11763;-0.14842;-51.07750;,
 -38.87740;-0.14842;-51.80650;,
 -39.60612;-0.14842;-53.56605;,
 -38.87740;-0.14842;-55.32582;,
 -37.11763;-0.14842;-56.05452;,
 -37.11763;-0.64342;-53.56605;,
 -37.11763;-0.64342;-53.56605;,
 -37.11763;-0.64342;-53.56605;,
 -37.11763;-0.64342;-53.56605;,
 -37.11763;-0.64342;-53.56605;,
 -37.11763;-0.64342;-53.56605;,
 -37.11763;-0.64342;-53.56605;,
 -37.11763;-0.64342;-53.56605;,
 -41.02773;12.36235;38.49785;,
 -39.26797;11.86732;36.73810;,
 -41.02773;11.86732;36.00935;,
 -41.02773;12.36235;38.49785;,
 -38.53925;11.86732;38.49785;,
 -41.02773;12.36235;38.49785;,
 -39.26797;11.86732;40.25737;,
 -41.02773;12.36235;38.49785;,
 -41.02773;11.86732;40.98635;,
 -41.02773;12.36235;38.49785;,
 -42.78727;11.86732;40.25737;,
 -41.02773;12.36235;38.49785;,
 -43.51625;11.86732;38.49785;,
 -41.02773;12.36235;38.49785;,
 -42.78727;11.86732;36.73810;,
 -41.02773;12.36235;38.49785;,
 -41.02773;11.86732;36.00935;,
 -37.77623;10.45757;35.24635;,
 -41.02773;10.45757;33.89960;,
 -36.42950;10.45757;38.49785;,
 -37.77623;10.45757;41.74918;,
 -41.02773;10.45757;43.09613;,
 -44.27925;10.45757;41.74918;,
 -45.62598;10.45757;38.49785;,
 -44.27925;10.45757;35.24635;,
 -41.02773;10.45757;33.89960;,
 -36.77945;8.34807;34.24963;,
 -41.02773;8.34807;32.49005;,
 -35.01992;8.34807;38.49785;,
 -36.77945;8.34807;42.74590;,
 -41.02773;8.34807;44.50563;,
 -45.27600;8.34807;42.74590;,
 -47.03553;8.34807;38.49785;,
 -45.27600;8.34807;34.24963;,
 -41.02773;8.34807;32.49005;,
 -36.42950;5.85932;33.89960;,
 -41.02773;5.85932;31.99508;,
 -34.52493;5.85932;38.49785;,
 -36.42950;5.85932;43.09613;,
 -41.02773;5.85932;45.00068;,
 -45.62598;5.85932;43.09592;,
 -47.53053;5.85932;38.49785;,
 -45.62598;5.85932;33.89960;,
 -41.02773;5.85932;31.99508;,
 -36.77945;3.37077;34.24963;,
 -41.02773;3.37077;32.49005;,
 -35.01992;3.37077;38.49785;,
 -36.77945;3.37077;42.74590;,
 -41.02773;3.37077;44.50563;,
 -45.27600;3.37077;42.74590;,
 -47.03553;3.37077;38.49785;,
 -45.27600;3.37077;34.24963;,
 -41.02773;3.37077;32.49005;,
 -37.77623;1.26130;35.24635;,
 -41.02773;1.26130;33.89960;,
 -36.42950;1.26130;38.49785;,
 -37.77623;1.26130;41.74918;,
 -41.02773;1.26130;43.09613;,
 -44.27925;1.26130;41.74918;,
 -45.62598;1.26130;38.49785;,
 -44.27925;1.26130;35.24635;,
 -41.02773;1.26130;33.89960;,
 -39.26797;-0.14842;36.73810;,
 -41.02773;-0.14842;36.00935;,
 -38.53925;-0.14842;38.49785;,
 -39.26797;-0.14842;40.25737;,
 -41.02773;-0.14842;40.98635;,
 -42.78727;-0.14842;40.25737;,
 -43.51625;-0.14842;38.49785;,
 -42.78727;-0.14842;36.73810;,
 -41.02773;-0.14842;36.00935;,
 -41.02773;-0.64342;38.49785;,
 -41.02773;-0.64342;38.49785;,
 -41.02773;-0.64342;38.49785;,
 -41.02773;-0.64342;38.49785;,
 -41.02773;-0.64342;38.49785;,
 -41.02773;-0.64342;38.49785;,
 -41.02773;-0.64342;38.49785;,
 -41.02773;-0.64342;38.49785;,
 42.58045;12.36235;35.57293;,
 44.34003;11.86732;33.81337;,
 42.58045;11.86732;33.08443;,
 42.58045;12.36235;35.57293;,
 45.06900;11.86732;35.57293;,
 42.58045;12.36235;35.57293;,
 44.34003;11.86732;37.33265;,
 42.58045;12.36235;35.57293;,
 42.58045;11.86732;38.06140;,
 42.58045;12.36235;35.57293;,
 40.82070;11.86732;37.33265;,
 42.58045;12.36235;35.57293;,
 40.09190;11.86732;35.57293;,
 42.58045;12.36235;35.57293;,
 40.82070;11.86732;33.81337;,
 42.58045;12.36235;35.57293;,
 42.58045;11.86732;33.08443;,
 45.83175;10.45757;32.32160;,
 42.58045;10.45757;30.97462;,
 47.17847;10.45757;35.57293;,
 45.83175;10.45757;38.82440;,
 42.58045;10.45757;40.17115;,
 39.32895;10.45757;38.82440;,
 37.98217;10.45757;35.57293;,
 39.32895;10.45757;32.32160;,
 42.58045;10.45757;30.97462;,
 46.82853;8.34807;31.32465;,
 42.58045;8.34807;29.56510;,
 48.58820;8.34807;35.57293;,
 46.82853;8.34807;39.82115;,
 42.58045;8.34807;41.58067;,
 38.33218;8.34807;39.82115;,
 36.57245;8.34807;35.57293;,
 38.33218;8.34807;31.32465;,
 42.58045;8.34807;29.56510;,
 47.17847;5.85932;30.97462;,
 42.58045;5.85932;29.07013;,
 49.08323;5.85932;35.57293;,
 47.17847;5.85932;40.17115;,
 42.58045;5.85932;42.07570;,
 37.98217;5.85932;40.17115;,
 36.07745;5.85932;35.57293;,
 37.98217;5.85932;30.97462;,
 42.58045;5.85932;29.07013;,
 46.82853;3.37077;31.32465;,
 42.58045;3.37077;29.56510;,
 48.58820;3.37077;35.57293;,
 46.82853;3.37077;39.82115;,
 42.58045;3.37077;41.58067;,
 38.33218;3.37077;39.82115;,
 36.57245;3.37077;35.57293;,
 38.33218;3.37077;31.32465;,
 42.58045;3.37077;29.56510;,
 45.83175;1.26130;32.32160;,
 42.58045;1.26130;30.97462;,
 47.17847;1.26130;35.57293;,
 45.83175;1.26130;38.82440;,
 42.58045;1.26130;40.17115;,
 39.32895;1.26130;38.82440;,
 37.98217;1.26130;35.57293;,
 39.32895;1.26130;32.32160;,
 42.58045;1.26130;30.97462;,
 44.34003;-0.14842;33.81337;,
 42.58045;-0.14842;33.08443;,
 45.06900;-0.14842;35.57293;,
 44.34003;-0.14842;37.33265;,
 42.58045;-0.14842;38.06140;,
 40.82070;-0.14842;37.33265;,
 40.09190;-0.14842;35.57293;,
 40.82070;-0.14842;33.81337;,
 42.58045;-0.14842;33.08443;,
 42.58045;-0.64342;35.57293;,
 42.58045;-0.64342;35.57293;,
 42.58045;-0.64342;35.57293;,
 42.58045;-0.64342;35.57293;,
 42.58045;-0.64342;35.57293;,
 42.58045;-0.64342;35.57293;,
 42.58045;-0.64342;35.57293;,
 42.58045;-0.64342;35.57293;,
 60.51823;156.55193;-31.89952;,
 71.22490;156.55193;-31.89952;,
 71.22490;146.41672;-31.89952;,
 60.51823;146.41672;-31.89952;,
 71.22490;156.55193;-31.89952;,
 71.22490;156.55193;19.10785;,
 71.22490;146.41672;19.10785;,
 71.22490;146.41672;-31.89952;,
 71.22490;156.55193;19.10785;,
 60.51823;156.55193;19.10785;,
 60.51823;146.41672;19.10785;,
 71.22490;146.41672;19.10785;,
 60.51823;156.55193;19.10785;,
 60.51823;156.55193;-31.89952;,
 60.51823;146.41672;-31.89952;,
 60.51823;146.41672;19.10785;,
 71.22490;156.55193;-31.89952;,
 60.51823;156.55193;-31.89952;,
 60.51823;146.41672;-31.89952;,
 71.22490;146.41672;-31.89952;,
 60.51823;156.61298;-38.88992;,
 71.22490;156.61298;-38.88992;,
 71.22490;99.69020;-38.88992;,
 60.51823;99.69020;-38.88992;,
 71.22490;156.61298;-38.88992;,
 71.22490;156.61298;-31.95235;,
 71.22490;99.69020;-31.95235;,
 71.22490;99.69020;-38.88992;,
 71.22490;156.61298;-31.95235;,
 60.51823;156.61298;-31.95235;,
 60.51823;99.69020;-31.95235;,
 71.22490;99.69020;-31.95235;,
 60.51823;156.61298;-31.95235;,
 60.51823;156.61298;-38.88992;,
 60.51823;99.69020;-38.88992;,
 60.51823;99.69020;-31.95235;,
 71.22490;156.61298;-38.88992;,
 60.51823;156.61298;-38.88992;,
 60.51823;99.69020;-38.88992;,
 71.22490;99.69020;-38.88992;,
 60.51823;156.61298;19.08460;,
 71.22490;156.61298;19.08460;,
 71.22490;99.69020;19.08460;,
 60.51823;99.69020;19.08460;,
 71.22490;156.61298;19.08460;,
 71.22490;156.61298;26.02217;,
 71.22490;99.69020;26.02217;,
 71.22490;99.69020;19.08460;,
 71.22490;156.61298;26.02217;,
 60.51823;156.61298;26.02217;,
 60.51823;99.69020;26.02217;,
 71.22490;99.69020;26.02217;,
 60.51823;156.61298;26.02217;,
 60.51823;156.61298;19.08460;,
 60.51823;99.69020;19.08460;,
 60.51823;99.69020;26.02217;,
 71.22490;156.61298;19.08460;,
 60.51823;156.61298;19.08460;,
 60.51823;99.69020;19.08460;,
 71.22490;99.69020;19.08460;,
 -71.10665;156.63347;-31.89952;,
 -60.39997;156.63347;-31.89952;,
 -60.39997;146.54860;-31.89952;,
 -71.10665;146.54860;-31.89952;,
 -60.39997;156.63347;-31.89952;,
 -60.39997;156.63347;19.10785;,
 -60.39997;146.54860;19.10785;,
 -60.39997;146.54860;-31.89952;,
 -60.39997;156.63347;19.10785;,
 -71.10665;156.63347;19.10785;,
 -71.10665;146.54860;19.10785;,
 -60.39997;146.54860;19.10785;,
 -71.10665;156.63347;19.10785;,
 -71.10665;156.63347;-31.89952;,
 -71.10665;146.54860;-31.89952;,
 -71.10665;146.54860;19.10785;,
 -60.39997;156.63347;-31.89952;,
 -71.10665;156.63347;-31.89952;,
 -71.10665;146.54860;-31.89952;,
 -60.39997;146.54860;-31.89952;,
 -71.06458;156.61298;-38.88992;,
 -60.35790;156.61298;-38.88992;,
 -60.35790;99.69020;-38.88992;,
 -71.06458;99.69020;-38.88992;,
 -60.35790;156.61298;-38.88992;,
 -60.35790;156.61298;-31.95235;,
 -60.35790;99.69020;-31.95235;,
 -60.35790;99.69020;-38.88992;,
 -60.35790;156.61298;-31.95235;,
 -71.06458;156.61298;-31.95235;,
 -71.06458;99.69020;-31.95235;,
 -60.35790;99.69020;-31.95235;,
 -71.06458;156.61298;-31.95235;,
 -71.06458;156.61298;-38.88992;,
 -71.06458;99.69020;-38.88992;,
 -71.06458;99.69020;-31.95235;,
 -60.35790;156.61298;-38.88992;,
 -71.06458;156.61298;-38.88992;,
 -71.06458;99.69020;-38.88992;,
 -60.35790;99.69020;-38.88992;,
 -71.14342;156.61298;19.08460;,
 -60.43675;156.61298;19.08460;,
 -60.43675;99.69020;19.08460;,
 -71.14342;99.69020;19.08460;,
 -60.43675;156.61298;19.08460;,
 -60.43675;156.61298;26.02217;,
 -60.43675;99.69020;26.02217;,
 -60.43675;99.69020;19.08460;,
 -60.43675;156.61298;26.02217;,
 -71.14342;156.61298;26.02217;,
 -71.14342;99.69020;26.02217;,
 -60.43675;99.69020;26.02217;,
 -71.14342;156.61298;26.02217;,
 -71.14342;156.61298;19.08460;,
 -71.14342;99.69020;19.08460;,
 -71.14342;99.69020;26.02217;,
 -60.43675;156.61298;19.08460;,
 -71.14342;156.61298;19.08460;,
 -71.14342;99.69020;19.08460;,
 -60.43675;99.69020;19.08460;;
 
 358;
 4;0,1,2,3;,
 4;4,5,6,7;,
 4;8,9,10,11;,
 4;12,13,14,15;,
 4;12,5,16,17;,
 4;18,19,6,15;,
 4;20,21,22,23;,
 4;24,25,26,27;,
 4;28,29,30,31;,
 4;32,33,34,35;,
 4;32,25,36,37;,
 4;38,39,26,35;,
 4;40,41,42,43;,
 4;44,45,46,47;,
 4;48,49,50,51;,
 4;52,53,54,55;,
 4;52,45,56,57;,
 4;58,59,46,55;,
 4;60,61,62,63;,
 4;61,64,65,62;,
 4;64,66,67,65;,
 4;66,68,69,67;,
 4;68,70,71,69;,
 4;70,72,73,71;,
 4;72,74,75,73;,
 4;74,76,77,75;,
 3;78,61,60;,
 3;79,64,61;,
 3;80,66,64;,
 3;81,68,66;,
 3;82,70,68;,
 3;83,72,70;,
 3;84,74,72;,
 3;85,76,74;,
 3;86,63,62;,
 3;87,62,65;,
 3;88,65,67;,
 3;89,67,69;,
 3;90,69,71;,
 3;91,71,73;,
 3;92,73,75;,
 3;93,75,77;,
 4;94,95,96,97;,
 4;98,99,100,101;,
 4;102,103,104,105;,
 4;106,107,108,109;,
 4;106,99,110,111;,
 4;112,113,100,109;,
 4;114,115,116,117;,
 4;118,119,120,121;,
 4;122,123,124,125;,
 4;126,127,128,129;,
 4;126,119,130,131;,
 4;132,133,120,129;,
 4;134,135,136,137;,
 4;138,139,140,141;,
 4;142,143,144,145;,
 4;146,147,148,149;,
 4;146,139,150,151;,
 4;152,153,140,149;,
 3;154,155,156;,
 3;157,158,155;,
 3;159,160,158;,
 3;161,162,160;,
 3;163,164,162;,
 3;165,166,164;,
 3;167,168,166;,
 3;169,170,168;,
 4;156,155,171,172;,
 4;155,158,173,171;,
 4;158,160,174,173;,
 4;160,162,175,174;,
 4;162,164,176,175;,
 4;164,166,177,176;,
 4;166,168,178,177;,
 4;168,170,179,178;,
 4;172,171,180,181;,
 4;171,173,182,180;,
 4;173,174,183,182;,
 4;174,175,184,183;,
 4;175,176,185,184;,
 4;176,177,186,185;,
 4;177,178,187,186;,
 4;178,179,188,187;,
 4;181,180,189,190;,
 4;180,182,191,189;,
 4;182,183,192,191;,
 4;183,184,193,192;,
 4;184,185,194,193;,
 4;185,186,195,194;,
 4;186,187,196,195;,
 4;187,188,197,196;,
 4;190,189,198,199;,
 4;189,191,200,198;,
 4;191,192,201,200;,
 4;192,193,202,201;,
 4;193,194,203,202;,
 4;194,195,204,203;,
 4;195,196,205,204;,
 4;196,197,206,205;,
 4;199,198,207,208;,
 4;198,200,209,207;,
 4;200,201,210,209;,
 4;201,202,211,210;,
 4;202,203,212,211;,
 4;203,204,213,212;,
 4;204,205,214,213;,
 4;205,206,215,214;,
 4;208,207,216,217;,
 4;207,209,218,216;,
 4;209,210,219,218;,
 4;210,211,220,219;,
 4;211,212,221,220;,
 4;212,213,222,221;,
 4;213,214,223,222;,
 4;214,215,224,223;,
 3;217,216,225;,
 3;216,218,226;,
 3;218,219,227;,
 3;219,220,228;,
 3;220,221,229;,
 3;221,222,230;,
 3;222,223,231;,
 3;223,224,232;,
 4;233,234,235,236;,
 4;237,238,239,240;,
 4;241,242,243,244;,
 4;245,246,247,248;,
 4;245,238,249,250;,
 4;251,252,239,248;,
 3;253,254,255;,
 3;256,257,254;,
 3;258,259,257;,
 3;260,261,259;,
 3;262,263,261;,
 3;264,265,263;,
 3;266,267,265;,
 3;268,269,267;,
 4;255,254,270,271;,
 4;254,257,272,270;,
 4;257,259,273,272;,
 4;259,261,274,273;,
 4;261,263,275,274;,
 4;263,265,276,275;,
 4;265,267,277,276;,
 4;267,269,278,277;,
 4;271,270,279,280;,
 4;270,272,281,279;,
 4;272,273,282,281;,
 4;273,274,283,282;,
 4;274,275,284,283;,
 4;275,276,285,284;,
 4;276,277,286,285;,
 4;277,278,287,286;,
 4;280,279,288,289;,
 4;279,281,290,288;,
 4;281,282,291,290;,
 4;282,283,292,291;,
 4;283,284,293,292;,
 4;284,285,294,293;,
 4;285,286,295,294;,
 4;286,287,296,295;,
 4;289,288,297,298;,
 4;288,290,299,297;,
 4;290,291,300,299;,
 4;291,292,301,300;,
 4;292,293,302,301;,
 4;293,294,303,302;,
 4;294,295,304,303;,
 4;295,296,305,304;,
 4;298,297,306,307;,
 4;297,299,308,306;,
 4;299,300,309,308;,
 4;300,301,310,309;,
 4;301,302,311,310;,
 4;302,303,312,311;,
 4;303,304,313,312;,
 4;304,305,314,313;,
 4;307,306,315,316;,
 4;306,308,317,315;,
 4;308,309,318,317;,
 4;309,310,319,318;,
 4;310,311,320,319;,
 4;311,312,321,320;,
 4;312,313,322,321;,
 4;313,314,323,322;,
 3;316,315,324;,
 3;315,317,325;,
 3;317,318,326;,
 3;318,319,327;,
 3;319,320,328;,
 3;320,321,329;,
 3;321,322,330;,
 3;322,323,331;,
 3;332,333,334;,
 3;335,336,333;,
 3;337,338,336;,
 3;339,340,338;,
 3;341,342,340;,
 3;343,344,342;,
 3;345,346,344;,
 3;347,348,346;,
 4;334,333,349,350;,
 4;333,336,351,349;,
 4;336,338,352,351;,
 4;338,340,353,352;,
 4;340,342,354,353;,
 4;342,344,355,354;,
 4;344,346,356,355;,
 4;346,348,357,356;,
 4;350,349,358,359;,
 4;349,351,360,358;,
 4;351,352,361,360;,
 4;352,353,362,361;,
 4;353,354,363,362;,
 4;354,355,364,363;,
 4;355,356,365,364;,
 4;356,357,366,365;,
 4;359,358,367,368;,
 4;358,360,369,367;,
 4;360,361,370,369;,
 4;361,362,371,370;,
 4;362,363,372,371;,
 4;363,364,373,372;,
 4;364,365,374,373;,
 4;365,366,375,374;,
 4;368,367,376,377;,
 4;367,369,378,376;,
 4;369,370,379,378;,
 4;370,371,380,379;,
 4;371,372,381,380;,
 4;372,373,382,381;,
 4;373,374,383,382;,
 4;374,375,384,383;,
 4;377,376,385,386;,
 4;376,378,387,385;,
 4;378,379,388,387;,
 4;379,380,389,388;,
 4;380,381,390,389;,
 4;381,382,391,390;,
 4;382,383,392,391;,
 4;383,384,393,392;,
 4;386,385,394,395;,
 4;385,387,396,394;,
 4;387,388,397,396;,
 4;388,389,398,397;,
 4;389,390,399,398;,
 4;390,391,400,399;,
 4;391,392,401,400;,
 4;392,393,402,401;,
 3;395,394,403;,
 3;394,396,404;,
 3;396,397,405;,
 3;397,398,406;,
 3;398,399,407;,
 3;399,400,408;,
 3;400,401,409;,
 3;401,402,410;,
 3;411,412,413;,
 3;414,415,412;,
 3;416,417,415;,
 3;418,419,417;,
 3;420,421,419;,
 3;422,423,421;,
 3;424,425,423;,
 3;426,427,425;,
 4;413,412,428,429;,
 4;412,415,430,428;,
 4;415,417,431,430;,
 4;417,419,432,431;,
 4;419,421,433,432;,
 4;421,423,434,433;,
 4;423,425,435,434;,
 4;425,427,436,435;,
 4;429,428,437,438;,
 4;428,430,439,437;,
 4;430,431,440,439;,
 4;431,432,441,440;,
 4;432,433,442,441;,
 4;433,434,443,442;,
 4;434,435,444,443;,
 4;435,436,445,444;,
 4;438,437,446,447;,
 4;437,439,448,446;,
 4;439,440,449,448;,
 4;440,441,450,449;,
 4;441,442,451,450;,
 4;442,443,452,451;,
 4;443,444,453,452;,
 4;444,445,454,453;,
 4;447,446,455,456;,
 4;446,448,457,455;,
 4;448,449,458,457;,
 4;449,450,459,458;,
 4;450,451,460,459;,
 4;451,452,461,460;,
 4;452,453,462,461;,
 4;453,454,463,462;,
 4;456,455,464,465;,
 4;455,457,466,464;,
 4;457,458,467,466;,
 4;458,459,468,467;,
 4;459,460,469,468;,
 4;460,461,470,469;,
 4;461,462,471,470;,
 4;462,463,472,471;,
 4;465,464,473,474;,
 4;464,466,475,473;,
 4;466,467,476,475;,
 4;467,468,477,476;,
 4;468,469,478,477;,
 4;469,470,479,478;,
 4;470,471,480,479;,
 4;471,472,481,480;,
 3;474,473,482;,
 3;473,475,483;,
 3;475,476,484;,
 3;476,477,485;,
 3;477,478,486;,
 3;478,479,487;,
 3;479,480,488;,
 3;480,481,489;,
 4;490,491,492,493;,
 4;494,495,496,497;,
 4;498,499,500,501;,
 4;502,503,504,505;,
 4;502,495,506,507;,
 4;508,509,496,505;,
 4;510,511,512,513;,
 4;514,515,516,517;,
 4;518,519,520,521;,
 4;522,523,524,525;,
 4;522,515,526,527;,
 4;528,529,516,525;,
 4;530,531,532,533;,
 4;534,535,536,537;,
 4;538,539,540,541;,
 4;542,543,544,545;,
 4;542,535,546,547;,
 4;548,549,536,545;,
 4;550,551,552,553;,
 4;554,555,556,557;,
 4;558,559,560,561;,
 4;562,563,564,565;,
 4;562,555,566,567;,
 4;568,569,556,565;,
 4;570,571,572,573;,
 4;574,575,576,577;,
 4;578,579,580,581;,
 4;582,583,584,585;,
 4;582,575,586,587;,
 4;588,589,576,585;,
 4;590,591,592,593;,
 4;594,595,596,597;,
 4;598,599,600,601;,
 4;602,603,604,605;,
 4;602,595,606,607;,
 4;608,609,596,605;;
 
 MeshMaterialList {
  4;
  358;
  1,
  1,
  1,
  1,
  1,
  1,
  1,
  1,
  1,
  1,
  1,
  1,
  1,
  1,
  1,
  1,
  1,
  1,
  0,
  0,
  0,
  0,
  0,
  0,
  0,
  0,
  1,
  1,
  1,
  1,
  1,
  1,
  1,
  1,
  0,
  0,
  0,
  0,
  0,
  0,
  0,
  0,
  3,
  3,
  0,
  3,
  3,
  3,
  3,
  3,
  0,
  3,
  3,
  3,
  3,
  3,
  0,
  3,
  3,
  3,
  3,
  3,
  3,
  3,
  3,
  3,
  3,
  3,
  0,
  0,
  0,
  0,
  0,
  0,
  0,
  0,
  0,
  0,
  0,
  0,
  0,
  0,
  0,
  0,
  0,
  0,
  0,
  0,
  0,
  0,
  0,
  0,
  0,
  0,
  0,
  0,
  0,
  0,
  0,
  0,
  0,
  0,
  0,
  0,
  0,
  0,
  0,
  0,
  0,
  0,
  0,
  0,
  0,
  0,
  0,
  0,
  0,
  0,
  0,
  0,
  0,
  0,
  0,
  0,
  3,
  3,
  0,
  3,
  3,
  3,
  0,
  0,
  0,
  0,
  0,
  0,
  0,
  0,
  0,
  0,
  0,
  0,
  0,
  0,
  0,
  0,
  0,
  0,
  0,
  0,
  0,
  0,
  0,
  0,
  0,
  0,
  0,
  0,
  0,
  0,
  0,
  0,
  0,
  0,
  0,
  0,
  0,
  0,
  0,
  0,
  0,
  0,
  0,
  0,
  0,
  0,
  0,
  0,
  0,
  0,
  0,
  0,
  0,
  0,
  0,
  0,
  0,
  0,
  0,
  0,
  0,
  0,
  0,
  0,
  3,
  3,
  3,
  3,
  3,
  3,
  3,
  3,
  0,
  0,
  0,
  0,
  0,
  0,
  0,
  0,
  0,
  0,
  0,
  0,
  0,
  0,
  0,
  0,
  0,
  0,
  0,
  0,
  0,
  0,
  0,
  0,
  0,
  0,
  0,
  0,
  0,
  0,
  0,
  0,
  0,
  0,
  0,
  0,
  0,
  0,
  0,
  0,
  0,
  0,
  0,
  0,
  0,
  0,
  0,
  0,
  0,
  0,
  0,
  0,
  0,
  0,
  0,
  0,
  0,
  0,
  0,
  0,
  0,
  0,
  0,
  0,
  0,
  0,
  0,
  0,
  0,
  0,
  0,
  0,
  0,
  0,
  0,
  0,
  0,
  0,
  0,
  0,
  0,
  0,
  0,
  0,
  0,
  0,
  0,
  0,
  0,
  0,
  0,
  0,
  0,
  0,
  0,
  0,
  0,
  0,
  0,
  0,
  0,
  0,
  0,
  0,
  0,
  0,
  0,
  0,
  0,
  0,
  0,
  0,
  0,
  0,
  0,
  0,
  0,
  0,
  0,
  0,
  1,
  1,
  1,
  1,
  1,
  1,
  1,
  1,
  1,
  1,
  1,
  1,
  1,
  1,
  1,
  1,
  1,
  1,
  1,
  1,
  1,
  1,
  1,
  1,
  1,
  1,
  1,
  1,
  1,
  1,
  1,
  1,
  1,
  1,
  1,
  1;;
  Material {
   0.000000;0.000000;0.000000;1.000000;;
   5.000000;
   0.000000;0.000000;0.000000;;
   0.000000;0.000000;0.000000;;
  }
  Material {
   0.552000;0.552000;0.552000;1.000000;;
   5.000000;
   0.000000;0.000000;0.000000;;
   0.000000;0.000000;0.000000;;
  }
  Material {
   0.800000;0.800000;0.800000;1.000000;;
   5.000000;
   0.000000;0.000000;0.000000;;
   0.000000;0.000000;0.000000;;
  }
  Material {
   1.000000;1.000000;1.000000;1.000000;;
   0.000000;
   0.000000;0.000000;0.000000;;
   0.000000;0.000000;0.000000;;
  }
 }
 MeshNormals {
  270;
  0.000000;0.000000;-1.000000;,
  1.000000;0.000000;0.000000;,
  0.000000;0.000000;1.000000;,
  0.000000;1.000000;0.000000;,
  0.000000;-1.000000;0.000000;,
  -0.000000;0.000000;-1.000000;,
  0.707107;0.000000;-0.707107;,
  1.000000;0.000000;0.000000;,
  0.707107;0.000000;0.707106;,
  -0.000000;0.000000;1.000000;,
  -0.707107;0.000000;0.707107;,
  -1.000000;0.000000;0.000000;,
  -0.707106;0.000000;-0.707107;,
  -0.536168;-0.284011;-0.794897;,
  0.829037;0.000003;-0.559194;,
  0.536163;0.284029;0.794894;,
  0.570325;-0.284021;-0.770754;,
  0.803857;0.000011;0.594822;,
  -0.570336;0.283999;0.770754;,
  0.695502;-0.284024;0.660005;,
  -0.688358;-0.000019;0.725371;,
  -0.695499;0.284009;-0.660016;,
  0.000002;1.000000;0.000001;,
  0.000007;0.924723;-0.380641;,
  0.269145;0.924725;-0.269156;,
  0.380636;0.924725;0.000006;,
  0.269160;0.924722;0.269151;,
  0.000007;0.924730;0.380623;,
  -0.269154;0.924728;0.269138;,
  -0.380632;0.924727;0.000007;,
  -0.269137;0.924731;-0.269142;,
  0.000009;0.709216;-0.704992;,
  0.498491;0.709227;-0.498502;,
  0.704971;0.709236;0.000007;,
  0.498504;0.709226;0.498491;,
  0.000008;0.709233;0.704974;,
  -0.498499;0.709230;0.498489;,
  -0.704970;0.709237;0.000007;,
  -0.498486;0.709232;-0.498499;,
  0.000008;0.384549;-0.923105;,
  0.652724;0.384558;-0.652737;,
  0.923095;0.384571;0.000004;,
  0.652731;0.384566;0.652726;,
  0.000002;0.384559;0.923100;,
  -0.652731;0.384551;0.652735;,
  -0.923098;0.384565;0.000006;,
  -0.652719;0.384558;-0.652743;,
  0.000007;-0.000008;-1.000000;,
  0.707099;-0.000008;-0.707114;,
  1.000000;-0.000008;0.000002;,
  0.707106;-0.000008;0.707108;,
  -0.000005;-0.000008;1.000000;,
  -0.707103;-0.000008;0.707110;,
  -1.000000;-0.000008;0.000007;,
  -0.707093;-0.000008;-0.707120;,
  0.000008;-0.384560;-0.923100;,
  0.652722;-0.384569;-0.652734;,
  0.923091;-0.384581;0.000004;,
  0.652728;-0.384576;0.652724;,
  0.000002;-0.384569;0.923096;,
  -0.652728;-0.384561;0.652732;,
  -0.923093;-0.384576;0.000007;,
  -0.652716;-0.384569;-0.652739;,
  0.000009;-0.709226;-0.704981;,
  0.498486;-0.709235;-0.498496;,
  0.704968;-0.709239;0.000008;,
  0.498503;-0.709228;0.498489;,
  0.000009;-0.709237;0.704970;,
  -0.498497;-0.709234;0.498486;,
  -0.704968;-0.709239;0.000007;,
  -0.498483;-0.709239;-0.498493;,
  0.000008;-0.924729;-0.380626;,
  0.269138;-0.924730;-0.269147;,
  0.380630;-0.924727;0.000007;,
  0.269157;-0.924724;0.269146;,
  0.000007;-0.924733;0.380615;,
  -0.269149;-0.924730;0.269133;,
  -0.380628;-0.924728;0.000006;,
  -0.269132;-0.924735;-0.269134;,
  0.000002;-1.000000;0.000001;,
  -0.583683;-0.284031;0.760684;,
  -0.793349;-0.000025;-0.608767;,
  0.583699;0.284025;-0.760674;,
  0.000000;1.000000;0.000001;,
  0.000002;0.924724;-0.380639;,
  0.269136;0.924731;-0.269143;,
  0.380630;0.924727;0.000007;,
  0.269153;0.924727;0.269139;,
  0.000001;0.924729;0.380626;,
  -0.269153;0.924728;0.269138;,
  -0.380631;0.924727;0.000007;,
  -0.269134;0.924733;-0.269138;,
  0.000002;0.709216;-0.704991;,
  0.498494;0.709227;-0.498500;,
  0.704985;0.709223;0.000007;,
  0.498508;0.709224;0.498489;,
  0.000000;0.709229;0.704978;,
  -0.498506;0.709225;0.498490;,
  -0.704982;0.709225;0.000007;,
  -0.498491;0.709231;-0.498496;,
  0.000001;0.384549;-0.923105;,
  0.652733;0.384552;-0.652732;,
  0.923105;0.384548;0.000004;,
  0.652739;0.384559;0.652722;,
  -0.000005;0.384558;0.923101;,
  -0.652741;0.384548;0.652727;,
  -0.923104;0.384551;0.000006;,
  -0.652729;0.384555;-0.652734;,
  0.000001;-0.000008;-1.000000;,
  0.707108;-0.000008;-0.707106;,
  1.000000;-0.000007;0.000002;,
  0.707114;-0.000007;0.707099;,
  -0.000011;-0.000008;1.000000;,
  -0.707115;-0.000008;0.707099;,
  -1.000000;-0.000008;0.000007;,
  -0.707105;-0.000008;-0.707109;,
  0.000001;-0.384558;-0.923101;,
  0.652730;-0.384562;-0.652730;,
  0.923101;-0.384557;0.000004;,
  0.652736;-0.384568;0.652719;,
  -0.000005;-0.384567;0.923097;,
  -0.652739;-0.384557;0.652724;,
  -0.923100;-0.384560;0.000007;,
  -0.652726;-0.384565;-0.652732;,
  0.000001;-0.709224;-0.704983;,
  0.498491;-0.709232;-0.498494;,
  0.704982;-0.709225;0.000006;,
  0.498505;-0.709228;0.498486;,
  0.000001;-0.709234;0.704973;,
  -0.498503;-0.709230;0.498486;,
  -0.704980;-0.709227;0.000006;,
  -0.498490;-0.709233;-0.498494;,
  0.000001;-0.924728;-0.380627;,
  0.269131;-0.924735;-0.269135;,
  0.380624;-0.924730;0.000006;,
  0.269147;-0.924731;0.269133;,
  0.000001;-0.924733;0.380617;,
  -0.269147;-0.924731;0.269131;,
  -0.380626;-0.924729;0.000005;,
  -0.269132;-0.924735;-0.269134;,
  0.000000;-1.000000;0.000001;,
  -0.000001;1.000000;0.000002;,
  -0.000004;0.924726;-0.380633;,
  0.269142;0.924731;-0.269139;,
  0.380637;0.924725;0.000007;,
  0.269154;0.924728;0.269137;,
  -0.000004;0.924731;0.380621;,
  -0.269146;0.924728;0.269145;,
  -0.380614;0.924734;0.000007;,
  -0.269132;0.924732;-0.269145;,
  -0.000001;0.709222;-0.704985;,
  0.498496;0.709230;-0.498493;,
  0.704984;0.709223;0.000008;,
  0.498507;0.709226;0.498486;,
  -0.000002;0.709232;0.704976;,
  -0.498499;0.709230;0.498490;,
  -0.704971;0.709236;0.000008;,
  -0.498487;0.709235;-0.498494;,
  0.000001;0.384544;-0.923106;,
  0.652733;0.384552;-0.652732;,
  0.923104;0.384551;0.000005;,
  0.652736;0.384564;0.652723;,
  -0.000005;0.384562;0.923099;,
  -0.652742;0.384549;0.652725;,
  -0.923106;0.384546;0.000007;,
  -0.652733;0.384552;-0.652732;,
  0.000001;-0.000008;-1.000000;,
  0.707107;-0.000007;-0.707107;,
  1.000000;-0.000007;0.000002;,
  0.707111;-0.000008;0.707102;,
  -0.000010;-0.000008;1.000000;,
  -0.707115;-0.000008;0.707098;,
  -1.000000;-0.000008;0.000007;,
  -0.707107;-0.000008;-0.707107;,
  0.000000;-0.384554;-0.923102;,
  0.652730;-0.384562;-0.652729;,
  0.923100;-0.384561;0.000005;,
  0.652733;-0.384573;0.652720;,
  -0.000005;-0.384570;0.923096;,
  -0.652739;-0.384557;0.652723;,
  -0.923102;-0.384555;0.000007;,
  -0.652731;-0.384561;-0.652729;,
  -0.000002;-0.709228;-0.704979;,
  0.498491;-0.709237;-0.498487;,
  0.704978;-0.709229;0.000007;,
  0.498503;-0.709233;0.498482;,
  -0.000002;-0.709236;0.704971;,
  -0.498499;-0.709231;0.498488;,
  -0.704969;-0.709238;0.000009;,
  -0.498483;-0.709239;-0.498491;,
  -0.000005;-0.924730;-0.380623;,
  0.269135;-0.924735;-0.269131;,
  0.380627;-0.924729;0.000006;,
  0.269147;-0.924732;0.269130;,
  -0.000004;-0.924735;0.380612;,
  -0.269143;-0.924730;0.269141;,
  -0.380609;-0.924736;0.000008;,
  -0.269127;-0.924735;-0.269140;,
  -0.000001;-1.000000;0.000002;,
  0.000002;1.000000;-0.000001;,
  0.000006;0.924731;-0.380622;,
  0.269161;0.924721;-0.269152;,
  0.380642;0.924723;-0.000007;,
  0.269146;0.924726;0.269153;,
  0.000006;0.924726;0.380632;,
  -0.269138;0.924731;0.269143;,
  -0.380631;0.924727;-0.000005;,
  -0.269149;0.924728;-0.269140;,
  0.000008;0.709247;-0.704961;,
  0.498503;0.709231;-0.498484;,
  0.704979;0.709228;-0.000005;,
  0.498493;0.709229;0.498497;,
  0.000008;0.709224;0.704983;,
  -0.498484;0.709235;0.498497;,
  -0.704969;0.709238;-0.000004;,
  -0.498490;0.709241;-0.498483;,
  0.000008;0.384567;-0.923097;,
  0.652729;0.384569;-0.652726;,
  0.923097;0.384568;0.000001;,
  0.652727;0.384558;0.652735;,
  0.000008;0.384549;0.923105;,
  -0.652718;0.384561;0.652743;,
  -0.923095;0.384571;0.000001;,
  -0.652720;0.384571;-0.652734;,
  0.000009;-0.000008;-1.000000;,
  0.707101;-0.000008;-0.707113;,
  1.000000;-0.000008;0.000003;,
  0.707100;-0.000008;0.707114;,
  0.000009;-0.000008;1.000000;,
  -0.707092;-0.000008;0.707121;,
  -1.000000;-0.000008;0.000003;,
  -0.707093;-0.000008;-0.707120;,
  0.000009;-0.384573;-0.923095;,
  0.652727;-0.384575;-0.652725;,
  0.923093;-0.384577;0.000001;,
  0.652724;-0.384566;0.652733;,
  0.000008;-0.384557;0.923101;,
  -0.652715;-0.384569;0.652740;,
  -0.923091;-0.384581;0.000001;,
  -0.652717;-0.384581;-0.652731;,
  0.000009;-0.709249;-0.704958;,
  0.498500;-0.709234;-0.498482;,
  0.704974;-0.709233;-0.000005;,
  0.498492;-0.709231;0.498496;,
  0.000008;-0.709224;0.704983;,
  -0.498480;-0.709239;0.498496;,
  -0.704962;-0.709245;-0.000004;,
  -0.498486;-0.709246;-0.498479;,
  0.000006;-0.924734;-0.380614;,
  0.269155;-0.924725;-0.269147;,
  0.380633;-0.924726;-0.000007;,
  0.269141;-0.924728;0.269149;,
  0.000006;-0.924728;0.380629;,
  -0.269131;-0.924734;0.269138;,
  -0.380621;-0.924731;-0.000006;,
  -0.269143;-0.924732;-0.269135;,
  0.000002;-1.000000;-0.000001;,
  -1.000000;0.000000;0.000000;,
  -0.829038;0.000000;0.559193;,
  -0.158820;0.958820;-0.235459;,
  0.158819;-0.958820;0.235458;,
  -0.803858;-0.000001;-0.594821;,
  0.168938;0.958820;-0.228308;,
  -0.168941;-0.958820;0.228306;,
  0.688348;-0.000030;-0.725380;,
  0.206017;0.958820;0.195503;,
  -0.206016;-0.958820;-0.195504;,
  0.793355;-0.000008;0.608759;,
  -0.172898;0.958820;0.225324;,
  0.172897;-0.958820;-0.225324;;
  358;
  4;0,0,0,0;,
  4;1,1,1,1;,
  4;2,2,2,2;,
  4;257,257,257,257;,
  4;3,3,3,3;,
  4;4,4,4,4;,
  4;3,3,3,3;,
  4;1,1,1,1;,
  4;4,4,4,4;,
  4;257,257,257,257;,
  4;2,2,2,2;,
  4;0,0,0,0;,
  4;0,0,0,0;,
  4;1,1,1,1;,
  4;2,2,2,2;,
  4;257,257,257,257;,
  4;3,3,3,3;,
  4;4,4,4,4;,
  4;5,6,6,5;,
  4;6,7,7,6;,
  4;7,8,8,7;,
  4;8,9,9,8;,
  4;9,10,10,9;,
  4;10,11,11,10;,
  4;11,12,12,11;,
  4;12,5,5,12;,
  3;3,3,3;,
  3;3,3,3;,
  3;3,3,3;,
  3;3,3,3;,
  3;3,3,3;,
  3;3,3,3;,
  3;3,3,3;,
  3;3,3,3;,
  3;4,4,4;,
  3;4,4,4;,
  3;4,4,4;,
  3;4,4,4;,
  3;4,4,4;,
  3;4,4,4;,
  3;4,4,4;,
  3;4,4,4;,
  4;13,13,13,13;,
  4;14,14,14,14;,
  4;15,15,15,15;,
  4;258,258,258,258;,
  4;259,259,259,259;,
  4;260,260,260,260;,
  4;16,16,16,16;,
  4;17,17,17,17;,
  4;18,18,18,18;,
  4;261,261,261,261;,
  4;262,262,262,262;,
  4;263,263,263,263;,
  4;19,19,19,19;,
  4;20,20,20,20;,
  4;21,21,21,21;,
  4;264,264,264,264;,
  4;265,265,265,265;,
  4;266,266,266,266;,
  3;22,24,23;,
  3;22,25,24;,
  3;22,26,25;,
  3;22,27,26;,
  3;22,28,27;,
  3;22,29,28;,
  3;22,30,29;,
  3;22,23,30;,
  4;23,24,32,31;,
  4;24,25,33,32;,
  4;25,26,34,33;,
  4;26,27,35,34;,
  4;27,28,36,35;,
  4;28,29,37,36;,
  4;29,30,38,37;,
  4;30,23,31,38;,
  4;31,32,40,39;,
  4;32,33,41,40;,
  4;33,34,42,41;,
  4;34,35,43,42;,
  4;35,36,44,43;,
  4;36,37,45,44;,
  4;37,38,46,45;,
  4;38,31,39,46;,
  4;39,40,48,47;,
  4;40,41,49,48;,
  4;41,42,50,49;,
  4;42,43,51,50;,
  4;43,44,52,51;,
  4;44,45,53,52;,
  4;45,46,54,53;,
  4;46,39,47,54;,
  4;47,48,56,55;,
  4;48,49,57,56;,
  4;49,50,58,57;,
  4;50,51,59,58;,
  4;51,52,60,59;,
  4;52,53,61,60;,
  4;53,54,62,61;,
  4;54,47,55,62;,
  4;55,56,64,63;,
  4;56,57,65,64;,
  4;57,58,66,65;,
  4;58,59,67,66;,
  4;59,60,68,67;,
  4;60,61,69,68;,
  4;61,62,70,69;,
  4;62,55,63,70;,
  4;63,64,72,71;,
  4;64,65,73,72;,
  4;65,66,74,73;,
  4;66,67,75,74;,
  4;67,68,76,75;,
  4;68,69,77,76;,
  4;69,70,78,77;,
  4;70,63,71,78;,
  3;71,72,79;,
  3;72,73,79;,
  3;73,74,79;,
  3;74,75,79;,
  3;75,76,79;,
  3;76,77,79;,
  3;77,78,79;,
  3;78,71,79;,
  4;80,80,80,80;,
  4;81,81,81,81;,
  4;82,82,82,82;,
  4;267,267,267,267;,
  4;268,268,268,268;,
  4;269,269,269,269;,
  3;83,85,84;,
  3;83,86,85;,
  3;83,87,86;,
  3;83,88,87;,
  3;83,89,88;,
  3;83,90,89;,
  3;83,91,90;,
  3;83,84,91;,
  4;84,85,93,92;,
  4;85,86,94,93;,
  4;86,87,95,94;,
  4;87,88,96,95;,
  4;88,89,97,96;,
  4;89,90,98,97;,
  4;90,91,99,98;,
  4;91,84,92,99;,
  4;92,93,101,100;,
  4;93,94,102,101;,
  4;94,95,103,102;,
  4;95,96,104,103;,
  4;96,97,105,104;,
  4;97,98,106,105;,
  4;98,99,107,106;,
  4;99,92,100,107;,
  4;100,101,109,108;,
  4;101,102,110,109;,
  4;102,103,111,110;,
  4;103,104,112,111;,
  4;104,105,113,112;,
  4;105,106,114,113;,
  4;106,107,115,114;,
  4;107,100,108,115;,
  4;108,109,117,116;,
  4;109,110,118,117;,
  4;110,111,119,118;,
  4;111,112,120,119;,
  4;112,113,121,120;,
  4;113,114,122,121;,
  4;114,115,123,122;,
  4;115,108,116,123;,
  4;116,117,125,124;,
  4;117,118,126,125;,
  4;118,119,127,126;,
  4;119,120,128,127;,
  4;120,121,129,128;,
  4;121,122,130,129;,
  4;122,123,131,130;,
  4;123,116,124,131;,
  4;124,125,133,132;,
  4;125,126,134,133;,
  4;126,127,135,134;,
  4;127,128,136,135;,
  4;128,129,137,136;,
  4;129,130,138,137;,
  4;130,131,139,138;,
  4;131,124,132,139;,
  3;132,133,140;,
  3;133,134,140;,
  3;134,135,140;,
  3;135,136,140;,
  3;136,137,140;,
  3;137,138,140;,
  3;138,139,140;,
  3;139,132,140;,
  3;141,143,142;,
  3;141,144,143;,
  3;141,145,144;,
  3;141,146,145;,
  3;141,147,146;,
  3;141,148,147;,
  3;141,149,148;,
  3;141,142,149;,
  4;142,143,151,150;,
  4;143,144,152,151;,
  4;144,145,153,152;,
  4;145,146,154,153;,
  4;146,147,155,154;,
  4;147,148,156,155;,
  4;148,149,157,156;,
  4;149,142,150,157;,
  4;150,151,159,158;,
  4;151,152,160,159;,
  4;152,153,161,160;,
  4;153,154,162,161;,
  4;154,155,163,162;,
  4;155,156,164,163;,
  4;156,157,165,164;,
  4;157,150,158,165;,
  4;158,159,167,166;,
  4;159,160,168,167;,
  4;160,161,169,168;,
  4;161,162,170,169;,
  4;162,163,171,170;,
  4;163,164,172,171;,
  4;164,165,173,172;,
  4;165,158,166,173;,
  4;166,167,175,174;,
  4;167,168,176,175;,
  4;168,169,177,176;,
  4;169,170,178,177;,
  4;170,171,179,178;,
  4;171,172,180,179;,
  4;172,173,181,180;,
  4;173,166,174,181;,
  4;174,175,183,182;,
  4;175,176,184,183;,
  4;176,177,185,184;,
  4;177,178,186,185;,
  4;178,179,187,186;,
  4;179,180,188,187;,
  4;180,181,189,188;,
  4;181,174,182,189;,
  4;182,183,191,190;,
  4;183,184,192,191;,
  4;184,185,193,192;,
  4;185,186,194,193;,
  4;186,187,195,194;,
  4;187,188,196,195;,
  4;188,189,197,196;,
  4;189,182,190,197;,
  3;190,191,198;,
  3;191,192,198;,
  3;192,193,198;,
  3;193,194,198;,
  3;194,195,198;,
  3;195,196,198;,
  3;196,197,198;,
  3;197,190,198;,
  3;199,201,200;,
  3;199,202,201;,
  3;199,203,202;,
  3;199,204,203;,
  3;199,205,204;,
  3;199,206,205;,
  3;199,207,206;,
  3;199,200,207;,
  4;200,201,209,208;,
  4;201,202,210,209;,
  4;202,203,211,210;,
  4;203,204,212,211;,
  4;204,205,213,212;,
  4;205,206,214,213;,
  4;206,207,215,214;,
  4;207,200,208,215;,
  4;208,209,217,216;,
  4;209,210,218,217;,
  4;210,211,219,218;,
  4;211,212,220,219;,
  4;212,213,221,220;,
  4;213,214,222,221;,
  4;214,215,223,222;,
  4;215,208,216,223;,
  4;216,217,225,224;,
  4;217,218,226,225;,
  4;218,219,227,226;,
  4;219,220,228,227;,
  4;220,221,229,228;,
  4;221,222,230,229;,
  4;222,223,231,230;,
  4;223,216,224,231;,
  4;224,225,233,232;,
  4;225,226,234,233;,
  4;226,227,235,234;,
  4;227,228,236,235;,
  4;228,229,237,236;,
  4;229,230,238,237;,
  4;230,231,239,238;,
  4;231,224,232,239;,
  4;232,233,241,240;,
  4;233,234,242,241;,
  4;234,235,243,242;,
  4;235,236,244,243;,
  4;236,237,245,244;,
  4;237,238,246,245;,
  4;238,239,247,246;,
  4;239,232,240,247;,
  4;240,241,249,248;,
  4;241,242,250,249;,
  4;242,243,251,250;,
  4;243,244,252,251;,
  4;244,245,253,252;,
  4;245,246,254,253;,
  4;246,247,255,254;,
  4;247,240,248,255;,
  3;248,249,256;,
  3;249,250,256;,
  3;250,251,256;,
  3;251,252,256;,
  3;252,253,256;,
  3;253,254,256;,
  3;254,255,256;,
  3;255,248,256;,
  4;0,0,0,0;,
  4;1,1,1,1;,
  4;2,2,2,2;,
  4;257,257,257,257;,
  4;3,3,3,3;,
  4;4,4,4,4;,
  4;0,0,0,0;,
  4;1,1,1,1;,
  4;2,2,2,2;,
  4;257,257,257,257;,
  4;3,3,3,3;,
  4;4,4,4,4;,
  4;0,0,0,0;,
  4;1,1,1,1;,
  4;2,2,2,2;,
  4;257,257,257,257;,
  4;3,3,3,3;,
  4;4,4,4,4;,
  4;0,0,0,0;,
  4;1,1,1,1;,
  4;2,2,2,2;,
  4;257,257,257,257;,
  4;3,3,3,3;,
  4;4,4,4,4;,
  4;0,0,0,0;,
  4;1,1,1,1;,
  4;2,2,2,2;,
  4;257,257,257,257;,
  4;3,3,3,3;,
  4;4,4,4,4;,
  4;0,0,0,0;,
  4;1,1,1,1;,
  4;2,2,2,2;,
  4;257,257,257,257;,
  4;3,3,3,3;,
  4;4,4,4,4;;
 }
 MeshTextureCoords {
  610;
  0.000000;0.000000;,
  1.000000;0.000000;,
  1.000000;1.000000;,
  0.000000;1.000000;,
  0.000000;0.000000;,
  1.000000;0.000000;,
  1.000000;1.000000;,
  0.000000;1.000000;,
  0.000000;0.000000;,
  1.000000;0.000000;,
  1.000000;1.000000;,
  0.000000;1.000000;,
  0.000000;0.000000;,
  1.000000;0.000000;,
  1.000000;1.000000;,
  0.000000;1.000000;,
  1.000000;1.000000;,
  0.000000;1.000000;,
  0.000000;0.000000;,
  1.000000;0.000000;,
  0.000000;0.000000;,
  1.000000;0.000000;,
  1.000000;1.000000;,
  0.000000;1.000000;,
  0.000000;0.000000;,
  1.000000;0.000000;,
  1.000000;1.000000;,
  0.000000;1.000000;,
  0.000000;0.000000;,
  1.000000;0.000000;,
  1.000000;1.000000;,
  0.000000;1.000000;,
  0.000000;0.000000;,
  1.000000;0.000000;,
  1.000000;1.000000;,
  0.000000;1.000000;,
  1.000000;1.000000;,
  0.000000;1.000000;,
  0.000000;0.000000;,
  1.000000;0.000000;,
  0.000000;0.000000;,
  1.000000;0.000000;,
  1.000000;1.000000;,
  0.000000;1.000000;,
  0.000000;0.000000;,
  1.000000;0.000000;,
  1.000000;1.000000;,
  0.000000;1.000000;,
  0.000000;0.000000;,
  1.000000;0.000000;,
  1.000000;1.000000;,
  0.000000;1.000000;,
  0.000000;0.000000;,
  1.000000;0.000000;,
  1.000000;1.000000;,
  0.000000;1.000000;,
  1.000000;1.000000;,
  0.000000;1.000000;,
  0.000000;0.000000;,
  1.000000;0.000000;,
  0.000000;0.000000;,
  0.125000;0.000000;,
  0.125000;1.000000;,
  0.000000;1.000000;,
  0.250000;0.000000;,
  0.250000;1.000000;,
  0.375000;0.000000;,
  0.375000;1.000000;,
  0.500000;0.000000;,
  0.500000;1.000000;,
  0.625000;0.000000;,
  0.625000;1.000000;,
  0.750000;0.000000;,
  0.750000;1.000000;,
  0.875000;0.000000;,
  0.875000;1.000000;,
  1.000000;0.000000;,
  1.000000;1.000000;,
  0.062500;0.000000;,
  0.187500;0.000000;,
  0.312500;0.000000;,
  0.437500;0.000000;,
  0.562500;0.000000;,
  0.687500;0.000000;,
  0.812500;0.000000;,
  0.937500;0.000000;,
  0.062500;1.000000;,
  0.187500;1.000000;,
  0.312500;1.000000;,
  0.437500;1.000000;,
  0.562500;1.000000;,
  0.687500;1.000000;,
  0.812500;1.000000;,
  0.937500;1.000000;,
  0.000000;0.000000;,
  1.000000;0.000000;,
  1.000000;1.000000;,
  0.000000;1.000000;,
  0.000000;0.000000;,
  1.000000;0.000000;,
  1.000000;1.000000;,
  0.000000;1.000000;,
  0.000000;0.000000;,
  1.000000;0.000000;,
  1.000000;1.000000;,
  0.000000;1.000000;,
  0.000000;0.000000;,
  1.000000;0.000000;,
  1.000000;1.000000;,
  0.000000;1.000000;,
  1.000000;1.000000;,
  0.000000;1.000000;,
  0.000000;0.000000;,
  1.000000;0.000000;,
  0.000000;0.000000;,
  1.000000;0.000000;,
  1.000000;1.000000;,
  0.000000;1.000000;,
  0.000000;0.000000;,
  1.000000;0.000000;,
  1.000000;1.000000;,
  0.000000;1.000000;,
  0.000000;0.000000;,
  1.000000;0.000000;,
  1.000000;1.000000;,
  0.000000;1.000000;,
  0.000000;0.000000;,
  1.000000;0.000000;,
  1.000000;1.000000;,
  0.000000;1.000000;,
  1.000000;1.000000;,
  0.000000;1.000000;,
  0.000000;0.000000;,
  1.000000;0.000000;,
  0.000000;0.000000;,
  1.000000;0.000000;,
  1.000000;1.000000;,
  0.000000;1.000000;,
  0.000000;0.000000;,
  1.000000;0.000000;,
  1.000000;1.000000;,
  0.000000;1.000000;,
  0.000000;0.000000;,
  1.000000;0.000000;,
  1.000000;1.000000;,
  0.000000;1.000000;,
  0.000000;0.000000;,
  1.000000;0.000000;,
  1.000000;1.000000;,
  0.000000;1.000000;,
  1.000000;1.000000;,
  0.000000;1.000000;,
  0.000000;0.000000;,
  1.000000;0.000000;,
  0.062500;0.000000;,
  0.125000;0.125000;,
  0.000000;0.125000;,
  0.187500;0.000000;,
  0.250000;0.125000;,
  0.312500;0.000000;,
  0.375000;0.125000;,
  0.437500;0.000000;,
  0.500000;0.125000;,
  0.562500;0.000000;,
  0.625000;0.125000;,
  0.687500;0.000000;,
  0.750000;0.125000;,
  0.812500;0.000000;,
  0.875000;0.125000;,
  0.937500;0.000000;,
  1.000000;0.125000;,
  0.125000;0.250000;,
  0.000000;0.250000;,
  0.250000;0.250000;,
  0.375000;0.250000;,
  0.500000;0.250000;,
  0.625000;0.250000;,
  0.750000;0.250000;,
  0.875000;0.250000;,
  1.000000;0.250000;,
  0.125000;0.375000;,
  0.000000;0.375000;,
  0.250000;0.375000;,
  0.375000;0.375000;,
  0.500000;0.375000;,
  0.625000;0.375000;,
  0.750000;0.375000;,
  0.875000;0.375000;,
  1.000000;0.375000;,
  0.125000;0.500000;,
  0.000000;0.500000;,
  0.250000;0.500000;,
  0.375000;0.500000;,
  0.500000;0.500000;,
  0.625000;0.500000;,
  0.750000;0.500000;,
  0.875000;0.500000;,
  1.000000;0.500000;,
  0.125000;0.625000;,
  0.000000;0.625000;,
  0.250000;0.625000;,
  0.375000;0.625000;,
  0.500000;0.625000;,
  0.625000;0.625000;,
  0.750000;0.625000;,
  0.875000;0.625000;,
  1.000000;0.625000;,
  0.125000;0.750000;,
  0.000000;0.750000;,
  0.250000;0.750000;,
  0.375000;0.750000;,
  0.500000;0.750000;,
  0.625000;0.750000;,
  0.750000;0.750000;,
  0.875000;0.750000;,
  1.000000;0.750000;,
  0.125000;0.875000;,
  0.000000;0.875000;,
  0.250000;0.875000;,
  0.375000;0.875000;,
  0.500000;0.875000;,
  0.625000;0.875000;,
  0.750000;0.875000;,
  0.875000;0.875000;,
  1.000000;0.875000;,
  0.062500;1.000000;,
  0.187500;1.000000;,
  0.312500;1.000000;,
  0.437500;1.000000;,
  0.562500;1.000000;,
  0.687500;1.000000;,
  0.812500;1.000000;,
  0.937500;1.000000;,
  0.000000;0.000000;,
  1.000000;0.000000;,
  1.000000;1.000000;,
  0.000000;1.000000;,
  0.000000;0.000000;,
  1.000000;0.000000;,
  1.000000;1.000000;,
  0.000000;1.000000;,
  0.000000;0.000000;,
  1.000000;0.000000;,
  1.000000;1.000000;,
  0.000000;1.000000;,
  0.000000;0.000000;,
  1.000000;0.000000;,
  1.000000;1.000000;,
  0.000000;1.000000;,
  1.000000;1.000000;,
  0.000000;1.000000;,
  0.000000;0.000000;,
  1.000000;0.000000;,
  0.062500;0.000000;,
  0.125000;0.125000;,
  0.000000;0.125000;,
  0.187500;0.000000;,
  0.250000;0.125000;,
  0.312500;0.000000;,
  0.375000;0.125000;,
  0.437500;0.000000;,
  0.500000;0.125000;,
  0.562500;0.000000;,
  0.625000;0.125000;,
  0.687500;0.000000;,
  0.750000;0.125000;,
  0.812500;0.000000;,
  0.875000;0.125000;,
  0.937500;0.000000;,
  1.000000;0.125000;,
  0.125000;0.250000;,
  0.000000;0.250000;,
  0.250000;0.250000;,
  0.375000;0.250000;,
  0.500000;0.250000;,
  0.625000;0.250000;,
  0.750000;0.250000;,
  0.875000;0.250000;,
  1.000000;0.250000;,
  0.125000;0.375000;,
  0.000000;0.375000;,
  0.250000;0.375000;,
  0.375000;0.375000;,
  0.500000;0.375000;,
  0.625000;0.375000;,
  0.750000;0.375000;,
  0.875000;0.375000;,
  1.000000;0.375000;,
  0.125000;0.500000;,
  0.000000;0.500000;,
  0.250000;0.500000;,
  0.375000;0.500000;,
  0.500000;0.500000;,
  0.625000;0.500000;,
  0.750000;0.500000;,
  0.875000;0.500000;,
  1.000000;0.500000;,
  0.125000;0.625000;,
  0.000000;0.625000;,
  0.250000;0.625000;,
  0.375000;0.625000;,
  0.500000;0.625000;,
  0.625000;0.625000;,
  0.750000;0.625000;,
  0.875000;0.625000;,
  1.000000;0.625000;,
  0.125000;0.750000;,
  0.000000;0.750000;,
  0.250000;0.750000;,
  0.375000;0.750000;,
  0.500000;0.750000;,
  0.625000;0.750000;,
  0.750000;0.750000;,
  0.875000;0.750000;,
  1.000000;0.750000;,
  0.125000;0.875000;,
  0.000000;0.875000;,
  0.250000;0.875000;,
  0.375000;0.875000;,
  0.500000;0.875000;,
  0.625000;0.875000;,
  0.750000;0.875000;,
  0.875000;0.875000;,
  1.000000;0.875000;,
  0.062500;1.000000;,
  0.187500;1.000000;,
  0.312500;1.000000;,
  0.437500;1.000000;,
  0.562500;1.000000;,
  0.687500;1.000000;,
  0.812500;1.000000;,
  0.937500;1.000000;,
  0.062500;0.000000;,
  0.125000;0.125000;,
  0.000000;0.125000;,
  0.187500;0.000000;,
  0.250000;0.125000;,
  0.312500;0.000000;,
  0.375000;0.125000;,
  0.437500;0.000000;,
  0.500000;0.125000;,
  0.562500;0.000000;,
  0.625000;0.125000;,
  0.687500;0.000000;,
  0.750000;0.125000;,
  0.812500;0.000000;,
  0.875000;0.125000;,
  0.937500;0.000000;,
  1.000000;0.125000;,
  0.125000;0.250000;,
  0.000000;0.250000;,
  0.250000;0.250000;,
  0.375000;0.250000;,
  0.500000;0.250000;,
  0.625000;0.250000;,
  0.750000;0.250000;,
  0.875000;0.250000;,
  1.000000;0.250000;,
  0.125000;0.375000;,
  0.000000;0.375000;,
  0.250000;0.375000;,
  0.375000;0.375000;,
  0.500000;0.375000;,
  0.625000;0.375000;,
  0.750000;0.375000;,
  0.875000;0.375000;,
  1.000000;0.375000;,
  0.125000;0.500000;,
  0.000000;0.500000;,
  0.250000;0.500000;,
  0.375000;0.500000;,
  0.500000;0.500000;,
  0.625000;0.500000;,
  0.750000;0.500000;,
  0.875000;0.500000;,
  1.000000;0.500000;,
  0.125000;0.625000;,
  0.000000;0.625000;,
  0.250000;0.625000;,
  0.375000;0.625000;,
  0.500000;0.625000;,
  0.625000;0.625000;,
  0.750000;0.625000;,
  0.875000;0.625000;,
  1.000000;0.625000;,
  0.125000;0.750000;,
  0.000000;0.750000;,
  0.250000;0.750000;,
  0.375000;0.750000;,
  0.500000;0.750000;,
  0.625000;0.750000;,
  0.750000;0.750000;,
  0.875000;0.750000;,
  1.000000;0.750000;,
  0.125000;0.875000;,
  0.000000;0.875000;,
  0.250000;0.875000;,
  0.375000;0.875000;,
  0.500000;0.875000;,
  0.625000;0.875000;,
  0.750000;0.875000;,
  0.875000;0.875000;,
  1.000000;0.875000;,
  0.062500;1.000000;,
  0.187500;1.000000;,
  0.312500;1.000000;,
  0.437500;1.000000;,
  0.562500;1.000000;,
  0.687500;1.000000;,
  0.812500;1.000000;,
  0.937500;1.000000;,
  0.062500;0.000000;,
  0.125000;0.125000;,
  0.000000;0.125000;,
  0.187500;0.000000;,
  0.250000;0.125000;,
  0.312500;0.000000;,
  0.375000;0.125000;,
  0.437500;0.000000;,
  0.500000;0.125000;,
  0.562500;0.000000;,
  0.625000;0.125000;,
  0.687500;0.000000;,
  0.750000;0.125000;,
  0.812500;0.000000;,
  0.875000;0.125000;,
  0.937500;0.000000;,
  1.000000;0.125000;,
  0.125000;0.250000;,
  0.000000;0.250000;,
  0.250000;0.250000;,
  0.375000;0.250000;,
  0.500000;0.250000;,
  0.625000;0.250000;,
  0.750000;0.250000;,
  0.875000;0.250000;,
  1.000000;0.250000;,
  0.125000;0.375000;,
  0.000000;0.375000;,
  0.250000;0.375000;,
  0.375000;0.375000;,
  0.500000;0.375000;,
  0.625000;0.375000;,
  0.750000;0.375000;,
  0.875000;0.375000;,
  1.000000;0.375000;,
  0.125000;0.500000;,
  0.000000;0.500000;,
  0.250000;0.500000;,
  0.375000;0.500000;,
  0.500000;0.500000;,
  0.625000;0.500000;,
  0.750000;0.500000;,
  0.875000;0.500000;,
  1.000000;0.500000;,
  0.125000;0.625000;,
  0.000000;0.625000;,
  0.250000;0.625000;,
  0.375000;0.625000;,
  0.500000;0.625000;,
  0.625000;0.625000;,
  0.750000;0.625000;,
  0.875000;0.625000;,
  1.000000;0.625000;,
  0.125000;0.750000;,
  0.000000;0.750000;,
  0.250000;0.750000;,
  0.375000;0.750000;,
  0.500000;0.750000;,
  0.625000;0.750000;,
  0.750000;0.750000;,
  0.875000;0.750000;,
  1.000000;0.750000;,
  0.125000;0.875000;,
  0.000000;0.875000;,
  0.250000;0.875000;,
  0.375000;0.875000;,
  0.500000;0.875000;,
  0.625000;0.875000;,
  0.750000;0.875000;,
  0.875000;0.875000;,
  1.000000;0.875000;,
  0.062500;1.000000;,
  0.187500;1.000000;,
  0.312500;1.000000;,
  0.437500;1.000000;,
  0.562500;1.000000;,
  0.687500;1.000000;,
  0.812500;1.000000;,
  0.937500;1.000000;,
  0.000000;0.000000;,
  1.000000;0.000000;,
  1.000000;1.000000;,
  0.000000;1.000000;,
  0.000000;0.000000;,
  1.000000;0.000000;,
  1.000000;1.000000;,
  0.000000;1.000000;,
  0.000000;0.000000;,
  1.000000;0.000000;,
  1.000000;1.000000;,
  0.000000;1.000000;,
  0.000000;0.000000;,
  1.000000;0.000000;,
  1.000000;1.000000;,
  0.000000;1.000000;,
  1.000000;1.000000;,
  0.000000;1.000000;,
  0.000000;0.000000;,
  1.000000;0.000000;,
  0.000000;0.000000;,
  1.000000;0.000000;,
  1.000000;1.000000;,
  0.000000;1.000000;,
  0.000000;0.000000;,
  1.000000;0.000000;,
  1.000000;1.000000;,
  0.000000;1.000000;,
  0.000000;0.000000;,
  1.000000;0.000000;,
  1.000000;1.000000;,
  0.000000;1.000000;,
  0.000000;0.000000;,
  1.000000;0.000000;,
  1.000000;1.000000;,
  0.000000;1.000000;,
  1.000000;1.000000;,
  0.000000;1.000000;,
  0.000000;0.000000;,
  1.000000;0.000000;,
  0.000000;0.000000;,
  1.000000;0.000000;,
  1.000000;1.000000;,
  0.000000;1.000000;,
  0.000000;0.000000;,
  1.000000;0.000000;,
  1.000000;1.000000;,
  0.000000;1.000000;,
  0.000000;0.000000;,
  1.000000;0.000000;,
  1.000000;1.000000;,
  0.000000;1.000000;,
  0.000000;0.000000;,
  1.000000;0.000000;,
  1.000000;1.000000;,
  0.000000;1.000000;,
  1.000000;1.000000;,
  0.000000;1.000000;,
  0.000000;0.000000;,
  1.000000;0.000000;,
  0.000000;0.000000;,
  1.000000;0.000000;,
  1.000000;1.000000;,
  0.000000;1.000000;,
  0.000000;0.000000;,
  1.000000;0.000000;,
  1.000000;1.000000;,
  0.000000;1.000000;,
  0.000000;0.000000;,
  1.000000;0.000000;,
  1.000000;1.000000;,
  0.000000;1.000000;,
  0.000000;0.000000;,
  1.000000;0.000000;,
  1.000000;1.000000;,
  0.000000;1.000000;,
  1.000000;1.000000;,
  0.000000;1.000000;,
  0.000000;0.000000;,
  1.000000;0.000000;,
  0.000000;0.000000;,
  1.000000;0.000000;,
  1.000000;1.000000;,
  0.000000;1.000000;,
  0.000000;0.000000;,
  1.000000;0.000000;,
  1.000000;1.000000;,
  0.000000;1.000000;,
  0.000000;0.000000;,
  1.000000;0.000000;,
  1.000000;1.000000;,
  0.000000;1.000000;,
  0.000000;0.000000;,
  1.000000;0.000000;,
  1.000000;1.000000;,
  0.000000;1.000000;,
  1.000000;1.000000;,
  0.000000;1.000000;,
  0.000000;0.000000;,
  1.000000;0.000000;,
  0.000000;0.000000;,
  1.000000;0.000000;,
  1.000000;1.000000;,
  0.000000;1.000000;,
  0.000000;0.000000;,
  1.000000;0.000000;,
  1.000000;1.000000;,
  0.000000;1.000000;,
  0.000000;0.000000;,
  1.000000;0.000000;,
  1.000000;1.000000;,
  0.000000;1.000000;,
  0.000000;0.000000;,
  1.000000;0.000000;,
  1.000000;1.000000;,
  0.000000;1.000000;,
  1.000000;1.000000;,
  0.000000;1.000000;,
  0.000000;0.000000;,
  1.000000;0.000000;;
 }
}
