xof 0302txt 0064
template Header {
 <3D82AB43-62DA-11cf-AB39-0020AF71E433>
 WORD major;
 WORD minor;
 DWORD flags;
}

template Vector {
 <3D82AB5E-62DA-11cf-AB39-0020AF71E433>
 FLOAT x;
 FLOAT y;
 FLOAT z;
}

template Coords2d {
 <F6F23F44-7686-11cf-8F52-0040333594A3>
 FLOAT u;
 FLOAT v;
}

template Matrix4x4 {
 <F6F23F45-7686-11cf-8F52-0040333594A3>
 array FLOAT matrix[16];
}

template ColorRGBA {
 <35FF44E0-6C7C-11cf-8F52-0040333594A3>
 FLOAT red;
 FLOAT green;
 FLOAT blue;
 FLOAT alpha;
}

template ColorRGB {
 <D3E16E81-7835-11cf-8F52-0040333594A3>
 FLOAT red;
 FLOAT green;
 FLOAT blue;
}

template IndexedColor {
 <1630B820-7842-11cf-8F52-0040333594A3>
 DWORD index;
 ColorRGBA indexColor;
}

template Boolean {
 <4885AE61-78E8-11cf-8F52-0040333594A3>
 WORD truefalse;
}

template Boolean2d {
 <4885AE63-78E8-11cf-8F52-0040333594A3>
 Boolean u;
 Boolean v;
}

template MaterialWrap {
 <4885AE60-78E8-11cf-8F52-0040333594A3>
 Boolean u;
 Boolean v;
}

template TextureFilename {
 <A42790E1-7810-11cf-8F52-0040333594A3>
 STRING filename;
}

template Material {
 <3D82AB4D-62DA-11cf-AB39-0020AF71E433>
 ColorRGBA faceColor;
 FLOAT power;
 ColorRGB specularColor;
 ColorRGB emissiveColor;
 [...]
}

template MeshFace {
 <3D82AB5F-62DA-11cf-AB39-0020AF71E433>
 DWORD nFaceVertexIndices;
 array DWORD faceVertexIndices[nFaceVertexIndices];
}

template MeshFaceWraps {
 <4885AE62-78E8-11cf-8F52-0040333594A3>
 DWORD nFaceWrapValues;
 Boolean2d faceWrapValues;
}

template MeshTextureCoords {
 <F6F23F40-7686-11cf-8F52-0040333594A3>
 DWORD nTextureCoords;
 array Coords2d textureCoords[nTextureCoords];
}

template MeshMaterialList {
 <F6F23F42-7686-11cf-8F52-0040333594A3>
 DWORD nMaterials;
 DWORD nFaceIndexes;
 array DWORD faceIndexes[nFaceIndexes];
 [Material]
}

template MeshNormals {
 <F6F23F43-7686-11cf-8F52-0040333594A3>
 DWORD nNormals;
 array Vector normals[nNormals];
 DWORD nFaceNormals;
 array MeshFace faceNormals[nFaceNormals];
}

template MeshVertexColors {
 <1630B821-7842-11cf-8F52-0040333594A3>
 DWORD nVertexColors;
 array IndexedColor vertexColors[nVertexColors];
}

template Mesh {
 <3D82AB44-62DA-11cf-AB39-0020AF71E433>
 DWORD nVertices;
 array Vector vertices[nVertices];
 DWORD nFaces;
 array MeshFace faces[nFaces];
 [...]
}

Header{
1;
0;
1;
}

Mesh {
 142;
 -495.00000;300.00000;-270.00000;,
 -105.00000;300.00000;-270.00000;,
 -105.00000;-15.00000;-270.00000;,
 -495.00000;-15.00000;-270.00000;,
 -105.00000;300.00000;540.00000;,
 -495.00000;300.00000;540.00000;,
 -495.00000;-15.00000;540.00000;,
 -105.00000;-15.00000;540.00000;,
 -495.00000;300.00000;163.89780;,
 -495.00000;300.00000;540.00000;,
 -105.00000;300.00000;540.00000;,
 -105.00000;300.00000;163.89780;,
 -105.00000;300.00000;-270.00000;,
 -495.00000;300.00000;-270.00000;,
 -495.00000;300.00000;163.89780;,
 -495.00000;300.00000;-270.00000;,
 -495.00000;-15.00000;-270.00000;,
 -495.00000;-15.00000;163.89780;,
 -495.00000;-15.00000;540.00000;,
 -105.00000;300.00000;163.89780;,
 -105.00000;-15.00000;163.89780;,
 -105.00000;-15.00000;-270.00000;,
 -105.00000;300.00000;-270.00000;,
 -495.00000;-15.00000;163.89780;,
 -495.00000;-15.00000;-270.00000;,
 -105.00000;-15.00000;-270.00000;,
 -105.00000;-15.00000;163.89780;,
 -105.00000;-15.00000;540.00000;,
 461.23892;300.00000;540.00000;,
 461.23892;300.00000;163.89780;,
 461.23892;-15.00000;540.00000;,
 461.23892;-15.00000;163.89780;,
 530.95949;336.75046;62.04825;,
 530.95949;315.51405;62.04825;,
 -63.02250;315.51405;62.04825;,
 -63.02250;336.75046;62.04825;,
 530.95949;336.75046;614.49435;,
 -63.02250;336.75046;614.49435;,
 -63.02250;315.51405;614.49435;,
 530.95949;315.51405;614.49435;,
 -566.97734;336.75046;-344.49435;,
 -63.02250;336.75046;-344.49435;,
 -63.02250;315.51405;-344.49435;,
 -566.97734;315.51405;-344.49435;,
 -566.97734;336.75046;614.49435;,
 -566.97734;315.51405;614.49435;,
 -63.02250;315.51405;614.49435;,
 -63.02250;336.75046;614.49435;,
 432.12689;426.75046;283.69755;,
 -272.09145;426.75046;283.69755;,
 432.12689;315.51405;130.35946;,
 -63.02250;315.51405;130.35946;,
 -63.02250;315.51405;130.35946;,
 -146.79855;315.51405;130.35946;,
 -146.79855;315.51405;62.04825;,
 -63.02250;315.51405;62.04825;,
 -494.31541;315.51405;130.35946;,
 -494.31541;315.51405;62.04825;,
 530.95949;336.75046;614.49435;,
 530.95949;336.75046;62.04825;,
 432.12689;426.75046;363.64709;,
 530.95949;315.51405;614.49435;,
 530.95949;315.51405;62.04825;,
 -272.09145;426.75046;363.64709;,
 432.12689;315.51405;516.98474;,
 -63.02250;315.51405;516.98474;,
 -272.09145;426.75046;363.64709;,
 -272.09145;426.75046;283.69755;,
 -369.02250;426.75046;283.69755;,
 -369.02250;426.75046;363.64709;,
 -566.97734;336.75046;614.49435;,
 -63.02250;336.75046;614.49435;,
 -63.02250;315.51405;516.98474;,
 -146.79855;315.51405;516.98474;,
 -566.97734;336.75046;62.04825;,
 -566.97734;336.75046;614.49435;,
 -63.02250;315.51405;614.49435;,
 -566.97734;315.51405;614.49435;,
 -494.31541;315.51405;516.98474;,
 -566.97734;336.75046;614.49435;,
 -566.97734;336.75046;62.04825;,
 -566.97734;315.51405;62.04825;,
 -566.97734;315.51405;614.49435;,
 -566.97734;315.51405;614.49435;,
 -566.97734;315.51405;62.04825;,
 -63.02250;336.75046;-344.49435;,
 -272.09145;426.75046;-263.75159;,
 -272.09145;426.75046;283.69755;,
 -63.02250;336.75046;62.04825;,
 -63.02250;336.75046;-344.49435;,
 -63.02250;315.51405;-344.49435;,
 -63.02250;336.75046;-344.49435;,
 -566.97734;336.75046;-344.49435;,
 -369.02250;426.75046;-263.75159;,
 -369.02250;426.75046;283.69755;,
 -63.02250;315.51405;-344.49435;,
 -146.79855;315.51405;-263.75146;,
 -566.97734;336.75046;-344.49435;,
 -566.97734;336.75046;62.04825;,
 -494.31541;315.51405;-263.75146;,
 -566.97734;315.51405;-344.49435;,
 -63.02250;315.51405;-344.49435;,
 -566.97734;336.75046;-344.49435;,
 -566.97734;315.51405;-344.49435;,
 -566.97734;315.51405;62.04825;,
 -566.97734;336.75046;62.04825;,
 -566.97734;315.51405;62.04825;,
 -566.97734;315.51405;-344.49435;,
 -63.02250;315.51405;614.49435;,
 -566.97734;315.51405;62.04825;,
 -535.76294;313.35990;-318.18434;,
 -85.32570;313.35990;-318.18434;,
 -85.32570;288.73050;-318.18434;,
 -535.76294;288.73050;-318.18434;,
 -105.00000;313.35990;584.27069;,
 -535.76294;313.35990;584.27069;,
 -535.76294;288.73050;584.27069;,
 -105.00000;288.73050;584.27069;,
 -535.76294;313.35990;163.89780;,
 -535.76294;313.35990;584.27069;,
 -105.00000;313.35990;584.27069;,
 -85.32570;313.35990;114.35040;,
 -85.32570;313.35990;-318.18434;,
 -535.76294;313.35990;-318.18434;,
 -535.76294;313.35990;163.89780;,
 -535.76294;313.35990;-318.18434;,
 -535.76294;288.73050;-318.18434;,
 -535.76294;288.73050;163.89780;,
 -535.76294;288.73050;584.27069;,
 -85.32570;313.35990;114.35040;,
 -85.32570;288.73050;114.35040;,
 -85.32570;288.73050;-318.18434;,
 -85.32570;313.35990;-318.18434;,
 -535.76294;288.73050;163.89780;,
 -535.76294;288.73050;-318.18434;,
 -85.32570;288.73050;-318.18434;,
 -85.32570;288.73050;114.35040;,
 -105.00000;288.73050;584.27069;,
 501.96931;313.35990;584.27069;,
 501.96931;313.35990;114.35040;,
 501.96931;288.73050;584.27069;,
 501.96931;288.73050;114.35040;;
 
 63;
 4;0,1,2,3;,
 4;4,5,6,7;,
 4;8,9,10,11;,
 4;8,11,12,13;,
 4;14,15,16,17;,
 4;14,17,18,9;,
 4;19,20,21,22;,
 4;23,24,25,26;,
 4;23,26,27,18;,
 4;28,29,19,10;,
 4;30,28,10,27;,
 4;31,30,27,20;,
 4;29,31,20,19;,
 4;29,28,30,31;,
 4;32,33,34,35;,
 4;36,37,38,39;,
 4;40,41,42,43;,
 4;44,45,46,47;,
 4;48,32,35,49;,
 4;50,51,34,33;,
 4;52,53,54,55;,
 4;53,56,57,54;,
 4;58,59,48,60;,
 4;58,61,62,59;,
 4;60,48,49,63;,
 4;60,63,37,36;,
 4;61,64,50,62;,
 4;64,39,38,65;,
 4;64,65,51,50;,
 4;66,67,68,69;,
 4;66,69,70,71;,
 4;72,73,53,52;,
 4;69,68,74,75;,
 4;73,76,77,78;,
 4;73,78,56,53;,
 4;79,80,81,82;,
 4;78,83,84,56;,
 4;85,86,87,88;,
 4;89,35,34,90;,
 4;86,91,92,93;,
 4;86,93,94,87;,
 4;95,55,54,96;,
 4;93,97,98,94;,
 4;96,54,57,99;,
 4;96,99,100,101;,
 4;102,103,104,105;,
 4;99,57,106,107;,
 3;108,73,72;,
 3;109,57,56;,
 4;110,111,112,113;,
 4;114,115,116,117;,
 4;118,119,120,121;,
 4;118,121,122,123;,
 4;124,125,126,127;,
 4;124,127,128,119;,
 4;129,130,131,132;,
 4;133,134,135,136;,
 4;133,136,137,128;,
 4;138,139,129,120;,
 4;140,138,120,137;,
 4;141,140,137,130;,
 4;139,141,130,129;,
 4;139,138,140,141;;
 
 MeshMaterialList {
  2;
  63;
  0,
  0,
  0,
  0,
  0,
  0,
  0,
  0,
  0,
  0,
  0,
  0,
  0,
  0,
  1,
  1,
  1,
  1,
  1,
  1,
  1,
  1,
  1,
  1,
  1,
  1,
  1,
  1,
  1,
  1,
  1,
  1,
  1,
  1,
  1,
  1,
  1,
  1,
  1,
  1,
  1,
  1,
  1,
  1,
  1,
  1,
  1,
  1,
  1,
  0,
  0,
  0,
  0,
  0,
  0,
  0,
  0,
  0,
  0,
  0,
  0,
  0,
  0;;
  Material {
   0.464000;0.489600;0.545600;1.000000;;
   5.000000;
   0.000000;0.000000;0.000000;;
   0.000000;0.000000;0.000000;;
  }
  Material {
   0.316800;0.188000;0.254400;1.000000;;
   5.000000;
   0.000000;0.000000;0.000000;;
   0.000000;0.000000;0.000000;;
  }
 }
 MeshNormals {
  34;
  0.000000;0.000000;-1.000000;,
  0.000000;0.000000;1.000000;,
  0.000000;1.000000;0.000000;,
  -1.000000;0.000000;0.000000;,
  1.000000;0.000000;0.000000;,
  0.000000;-1.000000;-0.000000;,
  0.000000;0.000000;-1.000000;,
  0.000000;0.000000;1.000000;,
  0.000000;-1.000000;-0.000000;,
  0.000000;0.357525;-0.933903;,
  -0.211742;0.977326;0.000000;,
  0.242609;0.960606;-0.135562;,
  0.081096;0.993715;-0.077162;,
  -0.413881;0.910331;0.000000;,
  -1.000000;0.000000;0.000000;,
  0.241806;0.962715;0.121283;,
  0.000000;0.985203;0.171389;,
  -0.142659;0.982903;0.116403;,
  0.145358;0.950785;-0.273641;,
  -0.152434;0.949530;-0.274147;,
  0.366762;0.907462;-0.204934;,
  0.205501;0.958925;-0.195531;,
  0.914685;0.404168;0.000000;,
  1.000000;0.000000;0.000000;,
  0.000000;0.941252;0.337706;,
  -0.214769;0.960815;0.175241;,
  0.395400;0.918509;0.000000;,
  -0.413881;0.910331;0.000000;,
  0.000000;0.000000;-1.000000;,
  0.000000;0.000000;1.000000;,
  0.000000;1.000000;0.000000;,
  -1.000000;0.000000;0.000000;,
  1.000000;0.000000;0.000000;,
  0.000000;-1.000000;0.000000;;
  63;
  4;0,0,0,0;,
  4;1,1,1,1;,
  4;2,2,2,2;,
  4;2,2,2,2;,
  4;3,3,3,3;,
  4;3,3,3,3;,
  4;4,4,4,4;,
  4;5,5,5,5;,
  4;5,5,5,5;,
  4;2,2,2,2;,
  4;1,1,1,1;,
  4;5,5,5,5;,
  4;0,0,0,0;,
  4;4,4,4,4;,
  4;6,6,6,6;,
  4;7,7,7,7;,
  4;9,9,6,6;,
  4;7,7,7,7;,
  4;11,20,21,12;,
  4;8,8,8,8;,
  4;8,8,8,8;,
  4;8,8,8,8;,
  4;22,20,11,15;,
  4;22,23,23,23;,
  4;15,11,12,16;,
  4;15,16,24,24;,
  4;8,8,8,8;,
  4;8,8,8,8;,
  4;8,8,8,8;,
  4;16,12,10,17;,
  4;16,17,25,24;,
  4;8,8,8,8;,
  4;17,10,13,25;,
  4;8,8,8,8;,
  4;8,8,8,8;,
  4;14,14,14,14;,
  4;8,8,8,8;,
  4;26,18,12,21;,
  4;23,23,23,23;,
  4;18,9,9,19;,
  4;18,19,10,12;,
  4;8,8,8,8;,
  4;19,27,13,10;,
  4;8,8,8,8;,
  4;8,8,8,8;,
  4;14,14,14,14;,
  4;8,8,8,8;,
  3;8,8,8;,
  3;8,8,8;,
  4;28,28,28,28;,
  4;29,29,29,29;,
  4;30,30,30,30;,
  4;30,30,30,30;,
  4;31,31,31,31;,
  4;31,31,31,31;,
  4;32,32,32,32;,
  4;33,33,33,33;,
  4;33,33,33,33;,
  4;30,30,30,30;,
  4;29,29,29,29;,
  4;33,33,33,33;,
  4;28,28,28,28;,
  4;32,32,32,32;;
 }
 MeshTextureCoords {
  142;
  0.000000;0.000000;,
  1.000000;0.000000;,
  1.000000;1.000000;,
  0.000000;1.000000;,
  0.000000;0.000000;,
  1.000000;0.000000;,
  1.000000;1.000000;,
  0.000000;1.000000;,
  0.000000;0.545080;,
  0.000000;0.000000;,
  1.000000;0.000000;,
  1.000000;0.545080;,
  1.000000;1.000000;,
  0.000000;1.000000;,
  0.545080;0.000000;,
  1.000000;0.000000;,
  1.000000;1.000000;,
  0.545080;1.000000;,
  0.000000;1.000000;,
  0.454920;0.000000;,
  0.454920;1.000000;,
  0.000000;1.000000;,
  0.000000;0.000000;,
  0.000000;0.454920;,
  0.000000;0.000000;,
  1.000000;0.000000;,
  1.000000;0.454920;,
  1.000000;1.000000;,
  1.000000;0.000000;,
  0.454920;0.000000;,
  1.000000;1.000000;,
  0.454920;1.000000;,
  0.423930;0.000000;,
  0.423930;1.000000;,
  0.423930;1.000000;,
  0.423930;0.000000;,
  1.000000;0.000000;,
  1.000000;0.000000;,
  1.000000;1.000000;,
  1.000000;1.000000;,
  0.144180;0.000000;,
  0.833760;0.000000;,
  0.833760;1.000000;,
  0.144180;1.000000;,
  0.855820;0.000000;,
  0.855820;1.000000;,
  0.166240;1.000000;,
  0.166240;0.000000;,
  0.495160;0.000000;,
  0.495160;0.000000;,
  0.495160;1.000000;,
  0.495160;1.000000;,
  1.000000;0.495160;,
  0.833760;0.495160;,
  0.833760;0.423930;,
  1.000000;0.423930;,
  0.144180;0.495160;,
  0.144180;0.423930;,
  0.898320;0.000000;,
  0.495160;0.000000;,
  0.898320;0.000000;,
  0.898320;1.000000;,
  0.495160;1.000000;,
  0.898320;0.000000;,
  0.898320;1.000000;,
  0.898320;1.000000;,
  0.833760;0.101680;,
  0.833760;0.504840;,
  0.144180;0.504840;,
  0.144180;0.101680;,
  0.144180;0.000000;,
  0.833760;0.000000;,
  1.000000;0.898320;,
  0.833760;0.898320;,
  0.000000;0.504840;,
  0.000000;0.101680;,
  0.833760;1.000000;,
  0.144180;1.000000;,
  0.144180;0.898320;,
  0.101680;0.000000;,
  0.504840;0.000000;,
  0.504840;1.000000;,
  0.101680;1.000000;,
  0.000000;0.898320;,
  0.000000;0.495160;,
  1.000000;0.915800;,
  0.833760;0.915800;,
  0.833760;0.576070;,
  1.000000;0.576070;,
  0.084200;0.000000;,
  0.084200;1.000000;,
  0.833760;1.000000;,
  0.144180;1.000000;,
  0.144180;0.915800;,
  0.144180;0.576070;,
  1.000000;0.084200;,
  0.833760;0.084200;,
  0.000000;0.915800;,
  0.000000;0.576070;,
  0.144180;0.084200;,
  0.144180;0.000000;,
  0.833760;0.000000;,
  0.915800;0.000000;,
  0.915800;1.000000;,
  0.576070;1.000000;,
  0.576070;0.000000;,
  0.000000;0.423930;,
  0.000000;0.084200;,
  0.916880;1.000000;,
  0.000000;0.459540;,
  0.000000;0.000000;,
  1.000000;0.000000;,
  1.000000;1.000000;,
  0.000000;1.000000;,
  0.000000;0.000000;,
  1.000000;0.000000;,
  1.000000;1.000000;,
  0.000000;1.000000;,
  0.000000;0.545080;,
  0.000000;0.000000;,
  1.000000;0.000000;,
  1.000000;0.545080;,
  1.000000;1.000000;,
  0.000000;1.000000;,
  0.545080;0.000000;,
  1.000000;0.000000;,
  1.000000;1.000000;,
  0.545080;1.000000;,
  0.000000;1.000000;,
  0.454920;0.000000;,
  0.454920;1.000000;,
  0.000000;1.000000;,
  0.000000;0.000000;,
  0.000000;0.454920;,
  0.000000;0.000000;,
  1.000000;0.000000;,
  1.000000;0.454920;,
  1.000000;1.000000;,
  1.000000;0.000000;,
  0.454920;0.000000;,
  1.000000;1.000000;,
  0.454920;1.000000;;
 }
}
