xof 0302txt 0064
template Header {
 <3D82AB43-62DA-11cf-AB39-0020AF71E433>
 WORD major;
 WORD minor;
 DWORD flags;
}

template Vector {
 <3D82AB5E-62DA-11cf-AB39-0020AF71E433>
 FLOAT x;
 FLOAT y;
 FLOAT z;
}

template Coords2d {
 <F6F23F44-7686-11cf-8F52-0040333594A3>
 FLOAT u;
 FLOAT v;
}

template Matrix4x4 {
 <F6F23F45-7686-11cf-8F52-0040333594A3>
 array FLOAT matrix[16];
}

template ColorRGBA {
 <35FF44E0-6C7C-11cf-8F52-0040333594A3>
 FLOAT red;
 FLOAT green;
 FLOAT blue;
 FLOAT alpha;
}

template ColorRGB {
 <D3E16E81-7835-11cf-8F52-0040333594A3>
 FLOAT red;
 FLOAT green;
 FLOAT blue;
}

template IndexedColor {
 <1630B820-7842-11cf-8F52-0040333594A3>
 DWORD index;
 ColorRGBA indexColor;
}

template Boolean {
 <4885AE61-78E8-11cf-8F52-0040333594A3>
 WORD truefalse;
}

template Boolean2d {
 <4885AE63-78E8-11cf-8F52-0040333594A3>
 Boolean u;
 Boolean v;
}

template MaterialWrap {
 <4885AE60-78E8-11cf-8F52-0040333594A3>
 Boolean u;
 Boolean v;
}

template TextureFilename {
 <A42790E1-7810-11cf-8F52-0040333594A3>
 STRING filename;
}

template Material {
 <3D82AB4D-62DA-11cf-AB39-0020AF71E433>
 ColorRGBA faceColor;
 FLOAT power;
 ColorRGB specularColor;
 ColorRGB emissiveColor;
 [...]
}

template MeshFace {
 <3D82AB5F-62DA-11cf-AB39-0020AF71E433>
 DWORD nFaceVertexIndices;
 array DWORD faceVertexIndices[nFaceVertexIndices];
}

template MeshFaceWraps {
 <4885AE62-78E8-11cf-8F52-0040333594A3>
 DWORD nFaceWrapValues;
 Boolean2d faceWrapValues;
}

template MeshTextureCoords {
 <F6F23F40-7686-11cf-8F52-0040333594A3>
 DWORD nTextureCoords;
 array Coords2d textureCoords[nTextureCoords];
}

template MeshMaterialList {
 <F6F23F42-7686-11cf-8F52-0040333594A3>
 DWORD nMaterials;
 DWORD nFaceIndexes;
 array DWORD faceIndexes[nFaceIndexes];
 [Material]
}

template MeshNormals {
 <F6F23F43-7686-11cf-8F52-0040333594A3>
 DWORD nNormals;
 array Vector normals[nNormals];
 DWORD nFaceNormals;
 array MeshFace faceNormals[nFaceNormals];
}

template MeshVertexColors {
 <1630B821-7842-11cf-8F52-0040333594A3>
 DWORD nVertexColors;
 array IndexedColor vertexColors[nVertexColors];
}

template Mesh {
 <3D82AB44-62DA-11cf-AB39-0020AF71E433>
 DWORD nVertices;
 array Vector vertices[nVertices];
 DWORD nFaces;
 array MeshFace faces[nFaces];
 [...]
}

Header{
1;
0;
1;
}

Mesh {
 600;
 -83.56440;416.57819;-7.81880;,
 83.56440;416.57819;-7.81880;,
 83.56440;6.42859;-7.81880;,
 -83.56440;6.42859;-7.81880;,
 83.56440;416.57819;-7.81880;,
 83.56440;416.57819;7.81880;,
 83.56440;6.42859;7.81880;,
 83.56440;6.42859;-7.81880;,
 83.56440;416.57819;7.81880;,
 -83.56440;416.57819;7.81880;,
 -83.56440;6.42859;7.81880;,
 83.56440;6.42859;7.81880;,
 -83.56440;416.57819;7.81880;,
 -83.56440;416.57819;-7.81880;,
 -83.56440;6.42859;-7.81880;,
 -83.56440;6.42859;7.81880;,
 83.56440;416.57819;-7.81880;,
 -83.56440;416.57819;-7.81880;,
 -83.56440;6.42859;-7.81880;,
 83.56440;6.42859;-7.81880;,
 -98.68220;421.50339;-11.03060;,
 -81.31780;421.50339;-11.03060;,
 -81.31780;1.50339;-11.03060;,
 -98.68220;1.50339;-11.03060;,
 -81.31780;421.50339;-11.03060;,
 -81.31780;421.50339;11.03060;,
 -81.31780;1.50339;11.03060;,
 -81.31780;1.50339;-11.03060;,
 -81.31780;421.50339;11.03060;,
 -98.68220;421.50339;11.03060;,
 -98.68220;1.50339;11.03060;,
 -81.31780;1.50339;11.03060;,
 -98.68220;421.50339;11.03060;,
 -98.68220;421.50339;-11.03060;,
 -98.68220;1.50339;-11.03060;,
 -98.68220;1.50339;11.03060;,
 -81.31780;421.50339;-11.03060;,
 -98.68220;421.50339;-11.03060;,
 -98.68220;1.50339;-11.03060;,
 -81.31780;1.50339;-11.03060;,
 98.68220;421.50339;-11.03060;,
 98.68220;1.50339;-11.03060;,
 81.31780;1.50339;-11.03060;,
 81.31780;421.50339;-11.03060;,
 81.31780;421.50339;-11.03060;,
 81.31780;1.50339;-11.03060;,
 81.31780;1.50339;11.03060;,
 81.31780;421.50339;11.03060;,
 81.31780;421.50339;11.03060;,
 81.31780;1.50339;11.03060;,
 98.68220;1.50339;11.03060;,
 98.68220;421.50339;11.03060;,
 98.68220;421.50339;11.03060;,
 98.68220;1.50339;11.03060;,
 98.68220;1.50339;-11.03060;,
 98.68220;421.50339;-11.03060;,
 98.68220;421.50339;-11.03060;,
 81.31780;421.50339;-11.03060;,
 98.68220;1.50339;-11.03060;,
 81.31780;1.50339;-11.03060;,
 -96.08850;229.32219;-8.21870;,
 96.08850;229.32219;-8.21870;,
 96.08850;213.68459;-8.21870;,
 -96.08850;213.68459;-8.21870;,
 96.08850;229.32219;-8.21870;,
 96.08850;229.32219;8.21870;,
 96.08850;213.68459;8.21870;,
 96.08850;213.68459;-8.21870;,
 96.08850;229.32219;8.21870;,
 -96.08850;229.32219;8.21870;,
 -96.08850;213.68459;8.21870;,
 96.08850;213.68459;8.21870;,
 -96.08850;229.32219;8.21870;,
 -96.08850;229.32219;-8.21870;,
 -96.08850;213.68459;-8.21870;,
 -96.08850;213.68459;8.21870;,
 96.08850;229.32219;-8.21870;,
 -96.08850;229.32219;-8.21870;,
 -96.08850;213.68459;-8.21870;,
 96.08850;213.68459;-8.21870;,
 75.87420;417.26819;-4.02770;,
 85.65920;417.26819;-4.02770;,
 -75.10750;1.50339;-4.02770;,
 -84.89250;1.50339;-4.02770;,
 85.65920;417.26819;-4.02770;,
 85.65920;417.26819;4.02770;,
 -75.10750;1.50339;4.02770;,
 -75.10750;1.50339;-4.02770;,
 85.65920;417.26819;4.02770;,
 75.87420;417.26819;4.02770;,
 -84.89250;1.50339;4.02770;,
 -75.10750;1.50339;4.02770;,
 75.87420;417.26819;4.02770;,
 75.87420;417.26819;-4.02770;,
 -84.89250;1.50339;-4.02770;,
 -84.89250;1.50339;4.02770;,
 85.65920;417.26819;-4.02770;,
 75.87420;417.26819;-4.02770;,
 -84.89250;1.50339;-4.02770;,
 -75.10750;1.50339;-4.02770;,
 -75.87420;417.26819;-4.02770;,
 84.89250;1.50339;-4.02770;,
 75.10750;1.50339;-4.02770;,
 -85.65920;417.26819;-4.02770;,
 -85.65920;417.26819;-4.02770;,
 75.10750;1.50339;-4.02770;,
 75.10750;1.50339;4.02770;,
 -85.65920;417.26819;4.02770;,
 -85.65920;417.26819;4.02770;,
 75.10750;1.50339;4.02770;,
 84.89250;1.50339;4.02770;,
 -75.87420;417.26819;4.02770;,
 -75.87420;417.26819;4.02770;,
 84.89250;1.50339;4.02770;,
 84.89250;1.50339;-4.02770;,
 -75.87420;417.26819;-4.02770;,
 -75.87420;417.26819;-4.02770;,
 -85.65920;417.26819;-4.02770;,
 84.89250;1.50339;-4.02770;,
 75.10750;1.50339;-4.02770;,
 113.78190;416.57819;-7.81880;,
 280.91071;416.57819;-7.81880;,
 280.91071;6.42859;-7.81880;,
 113.78190;6.42859;-7.81880;,
 280.91071;416.57819;-7.81880;,
 280.91071;416.57819;7.81880;,
 280.91071;6.42859;7.81880;,
 280.91071;6.42859;-7.81880;,
 280.91071;416.57819;7.81880;,
 113.78190;416.57819;7.81880;,
 113.78190;6.42859;7.81880;,
 280.91071;6.42859;7.81880;,
 113.78190;416.57819;7.81880;,
 113.78190;416.57819;-7.81880;,
 113.78190;6.42859;-7.81880;,
 113.78190;6.42859;7.81880;,
 280.91071;416.57819;-7.81880;,
 113.78190;416.57819;-7.81880;,
 113.78190;6.42859;-7.81880;,
 280.91071;6.42859;-7.81880;,
 98.66410;421.50339;-11.03060;,
 116.02850;421.50339;-11.03060;,
 116.02850;1.50339;-11.03060;,
 98.66410;1.50339;-11.03060;,
 116.02850;421.50339;-11.03060;,
 116.02850;421.50339;11.03060;,
 116.02850;1.50339;11.03060;,
 116.02850;1.50339;-11.03060;,
 116.02850;421.50339;11.03060;,
 98.66410;421.50339;11.03060;,
 98.66410;1.50339;11.03060;,
 116.02850;1.50339;11.03060;,
 98.66410;421.50339;11.03060;,
 98.66410;421.50339;-11.03060;,
 98.66410;1.50339;-11.03060;,
 98.66410;1.50339;11.03060;,
 116.02850;421.50339;-11.03060;,
 98.66410;421.50339;-11.03060;,
 98.66410;1.50339;-11.03060;,
 116.02850;1.50339;-11.03060;,
 296.02850;421.50339;-11.03060;,
 296.02850;1.50339;-11.03060;,
 278.66409;1.50339;-11.03060;,
 278.66409;421.50339;-11.03060;,
 278.66409;421.50339;-11.03060;,
 278.66409;1.50339;-11.03060;,
 278.66409;1.50339;11.03060;,
 278.66409;421.50339;11.03060;,
 278.66409;421.50339;11.03060;,
 278.66409;1.50339;11.03060;,
 296.02850;1.50339;11.03060;,
 296.02850;421.50339;11.03060;,
 296.02850;421.50339;11.03060;,
 296.02850;1.50339;11.03060;,
 296.02850;1.50339;-11.03060;,
 296.02850;421.50339;-11.03060;,
 296.02850;421.50339;-11.03060;,
 278.66409;421.50339;-11.03060;,
 296.02850;1.50339;-11.03060;,
 278.66409;1.50339;-11.03060;,
 101.25780;229.32219;-8.21870;,
 293.43481;229.32219;-8.21870;,
 293.43481;213.68459;-8.21870;,
 101.25780;213.68459;-8.21870;,
 293.43481;229.32219;-8.21870;,
 293.43481;229.32219;8.21870;,
 293.43481;213.68459;8.21870;,
 293.43481;213.68459;-8.21870;,
 293.43481;229.32219;8.21870;,
 101.25780;229.32219;8.21870;,
 101.25780;213.68459;8.21870;,
 293.43481;213.68459;8.21870;,
 101.25780;229.32219;8.21870;,
 101.25780;229.32219;-8.21870;,
 101.25780;213.68459;-8.21870;,
 101.25780;213.68459;8.21870;,
 293.43481;229.32219;-8.21870;,
 101.25780;229.32219;-8.21870;,
 101.25780;213.68459;-8.21870;,
 293.43481;213.68459;-8.21870;,
 273.22049;417.26819;-4.02770;,
 283.00549;417.26819;-4.02770;,
 122.23880;1.50339;-4.02770;,
 112.45380;1.50339;-4.02770;,
 283.00549;417.26819;-4.02770;,
 283.00549;417.26819;4.02770;,
 122.23880;1.50339;4.02770;,
 122.23880;1.50339;-4.02770;,
 283.00549;417.26819;4.02770;,
 273.22049;417.26819;4.02770;,
 112.45380;1.50339;4.02770;,
 122.23880;1.50339;4.02770;,
 273.22049;417.26819;4.02770;,
 273.22049;417.26819;-4.02770;,
 112.45380;1.50339;-4.02770;,
 112.45380;1.50339;4.02770;,
 283.00549;417.26819;-4.02770;,
 273.22049;417.26819;-4.02770;,
 112.45380;1.50339;-4.02770;,
 122.23880;1.50339;-4.02770;,
 121.47210;417.26819;-4.02770;,
 282.23883;1.50339;-4.02770;,
 272.45380;1.50339;-4.02770;,
 111.68710;417.26819;-4.02770;,
 111.68710;417.26819;-4.02770;,
 272.45380;1.50339;-4.02770;,
 272.45380;1.50339;4.02770;,
 111.68710;417.26819;4.02770;,
 111.68710;417.26819;4.02770;,
 272.45380;1.50339;4.02770;,
 282.23883;1.50339;4.02770;,
 121.47210;417.26819;4.02770;,
 121.47210;417.26819;4.02770;,
 282.23883;1.50339;4.02770;,
 282.23883;1.50339;-4.02770;,
 121.47210;417.26819;-4.02770;,
 121.47210;417.26819;-4.02770;,
 111.68710;417.26819;-4.02770;,
 282.23883;1.50339;-4.02770;,
 272.45380;1.50339;-4.02770;,
 -280.97986;416.57819;-7.81880;,
 -113.85130;416.57819;-7.81880;,
 -113.85130;6.42859;-7.81880;,
 -280.97986;6.42859;-7.81880;,
 -113.85130;416.57819;-7.81880;,
 -113.85130;416.57819;7.81880;,
 -113.85130;6.42859;7.81880;,
 -113.85130;6.42859;-7.81880;,
 -113.85130;416.57819;7.81880;,
 -280.97986;416.57819;7.81880;,
 -280.97986;6.42859;7.81880;,
 -113.85130;6.42859;7.81880;,
 -280.97986;416.57819;7.81880;,
 -280.97986;416.57819;-7.81880;,
 -280.97986;6.42859;-7.81880;,
 -280.97986;6.42859;7.81880;,
 -113.85130;416.57819;-7.81880;,
 -280.97986;416.57819;-7.81880;,
 -280.97986;6.42859;-7.81880;,
 -113.85130;6.42859;-7.81880;,
 -296.09778;421.50339;-11.03060;,
 -278.73328;421.50339;-11.03060;,
 -278.73328;1.50339;-11.03060;,
 -296.09778;1.50339;-11.03060;,
 -278.73328;421.50339;-11.03060;,
 -278.73328;421.50339;11.03060;,
 -278.73328;1.50339;11.03060;,
 -278.73328;1.50339;-11.03060;,
 -278.73328;421.50339;11.03060;,
 -296.09778;421.50339;11.03060;,
 -296.09778;1.50339;11.03060;,
 -278.73328;1.50339;11.03060;,
 -296.09778;421.50339;11.03060;,
 -296.09778;421.50339;-11.03060;,
 -296.09778;1.50339;-11.03060;,
 -296.09778;1.50339;11.03060;,
 -278.73328;421.50339;-11.03060;,
 -296.09778;421.50339;-11.03060;,
 -296.09778;1.50339;-11.03060;,
 -278.73328;1.50339;-11.03060;,
 -98.73349;421.50339;-11.03060;,
 -98.73349;1.50339;-11.03060;,
 -116.09789;1.50339;-11.03060;,
 -116.09789;421.50339;-11.03060;,
 -116.09789;421.50339;-11.03060;,
 -116.09789;1.50339;-11.03060;,
 -116.09789;1.50339;11.03060;,
 -116.09789;421.50339;11.03060;,
 -116.09789;421.50339;11.03060;,
 -116.09789;1.50339;11.03060;,
 -98.73349;1.50339;11.03060;,
 -98.73349;421.50339;11.03060;,
 -98.73349;421.50339;11.03060;,
 -98.73349;1.50339;11.03060;,
 -98.73349;1.50339;-11.03060;,
 -98.73349;421.50339;-11.03060;,
 -98.73349;421.50339;-11.03060;,
 -116.09789;421.50339;-11.03060;,
 -98.73349;1.50339;-11.03060;,
 -116.09789;1.50339;-11.03060;,
 -293.50403;229.32219;-8.21870;,
 -101.32717;229.32219;-8.21870;,
 -101.32717;213.68459;-8.21870;,
 -293.50403;213.68459;-8.21870;,
 -101.32717;229.32219;-8.21870;,
 -101.32717;229.32219;8.21870;,
 -101.32717;213.68459;8.21870;,
 -101.32717;213.68459;-8.21870;,
 -101.32717;229.32219;8.21870;,
 -293.50403;229.32219;8.21870;,
 -293.50403;213.68459;8.21870;,
 -101.32717;213.68459;8.21870;,
 -293.50403;229.32219;8.21870;,
 -293.50403;229.32219;-8.21870;,
 -293.50403;213.68459;-8.21870;,
 -293.50403;213.68459;8.21870;,
 -101.32717;229.32219;-8.21870;,
 -293.50403;229.32219;-8.21870;,
 -293.50403;213.68459;-8.21870;,
 -101.32717;213.68459;-8.21870;,
 -121.54150;417.26819;-4.02770;,
 -111.75650;417.26819;-4.02770;,
 -272.52301;1.50339;-4.02770;,
 -282.30798;1.50339;-4.02770;,
 -111.75650;417.26819;-4.02770;,
 -111.75650;417.26819;4.02770;,
 -272.52301;1.50339;4.02770;,
 -272.52301;1.50339;-4.02770;,
 -111.75650;417.26819;4.02770;,
 -121.54150;417.26819;4.02770;,
 -282.30798;1.50339;4.02770;,
 -272.52301;1.50339;4.02770;,
 -121.54150;417.26819;4.02770;,
 -121.54150;417.26819;-4.02770;,
 -282.30798;1.50339;-4.02770;,
 -282.30798;1.50339;4.02770;,
 -111.75650;417.26819;-4.02770;,
 -121.54150;417.26819;-4.02770;,
 -282.30798;1.50339;-4.02770;,
 -272.52301;1.50339;-4.02770;,
 -273.28967;417.26819;-4.02770;,
 -112.52319;1.50339;-4.02770;,
 -122.30819;1.50339;-4.02770;,
 -283.07471;417.26819;-4.02770;,
 -283.07471;417.26819;-4.02770;,
 -122.30819;1.50339;-4.02770;,
 -122.30819;1.50339;4.02770;,
 -283.07471;417.26819;4.02770;,
 -283.07471;417.26819;4.02770;,
 -122.30819;1.50339;4.02770;,
 -112.52319;1.50339;4.02770;,
 -273.28967;417.26819;4.02770;,
 -273.28967;417.26819;4.02770;,
 -112.52319;1.50339;4.02770;,
 -112.52319;1.50339;-4.02770;,
 -273.28967;417.26819;-4.02770;,
 -273.28967;417.26819;-4.02770;,
 -283.07471;417.26819;-4.02770;,
 -112.52319;1.50339;-4.02770;,
 -122.30819;1.50339;-4.02770;,
 311.21054;416.57819;-7.81880;,
 478.33936;416.57819;-7.81880;,
 478.33936;6.42859;-7.81880;,
 311.21054;6.42859;-7.81880;,
 478.33936;416.57819;-7.81880;,
 478.33936;416.57819;7.81880;,
 478.33936;6.42859;7.81880;,
 478.33936;6.42859;-7.81880;,
 478.33936;416.57819;7.81880;,
 311.21054;416.57819;7.81880;,
 311.21054;6.42859;7.81880;,
 478.33936;6.42859;7.81880;,
 311.21054;416.57819;7.81880;,
 311.21054;416.57819;-7.81880;,
 311.21054;6.42859;-7.81880;,
 311.21054;6.42859;7.81880;,
 478.33936;416.57819;-7.81880;,
 311.21054;416.57819;-7.81880;,
 311.21054;6.42859;-7.81880;,
 478.33936;6.42859;-7.81880;,
 296.09274;421.50339;-11.03060;,
 313.45715;421.50339;-11.03060;,
 313.45715;1.50339;-11.03060;,
 296.09274;1.50339;-11.03060;,
 313.45715;421.50339;-11.03060;,
 313.45715;421.50339;11.03060;,
 313.45715;1.50339;11.03060;,
 313.45715;1.50339;-11.03060;,
 313.45715;421.50339;11.03060;,
 296.09274;421.50339;11.03060;,
 296.09274;1.50339;11.03060;,
 313.45715;1.50339;11.03060;,
 296.09274;421.50339;11.03060;,
 296.09274;421.50339;-11.03060;,
 296.09274;1.50339;-11.03060;,
 296.09274;1.50339;11.03060;,
 313.45715;421.50339;-11.03060;,
 296.09274;421.50339;-11.03060;,
 296.09274;1.50339;-11.03060;,
 313.45715;1.50339;-11.03060;,
 493.45715;421.50339;-11.03060;,
 493.45715;1.50339;-11.03060;,
 476.09271;1.50339;-11.03060;,
 476.09271;421.50339;-11.03060;,
 476.09271;421.50339;-11.03060;,
 476.09271;1.50339;-11.03060;,
 476.09271;1.50339;11.03060;,
 476.09271;421.50339;11.03060;,
 476.09271;421.50339;11.03060;,
 476.09271;1.50339;11.03060;,
 493.45715;1.50339;11.03060;,
 493.45715;421.50339;11.03060;,
 493.45715;421.50339;11.03060;,
 493.45715;1.50339;11.03060;,
 493.45715;1.50339;-11.03060;,
 493.45715;421.50339;-11.03060;,
 493.45715;421.50339;-11.03060;,
 476.09271;421.50339;-11.03060;,
 493.45715;1.50339;-11.03060;,
 476.09271;1.50339;-11.03060;,
 298.68643;229.32219;-8.21870;,
 490.86346;229.32219;-8.21870;,
 490.86346;213.68459;-8.21870;,
 298.68643;213.68459;-8.21870;,
 490.86346;229.32219;-8.21870;,
 490.86346;229.32219;8.21870;,
 490.86346;213.68459;8.21870;,
 490.86346;213.68459;-8.21870;,
 490.86346;229.32219;8.21870;,
 298.68643;229.32219;8.21870;,
 298.68643;213.68459;8.21870;,
 490.86346;213.68459;8.21870;,
 298.68643;229.32219;8.21870;,
 298.68643;229.32219;-8.21870;,
 298.68643;213.68459;-8.21870;,
 298.68643;213.68459;8.21870;,
 490.86346;229.32219;-8.21870;,
 298.68643;229.32219;-8.21870;,
 298.68643;213.68459;-8.21870;,
 490.86346;213.68459;-8.21870;,
 470.64911;417.26819;-4.02770;,
 480.43414;417.26819;-4.02770;,
 319.66745;1.50339;-4.02770;,
 309.88245;1.50339;-4.02770;,
 480.43414;417.26819;-4.02770;,
 480.43414;417.26819;4.02770;,
 319.66745;1.50339;4.02770;,
 319.66745;1.50339;-4.02770;,
 480.43414;417.26819;4.02770;,
 470.64911;417.26819;4.02770;,
 309.88245;1.50339;4.02770;,
 319.66745;1.50339;4.02770;,
 470.64911;417.26819;4.02770;,
 470.64911;417.26819;-4.02770;,
 309.88245;1.50339;-4.02770;,
 309.88245;1.50339;4.02770;,
 480.43414;417.26819;-4.02770;,
 470.64911;417.26819;-4.02770;,
 309.88245;1.50339;-4.02770;,
 319.66745;1.50339;-4.02770;,
 318.90076;417.26819;-4.02770;,
 479.66742;1.50339;-4.02770;,
 469.88245;1.50339;-4.02770;,
 309.11572;417.26819;-4.02770;,
 309.11572;417.26819;-4.02770;,
 469.88245;1.50339;-4.02770;,
 469.88245;1.50339;4.02770;,
 309.11572;417.26819;4.02770;,
 309.11572;417.26819;4.02770;,
 469.88245;1.50339;4.02770;,
 479.66742;1.50339;4.02770;,
 318.90076;417.26819;4.02770;,
 318.90076;417.26819;4.02770;,
 479.66742;1.50339;4.02770;,
 479.66742;1.50339;-4.02770;,
 318.90076;417.26819;-4.02770;,
 318.90076;417.26819;-4.02770;,
 309.11572;417.26819;-4.02770;,
 479.66742;1.50339;-4.02770;,
 469.88245;1.50339;-4.02770;,
 -478.30341;416.57819;-7.81880;,
 -311.17462;416.57819;-7.81880;,
 -311.17462;6.42859;-7.81880;,
 -478.30341;6.42859;-7.81880;,
 -311.17462;416.57819;-7.81880;,
 -311.17462;416.57819;7.81880;,
 -311.17462;6.42859;7.81880;,
 -311.17462;6.42859;-7.81880;,
 -311.17462;416.57819;7.81880;,
 -478.30341;416.57819;7.81880;,
 -478.30341;6.42859;7.81880;,
 -311.17462;6.42859;7.81880;,
 -478.30341;416.57819;7.81880;,
 -478.30341;416.57819;-7.81880;,
 -478.30341;6.42859;-7.81880;,
 -478.30341;6.42859;7.81880;,
 -311.17462;416.57819;-7.81880;,
 -478.30341;416.57819;-7.81880;,
 -478.30341;6.42859;-7.81880;,
 -311.17462;6.42859;-7.81880;,
 -493.42120;421.50339;-11.03060;,
 -476.05682;421.50339;-11.03060;,
 -476.05682;1.50339;-11.03060;,
 -493.42120;1.50339;-11.03060;,
 -476.05682;421.50339;-11.03060;,
 -476.05682;421.50339;11.03060;,
 -476.05682;1.50339;11.03060;,
 -476.05682;1.50339;-11.03060;,
 -476.05682;421.50339;11.03060;,
 -493.42120;421.50339;11.03060;,
 -493.42120;1.50339;11.03060;,
 -476.05682;1.50339;11.03060;,
 -493.42120;421.50339;11.03060;,
 -493.42120;421.50339;-11.03060;,
 -493.42120;1.50339;-11.03060;,
 -493.42120;1.50339;11.03060;,
 -476.05682;421.50339;-11.03060;,
 -493.42120;421.50339;-11.03060;,
 -493.42120;1.50339;-11.03060;,
 -476.05682;1.50339;-11.03060;,
 -296.05682;421.50339;-11.03060;,
 -296.05682;1.50339;-11.03060;,
 -313.42123;1.50339;-11.03060;,
 -313.42123;421.50339;-11.03060;,
 -313.42123;421.50339;-11.03060;,
 -313.42123;1.50339;-11.03060;,
 -313.42123;1.50339;11.03060;,
 -313.42123;421.50339;11.03060;,
 -313.42123;421.50339;11.03060;,
 -313.42123;1.50339;11.03060;,
 -296.05682;1.50339;11.03060;,
 -296.05682;421.50339;11.03060;,
 -296.05682;421.50339;11.03060;,
 -296.05682;1.50339;11.03060;,
 -296.05682;1.50339;-11.03060;,
 -296.05682;421.50339;-11.03060;,
 -296.05682;421.50339;-11.03060;,
 -313.42123;421.50339;-11.03060;,
 -296.05682;1.50339;-11.03060;,
 -313.42123;1.50339;-11.03060;,
 -490.82751;229.32219;-8.21870;,
 -298.65051;229.32219;-8.21870;,
 -298.65051;213.68459;-8.21870;,
 -490.82751;213.68459;-8.21870;,
 -298.65051;229.32219;-8.21870;,
 -298.65051;229.32219;8.21870;,
 -298.65051;213.68459;8.21870;,
 -298.65051;213.68459;-8.21870;,
 -298.65051;229.32219;8.21870;,
 -490.82751;229.32219;8.21870;,
 -490.82751;213.68459;8.21870;,
 -298.65051;213.68459;8.21870;,
 -490.82751;229.32219;8.21870;,
 -490.82751;229.32219;-8.21870;,
 -490.82751;213.68459;-8.21870;,
 -490.82751;213.68459;8.21870;,
 -298.65051;229.32219;-8.21870;,
 -490.82751;229.32219;-8.21870;,
 -490.82751;213.68459;-8.21870;,
 -298.65051;213.68459;-8.21870;,
 -318.86484;417.26819;-4.02770;,
 -309.07983;417.26819;-4.02770;,
 -469.84650;1.50339;-4.02770;,
 -479.63153;1.50339;-4.02770;,
 -309.07983;417.26819;-4.02770;,
 -309.07983;417.26819;4.02770;,
 -469.84650;1.50339;4.02770;,
 -469.84650;1.50339;-4.02770;,
 -309.07983;417.26819;4.02770;,
 -318.86484;417.26819;4.02770;,
 -479.63153;1.50339;4.02770;,
 -469.84650;1.50339;4.02770;,
 -318.86484;417.26819;4.02770;,
 -318.86484;417.26819;-4.02770;,
 -479.63153;1.50339;-4.02770;,
 -479.63153;1.50339;4.02770;,
 -309.07983;417.26819;-4.02770;,
 -318.86484;417.26819;-4.02770;,
 -479.63153;1.50339;-4.02770;,
 -469.84650;1.50339;-4.02770;,
 -470.61322;417.26819;-4.02770;,
 -309.84650;1.50339;-4.02770;,
 -319.63150;1.50339;-4.02770;,
 -480.39825;417.26819;-4.02770;,
 -480.39825;417.26819;-4.02770;,
 -319.63150;1.50339;-4.02770;,
 -319.63150;1.50339;4.02770;,
 -480.39825;417.26819;4.02770;,
 -480.39825;417.26819;4.02770;,
 -319.63150;1.50339;4.02770;,
 -309.84650;1.50339;4.02770;,
 -470.61322;417.26819;4.02770;,
 -470.61322;417.26819;4.02770;,
 -309.84650;1.50339;4.02770;,
 -309.84650;1.50339;-4.02770;,
 -470.61322;417.26819;-4.02770;,
 -470.61322;417.26819;-4.02770;,
 -480.39825;417.26819;-4.02770;,
 -309.84650;1.50339;-4.02770;,
 -319.63150;1.50339;-4.02770;;
 
 180;
 4;0,1,2,3;,
 4;4,5,6,7;,
 4;8,9,10,11;,
 4;12,13,14,15;,
 4;12,5,16,17;,
 4;18,19,6,15;,
 4;20,21,22,23;,
 4;24,25,26,27;,
 4;28,29,30,31;,
 4;32,33,34,35;,
 4;32,25,36,37;,
 4;38,39,26,35;,
 4;40,41,42,43;,
 4;44,45,46,47;,
 4;48,49,50,51;,
 4;52,53,54,55;,
 4;52,56,57,47;,
 4;58,53,46,59;,
 4;60,61,62,63;,
 4;64,65,66,67;,
 4;68,69,70,71;,
 4;72,73,74,75;,
 4;72,65,76,77;,
 4;78,79,66,75;,
 4;80,81,82,83;,
 4;84,85,86,87;,
 4;88,89,90,91;,
 4;92,93,94,95;,
 4;92,85,96,97;,
 4;98,99,86,95;,
 4;100,101,102,103;,
 4;104,105,106,107;,
 4;108,109,110,111;,
 4;112,113,114,115;,
 4;112,116,117,107;,
 4;118,113,106,119;,
 4;120,121,122,123;,
 4;124,125,126,127;,
 4;128,129,130,131;,
 4;132,133,134,135;,
 4;132,125,136,137;,
 4;138,139,126,135;,
 4;140,141,142,143;,
 4;144,145,146,147;,
 4;148,149,150,151;,
 4;152,153,154,155;,
 4;152,145,156,157;,
 4;158,159,146,155;,
 4;160,161,162,163;,
 4;164,165,166,167;,
 4;168,169,170,171;,
 4;172,173,174,175;,
 4;172,176,177,167;,
 4;178,173,166,179;,
 4;180,181,182,183;,
 4;184,185,186,187;,
 4;188,189,190,191;,
 4;192,193,194,195;,
 4;192,185,196,197;,
 4;198,199,186,195;,
 4;200,201,202,203;,
 4;204,205,206,207;,
 4;208,209,210,211;,
 4;212,213,214,215;,
 4;212,205,216,217;,
 4;218,219,206,215;,
 4;220,221,222,223;,
 4;224,225,226,227;,
 4;228,229,230,231;,
 4;232,233,234,235;,
 4;232,236,237,227;,
 4;238,233,226,239;,
 4;240,241,242,243;,
 4;244,245,246,247;,
 4;248,249,250,251;,
 4;252,253,254,255;,
 4;252,245,256,257;,
 4;258,259,246,255;,
 4;260,261,262,263;,
 4;264,265,266,267;,
 4;268,269,270,271;,
 4;272,273,274,275;,
 4;272,265,276,277;,
 4;278,279,266,275;,
 4;280,281,282,283;,
 4;284,285,286,287;,
 4;288,289,290,291;,
 4;292,293,294,295;,
 4;292,296,297,287;,
 4;298,293,286,299;,
 4;300,301,302,303;,
 4;304,305,306,307;,
 4;308,309,310,311;,
 4;312,313,314,315;,
 4;312,305,316,317;,
 4;318,319,306,315;,
 4;320,321,322,323;,
 4;324,325,326,327;,
 4;328,329,330,331;,
 4;332,333,334,335;,
 4;332,325,336,337;,
 4;338,339,326,335;,
 4;340,341,342,343;,
 4;344,345,346,347;,
 4;348,349,350,351;,
 4;352,353,354,355;,
 4;352,356,357,347;,
 4;358,353,346,359;,
 4;360,361,362,363;,
 4;364,365,366,367;,
 4;368,369,370,371;,
 4;372,373,374,375;,
 4;372,365,376,377;,
 4;378,379,366,375;,
 4;380,381,382,383;,
 4;384,385,386,387;,
 4;388,389,390,391;,
 4;392,393,394,395;,
 4;392,385,396,397;,
 4;398,399,386,395;,
 4;400,401,402,403;,
 4;404,405,406,407;,
 4;408,409,410,411;,
 4;412,413,414,415;,
 4;412,416,417,407;,
 4;418,413,406,419;,
 4;420,421,422,423;,
 4;424,425,426,427;,
 4;428,429,430,431;,
 4;432,433,434,435;,
 4;432,425,436,437;,
 4;438,439,426,435;,
 4;440,441,442,443;,
 4;444,445,446,447;,
 4;448,449,450,451;,
 4;452,453,454,455;,
 4;452,445,456,457;,
 4;458,459,446,455;,
 4;460,461,462,463;,
 4;464,465,466,467;,
 4;468,469,470,471;,
 4;472,473,474,475;,
 4;472,476,477,467;,
 4;478,473,466,479;,
 4;480,481,482,483;,
 4;484,485,486,487;,
 4;488,489,490,491;,
 4;492,493,494,495;,
 4;492,485,496,497;,
 4;498,499,486,495;,
 4;500,501,502,503;,
 4;504,505,506,507;,
 4;508,509,510,511;,
 4;512,513,514,515;,
 4;512,505,516,517;,
 4;518,519,506,515;,
 4;520,521,522,523;,
 4;524,525,526,527;,
 4;528,529,530,531;,
 4;532,533,534,535;,
 4;532,536,537,527;,
 4;538,533,526,539;,
 4;540,541,542,543;,
 4;544,545,546,547;,
 4;548,549,550,551;,
 4;552,553,554,555;,
 4;552,545,556,557;,
 4;558,559,546,555;,
 4;560,561,562,563;,
 4;564,565,566,567;,
 4;568,569,570,571;,
 4;572,573,574,575;,
 4;572,565,576,577;,
 4;578,579,566,575;,
 4;580,581,582,583;,
 4;584,585,586,587;,
 4;588,589,590,591;,
 4;592,593,594,595;,
 4;592,596,597,587;,
 4;598,593,586,599;;
 
 MeshMaterialList {
  2;
  180;
  0,
  0,
  0,
  0,
  0,
  0,
  1,
  1,
  1,
  1,
  1,
  1,
  1,
  1,
  1,
  1,
  1,
  1,
  1,
  1,
  1,
  1,
  1,
  1,
  1,
  1,
  1,
  1,
  1,
  1,
  1,
  1,
  1,
  1,
  1,
  1,
  0,
  0,
  0,
  0,
  0,
  0,
  1,
  1,
  1,
  1,
  1,
  1,
  1,
  1,
  1,
  1,
  1,
  1,
  1,
  1,
  1,
  1,
  1,
  1,
  1,
  1,
  1,
  1,
  1,
  1,
  1,
  1,
  1,
  1,
  1,
  1,
  0,
  0,
  0,
  0,
  0,
  0,
  1,
  1,
  1,
  1,
  1,
  1,
  1,
  1,
  1,
  1,
  1,
  1,
  1,
  1,
  1,
  1,
  1,
  1,
  1,
  1,
  1,
  1,
  1,
  1,
  1,
  1,
  1,
  1,
  1,
  1,
  0,
  0,
  0,
  0,
  0,
  0,
  1,
  1,
  1,
  1,
  1,
  1,
  1,
  1,
  1,
  1,
  1,
  1,
  1,
  1,
  1,
  1,
  1,
  1,
  1,
  1,
  1,
  1,
  1,
  1,
  1,
  1,
  1,
  1,
  1,
  1,
  0,
  0,
  0,
  0,
  0,
  0,
  1,
  1,
  1,
  1,
  1,
  1,
  1,
  1,
  1,
  1,
  1,
  1,
  1,
  1,
  1,
  1,
  1,
  1,
  1,
  1,
  1,
  1,
  1,
  1,
  1,
  1,
  1,
  1,
  1,
  1;;
  Material {
   0.800000;0.800000;0.800000;1.000000;;
   5.000000;
   0.000000;0.000000;0.000000;;
   0.000000;0.000000;0.000000;;
   TextureFilename {
    "data/TEXTURE/amime.png";
   }
  }
  Material {
   0.599200;0.599200;0.599200;1.000000;;
   15.000000;
   0.810000;0.810000;0.810000;;
   0.000000;0.000000;0.000000;;
  }
 }
 MeshNormals {
  50;
  0.000000;0.000000;-1.000000;,
  1.000000;0.000000;0.000000;,
  0.000000;0.000000;1.000000;,
  -1.000000;0.000000;0.000000;,
  0.932700;-0.360654;-0.000000;,
  -0.932700;-0.360654;0.000000;,
  0.000000;1.000000;0.000000;,
  0.000000;-1.000000;-0.000000;,
  -0.932700;0.360654;0.000000;,
  0.932700;0.360654;0.000000;,
  0.000000;0.000000;-1.000000;,
  1.000000;0.000000;0.000000;,
  0.000000;0.000000;1.000000;,
  -1.000000;0.000000;0.000000;,
  0.932700;-0.360654;-0.000000;,
  -0.932700;-0.360654;0.000000;,
  0.000000;1.000000;0.000000;,
  0.000000;-1.000000;-0.000000;,
  -0.932700;0.360654;0.000000;,
  0.932700;0.360654;0.000000;,
  0.000000;0.000000;-1.000000;,
  1.000000;0.000000;0.000000;,
  0.000000;0.000000;1.000000;,
  -1.000000;0.000000;0.000000;,
  0.932700;-0.360653;-0.000000;,
  -0.932700;-0.360653;0.000000;,
  0.000000;1.000000;0.000000;,
  0.000000;-1.000000;-0.000000;,
  -0.932700;0.360653;0.000000;,
  0.932700;0.360653;0.000000;,
  0.000000;0.000000;-1.000000;,
  1.000000;0.000000;0.000000;,
  0.000000;0.000000;1.000000;,
  -1.000000;0.000000;0.000000;,
  0.932700;-0.360654;-0.000000;,
  -0.932700;-0.360654;0.000000;,
  0.000000;1.000000;0.000000;,
  0.000000;-1.000000;-0.000000;,
  -0.932700;0.360654;0.000000;,
  0.932700;0.360654;0.000000;,
  0.000000;0.000000;-1.000000;,
  1.000000;0.000000;0.000000;,
  0.000000;0.000000;1.000000;,
  -1.000000;0.000000;0.000000;,
  0.932700;-0.360654;-0.000000;,
  -0.932700;-0.360654;0.000000;,
  0.000000;1.000000;0.000000;,
  0.000000;-1.000000;-0.000000;,
  -0.932700;0.360654;0.000000;,
  0.932700;0.360654;0.000000;;
  180;
  4;0,0,0,0;,
  4;1,1,1,1;,
  4;2,2,2,2;,
  4;3,3,3,3;,
  4;6,6,6,6;,
  4;7,7,7,7;,
  4;0,0,0,0;,
  4;1,1,1,1;,
  4;2,2,2,2;,
  4;3,3,3,3;,
  4;6,6,6,6;,
  4;7,7,7,7;,
  4;0,0,0,0;,
  4;3,3,3,3;,
  4;2,2,2,2;,
  4;1,1,1,1;,
  4;6,6,6,6;,
  4;7,7,7,7;,
  4;0,0,0,0;,
  4;1,1,1,1;,
  4;2,2,2,2;,
  4;3,3,3,3;,
  4;6,6,6,6;,
  4;7,7,7,7;,
  4;0,0,0,0;,
  4;4,4,4,4;,
  4;2,2,2,2;,
  4;8,8,8,8;,
  4;6,6,6,6;,
  4;7,7,7,7;,
  4;0,0,0,0;,
  4;5,5,5,5;,
  4;2,2,2,2;,
  4;9,9,9,9;,
  4;6,6,6,6;,
  4;7,7,7,7;,
  4;10,10,10,10;,
  4;11,11,11,11;,
  4;12,12,12,12;,
  4;13,13,13,13;,
  4;16,16,16,16;,
  4;17,17,17,17;,
  4;10,10,10,10;,
  4;11,11,11,11;,
  4;12,12,12,12;,
  4;13,13,13,13;,
  4;16,16,16,16;,
  4;17,17,17,17;,
  4;10,10,10,10;,
  4;13,13,13,13;,
  4;12,12,12,12;,
  4;11,11,11,11;,
  4;16,16,16,16;,
  4;17,17,17,17;,
  4;10,10,10,10;,
  4;11,11,11,11;,
  4;12,12,12,12;,
  4;13,13,13,13;,
  4;16,16,16,16;,
  4;17,17,17,17;,
  4;10,10,10,10;,
  4;14,14,14,14;,
  4;12,12,12,12;,
  4;18,18,18,18;,
  4;16,16,16,16;,
  4;17,17,17,17;,
  4;10,10,10,10;,
  4;15,15,15,15;,
  4;12,12,12,12;,
  4;19,19,19,19;,
  4;16,16,16,16;,
  4;17,17,17,17;,
  4;20,20,20,20;,
  4;21,21,21,21;,
  4;22,22,22,22;,
  4;23,23,23,23;,
  4;26,26,26,26;,
  4;27,27,27,27;,
  4;20,20,20,20;,
  4;21,21,21,21;,
  4;22,22,22,22;,
  4;23,23,23,23;,
  4;26,26,26,26;,
  4;27,27,27,27;,
  4;20,20,20,20;,
  4;23,23,23,23;,
  4;22,22,22,22;,
  4;21,21,21,21;,
  4;26,26,26,26;,
  4;27,27,27,27;,
  4;20,20,20,20;,
  4;21,21,21,21;,
  4;22,22,22,22;,
  4;23,23,23,23;,
  4;26,26,26,26;,
  4;27,27,27,27;,
  4;20,20,20,20;,
  4;24,24,24,24;,
  4;22,22,22,22;,
  4;28,28,28,28;,
  4;26,26,26,26;,
  4;27,27,27,27;,
  4;20,20,20,20;,
  4;25,25,25,25;,
  4;22,22,22,22;,
  4;29,29,29,29;,
  4;26,26,26,26;,
  4;27,27,27,27;,
  4;30,30,30,30;,
  4;31,31,31,31;,
  4;32,32,32,32;,
  4;33,33,33,33;,
  4;36,36,36,36;,
  4;37,37,37,37;,
  4;30,30,30,30;,
  4;31,31,31,31;,
  4;32,32,32,32;,
  4;33,33,33,33;,
  4;36,36,36,36;,
  4;37,37,37,37;,
  4;30,30,30,30;,
  4;33,33,33,33;,
  4;32,32,32,32;,
  4;31,31,31,31;,
  4;36,36,36,36;,
  4;37,37,37,37;,
  4;30,30,30,30;,
  4;31,31,31,31;,
  4;32,32,32,32;,
  4;33,33,33,33;,
  4;36,36,36,36;,
  4;37,37,37,37;,
  4;30,30,30,30;,
  4;34,34,34,34;,
  4;32,32,32,32;,
  4;38,38,38,38;,
  4;36,36,36,36;,
  4;37,37,37,37;,
  4;30,30,30,30;,
  4;35,35,35,35;,
  4;32,32,32,32;,
  4;39,39,39,39;,
  4;36,36,36,36;,
  4;37,37,37,37;,
  4;40,40,40,40;,
  4;41,41,41,41;,
  4;42,42,42,42;,
  4;43,43,43,43;,
  4;46,46,46,46;,
  4;47,47,47,47;,
  4;40,40,40,40;,
  4;41,41,41,41;,
  4;42,42,42,42;,
  4;43,43,43,43;,
  4;46,46,46,46;,
  4;47,47,47,47;,
  4;40,40,40,40;,
  4;43,43,43,43;,
  4;42,42,42,42;,
  4;41,41,41,41;,
  4;46,46,46,46;,
  4;47,47,47,47;,
  4;40,40,40,40;,
  4;41,41,41,41;,
  4;42,42,42,42;,
  4;43,43,43,43;,
  4;46,46,46,46;,
  4;47,47,47,47;,
  4;40,40,40,40;,
  4;44,44,44,44;,
  4;42,42,42,42;,
  4;48,48,48,48;,
  4;46,46,46,46;,
  4;47,47,47,47;,
  4;40,40,40,40;,
  4;45,45,45,45;,
  4;42,42,42,42;,
  4;49,49,49,49;,
  4;46,46,46,46;,
  4;47,47,47,47;;
 }
 MeshTextureCoords {
  600;
  0.000000;0.000000;,
  1.000000;0.000000;,
  1.000000;1.000000;,
  0.000000;1.000000;,
  0.000000;0.000000;,
  1.000000;0.000000;,
  1.000000;1.000000;,
  0.000000;1.000000;,
  0.000000;0.000000;,
  1.000000;0.000000;,
  1.000000;1.000000;,
  0.000000;1.000000;,
  0.000000;0.000000;,
  1.000000;0.000000;,
  1.000000;1.000000;,
  0.000000;1.000000;,
  1.000000;1.000000;,
  0.000000;1.000000;,
  0.000000;0.000000;,
  1.000000;0.000000;,
  0.000000;0.000000;,
  1.000000;0.000000;,
  1.000000;1.000000;,
  0.000000;1.000000;,
  0.000000;0.000000;,
  1.000000;0.000000;,
  1.000000;1.000000;,
  0.000000;1.000000;,
  0.000000;0.000000;,
  1.000000;0.000000;,
  1.000000;1.000000;,
  0.000000;1.000000;,
  0.000000;0.000000;,
  1.000000;0.000000;,
  1.000000;1.000000;,
  0.000000;1.000000;,
  1.000000;1.000000;,
  0.000000;1.000000;,
  0.000000;0.000000;,
  1.000000;0.000000;,
  0.000000;0.000000;,
  0.000000;1.000000;,
  1.000000;1.000000;,
  1.000000;0.000000;,
  0.000000;0.000000;,
  0.000000;1.000000;,
  1.000000;1.000000;,
  1.000000;0.000000;,
  0.000000;0.000000;,
  0.000000;1.000000;,
  1.000000;1.000000;,
  1.000000;0.000000;,
  0.000000;0.000000;,
  0.000000;1.000000;,
  1.000000;1.000000;,
  1.000000;0.000000;,
  0.000000;1.000000;,
  1.000000;1.000000;,
  0.000000;0.000000;,
  1.000000;0.000000;,
  0.000000;0.000000;,
  1.000000;0.000000;,
  1.000000;1.000000;,
  0.000000;1.000000;,
  0.000000;0.000000;,
  1.000000;0.000000;,
  1.000000;1.000000;,
  0.000000;1.000000;,
  0.000000;0.000000;,
  1.000000;0.000000;,
  1.000000;1.000000;,
  0.000000;1.000000;,
  0.000000;0.000000;,
  1.000000;0.000000;,
  1.000000;1.000000;,
  0.000000;1.000000;,
  1.000000;1.000000;,
  0.000000;1.000000;,
  0.000000;0.000000;,
  1.000000;0.000000;,
  0.000000;0.000000;,
  1.000000;0.000000;,
  1.000000;1.000000;,
  0.000000;1.000000;,
  0.000000;0.000000;,
  1.000000;0.000000;,
  1.000000;1.000000;,
  0.000000;1.000000;,
  0.000000;0.000000;,
  1.000000;0.000000;,
  1.000000;1.000000;,
  0.000000;1.000000;,
  0.000000;0.000000;,
  1.000000;0.000000;,
  1.000000;1.000000;,
  0.000000;1.000000;,
  1.000000;1.000000;,
  0.000000;1.000000;,
  0.000000;0.000000;,
  1.000000;0.000000;,
  0.000000;0.000000;,
  0.000000;1.000000;,
  1.000000;1.000000;,
  1.000000;0.000000;,
  0.000000;0.000000;,
  0.000000;1.000000;,
  1.000000;1.000000;,
  1.000000;0.000000;,
  0.000000;0.000000;,
  0.000000;1.000000;,
  1.000000;1.000000;,
  1.000000;0.000000;,
  0.000000;0.000000;,
  0.000000;1.000000;,
  1.000000;1.000000;,
  1.000000;0.000000;,
  0.000000;1.000000;,
  1.000000;1.000000;,
  0.000000;0.000000;,
  1.000000;0.000000;,
  0.000000;0.000000;,
  1.000000;0.000000;,
  1.000000;1.000000;,
  0.000000;1.000000;,
  0.000000;0.000000;,
  1.000000;0.000000;,
  1.000000;1.000000;,
  0.000000;1.000000;,
  0.000000;0.000000;,
  1.000000;0.000000;,
  1.000000;1.000000;,
  0.000000;1.000000;,
  0.000000;0.000000;,
  1.000000;0.000000;,
  1.000000;1.000000;,
  0.000000;1.000000;,
  1.000000;1.000000;,
  0.000000;1.000000;,
  0.000000;0.000000;,
  1.000000;0.000000;,
  0.000000;0.000000;,
  1.000000;0.000000;,
  1.000000;1.000000;,
  0.000000;1.000000;,
  0.000000;0.000000;,
  1.000000;0.000000;,
  1.000000;1.000000;,
  0.000000;1.000000;,
  0.000000;0.000000;,
  1.000000;0.000000;,
  1.000000;1.000000;,
  0.000000;1.000000;,
  0.000000;0.000000;,
  1.000000;0.000000;,
  1.000000;1.000000;,
  0.000000;1.000000;,
  1.000000;1.000000;,
  0.000000;1.000000;,
  0.000000;0.000000;,
  1.000000;0.000000;,
  0.000000;0.000000;,
  0.000000;1.000000;,
  1.000000;1.000000;,
  1.000000;0.000000;,
  0.000000;0.000000;,
  0.000000;1.000000;,
  1.000000;1.000000;,
  1.000000;0.000000;,
  0.000000;0.000000;,
  0.000000;1.000000;,
  1.000000;1.000000;,
  1.000000;0.000000;,
  0.000000;0.000000;,
  0.000000;1.000000;,
  1.000000;1.000000;,
  1.000000;0.000000;,
  0.000000;1.000000;,
  1.000000;1.000000;,
  0.000000;0.000000;,
  1.000000;0.000000;,
  0.000000;0.000000;,
  1.000000;0.000000;,
  1.000000;1.000000;,
  0.000000;1.000000;,
  0.000000;0.000000;,
  1.000000;0.000000;,
  1.000000;1.000000;,
  0.000000;1.000000;,
  0.000000;0.000000;,
  1.000000;0.000000;,
  1.000000;1.000000;,
  0.000000;1.000000;,
  0.000000;0.000000;,
  1.000000;0.000000;,
  1.000000;1.000000;,
  0.000000;1.000000;,
  1.000000;1.000000;,
  0.000000;1.000000;,
  0.000000;0.000000;,
  1.000000;0.000000;,
  0.000000;0.000000;,
  1.000000;0.000000;,
  1.000000;1.000000;,
  0.000000;1.000000;,
  0.000000;0.000000;,
  1.000000;0.000000;,
  1.000000;1.000000;,
  0.000000;1.000000;,
  0.000000;0.000000;,
  1.000000;0.000000;,
  1.000000;1.000000;,
  0.000000;1.000000;,
  0.000000;0.000000;,
  1.000000;0.000000;,
  1.000000;1.000000;,
  0.000000;1.000000;,
  1.000000;1.000000;,
  0.000000;1.000000;,
  0.000000;0.000000;,
  1.000000;0.000000;,
  0.000000;0.000000;,
  0.000000;1.000000;,
  1.000000;1.000000;,
  1.000000;0.000000;,
  0.000000;0.000000;,
  0.000000;1.000000;,
  1.000000;1.000000;,
  1.000000;0.000000;,
  0.000000;0.000000;,
  0.000000;1.000000;,
  1.000000;1.000000;,
  1.000000;0.000000;,
  0.000000;0.000000;,
  0.000000;1.000000;,
  1.000000;1.000000;,
  1.000000;0.000000;,
  0.000000;1.000000;,
  1.000000;1.000000;,
  0.000000;0.000000;,
  1.000000;0.000000;,
  0.000000;0.000000;,
  1.000000;0.000000;,
  1.000000;1.000000;,
  0.000000;1.000000;,
  0.000000;0.000000;,
  1.000000;0.000000;,
  1.000000;1.000000;,
  0.000000;1.000000;,
  0.000000;0.000000;,
  1.000000;0.000000;,
  1.000000;1.000000;,
  0.000000;1.000000;,
  0.000000;0.000000;,
  1.000000;0.000000;,
  1.000000;1.000000;,
  0.000000;1.000000;,
  1.000000;1.000000;,
  0.000000;1.000000;,
  0.000000;0.000000;,
  1.000000;0.000000;,
  0.000000;0.000000;,
  1.000000;0.000000;,
  1.000000;1.000000;,
  0.000000;1.000000;,
  0.000000;0.000000;,
  1.000000;0.000000;,
  1.000000;1.000000;,
  0.000000;1.000000;,
  0.000000;0.000000;,
  1.000000;0.000000;,
  1.000000;1.000000;,
  0.000000;1.000000;,
  0.000000;0.000000;,
  1.000000;0.000000;,
  1.000000;1.000000;,
  0.000000;1.000000;,
  1.000000;1.000000;,
  0.000000;1.000000;,
  0.000000;0.000000;,
  1.000000;0.000000;,
  0.000000;0.000000;,
  0.000000;1.000000;,
  1.000000;1.000000;,
  1.000000;0.000000;,
  0.000000;0.000000;,
  0.000000;1.000000;,
  1.000000;1.000000;,
  1.000000;0.000000;,
  0.000000;0.000000;,
  0.000000;1.000000;,
  1.000000;1.000000;,
  1.000000;0.000000;,
  0.000000;0.000000;,
  0.000000;1.000000;,
  1.000000;1.000000;,
  1.000000;0.000000;,
  0.000000;1.000000;,
  1.000000;1.000000;,
  0.000000;0.000000;,
  1.000000;0.000000;,
  0.000000;0.000000;,
  1.000000;0.000000;,
  1.000000;1.000000;,
  0.000000;1.000000;,
  0.000000;0.000000;,
  1.000000;0.000000;,
  1.000000;1.000000;,
  0.000000;1.000000;,
  0.000000;0.000000;,
  1.000000;0.000000;,
  1.000000;1.000000;,
  0.000000;1.000000;,
  0.000000;0.000000;,
  1.000000;0.000000;,
  1.000000;1.000000;,
  0.000000;1.000000;,
  1.000000;1.000000;,
  0.000000;1.000000;,
  0.000000;0.000000;,
  1.000000;0.000000;,
  0.000000;0.000000;,
  1.000000;0.000000;,
  1.000000;1.000000;,
  0.000000;1.000000;,
  0.000000;0.000000;,
  1.000000;0.000000;,
  1.000000;1.000000;,
  0.000000;1.000000;,
  0.000000;0.000000;,
  1.000000;0.000000;,
  1.000000;1.000000;,
  0.000000;1.000000;,
  0.000000;0.000000;,
  1.000000;0.000000;,
  1.000000;1.000000;,
  0.000000;1.000000;,
  1.000000;1.000000;,
  0.000000;1.000000;,
  0.000000;0.000000;,
  1.000000;0.000000;,
  0.000000;0.000000;,
  0.000000;1.000000;,
  1.000000;1.000000;,
  1.000000;0.000000;,
  0.000000;0.000000;,
  0.000000;1.000000;,
  1.000000;1.000000;,
  1.000000;0.000000;,
  0.000000;0.000000;,
  0.000000;1.000000;,
  1.000000;1.000000;,
  1.000000;0.000000;,
  0.000000;0.000000;,
  0.000000;1.000000;,
  1.000000;1.000000;,
  1.000000;0.000000;,
  0.000000;1.000000;,
  1.000000;1.000000;,
  0.000000;0.000000;,
  1.000000;0.000000;,
  0.000000;0.000000;,
  1.000000;0.000000;,
  1.000000;1.000000;,
  0.000000;1.000000;,
  0.000000;0.000000;,
  1.000000;0.000000;,
  1.000000;1.000000;,
  0.000000;1.000000;,
  0.000000;0.000000;,
  1.000000;0.000000;,
  1.000000;1.000000;,
  0.000000;1.000000;,
  0.000000;0.000000;,
  1.000000;0.000000;,
  1.000000;1.000000;,
  0.000000;1.000000;,
  1.000000;1.000000;,
  0.000000;1.000000;,
  0.000000;0.000000;,
  1.000000;0.000000;,
  0.000000;0.000000;,
  1.000000;0.000000;,
  1.000000;1.000000;,
  0.000000;1.000000;,
  0.000000;0.000000;,
  1.000000;0.000000;,
  1.000000;1.000000;,
  0.000000;1.000000;,
  0.000000;0.000000;,
  1.000000;0.000000;,
  1.000000;1.000000;,
  0.000000;1.000000;,
  0.000000;0.000000;,
  1.000000;0.000000;,
  1.000000;1.000000;,
  0.000000;1.000000;,
  1.000000;1.000000;,
  0.000000;1.000000;,
  0.000000;0.000000;,
  1.000000;0.000000;,
  0.000000;0.000000;,
  0.000000;1.000000;,
  1.000000;1.000000;,
  1.000000;0.000000;,
  0.000000;0.000000;,
  0.000000;1.000000;,
  1.000000;1.000000;,
  1.000000;0.000000;,
  0.000000;0.000000;,
  0.000000;1.000000;,
  1.000000;1.000000;,
  1.000000;0.000000;,
  0.000000;0.000000;,
  0.000000;1.000000;,
  1.000000;1.000000;,
  1.000000;0.000000;,
  0.000000;1.000000;,
  1.000000;1.000000;,
  0.000000;0.000000;,
  1.000000;0.000000;,
  0.000000;0.000000;,
  1.000000;0.000000;,
  1.000000;1.000000;,
  0.000000;1.000000;,
  0.000000;0.000000;,
  1.000000;0.000000;,
  1.000000;1.000000;,
  0.000000;1.000000;,
  0.000000;0.000000;,
  1.000000;0.000000;,
  1.000000;1.000000;,
  0.000000;1.000000;,
  0.000000;0.000000;,
  1.000000;0.000000;,
  1.000000;1.000000;,
  0.000000;1.000000;,
  1.000000;1.000000;,
  0.000000;1.000000;,
  0.000000;0.000000;,
  1.000000;0.000000;,
  0.000000;0.000000;,
  1.000000;0.000000;,
  1.000000;1.000000;,
  0.000000;1.000000;,
  0.000000;0.000000;,
  1.000000;0.000000;,
  1.000000;1.000000;,
  0.000000;1.000000;,
  0.000000;0.000000;,
  1.000000;0.000000;,
  1.000000;1.000000;,
  0.000000;1.000000;,
  0.000000;0.000000;,
  1.000000;0.000000;,
  1.000000;1.000000;,
  0.000000;1.000000;,
  1.000000;1.000000;,
  0.000000;1.000000;,
  0.000000;0.000000;,
  1.000000;0.000000;,
  0.000000;0.000000;,
  0.000000;1.000000;,
  1.000000;1.000000;,
  1.000000;0.000000;,
  0.000000;0.000000;,
  0.000000;1.000000;,
  1.000000;1.000000;,
  1.000000;0.000000;,
  0.000000;0.000000;,
  0.000000;1.000000;,
  1.000000;1.000000;,
  1.000000;0.000000;,
  0.000000;0.000000;,
  0.000000;1.000000;,
  1.000000;1.000000;,
  1.000000;0.000000;,
  0.000000;1.000000;,
  1.000000;1.000000;,
  0.000000;0.000000;,
  1.000000;0.000000;,
  0.000000;0.000000;,
  1.000000;0.000000;,
  1.000000;1.000000;,
  0.000000;1.000000;,
  0.000000;0.000000;,
  1.000000;0.000000;,
  1.000000;1.000000;,
  0.000000;1.000000;,
  0.000000;0.000000;,
  1.000000;0.000000;,
  1.000000;1.000000;,
  0.000000;1.000000;,
  0.000000;0.000000;,
  1.000000;0.000000;,
  1.000000;1.000000;,
  0.000000;1.000000;,
  1.000000;1.000000;,
  0.000000;1.000000;,
  0.000000;0.000000;,
  1.000000;0.000000;,
  0.000000;0.000000;,
  1.000000;0.000000;,
  1.000000;1.000000;,
  0.000000;1.000000;,
  0.000000;0.000000;,
  1.000000;0.000000;,
  1.000000;1.000000;,
  0.000000;1.000000;,
  0.000000;0.000000;,
  1.000000;0.000000;,
  1.000000;1.000000;,
  0.000000;1.000000;,
  0.000000;0.000000;,
  1.000000;0.000000;,
  1.000000;1.000000;,
  0.000000;1.000000;,
  1.000000;1.000000;,
  0.000000;1.000000;,
  0.000000;0.000000;,
  1.000000;0.000000;,
  0.000000;0.000000;,
  0.000000;1.000000;,
  1.000000;1.000000;,
  1.000000;0.000000;,
  0.000000;0.000000;,
  0.000000;1.000000;,
  1.000000;1.000000;,
  1.000000;0.000000;,
  0.000000;0.000000;,
  0.000000;1.000000;,
  1.000000;1.000000;,
  1.000000;0.000000;,
  0.000000;0.000000;,
  0.000000;1.000000;,
  1.000000;1.000000;,
  1.000000;0.000000;,
  0.000000;1.000000;,
  1.000000;1.000000;,
  0.000000;0.000000;,
  1.000000;0.000000;,
  0.000000;0.000000;,
  1.000000;0.000000;,
  1.000000;1.000000;,
  0.000000;1.000000;,
  0.000000;0.000000;,
  1.000000;0.000000;,
  1.000000;1.000000;,
  0.000000;1.000000;,
  0.000000;0.000000;,
  1.000000;0.000000;,
  1.000000;1.000000;,
  0.000000;1.000000;,
  0.000000;0.000000;,
  1.000000;0.000000;,
  1.000000;1.000000;,
  0.000000;1.000000;,
  1.000000;1.000000;,
  0.000000;1.000000;,
  0.000000;0.000000;,
  1.000000;0.000000;,
  0.000000;0.000000;,
  1.000000;0.000000;,
  1.000000;1.000000;,
  0.000000;1.000000;,
  0.000000;0.000000;,
  1.000000;0.000000;,
  1.000000;1.000000;,
  0.000000;1.000000;,
  0.000000;0.000000;,
  1.000000;0.000000;,
  1.000000;1.000000;,
  0.000000;1.000000;,
  0.000000;0.000000;,
  1.000000;0.000000;,
  1.000000;1.000000;,
  0.000000;1.000000;,
  1.000000;1.000000;,
  0.000000;1.000000;,
  0.000000;0.000000;,
  1.000000;0.000000;,
  0.000000;0.000000;,
  0.000000;1.000000;,
  1.000000;1.000000;,
  1.000000;0.000000;,
  0.000000;0.000000;,
  0.000000;1.000000;,
  1.000000;1.000000;,
  1.000000;0.000000;,
  0.000000;0.000000;,
  0.000000;1.000000;,
  1.000000;1.000000;,
  1.000000;0.000000;,
  0.000000;0.000000;,
  0.000000;1.000000;,
  1.000000;1.000000;,
  1.000000;0.000000;,
  0.000000;1.000000;,
  1.000000;1.000000;,
  0.000000;0.000000;,
  1.000000;0.000000;;
 }
}
