xof 0302txt 0064
template Header {
 <3D82AB43-62DA-11cf-AB39-0020AF71E433>
 WORD major;
 WORD minor;
 DWORD flags;
}

template Vector {
 <3D82AB5E-62DA-11cf-AB39-0020AF71E433>
 FLOAT x;
 FLOAT y;
 FLOAT z;
}

template Coords2d {
 <F6F23F44-7686-11cf-8F52-0040333594A3>
 FLOAT u;
 FLOAT v;
}

template Matrix4x4 {
 <F6F23F45-7686-11cf-8F52-0040333594A3>
 array FLOAT matrix[16];
}

template ColorRGBA {
 <35FF44E0-6C7C-11cf-8F52-0040333594A3>
 FLOAT red;
 FLOAT green;
 FLOAT blue;
 FLOAT alpha;
}

template ColorRGB {
 <D3E16E81-7835-11cf-8F52-0040333594A3>
 FLOAT red;
 FLOAT green;
 FLOAT blue;
}

template IndexedColor {
 <1630B820-7842-11cf-8F52-0040333594A3>
 DWORD index;
 ColorRGBA indexColor;
}

template Boolean {
 <4885AE61-78E8-11cf-8F52-0040333594A3>
 WORD truefalse;
}

template Boolean2d {
 <4885AE63-78E8-11cf-8F52-0040333594A3>
 Boolean u;
 Boolean v;
}

template MaterialWrap {
 <4885AE60-78E8-11cf-8F52-0040333594A3>
 Boolean u;
 Boolean v;
}

template TextureFilename {
 <A42790E1-7810-11cf-8F52-0040333594A3>
 STRING filename;
}

template Material {
 <3D82AB4D-62DA-11cf-AB39-0020AF71E433>
 ColorRGBA faceColor;
 FLOAT power;
 ColorRGB specularColor;
 ColorRGB emissiveColor;
 [...]
}

template MeshFace {
 <3D82AB5F-62DA-11cf-AB39-0020AF71E433>
 DWORD nFaceVertexIndices;
 array DWORD faceVertexIndices[nFaceVertexIndices];
}

template MeshFaceWraps {
 <4885AE62-78E8-11cf-8F52-0040333594A3>
 DWORD nFaceWrapValues;
 Boolean2d faceWrapValues;
}

template MeshTextureCoords {
 <F6F23F40-7686-11cf-8F52-0040333594A3>
 DWORD nTextureCoords;
 array Coords2d textureCoords[nTextureCoords];
}

template MeshMaterialList {
 <F6F23F42-7686-11cf-8F52-0040333594A3>
 DWORD nMaterials;
 DWORD nFaceIndexes;
 array DWORD faceIndexes[nFaceIndexes];
 [Material]
}

template MeshNormals {
 <F6F23F43-7686-11cf-8F52-0040333594A3>
 DWORD nNormals;
 array Vector normals[nNormals];
 DWORD nFaceNormals;
 array MeshFace faceNormals[nFaceNormals];
}

template MeshVertexColors {
 <1630B821-7842-11cf-8F52-0040333594A3>
 DWORD nVertexColors;
 array IndexedColor vertexColors[nVertexColors];
}

template Mesh {
 <3D82AB44-62DA-11cf-AB39-0020AF71E433>
 DWORD nVertices;
 array Vector vertices[nVertices];
 DWORD nFaces;
 array MeshFace faces[nFaces];
 [...]
}

Header{
1;
0;
1;
}

Mesh {
 146;
 -102.78771;627.30273;-13.46610;,
 -91.12562;627.30273;-6.73310;,
 -91.12562;0.61389;-6.73310;,
 -102.78771;0.61389;-13.46610;,
 -91.12562;627.30273;6.73310;,
 -91.12562;0.61389;6.73310;,
 -102.78771;627.30273;13.46610;,
 -102.78771;0.61389;13.46610;,
 -114.44972;627.30273;6.73310;,
 -114.44972;0.61389;6.73310;,
 -114.44972;627.30273;-6.73310;,
 -114.44972;0.61389;-6.73310;,
 -102.78771;627.30273;-13.46610;,
 -102.78771;0.61389;-13.46610;,
 -102.78771;627.30273;0.00000;,
 -102.78771;627.30273;0.00000;,
 -102.78771;627.30273;0.00000;,
 -102.78771;627.30273;0.00000;,
 -102.78771;627.30273;0.00000;,
 -102.78771;627.30273;0.00000;,
 -102.78771;0.61389;0.00000;,
 -102.78771;0.61389;0.00000;,
 -102.78771;0.61389;0.00000;,
 -102.78771;0.61389;0.00000;,
 -102.78771;0.61389;0.00000;,
 -102.78771;0.61389;0.00000;,
 -66.04990;416.57819;-7.81880;,
 101.07896;416.57819;-7.81880;,
 101.07896;6.42859;-7.81880;,
 -66.04990;6.42859;-7.81880;,
 101.07896;416.57819;-7.81880;,
 101.07896;416.57819;7.81880;,
 101.07896;6.42859;7.81880;,
 101.07896;6.42859;-7.81880;,
 101.07896;416.57819;7.81880;,
 -66.04990;416.57819;7.81880;,
 -66.04990;6.42859;7.81880;,
 101.07896;6.42859;7.81880;,
 -66.04990;416.57819;7.81880;,
 -66.04990;416.57819;-7.81880;,
 -66.04990;6.42859;-7.81880;,
 -66.04990;6.42859;7.81880;,
 101.07896;416.57819;-7.81880;,
 -66.04990;416.57819;-7.81880;,
 -66.04990;6.42859;-7.81880;,
 101.07896;6.42859;-7.81880;,
 -81.16758;421.50339;-11.03060;,
 -63.80320;421.50339;-11.03060;,
 -63.80320;1.50339;-11.03060;,
 -81.16758;1.50339;-11.03060;,
 -63.80320;421.50339;-11.03060;,
 -63.80320;421.50339;11.03060;,
 -63.80320;1.50339;11.03060;,
 -63.80320;1.50339;-11.03060;,
 -63.80320;421.50339;11.03060;,
 -81.16758;421.50339;11.03060;,
 -81.16758;1.50339;11.03060;,
 -63.80320;1.50339;11.03060;,
 -81.16758;421.50339;11.03060;,
 -81.16758;421.50339;-11.03060;,
 -81.16758;1.50339;-11.03060;,
 -81.16758;1.50339;11.03060;,
 -63.80320;421.50339;-11.03060;,
 -81.16758;421.50339;-11.03060;,
 -81.16758;1.50339;-11.03060;,
 -63.80320;1.50339;-11.03060;,
 116.19677;421.50339;-11.03060;,
 116.19677;1.50339;-11.03060;,
 98.83236;1.50339;-11.03060;,
 98.83236;421.50339;-11.03060;,
 98.83236;421.50339;-11.03060;,
 98.83236;1.50339;-11.03060;,
 98.83236;1.50339;11.03060;,
 98.83236;421.50339;11.03060;,
 98.83236;421.50339;11.03060;,
 98.83236;1.50339;11.03060;,
 116.19677;1.50339;11.03060;,
 116.19677;421.50339;11.03060;,
 116.19677;421.50339;11.03060;,
 116.19677;1.50339;11.03060;,
 116.19677;1.50339;-11.03060;,
 116.19677;421.50339;-11.03060;,
 116.19677;421.50339;-11.03060;,
 98.83236;421.50339;-11.03060;,
 116.19677;1.50339;-11.03060;,
 98.83236;1.50339;-11.03060;,
 -78.57389;229.32219;-8.21870;,
 113.60307;229.32219;-8.21870;,
 113.60307;213.68459;-8.21870;,
 -78.57389;213.68459;-8.21870;,
 113.60307;229.32219;-8.21870;,
 113.60307;229.32219;8.21870;,
 113.60307;213.68459;8.21870;,
 113.60307;213.68459;-8.21870;,
 113.60307;229.32219;8.21870;,
 -78.57389;229.32219;8.21870;,
 -78.57389;213.68459;8.21870;,
 113.60307;213.68459;8.21870;,
 -78.57389;229.32219;8.21870;,
 -78.57389;229.32219;-8.21870;,
 -78.57389;213.68459;-8.21870;,
 -78.57389;213.68459;8.21870;,
 113.60307;229.32219;-8.21870;,
 -78.57389;229.32219;-8.21870;,
 -78.57389;213.68459;-8.21870;,
 113.60307;213.68459;-8.21870;,
 93.38877;417.26819;-4.02770;,
 103.17376;417.26819;-4.02770;,
 -57.59287;1.50339;-4.02770;,
 -67.37791;1.50339;-4.02770;,
 103.17376;417.26819;-4.02770;,
 103.17376;417.26819;4.02770;,
 -57.59287;1.50339;4.02770;,
 -57.59287;1.50339;-4.02770;,
 103.17376;417.26819;4.02770;,
 93.38877;417.26819;4.02770;,
 -67.37791;1.50339;4.02770;,
 -57.59287;1.50339;4.02770;,
 93.38877;417.26819;4.02770;,
 93.38877;417.26819;-4.02770;,
 -67.37791;1.50339;-4.02770;,
 -67.37791;1.50339;4.02770;,
 103.17376;417.26819;-4.02770;,
 93.38877;417.26819;-4.02770;,
 -67.37791;1.50339;-4.02770;,
 -57.59287;1.50339;-4.02770;,
 -58.35960;417.26819;-4.02770;,
 102.40705;1.50339;-4.02770;,
 92.62208;1.50339;-4.02770;,
 -68.14457;417.26819;-4.02770;,
 -68.14457;417.26819;-4.02770;,
 92.62208;1.50339;-4.02770;,
 92.62208;1.50339;4.02770;,
 -68.14457;417.26819;4.02770;,
 -68.14457;417.26819;4.02770;,
 92.62208;1.50339;4.02770;,
 102.40705;1.50339;4.02770;,
 -58.35960;417.26819;4.02770;,
 -58.35960;417.26819;4.02770;,
 102.40705;1.50339;4.02770;,
 102.40705;1.50339;-4.02770;,
 -58.35960;417.26819;-4.02770;,
 -58.35960;417.26819;-4.02770;,
 -68.14457;417.26819;-4.02770;,
 102.40705;1.50339;-4.02770;,
 92.62208;1.50339;-4.02770;;
 
 54;
 4;0,1,2,3;,
 4;1,4,5,2;,
 4;4,6,7,5;,
 4;6,8,9,7;,
 4;8,10,11,9;,
 4;10,12,13,11;,
 3;14,1,0;,
 3;15,4,1;,
 3;16,6,4;,
 3;17,8,6;,
 3;18,10,8;,
 3;19,12,10;,
 3;20,3,2;,
 3;21,2,5;,
 3;22,5,7;,
 3;23,7,9;,
 3;24,9,11;,
 3;25,11,13;,
 4;26,27,28,29;,
 4;30,31,32,33;,
 4;34,35,36,37;,
 4;38,39,40,41;,
 4;38,31,42,43;,
 4;44,45,32,41;,
 4;46,47,48,49;,
 4;50,51,52,53;,
 4;54,55,56,57;,
 4;58,59,60,61;,
 4;58,51,62,63;,
 4;64,65,52,61;,
 4;66,67,68,69;,
 4;70,71,72,73;,
 4;74,75,76,77;,
 4;78,79,80,81;,
 4;78,82,83,73;,
 4;84,79,72,85;,
 4;86,87,88,89;,
 4;90,91,92,93;,
 4;94,95,96,97;,
 4;98,99,100,101;,
 4;98,91,102,103;,
 4;104,105,92,101;,
 4;106,107,108,109;,
 4;110,111,112,113;,
 4;114,115,116,117;,
 4;118,119,120,121;,
 4;118,111,122,123;,
 4;124,125,112,121;,
 4;126,127,128,129;,
 4;130,131,132,133;,
 4;134,135,136,137;,
 4;138,139,140,141;,
 4;138,142,143,133;,
 4;144,139,132,145;;
 
 MeshMaterialList {
  2;
  54;
  1,
  1,
  1,
  1,
  1,
  1,
  1,
  1,
  1,
  1,
  1,
  1,
  1,
  1,
  1,
  1,
  1,
  1,
  0,
  0,
  0,
  0,
  0,
  0,
  1,
  1,
  1,
  1,
  1,
  1,
  1,
  1,
  1,
  1,
  1,
  1,
  1,
  1,
  1,
  1,
  1,
  1,
  1,
  1,
  1,
  1,
  1,
  1,
  1,
  1,
  1,
  1,
  1,
  1;;
  Material {
   0.800000;0.800000;0.800000;1.000000;;
   5.000000;
   0.000000;0.000000;0.000000;;
   0.000000;0.000000;0.000000;;
   TextureFilename {
    "data/TEXTURE/amime.png";
   }
  }
  Material {
   0.599200;0.599200;0.599200;1.000000;;
   15.000000;
   0.810000;0.810000;0.810000;;
   0.000000;0.000000;0.000000;;
  }
 }
 MeshNormals {
  14;
  0.000000;1.000000;0.000000;,
  0.499994;0.000000;-0.866029;,
  1.000000;0.000000;0.000000;,
  0.499994;0.000000;0.866029;,
  -0.499996;0.000000;0.866028;,
  -1.000000;0.000000;0.000000;,
  0.000000;-1.000000;-0.000000;,
  0.000000;0.000000;-1.000000;,
  0.000000;0.000000;1.000000;,
  0.932700;-0.360653;-0.000000;,
  -0.932700;-0.360654;0.000000;,
  -0.499996;0.000000;-0.866028;,
  -0.932700;0.360654;0.000000;,
  0.932700;0.360654;0.000000;;
  54;
  4;1,1,1,1;,
  4;2,2,2,2;,
  4;3,3,3,3;,
  4;4,4,4,4;,
  4;5,5,5,5;,
  4;11,11,11,11;,
  3;0,0,0;,
  3;0,0,0;,
  3;0,0,0;,
  3;0,0,0;,
  3;0,0,0;,
  3;0,0,0;,
  3;6,6,6;,
  3;6,6,6;,
  3;6,6,6;,
  3;6,6,6;,
  3;6,6,6;,
  3;6,6,6;,
  4;7,7,7,7;,
  4;2,2,2,2;,
  4;8,8,8,8;,
  4;5,5,5,5;,
  4;0,0,0,0;,
  4;6,6,6,6;,
  4;7,7,7,7;,
  4;2,2,2,2;,
  4;8,8,8,8;,
  4;5,5,5,5;,
  4;0,0,0,0;,
  4;6,6,6,6;,
  4;7,7,7,7;,
  4;5,5,5,5;,
  4;8,8,8,8;,
  4;2,2,2,2;,
  4;0,0,0,0;,
  4;6,6,6,6;,
  4;7,7,7,7;,
  4;2,2,2,2;,
  4;8,8,8,8;,
  4;5,5,5,5;,
  4;0,0,0,0;,
  4;6,6,6,6;,
  4;7,7,7,7;,
  4;9,9,9,9;,
  4;8,8,8,8;,
  4;12,12,12,12;,
  4;0,0,0,0;,
  4;6,6,6,6;,
  4;7,7,7,7;,
  4;10,10,10,10;,
  4;8,8,8,8;,
  4;13,13,13,13;,
  4;0,0,0,0;,
  4;6,6,6,6;;
 }
 MeshTextureCoords {
  146;
  0.000000;0.000000;,
  0.166670;0.000000;,
  0.166670;1.000000;,
  0.000000;1.000000;,
  0.333330;0.000000;,
  0.333330;1.000000;,
  0.500000;0.000000;,
  0.500000;1.000000;,
  0.666670;0.000000;,
  0.666670;1.000000;,
  0.833330;0.000000;,
  0.833330;1.000000;,
  1.000000;0.000000;,
  1.000000;1.000000;,
  0.083330;0.000000;,
  0.250000;0.000000;,
  0.416670;0.000000;,
  0.583330;0.000000;,
  0.750000;0.000000;,
  0.916670;0.000000;,
  0.083330;1.000000;,
  0.250000;1.000000;,
  0.416670;1.000000;,
  0.583330;1.000000;,
  0.750000;1.000000;,
  0.916670;1.000000;,
  0.000000;0.000000;,
  1.000000;0.000000;,
  1.000000;1.000000;,
  0.000000;1.000000;,
  0.000000;0.000000;,
  1.000000;0.000000;,
  1.000000;1.000000;,
  0.000000;1.000000;,
  0.000000;0.000000;,
  1.000000;0.000000;,
  1.000000;1.000000;,
  0.000000;1.000000;,
  0.000000;0.000000;,
  1.000000;0.000000;,
  1.000000;1.000000;,
  0.000000;1.000000;,
  1.000000;1.000000;,
  0.000000;1.000000;,
  0.000000;0.000000;,
  1.000000;0.000000;,
  0.000000;0.000000;,
  1.000000;0.000000;,
  1.000000;1.000000;,
  0.000000;1.000000;,
  0.000000;0.000000;,
  1.000000;0.000000;,
  1.000000;1.000000;,
  0.000000;1.000000;,
  0.000000;0.000000;,
  1.000000;0.000000;,
  1.000000;1.000000;,
  0.000000;1.000000;,
  0.000000;0.000000;,
  1.000000;0.000000;,
  1.000000;1.000000;,
  0.000000;1.000000;,
  1.000000;1.000000;,
  0.000000;1.000000;,
  0.000000;0.000000;,
  1.000000;0.000000;,
  0.000000;0.000000;,
  0.000000;1.000000;,
  1.000000;1.000000;,
  1.000000;0.000000;,
  0.000000;0.000000;,
  0.000000;1.000000;,
  1.000000;1.000000;,
  1.000000;0.000000;,
  0.000000;0.000000;,
  0.000000;1.000000;,
  1.000000;1.000000;,
  1.000000;0.000000;,
  0.000000;0.000000;,
  0.000000;1.000000;,
  1.000000;1.000000;,
  1.000000;0.000000;,
  0.000000;1.000000;,
  1.000000;1.000000;,
  0.000000;0.000000;,
  1.000000;0.000000;,
  0.000000;0.000000;,
  1.000000;0.000000;,
  1.000000;1.000000;,
  0.000000;1.000000;,
  0.000000;0.000000;,
  1.000000;0.000000;,
  1.000000;1.000000;,
  0.000000;1.000000;,
  0.000000;0.000000;,
  1.000000;0.000000;,
  1.000000;1.000000;,
  0.000000;1.000000;,
  0.000000;0.000000;,
  1.000000;0.000000;,
  1.000000;1.000000;,
  0.000000;1.000000;,
  1.000000;1.000000;,
  0.000000;1.000000;,
  0.000000;0.000000;,
  1.000000;0.000000;,
  0.000000;0.000000;,
  1.000000;0.000000;,
  1.000000;1.000000;,
  0.000000;1.000000;,
  0.000000;0.000000;,
  1.000000;0.000000;,
  1.000000;1.000000;,
  0.000000;1.000000;,
  0.000000;0.000000;,
  1.000000;0.000000;,
  1.000000;1.000000;,
  0.000000;1.000000;,
  0.000000;0.000000;,
  1.000000;0.000000;,
  1.000000;1.000000;,
  0.000000;1.000000;,
  1.000000;1.000000;,
  0.000000;1.000000;,
  0.000000;0.000000;,
  1.000000;0.000000;,
  0.000000;0.000000;,
  0.000000;1.000000;,
  1.000000;1.000000;,
  1.000000;0.000000;,
  0.000000;0.000000;,
  0.000000;1.000000;,
  1.000000;1.000000;,
  1.000000;0.000000;,
  0.000000;0.000000;,
  0.000000;1.000000;,
  1.000000;1.000000;,
  1.000000;0.000000;,
  0.000000;0.000000;,
  0.000000;1.000000;,
  1.000000;1.000000;,
  1.000000;0.000000;,
  0.000000;1.000000;,
  1.000000;1.000000;,
  0.000000;0.000000;,
  1.000000;0.000000;;
 }
}
