xof 0302txt 0064
template Header {
 <3D82AB43-62DA-11cf-AB39-0020AF71E433>
 WORD major;
 WORD minor;
 DWORD flags;
}

template Vector {
 <3D82AB5E-62DA-11cf-AB39-0020AF71E433>
 FLOAT x;
 FLOAT y;
 FLOAT z;
}

template Coords2d {
 <F6F23F44-7686-11cf-8F52-0040333594A3>
 FLOAT u;
 FLOAT v;
}

template Matrix4x4 {
 <F6F23F45-7686-11cf-8F52-0040333594A3>
 array FLOAT matrix[16];
}

template ColorRGBA {
 <35FF44E0-6C7C-11cf-8F52-0040333594A3>
 FLOAT red;
 FLOAT green;
 FLOAT blue;
 FLOAT alpha;
}

template ColorRGB {
 <D3E16E81-7835-11cf-8F52-0040333594A3>
 FLOAT red;
 FLOAT green;
 FLOAT blue;
}

template IndexedColor {
 <1630B820-7842-11cf-8F52-0040333594A3>
 DWORD index;
 ColorRGBA indexColor;
}

template Boolean {
 <4885AE61-78E8-11cf-8F52-0040333594A3>
 WORD truefalse;
}

template Boolean2d {
 <4885AE63-78E8-11cf-8F52-0040333594A3>
 Boolean u;
 Boolean v;
}

template MaterialWrap {
 <4885AE60-78E8-11cf-8F52-0040333594A3>
 Boolean u;
 Boolean v;
}

template TextureFilename {
 <A42790E1-7810-11cf-8F52-0040333594A3>
 STRING filename;
}

template Material {
 <3D82AB4D-62DA-11cf-AB39-0020AF71E433>
 ColorRGBA faceColor;
 FLOAT power;
 ColorRGB specularColor;
 ColorRGB emissiveColor;
 [...]
}

template MeshFace {
 <3D82AB5F-62DA-11cf-AB39-0020AF71E433>
 DWORD nFaceVertexIndices;
 array DWORD faceVertexIndices[nFaceVertexIndices];
}

template MeshFaceWraps {
 <4885AE62-78E8-11cf-8F52-0040333594A3>
 DWORD nFaceWrapValues;
 Boolean2d faceWrapValues;
}

template MeshTextureCoords {
 <F6F23F40-7686-11cf-8F52-0040333594A3>
 DWORD nTextureCoords;
 array Coords2d textureCoords[nTextureCoords];
}

template MeshMaterialList {
 <F6F23F42-7686-11cf-8F52-0040333594A3>
 DWORD nMaterials;
 DWORD nFaceIndexes;
 array DWORD faceIndexes[nFaceIndexes];
 [Material]
}

template MeshNormals {
 <F6F23F43-7686-11cf-8F52-0040333594A3>
 DWORD nNormals;
 array Vector normals[nNormals];
 DWORD nFaceNormals;
 array MeshFace faceNormals[nFaceNormals];
}

template MeshVertexColors {
 <1630B821-7842-11cf-8F52-0040333594A3>
 DWORD nVertexColors;
 array IndexedColor vertexColors[nVertexColors];
}

template Mesh {
 <3D82AB44-62DA-11cf-AB39-0020AF71E433>
 DWORD nVertices;
 array Vector vertices[nVertices];
 DWORD nFaces;
 array MeshFace faces[nFaces];
 [...]
}

Header{
1;
0;
1;
}

Mesh {
 146;
 102.94790;627.30273;-13.46610;,
 102.94790;0.61389;-13.46610;,
 91.28580;0.61389;-6.73310;,
 91.28580;627.30273;-6.73310;,
 91.28580;0.61389;6.73310;,
 91.28580;627.30273;6.73310;,
 102.94790;0.61389;13.46610;,
 102.94790;627.30273;13.46610;,
 114.60989;0.61389;6.73310;,
 114.60989;627.30273;6.73310;,
 114.60989;0.61389;-6.73310;,
 114.60989;627.30273;-6.73310;,
 102.94790;0.61389;-13.46610;,
 102.94790;627.30273;-13.46610;,
 102.94790;627.30273;0.00000;,
 102.94790;627.30273;0.00000;,
 102.94790;627.30273;0.00000;,
 102.94790;627.30273;0.00000;,
 102.94790;627.30273;0.00000;,
 102.94790;627.30273;0.00000;,
 102.94790;0.61389;0.00000;,
 102.94790;0.61389;0.00000;,
 102.94790;0.61389;0.00000;,
 102.94790;0.61389;0.00000;,
 102.94790;0.61389;0.00000;,
 102.94790;0.61389;0.00000;,
 66.21003;416.57819;-7.81880;,
 66.21003;6.42859;-7.81880;,
 -100.91877;6.42859;-7.81880;,
 -100.91877;416.57819;-7.81880;,
 -100.91877;416.57819;-7.81880;,
 -100.91877;6.42859;-7.81880;,
 -100.91877;6.42859;7.81880;,
 -100.91877;416.57819;7.81880;,
 -100.91877;416.57819;7.81880;,
 -100.91877;6.42859;7.81880;,
 66.21003;6.42859;7.81880;,
 66.21003;416.57819;7.81880;,
 66.21003;416.57819;7.81880;,
 66.21003;6.42859;7.81880;,
 66.21003;6.42859;-7.81880;,
 66.21003;416.57819;-7.81880;,
 66.21003;416.57819;-7.81880;,
 -100.91877;416.57819;-7.81880;,
 66.21003;6.42859;-7.81880;,
 -100.91877;6.42859;-7.81880;,
 81.32776;421.50339;-11.03060;,
 81.32776;1.50339;-11.03060;,
 63.96333;1.50339;-11.03060;,
 63.96333;421.50339;-11.03060;,
 63.96333;421.50339;-11.03060;,
 63.96333;1.50339;-11.03060;,
 63.96333;1.50339;11.03060;,
 63.96333;421.50339;11.03060;,
 63.96333;421.50339;11.03060;,
 63.96333;1.50339;11.03060;,
 81.32776;1.50339;11.03060;,
 81.32776;421.50339;11.03060;,
 81.32776;421.50339;11.03060;,
 81.32776;1.50339;11.03060;,
 81.32776;1.50339;-11.03060;,
 81.32776;421.50339;-11.03060;,
 81.32776;421.50339;-11.03060;,
 63.96333;421.50339;-11.03060;,
 81.32776;1.50339;-11.03060;,
 63.96333;1.50339;-11.03060;,
 -116.03658;421.50339;-11.03060;,
 -98.67217;421.50339;-11.03060;,
 -98.67217;1.50339;-11.03060;,
 -116.03658;1.50339;-11.03060;,
 -98.67217;421.50339;-11.03060;,
 -98.67217;421.50339;11.03060;,
 -98.67217;1.50339;11.03060;,
 -98.67217;1.50339;-11.03060;,
 -98.67217;421.50339;11.03060;,
 -116.03658;421.50339;11.03060;,
 -116.03658;1.50339;11.03060;,
 -98.67217;1.50339;11.03060;,
 -116.03658;421.50339;11.03060;,
 -116.03658;421.50339;-11.03060;,
 -116.03658;1.50339;-11.03060;,
 -116.03658;1.50339;11.03060;,
 -98.67217;421.50339;-11.03060;,
 -116.03658;421.50339;-11.03060;,
 -116.03658;1.50339;-11.03060;,
 -98.67217;1.50339;-11.03060;,
 78.73402;229.32219;-8.21870;,
 78.73402;213.68459;-8.21870;,
 -113.44287;213.68459;-8.21870;,
 -113.44287;229.32219;-8.21870;,
 -113.44287;229.32219;-8.21870;,
 -113.44287;213.68459;-8.21870;,
 -113.44287;213.68459;8.21870;,
 -113.44287;229.32219;8.21870;,
 -113.44287;229.32219;8.21870;,
 -113.44287;213.68459;8.21870;,
 78.73402;213.68459;8.21870;,
 78.73402;229.32219;8.21870;,
 78.73402;229.32219;8.21870;,
 78.73402;213.68459;8.21870;,
 78.73402;213.68459;-8.21870;,
 78.73402;229.32219;-8.21870;,
 78.73402;229.32219;-8.21870;,
 -113.44287;229.32219;-8.21870;,
 78.73402;213.68459;-8.21870;,
 -113.44287;213.68459;-8.21870;,
 -93.22858;417.26819;-4.02770;,
 67.53803;1.50339;-4.02770;,
 57.75303;1.50339;-4.02770;,
 -103.01357;417.26819;-4.02770;,
 -103.01357;417.26819;-4.02770;,
 57.75303;1.50339;-4.02770;,
 57.75303;1.50339;4.02770;,
 -103.01357;417.26819;4.02770;,
 -103.01357;417.26819;4.02770;,
 57.75303;1.50339;4.02770;,
 67.53803;1.50339;4.02770;,
 -93.22858;417.26819;4.02770;,
 -93.22858;417.26819;4.02770;,
 67.53803;1.50339;4.02770;,
 67.53803;1.50339;-4.02770;,
 -93.22858;417.26819;-4.02770;,
 -93.22858;417.26819;-4.02770;,
 -103.01357;417.26819;-4.02770;,
 67.53803;1.50339;-4.02770;,
 57.75303;1.50339;-4.02770;,
 58.51972;417.26819;-4.02770;,
 68.30473;417.26819;-4.02770;,
 -92.46188;1.50339;-4.02770;,
 -102.24687;1.50339;-4.02770;,
 68.30473;417.26819;-4.02770;,
 68.30473;417.26819;4.02770;,
 -92.46188;1.50339;4.02770;,
 -92.46188;1.50339;-4.02770;,
 68.30473;417.26819;4.02770;,
 58.51972;417.26819;4.02770;,
 -102.24687;1.50339;4.02770;,
 -92.46188;1.50339;4.02770;,
 58.51972;417.26819;4.02770;,
 58.51972;417.26819;-4.02770;,
 -102.24687;1.50339;-4.02770;,
 -102.24687;1.50339;4.02770;,
 68.30473;417.26819;-4.02770;,
 58.51972;417.26819;-4.02770;,
 -102.24687;1.50339;-4.02770;,
 -92.46188;1.50339;-4.02770;;
 
 54;
 4;0,1,2,3;,
 4;3,2,4,5;,
 4;5,4,6,7;,
 4;7,6,8,9;,
 4;9,8,10,11;,
 4;11,10,12,13;,
 3;14,0,3;,
 3;15,3,5;,
 3;16,5,7;,
 3;17,7,9;,
 3;18,9,11;,
 3;19,11,13;,
 3;20,2,1;,
 3;21,4,2;,
 3;22,6,4;,
 3;23,8,6;,
 3;24,10,8;,
 3;25,12,10;,
 4;26,27,28,29;,
 4;30,31,32,33;,
 4;34,35,36,37;,
 4;38,39,40,41;,
 4;38,42,43,33;,
 4;44,39,32,45;,
 4;46,47,48,49;,
 4;50,51,52,53;,
 4;54,55,56,57;,
 4;58,59,60,61;,
 4;58,62,63,53;,
 4;64,59,52,65;,
 4;66,67,68,69;,
 4;70,71,72,73;,
 4;74,75,76,77;,
 4;78,79,80,81;,
 4;78,71,82,83;,
 4;84,85,72,81;,
 4;86,87,88,89;,
 4;90,91,92,93;,
 4;94,95,96,97;,
 4;98,99,100,101;,
 4;98,102,103,93;,
 4;104,99,92,105;,
 4;106,107,108,109;,
 4;110,111,112,113;,
 4;114,115,116,117;,
 4;118,119,120,121;,
 4;118,122,123,113;,
 4;124,119,112,125;,
 4;126,127,128,129;,
 4;130,131,132,133;,
 4;134,135,136,137;,
 4;138,139,140,141;,
 4;138,131,142,143;,
 4;144,145,132,141;;
 
 MeshMaterialList {
  2;
  54;
  1,
  1,
  1,
  1,
  1,
  1,
  1,
  1,
  1,
  1,
  1,
  1,
  1,
  1,
  1,
  1,
  1,
  1,
  0,
  0,
  0,
  0,
  0,
  0,
  1,
  1,
  1,
  1,
  1,
  1,
  1,
  1,
  1,
  1,
  1,
  1,
  1,
  1,
  1,
  1,
  1,
  1,
  1,
  1,
  1,
  1,
  1,
  1,
  1,
  1,
  1,
  1,
  1,
  1;;
  Material {
   0.800000;0.800000;0.800000;1.000000;;
   5.000000;
   0.000000;0.000000;0.000000;;
   0.000000;0.000000;0.000000;;
   TextureFilename {
    "data/TEXTURE/amime.png";
   }
  }
  Material {
   0.599200;0.599200;0.599200;1.000000;;
   15.000000;
   0.810000;0.810000;0.810000;;
   0.000000;0.000000;0.000000;;
  }
 }
 MeshNormals {
  14;
  0.000000;1.000000;0.000000;,
  -0.499993;0.000000;-0.866029;,
  -1.000000;0.000000;0.000000;,
  -0.499993;0.000000;0.866029;,
  0.499997;0.000000;0.866027;,
  1.000000;0.000000;0.000000;,
  0.000000;-1.000000;-0.000000;,
  0.000000;0.000000;-1.000000;,
  0.000000;-0.000000;1.000000;,
  -0.932700;-0.360653;0.000000;,
  0.932700;-0.360653;-0.000000;,
  0.499997;0.000000;-0.866027;,
  0.932700;0.360653;0.000000;,
  -0.932700;0.360653;0.000000;;
  54;
  4;1,1,1,1;,
  4;2,2,2,2;,
  4;3,3,3,3;,
  4;4,4,4,4;,
  4;5,5,5,5;,
  4;11,11,11,11;,
  3;0,0,0;,
  3;0,0,0;,
  3;0,0,0;,
  3;0,0,0;,
  3;0,0,0;,
  3;0,0,0;,
  3;6,6,6;,
  3;6,6,6;,
  3;6,6,6;,
  3;6,6,6;,
  3;6,6,6;,
  3;6,6,6;,
  4;7,7,7,7;,
  4;2,2,2,2;,
  4;8,8,8,8;,
  4;5,5,5,5;,
  4;0,0,0,0;,
  4;6,6,6,6;,
  4;7,7,7,7;,
  4;2,2,2,2;,
  4;8,8,8,8;,
  4;5,5,5,5;,
  4;0,0,0,0;,
  4;6,6,6,6;,
  4;7,7,7,7;,
  4;5,5,5,5;,
  4;8,8,8,8;,
  4;2,2,2,2;,
  4;0,0,0,0;,
  4;6,6,6,6;,
  4;7,7,7,7;,
  4;2,2,2,2;,
  4;8,8,8,8;,
  4;5,5,5,5;,
  4;0,0,0,0;,
  4;6,6,6,6;,
  4;7,7,7,7;,
  4;9,9,9,9;,
  4;8,8,8,8;,
  4;12,12,12,12;,
  4;0,0,0,0;,
  4;6,6,6,6;,
  4;7,7,7,7;,
  4;10,10,10,10;,
  4;8,8,8,8;,
  4;13,13,13,13;,
  4;0,0,0,0;,
  4;6,6,6,6;;
 }
 MeshTextureCoords {
  146;
  0.000000;0.000000;,
  0.000000;1.000000;,
  0.166670;1.000000;,
  0.166670;0.000000;,
  0.333330;1.000000;,
  0.333330;0.000000;,
  0.500000;1.000000;,
  0.500000;0.000000;,
  0.666670;1.000000;,
  0.666670;0.000000;,
  0.833330;1.000000;,
  0.833330;0.000000;,
  1.000000;1.000000;,
  1.000000;0.000000;,
  0.083330;0.000000;,
  0.250000;0.000000;,
  0.416670;0.000000;,
  0.583330;0.000000;,
  0.750000;0.000000;,
  0.916670;0.000000;,
  0.083330;1.000000;,
  0.250000;1.000000;,
  0.416670;1.000000;,
  0.583330;1.000000;,
  0.750000;1.000000;,
  0.916670;1.000000;,
  0.000000;0.000000;,
  0.000000;1.000000;,
  1.000000;1.000000;,
  1.000000;0.000000;,
  0.000000;0.000000;,
  0.000000;1.000000;,
  1.000000;1.000000;,
  1.000000;0.000000;,
  0.000000;0.000000;,
  0.000000;1.000000;,
  1.000000;1.000000;,
  1.000000;0.000000;,
  0.000000;0.000000;,
  0.000000;1.000000;,
  1.000000;1.000000;,
  1.000000;0.000000;,
  0.000000;1.000000;,
  1.000000;1.000000;,
  0.000000;0.000000;,
  1.000000;0.000000;,
  0.000000;0.000000;,
  0.000000;1.000000;,
  1.000000;1.000000;,
  1.000000;0.000000;,
  0.000000;0.000000;,
  0.000000;1.000000;,
  1.000000;1.000000;,
  1.000000;0.000000;,
  0.000000;0.000000;,
  0.000000;1.000000;,
  1.000000;1.000000;,
  1.000000;0.000000;,
  0.000000;0.000000;,
  0.000000;1.000000;,
  1.000000;1.000000;,
  1.000000;0.000000;,
  0.000000;1.000000;,
  1.000000;1.000000;,
  0.000000;0.000000;,
  1.000000;0.000000;,
  0.000000;0.000000;,
  1.000000;0.000000;,
  1.000000;1.000000;,
  0.000000;1.000000;,
  0.000000;0.000000;,
  1.000000;0.000000;,
  1.000000;1.000000;,
  0.000000;1.000000;,
  0.000000;0.000000;,
  1.000000;0.000000;,
  1.000000;1.000000;,
  0.000000;1.000000;,
  0.000000;0.000000;,
  1.000000;0.000000;,
  1.000000;1.000000;,
  0.000000;1.000000;,
  1.000000;1.000000;,
  0.000000;1.000000;,
  0.000000;0.000000;,
  1.000000;0.000000;,
  0.000000;0.000000;,
  0.000000;1.000000;,
  1.000000;1.000000;,
  1.000000;0.000000;,
  0.000000;0.000000;,
  0.000000;1.000000;,
  1.000000;1.000000;,
  1.000000;0.000000;,
  0.000000;0.000000;,
  0.000000;1.000000;,
  1.000000;1.000000;,
  1.000000;0.000000;,
  0.000000;0.000000;,
  0.000000;1.000000;,
  1.000000;1.000000;,
  1.000000;0.000000;,
  0.000000;1.000000;,
  1.000000;1.000000;,
  0.000000;0.000000;,
  1.000000;0.000000;,
  0.000000;0.000000;,
  0.000000;1.000000;,
  1.000000;1.000000;,
  1.000000;0.000000;,
  0.000000;0.000000;,
  0.000000;1.000000;,
  1.000000;1.000000;,
  1.000000;0.000000;,
  0.000000;0.000000;,
  0.000000;1.000000;,
  1.000000;1.000000;,
  1.000000;0.000000;,
  0.000000;0.000000;,
  0.000000;1.000000;,
  1.000000;1.000000;,
  1.000000;0.000000;,
  0.000000;1.000000;,
  1.000000;1.000000;,
  0.000000;0.000000;,
  1.000000;0.000000;,
  0.000000;0.000000;,
  1.000000;0.000000;,
  1.000000;1.000000;,
  0.000000;1.000000;,
  0.000000;0.000000;,
  1.000000;0.000000;,
  1.000000;1.000000;,
  0.000000;1.000000;,
  0.000000;0.000000;,
  1.000000;0.000000;,
  1.000000;1.000000;,
  0.000000;1.000000;,
  0.000000;0.000000;,
  1.000000;0.000000;,
  1.000000;1.000000;,
  0.000000;1.000000;,
  1.000000;1.000000;,
  0.000000;1.000000;,
  0.000000;0.000000;,
  1.000000;0.000000;;
 }
}
