xof 0302txt 0064
template Header {
 <3D82AB43-62DA-11cf-AB39-0020AF71E433>
 WORD major;
 WORD minor;
 DWORD flags;
}

template Vector {
 <3D82AB5E-62DA-11cf-AB39-0020AF71E433>
 FLOAT x;
 FLOAT y;
 FLOAT z;
}

template Coords2d {
 <F6F23F44-7686-11cf-8F52-0040333594A3>
 FLOAT u;
 FLOAT v;
}

template Matrix4x4 {
 <F6F23F45-7686-11cf-8F52-0040333594A3>
 array FLOAT matrix[16];
}

template ColorRGBA {
 <35FF44E0-6C7C-11cf-8F52-0040333594A3>
 FLOAT red;
 FLOAT green;
 FLOAT blue;
 FLOAT alpha;
}

template ColorRGB {
 <D3E16E81-7835-11cf-8F52-0040333594A3>
 FLOAT red;
 FLOAT green;
 FLOAT blue;
}

template IndexedColor {
 <1630B820-7842-11cf-8F52-0040333594A3>
 DWORD index;
 ColorRGBA indexColor;
}

template Boolean {
 <4885AE61-78E8-11cf-8F52-0040333594A3>
 WORD truefalse;
}

template Boolean2d {
 <4885AE63-78E8-11cf-8F52-0040333594A3>
 Boolean u;
 Boolean v;
}

template MaterialWrap {
 <4885AE60-78E8-11cf-8F52-0040333594A3>
 Boolean u;
 Boolean v;
}

template TextureFilename {
 <A42790E1-7810-11cf-8F52-0040333594A3>
 STRING filename;
}

template Material {
 <3D82AB4D-62DA-11cf-AB39-0020AF71E433>
 ColorRGBA faceColor;
 FLOAT power;
 ColorRGB specularColor;
 ColorRGB emissiveColor;
 [...]
}

template MeshFace {
 <3D82AB5F-62DA-11cf-AB39-0020AF71E433>
 DWORD nFaceVertexIndices;
 array DWORD faceVertexIndices[nFaceVertexIndices];
}

template MeshFaceWraps {
 <4885AE62-78E8-11cf-8F52-0040333594A3>
 DWORD nFaceWrapValues;
 Boolean2d faceWrapValues;
}

template MeshTextureCoords {
 <F6F23F40-7686-11cf-8F52-0040333594A3>
 DWORD nTextureCoords;
 array Coords2d textureCoords[nTextureCoords];
}

template MeshMaterialList {
 <F6F23F42-7686-11cf-8F52-0040333594A3>
 DWORD nMaterials;
 DWORD nFaceIndexes;
 array DWORD faceIndexes[nFaceIndexes];
 [Material]
}

template MeshNormals {
 <F6F23F43-7686-11cf-8F52-0040333594A3>
 DWORD nNormals;
 array Vector normals[nNormals];
 DWORD nFaceNormals;
 array MeshFace faceNormals[nFaceNormals];
}

template MeshVertexColors {
 <1630B821-7842-11cf-8F52-0040333594A3>
 DWORD nVertexColors;
 array IndexedColor vertexColors[nVertexColors];
}

template Mesh {
 <3D82AB44-62DA-11cf-AB39-0020AF71E433>
 DWORD nVertices;
 array Vector vertices[nVertices];
 DWORD nFaces;
 array MeshFace faces[nFaces];
 [...]
}

Header{
1;
0;
1;
}

Mesh {
 60;
 -300.32064;714.81410;-20.96189;,
 -220.71851;714.81410;-20.03129;,
 -220.71851;2.72016;-20.03129;,
 -300.32064;2.72016;-20.96189;,
 -220.71851;714.81410;-20.03129;,
 -221.64875;714.81410;86.57100;,
 -221.64875;2.72016;86.57100;,
 -220.71851;2.72016;-20.03129;,
 -221.64875;714.81410;86.57100;,
 -301.25071;714.81410;85.64113;,
 -301.25071;2.72016;85.64113;,
 -221.64875;2.72016;86.57100;,
 -301.25071;714.81410;85.64113;,
 -300.32064;714.81410;-20.96189;,
 -300.32064;2.72016;-20.96189;,
 -301.25071;2.72016;85.64113;,
 -220.71851;714.81410;-20.03129;,
 -300.32064;714.81410;-20.96189;,
 -300.32064;2.72016;-20.96189;,
 -220.71851;2.72016;-20.03129;,
 235.56796;714.81410;-24.44706;,
 315.16973;714.81410;-23.51718;,
 315.16973;2.72016;-23.51718;,
 235.56796;2.72016;-24.44706;,
 315.16973;714.81410;-23.51718;,
 314.23968;714.81410;83.08511;,
 314.23968;2.72016;83.08511;,
 315.16973;2.72016;-23.51718;,
 314.23968;714.81410;83.08511;,
 234.63772;714.81410;82.15542;,
 234.63772;2.72016;82.15542;,
 314.23968;2.72016;83.08511;,
 234.63772;714.81410;82.15542;,
 235.56796;714.81410;-24.44706;,
 235.56796;2.72016;-24.44706;,
 234.63772;2.72016;82.15542;,
 315.16973;714.81410;-23.51718;,
 235.56796;714.81410;-24.44706;,
 235.56796;2.72016;-24.44706;,
 315.16973;2.72016;-23.51718;,
 337.44165;786.14179;81.45377;,
 336.51106;786.14179;-25.14870;,
 -323.43930;786.14179;-22.05953;,
 -322.50871;786.14179;84.54223;,
 336.51106;786.14179;-25.14870;,
 336.51106;715.53662;-25.14870;,
 -323.43930;715.53662;-22.05953;,
 -323.43930;786.14179;-22.05953;,
 336.51106;715.53662;-25.14870;,
 337.44165;715.53662;81.45377;,
 -322.50871;715.53662;84.54223;,
 -323.43930;715.53662;-22.05953;,
 337.44165;715.53662;81.45377;,
 337.44165;786.14179;81.45377;,
 -322.50871;786.14179;84.54223;,
 -322.50871;715.53662;84.54223;,
 336.51106;786.14179;-25.14870;,
 337.44165;786.14179;81.45377;,
 -322.50871;786.14179;84.54223;,
 -323.43930;786.14179;-22.05953;;
 
 18;
 4;0,1,2,3;,
 4;4,5,6,7;,
 4;8,9,10,11;,
 4;12,13,14,15;,
 4;12,5,16,17;,
 4;18,19,6,15;,
 4;20,21,22,23;,
 4;24,25,26,27;,
 4;28,29,30,31;,
 4;32,33,34,35;,
 4;32,25,36,37;,
 4;38,39,26,35;,
 4;40,41,42,43;,
 4;44,45,46,47;,
 4;48,49,50,51;,
 4;52,53,54,55;,
 4;52,45,56,57;,
 4;58,59,46,55;;
 
 MeshMaterialList {
  5;
  18;
  3,
  3,
  3,
  3,
  3,
  3,
  3,
  3,
  3,
  3,
  3,
  3,
  3,
  3,
  3,
  3,
  3,
  3;;
  Material {
   0.800000;0.800000;0.800000;1.000000;;
   5.000000;
   0.000000;0.000000;0.000000;;
   0.000000;0.000000;0.000000;;
  }
  Material {
   0.674400;0.674400;0.674400;1.000000;;
   5.000000;
   0.000000;0.000000;0.000000;;
   0.000000;0.000000;0.000000;;
  }
  Material {
   0.238400;0.762400;0.800000;1.000000;;
   5.000000;
   0.000000;0.000000;0.000000;;
   0.000000;0.000000;0.000000;;
  }
  Material {
   0.800000;0.000000;0.000000;1.000000;;
   5.000000;
   0.000000;0.000000;0.000000;;
   0.000000;0.000000;0.000000;;
  }
  Material {
   0.000000;0.000000;0.000000;1.000000;;
   5.000000;
   0.000000;0.000000;0.000000;;
   0.000000;0.000000;0.000000;;
  }
 }
 MeshNormals {
  14;
  0.011690;0.000000;-0.999932;,
  0.999962;0.000000;0.008726;,
  -0.011681;0.000000;0.999932;,
  0.011681;0.000000;-0.999932;,
  0.999962;0.000000;0.008724;,
  -0.011679;0.000000;0.999932;,
  0.000000;1.000000;0.000000;,
  -0.004681;0.000000;-0.999989;,
  0.000000;-1.000000;-0.000000;,
  -0.999962;0.000000;-0.008724;,
  -0.999962;0.000000;-0.008726;,
  0.004680;0.000000;0.999989;,
  0.999962;0.000000;-0.008729;,
  -0.999962;0.000000;0.008729;;
  18;
  4;0,0,0,0;,
  4;1,1,1,1;,
  4;2,2,2,2;,
  4;9,9,9,9;,
  4;6,6,6,6;,
  4;8,8,8,8;,
  4;3,3,3,3;,
  4;4,4,4,4;,
  4;5,5,5,5;,
  4;10,10,10,10;,
  4;6,6,6,6;,
  4;8,8,8,8;,
  4;6,6,6,6;,
  4;7,7,7,7;,
  4;8,8,8,8;,
  4;11,11,11,11;,
  4;12,12,12,12;,
  4;13,13,13,13;;
 }
 MeshTextureCoords {
  60;
  0.000000;0.000000;,
  1.000000;0.000000;,
  1.000000;1.000000;,
  0.000000;1.000000;,
  0.000000;0.000000;,
  1.000000;0.000000;,
  1.000000;1.000000;,
  0.000000;1.000000;,
  0.000000;0.000000;,
  1.000000;0.000000;,
  1.000000;1.000000;,
  0.000000;1.000000;,
  0.000000;0.000000;,
  1.000000;0.000000;,
  1.000000;1.000000;,
  0.000000;1.000000;,
  1.000000;1.000000;,
  0.000000;1.000000;,
  0.000000;0.000000;,
  1.000000;0.000000;,
  0.000000;0.000000;,
  1.000000;0.000000;,
  1.000000;1.000000;,
  0.000000;1.000000;,
  0.000000;0.000000;,
  1.000000;0.000000;,
  1.000000;1.000000;,
  0.000000;1.000000;,
  0.000000;0.000000;,
  1.000000;0.000000;,
  1.000000;1.000000;,
  0.000000;1.000000;,
  0.000000;0.000000;,
  1.000000;0.000000;,
  1.000000;1.000000;,
  0.000000;1.000000;,
  1.000000;1.000000;,
  0.000000;1.000000;,
  0.000000;0.000000;,
  1.000000;0.000000;,
  0.000000;0.000000;,
  1.000000;0.000000;,
  1.000000;1.000000;,
  0.000000;1.000000;,
  0.000000;0.000000;,
  1.000000;0.000000;,
  1.000000;1.000000;,
  0.000000;1.000000;,
  0.000000;0.000000;,
  1.000000;0.000000;,
  1.000000;1.000000;,
  0.000000;1.000000;,
  0.000000;0.000000;,
  1.000000;0.000000;,
  1.000000;1.000000;,
  0.000000;1.000000;,
  1.000000;1.000000;,
  0.000000;1.000000;,
  0.000000;0.000000;,
  1.000000;0.000000;;
 }
}
