xof 0302txt 0064
template Header {
 <3D82AB43-62DA-11cf-AB39-0020AF71E433>
 WORD major;
 WORD minor;
 DWORD flags;
}

template Vector {
 <3D82AB5E-62DA-11cf-AB39-0020AF71E433>
 FLOAT x;
 FLOAT y;
 FLOAT z;
}

template Coords2d {
 <F6F23F44-7686-11cf-8F52-0040333594A3>
 FLOAT u;
 FLOAT v;
}

template Matrix4x4 {
 <F6F23F45-7686-11cf-8F52-0040333594A3>
 array FLOAT matrix[16];
}

template ColorRGBA {
 <35FF44E0-6C7C-11cf-8F52-0040333594A3>
 FLOAT red;
 FLOAT green;
 FLOAT blue;
 FLOAT alpha;
}

template ColorRGB {
 <D3E16E81-7835-11cf-8F52-0040333594A3>
 FLOAT red;
 FLOAT green;
 FLOAT blue;
}

template IndexedColor {
 <1630B820-7842-11cf-8F52-0040333594A3>
 DWORD index;
 ColorRGBA indexColor;
}

template Boolean {
 <4885AE61-78E8-11cf-8F52-0040333594A3>
 WORD truefalse;
}

template Boolean2d {
 <4885AE63-78E8-11cf-8F52-0040333594A3>
 Boolean u;
 Boolean v;
}

template MaterialWrap {
 <4885AE60-78E8-11cf-8F52-0040333594A3>
 Boolean u;
 Boolean v;
}

template TextureFilename {
 <A42790E1-7810-11cf-8F52-0040333594A3>
 STRING filename;
}

template Material {
 <3D82AB4D-62DA-11cf-AB39-0020AF71E433>
 ColorRGBA faceColor;
 FLOAT power;
 ColorRGB specularColor;
 ColorRGB emissiveColor;
 [...]
}

template MeshFace {
 <3D82AB5F-62DA-11cf-AB39-0020AF71E433>
 DWORD nFaceVertexIndices;
 array DWORD faceVertexIndices[nFaceVertexIndices];
}

template MeshFaceWraps {
 <4885AE62-78E8-11cf-8F52-0040333594A3>
 DWORD nFaceWrapValues;
 Boolean2d faceWrapValues;
}

template MeshTextureCoords {
 <F6F23F40-7686-11cf-8F52-0040333594A3>
 DWORD nTextureCoords;
 array Coords2d textureCoords[nTextureCoords];
}

template MeshMaterialList {
 <F6F23F42-7686-11cf-8F52-0040333594A3>
 DWORD nMaterials;
 DWORD nFaceIndexes;
 array DWORD faceIndexes[nFaceIndexes];
 [Material]
}

template MeshNormals {
 <F6F23F43-7686-11cf-8F52-0040333594A3>
 DWORD nNormals;
 array Vector normals[nNormals];
 DWORD nFaceNormals;
 array MeshFace faceNormals[nFaceNormals];
}

template MeshVertexColors {
 <1630B821-7842-11cf-8F52-0040333594A3>
 DWORD nVertexColors;
 array IndexedColor vertexColors[nVertexColors];
}

template Mesh {
 <3D82AB44-62DA-11cf-AB39-0020AF71E433>
 DWORD nVertices;
 array Vector vertices[nVertices];
 DWORD nFaces;
 array MeshFace faces[nFaces];
 [...]
}

Header{
1;
0;
1;
}

Mesh {
 164;
 -57.15656;78.46249;-12.43330;,
 56.89487;78.46246;-12.43330;,
 56.89487;71.99445;-12.43330;,
 -57.15656;71.99448;-12.43330;,
 -57.15656;71.99448;-12.43330;,
 56.89487;71.99445;-12.43330;,
 56.89487;71.99445;12.43330;,
 -57.15656;71.99448;12.43330;,
 -57.15656;71.99448;12.43330;,
 56.89487;71.99445;12.43330;,
 56.89487;78.46246;12.43330;,
 -57.15656;78.46249;12.43330;,
 -57.15656;78.46249;12.43330;,
 56.89487;78.46246;12.43330;,
 56.89487;78.46246;-12.43330;,
 -57.15656;78.46249;-12.43330;,
 -57.15656;78.46249;-12.43330;,
 -57.15656;71.99448;-12.43330;,
 56.89487;78.46246;-12.43330;,
 56.89487;71.99445;-12.43330;,
 -36.93301;64.52779;-12.43330;,
 36.54820;64.52779;-12.43330;,
 36.54820;58.05972;-12.43330;,
 -36.93301;58.05972;-12.43330;,
 -36.93301;58.05972;-12.43330;,
 36.54820;58.05972;-12.43330;,
 36.54820;58.05972;12.43330;,
 -36.93301;58.05972;12.43330;,
 -36.93301;58.05972;12.43330;,
 36.54820;58.05972;12.43330;,
 36.54820;64.52779;12.43330;,
 -36.93301;64.52779;12.43330;,
 -36.93301;64.52779;12.43330;,
 36.54820;64.52779;12.43330;,
 36.54820;64.52779;-12.43330;,
 -36.93301;64.52779;-12.43330;,
 -36.93301;64.52779;-12.43330;,
 -36.93301;58.05972;-12.43330;,
 36.54820;64.52779;-12.43330;,
 36.54820;58.05972;-12.43330;,
 -36.93301;49.15377;-12.43330;,
 36.54820;49.15374;-12.43330;,
 36.54820;42.68566;-12.43330;,
 -36.93301;42.68566;-12.43330;,
 -36.93301;42.68566;-12.43330;,
 36.54820;42.68566;-12.43330;,
 36.54820;42.68566;12.43330;,
 -36.93301;42.68566;12.43330;,
 -36.93301;42.68566;12.43330;,
 36.54820;42.68566;12.43330;,
 36.54820;49.15374;12.43330;,
 -36.93301;49.15377;12.43330;,
 -36.93301;49.15377;12.43330;,
 36.54820;49.15374;12.43330;,
 36.54820;49.15374;-12.43330;,
 -36.93301;49.15377;-12.43330;,
 -36.93301;49.15377;-12.43330;,
 -36.93301;42.68566;-12.43330;,
 36.54820;49.15374;-12.43330;,
 36.54820;42.68566;-12.43330;,
 -36.93301;33.77961;-12.43330;,
 36.54820;33.77961;-12.43330;,
 36.54820;27.31150;-12.43330;,
 -36.93301;27.31150;-12.43330;,
 -36.93301;27.31150;-12.43330;,
 36.54820;27.31150;-12.43330;,
 36.54820;27.31150;12.43330;,
 -36.93301;27.31150;12.43330;,
 -36.93301;27.31150;12.43330;,
 36.54820;27.31150;12.43330;,
 36.54820;33.77961;12.43330;,
 -36.93301;33.77961;12.43330;,
 -36.93301;33.77961;12.43330;,
 36.54820;33.77961;12.43330;,
 36.54820;33.77961;-12.43330;,
 -36.93301;33.77961;-12.43330;,
 -36.93301;33.77961;-12.43330;,
 -36.93301;27.31150;-12.43330;,
 36.54820;33.77961;-12.43330;,
 36.54820;27.31150;-12.43330;,
 -38.96282;73.41616;-12.43330;,
 -32.46223;73.41613;-12.43330;,
 -32.46223;4.72839;-12.43330;,
 -38.96282;4.72839;-12.43330;,
 -38.96282;4.72839;-12.43330;,
 -32.46223;4.72839;-12.43330;,
 -32.46223;4.72839;12.43330;,
 -38.96282;4.72839;12.43330;,
 -38.96282;4.72839;12.43330;,
 -32.46223;4.72839;12.43330;,
 -32.46223;73.41613;12.43330;,
 -38.96282;73.41616;12.43330;,
 -38.96282;73.41616;12.43330;,
 -32.46223;73.41613;12.43330;,
 -32.46223;73.41613;-12.43330;,
 -38.96282;73.41616;-12.43330;,
 -38.96282;73.41616;-12.43330;,
 -38.96282;4.72839;-12.43330;,
 -32.46223;73.41613;-12.43330;,
 -32.46223;4.72839;-12.43330;,
 -34.94977;19.77456;-12.43330;,
 34.65847;19.77456;-12.43330;,
 34.65847;13.30645;-12.43330;,
 -34.94977;13.30645;-12.43330;,
 -34.94977;13.30645;-12.43330;,
 34.65847;13.30645;-12.43330;,
 34.65847;13.30645;12.43330;,
 -34.94977;13.30645;12.43330;,
 -34.94977;13.30645;12.43330;,
 34.65847;13.30645;12.43330;,
 34.65847;19.77456;12.43330;,
 -34.94977;19.77456;12.43330;,
 -34.94977;19.77456;12.43330;,
 34.65847;19.77456;12.43330;,
 34.65847;19.77456;-12.43330;,
 -34.94977;19.77456;-12.43330;,
 -34.94977;19.77456;-12.43330;,
 -34.94977;13.30645;-12.43330;,
 34.65847;19.77456;-12.43330;,
 34.65847;13.30645;-12.43330;,
 -22.53871;73.41613;5.45990;,
 -16.03815;73.41613;5.45990;,
 -16.03815;73.41613;-5.45990;,
 -22.53871;73.41613;-5.45990;,
 31.98058;73.41613;-12.43330;,
 38.48114;73.41610;-12.43330;,
 38.48114;4.72836;-12.43330;,
 31.98058;4.72839;-12.43330;,
 31.98058;4.72839;-12.43330;,
 38.48114;4.72836;-12.43330;,
 38.48114;4.72836;12.43330;,
 31.98058;4.72839;12.43330;,
 31.98058;4.72839;12.43330;,
 38.48114;4.72836;12.43330;,
 38.48114;73.41610;12.43330;,
 31.98058;73.41613;12.43330;,
 31.98058;73.41613;12.43330;,
 38.48114;73.41610;12.43330;,
 38.48114;73.41610;-12.43330;,
 31.98058;73.41613;-12.43330;,
 31.98058;73.41613;-12.43330;,
 31.98058;4.72839;-12.43330;,
 38.48114;73.41610;-12.43330;,
 38.48114;4.72836;-12.43330;,
 -57.15656;7.45914;-12.43330;,
 56.89487;7.45908;-12.43330;,
 56.89487;0.99105;-12.43330;,
 -57.15656;0.99108;-12.43330;,
 -57.15656;0.99108;-12.43330;,
 56.89487;0.99105;-12.43330;,
 56.89487;0.99105;12.43330;,
 -57.15656;0.99108;12.43330;,
 -57.15656;0.99108;12.43330;,
 56.89487;0.99105;12.43330;,
 56.89487;7.45908;12.43330;,
 -57.15656;7.45914;12.43330;,
 -57.15656;7.45914;12.43330;,
 56.89487;7.45908;12.43330;,
 56.89487;7.45908;-12.43330;,
 -57.15656;7.45914;-12.43330;,
 -57.15656;7.45914;-12.43330;,
 -57.15656;0.99108;-12.43330;,
 56.89487;7.45908;-12.43330;,
 56.89487;0.99105;-12.43330;;
 
 49;
 4;0,1,2,3;,
 4;4,5,6,7;,
 4;8,9,10,11;,
 4;12,13,14,15;,
 4;12,16,17,7;,
 4;18,13,6,19;,
 4;20,21,22,23;,
 4;24,25,26,27;,
 4;28,29,30,31;,
 4;32,33,34,35;,
 4;32,36,37,27;,
 4;38,33,26,39;,
 4;40,41,42,43;,
 4;44,45,46,47;,
 4;48,49,50,51;,
 4;52,53,54,55;,
 4;52,56,57,47;,
 4;58,53,46,59;,
 4;60,61,62,63;,
 4;64,65,66,67;,
 4;68,69,70,71;,
 4;72,73,74,75;,
 4;72,76,77,67;,
 4;78,73,66,79;,
 4;80,81,82,83;,
 4;84,85,86,87;,
 4;88,89,90,91;,
 4;92,93,94,95;,
 4;92,96,97,87;,
 4;98,93,86,99;,
 4;100,101,102,103;,
 4;104,105,106,107;,
 4;108,109,110,111;,
 4;112,113,114,115;,
 4;112,116,117,107;,
 4;118,113,106,119;,
 4;120,121,122,123;,
 4;124,125,126,127;,
 4;128,129,130,131;,
 4;132,133,134,135;,
 4;136,137,138,139;,
 4;136,140,141,131;,
 4;142,137,130,143;,
 4;144,145,146,147;,
 4;148,149,150,151;,
 4;152,153,154,155;,
 4;156,157,158,159;,
 4;156,160,161,151;,
 4;162,157,150,163;;
 
 MeshMaterialList {
  2;
  49;
  0,
  0,
  0,
  0,
  0,
  0,
  0,
  0,
  0,
  0,
  0,
  0,
  0,
  0,
  0,
  0,
  0,
  0,
  0,
  0,
  0,
  0,
  0,
  0,
  0,
  0,
  0,
  0,
  0,
  0,
  0,
  0,
  0,
  0,
  0,
  0,
  0,
  0,
  0,
  0,
  0,
  0,
  0,
  0,
  0,
  0,
  0,
  0,
  0;;
  Material {
   0.380000;0.210400;0.197600;1.000000;;
   0.000000;
   0.000000;0.000000;0.000000;;
   0.000000;0.000000;0.000000;;
  }
  Material {
   0.536800;0.536800;0.536800;1.000000;;
   5.000000;
   0.000000;0.000000;0.000000;;
   0.000000;0.000000;0.000000;;
  }
 }
 MeshNormals {
  13;
  0.000000;0.000000;-1.000000;,
  -0.000000;-1.000000;0.000000;,
  0.000000;0.000000;1.000000;,
  0.000000;-1.000000;-0.000000;,
  0.000000;1.000000;0.000000;,
  -0.000005;-1.000000;0.000000;,
  0.000000;1.000000;0.000000;,
  -1.000000;0.000000;0.000000;,
  1.000000;0.000000;0.000000;,
  0.000000;1.000000;0.000000;,
  0.000005;1.000000;0.000000;,
  0.000005;1.000000;0.000000;,
  0.000001;1.000000;0.000000;;
  49;
  4;0,0,0,0;,
  4;1,1,1,1;,
  4;2,2,2,2;,
  4;6,6,6,6;,
  4;7,7,7,7;,
  4;8,8,8,8;,
  4;0,0,0,0;,
  4;3,3,3,3;,
  4;2,2,2,2;,
  4;4,4,4,4;,
  4;7,7,7,7;,
  4;8,8,8,8;,
  4;0,0,0,0;,
  4;3,3,3,3;,
  4;2,2,2,2;,
  4;9,9,9,9;,
  4;7,7,7,7;,
  4;8,8,8,8;,
  4;0,0,0,0;,
  4;3,3,3,3;,
  4;2,2,2,2;,
  4;4,4,4,4;,
  4;7,7,7,7;,
  4;8,8,8,8;,
  4;0,0,0,0;,
  4;3,3,3,3;,
  4;2,2,2,2;,
  4;10,10,10,10;,
  4;7,7,7,7;,
  4;8,8,8,8;,
  4;0,0,0,0;,
  4;3,3,3,3;,
  4;2,2,2,2;,
  4;4,4,4,4;,
  4;7,7,7,7;,
  4;8,8,8,8;,
  4;4,4,4,4;,
  4;0,0,0,0;,
  4;5,5,5,5;,
  4;2,2,2,2;,
  4;11,11,11,11;,
  4;7,7,7,7;,
  4;8,8,8,8;,
  4;0,0,0,0;,
  4;1,1,1,1;,
  4;2,2,2,2;,
  4;12,12,12,12;,
  4;7,7,7,7;,
  4;8,8,8,8;;
 }
 MeshTextureCoords {
  164;
  0.000000;0.000000;,
  0.000000;1.000000;,
  1.000000;1.000000;,
  1.000000;0.000000;,
  0.000000;0.000000;,
  0.000000;1.000000;,
  1.000000;1.000000;,
  1.000000;0.000000;,
  0.000000;0.000000;,
  0.000000;1.000000;,
  1.000000;1.000000;,
  1.000000;0.000000;,
  0.000000;0.000000;,
  0.000000;1.000000;,
  1.000000;1.000000;,
  1.000000;0.000000;,
  0.000000;1.000000;,
  1.000000;1.000000;,
  0.000000;0.000000;,
  1.000000;0.000000;,
  0.000000;0.000000;,
  0.000000;1.000000;,
  1.000000;1.000000;,
  1.000000;0.000000;,
  0.000000;0.000000;,
  0.000000;1.000000;,
  1.000000;1.000000;,
  1.000000;0.000000;,
  0.000000;0.000000;,
  0.000000;1.000000;,
  1.000000;1.000000;,
  1.000000;0.000000;,
  0.000000;0.000000;,
  0.000000;1.000000;,
  1.000000;1.000000;,
  1.000000;0.000000;,
  0.000000;1.000000;,
  1.000000;1.000000;,
  0.000000;0.000000;,
  1.000000;0.000000;,
  0.000000;0.000000;,
  0.000000;1.000000;,
  1.000000;1.000000;,
  1.000000;0.000000;,
  0.000000;0.000000;,
  0.000000;1.000000;,
  1.000000;1.000000;,
  1.000000;0.000000;,
  0.000000;0.000000;,
  0.000000;1.000000;,
  1.000000;1.000000;,
  1.000000;0.000000;,
  0.000000;0.000000;,
  0.000000;1.000000;,
  1.000000;1.000000;,
  1.000000;0.000000;,
  0.000000;1.000000;,
  1.000000;1.000000;,
  0.000000;0.000000;,
  1.000000;0.000000;,
  0.000000;0.000000;,
  0.000000;1.000000;,
  1.000000;1.000000;,
  1.000000;0.000000;,
  0.000000;0.000000;,
  0.000000;1.000000;,
  1.000000;1.000000;,
  1.000000;0.000000;,
  0.000000;0.000000;,
  0.000000;1.000000;,
  1.000000;1.000000;,
  1.000000;0.000000;,
  0.000000;0.000000;,
  0.000000;1.000000;,
  1.000000;1.000000;,
  1.000000;0.000000;,
  0.000000;1.000000;,
  1.000000;1.000000;,
  0.000000;0.000000;,
  1.000000;0.000000;,
  0.000000;0.000000;,
  0.000000;1.000000;,
  1.000000;1.000000;,
  1.000000;0.000000;,
  0.000000;0.000000;,
  0.000000;1.000000;,
  1.000000;1.000000;,
  1.000000;0.000000;,
  0.000000;0.000000;,
  0.000000;1.000000;,
  1.000000;1.000000;,
  1.000000;0.000000;,
  0.000000;0.000000;,
  0.000000;1.000000;,
  1.000000;1.000000;,
  1.000000;0.000000;,
  0.000000;1.000000;,
  1.000000;1.000000;,
  0.000000;0.000000;,
  1.000000;0.000000;,
  0.000000;0.000000;,
  0.000000;1.000000;,
  1.000000;1.000000;,
  1.000000;0.000000;,
  0.000000;0.000000;,
  0.000000;1.000000;,
  1.000000;1.000000;,
  1.000000;0.000000;,
  0.000000;0.000000;,
  0.000000;1.000000;,
  1.000000;1.000000;,
  1.000000;0.000000;,
  0.000000;0.000000;,
  0.000000;1.000000;,
  1.000000;1.000000;,
  1.000000;0.000000;,
  0.000000;1.000000;,
  1.000000;1.000000;,
  0.000000;0.000000;,
  1.000000;0.000000;,
  0.000000;0.000000;,
  0.000000;1.000000;,
  1.000000;1.000000;,
  1.000000;0.000000;,
  0.000000;0.000000;,
  0.000000;1.000000;,
  1.000000;1.000000;,
  1.000000;0.000000;,
  0.000000;0.000000;,
  0.000000;1.000000;,
  1.000000;1.000000;,
  1.000000;0.000000;,
  0.000000;0.000000;,
  0.000000;1.000000;,
  1.000000;1.000000;,
  1.000000;0.000000;,
  0.000000;0.000000;,
  0.000000;1.000000;,
  1.000000;1.000000;,
  1.000000;0.000000;,
  0.000000;1.000000;,
  1.000000;1.000000;,
  0.000000;0.000000;,
  1.000000;0.000000;,
  0.000000;0.000000;,
  0.000000;1.000000;,
  1.000000;1.000000;,
  1.000000;0.000000;,
  0.000000;0.000000;,
  0.000000;1.000000;,
  1.000000;1.000000;,
  1.000000;0.000000;,
  0.000000;0.000000;,
  0.000000;1.000000;,
  1.000000;1.000000;,
  1.000000;0.000000;,
  0.000000;0.000000;,
  0.000000;1.000000;,
  1.000000;1.000000;,
  1.000000;0.000000;,
  0.000000;1.000000;,
  1.000000;1.000000;,
  0.000000;0.000000;,
  1.000000;0.000000;;
 }
}
