xof 0302txt 0064
template Header {
 <3D82AB43-62DA-11cf-AB39-0020AF71E433>
 WORD major;
 WORD minor;
 DWORD flags;
}

template Vector {
 <3D82AB5E-62DA-11cf-AB39-0020AF71E433>
 FLOAT x;
 FLOAT y;
 FLOAT z;
}

template Coords2d {
 <F6F23F44-7686-11cf-8F52-0040333594A3>
 FLOAT u;
 FLOAT v;
}

template Matrix4x4 {
 <F6F23F45-7686-11cf-8F52-0040333594A3>
 array FLOAT matrix[16];
}

template ColorRGBA {
 <35FF44E0-6C7C-11cf-8F52-0040333594A3>
 FLOAT red;
 FLOAT green;
 FLOAT blue;
 FLOAT alpha;
}

template ColorRGB {
 <D3E16E81-7835-11cf-8F52-0040333594A3>
 FLOAT red;
 FLOAT green;
 FLOAT blue;
}

template IndexedColor {
 <1630B820-7842-11cf-8F52-0040333594A3>
 DWORD index;
 ColorRGBA indexColor;
}

template Boolean {
 <4885AE61-78E8-11cf-8F52-0040333594A3>
 WORD truefalse;
}

template Boolean2d {
 <4885AE63-78E8-11cf-8F52-0040333594A3>
 Boolean u;
 Boolean v;
}

template MaterialWrap {
 <4885AE60-78E8-11cf-8F52-0040333594A3>
 Boolean u;
 Boolean v;
}

template TextureFilename {
 <A42790E1-7810-11cf-8F52-0040333594A3>
 STRING filename;
}

template Material {
 <3D82AB4D-62DA-11cf-AB39-0020AF71E433>
 ColorRGBA faceColor;
 FLOAT power;
 ColorRGB specularColor;
 ColorRGB emissiveColor;
 [...]
}

template MeshFace {
 <3D82AB5F-62DA-11cf-AB39-0020AF71E433>
 DWORD nFaceVertexIndices;
 array DWORD faceVertexIndices[nFaceVertexIndices];
}

template MeshFaceWraps {
 <4885AE62-78E8-11cf-8F52-0040333594A3>
 DWORD nFaceWrapValues;
 Boolean2d faceWrapValues;
}

template MeshTextureCoords {
 <F6F23F40-7686-11cf-8F52-0040333594A3>
 DWORD nTextureCoords;
 array Coords2d textureCoords[nTextureCoords];
}

template MeshMaterialList {
 <F6F23F42-7686-11cf-8F52-0040333594A3>
 DWORD nMaterials;
 DWORD nFaceIndexes;
 array DWORD faceIndexes[nFaceIndexes];
 [Material]
}

template MeshNormals {
 <F6F23F43-7686-11cf-8F52-0040333594A3>
 DWORD nNormals;
 array Vector normals[nNormals];
 DWORD nFaceNormals;
 array MeshFace faceNormals[nFaceNormals];
}

template MeshVertexColors {
 <1630B821-7842-11cf-8F52-0040333594A3>
 DWORD nVertexColors;
 array IndexedColor vertexColors[nVertexColors];
}

template Mesh {
 <3D82AB44-62DA-11cf-AB39-0020AF71E433>
 DWORD nVertices;
 array Vector vertices[nVertices];
 DWORD nFaces;
 array MeshFace faces[nFaces];
 [...]
}

Header{
1;
0;
1;
}

Mesh {
 324;
 100.00000;200.00000;-25.00000;,
 150.00000;200.00000;-25.00000;,
 150.00000;0.00000;-25.00000;,
 100.00000;0.00000;-25.00000;,
 150.00000;200.00000;-25.00000;,
 150.00000;200.00000;25.00000;,
 150.00000;0.00000;25.00000;,
 150.00000;0.00000;-25.00000;,
 150.00000;200.00000;25.00000;,
 100.00000;200.00000;25.00000;,
 100.00000;0.00000;25.00000;,
 150.00000;0.00000;25.00000;,
 100.00000;200.00000;25.00000;,
 100.00000;200.00000;-25.00000;,
 100.00000;0.00000;-25.00000;,
 100.00000;0.00000;25.00000;,
 150.00000;200.00000;-25.00000;,
 100.00000;200.00000;-25.00000;,
 100.00000;0.00000;-25.00000;,
 150.00000;0.00000;-25.00000;,
 -150.00000;200.00000;-25.00000;,
 -100.00000;200.00000;-25.00000;,
 -100.00000;0.00000;-25.00000;,
 -150.00000;0.00000;-25.00000;,
 -100.00000;200.00000;-25.00000;,
 -100.00000;200.00000;25.00000;,
 -100.00000;0.00000;25.00000;,
 -100.00000;0.00000;-25.00000;,
 -100.00000;200.00000;25.00000;,
 -150.00000;200.00000;25.00000;,
 -150.00000;0.00000;25.00000;,
 -100.00000;0.00000;25.00000;,
 -150.00000;200.00000;25.00000;,
 -150.00000;200.00000;-25.00000;,
 -150.00000;0.00000;-25.00000;,
 -150.00000;0.00000;25.00000;,
 -100.00000;200.00000;-25.00000;,
 -150.00000;200.00000;-25.00000;,
 -150.00000;0.00000;-25.00000;,
 -100.00000;0.00000;-25.00000;,
 -150.00000;281.96481;-0.00255;,
 150.00000;281.96481;-0.00255;,
 162.50000;237.18280;-30.67240;,
 -162.50000;237.18280;-30.67240;,
 175.00000;200.00000;-74.89850;,
 -175.00000;200.00000;-74.89850;,
 150.00000;281.96481;-0.00255;,
 150.00000;281.96481;0.00255;,
 162.50000;237.18280;30.67240;,
 162.50000;237.18280;-30.67240;,
 175.00000;200.00000;74.89850;,
 175.00000;200.00000;-74.89850;,
 150.00000;281.96481;0.00255;,
 -150.00000;281.96481;0.00255;,
 -162.50000;237.18280;30.67240;,
 162.50000;237.18280;30.67240;,
 -175.00000;200.00000;74.89850;,
 175.00000;200.00000;74.89850;,
 -150.00000;281.96481;0.00255;,
 -150.00000;281.96481;-0.00255;,
 -162.50000;237.18280;-30.67240;,
 -162.50000;237.18280;30.67240;,
 -175.00000;200.00000;-74.89850;,
 -175.00000;200.00000;74.89850;,
 150.00000;281.96481;-0.00255;,
 -150.00000;281.96481;-0.00255;,
 -175.00000;200.00000;-74.89850;,
 175.00000;200.00000;-74.89850;,
 0.17425;200.00000;-20.00000;,
 100.13250;200.00000;-20.00000;,
 100.13250;0.00000;-20.00000;,
 0.17425;0.00000;-20.00000;,
 100.13250;200.00000;-20.00000;,
 100.13250;200.00000;20.00000;,
 100.13250;0.00000;20.00000;,
 100.13250;0.00000;-20.00000;,
 100.13250;200.00000;20.00000;,
 0.17425;200.00000;20.00000;,
 0.17425;0.00000;20.00000;,
 100.13250;0.00000;20.00000;,
 0.17425;200.00000;20.00000;,
 0.17425;200.00000;-20.00000;,
 0.17425;0.00000;-20.00000;,
 0.17425;0.00000;20.00000;,
 100.13250;200.00000;-20.00000;,
 0.17425;200.00000;-20.00000;,
 0.17425;0.00000;-20.00000;,
 100.13250;0.00000;-20.00000;,
 -100.14480;200.00000;-20.00000;,
 -0.18655;200.00000;-20.00000;,
 -0.18655;0.00000;-20.00000;,
 -100.14480;0.00000;-20.00000;,
 -0.18655;200.00000;-20.00000;,
 -0.18655;200.00000;20.00000;,
 -0.18655;0.00000;20.00000;,
 -0.18655;0.00000;-20.00000;,
 -0.18655;200.00000;20.00000;,
 -100.14480;200.00000;20.00000;,
 -100.14480;0.00000;20.00000;,
 -0.18655;0.00000;20.00000;,
 -100.14480;200.00000;20.00000;,
 -100.14480;200.00000;-20.00000;,
 -100.14480;0.00000;-20.00000;,
 -100.14480;0.00000;20.00000;,
 -0.18655;200.00000;-20.00000;,
 -100.14480;200.00000;-20.00000;,
 -100.14480;0.00000;-20.00000;,
 -0.18655;0.00000;-20.00000;,
 -334.11371;147.25000;-17.50000;,
 -299.11371;147.25000;-17.50000;,
 -299.11371;-0.25000;-17.50000;,
 -334.11371;-0.25000;-17.50000;,
 -299.11371;147.25000;-17.50000;,
 -299.11371;147.25000;17.50000;,
 -299.11371;-0.25000;17.50000;,
 -299.11371;-0.25000;-17.50000;,
 -299.11371;147.25000;17.50000;,
 -334.11371;147.25000;17.50000;,
 -334.11371;-0.25000;17.50000;,
 -299.11371;-0.25000;17.50000;,
 -334.11371;147.25000;17.50000;,
 -334.11371;147.25000;-17.50000;,
 -334.11371;-0.25000;-17.50000;,
 -334.11371;-0.25000;17.50000;,
 -299.11371;147.25000;-17.50000;,
 -334.11371;147.25000;-17.50000;,
 -334.11371;-0.25000;-17.50000;,
 -299.11371;-0.25000;-17.50000;,
 300.00000;147.25000;-17.50000;,
 335.00000;147.25000;-17.50000;,
 335.00000;-0.25000;-17.50000;,
 300.00000;-0.25000;-17.50000;,
 335.00000;147.25000;-17.50000;,
 335.00000;147.25000;17.50000;,
 335.00000;-0.25000;17.50000;,
 335.00000;-0.25000;-17.50000;,
 335.00000;147.25000;17.50000;,
 300.00000;147.25000;17.50000;,
 300.00000;-0.25000;17.50000;,
 335.00000;-0.25000;17.50000;,
 300.00000;147.25000;17.50000;,
 300.00000;147.25000;-17.50000;,
 300.00000;-0.25000;-17.50000;,
 300.00000;-0.25000;17.50000;,
 335.00000;147.25000;-17.50000;,
 300.00000;147.25000;-17.50000;,
 300.00000;-0.25000;-17.50000;,
 335.00000;-0.25000;-17.50000;,
 146.44576;187.97360;-0.00130;,
 334.50754;187.97360;-0.00130;,
 340.75754;165.58260;-15.33620;,
 146.37985;165.58260;-15.33620;,
 347.00754;146.99121;-37.44925;,
 146.75285;146.99121;-37.44925;,
 334.50754;187.97360;-0.00130;,
 334.50754;187.97360;0.00130;,
 340.75754;165.58260;15.33620;,
 340.75754;165.58260;-15.33620;,
 347.00754;146.99121;37.44925;,
 347.00754;146.99121;-37.44925;,
 334.50754;187.97360;0.00130;,
 146.44576;187.97360;0.00130;,
 146.37985;165.58260;15.33620;,
 340.75754;165.58260;15.33620;,
 146.75285;146.99121;37.44925;,
 347.00754;146.99121;37.44925;,
 146.44576;187.97360;0.00130;,
 146.44576;187.97360;-0.00130;,
 146.37985;165.58260;-15.33620;,
 146.37985;165.58260;15.33620;,
 146.75285;146.99121;-37.44925;,
 146.75285;146.99121;37.44925;,
 334.50754;187.97360;-0.00130;,
 146.44576;187.97360;-0.00130;,
 146.75285;146.99121;-37.44925;,
 347.00754;146.99121;-37.44925;,
 -149.12105;187.97360;0.00130;,
 -337.18286;187.97360;0.00130;,
 -343.43286;165.58260;15.33620;,
 -149.05515;165.58260;15.33620;,
 -349.68286;146.99121;37.44925;,
 -149.42821;146.99121;37.44925;,
 -337.18286;187.97360;0.00130;,
 -337.18286;187.97360;-0.00130;,
 -343.43286;165.58260;-15.33620;,
 -343.43286;165.58260;15.33620;,
 -349.68286;146.99121;-37.44925;,
 -349.68286;146.99121;37.44925;,
 -337.18286;187.97360;-0.00130;,
 -149.12105;187.97360;-0.00130;,
 -149.05515;165.58260;-15.33620;,
 -343.43286;165.58260;-15.33620;,
 -149.42821;146.99121;-37.44925;,
 -349.68286;146.99121;-37.44925;,
 -149.12105;187.97360;-0.00130;,
 -149.12105;187.97360;0.00130;,
 -149.05515;165.58260;15.33620;,
 -149.05515;165.58260;-15.33620;,
 -149.42821;146.99121;37.44925;,
 -149.42821;146.99121;-37.44925;,
 -337.18286;187.97360;0.00130;,
 -149.12105;187.97360;0.00130;,
 -149.42821;146.99121;37.44925;,
 -349.68286;146.99121;37.44925;,
 -185.00000;147.25000;-17.50000;,
 -150.00000;147.25000;-17.50000;,
 -150.00000;-0.25000;-17.50000;,
 -185.00000;-0.25000;-17.50000;,
 -150.00000;147.25000;-17.50000;,
 -150.00000;147.25000;17.50000;,
 -150.00000;-0.25000;17.50000;,
 -150.00000;-0.25000;-17.50000;,
 -150.00000;147.25000;17.50000;,
 -185.00000;147.25000;17.50000;,
 -185.00000;-0.25000;17.50000;,
 -150.00000;-0.25000;17.50000;,
 -185.00000;147.25000;17.50000;,
 -185.00000;147.25000;-17.50000;,
 -185.00000;-0.25000;-17.50000;,
 -185.00000;-0.25000;17.50000;,
 -150.00000;147.25000;-17.50000;,
 -185.00000;147.25000;-17.50000;,
 -185.00000;-0.25000;-17.50000;,
 -150.00000;-0.25000;-17.50000;,
 150.00000;147.25000;-17.50000;,
 185.00000;147.25000;-17.50000;,
 185.00000;-0.25000;-17.50000;,
 150.00000;-0.25000;-17.50000;,
 185.00000;147.25000;-17.50000;,
 185.00000;147.25000;17.50000;,
 185.00000;-0.25000;17.50000;,
 185.00000;-0.25000;-17.50000;,
 185.00000;147.25000;17.50000;,
 150.00000;147.25000;17.50000;,
 150.00000;-0.25000;17.50000;,
 185.00000;-0.25000;17.50000;,
 150.00000;147.25000;17.50000;,
 150.00000;147.25000;-17.50000;,
 150.00000;-0.25000;-17.50000;,
 150.00000;-0.25000;17.50000;,
 185.00000;147.25000;-17.50000;,
 150.00000;147.25000;-17.50000;,
 150.00000;-0.25000;-17.50000;,
 185.00000;-0.25000;-17.50000;,
 239.12621;147.25000;-12.25000;,
 299.86938;147.25000;-12.25000;,
 299.86938;-0.25000;-12.25000;,
 239.12621;-0.25000;-12.25000;,
 299.86938;147.25000;-12.25000;,
 299.86938;147.25000;12.25000;,
 299.86938;-0.25000;12.25000;,
 299.86938;-0.25000;-12.25000;,
 299.86938;147.25000;12.25000;,
 239.12621;147.25000;12.25000;,
 239.12621;-0.25000;12.25000;,
 299.86938;-0.25000;12.25000;,
 239.12621;147.25000;12.25000;,
 239.12621;147.25000;-12.25000;,
 239.12621;-0.25000;-12.25000;,
 239.12621;-0.25000;12.25000;,
 299.86938;147.25000;-12.25000;,
 239.12621;147.25000;-12.25000;,
 239.12621;-0.25000;-12.25000;,
 299.86938;-0.25000;-12.25000;,
 185.06390;147.25000;-12.25000;,
 238.76199;147.25000;-12.25000;,
 238.76199;-0.25000;-12.25000;,
 185.06390;-0.25000;-12.25000;,
 238.76199;147.25000;-12.25000;,
 238.76199;147.25000;12.25000;,
 238.76199;-0.25000;12.25000;,
 238.76199;-0.25000;-12.25000;,
 238.76199;147.25000;12.25000;,
 185.06390;147.25000;12.25000;,
 185.06390;-0.25000;12.25000;,
 238.76199;-0.25000;12.25000;,
 185.06390;147.25000;12.25000;,
 185.06390;147.25000;-12.25000;,
 185.06390;-0.25000;-12.25000;,
 185.06390;-0.25000;12.25000;,
 238.76199;147.25000;-12.25000;,
 185.06390;147.25000;-12.25000;,
 185.06390;-0.25000;-12.25000;,
 238.76199;-0.25000;-12.25000;,
 -244.87379;147.25000;-12.25000;,
 -184.13060;147.25000;-12.25000;,
 -184.13060;-0.25000;-12.25000;,
 -244.87379;-0.25000;-12.25000;,
 -184.13060;147.25000;-12.25000;,
 -184.13060;147.25000;12.25000;,
 -184.13060;-0.25000;12.25000;,
 -184.13060;-0.25000;-12.25000;,
 -184.13060;147.25000;12.25000;,
 -244.87379;147.25000;12.25000;,
 -244.87379;-0.25000;12.25000;,
 -184.13060;-0.25000;12.25000;,
 -244.87379;147.25000;12.25000;,
 -244.87379;147.25000;-12.25000;,
 -244.87379;-0.25000;-12.25000;,
 -244.87379;-0.25000;12.25000;,
 -184.13060;147.25000;-12.25000;,
 -244.87379;147.25000;-12.25000;,
 -244.87379;-0.25000;-12.25000;,
 -184.13060;-0.25000;-12.25000;,
 -298.38229;147.25000;-12.25000;,
 -244.68420;147.25000;-12.25000;,
 -244.68420;-0.25000;-12.25000;,
 -298.38229;-0.25000;-12.25000;,
 -244.68420;147.25000;-12.25000;,
 -244.68420;147.25000;12.25000;,
 -244.68420;-0.25000;12.25000;,
 -244.68420;-0.25000;-12.25000;,
 -244.68420;147.25000;12.25000;,
 -298.38229;147.25000;12.25000;,
 -298.38229;-0.25000;12.25000;,
 -244.68420;-0.25000;12.25000;,
 -298.38229;147.25000;12.25000;,
 -298.38229;147.25000;-12.25000;,
 -298.38229;-0.25000;-12.25000;,
 -298.38229;-0.25000;12.25000;,
 -244.68420;147.25000;-12.25000;,
 -298.38229;147.25000;-12.25000;,
 -298.38229;-0.25000;-12.25000;,
 -244.68420;-0.25000;-12.25000;;
 
 102;
 4;0,1,2,3;,
 4;4,5,6,7;,
 4;8,9,10,11;,
 4;12,13,14,15;,
 4;12,5,16,17;,
 4;18,19,6,15;,
 4;20,21,22,23;,
 4;24,25,26,27;,
 4;28,29,30,31;,
 4;32,33,34,35;,
 4;32,25,36,37;,
 4;38,39,26,35;,
 4;40,41,42,43;,
 4;43,42,44,45;,
 4;46,47,48,49;,
 4;49,48,50,51;,
 4;52,53,54,55;,
 4;55,54,56,57;,
 4;58,59,60,61;,
 4;61,60,62,63;,
 4;58,47,64,65;,
 4;66,67,50,63;,
 4;68,69,70,71;,
 4;72,73,74,75;,
 4;76,77,78,79;,
 4;80,81,82,83;,
 4;80,73,84,85;,
 4;86,87,74,83;,
 4;88,89,90,91;,
 4;92,93,94,95;,
 4;96,97,98,99;,
 4;100,101,102,103;,
 4;100,93,104,105;,
 4;106,107,94,103;,
 4;108,109,110,111;,
 4;112,113,114,115;,
 4;116,117,118,119;,
 4;120,121,122,123;,
 4;120,113,124,125;,
 4;126,127,114,123;,
 4;128,129,130,131;,
 4;132,133,134,135;,
 4;136,137,138,139;,
 4;140,141,142,143;,
 4;140,133,144,145;,
 4;146,147,134,143;,
 4;148,149,150,151;,
 4;151,150,152,153;,
 4;154,155,156,157;,
 4;157,156,158,159;,
 4;160,161,162,163;,
 4;163,162,164,165;,
 4;166,167,168,169;,
 4;169,168,170,171;,
 4;166,155,172,173;,
 4;174,175,158,171;,
 4;176,177,178,179;,
 4;179,178,180,181;,
 4;182,183,184,185;,
 4;185,184,186,187;,
 4;188,189,190,191;,
 4;191,190,192,193;,
 4;194,195,196,197;,
 4;197,196,198,199;,
 4;194,183,200,201;,
 4;202,203,186,199;,
 4;204,205,206,207;,
 4;208,209,210,211;,
 4;212,213,214,215;,
 4;216,217,218,219;,
 4;216,209,220,221;,
 4;222,223,210,219;,
 4;224,225,226,227;,
 4;228,229,230,231;,
 4;232,233,234,235;,
 4;236,237,238,239;,
 4;236,229,240,241;,
 4;242,243,230,239;,
 4;244,245,246,247;,
 4;248,249,250,251;,
 4;252,253,254,255;,
 4;256,257,258,259;,
 4;256,249,260,261;,
 4;262,263,250,259;,
 4;264,265,266,267;,
 4;268,269,270,271;,
 4;272,273,274,275;,
 4;276,277,278,279;,
 4;276,269,280,281;,
 4;282,283,270,279;,
 4;284,285,286,287;,
 4;288,289,290,291;,
 4;292,293,294,295;,
 4;296,297,298,299;,
 4;296,289,300,301;,
 4;302,303,290,299;,
 4;304,305,306,307;,
 4;308,309,310,311;,
 4;312,313,314,315;,
 4;316,317,318,319;,
 4;316,309,320,321;,
 4;322,323,310,319;;
 
 MeshMaterialList {
  8;
  102;
  3,
  3,
  3,
  3,
  3,
  3,
  3,
  3,
  3,
  3,
  3,
  3,
  4,
  4,
  4,
  4,
  4,
  4,
  4,
  4,
  4,
  4,
  1,
  7,
  2,
  7,
  7,
  7,
  2,
  7,
  1,
  7,
  7,
  7,
  3,
  3,
  3,
  3,
  3,
  3,
  3,
  3,
  3,
  3,
  3,
  3,
  4,
  4,
  4,
  4,
  4,
  4,
  4,
  4,
  4,
  4,
  4,
  4,
  4,
  4,
  4,
  4,
  4,
  4,
  4,
  4,
  3,
  3,
  3,
  3,
  3,
  3,
  3,
  3,
  3,
  3,
  3,
  3,
  5,
  0,
  6,
  0,
  0,
  0,
  6,
  0,
  5,
  0,
  0,
  0,
  5,
  0,
  6,
  0,
  0,
  0,
  6,
  0,
  5,
  0,
  0,
  0;;
  Material {
   0.800000;0.800000;0.800000;1.000000;;
   5.000000;
   0.000000;0.000000;0.000000;;
   0.000000;0.000000;0.000000;;
  }
  Material {
   0.800000;0.800000;0.800000;1.000000;;
   5.000000;
   0.000000;0.000000;0.000000;;
   0.000000;0.000000;0.000000;;
   TextureFilename {
    "data/TEXTURE/yakuinmon_parts/mon_migi.jpg";
   }
  }
  Material {
   0.800000;0.800000;0.800000;1.000000;;
   5.000000;
   0.000000;0.000000;0.000000;;
   0.000000;0.000000;0.000000;;
   TextureFilename {
    "data/TEXTURE/yakuinmon_parts/mon_hidari.jpg";
   }
  }
  Material {
   0.507870;0.466560;0.336960;1.000000;;
   2.000000;
   0.130000;0.130000;0.130000;;
   0.000000;0.000000;0.000000;;
  }
  Material {
   0.800000;0.800000;0.800000;1.000000;;
   5.000000;
   0.000000;0.000000;0.000000;;
   0.000000;0.000000;0.000000;;
   TextureFilename {
    "data/TEXTURE/yakuinmon_parts/kawara.jpg";
   }
  }
  Material {
   0.800000;0.800000;0.800000;1.000000;;
   5.000000;
   0.000000;0.000000;0.000000;;
   0.000000;0.000000;0.000000;;
   TextureFilename {
    "data/TEXTURE/yakuinmon_parts/tobira_migi.jpg";
   }
  }
  Material {
   0.800000;0.800000;0.800000;1.000000;;
   5.000000;
   0.000000;0.000000;0.000000;;
   0.000000;0.000000;0.000000;;
   TextureFilename {
    "data/TEXTURE/yakuinmon_parts/tobira_hidari.jpg";
   }
  }
  Material {
   1.000000;1.000000;1.000000;1.000000;;
   0.000000;
   0.000000;0.000000;0.000000;;
   0.000000;0.000000;0.000000;;
  }
 }
 MeshNormals {
  111;
  0.000000;0.000000;-1.000000;,
  1.000000;0.000000;0.000000;,
  0.000000;0.000000;1.000000;,
  -1.000000;0.000000;0.000000;,
  0.000000;1.000000;0.000000;,
  0.000000;-1.000000;-0.000000;,
  0.000000;0.000000;-1.000000;,
  1.000000;0.000000;0.000000;,
  0.000000;0.000000;1.000000;,
  -1.000000;0.000000;0.000000;,
  0.000000;1.000000;0.000000;,
  0.000000;-1.000000;-0.000000;,
  0.000000;0.884606;-0.466340;,
  0.000000;0.671403;-0.741093;,
  0.000000;0.765425;-0.643526;,
  0.963181;0.268853;0.000000;,
  0.955851;0.293852;0.000000;,
  0.947872;0.318653;0.000000;,
  0.000000;0.884606;0.466340;,
  0.000000;0.671403;0.741093;,
  0.000000;0.765425;0.643526;,
  -0.963181;0.268853;0.000000;,
  -0.955851;0.293852;0.000000;,
  -0.947872;0.318653;0.000000;,
  0.000000;-1.000000;-0.000000;,
  0.000000;0.000000;-1.000000;,
  1.000000;0.000000;0.000000;,
  0.000000;0.000000;1.000000;,
  -1.000000;0.000000;0.000000;,
  0.000000;1.000000;0.000000;,
  0.000000;-1.000000;-0.000000;,
  0.000000;0.000000;-1.000000;,
  1.000000;0.000000;0.000000;,
  0.000000;0.000000;1.000000;,
  -1.000000;0.000000;0.000000;,
  0.000000;1.000000;0.000000;,
  0.000000;-1.000000;-0.000000;,
  0.000000;0.000000;-1.000000;,
  1.000000;0.000000;0.000000;,
  0.000000;0.000000;1.000000;,
  -1.000000;0.000000;0.000000;,
  0.000000;1.000000;0.000000;,
  0.000000;-1.000000;-0.000000;,
  0.000000;0.000000;-1.000000;,
  1.000000;0.000000;0.000000;,
  0.000000;0.000000;1.000000;,
  -1.000000;0.000000;0.000000;,
  0.000000;1.000000;0.000000;,
  0.000000;-1.000000;-0.000000;,
  0.000000;0.884606;-0.466340;,
  0.000000;0.671403;-0.741093;,
  0.000000;0.765425;-0.643525;,
  0.963181;0.268853;0.000000;,
  0.955851;0.293852;0.000000;,
  0.947872;0.318653;0.000000;,
  0.000000;0.884606;0.466340;,
  0.000000;0.671403;0.741093;,
  0.000000;0.765425;0.643525;,
  -0.999996;0.002943;0.000000;,
  -0.999963;-0.008558;0.000000;,
  -0.999799;-0.020059;0.000000;,
  0.000000;-1.000000;-0.000000;,
  0.000000;0.884606;0.466340;,
  0.000000;0.671403;0.741093;,
  0.000000;0.765425;0.643525;,
  -0.963181;0.268853;0.000000;,
  -0.955851;0.293852;0.000000;,
  -0.947872;0.318653;0.000000;,
  0.000000;0.884606;-0.466340;,
  0.000000;0.671403;-0.741093;,
  0.000000;0.765425;-0.643525;,
  0.999996;0.002943;0.000000;,
  0.999963;-0.008560;-0.000000;,
  0.999799;-0.020062;-0.000000;,
  0.000000;-1.000000;0.000000;,
  0.000000;0.000000;-1.000000;,
  1.000000;0.000000;0.000000;,
  0.000000;0.000000;1.000000;,
  -1.000000;0.000000;0.000000;,
  0.000000;1.000000;0.000000;,
  0.000000;-1.000000;-0.000000;,
  0.000000;0.000000;-1.000000;,
  1.000000;0.000000;0.000000;,
  0.000000;0.000000;1.000000;,
  -1.000000;0.000000;0.000000;,
  0.000000;1.000000;0.000000;,
  0.000000;-1.000000;-0.000000;,
  0.000000;0.000000;-1.000000;,
  1.000000;0.000000;0.000000;,
  0.000000;0.000000;1.000000;,
  -1.000000;0.000000;0.000000;,
  0.000000;1.000000;0.000000;,
  0.000000;-1.000000;-0.000000;,
  0.000000;0.000000;-1.000000;,
  1.000000;0.000000;0.000000;,
  0.000000;0.000000;1.000000;,
  -1.000000;0.000000;0.000000;,
  0.000000;1.000000;0.000000;,
  0.000000;-1.000000;-0.000000;,
  0.000000;0.000000;-1.000000;,
  1.000000;0.000000;0.000000;,
  0.000000;0.000000;1.000000;,
  -1.000000;0.000000;0.000000;,
  0.000000;1.000000;0.000000;,
  0.000000;-1.000000;-0.000000;,
  0.000000;0.000000;-1.000000;,
  1.000000;0.000000;0.000000;,
  0.000000;0.000000;1.000000;,
  -1.000000;0.000000;0.000000;,
  0.000000;1.000000;0.000000;,
  0.000000;-1.000000;-0.000000;;
  102;
  4;0,0,0,0;,
  4;1,1,1,1;,
  4;2,2,2,2;,
  4;3,3,3,3;,
  4;4,4,4,4;,
  4;5,5,5,5;,
  4;6,6,6,6;,
  4;7,7,7,7;,
  4;8,8,8,8;,
  4;9,9,9,9;,
  4;10,10,10,10;,
  4;11,11,11,11;,
  4;12,12,13,13;,
  4;13,13,14,14;,
  4;15,15,16,16;,
  4;16,16,17,17;,
  4;18,18,19,19;,
  4;19,19,20,20;,
  4;21,21,22,22;,
  4;22,22,23,23;,
  4;18,18,12,12;,
  4;24,24,24,24;,
  4;25,25,25,25;,
  4;26,26,26,26;,
  4;27,27,27,27;,
  4;28,28,28,28;,
  4;29,29,29,29;,
  4;30,30,30,30;,
  4;31,31,31,31;,
  4;32,32,32,32;,
  4;33,33,33,33;,
  4;34,34,34,34;,
  4;35,35,35,35;,
  4;36,36,36,36;,
  4;37,37,37,37;,
  4;38,38,38,38;,
  4;39,39,39,39;,
  4;40,40,40,40;,
  4;41,41,41,41;,
  4;42,42,42,42;,
  4;43,43,43,43;,
  4;44,44,44,44;,
  4;45,45,45,45;,
  4;46,46,46,46;,
  4;47,47,47,47;,
  4;48,48,48,48;,
  4;49,49,50,50;,
  4;50,50,51,51;,
  4;52,52,53,53;,
  4;53,53,54,54;,
  4;55,55,56,56;,
  4;56,56,57,57;,
  4;58,58,59,59;,
  4;59,59,60,60;,
  4;55,55,49,49;,
  4;61,61,61,61;,
  4;62,62,63,63;,
  4;63,63,64,64;,
  4;65,65,66,66;,
  4;66,66,67,67;,
  4;68,68,69,69;,
  4;69,69,70,70;,
  4;71,71,72,72;,
  4;72,72,73,73;,
  4;68,68,62,62;,
  4;74,74,74,74;,
  4;75,75,75,75;,
  4;76,76,76,76;,
  4;77,77,77,77;,
  4;78,78,78,78;,
  4;79,79,79,79;,
  4;80,80,80,80;,
  4;81,81,81,81;,
  4;82,82,82,82;,
  4;83,83,83,83;,
  4;84,84,84,84;,
  4;85,85,85,85;,
  4;86,86,86,86;,
  4;87,87,87,87;,
  4;88,88,88,88;,
  4;89,89,89,89;,
  4;90,90,90,90;,
  4;91,91,91,91;,
  4;92,92,92,92;,
  4;93,93,93,93;,
  4;94,94,94,94;,
  4;95,95,95,95;,
  4;96,96,96,96;,
  4;97,97,97,97;,
  4;98,98,98,98;,
  4;99,99,99,99;,
  4;100,100,100,100;,
  4;101,101,101,101;,
  4;102,102,102,102;,
  4;103,103,103,103;,
  4;104,104,104,104;,
  4;105,105,105,105;,
  4;106,106,106,106;,
  4;107,107,107,107;,
  4;108,108,108,108;,
  4;109,109,109,109;,
  4;110,110,110,110;;
 }
 MeshTextureCoords {
  324;
  0.000000;0.000000;,
  1.000000;0.000000;,
  1.000000;1.000000;,
  0.000000;1.000000;,
  0.000000;0.000000;,
  1.000000;0.000000;,
  1.000000;1.000000;,
  0.000000;1.000000;,
  0.000000;0.000000;,
  1.000000;0.000000;,
  1.000000;1.000000;,
  0.000000;1.000000;,
  0.000000;0.000000;,
  1.000000;0.000000;,
  1.000000;1.000000;,
  0.000000;1.000000;,
  1.000000;1.000000;,
  0.000000;1.000000;,
  0.000000;0.000000;,
  1.000000;0.000000;,
  0.000000;0.000000;,
  1.000000;0.000000;,
  1.000000;1.000000;,
  0.000000;1.000000;,
  0.000000;0.000000;,
  1.000000;0.000000;,
  1.000000;1.000000;,
  0.000000;1.000000;,
  0.000000;0.000000;,
  1.000000;0.000000;,
  1.000000;1.000000;,
  0.000000;1.000000;,
  0.000000;0.000000;,
  1.000000;0.000000;,
  1.000000;1.000000;,
  0.000000;1.000000;,
  1.000000;1.000000;,
  0.000000;1.000000;,
  0.000000;0.000000;,
  1.000000;0.000000;,
  0.000000;0.000000;,
  1.000000;0.000000;,
  1.000000;0.500000;,
  0.000000;0.500000;,
  1.000000;1.000000;,
  0.000000;1.000000;,
  0.000000;0.000000;,
  1.000000;0.000000;,
  1.000000;0.500000;,
  0.000000;0.500000;,
  1.000000;1.000000;,
  0.000000;1.000000;,
  0.000000;0.000000;,
  1.000000;0.000000;,
  1.000000;0.500000;,
  0.000000;0.500000;,
  1.000000;1.000000;,
  0.000000;1.000000;,
  0.000000;0.000000;,
  1.000000;0.000000;,
  1.000000;0.500000;,
  0.000000;0.500000;,
  1.000000;1.000000;,
  0.000000;1.000000;,
  1.000000;1.000000;,
  0.000000;1.000000;,
  0.000000;0.000000;,
  1.000000;0.000000;,
  0.000000;0.000000;,
  1.000000;0.000000;,
  1.000000;1.000000;,
  0.000000;1.000000;,
  0.000000;0.000000;,
  1.000000;0.000000;,
  1.000000;1.000000;,
  0.000000;1.000000;,
  0.000000;0.000000;,
  1.000000;0.000000;,
  1.000000;1.000000;,
  0.000000;1.000000;,
  0.000000;0.000000;,
  1.000000;0.000000;,
  1.000000;1.000000;,
  0.000000;1.000000;,
  1.000000;1.000000;,
  0.000000;1.000000;,
  0.000000;0.000000;,
  1.000000;0.000000;,
  0.000000;0.000000;,
  1.000000;0.000000;,
  1.000000;1.000000;,
  0.000000;1.000000;,
  0.000000;0.000000;,
  1.000000;0.000000;,
  1.000000;1.000000;,
  0.000000;1.000000;,
  0.000000;0.000000;,
  1.000000;0.000000;,
  1.000000;1.000000;,
  0.000000;1.000000;,
  0.000000;0.000000;,
  1.000000;0.000000;,
  1.000000;1.000000;,
  0.000000;1.000000;,
  1.000000;1.000000;,
  0.000000;1.000000;,
  0.000000;0.000000;,
  1.000000;0.000000;,
  0.000000;0.000000;,
  1.000000;0.000000;,
  1.000000;1.000000;,
  0.000000;1.000000;,
  0.000000;0.000000;,
  1.000000;0.000000;,
  1.000000;1.000000;,
  0.000000;1.000000;,
  0.000000;0.000000;,
  1.000000;0.000000;,
  1.000000;1.000000;,
  0.000000;1.000000;,
  0.000000;0.000000;,
  1.000000;0.000000;,
  1.000000;1.000000;,
  0.000000;1.000000;,
  1.000000;1.000000;,
  0.000000;1.000000;,
  0.000000;0.000000;,
  1.000000;0.000000;,
  0.000000;0.000000;,
  1.000000;0.000000;,
  1.000000;1.000000;,
  0.000000;1.000000;,
  0.000000;0.000000;,
  1.000000;0.000000;,
  1.000000;1.000000;,
  0.000000;1.000000;,
  0.000000;0.000000;,
  1.000000;0.000000;,
  1.000000;1.000000;,
  0.000000;1.000000;,
  0.000000;0.000000;,
  1.000000;0.000000;,
  1.000000;1.000000;,
  0.000000;1.000000;,
  1.000000;1.000000;,
  0.000000;1.000000;,
  0.000000;0.000000;,
  1.000000;0.000000;,
  0.000000;0.000000;,
  1.000000;0.000000;,
  1.000000;0.500000;,
  0.000000;0.500000;,
  1.000000;1.000000;,
  0.000000;1.000000;,
  0.000000;0.000000;,
  1.000000;0.000000;,
  1.000000;0.500000;,
  0.000000;0.500000;,
  1.000000;1.000000;,
  0.000000;1.000000;,
  0.000000;0.000000;,
  1.000000;0.000000;,
  1.000000;0.500000;,
  0.000000;0.500000;,
  1.000000;1.000000;,
  0.000000;1.000000;,
  0.000000;0.000000;,
  1.000000;0.000000;,
  1.000000;0.500000;,
  0.000000;0.500000;,
  1.000000;1.000000;,
  0.000000;1.000000;,
  1.000000;1.000000;,
  0.000000;1.000000;,
  0.000000;0.000000;,
  1.000000;0.000000;,
  0.000000;0.000000;,
  1.000000;0.000000;,
  1.000000;0.500000;,
  0.000000;0.500000;,
  1.000000;1.000000;,
  0.000000;1.000000;,
  0.000000;0.000000;,
  1.000000;0.000000;,
  1.000000;0.500000;,
  0.000000;0.500000;,
  1.000000;1.000000;,
  0.000000;1.000000;,
  0.000000;0.000000;,
  1.000000;0.000000;,
  1.000000;0.500000;,
  0.000000;0.500000;,
  1.000000;1.000000;,
  0.000000;1.000000;,
  0.000000;0.000000;,
  1.000000;0.000000;,
  1.000000;0.500000;,
  0.000000;0.500000;,
  1.000000;1.000000;,
  0.000000;1.000000;,
  1.000000;1.000000;,
  0.000000;1.000000;,
  0.000000;0.000000;,
  1.000000;0.000000;,
  0.000000;0.000000;,
  1.000000;0.000000;,
  1.000000;1.000000;,
  0.000000;1.000000;,
  0.000000;0.000000;,
  1.000000;0.000000;,
  1.000000;1.000000;,
  0.000000;1.000000;,
  0.000000;0.000000;,
  1.000000;0.000000;,
  1.000000;1.000000;,
  0.000000;1.000000;,
  0.000000;0.000000;,
  1.000000;0.000000;,
  1.000000;1.000000;,
  0.000000;1.000000;,
  1.000000;1.000000;,
  0.000000;1.000000;,
  0.000000;0.000000;,
  1.000000;0.000000;,
  0.000000;0.000000;,
  1.000000;0.000000;,
  1.000000;1.000000;,
  0.000000;1.000000;,
  0.000000;0.000000;,
  1.000000;0.000000;,
  1.000000;1.000000;,
  0.000000;1.000000;,
  0.000000;0.000000;,
  1.000000;0.000000;,
  1.000000;1.000000;,
  0.000000;1.000000;,
  0.000000;0.000000;,
  1.000000;0.000000;,
  1.000000;1.000000;,
  0.000000;1.000000;,
  1.000000;1.000000;,
  0.000000;1.000000;,
  0.000000;0.000000;,
  1.000000;0.000000;,
  0.000000;0.000000;,
  1.000000;0.000000;,
  1.000000;1.000000;,
  0.000000;1.000000;,
  0.000000;0.000000;,
  1.000000;0.000000;,
  1.000000;1.000000;,
  0.000000;1.000000;,
  0.000000;0.000000;,
  1.000000;0.000000;,
  1.000000;1.000000;,
  0.000000;1.000000;,
  0.000000;0.000000;,
  1.000000;0.000000;,
  1.000000;1.000000;,
  0.000000;1.000000;,
  1.000000;1.000000;,
  0.000000;1.000000;,
  0.000000;0.000000;,
  1.000000;0.000000;,
  0.000000;0.000000;,
  1.000000;0.000000;,
  1.000000;1.000000;,
  0.000000;1.000000;,
  0.000000;0.000000;,
  1.000000;0.000000;,
  1.000000;1.000000;,
  0.000000;1.000000;,
  0.000000;0.000000;,
  1.000000;0.000000;,
  1.000000;1.000000;,
  0.000000;1.000000;,
  0.000000;0.000000;,
  1.000000;0.000000;,
  1.000000;1.000000;,
  0.000000;1.000000;,
  1.000000;1.000000;,
  0.000000;1.000000;,
  0.000000;0.000000;,
  1.000000;0.000000;,
  0.000000;0.000000;,
  1.000000;0.000000;,
  1.000000;1.000000;,
  0.000000;1.000000;,
  0.000000;0.000000;,
  1.000000;0.000000;,
  1.000000;1.000000;,
  0.000000;1.000000;,
  0.000000;0.000000;,
  1.000000;0.000000;,
  1.000000;1.000000;,
  0.000000;1.000000;,
  0.000000;0.000000;,
  1.000000;0.000000;,
  1.000000;1.000000;,
  0.000000;1.000000;,
  1.000000;1.000000;,
  0.000000;1.000000;,
  0.000000;0.000000;,
  1.000000;0.000000;,
  0.000000;0.000000;,
  1.000000;0.000000;,
  1.000000;1.000000;,
  0.000000;1.000000;,
  0.000000;0.000000;,
  1.000000;0.000000;,
  1.000000;1.000000;,
  0.000000;1.000000;,
  0.000000;0.000000;,
  1.000000;0.000000;,
  1.000000;1.000000;,
  0.000000;1.000000;,
  0.000000;0.000000;,
  1.000000;0.000000;,
  1.000000;1.000000;,
  0.000000;1.000000;,
  1.000000;1.000000;,
  0.000000;1.000000;,
  0.000000;0.000000;,
  1.000000;0.000000;;
 }
}
