xof 0302txt 0064
template Header {
 <3D82AB43-62DA-11cf-AB39-0020AF71E433>
 WORD major;
 WORD minor;
 DWORD flags;
}

template Vector {
 <3D82AB5E-62DA-11cf-AB39-0020AF71E433>
 FLOAT x;
 FLOAT y;
 FLOAT z;
}

template Coords2d {
 <F6F23F44-7686-11cf-8F52-0040333594A3>
 FLOAT u;
 FLOAT v;
}

template Matrix4x4 {
 <F6F23F45-7686-11cf-8F52-0040333594A3>
 array FLOAT matrix[16];
}

template ColorRGBA {
 <35FF44E0-6C7C-11cf-8F52-0040333594A3>
 FLOAT red;
 FLOAT green;
 FLOAT blue;
 FLOAT alpha;
}

template ColorRGB {
 <D3E16E81-7835-11cf-8F52-0040333594A3>
 FLOAT red;
 FLOAT green;
 FLOAT blue;
}

template IndexedColor {
 <1630B820-7842-11cf-8F52-0040333594A3>
 DWORD index;
 ColorRGBA indexColor;
}

template Boolean {
 <4885AE61-78E8-11cf-8F52-0040333594A3>
 WORD truefalse;
}

template Boolean2d {
 <4885AE63-78E8-11cf-8F52-0040333594A3>
 Boolean u;
 Boolean v;
}

template MaterialWrap {
 <4885AE60-78E8-11cf-8F52-0040333594A3>
 Boolean u;
 Boolean v;
}

template TextureFilename {
 <A42790E1-7810-11cf-8F52-0040333594A3>
 STRING filename;
}

template Material {
 <3D82AB4D-62DA-11cf-AB39-0020AF71E433>
 ColorRGBA faceColor;
 FLOAT power;
 ColorRGB specularColor;
 ColorRGB emissiveColor;
 [...]
}

template MeshFace {
 <3D82AB5F-62DA-11cf-AB39-0020AF71E433>
 DWORD nFaceVertexIndices;
 array DWORD faceVertexIndices[nFaceVertexIndices];
}

template MeshFaceWraps {
 <4885AE62-78E8-11cf-8F52-0040333594A3>
 DWORD nFaceWrapValues;
 Boolean2d faceWrapValues;
}

template MeshTextureCoords {
 <F6F23F40-7686-11cf-8F52-0040333594A3>
 DWORD nTextureCoords;
 array Coords2d textureCoords[nTextureCoords];
}

template MeshMaterialList {
 <F6F23F42-7686-11cf-8F52-0040333594A3>
 DWORD nMaterials;
 DWORD nFaceIndexes;
 array DWORD faceIndexes[nFaceIndexes];
 [Material]
}

template MeshNormals {
 <F6F23F43-7686-11cf-8F52-0040333594A3>
 DWORD nNormals;
 array Vector normals[nNormals];
 DWORD nFaceNormals;
 array MeshFace faceNormals[nFaceNormals];
}

template MeshVertexColors {
 <1630B821-7842-11cf-8F52-0040333594A3>
 DWORD nVertexColors;
 array IndexedColor vertexColors[nVertexColors];
}

template Mesh {
 <3D82AB44-62DA-11cf-AB39-0020AF71E433>
 DWORD nVertices;
 array Vector vertices[nVertices];
 DWORD nFaces;
 array MeshFace faces[nFaces];
 [...]
}

Header{
1;
0;
1;
}

Mesh {
 196;
 0.00000;35.94042;-0.82650;,
 7.28498;35.94042;-8.03918;,
 0.00000;35.94042;-11.02676;,
 10.30252;35.94042;-0.82650;,
 7.28498;35.94042;6.38616;,
 0.00000;35.94042;9.37376;,
 -7.28498;35.94042;6.38616;,
 -10.30252;35.94042;-0.82650;,
 -7.28498;35.94042;-8.03918;,
 0.00000;7.60154;-0.82650;,
 0.00000;7.60154;-14.93256;,
 10.07448;7.60154;-10.80098;,
 14.24746;7.60154;-0.82650;,
 10.07448;7.60154;9.14798;,
 0.00000;7.60154;13.27954;,
 -10.07448;7.60154;9.14798;,
 -14.24746;7.60154;-0.82650;,
 -10.07448;7.60154;-10.80098;,
 -10.07448;31.88810;-10.80098;,
 0.00000;31.88810;-14.93256;,
 -14.24746;31.88810;-0.82650;,
 10.07448;31.88810;-10.80098;,
 -10.07448;31.88810;9.14798;,
 14.24746;31.88810;-0.82650;,
 0.00000;31.88810;13.27954;,
 10.07448;31.88810;9.14798;,
 0.00000;9.33142;-3.98900;,
 6.32434;9.33142;-0.99804;,
 6.32434;0.59342;-0.99804;,
 0.00000;0.59342;-3.98900;,
 6.32434;9.33142;4.98390;,
 6.32434;0.59342;4.98390;,
 0.00000;9.33142;7.97486;,
 0.00000;0.59342;7.97486;,
 -6.32434;9.33142;4.98390;,
 -6.32434;0.59342;4.98390;,
 -6.32434;9.33142;-0.99804;,
 -6.32434;0.59342;-0.99804;,
 0.00000;9.33142;1.99292;,
 0.00000;0.59342;1.99292;,
 16.40402;29.78580;0.00000;,
 16.53672;32.01772;0.00000;,
 11.69322;32.01772;-11.69322;,
 11.59938;29.78580;-11.59938;,
 18.37412;32.01772;0.00000;,
 12.99248;32.01772;-12.99248;,
 18.45452;29.78580;0.00000;,
 13.04932;29.78580;-13.04932;,
 0.00000;32.01772;-16.53672;,
 0.00000;29.78580;-16.40402;,
 0.00000;32.01772;-18.37412;,
 0.00000;29.78580;-18.45452;,
 -11.69322;32.01772;-11.69322;,
 -11.59938;29.78580;-11.59938;,
 -12.99248;32.01772;-12.99248;,
 -13.04932;29.78580;-13.04932;,
 -16.53672;32.01772;0.00000;,
 -16.40402;29.78580;0.00000;,
 -18.37412;32.01772;0.00000;,
 -18.45452;29.78580;0.00000;,
 -11.69322;32.01772;11.69322;,
 -11.59938;29.78580;11.59940;,
 -12.99246;32.01772;12.99248;,
 -13.04932;29.78580;13.04932;,
 0.00000;32.01772;16.53672;,
 0.00000;29.78580;16.40402;,
 0.00000;32.01772;18.37412;,
 0.00000;29.78580;18.45452;,
 11.69322;32.01772;11.69322;,
 11.59938;29.78580;11.59940;,
 12.99246;32.01772;12.99248;,
 13.04932;29.78580;13.04932;,
 0.00000;46.43038;0.00000;,
 3.36270;46.43038;-3.36270;,
 0.00000;46.43038;-4.75558;,
 4.75558;46.43038;0.00000;,
 3.36270;46.43038;3.36270;,
 0.00000;46.43038;4.75558;,
 -3.36270;46.43038;3.36270;,
 -4.75558;46.43038;0.00000;,
 -3.36270;46.43038;-3.36270;,
 0.00000;31.39468;0.00000;,
 0.00000;31.39468;-17.04966;,
 12.05594;31.39468;-12.05594;,
 17.04966;31.39468;0.00000;,
 12.05594;31.39468;12.05594;,
 0.00000;31.39468;17.04966;,
 -12.05594;31.39468;12.05592;,
 -17.04966;31.39468;0.00000;,
 -12.05594;31.39468;-12.05594;,
 10.43240;40.79032;-10.43240;,
 0.00000;40.79032;-14.75364;,
 14.75364;40.79032;0.00000;,
 -10.43240;40.79032;-10.43240;,
 10.43240;40.79032;10.43240;,
 -14.75364;40.79032;0.00000;,
 0.00000;40.79032;14.75364;,
 -10.43240;40.79032;10.43240;,
 0.00000;37.42674;-0.82650;,
 0.00000;37.42674;-12.09672;,
 8.04914;37.42674;-8.79574;,
 11.38320;37.42674;-0.82650;,
 8.04914;37.42674;7.14274;,
 0.00000;37.42674;10.44370;,
 -8.04914;37.42674;7.14274;,
 -11.38320;37.42674;-0.82650;,
 -8.04914;37.42674;-8.79574;,
 0.00000;6.11522;-0.82650;,
 11.13124;6.11522;-11.84726;,
 0.00000;6.11522;-16.41222;,
 15.74196;6.11522;-0.82650;,
 11.13124;6.11522;10.19426;,
 0.00000;6.11522;14.75920;,
 -11.13124;6.11522;10.19426;,
 -15.74196;6.11522;-0.82650;,
 -11.13124;6.11522;-11.84726;,
 -11.13124;32.94932;-11.84726;,
 0.00000;32.94932;-16.41222;,
 -15.74196;32.94932;-0.82650;,
 11.13124;32.94932;-11.84726;,
 -11.13124;32.94932;10.19426;,
 15.74196;32.94932;-0.82650;,
 0.00000;32.94932;14.75920;,
 11.13124;32.94932;10.19426;,
 0.00000;10.40352;-5.45692;,
 0.00000;-0.47872;-5.45692;,
 7.87628;-0.47872;-1.73200;,
 7.87628;10.40352;-1.73200;,
 7.87628;-0.47872;5.71786;,
 7.87628;10.40352;5.71786;,
 0.00000;-0.47872;9.44278;,
 0.00000;10.40352;9.44278;,
 -7.87628;-0.47872;5.71786;,
 -7.87628;10.40352;5.71786;,
 -7.87628;-0.47872;-1.73200;,
 -7.87628;10.40352;-1.73200;,
 0.00000;10.40352;1.99292;,
 0.00000;-0.47872;1.99292;,
 18.39794;28.77422;0.00000;,
 13.00932;28.77422;-13.00932;,
 13.11456;31.27744;-13.11456;,
 18.54678;31.27744;0.00000;,
 14.57174;31.27744;-14.57174;,
 20.60754;31.27744;0.00000;,
 14.63548;28.77422;-14.63548;,
 20.69770;28.77422;0.00000;,
 0.00000;28.77422;-18.39794;,
 0.00000;31.27744;-18.54678;,
 0.00000;31.27744;-20.60754;,
 0.00000;28.77422;-20.69770;,
 -13.00932;28.77422;-13.00932;,
 -13.11456;31.27744;-13.11456;,
 -14.57174;31.27744;-14.57174;,
 -14.63548;28.77422;-14.63548;,
 -18.39794;28.77422;0.00000;,
 -18.54678;31.27744;0.00000;,
 -20.60754;31.27744;0.00000;,
 -20.69770;28.77422;0.00000;,
 -13.00932;28.77422;13.00932;,
 -13.11456;31.27744;13.11456;,
 -14.57172;31.27744;14.57174;,
 -14.63548;28.77422;14.63548;,
 0.00000;28.77422;18.39794;,
 0.00000;31.27744;18.54678;,
 0.00000;31.27744;20.60754;,
 0.00000;28.77422;20.69770;,
 13.00932;28.77422;13.00932;,
 13.11456;31.27744;13.11456;,
 14.57174;31.27744;14.57174;,
 14.63548;28.77422;14.63548;,
 0.00000;47.44196;0.00000;,
 0.00000;47.44196;-5.33362;,
 3.77144;47.44196;-3.77144;,
 5.33362;47.44196;0.00000;,
 3.77144;47.44196;3.77144;,
 0.00000;47.44196;5.33362;,
 -3.77144;47.44196;3.77144;,
 -5.33362;47.44196;0.00000;,
 -3.77144;47.44196;-3.77144;,
 0.00000;30.57866;0.00000;,
 13.52136;30.57866;-13.52136;,
 0.00000;30.57866;-19.12208;,
 19.12208;30.57866;0.00000;,
 13.52136;30.57866;13.52136;,
 0.00000;30.57866;19.12208;,
 -13.52136;30.57866;13.52136;,
 -19.12208;30.57866;0.00000;,
 -13.52136;30.57866;-13.52136;,
 11.70048;41.11636;-11.70048;,
 0.00000;41.11636;-16.54698;,
 16.54698;41.11636;0.00000;,
 -11.70048;41.11636;-11.70048;,
 11.70048;41.11636;11.70048;,
 -16.54698;41.11636;0.00000;,
 0.00000;41.11636;16.54698;,
 -11.70048;41.11636;11.70048;;
 
 228;
 3;0,1,2;,
 3;0,3,1;,
 3;0,4,3;,
 3;0,5,4;,
 3;0,6,5;,
 3;0,7,6;,
 3;0,8,7;,
 3;0,2,8;,
 3;9,10,11;,
 3;9,11,12;,
 3;9,12,13;,
 3;9,13,14;,
 3;9,14,15;,
 3;9,15,16;,
 3;9,16,17;,
 3;9,17,10;,
 4;18,8,2,19;,
 4;18,19,10,17;,
 4;18,17,16,20;,
 4;18,20,7,8;,
 4;19,2,1,21;,
 4;19,21,11,10;,
 4;20,16,15,22;,
 4;20,22,6,7;,
 4;21,1,3,23;,
 4;21,23,12,11;,
 4;22,15,14,24;,
 4;22,24,5,6;,
 4;23,3,4,25;,
 4;23,25,13,12;,
 4;24,14,13,25;,
 4;24,25,4,5;,
 4;26,27,28,29;,
 4;27,30,31,28;,
 4;30,32,33,31;,
 4;32,34,35,33;,
 4;34,36,37,35;,
 4;36,26,29,37;,
 3;38,27,26;,
 3;38,30,27;,
 3;38,32,30;,
 3;38,34,32;,
 3;38,36,34;,
 3;38,26,36;,
 3;39,29,28;,
 3;39,28,31;,
 3;39,31,33;,
 3;39,33,35;,
 3;39,35,37;,
 3;39,37,29;,
 4;40,41,42,43;,
 4;41,44,45,42;,
 4;44,46,47,45;,
 4;46,40,43,47;,
 4;43,42,48,49;,
 4;42,45,50,48;,
 4;45,47,51,50;,
 4;47,43,49,51;,
 4;49,48,52,53;,
 4;48,50,54,52;,
 4;50,51,55,54;,
 4;51,49,53,55;,
 4;53,52,56,57;,
 4;52,54,58,56;,
 4;54,55,59,58;,
 4;55,53,57,59;,
 4;57,56,60,61;,
 4;56,58,62,60;,
 4;58,59,63,62;,
 4;59,57,61,63;,
 4;61,60,64,65;,
 4;60,62,66,64;,
 4;62,63,67,66;,
 4;63,61,65,67;,
 4;65,64,68,69;,
 4;64,66,70,68;,
 4;66,67,71,70;,
 4;67,65,69,71;,
 4;69,68,41,40;,
 4;68,70,44,41;,
 4;70,71,46,44;,
 4;71,69,40,46;,
 3;72,73,74;,
 3;72,75,73;,
 3;72,76,75;,
 3;72,77,76;,
 3;72,78,77;,
 3;72,79,78;,
 3;72,80,79;,
 3;72,74,80;,
 3;81,82,83;,
 3;81,83,84;,
 3;81,84,85;,
 3;81,85,86;,
 3;81,86,87;,
 3;81,87,88;,
 3;81,88,89;,
 3;81,89,82;,
 4;90,83,82,91;,
 4;90,91,74,73;,
 4;90,73,75,92;,
 4;90,92,84,83;,
 4;91,82,89,93;,
 4;91,93,80,74;,
 4;92,75,76,94;,
 4;92,94,85,84;,
 4;93,89,88,95;,
 4;93,95,79,80;,
 4;94,76,77,96;,
 4;94,96,86,85;,
 4;95,88,87,97;,
 4;95,97,78,79;,
 4;96,77,78,97;,
 4;96,97,87,86;,
 3;98,99,100;,
 3;98,100,101;,
 3;98,101,102;,
 3;98,102,103;,
 3;98,103,104;,
 3;98,104,105;,
 3;98,105,106;,
 3;98,106,99;,
 3;107,108,109;,
 3;107,110,108;,
 3;107,111,110;,
 3;107,112,111;,
 3;107,113,112;,
 3;107,114,113;,
 3;107,115,114;,
 3;107,109,115;,
 4;116,117,99,106;,
 4;116,115,109,117;,
 4;116,118,114,115;,
 4;116,106,105,118;,
 4;117,119,100,99;,
 4;117,109,108,119;,
 4;118,120,113,114;,
 4;118,105,104,120;,
 4;119,121,101,100;,
 4;119,108,110,121;,
 4;120,122,112,113;,
 4;120,104,103,122;,
 4;121,123,102,101;,
 4;121,110,111,123;,
 4;122,123,111,112;,
 4;122,103,102,123;,
 4;124,125,126,127;,
 4;127,126,128,129;,
 4;129,128,130,131;,
 4;131,130,132,133;,
 4;133,132,134,135;,
 4;135,134,125,124;,
 3;136,124,127;,
 3;136,127,129;,
 3;136,129,131;,
 3;136,131,133;,
 3;136,133,135;,
 3;136,135,124;,
 3;137,126,125;,
 3;137,128,126;,
 3;137,130,128;,
 3;137,132,130;,
 3;137,134,132;,
 3;137,125,134;,
 4;138,139,140,141;,
 4;141,140,142,143;,
 4;143,142,144,145;,
 4;145,144,139,138;,
 4;139,146,147,140;,
 4;140,147,148,142;,
 4;142,148,149,144;,
 4;144,149,146,139;,
 4;146,150,151,147;,
 4;147,151,152,148;,
 4;148,152,153,149;,
 4;149,153,150,146;,
 4;150,154,155,151;,
 4;151,155,156,152;,
 4;152,156,157,153;,
 4;153,157,154,150;,
 4;154,158,159,155;,
 4;155,159,160,156;,
 4;156,160,161,157;,
 4;157,161,158,154;,
 4;158,162,163,159;,
 4;159,163,164,160;,
 4;160,164,165,161;,
 4;161,165,162,158;,
 4;162,166,167,163;,
 4;163,167,168,164;,
 4;164,168,169,165;,
 4;165,169,166,162;,
 4;166,138,141,167;,
 4;167,141,143,168;,
 4;168,143,145,169;,
 4;169,145,138,166;,
 3;170,171,172;,
 3;170,172,173;,
 3;170,173,174;,
 3;170,174,175;,
 3;170,175,176;,
 3;170,176,177;,
 3;170,177,178;,
 3;170,178,171;,
 3;179,180,181;,
 3;179,182,180;,
 3;179,183,182;,
 3;179,184,183;,
 3;179,185,184;,
 3;179,186,185;,
 3;179,187,186;,
 3;179,181,187;,
 4;188,189,181,180;,
 4;188,172,171,189;,
 4;188,190,173,172;,
 4;188,180,182,190;,
 4;189,191,187,181;,
 4;189,171,178,191;,
 4;190,192,174,173;,
 4;190,182,183,192;,
 4;191,193,186,187;,
 4;191,178,177,193;,
 4;192,194,175,174;,
 4;192,183,184,194;,
 4;193,195,185,186;,
 4;193,177,176,195;,
 4;194,195,176,175;,
 4;194,184,185,195;;
 
 MeshMaterialList {
  4;
  228;
  0,
  0,
  0,
  0,
  0,
  0,
  0,
  0,
  0,
  0,
  0,
  0,
  0,
  0,
  0,
  0,
  0,
  0,
  0,
  0,
  0,
  0,
  0,
  0,
  0,
  0,
  0,
  0,
  0,
  0,
  0,
  0,
  0,
  0,
  0,
  0,
  0,
  0,
  0,
  0,
  0,
  0,
  0,
  0,
  0,
  0,
  0,
  0,
  0,
  0,
  2,
  2,
  2,
  2,
  2,
  2,
  2,
  2,
  2,
  2,
  2,
  2,
  2,
  2,
  2,
  2,
  2,
  2,
  2,
  2,
  2,
  2,
  2,
  2,
  2,
  2,
  2,
  2,
  2,
  2,
  2,
  2,
  2,
  2,
  2,
  2,
  2,
  2,
  2,
  2,
  2,
  2,
  2,
  2,
  2,
  2,
  2,
  2,
  2,
  2,
  2,
  2,
  2,
  2,
  2,
  2,
  2,
  2,
  2,
  2,
  2,
  2,
  2,
  2,
  1,
  1,
  1,
  1,
  1,
  1,
  1,
  1,
  1,
  1,
  1,
  1,
  1,
  1,
  1,
  1,
  1,
  1,
  1,
  1,
  1,
  1,
  1,
  1,
  1,
  1,
  1,
  1,
  1,
  1,
  1,
  1,
  1,
  1,
  1,
  1,
  1,
  1,
  1,
  1,
  1,
  1,
  1,
  1,
  1,
  1,
  1,
  1,
  1,
  1,
  1,
  1,
  1,
  1,
  1,
  1,
  1,
  1,
  1,
  1,
  1,
  1,
  1,
  1,
  1,
  1,
  1,
  1,
  1,
  1,
  1,
  1,
  1,
  1,
  1,
  1,
  1,
  1,
  1,
  1,
  1,
  1,
  1,
  1,
  1,
  1,
  1,
  1,
  1,
  1,
  1,
  1,
  1,
  1,
  1,
  1,
  1,
  1,
  1,
  1,
  1,
  1,
  1,
  1,
  1,
  1,
  1,
  1,
  1,
  1,
  1,
  1,
  1,
  1;;
  Material {
   1.000000;1.000000;1.000000;1.000000;;
   0.000000;
   0.000000;0.000000;0.000000;;
   0.150000;0.150000;0.150000;;
  }
  Material {
   0.000000;0.000000;0.000000;1.000000;;
   5.000000;
   0.000000;0.000000;0.000000;;
   0.000000;0.000000;0.000000;;
  }
  Material {
   0.668000;0.690400;0.210400;1.000000;;
   5.000000;
   0.160000;0.160000;0.160000;;
   0.000000;0.000000;0.000000;;
  }
  Material {
   0.800000;0.000000;0.012549;1.000000;;
   5.000000;
   0.000000;0.000000;0.000000;;
   0.000000;0.000000;0.000000;;
  }
 }
 MeshNormals {
  156;
  0.000000;1.000000;0.000000;,
  0.000000;0.923755;-0.382983;,
  0.268804;0.924268;-0.271059;,
  0.380496;0.924782;0.000000;,
  0.268804;0.924268;0.271059;,
  0.000000;0.923755;0.382983;,
  -0.268804;0.924268;0.271059;,
  -0.380496;0.924782;0.000000;,
  -0.268804;0.924268;-0.271059;,
  0.000000;-1.000000;0.000000;,
  -0.650933;0.382201;-0.655903;,
  -0.000000;0.380874;-0.924627;,
  -0.923523;0.383542;0.000000;,
  0.650933;0.382201;-0.655903;,
  -0.650932;0.382201;0.655904;,
  0.923523;0.383542;0.000000;,
  -0.000000;0.380873;0.924627;,
  0.650932;0.382201;0.655904;,
  0.000000;0.000000;-1.000000;,
  -0.704609;0.000000;-0.709596;,
  -1.000000;0.000000;0.000000;,
  0.704609;0.000000;-0.709596;,
  -0.704609;0.000000;0.709596;,
  1.000000;0.000000;0.000000;,
  0.000000;0.000000;1.000000;,
  0.704609;0.000000;0.709596;,
  0.000000;1.000000;0.000000;,
  0.000000;0.000000;-1.000000;,
  0.427528;0.000000;-0.904002;,
  1.000000;0.000000;0.000000;,
  0.000000;0.000000;1.000000;,
  -0.427528;0.000000;0.904002;,
  -1.000000;0.000000;0.000000;,
  0.000000;-1.000000;-0.000000;,
  0.427528;0.000000;0.904002;,
  -0.427528;0.000000;-0.904002;,
  -0.998237;0.059352;0.000000;,
  0.000000;1.000000;0.000000;,
  0.999352;0.035998;0.000000;,
  -0.705860;0.059353;0.705860;,
  0.706648;0.035996;-0.706648;,
  0.000000;0.059353;0.998237;,
  0.000000;0.035996;-0.999352;,
  0.705860;0.059353;0.705860;,
  -0.706648;0.035996;-0.706648;,
  0.998237;0.059352;0.000000;,
  -0.999352;0.035998;0.000000;,
  0.705860;0.059350;-0.705860;,
  -0.706648;0.035999;0.706649;,
  0.000000;0.059348;-0.998237;,
  0.000000;0.035997;0.999352;,
  -0.705860;0.059350;-0.705860;,
  0.706648;0.035999;0.706649;,
  0.000000;0.967879;-0.251417;,
  0.177778;0.967879;-0.177778;,
  0.251417;0.967879;0.000000;,
  0.177778;0.967879;0.177778;,
  0.000000;0.967879;0.251417;,
  -0.177778;0.967879;0.177778;,
  -0.251417;0.967879;0.000000;,
  -0.177778;0.967879;-0.177778;,
  0.000000;-1.000000;0.000000;,
  0.558488;0.613337;-0.558488;,
  -0.000000;0.613337;-0.789821;,
  0.789821;0.613337;0.000000;,
  -0.558488;0.613337;-0.558488;,
  0.558488;0.613337;0.558488;,
  -0.789821;0.613337;0.000000;,
  -0.000000;0.613337;0.789821;,
  -0.558488;0.613337;0.558488;,
  0.686894;0.237386;-0.686894;,
  0.000000;0.237386;-0.971415;,
  0.971415;0.237386;0.000000;,
  -0.686894;0.237386;-0.686894;,
  0.686894;0.237386;0.686894;,
  -0.971415;0.237386;0.000000;,
  -0.000000;0.237386;0.971415;,
  -0.686895;0.237386;0.686894;,
  0.000000;-1.000000;-0.000000;,
  0.000000;-0.923755;0.382984;,
  -0.268805;-0.924267;0.271060;,
  -0.380497;-0.924782;0.000000;,
  -0.268805;-0.924268;-0.271060;,
  0.000000;-0.923755;-0.382984;,
  0.268805;-0.924268;-0.271060;,
  0.380497;-0.924782;-0.000000;,
  0.268805;-0.924267;0.271060;,
  0.000000;1.000000;0.000000;,
  0.650933;-0.382200;0.655904;,
  0.000000;-0.380872;0.924628;,
  0.923524;-0.383541;0.000000;,
  -0.650933;-0.382200;0.655904;,
  0.650932;-0.382200;-0.655904;,
  -0.923524;-0.383541;0.000000;,
  0.000000;-0.380872;-0.924628;,
  -0.650932;-0.382200;-0.655904;,
  0.704609;0.000000;0.709596;,
  0.000000;0.000000;1.000000;,
  1.000000;0.000000;0.000000;,
  -0.704609;0.000000;0.709596;,
  0.704608;0.000000;-0.709597;,
  -1.000000;0.000000;0.000000;,
  0.000000;0.000000;-1.000000;,
  -0.704608;0.000000;-0.709597;,
  0.000000;-1.000000;-0.000000;,
  0.000000;0.000000;1.000000;,
  -0.427529;0.000000;0.904002;,
  -1.000000;0.000000;0.000000;,
  0.000000;0.000000;-1.000000;,
  0.427529;0.000000;-0.904002;,
  1.000000;0.000000;0.000000;,
  0.000000;1.000000;0.000000;,
  -0.427529;0.000000;-0.904002;,
  0.427529;0.000000;0.904002;,
  0.998237;-0.059353;-0.000000;,
  0.000000;-1.000000;-0.000000;,
  -0.999352;-0.035991;0.000000;,
  0.705860;-0.059353;-0.705860;,
  -0.706649;-0.035991;0.706649;,
  0.000000;-0.059353;-0.998237;,
  0.000000;-0.035991;0.999352;,
  -0.705860;-0.059353;-0.705860;,
  0.706649;-0.035991;0.706649;,
  -0.998237;-0.059353;0.000000;,
  0.999352;-0.035993;-0.000000;,
  -0.705860;-0.059353;0.705860;,
  0.706648;-0.035994;-0.706649;,
  0.000000;-0.059353;0.998237;,
  0.000000;-0.035991;-0.999352;,
  0.705860;-0.059353;0.705860;,
  -0.706649;-0.035991;-0.706649;,
  0.000000;-0.967879;0.251416;,
  -0.177778;-0.967879;0.177778;,
  -0.251416;-0.967879;0.000000;,
  -0.177778;-0.967879;-0.177778;,
  0.000000;-0.967879;-0.251416;,
  0.177778;-0.967879;-0.177778;,
  0.251416;-0.967879;-0.000000;,
  0.177778;-0.967879;0.177778;,
  0.000000;1.000000;0.000000;,
  -0.558488;-0.613338;0.558488;,
  0.000000;-0.613338;0.789821;,
  -0.789821;-0.613338;0.000000;,
  0.558488;-0.613338;0.558488;,
  -0.558488;-0.613338;-0.558488;,
  0.789821;-0.613338;-0.000000;,
  0.000000;-0.613338;-0.789821;,
  0.558488;-0.613338;-0.558488;,
  0.000000;-0.237386;0.971416;,
  -0.686894;-0.237386;0.686894;,
  -0.971416;-0.237386;0.000000;,
  0.686894;-0.237386;0.686894;,
  -0.686894;-0.237386;-0.686894;,
  0.971416;-0.237386;-0.000000;,
  0.000000;-0.237386;-0.971416;,
  0.686894;-0.237386;-0.686894;;
  228;
  3;0,2,1;,
  3;0,3,2;,
  3;0,4,3;,
  3;0,5,4;,
  3;0,6,5;,
  3;0,7,6;,
  3;0,8,7;,
  3;0,1,8;,
  3;9,9,9;,
  3;9,9,9;,
  3;9,9,9;,
  3;9,9,9;,
  3;9,9,9;,
  3;9,9,9;,
  3;9,9,9;,
  3;9,9,9;,
  4;10,8,1,11;,
  4;10,11,18,19;,
  4;10,19,20,12;,
  4;10,12,7,8;,
  4;11,1,2,13;,
  4;11,13,21,18;,
  4;12,20,22,14;,
  4;12,14,6,7;,
  4;13,2,3,15;,
  4;13,15,23,21;,
  4;14,22,24,16;,
  4;14,16,5,6;,
  4;15,3,4,17;,
  4;15,17,25,23;,
  4;16,24,25,17;,
  4;16,17,4,5;,
  4;27,28,28,27;,
  4;29,29,29,29;,
  4;34,30,30,34;,
  4;30,31,31,30;,
  4;32,32,32,32;,
  4;35,27,27,35;,
  3;26,26,26;,
  3;26,26,26;,
  3;26,26,26;,
  3;26,26,26;,
  3;26,26,26;,
  3;26,26,26;,
  3;33,33,33;,
  3;33,33,33;,
  3;33,33,33;,
  3;33,33,33;,
  3;33,33,33;,
  3;33,33,33;,
  4;36,36,39,39;,
  4;37,37,37,37;,
  4;38,38,40,40;,
  4;61,61,61,61;,
  4;39,39,41,41;,
  4;37,37,37,37;,
  4;40,40,42,42;,
  4;61,61,61,61;,
  4;41,41,43,43;,
  4;37,37,37,37;,
  4;42,42,44,44;,
  4;61,61,61,61;,
  4;43,43,45,45;,
  4;37,37,37,37;,
  4;44,44,46,46;,
  4;61,61,61,61;,
  4;45,45,47,47;,
  4;37,37,37,37;,
  4;46,46,48,48;,
  4;61,61,61,61;,
  4;47,47,49,49;,
  4;37,37,37,37;,
  4;48,48,50,50;,
  4;61,61,61,61;,
  4;49,49,51,51;,
  4;37,37,37,37;,
  4;50,50,52,52;,
  4;61,61,61,61;,
  4;51,51,36,36;,
  4;37,37,37,37;,
  4;52,52,38,38;,
  4;61,61,61,61;,
  3;37,54,53;,
  3;37,55,54;,
  3;37,56,55;,
  3;37,57,56;,
  3;37,58,57;,
  3;37,59,58;,
  3;37,60,59;,
  3;37,53,60;,
  3;61,61,61;,
  3;61,61,61;,
  3;61,61,61;,
  3;61,61,61;,
  3;61,61,61;,
  3;61,61,61;,
  3;61,61,61;,
  3;61,61,61;,
  4;62,70,71,63;,
  4;62,63,53,54;,
  4;62,54,55,64;,
  4;62,64,72,70;,
  4;63,71,73,65;,
  4;63,65,60,53;,
  4;64,55,56,66;,
  4;64,66,74,72;,
  4;65,73,75,67;,
  4;65,67,59,60;,
  4;66,56,57,68;,
  4;66,68,76,74;,
  4;67,75,77,69;,
  4;67,69,58,59;,
  4;68,57,58,69;,
  4;68,69,77,76;,
  3;78,79,80;,
  3;78,80,81;,
  3;78,81,82;,
  3;78,82,83;,
  3;78,83,84;,
  3;78,84,85;,
  3;78,85,86;,
  3;78,86,79;,
  3;87,87,87;,
  3;87,87,87;,
  3;87,87,87;,
  3;87,87,87;,
  3;87,87,87;,
  3;87,87,87;,
  3;87,87,87;,
  3;87,87,87;,
  4;88,89,79,86;,
  4;88,96,97,89;,
  4;88,90,98,96;,
  4;88,86,85,90;,
  4;89,91,80,79;,
  4;89,97,99,91;,
  4;90,92,100,98;,
  4;90,85,84,92;,
  4;91,93,81,80;,
  4;91,99,101,93;,
  4;92,94,102,100;,
  4;92,84,83,94;,
  4;93,95,82,81;,
  4;93,101,103,95;,
  4;94,95,103,102;,
  4;94,83,82,95;,
  4;105,105,106,106;,
  4;107,107,107,107;,
  4;112,112,108,108;,
  4;108,108,109,109;,
  4;110,110,110,110;,
  4;113,113,105,105;,
  3;104,104,104;,
  3;104,104,104;,
  3;104,104,104;,
  3;104,104,104;,
  3;104,104,104;,
  3;104,104,104;,
  3;111,111,111;,
  3;111,111,111;,
  3;111,111,111;,
  3;111,111,111;,
  3;111,111,111;,
  3;111,111,111;,
  4;114,117,117,114;,
  4;115,115,115,115;,
  4;116,118,118,116;,
  4;139,139,139,139;,
  4;117,119,119,117;,
  4;115,115,115,115;,
  4;118,120,120,118;,
  4;139,139,139,139;,
  4;119,121,121,119;,
  4;115,115,115,115;,
  4;120,122,122,120;,
  4;139,139,139,139;,
  4;121,123,123,121;,
  4;115,115,115,115;,
  4;122,124,124,122;,
  4;139,139,139,139;,
  4;123,125,125,123;,
  4;115,115,115,115;,
  4;124,126,126,124;,
  4;139,139,139,139;,
  4;125,127,127,125;,
  4;115,115,115,115;,
  4;126,128,128,126;,
  4;139,139,139,139;,
  4;127,129,129,127;,
  4;115,115,115,115;,
  4;128,130,130,128;,
  4;139,139,139,139;,
  4;129,114,114,129;,
  4;115,115,115,115;,
  4;130,116,116,130;,
  4;139,139,139,139;,
  3;115,131,132;,
  3;115,132,133;,
  3;115,133,134;,
  3;115,134,135;,
  3;115,135,136;,
  3;115,136,137;,
  3;115,137,138;,
  3;115,138,131;,
  3;139,139,139;,
  3;139,139,139;,
  3;139,139,139;,
  3;139,139,139;,
  3;139,139,139;,
  3;139,139,139;,
  3;139,139,139;,
  3;139,139,139;,
  4;140,141,148,149;,
  4;140,132,131,141;,
  4;140,142,133,132;,
  4;140,149,150,142;,
  4;141,143,151,148;,
  4;141,131,138,143;,
  4;142,144,134,133;,
  4;142,150,152,144;,
  4;143,145,153,151;,
  4;143,138,137,145;,
  4;144,146,135,134;,
  4;144,152,154,146;,
  4;145,147,155,153;,
  4;145,137,136,147;,
  4;146,147,136,135;,
  4;146,154,155,147;;
 }
}
