xof 0302txt 0064
template Header {
 <3D82AB43-62DA-11cf-AB39-0020AF71E433>
 WORD major;
 WORD minor;
 DWORD flags;
}

template Vector {
 <3D82AB5E-62DA-11cf-AB39-0020AF71E433>
 FLOAT x;
 FLOAT y;
 FLOAT z;
}

template Coords2d {
 <F6F23F44-7686-11cf-8F52-0040333594A3>
 FLOAT u;
 FLOAT v;
}

template Matrix4x4 {
 <F6F23F45-7686-11cf-8F52-0040333594A3>
 array FLOAT matrix[16];
}

template ColorRGBA {
 <35FF44E0-6C7C-11cf-8F52-0040333594A3>
 FLOAT red;
 FLOAT green;
 FLOAT blue;
 FLOAT alpha;
}

template ColorRGB {
 <D3E16E81-7835-11cf-8F52-0040333594A3>
 FLOAT red;
 FLOAT green;
 FLOAT blue;
}

template IndexedColor {
 <1630B820-7842-11cf-8F52-0040333594A3>
 DWORD index;
 ColorRGBA indexColor;
}

template Boolean {
 <4885AE61-78E8-11cf-8F52-0040333594A3>
 WORD truefalse;
}

template Boolean2d {
 <4885AE63-78E8-11cf-8F52-0040333594A3>
 Boolean u;
 Boolean v;
}

template MaterialWrap {
 <4885AE60-78E8-11cf-8F52-0040333594A3>
 Boolean u;
 Boolean v;
}

template TextureFilename {
 <A42790E1-7810-11cf-8F52-0040333594A3>
 STRING filename;
}

template Material {
 <3D82AB4D-62DA-11cf-AB39-0020AF71E433>
 ColorRGBA faceColor;
 FLOAT power;
 ColorRGB specularColor;
 ColorRGB emissiveColor;
 [...]
}

template MeshFace {
 <3D82AB5F-62DA-11cf-AB39-0020AF71E433>
 DWORD nFaceVertexIndices;
 array DWORD faceVertexIndices[nFaceVertexIndices];
}

template MeshFaceWraps {
 <4885AE62-78E8-11cf-8F52-0040333594A3>
 DWORD nFaceWrapValues;
 Boolean2d faceWrapValues;
}

template MeshTextureCoords {
 <F6F23F40-7686-11cf-8F52-0040333594A3>
 DWORD nTextureCoords;
 array Coords2d textureCoords[nTextureCoords];
}

template MeshMaterialList {
 <F6F23F42-7686-11cf-8F52-0040333594A3>
 DWORD nMaterials;
 DWORD nFaceIndexes;
 array DWORD faceIndexes[nFaceIndexes];
 [Material]
}

template MeshNormals {
 <F6F23F43-7686-11cf-8F52-0040333594A3>
 DWORD nNormals;
 array Vector normals[nNormals];
 DWORD nFaceNormals;
 array MeshFace faceNormals[nFaceNormals];
}

template MeshVertexColors {
 <1630B821-7842-11cf-8F52-0040333594A3>
 DWORD nVertexColors;
 array IndexedColor vertexColors[nVertexColors];
}

template Mesh {
 <3D82AB44-62DA-11cf-AB39-0020AF71E433>
 DWORD nVertices;
 array Vector vertices[nVertices];
 DWORD nFaces;
 array MeshFace faces[nFaces];
 [...]
}

Header{
1;
0;
1;
}

Mesh {
 100;
 100.01210;105.14335;74.88944;,
 -100.01210;105.14335;74.88951;,
 -100.01210;94.85665;74.88951;,
 100.01210;94.85665;74.88944;,
 -100.01210;105.14335;74.88951;,
 -100.01210;105.14335;-74.88944;,
 -100.01210;94.85665;-74.88944;,
 -100.01210;94.85665;74.88951;,
 -100.01210;105.14335;-74.88944;,
 100.01210;105.14335;-74.88951;,
 100.01210;94.85665;-74.88951;,
 -100.01210;94.85665;-74.88944;,
 100.01210;105.14335;-74.88951;,
 100.01210;105.14335;74.88944;,
 100.01210;94.85665;74.88944;,
 100.01210;94.85665;-74.88951;,
 -100.01210;105.14335;74.88951;,
 100.01210;105.14335;74.88944;,
 100.01210;94.85665;74.88944;,
 -100.01210;94.85665;74.88951;,
 -87.15810;95.31980;74.84190;,
 -99.84190;95.31980;74.84196;,
 -99.84190;-0.06985;74.84196;,
 -87.15810;-0.06985;74.84190;,
 -99.84190;95.31980;74.84196;,
 -99.84190;95.31980;62.15810;,
 -99.84190;-0.06985;62.15810;,
 -99.84190;-0.06985;74.84196;,
 -99.84190;95.31980;62.15810;,
 -87.15810;95.31980;62.15810;,
 -87.15810;-0.06985;62.15810;,
 -99.84190;-0.06985;62.15810;,
 -87.15810;95.31980;62.15810;,
 -87.15810;95.31980;74.84190;,
 -87.15810;-0.06985;74.84190;,
 -87.15810;-0.06985;62.15810;,
 -99.84190;95.31980;74.84196;,
 -87.15810;95.31980;74.84190;,
 -87.15810;-0.06985;74.84190;,
 -99.84190;-0.06985;74.84196;,
 99.99195;95.31980;74.84190;,
 87.30815;95.31980;74.84190;,
 87.30815;-0.06985;74.84190;,
 99.99195;-0.06985;74.84190;,
 87.30815;95.31980;74.84190;,
 87.30815;95.31980;62.15810;,
 87.30815;-0.06985;62.15810;,
 87.30815;-0.06985;74.84190;,
 87.30815;95.31980;62.15810;,
 99.99195;95.31980;62.15810;,
 99.99195;-0.06985;62.15810;,
 87.30815;-0.06985;62.15810;,
 99.99195;95.31980;62.15810;,
 99.99195;95.31980;74.84190;,
 99.99195;-0.06985;74.84190;,
 99.99195;-0.06985;62.15810;,
 87.30815;95.31980;74.84190;,
 99.99195;95.31980;74.84190;,
 99.99195;-0.06985;74.84190;,
 87.30815;-0.06985;74.84190;,
 99.99195;95.31980;-62.15805;,
 87.30815;95.31980;-62.15805;,
 87.30815;-0.06985;-62.15805;,
 99.99195;-0.06985;-62.15805;,
 87.30815;95.31980;-62.15805;,
 87.30815;95.31980;-74.84206;,
 87.30815;-0.06985;-74.84206;,
 87.30815;-0.06985;-62.15805;,
 87.30815;95.31980;-74.84206;,
 99.99195;95.31980;-74.84206;,
 99.99195;-0.06985;-74.84206;,
 87.30815;-0.06985;-74.84206;,
 99.99195;95.31980;-74.84206;,
 99.99195;95.31980;-62.15805;,
 99.99195;-0.06985;-62.15805;,
 99.99195;-0.06985;-74.84206;,
 87.30815;95.31980;-62.15805;,
 99.99195;95.31980;-62.15805;,
 99.99195;-0.06985;-62.15805;,
 87.30815;-0.06985;-62.15805;,
 -87.25810;95.31980;-62.15805;,
 -99.94190;95.31980;-62.15805;,
 -99.94190;-0.06985;-62.15805;,
 -87.25810;-0.06985;-62.15805;,
 -99.94190;95.31980;-62.15805;,
 -99.94190;95.31980;-74.84200;,
 -99.94190;-0.06985;-74.84200;,
 -99.94190;-0.06985;-62.15805;,
 -99.94190;95.31980;-74.84200;,
 -87.25810;95.31980;-74.84205;,
 -87.25810;-0.06985;-74.84205;,
 -99.94190;-0.06985;-74.84200;,
 -87.25810;95.31980;-74.84205;,
 -87.25810;95.31980;-62.15805;,
 -87.25810;-0.06985;-62.15805;,
 -87.25810;-0.06985;-74.84205;,
 -99.94190;95.31980;-62.15805;,
 -87.25810;95.31980;-62.15805;,
 -87.25810;-0.06985;-62.15805;,
 -99.94190;-0.06985;-62.15805;;
 
 30;
 4;0,1,2,3;,
 4;4,5,6,7;,
 4;8,9,10,11;,
 4;12,13,14,15;,
 4;12,5,16,17;,
 4;18,19,6,15;,
 4;20,21,22,23;,
 4;24,25,26,27;,
 4;28,29,30,31;,
 4;32,33,34,35;,
 4;32,25,36,37;,
 4;38,39,26,35;,
 4;40,41,42,43;,
 4;44,45,46,47;,
 4;48,49,50,51;,
 4;52,53,54,55;,
 4;52,45,56,57;,
 4;58,59,46,55;,
 4;60,61,62,63;,
 4;64,65,66,67;,
 4;68,69,70,71;,
 4;72,73,74,75;,
 4;72,65,76,77;,
 4;78,79,66,75;,
 4;80,81,82,83;,
 4;84,85,86,87;,
 4;88,89,90,91;,
 4;92,93,94,95;,
 4;92,85,96,97;,
 4;98,99,86,95;;
 
 MeshMaterialList {
  5;
  30;
  3,
  3,
  3,
  3,
  3,
  3,
  2,
  2,
  2,
  2,
  2,
  2,
  2,
  2,
  2,
  2,
  2,
  2,
  2,
  2,
  2,
  2,
  2,
  2,
  2,
  2,
  2,
  2,
  2,
  2;;
  Material {
   0.000000;0.000000;0.000000;1.000000;;
   5.000000;
   0.000000;0.000000;0.000000;;
   0.000000;0.000000;0.000000;;
  }
  Material {
   0.800000;0.800000;0.800000;1.000000;;
   5.000000;
   0.000000;0.000000;0.000000;;
   0.000000;0.000000;0.000000;;
   TextureFilename {
    "C:\\Users\\student\\Desktop\\babel\\date\\MODEL\\mqo\\texture\\PC_gamen.png";
   }
  }
  Material {
   0.524000;0.524000;0.524000;1.000000;;
   5.000000;
   0.000000;0.000000;0.000000;;
   0.000000;0.000000;0.000000;;
  }
  Material {
   0.800000;0.800000;0.800000;1.000000;;
   5.000000;
   0.000000;0.000000;0.000000;;
   0.000000;0.000000;0.000000;;
   TextureFilename {
    "C:\\Users\\student\\Desktop\\babel\\date\\MODEL\\mqo\\texture\\woos1.jpg";
   }
  }
  Material {
   0.800000;0.800000;0.800000;1.000000;;
   5.000000;
   0.000000;0.000000;0.000000;;
   0.000000;0.000000;0.000000;;
   TextureFilename {
    "C:\\Users\\student\\Desktop\\babel\\date\\MODEL\\mqo\\texture\\パソ\コン　縦画像.png";
   }
  }
 }
 MeshNormals {
  10;
  0.000000;0.000000;1.000000;,
  -1.000000;0.000000;0.000000;,
  -0.000000;0.000000;-1.000000;,
  0.000004;0.000000;1.000000;,
  0.000000;0.000000;-1.000000;,
  0.000000;0.000000;1.000000;,
  -0.000004;0.000000;-1.000000;,
  1.000000;0.000000;0.000000;,
  0.000000;1.000000;0.000000;,
  0.000000;-1.000000;-0.000000;;
  30;
  4;0,0,0,0;,
  4;1,1,1,1;,
  4;2,2,2,2;,
  4;7,7,7,7;,
  4;8,8,8,8;,
  4;9,9,9,9;,
  4;3,3,3,3;,
  4;1,1,1,1;,
  4;4,4,4,4;,
  4;7,7,7,7;,
  4;8,8,8,8;,
  4;9,9,9,9;,
  4;5,5,5,5;,
  4;1,1,1,1;,
  4;4,4,4,4;,
  4;7,7,7,7;,
  4;8,8,8,8;,
  4;9,9,9,9;,
  4;5,5,5,5;,
  4;1,1,1,1;,
  4;4,4,4,4;,
  4;7,7,7,7;,
  4;8,8,8,8;,
  4;9,9,9,9;,
  4;5,5,5,5;,
  4;1,1,1,1;,
  4;6,6,6,6;,
  4;7,7,7,7;,
  4;8,8,8,8;,
  4;9,9,9,9;;
 }
 MeshTextureCoords {
  100;
  0.000000;0.000000;,
  1.000000;0.000000;,
  1.000000;1.000000;,
  0.000000;1.000000;,
  0.000000;0.000000;,
  1.000000;0.000000;,
  1.000000;1.000000;,
  0.000000;1.000000;,
  0.000000;0.000000;,
  1.000000;0.000000;,
  1.000000;1.000000;,
  0.000000;1.000000;,
  0.000000;0.000000;,
  1.000000;0.000000;,
  1.000000;1.000000;,
  0.000000;1.000000;,
  1.000000;1.000000;,
  0.000000;1.000000;,
  0.000000;0.000000;,
  1.000000;0.000000;,
  0.000000;0.000000;,
  1.000000;0.000000;,
  1.000000;1.000000;,
  0.000000;1.000000;,
  0.000000;0.000000;,
  1.000000;0.000000;,
  1.000000;1.000000;,
  0.000000;1.000000;,
  0.000000;0.000000;,
  1.000000;0.000000;,
  1.000000;1.000000;,
  0.000000;1.000000;,
  0.000000;0.000000;,
  1.000000;0.000000;,
  1.000000;1.000000;,
  0.000000;1.000000;,
  1.000000;1.000000;,
  0.000000;1.000000;,
  0.000000;0.000000;,
  1.000000;0.000000;,
  0.000000;0.000000;,
  1.000000;0.000000;,
  1.000000;1.000000;,
  0.000000;1.000000;,
  0.000000;0.000000;,
  1.000000;0.000000;,
  1.000000;1.000000;,
  0.000000;1.000000;,
  0.000000;0.000000;,
  1.000000;0.000000;,
  1.000000;1.000000;,
  0.000000;1.000000;,
  0.000000;0.000000;,
  1.000000;0.000000;,
  1.000000;1.000000;,
  0.000000;1.000000;,
  1.000000;1.000000;,
  0.000000;1.000000;,
  0.000000;0.000000;,
  1.000000;0.000000;,
  0.000000;0.000000;,
  1.000000;0.000000;,
  1.000000;1.000000;,
  0.000000;1.000000;,
  0.000000;0.000000;,
  1.000000;0.000000;,
  1.000000;1.000000;,
  0.000000;1.000000;,
  0.000000;0.000000;,
  1.000000;0.000000;,
  1.000000;1.000000;,
  0.000000;1.000000;,
  0.000000;0.000000;,
  1.000000;0.000000;,
  1.000000;1.000000;,
  0.000000;1.000000;,
  1.000000;1.000000;,
  0.000000;1.000000;,
  0.000000;0.000000;,
  1.000000;0.000000;,
  0.000000;0.000000;,
  1.000000;0.000000;,
  1.000000;1.000000;,
  0.000000;1.000000;,
  0.000000;0.000000;,
  1.000000;0.000000;,
  1.000000;1.000000;,
  0.000000;1.000000;,
  0.000000;0.000000;,
  1.000000;0.000000;,
  1.000000;1.000000;,
  0.000000;1.000000;,
  0.000000;0.000000;,
  1.000000;0.000000;,
  1.000000;1.000000;,
  0.000000;1.000000;,
  1.000000;1.000000;,
  0.000000;1.000000;,
  0.000000;0.000000;,
  1.000000;0.000000;;
 }
}
