xof 0302txt 0064
template Header {
 <3D82AB43-62DA-11cf-AB39-0020AF71E433>
 WORD major;
 WORD minor;
 DWORD flags;
}

template Vector {
 <3D82AB5E-62DA-11cf-AB39-0020AF71E433>
 FLOAT x;
 FLOAT y;
 FLOAT z;
}

template Coords2d {
 <F6F23F44-7686-11cf-8F52-0040333594A3>
 FLOAT u;
 FLOAT v;
}

template Matrix4x4 {
 <F6F23F45-7686-11cf-8F52-0040333594A3>
 array FLOAT matrix[16];
}

template ColorRGBA {
 <35FF44E0-6C7C-11cf-8F52-0040333594A3>
 FLOAT red;
 FLOAT green;
 FLOAT blue;
 FLOAT alpha;
}

template ColorRGB {
 <D3E16E81-7835-11cf-8F52-0040333594A3>
 FLOAT red;
 FLOAT green;
 FLOAT blue;
}

template IndexedColor {
 <1630B820-7842-11cf-8F52-0040333594A3>
 DWORD index;
 ColorRGBA indexColor;
}

template Boolean {
 <4885AE61-78E8-11cf-8F52-0040333594A3>
 WORD truefalse;
}

template Boolean2d {
 <4885AE63-78E8-11cf-8F52-0040333594A3>
 Boolean u;
 Boolean v;
}

template MaterialWrap {
 <4885AE60-78E8-11cf-8F52-0040333594A3>
 Boolean u;
 Boolean v;
}

template TextureFilename {
 <A42790E1-7810-11cf-8F52-0040333594A3>
 STRING filename;
}

template Material {
 <3D82AB4D-62DA-11cf-AB39-0020AF71E433>
 ColorRGBA faceColor;
 FLOAT power;
 ColorRGB specularColor;
 ColorRGB emissiveColor;
 [...]
}

template MeshFace {
 <3D82AB5F-62DA-11cf-AB39-0020AF71E433>
 DWORD nFaceVertexIndices;
 array DWORD faceVertexIndices[nFaceVertexIndices];
}

template MeshFaceWraps {
 <4885AE62-78E8-11cf-8F52-0040333594A3>
 DWORD nFaceWrapValues;
 Boolean2d faceWrapValues;
}

template MeshTextureCoords {
 <F6F23F40-7686-11cf-8F52-0040333594A3>
 DWORD nTextureCoords;
 array Coords2d textureCoords[nTextureCoords];
}

template MeshMaterialList {
 <F6F23F42-7686-11cf-8F52-0040333594A3>
 DWORD nMaterials;
 DWORD nFaceIndexes;
 array DWORD faceIndexes[nFaceIndexes];
 [Material]
}

template MeshNormals {
 <F6F23F43-7686-11cf-8F52-0040333594A3>
 DWORD nNormals;
 array Vector normals[nNormals];
 DWORD nFaceNormals;
 array MeshFace faceNormals[nFaceNormals];
}

template MeshVertexColors {
 <1630B821-7842-11cf-8F52-0040333594A3>
 DWORD nVertexColors;
 array IndexedColor vertexColors[nVertexColors];
}

template Mesh {
 <3D82AB44-62DA-11cf-AB39-0020AF71E433>
 DWORD nVertices;
 array Vector vertices[nVertices];
 DWORD nFaces;
 array MeshFace faces[nFaces];
 [...]
}

Header{
1;
0;
1;
}

Mesh {
 206;
 -0.33715;5.81173;28.03408;,
 -24.02213;4.36478;24.76973;,
 -24.02213;1.38315;24.76973;,
 -0.33715;1.38315;28.03408;,
 24.02212;1.38315;24.76973;,
 24.02212;4.36478;24.76973;,
 -0.33715;5.81173;28.03408;,
 24.02212;4.36478;24.76973;,
 24.02212;4.36478;12.58058;,
 -0.33715;5.81173;9.31623;,
 -24.02213;4.36478;12.58058;,
 -24.02213;4.36478;24.76973;,
 -0.33715;1.38315;28.03408;,
 -24.02213;1.38315;24.76973;,
 -24.02213;1.38315;12.58058;,
 -0.33715;1.38315;9.31623;,
 24.02212;1.38315;12.58058;,
 24.02212;1.38315;24.76973;,
 -0.33715;5.81173;9.31623;,
 24.02212;4.36478;12.58058;,
 24.02212;1.38315;12.58058;,
 -0.33715;1.38315;9.31623;,
 -24.02213;1.38315;12.58058;,
 -24.02213;4.36478;12.58058;,
 -31.43733;2.75705;16.37073;,
 -31.43733;2.75705;20.97958;,
 -24.02213;4.36478;24.76973;,
 -31.43733;1.38315;16.37073;,
 -31.43733;1.38315;20.97958;,
 -24.02213;1.38315;24.76973;,
 31.43732;2.75705;20.97958;,
 31.43732;2.75705;16.37073;,
 24.02212;4.36478;24.76973;,
 31.43732;1.38315;20.97958;,
 24.02212;1.38315;24.76973;,
 31.43732;1.38315;16.37073;,
 -8.13910;9.41592;19.78215;,
 -8.13910;9.41592;17.56815;,
 -8.13910;5.18175;17.56815;,
 -8.13910;5.18175;19.78215;,
 8.13910;9.41592;17.56815;,
 8.13910;9.41592;19.78215;,
 8.13910;5.18175;19.78215;,
 8.13910;5.18175;17.56815;,
 -5.32673;12.74393;21.14623;,
 -5.32673;12.74393;16.20408;,
 -8.13910;9.41592;19.78215;,
 5.32673;12.74393;17.56815;,
 5.32673;12.74393;19.78215;,
 8.13910;9.41592;19.78215;,
 -3.89043;15.92490;21.14623;,
 -3.89043;15.92490;16.20408;,
 3.89042;15.92490;16.20408;,
 3.89043;15.92490;21.14623;,
 -4.96747;18.12710;21.14623;,
 -4.96747;18.12710;16.20408;,
 4.96747;18.12710;16.20408;,
 4.96747;18.12710;19.78215;,
 -8.47038;20.94105;19.78215;,
 -8.47038;20.94105;17.56815;,
 8.47037;20.94105;17.56815;,
 8.47037;20.94105;19.78215;,
 -8.47038;23.38795;19.78215;,
 -8.47038;23.38795;17.56815;,
 8.47037;23.38795;17.56815;,
 8.47037;23.38795;19.78215;,
 -0.39093;23.38795;14.48250;,
 -0.39092;23.38795;22.86781;,
 -0.39093;20.94105;14.48250;,
 -0.39092;20.94105;22.86781;,
 -0.22928;18.12710;14.48250;,
 -0.22928;18.12710;22.86781;,
 -0.17955;15.92490;14.48250;,
 -0.17955;15.92490;22.86781;,
 -0.24585;12.74393;14.48250;,
 -0.24585;12.74393;22.86781;,
 -0.37565;9.41592;14.48250;,
 -0.37565;9.41592;22.86781;,
 -0.37565;9.41592;14.48250;,
 8.13910;9.41592;17.56815;,
 8.13910;5.18175;17.56815;,
 -0.37565;5.18175;14.48250;,
 -8.13910;5.18175;17.56815;,
 -8.13910;9.41592;17.56815;,
 -0.37565;9.41592;22.86781;,
 -8.13910;9.41592;19.78215;,
 -8.13910;5.18175;19.78215;,
 -0.37565;5.18175;22.86781;,
 8.13910;5.18175;19.78215;,
 8.13910;9.41592;19.78215;,
 -0.37565;5.18175;14.48250;,
 8.13910;5.18175;19.78215;,
 -0.37565;5.18175;22.86781;,
 -8.13910;5.18175;19.78215;,
 25.00000;93.32095;12.99160;,
 -25.00000;93.32095;12.99161;,
 -25.00000;93.32095;24.35871;,
 25.00000;93.32095;24.35870;,
 25.00000;21.71873;24.35870;,
 -25.00000;21.71873;24.35871;,
 -25.00000;21.71873;12.99161;,
 25.00000;21.71873;12.99160;,
 -44.75563;93.32095;9.41233;,
 -44.75563;93.32095;20.77941;,
 -25.00000;93.32095;24.35871;,
 -44.75563;21.71873;20.77941;,
 -44.75563;21.71873;9.41233;,
 -25.00000;21.71873;24.35871;,
 44.75562;93.32095;20.77940;,
 44.75562;93.32095;9.41233;,
 25.00000;93.32095;24.35870;,
 44.75562;21.71873;9.41233;,
 44.75562;21.71873;20.77940;,
 25.00000;21.71873;24.35870;,
 -62.86495;93.32095;2.69139;,
 -62.86495;93.32095;14.05849;,
 -62.86495;21.71873;14.05849;,
 -62.86495;21.71873;2.69139;,
 62.86494;93.32095;14.05847;,
 62.86494;93.32095;2.69137;,
 62.86494;21.71873;2.69137;,
 62.86494;21.71873;14.05847;,
 -44.75563;87.08815;9.41233;,
 -62.86495;87.08815;2.69139;,
 -25.00000;87.08815;12.99161;,
 -25.00000;87.08815;12.99161;,
 -25.00000;93.32095;12.99161;,
 25.00000;93.32095;12.99160;,
 25.00000;87.08815;12.99160;,
 25.00000;87.08815;12.99160;,
 44.75562;87.08815;9.41233;,
 62.86494;87.08815;2.69137;,
 -62.86495;25.85560;2.69139;,
 -44.75563;25.85560;9.41233;,
 -25.00000;25.85560;12.99161;,
 -88.81940;21.71873;-9.35891;,
 -88.81940;21.71873;2.00819;,
 -88.81940;93.32095;2.00819;,
 -88.81940;93.32095;-9.35891;,
 -25.00000;25.85560;12.99161;,
 25.00000;25.85560;12.99160;,
 25.00000;21.71873;12.99160;,
 -25.00000;21.71873;12.99161;,
 25.00000;25.85560;12.99160;,
 44.75562;25.85560;9.41233;,
 62.86494;25.85560;2.69137;,
 88.81940;21.71873;-9.35893;,
 88.81940;93.32095;-9.35893;,
 88.81940;93.32095;2.00817;,
 88.81940;21.71873;2.00817;,
 -88.81940;93.32095;-9.35891;,
 -84.59422;87.08815;-7.39721;,
 -88.81940;93.32095;2.00819;,
 -84.59422;25.85560;-7.39721;,
 -88.81940;21.71873;-9.35891;,
 -88.81940;21.71873;2.00819;,
 88.81940;93.32095;-9.35893;,
 81.61768;87.08815;-6.01525;,
 88.81940;93.32095;2.00817;,
 81.61768;25.85560;-6.01525;,
 88.81940;21.71873;-9.35893;,
 88.81940;21.71873;2.00817;,
 -46.16338;87.08815;14.55278;,
 -64.92238;87.08815;7.62594;,
 -64.92235;25.85560;7.62594;,
 -46.16338;25.85560;14.55278;,
 -25.47693;87.08815;18.29923;,
 -25.47693;25.85560;18.29923;,
 25.47692;87.08815;18.29923;,
 -25.47693;87.08815;18.29923;,
 -25.47693;25.85560;18.29923;,
 25.47692;25.85560;18.29923;,
 46.16338;87.08815;14.55278;,
 25.47692;87.08815;18.29923;,
 25.47692;25.85560;18.29923;,
 46.16338;25.85560;14.55278;,
 64.92238;87.08815;7.62592;,
 64.92235;25.85560;7.62592;,
 -86.84737;87.08815;-2.54429;,
 -86.84737;25.85560;-2.54429;,
 83.87083;25.85560;-1.16233;,
 83.87083;87.08815;-1.16233;,
 -88.81940;93.32095;2.00819;,
 -62.86495;21.71873;14.05849;,
 -62.86495;21.71873;14.05849;,
 -44.75563;21.71873;20.77941;,
 -44.75563;93.32095;20.77941;,
 -44.75563;93.32095;20.77941;,
 -25.00000;21.71873;24.35871;,
 -25.00000;21.71873;24.35871;,
 -25.00000;21.71873;24.35871;,
 25.00000;21.71873;24.35870;,
 25.00000;93.32095;24.35870;,
 25.00000;93.32095;24.35870;,
 -25.00000;93.32095;24.35871;,
 -25.00000;21.71873;24.35871;,
 25.00000;93.32095;24.35870;,
 44.75562;21.71873;20.77940;,
 44.75562;21.71873;20.77940;,
 25.00000;93.32095;24.35870;,
 25.00000;21.71873;24.35870;,
 62.86494;21.71873;14.05847;,
 62.86494;93.32095;14.05847;,
 62.86494;93.32095;14.05847;,
 88.81940;21.71873;2.00817;,
 88.81940;21.71873;2.00817;;
 
 127;
 4;0,1,2,3;,
 4;0,3,4,5;,
 4;6,7,8,9;,
 4;6,9,10,11;,
 4;12,13,14,15;,
 4;12,15,16,17;,
 4;18,19,20,21;,
 4;18,21,22,23;,
 4;24,25,26,10;,
 4;27,24,10,14;,
 4;28,27,14,29;,
 4;25,28,29,26;,
 4;25,24,27,28;,
 4;30,31,8,32;,
 4;33,30,32,34;,
 4;35,33,34,16;,
 4;31,35,16,8;,
 4;31,30,33,35;,
 4;36,37,38,39;,
 4;40,41,42,43;,
 4;44,45,37,46;,
 4;47,48,49,40;,
 4;50,51,45,44;,
 4;52,53,48,47;,
 4;54,55,51,50;,
 4;56,57,53,52;,
 4;58,59,55,54;,
 4;60,61,57,56;,
 4;62,63,59,58;,
 4;64,65,61,60;,
 4;66,63,62,67;,
 4;66,67,65,64;,
 4;66,64,60,68;,
 4;66,68,59,63;,
 4;67,62,58,69;,
 4;67,69,61,65;,
 4;68,60,56,70;,
 4;68,70,55,59;,
 4;69,58,54,71;,
 4;69,71,57,61;,
 4;70,56,52,72;,
 4;70,72,51,55;,
 4;71,54,50,73;,
 4;71,73,53,57;,
 4;72,52,47,74;,
 4;72,74,45,51;,
 4;73,50,44,75;,
 4;73,75,48,53;,
 4;74,47,40,76;,
 4;74,76,37,45;,
 4;75,44,46,77;,
 4;75,77,49,48;,
 4;78,79,80,81;,
 4;78,81,82,83;,
 4;84,85,86,87;,
 4;84,87,88,89;,
 4;90,43,91,92;,
 4;90,92,93,38;,
 4;94,95,96,97;,
 4;98,99,100,101;,
 4;102,103,104,95;,
 4;105,106,100,107;,
 4;108,109,94,110;,
 4;111,112,113,101;,
 4;114,115,103,102;,
 4;116,117,106,105;,
 4;118,119,109,108;,
 4;120,121,112,111;,
 4;122,123,114,102;,
 4;122,102,95,124;,
 4;125,126,127,128;,
 4;129,94,109,130;,
 4;130,109,119,131;,
 4;132,133,106,117;,
 4;133,134,100,106;,
 4;135,136,137,138;,
 4;139,140,141,142;,
 4;143,144,111,101;,
 4;144,145,120,111;,
 4;146,147,148,149;,
 4;150,114,123,151;,
 4;150,152,115,114;,
 4;151,153,135,138;,
 4;153,132,117,154;,
 4;154,117,116,155;,
 4;156,157,131,119;,
 4;156,119,118,158;,
 4;157,147,146,159;,
 4;159,160,120,145;,
 4;160,161,121,120;,
 4;162,163,123,122;,
 4;164,165,133,132;,
 4;164,163,162,165;,
 4;166,162,122,124;,
 4;165,167,134,133;,
 4;165,162,166,167;,
 4;168,169,125,128;,
 4;170,171,140,139;,
 4;170,169,168,171;,
 4;172,173,129,130;,
 4;174,175,144,143;,
 4;174,173,172,175;,
 4;176,172,130,131;,
 4;175,177,145,144;,
 4;175,172,176,177;,
 4;163,178,151,123;,
 4;179,164,132,153;,
 4;178,179,153,151;,
 4;178,163,164,179;,
 4;180,181,157,159;,
 4;177,180,159,145;,
 4;181,176,131,157;,
 4;181,180,177,176;,
 3;182,183,115;,
 3;184,185,186;,
 3;184,137,136;,
 3;187,115,183;,
 3;187,188,104;,
 3;189,186,185;,
 3;190,191,192;,
 3;193,194,195;,
 3;196,197,108;,
 3;198,199,200;,
 3;198,201,202;,
 3;203,108,197;,
 3;203,204,158;,
 3;205,202,201;;
 
 MeshMaterialList {
  2;
  127;
  0,
  0,
  0,
  0,
  0,
  0,
  0,
  0,
  0,
  0,
  0,
  0,
  0,
  0,
  0,
  0,
  0,
  0,
  0,
  0,
  0,
  0,
  0,
  0,
  0,
  0,
  0,
  0,
  0,
  0,
  0,
  0,
  0,
  0,
  0,
  0,
  0,
  0,
  0,
  0,
  0,
  0,
  0,
  0,
  0,
  0,
  0,
  0,
  0,
  0,
  0,
  0,
  0,
  0,
  0,
  0,
  0,
  0,
  0,
  0,
  0,
  0,
  0,
  0,
  0,
  0,
  0,
  0,
  0,
  0,
  0,
  0,
  0,
  0,
  0,
  0,
  0,
  0,
  0,
  0,
  0,
  0,
  0,
  0,
  0,
  0,
  0,
  0,
  0,
  0,
  0,
  0,
  1,
  0,
  0,
  1,
  0,
  0,
  1,
  0,
  0,
  1,
  0,
  0,
  1,
  0,
  0,
  0,
  1,
  0,
  0,
  0,
  1,
  0,
  0,
  0,
  0,
  0,
  0,
  0,
  0,
  0,
  0,
  0,
  0,
  0,
  0;;
  Material {
   0.690400;0.690400;0.690400;1.000000;;
   23.000000;
   0.750000;0.750000;0.750000;;
   0.000000;0.000000;0.000000;;
  }
  Material {
   0.097600;0.097600;0.097600;1.000000;;
   5.000000;
   0.000000;0.000000;0.000000;;
   0.000000;0.000000;0.000000;;
  }
 }
 MeshNormals {
  109;
  0.298255;0.000000;0.954486;,
  -0.300043;0.000000;0.953926;,
  -0.136832;0.990594;0.000000;,
  0.000000;-1.000000;-0.000000;,
  0.135998;0.990709;-0.000000;,
  -0.001873;0.000000;0.999998;,
  -0.000842;1.000000;0.000000;,
  0.211892;0.977293;0.000000;,
  0.455126;0.000000;0.890427;,
  -0.211892;0.977293;0.000000;,
  -0.455126;0.000000;-0.890427;,
  0.939094;0.343659;0.000000;,
  1.000000;0.000000;0.000000;,
  -0.939094;0.343659;0.000000;,
  -1.000000;0.000000;0.000000;,
  0.845726;0.533618;-0.000000;,
  -0.845726;0.533618;0.000000;,
  0.999882;-0.015373;-0.000000;,
  -0.999882;-0.015374;0.000000;,
  0.781048;-0.624470;-0.000000;,
  -0.781048;-0.624471;0.000000;,
  0.901741;-0.432278;-0.000000;,
  -0.901740;-0.432278;0.000000;,
  0.000000;1.000000;0.000000;,
  -0.014774;0.007382;-0.999864;,
  0.011143;-0.049847;0.998695;,
  -0.015072;-0.035182;-0.999267;,
  0.036931;-0.035840;0.998675;,
  0.009933;-0.044745;-0.998949;,
  0.035903;0.013592;0.999263;,
  0.035982;0.026566;-0.998999;,
  0.035982;0.026566;0.998999;,
  0.010235;0.027667;-0.999565;,
  0.010235;0.027667;0.999565;,
  -0.015322;0.000000;-0.999883;,
  -0.015322;0.000000;0.999883;,
  -0.001873;0.000000;-0.999998;,
  0.298255;0.000000;-0.954486;,
  -0.300043;0.000000;-0.953926;,
  -0.455126;0.000000;0.890427;,
  0.455126;0.000000;-0.890427;,
  -0.014866;0.000000;-0.999889;,
  0.328849;0.000000;-0.944382;,
  0.325216;0.016614;-0.945494;,
  -0.352966;-0.002724;-0.935632;,
  -0.356779;0.000000;-0.934189;,
  -0.014866;0.000000;0.999889;,
  -0.356779;0.000000;0.934189;,
  -0.352966;-0.002724;0.935632;,
  0.375670;-0.090251;0.922349;,
  0.328850;0.000000;0.944382;,
  0.337063;-0.019368;-0.941283;,
  -0.365101;-0.046502;-0.929806;,
  -0.365102;-0.046503;0.929805;,
  0.437634;-0.018967;0.898953;,
  0.394158;-0.076865;-0.915823;,
  -0.376732;-0.005566;-0.926306;,
  -0.376732;-0.005566;0.926305;,
  0.443410;0.030404;0.895803;,
  0.426230;0.024685;-0.904278;,
  -0.358362;0.024182;-0.933269;,
  -0.358363;0.024183;0.933269;,
  0.426230;0.024685;0.904278;,
  0.377326;0.065570;-0.923756;,
  -0.357284;-0.014041;-0.933890;,
  -0.357284;-0.014041;0.933890;,
  0.377326;0.065570;0.923756;,
  0.340707;0.000000;-0.940170;,
  -0.369354;0.000000;-0.929289;,
  -0.369354;0.000000;0.929289;,
  0.340707;0.000000;0.940169;,
  0.000000;1.000000;0.000000;,
  0.000000;-1.000000;-0.000000;,
  0.264132;0.000000;-0.964486;,
  0.384829;-0.000000;-0.922988;,
  0.089497;0.000000;-0.995987;,
  -1.000000;0.000000;0.000000;,
  -0.089497;0.000000;-0.995987;,
  -0.264132;0.000000;-0.964486;,
  -0.384829;-0.000000;-0.922988;,
  0.384829;0.000001;-0.922988;,
  -0.089497;0.000000;-0.995987;,
  -0.384829;0.000001;-0.922988;,
  0.421113;-0.000000;-0.907008;,
  0.421113;0.000001;-0.907008;,
  1.000000;0.000000;0.000000;,
  -0.421112;-0.000000;-0.907009;,
  -0.421112;0.000001;-0.907009;,
  -0.907008;0.000000;0.421112;,
  0.383907;0.000000;-0.923372;,
  0.263303;0.000000;-0.964713;,
  0.089462;0.000000;-0.995990;,
  -0.089463;0.000000;-0.995990;,
  -0.263303;0.000000;-0.964713;,
  -0.383882;0.000000;-0.923382;,
  0.907008;0.000000;0.421113;,
  0.420797;0.000000;-0.907155;,
  -0.420747;0.000000;-0.907178;,
  -0.421112;0.000000;0.907009;,
  -0.384829;0.000000;0.922988;,
  -0.384829;0.000000;0.922988;,
  -0.264132;0.000000;0.964486;,
  -0.089497;0.000000;0.995987;,
  -0.089497;0.000000;0.995987;,
  0.089497;0.000000;0.995987;,
  0.264133;0.000000;0.964486;,
  0.384829;0.000000;0.922988;,
  0.421112;0.000000;0.907009;,
  0.421112;0.000000;0.907009;;
  127;
  4;5,1,1,5;,
  4;5,5,0,0;,
  4;6,4,4,6;,
  4;6,6,2,2;,
  4;3,3,3,3;,
  4;3,3,3,3;,
  4;36,37,37,36;,
  4;36,36,38,38;,
  4;9,9,2,2;,
  4;10,10,38,38;,
  4;3,3,3,3;,
  4;39,39,1,1;,
  4;14,14,14,14;,
  4;7,7,4,4;,
  4;8,8,0,0;,
  4;3,3,3,3;,
  4;40,40,37,37;,
  4;12,12,12,12;,
  4;13,13,14,14;,
  4;11,11,12,12;,
  4;16,16,13,13;,
  4;15,15,11,11;,
  4;18,18,16,16;,
  4;17,17,15,15;,
  4;20,20,18,18;,
  4;19,19,17,17;,
  4;22,22,20,20;,
  4;21,21,19,19;,
  4;14,14,22,22;,
  4;12,12,21,21;,
  4;23,23,23,23;,
  4;23,23,23,23;,
  4;41,42,43,24;,
  4;41,24,44,45;,
  4;46,47,48,25;,
  4;46,25,49,50;,
  4;24,43,51,26;,
  4;24,26,52,44;,
  4;25,48,53,27;,
  4;25,27,54,49;,
  4;26,51,55,28;,
  4;26,28,56,52;,
  4;27,53,57,29;,
  4;27,29,58,54;,
  4;28,55,59,30;,
  4;28,30,60,56;,
  4;29,57,61,31;,
  4;29,31,62,58;,
  4;30,59,63,32;,
  4;30,32,64,60;,
  4;31,61,65,33;,
  4;31,33,66,62;,
  4;32,63,67,34;,
  4;32,34,68,64;,
  4;33,65,69,35;,
  4;33,35,70,66;,
  4;3,3,3,3;,
  4;3,3,3,3;,
  4;71,71,71,71;,
  4;72,72,72,72;,
  4;71,71,71,71;,
  4;72,72,72,72;,
  4;71,71,71,71;,
  4;72,72,72,72;,
  4;71,71,71,71;,
  4;72,72,72,72;,
  4;71,71,71,71;,
  4;72,72,72,72;,
  4;73,74,74,73;,
  4;73,73,75,75;,
  4;75,75,77,77;,
  4;77,77,78,78;,
  4;78,78,79,79;,
  4;80,73,73,80;,
  4;73,75,75,73;,
  4;76,76,76,76;,
  4;75,81,81,75;,
  4;81,78,78,81;,
  4;78,82,82,78;,
  4;85,85,85,85;,
  4;83,74,74,83;,
  4;71,71,71,71;,
  4;83,84,84,83;,
  4;84,80,80,84;,
  4;72,72,72,72;,
  4;86,86,79,79;,
  4;71,71,71,71;,
  4;86,86,87,87;,
  4;87,87,82,82;,
  4;72,72,72,72;,
  4;72,72,72,72;,
  4;71,71,71,71;,
  4;89,89,90,90;,
  4;72,72,72,72;,
  4;71,71,71,71;,
  4;90,90,91,91;,
  4;72,72,72,72;,
  4;71,71,71,71;,
  4;91,91,92,92;,
  4;72,72,72,72;,
  4;71,71,71,71;,
  4;92,92,93,93;,
  4;72,72,72,72;,
  4;71,71,71,71;,
  4;93,93,94,94;,
  4;72,72,72,72;,
  4;71,71,71,71;,
  4;95,95,95,95;,
  4;96,89,89,96;,
  4;88,88,88,88;,
  4;71,71,71,71;,
  4;72,72,72,72;,
  4;97,97,94,94;,
  3;98,99,100;,
  3;99,101,101;,
  3;99,98,98;,
  3;101,100,99;,
  3;101,102,103;,
  3;102,101,101;,
  3;102,104,104;,
  3;104,103,102;,
  3;104,105,105;,
  3;105,104,104;,
  3;105,106,106;,
  3;106,105,105;,
  3;106,107,108;,
  3;107,106,106;;
 }
 MeshTextureCoords {
  206;
  0.507020;0.000000;,
  1.000000;0.000000;,
  1.000000;1.000000;,
  0.507020;1.000000;,
  0.000000;1.000000;,
  0.000000;0.000000;,
  0.507020;1.000000;,
  0.000000;1.000000;,
  0.000000;0.000000;,
  0.507020;0.000000;,
  1.000000;0.000000;,
  1.000000;1.000000;,
  0.507020;0.000000;,
  1.000000;0.000000;,
  1.000000;1.000000;,
  0.507020;1.000000;,
  0.000000;1.000000;,
  0.000000;0.000000;,
  0.492980;0.000000;,
  1.000000;0.000000;,
  1.000000;1.000000;,
  0.492980;1.000000;,
  0.000000;1.000000;,
  0.000000;0.000000;,
  1.000000;0.000000;,
  0.000000;0.000000;,
  0.000000;0.000000;,
  1.000000;1.000000;,
  0.000000;1.000000;,
  0.000000;1.000000;,
  1.000000;0.000000;,
  0.000000;0.000000;,
  1.000000;0.000000;,
  1.000000;1.000000;,
  1.000000;1.000000;,
  0.000000;1.000000;,
  0.000000;0.000000;,
  1.000000;0.000000;,
  1.000000;1.000000;,
  0.000000;1.000000;,
  0.000000;0.000000;,
  1.000000;0.000000;,
  1.000000;1.000000;,
  0.000000;1.000000;,
  1.000000;1.000000;,
  1.000000;0.000000;,
  1.000000;1.000000;,
  0.000000;0.000000;,
  0.000000;1.000000;,
  0.000000;1.000000;,
  1.000000;1.000000;,
  1.000000;0.000000;,
  0.000000;0.000000;,
  0.000000;1.000000;,
  1.000000;1.000000;,
  1.000000;0.000000;,
  0.000000;0.000000;,
  0.000000;1.000000;,
  1.000000;1.000000;,
  1.000000;0.000000;,
  0.000000;0.000000;,
  0.000000;1.000000;,
  1.000000;1.000000;,
  1.000000;0.000000;,
  0.000000;0.000000;,
  0.000000;1.000000;,
  0.523080;0.000000;,
  0.523080;1.000000;,
  0.523080;0.000000;,
  0.523080;1.000000;,
  0.523080;0.000000;,
  0.523080;1.000000;,
  0.523080;0.000000;,
  0.523080;1.000000;,
  0.523080;0.000000;,
  0.523080;1.000000;,
  0.523080;0.000000;,
  0.523080;1.000000;,
  0.476920;0.000000;,
  1.000000;0.000000;,
  1.000000;1.000000;,
  0.476920;1.000000;,
  0.000000;1.000000;,
  0.000000;0.000000;,
  0.523080;0.000000;,
  1.000000;0.000000;,
  1.000000;1.000000;,
  0.523080;1.000000;,
  0.000000;1.000000;,
  0.000000;0.000000;,
  0.523080;1.000000;,
  0.000000;0.000000;,
  0.523080;0.000000;,
  1.000000;0.000000;,
  0.000000;0.000000;,
  1.000000;0.000000;,
  1.000000;1.000000;,
  0.000000;1.000000;,
  0.000000;0.000000;,
  1.000000;0.000000;,
  1.000000;1.000000;,
  0.000000;1.000000;,
  1.000000;0.000000;,
  0.000000;0.000000;,
  0.000000;0.000000;,
  0.000000;1.000000;,
  1.000000;1.000000;,
  0.000000;1.000000;,
  1.000000;0.000000;,
  0.000000;0.000000;,
  1.000000;0.000000;,
  0.000000;1.000000;,
  1.000000;1.000000;,
  1.000000;1.000000;,
  1.000000;0.000000;,
  0.000000;0.000000;,
  0.000000;1.000000;,
  1.000000;1.000000;,
  1.000000;0.000000;,
  0.000000;0.000000;,
  0.000000;1.000000;,
  1.000000;1.000000;,
  1.000000;0.087050;,
  1.000000;0.087050;,
  1.000000;0.087050;,
  0.000000;0.087050;,
  0.000000;0.000000;,
  1.000000;0.000000;,
  1.000000;0.087050;,
  0.000000;0.087050;,
  0.000000;0.087050;,
  0.000000;0.087050;,
  1.000000;0.942220;,
  1.000000;0.942220;,
  1.000000;0.942220;,
  1.000000;0.942220;,
  0.000000;0.942220;,
  0.000000;0.087050;,
  1.000000;0.087050;,
  0.000000;0.942220;,
  1.000000;0.942220;,
  1.000000;1.000000;,
  0.000000;1.000000;,
  0.000000;0.942220;,
  0.000000;0.942220;,
  0.000000;0.942220;,
  0.000000;0.942220;,
  0.000000;0.087050;,
  1.000000;0.087050;,
  1.000000;0.942220;,
  1.000000;0.000000;,
  1.000000;0.087050;,
  0.000000;0.000000;,
  1.000000;0.942220;,
  1.000000;1.000000;,
  0.000000;1.000000;,
  0.000000;0.000000;,
  0.000000;0.087050;,
  1.000000;0.000000;,
  0.000000;0.942220;,
  0.000000;1.000000;,
  1.000000;1.000000;,
  1.000000;0.087050;,
  1.000000;0.087050;,
  1.000000;0.942220;,
  1.000000;0.942220;,
  1.000000;0.087050;,
  1.000000;0.942220;,
  1.000000;0.087050;,
  0.000000;0.087050;,
  0.000000;0.942220;,
  1.000000;0.942220;,
  0.000000;0.087050;,
  0.000000;0.087050;,
  0.000000;0.942220;,
  0.000000;0.942220;,
  0.000000;0.087050;,
  0.000000;0.942220;,
  1.000000;0.087050;,
  1.000000;0.942220;,
  0.000000;0.942220;,
  0.000000;0.087050;,
  0.000000;0.043520;,
  0.000000;0.087050;,
  0.000000;0.514640;,
  0.000000;0.942220;,
  0.000000;0.087050;,
  0.000000;0.043520;,
  0.000000;0.087050;,
  0.000000;0.514640;,
  1.000000;0.514640;,
  0.000000;0.942220;,
  0.000000;0.087050;,
  0.000000;0.043520;,
  1.000000;0.000000;,
  1.000000;0.087050;,
  1.000000;0.043520;,
  1.000000;0.087050;,
  1.000000;0.514640;,
  1.000000;0.087050;,
  1.000000;0.942220;,
  1.000000;0.942220;,
  1.000000;0.087050;,
  1.000000;0.043520;,
  1.000000;0.087050;,
  1.000000;0.514640;;
 }
}
