xof 0302txt 0064
template Header {
 <3D82AB43-62DA-11cf-AB39-0020AF71E433>
 WORD major;
 WORD minor;
 DWORD flags;
}

template Vector {
 <3D82AB5E-62DA-11cf-AB39-0020AF71E433>
 FLOAT x;
 FLOAT y;
 FLOAT z;
}

template Coords2d {
 <F6F23F44-7686-11cf-8F52-0040333594A3>
 FLOAT u;
 FLOAT v;
}

template Matrix4x4 {
 <F6F23F45-7686-11cf-8F52-0040333594A3>
 array FLOAT matrix[16];
}

template ColorRGBA {
 <35FF44E0-6C7C-11cf-8F52-0040333594A3>
 FLOAT red;
 FLOAT green;
 FLOAT blue;
 FLOAT alpha;
}

template ColorRGB {
 <D3E16E81-7835-11cf-8F52-0040333594A3>
 FLOAT red;
 FLOAT green;
 FLOAT blue;
}

template IndexedColor {
 <1630B820-7842-11cf-8F52-0040333594A3>
 DWORD index;
 ColorRGBA indexColor;
}

template Boolean {
 <4885AE61-78E8-11cf-8F52-0040333594A3>
 WORD truefalse;
}

template Boolean2d {
 <4885AE63-78E8-11cf-8F52-0040333594A3>
 Boolean u;
 Boolean v;
}

template MaterialWrap {
 <4885AE60-78E8-11cf-8F52-0040333594A3>
 Boolean u;
 Boolean v;
}

template TextureFilename {
 <A42790E1-7810-11cf-8F52-0040333594A3>
 STRING filename;
}

template Material {
 <3D82AB4D-62DA-11cf-AB39-0020AF71E433>
 ColorRGBA faceColor;
 FLOAT power;
 ColorRGB specularColor;
 ColorRGB emissiveColor;
 [...]
}

template MeshFace {
 <3D82AB5F-62DA-11cf-AB39-0020AF71E433>
 DWORD nFaceVertexIndices;
 array DWORD faceVertexIndices[nFaceVertexIndices];
}

template MeshFaceWraps {
 <4885AE62-78E8-11cf-8F52-0040333594A3>
 DWORD nFaceWrapValues;
 Boolean2d faceWrapValues;
}

template MeshTextureCoords {
 <F6F23F40-7686-11cf-8F52-0040333594A3>
 DWORD nTextureCoords;
 array Coords2d textureCoords[nTextureCoords];
}

template MeshMaterialList {
 <F6F23F42-7686-11cf-8F52-0040333594A3>
 DWORD nMaterials;
 DWORD nFaceIndexes;
 array DWORD faceIndexes[nFaceIndexes];
 [Material]
}

template MeshNormals {
 <F6F23F43-7686-11cf-8F52-0040333594A3>
 DWORD nNormals;
 array Vector normals[nNormals];
 DWORD nFaceNormals;
 array MeshFace faceNormals[nFaceNormals];
}

template MeshVertexColors {
 <1630B821-7842-11cf-8F52-0040333594A3>
 DWORD nVertexColors;
 array IndexedColor vertexColors[nVertexColors];
}

template Mesh {
 <3D82AB44-62DA-11cf-AB39-0020AF71E433>
 DWORD nVertices;
 array Vector vertices[nVertices];
 DWORD nFaces;
 array MeshFace faces[nFaces];
 [...]
}

Header{
1;
0;
1;
}

Mesh {
 56;
 -13.08630;0.81685;-17.92560;,
 -11.50074;0.81685;-19.01537;,
 -11.50074;0.10823;-19.01537;,
 -13.08630;0.10823;-17.92560;,
 -1.36484;0.81685;-6.24846;,
 -1.36484;-0.89855;-6.24846;,
 -4.79977;0.81685;-3.88770;,
 -4.79977;-0.89855;-3.88770;,
 -2.74481;0.81685;-2.62415;,
 -0.92163;0.81685;-3.87719;,
 -2.74481;-0.89855;-2.62415;,
 -0.92163;-0.89855;-3.87719;,
 -0.78966;0.81685;0.22062;,
 1.03350;0.81685;-1.03241;,
 -0.78966;-0.89855;0.22062;,
 1.03350;-0.89855;-1.03241;,
 12.03446;0.81685;18.62532;,
 12.03446;0.10823;18.62532;,
 13.62000;0.10823;17.53560;,
 13.62000;0.81685;17.53560;,
 5.33351;-0.89855;3.49768;,
 5.33351;0.81685;3.49768;,
 1.89857;0.81685;5.85844;,
 1.89857;-0.89855;5.85844;,
 1.45537;0.81685;3.48716;,
 3.27854;0.81685;2.23412;,
 1.45537;-0.89855;3.48716;,
 3.27854;-0.89855;2.23412;,
 -17.46374;0.81685;13.15814;,
 -18.55346;0.81685;11.57259;,
 -18.55346;0.10823;11.57259;,
 -17.46374;0.10823;13.15814;,
 -5.78658;0.81685;1.43669;,
 -5.78658;-0.89855;1.43669;,
 -3.42583;0.81685;4.87162;,
 -3.42583;-0.89855;4.87162;,
 -2.16228;0.81685;2.81668;,
 -3.41531;0.81685;0.99349;,
 -2.16228;-0.89855;2.81668;,
 -3.41531;-0.89855;0.99349;,
 0.68250;0.81685;0.86152;,
 -0.57052;0.81685;-0.96167;,
 0.68250;-0.89855;0.86152;,
 -0.57052;-0.89855;-0.96167;,
 19.08721;0.81685;-11.96261;,
 19.08721;0.10823;-11.96261;,
 17.99747;0.10823;-13.54818;,
 17.99747;0.81685;-13.54818;,
 3.95956;-0.89855;-5.26165;,
 3.95956;0.81685;-5.26165;,
 6.32031;0.81685;-1.82671;,
 6.32031;-0.89855;-1.82671;,
 3.94904;0.81685;-1.38352;,
 2.69599;0.81685;-3.20670;,
 3.94904;-0.89855;-1.38352;,
 2.69599;-0.89855;-3.20670;;
 
 56;
 4;0,1,2,3;,
 4;1,4,5,2;,
 4;6,0,3,7;,
 4;6,4,1,0;,
 4;3,2,5,7;,
 4;8,9,4,6;,
 4;10,8,6,7;,
 4;11,10,7,5;,
 4;9,11,5,4;,
 4;12,13,9,8;,
 4;14,12,8,10;,
 4;15,14,10,11;,
 4;13,15,11,9;,
 4;13,12,14,15;,
 4;16,17,18,19;,
 4;19,18,20,21;,
 4;22,23,17,16;,
 4;22,16,19,21;,
 4;17,23,20,18;,
 4;24,22,21,25;,
 4;26,23,22,24;,
 4;27,20,23,26;,
 4;25,21,20,27;,
 4;12,24,25,13;,
 4;14,26,24,12;,
 4;15,27,26,14;,
 4;13,25,27,15;,
 4;13,15,14,12;,
 4;28,29,30,31;,
 4;29,32,33,30;,
 4;34,28,31,35;,
 4;34,32,29,28;,
 4;31,30,33,35;,
 4;36,37,32,34;,
 4;38,36,34,35;,
 4;39,38,35,33;,
 4;37,39,33,32;,
 4;40,41,37,36;,
 4;42,40,36,38;,
 4;43,42,38,39;,
 4;41,43,39,37;,
 4;41,40,42,43;,
 4;44,45,46,47;,
 4;47,46,48,49;,
 4;50,51,45,44;,
 4;50,44,47,49;,
 4;45,51,48,46;,
 4;52,50,49,53;,
 4;54,51,50,52;,
 4;55,48,51,54;,
 4;53,49,48,55;,
 4;40,52,53,41;,
 4;42,54,52,40;,
 4;43,55,54,42;,
 4;41,53,55,43;,
 4;41,43,42,40;;
 
 MeshMaterialList {
  3;
  56;
  0,
  0,
  0,
  0,
  0,
  0,
  0,
  0,
  0,
  0,
  0,
  0,
  0,
  0,
  0,
  0,
  0,
  0,
  0,
  0,
  0,
  0,
  0,
  0,
  0,
  0,
  0,
  0,
  0,
  0,
  0,
  0,
  0,
  0,
  0,
  0,
  0,
  0,
  0,
  0,
  0,
  0,
  0,
  0,
  0,
  0,
  0,
  0,
  0,
  0,
  0,
  0,
  0,
  0,
  0,
  0;;
  Material {
   0.100000;0.109600;0.172800;1.000000;;
   15.000000;
   0.500000;0.500000;0.500000;;
   0.000000;0.000000;0.000000;;
  }
  Material {
   0.269600;0.269600;0.269600;1.000000;;
   23.000000;
   0.700000;0.700000;0.700000;;
   0.010110;0.010110;0.010110;;
  }
  Material {
   0.408000;0.408000;0.408000;1.000000;;
   89.000000;
   0.510000;0.510000;0.510000;;
   0.000000;0.000000;0.000000;;
  }
 }
 MeshNormals {
  46;
  -0.566421;0.000000;-0.824116;,
  0.909840;0.000000;-0.414960;,
  -0.713454;0.000000;0.700703;,
  0.000000;1.000000;0.000000;,
  0.000000;-1.000000;-0.000000;,
  -0.688902;0.000000;0.724855;,
  0.566407;0.000000;0.824126;,
  0.713454;0.000000;-0.700702;,
  -0.909841;0.000000;0.414958;,
  -0.923590;0.000000;0.383381;,
  -0.824127;0.000000;0.566405;,
  -0.824126;0.000000;0.566407;,
  -0.414958;0.000000;-0.909840;,
  0.700700;0.000000;0.713456;,
  0.724853;0.000000;0.688904;,
  0.824124;0.000000;-0.566410;,
  -0.700700;0.000000;-0.713456;,
  0.414958;0.000000;0.909841;,
  0.383382;0.000000;0.923590;,
  0.566406;0.000000;0.824126;,
  0.783186;0.000000;-0.621787;,
  -0.861157;0.000000;0.508338;,
  -0.034998;-0.998089;-0.050922;,
  -0.017508;-0.999522;-0.025473;,
  0.923590;0.000000;-0.383381;,
  0.824128;0.000000;-0.566404;,
  0.566408;0.000000;0.824125;,
  0.861159;0.000000;-0.508336;,
  -0.783186;0.000000;0.621787;,
  0.034998;-0.998089;0.050922;,
  0.017507;-0.999522;0.025473;,
  0.688900;0.000000;-0.724856;,
  -0.566408;0.000000;-0.824125;,
  -0.621788;0.000000;-0.783186;,
  0.508338;0.000000;0.861158;,
  -0.050922;-0.998089;0.034998;,
  -0.025473;-0.999522;0.017507;,
  -0.383381;0.000000;-0.923590;,
  -0.566407;0.000000;-0.824126;,
  0.824129;0.000000;-0.566402;,
  -0.508338;0.000000;-0.861158;,
  0.621787;0.000000;0.783186;,
  0.050922;-0.998089;-0.034998;,
  0.025473;-0.999522;-0.017507;,
  -0.724854;0.000000;-0.688903;,
  -0.824129;0.000000;0.566402;;
  56;
  4;0,0,0,0;,
  4;20,1,1,20;,
  4;2,21,21,2;,
  4;3,3,3,3;,
  4;22,22,23,23;,
  4;3,3,3,3;,
  4;5,5,2,2;,
  4;4,4,23,23;,
  4;24,24,1,1;,
  4;3,3,3,3;,
  4;10,10,5,5;,
  4;4,4,4,4;,
  4;25,25,24,24;,
  4;26,26,26,26;,
  4;6,6,6,6;,
  4;27,27,7,7;,
  4;8,8,28,28;,
  4;3,3,3,3;,
  4;29,30,30,29;,
  4;3,3,3,3;,
  4;9,8,8,9;,
  4;4,30,30,4;,
  4;31,7,7,31;,
  4;3,3,3,3;,
  4;10,9,9,10;,
  4;4,4,4,4;,
  4;25,31,31,25;,
  4;32,32,32,32;,
  4;11,11,11,11;,
  4;33,12,12,33;,
  4;13,34,34,13;,
  4;3,3,3,3;,
  4;35,35,36,36;,
  4;3,3,3,3;,
  4;14,14,13,13;,
  4;4,4,36,36;,
  4;37,37,12,12;,
  4;3,3,3,3;,
  4;19,19,14,14;,
  4;4,4,4,4;,
  4;38,38,37,37;,
  4;39,39,39,39;,
  4;15,15,15,15;,
  4;40,40,16,16;,
  4;17,17,41,41;,
  4;3,3,3,3;,
  4;42,43,43,42;,
  4;3,3,3,3;,
  4;18,17,17,18;,
  4;4,43,43,4;,
  4;44,16,16,44;,
  4;3,3,3,3;,
  4;19,18,18,19;,
  4;4,4,4,4;,
  4;38,44,44,38;,
  4;45,45,45,45;;
 }
}
