xof 0302txt 0064
template Header {
 <3D82AB43-62DA-11cf-AB39-0020AF71E433>
 WORD major;
 WORD minor;
 DWORD flags;
}

template Vector {
 <3D82AB5E-62DA-11cf-AB39-0020AF71E433>
 FLOAT x;
 FLOAT y;
 FLOAT z;
}

template Coords2d {
 <F6F23F44-7686-11cf-8F52-0040333594A3>
 FLOAT u;
 FLOAT v;
}

template Matrix4x4 {
 <F6F23F45-7686-11cf-8F52-0040333594A3>
 array FLOAT matrix[16];
}

template ColorRGBA {
 <35FF44E0-6C7C-11cf-8F52-0040333594A3>
 FLOAT red;
 FLOAT green;
 FLOAT blue;
 FLOAT alpha;
}

template ColorRGB {
 <D3E16E81-7835-11cf-8F52-0040333594A3>
 FLOAT red;
 FLOAT green;
 FLOAT blue;
}

template IndexedColor {
 <1630B820-7842-11cf-8F52-0040333594A3>
 DWORD index;
 ColorRGBA indexColor;
}

template Boolean {
 <4885AE61-78E8-11cf-8F52-0040333594A3>
 WORD truefalse;
}

template Boolean2d {
 <4885AE63-78E8-11cf-8F52-0040333594A3>
 Boolean u;
 Boolean v;
}

template MaterialWrap {
 <4885AE60-78E8-11cf-8F52-0040333594A3>
 Boolean u;
 Boolean v;
}

template TextureFilename {
 <A42790E1-7810-11cf-8F52-0040333594A3>
 STRING filename;
}

template Material {
 <3D82AB4D-62DA-11cf-AB39-0020AF71E433>
 ColorRGBA faceColor;
 FLOAT power;
 ColorRGB specularColor;
 ColorRGB emissiveColor;
 [...]
}

template MeshFace {
 <3D82AB5F-62DA-11cf-AB39-0020AF71E433>
 DWORD nFaceVertexIndices;
 array DWORD faceVertexIndices[nFaceVertexIndices];
}

template MeshFaceWraps {
 <4885AE62-78E8-11cf-8F52-0040333594A3>
 DWORD nFaceWrapValues;
 Boolean2d faceWrapValues;
}

template MeshTextureCoords {
 <F6F23F40-7686-11cf-8F52-0040333594A3>
 DWORD nTextureCoords;
 array Coords2d textureCoords[nTextureCoords];
}

template MeshMaterialList {
 <F6F23F42-7686-11cf-8F52-0040333594A3>
 DWORD nMaterials;
 DWORD nFaceIndexes;
 array DWORD faceIndexes[nFaceIndexes];
 [Material]
}

template MeshNormals {
 <F6F23F43-7686-11cf-8F52-0040333594A3>
 DWORD nNormals;
 array Vector normals[nNormals];
 DWORD nFaceNormals;
 array MeshFace faceNormals[nFaceNormals];
}

template MeshVertexColors {
 <1630B821-7842-11cf-8F52-0040333594A3>
 DWORD nVertexColors;
 array IndexedColor vertexColors[nVertexColors];
}

template Mesh {
 <3D82AB44-62DA-11cf-AB39-0020AF71E433>
 DWORD nVertices;
 array Vector vertices[nVertices];
 DWORD nFaces;
 array MeshFace faces[nFaces];
 [...]
}

Header{
1;
0;
1;
}

Mesh {
 484;
 -29.66205;99.12042;-24.91088;,
 -24.71839;99.12042;-24.91088;,
 -24.71839;90.85706;-24.91088;,
 -29.66205;90.85706;-24.91088;,
 24.71839;99.12042;-24.91088;,
 24.71839;90.85706;-24.91088;,
 29.66205;99.12042;-24.91088;,
 29.66205;90.85706;-24.91088;,
 -24.71839;8.22383;-24.91088;,
 -29.66205;8.22383;-24.91088;,
 29.66205;8.22383;-24.91088;,
 24.71839;8.22383;-24.91088;,
 -24.71839;-0.03951;-24.91088;,
 -29.66205;-0.03951;-24.91088;,
 24.71839;-0.03951;-24.91088;,
 29.66205;-0.03951;-24.91088;,
 29.66205;99.12042;24.91088;,
 29.66205;90.85706;24.91088;,
 29.66205;8.22383;24.91088;,
 29.66205;-0.03951;24.91088;,
 24.71839;99.12042;24.91088;,
 24.71839;90.85706;24.91088;,
 -24.71839;99.12042;24.91088;,
 -24.71839;90.85706;24.91088;,
 -29.66205;99.12042;24.91088;,
 -29.66205;90.85706;24.91088;,
 24.71839;8.22383;24.91088;,
 -24.71839;8.22383;24.91088;,
 -29.66205;8.22383;24.91088;,
 24.71839;-0.03951;24.91088;,
 -24.71839;-0.03951;24.91088;,
 -29.66205;-0.03951;24.91088;,
 24.71839;90.85706;-19.60241;,
 -24.71839;90.85706;-19.60241;,
 24.71839;8.22383;-19.60241;,
 -24.71839;8.22383;-19.60241;,
 -23.75470;89.30754;-22.80872;,
 -16.87621;89.30754;-22.80872;,
 -16.87621;84.55196;-22.80872;,
 -23.75470;84.55196;-22.80872;,
 -16.87621;89.30754;22.34914;,
 -23.75470;89.30754;22.34914;,
 -23.75470;84.55196;22.34914;,
 -16.87621;84.55196;22.34914;,
 -23.75470;77.17501;-23.19475;,
 -16.87621;77.17501;-23.19475;,
 -16.87621;72.41943;-23.19475;,
 -23.75470;72.41943;-23.19475;,
 -23.75470;70.96467;-23.19475;,
 -16.87621;70.96467;-23.19475;,
 -16.87621;66.20909;-23.19475;,
 -23.75470;66.20909;-23.19475;,
 -23.75470;57.97834;-23.19475;,
 -16.87621;57.97834;-23.19475;,
 -16.87621;53.22277;-23.19475;,
 -23.75470;53.22277;-23.19475;,
 -23.75470;51.36609;-23.19475;,
 -16.87621;51.36609;-23.19475;,
 -16.87621;46.61051;-23.19475;,
 -23.75470;46.61051;-23.19475;,
 -23.75470;45.15743;-23.19475;,
 -16.87621;45.15743;-23.19475;,
 -16.87621;40.40186;-23.19475;,
 -23.75470;40.40186;-23.19475;,
 -23.75470;38.80372;-23.19475;,
 -16.87621;38.80372;-23.19475;,
 -16.87621;34.04814;-23.19475;,
 -23.75470;34.04814;-23.19475;,
 -23.75470;32.31126;-23.19475;,
 -16.87621;32.31126;-23.19475;,
 -16.87621;27.55568;-23.19475;,
 -23.75470;27.55568;-23.19475;,
 -23.75470;25.54567;-23.19475;,
 -16.87621;25.54567;-23.19475;,
 -16.87621;20.79009;-23.19475;,
 -23.75470;20.79009;-23.19475;,
 -23.75470;19.34795;-23.19475;,
 -16.87621;19.34795;-23.19475;,
 -16.87621;14.59237;-23.19475;,
 -23.75470;14.59237;-23.19475;,
 -23.75470;13.25522;-23.19475;,
 -16.87621;13.25522;-23.19475;,
 -16.87621;8.49964;-23.19475;,
 -23.75470;8.49964;-23.19475;,
 -16.87206;88.76294;-21.63587;,
 -10.55277;88.76294;-21.63587;,
 -10.55277;85.30671;-21.63587;,
 -16.87206;85.30671;-21.63587;,
 -16.87206;76.43179;-21.63587;,
 -10.55277;76.43179;-21.63587;,
 -10.55277;72.97557;-21.63587;,
 -16.87206;72.97557;-21.63587;,
 -16.87206;70.37292;-21.63587;,
 -10.55277;70.37292;-21.63587;,
 -10.55277;66.91669;-21.63587;,
 -16.87206;66.91669;-21.63587;,
 -16.87206;63.83597;-21.63587;,
 -10.55277;63.83597;-21.63587;,
 -10.55277;60.37974;-21.63587;,
 -16.87206;60.37974;-21.63587;,
 -16.87206;57.36807;-21.63587;,
 -10.55277;57.36807;-21.63587;,
 -10.55277;53.91184;-21.63587;,
 -16.87206;53.91184;-21.63587;,
 -16.87206;50.81231;-21.63587;,
 -10.55277;50.81231;-21.63587;,
 -10.55277;47.35609;-21.63587;,
 -16.87206;47.35609;-21.63587;,
 -16.87206;44.48890;-21.63587;,
 -10.55277;44.48890;-21.63587;,
 -10.55277;41.03268;-21.63587;,
 -16.87206;41.03268;-21.63587;,
 -16.87206;38.16614;-21.63587;,
 -10.55277;38.16614;-21.63587;,
 -10.55277;34.70992;-21.63587;,
 -16.87206;34.70992;-21.63587;,
 -16.87206;31.75525;-21.63587;,
 -10.55277;31.75525;-21.63587;,
 -10.55277;28.29902;-21.63587;,
 -16.87206;28.29902;-21.63587;,
 -16.87206;24.94232;-21.63587;,
 -10.55277;24.94232;-21.63587;,
 -10.55277;21.48609;-21.63587;,
 -16.87206;21.48609;-21.63587;,
 -16.87206;18.67993;-21.63587;,
 -10.55277;18.67993;-21.63587;,
 -10.55277;15.22370;-21.63587;,
 -16.87206;15.22370;-21.63587;,
 -16.87206;12.64839;-21.63587;,
 -10.55277;12.64839;-21.63587;,
 -10.55277;9.19217;-21.63587;,
 -16.87206;9.19217;-21.63587;,
 -15.99719;88.28444;-22.25040;,
 -11.42764;88.28444;-22.25040;,
 -11.42764;85.78521;-22.25040;,
 -15.99719;85.78521;-22.25040;,
 -15.99719;82.00500;-22.25040;,
 -11.42764;82.00500;-22.25040;,
 -11.42764;79.50577;-22.25040;,
 -15.99719;79.50577;-22.25040;,
 -15.99719;75.95901;-22.25040;,
 -11.42764;75.95901;-22.25040;,
 -11.42764;73.45979;-22.25040;,
 -15.99719;73.45979;-22.25040;,
 -15.99719;63.34376;-22.25040;,
 -11.42764;63.34376;-22.25040;,
 -11.42764;60.84453;-22.25040;,
 -15.99719;60.84453;-22.25040;,
 -15.99719;56.87062;-22.25040;,
 -11.42764;56.87062;-22.25040;,
 -11.42764;54.37139;-22.25040;,
 -15.99719;54.37139;-22.25040;,
 -15.99719;50.21090;-22.25040;,
 -11.42764;50.21090;-22.25040;,
 -11.42764;47.71168;-22.25040;,
 -15.99719;47.71168;-22.25040;,
 -11.42764;50.21090;-21.41207;,
 -15.99719;50.21090;-21.41207;,
 -15.99719;47.71168;-21.41207;,
 -11.42764;47.71168;-21.41207;,
 -15.99719;43.97661;-22.25040;,
 -11.42764;43.97661;-22.25040;,
 -11.42764;41.47739;-22.25040;,
 -15.99719;41.47739;-22.25040;,
 -15.99719;37.64843;-22.25040;,
 -11.42764;37.64843;-22.25040;,
 -11.42764;35.14921;-22.25040;,
 -15.99719;35.14921;-22.25040;,
 -15.99719;31.22684;-22.25040;,
 -11.42764;31.22684;-22.25040;,
 -11.42764;28.72761;-22.25040;,
 -15.99719;28.72761;-22.25040;,
 -15.99719;18.18535;-22.25040;,
 -11.42764;18.18535;-22.25040;,
 -11.42764;15.68612;-22.25040;,
 -15.99719;15.68612;-22.25040;,
 -15.99719;12.18277;-22.25040;,
 -11.42764;12.18277;-22.25040;,
 -11.42764;9.68355;-22.25040;,
 -15.99719;9.68355;-22.25040;,
 -15.99719;24.42475;-22.25040;,
 -11.42764;24.42475;-22.25040;,
 -11.42764;21.92552;-22.25040;,
 -15.99719;21.92552;-22.25040;,
 -15.99719;69.95136;-22.25040;,
 -11.42764;69.95136;-22.25040;,
 -11.42764;67.45214;-22.25040;,
 -15.99719;67.45214;-22.25040;,
 -23.75470;64.61357;-23.19475;,
 -16.87621;64.61357;-23.19475;,
 -16.87621;59.85800;-23.19475;,
 -23.75470;59.85800;-23.19475;,
 -23.75470;83.09993;-23.19475;,
 -16.87621;83.09993;-23.19475;,
 -16.87621;78.34435;-23.19475;,
 -23.75470;78.34435;-23.19475;,
 -16.87206;82.35236;-21.63587;,
 -10.55277;82.35236;-21.63587;,
 -10.55277;78.89613;-21.63587;,
 -16.87206;78.89613;-21.63587;,
 23.93016;20.63217;-23.19475;,
 17.05168;20.63217;-23.19475;,
 17.05168;25.38775;-23.19475;,
 23.93016;25.38775;-23.19475;,
 23.93016;26.84250;-23.19475;,
 17.05168;26.84250;-23.19475;,
 17.05168;31.59809;-23.19475;,
 23.93017;31.59809;-23.19475;,
 23.93017;39.82884;-23.19475;,
 17.05168;39.82884;-23.19475;,
 17.05168;44.58441;-23.19475;,
 23.93017;44.58441;-23.19475;,
 23.93017;46.44109;-23.19475;,
 17.05168;46.44109;-23.19475;,
 17.05168;51.19667;-23.19475;,
 23.93017;51.19667;-23.19475;,
 23.93017;52.64974;-23.19475;,
 17.05168;52.64974;-23.19475;,
 17.05168;57.40532;-23.19475;,
 23.93017;57.40532;-23.19475;,
 23.93017;59.00345;-23.19475;,
 17.05168;59.00345;-23.19475;,
 17.05168;63.75903;-23.19475;,
 23.93017;63.75903;-23.19475;,
 23.93017;65.49592;-23.19475;,
 17.05168;65.49592;-23.19475;,
 17.05168;70.25150;-23.19475;,
 23.93017;70.25150;-23.19475;,
 23.93017;72.26151;-23.19475;,
 17.05168;72.26151;-23.19475;,
 17.05168;77.01709;-23.19475;,
 23.93017;77.01709;-23.19475;,
 23.93017;78.45923;-23.19475;,
 17.05168;78.45923;-23.19475;,
 17.05168;83.21481;-23.19475;,
 23.93017;83.21481;-23.19475;,
 23.93017;84.55196;-23.19475;,
 17.05168;84.55196;-23.19475;,
 17.05168;89.30754;-23.19475;,
 23.93017;89.30754;-23.19475;,
 17.04753;9.04424;-21.63587;,
 10.72824;9.04424;-21.63587;,
 10.72824;12.50047;-21.63587;,
 17.04753;12.50047;-21.63587;,
 17.04753;15.36519;-21.63587;,
 10.72824;15.36519;-21.63587;,
 10.72824;18.82141;-21.63587;,
 17.04753;18.82141;-21.63587;,
 17.04753;21.37539;-21.63587;,
 10.72824;21.37539;-21.63587;,
 10.72824;24.83161;-21.63587;,
 17.04753;24.83161;-21.63587;,
 17.04753;27.43426;-21.63587;,
 10.72824;27.43426;-21.63587;,
 10.72824;30.89049;-21.63587;,
 17.04753;30.89049;-21.63587;,
 17.04753;33.97121;-21.63587;,
 10.72824;33.97121;-21.63587;,
 10.72824;37.42744;-21.63587;,
 17.04753;37.42744;-21.63587;,
 17.04753;40.43911;-21.63587;,
 10.72824;40.43911;-21.63587;,
 10.72824;43.89534;-21.63587;,
 17.04753;43.89534;-21.63587;,
 17.04753;46.99487;-21.63587;,
 10.72825;46.99487;-21.63587;,
 10.72825;50.45109;-21.63587;,
 17.04753;50.45109;-21.63587;,
 17.04753;53.31827;-21.63587;,
 10.72825;53.31828;-21.63587;,
 10.72825;56.77450;-21.63587;,
 17.04753;56.77450;-21.63587;,
 17.04753;59.64104;-21.63587;,
 10.72825;59.64104;-21.63587;,
 10.72825;63.09725;-21.63587;,
 17.04753;63.09725;-21.63587;,
 17.04753;66.05193;-21.63587;,
 10.72825;66.05193;-21.63587;,
 10.72825;69.50815;-21.63587;,
 17.04753;69.50815;-21.63587;,
 17.04753;72.86486;-21.63587;,
 10.72825;72.86486;-21.63587;,
 10.72825;76.32109;-21.63587;,
 17.04753;76.32109;-21.63587;,
 17.04753;79.12725;-21.63587;,
 10.72825;79.12725;-21.63587;,
 10.72825;82.58348;-21.63587;,
 17.04753;82.58348;-21.63587;,
 17.04753;85.15879;-21.63587;,
 10.72825;85.15879;-21.63587;,
 10.72825;88.61501;-21.63587;,
 17.04753;88.61501;-21.63587;,
 16.17266;9.52274;-22.25040;,
 11.60311;9.52274;-22.25040;,
 11.60311;12.02197;-22.25040;,
 16.17266;12.02197;-22.25040;,
 16.17266;15.80218;-22.25040;,
 11.60311;15.80218;-22.25040;,
 11.60311;18.30141;-22.25040;,
 16.17266;18.30141;-22.25040;,
 16.17266;21.84817;-22.25040;,
 11.60311;21.84817;-22.25040;,
 11.60311;24.34739;-22.25040;,
 16.17266;24.34739;-22.25040;,
 16.17266;34.46342;-22.25040;,
 11.60311;34.46342;-22.25040;,
 11.60311;36.96265;-22.25040;,
 16.17266;36.96265;-22.25040;,
 16.17266;40.93656;-22.25040;,
 11.60311;40.93656;-22.25040;,
 11.60311;43.43578;-22.25040;,
 16.17266;43.43578;-22.25040;,
 16.17266;47.59628;-22.25040;,
 11.60311;47.59628;-22.25040;,
 11.60311;50.09550;-22.25040;,
 16.17266;50.09550;-22.25040;,
 16.17266;53.83057;-22.25040;,
 11.60311;53.83057;-22.25040;,
 11.60311;56.32979;-22.25040;,
 16.17266;56.32979;-22.25040;,
 16.17266;60.15875;-22.25040;,
 11.60311;60.15875;-22.25040;,
 11.60311;62.65797;-22.25040;,
 16.17266;62.65797;-22.25040;,
 16.17266;66.58033;-22.25040;,
 11.60311;66.58033;-22.25040;,
 11.60311;69.07957;-22.25040;,
 16.17266;69.07957;-22.25040;,
 16.17267;79.62183;-22.25040;,
 11.60312;79.62183;-22.25040;,
 11.60312;82.12106;-22.25040;,
 16.17267;82.12106;-22.25040;,
 16.17267;85.62441;-22.25040;,
 11.60312;85.62441;-22.25040;,
 11.60312;88.12363;-22.25040;,
 16.17267;88.12363;-22.25040;,
 16.17266;73.38243;-22.25040;,
 11.60312;73.38243;-22.25040;,
 11.60312;75.88166;-22.25040;,
 16.17267;75.88166;-22.25040;,
 16.17266;27.85582;-22.25040;,
 11.60311;27.85582;-22.25040;,
 11.60311;30.35504;-22.25040;,
 16.17266;30.35504;-22.25040;,
 23.93017;33.19361;-23.19475;,
 17.05168;33.19361;-23.19475;,
 17.05168;37.94918;-23.19475;,
 23.93017;37.94918;-23.19475;,
 23.93016;8.49964;-23.19475;,
 17.05168;8.49964;-23.19475;,
 17.05168;13.25522;-23.19475;,
 23.93016;13.25522;-23.19475;,
 23.93016;14.70724;-23.19475;,
 17.05168;14.70724;-23.19475;,
 17.05168;19.46283;-23.19475;,
 23.93016;19.46283;-23.19475;,
 -8.19057;89.01613;-22.25040;,
 -5.53736;89.01613;-22.25040;,
 -5.53736;71.35986;-22.25040;,
 -8.19057;71.35986;-22.25040;,
 -5.53736;89.01613;-21.41207;,
 -5.53736;71.35986;-21.41207;,
 -8.19057;89.01613;-21.41207;,
 -8.19057;71.35986;-21.41207;,
 -8.19057;69.44257;-22.25040;,
 -5.53736;69.44257;-22.25040;,
 -5.53736;51.78630;-22.25040;,
 -8.19057;51.78630;-22.25040;,
 -5.53736;69.44257;-21.41207;,
 -5.53736;51.78630;-21.41207;,
 -8.19057;69.44257;-21.41207;,
 -8.19057;51.78630;-21.41207;,
 -8.19057;49.34917;-22.25040;,
 -5.53736;49.34917;-22.25040;,
 -5.53736;31.69290;-22.25040;,
 -8.19057;31.69290;-22.25040;,
 -5.53736;49.34917;-21.41207;,
 -5.53736;31.69290;-21.41207;,
 -8.19057;49.34917;-21.41207;,
 -8.19057;31.69290;-21.41207;,
 -8.19057;28.20780;-22.25040;,
 -5.53736;28.20780;-22.25040;,
 -5.53736;10.55153;-22.25040;,
 -8.19057;10.55153;-22.25040;,
 -5.53736;28.20780;-21.41207;,
 -5.53736;10.55153;-21.41207;,
 -8.19057;28.20780;-21.41207;,
 -8.19057;10.55153;-21.41207;,
 -7.74510;91.83591;-22.25495;,
 -7.02327;91.83591;-22.25495;,
 -7.02327;7.30382;-22.25495;,
 -7.74510;7.30382;-22.25495;,
 -7.02327;91.83591;-22.25393;,
 -7.02327;7.30382;-22.25393;,
 -7.74510;91.83591;-22.25393;,
 -7.74510;7.30382;-22.25393;,
 -6.71002;91.83591;-22.25495;,
 -5.98820;91.83591;-22.25495;,
 -5.98820;7.30382;-22.25495;,
 -6.71002;7.30382;-22.25495;,
 -5.98820;91.83591;-22.25393;,
 -5.98820;7.30382;-22.25393;,
 -6.71002;91.83591;-22.25393;,
 -6.71002;7.30382;-22.25393;,
 8.69464;91.83591;-22.25495;,
 9.41646;91.83591;-22.25495;,
 9.41646;7.30382;-22.25495;,
 8.69464;7.30382;-22.25495;,
 9.41646;91.83591;-22.25393;,
 9.41646;7.30382;-22.25393;,
 8.69464;91.83591;-22.25393;,
 8.69464;7.30382;-22.25393;,
 7.16682;89.01613;-22.25040;,
 9.82003;89.01613;-22.25040;,
 9.82003;71.35986;-22.25040;,
 7.16682;71.35986;-22.25040;,
 9.82003;89.01613;-21.41207;,
 9.82003;71.35986;-21.41207;,
 7.16682;89.01613;-21.41207;,
 7.16682;71.35986;-21.41207;,
 7.16682;69.44257;-22.25040;,
 9.82003;69.44257;-22.25040;,
 9.82003;51.78630;-22.25040;,
 7.16682;51.78630;-22.25040;,
 9.82003;69.44257;-21.41207;,
 9.82003;51.78630;-21.41207;,
 7.16682;69.44257;-21.41207;,
 7.16682;51.78630;-21.41207;,
 7.16682;49.34917;-22.25040;,
 9.82003;49.34917;-22.25040;,
 9.82003;31.69290;-22.25040;,
 7.16682;31.69290;-22.25040;,
 9.82003;49.34917;-21.41207;,
 9.82003;31.69290;-21.41207;,
 7.16682;49.34917;-21.41207;,
 7.16682;31.69290;-21.41207;,
 7.16682;28.20780;-22.25040;,
 9.82003;28.20780;-22.25040;,
 9.82003;10.55153;-22.25040;,
 7.16682;10.55153;-22.25040;,
 9.82003;28.20780;-21.41207;,
 9.82003;10.55153;-21.41207;,
 7.16682;28.20780;-21.41207;,
 7.16682;10.55153;-21.41207;,
 7.66587;91.83591;-22.25495;,
 8.38769;91.83591;-22.25495;,
 8.38769;7.30382;-22.25495;,
 7.66587;7.30382;-22.25495;,
 8.38769;91.83591;-22.25393;,
 8.38769;7.30382;-22.25393;,
 7.66587;91.83591;-22.25393;,
 7.66587;7.30382;-22.25393;,
 5.16896;91.83591;-22.25495;,
 5.89078;91.83591;-22.25495;,
 5.89078;7.30382;-22.25495;,
 5.16896;7.30382;-22.25495;,
 5.89078;91.83591;-22.25393;,
 5.89078;7.30382;-22.25393;,
 5.16896;91.83591;-22.25393;,
 5.16896;7.30382;-22.25393;,
 4.11785;91.83591;-22.25495;,
 4.83967;91.83591;-22.25495;,
 4.83967;7.30382;-22.25495;,
 4.11785;7.30382;-22.25495;,
 4.83967;91.83591;-22.25393;,
 4.83967;7.30382;-22.25393;,
 4.11785;91.83591;-22.25393;,
 4.11785;7.30382;-22.25393;,
 -4.68801;91.83591;-22.25495;,
 -3.96619;91.83591;-22.25495;,
 -3.96619;7.30382;-22.25495;,
 -4.68801;7.30382;-22.25495;,
 -3.96619;91.83591;-22.25393;,
 -3.96619;7.30382;-22.25393;,
 -4.68801;91.83591;-22.25393;,
 -4.68801;7.30382;-22.25393;,
 -3.50525;91.83591;-22.25495;,
 -2.78343;91.83591;-22.25495;,
 -2.78343;7.30382;-22.25495;,
 -3.50525;7.30382;-22.25495;,
 -2.78343;91.83591;-22.25393;,
 -2.78343;7.30382;-22.25393;,
 -3.50525;91.83591;-22.25393;,
 -3.50525;7.30382;-22.25393;;
 
 210;
 4;0,1,2,3;,
 4;1,4,5,2;,
 4;4,6,7,5;,
 4;3,2,8,9;,
 4;5,7,10,11;,
 4;9,8,12,13;,
 4;8,11,14,12;,
 4;11,10,15,14;,
 4;6,16,17,7;,
 4;7,17,18,10;,
 4;10,18,19,15;,
 4;16,20,21,17;,
 4;20,22,23,21;,
 4;22,24,25,23;,
 4;17,21,26,18;,
 4;21,23,27,26;,
 4;23,25,28,27;,
 4;18,26,29,19;,
 4;26,27,30,29;,
 4;27,28,31,30;,
 4;24,0,3,25;,
 4;25,3,9,28;,
 4;28,9,13,31;,
 4;24,22,1,0;,
 4;22,20,4,1;,
 4;20,16,6,4;,
 4;13,12,30,31;,
 4;12,14,29,30;,
 4;14,15,19,29;,
 4;32,33,2,5;,
 4;34,32,5,11;,
 4;35,34,11,8;,
 4;33,35,8,2;,
 4;33,32,34,35;,
 4;36,37,38,39;,
 4;40,41,42,43;,
 4;44,45,46,47;,
 4;48,49,50,51;,
 4;52,53,54,55;,
 4;56,57,58,59;,
 4;60,61,62,63;,
 4;64,65,66,67;,
 4;68,69,70,71;,
 4;72,73,74,75;,
 4;76,77,78,79;,
 4;80,81,82,83;,
 4;84,85,86,87;,
 4;88,89,90,91;,
 4;92,93,94,95;,
 4;96,97,98,99;,
 4;100,101,102,103;,
 4;104,105,106,107;,
 4;108,109,110,111;,
 4;112,113,114,115;,
 4;116,117,118,119;,
 4;120,121,122,123;,
 4;124,125,126,127;,
 4;128,129,130,131;,
 4;132,133,134,135;,
 4;136,137,138,139;,
 4;140,141,142,143;,
 4;144,145,146,147;,
 4;148,149,150,151;,
 4;152,153,154,155;,
 4;156,157,158,159;,
 4;160,161,162,163;,
 4;164,165,166,167;,
 4;168,169,170,171;,
 4;172,173,174,175;,
 4;176,177,178,179;,
 4;180,181,182,183;,
 4;184,185,186,187;,
 4;188,189,190,191;,
 4;192,193,194,195;,
 4;196,197,198,199;,
 4;200,201,202,203;,
 4;204,205,206,207;,
 4;208,209,210,211;,
 4;212,213,214,215;,
 4;216,217,218,219;,
 4;220,221,222,223;,
 4;224,225,226,227;,
 4;228,229,230,231;,
 4;232,233,234,235;,
 4;236,237,238,239;,
 4;240,241,242,243;,
 4;244,245,246,247;,
 4;248,249,250,251;,
 4;252,253,254,255;,
 4;256,257,258,259;,
 4;260,261,262,263;,
 4;264,265,266,267;,
 4;268,269,270,271;,
 4;272,273,274,275;,
 4;276,277,278,279;,
 4;280,281,282,283;,
 4;284,285,286,287;,
 4;288,289,290,291;,
 4;292,293,294,295;,
 4;296,297,298,299;,
 4;300,301,302,303;,
 4;304,305,306,307;,
 4;308,309,310,311;,
 4;312,313,314,315;,
 4;316,317,318,319;,
 4;320,321,322,323;,
 4;324,325,326,327;,
 4;328,329,330,331;,
 4;332,333,334,335;,
 4;336,337,338,339;,
 4;340,341,342,343;,
 4;344,345,346,347;,
 4;348,349,350,351;,
 4;352,353,354,355;,
 4;356,357,358,359;,
 4;357,360,361,358;,
 4;360,362,363,361;,
 4;362,356,359,363;,
 4;362,360,357,356;,
 4;359,358,361,363;,
 4;364,365,366,367;,
 4;365,368,369,366;,
 4;368,370,371,369;,
 4;370,364,367,371;,
 4;370,368,365,364;,
 4;367,366,369,371;,
 4;372,373,374,375;,
 4;373,376,377,374;,
 4;376,378,379,377;,
 4;378,372,375,379;,
 4;378,376,373,372;,
 4;375,374,377,379;,
 4;380,381,382,383;,
 4;381,384,385,382;,
 4;384,386,387,385;,
 4;386,380,383,387;,
 4;386,384,381,380;,
 4;383,382,385,387;,
 4;388,389,390,391;,
 4;389,392,393,390;,
 4;392,394,395,393;,
 4;394,388,391,395;,
 4;394,392,389,388;,
 4;391,390,393,395;,
 4;396,397,398,399;,
 4;397,400,401,398;,
 4;400,402,403,401;,
 4;402,396,399,403;,
 4;402,400,397,396;,
 4;399,398,401,403;,
 4;404,405,406,407;,
 4;405,408,409,406;,
 4;408,410,411,409;,
 4;410,404,407,411;,
 4;410,408,405,404;,
 4;407,406,409,411;,
 4;412,413,414,415;,
 4;413,416,417,414;,
 4;416,418,419,417;,
 4;418,412,415,419;,
 4;418,416,413,412;,
 4;415,414,417,419;,
 4;420,421,422,423;,
 4;421,424,425,422;,
 4;424,426,427,425;,
 4;426,420,423,427;,
 4;426,424,421,420;,
 4;423,422,425,427;,
 4;428,429,430,431;,
 4;429,432,433,430;,
 4;432,434,435,433;,
 4;434,428,431,435;,
 4;434,432,429,428;,
 4;431,430,433,435;,
 4;436,437,438,439;,
 4;437,440,441,438;,
 4;440,442,443,441;,
 4;442,436,439,443;,
 4;442,440,437,436;,
 4;439,438,441,443;,
 4;444,445,446,447;,
 4;445,448,449,446;,
 4;448,450,451,449;,
 4;450,444,447,451;,
 4;450,448,445,444;,
 4;447,446,449,451;,
 4;452,453,454,455;,
 4;453,456,457,454;,
 4;456,458,459,457;,
 4;458,452,455,459;,
 4;458,456,453,452;,
 4;455,454,457,459;,
 4;460,461,462,463;,
 4;461,464,465,462;,
 4;464,466,467,465;,
 4;466,460,463,467;,
 4;466,464,461,460;,
 4;463,462,465,467;,
 4;468,469,470,471;,
 4;469,472,473,470;,
 4;472,474,475,473;,
 4;474,468,471,475;,
 4;474,472,469,468;,
 4;471,470,473,475;,
 4;476,477,478,479;,
 4;477,480,481,478;,
 4;480,482,483,481;,
 4;482,476,479,483;,
 4;482,480,477,476;,
 4;479,478,481,483;;
 
 MeshMaterialList {
  7;
  210;
  0,
  0,
  0,
  0,
  0,
  0,
  0,
  0,
  0,
  0,
  0,
  0,
  0,
  0,
  0,
  0,
  0,
  0,
  0,
  0,
  0,
  0,
  0,
  0,
  0,
  0,
  0,
  0,
  0,
  0,
  0,
  0,
  0,
  0,
  1,
  1,
  1,
  1,
  1,
  1,
  1,
  1,
  2,
  1,
  1,
  1,
  3,
  3,
  3,
  3,
  3,
  3,
  3,
  3,
  3,
  3,
  3,
  3,
  1,
  1,
  1,
  1,
  1,
  1,
  1,
  1,
  1,
  1,
  1,
  1,
  1,
  1,
  2,
  1,
  3,
  1,
  1,
  1,
  1,
  1,
  1,
  2,
  1,
  1,
  1,
  3,
  3,
  3,
  3,
  3,
  3,
  3,
  3,
  3,
  3,
  3,
  3,
  3,
  1,
  1,
  1,
  1,
  1,
  1,
  1,
  1,
  1,
  1,
  1,
  1,
  1,
  2,
  1,
  1,
  4,
  4,
  4,
  4,
  4,
  4,
  4,
  4,
  4,
  4,
  4,
  4,
  4,
  4,
  4,
  4,
  4,
  4,
  4,
  4,
  4,
  4,
  4,
  4,
  3,
  3,
  3,
  3,
  3,
  3,
  3,
  3,
  3,
  3,
  3,
  3,
  3,
  3,
  3,
  3,
  3,
  3,
  4,
  4,
  4,
  4,
  4,
  4,
  4,
  4,
  4,
  4,
  4,
  4,
  4,
  4,
  4,
  4,
  4,
  4,
  4,
  4,
  4,
  4,
  4,
  4,
  3,
  3,
  3,
  3,
  3,
  3,
  6,
  6,
  6,
  6,
  6,
  6,
  6,
  6,
  6,
  6,
  6,
  6,
  6,
  6,
  6,
  6,
  6,
  6,
  6,
  6,
  6,
  6,
  6,
  6;;
  Material {
   0.586400;0.586400;0.586400;1.000000;;
   5.000000;
   0.000000;0.000000;0.000000;;
   0.000000;0.000000;0.000000;;
  }
  Material {
   0.000000;0.000000;0.000000;1.000000;;
   5.000000;
   0.000000;0.000000;0.000000;;
   0.000000;0.000000;0.000000;;
  }
  Material {
   0.702400;0.702400;0.702400;1.000000;;
   5.000000;
   0.000000;0.000000;0.000000;;
   0.000000;0.000000;0.000000;;
  }
  Material {
   0.000000;0.800000;0.370400;1.000000;;
   5.000000;
   0.000000;0.000000;0.000000;;
   0.000000;0.000000;0.000000;;
  }
  Material {
   0.420000;0.800000;0.800000;1.000000;;
   5.000000;
   0.000000;0.000000;0.000000;;
   0.000000;0.000000;0.000000;;
  }
  Material {
   0.467200;0.800000;0.524000;1.000000;;
   5.000000;
   0.000000;0.000000;0.000000;;
   0.000000;0.000000;0.000000;;
  }
  Material {
   0.000000;0.313600;0.800000;1.000000;;
   5.000000;
   0.000000;0.000000;0.000000;;
   0.000000;0.000000;0.000000;;
  }
 }
 MeshNormals {
  33;
  0.000000;0.000000;-1.000000;,
  1.000000;0.000000;0.000000;,
  0.000000;0.000000;1.000000;,
  0.000000;-1.000000;0.000000;,
  0.000000;1.000000;0.000000;,
  -1.000000;0.000000;0.000000;,
  0.000000;0.000000;-1.000000;,
  0.000000;0.000000;1.000000;,
  0.000000;0.000000;-1.000000;,
  0.000000;0.000000;-1.000000;,
  1.000000;0.000000;0.000000;,
  0.000000;0.000000;1.000000;,
  -1.000000;0.000000;0.000000;,
  0.000000;1.000000;0.000000;,
  0.000000;-1.000000;-0.000000;,
  0.000000;0.000000;-1.000000;,
  1.000000;0.000000;0.000000;,
  0.000000;0.000000;1.000000;,
  -1.000000;0.000000;0.000000;,
  0.000000;1.000000;0.000000;,
  0.000000;-1.000000;-0.000000;,
  0.000000;0.000000;-1.000000;,
  1.000000;0.000000;0.000000;,
  0.000000;0.000000;1.000000;,
  -1.000000;0.000000;0.000000;,
  0.000000;1.000000;0.000000;,
  0.000000;-1.000000;-0.000000;,
  0.000000;0.000000;-1.000000;,
  1.000000;0.000000;0.000000;,
  0.000000;0.000000;1.000000;,
  -1.000000;0.000000;0.000000;,
  0.000000;1.000000;0.000000;,
  0.000000;-1.000000;-0.000000;;
  210;
  4;0,0,0,0;,
  4;0,0,0,0;,
  4;0,0,0,0;,
  4;0,0,0,0;,
  4;0,0,0,0;,
  4;0,0,0,0;,
  4;0,0,0,0;,
  4;0,0,0,0;,
  4;1,1,1,1;,
  4;1,1,1,1;,
  4;1,1,1,1;,
  4;2,2,2,2;,
  4;2,2,2,2;,
  4;2,2,2,2;,
  4;2,2,2,2;,
  4;2,2,2,2;,
  4;2,2,2,2;,
  4;2,2,2,2;,
  4;2,2,2,2;,
  4;2,2,2,2;,
  4;5,5,5,5;,
  4;5,5,5,5;,
  4;5,5,5,5;,
  4;4,4,4,4;,
  4;4,4,4,4;,
  4;4,4,4,4;,
  4;3,3,3,3;,
  4;3,3,3,3;,
  4;3,3,3,3;,
  4;3,3,3,3;,
  4;5,5,5,5;,
  4;4,4,4,4;,
  4;1,1,1,1;,
  4;0,0,0,0;,
  4;0,0,0,0;,
  4;2,2,2,2;,
  4;6,6,6,6;,
  4;6,6,6,6;,
  4;6,6,6,6;,
  4;6,6,6,6;,
  4;6,6,6,6;,
  4;6,6,6,6;,
  4;6,6,6,6;,
  4;6,6,6,6;,
  4;6,6,6,6;,
  4;6,6,6,6;,
  4;6,6,6,6;,
  4;6,6,6,6;,
  4;6,6,6,6;,
  4;6,6,6,6;,
  4;6,6,6,6;,
  4;6,6,6,6;,
  4;6,6,6,6;,
  4;6,6,6,6;,
  4;6,6,6,6;,
  4;6,6,6,6;,
  4;6,6,6,6;,
  4;6,6,6,6;,
  4;6,6,6,6;,
  4;6,6,6,6;,
  4;6,6,6,6;,
  4;6,6,6,6;,
  4;6,6,6,6;,
  4;6,6,6,6;,
  4;7,7,7,7;,
  4;6,6,6,6;,
  4;6,6,6,6;,
  4;6,6,6,6;,
  4;6,6,6,6;,
  4;6,6,6,6;,
  4;6,6,6,6;,
  4;6,6,6,6;,
  4;6,6,6,6;,
  4;6,6,6,6;,
  4;6,6,6,6;,
  4;8,8,8,8;,
  4;8,8,8,8;,
  4;8,8,8,8;,
  4;8,8,8,8;,
  4;8,8,8,8;,
  4;8,8,8,8;,
  4;8,8,8,8;,
  4;8,8,8,8;,
  4;8,8,8,8;,
  4;8,8,8,8;,
  4;8,8,8,8;,
  4;8,8,8,8;,
  4;8,8,8,8;,
  4;8,8,8,8;,
  4;8,8,8,8;,
  4;8,8,8,8;,
  4;8,8,8,8;,
  4;8,8,8,8;,
  4;8,8,8,8;,
  4;8,8,8,8;,
  4;8,8,8,8;,
  4;8,8,8,8;,
  4;8,8,8,8;,
  4;8,8,8,8;,
  4;8,8,8,8;,
  4;8,8,8,8;,
  4;8,8,8,8;,
  4;8,8,8,8;,
  4;8,8,8,8;,
  4;8,8,8,8;,
  4;8,8,8,8;,
  4;8,8,8,8;,
  4;8,8,8,8;,
  4;8,8,8,8;,
  4;8,8,8,8;,
  4;8,8,8,8;,
  4;8,8,8,8;,
  4;8,8,8,8;,
  4;8,8,8,8;,
  4;9,9,9,9;,
  4;10,10,10,10;,
  4;11,11,11,11;,
  4;12,12,12,12;,
  4;13,13,13,13;,
  4;14,14,14,14;,
  4;9,9,9,9;,
  4;10,10,10,10;,
  4;11,11,11,11;,
  4;12,12,12,12;,
  4;13,13,13,13;,
  4;14,14,14,14;,
  4;9,9,9,9;,
  4;10,10,10,10;,
  4;11,11,11,11;,
  4;12,12,12,12;,
  4;13,13,13,13;,
  4;14,14,14,14;,
  4;9,9,9,9;,
  4;10,10,10,10;,
  4;11,11,11,11;,
  4;12,12,12,12;,
  4;13,13,13,13;,
  4;14,14,14,14;,
  4;9,9,9,9;,
  4;10,10,10,10;,
  4;11,11,11,11;,
  4;12,12,12,12;,
  4;13,13,13,13;,
  4;14,14,14,14;,
  4;9,9,9,9;,
  4;10,10,10,10;,
  4;11,11,11,11;,
  4;12,12,12,12;,
  4;13,13,13,13;,
  4;14,14,14,14;,
  4;15,15,15,15;,
  4;16,16,16,16;,
  4;17,17,17,17;,
  4;18,18,18,18;,
  4;19,19,19,19;,
  4;20,20,20,20;,
  4;15,15,15,15;,
  4;16,16,16,16;,
  4;17,17,17,17;,
  4;18,18,18,18;,
  4;19,19,19,19;,
  4;20,20,20,20;,
  4;15,15,15,15;,
  4;16,16,16,16;,
  4;17,17,17,17;,
  4;18,18,18,18;,
  4;19,19,19,19;,
  4;20,20,20,20;,
  4;15,15,15,15;,
  4;16,16,16,16;,
  4;17,17,17,17;,
  4;18,18,18,18;,
  4;19,19,19,19;,
  4;20,20,20,20;,
  4;15,15,15,15;,
  4;16,16,16,16;,
  4;17,17,17,17;,
  4;18,18,18,18;,
  4;19,19,19,19;,
  4;20,20,20,20;,
  4;15,15,15,15;,
  4;16,16,16,16;,
  4;17,17,17,17;,
  4;18,18,18,18;,
  4;19,19,19,19;,
  4;20,20,20,20;,
  4;21,21,21,21;,
  4;22,22,22,22;,
  4;23,23,23,23;,
  4;24,24,24,24;,
  4;25,25,25,25;,
  4;26,26,26,26;,
  4;21,21,21,21;,
  4;22,22,22,22;,
  4;23,23,23,23;,
  4;24,24,24,24;,
  4;25,25,25,25;,
  4;26,26,26,26;,
  4;27,27,27,27;,
  4;28,28,28,28;,
  4;29,29,29,29;,
  4;30,30,30,30;,
  4;31,31,31,31;,
  4;32,32,32,32;,
  4;27,27,27,27;,
  4;28,28,28,28;,
  4;29,29,29,29;,
  4;30,30,30,30;,
  4;31,31,31,31;,
  4;32,32,32,32;;
 }
}
