xof 0302txt 0064
template Header {
 <3D82AB43-62DA-11cf-AB39-0020AF71E433>
 WORD major;
 WORD minor;
 DWORD flags;
}

template Vector {
 <3D82AB5E-62DA-11cf-AB39-0020AF71E433>
 FLOAT x;
 FLOAT y;
 FLOAT z;
}

template Coords2d {
 <F6F23F44-7686-11cf-8F52-0040333594A3>
 FLOAT u;
 FLOAT v;
}

template Matrix4x4 {
 <F6F23F45-7686-11cf-8F52-0040333594A3>
 array FLOAT matrix[16];
}

template ColorRGBA {
 <35FF44E0-6C7C-11cf-8F52-0040333594A3>
 FLOAT red;
 FLOAT green;
 FLOAT blue;
 FLOAT alpha;
}

template ColorRGB {
 <D3E16E81-7835-11cf-8F52-0040333594A3>
 FLOAT red;
 FLOAT green;
 FLOAT blue;
}

template IndexedColor {
 <1630B820-7842-11cf-8F52-0040333594A3>
 DWORD index;
 ColorRGBA indexColor;
}

template Boolean {
 <4885AE61-78E8-11cf-8F52-0040333594A3>
 WORD truefalse;
}

template Boolean2d {
 <4885AE63-78E8-11cf-8F52-0040333594A3>
 Boolean u;
 Boolean v;
}

template MaterialWrap {
 <4885AE60-78E8-11cf-8F52-0040333594A3>
 Boolean u;
 Boolean v;
}

template TextureFilename {
 <A42790E1-7810-11cf-8F52-0040333594A3>
 STRING filename;
}

template Material {
 <3D82AB4D-62DA-11cf-AB39-0020AF71E433>
 ColorRGBA faceColor;
 FLOAT power;
 ColorRGB specularColor;
 ColorRGB emissiveColor;
 [...]
}

template MeshFace {
 <3D82AB5F-62DA-11cf-AB39-0020AF71E433>
 DWORD nFaceVertexIndices;
 array DWORD faceVertexIndices[nFaceVertexIndices];
}

template MeshFaceWraps {
 <4885AE62-78E8-11cf-8F52-0040333594A3>
 DWORD nFaceWrapValues;
 Boolean2d faceWrapValues;
}

template MeshTextureCoords {
 <F6F23F40-7686-11cf-8F52-0040333594A3>
 DWORD nTextureCoords;
 array Coords2d textureCoords[nTextureCoords];
}

template MeshMaterialList {
 <F6F23F42-7686-11cf-8F52-0040333594A3>
 DWORD nMaterials;
 DWORD nFaceIndexes;
 array DWORD faceIndexes[nFaceIndexes];
 [Material]
}

template MeshNormals {
 <F6F23F43-7686-11cf-8F52-0040333594A3>
 DWORD nNormals;
 array Vector normals[nNormals];
 DWORD nFaceNormals;
 array MeshFace faceNormals[nFaceNormals];
}

template MeshVertexColors {
 <1630B821-7842-11cf-8F52-0040333594A3>
 DWORD nVertexColors;
 array IndexedColor vertexColors[nVertexColors];
}

template Mesh {
 <3D82AB44-62DA-11cf-AB39-0020AF71E433>
 DWORD nVertices;
 array Vector vertices[nVertices];
 DWORD nFaces;
 array MeshFace faces[nFaces];
 [...]
}

Header{
1;
0;
1;
}

Mesh {
 40;
 -29.66205;99.12042;-24.91087;,
 -24.71839;99.12042;-24.91087;,
 -24.71839;90.85706;-24.91087;,
 -29.66205;90.85706;-24.91087;,
 24.71839;99.12042;-24.91087;,
 24.71839;90.85706;-24.91087;,
 29.66205;99.12042;-24.91087;,
 29.66205;90.85706;-24.91087;,
 -24.71839;8.22383;-24.91087;,
 -29.66205;8.22383;-24.91087;,
 29.66205;8.22383;-24.91087;,
 24.71839;8.22383;-24.91087;,
 -24.71839;-0.03951;-24.91087;,
 -29.66205;-0.03951;-24.91087;,
 24.71839;-0.03951;-24.91087;,
 29.66205;-0.03951;-24.91087;,
 29.66205;99.12042;24.91088;,
 29.66205;90.85706;24.91088;,
 29.66205;8.22383;24.91088;,
 29.66205;-0.03951;24.91088;,
 24.71839;99.12042;24.91088;,
 24.71839;90.85706;24.91088;,
 -24.71839;99.12042;24.91088;,
 -24.71839;90.85706;24.91088;,
 -29.66205;99.12042;24.91088;,
 -29.66205;90.85706;24.91088;,
 24.71839;8.22383;24.91088;,
 -24.71839;8.22383;24.91088;,
 -29.66205;8.22383;24.91088;,
 24.71839;-0.03951;24.91088;,
 -24.71839;-0.03951;24.91088;,
 -29.66205;-0.03951;24.91088;,
 24.71839;90.85706;-21.60240;,
 -24.71839;90.85706;-21.60240;,
 24.71839;8.22383;-21.60240;,
 -24.71839;8.22383;-21.60240;,
 -16.87621;89.30754;-16.65085;,
 -23.75470;89.30754;-16.65085;,
 -23.75470;84.55196;-16.65085;,
 -16.87621;84.55196;-16.65085;;
 
 35;
 4;0,1,2,3;,
 4;1,4,5,2;,
 4;4,6,7,5;,
 4;3,2,8,9;,
 4;5,7,10,11;,
 4;9,8,12,13;,
 4;8,11,14,12;,
 4;11,10,15,14;,
 4;6,16,17,7;,
 4;7,17,18,10;,
 4;10,18,19,15;,
 4;16,20,21,17;,
 4;20,22,23,21;,
 4;22,24,25,23;,
 4;17,21,26,18;,
 4;21,23,27,26;,
 4;23,25,28,27;,
 4;18,26,29,19;,
 4;26,27,30,29;,
 4;27,28,31,30;,
 4;24,0,3,25;,
 4;25,3,9,28;,
 4;28,9,13,31;,
 4;24,22,1,0;,
 4;22,20,4,1;,
 4;20,16,6,4;,
 4;13,12,30,31;,
 4;12,14,29,30;,
 4;14,15,19,29;,
 4;32,33,2,5;,
 4;34,32,5,11;,
 4;35,34,11,8;,
 4;33,35,8,2;,
 4;33,32,34,35;,
 4;36,37,38,39;;
 
 MeshMaterialList {
  3;
  35;
  0,
  0,
  0,
  0,
  0,
  0,
  0,
  0,
  0,
  0,
  0,
  0,
  0,
  0,
  0,
  0,
  0,
  0,
  0,
  0,
  0,
  0,
  0,
  0,
  0,
  0,
  0,
  0,
  0,
  0,
  0,
  0,
  0,
  1,
  2;;
  Material {
   0.213600;0.213600;0.213600;1.000000;;
   5.000000;
   0.650000;0.650000;0.650000;;
   0.000000;0.000000;0.000000;;
  }
  Material {
   0.800000;0.800000;0.800000;1.000000;;
   5.000000;
   0.000000;0.000000;0.000000;;
   0.000000;0.000000;0.000000;;
   TextureFilename {
    "data/TEXTURE/server.png";
   }
  }
  Material {
   1.000000;1.000000;1.000000;1.000000;;
   0.000000;
   0.000000;0.000000;0.000000;;
   0.000000;0.000000;0.000000;;
  }
 }
 MeshNormals {
  6;
  0.000000;0.000000;-1.000000;,
  1.000000;0.000000;0.000000;,
  0.000000;0.000000;1.000000;,
  0.000000;-1.000000;0.000000;,
  0.000000;1.000000;0.000000;,
  -1.000000;0.000000;0.000000;;
  35;
  4;0,0,0,0;,
  4;0,0,0,0;,
  4;0,0,0,0;,
  4;0,0,0,0;,
  4;0,0,0,0;,
  4;0,0,0,0;,
  4;0,0,0,0;,
  4;0,0,0,0;,
  4;1,1,1,1;,
  4;1,1,1,1;,
  4;1,1,1,1;,
  4;2,2,2,2;,
  4;2,2,2,2;,
  4;2,2,2,2;,
  4;2,2,2,2;,
  4;2,2,2,2;,
  4;2,2,2,2;,
  4;2,2,2,2;,
  4;2,2,2,2;,
  4;2,2,2,2;,
  4;5,5,5,5;,
  4;5,5,5,5;,
  4;5,5,5,5;,
  4;4,4,4,4;,
  4;4,4,4,4;,
  4;4,4,4,4;,
  4;3,3,3,3;,
  4;3,3,3,3;,
  4;3,3,3,3;,
  4;3,3,3,3;,
  4;5,5,5,5;,
  4;4,4,4,4;,
  4;1,1,1,1;,
  4;0,0,0,0;,
  4;2,2,2,2;;
 }
}
