xof 0302txt 0064
template Header {
 <3D82AB43-62DA-11cf-AB39-0020AF71E433>
 WORD major;
 WORD minor;
 DWORD flags;
}

template Vector {
 <3D82AB5E-62DA-11cf-AB39-0020AF71E433>
 FLOAT x;
 FLOAT y;
 FLOAT z;
}

template Coords2d {
 <F6F23F44-7686-11cf-8F52-0040333594A3>
 FLOAT u;
 FLOAT v;
}

template Matrix4x4 {
 <F6F23F45-7686-11cf-8F52-0040333594A3>
 array FLOAT matrix[16];
}

template ColorRGBA {
 <35FF44E0-6C7C-11cf-8F52-0040333594A3>
 FLOAT red;
 FLOAT green;
 FLOAT blue;
 FLOAT alpha;
}

template ColorRGB {
 <D3E16E81-7835-11cf-8F52-0040333594A3>
 FLOAT red;
 FLOAT green;
 FLOAT blue;
}

template IndexedColor {
 <1630B820-7842-11cf-8F52-0040333594A3>
 DWORD index;
 ColorRGBA indexColor;
}

template Boolean {
 <4885AE61-78E8-11cf-8F52-0040333594A3>
 WORD truefalse;
}

template Boolean2d {
 <4885AE63-78E8-11cf-8F52-0040333594A3>
 Boolean u;
 Boolean v;
}

template MaterialWrap {
 <4885AE60-78E8-11cf-8F52-0040333594A3>
 Boolean u;
 Boolean v;
}

template TextureFilename {
 <A42790E1-7810-11cf-8F52-0040333594A3>
 STRING filename;
}

template Material {
 <3D82AB4D-62DA-11cf-AB39-0020AF71E433>
 ColorRGBA faceColor;
 FLOAT power;
 ColorRGB specularColor;
 ColorRGB emissiveColor;
 [...]
}

template MeshFace {
 <3D82AB5F-62DA-11cf-AB39-0020AF71E433>
 DWORD nFaceVertexIndices;
 array DWORD faceVertexIndices[nFaceVertexIndices];
}

template MeshFaceWraps {
 <4885AE62-78E8-11cf-8F52-0040333594A3>
 DWORD nFaceWrapValues;
 Boolean2d faceWrapValues;
}

template MeshTextureCoords {
 <F6F23F40-7686-11cf-8F52-0040333594A3>
 DWORD nTextureCoords;
 array Coords2d textureCoords[nTextureCoords];
}

template MeshMaterialList {
 <F6F23F42-7686-11cf-8F52-0040333594A3>
 DWORD nMaterials;
 DWORD nFaceIndexes;
 array DWORD faceIndexes[nFaceIndexes];
 [Material]
}

template MeshNormals {
 <F6F23F43-7686-11cf-8F52-0040333594A3>
 DWORD nNormals;
 array Vector normals[nNormals];
 DWORD nFaceNormals;
 array MeshFace faceNormals[nFaceNormals];
}

template MeshVertexColors {
 <1630B821-7842-11cf-8F52-0040333594A3>
 DWORD nVertexColors;
 array IndexedColor vertexColors[nVertexColors];
}

template Mesh {
 <3D82AB44-62DA-11cf-AB39-0020AF71E433>
 DWORD nVertices;
 array Vector vertices[nVertices];
 DWORD nFaces;
 array MeshFace faces[nFaces];
 [...]
}

Header{
1;
0;
1;
}

Mesh {
 92;
 -4.99938;9.99938;-4.99938;,
 4.99938;9.99938;-4.99938;,
 4.99938;0.00062;-4.99938;,
 -4.99938;0.00062;-4.99938;,
 0.00629;5.00629;0.03835;,
 0.00629;4.99371;0.03835;,
 -0.00629;5.00629;0.03835;,
 -0.00629;4.99371;0.03835;,
 -4.99938;9.99938;0.00634;,
 4.99938;9.99938;0.00634;,
 4.99938;0.00062;0.00634;,
 -4.99938;0.00062;0.00634;,
 4.99938;9.99938;15.36056;,
 4.99938;0.00062;15.36056;,
 -4.99938;9.99938;15.36056;,
 -4.99938;0.00062;15.36056;,
 0.00000;24.39129;4.88880;,
 1.25901;24.39129;5.41030;,
 1.25901;9.92906;5.41030;,
 0.00000;9.92906;4.88880;,
 1.78050;24.39129;6.66931;,
 1.78050;9.92906;6.66931;,
 1.25901;24.39129;7.92831;,
 1.25901;9.92906;7.92831;,
 -0.00000;24.39129;8.44981;,
 -0.00000;9.92906;8.44981;,
 -1.25901;24.39129;7.92831;,
 -1.25901;9.92906;7.92831;,
 -1.78050;24.39129;6.66931;,
 -1.78050;9.92906;6.66931;,
 -1.25901;24.39129;5.41030;,
 -1.25901;9.92906;5.41030;,
 0.00000;24.39129;6.66931;,
 0.00000;9.92906;6.66931;,
 0.05211;5.21865;-5.02644;,
 1.83200;5.17690;-5.02536;,
 1.29122;3.92441;-5.02553;,
 1.32782;6.44503;-5.02522;,
 0.07403;6.98595;-5.02519;,
 -1.19493;6.48280;-5.02530;,
 -1.73572;5.23031;-5.02547;,
 -1.23154;3.96218;-5.02561;,
 0.02226;3.42125;-5.02563;,
 3.33297;5.11142;-5.02237;,
 2.33374;2.79712;-5.02269;,
 2.40138;7.45462;-5.02212;,
 0.08467;8.45411;-5.02207;,
 -2.26005;7.52440;-5.02226;,
 -3.25929;5.21012;-5.02258;,
 -2.32769;2.86691;-5.02284;,
 -0.01098;1.86741;-5.02289;,
 4.32653;5.03217;-5.01795;,
 3.02098;2.00840;-5.01837;,
 3.10935;8.09372;-5.01762;,
 0.08243;9.39962;-5.01755;,
 -2.98111;8.18490;-5.01780;,
 -4.28667;5.16112;-5.01822;,
 -3.06949;2.09958;-5.01855;,
 -0.04255;0.79368;-5.01862;,
 4.66142;4.95123;-5.01275;,
 3.24830;1.67832;-5.01321;,
 3.34394;8.26502;-5.01239;,
 0.06763;9.67852;-5.01233;,
 -3.24830;8.36371;-5.01259;,
 -4.66145;5.09080;-5.01305;,
 -3.34396;1.77701;-5.01341;,
 -0.06764;0.36351;-5.01348;,
 4.28664;4.88091;-5.00759;,
 2.98109;1.85713;-5.00800;,
 3.06945;7.94245;-5.00725;,
 0.04254;9.24836;-5.00718;,
 -3.02099;8.03364;-5.00744;,
 -4.32655;5.00986;-5.00785;,
 -3.10936;1.94832;-5.00819;,
 -0.08243;0.64242;-5.00825;,
 3.25926;4.83192;-5.00322;,
 2.26004;2.51763;-5.00354;,
 2.32767;7.17513;-5.00296;,
 0.01097;8.17462;-5.00292;,
 -2.33375;7.24492;-5.00311;,
 -3.33298;4.93062;-5.00343;,
 -2.40139;2.58741;-5.00368;,
 -0.08468;1.58792;-5.00373;,
 1.73570;4.81173;-5.00033;,
 1.19492;3.55923;-5.00050;,
 1.23152;6.07986;-5.00019;,
 -0.02227;6.62078;-5.00017;,
 -1.29122;6.11763;-5.00027;,
 -1.83200;4.86514;-5.00044;,
 -1.32783;3.59701;-5.00058;,
 -0.07403;3.05608;-5.00061;,
 -0.05212;4.82339;-4.99936;;
 
 100;
 4;0,1,2,3;,
 4;1,4,5,2;,
 4;4,6,7,5;,
 4;6,0,3,7;,
 4;6,4,1,0;,
 4;3,2,5,7;,
 4;8,9,10,11;,
 4;9,12,13,10;,
 4;12,14,15,13;,
 4;14,8,11,15;,
 4;14,12,9,8;,
 4;11,10,13,15;,
 4;16,17,18,19;,
 4;17,20,21,18;,
 4;20,22,23,21;,
 4;22,24,25,23;,
 4;24,26,27,25;,
 4;26,28,29,27;,
 4;28,30,31,29;,
 4;30,16,19,31;,
 3;32,17,16;,
 3;32,20,17;,
 3;32,22,20;,
 3;32,24,22;,
 3;32,26,24;,
 3;32,28,26;,
 3;32,30,28;,
 3;32,16,30;,
 3;33,19,18;,
 3;33,18,21;,
 3;33,21,23;,
 3;33,23,25;,
 3;33,25,27;,
 3;33,27,29;,
 3;33,29,31;,
 3;33,31,19;,
 3;34,35,36;,
 3;34,37,35;,
 3;34,38,37;,
 3;34,39,38;,
 3;34,40,39;,
 3;34,41,40;,
 3;34,42,41;,
 3;34,36,42;,
 4;36,35,43,44;,
 4;35,37,45,43;,
 4;37,38,46,45;,
 4;38,39,47,46;,
 4;39,40,48,47;,
 4;40,41,49,48;,
 4;41,42,50,49;,
 4;42,36,44,50;,
 4;44,43,51,52;,
 4;43,45,53,51;,
 4;45,46,54,53;,
 4;46,47,55,54;,
 4;47,48,56,55;,
 4;48,49,57,56;,
 4;49,50,58,57;,
 4;50,44,52,58;,
 4;52,51,59,60;,
 4;51,53,61,59;,
 4;53,54,62,61;,
 4;54,55,63,62;,
 4;55,56,64,63;,
 4;56,57,65,64;,
 4;57,58,66,65;,
 4;58,52,60,66;,
 4;60,59,67,68;,
 4;59,61,69,67;,
 4;61,62,70,69;,
 4;62,63,71,70;,
 4;63,64,72,71;,
 4;64,65,73,72;,
 4;65,66,74,73;,
 4;66,60,68,74;,
 4;68,67,75,76;,
 4;67,69,77,75;,
 4;69,70,78,77;,
 4;70,71,79,78;,
 4;71,72,80,79;,
 4;72,73,81,80;,
 4;73,74,82,81;,
 4;74,68,76,82;,
 4;76,75,83,84;,
 4;75,77,85,83;,
 4;77,78,86,85;,
 4;78,79,87,86;,
 4;79,80,88,87;,
 4;80,81,89,88;,
 4;81,82,90,89;,
 4;82,76,84,90;,
 3;84,83,91;,
 3;83,85,91;,
 3;85,86,91;,
 3;86,87,91;,
 3;87,88,91;,
 3;88,89,91;,
 3;89,90,91;,
 3;90,84,91;;
 
 MeshMaterialList {
  3;
  100;
  0,
  0,
  0,
  0,
  0,
  0,
  0,
  0,
  0,
  0,
  0,
  0,
  1,
  1,
  1,
  1,
  1,
  1,
  1,
  1,
  1,
  1,
  1,
  1,
  1,
  1,
  1,
  1,
  1,
  1,
  1,
  1,
  1,
  1,
  1,
  1,
  2,
  2,
  2,
  2,
  2,
  2,
  2,
  2,
  2,
  2,
  2,
  2,
  2,
  2,
  2,
  2,
  2,
  2,
  2,
  2,
  2,
  2,
  2,
  2,
  2,
  2,
  2,
  2,
  2,
  2,
  2,
  2,
  2,
  2,
  2,
  2,
  2,
  2,
  2,
  2,
  2,
  2,
  2,
  2,
  2,
  2,
  2,
  2,
  2,
  2,
  2,
  2,
  2,
  2,
  2,
  2,
  2,
  2,
  2,
  2,
  2,
  2,
  2,
  2;;
  Material {
   0.000000;0.000000;0.000000;1.000000;;
   5.000000;
   0.000000;0.000000;0.000000;;
   0.000000;0.000000;0.000000;;
  }
  Material {
   0.501961;0.501961;0.501961;1.000000;;
   5.000000;
   0.000000;0.000000;0.000000;;
   0.000000;0.000000;0.000000;;
  }
  Material {
   0.800000;0.021961;0.000000;1.000000;;
   5.000000;
   0.000000;0.000000;0.000000;;
   0.000000;0.000000;0.000000;;
  }
 }
 MeshNormals {
  91;
  0.000000;0.000000;-1.000000;,
  0.272229;0.272229;0.922921;,
  0.272229;-0.272229;0.922921;,
  -0.272229;0.272229;0.922921;,
  -0.272229;-0.272229;0.922921;,
  0.710246;0.000000;0.703953;,
  -0.710246;0.000000;0.703953;,
  0.000000;0.710246;0.703954;,
  0.000000;-0.710246;0.703954;,
  0.000000;0.000000;-1.000000;,
  1.000000;0.000000;0.000000;,
  0.000000;0.000000;1.000000;,
  -1.000000;0.000000;0.000000;,
  0.000000;1.000000;0.000000;,
  0.000000;-1.000000;-0.000000;,
  0.000000;1.000000;0.000000;,
  0.000000;0.000000;-1.000000;,
  0.707107;0.000000;-0.707107;,
  1.000000;0.000000;0.000000;,
  0.707107;0.000000;0.707107;,
  -0.000000;0.000000;1.000000;,
  -0.707107;0.000000;0.707107;,
  -1.000000;0.000000;0.000000;,
  -0.707107;0.000000;-0.707107;,
  0.000000;-1.000000;-0.000000;,
  0.000033;0.000126;-1.000000;,
  0.000904;-0.000768;-0.999999;,
  0.001303;0.000110;-0.999999;,
  0.000956;0.001025;-0.999999;,
  0.000054;0.001417;-0.999999;,
  -0.000854;0.001044;-0.999999;,
  -0.001222;0.000146;-0.999999;,
  -0.000856;-0.000737;-0.999999;,
  0.000015;-0.001110;-0.999999;,
  0.002185;-0.002061;-0.999996;,
  0.003227;0.000106;-0.999995;,
  0.002393;0.002440;-0.999994;,
  0.000090;0.003453;-0.999994;,
  -0.002207;0.002471;-0.999995;,
  -0.003078;0.000196;-0.999995;,
  -0.002138;-0.001967;-0.999996;,
  -0.000006;-0.002872;-0.999996;,
  0.006250;-0.005980;-0.999963;,
  0.010048;0.000306;-0.999949;,
  0.008025;0.008212;-0.999934;,
  0.000321;0.011772;-0.999931;,
  -0.007098;0.007943;-0.999943;,
  -0.009102;0.000524;-0.999958;,
  -0.005947;-0.005532;-0.999967;,
  -0.000038;-0.007959;-0.999968;,
  0.009503;-0.009085;-0.999914;,
  0.015636;0.000504;-0.999878;,
  0.012725;0.013061;-0.999834;,
  0.000528;0.018764;-0.999824;,
  -0.011117;0.012492;-0.999860;,
  -0.013945;0.000816;-0.999902;,
  -0.008950;-0.008326;-0.999925;,
  -0.000058;-0.011942;-0.999929;,
  0.007097;-0.007943;0.999943;,
  0.009101;-0.000524;0.999959;,
  0.005947;0.005532;0.999967;,
  0.000038;0.007959;0.999968;,
  -0.006250;0.005980;0.999963;,
  -0.010048;-0.000306;0.999950;,
  -0.008024;-0.008211;0.999934;,
  -0.000321;-0.011772;0.999931;,
  0.002207;-0.002471;0.999995;,
  0.003078;-0.000196;0.999995;,
  0.002138;0.001966;0.999996;,
  0.000006;0.002872;0.999996;,
  -0.002185;0.002061;0.999996;,
  -0.003227;-0.000106;0.999995;,
  -0.002393;-0.002440;0.999994;,
  -0.000090;-0.003453;0.999994;,
  0.000854;-0.001044;0.999999;,
  0.001222;-0.000146;0.999999;,
  0.000856;0.000737;0.999999;,
  -0.000015;0.001110;0.999999;,
  -0.000904;0.000768;0.999999;,
  -0.001303;-0.000110;0.999999;,
  -0.000956;-0.001025;0.999999;,
  -0.000054;-0.001418;0.999999;,
  -0.000033;-0.000126;1.000000;,
  0.011117;-0.012492;0.999860;,
  0.013945;-0.000815;0.999902;,
  0.008950;0.008326;0.999925;,
  0.000058;0.011943;0.999929;,
  -0.009502;0.009085;0.999914;,
  -0.015635;-0.000504;0.999878;,
  -0.012724;-0.013060;0.999834;,
  -0.000528;-0.018764;0.999824;;
  100;
  4;0,0,0,0;,
  4;5,1,2,5;,
  4;1,3,4,2;,
  4;3,6,6,4;,
  4;3,1,7,7;,
  4;8,8,2,4;,
  4;9,9,9,9;,
  4;10,10,10,10;,
  4;11,11,11,11;,
  4;12,12,12,12;,
  4;13,13,13,13;,
  4;14,14,14,14;,
  4;16,17,17,16;,
  4;17,18,18,17;,
  4;18,19,19,18;,
  4;19,20,20,19;,
  4;20,21,21,20;,
  4;21,22,22,21;,
  4;22,23,23,22;,
  4;23,16,16,23;,
  3;15,15,15;,
  3;15,15,15;,
  3;15,15,15;,
  3;15,15,15;,
  3;15,15,15;,
  3;15,15,15;,
  3;15,15,15;,
  3;15,15,15;,
  3;24,24,24;,
  3;24,24,24;,
  3;24,24,24;,
  3;24,24,24;,
  3;24,24,24;,
  3;24,24,24;,
  3;24,24,24;,
  3;24,24,24;,
  3;25,27,26;,
  3;25,28,27;,
  3;25,29,28;,
  3;25,30,29;,
  3;25,31,30;,
  3;25,32,31;,
  3;25,33,32;,
  3;25,26,33;,
  4;26,27,35,34;,
  4;27,28,36,35;,
  4;28,29,37,36;,
  4;29,30,38,37;,
  4;30,31,39,38;,
  4;31,32,40,39;,
  4;32,33,41,40;,
  4;33,26,34,41;,
  4;34,35,43,42;,
  4;35,36,44,43;,
  4;36,37,45,44;,
  4;37,38,46,45;,
  4;38,39,47,46;,
  4;39,40,48,47;,
  4;40,41,49,48;,
  4;41,34,42,49;,
  4;42,43,51,50;,
  4;43,44,52,51;,
  4;44,45,53,52;,
  4;45,46,54,53;,
  4;46,47,55,54;,
  4;47,48,56,55;,
  4;48,49,57,56;,
  4;49,42,50,57;,
  4;83,84,59,58;,
  4;84,85,60,59;,
  4;85,86,61,60;,
  4;86,87,62,61;,
  4;87,88,63,62;,
  4;88,89,64,63;,
  4;89,90,65,64;,
  4;90,83,58,65;,
  4;58,59,67,66;,
  4;59,60,68,67;,
  4;60,61,69,68;,
  4;61,62,70,69;,
  4;62,63,71,70;,
  4;63,64,72,71;,
  4;64,65,73,72;,
  4;65,58,66,73;,
  4;66,67,75,74;,
  4;67,68,76,75;,
  4;68,69,77,76;,
  4;69,70,78,77;,
  4;70,71,79,78;,
  4;71,72,80,79;,
  4;72,73,81,80;,
  4;73,66,74,81;,
  3;74,75,82;,
  3;75,76,82;,
  3;76,77,82;,
  3;77,78,82;,
  3;78,79,82;,
  3;79,80,82;,
  3;80,81,82;,
  3;81,74,82;;
 }
}
