xof 0302txt 0064
template Header {
 <3D82AB43-62DA-11cf-AB39-0020AF71E433>
 WORD major;
 WORD minor;
 DWORD flags;
}

template Vector {
 <3D82AB5E-62DA-11cf-AB39-0020AF71E433>
 FLOAT x;
 FLOAT y;
 FLOAT z;
}

template Coords2d {
 <F6F23F44-7686-11cf-8F52-0040333594A3>
 FLOAT u;
 FLOAT v;
}

template Matrix4x4 {
 <F6F23F45-7686-11cf-8F52-0040333594A3>
 array FLOAT matrix[16];
}

template ColorRGBA {
 <35FF44E0-6C7C-11cf-8F52-0040333594A3>
 FLOAT red;
 FLOAT green;
 FLOAT blue;
 FLOAT alpha;
}

template ColorRGB {
 <D3E16E81-7835-11cf-8F52-0040333594A3>
 FLOAT red;
 FLOAT green;
 FLOAT blue;
}

template IndexedColor {
 <1630B820-7842-11cf-8F52-0040333594A3>
 DWORD index;
 ColorRGBA indexColor;
}

template Boolean {
 <4885AE61-78E8-11cf-8F52-0040333594A3>
 WORD truefalse;
}

template Boolean2d {
 <4885AE63-78E8-11cf-8F52-0040333594A3>
 Boolean u;
 Boolean v;
}

template MaterialWrap {
 <4885AE60-78E8-11cf-8F52-0040333594A3>
 Boolean u;
 Boolean v;
}

template TextureFilename {
 <A42790E1-7810-11cf-8F52-0040333594A3>
 STRING filename;
}

template Material {
 <3D82AB4D-62DA-11cf-AB39-0020AF71E433>
 ColorRGBA faceColor;
 FLOAT power;
 ColorRGB specularColor;
 ColorRGB emissiveColor;
 [...]
}

template MeshFace {
 <3D82AB5F-62DA-11cf-AB39-0020AF71E433>
 DWORD nFaceVertexIndices;
 array DWORD faceVertexIndices[nFaceVertexIndices];
}

template MeshFaceWraps {
 <4885AE62-78E8-11cf-8F52-0040333594A3>
 DWORD nFaceWrapValues;
 Boolean2d faceWrapValues;
}

template MeshTextureCoords {
 <F6F23F40-7686-11cf-8F52-0040333594A3>
 DWORD nTextureCoords;
 array Coords2d textureCoords[nTextureCoords];
}

template MeshMaterialList {
 <F6F23F42-7686-11cf-8F52-0040333594A3>
 DWORD nMaterials;
 DWORD nFaceIndexes;
 array DWORD faceIndexes[nFaceIndexes];
 [Material]
}

template MeshNormals {
 <F6F23F43-7686-11cf-8F52-0040333594A3>
 DWORD nNormals;
 array Vector normals[nNormals];
 DWORD nFaceNormals;
 array MeshFace faceNormals[nFaceNormals];
}

template MeshVertexColors {
 <1630B821-7842-11cf-8F52-0040333594A3>
 DWORD nVertexColors;
 array IndexedColor vertexColors[nVertexColors];
}

template Mesh {
 <3D82AB44-62DA-11cf-AB39-0020AF71E433>
 DWORD nVertices;
 array Vector vertices[nVertices];
 DWORD nFaces;
 array MeshFace faces[nFaces];
 [...]
}

Header{
1;
0;
1;
}

Mesh {
 272;
 0.00000;134.34850;-100.00000;,
 70.71070;134.34850;-70.71070;,
 70.71070;122.28310;-70.71070;,
 0.00000;122.28310;-100.00000;,
 100.00000;134.34850;0.00000;,
 100.00000;122.28310;0.00000;,
 70.71070;134.34850;70.71070;,
 70.71070;122.28310;70.71070;,
 0.00000;134.34850;100.00000;,
 0.00000;122.28310;100.00000;,
 -70.71070;134.34850;70.71070;,
 -70.71070;122.28310;70.71070;,
 -100.00000;134.34850;0.00000;,
 -100.00000;122.28310;0.00000;,
 -70.71070;134.34850;-70.71070;,
 -70.71070;122.28310;-70.71070;,
 0.00000;134.34850;-100.00000;,
 0.00000;122.28310;-100.00000;,
 0.00000;134.34850;0.00000;,
 0.00000;134.34850;0.00000;,
 0.00000;134.34850;0.00000;,
 0.00000;134.34850;0.00000;,
 0.00000;134.34850;0.00000;,
 0.00000;134.34850;0.00000;,
 0.00000;134.34850;0.00000;,
 0.00000;134.34850;0.00000;,
 0.00000;122.28310;0.00000;,
 0.00000;122.28310;0.00000;,
 0.00000;122.28310;0.00000;,
 0.00000;122.28310;0.00000;,
 0.00000;122.28310;0.00000;,
 0.00000;122.28310;0.00000;,
 0.00000;122.28310;0.00000;,
 0.00000;122.28310;0.00000;,
 0.00000;122.38440;-21.73630;,
 15.36990;122.38440;-15.36990;,
 15.36990;0.93130;-15.36990;,
 0.00000;0.93130;-21.73630;,
 21.73630;122.38440;0.00000;,
 21.73630;0.93130;0.00000;,
 15.36990;122.38440;15.36990;,
 15.36990;0.93130;15.36990;,
 0.00000;122.38440;21.73630;,
 0.00000;0.93130;21.73630;,
 -15.36990;122.38440;15.36990;,
 -15.36990;0.93130;15.36990;,
 -21.73630;122.38440;0.00000;,
 -21.73630;0.93130;0.00000;,
 -15.36990;122.38440;-15.36990;,
 -15.36990;0.93130;-15.36990;,
 0.00000;122.38440;-21.73630;,
 0.00000;0.93130;-21.73630;,
 0.00000;122.38440;0.00000;,
 0.00000;122.38440;0.00000;,
 0.00000;122.38440;0.00000;,
 0.00000;122.38440;0.00000;,
 0.00000;122.38440;0.00000;,
 0.00000;122.38440;0.00000;,
 0.00000;122.38440;0.00000;,
 0.00000;122.38440;0.00000;,
 0.00000;0.93130;0.00000;,
 0.00000;0.93130;0.00000;,
 0.00000;0.93130;0.00000;,
 0.00000;0.93130;0.00000;,
 0.00000;0.93130;0.00000;,
 0.00000;0.93130;0.00000;,
 0.00000;0.93130;0.00000;,
 0.00000;0.93130;0.00000;,
 0.00000;4.11560;-76.77120;,
 54.28540;4.11560;-54.28540;,
 54.28540;2.53010;-54.28540;,
 0.00000;2.53010;-76.77120;,
 76.77120;4.11560;0.00000;,
 76.77120;2.53010;0.00000;,
 54.28540;4.11560;54.28540;,
 54.28540;2.53010;54.28540;,
 0.00000;4.11560;76.77120;,
 0.00000;2.53010;76.77120;,
 -54.28540;4.11560;54.28540;,
 -54.28540;2.53010;54.28540;,
 -76.77120;4.11560;0.00000;,
 -76.77120;2.53010;0.00000;,
 -54.28540;4.11560;-54.28540;,
 -54.28540;2.53010;-54.28540;,
 0.00000;4.11560;-76.77120;,
 0.00000;2.53010;-76.77120;,
 0.00000;19.46990;0.00000;,
 0.00000;19.46990;0.00000;,
 0.00000;19.46990;0.00000;,
 0.00000;19.46990;0.00000;,
 0.00000;19.46990;0.00000;,
 0.00000;19.46990;0.00000;,
 0.00000;19.46990;0.00000;,
 0.00000;19.46990;0.00000;,
 0.00000;2.53010;0.00000;,
 0.00000;2.53010;0.00000;,
 0.00000;2.53010;0.00000;,
 0.00000;2.53010;0.00000;,
 0.00000;2.53010;0.00000;,
 0.00000;2.53010;0.00000;,
 0.00000;2.53010;0.00000;,
 0.00000;2.53010;0.00000;,
 250.00000;122.38440;-21.73630;,
 265.36990;122.38440;-15.36990;,
 265.36990;0.93130;-15.36990;,
 250.00000;0.93130;-21.73630;,
 271.73630;122.38440;0.00000;,
 271.73630;0.93130;0.00000;,
 265.36990;122.38440;15.36990;,
 265.36990;0.93130;15.36990;,
 250.00000;122.38440;21.73630;,
 250.00000;0.93130;21.73630;,
 234.63010;122.38440;15.36990;,
 234.63010;0.93130;15.36990;,
 228.26370;122.38440;0.00000;,
 228.26370;0.93130;0.00000;,
 234.63010;122.38440;-15.36990;,
 234.63010;0.93130;-15.36990;,
 250.00000;122.38440;-21.73630;,
 250.00000;0.93130;-21.73630;,
 250.00000;122.38440;0.00000;,
 250.00000;122.38440;0.00000;,
 250.00000;122.38440;0.00000;,
 250.00000;122.38440;0.00000;,
 250.00000;122.38440;0.00000;,
 250.00000;122.38440;0.00000;,
 250.00000;122.38440;0.00000;,
 250.00000;122.38440;0.00000;,
 250.00000;0.93130;0.00000;,
 250.00000;0.93130;0.00000;,
 250.00000;0.93130;0.00000;,
 250.00000;0.93130;0.00000;,
 250.00000;0.93130;0.00000;,
 250.00000;0.93130;0.00000;,
 250.00000;0.93130;0.00000;,
 250.00000;0.93130;0.00000;,
 250.00000;4.11560;-76.77120;,
 304.28540;4.11560;-54.28540;,
 304.28540;2.53010;-54.28540;,
 250.00000;2.53010;-76.77120;,
 326.77121;4.11560;0.00000;,
 326.77121;2.53010;0.00000;,
 304.28540;4.11560;54.28540;,
 304.28540;2.53010;54.28540;,
 250.00000;4.11560;76.77120;,
 250.00000;2.53010;76.77120;,
 195.71460;4.11560;54.28540;,
 195.71460;2.53010;54.28540;,
 173.22881;4.11560;0.00000;,
 173.22881;2.53010;0.00000;,
 195.71460;4.11560;-54.28540;,
 195.71460;2.53010;-54.28540;,
 250.00000;4.11560;-76.77120;,
 250.00000;2.53010;-76.77120;,
 250.00000;19.46990;0.00000;,
 250.00000;19.46990;0.00000;,
 250.00000;19.46990;0.00000;,
 250.00000;19.46990;0.00000;,
 250.00000;19.46990;0.00000;,
 250.00000;19.46990;0.00000;,
 250.00000;19.46990;0.00000;,
 250.00000;19.46990;0.00000;,
 250.00000;2.53010;0.00000;,
 250.00000;2.53010;0.00000;,
 250.00000;2.53010;0.00000;,
 250.00000;2.53010;0.00000;,
 250.00000;2.53010;0.00000;,
 250.00000;2.53010;0.00000;,
 250.00000;2.53010;0.00000;,
 250.00000;2.53010;0.00000;,
 -250.00000;122.38440;-21.73630;,
 -234.63010;122.38440;-15.36990;,
 -234.63010;0.93130;-15.36990;,
 -250.00000;0.93130;-21.73630;,
 -228.26370;122.38440;0.00000;,
 -228.26370;0.93130;0.00000;,
 -234.63010;122.38440;15.36990;,
 -234.63010;0.93130;15.36990;,
 -250.00000;122.38440;21.73630;,
 -250.00000;0.93130;21.73630;,
 -265.36990;122.38440;15.36990;,
 -265.36990;0.93130;15.36990;,
 -271.73630;122.38440;0.00000;,
 -271.73630;0.93130;0.00000;,
 -265.36990;122.38440;-15.36990;,
 -265.36990;0.93130;-15.36990;,
 -250.00000;122.38440;-21.73630;,
 -250.00000;0.93130;-21.73630;,
 -250.00000;122.38440;0.00000;,
 -250.00000;122.38440;0.00000;,
 -250.00000;122.38440;0.00000;,
 -250.00000;122.38440;0.00000;,
 -250.00000;122.38440;0.00000;,
 -250.00000;122.38440;0.00000;,
 -250.00000;122.38440;0.00000;,
 -250.00000;122.38440;0.00000;,
 -250.00000;0.93130;0.00000;,
 -250.00000;0.93130;0.00000;,
 -250.00000;0.93130;0.00000;,
 -250.00000;0.93130;0.00000;,
 -250.00000;0.93130;0.00000;,
 -250.00000;0.93130;0.00000;,
 -250.00000;0.93130;0.00000;,
 -250.00000;0.93130;0.00000;,
 -250.00000;4.11560;-76.77120;,
 -195.71460;4.11560;-54.28540;,
 -195.71460;2.53010;-54.28540;,
 -250.00000;2.53010;-76.77120;,
 -173.22881;4.11560;0.00000;,
 -173.22881;2.53010;0.00000;,
 -195.71460;4.11560;54.28540;,
 -195.71460;2.53010;54.28540;,
 -250.00000;4.11560;76.77120;,
 -250.00000;2.53010;76.77120;,
 -304.28549;4.11560;54.28540;,
 -304.28549;2.53010;54.28540;,
 -326.77121;4.11560;0.00000;,
 -326.77121;2.53010;0.00000;,
 -304.28540;4.11560;-54.28540;,
 -304.28540;2.53010;-54.28540;,
 -250.00000;4.11560;-76.77120;,
 -250.00000;2.53010;-76.77120;,
 -250.00000;19.46990;0.00000;,
 -250.00000;19.46990;0.00000;,
 -250.00000;19.46990;0.00000;,
 -250.00000;19.46990;0.00000;,
 -250.00000;19.46990;0.00000;,
 -250.00000;19.46990;0.00000;,
 -250.00000;19.46990;0.00000;,
 -250.00000;19.46990;0.00000;,
 -250.00000;2.53010;0.00000;,
 -250.00000;2.53010;0.00000;,
 -250.00000;2.53010;0.00000;,
 -250.00000;2.53010;0.00000;,
 -250.00000;2.53010;0.00000;,
 -250.00000;2.53010;0.00000;,
 -250.00000;2.53010;0.00000;,
 -250.00000;2.53010;0.00000;,
 144.33940;134.34850;-207.53590;,
 342.50989;134.34850;-84.45820;,
 342.50989;122.28310;-84.45820;,
 144.33940;122.28310;-207.53590;,
 340.04181;134.34850;88.09390;,
 340.04181;122.28310;88.09390;,
 138.38310;134.34850;209.04140;,
 138.38310;122.28310;209.04140;,
 -144.33940;134.34850;207.53571;,
 -144.33940;122.28310;207.53571;,
 -342.51001;134.34850;84.45840;,
 -342.51001;122.28310;84.45840;,
 -340.04211;134.34850;-88.09370;,
 -340.04211;122.28310;-88.09370;,
 -138.38260;134.34850;-209.04160;,
 -138.38260;122.28310;-209.04160;,
 144.33940;134.34850;-207.53590;,
 144.33940;122.28310;-207.53590;,
 0.00010;134.34850;0.00010;,
 0.00010;134.34850;0.00010;,
 0.00010;134.34850;0.00010;,
 0.00010;134.34850;0.00010;,
 0.00010;134.34850;0.00010;,
 0.00010;134.34850;0.00010;,
 0.00010;134.34850;0.00010;,
 0.00010;134.34850;0.00010;,
 0.00010;122.28310;0.00010;,
 0.00010;122.28310;0.00010;,
 0.00010;122.28310;0.00010;,
 0.00010;122.28310;0.00010;,
 0.00010;122.28310;0.00010;,
 0.00010;122.28310;0.00010;,
 0.00010;122.28310;0.00010;,
 0.00010;122.28310;0.00010;;
 
 192;
 4;0,1,2,3;,
 4;1,4,5,2;,
 4;4,6,7,5;,
 4;6,8,9,7;,
 4;8,10,11,9;,
 4;10,12,13,11;,
 4;12,14,15,13;,
 4;14,16,17,15;,
 3;18,1,0;,
 3;19,4,1;,
 3;20,6,4;,
 3;21,8,6;,
 3;22,10,8;,
 3;23,12,10;,
 3;24,14,12;,
 3;25,16,14;,
 3;26,3,2;,
 3;27,2,5;,
 3;28,5,7;,
 3;29,7,9;,
 3;30,9,11;,
 3;31,11,13;,
 3;32,13,15;,
 3;33,15,17;,
 4;34,35,36,37;,
 4;35,38,39,36;,
 4;38,40,41,39;,
 4;40,42,43,41;,
 4;42,44,45,43;,
 4;44,46,47,45;,
 4;46,48,49,47;,
 4;48,50,51,49;,
 3;52,35,34;,
 3;53,38,35;,
 3;54,40,38;,
 3;55,42,40;,
 3;56,44,42;,
 3;57,46,44;,
 3;58,48,46;,
 3;59,50,48;,
 3;60,37,36;,
 3;61,36,39;,
 3;62,39,41;,
 3;63,41,43;,
 3;64,43,45;,
 3;65,45,47;,
 3;66,47,49;,
 3;67,49,51;,
 4;68,69,70,71;,
 4;69,72,73,70;,
 4;72,74,75,73;,
 4;74,76,77,75;,
 4;76,78,79,77;,
 4;78,80,81,79;,
 4;80,82,83,81;,
 4;82,84,85,83;,
 3;86,69,68;,
 3;87,72,69;,
 3;88,74,72;,
 3;89,76,74;,
 3;90,78,76;,
 3;91,80,78;,
 3;92,82,80;,
 3;93,84,82;,
 3;94,71,70;,
 3;95,70,73;,
 3;96,73,75;,
 3;97,75,77;,
 3;98,77,79;,
 3;99,79,81;,
 3;100,81,83;,
 3;101,83,85;,
 4;102,103,104,105;,
 4;103,106,107,104;,
 4;106,108,109,107;,
 4;108,110,111,109;,
 4;110,112,113,111;,
 4;112,114,115,113;,
 4;114,116,117,115;,
 4;116,118,119,117;,
 3;120,103,102;,
 3;121,106,103;,
 3;122,108,106;,
 3;123,110,108;,
 3;124,112,110;,
 3;125,114,112;,
 3;126,116,114;,
 3;127,118,116;,
 3;128,105,104;,
 3;129,104,107;,
 3;130,107,109;,
 3;131,109,111;,
 3;132,111,113;,
 3;133,113,115;,
 3;134,115,117;,
 3;135,117,119;,
 4;136,137,138,139;,
 4;137,140,141,138;,
 4;140,142,143,141;,
 4;142,144,145,143;,
 4;144,146,147,145;,
 4;146,148,149,147;,
 4;148,150,151,149;,
 4;150,152,153,151;,
 3;154,137,136;,
 3;155,140,137;,
 3;156,142,140;,
 3;157,144,142;,
 3;158,146,144;,
 3;159,148,146;,
 3;160,150,148;,
 3;161,152,150;,
 3;162,139,138;,
 3;163,138,141;,
 3;164,141,143;,
 3;165,143,145;,
 3;166,145,147;,
 3;167,147,149;,
 3;168,149,151;,
 3;169,151,153;,
 4;170,171,172,173;,
 4;171,174,175,172;,
 4;174,176,177,175;,
 4;176,178,179,177;,
 4;178,180,181,179;,
 4;180,182,183,181;,
 4;182,184,185,183;,
 4;184,186,187,185;,
 3;188,171,170;,
 3;189,174,171;,
 3;190,176,174;,
 3;191,178,176;,
 3;192,180,178;,
 3;193,182,180;,
 3;194,184,182;,
 3;195,186,184;,
 3;196,173,172;,
 3;197,172,175;,
 3;198,175,177;,
 3;199,177,179;,
 3;200,179,181;,
 3;201,181,183;,
 3;202,183,185;,
 3;203,185,187;,
 4;204,205,206,207;,
 4;205,208,209,206;,
 4;208,210,211,209;,
 4;210,212,213,211;,
 4;212,214,215,213;,
 4;214,216,217,215;,
 4;216,218,219,217;,
 4;218,220,221,219;,
 3;222,205,204;,
 3;223,208,205;,
 3;224,210,208;,
 3;225,212,210;,
 3;226,214,212;,
 3;227,216,214;,
 3;228,218,216;,
 3;229,220,218;,
 3;230,207,206;,
 3;231,206,209;,
 3;232,209,211;,
 3;233,211,213;,
 3;234,213,215;,
 3;235,215,217;,
 3;236,217,219;,
 3;237,219,221;,
 4;238,239,240,241;,
 4;239,242,243,240;,
 4;242,244,245,243;,
 4;244,246,247,245;,
 4;246,248,249,247;,
 4;248,250,251,249;,
 4;250,252,253,251;,
 4;252,254,255,253;,
 3;256,239,238;,
 3;257,242,239;,
 3;258,244,242;,
 3;259,246,244;,
 3;260,248,246;,
 3;261,250,248;,
 3;262,252,250;,
 3;263,254,252;,
 3;264,241,240;,
 3;265,240,243;,
 3;266,243,245;,
 3;267,245,247;,
 3;268,247,249;,
 3;269,249,251;,
 3;270,251,253;,
 3;271,253,255;;
 
 MeshMaterialList {
  1;
  192;
  0,
  0,
  0,
  0,
  0,
  0,
  0,
  0,
  0,
  0,
  0,
  0,
  0,
  0,
  0,
  0,
  0,
  0,
  0,
  0,
  0,
  0,
  0,
  0,
  0,
  0,
  0,
  0,
  0,
  0,
  0,
  0,
  0,
  0,
  0,
  0,
  0,
  0,
  0,
  0,
  0,
  0,
  0,
  0,
  0,
  0,
  0,
  0,
  0,
  0,
  0,
  0,
  0,
  0,
  0,
  0,
  0,
  0,
  0,
  0,
  0,
  0,
  0,
  0,
  0,
  0,
  0,
  0,
  0,
  0,
  0,
  0,
  0,
  0,
  0,
  0,
  0,
  0,
  0,
  0,
  0,
  0,
  0,
  0,
  0,
  0,
  0,
  0,
  0,
  0,
  0,
  0,
  0,
  0,
  0,
  0,
  0,
  0,
  0,
  0,
  0,
  0,
  0,
  0,
  0,
  0,
  0,
  0,
  0,
  0,
  0,
  0,
  0,
  0,
  0,
  0,
  0,
  0,
  0,
  0,
  0,
  0,
  0,
  0,
  0,
  0,
  0,
  0,
  0,
  0,
  0,
  0,
  0,
  0,
  0,
  0,
  0,
  0,
  0,
  0,
  0,
  0,
  0,
  0,
  0,
  0,
  0,
  0,
  0,
  0,
  0,
  0,
  0,
  0,
  0,
  0,
  0,
  0,
  0,
  0,
  0,
  0,
  0,
  0,
  0,
  0,
  0,
  0,
  0,
  0,
  0,
  0,
  0,
  0,
  0,
  0,
  0,
  0,
  0,
  0,
  0,
  0,
  0,
  0,
  0,
  0,
  0,
  0,
  0,
  0,
  0,
  0;;
  Material {
   1.000000;1.000000;1.000000;1.000000;;
   0.000000;
   0.000000;0.000000;0.000000;;
   0.000000;0.000000;0.000000;;
  }
 }
 MeshNormals {
  102;
  0.000000;1.000000;0.000000;,
  0.000000;0.000000;-1.000000;,
  0.707107;0.000000;-0.707107;,
  1.000000;0.000000;0.000000;,
  0.707107;0.000000;0.707107;,
  0.000000;0.000000;1.000000;,
  -0.707107;0.000000;0.707107;,
  -1.000000;0.000000;0.000000;,
  -0.707107;0.000000;-0.707107;,
  0.000000;-1.000000;-0.000000;,
  0.000000;1.000000;0.000000;,
  0.000000;0.000000;-1.000000;,
  0.707107;0.000000;-0.707107;,
  1.000000;0.000000;0.000000;,
  0.707107;0.000000;0.707107;,
  0.000000;0.000000;1.000000;,
  -0.707107;0.000000;0.707107;,
  -1.000000;0.000000;0.000000;,
  -0.707107;0.000000;-0.707107;,
  0.000000;-1.000000;-0.000000;,
  -0.000000;1.000000;0.000000;,
  0.000000;0.000000;-1.000000;,
  0.707107;0.000000;-0.707107;,
  1.000000;0.000000;0.000000;,
  0.707107;0.000000;0.707107;,
  0.000000;0.000000;1.000000;,
  -0.707107;0.000000;0.707107;,
  -1.000000;0.000000;0.000000;,
  -0.707107;0.000000;-0.707107;,
  0.000000;-1.000000;-0.000000;,
  0.138676;0.980580;-0.138676;,
  0.000000;0.980581;-0.196117;,
  0.196117;0.980581;0.000000;,
  0.138676;0.980580;0.138676;,
  0.000000;0.980581;0.196117;,
  -0.138676;0.980580;0.138676;,
  -0.196117;0.980581;0.000000;,
  -0.138676;0.980580;-0.138676;,
  0.000000;1.000000;0.000000;,
  0.000000;0.000000;-1.000000;,
  0.707107;0.000000;-0.707107;,
  1.000000;0.000000;0.000000;,
  0.707107;0.000000;0.707107;,
  0.000000;0.000000;1.000000;,
  -0.707107;0.000000;0.707107;,
  -1.000000;0.000000;0.000000;,
  -0.707107;0.000000;-0.707107;,
  0.000000;-1.000000;-0.000000;,
  -0.000000;1.000000;0.000000;,
  0.000000;0.000000;-1.000000;,
  0.707107;0.000000;-0.707107;,
  1.000000;0.000000;0.000000;,
  0.707107;0.000000;0.707107;,
  0.000000;0.000000;1.000000;,
  -0.707107;0.000000;0.707107;,
  -1.000000;0.000000;0.000000;,
  -0.707107;0.000000;-0.707107;,
  0.138676;0.980580;-0.138676;,
  0.000000;0.980581;-0.196117;,
  0.196117;0.980581;0.000000;,
  0.138676;0.980580;0.138676;,
  0.000000;0.980581;0.196117;,
  -0.138676;0.980580;0.138676;,
  -0.196117;0.980581;0.000000;,
  -0.138676;0.980580;-0.138676;,
  0.000000;1.000000;0.000000;,
  0.000000;0.000000;-1.000000;,
  0.707107;0.000000;-0.707107;,
  1.000000;0.000000;0.000000;,
  0.707107;0.000000;0.707107;,
  0.000000;0.000000;1.000000;,
  -0.707107;0.000000;0.707107;,
  -1.000000;0.000000;0.000000;,
  -0.707107;0.000000;-0.707107;,
  0.000000;-1.000000;-0.000000;,
  0.000000;1.000000;-0.000000;,
  0.000000;0.000000;-1.000000;,
  0.707107;0.000000;-0.707107;,
  1.000000;0.000000;0.000000;,
  0.707107;0.000000;0.707107;,
  0.000000;0.000000;1.000000;,
  -0.707107;0.000000;0.707106;,
  -1.000000;0.000000;-0.000001;,
  -0.707107;0.000000;-0.707107;,
  0.138676;0.980580;-0.138676;,
  0.000000;0.980581;-0.196117;,
  0.196117;0.980581;0.000000;,
  0.138676;0.980580;0.138676;,
  0.000000;0.980581;0.196117;,
  -0.138676;0.980581;0.138676;,
  -0.196117;0.980581;-0.000000;,
  -0.138676;0.980580;-0.138676;,
  0.000000;1.000000;0.000000;,
  0.276881;0.000000;-0.960904;,
  0.877409;0.000000;-0.479744;,
  0.866611;0.000000;0.498985;,
  0.264282;0.000000;0.964445;,
  -0.276880;0.000000;0.960904;,
  -0.877408;0.000000;0.479745;,
  -0.866611;0.000000;-0.498984;,
  -0.264282;0.000000;-0.964445;,
  0.000000;-1.000000;-0.000000;;
  192;
  4;1,2,2,1;,
  4;2,3,3,2;,
  4;3,4,4,3;,
  4;4,5,5,4;,
  4;5,6,6,5;,
  4;6,7,7,6;,
  4;7,8,8,7;,
  4;8,1,1,8;,
  3;0,0,0;,
  3;0,0,0;,
  3;0,0,0;,
  3;0,0,0;,
  3;0,0,0;,
  3;0,0,0;,
  3;0,0,0;,
  3;0,0,0;,
  3;9,9,9;,
  3;9,9,9;,
  3;9,9,9;,
  3;9,9,9;,
  3;9,9,9;,
  3;9,9,9;,
  3;9,9,9;,
  3;9,9,9;,
  4;11,12,12,11;,
  4;12,13,13,12;,
  4;13,14,14,13;,
  4;14,15,15,14;,
  4;15,16,16,15;,
  4;16,17,17,16;,
  4;17,18,18,17;,
  4;18,11,11,18;,
  3;10,10,10;,
  3;10,10,10;,
  3;10,10,10;,
  3;10,10,10;,
  3;10,10,10;,
  3;10,10,10;,
  3;10,10,10;,
  3;10,10,10;,
  3;19,19,19;,
  3;19,19,19;,
  3;19,19,19;,
  3;19,19,19;,
  3;19,19,19;,
  3;19,19,19;,
  3;19,19,19;,
  3;19,19,19;,
  4;21,22,22,21;,
  4;22,23,23,22;,
  4;23,24,24,23;,
  4;24,25,25,24;,
  4;25,26,26,25;,
  4;26,27,27,26;,
  4;27,28,28,27;,
  4;28,21,21,28;,
  3;20,30,31;,
  3;20,32,30;,
  3;20,33,32;,
  3;20,34,33;,
  3;20,35,34;,
  3;20,36,35;,
  3;20,37,36;,
  3;20,31,37;,
  3;29,29,29;,
  3;29,29,29;,
  3;29,29,29;,
  3;29,29,29;,
  3;29,29,29;,
  3;29,29,29;,
  3;29,29,29;,
  3;29,29,29;,
  4;39,40,40,39;,
  4;40,41,41,40;,
  4;41,42,42,41;,
  4;42,43,43,42;,
  4;43,44,44,43;,
  4;44,45,45,44;,
  4;45,46,46,45;,
  4;46,39,39,46;,
  3;38,38,38;,
  3;38,38,38;,
  3;38,38,38;,
  3;38,38,38;,
  3;38,38,38;,
  3;38,38,38;,
  3;38,38,38;,
  3;38,38,38;,
  3;47,47,47;,
  3;47,47,47;,
  3;47,47,47;,
  3;47,47,47;,
  3;47,47,47;,
  3;47,47,47;,
  3;47,47,47;,
  3;47,47,47;,
  4;49,50,50,49;,
  4;50,51,51,50;,
  4;51,52,52,51;,
  4;52,53,53,52;,
  4;53,54,54,53;,
  4;54,55,55,54;,
  4;55,56,56,55;,
  4;56,49,49,56;,
  3;48,57,58;,
  3;48,59,57;,
  3;48,60,59;,
  3;48,61,60;,
  3;48,62,61;,
  3;48,63,62;,
  3;48,64,63;,
  3;48,58,64;,
  3;47,47,47;,
  3;47,47,47;,
  3;47,47,47;,
  3;47,47,47;,
  3;47,47,47;,
  3;47,47,47;,
  3;47,47,47;,
  3;47,47,47;,
  4;66,67,67,66;,
  4;67,68,68,67;,
  4;68,69,69,68;,
  4;69,70,70,69;,
  4;70,71,71,70;,
  4;71,72,72,71;,
  4;72,73,73,72;,
  4;73,66,66,73;,
  3;65,65,65;,
  3;65,65,65;,
  3;65,65,65;,
  3;65,65,65;,
  3;65,65,65;,
  3;65,65,65;,
  3;65,65,65;,
  3;65,65,65;,
  3;74,74,74;,
  3;74,74,74;,
  3;74,74,74;,
  3;74,74,74;,
  3;74,74,74;,
  3;74,74,74;,
  3;74,74,74;,
  3;74,74,74;,
  4;76,77,77,76;,
  4;77,78,78,77;,
  4;78,79,79,78;,
  4;79,80,80,79;,
  4;80,81,81,80;,
  4;81,82,82,81;,
  4;82,83,83,82;,
  4;83,76,76,83;,
  3;75,84,85;,
  3;75,86,84;,
  3;75,87,86;,
  3;75,88,87;,
  3;75,89,88;,
  3;75,90,89;,
  3;75,91,90;,
  3;75,85,91;,
  3;74,74,74;,
  3;74,74,74;,
  3;74,74,74;,
  3;74,74,74;,
  3;74,74,74;,
  3;74,74,74;,
  3;74,74,74;,
  3;74,74,74;,
  4;93,94,94,93;,
  4;94,95,95,94;,
  4;95,96,96,95;,
  4;96,97,97,96;,
  4;97,98,98,97;,
  4;98,99,99,98;,
  4;99,100,100,99;,
  4;100,93,93,100;,
  3;92,92,92;,
  3;92,92,92;,
  3;92,92,92;,
  3;92,92,92;,
  3;92,92,92;,
  3;92,92,92;,
  3;92,92,92;,
  3;92,92,92;,
  3;101,101,101;,
  3;101,101,101;,
  3;101,101,101;,
  3;101,101,101;,
  3;101,101,101;,
  3;101,101,101;,
  3;101,101,101;,
  3;101,101,101;;
 }
 MeshTextureCoords {
  272;
  0.000000;0.000000;,
  0.125000;0.000000;,
  0.125000;1.000000;,
  0.000000;1.000000;,
  0.250000;0.000000;,
  0.250000;1.000000;,
  0.375000;0.000000;,
  0.375000;1.000000;,
  0.500000;0.000000;,
  0.500000;1.000000;,
  0.625000;0.000000;,
  0.625000;1.000000;,
  0.750000;0.000000;,
  0.750000;1.000000;,
  0.875000;0.000000;,
  0.875000;1.000000;,
  1.000000;0.000000;,
  1.000000;1.000000;,
  0.062500;0.000000;,
  0.187500;0.000000;,
  0.312500;0.000000;,
  0.437500;0.000000;,
  0.562500;0.000000;,
  0.687500;0.000000;,
  0.812500;0.000000;,
  0.937500;0.000000;,
  0.062500;1.000000;,
  0.187500;1.000000;,
  0.312500;1.000000;,
  0.437500;1.000000;,
  0.562500;1.000000;,
  0.687500;1.000000;,
  0.812500;1.000000;,
  0.937500;1.000000;,
  0.000000;0.000000;,
  0.125000;0.000000;,
  0.125000;1.000000;,
  0.000000;1.000000;,
  0.250000;0.000000;,
  0.250000;1.000000;,
  0.375000;0.000000;,
  0.375000;1.000000;,
  0.500000;0.000000;,
  0.500000;1.000000;,
  0.625000;0.000000;,
  0.625000;1.000000;,
  0.750000;0.000000;,
  0.750000;1.000000;,
  0.875000;0.000000;,
  0.875000;1.000000;,
  1.000000;0.000000;,
  1.000000;1.000000;,
  0.062500;0.000000;,
  0.187500;0.000000;,
  0.312500;0.000000;,
  0.437500;0.000000;,
  0.562500;0.000000;,
  0.687500;0.000000;,
  0.812500;0.000000;,
  0.937500;0.000000;,
  0.062500;1.000000;,
  0.187500;1.000000;,
  0.312500;1.000000;,
  0.437500;1.000000;,
  0.562500;1.000000;,
  0.687500;1.000000;,
  0.812500;1.000000;,
  0.937500;1.000000;,
  0.000000;0.000000;,
  0.125000;0.000000;,
  0.125000;1.000000;,
  0.000000;1.000000;,
  0.250000;0.000000;,
  0.250000;1.000000;,
  0.375000;0.000000;,
  0.375000;1.000000;,
  0.500000;0.000000;,
  0.500000;1.000000;,
  0.625000;0.000000;,
  0.625000;1.000000;,
  0.750000;0.000000;,
  0.750000;1.000000;,
  0.875000;0.000000;,
  0.875000;1.000000;,
  1.000000;0.000000;,
  1.000000;1.000000;,
  0.062500;0.000000;,
  0.187500;0.000000;,
  0.312500;0.000000;,
  0.437500;0.000000;,
  0.562500;0.000000;,
  0.687500;0.000000;,
  0.812500;0.000000;,
  0.937500;0.000000;,
  0.062500;1.000000;,
  0.187500;1.000000;,
  0.312500;1.000000;,
  0.437500;1.000000;,
  0.562500;1.000000;,
  0.687500;1.000000;,
  0.812500;1.000000;,
  0.937500;1.000000;,
  0.000000;0.000000;,
  0.125000;0.000000;,
  0.125000;1.000000;,
  0.000000;1.000000;,
  0.250000;0.000000;,
  0.250000;1.000000;,
  0.375000;0.000000;,
  0.375000;1.000000;,
  0.500000;0.000000;,
  0.500000;1.000000;,
  0.625000;0.000000;,
  0.625000;1.000000;,
  0.750000;0.000000;,
  0.750000;1.000000;,
  0.875000;0.000000;,
  0.875000;1.000000;,
  1.000000;0.000000;,
  1.000000;1.000000;,
  0.062500;0.000000;,
  0.187500;0.000000;,
  0.312500;0.000000;,
  0.437500;0.000000;,
  0.562500;0.000000;,
  0.687500;0.000000;,
  0.812500;0.000000;,
  0.937500;0.000000;,
  0.062500;1.000000;,
  0.187500;1.000000;,
  0.312500;1.000000;,
  0.437500;1.000000;,
  0.562500;1.000000;,
  0.687500;1.000000;,
  0.812500;1.000000;,
  0.937500;1.000000;,
  0.000000;0.000000;,
  0.125000;0.000000;,
  0.125000;1.000000;,
  0.000000;1.000000;,
  0.250000;0.000000;,
  0.250000;1.000000;,
  0.375000;0.000000;,
  0.375000;1.000000;,
  0.500000;0.000000;,
  0.500000;1.000000;,
  0.625000;0.000000;,
  0.625000;1.000000;,
  0.750000;0.000000;,
  0.750000;1.000000;,
  0.875000;0.000000;,
  0.875000;1.000000;,
  1.000000;0.000000;,
  1.000000;1.000000;,
  0.062500;0.000000;,
  0.187500;0.000000;,
  0.312500;0.000000;,
  0.437500;0.000000;,
  0.562500;0.000000;,
  0.687500;0.000000;,
  0.812500;0.000000;,
  0.937500;0.000000;,
  0.062500;1.000000;,
  0.187500;1.000000;,
  0.312500;1.000000;,
  0.437500;1.000000;,
  0.562500;1.000000;,
  0.687500;1.000000;,
  0.812500;1.000000;,
  0.937500;1.000000;,
  0.000000;0.000000;,
  0.125000;0.000000;,
  0.125000;1.000000;,
  0.000000;1.000000;,
  0.250000;0.000000;,
  0.250000;1.000000;,
  0.375000;0.000000;,
  0.375000;1.000000;,
  0.500000;0.000000;,
  0.500000;1.000000;,
  0.625000;0.000000;,
  0.625000;1.000000;,
  0.750000;0.000000;,
  0.750000;1.000000;,
  0.875000;0.000000;,
  0.875000;1.000000;,
  1.000000;0.000000;,
  1.000000;1.000000;,
  0.062500;0.000000;,
  0.187500;0.000000;,
  0.312500;0.000000;,
  0.437500;0.000000;,
  0.562500;0.000000;,
  0.687500;0.000000;,
  0.812500;0.000000;,
  0.937500;0.000000;,
  0.062500;1.000000;,
  0.187500;1.000000;,
  0.312500;1.000000;,
  0.437500;1.000000;,
  0.562500;1.000000;,
  0.687500;1.000000;,
  0.812500;1.000000;,
  0.937500;1.000000;,
  0.000000;0.000000;,
  0.125000;0.000000;,
  0.125000;1.000000;,
  0.000000;1.000000;,
  0.250000;0.000000;,
  0.250000;1.000000;,
  0.375000;0.000000;,
  0.375000;1.000000;,
  0.500000;0.000000;,
  0.500000;1.000000;,
  0.625000;0.000000;,
  0.625000;1.000000;,
  0.750000;0.000000;,
  0.750000;1.000000;,
  0.875000;0.000000;,
  0.875000;1.000000;,
  1.000000;0.000000;,
  1.000000;1.000000;,
  0.062500;0.000000;,
  0.187500;0.000000;,
  0.312500;0.000000;,
  0.437500;0.000000;,
  0.562500;0.000000;,
  0.687500;0.000000;,
  0.812500;0.000000;,
  0.937500;0.000000;,
  0.062500;1.000000;,
  0.187500;1.000000;,
  0.312500;1.000000;,
  0.437500;1.000000;,
  0.562500;1.000000;,
  0.687500;1.000000;,
  0.812500;1.000000;,
  0.937500;1.000000;,
  0.000000;0.000000;,
  0.125000;0.000000;,
  0.125000;1.000000;,
  0.000000;1.000000;,
  0.250000;0.000000;,
  0.250000;1.000000;,
  0.375000;0.000000;,
  0.375000;1.000000;,
  0.500000;0.000000;,
  0.500000;1.000000;,
  0.625000;0.000000;,
  0.625000;1.000000;,
  0.750000;0.000000;,
  0.750000;1.000000;,
  0.875000;0.000000;,
  0.875000;1.000000;,
  1.000000;0.000000;,
  1.000000;1.000000;,
  0.062500;0.000000;,
  0.187500;0.000000;,
  0.312500;0.000000;,
  0.437500;0.000000;,
  0.562500;0.000000;,
  0.687500;0.000000;,
  0.812500;0.000000;,
  0.937500;0.000000;,
  0.062500;1.000000;,
  0.187500;1.000000;,
  0.312500;1.000000;,
  0.437500;1.000000;,
  0.562500;1.000000;,
  0.687500;1.000000;,
  0.812500;1.000000;,
  0.937500;1.000000;;
 }
}
