xof 0302txt 0064
template Header {
 <3D82AB43-62DA-11cf-AB39-0020AF71E433>
 WORD major;
 WORD minor;
 DWORD flags;
}

template Vector {
 <3D82AB5E-62DA-11cf-AB39-0020AF71E433>
 FLOAT x;
 FLOAT y;
 FLOAT z;
}

template Coords2d {
 <F6F23F44-7686-11cf-8F52-0040333594A3>
 FLOAT u;
 FLOAT v;
}

template Matrix4x4 {
 <F6F23F45-7686-11cf-8F52-0040333594A3>
 array FLOAT matrix[16];
}

template ColorRGBA {
 <35FF44E0-6C7C-11cf-8F52-0040333594A3>
 FLOAT red;
 FLOAT green;
 FLOAT blue;
 FLOAT alpha;
}

template ColorRGB {
 <D3E16E81-7835-11cf-8F52-0040333594A3>
 FLOAT red;
 FLOAT green;
 FLOAT blue;
}

template IndexedColor {
 <1630B820-7842-11cf-8F52-0040333594A3>
 DWORD index;
 ColorRGBA indexColor;
}

template Boolean {
 <4885AE61-78E8-11cf-8F52-0040333594A3>
 WORD truefalse;
}

template Boolean2d {
 <4885AE63-78E8-11cf-8F52-0040333594A3>
 Boolean u;
 Boolean v;
}

template MaterialWrap {
 <4885AE60-78E8-11cf-8F52-0040333594A3>
 Boolean u;
 Boolean v;
}

template TextureFilename {
 <A42790E1-7810-11cf-8F52-0040333594A3>
 STRING filename;
}

template Material {
 <3D82AB4D-62DA-11cf-AB39-0020AF71E433>
 ColorRGBA faceColor;
 FLOAT power;
 ColorRGB specularColor;
 ColorRGB emissiveColor;
 [...]
}

template MeshFace {
 <3D82AB5F-62DA-11cf-AB39-0020AF71E433>
 DWORD nFaceVertexIndices;
 array DWORD faceVertexIndices[nFaceVertexIndices];
}

template MeshFaceWraps {
 <4885AE62-78E8-11cf-8F52-0040333594A3>
 DWORD nFaceWrapValues;
 Boolean2d faceWrapValues;
}

template MeshTextureCoords {
 <F6F23F40-7686-11cf-8F52-0040333594A3>
 DWORD nTextureCoords;
 array Coords2d textureCoords[nTextureCoords];
}

template MeshMaterialList {
 <F6F23F42-7686-11cf-8F52-0040333594A3>
 DWORD nMaterials;
 DWORD nFaceIndexes;
 array DWORD faceIndexes[nFaceIndexes];
 [Material]
}

template MeshNormals {
 <F6F23F43-7686-11cf-8F52-0040333594A3>
 DWORD nNormals;
 array Vector normals[nNormals];
 DWORD nFaceNormals;
 array MeshFace faceNormals[nFaceNormals];
}

template MeshVertexColors {
 <1630B821-7842-11cf-8F52-0040333594A3>
 DWORD nVertexColors;
 array IndexedColor vertexColors[nVertexColors];
}

template Mesh {
 <3D82AB44-62DA-11cf-AB39-0020AF71E433>
 DWORD nVertices;
 array Vector vertices[nVertices];
 DWORD nFaces;
 array MeshFace faces[nFaces];
 [...]
}

Header{
1;
0;
1;
}

Mesh {
 164;
 -22.56715;255.16839;-100.46339;,
 44.12464;255.16839;-33.86154;,
 44.12464;16.83445;-33.86154;,
 -22.56715;16.83445;-100.46339;,
 44.12464;255.16839;-33.86154;,
 44.12462;255.16839;-33.86131;,
 44.12462;16.83445;-33.86131;,
 44.12464;16.83445;-33.86154;,
 44.12462;255.16839;-33.86131;,
 -22.56724;255.16839;-100.46330;,
 -22.56724;16.83445;-100.46330;,
 44.12462;16.83445;-33.86131;,
 -22.56724;255.16839;-100.46330;,
 -22.56715;255.16839;-100.46339;,
 -22.56715;16.83445;-100.46339;,
 -22.56724;16.83445;-100.46330;,
 44.12464;255.16839;-33.86154;,
 -22.56715;255.16839;-100.46339;,
 -22.56715;16.83445;-100.46339;,
 44.12464;16.83445;-33.86154;,
 -18.65702;146.24492;-96.69950;,
 -12.92422;146.24492;-90.97447;,
 -12.92422;125.75771;-90.97447;,
 -18.65702;125.75771;-96.69950;,
 -12.92422;146.24492;-90.97447;,
 -12.92422;146.24492;-90.97447;,
 -12.92422;125.75771;-90.97447;,
 -12.92422;125.75771;-90.97447;,
 -12.92422;146.24492;-90.97447;,
 -18.65702;146.24492;-96.69950;,
 -18.65702;125.75771;-96.69950;,
 -12.92422;125.75771;-90.97447;,
 -18.65702;146.24492;-96.69950;,
 -18.65702;146.24492;-96.69950;,
 -18.65702;125.75771;-96.69950;,
 -18.65702;125.75771;-96.69950;,
 -12.92422;146.24492;-90.97447;,
 -18.65702;146.24492;-96.69950;,
 -18.65702;125.75771;-96.69950;,
 -12.92422;125.75771;-90.97447;,
 -6.92542;226.27265;-85.34652;,
 27.71372;226.27265;-50.93720;,
 27.71372;221.07509;-50.93720;,
 -6.92542;221.07509;-85.34652;,
 27.71372;226.27265;-50.93720;,
 27.71372;226.27265;-50.93707;,
 27.71372;221.07509;-50.93707;,
 27.71372;221.07509;-50.93720;,
 27.71372;226.27265;-50.93707;,
 -6.92553;226.27265;-85.34659;,
 -6.92553;221.07509;-85.34659;,
 27.71372;221.07509;-50.93707;,
 -6.92553;226.27265;-85.34659;,
 -6.92542;226.27265;-85.34652;,
 -6.92542;221.07509;-85.34652;,
 -6.92553;221.07509;-85.34659;,
 27.71372;226.27265;-50.93720;,
 -6.92542;226.27265;-85.34652;,
 -6.92542;221.07509;-85.34652;,
 27.71372;221.07509;-50.93720;,
 -6.92542;217.04430;-85.34652;,
 27.71372;217.04430;-50.93720;,
 27.71372;211.84652;-50.93720;,
 -6.92542;211.84652;-85.34652;,
 27.71372;217.04430;-50.93720;,
 27.71372;217.04430;-50.93707;,
 27.71372;211.84652;-50.93707;,
 27.71372;211.84652;-50.93720;,
 27.71372;217.04430;-50.93707;,
 -6.92553;217.04430;-85.34659;,
 -6.92553;211.84652;-85.34659;,
 27.71372;211.84652;-50.93707;,
 -6.92553;217.04430;-85.34659;,
 -6.92542;217.04430;-85.34652;,
 -6.92542;211.84652;-85.34652;,
 -6.92553;211.84652;-85.34659;,
 27.71372;217.04430;-50.93720;,
 -6.92542;217.04430;-85.34652;,
 -6.92542;211.84652;-85.34652;,
 27.71372;211.84652;-50.93720;,
 -6.92542;208.07954;-85.34652;,
 27.71372;208.07954;-50.93720;,
 27.71372;202.88147;-50.93720;,
 -6.92542;202.88147;-85.34652;,
 27.71372;208.07954;-50.93720;,
 27.71372;208.07954;-50.93707;,
 27.71372;202.88147;-50.93707;,
 27.71372;202.88147;-50.93720;,
 27.71372;208.07954;-50.93707;,
 -6.92553;208.07954;-85.34659;,
 -6.92553;202.88147;-85.34659;,
 27.71372;202.88147;-50.93707;,
 -6.92553;208.07954;-85.34659;,
 -6.92542;208.07954;-85.34652;,
 -6.92542;202.88147;-85.34652;,
 -6.92553;202.88147;-85.34659;,
 27.71372;208.07954;-50.93720;,
 -6.92542;208.07954;-85.34652;,
 -6.92542;202.88147;-85.34652;,
 27.71372;202.88147;-50.93720;,
 -54.18993;271.18978;-34.56432;,
 -45.15825;271.18978;-34.56432;,
 -45.15825;248.46560;-34.84101;,
 -54.18993;248.46560;-34.84101;,
 45.15825;271.18978;-34.70262;,
 45.15825;248.46560;-34.97940;,
 54.18993;271.18978;-34.56432;,
 54.18993;248.46560;-34.84101;,
 -45.15825;21.22323;-34.70262;,
 -54.18993;21.22323;-34.70262;,
 54.18993;21.22323;-34.70262;,
 45.15825;21.22323;-34.84101;,
 -45.15825;-1.50087;-34.56432;,
 -54.18993;-1.50087;-34.56432;,
 45.15825;-1.50087;-34.70262;,
 54.18993;-1.50087;-34.56432;,
 54.18993;271.18978;-34.56432;,
 54.18993;271.18978;34.61940;,
 54.18993;248.46560;34.34268;,
 54.18993;248.46560;-34.84101;,
 54.18993;21.22323;34.48101;,
 54.18993;21.22323;-34.70262;,
 54.18993;-1.50087;34.61940;,
 54.18993;-1.50087;-34.56432;,
 54.18993;271.18978;34.61940;,
 45.15825;271.18978;34.48101;,
 45.15825;248.46560;34.20432;,
 54.18993;248.46560;34.34268;,
 -45.15825;271.18978;34.61940;,
 -45.15825;248.46560;34.34268;,
 -54.18993;271.18978;34.61940;,
 -54.18993;248.46560;34.34268;,
 45.15825;21.22323;34.34268;,
 54.18993;21.22323;34.48101;,
 -45.15825;21.22323;34.48101;,
 -54.18993;21.22323;34.48101;,
 45.15825;-1.50087;34.48101;,
 54.18993;-1.50087;34.61940;,
 -45.15825;-1.50087;34.61940;,
 -54.18993;-1.50087;34.61940;,
 -54.18993;271.18978;34.61940;,
 -54.18993;271.18978;-34.56432;,
 -54.18993;248.46560;-34.84101;,
 -54.18993;248.46560;34.34268;,
 -54.18993;21.22323;-34.70262;,
 -54.18993;21.22323;34.48101;,
 -54.18993;-1.50087;-34.56432;,
 -54.18993;-1.50087;34.61940;,
 -45.15825;271.18978;34.61940;,
 -45.15825;271.18978;-34.56432;,
 -54.18993;271.18978;-34.56432;,
 45.15825;271.18978;34.48101;,
 45.15825;271.18978;-34.70262;,
 54.18993;271.18978;-34.56432;,
 -54.18993;-1.50087;-34.56432;,
 -45.15825;-1.50087;-34.56432;,
 -45.15825;-1.50087;34.61940;,
 45.15825;-1.50087;-34.70262;,
 45.15825;-1.50087;34.48101;,
 54.18993;-1.50087;-34.56432;,
 45.26202;248.50682;32.72652;,
 -45.05454;248.50682;32.86491;,
 45.26202;21.26457;32.86491;,
 -45.05454;21.26457;33.00324;;
 
 64;
 4;0,1,2,3;,
 4;4,5,6,7;,
 4;8,9,10,11;,
 4;12,13,14,15;,
 4;12,5,16,17;,
 4;18,19,6,15;,
 4;20,21,22,23;,
 4;24,25,26,27;,
 4;28,29,30,31;,
 4;32,33,34,35;,
 4;32,25,36,37;,
 4;38,39,26,35;,
 4;40,41,42,43;,
 4;44,45,46,47;,
 4;48,49,50,51;,
 4;52,53,54,55;,
 4;52,45,56,57;,
 4;58,59,46,55;,
 4;60,61,62,63;,
 4;64,65,66,67;,
 4;68,69,70,71;,
 4;72,73,74,75;,
 4;72,65,76,77;,
 4;78,79,66,75;,
 4;80,81,82,83;,
 4;84,85,86,87;,
 4;88,89,90,91;,
 4;92,93,94,95;,
 4;92,85,96,97;,
 4;98,99,86,95;,
 4;100,101,102,103;,
 4;101,104,105,102;,
 4;104,106,107,105;,
 4;103,102,108,109;,
 4;105,107,110,111;,
 4;109,108,112,113;,
 4;108,111,114,112;,
 4;111,110,115,114;,
 4;116,117,118,119;,
 4;119,118,120,121;,
 4;121,120,122,123;,
 4;124,125,126,127;,
 4;125,128,129,126;,
 4;128,130,131,129;,
 4;127,126,132,133;,
 4;126,129,134,132;,
 4;129,131,135,134;,
 4;133,132,136,137;,
 4;132,134,138,136;,
 4;134,135,139,138;,
 4;140,141,142,143;,
 4;143,142,144,145;,
 4;145,144,146,147;,
 4;140,148,149,150;,
 4;148,151,152,149;,
 4;151,117,153,152;,
 4;154,155,156,147;,
 4;155,157,158,156;,
 4;157,159,122,158;,
 4;160,161,102,105;,
 4;162,160,105,111;,
 4;163,162,111,108;,
 4;161,163,108,102;,
 4;161,160,162,163;;
 
 MeshMaterialList {
  4;
  64;
  3,
  3,
  3,
  3,
  3,
  3,
  1,
  3,
  3,
  3,
  3,
  3,
  1,
  3,
  3,
  3,
  3,
  3,
  1,
  3,
  3,
  3,
  3,
  3,
  1,
  3,
  3,
  3,
  3,
  3,
  3,
  3,
  3,
  3,
  3,
  3,
  3,
  3,
  3,
  3,
  3,
  3,
  3,
  3,
  3,
  3,
  3,
  3,
  3,
  3,
  3,
  3,
  3,
  3,
  3,
  3,
  3,
  3,
  3,
  3,
  3,
  3,
  3,
  3;;
  Material {
   0.530400;0.530400;0.530400;1.000000;;
   5.000000;
   0.000000;0.000000;0.000000;;
   0.000000;0.000000;0.000000;;
  }
  Material {
   0.800000;0.800000;0.800000;1.000000;;
   5.000000;
   0.000000;0.000000;0.000000;;
   0.000000;0.000000;0.000000;;
  }
  Material {
   0.000000;0.000000;0.000000;1.000000;;
   5.000000;
   0.000000;0.000000;0.000000;;
   0.000000;0.000000;0.000000;;
  }
  Material {
   0.269600;0.269600;0.269600;1.000000;;
   5.000000;
   0.000000;0.000000;0.000000;;
   0.000000;0.000000;0.000000;;
  }
 }
 MeshNormals {
  56;
  0.706629;0.000000;-0.707584;,
  0.938298;0.000000;-0.345828;,
  0.996815;0.000000;0.079745;,
  -0.706630;0.000000;0.707583;,
  0.706627;0.000000;-0.707586;,
  0.000000;0.000000;0.000000;,
  -0.706627;0.000000;0.707586;,
  0.640336;0.000000;-0.768095;,
  0.923241;0.000000;-0.384220;,
  1.000000;0.000000;0.000000;,
  -0.704750;0.000000;0.709455;,
  0.640336;0.000000;-0.768095;,
  -0.704750;0.000000;0.709455;,
  0.000000;0.012175;-0.999926;,
  -0.000766;0.012176;-0.999926;,
  0.006892;0.012177;-0.999902;,
  0.000000;0.005783;-0.999983;,
  -0.000511;0.007915;-0.999969;,
  0.009702;0.007915;-0.999922;,
  0.000000;-0.003347;-0.999994;,
  -0.000511;-0.004261;-0.999991;,
  0.009702;-0.004262;-0.999944;,
  0.000000;-0.006086;-0.999981;,
  -0.000766;-0.006087;-0.999981;,
  0.006892;-0.006088;-0.999958;,
  0.015315;0.012176;-0.999809;,
  0.015318;0.005783;-0.999866;,
  0.015318;-0.003348;-0.999877;,
  0.015316;-0.006087;-0.999864;,
  -0.006893;-0.012176;0.999902;,
  0.000766;-0.012176;0.999926;,
  -0.006893;-0.005783;0.999960;,
  0.000766;-0.005784;0.999983;,
  -0.006893;0.003349;0.999971;,
  0.000766;0.003349;0.999994;,
  -0.006893;0.006088;0.999958;,
  0.000766;0.006089;0.999981;,
  0.000000;-0.012176;0.999926;,
  0.000000;-0.005784;0.999983;,
  0.000000;0.003349;0.999994;,
  0.000000;0.006090;0.999981;,
  0.000001;-1.000000;0.000609;,
  -0.000001;1.000000;-0.000611;,
  -0.999999;0.000001;0.001533;,
  -0.734099;0.000000;-0.679042;,
  0.000000;1.000000;0.000000;,
  0.000000;-1.000000;-0.000000;,
  0.571065;0.000000;-0.820905;,
  0.571064;0.000000;-0.820905;,
  -0.015318;-0.012174;0.999809;,
  -0.015317;-0.005783;0.999866;,
  -0.015317;0.003348;0.999877;,
  -0.015317;0.006088;0.999864;,
  -1.000000;0.000000;0.000000;,
  0.999999;-0.000001;-0.001532;,
  -0.001532;-0.000609;-0.999999;;
  64;
  4;0,1,1,0;,
  4;1,2,2,1;,
  4;3,3,3,3;,
  4;44,44,44,44;,
  4;45,45,45,45;,
  4;46,46,46,46;,
  4;4,4,4,4;,
  4;5,5,5,5;,
  4;6,6,6,6;,
  4;5,5,5,5;,
  4;5,5,5,5;,
  4;5,5,5,5;,
  4;7,8,8,7;,
  4;8,9,9,8;,
  4;10,10,10,10;,
  4;47,7,7,47;,
  4;45,45,45,45;,
  4;46,46,46,46;,
  4;11,8,8,11;,
  4;8,9,9,8;,
  4;12,12,12,12;,
  4;48,11,11,48;,
  4;45,45,45,45;,
  4;46,46,46,46;,
  4;11,8,8,11;,
  4;8,9,9,8;,
  4;12,12,12,12;,
  4;48,11,11,48;,
  4;45,45,45,45;,
  4;46,46,46,46;,
  4;13,14,17,16;,
  4;14,15,18,17;,
  4;15,25,26,18;,
  4;16,17,20,19;,
  4;18,26,27,21;,
  4;19,20,23,22;,
  4;20,21,24,23;,
  4;21,27,28,24;,
  4;9,9,9,9;,
  4;9,9,9,9;,
  4;9,9,9,9;,
  4;49,29,31,50;,
  4;29,30,32,31;,
  4;30,37,38,32;,
  4;50,31,33,51;,
  4;31,32,34,33;,
  4;32,38,39,34;,
  4;51,33,35,52;,
  4;33,34,36,35;,
  4;34,39,40,36;,
  4;53,53,53,53;,
  4;53,53,53,53;,
  4;53,53,53,53;,
  4;45,45,45,45;,
  4;45,45,45,45;,
  4;45,45,45,45;,
  4;46,46,46,46;,
  4;46,46,46,46;,
  4;46,46,46,46;,
  4;41,41,41,41;,
  4;43,43,43,43;,
  4;42,42,42,42;,
  4;54,54,54,54;,
  4;55,55,55,55;;
 }
 MeshTextureCoords {
  164;
  0.000000;0.000000;,
  1.000000;0.000000;,
  1.000000;1.000000;,
  0.000000;1.000000;,
  0.000000;0.000000;,
  1.000000;0.000000;,
  1.000000;1.000000;,
  0.000000;1.000000;,
  0.000000;0.000000;,
  1.000000;0.000000;,
  1.000000;1.000000;,
  0.000000;1.000000;,
  0.000000;0.000000;,
  1.000000;0.000000;,
  1.000000;1.000000;,
  0.000000;1.000000;,
  1.000000;1.000000;,
  0.000000;1.000000;,
  0.000000;0.000000;,
  1.000000;0.000000;,
  0.000000;0.000000;,
  1.000000;0.000000;,
  1.000000;1.000000;,
  0.000000;1.000000;,
  0.000000;0.000000;,
  1.000000;0.000000;,
  1.000000;1.000000;,
  0.000000;1.000000;,
  0.000000;0.000000;,
  1.000000;0.000000;,
  1.000000;1.000000;,
  0.000000;1.000000;,
  0.000000;0.000000;,
  1.000000;0.000000;,
  1.000000;1.000000;,
  0.000000;1.000000;,
  1.000000;1.000000;,
  0.000000;1.000000;,
  0.000000;0.000000;,
  1.000000;0.000000;,
  0.000000;0.000000;,
  1.000000;0.000000;,
  1.000000;1.000000;,
  0.000000;1.000000;,
  0.000000;0.000000;,
  1.000000;0.000000;,
  1.000000;1.000000;,
  0.000000;1.000000;,
  0.000000;0.000000;,
  1.000000;0.000000;,
  1.000000;1.000000;,
  0.000000;1.000000;,
  0.000000;0.000000;,
  1.000000;0.000000;,
  1.000000;1.000000;,
  0.000000;1.000000;,
  1.000000;1.000000;,
  0.000000;1.000000;,
  0.000000;0.000000;,
  1.000000;0.000000;,
  0.000000;0.000000;,
  1.000000;0.000000;,
  1.000000;1.000000;,
  0.000000;1.000000;,
  0.000000;0.000000;,
  1.000000;0.000000;,
  1.000000;1.000000;,
  0.000000;1.000000;,
  0.000000;0.000000;,
  1.000000;0.000000;,
  1.000000;1.000000;,
  0.000000;1.000000;,
  0.000000;0.000000;,
  1.000000;0.000000;,
  1.000000;1.000000;,
  0.000000;1.000000;,
  1.000000;1.000000;,
  0.000000;1.000000;,
  0.000000;0.000000;,
  1.000000;0.000000;,
  0.000000;0.000000;,
  1.000000;0.000000;,
  1.000000;1.000000;,
  0.000000;1.000000;,
  0.000000;0.000000;,
  1.000000;0.000000;,
  1.000000;1.000000;,
  0.000000;1.000000;,
  0.000000;0.000000;,
  1.000000;0.000000;,
  1.000000;1.000000;,
  0.000000;1.000000;,
  0.000000;0.000000;,
  1.000000;0.000000;,
  1.000000;1.000000;,
  0.000000;1.000000;,
  1.000000;1.000000;,
  0.000000;1.000000;,
  0.000000;0.000000;,
  1.000000;0.000000;,
  0.000000;0.000000;,
  0.333330;0.000000;,
  0.333330;0.333330;,
  0.000000;0.333330;,
  0.666670;0.000000;,
  0.666670;0.333330;,
  1.000000;0.000000;,
  1.000000;0.333330;,
  0.333330;0.666670;,
  0.000000;0.666670;,
  1.000000;0.666670;,
  0.666670;0.666670;,
  0.333330;1.000000;,
  0.000000;1.000000;,
  0.666670;1.000000;,
  1.000000;1.000000;,
  0.000000;0.000000;,
  1.000000;0.000000;,
  1.000000;0.333330;,
  0.000000;0.333330;,
  1.000000;0.666670;,
  0.000000;0.666670;,
  1.000000;1.000000;,
  0.000000;1.000000;,
  0.000000;0.000000;,
  0.333330;0.000000;,
  0.333330;0.333330;,
  0.000000;0.333330;,
  0.666670;0.000000;,
  0.666670;0.333330;,
  1.000000;0.000000;,
  1.000000;0.333330;,
  0.333330;0.666670;,
  0.000000;0.666670;,
  0.666670;0.666670;,
  1.000000;0.666670;,
  0.333330;1.000000;,
  0.000000;1.000000;,
  0.666670;1.000000;,
  1.000000;1.000000;,
  0.000000;0.000000;,
  1.000000;0.000000;,
  1.000000;0.333330;,
  0.000000;0.333330;,
  1.000000;0.666670;,
  0.000000;0.666670;,
  1.000000;1.000000;,
  0.000000;1.000000;,
  0.333330;0.000000;,
  0.333330;1.000000;,
  0.000000;1.000000;,
  0.666670;0.000000;,
  0.666670;1.000000;,
  1.000000;1.000000;,
  0.000000;0.000000;,
  0.333330;0.000000;,
  0.333330;1.000000;,
  0.666670;0.000000;,
  0.666670;1.000000;,
  1.000000;0.000000;,
  0.666670;0.333330;,
  0.333330;0.333330;,
  0.666670;0.666670;,
  0.333330;0.666670;;
 }
}
