xof 0302txt 0064
template Header {
 <3D82AB43-62DA-11cf-AB39-0020AF71E433>
 WORD major;
 WORD minor;
 DWORD flags;
}

template Vector {
 <3D82AB5E-62DA-11cf-AB39-0020AF71E433>
 FLOAT x;
 FLOAT y;
 FLOAT z;
}

template Coords2d {
 <F6F23F44-7686-11cf-8F52-0040333594A3>
 FLOAT u;
 FLOAT v;
}

template Matrix4x4 {
 <F6F23F45-7686-11cf-8F52-0040333594A3>
 array FLOAT matrix[16];
}

template ColorRGBA {
 <35FF44E0-6C7C-11cf-8F52-0040333594A3>
 FLOAT red;
 FLOAT green;
 FLOAT blue;
 FLOAT alpha;
}

template ColorRGB {
 <D3E16E81-7835-11cf-8F52-0040333594A3>
 FLOAT red;
 FLOAT green;
 FLOAT blue;
}

template IndexedColor {
 <1630B820-7842-11cf-8F52-0040333594A3>
 DWORD index;
 ColorRGBA indexColor;
}

template Boolean {
 <4885AE61-78E8-11cf-8F52-0040333594A3>
 WORD truefalse;
}

template Boolean2d {
 <4885AE63-78E8-11cf-8F52-0040333594A3>
 Boolean u;
 Boolean v;
}

template MaterialWrap {
 <4885AE60-78E8-11cf-8F52-0040333594A3>
 Boolean u;
 Boolean v;
}

template TextureFilename {
 <A42790E1-7810-11cf-8F52-0040333594A3>
 STRING filename;
}

template Material {
 <3D82AB4D-62DA-11cf-AB39-0020AF71E433>
 ColorRGBA faceColor;
 FLOAT power;
 ColorRGB specularColor;
 ColorRGB emissiveColor;
 [...]
}

template MeshFace {
 <3D82AB5F-62DA-11cf-AB39-0020AF71E433>
 DWORD nFaceVertexIndices;
 array DWORD faceVertexIndices[nFaceVertexIndices];
}

template MeshFaceWraps {
 <4885AE62-78E8-11cf-8F52-0040333594A3>
 DWORD nFaceWrapValues;
 Boolean2d faceWrapValues;
}

template MeshTextureCoords {
 <F6F23F40-7686-11cf-8F52-0040333594A3>
 DWORD nTextureCoords;
 array Coords2d textureCoords[nTextureCoords];
}

template MeshMaterialList {
 <F6F23F42-7686-11cf-8F52-0040333594A3>
 DWORD nMaterials;
 DWORD nFaceIndexes;
 array DWORD faceIndexes[nFaceIndexes];
 [Material]
}

template MeshNormals {
 <F6F23F43-7686-11cf-8F52-0040333594A3>
 DWORD nNormals;
 array Vector normals[nNormals];
 DWORD nFaceNormals;
 array MeshFace faceNormals[nFaceNormals];
}

template MeshVertexColors {
 <1630B821-7842-11cf-8F52-0040333594A3>
 DWORD nVertexColors;
 array IndexedColor vertexColors[nVertexColors];
}

template Mesh {
 <3D82AB44-62DA-11cf-AB39-0020AF71E433>
 DWORD nVertices;
 array Vector vertices[nVertices];
 DWORD nFaces;
 array MeshFace faces[nFaces];
 [...]
}

Header{
1;
0;
1;
}

Mesh {
 96;
 -186.24651;153.39371;-64.47430;,
 -150.63651;153.39371;-64.47430;,
 -150.63651;19.86380;-64.47430;,
 -186.24651;19.86380;-64.47430;,
 -150.63651;153.39371;-64.47430;,
 -150.63651;153.39371;64.47430;,
 -150.63651;19.86380;64.47430;,
 -150.63651;19.86380;-64.47430;,
 -150.63651;153.39371;64.47430;,
 -186.24651;153.39371;64.47430;,
 -186.24651;19.86380;64.47430;,
 -150.63651;19.86380;64.47430;,
 -186.24651;153.39371;64.47430;,
 -186.24651;153.39371;-64.47430;,
 -186.24651;19.86380;-64.47430;,
 -186.24651;19.86380;64.47430;,
 -150.63651;153.39371;-64.47430;,
 -186.24651;153.39371;-64.47430;,
 186.24651;153.39371;-64.47430;,
 186.24651;19.86380;-64.47430;,
 150.63651;19.86380;-64.47430;,
 150.63651;153.39371;-64.47430;,
 150.63651;153.39371;-64.47430;,
 150.63651;19.86380;-64.47430;,
 150.63651;19.86380;64.47430;,
 150.63651;153.39371;64.47430;,
 150.63651;153.39371;64.47430;,
 150.63651;19.86380;64.47430;,
 186.24651;19.86380;64.47430;,
 186.24651;153.39371;64.47430;,
 186.24651;153.39371;64.47430;,
 186.24651;19.86380;64.47430;,
 186.24651;19.86380;-64.47430;,
 186.24651;153.39371;-64.47430;,
 186.24651;153.39371;-64.47430;,
 150.63651;153.39371;-64.47430;,
 -200.02431;170.37680;-86.10290;,
 200.02431;170.37680;-86.10290;,
 200.02431;144.23849;-86.10290;,
 -200.02431;144.23849;-86.10290;,
 200.02431;170.37680;-86.10290;,
 200.02431;170.37680;86.10290;,
 200.02431;144.23849;86.10290;,
 200.02431;144.23849;-86.10290;,
 200.02431;170.37680;86.10290;,
 -200.02431;170.37680;86.10290;,
 -200.02431;144.23849;86.10290;,
 200.02431;144.23849;86.10290;,
 -200.02431;170.37680;86.10290;,
 -200.02431;170.37680;-86.10290;,
 -200.02431;144.23849;-86.10290;,
 -200.02431;144.23849;86.10290;,
 200.02431;170.37680;-86.10290;,
 -200.02431;170.37680;-86.10290;,
 -200.02431;144.23849;-86.10290;,
 200.02431;144.23849;-86.10290;,
 -154.35710;18.03660;-51.00130;,
 -182.52589;18.03660;-51.00130;,
 -186.24651;19.86380;-64.47430;,
 -150.63651;19.86380;-64.47430;,
 -154.35710;18.03660;51.00130;,
 -182.52589;18.03660;51.00130;,
 182.45580;17.93430;50.74750;,
 182.45580;17.93430;-50.74750;,
 186.24651;19.86380;-64.47430;,
 154.42720;17.93430;50.74750;,
 154.42720;17.93430;-50.74750;,
 150.63651;19.86380;-64.47430;,
 -154.35710;-0.75130;-51.00130;,
 -182.52589;-0.75130;-51.00130;,
 -154.35710;-0.75130;51.00130;,
 -182.52589;-0.75130;51.00130;,
 182.45580;-0.85360;50.74750;,
 182.45580;-0.85360;-50.74750;,
 154.42720;-0.85360;50.74750;,
 154.42720;-0.85360;-50.74750;,
 -153.56100;159.60530;31.97320;,
 153.56100;159.60530;31.97320;,
 153.56100;46.90300;31.97320;,
 -153.56100;46.90300;31.97320;,
 153.56100;159.60530;31.97320;,
 153.56100;159.60530;49.59940;,
 153.56100;46.90300;49.59940;,
 153.56100;46.90300;31.97320;,
 153.56100;159.60530;49.59940;,
 -153.56100;159.60530;49.59940;,
 -153.56100;46.90300;49.59940;,
 153.56100;46.90300;49.59940;,
 -153.56100;159.60530;49.59940;,
 -153.56100;159.60530;31.97320;,
 -153.56100;46.90300;31.97320;,
 -153.56100;46.90300;49.59940;,
 153.56100;159.60530;31.97320;,
 -153.56100;159.60530;31.97320;,
 -153.56100;46.90300;31.97320;,
 153.56100;46.90300;31.97320;;
 
 40;
 4;0,1,2,3;,
 4;4,5,6,7;,
 4;8,9,10,11;,
 4;12,13,14,15;,
 4;12,5,16,17;,
 4;18,19,20,21;,
 4;22,23,24,25;,
 4;26,27,28,29;,
 4;30,31,32,33;,
 4;30,34,35,25;,
 4;36,37,38,39;,
 4;40,41,42,43;,
 4;44,45,46,47;,
 4;48,49,50,51;,
 4;48,41,52,53;,
 4;54,55,42,51;,
 4;56,57,58,59;,
 4;60,56,59,6;,
 4;61,60,6,15;,
 4;57,61,15,58;,
 4;62,63,64,31;,
 4;65,62,31,24;,
 4;66,65,24,67;,
 4;63,66,67,64;,
 4;68,69,57,56;,
 4;70,68,56,60;,
 4;71,70,60,61;,
 4;69,71,61,57;,
 4;69,68,70,71;,
 4;72,73,63,62;,
 4;74,72,62,65;,
 4;75,74,65,66;,
 4;73,75,66,63;,
 4;73,72,74,75;,
 4;76,77,78,79;,
 4;80,81,82,83;,
 4;84,85,86,87;,
 4;88,89,90,91;,
 4;88,81,92,93;,
 4;94,95,82,91;;
 
 MeshMaterialList {
  2;
  40;
  0,
  0,
  0,
  0,
  0,
  0,
  0,
  0,
  0,
  0,
  0,
  0,
  0,
  0,
  0,
  0,
  0,
  0,
  0,
  0,
  0,
  0,
  0,
  0,
  1,
  1,
  1,
  1,
  1,
  1,
  1,
  1,
  1,
  1,
  0,
  0,
  0,
  0,
  0,
  0;;
  Material {
   0.564800;0.276000;0.163200;1.000000;;
   5.000000;
   0.000000;0.000000;0.000000;;
   0.000000;0.000000;0.000000;;
  }
  Material {
   0.144000;0.144000;0.144000;1.000000;;
   5.000000;
   0.000000;0.000000;0.000000;;
   0.000000;0.000000;0.000000;;
  }
 }
 MeshNormals {
  14;
  0.000000;0.000000;-1.000000;,
  1.000000;0.000000;0.000000;,
  0.000000;0.000000;1.000000;,
  -1.000000;0.000000;0.000000;,
  -0.226762;-0.971494;-0.069132;,
  0.226763;-0.971493;-0.069132;,
  0.226763;-0.971493;0.069132;,
  -0.226762;-0.971494;0.069132;,
  0.233782;-0.969639;-0.071737;,
  -0.233783;-0.969639;-0.071737;,
  -0.233783;-0.969639;0.071737;,
  0.233782;-0.969639;0.071737;,
  0.000000;1.000000;0.000000;,
  0.000000;-1.000000;-0.000000;;
  40;
  4;0,0,0,0;,
  4;1,1,1,1;,
  4;2,2,2,2;,
  4;3,3,3,3;,
  4;12,12,12,12;,
  4;0,0,0,0;,
  4;3,3,3,3;,
  4;2,2,2,2;,
  4;1,1,1,1;,
  4;12,12,12,12;,
  4;0,0,0,0;,
  4;1,1,1,1;,
  4;2,2,2,2;,
  4;3,3,3,3;,
  4;12,12,12,12;,
  4;13,13,13,13;,
  4;5,4,4,5;,
  4;6,5,5,6;,
  4;7,6,6,7;,
  4;4,7,7,4;,
  4;11,8,8,11;,
  4;10,11,11,10;,
  4;9,10,10,9;,
  4;8,9,9,8;,
  4;0,0,0,0;,
  4;1,1,1,1;,
  4;2,2,2,2;,
  4;3,3,3,3;,
  4;13,13,13,13;,
  4;1,1,1,1;,
  4;2,2,2,2;,
  4;3,3,3,3;,
  4;0,0,0,0;,
  4;13,13,13,13;,
  4;0,0,0,0;,
  4;1,1,1,1;,
  4;2,2,2,2;,
  4;3,3,3,3;,
  4;12,12,12,12;,
  4;13,13,13,13;;
 }
 MeshTextureCoords {
  96;
  0.000000;0.000000;,
  1.000000;0.000000;,
  1.000000;1.000000;,
  0.000000;1.000000;,
  0.000000;0.000000;,
  1.000000;0.000000;,
  1.000000;1.000000;,
  0.000000;1.000000;,
  0.000000;0.000000;,
  1.000000;0.000000;,
  1.000000;1.000000;,
  0.000000;1.000000;,
  0.000000;0.000000;,
  1.000000;0.000000;,
  1.000000;1.000000;,
  0.000000;1.000000;,
  1.000000;1.000000;,
  0.000000;1.000000;,
  0.000000;0.000000;,
  0.000000;1.000000;,
  1.000000;1.000000;,
  1.000000;0.000000;,
  0.000000;0.000000;,
  0.000000;1.000000;,
  1.000000;1.000000;,
  1.000000;0.000000;,
  0.000000;0.000000;,
  0.000000;1.000000;,
  1.000000;1.000000;,
  1.000000;0.000000;,
  0.000000;0.000000;,
  0.000000;1.000000;,
  1.000000;1.000000;,
  1.000000;0.000000;,
  0.000000;1.000000;,
  1.000000;1.000000;,
  0.000000;0.000000;,
  1.000000;0.000000;,
  1.000000;1.000000;,
  0.000000;1.000000;,
  0.000000;0.000000;,
  1.000000;0.000000;,
  1.000000;1.000000;,
  0.000000;1.000000;,
  0.000000;0.000000;,
  1.000000;0.000000;,
  1.000000;1.000000;,
  0.000000;1.000000;,
  0.000000;0.000000;,
  1.000000;0.000000;,
  1.000000;1.000000;,
  0.000000;1.000000;,
  1.000000;1.000000;,
  0.000000;1.000000;,
  0.000000;0.000000;,
  1.000000;0.000000;,
  1.000000;0.000000;,
  0.000000;0.000000;,
  0.000000;0.000000;,
  1.000000;0.000000;,
  1.000000;1.000000;,
  0.000000;1.000000;,
  0.000000;1.000000;,
  0.000000;0.000000;,
  0.000000;0.000000;,
  1.000000;1.000000;,
  1.000000;0.000000;,
  1.000000;0.000000;,
  1.000000;0.000000;,
  0.000000;0.000000;,
  1.000000;1.000000;,
  0.000000;1.000000;,
  0.000000;1.000000;,
  0.000000;0.000000;,
  1.000000;1.000000;,
  1.000000;0.000000;,
  0.000000;0.000000;,
  1.000000;0.000000;,
  1.000000;1.000000;,
  0.000000;1.000000;,
  0.000000;0.000000;,
  1.000000;0.000000;,
  1.000000;1.000000;,
  0.000000;1.000000;,
  0.000000;0.000000;,
  1.000000;0.000000;,
  1.000000;1.000000;,
  0.000000;1.000000;,
  0.000000;0.000000;,
  1.000000;0.000000;,
  1.000000;1.000000;,
  0.000000;1.000000;,
  1.000000;1.000000;,
  0.000000;1.000000;,
  0.000000;0.000000;,
  1.000000;0.000000;;
 }
}
