#---------------------------------------------------#                     Meshfield                       #---------------------------------------------------#
MESHFIELD

POS 0 0 0
BLOCKS 2 2
FIELD_SIZE 20000 0 20000
COLOR 1 1 1 1
TEXTURE -1
SPLIT_TEXTURE NO

VERTEX_HEIGHT 9
0 0 0 0 0 0 0 0 0 
END_VERTEX_HEIGHT

END_FIELD


#---------------------------------------------------#                       Model                         #---------------------------------------------------#
MODEL

POS 0 0 0
ROT 0 0 0
TYPE 134
EFFECT 0
SHADOW NO
HITBOX NO


END_MODEL


#---------------------------------------------------#                       Model                         #---------------------------------------------------#
MODEL

POS 0 0 552
ROT 0 0 0
TYPE 132
EFFECT 0
SHADOW NO
HITBOX NO


END_MODEL


#---------------------------------------------------#                       Model                         #---------------------------------------------------#
MODEL

POS 0 0 552
ROT 0 0 0
TYPE 132
EFFECT 0
SHADOW NO
HITBOX NO


END_MODEL


#---------------------------------------------------#                       Model                         #---------------------------------------------------#
MODEL

POS 0 0 -551
ROT 0 0 0
TYPE 132
EFFECT 0
SHADOW NO
HITBOX YES
HITBOX_POS 0 0.1 552
HITBOX_SIZE 227.755 4.3 1606


END_MODEL


#---------------------------------------------------#                       Model                         #---------------------------------------------------#
MODEL

POS 552 0 1
ROT 0 1.57 0
TYPE 132
EFFECT 0
SHADOW NO
HITBOX NO


END_MODEL


#---------------------------------------------------#                       Model                         #---------------------------------------------------#
MODEL

POS -550 0 0
ROT 0 -1.57 0
TYPE 132
EFFECT 0
SHADOW NO
HITBOX YES
HITBOX_POS 551 0.1 0
HITBOX_SIZE 1606.76 4.3 230


END_MODEL


#---------------------------------------------------#                       Model                         #---------------------------------------------------#
MODEL

POS 680 0 557
ROT 0 3.14159 0
TYPE 77
EFFECT 0
SHADOW NO
HITBOX YES
HITBOX_POS 0 237.563 19
HITBOX_SIZE 758.759 475.125 582.169


END_MODEL


#---------------------------------------------------#                       Model                         #---------------------------------------------------#
MODEL

POS 1438 0 557
ROT 0 3.14159 0
TYPE 77
EFFECT 0
SHADOW NO
HITBOX YES
HITBOX_POS 0 237.563 18
HITBOX_SIZE 758.759 475.125 583.169


END_MODEL


#---------------------------------------------------#                       Model                         #---------------------------------------------------#
MODEL

POS 1052 0 1
ROT 0 1.57 0
TYPE 132
EFFECT 0
SHADOW NO
HITBOX YES
HITBOX_POS 0 0.1 0
HITBOX_SIZE 503.755 4.3 232


END_MODEL


#---------------------------------------------------#                       Model                         #---------------------------------------------------#
MODEL

POS 1552 0 1
ROT 0 1.57 0
TYPE 132
EFFECT 0
SHADOW NO
HITBOX YES
HITBOX_POS 0 0.1 0
HITBOX_SIZE 506.755 4.3 232


END_MODEL


#---------------------------------------------------#                       Model                         #---------------------------------------------------#
MODEL

POS 2052 0 1
ROT 0 1.57 0
TYPE 133
EFFECT 0
SHADOW NO
HITBOX YES
HITBOX_POS 0 0.1 0
HITBOX_SIZE 503.498 4.3 232


END_MODEL


#---------------------------------------------------#                       Model                         #---------------------------------------------------#
MODEL

POS 2552 0 1
ROT 0 1.57 0
TYPE 132
EFFECT 0
SHADOW NO
HITBOX YES
HITBOX_POS 0 0.1 0
HITBOX_SIZE 504.755 4.3 232


END_MODEL


#---------------------------------------------------#                       Model                         #---------------------------------------------------#
MODEL

POS 2052 0 -497
ROT 0 0 0
TYPE 132
EFFECT 0
SHADOW NO
HITBOX YES
HITBOX_POS 0 0.1 68
HITBOX_SIZE 227.755 4.3 640


END_MODEL


#---------------------------------------------------#                       Model                         #---------------------------------------------------#
MODEL

POS 2052 0 -997
ROT 0 0 0
TYPE 132
EFFECT 0
SHADOW NO
HITBOX YES
HITBOX_POS 0 0.1 0
HITBOX_SIZE 227.755 4.3 500


END_MODEL


#---------------------------------------------------#                       Model                         #---------------------------------------------------#
MODEL

POS 0 0 -997
ROT 0 0 0
TYPE 132
EFFECT 0
SHADOW NO
HITBOX YES
HITBOX_POS 0 0.1 0
HITBOX_SIZE 227.755 4.3 500


END_MODEL


#---------------------------------------------------#                       Model                         #---------------------------------------------------#
MODEL

POS -1050 0 1
ROT 0 1.57 0
TYPE 132
EFFECT 0
SHADOW NO
HITBOX YES
HITBOX_POS 0 0.1 0
HITBOX_SIZE 502.755 4.3 230


END_MODEL


#---------------------------------------------------#                       Model                         #---------------------------------------------------#
MODEL

POS -1550 0 1
ROT 0 1.57 0
TYPE 133
EFFECT 0
SHADOW NO
HITBOX NO


END_MODEL


#---------------------------------------------------#                       Model                         #---------------------------------------------------#
MODEL

POS -2050 0 1
ROT 0 1.57 0
TYPE 132
EFFECT 0
SHADOW NO
HITBOX YES
HITBOX_POS 250 0.1 0
HITBOX_SIZE 1004.76 4.3 230


END_MODEL


#---------------------------------------------------#                       Model                         #---------------------------------------------------#
MODEL

POS -1550 0 -494
ROT 0 0 0
TYPE 132
EFFECT 0
SHADOW NO
HITBOX YES
HITBOX_POS 0 0.1 65
HITBOX_SIZE 227.755 4.3 634


END_MODEL


#---------------------------------------------------#                       Model                         #---------------------------------------------------#
MODEL

POS 2638 0 557
ROT 0 3.14159 0
TYPE 77
EFFECT 0
SHADOW NO
HITBOX YES
HITBOX_POS -12 237.563 22
HITBOX_SIZE 769.759 475.125 587.169


END_MODEL


#---------------------------------------------------#                       Model                         #---------------------------------------------------#
MODEL

POS 3395 0 557
ROT 0 3.14159 0
TYPE 77
EFFECT 0
SHADOW NO
HITBOX YES
HITBOX_POS 0 237.563 21
HITBOX_SIZE 766.759 475.125 587.169


END_MODEL


#---------------------------------------------------#                       Model                         #---------------------------------------------------#
MODEL

POS 750 0 2000
ROT 0 -1.57 0
TYPE 78
EFFECT 0
SHADOW NO
HITBOX YES
HITBOX_POS 22 348.336 0
HITBOX_SIZE 950.975 696.673 1547.18


END_MODEL


#---------------------------------------------------#                       Model                         #---------------------------------------------------#
MODEL

POS 3350 0 2000
ROT 0 1.57 0
TYPE 78
EFFECT 0
SHADOW NO
HITBOX YES
HITBOX_POS -35 348.336 0
HITBOX_SIZE 933.975 696.673 1580.18


END_MODEL


#---------------------------------------------------#                       Model                         #---------------------------------------------------#
MODEL

POS -3000 0 3500
ROT 0 -0.848 0
TYPE 64
EFFECT 0
SHADOW NO
HITBOX YES
HITBOX_POS 0 1616.7 0
HITBOX_SIZE 1970.55 3233.39 2043.89


END_MODEL


#---------------------------------------------------#                       Model                         #---------------------------------------------------#
MODEL

POS -3521 0 2798
ROT 0 0.66 0
TYPE 69
EFFECT 0
SHADOW NO
HITBOX NO


END_MODEL


#---------------------------------------------------#                       Model                         #---------------------------------------------------#
MODEL

POS -2333 0 3972
ROT 0 -1.759 0
TYPE 69
EFFECT 0
SHADOW NO
HITBOX NO


END_MODEL


#---------------------------------------------------#                       Model                         #---------------------------------------------------#
MODEL

POS -2300 0 1000
ROT 0 -1.57 0
TYPE 63
EFFECT 0
SHADOW NO
HITBOX YES
HITBOX_POS 12 283.585 0
HITBOX_SIZE 737.422 567.17 1139.63


END_MODEL


#---------------------------------------------------#                       Model                         #---------------------------------------------------#
MODEL

POS -800 0 1000
ROT 0 1.57 0
TYPE 63
EFFECT 0
SHADOW NO
HITBOX YES
HITBOX_POS -13 283.585 0
HITBOX_SIZE 743.422 567.17 1137.63


END_MODEL


#---------------------------------------------------#                       Model                         #---------------------------------------------------#
MODEL

POS -1000 0 2500
ROT 0 1.57 0
TYPE 73
EFFECT 0
SHADOW NO
HITBOX YES
HITBOX_POS 145 220.875 18
HITBOX_SIZE 947.937 441.75 1135.99


END_MODEL


#---------------------------------------------------#                       Model                         #---------------------------------------------------#
MODEL

POS -1000 0 2383
ROT 0 1.068 0
TYPE 68
EFFECT 0
SHADOW NO
HITBOX NO


END_MODEL


#---------------------------------------------------#                       Model                         #---------------------------------------------------#
MODEL

POS 2114 0 5114
ROT 0 0 0
TYPE 135
EFFECT 0
SHADOW NO
HITBOX YES
HITBOX_POS 0 0.1 0
HITBOX_SIZE 4000 4.3 10000


END_MODEL


#---------------------------------------------------#                       Model                         #---------------------------------------------------#
MODEL

POS -2113 0 5114
ROT 0 0 0
TYPE 135
EFFECT 0
SHADOW NO
HITBOX YES
HITBOX_POS 0 0.1 0
HITBOX_SIZE 4000 4.3 10000


END_MODEL


#---------------------------------------------------#                       Model                         #---------------------------------------------------#
MODEL

POS -947 0 -1205
ROT 0 1.57 0
TYPE 33
EFFECT 0
SHADOW NO
HITBOX YES
HITBOX_POS 0 989.806 0
HITBOX_SIZE 982.21 1979.61 2186.63


END_MODEL


#---------------------------------------------------#                       Model                         #---------------------------------------------------#
MODEL

POS -359 0 -787
ROT 0 1.57 0
TYPE 28
EFFECT 0
SHADOW NO
HITBOX NO


END_MODEL


#---------------------------------------------------#                       Model                         #---------------------------------------------------#
MODEL

POS -125 0 1161
ROT 0 -1.57 0
TYPE 139
EFFECT 0
SHADOW NO
HITBOX NO


END_MODEL


#---------------------------------------------------#                       Model                         #---------------------------------------------------#
MODEL

POS -125 0 2562
ROT 0 -1.57 0
TYPE 138
EFFECT 0
SHADOW NO
HITBOX NO


END_MODEL


#---------------------------------------------------#                       Model                         #---------------------------------------------------#
MODEL

POS 0 0 -1497
ROT 0 0 0
TYPE 132
EFFECT 0
SHADOW NO
HITBOX NO


END_MODEL


#---------------------------------------------------#                       Model                         #---------------------------------------------------#
MODEL

POS 0 0 -1996
ROT 0 0 0
TYPE 132
EFFECT 0
SHADOW NO
HITBOX NO


END_MODEL


#---------------------------------------------------#                       Model                         #---------------------------------------------------#
MODEL

POS 2 0 -2548
ROT 0 0 0
TYPE 134
EFFECT 0
SHADOW NO
HITBOX YES
HITBOX_POS 0 0.1 501
HITBOX_SIZE 227.755 4.3 1606.61


END_MODEL


#---------------------------------------------------#                       Model                         #---------------------------------------------------#
MODEL

POS -358 0 -1574
ROT 0 1.57 0
TYPE 28
EFFECT 0
SHADOW NO
HITBOX YES
HITBOX_POS 0 732.79 394
HITBOX_SIZE 494.091 1465.58 2137


END_MODEL


#---------------------------------------------------#                       Model                         #---------------------------------------------------#
MODEL

POS -280 0 -2268
ROT 0 0 0
TYPE 75
EFFECT 0
SHADOW NO
HITBOX NO


END_MODEL


#---------------------------------------------------#                       Model                         #---------------------------------------------------#
MODEL

POS -413 0 -2344
ROT 0 -0.691 0
TYPE 72
EFFECT 0
SHADOW NO
HITBOX YES
HITBOX_POS 0 251 0
HITBOX_SIZE 58.864 501.412 47.306


END_MODEL


#---------------------------------------------------#                       Model                         #---------------------------------------------------#
MODEL

POS 1026 0 -1277
ROT 0 0 0
TYPE 142
EFFECT 0
SHADOW NO
HITBOX YES
HITBOX_POS 0 0.1 0
HITBOX_SIZE 1844.16 4.3 2341.47


END_MODEL


#---------------------------------------------------#                       Model                         #---------------------------------------------------#
MODEL

POS 2052 0 -1497
ROT 0 0 0
TYPE 132
EFFECT 0
SHADOW NO
HITBOX NO


END_MODEL


#---------------------------------------------------#                       Model                         #---------------------------------------------------#
MODEL

POS 2052 0 -1997
ROT 0 0 0
TYPE 132
EFFECT 0
SHADOW NO
HITBOX NO


END_MODEL


#---------------------------------------------------#                       Model                         #---------------------------------------------------#
MODEL

POS 2052 0 -2549
ROT 0 0 0
TYPE 134
EFFECT 0
SHADOW NO
HITBOX NO


END_MODEL


#---------------------------------------------------#                       Model                         #---------------------------------------------------#
MODEL

POS 1503 0 -2548
ROT 0 1.57 0
TYPE 132
EFFECT 0
SHADOW NO
HITBOX NO


END_MODEL


#---------------------------------------------------#                       Model                         #---------------------------------------------------#
MODEL

POS 1003 0 -2548
ROT 0 1.57 0
TYPE 132
EFFECT 0
SHADOW NO
HITBOX NO


END_MODEL


#---------------------------------------------------#                       Model                         #---------------------------------------------------#
MODEL

POS 504 0 -2548
ROT 0 1.57 0
TYPE 132
EFFECT 0
SHADOW NO
HITBOX NO


END_MODEL


#---------------------------------------------------#                       Model                         #---------------------------------------------------#
MODEL

POS -549 0 -2547
ROT 0 1.57 0
TYPE 132
EFFECT 0
SHADOW NO
HITBOX NO


END_MODEL


#---------------------------------------------------#                       Model                         #---------------------------------------------------#
MODEL

POS -1049 0 -2547.4
ROT 0 1.57 0
TYPE 132
EFFECT 0
SHADOW NO
HITBOX NO


END_MODEL


#---------------------------------------------------#                       Model                         #---------------------------------------------------#
MODEL

POS -1550 0 -993.4
ROT 0 0 0
TYPE 132
EFFECT 0
SHADOW NO
HITBOX NO


END_MODEL


#---------------------------------------------------#                       Model                         #---------------------------------------------------#
MODEL

POS -1550 0 -1493.4
ROT 0 0 0
TYPE 132
EFFECT 0
SHADOW NO
HITBOX NO


END_MODEL


#---------------------------------------------------#                       Model                         #---------------------------------------------------#
MODEL

POS -1550 0 -1993.4
ROT 0 0 0
TYPE 132
EFFECT 0
SHADOW NO
HITBOX NO


END_MODEL


#---------------------------------------------------#                       Model                         #---------------------------------------------------#
MODEL

POS -1550 0 -2548.4
ROT 0 0 0
TYPE 134
EFFECT 0
SHADOW NO
HITBOX NO


END_MODEL


#---------------------------------------------------#                       Model                         #---------------------------------------------------#
MODEL

POS -1094 0 -3003.4
ROT 0 0 0
TYPE 34
EFFECT 0
SHADOW NO
HITBOX NO


END_MODEL


#---------------------------------------------------#                       Model                         #---------------------------------------------------#
MODEL

POS -1094 0 -3686.4
ROT 0 0 0
TYPE 34
EFFECT 0
SHADOW NO
HITBOX NO


END_MODEL


#---------------------------------------------------#                       Model                         #---------------------------------------------------#
MODEL

POS -453 0 -3002.4
ROT 0 0 0
TYPE 34
EFFECT 0
SHADOW NO
HITBOX NO


END_MODEL


#---------------------------------------------------#                       Model                         #---------------------------------------------------#
MODEL

POS -453 0 -3686.4
ROT 0 0 0
TYPE 34
EFFECT 0
SHADOW NO
HITBOX YES
HITBOX_POS -322 1619.51 343
HITBOX_SIZE 1325.29 3239.02 1371.29


END_MODEL


#---------------------------------------------------#                       Model                         #---------------------------------------------------#
MODEL

POS 1453 0 -3754.4
ROT 0 1.57 0
TYPE 33
EFFECT 0
SHADOW NO
HITBOX NO


END_MODEL


#---------------------------------------------------#                       Model                         #---------------------------------------------------#
MODEL

POS 599 0 -3754.4
ROT 0 1.57 0
TYPE 33
EFFECT 0
SHADOW NO
HITBOX YES
HITBOX_POS 428 989.806 0
HITBOX_SIZE 1831.21 1979.61 2187.63


END_MODEL


#---------------------------------------------------#                       Model                         #---------------------------------------------------#
MODEL

POS 2414 0 -786.4
ROT 0 1.57 0
TYPE 28
EFFECT 0
SHADOW NO
HITBOX NO


END_MODEL


#---------------------------------------------------#                       Model                         #---------------------------------------------------#
MODEL

POS 2414 0 -1762.4
ROT 0 1.57 0
TYPE 28
EFFECT 0
SHADOW NO
HITBOX YES
HITBOX_POS 0 732.79 488
HITBOX_SIZE 501.091 1465.58 2326.87


END_MODEL


#---------------------------------------------------#                       Model                         #---------------------------------------------------#
MODEL

POS 3148 0 -1206.4
ROT 0 1.57 0
TYPE 33
EFFECT 0
SHADOW NO
HITBOX YES
HITBOX_POS 0 989.806 0
HITBOX_SIZE 973.627 1979.61 2184.21


END_MODEL


#---------------------------------------------------#                       Model                         #---------------------------------------------------#
MODEL

POS 3052 0 1.6
ROT 0 1.57 0
TYPE 132
EFFECT 0
SHADOW NO
HITBOX NO


END_MODEL


#---------------------------------------------------#                       Model                         #---------------------------------------------------#
MODEL

POS 3195 0 1.6
ROT 0 1.57 0
TYPE 132
EFFECT 0
SHADOW NO
HITBOX NO


END_MODEL


#---------------------------------------------------#                       Model                         #---------------------------------------------------#
MODEL

POS 3746 0 -550.4
ROT 0 0 0
TYPE 132
EFFECT 0
SHADOW NO
HITBOX NO


END_MODEL


#---------------------------------------------------#                       Model                         #---------------------------------------------------#
MODEL

POS 3746 0 -1050.4
ROT 0 0 0
TYPE 132
EFFECT 0
SHADOW NO
HITBOX NO


END_MODEL


#---------------------------------------------------#                       Model                         #---------------------------------------------------#
MODEL

POS 3746 0 -1550.4
ROT 0 0 0
TYPE 132
EFFECT 0
SHADOW NO
HITBOX NO


END_MODEL


#---------------------------------------------------#                       Model                         #---------------------------------------------------#
MODEL

POS 1 0 -3095
ROT 0 0 0
TYPE 132
EFFECT 0
SHADOW NO
HITBOX NO


END_MODEL


#---------------------------------------------------#                       Model                         #---------------------------------------------------#
MODEL

POS 1 0 -3595
ROT 0 0 0
TYPE 132
EFFECT 0
SHADOW NO
HITBOX NO


END_MODEL


#---------------------------------------------------#                       Model                         #---------------------------------------------------#
MODEL

POS 1 0 -4142
ROT 0 3.14159 0
TYPE 133
EFFECT 0
SHADOW NO
HITBOX NO


END_MODEL


#---------------------------------------------------#                       Model                         #---------------------------------------------------#
MODEL

POS 1 0 -3779
ROT 0 3.14159 0
TYPE 132
EFFECT 0
SHADOW NO
HITBOX NO


END_MODEL


#---------------------------------------------------#                       Model                         #---------------------------------------------------#
MODEL

POS 1 0 -4570
ROT 0 0 0
TYPE 132
EFFECT 0
SHADOW NO
HITBOX NO


END_MODEL


#---------------------------------------------------#                       Model                         #---------------------------------------------------#
MODEL

POS -497 0 -4141
ROT 0 1.57 0
TYPE 132
EFFECT 0
SHADOW NO
HITBOX NO


END_MODEL


#---------------------------------------------------#                       Model                         #---------------------------------------------------#
MODEL

POS -997 0 -4141
ROT 0 1.57 0
TYPE 132
EFFECT 0
SHADOW NO
HITBOX NO


END_MODEL


#---------------------------------------------------#                       Model                         #---------------------------------------------------#
MODEL

POS -550 0 -4960
ROT 0 1.57 0
TYPE 132
EFFECT 0
SHADOW NO
HITBOX NO


END_MODEL


#---------------------------------------------------#                       Model                         #---------------------------------------------------#
MODEL

POS -997 0 -4960
ROT 0 1.57 0
TYPE 132
EFFECT 0
SHADOW NO
HITBOX NO


END_MODEL


#---------------------------------------------------#                       Model                         #---------------------------------------------------#
MODEL

POS -1550 0 -3100
ROT 0 0 0
TYPE 132
EFFECT 0
SHADOW NO
HITBOX NO


END_MODEL


#---------------------------------------------------#                       Model                         #---------------------------------------------------#
MODEL

POS -1550 0 -3600
ROT 0 0 0
TYPE 132
EFFECT 0
SHADOW NO
HITBOX NO


END_MODEL


#---------------------------------------------------#                       Model                         #---------------------------------------------------#
MODEL

POS -1550 0 -4142
ROT 0 0 0
TYPE 134
EFFECT 0
SHADOW NO
HITBOX NO


END_MODEL


#---------------------------------------------------#                       Model                         #---------------------------------------------------#
MODEL

POS -1550 0 -4142
ROT 0 1.57 0
TYPE 134
EFFECT 0
SHADOW NO
HITBOX NO


END_MODEL


#---------------------------------------------------#                       Model                         #---------------------------------------------------#
MODEL

POS -1550 0 -4565
ROT 0 0 0
TYPE 132
EFFECT 0
SHADOW NO
HITBOX NO


END_MODEL


#---------------------------------------------------#                       Model                         #---------------------------------------------------#
MODEL

POS -491 0 127
ROT 0 0 0
TYPE 138
EFFECT 0
SHADOW NO
HITBOX YES
HITBOX_POS 0 113.279 0
HITBOX_SIZE 702.163 226.559 24.8666


END_MODEL


#---------------------------------------------------#                       Model                         #---------------------------------------------------#
MODEL

POS -1292 0 127
ROT 0 0 0
TYPE 136
EFFECT 0
SHADOW NO
HITBOX NO


END_MODEL


#---------------------------------------------------#                       Model                         #---------------------------------------------------#
MODEL

POS -1803 0 127
ROT 0 3.14159 0
TYPE 136
EFFECT 0
SHADOW NO
HITBOX NO


END_MODEL


#---------------------------------------------------#                       Model                         #---------------------------------------------------#
MODEL

POS -1105 0 127
ROT 0 3.14159 0
TYPE 137
EFFECT 0
SHADOW NO
HITBOX NO


END_MODEL


#---------------------------------------------------#                       Model                         #---------------------------------------------------#
MODEL

POS -923 0 127
ROT 0 3.14159 0
TYPE 137
EFFECT 0
SHADOW NO
HITBOX YES
HITBOX_POS -191 113.279 0
HITBOX_SIZE 564.163 283.559 24.867


END_MODEL


#---------------------------------------------------#                       Model                         #---------------------------------------------------#
MODEL

POS -2257 0 127
ROT 0 0 0
TYPE 138
EFFECT 0
SHADOW NO
HITBOX NO


END_MODEL


#---------------------------------------------------#                       Model                         #---------------------------------------------------#
MODEL

POS -2959 0 127
ROT 0 0 0
TYPE 138
EFFECT 0
SHADOW NO
HITBOX NO


END_MODEL


#---------------------------------------------------#                       Model                         #---------------------------------------------------#
MODEL

POS -3661 0 127
ROT 0 0 0
TYPE 138
EFFECT 0
SHADOW NO
HITBOX NO


END_MODEL


#---------------------------------------------------#                       Model                         #---------------------------------------------------#
MODEL

POS -3661 0 127
ROT 0 0 0
TYPE 138
EFFECT 0
SHADOW NO
HITBOX NO


END_MODEL


#---------------------------------------------------#                       Model                         #---------------------------------------------------#
MODEL

POS -4005 0 127
ROT 0 3.14159 0
TYPE 137
EFFECT 0
SHADOW NO
HITBOX YES
HITBOX_POS 1098 113.279 0
HITBOX_SIZE 2415.16 290.559 24.8666


END_MODEL


#---------------------------------------------------#                       Model                         #---------------------------------------------------#
MODEL

POS -4098 0 1890
ROT 0 1.57 0
TYPE 140
EFFECT 0
SHADOW NO
HITBOX YES
HITBOX_POS 0 113.279 0
HITBOX_SIZE 24.867 226.559 3502.16


END_MODEL


#---------------------------------------------------#                       Model                         #---------------------------------------------------#
MODEL

POS -4098 0 5390
ROT 0 1.57 0
TYPE 140
EFFECT 0
SHADOW NO
HITBOX YES
HITBOX_POS 0 113.279 0
HITBOX_SIZE 24.867 226.559 3502.16


END_MODEL


#---------------------------------------------------#                       Model                         #---------------------------------------------------#
MODEL

POS -4098 0 8192
ROT 0 1.57 0
TYPE 139
EFFECT 0
SHADOW NO
HITBOX YES
HITBOX_POS 0 113.279 0
HITBOX_SIZE 24.867 226.559 2102.16


END_MODEL


#---------------------------------------------------#                       Model                         #---------------------------------------------------#
MODEL

POS -126 0 5381
ROT 0 1.57 0
TYPE 140
EFFECT 0
SHADOW NO
HITBOX YES
HITBOX_POS 0 113.279 0
HITBOX_SIZE 24.867 226.559 3502.16


END_MODEL


#---------------------------------------------------#                       Model                         #---------------------------------------------------#
MODEL

POS -129 0 8882
ROT 0 1.57 0
TYPE 140
EFFECT 0
SHADOW NO
HITBOX YES
HITBOX_POS 0 113.279 0
HITBOX_SIZE 24.867 226.559 3502.16


END_MODEL


#---------------------------------------------------#                       Model                         #---------------------------------------------------#
MODEL

POS 0 0 1052
ROT 0 0 0
TYPE 132
EFFECT 0
SHADOW NO
HITBOX NO


END_MODEL


#---------------------------------------------------#                       Model                         #---------------------------------------------------#
MODEL

POS 0 0 1551
ROT 0 0 0
TYPE 132
EFFECT 0
SHADOW NO
HITBOX NO


END_MODEL


#---------------------------------------------------#                       Model                         #---------------------------------------------------#
MODEL

POS 0 0 1551
ROT 0 0 0
TYPE 132
EFFECT 0
SHADOW NO
HITBOX NO


END_MODEL


#---------------------------------------------------#                       Model                         #---------------------------------------------------#
MODEL

POS 0 0 2051
ROT 0 0 0
TYPE 132
EFFECT 0
SHADOW NO
HITBOX NO


END_MODEL


#---------------------------------------------------#                       Model                         #---------------------------------------------------#
MODEL

POS 0 0 2551
ROT 0 0 0
TYPE 132
EFFECT 0
SHADOW NO
HITBOX NO


END_MODEL


#---------------------------------------------------#                       Model                         #---------------------------------------------------#
MODEL

POS 0 0 3051
ROT 0 0 0
TYPE 132
EFFECT 0
SHADOW NO
HITBOX NO


END_MODEL


#---------------------------------------------------#                       Model                         #---------------------------------------------------#
MODEL

POS 0 0 3550
ROT 0 0 0
TYPE 132
EFFECT 0
SHADOW NO
HITBOX NO


END_MODEL


#---------------------------------------------------#                       Model                         #---------------------------------------------------#
MODEL

POS 0 0 4050
ROT 0 0 0
TYPE 132
EFFECT 0
SHADOW NO
HITBOX NO


END_MODEL


#---------------------------------------------------#                       Model                         #---------------------------------------------------#
MODEL

POS 0 0 4550
ROT 0 0 0
TYPE 132
EFFECT 0
SHADOW NO
HITBOX NO


END_MODEL


#---------------------------------------------------#                       Model                         #---------------------------------------------------#
MODEL

POS 0 0 5049
ROT 0 0 0
TYPE 132
EFFECT 0
SHADOW NO
HITBOX NO


END_MODEL


#---------------------------------------------------#                       Model                         #---------------------------------------------------#
MODEL

POS 0 0 5549
ROT 0 0 0
TYPE 132
EFFECT 0
SHADOW NO
HITBOX NO


END_MODEL


#---------------------------------------------------#                       Model                         #---------------------------------------------------#
MODEL

POS 0 0 6049
ROT 0 0 0
TYPE 132
EFFECT 0
SHADOW NO
HITBOX NO


END_MODEL


#---------------------------------------------------#                       Model                         #---------------------------------------------------#
MODEL

POS 0 0 6549
ROT 0 0 0
TYPE 132
EFFECT 0
SHADOW NO
HITBOX NO


END_MODEL


#---------------------------------------------------#                       Model                         #---------------------------------------------------#
MODEL

POS 0 0 7049
ROT 0 0 0
TYPE 132
EFFECT 0
SHADOW NO
HITBOX NO


END_MODEL


#---------------------------------------------------#                       Model                         #---------------------------------------------------#
MODEL

POS 0 0 7548
ROT 0 0 0
TYPE 132
EFFECT 0
SHADOW NO
HITBOX NO


END_MODEL


#---------------------------------------------------#                       Model                         #---------------------------------------------------#
MODEL

POS 0 0 8047
ROT 0 0 0
TYPE 132
EFFECT 0
SHADOW NO
HITBOX NO


END_MODEL


#---------------------------------------------------#                       Model                         #---------------------------------------------------#
MODEL

POS 0 0 8546
ROT 0 0 0
TYPE 132
EFFECT 0
SHADOW NO
HITBOX NO


END_MODEL


#---------------------------------------------------#                       Model                         #---------------------------------------------------#
MODEL

POS 0 0 9046
ROT 0 0 0
TYPE 132
EFFECT 0
SHADOW NO
HITBOX NO


END_MODEL


#---------------------------------------------------#                       Model                         #---------------------------------------------------#
MODEL

POS 0 0 9546
ROT 0 0 0
TYPE 132
EFFECT 0
SHADOW NO
HITBOX NO


END_MODEL


#---------------------------------------------------#                       Model                         #---------------------------------------------------#
MODEL

POS 0 0 9864
ROT 0 0 0
TYPE 132
EFFECT 0
SHADOW NO
HITBOX NO


END_MODEL


#---------------------------------------------------#                       Model                         #---------------------------------------------------#
MODEL

POS -773 0 -4548
ROT 0 0 0
TYPE 143
EFFECT 0
SHADOW NO
HITBOX NO


END_MODEL


#---------------------------------------------------#                       Model                         #---------------------------------------------------#
MODEL

POS -2150 0 -601
ROT 0 0 0
TYPE 31
EFFECT 0
SHADOW NO
HITBOX NO


END_MODEL


#---------------------------------------------------#                       Model                         #---------------------------------------------------#
MODEL

POS -3123 0 -601
ROT 0 0 0
TYPE 31
EFFECT 0
SHADOW NO
HITBOX NO


END_MODEL


#---------------------------------------------------#                       Model                         #---------------------------------------------------#
MODEL

POS -3123 0 -1571
ROT 0 0 0
TYPE 31
EFFECT 0
SHADOW NO
HITBOX NO


END_MODEL


#---------------------------------------------------#                       Model                         #---------------------------------------------------#
MODEL

POS -2150 0 -1571
ROT 0 0 0
TYPE 31
EFFECT 0
SHADOW NO
HITBOX YES
HITBOX_POS -487 890.136 485
HITBOX_SIZE 1949.63 1780.27 1946.63


END_MODEL


#---------------------------------------------------#                       Model                         #---------------------------------------------------#
MODEL

POS -2756 0 -3363
ROT 0 0 0
TYPE 33
EFFECT 0
SHADOW NO
HITBOX YES
HITBOX_POS 0 989.806 0
HITBOX_SIZE 2184.21 1979.61 973.627


END_MODEL


#---------------------------------------------------#                       Model                         #---------------------------------------------------#
MODEL

POS -2756 0 -3363
ROT 0 0 0
TYPE 33
EFFECT 0
SHADOW NO
HITBOX NO


END_MODEL


#---------------------------------------------------#                       Model                         #---------------------------------------------------#
MODEL

POS -2057 0 -2231
ROT 0 0.439 0
TYPE 68
EFFECT 0
SHADOW NO
HITBOX YES
HITBOX_POS -83 349.297 -66
HITBOX_SIZE 441.364 698.594 177.306


END_MODEL


#---------------------------------------------------#                       Model                         #---------------------------------------------------#
MODEL

POS -3201 0 -2231
ROT 0 0.439 0
TYPE 68
EFFECT 0
SHADOW NO
HITBOX YES
HITBOX_POS -95 346.297 -51
HITBOX_SIZE 462.364 698.594 162.306


END_MODEL


#---------------------------------------------------#                       Model                         #---------------------------------------------------#
MODEL

POS -3999 -1 0
ROT 0 0 0
TYPE 144
EFFECT 0
SHADOW NO
HITBOX NO


END_MODEL


#---------------------------------------------------#                       Model                         #---------------------------------------------------#
MODEL

POS -3638 -1 0
ROT 0 0 0
TYPE 145
EFFECT 0
SHADOW NO
HITBOX NO


END_MODEL


#---------------------------------------------------#                       Model                         #---------------------------------------------------#
MODEL

POS -3360 -1 0
ROT 0 1.57 0
TYPE 132
EFFECT 0
SHADOW NO
HITBOX NO


END_MODEL


#---------------------------------------------------#                       Model                         #---------------------------------------------------#
MODEL

POS -2860 -1 0
ROT 0 1.57 0
TYPE 132
EFFECT 0
SHADOW NO
HITBOX NO


END_MODEL


#---------------------------------------------------#                       Model                         #---------------------------------------------------#
MODEL

POS -2550 -1 0
ROT 0 1.57 0
TYPE 132
EFFECT 0
SHADOW NO
HITBOX NO


END_MODEL


#---------------------------------------------------#                       Model                         #---------------------------------------------------#
MODEL

POS -2097 -1 -2547
ROT 0 1.57 0
TYPE 132
EFFECT 0
SHADOW NO
HITBOX NO


END_MODEL


#---------------------------------------------------#                       Model                         #---------------------------------------------------#
MODEL

POS -2597 -1 -2547
ROT 0 1.57 0
TYPE 132
EFFECT 0
SHADOW NO
HITBOX NO


END_MODEL


#---------------------------------------------------#                       Model                         #---------------------------------------------------#
MODEL

POS -3097 -1 -2547
ROT 0 1.57 0
TYPE 132
EFFECT 0
SHADOW NO
HITBOX NO


END_MODEL


#---------------------------------------------------#                       Model                         #---------------------------------------------------#
MODEL

POS -3723 0 -345
ROT 0 1.57 0
TYPE 145
EFFECT 0
SHADOW NO
HITBOX NO


END_MODEL


#---------------------------------------------------#                       Model                         #---------------------------------------------------#
MODEL

POS -3723 0 -845
ROT 0 1.57 0
TYPE 145
EFFECT 0
SHADOW NO
HITBOX NO


END_MODEL


#---------------------------------------------------#                       Model                         #---------------------------------------------------#
MODEL

POS -3723 0 -1344
ROT 0 1.57 0
TYPE 145
EFFECT 0
SHADOW NO
HITBOX NO


END_MODEL


#---------------------------------------------------#                       Model                         #---------------------------------------------------#
MODEL

POS -3723 0 -1344
ROT 0 1.57 0
TYPE 145
EFFECT 0
SHADOW NO
HITBOX NO


END_MODEL


#---------------------------------------------------#                       Model                         #---------------------------------------------------#
MODEL

POS -3723 0 -1804
ROT 0 1.57 0
TYPE 145
EFFECT 0
SHADOW NO
HITBOX NO


END_MODEL


#---------------------------------------------------#                       Model                         #---------------------------------------------------#
MODEL

POS -3999 -1 -351
ROT 0 -1.57 0
TYPE 145
EFFECT 0
SHADOW NO
HITBOX NO


END_MODEL


#---------------------------------------------------#                       Model                         #---------------------------------------------------#
MODEL

POS -3999 -1 -351
ROT 0 -1.57 0
TYPE 145
EFFECT 0
SHADOW NO
HITBOX NO


END_MODEL


#---------------------------------------------------#                       Model                         #---------------------------------------------------#
MODEL

POS -3999 -1 -851
ROT 0 -1.57 0
TYPE 145
EFFECT 0
SHADOW NO
HITBOX NO


END_MODEL


#---------------------------------------------------#                       Model                         #---------------------------------------------------#
MODEL

POS -3999 -1 -1351
ROT 0 -1.57 0
TYPE 145
EFFECT 0
SHADOW NO
HITBOX NO


END_MODEL


#---------------------------------------------------#                       Model                         #---------------------------------------------------#
MODEL

POS -3999 -1 -1811
ROT 0 -1.57 0
TYPE 145
EFFECT 0
SHADOW NO
HITBOX NO


END_MODEL


#---------------------------------------------------#                       Model                         #---------------------------------------------------#
MODEL

POS -3999 -1 -1811
ROT 0 -1.57 0
TYPE 145
EFFECT 0
SHADOW NO
HITBOX NO


END_MODEL


#---------------------------------------------------#                       Model                         #---------------------------------------------------#
MODEL

POS -3851 0 -348
ROT 0 1.57 0
TYPE 146
EFFECT 0
SHADOW NO
HITBOX NO


END_MODEL


#---------------------------------------------------#                       Model                         #---------------------------------------------------#
MODEL

POS -3851 0 -848
ROT 0 1.57 0
TYPE 146
EFFECT 0
SHADOW NO
HITBOX NO


END_MODEL


#---------------------------------------------------#                       Model                         #---------------------------------------------------#
MODEL

POS -3851 0 -1348
ROT 0 1.57 0
TYPE 146
EFFECT 0
SHADOW NO
HITBOX NO


END_MODEL


#---------------------------------------------------#                       Model                         #---------------------------------------------------#
MODEL

POS -3851 0 -1848
ROT 0 1.57 0
TYPE 146
EFFECT 0
SHADOW NO
HITBOX NO


END_MODEL


#---------------------------------------------------#                       Model                         #---------------------------------------------------#
MODEL

POS -3999 0 -2311
ROT 0 -1.57 0
TYPE 145
EFFECT 0
SHADOW NO
HITBOX NO


END_MODEL


#---------------------------------------------------#                       Model                         #---------------------------------------------------#
MODEL

POS -3722 0 -2192
ROT 0 1.57 0
TYPE 145
EFFECT 0
SHADOW NO
HITBOX NO


END_MODEL


#---------------------------------------------------#                       Model                         #---------------------------------------------------#
MODEL

POS -3374 0 -2547
ROT 0 1.57 0
TYPE 132
EFFECT 0
SHADOW NO
HITBOX NO


END_MODEL


#---------------------------------------------------#                       Model                         #---------------------------------------------------#
MODEL

POS -4000 0 -3127
ROT 0 0 0
TYPE 132
EFFECT 0
SHADOW NO
HITBOX NO


END_MODEL


#---------------------------------------------------#                       Model                         #---------------------------------------------------#
MODEL

POS -3850 0 -2348
ROT 0 1.57 0
TYPE 146
EFFECT 0
SHADOW NO
HITBOX NO


END_MODEL


#---------------------------------------------------#                       Model                         #---------------------------------------------------#
MODEL

POS -4000 0 -2904
ROT 0 0 0
TYPE 132
EFFECT 0
SHADOW NO
HITBOX NO


END_MODEL


#---------------------------------------------------#                       Model                         #---------------------------------------------------#
MODEL

POS -4000 0 -2632
ROT 0 -1.57 0
TYPE 145
EFFECT 0
SHADOW NO
HITBOX NO


END_MODEL


#---------------------------------------------------#                       Model                         #---------------------------------------------------#
MODEL

POS -2102 0 -4142
ROT 0 1.57 0
TYPE 132
EFFECT 0
SHADOW NO
HITBOX NO


END_MODEL


#---------------------------------------------------#                       Model                         #---------------------------------------------------#
MODEL

POS -2602 0 -4142
ROT 0 1.57 0
TYPE 132
EFFECT 0
SHADOW NO
HITBOX NO


END_MODEL


#---------------------------------------------------#                       Model                         #---------------------------------------------------#
MODEL

POS -3102 0 -4142
ROT 0 1.57 0
TYPE 132
EFFECT 0
SHADOW NO
HITBOX NO


END_MODEL


#---------------------------------------------------#                       Model                         #---------------------------------------------------#
MODEL

POS -3602 0 -4142
ROT 0 1.57 0
TYPE 132
EFFECT 0
SHADOW NO
HITBOX NO


END_MODEL


#---------------------------------------------------#                       Model                         #---------------------------------------------------#
MODEL

POS -4000 0 -4142
ROT 0 0 0
TYPE 133
EFFECT 0
SHADOW NO
HITBOX NO


END_MODEL


#---------------------------------------------------#                       Model                         #---------------------------------------------------#
MODEL

POS -4000 0 -3627
ROT 0 0 0
TYPE 132
EFFECT 0
SHADOW NO
HITBOX NO


END_MODEL


#---------------------------------------------------#                       Model                         #---------------------------------------------------#
MODEL

POS -4000 0 -3786
ROT 0 0 0
TYPE 132
EFFECT 0
SHADOW NO
HITBOX NO


END_MODEL


#---------------------------------------------------#                       Model                         #---------------------------------------------------#
MODEL

POS -2100 0 -4960
ROT 0 1.57 0
TYPE 132
EFFECT 0
SHADOW NO
HITBOX NO


END_MODEL


#---------------------------------------------------#                       Model                         #---------------------------------------------------#
MODEL

POS -2600 0 -4960
ROT 0 1.57 0
TYPE 132
EFFECT 0
SHADOW NO
HITBOX NO


END_MODEL


#---------------------------------------------------#                       Model                         #---------------------------------------------------#
MODEL

POS -3099 0 -4960
ROT 0 1.57 0
TYPE 132
EFFECT 0
SHADOW NO
HITBOX NO


END_MODEL


#---------------------------------------------------#                       Model                         #---------------------------------------------------#
MODEL

POS -3599 0 -4960
ROT 0 1.57 0
TYPE 132
EFFECT 0
SHADOW NO
HITBOX NO


END_MODEL


#---------------------------------------------------#                       Model                         #---------------------------------------------------#
MODEL

POS -3999 0 -4961
ROT 0 -1.571 0
TYPE 144
EFFECT 0
SHADOW NO
HITBOX NO


END_MODEL


#---------------------------------------------------#                       Model                         #---------------------------------------------------#
MODEL

POS -3637 0 -4960
ROT 0 1.57 0
TYPE 132
EFFECT 0
SHADOW NO
HITBOX NO


END_MODEL


#---------------------------------------------------#                       Model                         #---------------------------------------------------#
MODEL

POS -3999 0 -4613
ROT 0 0 0
TYPE 132
EFFECT 0
SHADOW NO
HITBOX NO


END_MODEL


#---------------------------------------------------#                       Model                         #---------------------------------------------------#
MODEL

POS -3234 0 -4546
ROT 0 0 0
TYPE 143
EFFECT 0
SHADOW NO
HITBOX NO


END_MODEL


#---------------------------------------------------#                       Model                         #---------------------------------------------------#
MODEL

POS -2318 0 -4546
ROT 0 0 0
TYPE 143
EFFECT 0
SHADOW NO
HITBOX NO


END_MODEL


#---------------------------------------------------#                       Model                         #---------------------------------------------------#
MODEL

POS -3648 0 -2548
ROT 0 3.14159 0
TYPE 145
EFFECT 0
SHADOW NO
HITBOX NO


END_MODEL


#---------------------------------------------------#                       Model                         #---------------------------------------------------#
MODEL

POS 553 0 -4960
ROT 0 1.57 0
TYPE 132
EFFECT 0
SHADOW NO
HITBOX NO


END_MODEL


#---------------------------------------------------#                       Model                         #---------------------------------------------------#
MODEL

POS 1052 0 -4960
ROT 0 1.57 0
TYPE 132
EFFECT 0
SHADOW NO
HITBOX NO


END_MODEL


#---------------------------------------------------#                       Model                         #---------------------------------------------------#
MODEL

POS 1552 0 -4960
ROT 0 1.57 0
TYPE 132
EFFECT 0
SHADOW NO
HITBOX NO


END_MODEL


#---------------------------------------------------#                       Model                         #---------------------------------------------------#
MODEL

POS 2052 0 -3100
ROT 0 0 0
TYPE 132
EFFECT 0
SHADOW NO
HITBOX NO


END_MODEL


#---------------------------------------------------#                       Model                         #---------------------------------------------------#
MODEL

POS 2052 0 -3599
ROT 0 0 0
TYPE 132
EFFECT 0
SHADOW NO
HITBOX NO


END_MODEL


#---------------------------------------------------#                       Model                         #---------------------------------------------------#
MODEL

POS 2052 0 -4099
ROT 0 0 0
TYPE 132
EFFECT 0
SHADOW NO
HITBOX NO


END_MODEL


#---------------------------------------------------#                       Model                         #---------------------------------------------------#
MODEL

POS 2052 0 -4597
ROT 0 0 0
TYPE 132
EFFECT 0
SHADOW NO
HITBOX NO


END_MODEL


#---------------------------------------------------#                       Model                         #---------------------------------------------------#
MODEL

POS 2543 0 -2548
ROT 0 1.57 0
TYPE 132
EFFECT 0
SHADOW NO
HITBOX NO


END_MODEL


#---------------------------------------------------#                       Model                         #---------------------------------------------------#
MODEL

POS 3043 0 -2548
ROT 0 1.57 0
TYPE 132
EFFECT 0
SHADOW NO
HITBOX NO


END_MODEL


#---------------------------------------------------#                       Model                         #---------------------------------------------------#
MODEL

POS 3750 0 -2548
ROT 0 3.14159 0
TYPE 133
EFFECT 0
SHADOW NO
HITBOX NO


END_MODEL


#---------------------------------------------------#                       Model                         #---------------------------------------------------#
MODEL

POS 3750 0 -2050
ROT 0 3.14159 0
TYPE 132
EFFECT 0
SHADOW NO
HITBOX NO


END_MODEL


#---------------------------------------------------#                       Model                         #---------------------------------------------------#
MODEL

POS 3259 0 -2548
ROT 0 1.57 0
TYPE 132
EFFECT 0
SHADOW NO
HITBOX NO


END_MODEL


#---------------------------------------------------#                       Model                         #---------------------------------------------------#
MODEL

POS 3749 0 -3048
ROT 0 0 0
TYPE 132
EFFECT 0
SHADOW NO
HITBOX NO


END_MODEL


#---------------------------------------------------#                       Model                         #---------------------------------------------------#
MODEL

POS 3749 0 -3548
ROT 0 0 0
TYPE 132
EFFECT 0
SHADOW NO
HITBOX NO


END_MODEL


#---------------------------------------------------#                       Model                         #---------------------------------------------------#
MODEL

POS 3749 0 -4048
ROT 0 0 0
TYPE 132
EFFECT 0
SHADOW NO
HITBOX NO


END_MODEL


#---------------------------------------------------#                       Model                         #---------------------------------------------------#
MODEL

POS 2603 0 -4960
ROT 0 1.57 0
TYPE 132
EFFECT 0
SHADOW NO
HITBOX NO


END_MODEL


#---------------------------------------------------#                       Model                         #---------------------------------------------------#
MODEL

POS 3103 0 -4960
ROT 0 1.57 0
TYPE 132
EFFECT 0
SHADOW NO
HITBOX NO


END_MODEL


#---------------------------------------------------#                       Model                         #---------------------------------------------------#
MODEL

POS 3749 0 -4538
ROT 0 0 0
TYPE 132
EFFECT 0
SHADOW NO
HITBOX NO


END_MODEL


#---------------------------------------------------#                       Model                         #---------------------------------------------------#
MODEL

POS 3401 0 -4960
ROT 0 1.57 0
TYPE 132
EFFECT 0
SHADOW NO
HITBOX NO


END_MODEL


#---------------------------------------------------#                       Model                         #---------------------------------------------------#
MODEL

POS 3747 0 0
ROT 0 1.57 0
TYPE 144
EFFECT 0
SHADOW NO
HITBOX NO


END_MODEL


#---------------------------------------------------#                       Model                         #---------------------------------------------------#
MODEL

POS 3384 0 0
ROT 0 1.57 0
TYPE 132
EFFECT 0
SHADOW NO
HITBOX NO


END_MODEL


#---------------------------------------------------#                       Model                         #---------------------------------------------------#
MODEL

POS 3746 0 -348
ROT 0 0 0
TYPE 132
EFFECT 0
SHADOW NO
HITBOX NO


END_MODEL


#---------------------------------------------------#                       Model                         #---------------------------------------------------#
MODEL

POS 2971 0 -4545
ROT 0 0 0
TYPE 143
EFFECT 0
SHADOW NO
HITBOX NO


END_MODEL


#---------------------------------------------------#                       Model                         #---------------------------------------------------#
MODEL

POS 2971 0 -3942
ROT 0 0 0
TYPE 143
EFFECT 0
SHADOW NO
HITBOX NO


END_MODEL


#---------------------------------------------------#                       Model                         #---------------------------------------------------#
MODEL

POS 2971 0 -3342
ROT 0 0 0
TYPE 143
EFFECT 0
SHADOW NO
HITBOX NO


END_MODEL


#---------------------------------------------------#                       Model                         #---------------------------------------------------#
MODEL

POS 2971 0 -2964
ROT 0 0 0
TYPE 143
EFFECT 0
SHADOW NO
HITBOX NO


END_MODEL


#---------------------------------------------------#                       Model                         #---------------------------------------------------#
MODEL

POS 2830 0 -2964
ROT 0 0 0
TYPE 143
EFFECT 0
SHADOW NO
HITBOX NO


END_MODEL


#---------------------------------------------------#                       Model                         #---------------------------------------------------#
MODEL

POS 2830 0 -3565
ROT 0 0 0
TYPE 143
EFFECT 0
SHADOW NO
HITBOX NO


END_MODEL


#---------------------------------------------------#                       Model                         #---------------------------------------------------#
MODEL

POS 2830 0 -4165
ROT 0 0 0
TYPE 143
EFFECT 0
SHADOW NO
HITBOX NO


END_MODEL


#---------------------------------------------------#                       Model                         #---------------------------------------------------#
MODEL

POS 2830 0 -4547
ROT 0 0 0
TYPE 143
EFFECT 0
SHADOW NO
HITBOX NO


END_MODEL


#---------------------------------------------------#                       Model                         #---------------------------------------------------#
MODEL

POS -1836 0 -2741
ROT 0 0 0
TYPE 72
EFFECT 0
SHADOW NO
HITBOX YES
HITBOX_POS 0 219.706 0
HITBOX_SIZE 54.864 440.412 65.306


END_MODEL


#---------------------------------------------------#                       Model                         #---------------------------------------------------#
MODEL

POS -2720 0 -2741
ROT 0 0 0
TYPE 72
EFFECT 0
SHADOW NO
HITBOX YES
HITBOX_POS 0 214.706 -6
HITBOX_SIZE 50.864 451.412 40.306


END_MODEL


#---------------------------------------------------#                       Model                         #---------------------------------------------------#
MODEL

POS -3672 0 -2741
ROT 0 0 0
TYPE 72
EFFECT 0
SHADOW NO
HITBOX YES
HITBOX_POS 0 218.706 0
HITBOX_SIZE 58.864 436.412 58.306


END_MODEL


#---------------------------------------------------#                       Model                         #---------------------------------------------------#
MODEL

POS 3 0 -4962
ROT 0 -1.57 0
TYPE 133
EFFECT 0
SHADOW NO
HITBOX NO


END_MODEL


#---------------------------------------------------#                       Model                         #---------------------------------------------------#
MODEL

POS -1550 0 -4962
ROT 0 -1.57 0
TYPE 133
EFFECT 0
SHADOW NO
HITBOX NO


END_MODEL


#---------------------------------------------------#                       Model                         #---------------------------------------------------#
MODEL

POS 2052 0 -4962
ROT 0 -1.57 0
TYPE 133
EFFECT 0
SHADOW NO
HITBOX NO


END_MODEL


#---------------------------------------------------#                       Model                         #---------------------------------------------------#
MODEL

POS 2400 0 -4962
ROT 0 -1.57 0
TYPE 132
EFFECT 0
SHADOW NO
HITBOX NO


END_MODEL


#---------------------------------------------------#                       Model                         #---------------------------------------------------#
MODEL

POS 3760 0 -4960
ROT 0 -3.14159 0
TYPE 144
EFFECT 0
SHADOW NO
HITBOX NO


END_MODEL


#---------------------------------------------------#                       Model                         #---------------------------------------------------#
MODEL

POS 3750 0 -4612
ROT 0 -3.14159 0
TYPE 132
EFFECT 0
SHADOW NO
HITBOX NO


END_MODEL


#---------------------------------------------------#                       Model                         #---------------------------------------------------#
MODEL

POS 351 0 -4961
ROT 0 1.57 0
TYPE 132
EFFECT 0
SHADOW NO
HITBOX NO


END_MODEL


#---------------------------------------------------#                       Model                         #---------------------------------------------------#
MODEL

POS -350 0 -4961
ROT 0 1.57 0
TYPE 132
EFFECT 0
SHADOW NO
HITBOX NO


END_MODEL


#---------------------------------------------------#                       Model                         #---------------------------------------------------#
MODEL

POS -1178 0 -4961
ROT 0 1.57 0
TYPE 132
EFFECT 0
SHADOW NO
HITBOX NO


END_MODEL


#---------------------------------------------------#                       Model                         #---------------------------------------------------#
MODEL

POS -2048 0 -4961
ROT 0 1.57 0
TYPE 132
EFFECT 0
SHADOW NO
HITBOX NO


END_MODEL


#---------------------------------------------------#                       Model                         #---------------------------------------------------#
MODEL

POS -7113 0 0
ROT 0 0 0
TYPE 147
EFFECT 0
SHADOW NO
HITBOX NO


END_MODEL


#---------------------------------------------------#                       Model                         #---------------------------------------------------#
MODEL

POS 7114 0 0
ROT 0 0 0
TYPE 147
EFFECT 0
SHADOW NO
HITBOX NO


END_MODEL


#---------------------------------------------------#                       Model                         #---------------------------------------------------#
MODEL

POS 0 0 -8075
ROT 0 1.57 0
TYPE 147
EFFECT 0
SHADOW NO
HITBOX NO


END_MODEL


#---------------------------------------------------#                       Model                         #---------------------------------------------------#
MODEL

POS 6857 0 -9336
ROT 0 0 0
TYPE 147
EFFECT 0
SHADOW NO
HITBOX NO


END_MODEL


#---------------------------------------------------#                       Model                         #---------------------------------------------------#
MODEL

POS 167 0 1461
ROT 0 1.57 0
TYPE 149
EFFECT 0
SHADOW NO
HITBOX YES
HITBOX_POS 1 128.478 0
HITBOX_SIZE 114.797 256.956 2692.16


END_MODEL


#---------------------------------------------------#                       Model                         #---------------------------------------------------#
MODEL

POS 166 0 2687
ROT 0 1.57 0
TYPE 148
EFFECT 0
SHADOW NO
HITBOX YES
HITBOX_POS 2 128.478 0
HITBOX_SIZE 114.797 256.956 501.16


END_MODEL


#---------------------------------------------------#                       Model                         #---------------------------------------------------#
MODEL

POS 166 0 4950
ROT 0 1.57 0
TYPE 149
EFFECT 0
SHADOW NO
HITBOX NO


END_MODEL


#---------------------------------------------------#                       Model                         #---------------------------------------------------#
MODEL

POS 164 0 7627
ROT 0 1.57 0
TYPE 149
EFFECT 0
SHADOW NO
HITBOX NO


END_MODEL


#---------------------------------------------------#                       Model                         #---------------------------------------------------#
MODEL

POS 164 0 9291
ROT 0 1.57 0
TYPE 149
EFFECT 0
SHADOW NO
HITBOX YES
HITBOX_POS 0 128.478 -2181
HITBOX_SIZE 108.797 256.956 7015.16


END_MODEL


#---------------------------------------------------#                       Model                         #---------------------------------------------------#
MODEL

POS 907 0 171
ROT 0 0 0
TYPE 150
EFFECT 0
SHADOW NO
HITBOX NO


END_MODEL


#---------------------------------------------------#                       Model                         #---------------------------------------------------#
MODEL

POS 930 0 171
ROT 0 0 0
TYPE 150
EFFECT 0
SHADOW NO
HITBOX YES
HITBOX_POS 0 128.478 0
HITBOX_SIZE 1586.12 256.956 112.797


END_MODEL


#---------------------------------------------------#                       Model                         #---------------------------------------------------#
MODEL

POS 3184 0 171
ROT 0 0 0
TYPE 150
EFFECT 0
SHADOW NO
HITBOX NO


END_MODEL


#---------------------------------------------------#                       Model                         #---------------------------------------------------#
MODEL

POS 3318 0 171
ROT 0 0 0
TYPE 150
EFFECT 0
SHADOW NO
HITBOX YES
HITBOX_POS -72 128.478 0
HITBOX_SIZE 1709.12 256.956 149.797


END_MODEL


#---------------------------------------------------#                       Model                         #---------------------------------------------------#
MODEL

POS 4055 0 1461
ROT 0 1.57 0
TYPE 149
EFFECT 0
SHADOW NO
HITBOX NO


END_MODEL


#---------------------------------------------------#                       Model                         #---------------------------------------------------#
MODEL

POS 4053 0 4139
ROT 0 1.57 0
TYPE 149
EFFECT 0
SHADOW NO
HITBOX NO


END_MODEL


#---------------------------------------------------#                       Model                         #---------------------------------------------------#
MODEL

POS 4050 0 6817
ROT 0 1.57 0
TYPE 149
EFFECT 0
SHADOW NO
HITBOX NO


END_MODEL


#---------------------------------------------------#                       Model                         #---------------------------------------------------#
MODEL

POS -827 0 4252
ROT 0 1.57 0
TYPE 78
EFFECT 0
SHADOW NO
HITBOX YES
HITBOX_POS 0 348.336 0
HITBOX_SIZE 926.176 696.673 1562.97


END_MODEL


#---------------------------------------------------#                       Model                         #---------------------------------------------------#
MODEL

POS -827 0 5790
ROT 0 1.57 0
TYPE 78
EFFECT 0
SHADOW NO
HITBOX YES
HITBOX_POS 0 348.336 0
HITBOX_SIZE 905.17 696.673 1563.97


END_MODEL


#---------------------------------------------------#                       Model                         #---------------------------------------------------#
MODEL

POS -2412 0 4787
ROT 0 3.14159 0
TYPE 77
EFFECT 0
SHADOW NO
HITBOX YES
HITBOX_POS 0 237.563 23
HITBOX_SIZE 758.759 475.125 611.169


END_MODEL


#---------------------------------------------------#                       Model                         #---------------------------------------------------#
MODEL

POS -3171 0 4787
ROT 0 3.14159 0
TYPE 77
EFFECT 0
SHADOW NO
HITBOX YES
HITBOX_POS 0 237.563 20
HITBOX_SIZE 758.759 475.125 616.169


END_MODEL


#---------------------------------------------------#                       Model                         #---------------------------------------------------#
MODEL

POS -3171 0 7007
ROT 0 0 0
TYPE 77
EFFECT 0
SHADOW NO
HITBOX YES
HITBOX_POS 0 237.563 -21
HITBOX_SIZE 798.759 475.125 599.169


END_MODEL


#---------------------------------------------------#                       Model                         #---------------------------------------------------#
MODEL

POS -2413 0 7007
ROT 0 0 0
TYPE 77
EFFECT 0
SHADOW NO
HITBOX YES
HITBOX_POS 0 237.563 -20
HITBOX_SIZE 758.759 475.125 611.169


END_MODEL


#---------------------------------------------------#                       Model                         #---------------------------------------------------#
MODEL

POS -1010 0 8450
ROT 0 0.723 0
TYPE 65
EFFECT 0
SHADOW NO
HITBOX YES
HITBOX_POS 0 55.2831 0
HITBOX_SIZE 1696.65 110.566 1529.13


END_MODEL


#---------------------------------------------------#                       Model                         #---------------------------------------------------#
MODEL

POS -3200 0 6000
ROT 0 0 0
TYPE 68
EFFECT 0
SHADOW NO
HITBOX YES
HITBOX_POS -34 270.297 -62
HITBOX_SIZE 327.364 557.594 199.306


END_MODEL


#---------------------------------------------------#                       Model                         #---------------------------------------------------#
MODEL

POS -2373 0 6000
ROT 0 0 0
TYPE 68
EFFECT 0
SHADOW NO
HITBOX YES
HITBOX_POS -20 286.297 -85
HITBOX_SIZE 307.364 570.594 270.306


END_MODEL


#---------------------------------------------------#                       Model                         #---------------------------------------------------#
MODEL

POS -2897 0 8289
ROT 0 0 0
TYPE 69
EFFECT 0
SHADOW NO
HITBOX YES
HITBOX_POS 75 547.06 2
HITBOX_SIZE 1083.33 1094.12 465.915


END_MODEL


#---------------------------------------------------#                       Model                         #---------------------------------------------------#
MODEL

POS -376 0 8988
ROT 0 0.534 0
TYPE 71
EFFECT 0
SHADOW NO
HITBOX YES
HITBOX_POS 0 419.59 0
HITBOX_SIZE 180.381 830.181 171.604


END_MODEL


#---------------------------------------------------#                       Model                         #---------------------------------------------------#
MODEL

POS 2000 0 5650
ROT 0 0 0
TYPE 60
EFFECT 0
SHADOW NO
HITBOX YES
HITBOX_POS 0 981.58 418
HITBOX_SIZE 3322.33 1963.16 4800.97


END_MODEL


#---------------------------------------------------#                       Model                         #---------------------------------------------------#
MODEL

POS 899 0 7871
ROT 0 -0.942 0
TYPE 69
EFFECT 0
SHADOW NO
HITBOX NO


END_MODEL


#---------------------------------------------------#                       Model                         #---------------------------------------------------#
MODEL

POS 635 0 8077
ROT 0 -0.942 0
TYPE 68
EFFECT 0
SHADOW NO
HITBOX NO


END_MODEL


#---------------------------------------------------#                       Model                         #---------------------------------------------------#
MODEL

POS 635 0 8353
ROT 0 -0.942 0
TYPE 68
EFFECT 0
SHADOW NO
HITBOX NO


END_MODEL


#---------------------------------------------------#                       Model                         #---------------------------------------------------#
MODEL

POS 3322 0 8150
ROT 0 -1.382 0
TYPE 68
EFFECT 0
SHADOW NO
HITBOX NO


END_MODEL


#---------------------------------------------------#                       Model                         #---------------------------------------------------#
MODEL

POS 3322 0 7528
ROT 0 -1.382 0
TYPE 68
EFFECT 0
SHADOW NO
HITBOX NO


END_MODEL


#---------------------------------------------------#                       Model                         #---------------------------------------------------#
MODEL

POS 4048 0 8485
ROT 0 1.57 0
TYPE 150
EFFECT 0
SHADOW NO
HITBOX YES
HITBOX_POS 0 128.478 -3879
HITBOX_SIZE 149.797 256.956 9020.16


END_MODEL


#---------------------------------------------------#                       Model                         #---------------------------------------------------#
MODEL

POS 4800 0 1200
ROT 0 1.57 0
TYPE 153
EFFECT 0
SHADOW NO
HITBOX NO


END_MODEL


#---------------------------------------------------#                       Model                         #---------------------------------------------------#
MODEL

POS 4800 0 2310
ROT 0 -1.57 0
TYPE 153
EFFECT 0
SHADOW NO
HITBOX YES
HITBOX_POS 0 194.253 -555
HITBOX_SIZE 24.114 388.507 2300.11


END_MODEL


#---------------------------------------------------#                       Model                         #---------------------------------------------------#
MODEL

POS 8000 0 2400
ROT 0 3.14159 0
TYPE 152
EFFECT 0
SHADOW NO
HITBOX YES
HITBOX_POS 0 410.678 0
HITBOX_SIZE 1582.64 821.356 300


END_MODEL


#---------------------------------------------------#                       Model                         #---------------------------------------------------#
MODEL

POS 8000 0 940
ROT 0 3.14159 0
TYPE 152
EFFECT 0
SHADOW NO
HITBOX YES
HITBOX_POS 0 410.678 0
HITBOX_SIZE 1582.64 821.356 300


END_MODEL


#---------------------------------------------------#                       Model                         #---------------------------------------------------#
MODEL

POS 8000 0 1668
ROT 0 3.14159 0
TYPE 152
EFFECT 0
SHADOW NO
HITBOX YES
HITBOX_POS 0 410.678 0
HITBOX_SIZE 1582.64 821.356 300


END_MODEL


#---------------------------------------------------#                       Model                         #---------------------------------------------------#
MODEL

POS 8000 0 -2600
ROT 0 1.57 0
TYPE 153
EFFECT 0
SHADOW NO
HITBOX YES
HITBOX_POS 0 194.253 0
HITBOX_SIZE 37.114 388.507 1162.11


END_MODEL


#---------------------------------------------------#                       Model                         #---------------------------------------------------#
MODEL

POS 5192 0 5000
ROT 0 0 0
TYPE 151
EFFECT 0
SHADOW NO
HITBOX YES
HITBOX_POS 0 254.614 0
HITBOX_SIZE 1711.52 509.228 510.971


END_MODEL


#---------------------------------------------------#                       Model                         #---------------------------------------------------#
MODEL

POS 7357 0 3792
ROT 0 0 0
TYPE 151
EFFECT 0
SHADOW NO
HITBOX YES
HITBOX_POS 0 254.614 0
HITBOX_SIZE 1711.52 509.228 510.971


END_MODEL


#---------------------------------------------------#                       Model                         #---------------------------------------------------#
MODEL

POS 8000 0 -800
ROT 0 -1.57 0
TYPE 153
EFFECT 0
SHADOW NO
HITBOX YES
HITBOX_POS 0 194.253 6
HITBOX_SIZE 37.114 388.507 1177.11


END_MODEL


#---------------------------------------------------#                       Model                         #---------------------------------------------------#
MODEL

POS 4811 0 -1103
ROT 0 -1.57 0
TYPE 151
EFFECT 0
SHADOW NO
HITBOX YES
HITBOX_POS 0 254.614 0
HITBOX_SIZE 510.971 509.228 1711.52


END_MODEL


#---------------------------------------------------#                       Model                         #---------------------------------------------------#
MODEL

POS 4811 0 -3740
ROT 0 -1.57 0
TYPE 151
EFFECT 0
SHADOW NO
HITBOX YES
HITBOX_POS 0 254.614 0
HITBOX_SIZE 510.971 509.228 1711.52


END_MODEL


#---------------------------------------------------#                       Model                         #---------------------------------------------------#
MODEL

POS 6000 0 -4530
ROT 0 0 0
TYPE 154
EFFECT 0
SHADOW NO
HITBOX YES
HITBOX_POS 0 379.036 0
HITBOX_SIZE 474.779 758.072 474.856


END_MODEL


#---------------------------------------------------#                       Model                         #---------------------------------------------------#
MODEL

POS 7000 0 -4530
ROT 0 0 0
TYPE 154
EFFECT 0
SHADOW NO
HITBOX YES
HITBOX_POS 0 379.036 0
HITBOX_SIZE 474.779 758.072 474.856


END_MODEL


#---------------------------------------------------#                       Model                         #---------------------------------------------------#
MODEL

POS 2941 0 -3900
ROT 0 0 0
TYPE 29
EFFECT 0
SHADOW NO
HITBOX YES
HITBOX_POS 0 945.038 0
HITBOX_SIZE 527.19 2738.08 527.191


END_MODEL


#---------------------------------------------------#                       Model                         #---------------------------------------------------#
MODEL

POS 1026 0 -1275.4
ROT 0 0 0
TYPE 29
EFFECT 0
SHADOW NO
HITBOX YES
HITBOX_POS 0 955.038 0
HITBOX_SIZE 527.19 2738.08 527.191


END_MODEL


#---------------------------------------------------#                       Model                         #---------------------------------------------------#
MODEL

POS -2526 0 2612
ROT 0 -0.314 0
TYPE 71
EFFECT 0
SHADOW NO
HITBOX NO


END_MODEL


#---------------------------------------------------#                       Model                         #---------------------------------------------------#
MODEL

POS -2058 0 3054
ROT 0 -0.314 0
TYPE 71
EFFECT 0
SHADOW NO
HITBOX NO


END_MODEL


#---------------------------------------------------#                       Model                         #---------------------------------------------------#
MODEL

POS -2180 0 2569
ROT 0 -0.942 0
TYPE 71
EFFECT 0
SHADOW NO
HITBOX NO


END_MODEL


#---------------------------------------------------#                       Model                         #---------------------------------------------------#
MODEL

POS -126 0 3160
ROT 0 1.56 0
TYPE 155
EFFECT 0
SHADOW NO
HITBOX YES
HITBOX_POS 0 129.612 -1482
HITBOX_SIZE 39.345 259.223 3126.36


END_MODEL


#---------------------------------------------------#                       Model                         #---------------------------------------------------#
MODEL

POS -125 0 2950
ROT 0 1.56 0
TYPE 137
EFFECT 0
SHADOW NO
HITBOX NO


END_MODEL


#---------------------------------------------------#                       Model                         #---------------------------------------------------#
MODEL

POS -125 0 3417
ROT 0 -1.56 0
TYPE 155
EFFECT 0
SHADOW NO
HITBOX YES
HITBOX_POS 0 129.612 73
HITBOX_SIZE 39.345 259.223 313.359


END_MODEL


#---------------------------------------------------#                       Model                         #---------------------------------------------------#
MODEL

POS -1677 0 196
ROT 0 -1.037 0
TYPE 141
EFFECT 0
SHADOW NO
HITBOX NO


END_MODEL


#---------------------------------------------------#                       Model                         #---------------------------------------------------#
MODEL

POS -1431 0 196
ROT 0 -2.325 0
TYPE 141
EFFECT 0
SHADOW NO
HITBOX NO


END_MODEL


#---------------------------------------------------#                       Model                         #---------------------------------------------------#
MODEL

POS -123 0 3621
ROT 0 -1.57 0
TYPE 137
EFFECT 0
SHADOW NO
HITBOX NO


END_MODEL


#---------------------------------------------------#                       Model                         #---------------------------------------------------#
MODEL

POS -126 130 3288
ROT 0 1.57 0
TYPE 156
EFFECT 0
SHADOW NO
HITBOX NO


END_MODEL


#---------------------------------------------------#                       Model                         #---------------------------------------------------#
MODEL

POS -1549 248 128
ROT 0 0 0
TYPE 157
EFFECT 0
SHADOW NO
HITBOX YES
HITBOX_POS 0 47.5353 0
HITBOX_SIZE 390.084 95.0707 151.858


END_MODEL


#---------------------------------------------------#                       Model                         #---------------------------------------------------#
MODEL

POS -126 263 3286
ROT 0 1.57 0
TYPE 158
EFFECT 0
SHADOW NO
HITBOX YES
HITBOX_POS 0 29.172 0
HITBOX_SIZE 133.534 84.3449 297.983


END_MODEL


#---------------------------------------------------#                       Model                         #---------------------------------------------------#
MODEL

POS 1767 0 170
ROT 0 0 0
TYPE 161
EFFECT 0
SHADOW NO
HITBOX YES
HITBOX_POS 0 200 0
HITBOX_SIZE 100 400 100


END_MODEL


#---------------------------------------------------#                       Model                         #---------------------------------------------------#
MODEL

POS 2291 0 170
ROT 0 0 0
TYPE 161
EFFECT 0
SHADOW NO
HITBOX YES
HITBOX_POS 0 200 0
HITBOX_SIZE 100 400 100


END_MODEL


#---------------------------------------------------#                       Model                         #---------------------------------------------------#
MODEL

POS 2223 0 235
ROT 0 -2.137 0
TYPE 163
EFFECT 0
SHADOW NO
HITBOX NO


END_MODEL


#---------------------------------------------------#                       Model                         #---------------------------------------------------#
MODEL

POS 1835 0 235
ROT 0 2.13 0
TYPE 163
EFFECT 0
SHADOW NO
HITBOX NO


END_MODEL


#---------------------------------------------------#                       Model                         #---------------------------------------------------#
MODEL

POS 2039 350 171
ROT 0 0 0
TYPE 164
EFFECT 0
SHADOW NO
HITBOX YES
HITBOX_POS 0 81.9648 0
HITBOX_SIZE 693.052 163.93 299.594


END_MODEL


#---------------------------------------------------#                       Model                         #---------------------------------------------------#
MODEL

POS 168 0 3464
ROT 0 1.57 0
TYPE 159
EFFECT 0
SHADOW NO
HITBOX YES
HITBOX_POS 0 179.536 18
HITBOX_SIZE 74.797 359.071 301.255


END_MODEL


#---------------------------------------------------#                       Model                         #---------------------------------------------------#
MODEL

POS 168 0 3087
ROT 0 1.57 0
TYPE 160
EFFECT 0
SHADOW NO
HITBOX YES
HITBOX_POS 0 179.616 -30
HITBOX_SIZE 73.797 359.231 301.255


END_MODEL


#---------------------------------------------------#                       Model                         #---------------------------------------------------#
MODEL

POS 168 139 3283
ROT 0 1.57 0
TYPE 166
EFFECT 2
SHADOW NO
HITBOX NO


END_MODEL


#---------------------------------------------------#                       Model                         #---------------------------------------------------#
MODEL

POS 168 273 3291
ROT 0 1.57 0
TYPE 165
EFFECT 0
SHADOW NO
HITBOX NO


END_MODEL


#---------------------------------------------------#                       Model                         #---------------------------------------------------#
MODEL

POS 0 0 -5560
ROT 0 0 0
TYPE 167
EFFECT 0
SHADOW NO
HITBOX YES
HITBOX_POS 1077 1484.71 0
HITBOX_SIZE 19656.6 2969.42 979.106


END_MODEL


#---------------------------------------------------#                       Model                         #---------------------------------------------------#
MODEL

POS -4601 0 0
ROT 0 1.57 0
TYPE 167
EFFECT 0
SHADOW NO
HITBOX YES
HITBOX_POS 0 1484.71 0
HITBOX_SIZE 979.106 2969.42 19656.6


END_MODEL


#---------------------------------------------------#                       Model                         #---------------------------------------------------#
MODEL

POS 2923 0 -3461
ROT 0 1.57 0
TYPE 126
EFFECT 0
SHADOW NO
HITBOX NO


END_MODEL


#---------------------------------------------------#                       Enemy                         #---------------------------------------------------#
ENEMY

POS 2059 0 3600
ROT 0 0 0
TYPE 2
PATROLLING_POINTS
2059 0 0


END_ENEMY


#---------------------------------------------------#                       Enemy                         #---------------------------------------------------#
ENEMY

POS -1550 0 3076
ROT 0 0 0
TYPE 2
PATROLLING_POINTS
-1550 0 0


END_ENEMY


#---------------------------------------------------#                       Enemy                         #---------------------------------------------------#
ENEMY

POS -1550 0 3474
ROT 0 3.14159 0
TYPE 2
PATROLLING_POINTS
-1550 0 7505


END_ENEMY


#---------------------------------------------------#                       Enemy                         #---------------------------------------------------#
ENEMY

POS -324 0 7008
ROT 0 1.57 0
TYPE 0
WAKE_RADIUS 100


END_ENEMY


#---------------------------------------------------#                       Enemy                         #---------------------------------------------------#
ENEMY

POS -1660 0 7008
ROT 0 1.57 0
TYPE 0
WAKE_RADIUS 100


END_ENEMY


#---------------------------------------------------#                       Enemy                         #---------------------------------------------------#
ENEMY

POS -4026 0 221
ROT 0 -2.859 0
TYPE 1


END_ENEMY


#---------------------------------------------------#                       Enemy                         #---------------------------------------------------#
ENEMY

POS 3923 0 3265
ROT 0 1.57 0
TYPE 0
WAKE_RADIUS 100


END_ENEMY


#---------------------------------------------------#                       Enemy                         #---------------------------------------------------#
ENEMY

POS 1390 0 3265
ROT 0 1.57 0
TYPE 0
WAKE_RADIUS 100


END_ENEMY


#---------------------------------------------------#                       Enemy                         #---------------------------------------------------#
ENEMY

POS -3887 0 0
ROT 0 0 0
TYPE 2
PATROLLING_POINTS
-3887 0 -2500


END_ENEMY


#---------------------------------------------------#                       Enemy                         #---------------------------------------------------#
ENEMY

POS -3615 0 -2556
ROT 0 -1.57 0
TYPE 2
PATROLLING_POINTS
0 0 -2556


END_ENEMY


#---------------------------------------------------#                       Enemy                         #---------------------------------------------------#
ENEMY

POS 0 0 -2556
ROT 0 -1.57 0
TYPE 2
PATROLLING_POINTS
3743 0 -2556


END_ENEMY


#---------------------------------------------------#                       Enemy                         #---------------------------------------------------#
ENEMY

POS 6149 0 4686
ROT 0 0 0
TYPE 0
WAKE_RADIUS 100


END_ENEMY


#---------------------------------------------------#                       Enemy                         #---------------------------------------------------#
ENEMY

POS 6149 0 -4040
ROT 0 0 0
TYPE 0
WAKE_RADIUS 100


END_ENEMY


#---------------------------------------------------#                       Enemy                         #---------------------------------------------------#
ENEMY

POS 7123 0 1332
ROT 0 1.57 0
TYPE 1


END_ENEMY


#---------------------------------------------------#                       Enemy                         #---------------------------------------------------#
ENEMY

POS 7711 0 -3941
ROT 0 2.576 0
TYPE 1


END_ENEMY


#---------------------------------------------------#                       Enemy                         #---------------------------------------------------#
ENEMY

POS 2059 0 272
ROT 0 0 0
TYPE 1


END_ENEMY


#---------------------------------------------------#                       Enemy                         #---------------------------------------------------#
ENEMY

POS -1561 0 272
ROT 0 0 0
TYPE 1


END_ENEMY


#---------------------------------------------------#                       Gimmick                       #---------------------------------------------------#
GIMMICK

POS -146 0 3290
ROT 0 1.5708 0
TYPE 1
EFFECT 0
ROT_SWITCH 1


END_GIMMICK


#---------------------------------------------------#                       Gimmick                       #---------------------------------------------------#
GIMMICK

POS 163 0 3275
ROT 0 4.71239 0
TYPE 1
EFFECT 0
ROT_SWITCH 3


END_GIMMICK


#---------------------------------------------------#                       Gimmick                       #---------------------------------------------------#
GIMMICK

POS -4004 0 5558
ROT 0 -1.665 0
TYPE 6
EFFECT 0
ROT_SWITCH 3


END_GIMMICK


#---------------------------------------------------#                       Gimmick                       #---------------------------------------------------#
GIMMICK

POS -2989 0 7769
ROT 0 0 0
TYPE 6
EFFECT 0
ROT_SWITCH 3


END_GIMMICK


#---------------------------------------------------#                       Gimmick                       #---------------------------------------------------#
GIMMICK

POS 2938 0 -3619
ROT 0 0 0
TYPE 5
EFFECT 0
ROT_SWITCH 3


END_GIMMICK


#---------------------------------------------------#                       Gimmick                       #---------------------------------------------------#
GIMMICK

POS 6432 0 -1238
ROT 0 1.57 0
TYPE 6
EFFECT 0
ROT_SWITCH 3


END_GIMMICK


#---------------------------------------------------#                       Gimmick                       #---------------------------------------------------#
GIMMICK

POS 1012 0 -1583
ROT 0 0 0
TYPE 6
EFFECT 0
ROT_SWITCH 3


END_GIMMICK


#---------------------------------------------------#                       Gimmick                       #---------------------------------------------------#
GIMMICK

POS -3414 0 7765
ROT 0 0 0
TYPE 1
EFFECT 0
ROT_SWITCH 0


END_GIMMICK


#---------------------------------------------------#                       Gimmick                       #---------------------------------------------------#
GIMMICK

POS -2936 0 2057
ROT 0 -1.57 0
TYPE 6
EFFECT 0
ROT_SWITCH 0


END_GIMMICK


#---------------------------------------------------#                       Gimmick                       #---------------------------------------------------#
GIMMICK

POS -769 0 -4599
ROT 0 1.57 0
TYPE 6
EFFECT 0
ROT_SWITCH 0


END_GIMMICK


#---------------------------------------------------#                       Gimmick                       #---------------------------------------------------#
GIMMICK

POS -2752 0 -4599
ROT 0 -1.57 0
TYPE 6
EFFECT 0
ROT_SWITCH 0


END_GIMMICK


#---------------------------------------------------#                       Gimmick                       #---------------------------------------------------#
GIMMICK

POS 2866 0 3486
ROT 0 0 0
TYPE 6
EFFECT 0
ROT_SWITCH 0


END_GIMMICK


#---------------------------------------------------#                         Wall                        #---------------------------------------------------#
WALL

POS -3441 0 5096
ROT_SWITCH 2
TYPE 0
USE_CAMERA YES
CAMERA_POS -98 64 21
CAMERA_INCLINATION 0
USE_PC YES
PC_RELATIVE_POS 83 0 294
PC_ROTATION_SWITCH 0


END_WALL


#---------------------------------------------------#                         Wall                        #---------------------------------------------------#
WALL

POS -3270 0 7267
ROT_SWITCH 2
TYPE 0
USE_CAMERA YES
CAMERA_POS 17 49 20
CAMERA_INCLINATION -0.314159
USE_PC NO


END_WALL


#---------------------------------------------------#                         Wall                        #---------------------------------------------------#
WALL

POS -3544 0 -3339
ROT_SWITCH 0
TYPE 0
USE_CAMERA YES
CAMERA_POS 8 266 -520
CAMERA_INCLINATION -0.314159
USE_PC NO


END_WALL


#---------------------------------------------------#                         Wall                        #---------------------------------------------------#
WALL

POS -3544 0 -3339
ROT_SWITCH 2
TYPE 0
USE_CAMERA YES
CAMERA_POS 315 249 470
CAMERA_INCLINATION -0.314159
USE_PC NO


END_WALL


#---------------------------------------------------#                         Wall                        #---------------------------------------------------#
WALL

POS 3497 0 -300
ROT_SWITCH 2
TYPE 0
USE_CAMERA YES
CAMERA_POS -92 1181 200
CAMERA_INCLINATION -0.314159
USE_PC NO


END_WALL


#---------------------------------------------------#                    Player Spawn                     #---------------------------------------------------#
PLAYER_SPAWN_POS 0 0 0
#---------------------------------------------------#                  End Player Spawn                   #---------------------------------------------------#

END_SCRIPT