xof 0302txt 0064
template Header {
 <3D82AB43-62DA-11cf-AB39-0020AF71E433>
 WORD major;
 WORD minor;
 DWORD flags;
}

template Vector {
 <3D82AB5E-62DA-11cf-AB39-0020AF71E433>
 FLOAT x;
 FLOAT y;
 FLOAT z;
}

template Coords2d {
 <F6F23F44-7686-11cf-8F52-0040333594A3>
 FLOAT u;
 FLOAT v;
}

template Matrix4x4 {
 <F6F23F45-7686-11cf-8F52-0040333594A3>
 array FLOAT matrix[16];
}

template ColorRGBA {
 <35FF44E0-6C7C-11cf-8F52-0040333594A3>
 FLOAT red;
 FLOAT green;
 FLOAT blue;
 FLOAT alpha;
}

template ColorRGB {
 <D3E16E81-7835-11cf-8F52-0040333594A3>
 FLOAT red;
 FLOAT green;
 FLOAT blue;
}

template IndexedColor {
 <1630B820-7842-11cf-8F52-0040333594A3>
 DWORD index;
 ColorRGBA indexColor;
}

template Boolean {
 <4885AE61-78E8-11cf-8F52-0040333594A3>
 WORD truefalse;
}

template Boolean2d {
 <4885AE63-78E8-11cf-8F52-0040333594A3>
 Boolean u;
 Boolean v;
}

template MaterialWrap {
 <4885AE60-78E8-11cf-8F52-0040333594A3>
 Boolean u;
 Boolean v;
}

template TextureFilename {
 <A42790E1-7810-11cf-8F52-0040333594A3>
 STRING filename;
}

template Material {
 <3D82AB4D-62DA-11cf-AB39-0020AF71E433>
 ColorRGBA faceColor;
 FLOAT power;
 ColorRGB specularColor;
 ColorRGB emissiveColor;
 [...]
}

template MeshFace {
 <3D82AB5F-62DA-11cf-AB39-0020AF71E433>
 DWORD nFaceVertexIndices;
 array DWORD faceVertexIndices[nFaceVertexIndices];
}

template MeshFaceWraps {
 <4885AE62-78E8-11cf-8F52-0040333594A3>
 DWORD nFaceWrapValues;
 Boolean2d faceWrapValues;
}

template MeshTextureCoords {
 <F6F23F40-7686-11cf-8F52-0040333594A3>
 DWORD nTextureCoords;
 array Coords2d textureCoords[nTextureCoords];
}

template MeshMaterialList {
 <F6F23F42-7686-11cf-8F52-0040333594A3>
 DWORD nMaterials;
 DWORD nFaceIndexes;
 array DWORD faceIndexes[nFaceIndexes];
 [Material]
}

template MeshNormals {
 <F6F23F43-7686-11cf-8F52-0040333594A3>
 DWORD nNormals;
 array Vector normals[nNormals];
 DWORD nFaceNormals;
 array MeshFace faceNormals[nFaceNormals];
}

template MeshVertexColors {
 <1630B821-7842-11cf-8F52-0040333594A3>
 DWORD nVertexColors;
 array IndexedColor vertexColors[nVertexColors];
}

template Mesh {
 <3D82AB44-62DA-11cf-AB39-0020AF71E433>
 DWORD nVertices;
 array Vector vertices[nVertices];
 DWORD nFaces;
 array MeshFace faces[nFaces];
 [...]
}

Header{
1;
0;
1;
}

Mesh {
 151;
 0.00000;39.55166;0.00000;,
 5.41196;38.02924;-5.41196;,
 0.00000;38.02924;-7.65366;,
 0.00000;39.55166;0.00000;,
 7.65366;38.02924;0.00000;,
 0.00000;39.55166;0.00000;,
 5.41196;38.02924;5.41196;,
 0.00000;39.55166;0.00000;,
 0.00000;38.02924;7.65366;,
 0.00000;39.55166;0.00000;,
 -5.41196;38.02924;5.41196;,
 0.00000;39.55166;0.00000;,
 -7.65366;38.02924;0.00000;,
 0.00000;39.55166;0.00000;,
 -5.41196;38.02924;-5.41196;,
 0.00000;39.55166;0.00000;,
 0.00000;38.02924;-7.65366;,
 10.00000;33.69378;-10.00000;,
 0.00000;33.69378;-14.14214;,
 14.14214;33.69378;0.00000;,
 10.00000;33.69378;10.00000;,
 0.00000;33.69378;14.14214;,
 -10.00000;33.69378;10.00000;,
 -14.14214;33.69378;0.00000;,
 -10.00000;33.69378;-10.00000;,
 0.00000;33.69378;-14.14214;,
 13.06562;27.20532;-13.06562;,
 0.00000;27.20532;-18.47758;,
 18.47758;27.20532;0.00000;,
 13.06562;27.20532;13.06562;,
 0.00000;27.20532;18.47758;,
 -13.06564;27.20532;13.06562;,
 -18.47758;27.20532;0.00000;,
 -13.06564;27.20532;-13.06562;,
 0.00000;27.20532;-18.47758;,
 14.14214;19.55164;-14.14214;,
 0.00000;19.55164;-20.00000;,
 20.00000;19.55164;0.00000;,
 14.14214;19.55164;14.14214;,
 0.00000;19.55164;20.00000;,
 -14.14214;19.55164;14.14214;,
 -20.00000;19.55164;0.00000;,
 -14.14214;19.55164;-14.14214;,
 0.00000;19.55164;-20.00000;,
 13.06562;11.89798;-13.06562;,
 0.00000;11.89798;-18.47758;,
 18.47758;11.89798;0.00000;,
 13.06562;11.89798;13.06562;,
 0.00000;11.89798;18.47758;,
 -13.06564;11.89798;13.06562;,
 -18.47758;11.89798;0.00000;,
 -13.06564;11.89798;-13.06562;,
 0.00000;11.89798;-18.47758;,
 10.00000;5.40952;-10.00000;,
 0.00000;5.40952;-14.14214;,
 14.14214;5.40952;0.00000;,
 10.00000;5.40952;10.00000;,
 0.00000;5.40952;14.14214;,
 -10.00000;5.40952;10.00000;,
 -14.14214;5.40952;0.00000;,
 -10.00000;5.40952;-10.00000;,
 0.00000;5.40952;-14.14214;,
 5.41196;1.07406;-5.41196;,
 0.00000;1.07406;-7.65366;,
 7.65366;1.07406;0.00000;,
 5.41196;1.07406;5.41196;,
 0.00000;1.07406;7.65366;,
 -5.41196;1.07406;5.41196;,
 -7.65366;1.07406;0.00000;,
 -5.41196;1.07406;-5.41196;,
 0.00000;1.07406;-7.65366;,
 0.00000;-0.44836;-0.00000;,
 0.00000;-0.44836;-0.00000;,
 0.00000;-0.44836;-0.00000;,
 0.00000;-0.44836;-0.00000;,
 0.00000;-0.44836;-0.00000;,
 0.00000;-0.44836;-0.00000;,
 0.00000;-0.44836;-0.00000;,
 0.00000;-0.44836;-0.00000;,
 -16.78772;25.69548;-11.03498;,
 -13.27770;24.43970;-15.02246;,
 -14.51970;18.54570;-17.14986;,
 -19.92154;27.44274;-1.66180;,
 -6.96766;17.84094;-17.62620;,
 -3.46862;10.81240;-18.56376;,
 -16.34440;13.87040;-11.95578;,
 -18.86306;20.38286;-7.44040;,
 -10.93194;12.49232;-16.56396;,
 -6.96766;17.84094;-17.62620;,
 -6.69880;17.84094;-16.62284;,
 -3.19976;10.81240;-17.56042;,
 -3.46862;10.81240;-18.56376;,
 -10.66310;12.49232;-15.56062;,
 -10.93194;12.49232;-16.56396;,
 -6.69880;17.84094;-16.62284;,
 -12.54320;24.43970;-14.28796;,
 -13.07316;18.54570;-13.75802;,
 -3.19976;10.81240;-17.56042;,
 -15.88816;25.69548;-10.51562;,
 -19.02196;27.44274;-1.14244;,
 -15.60990;13.87040;-11.22128;,
 -10.66310;12.49232;-15.56062;,
 -17.96348;20.38286;-6.92104;,
 -15.88816;25.69548;-10.51562;,
 -16.78772;25.69548;-11.03498;,
 -19.92154;27.44274;-1.66180;,
 -19.02196;27.44274;-1.14244;,
 -18.86306;20.38286;-7.44040;,
 -17.96348;20.38286;-6.92104;,
 -13.27770;24.43970;-15.02246;,
 -16.78772;25.69548;-11.03498;,
 -6.96766;17.84094;-17.62620;,
 -18.86306;20.38286;-7.44040;,
 -16.34440;13.87040;-11.95578;,
 -10.93194;12.49232;-16.56396;,
 15.52556;25.69548;-9.42486;,
 12.50936;24.43970;-14.42412;,
 13.03932;18.54570;-13.89416;,
 18.65936;27.44274;-0.05168;,
 6.62412;17.84094;-16.60658;,
 3.12508;10.81240;-17.54414;,
 15.57606;13.87040;-11.35742;,
 17.60090;20.38286;-5.83028;,
 10.58842;12.49232;-15.54436;,
 6.62412;17.84094;-16.60658;,
 6.89298;17.84094;-17.60992;,
 3.39394;10.81240;-18.54750;,
 3.12508;10.81240;-17.54414;,
 10.85726;12.49232;-16.54770;,
 10.58842;12.49232;-15.54436;,
 6.89298;17.84094;-17.60992;,
 13.24386;24.43970;-15.15862;,
 14.48586;18.54570;-17.28600;,
 3.39394;10.81240;-18.54750;,
 16.42514;25.69548;-9.94422;,
 19.55894;27.44274;-0.57104;,
 16.31056;13.87040;-12.09192;,
 10.85726;12.49232;-16.54770;,
 18.50046;20.38286;-6.34964;,
 16.42514;25.69548;-9.94422;,
 15.52556;25.69548;-9.42486;,
 18.65936;27.44274;-0.05168;,
 19.55894;27.44274;-0.57104;,
 17.60090;20.38286;-5.83028;,
 18.50046;20.38286;-6.34964;,
 12.50936;24.43970;-14.42412;,
 15.52556;25.69548;-9.42486;,
 6.62412;17.84094;-16.60658;,
 17.60090;20.38286;-5.83028;,
 15.57606;13.87040;-11.35742;,
 10.58842;12.49232;-15.54436;;
 
 96;
 3;0,1,2;,
 3;3,4,1;,
 3;5,6,4;,
 3;7,8,6;,
 3;9,10,8;,
 3;11,12,10;,
 3;13,14,12;,
 3;15,16,14;,
 4;2,1,17,18;,
 4;1,4,19,17;,
 4;4,6,20,19;,
 4;6,8,21,20;,
 4;8,10,22,21;,
 4;10,12,23,22;,
 4;12,14,24,23;,
 4;14,16,25,24;,
 4;18,17,26,27;,
 4;17,19,28,26;,
 4;19,20,29,28;,
 4;20,21,30,29;,
 4;21,22,31,30;,
 4;22,23,32,31;,
 4;23,24,33,32;,
 4;24,25,34,33;,
 4;27,26,35,36;,
 4;26,28,37,35;,
 4;28,29,38,37;,
 4;29,30,39,38;,
 4;30,31,40,39;,
 4;31,32,41,40;,
 4;32,33,42,41;,
 4;33,34,43,42;,
 4;36,35,44,45;,
 4;35,37,46,44;,
 4;37,38,47,46;,
 4;38,39,48,47;,
 4;39,40,49,48;,
 4;40,41,50,49;,
 4;41,42,51,50;,
 4;42,43,52,51;,
 4;45,44,53,54;,
 4;44,46,55,53;,
 4;46,47,56,55;,
 4;47,48,57,56;,
 4;48,49,58,57;,
 4;49,50,59,58;,
 4;50,51,60,59;,
 4;51,52,61,60;,
 4;54,53,62,63;,
 4;53,55,64,62;,
 4;55,56,65,64;,
 4;56,57,66,65;,
 4;57,58,67,66;,
 4;58,59,68,67;,
 4;59,60,69,68;,
 4;60,61,70,69;,
 3;63,62,71;,
 3;62,64,72;,
 3;64,65,73;,
 3;65,66,74;,
 3;66,67,75;,
 3;67,68,76;,
 3;68,69,77;,
 3;69,70,78;,
 4;79,80,81,82;,
 4;80,83,84,81;,
 4;82,81,85,86;,
 4;81,84,87,85;,
 4;88,89,90,91;,
 4;91,90,92,93;,
 4;94,95,96,97;,
 4;95,98,99,96;,
 4;97,96,100,101;,
 4;96,99,102,100;,
 4;103,104,105,106;,
 4;106,105,107,108;,
 4;103,95,109,110;,
 4;95,89,111,109;,
 4;112,113,100,108;,
 4;113,114,92,100;,
 4;115,116,117,118;,
 4;116,119,120,117;,
 4;118,117,121,122;,
 4;117,120,123,121;,
 4;124,125,126,127;,
 4;127,126,128,129;,
 4;130,131,132,133;,
 4;131,134,135,132;,
 4;133,132,136,137;,
 4;132,135,138,136;,
 4;139,140,141,142;,
 4;142,141,143,144;,
 4;139,131,145,146;,
 4;131,125,147,145;,
 4;148,149,136,144;,
 4;149,150,128,136;;
 
 MeshMaterialList {
  2;
  96;
  0,
  0,
  0,
  0,
  0,
  0,
  0,
  0,
  0,
  0,
  0,
  0,
  0,
  0,
  0,
  0,
  0,
  0,
  0,
  0,
  0,
  0,
  0,
  0,
  0,
  0,
  0,
  0,
  0,
  0,
  0,
  0,
  0,
  0,
  0,
  0,
  0,
  0,
  0,
  0,
  0,
  0,
  0,
  0,
  0,
  0,
  0,
  0,
  0,
  0,
  0,
  0,
  0,
  0,
  0,
  0,
  0,
  0,
  0,
  0,
  0,
  0,
  0,
  0,
  1,
  1,
  1,
  1,
  1,
  1,
  1,
  1,
  1,
  1,
  1,
  1,
  1,
  1,
  1,
  1,
  1,
  1,
  1,
  1,
  1,
  1,
  1,
  1,
  1,
  1,
  1,
  1,
  1,
  1,
  1,
  1;;
  Material {
   0.150588;0.150588;0.150588;1.000000;;
   5.000000;
   0.000000;0.000000;0.000000;;
   0.000000;0.000000;0.000000;;
  }
  Material {
   0.800000;0.800000;0.800000;1.000000;;
   5.000000;
   0.000000;0.000000;0.000000;;
   0.000000;0.000000;0.000000;;
  }
 }
 MeshNormals {
  113;
  -0.000000;1.000000;0.000000;,
  0.000000;0.924735;-0.380611;,
  0.269133;0.924735;-0.269133;,
  0.380611;0.924735;0.000000;,
  0.269133;0.924735;0.269133;,
  0.000000;0.924735;0.380611;,
  -0.269133;0.924735;0.269133;,
  -0.380611;0.924735;0.000000;,
  -0.269133;0.924735;-0.269133;,
  0.000000;0.709230;-0.704977;,
  0.498494;0.709230;-0.498494;,
  0.704977;0.709230;0.000000;,
  0.498494;0.709230;0.498494;,
  0.000000;0.709230;0.704977;,
  -0.498494;0.709230;0.498494;,
  -0.704977;0.709230;0.000000;,
  -0.498494;0.709230;-0.498494;,
  0.000000;0.384551;-0.923104;,
  0.652733;0.384551;-0.652733;,
  0.923104;0.384551;0.000000;,
  0.652733;0.384551;0.652733;,
  0.000000;0.384551;0.923104;,
  -0.652733;0.384551;0.652733;,
  -0.923104;0.384551;0.000000;,
  -0.652733;0.384551;-0.652733;,
  0.000000;-0.000000;-1.000000;,
  0.707107;-0.000000;-0.707107;,
  1.000000;-0.000000;-0.000000;,
  0.707107;-0.000000;0.707107;,
  0.000000;-0.000000;1.000000;,
  -0.707107;-0.000000;0.707107;,
  -1.000000;-0.000000;0.000000;,
  -0.707107;-0.000000;-0.707107;,
  0.000000;-0.384551;-0.923104;,
  0.652733;-0.384551;-0.652733;,
  0.923104;-0.384551;-0.000000;,
  0.652733;-0.384551;0.652733;,
  0.000000;-0.384551;0.923104;,
  -0.652733;-0.384551;0.652733;,
  -0.923104;-0.384551;0.000000;,
  -0.652733;-0.384551;-0.652733;,
  0.000000;-0.709230;-0.704977;,
  0.498494;-0.709230;-0.498494;,
  0.704977;-0.709230;-0.000000;,
  0.498494;-0.709230;0.498494;,
  0.000000;-0.709230;0.704977;,
  -0.498494;-0.709230;0.498494;,
  -0.704977;-0.709230;0.000000;,
  -0.498494;-0.709230;-0.498494;,
  0.000000;-0.924735;-0.380612;,
  0.269133;-0.924735;-0.269133;,
  0.380612;-0.924735;-0.000000;,
  0.269133;-0.924735;0.269133;,
  0.000000;-0.924735;0.380612;,
  -0.269133;-0.924735;0.269133;,
  -0.380612;-0.924735;0.000000;,
  -0.269133;-0.924735;-0.269133;,
  -0.000000;-1.000000;0.000000;,
  -0.834619;0.180370;-0.520458;,
  -0.491973;0.229115;-0.839922;,
  -0.872907;0.126731;-0.471140;,
  -0.642482;0.032073;-0.765629;,
  -0.905280;0.072233;-0.418629;,
  -0.745728;-0.157334;-0.647407;,
  -0.040188;0.227033;-0.973057;,
  -0.286341;-0.075414;-0.955155;,
  -0.488860;-0.366369;-0.791701;,
  0.750554;0.589792;-0.298017;,
  0.675308;0.099563;0.730785;,
  0.858596;0.458128;-0.230071;,
  0.653952;-0.037713;0.755595;,
  -0.189790;-0.978763;0.077483;,
  0.620633;-0.170698;0.765296;,
  0.867960;0.123596;0.481009;,
  0.828768;-0.065027;0.555802;,
  0.754179;-0.250873;0.606858;,
  -0.910064;0.060121;0.410083;,
  -0.699539;0.064917;0.711639;,
  -0.877257;-0.092176;0.471088;,
  -0.684535;-0.048125;0.727390;,
  -0.819892;-0.241894;0.518907;,
  -0.661304;-0.157210;0.733459;,
  -0.394380;0.060931;0.916925;,
  -0.423624;0.000363;0.905838;,
  -0.450900;-0.060208;0.890541;,
  -0.751238;0.588538;-0.298773;,
  0.020114;0.230447;-0.972877;,
  -0.858595;0.458128;-0.230071;,
  0.560910;-0.031632;-0.827272;,
  0.190215;-0.978646;0.077907;,
  0.766763;-0.168839;-0.619329;,
  0.865484;0.224888;-0.447619;,
  0.902901;0.149833;-0.402889;,
  0.932162;0.073425;-0.354519;,
  -0.205217;-0.977171;0.054989;,
  0.415071;0.065566;0.907423;,
  0.437072;-0.008289;0.899389;,
  0.456448;-0.082095;0.885954;,
  0.116584;0.978424;-0.170568;,
  0.088777;0.984111;-0.153767;,
  -0.393514;-0.616899;0.681603;,
  -0.439027;-0.612992;0.656883;,
  0.397258;0.872877;-0.283322;,
  -0.352270;-0.850200;0.391235;,
  0.205217;-0.977171;0.054988;,
  0.273141;-0.083994;-0.958300;,
  0.481617;-0.384735;-0.787416;,
  -0.107304;0.981420;-0.159062;,
  -0.088776;0.984111;-0.153768;,
  0.393518;-0.616898;0.681601;,
  0.425899;-0.640558;0.638980;,
  -0.390234;0.879170;-0.273454;,
  0.334131;-0.867942;0.367468;;
  96;
  3;0,2,1;,
  3;0,3,2;,
  3;0,4,3;,
  3;0,5,4;,
  3;0,6,5;,
  3;0,7,6;,
  3;0,8,7;,
  3;0,1,8;,
  4;1,2,10,9;,
  4;2,3,11,10;,
  4;3,4,12,11;,
  4;4,5,13,12;,
  4;5,6,14,13;,
  4;6,7,15,14;,
  4;7,8,16,15;,
  4;8,1,9,16;,
  4;9,10,18,17;,
  4;10,11,19,18;,
  4;11,12,20,19;,
  4;12,13,21,20;,
  4;13,14,22,21;,
  4;14,15,23,22;,
  4;15,16,24,23;,
  4;16,9,17,24;,
  4;17,18,26,25;,
  4;18,19,27,26;,
  4;19,20,28,27;,
  4;20,21,29,28;,
  4;21,22,30,29;,
  4;22,23,31,30;,
  4;23,24,32,31;,
  4;24,17,25,32;,
  4;25,26,34,33;,
  4;26,27,35,34;,
  4;27,28,36,35;,
  4;28,29,37,36;,
  4;29,30,38,37;,
  4;30,31,39,38;,
  4;31,32,40,39;,
  4;32,25,33,40;,
  4;33,34,42,41;,
  4;34,35,43,42;,
  4;35,36,44,43;,
  4;36,37,45,44;,
  4;37,38,46,45;,
  4;38,39,47,46;,
  4;39,40,48,47;,
  4;40,33,41,48;,
  4;41,42,50,49;,
  4;42,43,51,50;,
  4;43,44,52,51;,
  4;44,45,53,52;,
  4;45,46,54,53;,
  4;46,47,55,54;,
  4;47,48,56,55;,
  4;48,41,49,56;,
  3;49,50,57;,
  3;50,51,57;,
  3;51,52,57;,
  3;52,53,57;,
  3;53,54,57;,
  3;54,55,57;,
  3;55,56,57;,
  3;56,49,57;,
  4;58,59,61,60;,
  4;59,64,65,61;,
  4;60,61,63,62;,
  4;61,65,66,63;,
  4;67,67,69,69;,
  4;94,94,71,71;,
  4;95,68,70,96;,
  4;68,73,74,70;,
  4;96,70,72,97;,
  4;70,74,75,72;,
  4;98,98,99,99;,
  4;100,100,101,101;,
  4;98,102,102,98;,
  4;102,67,67,102;,
  4;101,103,103,101;,
  4;103,71,71,103;,
  4;76,77,79,78;,
  4;77,82,83,79;,
  4;78,79,81,80;,
  4;79,83,84,81;,
  4;85,85,87,87;,
  4;104,104,89,89;,
  4;86,86,88,105;,
  4;91,91,92,91;,
  4;105,88,90,106;,
  4;88,92,93,90;,
  4;107,107,108,108;,
  4;109,109,110,110;,
  4;107,111,111,107;,
  4;111,85,85,111;,
  4;110,112,112,110;,
  4;112,89,89,112;;
 }
 MeshTextureCoords {
  151;
  0.062500;0.000000;,
  0.125000;0.125000;,
  0.000000;0.125000;,
  0.187500;0.000000;,
  0.250000;0.125000;,
  0.312500;0.000000;,
  0.375000;0.125000;,
  0.437500;0.000000;,
  0.500000;0.125000;,
  0.562500;0.000000;,
  0.625000;0.125000;,
  0.687500;0.000000;,
  0.750000;0.125000;,
  0.812500;0.000000;,
  0.875000;0.125000;,
  0.937500;0.000000;,
  1.000000;0.125000;,
  0.125000;0.250000;,
  0.000000;0.250000;,
  0.250000;0.250000;,
  0.375000;0.250000;,
  0.500000;0.250000;,
  0.625000;0.250000;,
  0.750000;0.250000;,
  0.875000;0.250000;,
  1.000000;0.250000;,
  0.125000;0.375000;,
  0.000000;0.375000;,
  0.250000;0.375000;,
  0.375000;0.375000;,
  0.500000;0.375000;,
  0.625000;0.375000;,
  0.750000;0.375000;,
  0.875000;0.375000;,
  1.000000;0.375000;,
  0.125000;0.500000;,
  0.000000;0.500000;,
  0.250000;0.500000;,
  0.375000;0.500000;,
  0.500000;0.500000;,
  0.625000;0.500000;,
  0.750000;0.500000;,
  0.875000;0.500000;,
  1.000000;0.500000;,
  0.125000;0.625000;,
  0.000000;0.625000;,
  0.250000;0.625000;,
  0.375000;0.625000;,
  0.500000;0.625000;,
  0.625000;0.625000;,
  0.750000;0.625000;,
  0.875000;0.625000;,
  1.000000;0.625000;,
  0.125000;0.750000;,
  0.000000;0.750000;,
  0.250000;0.750000;,
  0.375000;0.750000;,
  0.500000;0.750000;,
  0.625000;0.750000;,
  0.750000;0.750000;,
  0.875000;0.750000;,
  1.000000;0.750000;,
  0.125000;0.875000;,
  0.000000;0.875000;,
  0.250000;0.875000;,
  0.375000;0.875000;,
  0.500000;0.875000;,
  0.625000;0.875000;,
  0.750000;0.875000;,
  0.875000;0.875000;,
  1.000000;0.875000;,
  0.062500;1.000000;,
  0.187500;1.000000;,
  0.312500;1.000000;,
  0.437500;1.000000;,
  0.562500;1.000000;,
  0.687500;1.000000;,
  0.812500;1.000000;,
  0.937500;1.000000;,
  0.000000;0.000000;,
  0.500000;0.000000;,
  0.500000;0.500000;,
  0.000000;0.500000;,
  1.000000;0.000000;,
  1.000000;0.500000;,
  0.500000;1.000000;,
  0.000000;1.000000;,
  1.000000;1.000000;,
  0.000000;0.000000;,
  1.000000;0.000000;,
  1.000000;0.500000;,
  0.000000;0.500000;,
  1.000000;1.000000;,
  0.000000;1.000000;,
  0.000000;0.000000;,
  0.500000;0.000000;,
  0.500000;0.500000;,
  0.000000;0.500000;,
  1.000000;0.000000;,
  1.000000;0.500000;,
  0.500000;1.000000;,
  0.000000;1.000000;,
  1.000000;1.000000;,
  0.000000;0.000000;,
  1.000000;0.000000;,
  1.000000;0.500000;,
  0.000000;0.500000;,
  1.000000;1.000000;,
  0.000000;1.000000;,
  0.500000;1.000000;,
  0.000000;1.000000;,
  1.000000;1.000000;,
  0.000000;0.000000;,
  0.500000;0.000000;,
  1.000000;0.000000;,
  0.000000;0.000000;,
  0.500000;0.000000;,
  0.500000;0.500000;,
  0.000000;0.500000;,
  1.000000;0.000000;,
  1.000000;0.500000;,
  0.500000;1.000000;,
  0.000000;1.000000;,
  1.000000;1.000000;,
  0.000000;0.000000;,
  1.000000;0.000000;,
  1.000000;0.500000;,
  0.000000;0.500000;,
  1.000000;1.000000;,
  0.000000;1.000000;,
  0.000000;0.000000;,
  0.500000;0.000000;,
  0.500000;0.500000;,
  0.000000;0.500000;,
  1.000000;0.000000;,
  1.000000;0.500000;,
  0.500000;1.000000;,
  0.000000;1.000000;,
  1.000000;1.000000;,
  0.000000;0.000000;,
  1.000000;0.000000;,
  1.000000;0.500000;,
  0.000000;0.500000;,
  1.000000;1.000000;,
  0.000000;1.000000;,
  0.500000;1.000000;,
  0.000000;1.000000;,
  1.000000;1.000000;,
  0.000000;0.000000;,
  0.500000;0.000000;,
  1.000000;0.000000;;
 }
}
