xof 0302txt 0064
template Header {
 <3D82AB43-62DA-11cf-AB39-0020AF71E433>
 WORD major;
 WORD minor;
 DWORD flags;
}

template Vector {
 <3D82AB5E-62DA-11cf-AB39-0020AF71E433>
 FLOAT x;
 FLOAT y;
 FLOAT z;
}

template Coords2d {
 <F6F23F44-7686-11cf-8F52-0040333594A3>
 FLOAT u;
 FLOAT v;
}

template Matrix4x4 {
 <F6F23F45-7686-11cf-8F52-0040333594A3>
 array FLOAT matrix[16];
}

template ColorRGBA {
 <35FF44E0-6C7C-11cf-8F52-0040333594A3>
 FLOAT red;
 FLOAT green;
 FLOAT blue;
 FLOAT alpha;
}

template ColorRGB {
 <D3E16E81-7835-11cf-8F52-0040333594A3>
 FLOAT red;
 FLOAT green;
 FLOAT blue;
}

template IndexedColor {
 <1630B820-7842-11cf-8F52-0040333594A3>
 DWORD index;
 ColorRGBA indexColor;
}

template Boolean {
 <4885AE61-78E8-11cf-8F52-0040333594A3>
 WORD truefalse;
}

template Boolean2d {
 <4885AE63-78E8-11cf-8F52-0040333594A3>
 Boolean u;
 Boolean v;
}

template MaterialWrap {
 <4885AE60-78E8-11cf-8F52-0040333594A3>
 Boolean u;
 Boolean v;
}

template TextureFilename {
 <A42790E1-7810-11cf-8F52-0040333594A3>
 STRING filename;
}

template Material {
 <3D82AB4D-62DA-11cf-AB39-0020AF71E433>
 ColorRGBA faceColor;
 FLOAT power;
 ColorRGB specularColor;
 ColorRGB emissiveColor;
 [...]
}

template MeshFace {
 <3D82AB5F-62DA-11cf-AB39-0020AF71E433>
 DWORD nFaceVertexIndices;
 array DWORD faceVertexIndices[nFaceVertexIndices];
}

template MeshFaceWraps {
 <4885AE62-78E8-11cf-8F52-0040333594A3>
 DWORD nFaceWrapValues;
 Boolean2d faceWrapValues;
}

template MeshTextureCoords {
 <F6F23F40-7686-11cf-8F52-0040333594A3>
 DWORD nTextureCoords;
 array Coords2d textureCoords[nTextureCoords];
}

template MeshMaterialList {
 <F6F23F42-7686-11cf-8F52-0040333594A3>
 DWORD nMaterials;
 DWORD nFaceIndexes;
 array DWORD faceIndexes[nFaceIndexes];
 [Material]
}

template MeshNormals {
 <F6F23F43-7686-11cf-8F52-0040333594A3>
 DWORD nNormals;
 array Vector normals[nNormals];
 DWORD nFaceNormals;
 array MeshFace faceNormals[nFaceNormals];
}

template MeshVertexColors {
 <1630B821-7842-11cf-8F52-0040333594A3>
 DWORD nVertexColors;
 array IndexedColor vertexColors[nVertexColors];
}

template Mesh {
 <3D82AB44-62DA-11cf-AB39-0020AF71E433>
 DWORD nVertices;
 array Vector vertices[nVertices];
 DWORD nFaces;
 array MeshFace faces[nFaces];
 [...]
}

Header{
1;
0;
1;
}

Mesh {
 109;
 0.00000;-1.24285;-0.00000;,
 0.00000;-1.24285;-6.47966;,
 4.58181;-1.24285;-4.58181;,
 0.00000;-1.24285;-0.00000;,
 6.47966;-1.24285;0.00000;,
 0.00000;-1.24285;-0.00000;,
 4.58181;-1.24285;4.58181;,
 0.00000;-1.24285;-0.00000;,
 -0.00000;-1.24285;6.47966;,
 0.00000;-1.24285;-0.00000;,
 -4.58181;-1.24285;4.58181;,
 0.00000;-1.24285;-0.00000;,
 -6.47966;-1.24285;0.00000;,
 0.00000;-1.24285;-0.00000;,
 -4.58181;-1.24285;-4.58181;,
 0.00000;-1.24285;-0.00000;,
 0.00000;-1.24285;-6.47966;,
 4.66220;10.63390;0.00000;,
 3.29668;10.63390;-3.29668;,
 3.29668;51.97589;-3.29668;,
 4.66220;51.97589;0.00000;,
 3.29668;51.97589;3.29668;,
 3.29668;10.63390;3.29668;,
 0.00000;10.63390;-4.66220;,
 0.00000;51.97589;-4.66220;,
 0.00000;51.97589;4.66220;,
 0.00000;10.63390;4.66220;,
 0.00000;10.63390;-4.66220;,
 -3.29668;10.63390;-3.29668;,
 -3.29668;51.97589;-3.29668;,
 0.00000;51.97589;-4.66220;,
 -3.29668;51.97589;3.29668;,
 -3.29668;10.63390;3.29668;,
 -4.66220;10.63390;0.00000;,
 -4.66220;51.97589;0.00000;,
 0.00000;62.29297;-5.30773;,
 3.75313;62.29297;-3.75313;,
 5.30773;62.29297;0.00000;,
 3.75313;62.29297;3.75313;,
 0.00000;62.29297;5.30773;,
 -3.75313;62.29297;3.75313;,
 -5.30773;62.29297;0.00000;,
 -3.75313;62.29297;-3.75313;,
 0.00000;62.29297;-5.30773;,
 0.00000;66.48225;-3.42212;,
 2.41980;66.48225;-2.41980;,
 0.00000;66.48225;0.00000;,
 3.42212;66.48225;0.00000;,
 0.00000;66.48225;0.00000;,
 2.41980;66.48225;2.41980;,
 0.00000;66.48225;0.00000;,
 0.00000;66.48225;3.42212;,
 0.00000;66.48225;0.00000;,
 -2.41980;66.48225;2.41980;,
 0.00000;66.48225;0.00000;,
 -3.42212;66.48225;0.00000;,
 0.00000;66.48225;0.00000;,
 -2.41980;66.48225;-2.41980;,
 0.00000;66.48225;0.00000;,
 0.00000;66.48225;-3.42212;,
 0.00000;66.48225;0.00000;,
 -99.43433;80.30823;15.72726;,
 -33.40902;157.61404;15.72726;,
 41.43428;93.69172;-9.72728;,
 -24.59101;16.38602;-9.72728;,
 72.69705;31.14909;-25.54137;,
 -22.08824;1.67761;-47.51140;,
 -58.69707;82.85085;1.54136;,
 36.08823;112.32224;23.51127;,
 -19.66827;171.75698;9.22603;,
 70.40609;130.25313;31.57669;,
 33.66823;38.24296;8.77393;,
 -56.40603;79.74692;-13.57679;,
 50.57049;158.45469;-15.87685;,
 94.88030;67.33967;-7.49540;,
 3.42954;23.54518;-0.12306;,
 -40.87990;114.66015;-8.50469;,
 97.64760;80.30823;19.03611;,
 34.18001;157.61404;0.83711;,
 -44.78016;93.69172;4.67592;,
 18.68748;16.38602;22.87497;,
 -79.19082;31.14910;11.26023;,
 5.86691;1.67761;58.50562;,
 54.57832;82.85085;21.44377;,
 -30.47942;112.32224;-25.80137;,
 19.17968;171.75698;3.29898;,
 -61.24470;130.25313;-43.01364;,
 -32.21530;38.24296;-10.96797;,
 48.20892;79.74692;35.34475;,
 -55.25750;158.45469;8.06899;,
 -95.54053;67.33967;-12.20121;,
 -5.60032;23.54518;5.91929;,
 34.68227;114.66015;26.18954;,
 -58.69474;28.14909;-69.40862;,
 -47.76463;-1.32239;27.27366;,
 10.69483;79.85085;45.40849;,
 -0.23541;109.32224;-51.27377;,
 54.69474;28.14909;-62.40862;,
 -3.76459;109.32224;-44.27377;,
 -14.69483;79.85085;52.40849;,
 43.76463;-1.32239;34.27366;,
 -24.04647;166.31554;33.81780;,
 -10.22709;149.60064;-65.50562;,
 -3.95343;49.68423;-47.81785;,
 -17.77287;66.39940;51.50547;,
 59.27765;158.84186;33.81780;,
 17.61400;67.81039;51.50547;,
 -1.27774;57.15790;-47.81785;,
 40.38605;148.18955;-65.50562;;
 
 60;
 3;0,1,2;,
 3;3,2,4;,
 3;5,4,6;,
 3;7,6,8;,
 3;9,8,10;,
 3;11,10,12;,
 3;13,12,14;,
 3;15,14,16;,
 4;17,4,2,18;,
 4;17,18,19,20;,
 4;17,20,21,22;,
 4;17,22,6,4;,
 4;18,2,1,23;,
 4;18,23,24,19;,
 4;22,21,25,26;,
 4;22,26,8,6;,
 4;27,16,14,28;,
 4;27,28,29,30;,
 4;26,25,31,32;,
 4;26,32,10,8;,
 4;28,14,12,33;,
 4;28,33,34,29;,
 4;32,31,34,33;,
 4;32,33,12,10;,
 4;35,36,19,24;,
 4;36,37,20,19;,
 4;37,38,21,20;,
 4;38,39,25,21;,
 4;39,40,31,25;,
 4;40,41,34,31;,
 4;41,42,29,34;,
 4;42,43,30,29;,
 4;44,45,36,35;,
 3;46,45,44;,
 4;45,47,37,36;,
 3;48,47,45;,
 4;47,49,38,37;,
 3;50,49,47;,
 4;49,51,39,38;,
 3;52,51,49;,
 4;51,53,40,39;,
 3;54,53,51;,
 4;53,55,41,40;,
 3;56,55,53;,
 4;55,57,42,41;,
 3;58,57,55;,
 4;57,59,43,42;,
 3;60,59,57;,
 4;61,62,63,64;,
 4;65,66,67,68;,
 4;69,70,71,72;,
 4;73,74,75,76;,
 4;77,78,79,80;,
 4;81,82,83,84;,
 4;85,86,87,88;,
 4;89,90,91,92;,
 4;93,94,95,96;,
 4;97,98,99,100;,
 4;101,102,103,104;,
 4;105,106,107,108;;
 
 MeshMaterialList {
  2;
  60;
  0,
  0,
  0,
  0,
  0,
  0,
  0,
  0,
  0,
  0,
  0,
  0,
  0,
  0,
  0,
  0,
  0,
  0,
  0,
  0,
  0,
  0,
  0,
  0,
  0,
  0,
  0,
  0,
  0,
  0,
  0,
  0,
  0,
  0,
  0,
  0,
  0,
  0,
  0,
  0,
  0,
  0,
  0,
  0,
  0,
  0,
  0,
  0,
  1,
  1,
  1,
  1,
  1,
  1,
  1,
  1,
  1,
  1,
  1,
  1;;
  Material {
   0.385600;0.238400;0.197600;1.000000;;
   5.000000;
   0.000000;0.000000;0.000000;;
   0.000000;0.000000;0.000000;;
  }
  Material {
   0.800000;0.800000;0.800000;1.000000;;
   5.000000;
   0.000000;0.000000;0.000000;;
   0.000000;0.000000;0.000000;;
   TextureFilename {
    "C:\\Users\\student\\Desktop\\babel\\date\\MODEL\\mqo\\texture\\ki\\pngegg.png";
   }
  }
 }
 MeshNormals {
  54;
  0.000000;-0.031243;-0.999512;,
  0.706762;-0.031243;-0.706762;,
  0.999512;-0.031243;-0.000000;,
  0.706762;-0.031243;0.706762;,
  0.000000;-0.031243;0.999512;,
  -0.706762;-0.031243;0.706762;,
  -0.999512;-0.031243;0.000000;,
  -0.706762;-0.031243;-0.706762;,
  0.000000;-1.000000;0.000000;,
  0.997114;0.075915;-0.000000;,
  0.705066;0.075915;-0.705066;,
  0.705066;0.075915;0.705066;,
  0.000000;0.075915;-0.997114;,
  0.000000;0.075915;0.997114;,
  -0.705066;0.075915;-0.705066;,
  -0.705066;0.075915;0.705066;,
  -0.997114;0.075915;-0.000000;,
  0.000000;0.180739;-0.983531;,
  0.695462;0.180739;-0.695462;,
  0.983531;0.180739;0.000000;,
  0.695462;0.180739;0.695462;,
  0.000000;0.180739;0.983531;,
  -0.695462;0.180739;0.695462;,
  -0.983531;0.180739;0.000000;,
  -0.695462;0.180739;-0.695462;,
  0.000000;1.000000;0.000000;,
  0.000000;0.410443;-0.911886;,
  0.644801;0.410443;-0.644801;,
  0.911886;0.410443;0.000000;,
  0.644801;0.410443;0.644801;,
  0.000000;0.410443;0.911886;,
  -0.644801;0.410443;0.644801;,
  -0.911886;0.410443;0.000000;,
  -0.644801;0.410443;-0.644801;,
  0.988493;0.151265;0.000000;,
  0.698970;0.151265;-0.698970;,
  0.698970;0.151265;0.698970;,
  0.000000;0.151265;-0.988493;,
  0.000000;0.151265;0.988493;,
  -0.698970;0.151265;-0.698970;,
  -0.698970;0.151265;0.698970;,
  -0.988493;0.151265;0.000000;,
  -0.190390;0.162609;-0.968148;,
  0.032676;0.527675;-0.848818;,
  0.290542;0.119281;-0.949399;,
  -0.029477;-0.105767;-0.993954;,
  -0.083843;0.162608;0.983122;,
  -0.265376;0.527675;0.806929;,
  -0.540976;0.119281;0.832536;,
  -0.245636;-0.105767;0.963575;,
  -0.811038;0.527675;0.252540;,
  0.811038;0.527675;0.252540;,
  -0.988794;-0.083939;-0.123450;,
  0.893038;-0.432716;-0.123450;;
  60;
  3;8,8,8;,
  3;8,8,8;,
  3;8,8,8;,
  3;8,8,8;,
  3;8,8,8;,
  3;8,8,8;,
  3;8,8,8;,
  3;8,8,8;,
  4;9,34,35,10;,
  4;9,10,1,2;,
  4;9,2,3,11;,
  4;9,11,36,34;,
  4;10,35,37,12;,
  4;10,12,0,1;,
  4;11,3,4,13;,
  4;11,13,38,36;,
  4;12,37,39,14;,
  4;12,14,7,0;,
  4;13,4,5,15;,
  4;13,15,40,38;,
  4;14,39,41,16;,
  4;14,16,6,7;,
  4;15,5,6,16;,
  4;15,16,41,40;,
  4;17,18,1,0;,
  4;18,19,2,1;,
  4;19,20,3,2;,
  4;20,21,4,3;,
  4;21,22,5,4;,
  4;22,23,6,5;,
  4;23,24,7,6;,
  4;24,17,0,7;,
  4;26,27,18,17;,
  3;25,25,25;,
  4;27,28,19,18;,
  3;25,25,25;,
  4;28,29,20,19;,
  3;25,25,25;,
  4;29,30,21,20;,
  3;25,25,25;,
  4;30,31,22,21;,
  3;25,25,25;,
  4;31,32,23,22;,
  3;25,25,25;,
  4;32,33,24,23;,
  3;25,25,25;,
  4;33,26,17,24;,
  3;25,25,25;,
  4;42,42,42,42;,
  4;43,43,43,43;,
  4;44,44,44,44;,
  4;45,45,45,45;,
  4;46,46,46,46;,
  4;47,47,47,47;,
  4;48,48,48,48;,
  4;49,49,49,49;,
  4;50,50,50,50;,
  4;51,51,51,51;,
  4;52,52,52,52;,
  4;53,53,53,53;;
 }
 MeshTextureCoords {
  109;
  0.062500;1.000000;,
  0.000000;1.000000;,
  0.125000;1.000000;,
  0.187500;1.000000;,
  0.250000;1.000000;,
  0.312500;1.000000;,
  0.375000;1.000000;,
  0.437500;1.000000;,
  0.500000;1.000000;,
  0.562500;1.000000;,
  0.625000;1.000000;,
  0.687500;1.000000;,
  0.750000;1.000000;,
  0.812500;1.000000;,
  0.875000;1.000000;,
  0.937500;1.000000;,
  1.000000;1.000000;,
  0.250000;0.650110;,
  0.125000;0.650110;,
  0.125000;0.000000;,
  0.250000;0.000000;,
  0.375000;0.000000;,
  0.375000;0.650110;,
  0.000000;0.650110;,
  0.000000;0.000000;,
  0.500000;0.000000;,
  0.500000;0.650110;,
  1.000000;0.650110;,
  0.875000;0.650110;,
  0.875000;0.000000;,
  1.000000;0.000000;,
  0.625000;0.000000;,
  0.625000;0.650110;,
  0.750000;0.650110;,
  0.750000;0.000000;,
  0.000000;0.000000;,
  0.125000;0.000000;,
  0.250000;0.000000;,
  0.375000;0.000000;,
  0.500000;0.000000;,
  0.625000;0.000000;,
  0.750000;0.000000;,
  0.875000;0.000000;,
  1.000000;0.000000;,
  0.000000;0.000000;,
  0.125000;0.000000;,
  0.062500;0.000000;,
  0.250000;0.000000;,
  0.187500;0.000000;,
  0.375000;0.000000;,
  0.312500;0.000000;,
  0.500000;0.000000;,
  0.437500;0.000000;,
  0.625000;0.000000;,
  0.562500;0.000000;,
  0.750000;0.000000;,
  0.687500;0.000000;,
  0.875000;0.000000;,
  0.812500;0.000000;,
  1.000000;0.000000;,
  0.937500;0.000000;,
  0.000000;0.000000;,
  1.000000;0.000000;,
  1.000000;1.000000;,
  0.000000;1.000000;,
  0.000000;0.000000;,
  1.000000;0.000000;,
  1.000000;1.000000;,
  0.000000;1.000000;,
  0.000000;0.000000;,
  1.000000;0.000000;,
  1.000000;1.000000;,
  0.000000;1.000000;,
  0.000000;0.000000;,
  1.000000;0.000000;,
  1.000000;1.000000;,
  0.000000;1.000000;,
  0.000000;0.000000;,
  1.000000;0.000000;,
  1.000000;1.000000;,
  0.000000;1.000000;,
  0.000000;0.000000;,
  1.000000;0.000000;,
  1.000000;1.000000;,
  0.000000;1.000000;,
  0.000000;0.000000;,
  1.000000;0.000000;,
  1.000000;1.000000;,
  0.000000;1.000000;,
  0.000000;0.000000;,
  1.000000;0.000000;,
  1.000000;1.000000;,
  0.000000;1.000000;,
  0.000000;0.000000;,
  1.000000;0.000000;,
  1.000000;1.000000;,
  0.000000;1.000000;,
  0.000000;0.000000;,
  0.000000;1.000000;,
  1.000000;1.000000;,
  1.000000;0.000000;,
  0.000000;0.000000;,
  1.000000;0.000000;,
  1.000000;1.000000;,
  0.000000;1.000000;,
  0.000000;0.000000;,
  0.000000;1.000000;,
  1.000000;1.000000;,
  1.000000;0.000000;;
 }
}
