xof 0302txt 0064
template Header {
 <3D82AB43-62DA-11cf-AB39-0020AF71E433>
 WORD major;
 WORD minor;
 DWORD flags;
}

template Vector {
 <3D82AB5E-62DA-11cf-AB39-0020AF71E433>
 FLOAT x;
 FLOAT y;
 FLOAT z;
}

template Coords2d {
 <F6F23F44-7686-11cf-8F52-0040333594A3>
 FLOAT u;
 FLOAT v;
}

template Matrix4x4 {
 <F6F23F45-7686-11cf-8F52-0040333594A3>
 array FLOAT matrix[16];
}

template ColorRGBA {
 <35FF44E0-6C7C-11cf-8F52-0040333594A3>
 FLOAT red;
 FLOAT green;
 FLOAT blue;
 FLOAT alpha;
}

template ColorRGB {
 <D3E16E81-7835-11cf-8F52-0040333594A3>
 FLOAT red;
 FLOAT green;
 FLOAT blue;
}

template IndexedColor {
 <1630B820-7842-11cf-8F52-0040333594A3>
 DWORD index;
 ColorRGBA indexColor;
}

template Boolean {
 <4885AE61-78E8-11cf-8F52-0040333594A3>
 WORD truefalse;
}

template Boolean2d {
 <4885AE63-78E8-11cf-8F52-0040333594A3>
 Boolean u;
 Boolean v;
}

template MaterialWrap {
 <4885AE60-78E8-11cf-8F52-0040333594A3>
 Boolean u;
 Boolean v;
}

template TextureFilename {
 <A42790E1-7810-11cf-8F52-0040333594A3>
 STRING filename;
}

template Material {
 <3D82AB4D-62DA-11cf-AB39-0020AF71E433>
 ColorRGBA faceColor;
 FLOAT power;
 ColorRGB specularColor;
 ColorRGB emissiveColor;
 [...]
}

template MeshFace {
 <3D82AB5F-62DA-11cf-AB39-0020AF71E433>
 DWORD nFaceVertexIndices;
 array DWORD faceVertexIndices[nFaceVertexIndices];
}

template MeshFaceWraps {
 <4885AE62-78E8-11cf-8F52-0040333594A3>
 DWORD nFaceWrapValues;
 Boolean2d faceWrapValues;
}

template MeshTextureCoords {
 <F6F23F40-7686-11cf-8F52-0040333594A3>
 DWORD nTextureCoords;
 array Coords2d textureCoords[nTextureCoords];
}

template MeshMaterialList {
 <F6F23F42-7686-11cf-8F52-0040333594A3>
 DWORD nMaterials;
 DWORD nFaceIndexes;
 array DWORD faceIndexes[nFaceIndexes];
 [Material]
}

template MeshNormals {
 <F6F23F43-7686-11cf-8F52-0040333594A3>
 DWORD nNormals;
 array Vector normals[nNormals];
 DWORD nFaceNormals;
 array MeshFace faceNormals[nFaceNormals];
}

template MeshVertexColors {
 <1630B821-7842-11cf-8F52-0040333594A3>
 DWORD nVertexColors;
 array IndexedColor vertexColors[nVertexColors];
}

template Mesh {
 <3D82AB44-62DA-11cf-AB39-0020AF71E433>
 DWORD nVertices;
 array Vector vertices[nVertices];
 DWORD nFaces;
 array MeshFace faces[nFaces];
 [...]
}

Header{
1;
0;
1;
}

Mesh {
 552;
 -772.52206;93.75000;-52.37265;,
 -472.52197;93.75000;-52.37265;,
 -472.52197;71.25000;-52.37265;,
 -772.52206;71.25000;-52.37265;,
 -472.52197;93.75000;-52.37265;,
 -472.52197;93.75000;52.37265;,
 -472.52197;71.25000;52.37265;,
 -472.52197;71.25000;-52.37265;,
 -472.52197;93.75000;52.37265;,
 -772.52206;93.75000;52.37265;,
 -772.52206;71.25000;52.37265;,
 -472.52197;71.25000;52.37265;,
 -772.52206;93.75000;52.37265;,
 -772.52206;93.75000;-52.37265;,
 -772.52206;71.25000;-52.37265;,
 -772.52206;71.25000;52.37265;,
 -472.52197;93.75000;-52.37265;,
 -772.52206;93.75000;-52.37265;,
 -772.52206;71.25000;-52.37265;,
 -472.52197;71.25000;-52.37265;,
 -397.52197;93.75000;-52.37265;,
 -97.52202;93.75000;-52.37265;,
 -97.52202;71.25000;-52.37265;,
 -397.52197;71.25000;-52.37265;,
 -97.52202;93.75000;-52.37265;,
 -97.52202;93.75000;52.37265;,
 -97.52202;71.25000;52.37265;,
 -97.52202;71.25000;-52.37265;,
 -97.52202;93.75000;52.37265;,
 -397.52197;93.75000;52.37265;,
 -397.52197;71.25000;52.37265;,
 -97.52202;71.25000;52.37265;,
 -397.52197;93.75000;52.37265;,
 -397.52197;93.75000;-52.37265;,
 -397.52197;71.25000;-52.37265;,
 -397.52197;71.25000;52.37265;,
 -97.52202;93.75000;-52.37265;,
 -397.52197;93.75000;-52.37265;,
 -397.52197;71.25000;-52.37265;,
 -97.52202;71.25000;-52.37265;,
 -772.24393;443.30521;-24.17205;,
 -723.89996;443.30521;-24.17205;,
 -723.89996;75.69465;-24.17205;,
 -772.24393;75.69465;-24.17205;,
 -723.89996;443.30521;-24.17205;,
 -723.89996;443.30521;24.17205;,
 -723.89996;75.69465;24.17205;,
 -723.89996;75.69465;-24.17205;,
 -723.89996;443.30521;24.17205;,
 -772.24393;443.30521;24.17205;,
 -772.24393;75.69465;24.17205;,
 -723.89996;75.69465;24.17205;,
 -772.24393;443.30521;24.17205;,
 -772.24393;443.30521;-24.17205;,
 -772.24393;75.69465;-24.17205;,
 -772.24393;75.69465;24.17205;,
 -723.89996;443.30521;-24.17205;,
 -772.24393;443.30521;-24.17205;,
 -772.24393;75.69465;-24.17205;,
 -723.89996;75.69465;-24.17205;,
 -521.74393;443.30521;-24.17205;,
 -473.39996;443.30521;-24.17205;,
 -473.39996;75.69465;-24.17205;,
 -521.74393;75.69465;-24.17205;,
 -473.39996;443.30521;-24.17205;,
 -473.39996;443.30521;24.17205;,
 -473.39996;75.69465;24.17205;,
 -473.39996;75.69465;-24.17205;,
 -473.39996;443.30521;24.17205;,
 -521.74393;443.30521;24.17205;,
 -521.74393;75.69465;24.17205;,
 -473.39996;75.69465;24.17205;,
 -521.74393;443.30521;24.17205;,
 -521.74393;443.30521;-24.17205;,
 -521.74393;75.69465;-24.17205;,
 -521.74393;75.69465;24.17205;,
 -473.39996;443.30521;-24.17205;,
 -521.74393;443.30521;-24.17205;,
 -521.74393;75.69465;-24.17205;,
 -473.39996;75.69465;-24.17205;,
 -397.24393;443.30521;-24.17205;,
 -348.89999;443.30521;-24.17205;,
 -348.89999;75.69465;-24.17205;,
 -397.24393;75.69465;-24.17205;,
 -348.89999;443.30521;-24.17205;,
 -348.89999;443.30521;24.17205;,
 -348.89999;75.69465;24.17205;,
 -348.89999;75.69465;-24.17205;,
 -348.89999;443.30521;24.17205;,
 -397.24393;443.30521;24.17205;,
 -397.24393;75.69465;24.17205;,
 -348.89999;75.69465;24.17205;,
 -397.24393;443.30521;24.17205;,
 -397.24393;443.30521;-24.17205;,
 -397.24393;75.69465;-24.17205;,
 -397.24393;75.69465;24.17205;,
 -348.89999;443.30521;-24.17205;,
 -397.24393;443.30521;-24.17205;,
 -397.24393;75.69465;-24.17205;,
 -348.89999;75.69465;-24.17205;,
 -145.99388;443.30521;-24.17205;,
 -97.64996;443.30521;-24.17205;,
 -97.64996;75.69465;-24.17205;,
 -145.99388;75.69465;-24.17205;,
 -97.64996;443.30521;-24.17205;,
 -97.64996;443.30521;24.17205;,
 -97.64996;75.69465;24.17205;,
 -97.64996;75.69465;-24.17205;,
 -97.64996;443.30521;24.17205;,
 -145.99388;443.30521;24.17205;,
 -145.99388;75.69465;24.17205;,
 -97.64996;75.69465;24.17205;,
 -145.99388;443.30521;24.17205;,
 -145.99388;443.30521;-24.17205;,
 -145.99388;75.69465;-24.17205;,
 -145.99388;75.69465;24.17205;,
 -97.64996;443.30521;-24.17205;,
 -145.99388;443.30521;-24.17205;,
 -145.99388;75.69465;-24.17205;,
 -97.64996;75.69465;-24.17205;,
 8.52673;491.57176;-33.42765;,
 8.52673;443.22780;-33.42765;,
 -862.67093;443.22780;-33.42765;,
 -862.67093;491.57176;-33.42765;,
 8.52673;443.22780;-33.42765;,
 8.52673;443.22780;33.42765;,
 -862.67093;443.22780;33.42765;,
 -862.67093;443.22780;-33.42765;,
 8.52673;443.22780;33.42765;,
 8.52673;491.57176;33.42765;,
 -862.67093;491.57176;33.42765;,
 -862.67093;443.22780;33.42765;,
 8.52673;491.57176;33.42765;,
 8.52673;491.57176;-33.42765;,
 -862.67093;491.57176;-33.42765;,
 -862.67093;491.57176;33.42765;,
 8.52673;443.22780;-33.42765;,
 8.52673;491.57176;-33.42765;,
 -862.67093;491.57176;-33.42765;,
 -862.67093;443.22780;-33.42765;,
 -847.52206;467.65681;-8.91240;,
 -837.49850;465.73920;-5.22960;,
 -837.49850;-6.48225;-251.05259;,
 -847.52206;-4.56510;-254.73555;,
 -833.34622;461.11111;3.66180;,
 -833.34622;-11.11095;-242.16165;,
 -837.49850;456.48271;12.55260;,
 -837.49850;-15.73920;-233.27039;,
 -847.52206;454.56523;16.23555;,
 -847.52206;-17.65650;-229.58759;,
 -857.54562;456.48271;12.55260;,
 -857.54562;-15.73920;-233.27039;,
 -861.69791;461.11111;3.66180;,
 -861.69791;-11.11095;-242.16165;,
 -857.54562;465.73920;-5.22960;,
 -857.54562;-6.48225;-251.05259;,
 -847.52206;467.65681;-8.91240;,
 -847.52206;-4.56510;-254.73555;,
 -847.52206;461.11111;3.66180;,
 -847.52206;461.11111;3.66180;,
 -847.52206;461.11111;3.66180;,
 -847.52206;461.11111;3.66180;,
 -847.52206;461.11111;3.66180;,
 -847.52206;461.11111;3.66180;,
 -847.52206;461.11111;3.66180;,
 -847.52206;461.11111;3.66180;,
 -847.52206;-11.11095;-242.16165;,
 -847.52206;-11.11095;-242.16165;,
 -847.52206;-11.11095;-242.16165;,
 -847.52206;-11.11095;-242.16165;,
 -847.52206;-11.11095;-242.16165;,
 -847.52206;-11.11095;-242.16165;,
 -847.52206;-11.11095;-242.16165;,
 -847.52206;-11.11095;-242.16165;,
 -847.52188;467.65681;10.41240;,
 -857.54562;465.73920;6.72945;,
 -857.54562;-6.48225;252.55259;,
 -847.52188;-4.56510;256.23555;,
 -861.69791;461.11111;-2.16180;,
 -861.69791;-11.11095;243.66149;,
 -857.54562;456.48271;-11.05275;,
 -857.54562;-15.73920;234.77039;,
 -847.52188;454.56523;-14.73555;,
 -847.52188;-17.65650;231.08759;,
 -837.49850;456.48271;-11.05275;,
 -837.49850;-15.73920;234.77039;,
 -833.34622;461.11111;-2.16180;,
 -833.34622;-11.11095;243.66149;,
 -837.49850;465.73920;6.72945;,
 -837.49850;-6.48225;252.55259;,
 -847.52188;467.65681;10.41240;,
 -847.52188;-4.56510;256.23555;,
 -847.52188;461.11111;-2.16180;,
 -847.52188;461.11111;-2.16180;,
 -847.52188;461.11111;-2.16180;,
 -847.52188;461.11111;-2.16180;,
 -847.52188;461.11111;-2.16180;,
 -847.52188;461.11111;-2.16180;,
 -847.52188;461.11111;-2.16180;,
 -847.52188;461.11111;-2.16180;,
 -847.52188;-11.11095;243.66149;,
 -847.52188;-11.11095;243.66149;,
 -847.52188;-11.11095;243.66149;,
 -847.52188;-11.11095;243.66149;,
 -847.52188;-11.11095;243.66149;,
 -847.52188;-11.11095;243.66149;,
 -847.52188;-11.11095;243.66149;,
 -847.52188;-11.11095;243.66149;,
 -7.52193;467.65681;-8.91240;,
 2.50164;465.73920;-5.22960;,
 2.50164;-6.48225;-251.05259;,
 -7.52193;-4.56510;-254.73555;,
 6.65402;461.11111;3.66180;,
 6.65402;-11.11095;-242.16165;,
 2.50164;456.48271;12.55260;,
 2.50164;-15.73920;-233.27039;,
 -7.52193;454.56523;16.23555;,
 -7.52193;-17.65650;-229.58759;,
 -17.54539;456.48271;12.55260;,
 -17.54539;-15.73920;-233.27039;,
 -21.69768;461.11111;3.66180;,
 -21.69768;-11.11095;-242.16165;,
 -17.54539;465.73920;-5.22960;,
 -17.54539;-6.48225;-251.05259;,
 -7.52193;467.65681;-8.91240;,
 -7.52193;-4.56510;-254.73555;,
 -7.52193;461.11111;3.66180;,
 -7.52193;461.11111;3.66180;,
 -7.52193;461.11111;3.66180;,
 -7.52193;461.11111;3.66180;,
 -7.52193;461.11111;3.66180;,
 -7.52193;461.11111;3.66180;,
 -7.52193;461.11111;3.66180;,
 -7.52193;461.11111;3.66180;,
 -7.52193;-11.11095;-242.16165;,
 -7.52193;-11.11095;-242.16165;,
 -7.52193;-11.11095;-242.16165;,
 -7.52193;-11.11095;-242.16165;,
 -7.52193;-11.11095;-242.16165;,
 -7.52193;-11.11095;-242.16165;,
 -7.52193;-11.11095;-242.16165;,
 -7.52193;-11.11095;-242.16165;,
 -7.52174;467.65681;10.41240;,
 -17.54539;465.73920;6.72945;,
 -17.54539;-6.48225;252.55259;,
 -7.52174;-4.56510;256.23555;,
 -21.69768;461.11111;-2.16180;,
 -21.69768;-11.11095;243.66149;,
 -17.54539;456.48271;-11.05275;,
 -17.54539;-15.73920;234.77039;,
 -7.52174;454.56523;-14.73555;,
 -7.52174;-17.65650;231.08759;,
 2.50164;456.48271;-11.05275;,
 2.50164;-15.73920;234.77039;,
 6.65402;461.11111;-2.16180;,
 6.65402;-11.11095;243.66149;,
 2.50164;465.73920;6.72945;,
 2.50164;-6.48225;252.55259;,
 -7.52174;467.65681;10.41240;,
 -7.52174;-4.56510;256.23555;,
 -7.52174;461.11111;-2.16180;,
 -7.52174;461.11111;-2.16180;,
 -7.52174;461.11111;-2.16180;,
 -7.52174;461.11111;-2.16180;,
 -7.52174;461.11111;-2.16180;,
 -7.52174;461.11111;-2.16180;,
 -7.52174;461.11111;-2.16180;,
 -7.52174;461.11111;-2.16180;,
 -7.52174;-11.11095;243.66149;,
 -7.52174;-11.11095;243.66149;,
 -7.52174;-11.11095;243.66149;,
 -7.52174;-11.11095;243.66149;,
 -7.52174;-11.11095;243.66149;,
 -7.52174;-11.11095;243.66149;,
 -7.52174;-11.11095;243.66149;,
 -7.52174;-11.11095;243.66149;,
 67.80192;93.75000;-52.37265;,
 367.80208;93.75000;-52.37265;,
 367.80208;71.25000;-52.37265;,
 67.80192;71.25000;-52.37265;,
 367.80208;93.75000;-52.37265;,
 367.80208;93.75000;52.37265;,
 367.80208;71.25000;52.37265;,
 367.80208;71.25000;-52.37265;,
 367.80208;93.75000;52.37265;,
 67.80192;93.75000;52.37265;,
 67.80192;71.25000;52.37265;,
 367.80208;71.25000;52.37265;,
 67.80192;93.75000;52.37265;,
 67.80192;93.75000;-52.37265;,
 67.80192;71.25000;-52.37265;,
 67.80192;71.25000;52.37265;,
 367.80208;93.75000;-52.37265;,
 67.80192;93.75000;-52.37265;,
 67.80192;71.25000;-52.37265;,
 367.80208;71.25000;-52.37265;,
 442.80208;93.75000;-52.37265;,
 742.80199;93.75000;-52.37265;,
 742.80199;71.25000;-52.37265;,
 442.80208;71.25000;-52.37265;,
 742.80199;93.75000;-52.37265;,
 742.80199;93.75000;52.37265;,
 742.80199;71.25000;52.37265;,
 742.80199;71.25000;-52.37265;,
 742.80199;93.75000;52.37265;,
 442.80208;93.75000;52.37265;,
 442.80208;71.25000;52.37265;,
 742.80199;71.25000;52.37265;,
 442.80208;93.75000;52.37265;,
 442.80208;93.75000;-52.37265;,
 442.80208;71.25000;-52.37265;,
 442.80208;71.25000;52.37265;,
 742.80199;93.75000;-52.37265;,
 442.80208;93.75000;-52.37265;,
 442.80208;71.25000;-52.37265;,
 742.80199;71.25000;-52.37265;,
 68.08006;443.30521;-24.17205;,
 116.42404;443.30521;-24.17205;,
 116.42404;75.69465;-24.17205;,
 68.08006;75.69465;-24.17205;,
 116.42404;443.30521;-24.17205;,
 116.42404;443.30521;24.17205;,
 116.42404;75.69465;24.17205;,
 116.42404;75.69465;-24.17205;,
 116.42404;443.30521;24.17205;,
 68.08006;443.30521;24.17205;,
 68.08006;75.69465;24.17205;,
 116.42404;75.69465;24.17205;,
 68.08006;443.30521;24.17205;,
 68.08006;443.30521;-24.17205;,
 68.08006;75.69465;-24.17205;,
 68.08006;75.69465;24.17205;,
 116.42404;443.30521;-24.17205;,
 68.08006;443.30521;-24.17205;,
 68.08006;75.69465;-24.17205;,
 116.42404;75.69465;-24.17205;,
 318.57999;443.30521;-24.17205;,
 366.92409;443.30521;-24.17205;,
 366.92409;75.69465;-24.17205;,
 318.57999;75.69465;-24.17205;,
 366.92409;443.30521;-24.17205;,
 366.92409;443.30521;24.17205;,
 366.92409;75.69465;24.17205;,
 366.92409;75.69465;-24.17205;,
 366.92409;443.30521;24.17205;,
 318.57999;443.30521;24.17205;,
 318.57999;75.69465;24.17205;,
 366.92409;75.69465;24.17205;,
 318.57999;443.30521;24.17205;,
 318.57999;443.30521;-24.17205;,
 318.57999;75.69465;-24.17205;,
 318.57999;75.69465;24.17205;,
 366.92409;443.30521;-24.17205;,
 318.57999;443.30521;-24.17205;,
 318.57999;75.69465;-24.17205;,
 366.92409;75.69465;-24.17205;,
 443.08012;443.30521;-24.17205;,
 491.42400;443.30521;-24.17205;,
 491.42400;75.69465;-24.17205;,
 443.08012;75.69465;-24.17205;,
 491.42400;443.30521;-24.17205;,
 491.42400;443.30521;24.17205;,
 491.42400;75.69465;24.17205;,
 491.42400;75.69465;-24.17205;,
 491.42400;443.30521;24.17205;,
 443.08012;443.30521;24.17205;,
 443.08012;75.69465;24.17205;,
 491.42400;75.69465;24.17205;,
 443.08012;443.30521;24.17205;,
 443.08012;443.30521;-24.17205;,
 443.08012;75.69465;-24.17205;,
 443.08012;75.69465;24.17205;,
 491.42400;443.30521;-24.17205;,
 443.08012;443.30521;-24.17205;,
 443.08012;75.69465;-24.17205;,
 491.42400;75.69465;-24.17205;,
 694.33012;443.30521;-24.17205;,
 742.67400;443.30521;-24.17205;,
 742.67400;75.69465;-24.17205;,
 694.33012;75.69465;-24.17205;,
 742.67400;443.30521;-24.17205;,
 742.67400;443.30521;24.17205;,
 742.67400;75.69465;24.17205;,
 742.67400;75.69465;-24.17205;,
 742.67400;443.30521;24.17205;,
 694.33012;443.30521;24.17205;,
 694.33012;75.69465;24.17205;,
 742.67400;75.69465;24.17205;,
 694.33012;443.30521;24.17205;,
 694.33012;443.30521;-24.17205;,
 694.33012;75.69465;-24.17205;,
 694.33012;75.69465;24.17205;,
 742.67400;443.30521;-24.17205;,
 694.33012;443.30521;-24.17205;,
 694.33012;75.69465;-24.17205;,
 742.67400;75.69465;-24.17205;,
 848.85095;491.57176;-33.42765;,
 848.85095;443.22780;-33.42765;,
 -22.34674;443.22780;-33.42765;,
 -22.34674;491.57176;-33.42765;,
 848.85095;443.22780;-33.42765;,
 848.85095;443.22780;33.42765;,
 -22.34674;443.22780;33.42765;,
 -22.34674;443.22780;-33.42765;,
 848.85095;443.22780;33.42765;,
 848.85095;491.57176;33.42765;,
 -22.34674;491.57176;33.42765;,
 -22.34674;443.22780;33.42765;,
 848.85095;491.57176;33.42765;,
 848.85095;491.57176;-33.42765;,
 -22.34674;491.57176;-33.42765;,
 -22.34674;491.57176;33.42765;,
 848.85095;443.22780;-33.42765;,
 848.85095;491.57176;-33.42765;,
 -22.34674;491.57176;-33.42765;,
 -22.34674;443.22780;-33.42765;,
 -7.19797;467.65681;-8.91240;,
 2.82559;465.73920;-5.22960;,
 2.82559;-6.48225;-251.05259;,
 -7.19797;-4.56510;-254.73555;,
 6.97787;461.11111;3.66180;,
 6.97787;-11.11095;-242.16165;,
 2.82559;456.48271;12.55260;,
 2.82559;-15.73920;-233.27039;,
 -7.19797;454.56523;16.23555;,
 -7.19797;-17.65650;-229.58759;,
 -17.22144;456.48271;12.55260;,
 -17.22144;-15.73920;-233.27039;,
 -21.37372;461.11111;3.66180;,
 -21.37372;-11.11095;-242.16165;,
 -17.22144;465.73920;-5.22960;,
 -17.22144;-6.48225;-251.05259;,
 -7.19797;467.65681;-8.91240;,
 -7.19797;-4.56510;-254.73555;,
 -7.19797;461.11111;3.66180;,
 -7.19797;461.11111;3.66180;,
 -7.19797;461.11111;3.66180;,
 -7.19797;461.11111;3.66180;,
 -7.19797;461.11111;3.66180;,
 -7.19797;461.11111;3.66180;,
 -7.19797;461.11111;3.66180;,
 -7.19797;461.11111;3.66180;,
 -7.19797;-11.11095;-242.16165;,
 -7.19797;-11.11095;-242.16165;,
 -7.19797;-11.11095;-242.16165;,
 -7.19797;-11.11095;-242.16165;,
 -7.19797;-11.11095;-242.16165;,
 -7.19797;-11.11095;-242.16165;,
 -7.19797;-11.11095;-242.16165;,
 -7.19797;-11.11095;-242.16165;,
 -7.19778;467.65681;10.41240;,
 -17.22144;465.73920;6.72945;,
 -17.22144;-6.48225;252.55259;,
 -7.19778;-4.56510;256.23555;,
 -21.37372;461.11111;-2.16180;,
 -21.37372;-11.11095;243.66149;,
 -17.22144;456.48271;-11.05275;,
 -17.22144;-15.73920;234.77039;,
 -7.19778;454.56523;-14.73555;,
 -7.19778;-17.65650;231.08759;,
 2.82559;456.48271;-11.05275;,
 2.82559;-15.73920;234.77039;,
 6.97787;461.11111;-2.16180;,
 6.97787;-11.11095;243.66149;,
 2.82559;465.73920;6.72945;,
 2.82559;-6.48225;252.55259;,
 -7.19778;467.65681;10.41240;,
 -7.19778;-4.56510;256.23555;,
 -7.19778;461.11111;-2.16180;,
 -7.19778;461.11111;-2.16180;,
 -7.19778;461.11111;-2.16180;,
 -7.19778;461.11111;-2.16180;,
 -7.19778;461.11111;-2.16180;,
 -7.19778;461.11111;-2.16180;,
 -7.19778;461.11111;-2.16180;,
 -7.19778;461.11111;-2.16180;,
 -7.19778;-11.11095;243.66149;,
 -7.19778;-11.11095;243.66149;,
 -7.19778;-11.11095;243.66149;,
 -7.19778;-11.11095;243.66149;,
 -7.19778;-11.11095;243.66149;,
 -7.19778;-11.11095;243.66149;,
 -7.19778;-11.11095;243.66149;,
 -7.19778;-11.11095;243.66149;,
 832.80231;467.65681;-8.91240;,
 842.82587;465.73920;-5.22960;,
 842.82587;-6.48225;-251.05259;,
 832.80231;-4.56510;-254.73555;,
 846.97833;461.11111;3.66180;,
 846.97833;-11.11095;-242.16165;,
 842.82587;456.48271;12.55260;,
 842.82587;-15.73920;-233.27039;,
 832.80231;454.56523;16.23555;,
 832.80231;-17.65650;-229.58759;,
 822.77875;456.48271;12.55260;,
 822.77875;-15.73920;-233.27039;,
 818.62646;461.11111;3.66180;,
 818.62646;-11.11095;-242.16165;,
 822.77875;465.73920;-5.22960;,
 822.77875;-6.48225;-251.05259;,
 832.80231;467.65681;-8.91240;,
 832.80231;-4.56510;-254.73555;,
 832.80231;461.11111;3.66180;,
 832.80231;461.11111;3.66180;,
 832.80231;461.11111;3.66180;,
 832.80231;461.11111;3.66180;,
 832.80231;461.11111;3.66180;,
 832.80231;461.11111;3.66180;,
 832.80231;461.11111;3.66180;,
 832.80231;461.11111;3.66180;,
 832.80231;-11.11095;-242.16165;,
 832.80231;-11.11095;-242.16165;,
 832.80231;-11.11095;-242.16165;,
 832.80231;-11.11095;-242.16165;,
 832.80231;-11.11095;-242.16165;,
 832.80231;-11.11095;-242.16165;,
 832.80231;-11.11095;-242.16165;,
 832.80231;-11.11095;-242.16165;,
 832.80249;467.65681;10.41240;,
 822.77875;465.73920;6.72945;,
 822.77875;-6.48225;252.55259;,
 832.80249;-4.56510;256.23555;,
 818.62646;461.11111;-2.16180;,
 818.62646;-11.11095;243.66149;,
 822.77875;456.48271;-11.05275;,
 822.77875;-15.73920;234.77039;,
 832.80249;454.56523;-14.73555;,
 832.80249;-17.65650;231.08759;,
 842.82587;456.48271;-11.05275;,
 842.82587;-15.73920;234.77039;,
 846.97833;461.11111;-2.16180;,
 846.97833;-11.11095;243.66149;,
 842.82587;465.73920;6.72945;,
 842.82587;-6.48225;252.55259;,
 832.80249;467.65681;10.41240;,
 832.80249;-4.56510;256.23555;,
 832.80249;461.11111;-2.16180;,
 832.80249;461.11111;-2.16180;,
 832.80249;461.11111;-2.16180;,
 832.80249;461.11111;-2.16180;,
 832.80249;461.11111;-2.16180;,
 832.80249;461.11111;-2.16180;,
 832.80249;461.11111;-2.16180;,
 832.80249;461.11111;-2.16180;,
 832.80249;-11.11095;243.66149;,
 832.80249;-11.11095;243.66149;,
 832.80249;-11.11095;243.66149;,
 832.80249;-11.11095;243.66149;,
 832.80249;-11.11095;243.66149;,
 832.80249;-11.11095;243.66149;,
 832.80249;-11.11095;243.66149;,
 832.80249;-11.11095;243.66149;;
 
 276;
 4;0,1,2,3;,
 4;4,5,6,7;,
 4;8,9,10,11;,
 4;12,13,14,15;,
 4;12,5,16,17;,
 4;18,19,6,15;,
 4;20,21,22,23;,
 4;24,25,26,27;,
 4;28,29,30,31;,
 4;32,33,34,35;,
 4;32,25,36,37;,
 4;38,39,26,35;,
 4;40,41,42,43;,
 4;44,45,46,47;,
 4;48,49,50,51;,
 4;52,53,54,55;,
 4;52,45,56,57;,
 4;58,59,46,55;,
 4;60,61,62,63;,
 4;64,65,66,67;,
 4;68,69,70,71;,
 4;72,73,74,75;,
 4;72,65,76,77;,
 4;78,79,66,75;,
 4;80,81,82,83;,
 4;84,85,86,87;,
 4;88,89,90,91;,
 4;92,93,94,95;,
 4;92,85,96,97;,
 4;98,99,86,95;,
 4;100,101,102,103;,
 4;104,105,106,107;,
 4;108,109,110,111;,
 4;112,113,114,115;,
 4;112,105,116,117;,
 4;118,119,106,115;,
 4;120,121,122,123;,
 4;124,125,126,127;,
 4;128,129,130,131;,
 4;132,133,134,135;,
 4;132,125,136,137;,
 4;138,139,126,135;,
 4;140,141,142,143;,
 4;141,144,145,142;,
 4;144,146,147,145;,
 4;146,148,149,147;,
 4;148,150,151,149;,
 4;150,152,153,151;,
 4;152,154,155,153;,
 4;154,156,157,155;,
 3;158,141,140;,
 3;159,144,141;,
 3;160,146,144;,
 3;161,148,146;,
 3;162,150,148;,
 3;163,152,150;,
 3;164,154,152;,
 3;165,156,154;,
 3;166,143,142;,
 3;167,142,145;,
 3;168,145,147;,
 3;169,147,149;,
 3;170,149,151;,
 3;171,151,153;,
 3;172,153,155;,
 3;173,155,157;,
 4;174,175,176,177;,
 4;175,178,179,176;,
 4;178,180,181,179;,
 4;180,182,183,181;,
 4;182,184,185,183;,
 4;184,186,187,185;,
 4;186,188,189,187;,
 4;188,190,191,189;,
 3;192,175,174;,
 3;193,178,175;,
 3;194,180,178;,
 3;195,182,180;,
 3;196,184,182;,
 3;197,186,184;,
 3;198,188,186;,
 3;199,190,188;,
 3;200,177,176;,
 3;201,176,179;,
 3;202,179,181;,
 3;203,181,183;,
 3;204,183,185;,
 3;205,185,187;,
 3;206,187,189;,
 3;207,189,191;,
 4;208,209,210,211;,
 4;209,212,213,210;,
 4;212,214,215,213;,
 4;214,216,217,215;,
 4;216,218,219,217;,
 4;218,220,221,219;,
 4;220,222,223,221;,
 4;222,224,225,223;,
 3;226,209,208;,
 3;227,212,209;,
 3;228,214,212;,
 3;229,216,214;,
 3;230,218,216;,
 3;231,220,218;,
 3;232,222,220;,
 3;233,224,222;,
 3;234,211,210;,
 3;235,210,213;,
 3;236,213,215;,
 3;237,215,217;,
 3;238,217,219;,
 3;239,219,221;,
 3;240,221,223;,
 3;241,223,225;,
 4;242,243,244,245;,
 4;243,246,247,244;,
 4;246,248,249,247;,
 4;248,250,251,249;,
 4;250,252,253,251;,
 4;252,254,255,253;,
 4;254,256,257,255;,
 4;256,258,259,257;,
 3;260,243,242;,
 3;261,246,243;,
 3;262,248,246;,
 3;263,250,248;,
 3;264,252,250;,
 3;265,254,252;,
 3;266,256,254;,
 3;267,258,256;,
 3;268,245,244;,
 3;269,244,247;,
 3;270,247,249;,
 3;271,249,251;,
 3;272,251,253;,
 3;273,253,255;,
 3;274,255,257;,
 3;275,257,259;,
 4;276,277,278,279;,
 4;280,281,282,283;,
 4;284,285,286,287;,
 4;288,289,290,291;,
 4;288,281,292,293;,
 4;294,295,282,291;,
 4;296,297,298,299;,
 4;300,301,302,303;,
 4;304,305,306,307;,
 4;308,309,310,311;,
 4;308,301,312,313;,
 4;314,315,302,311;,
 4;316,317,318,319;,
 4;320,321,322,323;,
 4;324,325,326,327;,
 4;328,329,330,331;,
 4;328,321,332,333;,
 4;334,335,322,331;,
 4;336,337,338,339;,
 4;340,341,342,343;,
 4;344,345,346,347;,
 4;348,349,350,351;,
 4;348,341,352,353;,
 4;354,355,342,351;,
 4;356,357,358,359;,
 4;360,361,362,363;,
 4;364,365,366,367;,
 4;368,369,370,371;,
 4;368,361,372,373;,
 4;374,375,362,371;,
 4;376,377,378,379;,
 4;380,381,382,383;,
 4;384,385,386,387;,
 4;388,389,390,391;,
 4;388,381,392,393;,
 4;394,395,382,391;,
 4;396,397,398,399;,
 4;400,401,402,403;,
 4;404,405,406,407;,
 4;408,409,410,411;,
 4;408,401,412,413;,
 4;414,415,402,411;,
 4;416,417,418,419;,
 4;417,420,421,418;,
 4;420,422,423,421;,
 4;422,424,425,423;,
 4;424,426,427,425;,
 4;426,428,429,427;,
 4;428,430,431,429;,
 4;430,432,433,431;,
 3;434,417,416;,
 3;435,420,417;,
 3;436,422,420;,
 3;437,424,422;,
 3;438,426,424;,
 3;439,428,426;,
 3;440,430,428;,
 3;441,432,430;,
 3;442,419,418;,
 3;443,418,421;,
 3;444,421,423;,
 3;445,423,425;,
 3;446,425,427;,
 3;447,427,429;,
 3;448,429,431;,
 3;449,431,433;,
 4;450,451,452,453;,
 4;451,454,455,452;,
 4;454,456,457,455;,
 4;456,458,459,457;,
 4;458,460,461,459;,
 4;460,462,463,461;,
 4;462,464,465,463;,
 4;464,466,467,465;,
 3;468,451,450;,
 3;469,454,451;,
 3;470,456,454;,
 3;471,458,456;,
 3;472,460,458;,
 3;473,462,460;,
 3;474,464,462;,
 3;475,466,464;,
 3;476,453,452;,
 3;477,452,455;,
 3;478,455,457;,
 3;479,457,459;,
 3;480,459,461;,
 3;481,461,463;,
 3;482,463,465;,
 3;483,465,467;,
 4;484,485,486,487;,
 4;485,488,489,486;,
 4;488,490,491,489;,
 4;490,492,493,491;,
 4;492,494,495,493;,
 4;494,496,497,495;,
 4;496,498,499,497;,
 4;498,500,501,499;,
 3;502,485,484;,
 3;503,488,485;,
 3;504,490,488;,
 3;505,492,490;,
 3;506,494,492;,
 3;507,496,494;,
 3;508,498,496;,
 3;509,500,498;,
 3;510,487,486;,
 3;511,486,489;,
 3;512,489,491;,
 3;513,491,493;,
 3;514,493,495;,
 3;515,495,497;,
 3;516,497,499;,
 3;517,499,501;,
 4;518,519,520,521;,
 4;519,522,523,520;,
 4;522,524,525,523;,
 4;524,526,527,525;,
 4;526,528,529,527;,
 4;528,530,531,529;,
 4;530,532,533,531;,
 4;532,534,535,533;,
 3;536,519,518;,
 3;537,522,519;,
 3;538,524,522;,
 3;539,526,524;,
 3;540,528,526;,
 3;541,530,528;,
 3;542,532,530;,
 3;543,534,532;,
 3;544,521,520;,
 3;545,520,523;,
 3;546,523,525;,
 3;547,525,527;,
 3;548,527,529;,
 3;549,529,531;,
 3;550,531,533;,
 3;551,533,535;;
 
 MeshMaterialList {
  4;
  276;
  3,
  3,
  3,
  3,
  3,
  3,
  3,
  3,
  3,
  3,
  3,
  3,
  2,
  2,
  2,
  2,
  2,
  2,
  2,
  2,
  2,
  2,
  2,
  2,
  2,
  2,
  2,
  2,
  2,
  2,
  2,
  2,
  2,
  2,
  2,
  2,
  1,
  1,
  1,
  1,
  1,
  1,
  0,
  0,
  0,
  0,
  0,
  0,
  0,
  0,
  0,
  0,
  0,
  0,
  0,
  0,
  0,
  0,
  0,
  0,
  0,
  0,
  0,
  0,
  0,
  0,
  0,
  0,
  0,
  0,
  0,
  0,
  0,
  0,
  0,
  0,
  0,
  0,
  0,
  0,
  0,
  0,
  0,
  0,
  0,
  0,
  0,
  0,
  0,
  0,
  0,
  0,
  0,
  0,
  0,
  0,
  0,
  0,
  0,
  0,
  0,
  0,
  0,
  0,
  0,
  0,
  0,
  0,
  0,
  0,
  0,
  0,
  0,
  0,
  0,
  0,
  0,
  0,
  0,
  0,
  0,
  0,
  0,
  0,
  0,
  0,
  0,
  0,
  0,
  0,
  0,
  0,
  0,
  0,
  0,
  0,
  0,
  0,
  3,
  3,
  3,
  3,
  3,
  3,
  3,
  3,
  3,
  3,
  3,
  3,
  2,
  2,
  2,
  2,
  2,
  2,
  2,
  2,
  2,
  2,
  2,
  2,
  2,
  2,
  2,
  2,
  2,
  2,
  2,
  2,
  2,
  2,
  2,
  2,
  1,
  1,
  1,
  1,
  1,
  1,
  0,
  0,
  0,
  0,
  0,
  0,
  0,
  0,
  0,
  0,
  0,
  0,
  0,
  0,
  0,
  0,
  0,
  0,
  0,
  0,
  0,
  0,
  0,
  0,
  0,
  0,
  0,
  0,
  0,
  0,
  0,
  0,
  0,
  0,
  0,
  0,
  0,
  0,
  0,
  0,
  0,
  0,
  0,
  0,
  0,
  0,
  0,
  0,
  0,
  0,
  0,
  0,
  0,
  0,
  0,
  0,
  0,
  0,
  0,
  0,
  0,
  0,
  0,
  0,
  0,
  0,
  0,
  0,
  0,
  0,
  0,
  0,
  0,
  0,
  0,
  0,
  0,
  0,
  0,
  0,
  0,
  0,
  0,
  0,
  0,
  0,
  0,
  0,
  0,
  0,
  0,
  0,
  0,
  0,
  0,
  0;;
  Material {
   0.800000;0.000000;0.000000;1.000000;;
   5.000000;
   0.000000;0.000000;0.000000;;
   0.000000;0.000000;0.000000;;
  }
  Material {
   0.000000;0.000000;0.800000;1.000000;;
   5.000000;
   0.000000;0.000000;0.000000;;
   0.000000;0.000000;0.000000;;
  }
  Material {
   0.476800;0.476800;0.476800;1.000000;;
   5.000000;
   0.000000;0.000000;0.000000;;
   0.000000;0.000000;0.000000;;
  }
  Material {
   1.000000;1.000000;1.000000;1.000000;;
   0.000000;
   0.000000;0.000000;0.000000;;
   0.000000;0.000000;0.000000;;
  }
 }
 MeshNormals {
  235;
  0.000000;0.000000;-1.000000;,
  1.000000;0.000000;0.000000;,
  0.000000;0.000000;1.000000;,
  -1.000000;0.000000;0.000000;,
  0.000000;1.000000;0.000000;,
  0.000000;-1.000000;-0.000000;,
  0.000000;0.000000;-1.000000;,
  1.000000;0.000000;0.000000;,
  0.000000;0.000000;1.000000;,
  -1.000000;0.000000;0.000000;,
  0.000000;1.000000;0.000000;,
  0.000000;-1.000000;-0.000000;,
  0.000000;0.000000;-1.000000;,
  1.000000;0.000000;0.000000;,
  0.000000;0.000000;1.000000;,
  -1.000000;0.000000;0.000000;,
  0.000000;1.000000;0.000000;,
  0.000000;-1.000000;-0.000000;,
  0.000000;0.000000;-1.000000;,
  1.000000;0.000000;0.000000;,
  0.000000;0.000000;1.000000;,
  -1.000000;0.000000;0.000000;,
  0.000000;1.000000;0.000000;,
  0.000000;-1.000000;-0.000000;,
  0.000000;0.000000;-1.000000;,
  1.000000;0.000000;0.000000;,
  0.000000;0.000000;1.000000;,
  -1.000000;0.000000;0.000000;,
  0.000000;1.000000;0.000000;,
  0.000000;-1.000000;-0.000000;,
  0.000000;0.000000;-1.000000;,
  1.000000;0.000000;0.000000;,
  0.000000;0.000000;1.000000;,
  -1.000000;0.000000;0.000000;,
  0.000000;1.000000;0.000000;,
  0.000000;-1.000000;-0.000000;,
  0.000000;0.000000;-1.000000;,
  0.000000;-1.000000;-0.000000;,
  0.000000;0.000000;1.000000;,
  0.000000;1.000000;0.000000;,
  1.000000;0.000000;0.000000;,
  -1.000000;0.000000;0.000000;,
  0.000000;0.887012;0.461747;,
  0.000000;0.461749;-0.887011;,
  0.707103;0.326507;-0.627214;,
  1.000000;-0.000001;0.000002;,
  0.707101;-0.326508;0.627216;,
  0.000000;-0.461749;0.887011;,
  -0.707101;-0.326508;0.627216;,
  -1.000000;-0.000001;0.000002;,
  -0.707103;0.326507;-0.627214;,
  0.000000;-0.887008;-0.461754;,
  0.000000;0.887012;-0.461747;,
  0.000006;0.461749;0.887011;,
  -0.707103;0.326507;0.627214;,
  -1.000000;-0.000001;-0.000003;,
  -0.707097;-0.326510;-0.627220;,
  0.000006;-0.461749;-0.887011;,
  0.707102;-0.326508;-0.627216;,
  1.000000;-0.000001;-0.000003;,
  0.707108;0.326505;0.627210;,
  0.000000;-0.887008;0.461754;,
  0.000021;0.887021;0.461729;,
  0.000000;0.887011;0.461748;,
  0.000000;0.887018;0.461735;,
  -0.000006;0.887002;0.461766;,
  0.000000;0.886999;0.461771;,
  0.000006;0.887002;0.461766;,
  -0.000021;0.887021;0.461729;,
  0.000000;-0.887002;-0.461765;,
  0.000007;-0.886999;-0.461771;,
  0.000000;-0.887008;-0.461754;,
  0.000008;-0.887017;-0.461736;,
  0.000000;-0.887014;-0.461744;,
  -0.000008;-0.887017;-0.461736;,
  -0.000007;-0.886999;-0.461771;,
  -0.000018;0.887019;-0.461732;,
  0.000000;0.887011;-0.461748;,
  0.000000;0.887018;-0.461735;,
  0.000010;0.887004;-0.461762;,
  -0.000000;0.886999;-0.461771;,
  -0.000010;0.887004;-0.461762;,
  0.000018;0.887019;-0.461732;,
  0.000000;-0.887005;0.461760;,
  -0.000006;-0.887002;0.461766;,
  0.000000;-0.887008;0.461754;,
  -0.000007;-0.887014;0.461742;,
  0.000000;-0.887011;0.461748;,
  0.000007;-0.887014;0.461742;,
  0.000006;-0.887002;0.461766;,
  -0.000000;0.887012;0.461747;,
  -0.000002;0.461749;-0.887011;,
  0.707100;0.326509;-0.627217;,
  1.000000;-0.000001;0.000002;,
  0.707099;-0.326509;0.627219;,
  -0.000002;-0.461749;0.887011;,
  -0.707103;-0.326508;0.627215;,
  -1.000000;-0.000001;0.000002;,
  -0.707105;0.326507;-0.627213;,
  -0.000000;-0.887008;-0.461754;,
  0.000000;0.887012;-0.461747;,
  0.000005;0.461749;0.887011;,
  -0.707104;0.326507;0.627214;,
  -1.000000;-0.000001;-0.000003;,
  -0.707098;-0.326510;-0.627219;,
  0.000005;-0.461749;-0.887011;,
  0.707099;-0.326509;-0.627218;,
  1.000000;-0.000001;-0.000003;,
  0.707105;0.326507;0.627213;,
  0.000000;-0.887008;0.461754;,
  0.000021;0.887021;0.461729;,
  -0.000000;0.887011;0.461748;,
  0.000000;0.887018;0.461735;,
  -0.000006;0.887002;0.461766;,
  0.000000;0.886999;0.461771;,
  0.000006;0.887002;0.461766;,
  -0.000021;0.887021;0.461729;,
  -0.000000;-0.887002;-0.461765;,
  0.000007;-0.886999;-0.461771;,
  0.000000;-0.887008;-0.461753;,
  0.000008;-0.887017;-0.461736;,
  -0.000000;-0.887013;-0.461744;,
  -0.000008;-0.887017;-0.461736;,
  0.000000;-0.887008;-0.461754;,
  -0.000007;-0.886999;-0.461771;,
  -0.000018;0.887019;-0.461732;,
  0.000000;0.887011;-0.461748;,
  0.000000;0.887018;-0.461735;,
  0.000010;0.887004;-0.461762;,
  -0.000000;0.886999;-0.461771;,
  -0.000010;0.887004;-0.461762;,
  0.000018;0.887019;-0.461732;,
  0.000000;-0.887005;0.461760;,
  -0.000006;-0.887002;0.461766;,
  0.000000;-0.887008;0.461754;,
  -0.000007;-0.887014;0.461742;,
  0.000000;-0.887011;0.461748;,
  0.000007;-0.887014;0.461742;,
  0.000000;-0.887008;0.461754;,
  0.000006;-0.887002;0.461766;,
  0.000000;0.000000;-1.000000;,
  1.000000;0.000000;0.000000;,
  0.000000;0.000000;1.000000;,
  0.000000;-1.000000;-0.000000;,
  -0.000000;0.887012;0.461747;,
  -0.000002;0.461749;-0.887011;,
  0.707103;0.326507;-0.627214;,
  1.000000;-0.000001;0.000002;,
  0.707101;-0.326508;0.627216;,
  -0.000002;-0.461749;0.887011;,
  -0.707103;-0.326508;0.627215;,
  -1.000000;-0.000001;0.000002;,
  -0.707105;0.326507;-0.627213;,
  -0.000000;-0.887008;-0.461754;,
  0.000000;0.887012;-0.461747;,
  0.000005;0.461749;0.887011;,
  -0.707104;0.326507;0.627214;,
  -1.000000;-0.000001;-0.000003;,
  -0.707098;-0.326510;-0.627219;,
  0.000005;-0.461749;-0.887011;,
  0.707102;-0.326508;-0.627216;,
  1.000000;-0.000001;-0.000003;,
  0.707108;0.326505;0.627210;,
  0.000000;-0.887008;0.461754;,
  0.000000;0.887012;0.461747;,
  0.000000;0.461749;-0.887011;,
  0.707098;0.326510;-0.627219;,
  1.000000;-0.000001;0.000002;,
  0.707096;-0.326511;0.627221;,
  0.000000;-0.461749;0.887011;,
  -0.707101;-0.326508;0.627216;,
  -0.707103;0.326507;-0.627214;,
  0.000000;-0.887008;-0.461754;,
  0.000000;0.887012;-0.461747;,
  0.000006;0.461749;0.887011;,
  -0.707103;0.326507;0.627214;,
  -0.707097;-0.326510;-0.627220;,
  0.000006;-0.461749;-0.887011;,
  0.707096;-0.326511;-0.627221;,
  1.000000;-0.000001;-0.000003;,
  0.707102;0.326508;0.627215;,
  0.000000;-0.887008;0.461754;,
  -1.000000;0.000000;0.000000;,
  0.000000;1.000000;0.000000;,
  0.000021;0.887021;0.461729;,
  -0.000000;0.887011;0.461748;,
  0.000000;0.887018;0.461735;,
  -0.000006;0.887002;0.461766;,
  0.000000;0.886999;0.461771;,
  0.000006;0.887002;0.461766;,
  -0.000021;0.887021;0.461729;,
  -0.000000;-0.887002;-0.461765;,
  0.000007;-0.886999;-0.461771;,
  0.000000;-0.887008;-0.461754;,
  0.000008;-0.887017;-0.461736;,
  -0.000000;-0.887013;-0.461744;,
  -0.000008;-0.887017;-0.461736;,
  -0.000007;-0.886999;-0.461771;,
  -0.000018;0.887019;-0.461732;,
  0.000000;0.887011;-0.461748;,
  0.000000;0.887018;-0.461735;,
  0.000010;0.887004;-0.461762;,
  -0.000000;0.886999;-0.461771;,
  -0.000010;0.887004;-0.461762;,
  0.000018;0.887019;-0.461732;,
  0.000000;-0.887005;0.461760;,
  -0.000006;-0.887002;0.461766;,
  0.000000;-0.887008;0.461754;,
  -0.000007;-0.887014;0.461742;,
  0.000000;-0.887011;0.461748;,
  0.000007;-0.887014;0.461742;,
  0.000000;-0.887008;0.461754;,
  0.000006;-0.887002;0.461766;,
  0.000000;0.887011;0.461748;,
  0.000000;0.887018;0.461735;,
  -0.000006;0.887002;0.461766;,
  0.000000;0.886999;0.461771;,
  0.000006;0.887002;0.461766;,
  -0.000021;0.887021;0.461729;,
  0.000000;-0.887002;-0.461765;,
  0.000007;-0.886999;-0.461771;,
  0.000008;-0.887017;-0.461736;,
  0.000000;-0.887014;-0.461744;,
  -0.000008;-0.887017;-0.461736;,
  -0.000007;-0.886999;-0.461771;,
  -0.000018;0.887019;-0.461732;,
  0.000000;0.887011;-0.461748;,
  0.000010;0.887004;-0.461762;,
  -0.000000;0.886999;-0.461771;,
  0.000000;-0.887005;0.461760;,
  -0.000006;-0.887002;0.461766;,
  -0.000007;-0.887014;0.461742;,
  0.000000;-0.887011;0.461748;,
  0.000007;-0.887014;0.461742;,
  0.000006;-0.887002;0.461766;;
  276;
  4;0,0,0,0;,
  4;1,1,1,1;,
  4;2,2,2,2;,
  4;3,3,3,3;,
  4;4,4,4,4;,
  4;5,5,5,5;,
  4;6,6,6,6;,
  4;7,7,7,7;,
  4;8,8,8,8;,
  4;9,9,9,9;,
  4;10,10,10,10;,
  4;11,11,11,11;,
  4;12,12,12,12;,
  4;13,13,13,13;,
  4;14,14,14,14;,
  4;15,15,15,15;,
  4;16,16,16,16;,
  4;17,17,17,17;,
  4;18,18,18,18;,
  4;19,19,19,19;,
  4;20,20,20,20;,
  4;21,21,21,21;,
  4;22,22,22,22;,
  4;23,23,23,23;,
  4;24,24,24,24;,
  4;25,25,25,25;,
  4;26,26,26,26;,
  4;27,27,27,27;,
  4;28,28,28,28;,
  4;29,29,29,29;,
  4;30,30,30,30;,
  4;31,31,31,31;,
  4;32,32,32,32;,
  4;33,33,33,33;,
  4;34,34,34,34;,
  4;35,35,35,35;,
  4;36,36,36,36;,
  4;37,37,37,37;,
  4;38,38,38,38;,
  4;39,39,39,39;,
  4;40,40,40,40;,
  4;41,41,41,41;,
  4;43,44,44,43;,
  4;44,45,45,44;,
  4;45,46,46,45;,
  4;46,47,47,46;,
  4;47,48,48,47;,
  4;48,49,49,48;,
  4;49,50,50,49;,
  4;50,43,43,50;,
  3;42,62,63;,
  3;42,64,62;,
  3;42,65,64;,
  3;42,66,65;,
  3;42,67,66;,
  3;42,64,67;,
  3;42,68,64;,
  3;42,63,68;,
  3;51,69,70;,
  3;51,70,71;,
  3;51,71,72;,
  3;51,72,73;,
  3;51,73,74;,
  3;51,74,71;,
  3;51,71,75;,
  3;51,75,69;,
  4;53,54,54,53;,
  4;54,55,55,54;,
  4;55,56,56,55;,
  4;56,57,57,56;,
  4;57,58,58,57;,
  4;58,59,59,58;,
  4;59,60,60,59;,
  4;60,53,53,60;,
  3;52,76,77;,
  3;52,78,76;,
  3;52,79,78;,
  3;52,80,79;,
  3;52,81,80;,
  3;52,78,81;,
  3;52,82,78;,
  3;52,77,82;,
  3;61,83,84;,
  3;61,84,85;,
  3;61,85,86;,
  3;61,86,87;,
  3;61,87,88;,
  3;61,88,85;,
  3;61,85,89;,
  3;61,89,83;,
  4;91,92,92,91;,
  4;92,93,93,92;,
  4;93,94,94,93;,
  4;94,95,95,94;,
  4;95,96,96,95;,
  4;96,97,97,96;,
  4;97,98,98,97;,
  4;98,91,91,98;,
  3;90,110,111;,
  3;90,112,110;,
  3;90,113,112;,
  3;90,114,113;,
  3;90,115,114;,
  3;90,112,115;,
  3;90,116,112;,
  3;90,111,116;,
  3;99,117,118;,
  3;99,118,119;,
  3;99,119,120;,
  3;99,120,121;,
  3;99,121,122;,
  3;99,122,123;,
  3;99,123,124;,
  3;99,124,117;,
  4;101,102,102,101;,
  4;102,103,103,102;,
  4;103,104,104,103;,
  4;104,105,105,104;,
  4;105,106,106,105;,
  4;106,107,107,106;,
  4;107,108,108,107;,
  4;108,101,101,108;,
  3;100,125,126;,
  3;100,127,125;,
  3;100,128,127;,
  3;100,129,128;,
  3;100,130,129;,
  3;100,127,130;,
  3;100,131,127;,
  3;100,126,131;,
  3;109,132,133;,
  3;109,133,134;,
  3;109,134,135;,
  3;109,135,136;,
  3;109,136,137;,
  3;109,137,138;,
  3;109,138,139;,
  3;109,139,132;,
  4;140,140,140,140;,
  4;141,141,141,141;,
  4;142,142,142,142;,
  4;182,182,182,182;,
  4;183,183,183,183;,
  4;143,143,143,143;,
  4;140,140,140,140;,
  4;141,141,141,141;,
  4;142,142,142,142;,
  4;182,182,182,182;,
  4;183,183,183,183;,
  4;143,143,143,143;,
  4;140,140,140,140;,
  4;141,141,141,141;,
  4;142,142,142,142;,
  4;182,182,182,182;,
  4;183,183,183,183;,
  4;143,143,143,143;,
  4;140,140,140,140;,
  4;141,141,141,141;,
  4;142,142,142,142;,
  4;182,182,182,182;,
  4;183,183,183,183;,
  4;143,143,143,143;,
  4;140,140,140,140;,
  4;141,141,141,141;,
  4;142,142,142,142;,
  4;182,182,182,182;,
  4;183,183,183,183;,
  4;143,143,143,143;,
  4;140,140,140,140;,
  4;141,141,141,141;,
  4;142,142,142,142;,
  4;182,182,182,182;,
  4;183,183,183,183;,
  4;143,143,143,143;,
  4;140,140,140,140;,
  4;143,143,143,143;,
  4;142,142,142,142;,
  4;183,183,183,183;,
  4;141,141,141,141;,
  4;182,182,182,182;,
  4;145,146,146,145;,
  4;146,147,147,146;,
  4;147,148,148,147;,
  4;148,149,149,148;,
  4;149,150,150,149;,
  4;150,151,151,150;,
  4;151,152,152,151;,
  4;152,145,145,152;,
  3;144,184,185;,
  3;144,186,184;,
  3;144,187,186;,
  3;144,188,187;,
  3;144,189,188;,
  3;144,186,189;,
  3;144,190,186;,
  3;144,185,190;,
  3;153,191,192;,
  3;153,192,193;,
  3;153,193,194;,
  3;153,194,195;,
  3;153,195,196;,
  3;153,196,193;,
  3;153,193,197;,
  3;153,197,191;,
  4;155,156,156,155;,
  4;156,157,157,156;,
  4;157,158,158,157;,
  4;158,159,159,158;,
  4;159,160,160,159;,
  4;160,161,161,160;,
  4;161,162,162,161;,
  4;162,155,155,162;,
  3;154,198,199;,
  3;154,200,198;,
  3;154,201,200;,
  3;154,202,201;,
  3;154,203,202;,
  3;154,200,203;,
  3;154,204,200;,
  3;154,199,204;,
  3;163,205,206;,
  3;163,206,207;,
  3;163,207,208;,
  3;163,208,209;,
  3;163,209,210;,
  3;163,210,211;,
  3;163,211,212;,
  3;163,212,205;,
  4;165,166,166,165;,
  4;166,167,167,166;,
  4;167,168,168,167;,
  4;168,169,169,168;,
  4;169,170,170,169;,
  4;170,151,151,170;,
  4;151,171,171,151;,
  4;171,165,165,171;,
  3;164,184,213;,
  3;164,214,184;,
  3;164,215,214;,
  3;164,216,215;,
  3;164,217,216;,
  3;164,186,217;,
  3;164,218,186;,
  3;164,213,218;,
  3;172,219,220;,
  3;172,220,193;,
  3;172,193,221;,
  3;172,221,222;,
  3;172,222,223;,
  3;172,223,193;,
  3;172,193,224;,
  3;172,224,219;,
  4;174,175,175,174;,
  4;175,157,157,175;,
  4;157,176,176,157;,
  4;176,177,177,176;,
  4;177,178,178,177;,
  4;178,179,179,178;,
  4;179,180,180,179;,
  4;180,174,174,180;,
  3;173,225,226;,
  3;173,200,225;,
  3;173,227,200;,
  3;173,228,227;,
  3;173,203,228;,
  3;173,200,203;,
  3;173,204,200;,
  3;173,226,204;,
  3;181,229,230;,
  3;181,230,211;,
  3;181,211,231;,
  3;181,231,232;,
  3;181,232,233;,
  3;181,233,211;,
  3;181,211,234;,
  3;181,234,229;;
 }
 MeshTextureCoords {
  552;
  0.000000;0.000000;,
  1.000000;0.000000;,
  1.000000;1.000000;,
  0.000000;1.000000;,
  0.000000;0.000000;,
  1.000000;0.000000;,
  1.000000;1.000000;,
  0.000000;1.000000;,
  0.000000;0.000000;,
  1.000000;0.000000;,
  1.000000;1.000000;,
  0.000000;1.000000;,
  0.000000;0.000000;,
  1.000000;0.000000;,
  1.000000;1.000000;,
  0.000000;1.000000;,
  1.000000;1.000000;,
  0.000000;1.000000;,
  0.000000;0.000000;,
  1.000000;0.000000;,
  0.000000;0.000000;,
  1.000000;0.000000;,
  1.000000;1.000000;,
  0.000000;1.000000;,
  0.000000;0.000000;,
  1.000000;0.000000;,
  1.000000;1.000000;,
  0.000000;1.000000;,
  0.000000;0.000000;,
  1.000000;0.000000;,
  1.000000;1.000000;,
  0.000000;1.000000;,
  0.000000;0.000000;,
  1.000000;0.000000;,
  1.000000;1.000000;,
  0.000000;1.000000;,
  1.000000;1.000000;,
  0.000000;1.000000;,
  0.000000;0.000000;,
  1.000000;0.000000;,
  0.000000;0.000000;,
  1.000000;0.000000;,
  1.000000;1.000000;,
  0.000000;1.000000;,
  0.000000;0.000000;,
  1.000000;0.000000;,
  1.000000;1.000000;,
  0.000000;1.000000;,
  0.000000;0.000000;,
  1.000000;0.000000;,
  1.000000;1.000000;,
  0.000000;1.000000;,
  0.000000;0.000000;,
  1.000000;0.000000;,
  1.000000;1.000000;,
  0.000000;1.000000;,
  1.000000;1.000000;,
  0.000000;1.000000;,
  0.000000;0.000000;,
  1.000000;0.000000;,
  0.000000;0.000000;,
  1.000000;0.000000;,
  1.000000;1.000000;,
  0.000000;1.000000;,
  0.000000;0.000000;,
  1.000000;0.000000;,
  1.000000;1.000000;,
  0.000000;1.000000;,
  0.000000;0.000000;,
  1.000000;0.000000;,
  1.000000;1.000000;,
  0.000000;1.000000;,
  0.000000;0.000000;,
  1.000000;0.000000;,
  1.000000;1.000000;,
  0.000000;1.000000;,
  1.000000;1.000000;,
  0.000000;1.000000;,
  0.000000;0.000000;,
  1.000000;0.000000;,
  0.000000;0.000000;,
  1.000000;0.000000;,
  1.000000;1.000000;,
  0.000000;1.000000;,
  0.000000;0.000000;,
  1.000000;0.000000;,
  1.000000;1.000000;,
  0.000000;1.000000;,
  0.000000;0.000000;,
  1.000000;0.000000;,
  1.000000;1.000000;,
  0.000000;1.000000;,
  0.000000;0.000000;,
  1.000000;0.000000;,
  1.000000;1.000000;,
  0.000000;1.000000;,
  1.000000;1.000000;,
  0.000000;1.000000;,
  0.000000;0.000000;,
  1.000000;0.000000;,
  0.000000;0.000000;,
  1.000000;0.000000;,
  1.000000;1.000000;,
  0.000000;1.000000;,
  0.000000;0.000000;,
  1.000000;0.000000;,
  1.000000;1.000000;,
  0.000000;1.000000;,
  0.000000;0.000000;,
  1.000000;0.000000;,
  1.000000;1.000000;,
  0.000000;1.000000;,
  0.000000;0.000000;,
  1.000000;0.000000;,
  1.000000;1.000000;,
  0.000000;1.000000;,
  1.000000;1.000000;,
  0.000000;1.000000;,
  0.000000;0.000000;,
  1.000000;0.000000;,
  0.000000;0.000000;,
  1.000000;0.000000;,
  1.000000;1.000000;,
  0.000000;1.000000;,
  0.000000;0.000000;,
  1.000000;0.000000;,
  1.000000;1.000000;,
  0.000000;1.000000;,
  0.000000;0.000000;,
  1.000000;0.000000;,
  1.000000;1.000000;,
  0.000000;1.000000;,
  0.000000;0.000000;,
  1.000000;0.000000;,
  1.000000;1.000000;,
  0.000000;1.000000;,
  1.000000;1.000000;,
  0.000000;1.000000;,
  0.000000;0.000000;,
  1.000000;0.000000;,
  0.000000;0.000000;,
  0.125000;0.000000;,
  0.125000;1.000000;,
  0.000000;1.000000;,
  0.250000;0.000000;,
  0.250000;1.000000;,
  0.375000;0.000000;,
  0.375000;1.000000;,
  0.500000;0.000000;,
  0.500000;1.000000;,
  0.625000;0.000000;,
  0.625000;1.000000;,
  0.750000;0.000000;,
  0.750000;1.000000;,
  0.875000;0.000000;,
  0.875000;1.000000;,
  1.000000;0.000000;,
  1.000000;1.000000;,
  0.062500;0.000000;,
  0.187500;0.000000;,
  0.312500;0.000000;,
  0.437500;0.000000;,
  0.562500;0.000000;,
  0.687500;0.000000;,
  0.812500;0.000000;,
  0.937500;0.000000;,
  0.062500;1.000000;,
  0.187500;1.000000;,
  0.312500;1.000000;,
  0.437500;1.000000;,
  0.562500;1.000000;,
  0.687500;1.000000;,
  0.812500;1.000000;,
  0.937500;1.000000;,
  0.000000;0.000000;,
  0.125000;0.000000;,
  0.125000;1.000000;,
  0.000000;1.000000;,
  0.250000;0.000000;,
  0.250000;1.000000;,
  0.375000;0.000000;,
  0.375000;1.000000;,
  0.500000;0.000000;,
  0.500000;1.000000;,
  0.625000;0.000000;,
  0.625000;1.000000;,
  0.750000;0.000000;,
  0.750000;1.000000;,
  0.875000;0.000000;,
  0.875000;1.000000;,
  1.000000;0.000000;,
  1.000000;1.000000;,
  0.062500;0.000000;,
  0.187500;0.000000;,
  0.312500;0.000000;,
  0.437500;0.000000;,
  0.562500;0.000000;,
  0.687500;0.000000;,
  0.812500;0.000000;,
  0.937500;0.000000;,
  0.062500;1.000000;,
  0.187500;1.000000;,
  0.312500;1.000000;,
  0.437500;1.000000;,
  0.562500;1.000000;,
  0.687500;1.000000;,
  0.812500;1.000000;,
  0.937500;1.000000;,
  0.000000;0.000000;,
  0.125000;0.000000;,
  0.125000;1.000000;,
  0.000000;1.000000;,
  0.250000;0.000000;,
  0.250000;1.000000;,
  0.375000;0.000000;,
  0.375000;1.000000;,
  0.500000;0.000000;,
  0.500000;1.000000;,
  0.625000;0.000000;,
  0.625000;1.000000;,
  0.750000;0.000000;,
  0.750000;1.000000;,
  0.875000;0.000000;,
  0.875000;1.000000;,
  1.000000;0.000000;,
  1.000000;1.000000;,
  0.062500;0.000000;,
  0.187500;0.000000;,
  0.312500;0.000000;,
  0.437500;0.000000;,
  0.562500;0.000000;,
  0.687500;0.000000;,
  0.812500;0.000000;,
  0.937500;0.000000;,
  0.062500;1.000000;,
  0.187500;1.000000;,
  0.312500;1.000000;,
  0.437500;1.000000;,
  0.562500;1.000000;,
  0.687500;1.000000;,
  0.812500;1.000000;,
  0.937500;1.000000;,
  0.000000;0.000000;,
  0.125000;0.000000;,
  0.125000;1.000000;,
  0.000000;1.000000;,
  0.250000;0.000000;,
  0.250000;1.000000;,
  0.375000;0.000000;,
  0.375000;1.000000;,
  0.500000;0.000000;,
  0.500000;1.000000;,
  0.625000;0.000000;,
  0.625000;1.000000;,
  0.750000;0.000000;,
  0.750000;1.000000;,
  0.875000;0.000000;,
  0.875000;1.000000;,
  1.000000;0.000000;,
  1.000000;1.000000;,
  0.062500;0.000000;,
  0.187500;0.000000;,
  0.312500;0.000000;,
  0.437500;0.000000;,
  0.562500;0.000000;,
  0.687500;0.000000;,
  0.812500;0.000000;,
  0.937500;0.000000;,
  0.062500;1.000000;,
  0.187500;1.000000;,
  0.312500;1.000000;,
  0.437500;1.000000;,
  0.562500;1.000000;,
  0.687500;1.000000;,
  0.812500;1.000000;,
  0.937500;1.000000;,
  0.000000;0.000000;,
  1.000000;0.000000;,
  1.000000;1.000000;,
  0.000000;1.000000;,
  0.000000;0.000000;,
  1.000000;0.000000;,
  1.000000;1.000000;,
  0.000000;1.000000;,
  0.000000;0.000000;,
  1.000000;0.000000;,
  1.000000;1.000000;,
  0.000000;1.000000;,
  0.000000;0.000000;,
  1.000000;0.000000;,
  1.000000;1.000000;,
  0.000000;1.000000;,
  1.000000;1.000000;,
  0.000000;1.000000;,
  0.000000;0.000000;,
  1.000000;0.000000;,
  0.000000;0.000000;,
  1.000000;0.000000;,
  1.000000;1.000000;,
  0.000000;1.000000;,
  0.000000;0.000000;,
  1.000000;0.000000;,
  1.000000;1.000000;,
  0.000000;1.000000;,
  0.000000;0.000000;,
  1.000000;0.000000;,
  1.000000;1.000000;,
  0.000000;1.000000;,
  0.000000;0.000000;,
  1.000000;0.000000;,
  1.000000;1.000000;,
  0.000000;1.000000;,
  1.000000;1.000000;,
  0.000000;1.000000;,
  0.000000;0.000000;,
  1.000000;0.000000;,
  0.000000;0.000000;,
  1.000000;0.000000;,
  1.000000;1.000000;,
  0.000000;1.000000;,
  0.000000;0.000000;,
  1.000000;0.000000;,
  1.000000;1.000000;,
  0.000000;1.000000;,
  0.000000;0.000000;,
  1.000000;0.000000;,
  1.000000;1.000000;,
  0.000000;1.000000;,
  0.000000;0.000000;,
  1.000000;0.000000;,
  1.000000;1.000000;,
  0.000000;1.000000;,
  1.000000;1.000000;,
  0.000000;1.000000;,
  0.000000;0.000000;,
  1.000000;0.000000;,
  0.000000;0.000000;,
  1.000000;0.000000;,
  1.000000;1.000000;,
  0.000000;1.000000;,
  0.000000;0.000000;,
  1.000000;0.000000;,
  1.000000;1.000000;,
  0.000000;1.000000;,
  0.000000;0.000000;,
  1.000000;0.000000;,
  1.000000;1.000000;,
  0.000000;1.000000;,
  0.000000;0.000000;,
  1.000000;0.000000;,
  1.000000;1.000000;,
  0.000000;1.000000;,
  1.000000;1.000000;,
  0.000000;1.000000;,
  0.000000;0.000000;,
  1.000000;0.000000;,
  0.000000;0.000000;,
  1.000000;0.000000;,
  1.000000;1.000000;,
  0.000000;1.000000;,
  0.000000;0.000000;,
  1.000000;0.000000;,
  1.000000;1.000000;,
  0.000000;1.000000;,
  0.000000;0.000000;,
  1.000000;0.000000;,
  1.000000;1.000000;,
  0.000000;1.000000;,
  0.000000;0.000000;,
  1.000000;0.000000;,
  1.000000;1.000000;,
  0.000000;1.000000;,
  1.000000;1.000000;,
  0.000000;1.000000;,
  0.000000;0.000000;,
  1.000000;0.000000;,
  0.000000;0.000000;,
  1.000000;0.000000;,
  1.000000;1.000000;,
  0.000000;1.000000;,
  0.000000;0.000000;,
  1.000000;0.000000;,
  1.000000;1.000000;,
  0.000000;1.000000;,
  0.000000;0.000000;,
  1.000000;0.000000;,
  1.000000;1.000000;,
  0.000000;1.000000;,
  0.000000;0.000000;,
  1.000000;0.000000;,
  1.000000;1.000000;,
  0.000000;1.000000;,
  1.000000;1.000000;,
  0.000000;1.000000;,
  0.000000;0.000000;,
  1.000000;0.000000;,
  0.000000;0.000000;,
  1.000000;0.000000;,
  1.000000;1.000000;,
  0.000000;1.000000;,
  0.000000;0.000000;,
  1.000000;0.000000;,
  1.000000;1.000000;,
  0.000000;1.000000;,
  0.000000;0.000000;,
  1.000000;0.000000;,
  1.000000;1.000000;,
  0.000000;1.000000;,
  0.000000;0.000000;,
  1.000000;0.000000;,
  1.000000;1.000000;,
  0.000000;1.000000;,
  1.000000;1.000000;,
  0.000000;1.000000;,
  0.000000;0.000000;,
  1.000000;0.000000;,
  0.000000;0.000000;,
  0.125000;0.000000;,
  0.125000;1.000000;,
  0.000000;1.000000;,
  0.250000;0.000000;,
  0.250000;1.000000;,
  0.375000;0.000000;,
  0.375000;1.000000;,
  0.500000;0.000000;,
  0.500000;1.000000;,
  0.625000;0.000000;,
  0.625000;1.000000;,
  0.750000;0.000000;,
  0.750000;1.000000;,
  0.875000;0.000000;,
  0.875000;1.000000;,
  1.000000;0.000000;,
  1.000000;1.000000;,
  0.062500;0.000000;,
  0.187500;0.000000;,
  0.312500;0.000000;,
  0.437500;0.000000;,
  0.562500;0.000000;,
  0.687500;0.000000;,
  0.812500;0.000000;,
  0.937500;0.000000;,
  0.062500;1.000000;,
  0.187500;1.000000;,
  0.312500;1.000000;,
  0.437500;1.000000;,
  0.562500;1.000000;,
  0.687500;1.000000;,
  0.812500;1.000000;,
  0.937500;1.000000;,
  0.000000;0.000000;,
  0.125000;0.000000;,
  0.125000;1.000000;,
  0.000000;1.000000;,
  0.250000;0.000000;,
  0.250000;1.000000;,
  0.375000;0.000000;,
  0.375000;1.000000;,
  0.500000;0.000000;,
  0.500000;1.000000;,
  0.625000;0.000000;,
  0.625000;1.000000;,
  0.750000;0.000000;,
  0.750000;1.000000;,
  0.875000;0.000000;,
  0.875000;1.000000;,
  1.000000;0.000000;,
  1.000000;1.000000;,
  0.062500;0.000000;,
  0.187500;0.000000;,
  0.312500;0.000000;,
  0.437500;0.000000;,
  0.562500;0.000000;,
  0.687500;0.000000;,
  0.812500;0.000000;,
  0.937500;0.000000;,
  0.062500;1.000000;,
  0.187500;1.000000;,
  0.312500;1.000000;,
  0.437500;1.000000;,
  0.562500;1.000000;,
  0.687500;1.000000;,
  0.812500;1.000000;,
  0.937500;1.000000;,
  0.000000;0.000000;,
  0.125000;0.000000;,
  0.125000;1.000000;,
  0.000000;1.000000;,
  0.250000;0.000000;,
  0.250000;1.000000;,
  0.375000;0.000000;,
  0.375000;1.000000;,
  0.500000;0.000000;,
  0.500000;1.000000;,
  0.625000;0.000000;,
  0.625000;1.000000;,
  0.750000;0.000000;,
  0.750000;1.000000;,
  0.875000;0.000000;,
  0.875000;1.000000;,
  1.000000;0.000000;,
  1.000000;1.000000;,
  0.062500;0.000000;,
  0.187500;0.000000;,
  0.312500;0.000000;,
  0.437500;0.000000;,
  0.562500;0.000000;,
  0.687500;0.000000;,
  0.812500;0.000000;,
  0.937500;0.000000;,
  0.062500;1.000000;,
  0.187500;1.000000;,
  0.312500;1.000000;,
  0.437500;1.000000;,
  0.562500;1.000000;,
  0.687500;1.000000;,
  0.812500;1.000000;,
  0.937500;1.000000;,
  0.000000;0.000000;,
  0.125000;0.000000;,
  0.125000;1.000000;,
  0.000000;1.000000;,
  0.250000;0.000000;,
  0.250000;1.000000;,
  0.375000;0.000000;,
  0.375000;1.000000;,
  0.500000;0.000000;,
  0.500000;1.000000;,
  0.625000;0.000000;,
  0.625000;1.000000;,
  0.750000;0.000000;,
  0.750000;1.000000;,
  0.875000;0.000000;,
  0.875000;1.000000;,
  1.000000;0.000000;,
  1.000000;1.000000;,
  0.062500;0.000000;,
  0.187500;0.000000;,
  0.312500;0.000000;,
  0.437500;0.000000;,
  0.562500;0.000000;,
  0.687500;0.000000;,
  0.812500;0.000000;,
  0.937500;0.000000;,
  0.062500;1.000000;,
  0.187500;1.000000;,
  0.312500;1.000000;,
  0.437500;1.000000;,
  0.562500;1.000000;,
  0.687500;1.000000;,
  0.812500;1.000000;,
  0.937500;1.000000;;
 }
}
