xof 0302txt 0064
template Header {
 <3D82AB43-62DA-11cf-AB39-0020AF71E433>
 WORD major;
 WORD minor;
 DWORD flags;
}

template Vector {
 <3D82AB5E-62DA-11cf-AB39-0020AF71E433>
 FLOAT x;
 FLOAT y;
 FLOAT z;
}

template Coords2d {
 <F6F23F44-7686-11cf-8F52-0040333594A3>
 FLOAT u;
 FLOAT v;
}

template Matrix4x4 {
 <F6F23F45-7686-11cf-8F52-0040333594A3>
 array FLOAT matrix[16];
}

template ColorRGBA {
 <35FF44E0-6C7C-11cf-8F52-0040333594A3>
 FLOAT red;
 FLOAT green;
 FLOAT blue;
 FLOAT alpha;
}

template ColorRGB {
 <D3E16E81-7835-11cf-8F52-0040333594A3>
 FLOAT red;
 FLOAT green;
 FLOAT blue;
}

template IndexedColor {
 <1630B820-7842-11cf-8F52-0040333594A3>
 DWORD index;
 ColorRGBA indexColor;
}

template Boolean {
 <4885AE61-78E8-11cf-8F52-0040333594A3>
 WORD truefalse;
}

template Boolean2d {
 <4885AE63-78E8-11cf-8F52-0040333594A3>
 Boolean u;
 Boolean v;
}

template MaterialWrap {
 <4885AE60-78E8-11cf-8F52-0040333594A3>
 Boolean u;
 Boolean v;
}

template TextureFilename {
 <A42790E1-7810-11cf-8F52-0040333594A3>
 STRING filename;
}

template Material {
 <3D82AB4D-62DA-11cf-AB39-0020AF71E433>
 ColorRGBA faceColor;
 FLOAT power;
 ColorRGB specularColor;
 ColorRGB emissiveColor;
 [...]
}

template MeshFace {
 <3D82AB5F-62DA-11cf-AB39-0020AF71E433>
 DWORD nFaceVertexIndices;
 array DWORD faceVertexIndices[nFaceVertexIndices];
}

template MeshFaceWraps {
 <4885AE62-78E8-11cf-8F52-0040333594A3>
 DWORD nFaceWrapValues;
 Boolean2d faceWrapValues;
}

template MeshTextureCoords {
 <F6F23F40-7686-11cf-8F52-0040333594A3>
 DWORD nTextureCoords;
 array Coords2d textureCoords[nTextureCoords];
}

template MeshMaterialList {
 <F6F23F42-7686-11cf-8F52-0040333594A3>
 DWORD nMaterials;
 DWORD nFaceIndexes;
 array DWORD faceIndexes[nFaceIndexes];
 [Material]
}

template MeshNormals {
 <F6F23F43-7686-11cf-8F52-0040333594A3>
 DWORD nNormals;
 array Vector normals[nNormals];
 DWORD nFaceNormals;
 array MeshFace faceNormals[nFaceNormals];
}

template MeshVertexColors {
 <1630B821-7842-11cf-8F52-0040333594A3>
 DWORD nVertexColors;
 array IndexedColor vertexColors[nVertexColors];
}

template Mesh {
 <3D82AB44-62DA-11cf-AB39-0020AF71E433>
 DWORD nVertices;
 array Vector vertices[nVertices];
 DWORD nFaces;
 array MeshFace faces[nFaces];
 [...]
}

Header{
1;
0;
1;
}

Mesh {
 298;
 12.02040;2310.00000;353.85631;,
 -42.98910;2310.00000;467.81131;,
 -42.98910;23.39940;467.81131;,
 12.02040;23.39940;353.85631;,
 -90.05130;2310.00000;360.40979;,
 -90.05130;23.39940;360.40979;,
 -225.35431;2310.00000;337.73131;,
 -225.35431;23.39940;337.73131;,
 -135.09240;2310.00000;247.23660;,
 -135.09240;23.39940;247.23660;,
 -157.99440;2310.00000;124.09470;,
 -157.99440;23.39940;124.09470;,
 -46.92930;2310.00000;181.99920;,
 -46.92930;23.39940;181.99920;,
 66.00180;2310.00000;122.13930;,
 66.00180;23.39940;122.13930;,
 48.12990;2310.00000;258.16111;,
 48.12990;23.39940;258.16111;,
 137.07900;2310.00000;334.56809;,
 137.07900;23.39940;334.56809;,
 12.02040;2310.00000;353.85631;,
 12.02040;23.39940;353.85631;,
 -44.65110;2310.00000;277.26931;,
 -44.65110;2310.00000;277.26931;,
 -44.65110;2310.00000;277.26931;,
 -44.65110;2310.00000;277.26931;,
 -44.65110;2310.00000;277.26931;,
 -44.65110;2310.00000;277.26931;,
 -44.65110;2310.00000;277.26931;,
 -44.65110;2310.00000;277.26931;,
 -44.65110;2310.00000;277.26931;,
 -44.65110;2310.00000;277.26931;,
 -44.65110;23.39940;277.26931;,
 -44.65110;23.39940;277.26931;,
 -44.65110;23.39940;277.26931;,
 -44.65110;23.39940;277.26931;,
 -44.65110;23.39940;277.26931;,
 -44.65110;23.39940;277.26931;,
 -44.65110;23.39940;277.26931;,
 -44.65110;23.39940;277.26931;,
 -44.65110;23.39940;277.26931;,
 -44.65110;23.39940;277.26931;,
 -265.46700;3229.02686;-21.14580;,
 218.81010;3229.02686;-25.37250;,
 218.81010;3045.92871;-25.37250;,
 -265.46700;3045.92871;-21.14580;,
 372.48001;3229.02686;433.89629;,
 372.48001;3045.92871;433.89629;,
 -16.82490;3229.02686;721.96710;,
 -16.82490;3045.92871;721.96710;,
 -411.09810;3229.02686;440.73509;,
 -411.09810;3045.92871;440.73509;,
 -265.46700;3229.02686;-21.14580;,
 -265.46700;3045.92871;-21.14580;,
 -20.42040;3229.02686;310.01550;,
 -20.42040;3229.02686;310.01550;,
 -20.42040;3229.02686;310.01550;,
 -20.42040;3229.02686;310.01550;,
 -20.42040;3229.02686;310.01550;,
 -20.42040;3045.92871;310.01550;,
 -20.42040;3045.92871;310.01550;,
 -20.42040;3045.92871;310.01550;,
 -20.42040;3045.92871;310.01550;,
 -20.42040;3045.92871;310.01550;,
 46.17960;2691.10419;400.01999;,
 -36.66930;2691.10419;571.64882;,
 -41.73990;2310.00000;488.32892;,
 18.76980;2310.00000;362.97810;,
 -107.55090;2691.10419;409.88942;,
 -93.50880;2310.00000;370.18591;,
 -311.33100;2691.10419;375.73409;,
 -242.34240;2310.00000;345.24001;,
 -175.38720;2691.10419;239.43961;,
 -143.05440;2310.00000;245.69579;,
 -209.88059;2691.10419;53.97510;,
 -168.24720;2310.00000;110.23920;,
 -42.60420;2691.10419;141.18539;,
 -46.07520;2310.00000;173.93489;,
 127.48080;2691.10419;51.03030;,
 78.14910;2310.00000;108.08879;,
 100.56420;2691.10419;255.89250;,
 58.49010;2310.00000;257.71259;,
 234.53130;2691.10419;370.97099;,
 156.33480;2310.00000;341.76121;,
 46.17960;2691.10419;400.01999;,
 18.76980;2310.00000;362.97810;,
 -39.17400;2691.10419;284.67151;,
 -39.17400;2691.10419;284.67151;,
 -39.17400;2691.10419;284.67151;,
 -39.17400;2691.10419;284.67151;,
 -39.17400;2691.10419;284.67151;,
 -39.17400;2691.10419;284.67151;,
 -39.17400;2691.10419;284.67151;,
 -39.17400;2691.10419;284.67151;,
 -39.17400;2691.10419;284.67151;,
 -39.17400;2691.10419;284.67151;,
 -43.56900;2310.00000;278.73180;,
 -43.56900;2310.00000;278.73180;,
 -43.56900;2310.00000;278.73180;,
 -43.56900;2310.00000;278.73180;,
 -43.56900;2310.00000;278.73180;,
 -43.56900;2310.00000;278.73180;,
 -43.56900;2310.00000;278.73180;,
 -43.56900;2310.00000;278.73180;,
 -43.56900;2310.00000;278.73180;,
 -43.56900;2310.00000;278.73180;,
 -337.93380;3055.55640;-117.87570;,
 277.15139;3055.55640;-123.24421;,
 137.94450;2670.73114;37.76700;,
 -220.44960;2670.73114;40.89450;,
 472.32751;3055.55640;460.07790;,
 251.66881;2670.73114;377.65350;,
 -21.37380;3058.98175;825.77847;,
 -35.68260;2675.97455;590.66249;,
 -522.90120;3055.55640;468.76378;,
 -328.22520;2670.73114;382.71451;,
 -337.93380;3055.55640;-117.87570;,
 -220.44960;2670.73114;40.89450;,
 -25.94040;3045.92871;302.55540;,
 -25.94040;3045.92871;302.55540;,
 -25.94040;3045.92871;302.55540;,
 -25.94040;3045.92871;302.55540;,
 -25.94040;3045.92871;302.55540;,
 -38.34360;2691.10419;285.79381;,
 -38.34360;2691.10419;285.79381;,
 -38.34360;2691.10419;285.79381;,
 -38.34360;2691.10419;285.79381;,
 -38.34360;2691.10419;285.79381;,
 -70.18590;15.66000;298.67251;,
 -16.71750;15.66000;259.10790;,
 -56.28210;15.66000;205.63921;,
 -109.75050;15.66000;245.20379;,
 -445.07822;442.92421;-263.87640;,
 431.63278;442.92421;-271.52790;,
 431.63278;19.69710;-271.52790;,
 -445.07822;19.69710;-263.87640;,
 709.82639;442.92421;559.90919;,
 709.82639;19.69710;559.90919;,
 5.05020;442.92421;1081.41568;,
 5.05020;19.69710;1081.41568;,
 -708.72029;442.92421;572.28868;,
 -708.72029;19.69710;572.28868;,
 -445.07822;442.92421;-263.87640;,
 -445.07822;19.69710;-263.87640;,
 -1.45830;442.92421;335.64120;,
 -1.45830;442.92421;335.64120;,
 -1.45830;442.92421;335.64120;,
 -1.45830;442.92421;335.64120;,
 -1.45830;442.92421;335.64120;,
 -1.45830;19.69710;335.64120;,
 -1.45830;19.69710;335.64120;,
 -1.45830;19.69710;335.64120;,
 -1.45830;19.69710;335.64120;,
 -1.45830;19.69710;335.64120;,
 -309.93361;595.65028;-466.76848;,
 -177.26340;595.65028;-465.21748;,
 -177.26340;4.53360;-465.21748;,
 -309.93361;4.53360;-466.76848;,
 -177.26340;595.65028;-465.21748;,
 -178.81380;595.65028;-287.54700;,
 -178.81380;4.53360;-287.54700;,
 -177.26340;4.53360;-465.21748;,
 -178.81380;595.65028;-287.54700;,
 -311.48371;595.65028;-289.09680;,
 -311.48371;4.53360;-289.09680;,
 -178.81380;4.53360;-287.54700;,
 -311.48371;595.65028;-289.09680;,
 -309.93361;595.65028;-466.76848;,
 -309.93361;4.53360;-466.76848;,
 -311.48371;4.53360;-289.09680;,
 -177.26340;595.65028;-465.21748;,
 -309.93361;595.65028;-466.76848;,
 -309.93361;4.53360;-466.76848;,
 -177.26340;4.53360;-465.21748;,
 163.21410;595.65028;-472.57709;,
 295.88370;595.65028;-471.02728;,
 295.88370;4.53360;-471.02728;,
 163.21410;4.53360;-472.57709;,
 295.88370;595.65028;-471.02728;,
 294.33360;595.65028;-293.35680;,
 294.33360;4.53360;-293.35680;,
 295.88370;4.53360;-471.02728;,
 294.33360;595.65028;-293.35680;,
 161.66370;595.65028;-294.90630;,
 161.66370;4.53360;-294.90630;,
 294.33360;4.53360;-293.35680;,
 161.66370;595.65028;-294.90630;,
 163.21410;595.65028;-472.57709;,
 163.21410;4.53360;-472.57709;,
 161.66370;4.53360;-294.90630;,
 295.88370;595.65028;-471.02728;,
 163.21410;595.65028;-472.57709;,
 163.21410;4.53360;-472.57709;,
 295.88370;4.53360;-471.02728;,
 331.44630;714.52982;-290.14231;,
 332.99641;714.52982;-467.81310;,
 -346.90741;714.52982;-474.53128;,
 -348.45749;714.52982;-296.86171;,
 332.99641;714.52982;-467.81310;,
 332.99641;596.85452;-467.81310;,
 -346.90741;596.85452;-474.53128;,
 -346.90741;714.52982;-474.53128;,
 332.99641;596.85452;-467.81310;,
 331.44630;596.85452;-290.14231;,
 -348.45749;596.85452;-296.86171;,
 -346.90741;596.85452;-474.53128;,
 331.44630;596.85452;-290.14231;,
 331.44630;714.52982;-290.14231;,
 -348.45749;714.52982;-296.86171;,
 -348.45749;596.85452;-296.86171;,
 332.99641;714.52982;-467.81310;,
 331.44630;714.52982;-290.14231;,
 -348.45749;714.52982;-296.86171;,
 -346.90741;714.52982;-474.53128;,
 -126.35880;352.48109;-357.66030;,
 105.90300;352.48109;-349.48531;,
 105.90300;9.27660;-349.48531;,
 -126.35880;9.27660;-357.66030;,
 105.90300;352.48109;-349.48531;,
 111.24990;352.48109;-257.64091;,
 111.24990;9.27660;-257.64091;,
 105.90300;9.27660;-349.48531;,
 111.24990;352.48109;-257.64091;,
 -121.01280;352.48109;-265.81469;,
 -121.01280;9.27660;-265.81469;,
 111.24990;9.27660;-257.64091;,
 -121.01280;352.48109;-265.81469;,
 -126.35880;352.48109;-357.66030;,
 -126.35880;9.27660;-357.66030;,
 -121.01280;9.27660;-265.81469;,
 105.90300;352.48109;-349.48531;,
 -126.35880;352.48109;-357.66030;,
 -126.35880;9.27660;-357.66030;,
 105.90300;9.27660;-349.48531;,
 -118.16339;340.90741;-360.98220;,
 98.73390;340.90741;-359.08921;,
 98.73390;20.85030;-359.08921;,
 -118.16339;20.85030;-360.98220;,
 -240.89580;451.70911;-957.09393;,
 -138.53370;451.70911;-955.89752;,
 -138.53370;-4.36740;-955.89752;,
 -240.89580;-4.36740;-957.09393;,
 -138.53370;451.70911;-955.89752;,
 -139.73009;451.70911;-818.81552;,
 -139.73009;-4.36740;-818.81552;,
 -138.53370;-4.36740;-955.89752;,
 -139.73009;451.70911;-818.81552;,
 -242.09159;451.70911;-820.01129;,
 -242.09159;-4.36740;-820.01129;,
 -139.73009;-4.36740;-818.81552;,
 -242.09159;451.70911;-820.01129;,
 -240.89580;451.70911;-957.09393;,
 -240.89580;-4.36740;-957.09393;,
 -242.09159;-4.36740;-820.01129;,
 -138.53370;451.70911;-955.89752;,
 -240.89580;451.70911;-957.09393;,
 -240.89580;-4.36740;-957.09393;,
 -138.53370;-4.36740;-955.89752;,
 124.16190;451.70911;-961.57590;,
 226.52339;451.70911;-960.38013;,
 226.52339;-4.36740;-960.38013;,
 124.16190;-4.36740;-961.57590;,
 226.52339;451.70911;-960.38013;,
 225.32730;451.70911;-823.29840;,
 225.32730;-4.36740;-823.29840;,
 226.52339;-4.36740;-960.38013;,
 225.32730;451.70911;-823.29840;,
 122.96581;451.70911;-824.49362;,
 122.96581;-4.36740;-824.49362;,
 225.32730;-4.36740;-823.29840;,
 122.96581;451.70911;-824.49362;,
 124.16190;451.70911;-961.57590;,
 124.16190;-4.36740;-961.57590;,
 122.96581;-4.36740;-824.49362;,
 226.52339;451.70911;-960.38013;,
 124.16190;451.70911;-961.57590;,
 124.16190;-4.36740;-961.57590;,
 226.52339;-4.36740;-960.38013;,
 255.16319;543.43080;-825.39569;,
 253.96651;543.43080;-962.47797;,
 -270.62430;543.43080;-958.50540;,
 -269.42759;543.43080;-821.42432;,
 253.96651;543.43080;-962.47797;,
 253.96651;452.63850;-962.47797;,
 -270.62430;452.63850;-958.50540;,
 -270.62430;543.43080;-958.50540;,
 253.96651;452.63850;-962.47797;,
 255.16319;452.63850;-825.39569;,
 -269.42759;452.63850;-821.42432;,
 -270.62430;452.63850;-958.50540;,
 255.16319;452.63850;-825.39569;,
 255.16319;543.43080;-825.39569;,
 -269.42759;543.43080;-821.42432;,
 -269.42759;452.63850;-821.42432;,
 253.96651;543.43080;-962.47797;,
 255.16319;543.43080;-825.39569;,
 -269.42759;543.43080;-821.42432;,
 -270.62430;543.43080;-958.50540;;
 
 149;
 4;0,1,2,3;,
 4;1,4,5,2;,
 4;4,6,7,5;,
 4;6,8,9,7;,
 4;8,10,11,9;,
 4;10,12,13,11;,
 4;12,14,15,13;,
 4;14,16,17,15;,
 4;16,18,19,17;,
 4;18,20,21,19;,
 3;22,1,0;,
 3;23,4,1;,
 3;24,6,4;,
 3;25,8,6;,
 3;26,10,8;,
 3;27,12,10;,
 3;28,14,12;,
 3;29,16,14;,
 3;30,18,16;,
 3;31,20,18;,
 3;32,3,2;,
 3;33,2,5;,
 3;34,5,7;,
 3;35,7,9;,
 3;36,9,11;,
 3;37,11,13;,
 3;38,13,15;,
 3;39,15,17;,
 3;40,17,19;,
 3;41,19,21;,
 4;42,43,44,45;,
 4;43,46,47,44;,
 4;46,48,49,47;,
 4;48,50,51,49;,
 4;50,52,53,51;,
 3;54,43,42;,
 3;55,46,43;,
 3;56,48,46;,
 3;57,50,48;,
 3;58,52,50;,
 3;59,45,44;,
 3;60,44,47;,
 3;61,47,49;,
 3;62,49,51;,
 3;63,51,53;,
 4;64,65,66,67;,
 4;65,68,69,66;,
 4;68,70,71,69;,
 4;70,72,73,71;,
 4;72,74,75,73;,
 4;74,76,77,75;,
 4;76,78,79,77;,
 4;78,80,81,79;,
 4;80,82,83,81;,
 4;82,84,85,83;,
 3;86,65,64;,
 3;87,68,65;,
 3;88,70,68;,
 3;89,72,70;,
 3;90,74,72;,
 3;91,76,74;,
 3;92,78,76;,
 3;93,80,78;,
 3;94,82,80;,
 3;95,84,82;,
 3;96,67,66;,
 3;97,66,69;,
 3;98,69,71;,
 3;99,71,73;,
 3;100,73,75;,
 3;101,75,77;,
 3;102,77,79;,
 3;103,79,81;,
 3;104,81,83;,
 3;105,83,85;,
 4;106,107,108,109;,
 4;107,110,111,108;,
 4;110,112,113,111;,
 4;112,114,115,113;,
 4;114,116,117,115;,
 3;118,107,106;,
 3;119,110,107;,
 3;120,112,110;,
 3;121,114,112;,
 3;122,116,114;,
 3;123,109,108;,
 3;124,108,111;,
 3;125,111,113;,
 3;126,113,115;,
 3;127,115,117;,
 4;128,129,130,131;,
 4;132,133,134,135;,
 4;133,136,137,134;,
 4;136,138,139,137;,
 4;138,140,141,139;,
 4;140,142,143,141;,
 3;144,133,132;,
 3;145,136,133;,
 3;146,138,136;,
 3;147,140,138;,
 3;148,142,140;,
 3;149,135,134;,
 3;150,134,137;,
 3;151,137,139;,
 3;152,139,141;,
 3;153,141,143;,
 4;154,155,156,157;,
 4;158,159,160,161;,
 4;162,163,164,165;,
 4;166,167,168,169;,
 4;166,159,170,171;,
 4;172,173,160,169;,
 4;174,175,176,177;,
 4;178,179,180,181;,
 4;182,183,184,185;,
 4;186,187,188,189;,
 4;186,179,190,191;,
 4;192,193,180,189;,
 4;194,195,196,197;,
 4;198,199,200,201;,
 4;202,203,204,205;,
 4;206,207,208,209;,
 4;206,199,210,211;,
 4;212,213,200,209;,
 4;214,215,216,217;,
 4;218,219,220,221;,
 4;222,223,224,225;,
 4;226,227,228,229;,
 4;226,219,230,231;,
 4;232,233,220,229;,
 4;234,235,236,237;,
 4;238,239,240,241;,
 4;242,243,244,245;,
 4;246,247,248,249;,
 4;250,251,252,253;,
 4;250,243,254,255;,
 4;256,257,244,253;,
 4;258,259,260,261;,
 4;262,263,264,265;,
 4;266,267,268,269;,
 4;270,271,272,273;,
 4;270,263,274,275;,
 4;276,277,264,273;,
 4;278,279,280,281;,
 4;282,283,284,285;,
 4;286,287,288,289;,
 4;290,291,292,293;,
 4;290,283,294,295;,
 4;296,297,284,293;;
 
 MeshMaterialList {
  5;
  149;
  1,
  1,
  1,
  1,
  1,
  1,
  1,
  1,
  1,
  1,
  1,
  1,
  1,
  1,
  1,
  1,
  1,
  1,
  1,
  1,
  1,
  1,
  1,
  1,
  1,
  1,
  1,
  1,
  1,
  1,
  1,
  1,
  1,
  1,
  1,
  1,
  1,
  1,
  1,
  1,
  1,
  1,
  1,
  1,
  1,
  1,
  1,
  1,
  1,
  1,
  1,
  1,
  1,
  1,
  1,
  1,
  1,
  1,
  1,
  1,
  1,
  1,
  1,
  1,
  1,
  1,
  1,
  1,
  1,
  1,
  1,
  1,
  1,
  1,
  1,
  2,
  2,
  2,
  2,
  2,
  1,
  1,
  1,
  1,
  1,
  1,
  1,
  1,
  1,
  1,
  2,
  1,
  1,
  1,
  1,
  1,
  1,
  1,
  1,
  1,
  1,
  1,
  1,
  1,
  1,
  1,
  3,
  3,
  3,
  3,
  3,
  3,
  3,
  3,
  3,
  3,
  3,
  3,
  3,
  3,
  3,
  3,
  3,
  3,
  2,
  2,
  2,
  2,
  2,
  2,
  4,
  3,
  3,
  3,
  3,
  3,
  3,
  3,
  3,
  3,
  3,
  3,
  3,
  3,
  3,
  3,
  3,
  3,
  3;;
  Material {
   0.800000;0.800000;0.800000;1.000000;;
   5.000000;
   0.000000;0.000000;0.000000;;
   0.000000;0.000000;0.000000;;
  }
  Material {
   0.674400;0.674400;0.674400;1.000000;;
   5.000000;
   0.000000;0.000000;0.000000;;
   0.000000;0.000000;0.000000;;
  }
  Material {
   0.238400;0.762400;0.800000;1.000000;;
   5.000000;
   0.000000;0.000000;0.000000;;
   0.000000;0.000000;0.000000;;
  }
  Material {
   0.800000;0.000000;0.000000;1.000000;;
   5.000000;
   0.000000;0.000000;0.000000;;
   0.000000;0.000000;0.000000;;
  }
  Material {
   0.000000;0.000000;0.000000;1.000000;;
   5.000000;
   0.000000;0.000000;0.000000;;
   0.000000;0.000000;0.000000;;
  }
 }
 MeshNormals {
  96;
  0.000000;1.000000;0.000000;,
  0.594822;0.000000;0.803858;,
  0.900562;0.000000;0.434728;,
  -0.614647;0.000000;0.788802;,
  -0.165307;0.000000;0.986242;,
  -0.955302;0.000000;-0.295630;,
  -0.983142;0.000000;0.182845;,
  -0.003408;0.000000;-0.999994;,
  -0.468333;0.000000;-0.883552;,
  0.934041;0.000000;-0.357164;,
  0.651602;0.000000;-0.758561;,
  0.000000;-1.000000;-0.000000;,
  -0.008728;0.000000;-0.999962;,
  0.948323;0.000000;-0.317306;,
  0.594823;0.000000;0.803856;,
  -0.580702;0.000000;0.814116;,
  0.590522;-0.120039;0.798044;,
  0.895451;-0.106416;0.432254;,
  -0.611943;-0.104225;0.784004;,
  -0.164333;-0.108199;0.980453;,
  -0.951747;-0.085584;-0.294709;,
  -0.979978;-0.080149;0.182260;,
  -0.003569;-0.085584;-0.996324;,
  -0.467136;-0.071478;-0.881292;,
  0.928662;-0.104225;-0.355982;,
  0.649752;-0.075345;-0.756403;,
  -0.000044;0.999997;-0.002615;,
  -0.008060;-0.383482;-0.923513;,
  0.856332;-0.429651;-0.286524;,
  0.525853;-0.456971;0.717396;,
  -0.519762;-0.430102;0.738146;,
  -0.000088;-0.999976;0.006878;,
  -0.915925;0.000000;0.401349;,
  -0.708017;0.000000;-0.706196;,
  0.462299;0.000000;-0.886724;,
  0.991479;0.000000;0.130270;,
  0.152431;0.000000;0.988314;,
  -0.953717;0.000000;-0.300707;,
  -0.913322;-0.075345;0.400208;,
  -0.706206;-0.071478;-0.704389;,
  0.460813;-0.080150;-0.883871;,
  0.985658;-0.108198;0.129505;,
  0.151562;-0.106416;0.982703;,
  -0.880803;-0.383483;-0.277717;,
  -0.010703;0.999830;0.014989;,
  0.010926;0.999831;0.014788;,
  -0.016535;0.999824;-0.008806;,
  -0.000235;0.999689;-0.024938;,
  0.016325;0.999825;-0.009105;,
  0.039554;-0.997779;0.053592;,
  -0.038840;-0.997766;0.054351;,
  -0.066473;-0.997723;-0.011417;,
  -0.000573;-0.998771;-0.049561;,
  0.065894;-0.997747;-0.012646;,
  0.000000;1.000000;0.000000;,
  -0.008727;0.000000;-0.999962;,
  0.948324;0.000000;-0.317303;,
  0.594822;0.000000;0.803857;,
  -0.580703;0.000000;0.814116;,
  0.000000;-1.000000;-0.000000;,
  -0.953717;0.000000;-0.300706;,
  0.011690;0.000000;-0.999932;,
  0.999962;0.000000;0.008726;,
  -0.011681;0.000000;0.999932;,
  0.011681;0.000000;-0.999932;,
  0.999962;0.000000;0.008724;,
  -0.011679;0.000000;0.999932;,
  0.000000;1.000000;0.000000;,
  0.009881;0.000000;-0.999951;,
  0.000000;-1.000000;0.000000;,
  -0.999962;0.000000;-0.008724;,
  -0.999962;0.000000;-0.008726;,
  -0.009882;0.000000;0.999951;,
  0.999962;0.000000;0.008724;,
  -0.999962;0.000000;-0.008724;,
  0.035176;0.000000;-0.999381;,
  0.998310;0.000000;-0.058119;,
  -0.035170;0.000000;0.999381;,
  -0.998310;0.000000;0.058108;,
  0.000000;1.000000;0.000000;,
  0.000000;-1.000000;-0.000000;,
  0.008727;0.000000;-0.999962;,
  0.011687;0.000000;-0.999932;,
  0.999962;0.000000;0.008727;,
  -0.011681;0.000000;0.999932;,
  0.011681;0.000000;-0.999932;,
  0.999962;0.000000;0.008725;,
  -0.011676;0.000000;0.999932;,
  0.000000;1.000000;0.000000;,
  -0.007572;0.000000;-0.999971;,
  0.000000;-1.000000;-0.000000;,
  -0.999962;0.000000;-0.008723;,
  -0.999962;0.000000;-0.008725;,
  0.007570;0.000000;0.999971;,
  0.999962;0.000000;-0.008729;,
  -0.999962;0.000000;0.008730;;
  149;
  4;1,2,2,1;,
  4;32,3,3,32;,
  4;3,4,4,3;,
  4;33,5,5,33;,
  4;5,6,6,5;,
  4;34,7,7,34;,
  4;7,8,8,7;,
  4;35,9,9,35;,
  4;9,10,10,9;,
  4;36,1,1,36;,
  3;0,0,0;,
  3;0,0,0;,
  3;0,0,0;,
  3;0,0,0;,
  3;0,0,0;,
  3;0,0,0;,
  3;0,0,0;,
  3;0,0,0;,
  3;0,0,0;,
  3;0,0,0;,
  3;11,11,11;,
  3;11,11,11;,
  3;11,11,11;,
  3;11,11,11;,
  3;11,11,11;,
  3;11,11,11;,
  3;11,11,11;,
  3;11,11,11;,
  3;11,11,11;,
  3;11,11,11;,
  4;12,12,12,12;,
  4;13,13,13,13;,
  4;14,14,14,14;,
  4;15,15,15,15;,
  4;37,37,37,37;,
  3;0,0,0;,
  3;0,0,0;,
  3;0,0,0;,
  3;0,0,0;,
  3;0,0,0;,
  3;11,11,11;,
  3;11,11,11;,
  3;11,11,11;,
  3;11,11,11;,
  3;11,11,11;,
  4;16,17,17,16;,
  4;38,18,18,38;,
  4;18,19,19,18;,
  4;39,20,20,39;,
  4;20,21,21,20;,
  4;40,22,22,40;,
  4;22,23,23,22;,
  4;41,24,24,41;,
  4;24,25,25,24;,
  4;42,16,16,42;,
  3;0,0,0;,
  3;0,0,0;,
  3;0,0,0;,
  3;0,0,0;,
  3;0,0,0;,
  3;0,0,0;,
  3;0,0,0;,
  3;0,0,0;,
  3;0,0,0;,
  3;0,0,0;,
  3;11,11,11;,
  3;11,11,11;,
  3;11,11,11;,
  3;11,11,11;,
  3;11,11,11;,
  3;11,11,11;,
  3;11,11,11;,
  3;11,11,11;,
  3;11,11,11;,
  3;11,11,11;,
  4;27,27,27,27;,
  4;28,28,28,28;,
  4;29,29,29,29;,
  4;30,30,30,30;,
  4;43,43,43,43;,
  3;26,44,45;,
  3;26,46,44;,
  3;26,47,46;,
  3;26,48,47;,
  3;26,45,48;,
  3;31,49,50;,
  3;31,50,51;,
  3;31,51,52;,
  3;31,52,53;,
  3;31,53,49;,
  4;0,0,0,0;,
  4;55,55,55,55;,
  4;56,56,56,56;,
  4;57,57,57,57;,
  4;58,58,58,58;,
  4;60,60,60,60;,
  3;54,54,54;,
  3;54,54,54;,
  3;54,54,54;,
  3;54,54,54;,
  3;54,54,54;,
  3;59,59,59;,
  3;59,59,59;,
  3;59,59,59;,
  3;59,59,59;,
  3;59,59,59;,
  4;61,61,61,61;,
  4;62,62,62,62;,
  4;63,63,63,63;,
  4;70,70,70,70;,
  4;67,67,67,67;,
  4;69,69,69,69;,
  4;64,64,64,64;,
  4;65,65,65,65;,
  4;66,66,66,66;,
  4;71,71,71,71;,
  4;67,67,67,67;,
  4;69,69,69,69;,
  4;67,67,67,67;,
  4;68,68,68,68;,
  4;69,69,69,69;,
  4;72,72,72,72;,
  4;73,73,73,73;,
  4;74,74,74,74;,
  4;75,75,75,75;,
  4;76,76,76,76;,
  4;77,77,77,77;,
  4;78,78,78,78;,
  4;79,79,79,79;,
  4;80,80,80,80;,
  4;81,81,81,81;,
  4;82,82,82,82;,
  4;83,83,83,83;,
  4;84,84,84,84;,
  4;91,91,91,91;,
  4;88,88,88,88;,
  4;90,90,90,90;,
  4;85,85,85,85;,
  4;86,86,86,86;,
  4;87,87,87,87;,
  4;92,92,92,92;,
  4;88,88,88,88;,
  4;90,90,90,90;,
  4;88,88,88,88;,
  4;89,89,89,89;,
  4;90,90,90,90;,
  4;93,93,93,93;,
  4;94,94,94,94;,
  4;95,95,95,95;;
 }
 MeshTextureCoords {
  298;
  0.000000;0.000000;,
  0.100000;0.000000;,
  0.100000;1.000000;,
  0.000000;1.000000;,
  0.200000;0.000000;,
  0.200000;1.000000;,
  0.300000;0.000000;,
  0.300000;1.000000;,
  0.400000;0.000000;,
  0.400000;1.000000;,
  0.500000;0.000000;,
  0.500000;1.000000;,
  0.600000;0.000000;,
  0.600000;1.000000;,
  0.700000;0.000000;,
  0.700000;1.000000;,
  0.800000;0.000000;,
  0.800000;1.000000;,
  0.900000;0.000000;,
  0.900000;1.000000;,
  1.000000;0.000000;,
  1.000000;1.000000;,
  0.050000;0.000000;,
  0.150000;0.000000;,
  0.250000;0.000000;,
  0.350000;0.000000;,
  0.450000;0.000000;,
  0.550000;0.000000;,
  0.650000;0.000000;,
  0.750000;0.000000;,
  0.850000;0.000000;,
  0.950000;0.000000;,
  0.050000;1.000000;,
  0.150000;1.000000;,
  0.250000;1.000000;,
  0.350000;1.000000;,
  0.450000;1.000000;,
  0.550000;1.000000;,
  0.650000;1.000000;,
  0.750000;1.000000;,
  0.850000;1.000000;,
  0.950000;1.000000;,
  0.000000;0.000000;,
  0.200000;0.000000;,
  0.200000;1.000000;,
  0.000000;1.000000;,
  0.400000;0.000000;,
  0.400000;1.000000;,
  0.600000;0.000000;,
  0.600000;1.000000;,
  0.800000;0.000000;,
  0.800000;1.000000;,
  1.000000;0.000000;,
  1.000000;1.000000;,
  0.100000;0.000000;,
  0.300000;0.000000;,
  0.500000;0.000000;,
  0.700000;0.000000;,
  0.900000;0.000000;,
  0.100000;1.000000;,
  0.300000;1.000000;,
  0.500000;1.000000;,
  0.700000;1.000000;,
  0.900000;1.000000;,
  0.000000;0.000000;,
  0.100000;0.000000;,
  0.100000;1.000000;,
  0.000000;1.000000;,
  0.200000;0.000000;,
  0.200000;1.000000;,
  0.300000;0.000000;,
  0.300000;1.000000;,
  0.400000;0.000000;,
  0.400000;1.000000;,
  0.500000;0.000000;,
  0.500000;1.000000;,
  0.600000;0.000000;,
  0.600000;1.000000;,
  0.700000;0.000000;,
  0.700000;1.000000;,
  0.800000;0.000000;,
  0.800000;1.000000;,
  0.900000;0.000000;,
  0.900000;1.000000;,
  1.000000;0.000000;,
  1.000000;1.000000;,
  0.050000;0.000000;,
  0.150000;0.000000;,
  0.250000;0.000000;,
  0.350000;0.000000;,
  0.450000;0.000000;,
  0.550000;0.000000;,
  0.650000;0.000000;,
  0.750000;0.000000;,
  0.850000;0.000000;,
  0.950000;0.000000;,
  0.050000;1.000000;,
  0.150000;1.000000;,
  0.250000;1.000000;,
  0.350000;1.000000;,
  0.450000;1.000000;,
  0.550000;1.000000;,
  0.650000;1.000000;,
  0.750000;1.000000;,
  0.850000;1.000000;,
  0.950000;1.000000;,
  0.000000;0.000000;,
  0.200000;0.000000;,
  0.200000;1.000000;,
  0.000000;1.000000;,
  0.400000;0.000000;,
  0.400000;1.000000;,
  0.600000;0.000000;,
  0.600000;1.000000;,
  0.800000;0.000000;,
  0.800000;1.000000;,
  1.000000;0.000000;,
  1.000000;1.000000;,
  0.100000;0.000000;,
  0.300000;0.000000;,
  0.500000;0.000000;,
  0.700000;0.000000;,
  0.900000;0.000000;,
  0.100000;1.000000;,
  0.300000;1.000000;,
  0.500000;1.000000;,
  0.700000;1.000000;,
  0.900000;1.000000;,
  0.000000;0.000000;,
  1.000000;0.000000;,
  1.000000;1.000000;,
  0.000000;1.000000;,
  0.000000;0.000000;,
  0.200000;0.000000;,
  0.200000;1.000000;,
  0.000000;1.000000;,
  0.400000;0.000000;,
  0.400000;1.000000;,
  0.600000;0.000000;,
  0.600000;1.000000;,
  0.800000;0.000000;,
  0.800000;1.000000;,
  1.000000;0.000000;,
  1.000000;1.000000;,
  0.100000;0.000000;,
  0.300000;0.000000;,
  0.500000;0.000000;,
  0.700000;0.000000;,
  0.900000;0.000000;,
  0.100000;1.000000;,
  0.300000;1.000000;,
  0.500000;1.000000;,
  0.700000;1.000000;,
  0.900000;1.000000;,
  0.000000;0.000000;,
  1.000000;0.000000;,
  1.000000;1.000000;,
  0.000000;1.000000;,
  0.000000;0.000000;,
  1.000000;0.000000;,
  1.000000;1.000000;,
  0.000000;1.000000;,
  0.000000;0.000000;,
  1.000000;0.000000;,
  1.000000;1.000000;,
  0.000000;1.000000;,
  0.000000;0.000000;,
  1.000000;0.000000;,
  1.000000;1.000000;,
  0.000000;1.000000;,
  1.000000;1.000000;,
  0.000000;1.000000;,
  0.000000;0.000000;,
  1.000000;0.000000;,
  0.000000;0.000000;,
  1.000000;0.000000;,
  1.000000;1.000000;,
  0.000000;1.000000;,
  0.000000;0.000000;,
  1.000000;0.000000;,
  1.000000;1.000000;,
  0.000000;1.000000;,
  0.000000;0.000000;,
  1.000000;0.000000;,
  1.000000;1.000000;,
  0.000000;1.000000;,
  0.000000;0.000000;,
  1.000000;0.000000;,
  1.000000;1.000000;,
  0.000000;1.000000;,
  1.000000;1.000000;,
  0.000000;1.000000;,
  0.000000;0.000000;,
  1.000000;0.000000;,
  0.000000;0.000000;,
  1.000000;0.000000;,
  1.000000;1.000000;,
  0.000000;1.000000;,
  0.000000;0.000000;,
  1.000000;0.000000;,
  1.000000;1.000000;,
  0.000000;1.000000;,
  0.000000;0.000000;,
  1.000000;0.000000;,
  1.000000;1.000000;,
  0.000000;1.000000;,
  0.000000;0.000000;,
  1.000000;0.000000;,
  1.000000;1.000000;,
  0.000000;1.000000;,
  1.000000;1.000000;,
  0.000000;1.000000;,
  0.000000;0.000000;,
  1.000000;0.000000;,
  0.000000;0.000000;,
  1.000000;0.000000;,
  1.000000;1.000000;,
  0.000000;1.000000;,
  0.000000;0.000000;,
  1.000000;0.000000;,
  1.000000;1.000000;,
  0.000000;1.000000;,
  0.000000;0.000000;,
  1.000000;0.000000;,
  1.000000;1.000000;,
  0.000000;1.000000;,
  0.000000;0.000000;,
  1.000000;0.000000;,
  1.000000;1.000000;,
  0.000000;1.000000;,
  1.000000;1.000000;,
  0.000000;1.000000;,
  0.000000;0.000000;,
  1.000000;0.000000;,
  0.000000;0.000000;,
  1.000000;0.000000;,
  1.000000;1.000000;,
  0.000000;1.000000;,
  0.000000;0.000000;,
  1.000000;0.000000;,
  1.000000;1.000000;,
  0.000000;1.000000;,
  0.000000;0.000000;,
  1.000000;0.000000;,
  1.000000;1.000000;,
  0.000000;1.000000;,
  0.000000;0.000000;,
  1.000000;0.000000;,
  1.000000;1.000000;,
  0.000000;1.000000;,
  0.000000;0.000000;,
  1.000000;0.000000;,
  1.000000;1.000000;,
  0.000000;1.000000;,
  1.000000;1.000000;,
  0.000000;1.000000;,
  0.000000;0.000000;,
  1.000000;0.000000;,
  0.000000;0.000000;,
  1.000000;0.000000;,
  1.000000;1.000000;,
  0.000000;1.000000;,
  0.000000;0.000000;,
  1.000000;0.000000;,
  1.000000;1.000000;,
  0.000000;1.000000;,
  0.000000;0.000000;,
  1.000000;0.000000;,
  1.000000;1.000000;,
  0.000000;1.000000;,
  0.000000;0.000000;,
  1.000000;0.000000;,
  1.000000;1.000000;,
  0.000000;1.000000;,
  1.000000;1.000000;,
  0.000000;1.000000;,
  0.000000;0.000000;,
  1.000000;0.000000;,
  0.000000;0.000000;,
  1.000000;0.000000;,
  1.000000;1.000000;,
  0.000000;1.000000;,
  0.000000;0.000000;,
  1.000000;0.000000;,
  1.000000;1.000000;,
  0.000000;1.000000;,
  0.000000;0.000000;,
  1.000000;0.000000;,
  1.000000;1.000000;,
  0.000000;1.000000;,
  0.000000;0.000000;,
  1.000000;0.000000;,
  1.000000;1.000000;,
  0.000000;1.000000;,
  1.000000;1.000000;,
  0.000000;1.000000;,
  0.000000;0.000000;,
  1.000000;0.000000;;
 }
}
