xof 0302txt 0064
template Header {
 <3D82AB43-62DA-11cf-AB39-0020AF71E433>
 WORD major;
 WORD minor;
 DWORD flags;
}

template Vector {
 <3D82AB5E-62DA-11cf-AB39-0020AF71E433>
 FLOAT x;
 FLOAT y;
 FLOAT z;
}

template Coords2d {
 <F6F23F44-7686-11cf-8F52-0040333594A3>
 FLOAT u;
 FLOAT v;
}

template Matrix4x4 {
 <F6F23F45-7686-11cf-8F52-0040333594A3>
 array FLOAT matrix[16];
}

template ColorRGBA {
 <35FF44E0-6C7C-11cf-8F52-0040333594A3>
 FLOAT red;
 FLOAT green;
 FLOAT blue;
 FLOAT alpha;
}

template ColorRGB {
 <D3E16E81-7835-11cf-8F52-0040333594A3>
 FLOAT red;
 FLOAT green;
 FLOAT blue;
}

template IndexedColor {
 <1630B820-7842-11cf-8F52-0040333594A3>
 DWORD index;
 ColorRGBA indexColor;
}

template Boolean {
 <4885AE61-78E8-11cf-8F52-0040333594A3>
 WORD truefalse;
}

template Boolean2d {
 <4885AE63-78E8-11cf-8F52-0040333594A3>
 Boolean u;
 Boolean v;
}

template MaterialWrap {
 <4885AE60-78E8-11cf-8F52-0040333594A3>
 Boolean u;
 Boolean v;
}

template TextureFilename {
 <A42790E1-7810-11cf-8F52-0040333594A3>
 STRING filename;
}

template Material {
 <3D82AB4D-62DA-11cf-AB39-0020AF71E433>
 ColorRGBA faceColor;
 FLOAT power;
 ColorRGB specularColor;
 ColorRGB emissiveColor;
 [...]
}

template MeshFace {
 <3D82AB5F-62DA-11cf-AB39-0020AF71E433>
 DWORD nFaceVertexIndices;
 array DWORD faceVertexIndices[nFaceVertexIndices];
}

template MeshFaceWraps {
 <4885AE62-78E8-11cf-8F52-0040333594A3>
 DWORD nFaceWrapValues;
 Boolean2d faceWrapValues;
}

template MeshTextureCoords {
 <F6F23F40-7686-11cf-8F52-0040333594A3>
 DWORD nTextureCoords;
 array Coords2d textureCoords[nTextureCoords];
}

template MeshMaterialList {
 <F6F23F42-7686-11cf-8F52-0040333594A3>
 DWORD nMaterials;
 DWORD nFaceIndexes;
 array DWORD faceIndexes[nFaceIndexes];
 [Material]
}

template MeshNormals {
 <F6F23F43-7686-11cf-8F52-0040333594A3>
 DWORD nNormals;
 array Vector normals[nNormals];
 DWORD nFaceNormals;
 array MeshFace faceNormals[nFaceNormals];
}

template MeshVertexColors {
 <1630B821-7842-11cf-8F52-0040333594A3>
 DWORD nVertexColors;
 array IndexedColor vertexColors[nVertexColors];
}

template Mesh {
 <3D82AB44-62DA-11cf-AB39-0020AF71E433>
 DWORD nVertices;
 array Vector vertices[nVertices];
 DWORD nFaces;
 array MeshFace faces[nFaces];
 [...]
}

Header{
1;
0;
1;
}

Mesh {
 415;
 -451.93124;10.18580;71.18480;,
 -451.91730;10.18605;80.84750;,
 -425.78534;55.99260;82.54305;,
 -425.78534;55.99260;72.65895;,
 -452.10056;-0.68575;70.91975;,
 -451.90939;-0.80080;80.73760;,
 -602.06842;-0.79890;31.10070;,
 -495.57379;-0.80005;235.34450;,
 -612.91986;-0.79835;196.67520;,
 -612.88977;10.42695;196.50591;,
 -495.55429;10.32740;235.26210;,
 -602.07635;10.18810;31.21090;,
 -499.08881;-0.79960;250.08755;,
 -615.69531;-0.79830;211.15350;,
 -499.08041;10.39795;250.08885;,
 -615.68286;10.54620;211.15640;,
 -499.07086;58.74865;267.64789;,
 -615.67114;59.04385;228.71706;,
 -612.83002;59.04385;213.72475;,
 -495.51614;58.74865;252.65565;,
 -412.51611;55.99260;87.47015;,
 -412.51611;55.99260;77.58600;,
 -230.37830;55.99260;153.79939;,
 -230.37830;55.99260;143.91534;,
 -438.64740;10.18605;85.77990;,
 -230.36620;10.18635;163.19725;,
 -230.37830;10.18635;153.44695;,
 -438.66266;10.18590;76.11195;,
 -316.51450;10.23825;299.33676;,
 -230.37830;-0.80050;153.44695;,
 -438.66266;-0.80130;76.11385;,
 -316.50800;58.48160;316.88754;,
 -230.36035;-0.80050;163.13005;,
 -320.06400;58.48160;331.88046;,
 -316.51730;-0.80050;299.34021;,
 -320.06699;10.26400;314.32169;,
 -320.07071;-0.80050;314.32144;,
 0.30010;55.46990;-540.45251;,
 -0.05805;55.50810;-530.98035;,
 0.40940;10.63310;-561.75854;,
 0.06265;9.92455;-555.33386;,
 0.38500;-0.64720;-562.01978;,
 -0.06260;-0.80170;-555.35608;,
 -452.10056;-0.68575;70.91975;,
 -602.25897;-0.68395;21.28225;,
 -451.93124;10.18580;71.18480;,
 -602.26617;10.30315;21.39275;,
 0.38500;-0.64720;-562.01978;,
 -150.88705;-0.64545;-654.43646;,
 0.40940;10.63310;-561.75854;,
 -150.89461;10.34155;-654.32721;,
 -614.46942;-0.64965;17.00310;,
 -614.47699;10.33745;17.11335;,
 -161.50404;-0.56440;-663.26251;,
 -161.51155;10.42260;-663.15314;,
 -641.91553;59.17925;3.26760;,
 -643.45020;59.01575;17.90085;,
 -629.64612;59.02810;17.63345;,
 -629.70514;59.14490;7.54670;,
 -188.81920;59.26615;-677.26752;,
 -178.20219;59.18510;-668.44147;,
 1.59955;10.58585;-766.62799;,
 1.67360;-0.59115;-771.81268;,
 1.58355;60.34590;-810.74677;,
 -43.52525;10.65020;-779.21014;,
 -10.16360;60.41030;-818.32916;,
 -3.37485;58.50095;230.48019;,
 93.52915;58.50095;203.46475;,
 93.52915;58.50095;193.58055;,
 -3.37485;58.50095;220.59586;,
 -101.56835;58.50095;193.58055;,
 -101.56835;58.50095;203.46475;,
 -101.56835;10.18635;212.99651;,
 -3.37485;10.18635;240.01195;,
 -3.37485;58.50095;230.48019;,
 -101.56835;58.50095;203.46475;,
 -3.37485;10.18635;230.12711;,
 -101.56835;10.18635;203.11211;,
 -101.56835;58.50095;193.58055;,
 -3.37485;58.50095;220.59586;,
 93.52915;10.18635;203.11211;,
 93.52915;58.50095;193.58055;,
 93.52915;10.18635;212.99651;,
 93.52915;58.50095;203.46475;,
 -3.37485;-0.80050;230.12711;,
 -101.56835;-0.80050;203.11211;,
 -3.37485;-0.80050;240.01195;,
 -101.56835;-0.80050;212.99651;,
 93.52915;-0.80050;203.11211;,
 93.52915;-0.79795;212.99651;,
 -3.88580;-0.80050;319.67224;,
 -261.58499;-0.80050;482.67969;,
 -261.58499;10.18635;482.67969;,
 -3.88580;10.18635;319.67224;,
 245.42845;-0.80050;482.52969;,
 245.42845;10.18635;482.52969;,
 -3.86035;-0.80050;334.66086;,
 -265.14014;-0.80050;497.67279;,
 -3.86035;10.18635;334.66086;,
 -265.14014;10.18635;497.67279;,
 249.03481;-0.80050;497.51501;,
 249.03481;10.18635;497.51501;,
 -3.86035;58.32650;352.21890;,
 -265.14014;58.32650;515.23047;,
 -261.58499;58.32650;500.23706;,
 -3.88580;58.32650;337.23065;,
 249.03481;58.32650;515.07324;,
 245.42845;58.32650;500.08810;,
 -230.37830;55.99260;153.79939;,
 -230.36620;10.18635;163.19725;,
 -230.37830;55.99260;143.91534;,
 -230.37830;10.18635;153.44695;,
 -230.36035;-0.80050;163.13005;,
 -230.37830;-0.80050;153.44695;,
 -316.51450;10.23825;299.33676;,
 -316.51730;-0.80050;299.34021;,
 -320.06699;10.26400;314.32169;,
 -320.07071;-0.80050;314.32144;,
 -316.50800;58.48160;316.88754;,
 -320.06400;58.48160;331.88046;,
 230.37830;55.99260;153.79939;,
 93.52915;58.50095;203.46475;,
 93.52915;10.18635;212.99651;,
 230.36620;10.18635;163.19725;,
 230.37830;55.99260;143.91534;,
 93.52915;58.50095;193.58055;,
 230.37830;10.18635;153.44695;,
 93.52915;10.18635;203.11211;,
 230.36035;-0.80050;163.13005;,
 93.52915;-0.79795;212.99651;,
 93.52915;-0.80050;203.11211;,
 230.37830;-0.80050;153.44695;,
 245.42845;10.18635;482.52969;,
 301.98779;10.23825;299.33676;,
 301.99084;-0.80050;299.34021;,
 245.42845;-0.80050;482.52969;,
 305.54065;10.26400;314.32169;,
 249.03481;10.18635;497.51501;,
 249.03481;-0.80050;497.51501;,
 305.54379;-0.80050;314.32144;,
 301.98151;58.48160;316.88754;,
 245.42845;58.32650;500.08810;,
 249.03481;58.32650;515.07324;,
 305.53726;58.48160;331.88046;,
 451.93124;10.18580;71.18480;,
 425.78534;55.99260;72.65895;,
 425.78534;55.99260;82.54305;,
 451.91730;10.18605;80.84750;,
 452.10056;-0.68575;70.91975;,
 451.90939;-0.80080;80.73760;,
 602.06842;-0.79890;31.10070;,
 612.91986;-0.79835;196.67520;,
 495.57379;-0.80005;235.34450;,
 612.88977;10.42695;196.50591;,
 602.07635;10.18810;31.21090;,
 495.55429;10.32740;235.26210;,
 615.69531;-0.79830;211.15350;,
 499.08881;-0.79960;250.08755;,
 615.68286;10.54620;211.15640;,
 499.08041;10.39795;250.08885;,
 615.67114;59.04385;228.71706;,
 499.07086;58.74865;267.64789;,
 612.83002;59.04385;213.72475;,
 495.51614;58.74865;252.65565;,
 412.51611;55.99260;87.47015;,
 412.51611;55.99260;77.58600;,
 438.64740;10.18605;85.77990;,
 438.66266;10.18590;76.11195;,
 438.66266;-0.80130;76.11385;,
 0.30010;55.46990;-540.45251;,
 -0.05805;55.50810;-530.98035;,
 0.40940;10.63310;-561.75854;,
 0.06265;9.92455;-555.33386;,
 0.38500;-0.64720;-562.01978;,
 -0.06260;-0.80170;-555.35608;,
 452.10056;-0.68575;70.91975;,
 602.25897;-0.68395;21.28225;,
 451.93124;10.18580;71.18480;,
 602.26617;10.30315;21.39275;,
 0.38500;-0.64720;-562.01978;,
 150.88705;-0.64545;-654.43646;,
 0.40940;10.63310;-561.75854;,
 148.98160;10.50915;-656.86346;,
 615.87250;-0.81130;31.36805;,
 615.88025;10.17575;31.47835;,
 614.46942;-0.64965;17.00310;,
 161.50404;-0.56440;-663.26251;,
 161.51155;10.42260;-663.15314;,
 614.47699;10.33745;17.11335;,
 629.64612;59.02810;17.63345;,
 623.48102;59.14490;7.54670;,
 643.45020;59.01575;17.90085;,
 641.91553;59.17925;3.26760;,
 188.81920;59.26615;-677.26752;,
 178.20219;59.18510;-668.44147;,
 1.67360;-0.59115;-771.81268;,
 1.59385;60.34590;-810.74725;,
 12.03535;60.51415;-819.43927;,
 12.04110;10.75405;-780.31927;,
 0.87240;-0.47370;-784.83112;,
 4.75495;-0.51285;-776.61823;,
 -43.50940;-0.53855;-779.33197;,
 0.87295;10.80610;-784.70404;,
 12.02130;-0.52575;-780.44635;,
 -1.98130;-0.53905;-776.19818;,
 0.86210;60.56615;-823.82404;,
 -51.14315;10.55480;-751.12274;,
 -54.62490;60.19850;-787.06671;,
 -66.22860;60.26500;-794.80658;,
 -62.74680;10.62130;-758.86359;,
 -62.73200;-0.54180;-758.98297;,
 -51.07755;-0.59805;-751.29901;,
 52.84915;10.57475;-748.66339;,
 57.06640;60.17820;-783.80365;,
 0.40940;10.63310;-561.75854;,
 67.53325;60.33380;-792.51459;,
 63.59240;10.70615;-757.00812;,
 63.57440;-0.53135;-757.13214;,
 53.18785;-0.59895;-748.47125;,
 0.38500;-0.64720;-562.01978;,
 834.83685;-0.79125;-48.38660;,
 845.68829;-0.79070;117.18790;,
 834.84479;10.19575;-48.27640;,
 845.65820;10.43460;117.01855;,
 833.30194;9.21505;-63.16260;,
 833.60156;-0.64840;-63.28345;,
 835.00464;-0.81005;-48.91850;,
 834.70520;9.05335;-48.79765;,
 833.82660;56.76975;-50.05315;,
 832.29193;56.93320;-64.68640;,
 848.32355;-0.79700;131.47964;,
 848.30817;10.64105;131.48425;,
 848.29352;59.23220;149.04660;,
 845.45239;59.23220;134.05431;,
 -602.06842;-0.79890;31.10070;,
 -602.07635;10.18810;31.21090;,
 -614.46942;-0.64965;17.00310;,
 -602.25897;-0.68395;21.28225;,
 -834.83685;-0.79125;-48.38660;,
 -612.91986;-0.79835;196.67520;,
 -845.68829;-0.79070;117.18790;,
 -834.84479;10.19575;-48.27640;,
 -845.65820;10.43460;117.01855;,
 -612.88977;10.42695;196.50591;,
 -833.30194;9.21505;-63.16260;,
 -614.47699;10.33745;17.11335;,
 -833.60156;-0.64840;-63.28345;,
 -835.00464;-0.81005;-48.91850;,
 -834.70520;9.05335;-48.79765;,
 -834.24329;56.76975;-47.29745;,
 -643.45020;59.01575;17.90085;,
 -641.91553;59.17925;3.26760;,
 -832.70862;56.93320;-61.93070;,
 -615.69531;-0.79830;211.15350;,
 -848.32355;-0.79700;131.47964;,
 -615.68286;10.54620;211.15640;,
 -848.30817;10.64105;131.48425;,
 -615.67114;59.04385;228.71706;,
 -848.29352;59.23220;149.04660;,
 -845.45239;59.23220;134.05431;,
 -612.83002;59.04385;213.72475;,
 -0.20830;50.00000;344.46109;,
 -0.20830;50.00000;606.21588;,
 246.06860;50.00000;569.17993;,
 246.06860;50.00000;506.53519;,
 -0.20830;50.00000;344.46109;,
 246.06860;50.00000;506.53519;,
 246.06860;-50.00000;506.53519;,
 -0.20830;-50.00000;344.46109;,
 -0.20830;50.00000;606.21588;,
 -0.20830;-50.00000;606.21588;,
 246.06860;-50.00000;569.17993;,
 246.06860;50.00000;569.17993;,
 -0.20830;-50.00000;344.46109;,
 246.06860;-50.00000;506.53519;,
 246.06860;-50.00000;569.17993;,
 -0.20830;-50.00000;606.21588;,
 361.88489;50.00000;501.41791;,
 313.93494;50.00000;322.89996;,
 246.06860;50.00000;506.53519;,
 361.88489;-50.00000;501.41791;,
 313.93494;-50.00000;322.89996;,
 246.06860;-50.00000;506.53519;,
 493.78864;50.00000;356.74219;,
 493.78864;50.00000;256.74265;,
 493.78864;-50.00000;356.74219;,
 493.78864;-50.00000;256.74265;,
 620.37103;50.00000;314.08411;,
 620.37103;50.00000;214.08475;,
 620.37103;-50.00000;314.08411;,
 620.37103;-50.00000;214.08475;,
 -2.33530;7.67880;222.13220;,
 2.33530;56.79830;222.13220;,
 -95.33750;56.79830;197.27800;,
 -95.33750;7.67880;197.27800;,
 2.33530;7.67880;-535.19293;,
 -95.33750;7.67880;197.27800;,
 -95.33750;56.79830;197.27800;,
 2.33530;56.79830;-535.19293;,
 2.33530;7.67880;-535.19293;,
 2.33530;56.79830;-535.19293;,
 -227.95560;56.79830;146.76250;,
 -227.95560;7.67880;146.76250;,
 -412.30234;56.79830;78.74625;,
 -412.30234;7.67880;78.74625;,
 -95.33750;56.79830;197.27800;,
 2.33530;56.79830;222.13220;,
 2.33530;56.79830;-535.19293;,
 -95.33750;56.79830;197.27800;,
 -95.33750;7.67880;197.27800;,
 2.33530;7.67880;-535.19293;,
 -2.33530;7.67880;222.13220;,
 -95.33750;7.67880;197.27800;,
 95.33750;7.67880;197.27800;,
 95.33750;56.79830;197.27800;,
 95.33750;56.79830;197.27800;,
 95.33750;7.67880;197.27800;,
 227.95560;56.79830;146.76250;,
 227.95560;7.67880;146.76250;,
 412.30234;56.79830;78.74625;,
 412.30234;7.67880;78.74625;,
 95.33750;56.79830;197.27800;,
 95.33750;56.79830;197.27800;,
 95.33750;7.67880;197.27800;,
 95.33750;7.67880;197.27800;,
 847.92468;50.00000;238.65790;,
 847.92468;50.00000;138.65884;,
 847.92468;-50.00000;238.65790;,
 847.92468;-50.00000;138.65884;,
 655.48285;59.90285;-126.87105;,
 830.44885;57.53245;-162.36200;,
 830.44885;-44.06635;-162.36200;,
 655.48285;-41.69595;-126.87105;,
 830.44885;57.53245;-162.36200;,
 830.44885;57.53245;-62.36200;,
 830.44885;-44.06635;-62.36200;,
 830.44885;-44.06635;-162.36200;,
 830.44885;57.53245;-62.36200;,
 641.46216;59.90285;3.94520;,
 641.46216;-41.69595;3.94520;,
 830.44885;-44.06635;-62.36200;,
 641.46216;59.90285;3.94520;,
 830.44885;57.53245;-162.36200;,
 655.48285;59.90285;-126.87105;,
 655.48285;-41.69595;-126.87105;,
 830.44885;-44.06635;-162.36200;,
 641.46216;-41.69595;3.94520;,
 238.83405;59.90285;-777.50446;,
 185.87695;59.90285;-677.50446;,
 655.48285;59.90285;-126.87105;,
 238.83405;-41.69595;-777.50446;,
 655.48285;-41.69595;-126.87105;,
 185.87695;-41.69595;-677.50446;,
 117.52790;59.90285;-893.34607;,
 64.57080;59.90285;-793.34607;,
 117.52790;-41.69595;-893.34607;,
 64.57080;-41.69595;-793.34607;,
 0.53535;59.90285;-922.91199;,
 -1.29045;59.90285;-822.91199;,
 0.53535;-41.69595;-922.91199;,
 -1.29045;-41.69595;-822.91199;,
 -265.19534;50.00000;515.21997;,
 -246.06860;50.00000;569.17993;,
 -246.06860;-50.00000;506.53519;,
 -265.19534;50.00000;515.21997;,
 -246.06860;50.00000;569.17993;,
 -246.06860;-50.00000;569.17993;,
 -246.06860;-50.00000;569.17993;,
 -246.06860;-50.00000;506.53519;,
 -361.88489;50.00000;501.41791;,
 -265.19534;50.00000;515.21997;,
 -318.04581;50.00000;322.89996;,
 -361.88489;-50.00000;501.41791;,
 -313.93494;-50.00000;322.89996;,
 -246.06860;-50.00000;506.53519;,
 -493.78864;50.00000;356.74219;,
 -493.78864;50.00000;256.74265;,
 -493.78864;-50.00000;356.74219;,
 -493.78864;-50.00000;256.74265;,
 -620.37103;50.00000;314.08411;,
 -620.37103;50.00000;214.08475;,
 -620.37103;-50.00000;314.08411;,
 -620.37103;-50.00000;214.08475;,
 -847.92468;50.00000;238.65790;,
 -847.92468;50.00000;138.65884;,
 -847.92468;-50.00000;238.65790;,
 -847.92468;-50.00000;138.65884;,
 -655.48285;59.90285;-126.87105;,
 -655.48285;-41.69595;-126.87105;,
 -830.44885;-44.06635;-162.36200;,
 -830.44885;57.53245;-162.36200;,
 -830.44885;57.53245;-162.36200;,
 -830.44885;-44.06635;-162.36200;,
 -830.44885;-44.06635;-62.36200;,
 -830.44885;57.53245;-62.36200;,
 -830.44885;57.53245;-62.36200;,
 -830.44885;-44.06635;-62.36200;,
 -641.46216;-41.69595;3.94520;,
 -641.46216;59.90285;3.94520;,
 -641.46216;59.90285;3.94520;,
 -655.48285;59.90285;-126.87105;,
 -830.44885;57.53245;-162.36200;,
 -655.48285;-41.69595;-126.87105;,
 -641.46216;-41.69595;3.94520;,
 -830.44885;-44.06635;-162.36200;,
 -238.83405;59.90285;-777.50446;,
 -655.48285;59.90285;-126.87105;,
 -185.87695;59.90285;-677.50446;,
 -238.83405;-41.69595;-777.50446;,
 -655.48285;-41.69595;-126.87105;,
 -185.87695;-41.69595;-677.50446;,
 -117.52790;59.90285;-893.34607;,
 -64.57080;59.90285;-793.34607;,
 -117.52790;-41.69595;-893.34607;,
 -64.57080;-41.69595;-793.34607;;
 
 360;
 4;0,1,2,3;,
 4;4,5,1,0;,
 4;6,5,7,8;,
 4;9,10,1,11;,
 4;8,9,11,6;,
 4;8,7,12,13;,
 4;13,12,14,15;,
 4;13,15,9,8;,
 4;15,14,16,17;,
 4;18,19,10,9;,
 4;17,16,19,18;,
 4;17,18,9,15;,
 4;20,21,3,2;,
 4;20,22,23,21;,
 4;20,24,25,22;,
 4;20,2,1,24;,
 4;21,23,26,27;,
 4;24,10,28,25;,
 4;27,26,29,30;,
 4;10,19,31,28;,
 4;30,29,32,5;,
 4;19,16,33,31;,
 4;5,32,34,7;,
 4;16,14,35,33;,
 4;7,34,36,12;,
 4;14,12,36,35;,
 3;10,24,1;,
 3;5,4,30;,
 4;37,3,21,38;,
 4;39,0,3,37;,
 4;38,21,27,40;,
 4;38,40,39,37;,
 4;41,4,0,39;,
 4;42,30,4,41;,
 4;40,27,30,42;,
 4;40,42,41,39;,
 4;43,5,6,44;,
 4;45,1,5,43;,
 4;46,11,1,45;,
 4;47,43,44,48;,
 4;49,45,43,47;,
 4;50,46,45,49;,
 4;51,6,11,52;,
 4;53,48,44,51;,
 4;53,51,52,54;,
 4;55,52,11,56;,
 4;57,11,46,58;,
 4;56,57,58,55;,
 4;59,54,52,55;,
 4;58,46,50,60;,
 4;55,58,60,59;,
 4;61,49,47,62;,
 4;63,61,64,65;,
 4;66,67,68,69;,
 4;66,69,70,71;,
 4;72,73,74,75;,
 4;76,77,78,79;,
 4;80,76,79,81;,
 4;73,82,83,74;,
 4;84,85,77,76;,
 4;86,87,85,84;,
 4;88,84,76,80;,
 4;86,84,88,89;,
 4;90,91,87,86;,
 4;92,93,73,72;,
 4;94,90,86,89;,
 4;93,95,82,73;,
 4;96,97,91,90;,
 4;97,96,98,99;,
 4;100,96,90,94;,
 4;96,100,101,98;,
 4;102,103,99,98;,
 4;104,105,93,92;,
 4;103,102,105,104;,
 4;106,102,98,101;,
 4;105,107,95,93;,
 4;102,106,107,105;,
 4;108,109,72,75;,
 4;110,108,75,78;,
 4;111,110,78,77;,
 4;111,109,108,110;,
 4;112,113,85,87;,
 4;113,111,77,85;,
 4;113,112,109,111;,
 4;109,114,92,72;,
 4;115,112,87,91;,
 4;115,114,109,112;,
 4;116,117,97,99;,
 4;117,115,91,97;,
 4;117,116,114,115;,
 4;118,119,103,104;,
 4;114,118,104,92;,
 4;119,116,99,103;,
 4;119,118,114,116;,
 4;82,80,81,83;,
 4;89,88,80,82;,
 4;95,94,89,82;,
 4;101,100,94,95;,
 4;107,106,101,95;,
 4;120,121,122,123;,
 4;124,125,121,120;,
 4;126,127,125,124;,
 4;128,129,130,131;,
 4;131,130,127,126;,
 4;123,122,132,133;,
 4;134,135,129,128;,
 4;136,137,138,139;,
 4;139,138,135,134;,
 4;140,141,142,143;,
 4;133,132,141,140;,
 4;143,142,137,136;,
 4;144,145,146,147;,
 4;148,144,147,149;,
 4;150,151,152,149;,
 4;153,154,147,155;,
 4;151,156,157,152;,
 4;156,158,159,157;,
 4;158,160,161,159;,
 4;162,153,155,163;,
 4;160,162,163,161;,
 4;164,146,145,165;,
 4;164,165,124,120;,
 4;164,120,123,166;,
 4;164,166,147,146;,
 4;165,167,126,124;,
 4;166,123,133,155;,
 4;167,168,131,126;,
 4;155,133,140,163;,
 4;168,149,128,131;,
 4;163,140,143,161;,
 4;149,152,134,128;,
 4;161,143,136,159;,
 4;152,157,139,134;,
 4;159,136,139,157;,
 3;155,147,166;,
 3;149,168,148;,
 4;169,170,165,145;,
 4;171,169,145,144;,
 4;170,172,167,165;,
 4;170,169,171,172;,
 4;173,171,144,148;,
 4;174,173,148,168;,
 4;172,174,168,167;,
 4;172,171,173,174;,
 4;175,176,150,149;,
 4;177,175,149,147;,
 4;178,177,147,154;,
 4;179,180,176,175;,
 4;181,179,175,177;,
 4;182,181,177,178;,
 4;183,184,154,150;,
 4;185,183,150,176;,
 4;186,185,176,180;,
 4;186,187,188,185;,
 4;189,190,178,154;,
 4;191,189,154,184;,
 4;191,192,190,189;,
 4;193,192,188,187;,
 4;190,194,182,178;,
 4;192,193,194,190;,
 4;49,47,179,181;,
 4;181,179,47,49;,
 4;61,195,179,181;,
 4;196,197,198,61;,
 4;199,200,62,201;,
 4;202,199,201,64;,
 4;202,61,200,199;,
 4;199,202,198,203;,
 4;204,199,203,195;,
 4;202,199,204,61;,
 3;61,62,200;,
 3;61,204,195;,
 4;205,63,61,202;,
 4;65,205,202,64;,
 4;63,65,64,61;,
 3;63,205,65;,
 4;197,196,61,198;,
 4;205,197,198,202;,
 4;196,205,202,61;,
 3;196,197,205;,
 4;206,61,63,207;,
 4;206,207,60,50;,
 3;206,49,61;,
 3;206,50,49;,
 4;207,63,65,208;,
 4;207,208,59,60;,
 4;208,65,64,209;,
 4;208,209,54,59;,
 4;209,64,201,210;,
 4;209,210,53,54;,
 4;210,201,62,211;,
 4;210,211,48,53;,
 3;211,47,48;,
 3;211,62,47;,
 4;212,182,194,213;,
 4;212,213,196,61;,
 4;212,61,181,214;,
 4;212,214,49,182;,
 4;213,194,193,215;,
 4;213,215,197,196;,
 3;214,182,49;,
 3;214,181,182;,
 4;215,193,187,216;,
 4;215,216,198,197;,
 4;216,187,186,217;,
 4;216,217,203,198;,
 4;217,186,180,218;,
 4;217,218,195,203;,
 4;218,180,47,219;,
 4;218,219,179,195;,
 3;219,180,179;,
 3;219,47,180;,
 4;220,221,151,150;,
 4;222,220,150,154;,
 4;223,222,154,153;,
 4;221,223,153,151;,
 4;221,220,222,223;,
 4;224,225,185,188;,
 4;226,227,184,183;,
 4;225,226,183,185;,
 4;225,224,227,226;,
 4;228,229,192,191;,
 4;227,228,191,184;,
 4;229,224,188,192;,
 4;229,228,227,224;,
 4;221,230,156,151;,
 4;223,221,151,153;,
 4;230,231,158,156;,
 4;230,221,223,231;,
 4;231,232,160,158;,
 4;233,223,153,162;,
 4;232,233,162,160;,
 4;232,231,223,233;,
 4;6,234,235,11;,
 4;236,237,234,6;,
 4;238,234,239,240;,
 4;241,235,234,238;,
 4;242,243,235,241;,
 4;240,239,243,242;,
 4;240,242,241,238;,
 4;244,245,236,246;,
 4;247,6,11,248;,
 4;246,236,6,247;,
 4;246,247,248,244;,
 4;249,250,251,252;,
 4;248,11,250,249;,
 4;252,251,245,244;,
 4;252,244,248,249;,
 4;240,239,253,254;,
 4;242,243,239,240;,
 4;254,253,255,256;,
 4;254,256,242,240;,
 4;256,255,257,258;,
 4;259,260,243,242;,
 4;258,257,260,259;,
 4;258,259,242,256;,
 3;6,51,44;,
 3;11,57,56;,
 4;261,262,263,264;,
 4;265,266,267,268;,
 4;269,270,271,272;,
 4;273,274,275,276;,
 4;277,278,279,263;,
 4;280,277,263,275;,
 4;281,280,275,282;,
 4;278,281,282,279;,
 4;283,284,278,277;,
 4;285,283,277,280;,
 4;286,285,280,281;,
 4;284,286,281,278;,
 4;287,288,284,283;,
 4;289,287,283,285;,
 4;290,289,285,286;,
 4;288,290,286,284;,
 4;291,292,293,294;,
 4;295,296,297,298;,
 4;299,300,293,294;,
 4;301,302,296,297;,
 4;303,304,302,301;,
 4;303,300,299,304;,
 3;300,303,301;,
 3;299,302,304;,
 3;305,306,307;,
 3;308,300,301;,
 3;309,310,311;,
 3;312,302,299;,
 4;291,313,314,292;,
 4;295,298,315,316;,
 4;299,313,314,300;,
 4;317,315,316,318;,
 4;319,317,318,320;,
 4;319,320,299,300;,
 3;300,317,319;,
 3;299,320,318;,
 3;321,307,306;,
 3;322,317,300;,
 3;323,311,310;,
 3;324,299,318;,
 4;325,326,288,287;,
 4;327,325,287,289;,
 4;328,327,289,290;,
 4;326,328,290,288;,
 4;326,325,327,328;,
 4;329,330,331,332;,
 4;333,334,335,336;,
 4;337,338,339,340;,
 4;341,334,342,343;,
 4;344,345,335,346;,
 4;347,348,341,349;,
 4;350,347,349,351;,
 4;352,350,351,346;,
 4;348,352,346,341;,
 4;353,354,348,347;,
 4;355,353,347,350;,
 4;356,355,350,352;,
 4;354,356,352,348;,
 4;357,358,354,353;,
 4;359,357,353,355;,
 4;360,359,355,356;,
 4;358,360,356,354;,
 4;358,357,359,360;,
 4;261,361,362,262;,
 4;265,268,363,364;,
 4;269,365,366,270;,
 4;273,276,367,368;,
 4;369,362,370,371;,
 4;372,367,362,369;,
 4;373,374,367,372;,
 4;371,370,374,373;,
 4;375,369,371,376;,
 4;377,372,369,375;,
 4;378,373,372,377;,
 4;376,371,373,378;,
 4;379,375,376,380;,
 4;381,377,375,379;,
 4;382,378,377,381;,
 4;380,376,378,382;,
 4;383,379,380,384;,
 4;385,381,379,383;,
 4;386,382,381,385;,
 4;384,380,382,386;,
 4;384,386,385,383;,
 4;387,388,389,390;,
 4;391,392,393,394;,
 4;395,396,397,398;,
 4;399,400,401,394;,
 4;402,403,393,404;,
 4;405,406,399,407;,
 4;408,409,406,405;,
 4;410,403,409,408;,
 4;407,399,403,410;,
 4;411,405,407,412;,
 4;413,408,405,411;,
 4;414,410,408,413;,
 4;412,407,410,414;,
 4;357,411,412,358;,
 4;359,413,411,357;,
 4;360,414,413,359;,
 4;358,412,414,360;,
 4;358,360,359,357;;
 
 MeshMaterialList {
  2;
  360;
  0,
  0,
  0,
  0,
  0,
  0,
  0,
  0,
  0,
  0,
  0,
  0,
  0,
  0,
  0,
  0,
  0,
  0,
  0,
  0,
  0,
  0,
  0,
  0,
  0,
  0,
  0,
  0,
  0,
  0,
  0,
  0,
  0,
  0,
  0,
  0,
  0,
  0,
  0,
  0,
  0,
  0,
  0,
  0,
  0,
  0,
  0,
  0,
  0,
  0,
  0,
  0,
  0,
  0,
  0,
  0,
  0,
  0,
  0,
  0,
  0,
  0,
  0,
  0,
  0,
  0,
  0,
  0,
  0,
  0,
  0,
  0,
  0,
  0,
  0,
  0,
  0,
  0,
  0,
  0,
  0,
  0,
  0,
  0,
  0,
  0,
  0,
  0,
  0,
  0,
  0,
  0,
  0,
  0,
  0,
  0,
  0,
  0,
  0,
  0,
  0,
  0,
  0,
  0,
  0,
  0,
  0,
  0,
  0,
  0,
  0,
  0,
  0,
  0,
  0,
  0,
  0,
  0,
  0,
  0,
  0,
  0,
  0,
  0,
  0,
  0,
  0,
  0,
  0,
  0,
  0,
  0,
  0,
  0,
  0,
  0,
  0,
  0,
  0,
  0,
  0,
  0,
  0,
  0,
  0,
  0,
  0,
  0,
  0,
  0,
  0,
  0,
  0,
  0,
  0,
  0,
  0,
  0,
  0,
  0,
  0,
  0,
  0,
  0,
  0,
  0,
  0,
  0,
  0,
  0,
  0,
  0,
  0,
  0,
  0,
  0,
  0,
  0,
  0,
  0,
  0,
  0,
  0,
  0,
  0,
  0,
  0,
  0,
  0,
  0,
  0,
  0,
  0,
  0,
  0,
  0,
  0,
  0,
  0,
  0,
  0,
  0,
  0,
  0,
  0,
  0,
  0,
  0,
  0,
  0,
  0,
  0,
  0,
  0,
  0,
  0,
  0,
  0,
  0,
  0,
  0,
  0,
  0,
  0,
  0,
  0,
  0,
  0,
  0,
  0,
  0,
  0,
  0,
  0,
  0,
  0,
  0,
  0,
  0,
  0,
  0,
  0,
  0,
  0,
  0,
  0,
  0,
  0,
  0,
  0,
  0,
  0,
  0,
  0,
  0,
  0,
  0,
  0,
  1,
  1,
  1,
  1,
  1,
  1,
  1,
  1,
  1,
  1,
  1,
  1,
  1,
  1,
  1,
  1,
  1,
  1,
  1,
  1,
  1,
  1,
  1,
  1,
  1,
  1,
  1,
  1,
  1,
  1,
  1,
  1,
  1,
  1,
  1,
  1,
  1,
  1,
  1,
  1,
  1,
  1,
  1,
  1,
  1,
  1,
  1,
  1,
  1,
  1,
  1,
  1,
  1,
  1,
  1,
  1,
  1,
  1,
  1,
  1,
  1,
  1,
  1,
  1,
  1,
  1,
  1,
  1,
  1,
  1,
  1,
  1,
  1,
  1,
  1,
  1,
  1,
  1,
  1,
  1,
  1,
  1,
  1,
  1,
  1,
  1,
  1,
  1,
  1,
  1,
  1,
  1,
  1,
  1,
  1,
  1,
  1,
  1,
  1,
  1,
  1,
  1;;
  Material {
   0.530400;0.530400;0.530400;1.000000;;
   5.000000;
   0.000000;0.000000;0.000000;;
   0.000000;0.000000;0.000000;;
  }
  Material {
   0.360800;0.483200;0.341600;1.000000;;
   5.000000;
   0.000000;0.000000;0.000000;;
   0.000000;0.000000;0.000000;;
  }
 }
 MeshNormals {
  453;
  0.000000;1.000000;0.000000;,
  0.345215;-0.089928;-0.934205;,
  -0.339940;0.175622;0.923904;,
  0.348073;-0.000081;-0.937467;,
  -0.000005;-1.000000;0.000016;,
  -0.002302;0.999994;-0.002426;,
  -0.021226;-0.999660;-0.015136;,
  0.000425;1.000000;-0.000487;,
  -0.000005;-1.000000;0.000008;,
  -0.333321;-0.164051;0.928431;,
  -0.000009;-1.000000;0.000013;,
  0.319661;0.322003;-0.891140;,
  0.001375;0.999999;0.000326;,
  -0.851709;0.442361;-0.280909;,
  -0.868548;0.495605;0.000620;,
  -0.965634;0.259841;0.005769;,
  -0.953748;0.014838;-0.300241;,
  0.000767;0.999999;-0.001016;,
  -0.000016;-1.000000;0.000007;,
  -0.312656;-0.164766;0.935467;,
  -0.000017;-1.000000;0.000013;,
  0.298217;0.320406;-0.899115;,
  -0.300049;-0.325138;0.896803;,
  -0.000767;0.999999;-0.000809;,
  -0.341808;0.168747;0.924495;,
  0.000500;1.000000;-0.000777;,
  0.308959;0.321225;-0.895186;,
  -0.999919;0.007179;0.010543;,
  -0.309975;-0.324472;0.893663;,
  -0.000010;-1.000000;0.000008;,
  -0.323008;-0.164418;0.932004;,
  -0.000013;-1.000000;0.000013;,
  0.942890;-0.104927;0.316146;,
  -0.925171;0.235280;-0.297829;,
  0.263443;0.947980;0.178696;,
  0.000411;-0.999979;-0.006508;,
  0.374011;0.872487;0.314454;,
  -0.001677;-0.999997;-0.001657;,
  -0.830606;-0.264980;0.489775;,
  -0.750865;-0.007155;0.660417;,
  -0.739612;-0.267181;-0.617728;,
  -0.003448;-0.999989;-0.003135;,
  0.871950;0.489566;-0.005278;,
  0.606315;0.774677;0.179603;,
  0.375182;0.871027;0.317096;,
  -0.825666;-0.495789;0.269200;,
  -0.825937;-0.553264;-0.108294;,
  -0.654733;-0.519664;-0.548884;,
  -0.800541;0.189578;-0.568502;,
  0.953074;-0.123526;0.276390;,
  -0.292461;-0.387607;-0.874201;,
  0.001751;-0.999981;-0.005985;,
  0.291801;-0.687113;-0.665378;,
  -0.156552;-0.613713;-0.773852;,
  -0.009735;0.999953;0.000000;,
  0.311936;-0.093665;-0.945475;,
  -0.308489;0.185829;0.932900;,
  0.001672;0.193554;0.981088;,
  -0.001694;-0.097299;-0.995254;,
  0.312897;0.000000;-0.949787;,
  0.000000;-1.000000;-0.000000;,
  0.000017;-1.000000;0.000030;,
  -0.001700;0.000000;-0.999999;,
  0.000109;1.000000;-0.000030;,
  0.000005;-1.000000;-0.000002;,
  0.523379;-0.149484;0.838886;,
  -0.510860;0.294560;-0.807624;,
  0.505670;-0.295609;0.810502;,
  -0.019470;0.999810;0.000000;,
  -0.355611;0.184327;0.916278;,
  0.358997;-0.093251;-0.928669;,
  -0.999568;-0.005122;0.028953;,
  0.009164;0.999958;0.000000;,
  -0.304112;-0.093916;-0.947996;,
  0.300714;0.186323;0.935337;,
  -0.305066;0.000000;-0.952331;,
  0.000023;-1.000000;0.000063;,
  -0.000110;1.000000;-0.000034;,
  0.000001;-1.000000;-0.000001;,
  -0.535433;-0.148224;0.831469;,
  0.804728;0.203414;-0.557705;,
  -0.517623;-0.293174;0.803813;,
  0.338554;0.180650;0.923443;,
  -0.342819;-0.091932;-0.934892;,
  0.000023;-1.000000;0.000079;,
  0.000008;-1.000000;0.000041;,
  -0.000311;1.000000;-0.000285;,
  -0.000001;-1.000000;0.000005;,
  0.713689;-0.122607;0.689649;,
  0.714578;0.000129;0.699555;,
  -0.001413;0.999999;0.000336;,
  0.851487;0.443135;-0.280359;,
  0.868548;0.495605;0.000620;,
  0.965634;0.259841;0.005769;,
  0.953884;0.013904;-0.299854;,
  0.000089;0.999999;0.001150;,
  -0.001180;-0.999982;-0.005804;,
  -0.000641;0.999999;-0.001214;,
  0.000003;-1.000000;-0.000048;,
  0.316188;-0.164403;0.934343;,
  -0.000018;-1.000000;-0.000098;,
  -0.302733;0.317677;-0.898574;,
  0.303398;-0.324428;0.895933;,
  0.000685;0.999999;-0.000751;,
  0.341808;0.168747;0.924495;,
  -0.345215;-0.089928;-0.934205;,
  -0.000492;1.000000;-0.000782;,
  -0.348073;-0.000081;-0.937467;,
  -0.298047;0.322412;-0.898454;,
  0.999919;0.007179;0.010543;,
  0.299059;-0.325665;0.896943;,
  0.000010;-1.000000;0.000008;,
  0.311734;-0.165045;0.935726;,
  0.000013;-1.000000;0.000013;,
  0.002055;0.999995;-0.002252;,
  0.018188;-0.999751;-0.012947;,
  0.925312;0.235257;-0.297408;,
  0.000856;0.999995;0.003126;,
  -0.000307;-0.999979;-0.006433;,
  0.000468;1.000000;0.000140;,
  0.165604;0.079550;0.982979;,
  0.165237;-0.007825;0.986223;,
  0.800651;-0.273334;-0.533147;,
  -0.000435;-0.999966;-0.008252;,
  -0.839492;0.489874;0.235112;,
  -0.788415;0.498313;0.360674;,
  0.164696;0.166830;0.972133;,
  0.004222;0.999962;0.007647;,
  0.000218;1.000000;-0.000059;,
  -0.999576;0.000213;0.029117;,
  0.001576;0.999999;0.000374;,
  -0.959850;-0.090079;0.265658;,
  0.001741;-0.999997;-0.001748;,
  0.737903;-0.267339;-0.619700;,
  0.003576;-0.999988;-0.003315;,
  -0.499533;0.756114;0.422798;,
  0.653129;-0.519955;-0.550518;,
  -0.813368;0.021032;-0.581369;,
  -0.932919;-0.155225;0.324910;,
  0.124084;-0.477920;-0.869595;,
  0.389012;0.009815;-0.921180;,
  -0.913866;-0.259664;-0.312129;,
  0.006448;-0.621260;-0.783578;,
  0.813880;0.019260;-0.580713;,
  0.800995;0.189576;-0.567863;,
  0.978541;0.085274;0.187579;,
  0.005344;-0.999942;-0.009350;,
  0.083424;-0.314789;-0.945488;,
  0.001768;-0.999956;-0.009220;,
  -0.001808;-0.999957;-0.009089;,
  0.998052;-0.039639;-0.048170;,
  0.245161;0.887246;0.390757;,
  0.245632;0.885402;0.394623;,
  0.000381;0.999967;0.008159;,
  -0.653870;-0.246600;-0.715292;,
  -0.711586;0.006566;-0.702568;,
  -0.001245;-0.999998;-0.001751;,
  -0.256957;0.884276;0.389910;,
  -0.258049;0.881301;0.395878;,
  0.000535;1.000000;-0.000162;,
  -0.002881;0.999916;0.012604;,
  0.540485;-0.280130;-0.793349;,
  0.560047;0.008246;-0.828420;,
  0.001391;-0.999996;-0.002458;,
  -0.000104;-1.000000;-0.000288;,
  -0.323148;0.009725;-0.946298;,
  0.000033;-1.000000;0.000001;,
  0.342318;0.021627;0.939335;,
  0.344187;-0.005364;0.938886;,
  -0.342317;-0.024692;-0.939260;,
  -0.344187;0.005356;-0.938886;,
  0.015213;0.999838;0.009574;,
  -0.000515;0.999999;-0.001411;,
  -0.000010;-1.000000;-0.000104;,
  0.319715;-0.164038;0.933206;,
  -0.000052;-1.000000;-0.000209;,
  -0.307240;0.314939;-0.898007;,
  0.306743;-0.323713;0.895052;,
  0.000000;0.000000;0.000000;,
  0.000515;0.999999;-0.001411;,
  0.000010;-1.000000;-0.000104;,
  -0.319715;-0.164038;0.933206;,
  0.000052;-1.000000;-0.000209;,
  0.307240;0.314939;-0.898007;,
  -0.306743;-0.323713;0.895052;,
  0.001303;-0.999930;-0.011732;,
  -0.000391;0.999997;0.002430;,
  0.002221;-0.999951;-0.009660;,
  0.339059;-0.010298;-0.940709;,
  0.002965;-0.999919;-0.012390;,
  -0.015048;0.999841;0.009592;,
  0.323148;0.009725;-0.946298;,
  -0.000033;-1.000000;0.000001;,
  -0.324549;-0.013950;0.945766;,
  -0.325035;-0.005722;0.945685;,
  0.344187;0.005356;-0.938886;,
  -0.000048;-0.999989;-0.004679;,
  -0.000158;0.999999;0.001344;,
  -0.991929;0.000641;-0.126797;,
  -0.988887;0.022988;-0.146881;,
  -0.652238;-0.051410;0.756269;,
  -0.802688;-0.004670;0.596381;,
  -0.316704;0.000116;0.948524;,
  -0.327238;0.000117;0.944942;,
  -0.982213;0.000467;-0.187771;,
  -0.981718;0.034021;-0.187277;,
  0.002357;0.999997;0.000502;,
  0.001866;0.999998;0.000414;,
  -0.980117;0.067535;-0.186572;,
  -0.001151;0.999999;-0.001213;,
  -0.343660;0.161863;0.925040;,
  0.339563;-0.179047;-0.923384;,
  0.000366;1.000000;-0.000658;,
  -0.008445;-0.999925;-0.008915;,
  -0.000008;-1.000000;0.000029;,
  -0.319867;-0.323769;0.890426;,
  -0.337731;0.000118;0.941243;,
  -0.005358;-0.999939;-0.009654;,
  -0.764708;0.352676;-0.539297;,
  0.931482;-0.203640;0.301450;,
  0.767029;-0.366247;0.526811;,
  0.807909;-0.189011;0.558174;,
  0.983825;-0.012312;0.178709;,
  0.998806;-0.019798;0.044655;,
  -0.004238;-0.999986;-0.003214;,
  0.821266;-0.005336;0.570521;,
  0.944828;-0.006715;0.327498;,
  0.974447;-0.009665;0.224410;,
  0.953748;-0.014838;0.300241;,
  0.999919;-0.007179;-0.010543;,
  -0.001029;0.999995;0.002940;,
  -0.000600;1.000000;-0.000048;,
  -0.001125;-0.999974;-0.007096;,
  -0.768509;0.005875;-0.639812;,
  -0.832348;0.004968;-0.554231;,
  -0.800651;-0.273334;-0.533147;,
  -0.000867;0.999936;0.011322;,
  0.001347;0.999975;0.006896;,
  0.001861;0.999983;0.005579;,
  -0.186912;-0.671710;-0.716847;,
  0.308233;-0.186506;-0.932849;,
  -0.001672;-0.193547;-0.981089;,
  -0.300470;-0.187002;-0.935279;,
  0.000025;-1.000000;0.000064;,
  0.000043;-1.000000;0.000129;,
  0.529326;0.000000;0.848418;,
  -0.541413;0.000000;0.840757;,
  0.000788;1.000000;0.000187;,
  0.523041;0.292047;-0.800710;,
  0.880153;0.099511;-0.464143;,
  -0.000773;1.000000;0.000185;,
  0.355111;-0.185690;-0.916196;,
  -0.999999;-0.000137;0.001084;,
  -0.982933;0.000401;-0.183964;,
  -1.000000;-0.000005;0.000621;,
  0.359754;0.000000;-0.933047;,
  -0.999999;-0.000270;0.001547;,
  -0.960703;0.000606;-0.277577;,
  -0.921659;0.000856;-0.388000;,
  -0.941374;0.028870;-0.336126;,
  -0.957936;0.000158;0.286980;,
  -0.956653;-0.051973;0.286555;,
  0.952771;0.103883;-0.285369;,
  -0.999531;-0.010482;0.028788;,
  -0.952768;-0.103963;0.285350;,
  -0.969580;0.083804;-0.229983;,
  0.985693;0.000000;-0.168551;,
  1.000000;0.000000;0.000000;,
  0.967259;0.000000;-0.253792;,
  0.930624;0.000000;-0.365977;,
  0.999493;-0.005608;0.031345;,
  0.999503;0.000069;0.031510;,
  0.999450;-0.011310;0.031179;,
  -0.338124;-0.183045;-0.923129;,
  -0.344613;-0.000041;-0.938745;,
  0.000004;-1.000000;0.000007;,
  -0.701818;0.242484;-0.669815;,
  -0.950060;0.106756;-0.293241;,
  0.701979;-0.243480;0.669286;,
  0.000048;-0.999989;-0.004679;,
  0.000158;0.999999;0.001344;,
  0.320362;0.000100;0.947295;,
  0.315846;0.000107;0.948810;,
  -0.313508;0.209393;-0.926211;,
  -0.001559;0.999999;0.000323;,
  -0.001818;0.999998;0.000403;,
  0.001027;0.999999;-0.001126;,
  0.343660;0.161863;0.925040;,
  -0.339563;-0.179047;-0.923384;,
  -0.000355;1.000000;-0.000665;,
  0.007432;-0.999939;-0.008186;,
  0.004598;-0.999948;-0.009106;,
  0.764609;0.354331;-0.538351;,
  -0.947708;-0.186970;0.258634;,
  -0.808500;-0.185257;0.558577;,
  -0.766444;-0.368059;0.526400;,
  -0.998806;0.019798;-0.044655;,
  -0.992480;0.001925;0.122392;,
  0.006049;-0.999972;-0.004422;,
  -0.962815;0.006270;0.270090;,
  -0.821272;0.004254;0.570521;,
  -0.983655;-0.004339;0.180010;,
  -0.953884;-0.013904;0.299854;,
  -0.999919;-0.007179;-0.010543;,
  0.000230;1.000000;0.000074;,
  -0.019070;0.135122;0.990645;,
  -0.019376;-0.010018;0.999762;,
  -0.002429;-0.999935;-0.011148;,
  0.766754;0.005913;-0.641914;,
  0.832348;0.004968;-0.554231;,
  -0.018361;0.277404;0.960578;,
  0.007955;0.999915;0.010353;,
  -0.001274;0.999977;0.006684;,
  0.000696;0.999938;0.011131;,
  0.705782;-0.530070;-0.469997;,
  -0.662483;0.501956;0.556018;,
  -0.002641;0.999974;0.006656;,
  -0.003244;0.999992;0.002236;,
  -0.990157;-0.028517;0.137025;,
  0.001176;-0.999991;-0.004079;,
  0.125282;0.010866;-0.992062;,
  -0.451565;0.009204;-0.892191;,
  0.987662;0.059916;-0.144686;,
  0.986607;-0.043434;0.157224;,
  0.958175;0.158313;-0.238405;,
  0.365751;0.010155;-0.930657;,
  0.000182;-0.999975;-0.007087;,
  0.000111;-0.999988;-0.004814;,
  -0.994750;0.091554;-0.045708;,
  -0.979995;0.141995;-0.139456;,
  -0.961066;-0.081888;0.263906;,
  0.032156;-0.606977;-0.794069;,
  -0.008968;0.916424;0.400108;,
  -0.106377;0.963064;0.247369;,
  -0.291801;0.687113;0.665378;,
  -0.074784;0.872635;0.482612;,
  -0.003793;0.999848;0.017050;,
  0.232499;0.942842;0.238731;,
  0.091207;0.910443;0.403453;,
  0.622252;0.500435;0.601969;,
  -0.998016;0.040056;0.048569;,
  -0.551631;-0.483703;-0.679511;,
  -0.002593;-0.999991;-0.003215;,
  0.475501;-0.543637;-0.691634;,
  0.002886;-0.999985;-0.004628;,
  0.323126;0.015139;0.946235;,
  0.992374;0.000732;-0.123264;,
  0.997863;0.000813;-0.065340;,
  0.989397;0.022978;-0.143409;,
  -0.003975;-0.999933;-0.010864;,
  0.994807;0.031396;-0.096819;,
  0.994827;0.024073;-0.098694;,
  0.340198;0.048602;0.939097;,
  -0.340136;-0.054718;-0.938783;,
  0.994790;0.016747;-0.100564;,
  -0.319671;0.152034;-0.935252;,
  -0.323126;-0.015139;-0.946235;,
  0.324016;0.000084;0.946052;,
  0.983525;0.000648;-0.180772;,
  0.982690;0.034009;-0.182108;,
  -0.000760;1.000000;0.000144;,
  0.980760;0.067333;-0.183240;,
  0.000635;-0.999983;-0.005866;,
  -0.323126;0.015139;0.946235;,
  -0.992374;0.000732;-0.123264;,
  -0.989397;0.022978;-0.143409;,
  -0.997863;0.000813;-0.065340;,
  0.004627;-0.999904;-0.013047;,
  -0.994807;0.031396;-0.096819;,
  -0.994858;0.022644;-0.098714;,
  -0.324040;-0.022177;0.945783;,
  0.333837;-0.025950;-0.942273;,
  -0.994830;0.013890;-0.100600;,
  0.319671;0.152034;-0.935252;,
  0.323126;-0.015139;-0.946235;,
  -0.324016;0.000084;0.946052;,
  -0.983525;0.000648;-0.180772;,
  -0.982690;0.034009;-0.182108;,
  0.000760;1.000000;0.000144;,
  -0.980760;0.067333;-0.183240;,
  0.018359;0.277403;0.960578;,
  0.000000;1.000000;0.000000;,
  0.549734;0.000000;-0.835339;,
  0.332847;0.000000;0.942981;,
  -0.000125;0.000000;1.000000;,
  0.000000;-1.000000;-0.000000;,
  0.629151;0.000000;0.777283;,
  0.546597;0.000000;0.837396;,
  0.316993;0.000000;0.948428;,
  -0.304627;0.005870;0.952454;,
  0.000000;0.000000;1.000000;,
  -0.351060;0.000000;0.936353;,
  -0.980345;0.000000;-0.197292;,
  -0.346149;0.000000;0.938180;,
  0.304627;-0.005870;0.952454;,
  0.351060;0.000000;0.936353;,
  0.346149;0.000000;0.938180;,
  0.314632;0.000000;0.949214;,
  -0.198796;0.000000;-0.980041;,
  1.000000;0.000000;0.000000;,
  0.331070;0.000000;0.943606;,
  0.771877;0.000000;-0.635772;,
  0.483761;0.000000;-0.875200;,
  0.001078;0.000000;-0.999999;,
  -0.545975;-0.015296;-0.837662;,
  -0.332965;0.000000;0.942939;,
  -0.629151;0.000000;0.777283;,
  -0.546597;0.000000;0.837396;,
  -0.316993;0.000000;0.948428;,
  -0.314632;0.000000;0.949214;,
  0.198796;0.000000;-0.980041;,
  -1.000000;0.000000;0.000000;,
  -0.331070;0.000000;0.943606;,
  -0.771877;0.000000;-0.635772;,
  -0.482817;0.000000;-0.875721;,
  -0.706568;0.000000;-0.707646;,
  -0.937993;0.000000;-0.346655;,
  -0.332319;0.000000;-0.943167;,
  -0.316992;0.000000;-0.948428;,
  -0.991226;0.000000;-0.132177;,
  0.981499;0.000000;-0.191466;,
  0.991226;0.000000;0.132177;,
  -0.828705;0.000000;-0.559685;,
  0.992035;0.000000;-0.125959;,
  -0.992035;0.000000;0.125959;,
  0.831629;0.000000;-0.555332;,
  0.000000;1.000000;0.000000;,
  0.000000;-1.000000;-0.000000;,
  -0.314631;0.000000;-0.949214;,
  0.006645;0.999978;0.000349;,
  0.013289;0.999911;0.000698;,
  -0.006645;-0.999978;-0.000349;,
  -0.013289;-0.999911;-0.000698;,
  0.842128;0.000000;-0.539277;,
  -0.765568;0.000000;0.643355;,
  -0.831326;0.000000;0.555785;,
  -0.558150;0.000000;0.829740;,
  0.007567;0.000000;0.999971;,
  -0.999833;0.000000;-0.018255;,
  0.719658;0.071459;-0.690642;,
  0.944831;0.121352;-0.304250;,
  0.334098;0.003548;-0.942532;,
  0.316992;0.000000;-0.948428;,
  0.314631;0.000000;-0.949214;,
  -0.006645;0.999978;0.000349;,
  -0.013289;0.999911;0.000698;,
  0.006645;-0.999978;-0.000349;,
  0.013289;-0.999911;-0.000698;,
  -0.842128;0.000000;-0.539277;,
  0.765568;0.000000;0.643355;,
  0.831326;0.000000;0.555785;,
  0.564412;0.000000;0.825493;,
  0.999833;0.000000;0.018255;;
  360;
  4;33,15,14,13;,
  4;16,27,15,33;,
  4;187,196,29,18;,
  4;17,25,197,186;,
  4;198,199,200,201;,
  4;18,29,31,20;,
  4;202,203,30,19;,
  4;204,205,199,198;,
  4;19,30,28,22;,
  4;21,26,26,21;,
  4;206,207,207,206;,
  4;208,208,199,205;,
  4;0,23,209,0;,
  4;0,0,0,23;,
  4;24,24,2,2;,
  4;24,210,210,24;,
  4;211,211,1,1;,
  4;212,25,7,7;,
  4;1,1,3,3;,
  4;26,26,11,11;,
  4;213,214,4,196;,
  4;207,207,12,12;,
  4;196,4,8,29;,
  4;28,30,9,215;,
  4;29,8,10,31;,
  4;30,203,216,9;,
  3;25,212,197;,
  3;196,217,213;,
  4;5,209,23,5;,
  4;48,33,13,218;,
  4;219,220,221,32;,
  4;219,32,222,223;,
  4;137,16,33,48;,
  4;6,213,217,224;,
  4;32,221,225,226;,
  4;32,226,227,222;,
  4;217,196,187,35;,
  4;228,229,229,228;,
  4;34,186,197,230;,
  4;224,217,35,37;,
  4;222,228,228,227;,
  4;36,34,230,231;,
  4;39,201,200,38;,
  4;41,37,35,232;,
  4;233,234,235,40;,
  4;46,38,200,45;,
  4;42,42,42,43;,
  4;236,236,236,237;,
  4;47,40,235,46;,
  4;43,34,36,44;,
  4;237,43,44,238;,
  4;145,222,227,49;,
  4;52,239,50,53;,
  4;0,72,72,0;,
  4;0,0,54,54;,
  4;56,57,57,56;,
  4;58,55,240,241;,
  4;73,58,241,242;,
  4;57,74,74,57;,
  4;62,59,55,58;,
  4;61,60,60,243;,
  4;75,62,58,73;,
  4;61,243,244,76;,
  4;64,60,60,61;,
  4;63,0,0,63;,
  4;78,64,61,76;,
  4;0,77,77,0;,
  4;60,60,60,64;,
  4;245,245,65,65;,
  4;60,60,64,78;,
  4;246,246,79,79;,
  4;67,67,65,65;,
  4;66,66,66,66;,
  4;247,0,0,247;,
  4;81,81,79,79;,
  4;248,80,249,248;,
  4;0,250,250,0;,
  4;69,69,56,56;,
  4;68,68,54,54;,
  4;70,251,240,55;,
  4;252,253,254,254;,
  4;60,60,60,60;,
  4;255,70,55,59;,
  4;256,257,253,252;,
  4;128,128,63,63;,
  4;60,60,60,60;,
  4;258,259,253,257;,
  4;71,129,260,261;,
  4;60,60,60,60;,
  4;129,71,259,258;,
  4;130,130,247,247;,
  4;262,262,262,262;,
  4;263,71,261,264;,
  4;263,265,259,71;,
  4;266,267,267,267;,
  4;268,267,267,266;,
  4;249,269,268,266;,
  4;270,271,269,249;,
  4;80,272,270,249;,
  4;82,74,74,82;,
  4;72,72,72,72;,
  4;83,73,242,273;,
  4;85,76,244,84;,
  4;274,75,73,83;,
  4;86,77,77,86;,
  4;87,78,76,85;,
  4;88,270,271,89;,
  4;275,60,78,87;,
  4;90,250,250,90;,
  4;276,277,277,276;,
  4;278,272,270,88;,
  4;116,91,92,93;,
  4;94,116,93,109;,
  4;96,98,111,279;,
  4;97,95,280,106;,
  4;98,100,113,111;,
  4;281,99,112,282;,
  4;99,102,110,112;,
  4;101,283,108,108;,
  4;284,284,285,285;,
  4;0,0,286,103;,
  4;0,103,72,72;,
  4;104,82,82,104;,
  4;104,104,287,287;,
  4;288,105,83,273;,
  4;289,86,86,106;,
  4;105,107,274,83;,
  4;108,276,276,108;,
  4;290,279,85,84;,
  4;285,90,90,285;,
  4;279,111,87,85;,
  4;110,278,88,112;,
  4;111,113,275,87;,
  4;112,88,89,282;,
  3;106,280,289;,
  3;279,290,291;,
  4;114,114,103,286;,
  4;144,292,91,116;,
  4;293,131,294,295;,
  4;293,296,297,131;,
  4;143,144,116,94;,
  4;115,298,291,290;,
  4;131,299,300,294;,
  4;131,297,301,299;,
  4;291,118,96,279;,
  4;302,302,303,303;,
  4;117,117,280,95;,
  4;298,132,118,291;,
  4;297,301,302,302;,
  4;119,304,117,117;,
  4;121,120,305,306;,
  4;123,307,96,118;,
  4;134,123,118,132;,
  4;308,133,122,309;,
  4;124,125,125,124;,
  4;126,310,305,120;,
  4;311,127,312,313;,
  4;136,314,122,133;,
  4;125,135,315,125;,
  4;127,316,317,312;,
  4;178,178,178,178;,
  4;178,178,178,178;,
  4;318,138,301,297;,
  4;141,142,139,239;,
  4;148,146,319,51;,
  4;147,320,321,50;,
  4;322,145,323,324;,
  4;320,147,325,140;,
  4;149,148,326,327;,
  4;328,329,330,318;,
  3;145,49,323;,
  3;318,330,138;,
  4;150,150,145,322;,
  4;53,331,147,50;,
  4;332,333,334,335;,
  3;332,336,333;,
  4;337,338,145,339;,
  4;331,142,139,147;,
  4;141,340,328,318;,
  3;338,337,336;,
  4;151,335,332,152;,
  4;151,152,44,36;,
  3;151,231,335;,
  3;151,36,231;,
  4;152,332,333,153;,
  4;152,153,238,44;,
  4;341,53,50,154;,
  4;341,154,40,47;,
  4;154,50,321,155;,
  4;154,155,233,40;,
  4;342,51,319,156;,
  4;342,156,37,41;,
  3;156,224,37;,
  3;156,319,224;,
  4;157,315,135,158;,
  4;157,158,338,335;,
  4;157,335,304,159;,
  4;157,159,231,119;,
  4;158,135,316,160;,
  4;158,160,337,338;,
  3;178,178,178;,
  3;178,178,178;,
  4;343,136,133,161;,
  4;343,161,139,142;,
  4;161,133,308,162;,
  4;161,162,140,139;,
  4;344,134,132,163;,
  4;344,163,327,326;,
  4;163,132,224,164;,
  4;163,164,298,327;,
  3;178,178,178;,
  3;178,178,178;,
  4;166,173,98,96;,
  4;165,165,165,165;,
  4;172,172,95,97;,
  4;345,345,345,345;,
  4;346,347,347,348;,
  4;169,170,170,169;,
  4;168,167,120,121;,
  4;349,349,307,123;,
  4;350,351,351,350;,
  4;171,171,127,311;,
  4;167,352,126,120;,
  4;353,169,169,353;,
  4;354,354,351,351;,
  4;173,175,100,98;,
  4;355,356,356,283;,
  4;357,174,99,281;,
  4;358,346,348,359;,
  4;174,177,102,99;,
  4;176,355,283,101;,
  4;360,360,284,284;,
  4;361,359,348,361;,
  4;178,178,178,178;,
  4;189,185,362,187;,
  4;192,362,180,180;,
  4;191,191,191,191;,
  4;179,179,179,179;,
  4;363,363,363,363;,
  4;364,365,366,366;,
  4;188,188,195,195;,
  4;194,201,200,193;,
  4;367,189,187,367;,
  4;368,368,369,369;,
  4;190,190,190,190;,
  4;193,200,370,370;,
  4;371,371,188,188;,
  4;372,369,369,372;,
  4;180,180,182,182;,
  4;373,373,374,374;,
  4;375,375,181,181;,
  4;376,377,365,364;,
  4;181,181,184,184;,
  4;183,183,373,373;,
  4;378,378,378,378;,
  4;379,379,365,377;,
  3;187,232,35;,
  3;200,380,380;,
  4;381,381,381,381;,
  4;382,382,382,382;,
  4;384,384,383,383;,
  4;385,385,385,385;,
  4;381,381,381,381;,
  4;386,386,383,383;,
  4;385,385,385,385;,
  4;415,415,416,416;,
  4;381,381,381,381;,
  4;387,387,386,386;,
  4;385,385,385,385;,
  4;417,417,415,415;,
  4;381,381,381,381;,
  4;388,388,387,387;,
  4;385,385,385,385;,
  4;418,418,417,417;,
  4;390,390,389,389;,
  4;392,419,419,392;,
  4;420,420,421,421;,
  4;391,391,389,389;,
  4;393,393,391,391;,
  4;422,392,392,422;,
  3;381,381,381;,
  3;385,385,385;,
  3;381,381,381;,
  3;381,381,381;,
  3;385,385,385;,
  3;385,385,385;,
  4;390,394,394,390;,
  4;420,420,423,423;,
  4;392,424,424,392;,
  4;395,394,394,395;,
  4;396,395,395,396;,
  4;425,425,420,420;,
  3;381,381,426;,
  3;385,427,385;,
  3;381,381,381;,
  3;381,381,381;,
  3;385,385,385;,
  3;385,385,385;,
  4;381,381,381,381;,
  4;397,397,388,388;,
  4;385,385,385,385;,
  4;428,428,418,418;,
  4;399,399,399,399;,
  4;398,398,398,398;,
  4;399,399,399,399;,
  4;400,400,400,400;,
  4;429,430,430,429;,
  4;431,432,432,431;,
  4;381,381,429,429;,
  4;401,401,433,433;,
  4;385,385,431,431;,
  4;434,434,435,435;,
  4;381,381,381,381;,
  4;402,402,401,401;,
  4;385,385,385,385;,
  4;436,436,434,434;,
  4;381,381,381,381;,
  4;403,403,402,402;,
  4;385,385,385,385;,
  4;437,437,436,436;,
  4;438,438,438,438;,
  4;381,381,381,381;,
  4;404,404,404,404;,
  4;384,405,405,384;,
  4;385,385,385,385;,
  4;381,381,381,381;,
  4;406,405,405,406;,
  4;385,385,385,385;,
  4;439,440,440,439;,
  4;381,381,381,381;,
  4;407,406,406,407;,
  4;385,385,385,385;,
  4;441,439,439,441;,
  4;381,381,381,381;,
  4;408,407,407,408;,
  4;385,385,385,385;,
  4;442,441,441,442;,
  4;381,381,381,381;,
  4;409,408,408,409;,
  4;385,385,385,385;,
  4;443,442,442,443;,
  4;411,411,411,411;,
  4;410,410,410,410;,
  4;411,411,411,411;,
  4;412,412,412,412;,
  4;444,444,445,445;,
  4;446,446,447,447;,
  4;381,444,444,381;,
  4;413,448,448,413;,
  4;385,446,446,385;,
  4;449,450,450,449;,
  4;381,381,381,381;,
  4;414,413,413,414;,
  4;385,385,385,385;,
  4;451,449,449,451;,
  4;381,381,381,381;,
  4;403,414,414,403;,
  4;385,385,385,385;,
  4;437,451,451,437;,
  4;452,452,452,452;;
 }
 MeshTextureCoords {
  415;
  0.000000;0.000000;,
  0.000000;1.000000;,
  0.000000;1.000000;,
  0.000000;0.000000;,
  0.000000;0.000000;,
  0.000000;1.000000;,
  0.000000;1.000000;,
  0.000000;1.000000;,
  0.000000;1.000000;,
  0.000000;1.000000;,
  0.000000;1.000000;,
  0.000000;1.000000;,
  0.000000;1.000000;,
  0.000000;1.000000;,
  0.000000;1.000000;,
  0.000000;1.000000;,
  0.000000;1.000000;,
  0.000000;1.000000;,
  0.000000;1.000000;,
  0.000000;1.000000;,
  0.000000;1.000000;,
  0.000000;0.000000;,
  0.000000;1.000000;,
  0.000000;0.000000;,
  0.000000;1.000000;,
  0.000000;1.000000;,
  0.000000;0.000000;,
  0.000000;0.000000;,
  0.000000;1.000000;,
  0.000000;0.000000;,
  0.000000;0.000000;,
  0.000000;1.000000;,
  0.000000;1.000000;,
  0.000000;1.000000;,
  0.000000;1.000000;,
  0.000000;1.000000;,
  0.000000;1.000000;,
  0.000000;0.000000;,
  0.000000;0.000000;,
  0.000000;0.000000;,
  0.000000;0.000000;,
  0.000000;0.000000;,
  0.000000;0.000000;,
  0.000000;1.000000;,
  0.000000;1.000000;,
  0.000000;1.000000;,
  0.000000;1.000000;,
  0.000000;1.000000;,
  0.000000;1.000000;,
  0.000000;1.000000;,
  0.000000;1.000000;,
  0.000000;1.000000;,
  0.000000;1.000000;,
  0.000000;1.000000;,
  0.000000;1.000000;,
  0.000000;1.000000;,
  0.000000;1.000000;,
  0.000000;1.000000;,
  0.000000;1.000000;,
  0.000000;1.000000;,
  0.000000;1.000000;,
  0.000000;1.000000;,
  0.000000;1.000000;,
  0.000000;1.000000;,
  0.000000;1.000000;,
  0.000000;1.000000;,
  0.503310;0.000000;,
  1.000000;0.000000;,
  1.000000;1.000000;,
  0.503310;1.000000;,
  0.000000;1.000000;,
  0.000000;0.000000;,
  0.000000;1.000000;,
  0.503310;1.000000;,
  0.503310;1.000000;,
  0.000000;1.000000;,
  0.503310;0.000000;,
  0.000000;0.000000;,
  0.000000;0.000000;,
  0.503310;0.000000;,
  1.000000;0.000000;,
  1.000000;0.000000;,
  1.000000;1.000000;,
  1.000000;1.000000;,
  0.503310;0.000000;,
  0.000000;0.000000;,
  0.503310;1.000000;,
  0.000000;1.000000;,
  1.000000;0.000000;,
  1.000000;1.000000;,
  0.503310;1.000000;,
  0.000000;1.000000;,
  0.000000;1.000000;,
  0.503310;1.000000;,
  1.000000;1.000000;,
  1.000000;1.000000;,
  0.503310;1.000000;,
  0.000000;1.000000;,
  0.503310;1.000000;,
  0.000000;1.000000;,
  1.000000;1.000000;,
  1.000000;1.000000;,
  0.503310;1.000000;,
  0.000000;1.000000;,
  0.000000;1.000000;,
  0.503310;1.000000;,
  1.000000;1.000000;,
  1.000000;1.000000;,
  0.000000;1.000000;,
  0.000000;1.000000;,
  0.000000;0.000000;,
  0.000000;0.000000;,
  0.000000;1.000000;,
  0.000000;0.000000;,
  0.000000;1.000000;,
  0.000000;1.000000;,
  0.000000;1.000000;,
  0.000000;1.000000;,
  0.000000;1.000000;,
  0.000000;1.000000;,
  0.000000;1.000000;,
  0.000000;1.000000;,
  0.000000;1.000000;,
  0.000000;1.000000;,
  0.000000;0.000000;,
  0.000000;0.000000;,
  0.000000;0.000000;,
  0.000000;0.000000;,
  0.000000;1.000000;,
  0.000000;1.000000;,
  0.000000;0.000000;,
  0.000000;0.000000;,
  0.000000;1.000000;,
  0.000000;1.000000;,
  0.000000;1.000000;,
  0.000000;1.000000;,
  0.000000;1.000000;,
  0.000000;1.000000;,
  0.000000;1.000000;,
  0.000000;1.000000;,
  0.000000;1.000000;,
  0.000000;1.000000;,
  0.000000;1.000000;,
  0.000000;1.000000;,
  0.000000;0.000000;,
  0.000000;0.000000;,
  0.000000;1.000000;,
  0.000000;1.000000;,
  0.000000;0.000000;,
  0.000000;1.000000;,
  0.000000;1.000000;,
  0.000000;1.000000;,
  0.000000;1.000000;,
  0.000000;1.000000;,
  0.000000;1.000000;,
  0.000000;1.000000;,
  0.000000;1.000000;,
  0.000000;1.000000;,
  0.000000;1.000000;,
  0.000000;1.000000;,
  0.000000;1.000000;,
  0.000000;1.000000;,
  0.000000;1.000000;,
  0.000000;1.000000;,
  0.000000;1.000000;,
  0.000000;0.000000;,
  0.000000;1.000000;,
  0.000000;0.000000;,
  0.000000;0.000000;,
  0.000000;0.000000;,
  0.000000;0.000000;,
  0.000000;0.000000;,
  0.000000;0.000000;,
  0.000000;0.000000;,
  0.000000;0.000000;,
  0.000000;1.000000;,
  0.000000;1.000000;,
  0.000000;1.000000;,
  0.000000;1.000000;,
  0.000000;1.000000;,
  0.000000;1.000000;,
  0.000000;1.000000;,
  0.000000;1.000000;,
  0.000000;1.000000;,
  0.000000;1.000000;,
  0.000000;1.000000;,
  0.000000;1.000000;,
  0.000000;1.000000;,
  0.000000;1.000000;,
  0.000000;1.000000;,
  0.000000;1.000000;,
  0.000000;1.000000;,
  0.000000;1.000000;,
  0.000000;1.000000;,
  0.000000;1.000000;,
  0.000000;1.000000;,
  0.000000;1.000000;,
  0.000000;1.000000;,
  0.000000;1.000000;,
  0.000000;1.000000;,
  0.000000;1.000000;,
  0.000000;1.000000;,
  0.000000;1.000000;,
  0.000000;1.000000;,
  0.000000;1.000000;,
  0.000000;1.000000;,
  0.000000;1.000000;,
  0.000000;1.000000;,
  0.000000;1.000000;,
  0.000000;1.000000;,
  0.000000;1.000000;,
  0.000000;1.000000;,
  0.000000;1.000000;,
  0.000000;1.000000;,
  0.000000;1.000000;,
  0.000000;1.000000;,
  0.000000;1.000000;,
  0.000000;1.000000;,
  0.000000;1.000000;,
  0.000000;1.000000;,
  0.000000;1.000000;,
  0.000000;1.000000;,
  0.000000;1.000000;,
  0.000000;1.000000;,
  0.000000;1.000000;,
  0.000000;1.000000;,
  0.000000;1.000000;,
  0.000000;1.000000;,
  0.000000;1.000000;,
  0.000000;1.000000;,
  0.000000;1.000000;,
  0.000000;1.000000;,
  0.000000;1.000000;,
  0.000000;1.000000;,
  0.000000;1.000000;,
  0.000000;1.000000;,
  0.000000;1.000000;,
  0.000000;1.000000;,
  0.000000;1.000000;,
  0.000000;1.000000;,
  0.000000;1.000000;,
  0.000000;1.000000;,
  0.000000;1.000000;,
  0.000000;1.000000;,
  0.000000;1.000000;,
  0.000000;1.000000;,
  0.000000;1.000000;,
  0.000000;1.000000;,
  0.000000;1.000000;,
  0.000000;1.000000;,
  0.000000;1.000000;,
  0.000000;1.000000;,
  0.000000;1.000000;,
  0.000000;1.000000;,
  0.000000;1.000000;,
  0.000000;1.000000;,
  0.000000;1.000000;,
  0.000000;1.000000;,
  0.000000;1.000000;,
  0.000000;1.000000;,
  0.000000;1.000000;,
  0.498340;1.000000;,
  0.498340;0.000000;,
  1.000000;0.000000;,
  1.000000;1.000000;,
  0.498340;0.000000;,
  1.000000;0.000000;,
  1.000000;1.000000;,
  0.498340;1.000000;,
  0.501660;0.000000;,
  0.501660;1.000000;,
  0.000000;1.000000;,
  0.000000;0.000000;,
  0.498340;0.000000;,
  1.000000;0.000000;,
  1.000000;1.000000;,
  0.498340;1.000000;,
  1.000000;0.000000;,
  0.000000;0.000000;,
  0.000000;0.000000;,
  1.000000;1.000000;,
  0.000000;1.000000;,
  0.000000;1.000000;,
  1.000000;0.000000;,
  0.000000;0.000000;,
  1.000000;1.000000;,
  0.000000;1.000000;,
  1.000000;0.000000;,
  0.000000;0.000000;,
  1.000000;1.000000;,
  0.000000;1.000000;,
  0.512000;1.000000;,
  0.512000;0.000000;,
  1.000000;0.000000;,
  1.000000;1.000000;,
  0.488000;1.000000;,
  0.000000;1.000000;,
  0.000000;0.000000;,
  0.488000;0.000000;,
  1.000000;1.000000;,
  1.000000;0.000000;,
  0.000000;0.000000;,
  0.000000;1.000000;,
  0.000000;0.000000;,
  0.000000;1.000000;,
  0.000000;0.500000;,
  0.488000;0.000000;,
  0.488000;1.000000;,
  0.500000;0.000000;,
  0.000000;0.500000;,
  0.488000;0.000000;,
  0.488000;1.000000;,
  0.500000;1.000000;,
  1.000000;1.000000;,
  1.000000;0.000000;,
  0.000000;0.000000;,
  0.000000;1.000000;,
  0.000000;0.000000;,
  0.000000;1.000000;,
  0.000000;0.000000;,
  0.000000;1.000000;,
  0.000000;0.500000;,
  0.500000;0.000000;,
  0.000000;0.500000;,
  0.500000;1.000000;,
  1.000000;0.000000;,
  0.000000;0.000000;,
  1.000000;1.000000;,
  0.000000;1.000000;,
  0.000000;0.000000;,
  1.000000;0.000000;,
  1.000000;1.000000;,
  0.000000;1.000000;,
  0.000000;0.000000;,
  1.000000;0.000000;,
  1.000000;1.000000;,
  0.000000;1.000000;,
  0.000000;0.000000;,
  1.000000;0.000000;,
  1.000000;1.000000;,
  0.000000;1.000000;,
  0.000000;0.000000;,
  1.000000;1.000000;,
  0.000000;1.000000;,
  0.000000;0.000000;,
  1.000000;0.000000;,
  0.000000;1.000000;,
  1.000000;0.000000;,
  0.000000;0.000000;,
  1.000000;0.000000;,
  1.000000;1.000000;,
  1.000000;1.000000;,
  0.000000;1.000000;,
  1.000000;0.000000;,
  0.000000;0.000000;,
  1.000000;1.000000;,
  0.000000;1.000000;,
  1.000000;0.000000;,
  0.000000;0.000000;,
  1.000000;1.000000;,
  0.000000;1.000000;,
  1.000000;1.000000;,
  1.000000;0.000000;,
  1.000000;1.000000;,
  1.000000;0.000000;,
  0.000000;0.000000;,
  0.000000;1.000000;,
  1.000000;1.000000;,
  1.000000;0.000000;,
  1.000000;0.000000;,
  0.000000;0.000000;,
  0.000000;0.000000;,
  1.000000;1.000000;,
  0.000000;1.000000;,
  0.000000;1.000000;,
  1.000000;0.000000;,
  0.000000;0.000000;,
  1.000000;1.000000;,
  0.000000;1.000000;,
  1.000000;0.000000;,
  0.000000;0.000000;,
  1.000000;1.000000;,
  0.000000;1.000000;,
  1.000000;0.000000;,
  0.000000;0.000000;,
  1.000000;1.000000;,
  0.000000;1.000000;,
  0.000000;0.000000;,
  0.000000;1.000000;,
  1.000000;1.000000;,
  1.000000;0.000000;,
  0.000000;0.000000;,
  0.000000;1.000000;,
  1.000000;1.000000;,
  1.000000;0.000000;,
  0.000000;0.000000;,
  0.000000;1.000000;,
  1.000000;1.000000;,
  1.000000;0.000000;,
  0.000000;0.000000;,
  0.000000;1.000000;,
  1.000000;1.000000;,
  0.000000;0.000000;,
  0.000000;1.000000;,
  1.000000;0.000000;,
  1.000000;0.000000;,
  1.000000;0.000000;,
  0.000000;0.000000;,
  1.000000;1.000000;,
  1.000000;1.000000;,
  0.000000;1.000000;,
  1.000000;0.000000;,
  0.000000;0.000000;,
  1.000000;1.000000;,
  0.000000;1.000000;;
 }
}
