xof 0302txt 0064
template Header {
 <3D82AB43-62DA-11cf-AB39-0020AF71E433>
 WORD major;
 WORD minor;
 DWORD flags;
}

template Vector {
 <3D82AB5E-62DA-11cf-AB39-0020AF71E433>
 FLOAT x;
 FLOAT y;
 FLOAT z;
}

template Coords2d {
 <F6F23F44-7686-11cf-8F52-0040333594A3>
 FLOAT u;
 FLOAT v;
}

template Matrix4x4 {
 <F6F23F45-7686-11cf-8F52-0040333594A3>
 array FLOAT matrix[16];
}

template ColorRGBA {
 <35FF44E0-6C7C-11cf-8F52-0040333594A3>
 FLOAT red;
 FLOAT green;
 FLOAT blue;
 FLOAT alpha;
}

template ColorRGB {
 <D3E16E81-7835-11cf-8F52-0040333594A3>
 FLOAT red;
 FLOAT green;
 FLOAT blue;
}

template IndexedColor {
 <1630B820-7842-11cf-8F52-0040333594A3>
 DWORD index;
 ColorRGBA indexColor;
}

template Boolean {
 <4885AE61-78E8-11cf-8F52-0040333594A3>
 WORD truefalse;
}

template Boolean2d {
 <4885AE63-78E8-11cf-8F52-0040333594A3>
 Boolean u;
 Boolean v;
}

template MaterialWrap {
 <4885AE60-78E8-11cf-8F52-0040333594A3>
 Boolean u;
 Boolean v;
}

template TextureFilename {
 <A42790E1-7810-11cf-8F52-0040333594A3>
 STRING filename;
}

template Material {
 <3D82AB4D-62DA-11cf-AB39-0020AF71E433>
 ColorRGBA faceColor;
 FLOAT power;
 ColorRGB specularColor;
 ColorRGB emissiveColor;
 [...]
}

template MeshFace {
 <3D82AB5F-62DA-11cf-AB39-0020AF71E433>
 DWORD nFaceVertexIndices;
 array DWORD faceVertexIndices[nFaceVertexIndices];
}

template MeshFaceWraps {
 <4885AE62-78E8-11cf-8F52-0040333594A3>
 DWORD nFaceWrapValues;
 Boolean2d faceWrapValues;
}

template MeshTextureCoords {
 <F6F23F40-7686-11cf-8F52-0040333594A3>
 DWORD nTextureCoords;
 array Coords2d textureCoords[nTextureCoords];
}

template MeshMaterialList {
 <F6F23F42-7686-11cf-8F52-0040333594A3>
 DWORD nMaterials;
 DWORD nFaceIndexes;
 array DWORD faceIndexes[nFaceIndexes];
 [Material]
}

template MeshNormals {
 <F6F23F43-7686-11cf-8F52-0040333594A3>
 DWORD nNormals;
 array Vector normals[nNormals];
 DWORD nFaceNormals;
 array MeshFace faceNormals[nFaceNormals];
}

template MeshVertexColors {
 <1630B821-7842-11cf-8F52-0040333594A3>
 DWORD nVertexColors;
 array IndexedColor vertexColors[nVertexColors];
}

template Mesh {
 <3D82AB44-62DA-11cf-AB39-0020AF71E433>
 DWORD nVertices;
 array Vector vertices[nVertices];
 DWORD nFaces;
 array MeshFace faces[nFaces];
 [...]
}

Header{
1;
0;
1;
}

Mesh {
 164;
 -33.22045;67.87770;-42.58580;,
 33.22045;67.87770;-42.58580;,
 33.22045;-1.42510;-56.75880;,
 -33.22045;-1.42510;-56.75880;,
 33.22045;67.87770;-42.58580;,
 33.22045;67.87770;-35.36575;,
 33.22045;-1.42510;-49.53878;,
 33.22045;-1.42510;-56.75880;,
 33.22045;67.87770;-35.36575;,
 -33.22045;67.87770;-35.36575;,
 -33.22045;-1.42510;-49.53878;,
 33.22045;-1.42510;-49.53878;,
 -33.22045;67.87770;-35.36575;,
 -33.22045;67.87770;-42.58580;,
 -33.22045;-1.42510;-56.75880;,
 -33.22045;-1.42510;-49.53878;,
 33.22045;67.87770;-42.58580;,
 -33.22045;67.87770;-42.58580;,
 -33.22045;-1.42510;-56.75880;,
 33.22045;-1.42510;-56.75880;,
 -33.38652;69.88902;-35.67375;,
 33.38652;69.88902;-35.67375;,
 33.38652;-1.71320;-50.21685;,
 -33.38652;-1.71320;-50.21685;,
 33.38652;77.12267;28.48753;,
 -33.38652;77.12267;28.48753;,
 -33.38652;-1.71320;28.11743;,
 33.38652;-1.71320;28.11743;,
 -33.38652;77.12140;-20.22772;,
 -33.38652;80.21237;-2.13808;,
 33.38652;80.21237;-2.13808;,
 33.38652;77.12140;-20.22772;,
 33.38652;69.88902;-35.67375;,
 -33.38652;69.88902;-35.67375;,
 -33.38652;77.12140;-20.22772;,
 -33.38652;69.88902;-35.67375;,
 -33.38652;-1.71320;-50.21685;,
 -33.38652;-1.71320;-31.35883;,
 -33.38652;-1.71320;-9.27325;,
 -33.38652;80.21237;-2.13808;,
 33.38652;77.12140;-20.22772;,
 33.38652;80.21237;-2.13808;,
 33.38652;-1.71320;-9.27325;,
 33.38652;-1.71320;-31.35883;,
 33.38652;-1.71320;-50.21685;,
 33.38652;69.88902;-35.67375;,
 -33.38652;-1.71320;-31.35883;,
 -33.38652;-1.71320;-50.21685;,
 33.38652;-1.71320;-50.21685;,
 33.38652;-1.71320;-31.35883;,
 33.38652;-1.71320;-9.27325;,
 -33.38652;-1.71320;-9.27325;,
 -33.38652;79.02535;15.00978;,
 -33.38652;77.12267;28.48753;,
 33.38652;77.12267;28.48753;,
 33.38652;79.02535;15.00978;,
 -33.38652;79.02535;15.00978;,
 -33.38652;-1.71320;11.66250;,
 -33.38652;-1.71320;28.11743;,
 33.38652;79.02535;15.00978;,
 33.38652;-1.71320;28.11743;,
 33.38652;-1.71320;11.66250;,
 -33.38652;-1.71320;11.66250;,
 33.38652;-1.71320;11.66250;,
 33.13203;67.87770;-42.58580;,
 99.57292;67.87770;-42.58580;,
 99.57292;-1.42510;-56.75880;,
 33.13203;-1.42510;-56.75880;,
 99.57292;67.87770;-35.36575;,
 33.13203;67.87770;-35.36575;,
 33.13203;-1.42510;-49.53878;,
 99.57292;-1.42510;-49.53878;,
 33.13203;67.87770;-35.36575;,
 33.13203;67.87770;-42.58580;,
 33.13203;-1.42510;-56.75880;,
 33.13203;-1.42510;-49.53878;,
 99.57292;67.87770;-35.36575;,
 99.57292;67.87770;-42.58580;,
 33.13203;67.87770;-42.58580;,
 33.13203;-1.42510;-56.75880;,
 99.57292;-1.42510;-56.75880;,
 99.57292;-1.42510;-49.53878;,
 32.96595;77.12140;-20.22772;,
 32.96595;69.88902;-35.67375;,
 32.96595;-1.71320;-50.21685;,
 32.96595;-1.71320;-31.35883;,
 32.96595;-1.71320;-9.27325;,
 32.96595;80.21237;-2.13808;,
 99.73900;69.93995;-20.22772;,
 99.73900;69.79928;-2.13808;,
 99.73900;-1.71320;-9.27325;,
 99.73900;-1.71320;-31.35883;,
 99.73900;-1.71320;-50.21685;,
 99.73900;69.88902;-35.67375;,
 32.96595;79.02535;15.00978;,
 32.96595;-1.71320;11.66250;,
 32.96595;-1.71320;28.11743;,
 32.96595;77.12267;28.48753;,
 99.73900;69.68948;15.00978;,
 99.73900;69.58215;28.48753;,
 99.73900;-1.71320;28.11743;,
 99.73900;-1.71320;11.66250;,
 106.89410;67.87770;-35.36575;,
 106.89410;67.87770;-42.58580;,
 99.57292;67.87770;-42.58580;,
 106.89410;-1.42510;-56.75880;,
 106.89410;-1.42510;-49.53878;,
 99.57292;-1.42510;-56.75880;,
 106.89410;68.41600;28.11592;,
 106.89410;-0.88680;28.17185;,
 99.57292;68.41600;28.11592;,
 99.57292;-0.88680;28.17185;,
 79.55502;80.21237;-2.13808;,
 79.55502;82.80627;15.00978;,
 99.73900;69.68948;15.00978;,
 99.73900;69.79928;-2.13808;,
 99.73900;69.93995;-20.22772;,
 79.55502;77.12140;-20.22772;,
 79.55502;77.12267;28.48753;,
 99.73900;69.88902;-35.67375;,
 79.55502;69.88902;-35.67375;,
 79.55502;77.12267;28.48753;,
 79.55502;-1.71320;28.11743;,
 99.73900;-1.71320;28.11743;,
 99.73900;69.58215;28.48753;,
 79.55502;69.88902;-35.67375;,
 99.73900;69.88902;-35.67375;,
 99.73900;-1.71320;-50.21685;,
 79.55502;-1.71320;-50.21685;,
 79.55502;-1.71320;28.11743;,
 79.55502;-1.71320;11.66250;,
 99.73900;-1.71320;11.66250;,
 79.55502;-1.71320;-50.21685;,
 99.73900;-1.71320;-50.21685;,
 99.73900;-1.71320;-31.35883;,
 79.55502;-1.71320;-31.35883;,
 79.55502;-1.71320;-9.27325;,
 99.73900;-1.71320;-9.27325;,
 54.01170;83.47043;-2.13808;,
 32.96595;80.21237;-2.13808;,
 32.96595;79.02535;15.00978;,
 54.01170;81.97125;15.00978;,
 54.01170;77.12140;-20.22772;,
 32.96595;77.12140;-20.22772;,
 54.01170;77.12267;28.48753;,
 54.01170;69.88902;-35.67375;,
 32.96595;69.88902;-35.67375;,
 54.01170;77.12267;28.48753;,
 32.96595;77.12267;28.48753;,
 32.96595;-1.71320;28.11743;,
 54.01170;-1.71320;28.11743;,
 54.01170;69.88902;-35.67375;,
 54.01170;-1.71320;-50.21685;,
 32.96595;-1.71320;-50.21685;,
 32.96595;69.88902;-35.67375;,
 54.01170;-1.71320;28.11743;,
 32.96595;-1.71320;11.66250;,
 54.01170;-1.71320;11.66250;,
 54.01170;-1.71320;-50.21685;,
 54.01170;-1.71320;-31.35883;,
 32.96595;-1.71320;-31.35883;,
 32.96595;-1.71320;-50.21685;,
 32.96595;-1.71320;-9.27325;,
 54.01170;-1.71320;-9.27325;;
 
 76;
 4;0,1,2,3;,
 4;4,5,6,7;,
 4;8,9,10,11;,
 4;12,13,14,15;,
 4;12,5,16,17;,
 4;18,19,6,15;,
 4;20,21,22,23;,
 4;24,25,26,27;,
 4;28,29,30,31;,
 4;28,31,32,33;,
 4;34,35,36,37;,
 4;34,37,38,39;,
 4;40,41,42,43;,
 4;40,43,44,45;,
 4;46,47,48,49;,
 4;46,49,50,51;,
 4;52,53,54,55;,
 4;52,55,30,29;,
 4;56,39,38,57;,
 4;56,57,58,53;,
 4;59,54,60,61;,
 4;59,61,42,41;,
 4;62,51,50,63;,
 4;62,63,60,58;,
 4;64,65,66,67;,
 4;68,69,70,71;,
 4;72,73,74,75;,
 4;72,76,77,78;,
 4;79,80,81,75;,
 4;82,83,84,85;,
 4;82,85,86,87;,
 4;88,89,90,91;,
 4;88,91,92,93;,
 4;94,87,86,95;,
 4;94,95,96,97;,
 4;98,99,100,101;,
 4;98,101,90,89;,
 4;102,103,104,76;,
 4;105,106,81,107;,
 4;103,105,107,104;,
 4;103,102,106,105;,
 4;108,109,106,102;,
 4;110,108,102,76;,
 4;111,110,76,81;,
 4;109,111,81,106;,
 4;109,108,110,111;,
 4;112,113,114,115;,
 4;112,115,116,117;,
 4;113,118,99,114;,
 4;117,116,119,120;,
 4;121,122,123,124;,
 4;125,126,127,128;,
 4;129,130,131,100;,
 4;132,133,134,135;,
 4;130,136,137,131;,
 4;135,134,137,136;,
 4;138,139,140,141;,
 4;138,141,113,112;,
 4;138,112,117,142;,
 4;138,142,143,139;,
 4;141,140,97,144;,
 4;141,144,118,113;,
 4;142,117,120,145;,
 4;142,145,146,143;,
 4;147,148,149,150;,
 4;147,150,122,121;,
 4;151,125,128,152;,
 4;151,152,153,154;,
 4;155,96,156,157;,
 4;155,157,130,129;,
 4;158,132,135,159;,
 4;158,159,160,161;,
 4;157,156,162,163;,
 4;157,163,136,130;,
 4;159,135,136,163;,
 4;159,163,162,160;;
 
 MeshMaterialList {
  2;
  76;
  0,
  0,
  0,
  0,
  0,
  0,
  1,
  1,
  1,
  1,
  1,
  1,
  1,
  1,
  1,
  1,
  1,
  1,
  1,
  1,
  1,
  1,
  1,
  1,
  0,
  0,
  0,
  0,
  0,
  1,
  1,
  1,
  1,
  1,
  1,
  1,
  1,
  0,
  0,
  0,
  0,
  0,
  0,
  0,
  0,
  0,
  1,
  1,
  1,
  1,
  1,
  1,
  1,
  1,
  1,
  1,
  1,
  1,
  1,
  1,
  1,
  1,
  1,
  1,
  1,
  1,
  1,
  1,
  1,
  1,
  1,
  1,
  1,
  1,
  1,
  1;;
  Material {
   0.339200;0.380000;0.307200;1.000000;;
   5.000000;
   0.000000;0.000000;0.000000;;
   0.000000;0.000000;0.000000;;
  }
  Material {
   0.288800;0.225600;0.163200;1.000000;;
   5.000000;
   0.000000;0.000000;0.000000;;
   0.000000;0.000000;0.000000;;
  }
 }
 MeshNormals {
  51;
  0.000000;0.200361;-0.979722;,
  1.000000;0.000000;0.000000;,
  0.000000;-0.200362;0.979722;,
  0.000000;0.618343;-0.785908;,
  0.000000;0.199045;-0.979990;,
  0.000000;-0.004695;0.999989;,
  0.000000;0.998747;-0.050041;,
  -1.000000;0.000000;0.000000;,
  0.000000;0.954274;-0.298934;,
  0.000000;0.994526;0.104488;,
  0.000000;1.000000;0.000000;,
  0.000000;-1.000000;-0.000000;,
  0.000000;0.990182;0.139786;,
  0.000000;0.200361;-0.979722;,
  0.000000;-0.200362;0.979722;,
  -1.000000;0.000000;0.000000;,
  1.000000;0.000000;0.000000;,
  0.000000;1.000000;0.000000;,
  0.000000;-1.000000;-0.000000;,
  0.000000;0.999991;-0.004240;,
  0.000000;-0.999994;0.003463;,
  0.000000;0.999964;-0.008479;,
  0.257702;0.960397;-0.105958;,
  0.254362;0.960055;0.116592;,
  0.156949;0.956992;-0.243994;,
  0.219545;0.935340;0.277379;,
  0.080184;0.943881;-0.320404;,
  -0.000438;-0.004819;0.999988;,
  0.000000;0.199045;-0.979990;,
  -0.028206;0.992975;-0.114914;,
  -0.045511;0.985295;0.164687;,
  -0.003180;0.940878;-0.338730;,
  -0.040517;0.952360;0.302274;,
  0.000000;0.618343;-0.785908;,
  0.000000;-0.004695;0.999989;,
  0.000000;0.999996;-0.002826;,
  0.000000;-0.999997;0.002309;,
  0.000000;-0.999976;0.006927;,
  0.000000;0.000807;1.000000;,
  0.474335;0.878485;0.057185;,
  0.449585;0.890785;-0.066146;,
  0.280376;0.949226;-0.142688;,
  0.440431;0.880803;0.173802;,
  0.158873;0.964535;-0.210786;,
  -0.000877;-0.004943;0.999987;,
  0.000000;0.199045;-0.979990;,
  -0.110609;0.990012;-0.087415;,
  -0.106010;0.981570;0.159007;,
  -0.036538;0.940260;-0.338490;,
  -0.065776;0.968675;0.239461;,
  0.000000;0.618343;-0.785908;;
  76;
  4;0,0,0,0;,
  4;1,1,1,1;,
  4;2,2,2,2;,
  4;7,7,7,7;,
  4;10,10,10,10;,
  4;11,11,11,11;,
  4;3,3,4,4;,
  4;5,5,5,5;,
  4;8,6,6,8;,
  4;8,8,3,3;,
  4;7,7,7,7;,
  4;7,7,7,7;,
  4;1,1,1,1;,
  4;1,1,1,1;,
  4;11,11,11,11;,
  4;11,11,11,11;,
  4;9,12,12,9;,
  4;9,9,6,6;,
  4;7,7,7,7;,
  4;7,7,7,7;,
  4;1,1,1,1;,
  4;1,1,1,1;,
  4;11,11,11,11;,
  4;11,11,11,11;,
  4;13,13,13,13;,
  4;14,14,14,14;,
  4;15,15,15,15;,
  4;17,35,17,17;,
  4;18,18,36,18;,
  4;15,15,15,15;,
  4;15,15,15,15;,
  4;16,16,16,16;,
  4;16,16,16,16;,
  4;15,15,15,15;,
  4;15,15,15,15;,
  4;16,16,16,16;,
  4;16,16,16,16;,
  4;19,17,17,35;,
  4;18,20,36,18;,
  4;13,13,13,13;,
  4;16,16,16,16;,
  4;16,16,16,16;,
  4;21,21,19,35;,
  4;15,15,15,15;,
  4;37,37,36,20;,
  4;38,38,38,38;,
  4;22,23,39,40;,
  4;22,40,41,24;,
  4;23,25,42,39;,
  4;24,41,43,26;,
  4;27,27,44,44;,
  4;28,45,45,28;,
  4;18,18,18,18;,
  4;18,18,18,18;,
  4;18,18,18,18;,
  4;18,18,18,18;,
  4;29,46,47,30;,
  4;29,30,23,22;,
  4;29,22,24,31;,
  4;29,31,48,46;,
  4;30,47,49,32;,
  4;30,32,25,23;,
  4;31,24,26,33;,
  4;31,33,50,48;,
  4;34,34,34,34;,
  4;34,34,27,27;,
  4;33,28,28,28;,
  4;33,28,45,50;,
  4;18,18,18,18;,
  4;18,18,18,18;,
  4;18,18,18,18;,
  4;18,18,18,18;,
  4;18,18,18,18;,
  4;18,18,18,18;,
  4;18,18,18,18;,
  4;18,18,18,18;;
 }
 MeshTextureCoords {
  164;
  0.000000;0.000000;,
  1.000000;0.000000;,
  1.000000;1.000000;,
  0.000000;1.000000;,
  0.000000;0.000000;,
  1.000000;0.000000;,
  1.000000;1.000000;,
  0.000000;1.000000;,
  0.000000;0.000000;,
  1.000000;0.000000;,
  1.000000;1.000000;,
  0.000000;1.000000;,
  0.000000;0.000000;,
  1.000000;0.000000;,
  1.000000;1.000000;,
  0.000000;1.000000;,
  1.000000;1.000000;,
  0.000000;1.000000;,
  0.000000;0.000000;,
  1.000000;0.000000;,
  0.000000;0.000000;,
  1.000000;0.000000;,
  1.000000;1.000000;,
  0.000000;1.000000;,
  0.000000;0.000000;,
  1.000000;0.000000;,
  1.000000;1.000000;,
  0.000000;1.000000;,
  0.000000;0.759260;,
  0.000000;0.477320;,
  1.000000;0.477320;,
  1.000000;0.759260;,
  1.000000;1.000000;,
  0.000000;1.000000;,
  0.759260;0.000000;,
  1.000000;0.000000;,
  1.000000;1.000000;,
  0.759260;1.000000;,
  0.477320;1.000000;,
  0.477320;0.000000;,
  0.240740;0.000000;,
  0.522680;0.000000;,
  0.522680;1.000000;,
  0.240740;1.000000;,
  0.000000;1.000000;,
  0.000000;0.000000;,
  0.000000;0.240740;,
  0.000000;0.000000;,
  1.000000;0.000000;,
  1.000000;0.240740;,
  1.000000;0.522680;,
  0.000000;0.522680;,
  0.000000;0.210060;,
  0.000000;0.000000;,
  1.000000;0.000000;,
  1.000000;0.210060;,
  0.210060;0.000000;,
  0.210060;1.000000;,
  0.000000;1.000000;,
  0.789940;0.000000;,
  1.000000;1.000000;,
  0.789940;1.000000;,
  0.000000;0.789940;,
  1.000000;0.789940;,
  0.000000;0.000000;,
  1.000000;0.000000;,
  1.000000;1.000000;,
  0.000000;1.000000;,
  0.000000;0.000000;,
  1.000000;0.000000;,
  1.000000;1.000000;,
  0.000000;1.000000;,
  0.000000;0.000000;,
  1.000000;0.000000;,
  1.000000;1.000000;,
  0.000000;1.000000;,
  1.000000;0.000000;,
  1.000000;1.000000;,
  0.000000;1.000000;,
  0.000000;0.000000;,
  1.000000;0.000000;,
  1.000000;1.000000;,
  0.759260;0.000000;,
  1.000000;0.000000;,
  1.000000;1.000000;,
  0.759260;1.000000;,
  0.477320;1.000000;,
  0.477320;0.000000;,
  0.240740;0.000000;,
  0.522680;0.000000;,
  0.522680;1.000000;,
  0.240740;1.000000;,
  0.000000;1.000000;,
  0.000000;0.000000;,
  0.210060;0.000000;,
  0.210060;1.000000;,
  0.000000;1.000000;,
  0.000000;0.000000;,
  0.789940;0.000000;,
  1.000000;0.000000;,
  1.000000;1.000000;,
  0.789940;1.000000;,
  1.000000;0.000000;,
  0.000000;0.000000;,
  0.000000;0.000000;,
  0.000000;1.000000;,
  1.000000;1.000000;,
  0.000000;1.000000;,
  1.000000;0.000000;,
  1.000000;1.000000;,
  1.000000;0.000000;,
  1.000000;1.000000;,
  0.697720;0.477320;,
  0.697720;0.210060;,
  1.000000;0.210060;,
  1.000000;0.477320;,
  1.000000;0.759260;,
  0.697720;0.759260;,
  0.697720;0.000000;,
  1.000000;1.000000;,
  0.697720;1.000000;,
  0.302280;0.000000;,
  0.302280;1.000000;,
  0.000000;1.000000;,
  0.000000;0.000000;,
  0.697720;0.000000;,
  1.000000;0.000000;,
  1.000000;1.000000;,
  0.697720;1.000000;,
  0.697720;1.000000;,
  0.697720;0.789940;,
  1.000000;0.789940;,
  0.697720;0.000000;,
  1.000000;0.000000;,
  1.000000;0.240740;,
  0.697720;0.240740;,
  0.697720;0.522680;,
  1.000000;0.522680;,
  0.315180;0.477320;,
  0.000000;0.477320;,
  0.000000;0.210060;,
  0.315180;0.210060;,
  0.315180;0.759260;,
  0.000000;0.759260;,
  0.315180;0.000000;,
  0.315180;1.000000;,
  0.000000;1.000000;,
  0.684820;0.000000;,
  1.000000;0.000000;,
  1.000000;1.000000;,
  0.684820;1.000000;,
  0.315180;0.000000;,
  0.315180;1.000000;,
  0.000000;1.000000;,
  0.000000;0.000000;,
  0.315180;1.000000;,
  0.000000;0.789940;,
  0.315180;0.789940;,
  0.315180;0.000000;,
  0.315180;0.240740;,
  0.000000;0.240740;,
  0.000000;0.000000;,
  0.000000;0.522680;,
  0.315180;0.522680;;
 }
}
