xof 0302txt 0064
template Header {
 <3D82AB43-62DA-11cf-AB39-0020AF71E433>
 WORD major;
 WORD minor;
 DWORD flags;
}

template Vector {
 <3D82AB5E-62DA-11cf-AB39-0020AF71E433>
 FLOAT x;
 FLOAT y;
 FLOAT z;
}

template Coords2d {
 <F6F23F44-7686-11cf-8F52-0040333594A3>
 FLOAT u;
 FLOAT v;
}

template Matrix4x4 {
 <F6F23F45-7686-11cf-8F52-0040333594A3>
 array FLOAT matrix[16];
}

template ColorRGBA {
 <35FF44E0-6C7C-11cf-8F52-0040333594A3>
 FLOAT red;
 FLOAT green;
 FLOAT blue;
 FLOAT alpha;
}

template ColorRGB {
 <D3E16E81-7835-11cf-8F52-0040333594A3>
 FLOAT red;
 FLOAT green;
 FLOAT blue;
}

template IndexedColor {
 <1630B820-7842-11cf-8F52-0040333594A3>
 DWORD index;
 ColorRGBA indexColor;
}

template Boolean {
 <4885AE61-78E8-11cf-8F52-0040333594A3>
 WORD truefalse;
}

template Boolean2d {
 <4885AE63-78E8-11cf-8F52-0040333594A3>
 Boolean u;
 Boolean v;
}

template MaterialWrap {
 <4885AE60-78E8-11cf-8F52-0040333594A3>
 Boolean u;
 Boolean v;
}

template TextureFilename {
 <A42790E1-7810-11cf-8F52-0040333594A3>
 STRING filename;
}

template Material {
 <3D82AB4D-62DA-11cf-AB39-0020AF71E433>
 ColorRGBA faceColor;
 FLOAT power;
 ColorRGB specularColor;
 ColorRGB emissiveColor;
 [...]
}

template MeshFace {
 <3D82AB5F-62DA-11cf-AB39-0020AF71E433>
 DWORD nFaceVertexIndices;
 array DWORD faceVertexIndices[nFaceVertexIndices];
}

template MeshFaceWraps {
 <4885AE62-78E8-11cf-8F52-0040333594A3>
 DWORD nFaceWrapValues;
 Boolean2d faceWrapValues;
}

template MeshTextureCoords {
 <F6F23F40-7686-11cf-8F52-0040333594A3>
 DWORD nTextureCoords;
 array Coords2d textureCoords[nTextureCoords];
}

template MeshMaterialList {
 <F6F23F42-7686-11cf-8F52-0040333594A3>
 DWORD nMaterials;
 DWORD nFaceIndexes;
 array DWORD faceIndexes[nFaceIndexes];
 [Material]
}

template MeshNormals {
 <F6F23F43-7686-11cf-8F52-0040333594A3>
 DWORD nNormals;
 array Vector normals[nNormals];
 DWORD nFaceNormals;
 array MeshFace faceNormals[nFaceNormals];
}

template MeshVertexColors {
 <1630B821-7842-11cf-8F52-0040333594A3>
 DWORD nVertexColors;
 array IndexedColor vertexColors[nVertexColors];
}

template Mesh {
 <3D82AB44-62DA-11cf-AB39-0020AF71E433>
 DWORD nVertices;
 array Vector vertices[nVertices];
 DWORD nFaces;
 array MeshFace faces[nFaces];
 [...]
}

Header{
1;
0;
1;
}

Mesh {
 972;
 -110.50280;8.22925;-402.14594;,
 110.50280;8.22925;-402.14594;,
 110.50280;-3.30780;-402.14594;,
 -110.50280;-3.30780;-402.14594;,
 110.50280;8.22925;402.14594;,
 -110.50280;8.22925;402.14594;,
 -110.50280;-3.30780;402.14594;,
 110.50280;-3.30780;402.14594;,
 110.50280;33.73485;306.89981;,
 110.50280;8.22925;402.14594;,
 110.50280;-3.30780;402.14594;,
 110.50280;22.19780;306.89981;,
 110.50280;33.73485;306.89981;,
 -110.50280;33.73485;306.89981;,
 -110.50280;8.22925;402.14594;,
 110.50280;22.19780;306.89981;,
 -110.50280;-3.30780;402.14594;,
 -110.50280;22.19780;306.89981;,
 -110.50280;33.73485;306.89981;,
 -110.50280;22.19780;306.89981;,
 110.50280;33.73485;-304.04059;,
 110.50280;22.19780;-304.04059;,
 110.50280;-3.30780;-402.14594;,
 110.50280;8.22925;-402.14594;,
 110.50280;33.73485;-304.04059;,
 110.50280;8.22925;-402.14594;,
 -110.50280;8.22925;-402.14594;,
 -110.50280;33.73485;-304.04059;,
 110.50280;22.19780;-304.04059;,
 -110.50280;22.19780;-304.04059;,
 -110.50280;-3.30780;-402.14594;,
 110.50280;-3.30780;-402.14594;,
 -110.50280;33.73485;-304.04059;,
 -110.50280;8.22925;-402.14594;,
 -110.50280;-3.30780;-402.14594;,
 -110.50280;22.19780;-304.04059;,
 110.50280;57.61595;-132.48164;,
 110.50280;63.17630;-0.95310;,
 110.50280;51.63925;-0.95310;,
 110.50280;46.07890;-132.48164;,
 110.50280;57.61595;-132.48164;,
 -110.50280;57.61595;-132.48164;,
 -110.50280;63.17630;-0.95310;,
 110.50280;63.17630;-0.95310;,
 110.50280;46.07890;-132.48164;,
 110.50280;51.63925;-0.95310;,
 -110.50280;51.63925;-0.95310;,
 -110.50280;46.07890;-132.48164;,
 -110.50280;57.61595;-132.48164;,
 -110.50280;46.07890;-132.48164;,
 -110.50280;51.63925;-0.95310;,
 -110.50280;63.17630;-0.95310;,
 110.50280;57.61595;115.32580;,
 110.50280;46.07890;115.32580;,
 110.50280;57.61595;115.32580;,
 -110.50280;57.61595;115.32580;,
 110.50280;46.07890;115.32580;,
 -110.50280;46.07890;115.32580;,
 -110.50280;57.61595;115.32580;,
 -110.50280;46.07890;115.32580;,
 86.89635;105.87825;-6.90310;,
 100.70255;105.87825;-6.90310;,
 100.70255;58.78875;-6.90310;,
 86.89635;58.78875;-6.90310;,
 100.70255;105.87825;-6.90310;,
 100.70255;105.87825;6.90310;,
 100.70255;58.78875;6.90310;,
 100.70255;58.78875;-6.90310;,
 100.70255;105.87825;6.90310;,
 86.89635;105.87825;6.90310;,
 86.89635;58.78875;6.90310;,
 100.70255;58.78875;6.90310;,
 86.89635;105.87825;6.90310;,
 86.89635;105.87825;-6.90310;,
 86.89635;58.78875;-6.90310;,
 86.89635;58.78875;6.90310;,
 100.70255;105.87825;-6.90310;,
 86.89635;105.87825;-6.90310;,
 86.89635;58.78875;-6.90310;,
 100.70255;58.78875;-6.90310;,
 86.89635;100.51065;109.17685;,
 100.70255;100.51065;109.17685;,
 100.70255;53.42115;109.17685;,
 86.89635;53.42115;109.17685;,
 100.70255;100.51065;109.17685;,
 100.70255;100.51065;122.98300;,
 100.70255;53.42115;122.98300;,
 100.70255;53.42115;109.17685;,
 100.70255;100.51065;122.98300;,
 86.89635;100.51065;122.98300;,
 86.89635;53.42115;122.98300;,
 100.70255;53.42115;122.98300;,
 86.89635;100.51065;122.98300;,
 86.89635;100.51065;109.17685;,
 86.89635;53.42115;109.17685;,
 86.89635;53.42115;122.98300;,
 100.70255;100.51065;109.17685;,
 86.89635;100.51065;109.17685;,
 86.89635;53.42115;109.17685;,
 100.70255;53.42115;109.17685;,
 86.89635;100.51065;-138.14090;,
 100.70255;100.51065;-138.14090;,
 100.70255;53.42115;-138.14090;,
 86.89635;53.42115;-138.14090;,
 100.70255;100.51065;-138.14090;,
 100.70255;100.51065;-124.33470;,
 100.70255;53.42115;-124.33470;,
 100.70255;53.42115;-138.14090;,
 100.70255;100.51065;-124.33470;,
 86.89635;100.51065;-124.33470;,
 86.89635;53.42115;-124.33470;,
 100.70255;53.42115;-124.33470;,
 86.89635;100.51065;-124.33470;,
 86.89635;100.51065;-138.14090;,
 86.89635;53.42115;-138.14090;,
 86.89635;53.42115;-124.33470;,
 100.70255;100.51065;-138.14090;,
 86.89635;100.51065;-138.14090;,
 86.89635;53.42115;-138.14090;,
 100.70255;53.42115;-138.14090;,
 86.89635;79.66840;-271.06296;,
 100.70255;79.66840;-271.06296;,
 100.70255;32.57890;-271.06296;,
 86.89635;32.57890;-271.06296;,
 100.70255;79.66840;-271.06296;,
 100.70255;79.66840;-257.25674;,
 100.70255;32.57890;-257.25674;,
 100.70255;32.57890;-271.06296;,
 100.70255;79.66840;-257.25674;,
 86.89635;79.66840;-257.25674;,
 86.89635;32.57890;-257.25674;,
 100.70255;32.57890;-257.25674;,
 86.89635;79.66840;-257.25674;,
 86.89635;79.66840;-271.06296;,
 86.89635;32.57890;-271.06296;,
 86.89635;32.57890;-257.25674;,
 100.70255;79.66840;-271.06296;,
 86.89635;79.66840;-271.06296;,
 86.89635;32.57890;-271.06296;,
 100.70255;32.57890;-271.06296;,
 86.89635;79.83040;255.16789;,
 100.70255;79.83040;255.16789;,
 100.70255;32.74090;255.16789;,
 86.89635;32.74090;255.16789;,
 100.70255;79.83040;255.16789;,
 100.70255;79.83040;268.97406;,
 100.70255;32.74090;268.97406;,
 100.70255;32.74090;255.16789;,
 100.70255;79.83040;268.97406;,
 86.89635;79.83040;268.97406;,
 86.89635;32.74090;268.97406;,
 100.70255;32.74090;268.97406;,
 86.89635;79.83040;268.97406;,
 86.89635;79.83040;255.16789;,
 86.89635;32.74090;255.16789;,
 86.89635;32.74090;268.97406;,
 100.70255;79.83040;255.16789;,
 86.89635;79.83040;255.16789;,
 86.89635;32.74090;255.16789;,
 100.70255;32.74090;255.16789;,
 86.89635;65.45510;386.33536;,
 100.70255;65.45510;386.33536;,
 100.70255;3.65135;386.33536;,
 86.89635;3.65135;386.33536;,
 100.70255;65.45510;386.33536;,
 100.70255;65.45510;400.14151;,
 100.70255;3.65135;400.14151;,
 100.70255;3.65135;386.33536;,
 100.70255;65.45510;400.14151;,
 86.89635;65.45510;400.14151;,
 86.89635;3.65135;400.14151;,
 100.70255;3.65135;400.14151;,
 86.89635;65.45510;400.14151;,
 86.89635;65.45510;386.33536;,
 86.89635;3.65135;386.33536;,
 86.89635;3.65135;400.14151;,
 100.70255;65.45510;386.33536;,
 86.89635;65.45510;386.33536;,
 86.89635;3.65135;386.33536;,
 100.70255;3.65135;386.33536;,
 86.89635;65.77690;-398.82404;,
 100.70255;65.77690;-398.82404;,
 100.70255;3.65135;-398.82404;,
 86.89635;3.65135;-398.82404;,
 100.70255;65.77690;-398.82404;,
 100.70255;65.77690;-385.01785;,
 100.70255;3.65135;-385.01785;,
 100.70255;3.65135;-398.82404;,
 100.70255;65.77690;-385.01785;,
 86.89635;65.77690;-385.01785;,
 86.89635;3.65135;-385.01785;,
 100.70255;3.65135;-385.01785;,
 86.89635;65.77690;-385.01785;,
 86.89635;65.77690;-398.82404;,
 86.89635;3.65135;-398.82404;,
 86.89635;3.65135;-385.01785;,
 100.70255;65.77690;-398.82404;,
 86.89635;65.77690;-398.82404;,
 86.89635;3.65135;-398.82404;,
 100.70255;3.65135;-398.82404;,
 89.26370;73.21465;0.52630;,
 98.57370;73.21465;0.52630;,
 98.57370;64.52515;0.52630;,
 89.26370;64.52515;0.52630;,
 98.57370;73.21465;0.52630;,
 98.57370;67.48645;113.80585;,
 98.57370;64.24680;113.80585;,
 98.57370;64.52515;0.52630;,
 98.57370;67.48645;113.80585;,
 89.26370;67.48645;113.80585;,
 89.26370;64.24680;113.80585;,
 98.57370;64.24680;113.80585;,
 89.26370;67.48645;113.80585;,
 89.26370;73.21465;0.52630;,
 89.26370;64.52515;0.52630;,
 89.26370;64.24680;113.80585;,
 98.57370;73.21465;0.52630;,
 89.26370;73.21465;0.52630;,
 89.26370;64.52515;0.52630;,
 98.57370;64.52515;0.52630;,
 89.26370;73.21465;-4.71430;,
 89.26370;64.52515;-4.71430;,
 98.57370;64.52515;-4.71430;,
 98.57370;73.21465;-4.71430;,
 98.57370;73.21465;-4.71430;,
 98.57370;64.52515;-4.71430;,
 98.57370;64.24680;-127.67605;,
 98.57370;67.48645;-127.67605;,
 98.57370;67.48645;-127.67605;,
 98.57370;64.24680;-127.67605;,
 89.26370;64.24680;-127.67605;,
 89.26370;67.48645;-127.67605;,
 89.26370;67.48645;-127.67605;,
 89.26370;64.24680;-127.67605;,
 89.26370;64.52515;-4.71430;,
 89.26370;73.21465;-4.71430;,
 89.26370;73.21465;-4.71430;,
 98.57370;73.21465;-4.71430;,
 89.26370;64.52515;-4.71430;,
 98.57370;64.52515;-4.71430;,
 89.26370;67.17345;119.02245;,
 98.57370;67.17345;119.02245;,
 98.57370;63.93380;119.02245;,
 89.26370;63.93380;119.02245;,
 98.57370;67.17345;119.02245;,
 98.57370;51.24765;259.45746;,
 98.57370;44.48165;259.45746;,
 98.57370;63.93380;119.02245;,
 98.57370;51.24765;259.45746;,
 89.26370;51.24765;259.45746;,
 89.26370;44.48165;259.45746;,
 98.57370;44.48165;259.45746;,
 89.26370;51.24765;259.45746;,
 89.26370;67.17345;119.02245;,
 89.26370;63.93380;119.02245;,
 89.26370;44.48165;259.45746;,
 98.57370;67.17345;119.02245;,
 89.26370;67.17345;119.02245;,
 89.26370;63.93380;119.02245;,
 98.57370;63.93380;119.02245;,
 89.26370;67.17345;-127.95565;,
 89.26370;63.93380;-127.95565;,
 98.57370;63.93380;-127.95565;,
 98.57370;67.17345;-127.95565;,
 98.57370;67.17345;-127.95565;,
 98.57370;63.93380;-127.95565;,
 98.57370;44.48165;-260.89334;,
 98.57370;51.24765;-260.89334;,
 98.57370;51.24765;-260.89334;,
 98.57370;44.48165;-260.89334;,
 89.26370;44.48165;-260.89334;,
 89.26370;51.24765;-260.89334;,
 89.26370;51.24765;-260.89334;,
 89.26370;44.48165;-260.89334;,
 89.26370;63.93380;-127.95565;,
 89.26370;67.17345;-127.95565;,
 89.26370;67.17345;-127.95565;,
 98.57370;67.17345;-127.95565;,
 89.26370;63.93380;-127.95565;,
 98.57370;63.93380;-127.95565;,
 89.17560;51.92470;-260.42294;,
 89.21475;45.17270;-259.98944;,
 98.52460;45.22650;-259.99121;,
 98.48545;51.97855;-260.42459;,
 98.48545;51.97855;-260.42459;,
 98.52460;45.22650;-259.99121;,
 98.66175;17.29585;-391.40924;,
 98.62260;24.04785;-391.84286;,
 98.62260;24.04785;-391.84286;,
 98.66175;17.29585;-391.40924;,
 89.35190;17.24200;-391.40759;,
 89.31275;23.99400;-391.84106;,
 89.31275;23.99400;-391.84106;,
 89.35190;17.24200;-391.40759;,
 89.21475;45.17270;-259.98944;,
 89.17560;51.92470;-260.42294;,
 89.17560;51.92470;-260.42294;,
 98.48545;51.97855;-260.42459;,
 89.21475;45.17270;-259.98944;,
 98.52460;45.22650;-259.99121;,
 89.17560;51.92470;260.42294;,
 98.48545;51.97855;260.42459;,
 98.52460;45.22650;259.99121;,
 89.21475;45.17270;259.98944;,
 98.48545;51.97855;260.42459;,
 98.62260;24.04785;391.84286;,
 98.66175;17.29585;391.40924;,
 98.52460;45.22650;259.99121;,
 98.62260;24.04785;391.84286;,
 89.31275;23.99400;391.84106;,
 89.35190;17.24200;391.40759;,
 98.66175;17.29585;391.40924;,
 89.31275;23.99400;391.84106;,
 89.17560;51.92470;260.42294;,
 89.21475;45.17270;259.98944;,
 89.35190;17.24200;391.40759;,
 98.48545;51.97855;260.42459;,
 89.17560;51.92470;260.42294;,
 89.21475;45.17270;259.98944;,
 98.52460;45.22650;259.99121;,
 89.26370;99.07610;0.52630;,
 98.57370;99.07610;0.52630;,
 98.57370;92.31010;0.52630;,
 89.26370;92.31010;0.52630;,
 98.57370;99.07610;0.52630;,
 98.57370;95.27140;113.80585;,
 98.57370;88.50535;113.80585;,
 98.57370;92.31010;0.52630;,
 98.57370;95.27140;113.80585;,
 89.26370;95.27140;113.80585;,
 89.26370;88.50535;113.80585;,
 98.57370;88.50535;113.80585;,
 89.26370;95.27140;113.80585;,
 89.26370;99.07610;0.52630;,
 89.26370;92.31010;0.52630;,
 89.26370;88.50535;113.80585;,
 98.57370;99.07610;0.52630;,
 89.26370;99.07610;0.52630;,
 89.26370;92.31010;0.52630;,
 98.57370;92.31010;0.52630;,
 89.26370;99.07610;-4.71430;,
 89.26370;92.31010;-4.71430;,
 98.57370;92.31010;-4.71430;,
 98.57370;99.07610;-4.71430;,
 98.57370;99.07610;-4.71430;,
 98.57370;92.31010;-4.71430;,
 98.57370;88.50535;-127.67605;,
 98.57370;95.27140;-127.67605;,
 98.57370;95.27140;-127.67605;,
 98.57370;88.50535;-127.67605;,
 89.26370;88.50535;-127.67605;,
 89.26370;95.27140;-127.67605;,
 89.26370;95.27140;-127.67605;,
 89.26370;88.50535;-127.67605;,
 89.26370;92.31010;-4.71430;,
 89.26370;99.07610;-4.71430;,
 89.26370;99.07610;-4.71430;,
 98.57370;99.07610;-4.71430;,
 89.26370;92.31010;-4.71430;,
 98.57370;92.31010;-4.71430;,
 89.26370;94.95835;119.02245;,
 98.57370;94.95835;119.02245;,
 98.57370;88.19235;119.02245;,
 89.26370;88.19235;119.02245;,
 98.57370;94.95835;119.02245;,
 98.57370;73.90335;259.45746;,
 98.57370;65.21385;259.45746;,
 98.57370;88.19235;119.02245;,
 98.57370;73.90335;259.45746;,
 89.26370;73.90335;259.45746;,
 89.26370;65.21385;259.45746;,
 98.57370;65.21385;259.45746;,
 89.26370;73.90335;259.45746;,
 89.26370;94.95835;119.02245;,
 89.26370;88.19235;119.02245;,
 89.26370;65.21385;259.45746;,
 98.57370;94.95835;119.02245;,
 89.26370;94.95835;119.02245;,
 89.26370;88.19235;119.02245;,
 98.57370;88.19235;119.02245;,
 89.26370;94.95835;-127.95565;,
 89.26370;88.19235;-127.95565;,
 98.57370;88.19235;-127.95565;,
 98.57370;94.95835;-127.95565;,
 98.57370;94.95835;-127.95565;,
 98.57370;88.19235;-127.95565;,
 98.57370;65.21385;-260.89334;,
 98.57370;73.90335;-260.89334;,
 98.57370;73.90335;-260.89334;,
 98.57370;65.21385;-260.89334;,
 89.26370;65.21385;-260.89334;,
 89.26370;73.90335;-260.89334;,
 89.26370;73.90335;-260.89334;,
 89.26370;65.21385;-260.89334;,
 89.26370;88.19235;-127.95565;,
 89.26370;94.95835;-127.95565;,
 89.26370;94.95835;-127.95565;,
 98.57370;94.95835;-127.95565;,
 89.26370;88.19235;-127.95565;,
 98.57370;88.19235;-127.95565;,
 89.17560;76.18325;-260.42294;,
 89.21475;65.90490;-259.98944;,
 98.52460;65.95870;-259.99121;,
 98.48545;76.23710;-260.42459;,
 98.48545;76.23710;-260.42459;,
 98.52460;65.95870;-259.99121;,
 98.66175;41.55440;-391.40924;,
 98.62260;48.30640;-391.84286;,
 98.62260;48.30640;-391.84286;,
 98.66175;41.55440;-391.40924;,
 89.35190;41.50060;-391.40759;,
 89.31275;48.25260;-391.84106;,
 89.31275;48.25260;-391.84106;,
 89.35190;41.50060;-391.40759;,
 89.21475;65.90490;-259.98944;,
 89.17560;76.18325;-260.42294;,
 89.17560;76.18325;-260.42294;,
 98.48545;76.23710;-260.42459;,
 89.21475;65.90490;-259.98944;,
 98.52460;65.95870;-259.99121;,
 89.17560;76.18325;260.42294;,
 98.48545;76.23710;260.42459;,
 98.52460;65.95870;259.99121;,
 89.21475;65.90490;259.98944;,
 98.48545;76.23710;260.42459;,
 98.62260;48.30640;391.84286;,
 98.66175;41.55440;391.40924;,
 98.52460;65.95870;259.99121;,
 98.62260;48.30640;391.84286;,
 89.31275;48.25260;391.84106;,
 89.35190;41.50060;391.40759;,
 98.66175;41.55440;391.40924;,
 89.31275;48.25260;391.84106;,
 89.17560;76.18325;260.42294;,
 89.21475;65.90490;259.98944;,
 89.35190;41.50060;391.40759;,
 98.48545;76.23710;260.42459;,
 89.17560;76.18325;260.42294;,
 89.21475;65.90490;259.98944;,
 98.52460;65.95870;259.99121;,
 104.03950;66.69565;-391.57071;,
 104.03950;66.69565;-381.26160;,
 104.03950;61.53985;-381.26160;,
 104.03950;61.53985;-391.57071;,
 104.03950;61.53985;-402.25195;,
 104.03950;66.69565;-402.25195;,
 83.04900;66.69565;-391.57071;,
 83.04900;66.69565;-402.25195;,
 83.04900;61.53985;-402.25195;,
 83.04900;61.53985;-391.57071;,
 83.04900;61.53985;-381.26160;,
 83.04900;66.69565;-381.26160;,
 93.73035;66.69565;-402.25195;,
 104.03950;66.69565;-402.25195;,
 104.03950;61.53985;-402.25195;,
 93.73035;61.53985;-402.25195;,
 83.04900;61.53985;-402.25195;,
 83.04900;66.69565;-402.25195;,
 93.73035;66.69565;-402.25195;,
 83.04900;66.69565;-402.25195;,
 83.04900;66.69565;-391.57071;,
 93.73035;72.45050;-391.57071;,
 104.03950;66.69565;-391.57071;,
 104.03950;66.69565;-402.25195;,
 93.73035;61.53985;-402.25195;,
 104.03950;61.53985;-402.25195;,
 104.03950;61.53985;-391.57071;,
 93.73035;61.53985;-391.57071;,
 83.04900;61.53985;-391.57071;,
 83.04900;61.53985;-402.25195;,
 93.73035;66.69565;-381.26160;,
 93.73035;61.53985;-381.26160;,
 93.73035;66.69565;-381.26160;,
 83.04900;66.69565;-381.26160;,
 83.04900;61.53985;-381.26160;,
 93.73035;61.53985;-381.26160;,
 104.03950;61.53985;-381.26160;,
 104.03950;66.69565;-381.26160;,
 104.03950;66.69565;393.28687;,
 104.03950;61.53985;393.28687;,
 104.03950;61.53985;382.97775;,
 104.03950;66.69565;382.97775;,
 104.03950;66.69565;403.96811;,
 104.03950;61.53985;403.96811;,
 83.04900;66.69565;393.28687;,
 83.04900;61.53985;393.28687;,
 83.04900;61.53985;403.96811;,
 83.04900;66.69565;403.96811;,
 83.04900;66.69565;382.97775;,
 83.04900;61.53985;382.97775;,
 93.73035;66.69565;403.96811;,
 93.73035;61.53985;403.96811;,
 104.03950;61.53985;403.96811;,
 104.03950;66.69565;403.96811;,
 83.04900;66.69565;403.96811;,
 83.04900;61.53985;403.96811;,
 93.73035;66.69565;403.96811;,
 93.73035;72.45050;393.28687;,
 83.04900;66.69565;393.28687;,
 83.04900;66.69565;403.96811;,
 104.03950;66.69565;403.96811;,
 104.03950;66.69565;393.28687;,
 93.73035;61.53985;403.96811;,
 93.73035;61.53985;393.28687;,
 104.03950;61.53985;393.28687;,
 104.03950;61.53985;403.96811;,
 83.04900;61.53985;403.96811;,
 83.04900;61.53985;393.28687;,
 93.73035;66.69565;382.97775;,
 93.73035;61.53985;382.97775;,
 93.73035;66.69565;382.97775;,
 93.73035;61.53985;382.97775;,
 83.04900;61.53985;382.97775;,
 83.04900;66.69565;382.97775;,
 104.03950;66.69565;382.97775;,
 104.03950;61.53985;382.97775;,
 -86.89635;105.87825;-6.90310;,
 -86.89635;58.78875;-6.90310;,
 -100.70255;58.78875;-6.90310;,
 -100.70255;105.87825;-6.90310;,
 -100.70255;105.87825;-6.90310;,
 -100.70255;58.78875;-6.90310;,
 -100.70255;58.78875;6.90310;,
 -100.70255;105.87825;6.90310;,
 -100.70255;105.87825;6.90310;,
 -100.70255;58.78875;6.90310;,
 -86.89635;58.78875;6.90310;,
 -86.89635;105.87825;6.90310;,
 -86.89635;105.87825;6.90310;,
 -86.89635;58.78875;6.90310;,
 -86.89635;58.78875;-6.90310;,
 -86.89635;105.87825;-6.90310;,
 -86.89635;105.87825;-6.90310;,
 -100.70255;105.87825;-6.90310;,
 -86.89635;58.78875;-6.90310;,
 -100.70255;58.78875;-6.90310;,
 -86.89635;100.51065;109.17685;,
 -86.89635;53.42115;109.17685;,
 -100.70255;53.42115;109.17685;,
 -100.70255;100.51065;109.17685;,
 -100.70255;100.51065;109.17685;,
 -100.70255;53.42115;109.17685;,
 -100.70255;53.42115;122.98300;,
 -100.70255;100.51065;122.98300;,
 -100.70255;100.51065;122.98300;,
 -100.70255;53.42115;122.98300;,
 -86.89635;53.42115;122.98300;,
 -86.89635;100.51065;122.98300;,
 -86.89635;100.51065;122.98300;,
 -86.89635;53.42115;122.98300;,
 -86.89635;53.42115;109.17685;,
 -86.89635;100.51065;109.17685;,
 -86.89635;100.51065;109.17685;,
 -100.70255;100.51065;109.17685;,
 -86.89635;53.42115;109.17685;,
 -100.70255;53.42115;109.17685;,
 -86.89635;100.51065;-138.14090;,
 -86.89635;53.42115;-138.14090;,
 -100.70255;53.42115;-138.14090;,
 -100.70255;100.51065;-138.14090;,
 -100.70255;100.51065;-138.14090;,
 -100.70255;53.42115;-138.14090;,
 -100.70255;53.42115;-124.33470;,
 -100.70255;100.51065;-124.33470;,
 -100.70255;100.51065;-124.33470;,
 -100.70255;53.42115;-124.33470;,
 -86.89635;53.42115;-124.33470;,
 -86.89635;100.51065;-124.33470;,
 -86.89635;100.51065;-124.33470;,
 -86.89635;53.42115;-124.33470;,
 -86.89635;53.42115;-138.14090;,
 -86.89635;100.51065;-138.14090;,
 -86.89635;100.51065;-138.14090;,
 -100.70255;100.51065;-138.14090;,
 -86.89635;53.42115;-138.14090;,
 -100.70255;53.42115;-138.14090;,
 -86.89635;79.66840;-271.06296;,
 -86.89635;32.57890;-271.06296;,
 -100.70255;32.57890;-271.06296;,
 -100.70255;79.66840;-271.06296;,
 -100.70255;79.66840;-271.06296;,
 -100.70255;32.57890;-271.06296;,
 -100.70255;32.57890;-257.25674;,
 -100.70255;79.66840;-257.25674;,
 -100.70255;79.66840;-257.25674;,
 -100.70255;32.57890;-257.25674;,
 -86.89635;32.57890;-257.25674;,
 -86.89635;79.66840;-257.25674;,
 -86.89635;79.66840;-257.25674;,
 -86.89635;32.57890;-257.25674;,
 -86.89635;32.57890;-271.06296;,
 -86.89635;79.66840;-271.06296;,
 -86.89635;79.66840;-271.06296;,
 -100.70255;79.66840;-271.06296;,
 -86.89635;32.57890;-271.06296;,
 -100.70255;32.57890;-271.06296;,
 -86.89635;79.83040;255.16789;,
 -86.89635;32.74090;255.16789;,
 -100.70255;32.74090;255.16789;,
 -100.70255;79.83040;255.16789;,
 -100.70255;79.83040;255.16789;,
 -100.70255;32.74090;255.16789;,
 -100.70255;32.74090;268.97406;,
 -100.70255;79.83040;268.97406;,
 -100.70255;79.83040;268.97406;,
 -100.70255;32.74090;268.97406;,
 -86.89635;32.74090;268.97406;,
 -86.89635;79.83040;268.97406;,
 -86.89635;79.83040;268.97406;,
 -86.89635;32.74090;268.97406;,
 -86.89635;32.74090;255.16789;,
 -86.89635;79.83040;255.16789;,
 -86.89635;79.83040;255.16789;,
 -100.70255;79.83040;255.16789;,
 -86.89635;32.74090;255.16789;,
 -100.70255;32.74090;255.16789;,
 -86.89635;65.45510;386.33536;,
 -86.89635;3.65135;386.33536;,
 -100.70255;3.65135;386.33536;,
 -100.70255;65.45510;386.33536;,
 -100.70255;65.45510;386.33536;,
 -100.70255;3.65135;386.33536;,
 -100.70255;3.65135;400.14151;,
 -100.70255;65.45510;400.14151;,
 -100.70255;65.45510;400.14151;,
 -100.70255;3.65135;400.14151;,
 -86.89635;3.65135;400.14151;,
 -86.89635;65.45510;400.14151;,
 -86.89635;65.45510;400.14151;,
 -86.89635;3.65135;400.14151;,
 -86.89635;3.65135;386.33536;,
 -86.89635;65.45510;386.33536;,
 -86.89635;65.45510;386.33536;,
 -100.70255;65.45510;386.33536;,
 -86.89635;3.65135;386.33536;,
 -100.70255;3.65135;386.33536;,
 -86.89635;65.77690;-398.82404;,
 -86.89635;3.65135;-398.82404;,
 -100.70255;3.65135;-398.82404;,
 -100.70255;65.77690;-398.82404;,
 -100.70255;65.77690;-398.82404;,
 -100.70255;3.65135;-398.82404;,
 -100.70255;3.65135;-385.01785;,
 -100.70255;65.77690;-385.01785;,
 -100.70255;65.77690;-385.01785;,
 -100.70255;3.65135;-385.01785;,
 -86.89635;3.65135;-385.01785;,
 -86.89635;65.77690;-385.01785;,
 -86.89635;65.77690;-385.01785;,
 -86.89635;3.65135;-385.01785;,
 -86.89635;3.65135;-398.82404;,
 -86.89635;65.77690;-398.82404;,
 -86.89635;65.77690;-398.82404;,
 -100.70255;65.77690;-398.82404;,
 -86.89635;3.65135;-398.82404;,
 -100.70255;3.65135;-398.82404;,
 -89.26370;73.21465;0.52630;,
 -89.26370;64.52515;0.52630;,
 -98.57370;64.52515;0.52630;,
 -98.57370;73.21465;0.52630;,
 -98.57370;73.21465;0.52630;,
 -98.57370;64.52515;0.52630;,
 -98.57370;64.24680;113.80585;,
 -98.57370;67.48645;113.80585;,
 -98.57370;67.48645;113.80585;,
 -98.57370;64.24680;113.80585;,
 -89.26370;64.24680;113.80585;,
 -89.26370;67.48645;113.80585;,
 -89.26370;67.48645;113.80585;,
 -89.26370;64.24680;113.80585;,
 -89.26370;64.52515;0.52630;,
 -89.26370;73.21465;0.52630;,
 -89.26370;73.21465;0.52630;,
 -98.57370;73.21465;0.52630;,
 -89.26370;64.52515;0.52630;,
 -98.57370;64.52515;0.52630;,
 -89.26370;73.21465;-4.71430;,
 -98.57370;73.21465;-4.71430;,
 -98.57370;64.52515;-4.71430;,
 -89.26370;64.52515;-4.71430;,
 -98.57370;73.21465;-4.71430;,
 -98.57370;67.48645;-127.67605;,
 -98.57370;64.24680;-127.67605;,
 -98.57370;64.52515;-4.71430;,
 -98.57370;67.48645;-127.67605;,
 -89.26370;67.48645;-127.67605;,
 -89.26370;64.24680;-127.67605;,
 -98.57370;64.24680;-127.67605;,
 -89.26370;67.48645;-127.67605;,
 -89.26370;73.21465;-4.71430;,
 -89.26370;64.52515;-4.71430;,
 -89.26370;64.24680;-127.67605;,
 -98.57370;73.21465;-4.71430;,
 -89.26370;73.21465;-4.71430;,
 -89.26370;64.52515;-4.71430;,
 -98.57370;64.52515;-4.71430;,
 -89.26370;67.17345;119.02245;,
 -89.26370;63.93380;119.02245;,
 -98.57370;63.93380;119.02245;,
 -98.57370;67.17345;119.02245;,
 -98.57370;67.17345;119.02245;,
 -98.57370;63.93380;119.02245;,
 -98.57370;44.48165;259.45746;,
 -98.57370;51.24765;259.45746;,
 -98.57370;51.24765;259.45746;,
 -98.57370;44.48165;259.45746;,
 -89.26370;44.48165;259.45746;,
 -89.26370;51.24765;259.45746;,
 -89.26370;51.24765;259.45746;,
 -89.26370;44.48165;259.45746;,
 -89.26370;63.93380;119.02245;,
 -89.26370;67.17345;119.02245;,
 -89.26370;67.17345;119.02245;,
 -98.57370;67.17345;119.02245;,
 -89.26370;63.93380;119.02245;,
 -98.57370;63.93380;119.02245;,
 -89.26370;67.17345;-127.95565;,
 -98.57370;67.17345;-127.95565;,
 -98.57370;63.93380;-127.95565;,
 -89.26370;63.93380;-127.95565;,
 -98.57370;67.17345;-127.95565;,
 -98.57370;51.24765;-260.89334;,
 -98.57370;44.48165;-260.89334;,
 -98.57370;63.93380;-127.95565;,
 -98.57370;51.24765;-260.89334;,
 -89.26370;51.24765;-260.89334;,
 -89.26370;44.48165;-260.89334;,
 -98.57370;44.48165;-260.89334;,
 -89.26370;51.24765;-260.89334;,
 -89.26370;67.17345;-127.95565;,
 -89.26370;63.93380;-127.95565;,
 -89.26370;44.48165;-260.89334;,
 -98.57370;67.17345;-127.95565;,
 -89.26370;67.17345;-127.95565;,
 -89.26370;63.93380;-127.95565;,
 -98.57370;63.93380;-127.95565;,
 -89.17560;51.92470;-260.42294;,
 -98.48545;51.97855;-260.42459;,
 -98.52460;45.22650;-259.99121;,
 -89.21475;45.17270;-259.98944;,
 -98.48545;51.97855;-260.42459;,
 -98.62260;24.04785;-391.84286;,
 -98.66175;17.29585;-391.40924;,
 -98.52460;45.22650;-259.99121;,
 -98.62260;24.04785;-391.84286;,
 -89.31275;23.99400;-391.84106;,
 -89.35190;17.24200;-391.40759;,
 -98.66175;17.29585;-391.40924;,
 -89.31275;23.99400;-391.84106;,
 -89.17560;51.92470;-260.42294;,
 -89.21475;45.17270;-259.98944;,
 -89.35190;17.24200;-391.40759;,
 -98.48545;51.97855;-260.42459;,
 -89.17560;51.92470;-260.42294;,
 -89.21475;45.17270;-259.98944;,
 -98.52460;45.22650;-259.99121;,
 -89.17560;51.92470;260.42294;,
 -89.21475;45.17270;259.98944;,
 -98.52460;45.22650;259.99121;,
 -98.48545;51.97855;260.42459;,
 -98.48545;51.97855;260.42459;,
 -98.52460;45.22650;259.99121;,
 -98.66175;17.29585;391.40924;,
 -98.62260;24.04785;391.84286;,
 -98.62260;24.04785;391.84286;,
 -98.66175;17.29585;391.40924;,
 -89.35190;17.24200;391.40759;,
 -89.31275;23.99400;391.84106;,
 -89.31275;23.99400;391.84106;,
 -89.35190;17.24200;391.40759;,
 -89.21475;45.17270;259.98944;,
 -89.17560;51.92470;260.42294;,
 -89.17560;51.92470;260.42294;,
 -98.48545;51.97855;260.42459;,
 -89.21475;45.17270;259.98944;,
 -98.52460;45.22650;259.99121;,
 -89.26370;99.07610;0.52630;,
 -89.26370;92.31010;0.52630;,
 -98.57370;92.31010;0.52630;,
 -98.57370;99.07610;0.52630;,
 -98.57370;99.07610;0.52630;,
 -98.57370;92.31010;0.52630;,
 -98.57370;88.50535;113.80585;,
 -98.57370;95.27140;113.80585;,
 -98.57370;95.27140;113.80585;,
 -98.57370;88.50535;113.80585;,
 -89.26370;88.50535;113.80585;,
 -89.26370;95.27140;113.80585;,
 -89.26370;95.27140;113.80585;,
 -89.26370;88.50535;113.80585;,
 -89.26370;92.31010;0.52630;,
 -89.26370;99.07610;0.52630;,
 -89.26370;99.07610;0.52630;,
 -98.57370;99.07610;0.52630;,
 -89.26370;92.31010;0.52630;,
 -98.57370;92.31010;0.52630;,
 -89.26370;99.07610;-4.71430;,
 -98.57370;99.07610;-4.71430;,
 -98.57370;92.31010;-4.71430;,
 -89.26370;92.31010;-4.71430;,
 -98.57370;99.07610;-4.71430;,
 -98.57370;95.27140;-127.67605;,
 -98.57370;88.50535;-127.67605;,
 -98.57370;92.31010;-4.71430;,
 -98.57370;95.27140;-127.67605;,
 -89.26370;95.27140;-127.67605;,
 -89.26370;88.50535;-127.67605;,
 -98.57370;88.50535;-127.67605;,
 -89.26370;95.27140;-127.67605;,
 -89.26370;99.07610;-4.71430;,
 -89.26370;92.31010;-4.71430;,
 -89.26370;88.50535;-127.67605;,
 -98.57370;99.07610;-4.71430;,
 -89.26370;99.07610;-4.71430;,
 -89.26370;92.31010;-4.71430;,
 -98.57370;92.31010;-4.71430;,
 -89.26370;94.95835;119.02245;,
 -89.26370;88.19235;119.02245;,
 -98.57370;88.19235;119.02245;,
 -98.57370;94.95835;119.02245;,
 -98.57370;94.95835;119.02245;,
 -98.57370;88.19235;119.02245;,
 -98.57370;65.21385;259.45746;,
 -98.57370;73.90335;259.45746;,
 -98.57370;73.90335;259.45746;,
 -98.57370;65.21385;259.45746;,
 -89.26370;65.21385;259.45746;,
 -89.26370;73.90335;259.45746;,
 -89.26370;73.90335;259.45746;,
 -89.26370;65.21385;259.45746;,
 -89.26370;88.19235;119.02245;,
 -89.26370;94.95835;119.02245;,
 -89.26370;94.95835;119.02245;,
 -98.57370;94.95835;119.02245;,
 -89.26370;88.19235;119.02245;,
 -98.57370;88.19235;119.02245;,
 -89.26370;94.95835;-127.95565;,
 -98.57370;94.95835;-127.95565;,
 -98.57370;88.19235;-127.95565;,
 -89.26370;88.19235;-127.95565;,
 -98.57370;94.95835;-127.95565;,
 -98.57370;73.90335;-260.89334;,
 -98.57370;65.21385;-260.89334;,
 -98.57370;88.19235;-127.95565;,
 -98.57370;73.90335;-260.89334;,
 -89.26370;73.90335;-260.89334;,
 -89.26370;65.21385;-260.89334;,
 -98.57370;65.21385;-260.89334;,
 -89.26370;73.90335;-260.89334;,
 -89.26370;94.95835;-127.95565;,
 -89.26370;88.19235;-127.95565;,
 -89.26370;65.21385;-260.89334;,
 -98.57370;94.95835;-127.95565;,
 -89.26370;94.95835;-127.95565;,
 -89.26370;88.19235;-127.95565;,
 -98.57370;88.19235;-127.95565;,
 -89.17560;76.18325;-260.42294;,
 -98.48545;76.23710;-260.42459;,
 -98.52460;65.95870;-259.99121;,
 -89.21475;65.90490;-259.98944;,
 -98.48545;76.23710;-260.42459;,
 -98.62260;48.30640;-391.84286;,
 -98.66175;41.55440;-391.40924;,
 -98.52460;65.95870;-259.99121;,
 -98.62260;48.30640;-391.84286;,
 -89.31275;48.25260;-391.84106;,
 -89.35190;41.50060;-391.40759;,
 -98.66175;41.55440;-391.40924;,
 -89.31275;48.25260;-391.84106;,
 -89.17560;76.18325;-260.42294;,
 -89.21475;65.90490;-259.98944;,
 -89.35190;41.50060;-391.40759;,
 -98.48545;76.23710;-260.42459;,
 -89.17560;76.18325;-260.42294;,
 -89.21475;65.90490;-259.98944;,
 -98.52460;65.95870;-259.99121;,
 -89.17560;76.18325;260.42294;,
 -89.21475;65.90490;259.98944;,
 -98.52460;65.95870;259.99121;,
 -98.48545;76.23710;260.42459;,
 -98.48545;76.23710;260.42459;,
 -98.52460;65.95870;259.99121;,
 -98.66175;41.55440;391.40924;,
 -98.62260;48.30640;391.84286;,
 -98.62260;48.30640;391.84286;,
 -98.66175;41.55440;391.40924;,
 -89.35190;41.50060;391.40759;,
 -89.31275;48.25260;391.84106;,
 -89.31275;48.25260;391.84106;,
 -89.35190;41.50060;391.40759;,
 -89.21475;65.90490;259.98944;,
 -89.17560;76.18325;260.42294;,
 -89.17560;76.18325;260.42294;,
 -98.48545;76.23710;260.42459;,
 -89.21475;65.90490;259.98944;,
 -98.52460;65.95870;259.99121;,
 -104.03950;66.69565;-391.57071;,
 -104.03950;61.53985;-391.57071;,
 -104.03950;61.53985;-381.26160;,
 -104.03950;66.69565;-381.26160;,
 -104.03950;66.69565;-402.25195;,
 -104.03950;61.53985;-402.25195;,
 -83.04900;66.69565;-391.57071;,
 -83.04900;61.53985;-391.57071;,
 -83.04900;61.53985;-402.25195;,
 -83.04900;66.69565;-402.25195;,
 -83.04900;66.69565;-381.26160;,
 -83.04900;61.53985;-381.26160;,
 -93.73035;66.69565;-402.25195;,
 -93.73035;61.53985;-402.25195;,
 -104.03950;61.53985;-402.25195;,
 -104.03950;66.69565;-402.25195;,
 -83.04900;66.69565;-402.25195;,
 -83.04900;61.53985;-402.25195;,
 -93.73035;66.69565;-402.25195;,
 -93.73035;72.45050;-391.57071;,
 -83.04900;66.69565;-391.57071;,
 -83.04900;66.69565;-402.25195;,
 -104.03950;66.69565;-402.25195;,
 -104.03950;66.69565;-391.57071;,
 -93.73035;61.53985;-402.25195;,
 -93.73035;61.53985;-391.57071;,
 -104.03950;61.53985;-391.57071;,
 -104.03950;61.53985;-402.25195;,
 -83.04900;61.53985;-402.25195;,
 -83.04900;61.53985;-391.57071;,
 -93.73035;66.69565;-381.26160;,
 -93.73035;61.53985;-381.26160;,
 -93.73035;66.69565;-381.26160;,
 -93.73035;61.53985;-381.26160;,
 -83.04900;61.53985;-381.26160;,
 -83.04900;66.69565;-381.26160;,
 -104.03950;66.69565;-381.26160;,
 -104.03950;61.53985;-381.26160;,
 -104.03950;66.69565;393.28687;,
 -104.03950;66.69565;382.97775;,
 -104.03950;61.53985;382.97775;,
 -104.03950;61.53985;393.28687;,
 -104.03950;61.53985;403.96811;,
 -104.03950;66.69565;403.96811;,
 -83.04900;66.69565;393.28687;,
 -83.04900;66.69565;403.96811;,
 -83.04900;61.53985;403.96811;,
 -83.04900;61.53985;393.28687;,
 -83.04900;61.53985;382.97775;,
 -83.04900;66.69565;382.97775;,
 -93.73035;66.69565;403.96811;,
 -104.03950;66.69565;403.96811;,
 -104.03950;61.53985;403.96811;,
 -93.73035;61.53985;403.96811;,
 -83.04900;61.53985;403.96811;,
 -83.04900;66.69565;403.96811;,
 -93.73035;66.69565;403.96811;,
 -83.04900;66.69565;403.96811;,
 -83.04900;66.69565;393.28687;,
 -93.73035;72.45050;393.28687;,
 -104.03950;66.69565;393.28687;,
 -104.03950;66.69565;403.96811;,
 -93.73035;61.53985;403.96811;,
 -104.03950;61.53985;403.96811;,
 -104.03950;61.53985;393.28687;,
 -93.73035;61.53985;393.28687;,
 -83.04900;61.53985;393.28687;,
 -83.04900;61.53985;403.96811;,
 -93.73035;66.69565;382.97775;,
 -93.73035;61.53985;382.97775;,
 -93.73035;66.69565;382.97775;,
 -83.04900;66.69565;382.97775;,
 -83.04900;61.53985;382.97775;,
 -93.73035;61.53985;382.97775;,
 -104.03950;61.53985;382.97775;,
 -104.03950;66.69565;382.97775;;
 
 318;
 4;0,1,2,3;,
 4;4,5,6,7;,
 4;8,9,10,11;,
 4;12,13,14,9;,
 4;15,10,16,17;,
 4;18,19,16,14;,
 4;20,21,22,23;,
 4;24,25,26,27;,
 4;28,29,30,31;,
 4;32,33,34,35;,
 4;36,37,38,39;,
 4;36,39,21,20;,
 4;40,24,27,41;,
 4;40,41,42,43;,
 4;44,45,46,47;,
 4;44,47,29,28;,
 4;48,32,35,49;,
 4;48,49,50,51;,
 4;52,8,11,53;,
 4;52,53,38,37;,
 4;54,43,42,55;,
 4;54,55,13,12;,
 4;56,15,17,57;,
 4;56,57,46,45;,
 4;58,51,50,59;,
 4;58,59,19,18;,
 4;60,61,62,63;,
 4;64,65,66,67;,
 4;68,69,70,71;,
 4;72,73,74,75;,
 4;72,65,76,77;,
 4;78,79,66,75;,
 4;80,81,82,83;,
 4;84,85,86,87;,
 4;88,89,90,91;,
 4;92,93,94,95;,
 4;92,85,96,97;,
 4;98,99,86,95;,
 4;100,101,102,103;,
 4;104,105,106,107;,
 4;108,109,110,111;,
 4;112,113,114,115;,
 4;112,105,116,117;,
 4;118,119,106,115;,
 4;120,121,122,123;,
 4;124,125,126,127;,
 4;128,129,130,131;,
 4;132,133,134,135;,
 4;132,125,136,137;,
 4;138,139,126,135;,
 4;140,141,142,143;,
 4;144,145,146,147;,
 4;148,149,150,151;,
 4;152,153,154,155;,
 4;152,145,156,157;,
 4;158,159,146,155;,
 4;160,161,162,163;,
 4;164,165,166,167;,
 4;168,169,170,171;,
 4;172,173,174,175;,
 4;172,165,176,177;,
 4;178,179,166,175;,
 4;180,181,182,183;,
 4;184,185,186,187;,
 4;188,189,190,191;,
 4;192,193,194,195;,
 4;192,185,196,197;,
 4;198,199,186,195;,
 4;200,201,202,203;,
 4;204,205,206,207;,
 4;208,209,210,211;,
 4;212,213,214,215;,
 4;212,205,216,217;,
 4;218,219,206,215;,
 4;220,221,222,223;,
 4;224,225,226,227;,
 4;228,229,230,231;,
 4;232,233,234,235;,
 4;232,236,237,227;,
 4;238,233,226,239;,
 4;240,241,242,243;,
 4;244,245,246,247;,
 4;248,249,250,251;,
 4;252,253,254,255;,
 4;252,245,256,257;,
 4;258,259,246,255;,
 4;260,261,262,263;,
 4;264,265,266,267;,
 4;268,269,270,271;,
 4;272,273,274,275;,
 4;272,276,277,267;,
 4;278,273,266,279;,
 4;280,281,282,283;,
 4;284,285,286,287;,
 4;288,289,290,291;,
 4;292,293,294,295;,
 4;292,296,297,287;,
 4;298,293,286,299;,
 4;300,301,302,303;,
 4;304,305,306,307;,
 4;308,309,310,311;,
 4;312,313,314,315;,
 4;312,305,316,317;,
 4;318,319,306,315;,
 4;320,321,322,323;,
 4;324,325,326,327;,
 4;328,329,330,331;,
 4;332,333,334,335;,
 4;332,325,336,337;,
 4;338,339,326,335;,
 4;340,341,342,343;,
 4;344,345,346,347;,
 4;348,349,350,351;,
 4;352,353,354,355;,
 4;352,356,357,347;,
 4;358,353,346,359;,
 4;360,361,362,363;,
 4;364,365,366,367;,
 4;368,369,370,371;,
 4;372,373,374,375;,
 4;372,365,376,377;,
 4;378,379,366,375;,
 4;380,381,382,383;,
 4;384,385,386,387;,
 4;388,389,390,391;,
 4;392,393,394,395;,
 4;392,396,397,387;,
 4;398,393,386,399;,
 4;400,401,402,403;,
 4;404,405,406,407;,
 4;408,409,410,411;,
 4;412,413,414,415;,
 4;412,416,417,407;,
 4;418,413,406,419;,
 4;420,421,422,423;,
 4;424,425,426,427;,
 4;428,429,430,431;,
 4;432,433,434,435;,
 4;432,425,436,437;,
 4;438,439,426,435;,
 4;440,441,442,443;,
 4;440,443,444,445;,
 4;446,447,448,449;,
 4;446,449,450,451;,
 4;452,453,454,455;,
 4;452,455,456,457;,
 4;458,459,460,461;,
 4;458,461,462,463;,
 4;464,465,466,467;,
 4;464,467,468,469;,
 4;461,460,451,470;,
 4;461,470,441,462;,
 4;467,466,442,471;,
 4;467,471,450,468;,
 4;472,473,474,475;,
 4;472,475,476,477;,
 4;478,479,480,481;,
 4;478,482,483,479;,
 4;484,485,486,487;,
 4;484,488,489,485;,
 4;490,491,492,493;,
 4;490,494,495,491;,
 4;496,497,498,499;,
 4;496,500,501,497;,
 4;502,503,504,505;,
 4;502,506,507,503;,
 4;497,508,488,498;,
 4;497,501,481,508;,
 4;503,509,480,504;,
 4;503,507,489,509;,
 4;510,511,512,513;,
 4;510,514,515,511;,
 4;516,517,518,519;,
 4;520,521,522,523;,
 4;524,525,526,527;,
 4;528,529,530,531;,
 4;528,532,533,523;,
 4;534,529,522,535;,
 4;536,537,538,539;,
 4;540,541,542,543;,
 4;544,545,546,547;,
 4;548,549,550,551;,
 4;548,552,553,543;,
 4;554,549,542,555;,
 4;556,557,558,559;,
 4;560,561,562,563;,
 4;564,565,566,567;,
 4;568,569,570,571;,
 4;568,572,573,563;,
 4;574,569,562,575;,
 4;576,577,578,579;,
 4;580,581,582,583;,
 4;584,585,586,587;,
 4;588,589,590,591;,
 4;588,592,593,583;,
 4;594,589,582,595;,
 4;596,597,598,599;,
 4;600,601,602,603;,
 4;604,605,606,607;,
 4;608,609,610,611;,
 4;608,612,613,603;,
 4;614,609,602,615;,
 4;616,617,618,619;,
 4;620,621,622,623;,
 4;624,625,626,627;,
 4;628,629,630,631;,
 4;628,632,633,623;,
 4;634,629,622,635;,
 4;636,637,638,639;,
 4;640,641,642,643;,
 4;644,645,646,647;,
 4;648,649,650,651;,
 4;648,652,653,643;,
 4;654,649,642,655;,
 4;656,657,658,659;,
 4;660,661,662,663;,
 4;664,665,666,667;,
 4;668,669,670,671;,
 4;668,672,673,663;,
 4;674,669,662,675;,
 4;676,677,678,679;,
 4;680,681,682,683;,
 4;684,685,686,687;,
 4;688,689,690,691;,
 4;688,681,692,693;,
 4;694,695,682,691;,
 4;696,697,698,699;,
 4;700,701,702,703;,
 4;704,705,706,707;,
 4;708,709,710,711;,
 4;708,712,713,703;,
 4;714,709,702,715;,
 4;716,717,718,719;,
 4;720,721,722,723;,
 4;724,725,726,727;,
 4;728,729,730,731;,
 4;728,721,732,733;,
 4;734,735,722,731;,
 4;736,737,738,739;,
 4;740,741,742,743;,
 4;744,745,746,747;,
 4;748,749,750,751;,
 4;748,741,752,753;,
 4;754,755,742,751;,
 4;756,757,758,759;,
 4;760,761,762,763;,
 4;764,765,766,767;,
 4;768,769,770,771;,
 4;768,772,773,763;,
 4;774,769,762,775;,
 4;776,777,778,779;,
 4;780,781,782,783;,
 4;784,785,786,787;,
 4;788,789,790,791;,
 4;788,792,793,783;,
 4;794,789,782,795;,
 4;796,797,798,799;,
 4;800,801,802,803;,
 4;804,805,806,807;,
 4;808,809,810,811;,
 4;808,801,812,813;,
 4;814,815,802,811;,
 4;816,817,818,819;,
 4;820,821,822,823;,
 4;824,825,826,827;,
 4;828,829,830,831;,
 4;828,832,833,823;,
 4;834,829,822,835;,
 4;836,837,838,839;,
 4;840,841,842,843;,
 4;844,845,846,847;,
 4;848,849,850,851;,
 4;848,841,852,853;,
 4;854,855,842,851;,
 4;856,857,858,859;,
 4;860,861,862,863;,
 4;864,865,866,867;,
 4;868,869,870,871;,
 4;868,861,872,873;,
 4;874,875,862,871;,
 4;876,877,878,879;,
 4;880,881,882,883;,
 4;884,885,886,887;,
 4;888,889,890,891;,
 4;888,892,893,883;,
 4;894,889,882,895;,
 4;896,897,898,899;,
 4;896,900,901,897;,
 4;902,903,904,905;,
 4;902,906,907,903;,
 4;908,909,910,911;,
 4;908,912,913,909;,
 4;914,915,916,917;,
 4;914,918,919,915;,
 4;920,921,922,923;,
 4;920,924,925,921;,
 4;915,926,906,916;,
 4;915,919,899,926;,
 4;921,927,898,922;,
 4;921,925,907,927;,
 4;928,929,930,931;,
 4;928,932,933,929;,
 4;934,935,936,937;,
 4;934,937,938,939;,
 4;940,941,942,943;,
 4;940,943,944,945;,
 4;946,947,948,949;,
 4;946,949,950,951;,
 4;952,953,954,955;,
 4;952,955,956,957;,
 4;958,959,960,961;,
 4;958,961,962,963;,
 4;955,954,945,964;,
 4;955,964,935,956;,
 4;961,960,936,965;,
 4;961,965,944,962;,
 4;966,967,968,969;,
 4;966,969,970,971;;
 
 MeshMaterialList {
  3;
  318;
  0,
  0,
  0,
  0,
  0,
  0,
  0,
  0,
  0,
  0,
  0,
  0,
  0,
  0,
  0,
  0,
  0,
  0,
  0,
  0,
  0,
  0,
  0,
  0,
  0,
  0,
  1,
  1,
  1,
  1,
  1,
  1,
  1,
  1,
  1,
  1,
  1,
  1,
  1,
  1,
  1,
  1,
  1,
  1,
  1,
  1,
  1,
  1,
  1,
  1,
  1,
  1,
  1,
  1,
  1,
  1,
  1,
  1,
  1,
  1,
  1,
  1,
  1,
  1,
  1,
  1,
  1,
  1,
  1,
  1,
  1,
  1,
  1,
  1,
  1,
  1,
  1,
  1,
  1,
  1,
  1,
  1,
  1,
  1,
  1,
  1,
  1,
  1,
  1,
  1,
  1,
  1,
  1,
  1,
  1,
  1,
  1,
  1,
  1,
  1,
  1,
  1,
  1,
  1,
  1,
  1,
  1,
  1,
  1,
  1,
  1,
  1,
  1,
  1,
  1,
  1,
  1,
  1,
  1,
  1,
  1,
  1,
  1,
  1,
  1,
  1,
  1,
  1,
  1,
  1,
  1,
  1,
  1,
  1,
  1,
  1,
  1,
  1,
  1,
  1,
  2,
  2,
  2,
  2,
  2,
  2,
  2,
  2,
  2,
  2,
  2,
  2,
  2,
  2,
  2,
  2,
  2,
  2,
  2,
  2,
  2,
  2,
  2,
  2,
  2,
  2,
  2,
  2,
  2,
  2,
  2,
  2,
  1,
  1,
  1,
  1,
  1,
  1,
  1,
  1,
  1,
  1,
  1,
  1,
  1,
  1,
  1,
  1,
  1,
  1,
  1,
  1,
  1,
  1,
  1,
  1,
  1,
  1,
  1,
  1,
  1,
  1,
  1,
  1,
  1,
  1,
  1,
  1,
  1,
  1,
  1,
  1,
  1,
  1,
  1,
  1,
  1,
  1,
  1,
  1,
  1,
  1,
  1,
  1,
  1,
  1,
  1,
  1,
  1,
  1,
  1,
  1,
  1,
  1,
  1,
  1,
  1,
  1,
  1,
  1,
  1,
  1,
  1,
  1,
  1,
  1,
  1,
  1,
  1,
  1,
  1,
  1,
  1,
  1,
  1,
  1,
  1,
  1,
  1,
  1,
  1,
  1,
  1,
  1,
  1,
  1,
  1,
  1,
  1,
  1,
  1,
  1,
  1,
  1,
  1,
  1,
  1,
  1,
  1,
  1,
  1,
  1,
  1,
  1,
  1,
  1,
  2,
  2,
  2,
  2,
  2,
  2,
  2,
  2,
  2,
  2,
  2,
  2,
  2,
  2,
  2,
  2,
  2,
  2,
  2,
  2,
  2,
  2,
  2,
  2,
  2,
  2,
  2,
  2,
  2,
  2,
  2,
  2;;
  Material {
   0.708800;0.646400;0.542400;1.000000;;
   5.000000;
   0.000000;0.000000;0.000000;;
   0.000000;0.000000;0.000000;;
  }
  Material {
   0.235200;0.103200;0.088000;1.000000;;
   10.000000;
   0.680000;0.680000;0.680000;;
   0.000000;0.000000;0.000000;;
  }
  Material {
   0.420000;0.420000;0.420000;1.000000;;
   5.000000;
   0.430000;0.430000;0.430000;;
   0.000000;0.000000;0.000000;;
  }
 }
 MeshNormals {
  124;
  0.000000;0.000000;-1.000000;,
  0.000000;0.000000;1.000000;,
  1.000000;0.000000;0.000000;,
  0.000000;0.999996;0.002766;,
  0.000000;-0.999996;-0.002766;,
  0.000000;0.981465;0.191640;,
  0.000000;-0.981465;-0.191640;,
  0.000000;0.980789;-0.195073;,
  0.000000;-0.980789;0.195072;,
  0.000000;0.995928;-0.090158;,
  0.000000;-0.995928;0.090158;,
  0.000000;0.996313;0.085795;,
  0.000000;-0.996313;-0.085795;,
  0.000000;0.965965;0.258672;,
  0.000000;-0.965965;-0.258672;,
  -1.000000;0.000000;0.000000;,
  0.000000;0.967827;-0.251617;,
  0.000000;-0.967827;0.251617;,
  0.000000;0.000000;-1.000000;,
  1.000000;0.000000;0.000000;,
  0.000000;0.000000;1.000000;,
  -0.000187;0.064061;0.997946;,
  0.999983;0.005786;-0.000186;,
  0.000186;-0.064077;-0.997945;,
  -0.000187;0.064061;-0.997946;,
  0.999983;0.005786;0.000186;,
  0.000186;-0.064077;0.997945;,
  -0.000060;0.042133;0.999112;,
  0.999988;0.004805;0.000074;,
  0.000185;-0.064077;-0.997945;,
  -0.000060;0.042133;-0.999112;,
  0.999988;0.004805;-0.000074;,
  0.000185;-0.064077;0.997945;,
  -1.000000;0.000000;0.000000;,
  0.003664;0.999987;0.003664;,
  0.000000;-1.000000;-0.000000;,
  0.003555;0.971059;0.238815;,
  0.003664;0.999987;-0.003664;,
  0.003555;0.971059;-0.238815;,
  0.000187;0.064061;0.997946;,
  -0.999983;0.005786;-0.000186;,
  -0.000186;-0.064077;-0.997945;,
  0.000187;0.064061;-0.997946;,
  -0.999983;0.005786;0.000186;,
  -0.000186;-0.064077;0.997945;,
  0.000060;0.042133;0.999112;,
  -0.999988;0.004805;0.000074;,
  -0.000185;-0.064077;-0.997945;,
  0.000060;0.042133;-0.999112;,
  -0.999988;0.004805;-0.000074;,
  -0.000185;-0.064077;0.997945;,
  -0.003664;0.999987;0.003664;,
  -0.003555;0.971059;0.238815;,
  -0.003664;0.999987;-0.003664;,
  -0.003555;0.971059;-0.238815;,
  0.000000;1.000000;0.000000;,
  0.000000;0.998724;0.050502;,
  0.000000;-0.999997;-0.002457;,
  0.000000;0.998917;-0.046535;,
  0.000000;-0.999997;0.002264;,
  0.000000;0.993631;0.112681;,
  0.000000;-0.990543;-0.137204;,
  0.000000;0.992900;-0.118948;,
  0.000000;-0.989463;0.144784;,
  -0.999983;-0.005786;0.000186;,
  -0.005696;0.978135;-0.207892;,
  0.005693;-0.978135;0.207892;,
  -0.999983;-0.005786;-0.000186;,
  -0.005696;0.978135;0.207892;,
  0.005693;-0.978135;-0.207892;,
  0.000000;0.999436;0.033568;,
  0.000000;-0.999436;-0.033568;,
  0.000000;0.999522;-0.030927;,
  0.000000;-0.999522;0.030928;,
  0.000000;0.988947;0.148270;,
  0.000000;-0.986877;-0.161476;,
  0.000000;0.987689;-0.156433;,
  0.000000;-0.985388;0.170326;,
  -0.999988;-0.004807;-0.000100;,
  -0.005693;0.978135;-0.207892;,
  0.005715;-0.983174;0.182581;,
  -0.999988;-0.004807;0.000100;,
  -0.005693;0.978135;0.207892;,
  0.005715;-0.983174;-0.182581;,
  0.003567;0.972766;-0.231760;,
  -0.226154;0.947474;-0.226156;,
  -0.231758;0.972767;0.003567;,
  0.238814;0.971059;0.003555;,
  0.233099;0.946071;-0.224978;,
  -0.224976;0.946071;0.233100;,
  0.231899;0.944693;0.231900;,
  0.003567;0.972766;0.231760;,
  -0.231758;0.972767;-0.003567;,
  -0.226154;0.947474;0.226156;,
  0.233099;0.946071;0.224978;,
  0.238814;0.971059;-0.003555;,
  -0.224976;0.946071;-0.233100;,
  0.231899;0.944693;-0.231900;,
  0.999983;-0.005786;0.000186;,
  0.005696;0.978135;-0.207892;,
  -0.005693;-0.978135;0.207892;,
  0.999983;-0.005786;-0.000186;,
  0.005696;0.978135;0.207892;,
  -0.005693;-0.978135;-0.207892;,
  0.999988;-0.004807;-0.000100;,
  0.005693;0.978135;-0.207892;,
  -0.005715;-0.983174;0.182581;,
  0.999988;-0.004807;0.000100;,
  0.005693;0.978135;0.207892;,
  -0.005715;-0.983174;-0.182581;,
  -0.003567;0.972766;-0.231760;,
  0.231758;0.972767;0.003567;,
  0.226154;0.947474;-0.226156;,
  -0.233099;0.946071;-0.224978;,
  -0.238814;0.971059;0.003555;,
  0.224976;0.946071;0.233100;,
  -0.231899;0.944693;0.231900;,
  -0.003567;0.972766;0.231760;,
  0.226154;0.947474;0.226156;,
  0.231758;0.972767;-0.003567;,
  -0.238814;0.971059;-0.003555;,
  -0.233099;0.946071;0.224978;,
  0.224976;0.946071;-0.233100;,
  -0.231899;0.944693;-0.231900;;
  318;
  4;0,0,0,0;,
  4;1,1,1,1;,
  4;2,2,2,2;,
  4;5,5,13,13;,
  4;6,14,14,6;,
  4;15,15,15,15;,
  4;2,2,2,2;,
  4;7,16,16,7;,
  4;8,8,17,17;,
  4;15,15,15,15;,
  4;2,2,2,2;,
  4;2,2,2,2;,
  4;9,7,7,9;,
  4;9,9,3,3;,
  4;10,4,4,10;,
  4;10,10,8,8;,
  4;15,15,15,15;,
  4;15,15,15,15;,
  4;2,2,2,2;,
  4;2,2,2,2;,
  4;11,3,3,11;,
  4;11,11,5,5;,
  4;12,6,6,12;,
  4;12,12,4,4;,
  4;15,15,15,15;,
  4;15,15,15,15;,
  4;18,18,18,18;,
  4;19,19,19,19;,
  4;20,20,20,20;,
  4;33,33,33,33;,
  4;55,55,55,55;,
  4;35,35,35,35;,
  4;18,18,18,18;,
  4;19,19,19,19;,
  4;20,20,20,20;,
  4;33,33,33,33;,
  4;55,55,55,55;,
  4;35,35,35,35;,
  4;18,18,18,18;,
  4;19,19,19,19;,
  4;20,20,20,20;,
  4;33,33,33,33;,
  4;55,55,55,55;,
  4;35,35,35,35;,
  4;18,18,18,18;,
  4;19,19,19,19;,
  4;20,20,20,20;,
  4;33,33,33,33;,
  4;55,55,55,55;,
  4;35,35,35,35;,
  4;18,18,18,18;,
  4;19,19,19,19;,
  4;20,20,20,20;,
  4;33,33,33,33;,
  4;55,55,55,55;,
  4;35,35,35,35;,
  4;18,18,18,18;,
  4;19,19,19,19;,
  4;20,20,20,20;,
  4;33,33,33,33;,
  4;55,55,55,55;,
  4;35,35,35,35;,
  4;18,18,18,18;,
  4;19,19,19,19;,
  4;20,20,20,20;,
  4;33,33,33,33;,
  4;55,55,55,55;,
  4;35,35,35,35;,
  4;18,18,18,18;,
  4;19,19,19,19;,
  4;20,20,20,20;,
  4;33,33,33,33;,
  4;56,56,56,56;,
  4;57,57,57,57;,
  4;20,20,20,20;,
  4;19,19,19,19;,
  4;18,18,18,18;,
  4;33,33,33,33;,
  4;58,58,58,58;,
  4;59,59,59,59;,
  4;18,18,18,18;,
  4;19,19,19,19;,
  4;20,20,20,20;,
  4;33,33,33,33;,
  4;60,60,60,60;,
  4;61,61,61,61;,
  4;20,20,20,20;,
  4;19,19,19,19;,
  4;18,18,18,18;,
  4;33,33,33,33;,
  4;62,62,62,62;,
  4;63,63,63,63;,
  4;21,21,21,21;,
  4;22,22,22,22;,
  4;23,23,23,23;,
  4;64,64,64,64;,
  4;65,65,65,65;,
  4;66,66,66,66;,
  4;24,24,24,24;,
  4;25,25,25,25;,
  4;26,26,26,26;,
  4;67,67,67,67;,
  4;68,68,68,68;,
  4;69,69,69,69;,
  4;18,18,18,18;,
  4;19,19,19,19;,
  4;20,20,20,20;,
  4;33,33,33,33;,
  4;70,70,70,70;,
  4;71,71,71,71;,
  4;20,20,20,20;,
  4;19,19,19,19;,
  4;18,18,18,18;,
  4;33,33,33,33;,
  4;72,72,72,72;,
  4;73,73,73,73;,
  4;18,18,18,18;,
  4;19,19,19,19;,
  4;20,20,20,20;,
  4;33,33,33,33;,
  4;74,74,74,74;,
  4;75,75,75,75;,
  4;20,20,20,20;,
  4;19,19,19,19;,
  4;18,18,18,18;,
  4;33,33,33,33;,
  4;76,76,76,76;,
  4;77,77,77,77;,
  4;27,27,27,27;,
  4;28,28,28,28;,
  4;29,29,29,29;,
  4;78,78,78,78;,
  4;79,79,79,79;,
  4;80,80,80,80;,
  4;30,30,30,30;,
  4;31,31,31,31;,
  4;32,32,32,32;,
  4;81,81,81,81;,
  4;82,82,82,82;,
  4;83,83,83,83;,
  4;19,19,19,19;,
  4;19,19,19,19;,
  4;33,33,33,33;,
  4;33,33,33,33;,
  4;18,18,18,18;,
  4;18,18,18,18;,
  4;84,85,86,34;,
  4;84,34,87,88;,
  4;35,35,35,35;,
  4;35,35,35,35;,
  4;34,86,89,36;,
  4;34,36,90,87;,
  4;35,35,35,35;,
  4;35,35,35,35;,
  4;20,20,20,20;,
  4;20,20,20,20;,
  4;19,19,19,19;,
  4;19,19,19,19;,
  4;33,33,33,33;,
  4;33,33,33,33;,
  4;20,20,20,20;,
  4;20,20,20,20;,
  4;91,37,92,93;,
  4;91,94,95,37;,
  4;35,35,35,35;,
  4;35,35,35,35;,
  4;37,38,96,92;,
  4;37,95,97,38;,
  4;35,35,35,35;,
  4;35,35,35,35;,
  4;18,18,18,18;,
  4;18,18,18,18;,
  4;18,18,18,18;,
  4;33,33,33,33;,
  4;20,20,20,20;,
  4;19,19,19,19;,
  4;55,55,55,55;,
  4;35,35,35,35;,
  4;18,18,18,18;,
  4;33,33,33,33;,
  4;20,20,20,20;,
  4;19,19,19,19;,
  4;55,55,55,55;,
  4;35,35,35,35;,
  4;18,18,18,18;,
  4;33,33,33,33;,
  4;20,20,20,20;,
  4;19,19,19,19;,
  4;55,55,55,55;,
  4;35,35,35,35;,
  4;18,18,18,18;,
  4;33,33,33,33;,
  4;20,20,20,20;,
  4;19,19,19,19;,
  4;55,55,55,55;,
  4;35,35,35,35;,
  4;18,18,18,18;,
  4;33,33,33,33;,
  4;20,20,20,20;,
  4;19,19,19,19;,
  4;55,55,55,55;,
  4;35,35,35,35;,
  4;18,18,18,18;,
  4;33,33,33,33;,
  4;20,20,20,20;,
  4;19,19,19,19;,
  4;55,55,55,55;,
  4;35,35,35,35;,
  4;18,18,18,18;,
  4;33,33,33,33;,
  4;20,20,20,20;,
  4;19,19,19,19;,
  4;55,55,55,55;,
  4;35,35,35,35;,
  4;18,18,18,18;,
  4;33,33,33,33;,
  4;20,20,20,20;,
  4;19,19,19,19;,
  4;56,56,56,56;,
  4;57,57,57,57;,
  4;20,20,20,20;,
  4;33,33,33,33;,
  4;18,18,18,18;,
  4;19,19,19,19;,
  4;58,58,58,58;,
  4;59,59,59,59;,
  4;18,18,18,18;,
  4;33,33,33,33;,
  4;20,20,20,20;,
  4;19,19,19,19;,
  4;60,60,60,60;,
  4;61,61,61,61;,
  4;20,20,20,20;,
  4;33,33,33,33;,
  4;18,18,18,18;,
  4;19,19,19,19;,
  4;62,62,62,62;,
  4;63,63,63,63;,
  4;39,39,39,39;,
  4;40,40,40,40;,
  4;41,41,41,41;,
  4;98,98,98,98;,
  4;99,99,99,99;,
  4;100,100,100,100;,
  4;42,42,42,42;,
  4;43,43,43,43;,
  4;44,44,44,44;,
  4;101,101,101,101;,
  4;102,102,102,102;,
  4;103,103,103,103;,
  4;18,18,18,18;,
  4;33,33,33,33;,
  4;20,20,20,20;,
  4;19,19,19,19;,
  4;70,70,70,70;,
  4;71,71,71,71;,
  4;20,20,20,20;,
  4;33,33,33,33;,
  4;18,18,18,18;,
  4;19,19,19,19;,
  4;72,72,72,72;,
  4;73,73,73,73;,
  4;18,18,18,18;,
  4;33,33,33,33;,
  4;20,20,20,20;,
  4;19,19,19,19;,
  4;74,74,74,74;,
  4;75,75,75,75;,
  4;20,20,20,20;,
  4;33,33,33,33;,
  4;18,18,18,18;,
  4;19,19,19,19;,
  4;76,76,76,76;,
  4;77,77,77,77;,
  4;45,45,45,45;,
  4;46,46,46,46;,
  4;47,47,47,47;,
  4;104,104,104,104;,
  4;105,105,105,105;,
  4;106,106,106,106;,
  4;48,48,48,48;,
  4;49,49,49,49;,
  4;50,50,50,50;,
  4;107,107,107,107;,
  4;108,108,108,108;,
  4;109,109,109,109;,
  4;33,33,33,33;,
  4;33,33,33,33;,
  4;19,19,19,19;,
  4;19,19,19,19;,
  4;18,18,18,18;,
  4;18,18,18,18;,
  4;110,51,111,112;,
  4;110,113,114,51;,
  4;35,35,35,35;,
  4;35,35,35,35;,
  4;51,52,115,111;,
  4;51,114,116,52;,
  4;35,35,35,35;,
  4;35,35,35,35;,
  4;20,20,20,20;,
  4;20,20,20,20;,
  4;33,33,33,33;,
  4;33,33,33,33;,
  4;19,19,19,19;,
  4;19,19,19,19;,
  4;20,20,20,20;,
  4;20,20,20,20;,
  4;117,118,119,53;,
  4;117,53,120,121;,
  4;35,35,35,35;,
  4;35,35,35,35;,
  4;53,119,122,54;,
  4;53,54,123,120;,
  4;35,35,35,35;,
  4;35,35,35,35;,
  4;18,18,18,18;,
  4;18,18,18,18;;
 }
 MeshTextureCoords {
  972;
  0.000000;0.000000;,
  1.000000;0.000000;,
  1.000000;1.000000;,
  0.000000;1.000000;,
  0.000000;0.000000;,
  1.000000;0.000000;,
  1.000000;1.000000;,
  0.000000;1.000000;,
  0.899100;0.000000;,
  1.000000;0.000000;,
  1.000000;1.000000;,
  0.899100;1.000000;,
  1.000000;0.100900;,
  0.000000;0.100900;,
  0.000000;0.000000;,
  1.000000;0.899100;,
  0.000000;1.000000;,
  0.000000;0.899100;,
  0.100900;0.000000;,
  0.100900;1.000000;,
  0.104620;0.000000;,
  0.104620;1.000000;,
  0.000000;1.000000;,
  0.000000;0.000000;,
  1.000000;0.895380;,
  1.000000;1.000000;,
  0.000000;1.000000;,
  0.000000;0.895380;,
  1.000000;0.104620;,
  0.000000;0.104620;,
  0.000000;0.000000;,
  1.000000;0.000000;,
  0.895380;0.000000;,
  1.000000;0.000000;,
  1.000000;1.000000;,
  0.895380;1.000000;,
  0.327720;0.000000;,
  0.498760;0.000000;,
  0.498760;1.000000;,
  0.327720;1.000000;,
  1.000000;0.672280;,
  0.000000;0.672280;,
  0.000000;0.501240;,
  1.000000;0.501240;,
  1.000000;0.327720;,
  1.000000;0.498760;,
  0.000000;0.498760;,
  0.000000;0.327720;,
  0.672280;0.000000;,
  0.672280;1.000000;,
  0.501240;1.000000;,
  0.501240;0.000000;,
  0.649970;0.000000;,
  0.649970;1.000000;,
  1.000000;0.350030;,
  0.000000;0.350030;,
  1.000000;0.649970;,
  0.000000;0.649970;,
  0.350030;0.000000;,
  0.350030;1.000000;,
  0.000000;0.000000;,
  1.000000;0.000000;,
  1.000000;1.000000;,
  0.000000;1.000000;,
  0.000000;0.000000;,
  1.000000;0.000000;,
  1.000000;1.000000;,
  0.000000;1.000000;,
  0.000000;0.000000;,
  1.000000;0.000000;,
  1.000000;1.000000;,
  0.000000;1.000000;,
  0.000000;0.000000;,
  1.000000;0.000000;,
  1.000000;1.000000;,
  0.000000;1.000000;,
  1.000000;1.000000;,
  0.000000;1.000000;,
  0.000000;0.000000;,
  1.000000;0.000000;,
  0.000000;0.000000;,
  1.000000;0.000000;,
  1.000000;1.000000;,
  0.000000;1.000000;,
  0.000000;0.000000;,
  1.000000;0.000000;,
  1.000000;1.000000;,
  0.000000;1.000000;,
  0.000000;0.000000;,
  1.000000;0.000000;,
  1.000000;1.000000;,
  0.000000;1.000000;,
  0.000000;0.000000;,
  1.000000;0.000000;,
  1.000000;1.000000;,
  0.000000;1.000000;,
  1.000000;1.000000;,
  0.000000;1.000000;,
  0.000000;0.000000;,
  1.000000;0.000000;,
  0.000000;0.000000;,
  1.000000;0.000000;,
  1.000000;1.000000;,
  0.000000;1.000000;,
  0.000000;0.000000;,
  1.000000;0.000000;,
  1.000000;1.000000;,
  0.000000;1.000000;,
  0.000000;0.000000;,
  1.000000;0.000000;,
  1.000000;1.000000;,
  0.000000;1.000000;,
  0.000000;0.000000;,
  1.000000;0.000000;,
  1.000000;1.000000;,
  0.000000;1.000000;,
  1.000000;1.000000;,
  0.000000;1.000000;,
  0.000000;0.000000;,
  1.000000;0.000000;,
  0.000000;0.000000;,
  1.000000;0.000000;,
  1.000000;1.000000;,
  0.000000;1.000000;,
  0.000000;0.000000;,
  1.000000;0.000000;,
  1.000000;1.000000;,
  0.000000;1.000000;,
  0.000000;0.000000;,
  1.000000;0.000000;,
  1.000000;1.000000;,
  0.000000;1.000000;,
  0.000000;0.000000;,
  1.000000;0.000000;,
  1.000000;1.000000;,
  0.000000;1.000000;,
  1.000000;1.000000;,
  0.000000;1.000000;,
  0.000000;0.000000;,
  1.000000;0.000000;,
  0.000000;0.000000;,
  1.000000;0.000000;,
  1.000000;1.000000;,
  0.000000;1.000000;,
  0.000000;0.000000;,
  1.000000;0.000000;,
  1.000000;1.000000;,
  0.000000;1.000000;,
  0.000000;0.000000;,
  1.000000;0.000000;,
  1.000000;1.000000;,
  0.000000;1.000000;,
  0.000000;0.000000;,
  1.000000;0.000000;,
  1.000000;1.000000;,
  0.000000;1.000000;,
  1.000000;1.000000;,
  0.000000;1.000000;,
  0.000000;0.000000;,
  1.000000;0.000000;,
  0.000000;0.000000;,
  1.000000;0.000000;,
  1.000000;1.000000;,
  0.000000;1.000000;,
  0.000000;0.000000;,
  1.000000;0.000000;,
  1.000000;1.000000;,
  0.000000;1.000000;,
  0.000000;0.000000;,
  1.000000;0.000000;,
  1.000000;1.000000;,
  0.000000;1.000000;,
  0.000000;0.000000;,
  1.000000;0.000000;,
  1.000000;1.000000;,
  0.000000;1.000000;,
  1.000000;1.000000;,
  0.000000;1.000000;,
  0.000000;0.000000;,
  1.000000;0.000000;,
  0.000000;0.000000;,
  1.000000;0.000000;,
  1.000000;1.000000;,
  0.000000;1.000000;,
  0.000000;0.000000;,
  1.000000;0.000000;,
  1.000000;1.000000;,
  0.000000;1.000000;,
  0.000000;0.000000;,
  1.000000;0.000000;,
  1.000000;1.000000;,
  0.000000;1.000000;,
  0.000000;0.000000;,
  1.000000;0.000000;,
  1.000000;1.000000;,
  0.000000;1.000000;,
  1.000000;1.000000;,
  0.000000;1.000000;,
  0.000000;0.000000;,
  1.000000;0.000000;,
  0.000000;0.000000;,
  1.000000;0.000000;,
  1.000000;1.000000;,
  0.000000;1.000000;,
  0.000000;0.000000;,
  1.000000;0.000000;,
  1.000000;1.000000;,
  0.000000;1.000000;,
  0.000000;0.000000;,
  1.000000;0.000000;,
  1.000000;1.000000;,
  0.000000;1.000000;,
  0.000000;0.000000;,
  1.000000;0.000000;,
  1.000000;1.000000;,
  0.000000;1.000000;,
  1.000000;1.000000;,
  0.000000;1.000000;,
  0.000000;0.000000;,
  1.000000;0.000000;,
  0.000000;0.000000;,
  0.000000;1.000000;,
  1.000000;1.000000;,
  1.000000;0.000000;,
  0.000000;0.000000;,
  0.000000;1.000000;,
  1.000000;1.000000;,
  1.000000;0.000000;,
  0.000000;0.000000;,
  0.000000;1.000000;,
  1.000000;1.000000;,
  1.000000;0.000000;,
  0.000000;0.000000;,
  0.000000;1.000000;,
  1.000000;1.000000;,
  1.000000;0.000000;,
  0.000000;1.000000;,
  1.000000;1.000000;,
  0.000000;0.000000;,
  1.000000;0.000000;,
  0.000000;0.000000;,
  1.000000;0.000000;,
  1.000000;1.000000;,
  0.000000;1.000000;,
  0.000000;0.000000;,
  1.000000;0.000000;,
  1.000000;1.000000;,
  0.000000;1.000000;,
  0.000000;0.000000;,
  1.000000;0.000000;,
  1.000000;1.000000;,
  0.000000;1.000000;,
  0.000000;0.000000;,
  1.000000;0.000000;,
  1.000000;1.000000;,
  0.000000;1.000000;,
  1.000000;1.000000;,
  0.000000;1.000000;,
  0.000000;0.000000;,
  1.000000;0.000000;,
  0.000000;0.000000;,
  0.000000;1.000000;,
  1.000000;1.000000;,
  1.000000;0.000000;,
  0.000000;0.000000;,
  0.000000;1.000000;,
  1.000000;1.000000;,
  1.000000;0.000000;,
  0.000000;0.000000;,
  0.000000;1.000000;,
  1.000000;1.000000;,
  1.000000;0.000000;,
  0.000000;0.000000;,
  0.000000;1.000000;,
  1.000000;1.000000;,
  1.000000;0.000000;,
  0.000000;1.000000;,
  1.000000;1.000000;,
  0.000000;0.000000;,
  1.000000;0.000000;,
  0.000000;0.000000;,
  0.000000;1.000000;,
  1.000000;1.000000;,
  1.000000;0.000000;,
  0.000000;0.000000;,
  0.000000;1.000000;,
  1.000000;1.000000;,
  1.000000;0.000000;,
  0.000000;0.000000;,
  0.000000;1.000000;,
  1.000000;1.000000;,
  1.000000;0.000000;,
  0.000000;0.000000;,
  0.000000;1.000000;,
  1.000000;1.000000;,
  1.000000;0.000000;,
  0.000000;1.000000;,
  1.000000;1.000000;,
  0.000000;0.000000;,
  1.000000;0.000000;,
  0.000000;0.000000;,
  1.000000;0.000000;,
  1.000000;1.000000;,
  0.000000;1.000000;,
  0.000000;0.000000;,
  1.000000;0.000000;,
  1.000000;1.000000;,
  0.000000;1.000000;,
  0.000000;0.000000;,
  1.000000;0.000000;,
  1.000000;1.000000;,
  0.000000;1.000000;,
  0.000000;0.000000;,
  1.000000;0.000000;,
  1.000000;1.000000;,
  0.000000;1.000000;,
  1.000000;1.000000;,
  0.000000;1.000000;,
  0.000000;0.000000;,
  1.000000;0.000000;,
  0.000000;0.000000;,
  1.000000;0.000000;,
  1.000000;1.000000;,
  0.000000;1.000000;,
  0.000000;0.000000;,
  1.000000;0.000000;,
  1.000000;1.000000;,
  0.000000;1.000000;,
  0.000000;0.000000;,
  1.000000;0.000000;,
  1.000000;1.000000;,
  0.000000;1.000000;,
  0.000000;0.000000;,
  1.000000;0.000000;,
  1.000000;1.000000;,
  0.000000;1.000000;,
  1.000000;1.000000;,
  0.000000;1.000000;,
  0.000000;0.000000;,
  1.000000;0.000000;,
  0.000000;0.000000;,
  0.000000;1.000000;,
  1.000000;1.000000;,
  1.000000;0.000000;,
  0.000000;0.000000;,
  0.000000;1.000000;,
  1.000000;1.000000;,
  1.000000;0.000000;,
  0.000000;0.000000;,
  0.000000;1.000000;,
  1.000000;1.000000;,
  1.000000;0.000000;,
  0.000000;0.000000;,
  0.000000;1.000000;,
  1.000000;1.000000;,
  1.000000;0.000000;,
  0.000000;1.000000;,
  1.000000;1.000000;,
  0.000000;0.000000;,
  1.000000;0.000000;,
  0.000000;0.000000;,
  1.000000;0.000000;,
  1.000000;1.000000;,
  0.000000;1.000000;,
  0.000000;0.000000;,
  1.000000;0.000000;,
  1.000000;1.000000;,
  0.000000;1.000000;,
  0.000000;0.000000;,
  1.000000;0.000000;,
  1.000000;1.000000;,
  0.000000;1.000000;,
  0.000000;0.000000;,
  1.000000;0.000000;,
  1.000000;1.000000;,
  0.000000;1.000000;,
  1.000000;1.000000;,
  0.000000;1.000000;,
  0.000000;0.000000;,
  1.000000;0.000000;,
  0.000000;0.000000;,
  0.000000;1.000000;,
  1.000000;1.000000;,
  1.000000;0.000000;,
  0.000000;0.000000;,
  0.000000;1.000000;,
  1.000000;1.000000;,
  1.000000;0.000000;,
  0.000000;0.000000;,
  0.000000;1.000000;,
  1.000000;1.000000;,
  1.000000;0.000000;,
  0.000000;0.000000;,
  0.000000;1.000000;,
  1.000000;1.000000;,
  1.000000;0.000000;,
  0.000000;1.000000;,
  1.000000;1.000000;,
  0.000000;0.000000;,
  1.000000;0.000000;,
  0.000000;0.000000;,
  0.000000;1.000000;,
  1.000000;1.000000;,
  1.000000;0.000000;,
  0.000000;0.000000;,
  0.000000;1.000000;,
  1.000000;1.000000;,
  1.000000;0.000000;,
  0.000000;0.000000;,
  0.000000;1.000000;,
  1.000000;1.000000;,
  1.000000;0.000000;,
  0.000000;0.000000;,
  0.000000;1.000000;,
  1.000000;1.000000;,
  1.000000;0.000000;,
  0.000000;1.000000;,
  1.000000;1.000000;,
  0.000000;0.000000;,
  1.000000;0.000000;,
  0.000000;0.000000;,
  1.000000;0.000000;,
  1.000000;1.000000;,
  0.000000;1.000000;,
  0.000000;0.000000;,
  1.000000;0.000000;,
  1.000000;1.000000;,
  0.000000;1.000000;,
  0.000000;0.000000;,
  1.000000;0.000000;,
  1.000000;1.000000;,
  0.000000;1.000000;,
  0.000000;0.000000;,
  1.000000;0.000000;,
  1.000000;1.000000;,
  0.000000;1.000000;,
  1.000000;1.000000;,
  0.000000;1.000000;,
  0.000000;0.000000;,
  1.000000;0.000000;,
  0.508870;0.000000;,
  1.000000;0.000000;,
  1.000000;1.000000;,
  0.508870;1.000000;,
  0.000000;1.000000;,
  0.000000;0.000000;,
  0.491130;0.000000;,
  1.000000;0.000000;,
  1.000000;1.000000;,
  0.491130;1.000000;,
  0.000000;1.000000;,
  0.000000;0.000000;,
  0.508870;0.000000;,
  1.000000;0.000000;,
  1.000000;1.000000;,
  0.508870;1.000000;,
  0.000000;1.000000;,
  0.000000;0.000000;,
  0.508870;1.000000;,
  0.000000;1.000000;,
  0.000000;0.491130;,
  0.508870;0.491130;,
  1.000000;0.491130;,
  1.000000;1.000000;,
  0.508870;0.000000;,
  1.000000;0.000000;,
  1.000000;0.508870;,
  0.508870;0.508870;,
  0.000000;0.508870;,
  0.000000;0.000000;,
  0.508870;0.000000;,
  0.508870;1.000000;,
  0.491130;0.000000;,
  1.000000;0.000000;,
  1.000000;1.000000;,
  0.491130;1.000000;,
  0.000000;1.000000;,
  0.000000;0.000000;,
  0.508870;0.000000;,
  0.508870;1.000000;,
  1.000000;1.000000;,
  1.000000;0.000000;,
  0.000000;0.000000;,
  0.000000;1.000000;,
  0.491130;0.000000;,
  0.491130;1.000000;,
  1.000000;1.000000;,
  1.000000;0.000000;,
  0.000000;0.000000;,
  0.000000;1.000000;,
  0.508870;0.000000;,
  0.508870;1.000000;,
  1.000000;1.000000;,
  1.000000;0.000000;,
  0.000000;0.000000;,
  0.000000;1.000000;,
  0.508870;1.000000;,
  0.508870;0.491130;,
  0.000000;0.491130;,
  0.000000;1.000000;,
  1.000000;1.000000;,
  1.000000;0.491130;,
  0.508870;0.000000;,
  0.508870;0.508870;,
  1.000000;0.508870;,
  1.000000;0.000000;,
  0.000000;0.000000;,
  0.000000;0.508870;,
  0.508870;0.000000;,
  0.508870;1.000000;,
  0.491130;0.000000;,
  0.491130;1.000000;,
  1.000000;1.000000;,
  1.000000;0.000000;,
  0.000000;0.000000;,
  0.000000;1.000000;,
  0.000000;0.000000;,
  0.000000;1.000000;,
  1.000000;1.000000;,
  1.000000;0.000000;,
  0.000000;0.000000;,
  0.000000;1.000000;,
  1.000000;1.000000;,
  1.000000;0.000000;,
  0.000000;0.000000;,
  0.000000;1.000000;,
  1.000000;1.000000;,
  1.000000;0.000000;,
  0.000000;0.000000;,
  0.000000;1.000000;,
  1.000000;1.000000;,
  1.000000;0.000000;,
  0.000000;1.000000;,
  1.000000;1.000000;,
  0.000000;0.000000;,
  1.000000;0.000000;,
  0.000000;0.000000;,
  0.000000;1.000000;,
  1.000000;1.000000;,
  1.000000;0.000000;,
  0.000000;0.000000;,
  0.000000;1.000000;,
  1.000000;1.000000;,
  1.000000;0.000000;,
  0.000000;0.000000;,
  0.000000;1.000000;,
  1.000000;1.000000;,
  1.000000;0.000000;,
  0.000000;0.000000;,
  0.000000;1.000000;,
  1.000000;1.000000;,
  1.000000;0.000000;,
  0.000000;1.000000;,
  1.000000;1.000000;,
  0.000000;0.000000;,
  1.000000;0.000000;,
  0.000000;0.000000;,
  0.000000;1.000000;,
  1.000000;1.000000;,
  1.000000;0.000000;,
  0.000000;0.000000;,
  0.000000;1.000000;,
  1.000000;1.000000;,
  1.000000;0.000000;,
  0.000000;0.000000;,
  0.000000;1.000000;,
  1.000000;1.000000;,
  1.000000;0.000000;,
  0.000000;0.000000;,
  0.000000;1.000000;,
  1.000000;1.000000;,
  1.000000;0.000000;,
  0.000000;1.000000;,
  1.000000;1.000000;,
  0.000000;0.000000;,
  1.000000;0.000000;,
  0.000000;0.000000;,
  0.000000;1.000000;,
  1.000000;1.000000;,
  1.000000;0.000000;,
  0.000000;0.000000;,
  0.000000;1.000000;,
  1.000000;1.000000;,
  1.000000;0.000000;,
  0.000000;0.000000;,
  0.000000;1.000000;,
  1.000000;1.000000;,
  1.000000;0.000000;,
  0.000000;0.000000;,
  0.000000;1.000000;,
  1.000000;1.000000;,
  1.000000;0.000000;,
  0.000000;1.000000;,
  1.000000;1.000000;,
  0.000000;0.000000;,
  1.000000;0.000000;,
  0.000000;0.000000;,
  0.000000;1.000000;,
  1.000000;1.000000;,
  1.000000;0.000000;,
  0.000000;0.000000;,
  0.000000;1.000000;,
  1.000000;1.000000;,
  1.000000;0.000000;,
  0.000000;0.000000;,
  0.000000;1.000000;,
  1.000000;1.000000;,
  1.000000;0.000000;,
  0.000000;0.000000;,
  0.000000;1.000000;,
  1.000000;1.000000;,
  1.000000;0.000000;,
  0.000000;1.000000;,
  1.000000;1.000000;,
  0.000000;0.000000;,
  1.000000;0.000000;,
  0.000000;0.000000;,
  0.000000;1.000000;,
  1.000000;1.000000;,
  1.000000;0.000000;,
  0.000000;0.000000;,
  0.000000;1.000000;,
  1.000000;1.000000;,
  1.000000;0.000000;,
  0.000000;0.000000;,
  0.000000;1.000000;,
  1.000000;1.000000;,
  1.000000;0.000000;,
  0.000000;0.000000;,
  0.000000;1.000000;,
  1.000000;1.000000;,
  1.000000;0.000000;,
  0.000000;1.000000;,
  1.000000;1.000000;,
  0.000000;0.000000;,
  1.000000;0.000000;,
  0.000000;0.000000;,
  0.000000;1.000000;,
  1.000000;1.000000;,
  1.000000;0.000000;,
  0.000000;0.000000;,
  0.000000;1.000000;,
  1.000000;1.000000;,
  1.000000;0.000000;,
  0.000000;0.000000;,
  0.000000;1.000000;,
  1.000000;1.000000;,
  1.000000;0.000000;,
  0.000000;0.000000;,
  0.000000;1.000000;,
  1.000000;1.000000;,
  1.000000;0.000000;,
  0.000000;1.000000;,
  1.000000;1.000000;,
  0.000000;0.000000;,
  1.000000;0.000000;,
  0.000000;0.000000;,
  0.000000;1.000000;,
  1.000000;1.000000;,
  1.000000;0.000000;,
  0.000000;0.000000;,
  0.000000;1.000000;,
  1.000000;1.000000;,
  1.000000;0.000000;,
  0.000000;0.000000;,
  0.000000;1.000000;,
  1.000000;1.000000;,
  1.000000;0.000000;,
  0.000000;0.000000;,
  0.000000;1.000000;,
  1.000000;1.000000;,
  1.000000;0.000000;,
  0.000000;1.000000;,
  1.000000;1.000000;,
  0.000000;0.000000;,
  1.000000;0.000000;,
  0.000000;0.000000;,
  1.000000;0.000000;,
  1.000000;1.000000;,
  0.000000;1.000000;,
  0.000000;0.000000;,
  1.000000;0.000000;,
  1.000000;1.000000;,
  0.000000;1.000000;,
  0.000000;0.000000;,
  1.000000;0.000000;,
  1.000000;1.000000;,
  0.000000;1.000000;,
  0.000000;0.000000;,
  1.000000;0.000000;,
  1.000000;1.000000;,
  0.000000;1.000000;,
  1.000000;1.000000;,
  0.000000;1.000000;,
  0.000000;0.000000;,
  1.000000;0.000000;,
  0.000000;0.000000;,
  0.000000;1.000000;,
  1.000000;1.000000;,
  1.000000;0.000000;,
  0.000000;0.000000;,
  0.000000;1.000000;,
  1.000000;1.000000;,
  1.000000;0.000000;,
  0.000000;0.000000;,
  0.000000;1.000000;,
  1.000000;1.000000;,
  1.000000;0.000000;,
  0.000000;0.000000;,
  0.000000;1.000000;,
  1.000000;1.000000;,
  1.000000;0.000000;,
  0.000000;1.000000;,
  1.000000;1.000000;,
  0.000000;0.000000;,
  1.000000;0.000000;,
  0.000000;0.000000;,
  1.000000;0.000000;,
  1.000000;1.000000;,
  0.000000;1.000000;,
  0.000000;0.000000;,
  1.000000;0.000000;,
  1.000000;1.000000;,
  0.000000;1.000000;,
  0.000000;0.000000;,
  1.000000;0.000000;,
  1.000000;1.000000;,
  0.000000;1.000000;,
  0.000000;0.000000;,
  1.000000;0.000000;,
  1.000000;1.000000;,
  0.000000;1.000000;,
  1.000000;1.000000;,
  0.000000;1.000000;,
  0.000000;0.000000;,
  1.000000;0.000000;,
  0.000000;0.000000;,
  1.000000;0.000000;,
  1.000000;1.000000;,
  0.000000;1.000000;,
  0.000000;0.000000;,
  1.000000;0.000000;,
  1.000000;1.000000;,
  0.000000;1.000000;,
  0.000000;0.000000;,
  1.000000;0.000000;,
  1.000000;1.000000;,
  0.000000;1.000000;,
  0.000000;0.000000;,
  1.000000;0.000000;,
  1.000000;1.000000;,
  0.000000;1.000000;,
  1.000000;1.000000;,
  0.000000;1.000000;,
  0.000000;0.000000;,
  1.000000;0.000000;,
  0.000000;0.000000;,
  0.000000;1.000000;,
  1.000000;1.000000;,
  1.000000;0.000000;,
  0.000000;0.000000;,
  0.000000;1.000000;,
  1.000000;1.000000;,
  1.000000;0.000000;,
  0.000000;0.000000;,
  0.000000;1.000000;,
  1.000000;1.000000;,
  1.000000;0.000000;,
  0.000000;0.000000;,
  0.000000;1.000000;,
  1.000000;1.000000;,
  1.000000;0.000000;,
  0.000000;1.000000;,
  1.000000;1.000000;,
  0.000000;0.000000;,
  1.000000;0.000000;,
  0.000000;0.000000;,
  0.000000;1.000000;,
  1.000000;1.000000;,
  1.000000;0.000000;,
  0.000000;0.000000;,
  0.000000;1.000000;,
  1.000000;1.000000;,
  1.000000;0.000000;,
  0.000000;0.000000;,
  0.000000;1.000000;,
  1.000000;1.000000;,
  1.000000;0.000000;,
  0.000000;0.000000;,
  0.000000;1.000000;,
  1.000000;1.000000;,
  1.000000;0.000000;,
  0.000000;1.000000;,
  1.000000;1.000000;,
  0.000000;0.000000;,
  1.000000;0.000000;,
  0.000000;0.000000;,
  1.000000;0.000000;,
  1.000000;1.000000;,
  0.000000;1.000000;,
  0.000000;0.000000;,
  1.000000;0.000000;,
  1.000000;1.000000;,
  0.000000;1.000000;,
  0.000000;0.000000;,
  1.000000;0.000000;,
  1.000000;1.000000;,
  0.000000;1.000000;,
  0.000000;0.000000;,
  1.000000;0.000000;,
  1.000000;1.000000;,
  0.000000;1.000000;,
  1.000000;1.000000;,
  0.000000;1.000000;,
  0.000000;0.000000;,
  1.000000;0.000000;,
  0.000000;0.000000;,
  0.000000;1.000000;,
  1.000000;1.000000;,
  1.000000;0.000000;,
  0.000000;0.000000;,
  0.000000;1.000000;,
  1.000000;1.000000;,
  1.000000;0.000000;,
  0.000000;0.000000;,
  0.000000;1.000000;,
  1.000000;1.000000;,
  1.000000;0.000000;,
  0.000000;0.000000;,
  0.000000;1.000000;,
  1.000000;1.000000;,
  1.000000;0.000000;,
  0.000000;1.000000;,
  1.000000;1.000000;,
  0.000000;0.000000;,
  1.000000;0.000000;,
  0.000000;0.000000;,
  1.000000;0.000000;,
  1.000000;1.000000;,
  0.000000;1.000000;,
  0.000000;0.000000;,
  1.000000;0.000000;,
  1.000000;1.000000;,
  0.000000;1.000000;,
  0.000000;0.000000;,
  1.000000;0.000000;,
  1.000000;1.000000;,
  0.000000;1.000000;,
  0.000000;0.000000;,
  1.000000;0.000000;,
  1.000000;1.000000;,
  0.000000;1.000000;,
  1.000000;1.000000;,
  0.000000;1.000000;,
  0.000000;0.000000;,
  1.000000;0.000000;,
  0.000000;0.000000;,
  1.000000;0.000000;,
  1.000000;1.000000;,
  0.000000;1.000000;,
  0.000000;0.000000;,
  1.000000;0.000000;,
  1.000000;1.000000;,
  0.000000;1.000000;,
  0.000000;0.000000;,
  1.000000;0.000000;,
  1.000000;1.000000;,
  0.000000;1.000000;,
  0.000000;0.000000;,
  1.000000;0.000000;,
  1.000000;1.000000;,
  0.000000;1.000000;,
  1.000000;1.000000;,
  0.000000;1.000000;,
  0.000000;0.000000;,
  1.000000;0.000000;,
  0.000000;0.000000;,
  0.000000;1.000000;,
  1.000000;1.000000;,
  1.000000;0.000000;,
  0.000000;0.000000;,
  0.000000;1.000000;,
  1.000000;1.000000;,
  1.000000;0.000000;,
  0.000000;0.000000;,
  0.000000;1.000000;,
  1.000000;1.000000;,
  1.000000;0.000000;,
  0.000000;0.000000;,
  0.000000;1.000000;,
  1.000000;1.000000;,
  1.000000;0.000000;,
  0.000000;1.000000;,
  1.000000;1.000000;,
  0.000000;0.000000;,
  1.000000;0.000000;,
  0.508870;0.000000;,
  0.508870;1.000000;,
  1.000000;1.000000;,
  1.000000;0.000000;,
  0.000000;0.000000;,
  0.000000;1.000000;,
  0.491130;0.000000;,
  0.491130;1.000000;,
  1.000000;1.000000;,
  1.000000;0.000000;,
  0.000000;0.000000;,
  0.000000;1.000000;,
  0.508870;0.000000;,
  0.508870;1.000000;,
  1.000000;1.000000;,
  1.000000;0.000000;,
  0.000000;0.000000;,
  0.000000;1.000000;,
  0.508870;1.000000;,
  0.508870;0.491130;,
  0.000000;0.491130;,
  0.000000;1.000000;,
  1.000000;1.000000;,
  1.000000;0.491130;,
  0.508870;0.000000;,
  0.508870;0.508870;,
  1.000000;0.508870;,
  1.000000;0.000000;,
  0.000000;0.000000;,
  0.000000;0.508870;,
  0.508870;0.000000;,
  0.508870;1.000000;,
  0.491130;0.000000;,
  0.491130;1.000000;,
  1.000000;1.000000;,
  1.000000;0.000000;,
  0.000000;0.000000;,
  0.000000;1.000000;,
  0.508870;0.000000;,
  1.000000;0.000000;,
  1.000000;1.000000;,
  0.508870;1.000000;,
  0.000000;1.000000;,
  0.000000;0.000000;,
  0.491130;0.000000;,
  1.000000;0.000000;,
  1.000000;1.000000;,
  0.491130;1.000000;,
  0.000000;1.000000;,
  0.000000;0.000000;,
  0.508870;0.000000;,
  1.000000;0.000000;,
  1.000000;1.000000;,
  0.508870;1.000000;,
  0.000000;1.000000;,
  0.000000;0.000000;,
  0.508870;1.000000;,
  0.000000;1.000000;,
  0.000000;0.491130;,
  0.508870;0.491130;,
  1.000000;0.491130;,
  1.000000;1.000000;,
  0.508870;0.000000;,
  1.000000;0.000000;,
  1.000000;0.508870;,
  0.508870;0.508870;,
  0.000000;0.508870;,
  0.000000;0.000000;,
  0.508870;0.000000;,
  0.508870;1.000000;,
  0.491130;0.000000;,
  1.000000;0.000000;,
  1.000000;1.000000;,
  0.491130;1.000000;,
  0.000000;1.000000;,
  0.000000;0.000000;;
 }
}
