xof 0302txt 0064
template Header {
 <3D82AB43-62DA-11cf-AB39-0020AF71E433>
 WORD major;
 WORD minor;
 DWORD flags;
}

template Vector {
 <3D82AB5E-62DA-11cf-AB39-0020AF71E433>
 FLOAT x;
 FLOAT y;
 FLOAT z;
}

template Coords2d {
 <F6F23F44-7686-11cf-8F52-0040333594A3>
 FLOAT u;
 FLOAT v;
}

template Matrix4x4 {
 <F6F23F45-7686-11cf-8F52-0040333594A3>
 array FLOAT matrix[16];
}

template ColorRGBA {
 <35FF44E0-6C7C-11cf-8F52-0040333594A3>
 FLOAT red;
 FLOAT green;
 FLOAT blue;
 FLOAT alpha;
}

template ColorRGB {
 <D3E16E81-7835-11cf-8F52-0040333594A3>
 FLOAT red;
 FLOAT green;
 FLOAT blue;
}

template IndexedColor {
 <1630B820-7842-11cf-8F52-0040333594A3>
 DWORD index;
 ColorRGBA indexColor;
}

template Boolean {
 <4885AE61-78E8-11cf-8F52-0040333594A3>
 WORD truefalse;
}

template Boolean2d {
 <4885AE63-78E8-11cf-8F52-0040333594A3>
 Boolean u;
 Boolean v;
}

template MaterialWrap {
 <4885AE60-78E8-11cf-8F52-0040333594A3>
 Boolean u;
 Boolean v;
}

template TextureFilename {
 <A42790E1-7810-11cf-8F52-0040333594A3>
 STRING filename;
}

template Material {
 <3D82AB4D-62DA-11cf-AB39-0020AF71E433>
 ColorRGBA faceColor;
 FLOAT power;
 ColorRGB specularColor;
 ColorRGB emissiveColor;
 [...]
}

template MeshFace {
 <3D82AB5F-62DA-11cf-AB39-0020AF71E433>
 DWORD nFaceVertexIndices;
 array DWORD faceVertexIndices[nFaceVertexIndices];
}

template MeshFaceWraps {
 <4885AE62-78E8-11cf-8F52-0040333594A3>
 DWORD nFaceWrapValues;
 Boolean2d faceWrapValues;
}

template MeshTextureCoords {
 <F6F23F40-7686-11cf-8F52-0040333594A3>
 DWORD nTextureCoords;
 array Coords2d textureCoords[nTextureCoords];
}

template MeshMaterialList {
 <F6F23F42-7686-11cf-8F52-0040333594A3>
 DWORD nMaterials;
 DWORD nFaceIndexes;
 array DWORD faceIndexes[nFaceIndexes];
 [Material]
}

template MeshNormals {
 <F6F23F43-7686-11cf-8F52-0040333594A3>
 DWORD nNormals;
 array Vector normals[nNormals];
 DWORD nFaceNormals;
 array MeshFace faceNormals[nFaceNormals];
}

template MeshVertexColors {
 <1630B821-7842-11cf-8F52-0040333594A3>
 DWORD nVertexColors;
 array IndexedColor vertexColors[nVertexColors];
}

template Mesh {
 <3D82AB44-62DA-11cf-AB39-0020AF71E433>
 DWORD nVertices;
 array Vector vertices[nVertices];
 DWORD nFaces;
 array MeshFace faces[nFaces];
 [...]
}

Header{
1;
0;
1;
}

Mesh {
 230;
 -26.34006;133.71285;-88.22334;,
 -17.89337;133.71285;-88.22334;,
 -17.89337;-4.21285;-88.22334;,
 -26.34006;-4.21285;-88.22334;,
 -17.89337;133.71285;-88.22334;,
 -17.89337;133.71285;-79.77665;,
 -17.89337;-4.21285;-79.77665;,
 -17.89337;-4.21285;-88.22334;,
 -17.89337;133.71285;-79.77665;,
 -26.34006;133.71285;-79.77665;,
 -26.34006;-4.21285;-79.77665;,
 -17.89337;-4.21285;-79.77665;,
 -26.34006;133.71285;-79.77665;,
 -26.34006;133.71285;-88.22334;,
 -26.34006;-4.21285;-88.22334;,
 -26.34006;-4.21285;-79.77665;,
 -17.89337;133.71285;-88.22334;,
 -26.34006;133.71285;-88.22334;,
 -26.34006;-4.21285;-88.22334;,
 -17.89337;-4.21285;-88.22334;,
 67.29236;133.71285;-88.22334;,
 75.73909;133.71285;-88.22334;,
 75.73909;-4.21285;-88.22334;,
 67.29236;-4.21285;-88.22334;,
 75.73909;133.71285;-88.22334;,
 75.73909;133.71285;-79.77665;,
 75.73909;-4.21285;-79.77665;,
 75.73909;-4.21285;-88.22334;,
 75.73909;133.71285;-79.77665;,
 67.29236;133.71285;-79.77665;,
 67.29236;-4.21285;-79.77665;,
 75.73909;-4.21285;-79.77665;,
 67.29236;133.71285;-79.77665;,
 67.29236;133.71285;-88.22334;,
 67.29236;-4.21285;-88.22334;,
 67.29236;-4.21285;-79.77665;,
 75.73909;133.71285;-88.22334;,
 67.29236;133.71285;-88.22334;,
 67.29236;-4.21285;-88.22334;,
 75.73909;-4.21285;-88.22334;,
 160.27665;133.71285;-88.22334;,
 168.72335;133.71285;-88.22334;,
 168.72335;-4.21285;-88.22334;,
 160.27665;-4.21285;-88.22334;,
 168.72335;133.71285;-88.22334;,
 168.72335;133.71285;-79.77665;,
 168.72335;-4.21285;-79.77665;,
 168.72335;-4.21285;-88.22334;,
 168.72335;133.71285;-79.77665;,
 160.27665;133.71285;-79.77665;,
 160.27665;-4.21285;-79.77665;,
 168.72335;-4.21285;-79.77665;,
 160.27665;133.71285;-79.77665;,
 160.27665;133.71285;-88.22334;,
 160.27665;-4.21285;-88.22334;,
 160.27665;-4.21285;-79.77665;,
 168.72335;133.71285;-88.22334;,
 160.27665;133.71285;-88.22334;,
 160.27665;-4.21285;-88.22334;,
 168.72335;-4.21285;-88.22334;,
 -28.08368;137.30853;-101.23802;,
 189.08367;137.30853;-101.23802;,
 189.08367;128.69153;-101.23802;,
 -28.08368;128.69153;-101.23802;,
 189.08367;137.30853;-101.23802;,
 189.08367;137.30853;-66.76201;,
 189.08367;128.69153;-66.76201;,
 189.08367;128.69153;-101.23802;,
 189.08367;137.30853;-66.76201;,
 -28.08368;137.30853;-66.76201;,
 -28.08368;128.69153;-66.76201;,
 189.08367;128.69153;-66.76201;,
 -28.08368;137.30853;-66.76201;,
 -28.08368;137.30853;-101.23802;,
 -28.08368;128.69153;-101.23802;,
 -28.08368;128.69153;-66.76201;,
 189.08367;137.30853;-101.23802;,
 -28.08368;137.30853;-101.23802;,
 -28.08368;128.69153;-101.23802;,
 189.08367;128.69153;-101.23802;,
 -54.48663;137.79437;-128.81708;,
 205.78197;137.79437;-128.81708;,
 205.78197;124.97954;-125.26321;,
 -54.48663;124.97954;-125.26321;,
 205.78197;183.02056;37.76321;,
 -54.48663;183.02056;37.76321;,
 -54.48663;170.20573;37.81708;,
 205.78197;170.20573;37.81708;,
 205.78197;171.94481;2.51338;,
 205.78197;183.02056;37.76321;,
 205.78197;170.20573;37.81708;,
 205.78197;162.27211;9.20937;,
 205.78197;124.97954;-125.26321;,
 205.78197;137.79437;-128.81708;,
 205.78197;171.94481;2.51338;,
 205.78197;137.79437;-128.81708;,
 -54.48663;137.79437;-128.81708;,
 -54.48663;171.94481;2.51338;,
 205.78197;162.27211;9.20937;,
 -54.48663;170.20573;37.81708;,
 -54.48663;162.27211;9.20937;,
 -54.48663;124.97954;-125.26321;,
 205.78197;124.97954;-125.26321;,
 -54.48663;171.94481;2.51338;,
 -54.48663;137.79437;-128.81708;,
 -54.48663;124.97954;-125.26321;,
 -54.48663;162.27211;9.20937;,
 -54.48663;183.02056;37.76321;,
 -54.48663;181.23728;3.94989;,
 205.78197;181.23728;3.94989;,
 -54.48663;189.17090;38.26582;,
 205.78197;189.17090;38.26582;,
 -22.39163;-5.25367;32.33625;,
 6.11884;-5.25367;211.15160;,
 -256.97128;-5.25367;211.15160;,
 -256.97128;-5.25367;32.33625;,
 6.11884;-5.25367;377.51678;,
 -256.97128;-5.25367;377.51678;,
 -22.68252;247.05285;32.33625;,
 -256.97128;247.05285;32.33625;,
 -256.97128;376.44772;211.15160;,
 6.11884;376.44772;211.15160;,
 -256.97128;247.05285;377.51678;,
 6.11884;247.05285;377.51678;,
 106.65773;-5.25367;32.33625;,
 199.29940;-5.25367;32.33625;,
 199.29940;-5.25367;211.15160;,
 95.34724;-5.25367;211.15160;,
 199.29940;-5.25367;377.51678;,
 95.34724;-5.25367;377.51678;,
 95.34724;247.05285;32.33625;,
 95.34724;376.44772;211.15160;,
 199.29940;376.44772;211.15160;,
 199.29940;247.05285;32.33625;,
 95.34724;247.05285;377.51678;,
 199.29940;247.05285;377.51678;,
 -22.39163;150.37092;32.33625;,
 -256.97128;-5.25367;32.33625;,
 -256.97128;247.05285;32.33625;,
 -22.68252;247.05285;32.33625;,
 95.34724;247.05285;32.33625;,
 106.65773;150.37092;32.33625;,
 -256.97128;-5.25367;32.33625;,
 -256.97128;-5.25367;211.15160;,
 -256.97128;376.44772;211.15160;,
 -256.97128;247.05285;32.33625;,
 199.29940;247.05285;32.33625;,
 199.29940;-5.25367;32.33625;,
 -256.97128;-5.25367;377.51678;,
 199.29940;-5.25367;32.33625;,
 199.29940;247.05285;32.33625;,
 199.29940;376.44772;211.15160;,
 199.29940;-5.25367;211.15160;,
 -256.97128;-5.25367;377.51678;,
 6.11884;-5.25367;377.51678;,
 6.11884;247.05285;377.51678;,
 -256.97128;247.05285;377.51678;,
 199.29940;-5.25367;377.51678;,
 95.34724;-5.25367;377.51678;,
 95.34724;247.05285;377.51678;,
 199.29940;-5.25367;377.51678;,
 199.29940;247.05285;377.51678;,
 106.65773;150.37092;91.68649;,
 -22.39163;150.37092;91.68649;,
 106.65773;-5.25367;91.68649;,
 106.65773;-5.25367;32.33625;,
 -13.59519;-5.25367;91.68649;,
 -22.39163;-5.25367;32.33625;,
 -256.97128;-5.25367;32.33625;,
 199.29940;-5.25367;32.33625;,
 -273.05560;219.79395;-25.81957;,
 216.56722;219.79395;-25.81957;,
 216.56722;207.16934;-12.68676;,
 -273.05560;207.16934;-12.68676;,
 216.56722;219.79395;-25.81957;,
 216.56722;388.53657;199.11191;,
 216.56722;375.91200;212.24475;,
 216.56722;207.16934;-12.68676;,
 216.56722;388.53657;199.11191;,
 -273.05560;388.53657;199.11191;,
 -273.05560;375.91200;212.24475;,
 216.56722;375.91200;212.24475;,
 -273.05560;388.53657;199.11191;,
 -273.05560;219.79395;-25.81957;,
 -273.05560;207.16934;-12.68676;,
 -273.05560;375.91200;212.24475;,
 216.56722;219.79395;-25.81957;,
 -273.05560;219.79395;-25.81957;,
 -273.05560;207.16934;-12.68676;,
 216.56722;207.16934;-12.68676;,
 -273.05560;219.79395;444.40284;,
 -273.05560;207.16934;431.27006;,
 216.56722;207.16934;431.27006;,
 216.56722;219.79395;444.40284;,
 216.56722;219.79395;444.40284;,
 216.56722;207.16934;431.27006;,
 216.56722;375.91200;206.33850;,
 216.56722;388.53657;219.47132;,
 216.56722;388.53657;219.47132;,
 216.56722;375.91200;206.33850;,
 -273.05560;375.91200;206.33850;,
 -273.05560;388.53657;219.47132;,
 -273.05560;388.53657;219.47132;,
 -273.05560;375.91200;206.33850;,
 -273.05560;207.16934;431.27006;,
 -273.05560;219.79395;444.40284;,
 -273.05560;219.79395;444.40284;,
 216.56722;219.79395;444.40284;,
 -273.05560;207.16934;431.27006;,
 216.56722;207.16934;431.27006;,
 -273.39994;405.20596;194.45629;,
 216.22290;405.20596;194.45629;,
 216.22290;374.61954;194.45629;,
 -273.39994;374.61954;194.45629;,
 216.22290;405.20596;194.45629;,
 216.22290;405.20596;222.83804;,
 216.22290;374.61954;222.83804;,
 216.22290;374.61954;194.45629;,
 216.22290;405.20596;222.83804;,
 -273.39994;405.20596;222.83804;,
 -273.39994;374.61954;222.83804;,
 216.22290;374.61954;222.83804;,
 -273.39994;405.20596;222.83804;,
 -273.39994;405.20596;194.45629;,
 -273.39994;374.61954;194.45629;,
 -273.39994;374.61954;222.83804;,
 216.22290;405.20596;194.45629;,
 -273.39994;405.20596;194.45629;,
 -273.39994;374.61954;194.45629;,
 216.22290;374.61954;194.45629;;
 
 85;
 4;0,1,2,3;,
 4;4,5,6,7;,
 4;8,9,10,11;,
 4;12,13,14,15;,
 4;12,5,16,17;,
 4;18,19,6,15;,
 4;20,21,22,23;,
 4;24,25,26,27;,
 4;28,29,30,31;,
 4;32,33,34,35;,
 4;32,25,36,37;,
 4;38,39,26,35;,
 4;40,41,42,43;,
 4;44,45,46,47;,
 4;48,49,50,51;,
 4;52,53,54,55;,
 4;52,45,56,57;,
 4;58,59,46,55;,
 4;60,61,62,63;,
 4;64,65,66,67;,
 4;68,69,70,71;,
 4;72,73,74,75;,
 4;72,65,76,77;,
 4;78,79,66,75;,
 4;80,81,82,83;,
 4;84,85,86,87;,
 4;88,89,90,91;,
 4;88,91,92,93;,
 4;94,95,96,97;,
 4;98,90,99,100;,
 4;98,100,101,102;,
 4;103,104,105,106;,
 4;103,106,99,107;,
 4;108,109,94,97;,
 4;110,108,97,107;,
 4;111,110,107,89;,
 4;109,111,89,94;,
 4;109,108,110,111;,
 4;112,113,114,115;,
 4;113,116,117,114;,
 4;118,119,120,121;,
 4;121,120,122,123;,
 4;124,125,126,127;,
 4;124,127,113,112;,
 4;127,126,128,129;,
 4;127,129,116,113;,
 4;130,118,121,131;,
 4;130,131,132,133;,
 4;131,121,123,134;,
 4;131,134,135,132;,
 4;136,137,138,139;,
 4;136,139,140,141;,
 4;142,143,144,145;,
 4;141,140,146,147;,
 4;143,148,122,144;,
 4;149,150,151,152;,
 4;153,154,155,156;,
 4;152,151,135,157;,
 4;154,158,159,155;,
 4;160,161,159,158;,
 4;162,163,136,141;,
 4;164,162,141,165;,
 4;166,164,165,167;,
 4;163,166,167,136;,
 4;163,162,164,166;,
 3;168,136,167;,
 3;169,165,141;,
 4;170,171,172,173;,
 4;174,175,176,177;,
 4;178,179,180,181;,
 4;182,183,184,185;,
 4;182,175,186,187;,
 4;188,189,176,185;,
 4;190,191,192,193;,
 4;194,195,196,197;,
 4;198,199,200,201;,
 4;202,203,204,205;,
 4;202,206,207,197;,
 4;208,203,196,209;,
 4;210,211,212,213;,
 4;214,215,216,217;,
 4;218,219,220,221;,
 4;222,223,224,225;,
 4;222,215,226,227;,
 4;228,229,216,225;;
 
 MeshMaterialList {
  3;
  85;
  0,
  0,
  0,
  0,
  0,
  0,
  0,
  0,
  0,
  0,
  0,
  0,
  0,
  0,
  0,
  0,
  0,
  0,
  0,
  0,
  0,
  0,
  0,
  0,
  1,
  1,
  1,
  1,
  1,
  1,
  1,
  1,
  1,
  1,
  1,
  1,
  1,
  1,
  2,
  2,
  2,
  2,
  2,
  2,
  2,
  2,
  2,
  2,
  2,
  2,
  2,
  2,
  2,
  2,
  2,
  2,
  2,
  2,
  2,
  2,
  2,
  2,
  2,
  2,
  2,
  2,
  2,
  1,
  1,
  1,
  1,
  1,
  1,
  1,
  1,
  1,
  1,
  1,
  1,
  1,
  1,
  1,
  1,
  1,
  1;;
  Material {
   0.684000;0.574400;0.360800;1.000000;;
   5.000000;
   0.000000;0.000000;0.000000;;
   0.000000;0.000000;0.000000;;
  }
  Material {
   0.432800;0.135200;0.235200;1.000000;;
   5.000000;
   0.000000;0.000000;0.000000;;
   0.000000;0.000000;0.000000;;
  }
  Material {
   0.116000;0.056800;0.053600;1.000000;;
   5.000000;
   0.000000;0.000000;0.000000;;
   0.000000;0.000000;0.000000;;
  }
 }
 MeshNormals {
  51;
  0.000000;0.000000;-1.000000;,
  1.000000;0.000000;0.000000;,
  0.000000;0.000000;1.000000;,
  -1.000000;0.000000;0.000000;,
  0.000000;1.000000;0.000000;,
  0.000000;-1.000000;-0.000000;,
  0.000000;-0.267238;-0.963630;,
  0.000000;-0.038658;0.999253;,
  0.000000;0.004203;0.999991;,
  1.000000;0.000000;0.000000;,
  0.000000;0.967814;-0.251665;,
  0.000000;-0.963630;0.267238;,
  0.000000;-0.081448;0.996678;,
  -1.000000;0.000000;0.000000;,
  0.000000;0.152774;-0.988261;,
  0.000000;-0.963630;0.267238;,
  0.000000;-0.963630;0.267239;,
  0.000000;0.974301;-0.225252;,
  0.000000;0.454843;-0.890572;,
  0.000000;0.454843;-0.890572;,
  0.000000;0.439352;0.898315;,
  0.000000;0.810140;-0.586236;,
  0.000000;0.810140;-0.586236;,
  0.000000;-1.000000;-0.000000;,
  0.000000;0.454843;-0.890572;,
  0.000000;0.810140;-0.586236;,
  0.000000;0.000000;-1.000000;,
  0.000000;1.000000;0.000000;,
  -1.000000;0.000000;0.000000;,
  0.000000;0.789353;0.613940;,
  0.000000;0.789353;0.613940;,
  0.000000;0.789353;0.613940;,
  1.000000;0.000000;0.000000;,
  0.000000;0.000000;1.000000;,
  0.996908;0.027999;-0.073418;,
  0.000000;-0.720918;-0.693021;,
  1.000000;0.000000;0.000000;,
  0.000000;0.720920;0.693018;,
  0.000000;-0.720917;0.693021;,
  0.000000;0.720919;-0.693019;,
  -1.000000;0.000000;0.000000;,
  0.000000;0.799925;-0.600100;,
  0.000000;-0.799925;0.600100;,
  0.000000;0.799925;0.600100;,
  0.000000;-0.799925;-0.600100;,
  0.000000;0.000000;-1.000000;,
  1.000000;0.000000;0.000000;,
  0.000000;0.000000;1.000000;,
  -1.000000;0.000000;0.000000;,
  0.000000;1.000000;0.000000;,
  0.000000;-1.000000;-0.000000;;
  85;
  4;0,0,0,0;,
  4;1,1,1,1;,
  4;2,2,2,2;,
  4;3,3,3,3;,
  4;4,4,4,4;,
  4;5,5,5,5;,
  4;0,0,0,0;,
  4;1,1,1,1;,
  4;2,2,2,2;,
  4;3,3,3,3;,
  4;4,4,4,4;,
  4;5,5,5,5;,
  4;0,0,0,0;,
  4;1,1,1,1;,
  4;2,2,2,2;,
  4;3,3,3,3;,
  4;4,4,4,4;,
  4;5,5,5,5;,
  4;0,0,0,0;,
  4;1,1,1,1;,
  4;2,2,2,2;,
  4;3,3,3,3;,
  4;4,4,4,4;,
  4;5,5,5,5;,
  4;6,6,6,6;,
  4;7,7,8,8;,
  4;9,9,9,9;,
  4;9,9,9,9;,
  4;10,10,10,10;,
  4;11,15,15,11;,
  4;11,11,16,16;,
  4;13,13,13,13;,
  4;13,13,13,13;,
  4;14,14,14,14;,
  4;13,13,13,13;,
  4;12,12,7,7;,
  4;9,9,9,9;,
  4;17,17,17,17;,
  4;23,23,23,23;,
  4;23,23,23,23;,
  4;24,18,22,21;,
  4;29,30,20,20;,
  4;23,23,23,23;,
  4;23,23,23,23;,
  4;23,23,23,23;,
  4;23,23,23,23;,
  4;18,24,21,25;,
  4;18,25,21,19;,
  4;31,29,20,20;,
  4;31,20,20,31;,
  4;26,26,18,24;,
  4;26,24,18,26;,
  4;28,28,28,28;,
  4;26,18,19,26;,
  4;28,28,28,28;,
  4;32,32,32,32;,
  4;33,33,20,20;,
  4;32,32,32,32;,
  4;33,33,20,20;,
  4;33,20,20,33;,
  4;23,23,23,23;,
  4;28,28,28,28;,
  4;27,27,27,27;,
  4;34,34,34,34;,
  4;26,26,26,26;,
  3;26,26,26;,
  3;26,26,26;,
  4;35,35,35,35;,
  4;36,36,36,36;,
  4;37,37,37,37;,
  4;40,40,40,40;,
  4;41,41,41,41;,
  4;42,42,42,42;,
  4;38,38,38,38;,
  4;36,36,36,36;,
  4;39,39,39,39;,
  4;40,40,40,40;,
  4;43,43,43,43;,
  4;44,44,44,44;,
  4;45,45,45,45;,
  4;46,46,46,46;,
  4;47,47,47,47;,
  4;48,48,48,48;,
  4;49,49,49,49;,
  4;50,50,50,50;;
 }
 MeshTextureCoords {
  230;
  0.000000;0.000000;,
  1.000000;0.000000;,
  1.000000;1.000000;,
  0.000000;1.000000;,
  0.000000;0.000000;,
  1.000000;0.000000;,
  1.000000;1.000000;,
  0.000000;1.000000;,
  0.000000;0.000000;,
  1.000000;0.000000;,
  1.000000;1.000000;,
  0.000000;1.000000;,
  0.000000;0.000000;,
  1.000000;0.000000;,
  1.000000;1.000000;,
  0.000000;1.000000;,
  1.000000;1.000000;,
  0.000000;1.000000;,
  0.000000;0.000000;,
  1.000000;0.000000;,
  0.000000;0.000000;,
  1.000000;0.000000;,
  1.000000;1.000000;,
  0.000000;1.000000;,
  0.000000;0.000000;,
  1.000000;0.000000;,
  1.000000;1.000000;,
  0.000000;1.000000;,
  0.000000;0.000000;,
  1.000000;0.000000;,
  1.000000;1.000000;,
  0.000000;1.000000;,
  0.000000;0.000000;,
  1.000000;0.000000;,
  1.000000;1.000000;,
  0.000000;1.000000;,
  1.000000;1.000000;,
  0.000000;1.000000;,
  0.000000;0.000000;,
  1.000000;0.000000;,
  0.000000;0.000000;,
  1.000000;0.000000;,
  1.000000;1.000000;,
  0.000000;1.000000;,
  0.000000;0.000000;,
  1.000000;0.000000;,
  1.000000;1.000000;,
  0.000000;1.000000;,
  0.000000;0.000000;,
  1.000000;0.000000;,
  1.000000;1.000000;,
  0.000000;1.000000;,
  0.000000;0.000000;,
  1.000000;0.000000;,
  1.000000;1.000000;,
  0.000000;1.000000;,
  1.000000;1.000000;,
  0.000000;1.000000;,
  0.000000;0.000000;,
  1.000000;0.000000;,
  0.000000;0.000000;,
  1.000000;0.000000;,
  1.000000;1.000000;,
  0.000000;1.000000;,
  0.000000;0.000000;,
  1.000000;0.000000;,
  1.000000;1.000000;,
  0.000000;1.000000;,
  0.000000;0.000000;,
  1.000000;0.000000;,
  1.000000;1.000000;,
  0.000000;1.000000;,
  0.000000;0.000000;,
  1.000000;0.000000;,
  1.000000;1.000000;,
  0.000000;1.000000;,
  1.000000;1.000000;,
  0.000000;1.000000;,
  0.000000;0.000000;,
  1.000000;0.000000;,
  0.000000;0.000000;,
  1.000000;0.000000;,
  1.000000;1.000000;,
  0.000000;1.000000;,
  0.000000;0.000000;,
  1.000000;0.000000;,
  1.000000;1.000000;,
  0.000000;1.000000;,
  0.824580;0.000000;,
  1.000000;0.000000;,
  1.000000;1.000000;,
  0.824580;1.000000;,
  0.000000;1.000000;,
  0.000000;0.000000;,
  1.000000;0.175420;,
  1.000000;1.000000;,
  0.000000;1.000000;,
  0.000000;0.175420;,
  1.000000;0.824580;,
  0.000000;1.000000;,
  0.000000;0.824580;,
  0.000000;0.000000;,
  1.000000;0.000000;,
  0.175420;0.000000;,
  1.000000;0.000000;,
  1.000000;1.000000;,
  0.175420;1.000000;,
  0.000000;0.000000;,
  0.000000;0.175420;,
  1.000000;0.175420;,
  0.000000;0.000000;,
  1.000000;0.000000;,
  0.576610;0.000000;,
  0.576610;0.523860;,
  0.000000;0.523860;,
  0.000000;0.000000;,
  0.576610;1.000000;,
  0.000000;1.000000;,
  0.576610;1.000000;,
  0.000000;1.000000;,
  0.000000;0.476140;,
  0.576610;0.476140;,
  0.000000;0.000000;,
  0.576610;0.000000;,
  0.772170;0.000000;,
  1.000000;0.000000;,
  1.000000;0.523860;,
  0.772170;0.523860;,
  1.000000;1.000000;,
  0.772170;1.000000;,
  0.772170;1.000000;,
  0.772170;0.476140;,
  1.000000;0.476140;,
  1.000000;1.000000;,
  0.772170;0.000000;,
  1.000000;0.000000;,
  0.576610;0.495900;,
  0.000000;0.495900;,
  0.000000;0.000000;,
  0.576610;0.000000;,
  0.772170;0.000000;,
  0.772170;0.495900;,
  1.000000;0.495900;,
  0.476140;0.495900;,
  0.476140;0.000000;,
  1.000000;0.000000;,
  1.000000;0.000000;,
  1.000000;0.495900;,
  0.000000;0.495900;,
  0.000000;0.495900;,
  0.000000;0.000000;,
  0.523860;0.000000;,
  0.523860;0.495900;,
  1.000000;0.495900;,
  0.423390;0.495900;,
  0.423390;0.000000;,
  1.000000;0.000000;,
  1.000000;0.495900;,
  0.227830;0.495900;,
  0.227830;0.000000;,
  0.000000;0.495900;,
  0.000000;0.000000;,
  0.772170;0.495900;,
  0.576610;0.495900;,
  0.772170;1.000000;,
  0.772170;1.000000;,
  0.576610;1.000000;,
  0.576610;1.000000;,
  0.000000;0.747950;,
  1.000000;0.747950;,
  0.000000;0.000000;,
  1.000000;0.000000;,
  1.000000;1.000000;,
  0.000000;1.000000;,
  0.000000;0.000000;,
  1.000000;0.000000;,
  1.000000;1.000000;,
  0.000000;1.000000;,
  0.000000;0.000000;,
  1.000000;0.000000;,
  1.000000;1.000000;,
  0.000000;1.000000;,
  0.000000;0.000000;,
  1.000000;0.000000;,
  1.000000;1.000000;,
  0.000000;1.000000;,
  1.000000;1.000000;,
  0.000000;1.000000;,
  0.000000;0.000000;,
  1.000000;0.000000;,
  0.000000;0.000000;,
  0.000000;1.000000;,
  1.000000;1.000000;,
  1.000000;0.000000;,
  0.000000;0.000000;,
  0.000000;1.000000;,
  1.000000;1.000000;,
  1.000000;0.000000;,
  0.000000;0.000000;,
  0.000000;1.000000;,
  1.000000;1.000000;,
  1.000000;0.000000;,
  0.000000;0.000000;,
  0.000000;1.000000;,
  1.000000;1.000000;,
  1.000000;0.000000;,
  0.000000;1.000000;,
  1.000000;1.000000;,
  0.000000;0.000000;,
  1.000000;0.000000;,
  0.000000;0.000000;,
  1.000000;0.000000;,
  1.000000;1.000000;,
  0.000000;1.000000;,
  0.000000;0.000000;,
  1.000000;0.000000;,
  1.000000;1.000000;,
  0.000000;1.000000;,
  0.000000;0.000000;,
  1.000000;0.000000;,
  1.000000;1.000000;,
  0.000000;1.000000;,
  0.000000;0.000000;,
  1.000000;0.000000;,
  1.000000;1.000000;,
  0.000000;1.000000;,
  1.000000;1.000000;,
  0.000000;1.000000;,
  0.000000;0.000000;,
  1.000000;0.000000;;
 }
}
