xof 0302txt 0064
template Header {
 <3D82AB43-62DA-11cf-AB39-0020AF71E433>
 WORD major;
 WORD minor;
 DWORD flags;
}

template Vector {
 <3D82AB5E-62DA-11cf-AB39-0020AF71E433>
 FLOAT x;
 FLOAT y;
 FLOAT z;
}

template Coords2d {
 <F6F23F44-7686-11cf-8F52-0040333594A3>
 FLOAT u;
 FLOAT v;
}

template Matrix4x4 {
 <F6F23F45-7686-11cf-8F52-0040333594A3>
 array FLOAT matrix[16];
}

template ColorRGBA {
 <35FF44E0-6C7C-11cf-8F52-0040333594A3>
 FLOAT red;
 FLOAT green;
 FLOAT blue;
 FLOAT alpha;
}

template ColorRGB {
 <D3E16E81-7835-11cf-8F52-0040333594A3>
 FLOAT red;
 FLOAT green;
 FLOAT blue;
}

template IndexedColor {
 <1630B820-7842-11cf-8F52-0040333594A3>
 DWORD index;
 ColorRGBA indexColor;
}

template Boolean {
 <4885AE61-78E8-11cf-8F52-0040333594A3>
 WORD truefalse;
}

template Boolean2d {
 <4885AE63-78E8-11cf-8F52-0040333594A3>
 Boolean u;
 Boolean v;
}

template MaterialWrap {
 <4885AE60-78E8-11cf-8F52-0040333594A3>
 Boolean u;
 Boolean v;
}

template TextureFilename {
 <A42790E1-7810-11cf-8F52-0040333594A3>
 STRING filename;
}

template Material {
 <3D82AB4D-62DA-11cf-AB39-0020AF71E433>
 ColorRGBA faceColor;
 FLOAT power;
 ColorRGB specularColor;
 ColorRGB emissiveColor;
 [...]
}

template MeshFace {
 <3D82AB5F-62DA-11cf-AB39-0020AF71E433>
 DWORD nFaceVertexIndices;
 array DWORD faceVertexIndices[nFaceVertexIndices];
}

template MeshFaceWraps {
 <4885AE62-78E8-11cf-8F52-0040333594A3>
 DWORD nFaceWrapValues;
 Boolean2d faceWrapValues;
}

template MeshTextureCoords {
 <F6F23F40-7686-11cf-8F52-0040333594A3>
 DWORD nTextureCoords;
 array Coords2d textureCoords[nTextureCoords];
}

template MeshMaterialList {
 <F6F23F42-7686-11cf-8F52-0040333594A3>
 DWORD nMaterials;
 DWORD nFaceIndexes;
 array DWORD faceIndexes[nFaceIndexes];
 [Material]
}

template MeshNormals {
 <F6F23F43-7686-11cf-8F52-0040333594A3>
 DWORD nNormals;
 array Vector normals[nNormals];
 DWORD nFaceNormals;
 array MeshFace faceNormals[nFaceNormals];
}

template MeshVertexColors {
 <1630B821-7842-11cf-8F52-0040333594A3>
 DWORD nVertexColors;
 array IndexedColor vertexColors[nVertexColors];
}

template Mesh {
 <3D82AB44-62DA-11cf-AB39-0020AF71E433>
 DWORD nVertices;
 array Vector vertices[nVertices];
 DWORD nFaces;
 array MeshFace faces[nFaces];
 [...]
}

Header{
1;
0;
1;
}

Mesh {
 266;
 -331.74390;284.00589;-198.22960;,
 351.74384;284.00589;-198.22960;,
 351.74384;25.05680;-198.22960;,
 -331.74390;25.05680;-198.22960;,
 351.74384;284.00589;228.66769;,
 -331.74390;284.00589;228.66769;,
 -331.74390;25.05680;228.66769;,
 351.74384;25.05680;228.66769;,
 351.74384;419.32620;17.36700;,
 351.74384;284.00589;228.66769;,
 351.74384;25.05680;228.66769;,
 351.74384;25.05680;17.36700;,
 351.74384;25.05680;-198.22960;,
 351.74384;284.00589;-198.22960;,
 351.74384;419.32620;17.36700;,
 351.74384;284.00589;-198.22960;,
 -331.74390;284.00589;-198.22960;,
 -331.74390;419.32620;17.36700;,
 -331.74390;284.00589;228.66769;,
 351.74384;25.05680;17.36700;,
 -331.74390;25.05680;228.66769;,
 -331.74390;25.05680;17.36700;,
 -331.74390;25.05680;-198.22960;,
 351.74384;25.05680;-198.22960;,
 -331.74390;419.32620;17.36700;,
 -331.74390;284.00589;-198.22960;,
 -331.74390;25.05680;-198.22960;,
 -331.74390;25.05680;17.36700;,
 -369.37936;280.64456;-226.57491;,
 389.37924;280.64456;-226.57491;,
 389.37924;262.95624;-226.57491;,
 -369.37936;262.95624;-226.57491;,
 389.37924;280.64456;257.01300;,
 -369.37936;280.64456;257.01300;,
 -369.37936;262.95624;257.01300;,
 389.37924;262.95624;257.01300;,
 389.37924;446.49786;17.43745;,
 389.37924;280.64456;257.01300;,
 389.37924;262.95624;257.01300;,
 389.37924;411.58691;17.43745;,
 389.37924;262.95624;-226.57491;,
 389.37924;280.64456;-226.57491;,
 389.37924;446.49786;17.43745;,
 389.37924;280.64456;-226.57491;,
 -369.37936;280.64456;-226.57491;,
 -369.37936;446.49786;17.43745;,
 -369.37936;280.64456;257.01300;,
 389.37924;411.58691;17.43745;,
 -369.37936;262.95624;257.01300;,
 -369.37936;411.58691;17.43745;,
 -369.37936;262.95624;-226.57491;,
 389.37924;262.95624;-226.57491;,
 -369.37936;446.49786;17.43745;,
 -369.37936;280.64456;-226.57491;,
 -369.37936;262.95624;-226.57491;,
 -369.37936;411.58691;17.43745;,
 -353.48209;213.94479;-189.98140;,
 -353.48209;200.54575;-189.98140;,
 373.48206;200.54575;-189.98140;,
 373.48206;213.94479;-189.98140;,
 373.48206;139.67625;-299.15561;,
 373.48206;126.27710;-299.15561;,
 -353.48209;126.27710;-299.15561;,
 -353.48209;139.67625;-299.15561;,
 373.48206;205.53860;-203.53156;,
 373.48206;200.54575;-189.98140;,
 373.48206;126.27710;-299.15561;,
 373.48206;139.67625;-299.15561;,
 373.48206;205.53860;-203.53156;,
 -353.48209;139.67625;-299.15561;,
 -353.48209;205.53860;-203.53156;,
 373.48206;200.54575;-189.98140;,
 -353.48209;200.54575;-189.98140;,
 -353.48209;126.27710;-299.15561;,
 -353.48209;205.53860;-203.53156;,
 -353.48209;200.54575;-189.98140;,
 -353.48209;221.51375;-204.25410;,
 373.48206;221.51375;-204.25410;,
 -353.48209;229.92000;-190.70419;,
 -353.48209;213.94479;-189.98140;,
 373.48206;229.92000;-190.70419;,
 373.48206;213.94479;-189.98140;,
 -353.48209;200.54575;-189.98140;,
 -353.48209;213.94479;-189.98140;,
 373.48206;200.54575;-189.98140;,
 373.48206;213.94479;-189.98140;,
 -317.01761;134.79335;-291.86081;,
 -305.65204;134.79335;-291.86081;,
 -305.65204;-3.98160;-291.86081;,
 -317.01761;-3.98160;-291.86081;,
 -305.65204;134.79335;-291.86081;,
 -305.65204;134.79335;-280.49484;,
 -305.65204;-3.98160;-280.49484;,
 -305.65204;-3.98160;-291.86081;,
 -305.65204;134.79335;-280.49484;,
 -317.01761;134.79335;-280.49484;,
 -317.01761;-3.98160;-280.49484;,
 -305.65204;-3.98160;-280.49484;,
 -317.01761;134.79335;-280.49484;,
 -317.01761;134.79335;-291.86081;,
 -317.01761;-3.98160;-291.86081;,
 -317.01761;-3.98160;-280.49484;,
 -305.65204;134.79335;-291.86081;,
 -317.01761;134.79335;-291.86081;,
 -317.01761;-3.98160;-291.86081;,
 -305.65204;-3.98160;-291.86081;,
 -186.66280;134.79335;-291.86081;,
 -175.29715;134.79335;-291.86081;,
 -175.29715;-3.98160;-291.86081;,
 -186.66280;-3.98160;-291.86081;,
 -175.29715;134.79335;-291.86081;,
 -175.29715;134.79335;-280.49484;,
 -175.29715;-3.98160;-280.49484;,
 -175.29715;-3.98160;-291.86081;,
 -175.29715;134.79335;-280.49484;,
 -186.66280;134.79335;-280.49484;,
 -186.66280;-3.98160;-280.49484;,
 -175.29715;-3.98160;-280.49484;,
 -186.66280;134.79335;-280.49484;,
 -186.66280;134.79335;-291.86081;,
 -186.66280;-3.98160;-291.86081;,
 -186.66280;-3.98160;-280.49484;,
 -175.29715;134.79335;-291.86081;,
 -186.66280;134.79335;-291.86081;,
 -186.66280;-3.98160;-291.86081;,
 -175.29715;-3.98160;-291.86081;,
 -52.94240;134.79335;-291.86081;,
 -41.57680;134.79335;-291.86081;,
 -41.57680;-3.98160;-291.86081;,
 -52.94240;-3.98160;-291.86081;,
 -41.57680;134.79335;-291.86081;,
 -41.57680;134.79335;-280.49484;,
 -41.57680;-3.98160;-280.49484;,
 -41.57680;-3.98160;-291.86081;,
 -41.57680;134.79335;-280.49484;,
 -52.94240;134.79335;-280.49484;,
 -52.94240;-3.98160;-280.49484;,
 -41.57680;-3.98160;-280.49484;,
 -52.94240;134.79335;-280.49484;,
 -52.94240;134.79335;-291.86081;,
 -52.94240;-3.98160;-291.86081;,
 -52.94240;-3.98160;-280.49484;,
 -41.57680;134.79335;-291.86081;,
 -52.94240;134.79335;-291.86081;,
 -52.94240;-3.98160;-291.86081;,
 -41.57680;-3.98160;-291.86081;,
 74.76530;134.79335;-291.86081;,
 86.13085;134.79335;-291.86081;,
 86.13085;-3.98160;-291.86081;,
 74.76530;-3.98160;-291.86081;,
 86.13085;134.79335;-291.86081;,
 86.13085;134.79335;-280.49484;,
 86.13085;-3.98160;-280.49484;,
 86.13085;-3.98160;-291.86081;,
 86.13085;134.79335;-280.49484;,
 74.76530;134.79335;-280.49484;,
 74.76530;-3.98160;-280.49484;,
 86.13085;-3.98160;-280.49484;,
 74.76530;134.79335;-280.49484;,
 74.76530;134.79335;-291.86081;,
 74.76530;-3.98160;-291.86081;,
 74.76530;-3.98160;-280.49484;,
 86.13085;134.79335;-291.86081;,
 74.76530;134.79335;-291.86081;,
 74.76530;-3.98160;-291.86081;,
 86.13085;-3.98160;-291.86081;,
 219.92775;134.79335;-291.86081;,
 222.68195;134.79335;-291.86081;,
 222.68195;-3.98160;-291.86081;,
 219.92775;-3.98160;-291.86081;,
 222.68195;134.79335;-291.86081;,
 222.68195;134.79335;-280.49484;,
 222.68195;-3.98160;-280.49484;,
 222.68195;-3.98160;-291.86081;,
 222.68195;134.79335;-280.49484;,
 211.31641;134.79335;-280.49484;,
 211.31641;-3.98160;-280.49484;,
 222.68195;-3.98160;-280.49484;,
 211.31641;134.79335;-280.49484;,
 219.92775;134.79335;-291.86081;,
 219.92775;-3.98160;-291.86081;,
 211.31641;-3.98160;-280.49484;,
 222.68195;134.79335;-291.86081;,
 219.92775;134.79335;-291.86081;,
 219.92775;-3.98160;-291.86081;,
 222.68195;-3.98160;-291.86081;,
 344.37384;134.79335;-291.86081;,
 355.73950;134.79335;-291.86081;,
 355.73950;-3.98160;-291.86081;,
 344.37384;-3.98160;-291.86081;,
 355.73950;134.79335;-291.86081;,
 355.73950;134.79335;-280.49484;,
 355.73950;-3.98160;-280.49484;,
 355.73950;-3.98160;-291.86081;,
 355.73950;134.79335;-280.49484;,
 344.37384;134.79335;-280.49484;,
 344.37384;-3.98160;-280.49484;,
 355.73950;-3.98160;-280.49484;,
 344.37384;134.79335;-280.49484;,
 344.37384;134.79335;-291.86081;,
 344.37384;-3.98160;-291.86081;,
 344.37384;-3.98160;-280.49484;,
 355.73950;134.79335;-291.86081;,
 344.37384;134.79335;-291.86081;,
 344.37384;-3.98160;-291.86081;,
 355.73950;-3.98160;-291.86081;,
 -334.53711;35.40065;-210.26746;,
 354.53714;35.40065;-210.26746;,
 361.47971;6.08180;-219.44646;,
 -341.47964;6.08180;-219.44646;,
 354.53714;35.40065;-210.26746;,
 354.53714;35.40065;240.70570;,
 361.47971;6.08180;249.88460;,
 361.47971;6.08180;-219.44646;,
 354.53714;35.40065;240.70570;,
 -334.53711;35.40065;240.70570;,
 -341.47964;6.08180;249.88460;,
 361.47971;6.08180;249.88460;,
 -334.53711;35.40065;240.70570;,
 -334.53711;35.40065;-210.26746;,
 -341.47964;6.08180;-219.44646;,
 -341.47964;6.08180;249.88460;,
 354.53714;35.40065;-210.26746;,
 -334.53711;35.40065;-210.26746;,
 -341.47964;6.08180;-219.44646;,
 361.47971;6.08180;-219.44646;,
 -366.06799;471.14386;5.86135;,
 387.56049;471.14386;5.86135;,
 387.56049;423.48254;-5.15500;,
 -366.06799;423.48254;-5.15500;,
 387.56049;471.14386;5.86135;,
 387.56049;471.14386;24.57690;,
 387.56049;423.48254;35.59320;,
 387.56049;423.48254;-5.15500;,
 387.56049;471.14386;24.57690;,
 -366.06799;471.14386;24.57690;,
 -366.06799;423.48254;35.59320;,
 387.56049;423.48254;35.59320;,
 -366.06799;471.14386;24.57690;,
 -366.06799;471.14386;5.86135;,
 -366.06799;423.48254;-5.15500;,
 -366.06799;423.48254;35.59320;,
 387.56049;471.14386;5.86135;,
 -366.06799;471.14386;5.86135;,
 -366.06799;423.48254;-5.15500;,
 387.56049;423.48254;-5.15500;,
 -309.88440;117.05480;-289.01074;,
 345.66376;117.05480;-289.01074;,
 345.66376;108.24185;-289.01074;,
 -309.88440;108.24185;-289.01074;,
 345.66376;117.05480;-289.01074;,
 345.66376;117.05480;-285.31049;,
 345.66376;108.24185;-285.31049;,
 345.66376;108.24185;-289.01074;,
 345.66376;117.05480;-285.31049;,
 -309.88440;117.05480;-285.31049;,
 -309.88440;108.24185;-285.31049;,
 345.66376;108.24185;-285.31049;,
 -309.88440;117.05480;-285.31049;,
 -309.88440;117.05480;-289.01074;,
 -309.88440;108.24185;-289.01074;,
 -309.88440;108.24185;-285.31049;,
 345.66376;117.05480;-289.01074;,
 -309.88440;117.05480;-289.01074;,
 -309.88440;108.24185;-289.01074;,
 345.66376;108.24185;-289.01074;;
 
 87;
 4;0,1,2,3;,
 4;4,5,6,7;,
 4;8,9,10,11;,
 4;8,11,12,13;,
 4;14,15,16,17;,
 4;14,17,18,9;,
 4;19,10,20,21;,
 4;19,21,22,23;,
 4;24,25,26,27;,
 4;24,27,20,18;,
 4;28,29,30,31;,
 4;32,33,34,35;,
 4;36,37,38,39;,
 4;36,39,40,41;,
 4;42,43,44,45;,
 4;42,45,46,37;,
 4;47,38,48,49;,
 4;47,49,50,51;,
 4;52,53,54,55;,
 4;52,55,48,46;,
 4;56,57,58,59;,
 4;60,61,62,63;,
 4;64,65,66,67;,
 4;68,67,69,70;,
 4;71,72,73,66;,
 4;74,69,73,75;,
 4;76,77,68,70;,
 4;78,76,70,79;,
 4;80,78,79,81;,
 4;77,80,81,68;,
 4;77,76,78,80;,
 3;82,83,74;,
 3;84,64,85;,
 4;86,87,88,89;,
 4;90,91,92,93;,
 4;94,95,96,97;,
 4;98,99,100,101;,
 4;98,91,102,103;,
 4;104,105,92,101;,
 4;106,107,108,109;,
 4;110,111,112,113;,
 4;114,115,116,117;,
 4;118,119,120,121;,
 4;118,111,122,123;,
 4;124,125,112,121;,
 4;126,127,128,129;,
 4;130,131,132,133;,
 4;134,135,136,137;,
 4;138,139,140,141;,
 4;138,131,142,143;,
 4;144,145,132,141;,
 4;146,147,148,149;,
 4;150,151,152,153;,
 4;154,155,156,157;,
 4;158,159,160,161;,
 4;158,151,162,163;,
 4;164,165,152,161;,
 4;166,167,168,169;,
 4;170,171,172,173;,
 4;174,175,176,177;,
 4;178,179,180,181;,
 4;178,171,182,183;,
 4;184,185,172,181;,
 4;186,187,188,189;,
 4;190,191,192,193;,
 4;194,195,196,197;,
 4;198,199,200,201;,
 4;198,191,202,203;,
 4;204,205,192,201;,
 4;206,207,208,209;,
 4;210,211,212,213;,
 4;214,215,216,217;,
 4;218,219,220,221;,
 4;218,211,222,223;,
 4;224,225,212,221;,
 4;226,227,228,229;,
 4;230,231,232,233;,
 4;234,235,236,237;,
 4;238,239,240,241;,
 4;238,231,242,243;,
 4;244,245,232,241;,
 4;246,247,248,249;,
 4;250,251,252,253;,
 4;254,255,256,257;,
 4;258,259,260,261;,
 4;258,251,262,263;,
 4;264,265,252,261;;
 
 MeshMaterialList {
  4;
  87;
  0,
  0,
  0,
  0,
  0,
  0,
  0,
  0,
  0,
  0,
  1,
  1,
  1,
  1,
  1,
  1,
  1,
  1,
  1,
  1,
  1,
  1,
  1,
  1,
  1,
  1,
  1,
  1,
  1,
  1,
  1,
  1,
  1,
  2,
  2,
  2,
  2,
  2,
  2,
  2,
  2,
  2,
  2,
  2,
  2,
  2,
  2,
  2,
  2,
  2,
  2,
  2,
  2,
  2,
  2,
  2,
  2,
  2,
  2,
  2,
  2,
  2,
  2,
  2,
  2,
  2,
  2,
  2,
  2,
  3,
  3,
  3,
  3,
  3,
  3,
  1,
  1,
  1,
  1,
  1,
  1,
  2,
  2,
  2,
  2,
  2,
  2;;
  Material {
   0.633600;0.633600;0.633600;1.000000;;
   5.000000;
   0.000000;0.000000;0.000000;;
   0.000000;0.000000;0.000000;;
  }
  Material {
   0.269600;0.172800;0.216800;1.000000;;
   5.000000;
   0.000000;0.000000;0.000000;;
   0.000000;0.000000;0.000000;;
  }
  Material {
   0.401600;0.225600;0.194400;1.000000;;
   5.000000;
   0.000000;0.000000;0.000000;;
   0.000000;0.000000;0.000000;;
  }
  Material {
   0.524000;0.524000;0.524000;1.000000;;
   0.000000;
   0.000000;0.000000;0.000000;;
   0.000000;0.000000;0.000000;;
  }
 }
 MeshNormals {
  32;
  0.000000;0.483934;-0.875104;,
  0.000000;0.000000;-1.000000;,
  0.000000;0.479947;0.877298;,
  0.000000;0.000000;1.000000;,
  1.000000;0.000000;0.000000;,
  0.000000;0.846986;-0.531615;,
  0.000000;-1.000000;-0.000000;,
  0.000000;0.467902;-0.883781;,
  0.000000;0.464115;0.885775;,
  0.000000;0.827045;-0.562136;,
  0.000000;-0.849754;-0.527180;,
  0.000000;0.022605;0.999745;,
  0.000000;0.465169;-0.885222;,
  0.000000;-0.467725;0.883874;,
  0.000000;0.445047;-0.895507;,
  -1.000000;0.000000;0.000000;,
  0.000000;0.045198;0.998978;,
  0.000000;-0.045183;-0.998979;,
  -0.445033;0.000000;-0.895514;,
  0.000000;0.298775;-0.954324;,
  0.973091;0.230423;0.000000;,
  0.000000;0.298772;0.954325;,
  0.000000;0.225201;-0.974312;,
  0.000000;0.225200;0.974313;,
  0.000000;0.842112;0.539302;,
  0.000000;0.822203;0.569194;,
  0.000000;-0.854041;0.520206;,
  0.000000;-0.826820;0.562466;,
  0.000000;0.849754;-0.527180;,
  0.000000;1.000000;0.000000;,
  -0.797067;0.000000;-0.603892;,
  -0.973091;0.230422;0.000000;;
  87;
  4;0,0,1,1;,
  4;2,2,3,3;,
  4;4,4,4,4;,
  4;4,4,4,4;,
  4;5,0,0,5;,
  4;24,24,2,2;,
  4;6,6,6,6;,
  4;6,6,6,6;,
  4;15,15,15,15;,
  4;15,15,15,15;,
  4;7,7,1,1;,
  4;8,8,3,3;,
  4;4,4,4,4;,
  4;4,4,4,4;,
  4;9,7,7,9;,
  4;25,25,8,8;,
  4;10,10,10,10;,
  4;26,26,26,26;,
  4;15,15,15,15;,
  4;15,15,15,15;,
  4;11,13,13,11;,
  4;12,1,1,12;,
  4;4,4,4,4;,
  4;14,12,12,14;,
  4;13,13,27,27;,
  4;15,15,15,15;,
  4;17,17,14,14;,
  4;15,15,15,15;,
  4;16,16,11,11;,
  4;4,4,4,4;,
  4;28,28,28,28;,
  3;15,15,15;,
  3;4,4,4;,
  4;1,1,1,1;,
  4;4,4,4,4;,
  4;3,3,3,3;,
  4;15,15,15,15;,
  4;29,29,29,29;,
  4;6,6,6,6;,
  4;1,1,1,1;,
  4;4,4,4,4;,
  4;3,3,3,3;,
  4;15,15,15,15;,
  4;29,29,29,29;,
  4;6,6,6,6;,
  4;1,1,1,1;,
  4;4,4,4,4;,
  4;3,3,3,3;,
  4;15,15,15,15;,
  4;29,29,29,29;,
  4;6,6,6,6;,
  4;1,1,1,1;,
  4;4,4,4,4;,
  4;3,3,3,3;,
  4;15,15,15,15;,
  4;29,29,29,29;,
  4;6,6,6,6;,
  4;18,1,1,18;,
  4;4,4,4,4;,
  4;3,3,3,3;,
  4;30,18,18,30;,
  4;29,29,29,29;,
  4;6,6,6,6;,
  4;1,1,1,1;,
  4;4,4,4,4;,
  4;3,3,3,3;,
  4;15,15,15,15;,
  4;29,29,29,29;,
  4;6,6,6,6;,
  4;19,19,19,19;,
  4;20,20,20,20;,
  4;21,21,21,21;,
  4;31,31,31,31;,
  4;29,29,29,29;,
  4;6,6,6,6;,
  4;22,22,22,22;,
  4;4,4,4,4;,
  4;23,23,23,23;,
  4;15,15,15,15;,
  4;29,29,29,29;,
  4;6,6,6,6;,
  4;1,1,1,1;,
  4;4,4,4,4;,
  4;3,3,3,3;,
  4;15,15,15,15;,
  4;29,29,29,29;,
  4;6,6,6,6;;
 }
 MeshTextureCoords {
  266;
  0.000000;0.000000;,
  1.000000;0.000000;,
  1.000000;1.000000;,
  0.000000;1.000000;,
  0.000000;0.000000;,
  1.000000;0.000000;,
  1.000000;1.000000;,
  0.000000;1.000000;,
  0.505030;0.000000;,
  1.000000;0.000000;,
  1.000000;1.000000;,
  0.505030;1.000000;,
  0.000000;1.000000;,
  0.000000;0.000000;,
  1.000000;0.494970;,
  1.000000;1.000000;,
  0.000000;1.000000;,
  0.000000;0.494970;,
  0.000000;0.000000;,
  1.000000;0.505030;,
  0.000000;1.000000;,
  0.000000;0.505030;,
  0.000000;0.000000;,
  1.000000;0.000000;,
  0.494970;0.000000;,
  1.000000;0.000000;,
  1.000000;1.000000;,
  0.494970;1.000000;,
  0.000000;0.000000;,
  1.000000;0.000000;,
  1.000000;1.000000;,
  0.000000;1.000000;,
  0.000000;0.000000;,
  1.000000;0.000000;,
  1.000000;1.000000;,
  0.000000;1.000000;,
  0.512880;0.000000;,
  1.000000;0.000000;,
  1.000000;1.000000;,
  0.512880;1.000000;,
  0.000000;1.000000;,
  0.000000;0.000000;,
  1.000000;0.487120;,
  1.000000;1.000000;,
  0.000000;1.000000;,
  0.000000;0.487120;,
  0.000000;0.000000;,
  1.000000;0.512880;,
  0.000000;1.000000;,
  0.000000;0.512880;,
  0.000000;0.000000;,
  1.000000;0.000000;,
  0.487120;0.000000;,
  1.000000;0.000000;,
  1.000000;1.000000;,
  0.487120;1.000000;,
  0.000000;0.000000;,
  0.000000;1.000000;,
  1.000000;1.000000;,
  1.000000;0.000000;,
  0.000000;0.000000;,
  0.000000;1.000000;,
  1.000000;1.000000;,
  1.000000;0.000000;,
  0.584660;0.000000;,
  0.584660;1.000000;,
  1.000000;1.000000;,
  1.000000;0.000000;,
  1.000000;0.415340;,
  0.000000;0.000000;,
  0.000000;0.415340;,
  1.000000;0.584660;,
  0.000000;0.584660;,
  0.000000;1.000000;,
  0.415340;0.000000;,
  0.415340;1.000000;,
  0.000000;0.415340;,
  1.000000;0.415340;,
  0.000000;0.487120;,
  0.000000;0.487120;,
  1.000000;0.487120;,
  1.000000;0.487120;,
  0.451230;1.000000;,
  0.487120;0.000000;,
  0.548770;1.000000;,
  0.512880;0.000000;,
  0.000000;0.000000;,
  1.000000;0.000000;,
  1.000000;1.000000;,
  0.000000;1.000000;,
  0.000000;0.000000;,
  1.000000;0.000000;,
  1.000000;1.000000;,
  0.000000;1.000000;,
  0.000000;0.000000;,
  1.000000;0.000000;,
  1.000000;1.000000;,
  0.000000;1.000000;,
  0.000000;0.000000;,
  1.000000;0.000000;,
  1.000000;1.000000;,
  0.000000;1.000000;,
  1.000000;1.000000;,
  0.000000;1.000000;,
  0.000000;0.000000;,
  1.000000;0.000000;,
  0.000000;0.000000;,
  1.000000;0.000000;,
  1.000000;1.000000;,
  0.000000;1.000000;,
  0.000000;0.000000;,
  1.000000;0.000000;,
  1.000000;1.000000;,
  0.000000;1.000000;,
  0.000000;0.000000;,
  1.000000;0.000000;,
  1.000000;1.000000;,
  0.000000;1.000000;,
  0.000000;0.000000;,
  1.000000;0.000000;,
  1.000000;1.000000;,
  0.000000;1.000000;,
  1.000000;1.000000;,
  0.000000;1.000000;,
  0.000000;0.000000;,
  1.000000;0.000000;,
  0.000000;0.000000;,
  1.000000;0.000000;,
  1.000000;1.000000;,
  0.000000;1.000000;,
  0.000000;0.000000;,
  1.000000;0.000000;,
  1.000000;1.000000;,
  0.000000;1.000000;,
  0.000000;0.000000;,
  1.000000;0.000000;,
  1.000000;1.000000;,
  0.000000;1.000000;,
  0.000000;0.000000;,
  1.000000;0.000000;,
  1.000000;1.000000;,
  0.000000;1.000000;,
  1.000000;1.000000;,
  0.000000;1.000000;,
  0.000000;0.000000;,
  1.000000;0.000000;,
  0.000000;0.000000;,
  1.000000;0.000000;,
  1.000000;1.000000;,
  0.000000;1.000000;,
  0.000000;0.000000;,
  1.000000;0.000000;,
  1.000000;1.000000;,
  0.000000;1.000000;,
  0.000000;0.000000;,
  1.000000;0.000000;,
  1.000000;1.000000;,
  0.000000;1.000000;,
  0.000000;0.000000;,
  1.000000;0.000000;,
  1.000000;1.000000;,
  0.000000;1.000000;,
  1.000000;1.000000;,
  0.000000;1.000000;,
  0.000000;0.000000;,
  1.000000;0.000000;,
  0.000000;0.000000;,
  1.000000;0.000000;,
  1.000000;1.000000;,
  0.000000;1.000000;,
  0.000000;0.000000;,
  1.000000;0.000000;,
  1.000000;1.000000;,
  0.000000;1.000000;,
  0.000000;0.000000;,
  1.000000;0.000000;,
  1.000000;1.000000;,
  0.000000;1.000000;,
  0.000000;0.000000;,
  1.000000;0.000000;,
  1.000000;1.000000;,
  0.000000;1.000000;,
  1.000000;1.000000;,
  0.000000;1.000000;,
  0.000000;0.000000;,
  1.000000;0.000000;,
  0.000000;0.000000;,
  1.000000;0.000000;,
  1.000000;1.000000;,
  0.000000;1.000000;,
  0.000000;0.000000;,
  1.000000;0.000000;,
  1.000000;1.000000;,
  0.000000;1.000000;,
  0.000000;0.000000;,
  1.000000;0.000000;,
  1.000000;1.000000;,
  0.000000;1.000000;,
  0.000000;0.000000;,
  1.000000;0.000000;,
  1.000000;1.000000;,
  0.000000;1.000000;,
  1.000000;1.000000;,
  0.000000;1.000000;,
  0.000000;0.000000;,
  1.000000;0.000000;,
  0.000000;0.000000;,
  1.000000;0.000000;,
  1.000000;1.000000;,
  0.000000;1.000000;,
  0.000000;0.000000;,
  1.000000;0.000000;,
  1.000000;1.000000;,
  0.000000;1.000000;,
  0.000000;0.000000;,
  1.000000;0.000000;,
  1.000000;1.000000;,
  0.000000;1.000000;,
  0.000000;0.000000;,
  1.000000;0.000000;,
  1.000000;1.000000;,
  0.000000;1.000000;,
  1.000000;1.000000;,
  0.000000;1.000000;,
  0.000000;0.000000;,
  1.000000;0.000000;,
  0.000000;0.000000;,
  1.000000;0.000000;,
  1.000000;1.000000;,
  0.000000;1.000000;,
  0.000000;0.000000;,
  1.000000;0.000000;,
  1.000000;1.000000;,
  0.000000;1.000000;,
  0.000000;0.000000;,
  1.000000;0.000000;,
  1.000000;1.000000;,
  0.000000;1.000000;,
  0.000000;0.000000;,
  1.000000;0.000000;,
  1.000000;1.000000;,
  0.000000;1.000000;,
  1.000000;1.000000;,
  0.000000;1.000000;,
  0.000000;0.000000;,
  1.000000;0.000000;,
  0.000000;0.000000;,
  1.000000;0.000000;,
  1.000000;1.000000;,
  0.000000;1.000000;,
  0.000000;0.000000;,
  1.000000;0.000000;,
  1.000000;1.000000;,
  0.000000;1.000000;,
  0.000000;0.000000;,
  1.000000;0.000000;,
  1.000000;1.000000;,
  0.000000;1.000000;,
  0.000000;0.000000;,
  1.000000;0.000000;,
  1.000000;1.000000;,
  0.000000;1.000000;,
  1.000000;1.000000;,
  0.000000;1.000000;,
  0.000000;0.000000;,
  1.000000;0.000000;;
 }
}
