xof 0302txt 0064
template Header {
 <3D82AB43-62DA-11cf-AB39-0020AF71E433>
 WORD major;
 WORD minor;
 DWORD flags;
}

template Vector {
 <3D82AB5E-62DA-11cf-AB39-0020AF71E433>
 FLOAT x;
 FLOAT y;
 FLOAT z;
}

template Coords2d {
 <F6F23F44-7686-11cf-8F52-0040333594A3>
 FLOAT u;
 FLOAT v;
}

template Matrix4x4 {
 <F6F23F45-7686-11cf-8F52-0040333594A3>
 array FLOAT matrix[16];
}

template ColorRGBA {
 <35FF44E0-6C7C-11cf-8F52-0040333594A3>
 FLOAT red;
 FLOAT green;
 FLOAT blue;
 FLOAT alpha;
}

template ColorRGB {
 <D3E16E81-7835-11cf-8F52-0040333594A3>
 FLOAT red;
 FLOAT green;
 FLOAT blue;
}

template IndexedColor {
 <1630B820-7842-11cf-8F52-0040333594A3>
 DWORD index;
 ColorRGBA indexColor;
}

template Boolean {
 <4885AE61-78E8-11cf-8F52-0040333594A3>
 WORD truefalse;
}

template Boolean2d {
 <4885AE63-78E8-11cf-8F52-0040333594A3>
 Boolean u;
 Boolean v;
}

template MaterialWrap {
 <4885AE60-78E8-11cf-8F52-0040333594A3>
 Boolean u;
 Boolean v;
}

template TextureFilename {
 <A42790E1-7810-11cf-8F52-0040333594A3>
 STRING filename;
}

template Material {
 <3D82AB4D-62DA-11cf-AB39-0020AF71E433>
 ColorRGBA faceColor;
 FLOAT power;
 ColorRGB specularColor;
 ColorRGB emissiveColor;
 [...]
}

template MeshFace {
 <3D82AB5F-62DA-11cf-AB39-0020AF71E433>
 DWORD nFaceVertexIndices;
 array DWORD faceVertexIndices[nFaceVertexIndices];
}

template MeshFaceWraps {
 <4885AE62-78E8-11cf-8F52-0040333594A3>
 DWORD nFaceWrapValues;
 Boolean2d faceWrapValues;
}

template MeshTextureCoords {
 <F6F23F40-7686-11cf-8F52-0040333594A3>
 DWORD nTextureCoords;
 array Coords2d textureCoords[nTextureCoords];
}

template MeshMaterialList {
 <F6F23F42-7686-11cf-8F52-0040333594A3>
 DWORD nMaterials;
 DWORD nFaceIndexes;
 array DWORD faceIndexes[nFaceIndexes];
 [Material]
}

template MeshNormals {
 <F6F23F43-7686-11cf-8F52-0040333594A3>
 DWORD nNormals;
 array Vector normals[nNormals];
 DWORD nFaceNormals;
 array MeshFace faceNormals[nFaceNormals];
}

template MeshVertexColors {
 <1630B821-7842-11cf-8F52-0040333594A3>
 DWORD nVertexColors;
 array IndexedColor vertexColors[nVertexColors];
}

template Mesh {
 <3D82AB44-62DA-11cf-AB39-0020AF71E433>
 DWORD nVertices;
 array Vector vertices[nVertices];
 DWORD nFaces;
 array MeshFace faces[nFaces];
 [...]
}

Header{
1;
0;
1;
}

Mesh {
 218;
 -678.83917;391.48279;-275.17200;,
 678.83917;391.48279;-275.17200;,
 678.83917;19.75590;-275.17200;,
 -678.83917;19.75590;-275.17200;,
 678.83917;391.48279;294.86490;,
 -678.83917;391.48279;294.86490;,
 -678.83917;19.75590;294.86490;,
 678.83917;19.75590;294.86490;,
 678.83917;476.20511;294.86490;,
 -678.83917;476.20511;294.86490;,
 -678.83917;391.48279;294.86490;,
 678.83917;391.48279;294.86490;,
 -678.83917;476.20511;-275.17200;,
 678.83917;476.20511;-275.17200;,
 678.83917;391.48279;-275.17200;,
 -678.83917;391.48279;-275.17200;,
 678.83917;662.59381;12.01870;,
 678.83917;391.48279;12.01870;,
 -678.83917;662.59381;12.01870;,
 678.83917;391.48279;12.01870;,
 678.83917;19.75590;294.86490;,
 678.83917;19.75590;12.01870;,
 678.83917;19.75590;-275.17200;,
 678.83917;391.48279;-275.17200;,
 -678.83917;391.48279;12.01870;,
 678.83917;19.75590;12.01870;,
 -678.83917;19.75590;294.86490;,
 -678.83917;19.75590;12.01870;,
 -678.83917;19.75590;-275.17200;,
 678.83917;19.75590;-275.17200;,
 -678.83917;391.48279;12.01870;,
 -678.83917;391.48279;-275.17200;,
 -678.83917;19.75590;-275.17200;,
 -678.83917;19.75590;12.01870;,
 -768.98743;418.99619;-400.35281;,
 768.98743;418.99619;-400.35281;,
 768.98743;382.48709;-400.35281;,
 -768.98743;382.48709;-400.35281;,
 768.98743;418.99619;420.04559;,
 -768.98743;418.99619;420.04559;,
 -768.98743;382.48709;420.04559;,
 768.98743;382.48709;420.04559;,
 768.98743;693.68750;6.37060;,
 768.98743;418.99619;420.04559;,
 768.98743;382.48709;420.04559;,
 768.98743;657.17853;6.37060;,
 768.98743;382.48709;-400.35281;,
 768.98743;418.99619;-400.35281;,
 768.98743;693.68750;6.37060;,
 768.98743;418.99619;-400.35281;,
 -768.98743;418.99619;-400.35281;,
 -768.98743;693.68750;6.37060;,
 -768.98743;418.99619;420.04559;,
 768.98743;657.17853;6.37060;,
 -768.98743;382.48709;420.04559;,
 -768.98743;657.17853;6.37060;,
 -768.98743;382.48709;-400.35281;,
 768.98743;382.48709;-400.35281;,
 -768.98743;693.68750;6.37060;,
 -768.98743;418.99619;-400.35281;,
 -768.98743;382.48709;-400.35281;,
 -768.98743;657.17853;6.37060;,
 -672.56873;290.21091;-431.53159;,
 313.86789;290.21091;-431.53159;,
 313.86789;264.98380;-431.53159;,
 -672.56873;264.98380;-431.53159;,
 313.86789;358.28989;-270.09271;,
 -672.56873;358.28989;-270.09271;,
 -672.56873;333.06281;-270.09271;,
 313.86789;333.06281;-270.09271;,
 313.86789;341.52231;-302.92389;,
 313.86789;358.28989;-270.09271;,
 313.86789;333.06281;-270.09271;,
 313.86789;316.29529;-302.92389;,
 313.86789;264.98380;-431.53159;,
 313.86789;290.21091;-431.53159;,
 313.86789;341.52231;-302.92389;,
 313.86789;290.21091;-431.53159;,
 -672.56873;290.21091;-431.53159;,
 -672.56873;341.52231;-302.92389;,
 313.86789;316.29529;-302.92389;,
 313.86789;333.06281;-270.09271;,
 -672.56873;333.06281;-270.09271;,
 -672.56873;316.29529;-302.92389;,
 -672.56873;264.98380;-431.53159;,
 313.86789;264.98380;-431.53159;,
 -672.56873;341.52231;-302.92389;,
 -672.56873;290.21091;-431.53159;,
 -672.56873;264.98380;-431.53159;,
 -672.56873;316.29529;-302.92389;,
 -672.56873;333.06281;-270.09271;,
 -672.56873;358.28989;-270.09271;,
 -672.56873;367.26920;-303.54721;,
 313.86789;367.26920;-303.54721;,
 -672.56873;384.03659;-270.71609;,
 -672.56873;358.28989;-270.09271;,
 313.86789;384.03659;-270.71609;,
 313.86789;358.28989;-270.09271;,
 233.09810;286.85989;-422.66010;,
 250.37621;286.85989;-422.66010;,
 250.37621;-2.98530;-422.66010;,
 233.09810;-2.98530;-422.66010;,
 250.37621;286.85989;-422.66010;,
 250.37621;286.85989;-405.38239;,
 250.37621;-2.98530;-405.38239;,
 250.37621;-2.98530;-422.66010;,
 250.37621;286.85989;-405.38239;,
 233.09810;286.85989;-405.38239;,
 233.09810;-2.98530;-405.38239;,
 250.37621;-2.98530;-405.38239;,
 233.09810;286.85989;-405.38239;,
 233.09810;286.85989;-422.66010;,
 233.09810;-2.98530;-422.66010;,
 233.09810;-2.98530;-405.38239;,
 250.37621;286.85989;-422.66010;,
 233.09810;286.85989;-422.66010;,
 233.09810;-2.98530;-422.66010;,
 250.37621;-2.98530;-422.66010;,
 12.34900;286.85989;-422.66010;,
 29.62710;286.85989;-422.66010;,
 29.62710;-2.98530;-422.66010;,
 12.34900;-2.98530;-422.66010;,
 29.62710;286.85989;-422.66010;,
 29.62710;286.85989;-405.38239;,
 29.62710;-2.98530;-405.38239;,
 29.62710;-2.98530;-422.66010;,
 29.62710;286.85989;-405.38239;,
 12.34900;286.85989;-405.38239;,
 12.34900;-2.98530;-405.38239;,
 29.62710;-2.98530;-405.38239;,
 12.34900;286.85989;-405.38239;,
 12.34900;286.85989;-422.66010;,
 12.34900;-2.98530;-422.66010;,
 12.34900;-2.98530;-405.38239;,
 29.62710;286.85989;-422.66010;,
 12.34900;286.85989;-422.66010;,
 12.34900;-2.98530;-422.66010;,
 29.62710;-2.98530;-422.66010;,
 -208.40199;286.85989;-422.66010;,
 -191.12390;286.85989;-422.66010;,
 -191.12390;-2.98530;-422.66010;,
 -208.40199;-2.98530;-422.66010;,
 -191.12390;286.85989;-422.66010;,
 -191.12390;286.85989;-405.38239;,
 -191.12390;-2.98530;-405.38239;,
 -191.12390;-2.98530;-422.66010;,
 -191.12390;286.85989;-405.38239;,
 -208.40199;286.85989;-405.38239;,
 -208.40199;-2.98530;-405.38239;,
 -191.12390;-2.98530;-405.38239;,
 -208.40199;286.85989;-405.38239;,
 -208.40199;286.85989;-422.66010;,
 -208.40199;-2.98530;-422.66010;,
 -208.40199;-2.98530;-405.38239;,
 -191.12390;286.85989;-422.66010;,
 -208.40199;286.85989;-422.66010;,
 -208.40199;-2.98530;-422.66010;,
 -191.12390;-2.98530;-422.66010;,
 -419.40469;286.85989;-422.66010;,
 -402.12640;286.85989;-422.66010;,
 -402.12640;-2.98530;-422.66010;,
 -419.40469;-2.98530;-422.66010;,
 -402.12640;286.85989;-422.66010;,
 -402.12640;286.85989;-405.38239;,
 -402.12640;-2.98530;-405.38239;,
 -402.12640;-2.98530;-422.66010;,
 -402.12640;286.85989;-405.38239;,
 -419.40469;286.85989;-405.38239;,
 -419.40469;-2.98530;-405.38239;,
 -402.12640;-2.98530;-405.38239;,
 -419.40469;286.85989;-405.38239;,
 -419.40469;286.85989;-422.66010;,
 -419.40469;-2.98530;-422.66010;,
 -419.40469;-2.98530;-405.38239;,
 -402.12640;286.85989;-422.66010;,
 -419.40469;286.85989;-422.66010;,
 -419.40469;-2.98530;-422.66010;,
 -402.12640;-2.98530;-422.66010;,
 -633.72131;286.85989;-422.66010;,
 -616.44312;286.85989;-422.66010;,
 -616.44312;-2.98530;-422.66010;,
 -633.72131;-2.98530;-422.66010;,
 -616.44312;286.85989;-422.66010;,
 -616.44312;286.85989;-405.38239;,
 -616.44312;-2.98530;-405.38239;,
 -616.44312;-2.98530;-422.66010;,
 -616.44312;286.85989;-405.38239;,
 -633.72131;286.85989;-405.38239;,
 -633.72131;-2.98530;-405.38239;,
 -616.44312;-2.98530;-405.38239;,
 -633.72131;286.85989;-405.38239;,
 -633.72131;286.85989;-422.66010;,
 -633.72131;-2.98530;-422.66010;,
 -633.72131;-2.98530;-405.38239;,
 -616.44312;286.85989;-422.66010;,
 -633.72131;286.85989;-422.66010;,
 -633.72131;-2.98530;-422.66010;,
 -616.44312;-2.98530;-422.66010;,
 -668.18408;29.93240;-485.13049;,
 303.46411;29.93240;-485.13049;,
 303.46411;8.56970;-485.13049;,
 -668.18408;8.56970;-485.13049;,
 303.46411;29.93240;-485.13049;,
 303.46411;29.93240;-224.61620;,
 303.46411;8.56970;-224.61620;,
 303.46411;8.56970;-485.13049;,
 303.46411;29.93240;-224.61620;,
 -668.18408;29.93240;-224.61620;,
 -668.18408;8.56970;-224.61620;,
 303.46411;8.56970;-224.61620;,
 -668.18408;29.93240;-224.61620;,
 -668.18408;29.93240;-485.13049;,
 -668.18408;8.56970;-485.13049;,
 -668.18408;8.56970;-224.61620;,
 303.46411;29.93240;-485.13049;,
 -668.18408;29.93240;-485.13049;,
 -668.18408;8.56970;-485.13049;,
 303.46411;8.56970;-485.13049;;
 
 76;
 4;0,1,2,3;,
 4;4,5,6,7;,
 4;8,9,10,11;,
 4;12,13,14,15;,
 4;16,8,11,17;,
 4;16,17,14,13;,
 4;16,13,12,18;,
 4;16,18,9,8;,
 4;19,11,20,21;,
 4;19,21,22,23;,
 4;18,12,15,24;,
 4;18,24,10,9;,
 4;25,20,26,27;,
 4;25,27,28,29;,
 4;30,31,32,33;,
 4;30,33,26,10;,
 4;34,35,36,37;,
 4;38,39,40,41;,
 4;42,43,44,45;,
 4;42,45,46,47;,
 4;48,49,50,51;,
 4;48,51,52,43;,
 4;53,44,54,55;,
 4;53,55,56,57;,
 4;58,59,60,61;,
 4;58,61,54,52;,
 4;62,63,64,65;,
 4;66,67,68,69;,
 4;70,71,72,73;,
 4;70,73,74,75;,
 4;76,77,78,79;,
 4;80,81,82,83;,
 4;80,83,84,85;,
 4;86,87,88,89;,
 4;86,89,90,91;,
 4;92,93,76,79;,
 4;94,92,79,95;,
 4;96,94,95,97;,
 4;93,96,97,76;,
 4;93,92,94,96;,
 4;98,99,100,101;,
 4;102,103,104,105;,
 4;106,107,108,109;,
 4;110,111,112,113;,
 4;110,103,114,115;,
 4;116,117,104,113;,
 4;118,119,120,121;,
 4;122,123,124,125;,
 4;126,127,128,129;,
 4;130,131,132,133;,
 4;130,123,134,135;,
 4;136,137,124,133;,
 4;138,139,140,141;,
 4;142,143,144,145;,
 4;146,147,148,149;,
 4;150,151,152,153;,
 4;150,143,154,155;,
 4;156,157,144,153;,
 4;158,159,160,161;,
 4;162,163,164,165;,
 4;166,167,168,169;,
 4;170,171,172,173;,
 4;170,163,174,175;,
 4;176,177,164,173;,
 4;178,179,180,181;,
 4;182,183,184,185;,
 4;186,187,188,189;,
 4;190,191,192,193;,
 4;190,183,194,195;,
 4;196,197,184,193;,
 4;198,199,200,201;,
 4;202,203,204,205;,
 4;206,207,208,209;,
 4;210,211,212,213;,
 4;210,203,214,215;,
 4;216,217,204,213;;
 
 MeshMaterialList {
  4;
  76;
  0,
  0,
  1,
  1,
  1,
  1,
  1,
  1,
  0,
  0,
  1,
  1,
  0,
  0,
  0,
  0,
  2,
  2,
  2,
  2,
  2,
  2,
  2,
  2,
  2,
  2,
  2,
  2,
  2,
  2,
  2,
  2,
  2,
  2,
  2,
  2,
  2,
  2,
  2,
  2,
  3,
  3,
  3,
  3,
  3,
  3,
  3,
  3,
  3,
  3,
  3,
  3,
  3,
  3,
  3,
  3,
  3,
  3,
  3,
  3,
  3,
  3,
  3,
  3,
  3,
  3,
  3,
  3,
  3,
  3,
  1,
  1,
  1,
  1,
  1,
  1;;
  Material {
   0.160000;0.100000;0.119200;1.000000;;
   5.000000;
   0.000000;0.000000;0.000000;;
   0.000000;0.000000;0.000000;;
  }
  Material {
   0.552000;0.552000;0.552000;1.000000;;
   5.000000;
   0.000000;0.000000;0.000000;;
   0.000000;0.000000;0.000000;;
  }
  Material {
   0.392000;0.194400;0.241600;1.000000;;
   5.000000;
   0.000000;0.000000;0.000000;;
   0.000000;0.000000;0.000000;;
  }
  Material {
   0.661600;0.583200;0.429600;1.000000;;
   0.000000;
   0.000000;0.000000;0.000000;;
   0.000000;0.000000;0.000000;;
  }
 }
 MeshNormals {
  24;
  0.000000;0.000000;-1.000000;,
  0.000000;0.000000;1.000000;,
  0.000000;0.477283;-0.878750;,
  0.000000;0.474212;0.880411;,
  1.000000;0.000000;0.000000;,
  0.000000;0.838824;-0.544402;,
  -1.000000;0.000000;0.000000;,
  0.000000;-1.000000;-0.000000;,
  0.000000;0.469208;-0.883087;,
  0.000000;0.472664;0.881243;,
  0.000000;0.828704;-0.559687;,
  0.000000;-0.833064;-0.553177;,
  0.000000;0.012103;0.999927;,
  0.000000;0.928804;-0.370571;,
  0.000000;-0.910665;0.413145;,
  0.000000;0.024205;0.999707;,
  0.000000;-0.024202;-0.999707;,
  0.000000;0.835003;0.550246;,
  0.000000;0.833064;0.553177;,
  0.000000;-0.828704;0.559687;,
  0.000000;-0.890576;0.454834;,
  0.000000;-0.928804;0.370571;,
  0.000000;0.890577;-0.454832;,
  0.000000;1.000000;0.000000;;
  76;
  4;0,0,0,0;,
  4;1,1,1,1;,
  4;3,3,1,1;,
  4;2,2,0,0;,
  4;4,4,4,4;,
  4;4,4,4,4;,
  4;5,2,2,5;,
  4;17,17,3,3;,
  4;4,4,4,4;,
  4;4,4,4,4;,
  4;6,6,6,6;,
  4;6,6,6,6;,
  4;7,7,7,7;,
  4;7,7,7,7;,
  4;6,6,6,6;,
  4;6,6,6,6;,
  4;8,8,0,0;,
  4;9,9,1,1;,
  4;4,4,4,4;,
  4;4,4,4,4;,
  4;10,8,8,10;,
  4;18,18,9,9;,
  4;11,11,11,11;,
  4;19,19,19,19;,
  4;6,6,6,6;,
  4;6,6,6,6;,
  4;0,0,0,0;,
  4;12,12,1,1;,
  4;4,4,4,4;,
  4;4,4,4,4;,
  4;13,13,13,13;,
  4;14,20,20,14;,
  4;14,14,21,21;,
  4;6,6,6,6;,
  4;6,6,6,6;,
  4;16,16,16,16;,
  4;6,6,6,6;,
  4;15,15,12,12;,
  4;4,4,4,4;,
  4;22,22,22,22;,
  4;0,0,0,0;,
  4;4,4,4,4;,
  4;1,1,1,1;,
  4;6,6,6,6;,
  4;23,23,23,23;,
  4;7,7,7,7;,
  4;0,0,0,0;,
  4;4,4,4,4;,
  4;1,1,1,1;,
  4;6,6,6,6;,
  4;23,23,23,23;,
  4;7,7,7,7;,
  4;0,0,0,0;,
  4;4,4,4,4;,
  4;1,1,1,1;,
  4;6,6,6,6;,
  4;23,23,23,23;,
  4;7,7,7,7;,
  4;0,0,0,0;,
  4;4,4,4,4;,
  4;1,1,1,1;,
  4;6,6,6,6;,
  4;23,23,23,23;,
  4;7,7,7,7;,
  4;0,0,0,0;,
  4;4,4,4,4;,
  4;1,1,1,1;,
  4;6,6,6,6;,
  4;23,23,23,23;,
  4;7,7,7,7;,
  4;0,0,0,0;,
  4;4,4,4,4;,
  4;1,1,1,1;,
  4;6,6,6,6;,
  4;23,23,23,23;,
  4;7,7,7,7;;
 }
 MeshTextureCoords {
  218;
  0.000000;0.000000;,
  1.000000;0.000000;,
  1.000000;1.000000;,
  0.000000;1.000000;,
  0.000000;0.000000;,
  1.000000;0.000000;,
  1.000000;1.000000;,
  0.000000;1.000000;,
  1.000000;0.000000;,
  0.000000;0.000000;,
  0.000000;0.000000;,
  1.000000;0.000000;,
  0.000000;1.000000;,
  1.000000;1.000000;,
  1.000000;1.000000;,
  0.000000;1.000000;,
  1.000000;0.496190;,
  1.000000;0.496190;,
  0.000000;0.496190;,
  0.503810;0.000000;,
  1.000000;1.000000;,
  0.503810;1.000000;,
  0.000000;1.000000;,
  0.000000;0.000000;,
  0.000000;0.496190;,
  1.000000;0.503810;,
  0.000000;1.000000;,
  0.000000;0.503810;,
  0.000000;0.000000;,
  1.000000;0.000000;,
  0.496190;0.000000;,
  1.000000;0.000000;,
  1.000000;1.000000;,
  0.496190;1.000000;,
  0.000000;0.000000;,
  1.000000;0.000000;,
  1.000000;1.000000;,
  0.000000;1.000000;,
  0.000000;0.000000;,
  1.000000;0.000000;,
  1.000000;1.000000;,
  0.000000;1.000000;,
  0.495550;0.000000;,
  1.000000;0.000000;,
  1.000000;1.000000;,
  0.495550;1.000000;,
  0.000000;1.000000;,
  0.000000;0.000000;,
  1.000000;0.504450;,
  1.000000;1.000000;,
  0.000000;1.000000;,
  0.000000;0.504450;,
  0.000000;0.000000;,
  1.000000;0.495550;,
  0.000000;1.000000;,
  0.000000;0.495550;,
  0.000000;0.000000;,
  1.000000;0.000000;,
  0.504450;0.000000;,
  1.000000;0.000000;,
  1.000000;1.000000;,
  0.504450;1.000000;,
  0.000000;0.000000;,
  1.000000;0.000000;,
  1.000000;1.000000;,
  0.000000;1.000000;,
  0.000000;0.000000;,
  1.000000;0.000000;,
  1.000000;1.000000;,
  0.000000;1.000000;,
  0.381550;0.000000;,
  0.495550;0.000000;,
  0.495550;1.000000;,
  0.381550;1.000000;,
  0.000000;1.000000;,
  0.000000;0.000000;,
  1.000000;0.618450;,
  1.000000;1.000000;,
  0.000000;1.000000;,
  0.000000;0.618450;,
  1.000000;0.381550;,
  1.000000;0.495550;,
  0.000000;0.495550;,
  0.000000;0.381550;,
  0.000000;0.000000;,
  1.000000;0.000000;,
  0.618450;0.000000;,
  1.000000;0.000000;,
  1.000000;1.000000;,
  0.618450;1.000000;,
  0.504450;1.000000;,
  0.504450;0.000000;,
  0.000000;0.618450;,
  1.000000;0.618450;,
  0.000000;0.504450;,
  0.000000;0.504450;,
  1.000000;0.504450;,
  1.000000;0.504450;,
  0.000000;0.000000;,
  1.000000;0.000000;,
  1.000000;1.000000;,
  0.000000;1.000000;,
  0.000000;0.000000;,
  1.000000;0.000000;,
  1.000000;1.000000;,
  0.000000;1.000000;,
  0.000000;0.000000;,
  1.000000;0.000000;,
  1.000000;1.000000;,
  0.000000;1.000000;,
  0.000000;0.000000;,
  1.000000;0.000000;,
  1.000000;1.000000;,
  0.000000;1.000000;,
  1.000000;1.000000;,
  0.000000;1.000000;,
  0.000000;0.000000;,
  1.000000;0.000000;,
  0.000000;0.000000;,
  1.000000;0.000000;,
  1.000000;1.000000;,
  0.000000;1.000000;,
  0.000000;0.000000;,
  1.000000;0.000000;,
  1.000000;1.000000;,
  0.000000;1.000000;,
  0.000000;0.000000;,
  1.000000;0.000000;,
  1.000000;1.000000;,
  0.000000;1.000000;,
  0.000000;0.000000;,
  1.000000;0.000000;,
  1.000000;1.000000;,
  0.000000;1.000000;,
  1.000000;1.000000;,
  0.000000;1.000000;,
  0.000000;0.000000;,
  1.000000;0.000000;,
  0.000000;0.000000;,
  1.000000;0.000000;,
  1.000000;1.000000;,
  0.000000;1.000000;,
  0.000000;0.000000;,
  1.000000;0.000000;,
  1.000000;1.000000;,
  0.000000;1.000000;,
  0.000000;0.000000;,
  1.000000;0.000000;,
  1.000000;1.000000;,
  0.000000;1.000000;,
  0.000000;0.000000;,
  1.000000;0.000000;,
  1.000000;1.000000;,
  0.000000;1.000000;,
  1.000000;1.000000;,
  0.000000;1.000000;,
  0.000000;0.000000;,
  1.000000;0.000000;,
  0.000000;0.000000;,
  1.000000;0.000000;,
  1.000000;1.000000;,
  0.000000;1.000000;,
  0.000000;0.000000;,
  1.000000;0.000000;,
  1.000000;1.000000;,
  0.000000;1.000000;,
  0.000000;0.000000;,
  1.000000;0.000000;,
  1.000000;1.000000;,
  0.000000;1.000000;,
  0.000000;0.000000;,
  1.000000;0.000000;,
  1.000000;1.000000;,
  0.000000;1.000000;,
  1.000000;1.000000;,
  0.000000;1.000000;,
  0.000000;0.000000;,
  1.000000;0.000000;,
  0.000000;0.000000;,
  1.000000;0.000000;,
  1.000000;1.000000;,
  0.000000;1.000000;,
  0.000000;0.000000;,
  1.000000;0.000000;,
  1.000000;1.000000;,
  0.000000;1.000000;,
  0.000000;0.000000;,
  1.000000;0.000000;,
  1.000000;1.000000;,
  0.000000;1.000000;,
  0.000000;0.000000;,
  1.000000;0.000000;,
  1.000000;1.000000;,
  0.000000;1.000000;,
  1.000000;1.000000;,
  0.000000;1.000000;,
  0.000000;0.000000;,
  1.000000;0.000000;,
  0.000000;0.000000;,
  1.000000;0.000000;,
  1.000000;1.000000;,
  0.000000;1.000000;,
  0.000000;0.000000;,
  1.000000;0.000000;,
  1.000000;1.000000;,
  0.000000;1.000000;,
  0.000000;0.000000;,
  1.000000;0.000000;,
  1.000000;1.000000;,
  0.000000;1.000000;,
  0.000000;0.000000;,
  1.000000;0.000000;,
  1.000000;1.000000;,
  0.000000;1.000000;,
  1.000000;1.000000;,
  0.000000;1.000000;,
  0.000000;0.000000;,
  1.000000;0.000000;;
 }
}
