xof 0302txt 0064
template Header {
 <3D82AB43-62DA-11cf-AB39-0020AF71E433>
 WORD major;
 WORD minor;
 DWORD flags;
}

template Vector {
 <3D82AB5E-62DA-11cf-AB39-0020AF71E433>
 FLOAT x;
 FLOAT y;
 FLOAT z;
}

template Coords2d {
 <F6F23F44-7686-11cf-8F52-0040333594A3>
 FLOAT u;
 FLOAT v;
}

template Matrix4x4 {
 <F6F23F45-7686-11cf-8F52-0040333594A3>
 array FLOAT matrix[16];
}

template ColorRGBA {
 <35FF44E0-6C7C-11cf-8F52-0040333594A3>
 FLOAT red;
 FLOAT green;
 FLOAT blue;
 FLOAT alpha;
}

template ColorRGB {
 <D3E16E81-7835-11cf-8F52-0040333594A3>
 FLOAT red;
 FLOAT green;
 FLOAT blue;
}

template IndexedColor {
 <1630B820-7842-11cf-8F52-0040333594A3>
 DWORD index;
 ColorRGBA indexColor;
}

template Boolean {
 <4885AE61-78E8-11cf-8F52-0040333594A3>
 WORD truefalse;
}

template Boolean2d {
 <4885AE63-78E8-11cf-8F52-0040333594A3>
 Boolean u;
 Boolean v;
}

template MaterialWrap {
 <4885AE60-78E8-11cf-8F52-0040333594A3>
 Boolean u;
 Boolean v;
}

template TextureFilename {
 <A42790E1-7810-11cf-8F52-0040333594A3>
 STRING filename;
}

template Material {
 <3D82AB4D-62DA-11cf-AB39-0020AF71E433>
 ColorRGBA faceColor;
 FLOAT power;
 ColorRGB specularColor;
 ColorRGB emissiveColor;
 [...]
}

template MeshFace {
 <3D82AB5F-62DA-11cf-AB39-0020AF71E433>
 DWORD nFaceVertexIndices;
 array DWORD faceVertexIndices[nFaceVertexIndices];
}

template MeshFaceWraps {
 <4885AE62-78E8-11cf-8F52-0040333594A3>
 DWORD nFaceWrapValues;
 Boolean2d faceWrapValues;
}

template MeshTextureCoords {
 <F6F23F40-7686-11cf-8F52-0040333594A3>
 DWORD nTextureCoords;
 array Coords2d textureCoords[nTextureCoords];
}

template MeshMaterialList {
 <F6F23F42-7686-11cf-8F52-0040333594A3>
 DWORD nMaterials;
 DWORD nFaceIndexes;
 array DWORD faceIndexes[nFaceIndexes];
 [Material]
}

template MeshNormals {
 <F6F23F43-7686-11cf-8F52-0040333594A3>
 DWORD nNormals;
 array Vector normals[nNormals];
 DWORD nFaceNormals;
 array MeshFace faceNormals[nFaceNormals];
}

template MeshVertexColors {
 <1630B821-7842-11cf-8F52-0040333594A3>
 DWORD nVertexColors;
 array IndexedColor vertexColors[nVertexColors];
}

template Mesh {
 <3D82AB44-62DA-11cf-AB39-0020AF71E433>
 DWORD nVertices;
 array Vector vertices[nVertices];
 DWORD nFaces;
 array MeshFace faces[nFaces];
 [...]
}

Header{
1;
0;
1;
}

Mesh {
 128;
 -99.51450;2.04785;-100.01210;,
 99.51450;2.04785;-100.01210;,
 99.51450;-2.04055;-100.01210;,
 -99.51450;-2.04055;-100.01210;,
 99.51450;2.04785;100.01210;,
 99.51450;-2.04055;100.01210;,
 -99.51450;2.04785;100.01210;,
 -99.51450;-2.04055;100.01210;,
 99.48545;2.04785;-100.01210;,
 302.01456;2.04785;-100.01210;,
 302.01456;-2.04055;-100.01210;,
 99.48545;-2.04055;-100.01210;,
 302.01456;2.04785;100.01210;,
 302.01456;-2.04055;100.01210;,
 99.48545;2.04785;100.01210;,
 99.48545;-2.04055;100.01210;,
 -99.51450;2.04785;99.98800;,
 99.51450;2.04785;99.98800;,
 99.51450;-2.04055;99.98800;,
 -99.51450;-2.04055;99.98800;,
 99.51450;2.04785;302.51208;,
 99.51450;-2.04055;302.51208;,
 -99.51450;2.04785;302.51208;,
 -99.51450;-2.04055;302.51208;,
 -99.51450;2.04785;-301.51208;,
 99.51450;2.04785;-301.51208;,
 99.51450;-2.04055;-301.51208;,
 -99.51450;-2.04055;-301.51208;,
 99.51450;2.04785;-99.98790;,
 99.51450;-2.04055;-99.98790;,
 -99.51450;2.04785;-99.98790;,
 -99.51450;-2.04055;-99.98790;,
 -301.31448;2.04785;-100.01210;,
 -99.53545;2.04785;-100.01210;,
 -99.53545;-2.04055;-100.01210;,
 -301.31448;-2.04055;-100.01210;,
 -99.53545;2.04785;100.01210;,
 -99.53545;-2.04055;100.01210;,
 -301.31448;2.04785;100.01210;,
 -301.31448;-2.04055;100.01210;,
 113.90195;7.77185;302.62741;,
 98.64740;7.77185;302.62741;,
 98.64740;-2.59000;302.62741;,
 113.90195;-2.59000;302.62741;,
 98.64740;7.77185;98.01910;,
 98.64740;-2.59000;98.01910;,
 98.64740;-2.59000;302.62741;,
 98.64740;7.77185;302.62741;,
 98.64740;7.77185;98.01910;,
 113.90195;7.77185;302.62741;,
 113.90195;7.77185;114.06910;,
 98.64740;-2.59000;98.01910;,
 113.90195;-2.59000;114.06910;,
 113.90195;-2.59000;302.62741;,
 113.90195;7.77185;114.06910;,
 113.90195;-2.59000;114.06910;,
 302.03204;-2.59000;114.06910;,
 302.03204;7.77185;114.06910;,
 302.03204;-2.59000;98.01910;,
 98.64740;-2.59000;98.01910;,
 302.03204;7.77185;98.01910;,
 98.64740;7.77185;98.01910;,
 302.64389;7.77185;-113.23895;,
 302.64389;7.77185;-97.98440;,
 302.64389;-2.59000;-97.98440;,
 302.64389;-2.59000;-113.23895;,
 98.03560;7.77185;-97.98440;,
 98.03560;-2.59000;-97.98440;,
 302.64389;-2.59000;-97.98440;,
 302.64389;7.77185;-97.98440;,
 98.03560;7.77185;-97.98440;,
 302.64389;7.77185;-113.23895;,
 114.08555;7.77185;-113.23895;,
 98.03560;-2.59000;-97.98440;,
 114.08555;-2.59000;-113.23895;,
 302.64389;-2.59000;-113.23895;,
 114.08555;7.77185;-113.23895;,
 114.08555;-2.59000;-113.23895;,
 114.08555;-2.59000;-301.36899;,
 114.08555;7.77185;-301.36899;,
 98.03555;-2.59000;-301.36899;,
 98.03560;-2.59000;-97.98440;,
 98.03555;7.77185;-301.36899;,
 98.03560;7.77185;-97.98440;,
 -113.22250;7.77185;-301.98083;,
 -97.96790;7.77185;-301.98083;,
 -97.96790;-2.59000;-301.98083;,
 -113.22250;-2.59000;-301.98083;,
 -97.96790;7.77185;-97.37255;,
 -97.96790;-2.59000;-97.37255;,
 -97.96790;-2.59000;-301.98083;,
 -97.96790;7.77185;-301.98083;,
 -97.96790;7.77185;-97.37255;,
 -113.22250;7.77185;-301.98083;,
 -113.22245;7.77185;-113.42255;,
 -97.96790;-2.59000;-97.37255;,
 -113.22245;-2.59000;-113.42255;,
 -113.22250;-2.59000;-301.98083;,
 -113.22245;7.77185;-113.42255;,
 -113.22245;-2.59000;-113.42255;,
 -301.35254;-2.59000;-113.42255;,
 -301.35254;7.77185;-113.42255;,
 -301.35254;-2.59000;-97.37255;,
 -97.96790;-2.59000;-97.37255;,
 -301.35254;7.77185;-97.37255;,
 -97.96790;7.77185;-97.37255;,
 -301.96439;7.77185;113.88565;,
 -301.96439;7.77185;98.63105;,
 -301.96439;-2.59000;98.63105;,
 -301.96439;-2.59000;113.88565;,
 -97.35610;7.77185;98.63105;,
 -97.35610;-2.59000;98.63105;,
 -301.96439;-2.59000;98.63105;,
 -301.96439;7.77185;98.63105;,
 -97.35610;7.77185;98.63105;,
 -301.96439;7.77185;113.88565;,
 -113.40605;7.77185;113.88560;,
 -97.35610;-2.59000;98.63105;,
 -113.40605;-2.59000;113.88560;,
 -301.96439;-2.59000;113.88565;,
 -113.40605;7.77185;113.88560;,
 -113.40605;-2.59000;113.88560;,
 -113.40605;-2.59000;302.01575;,
 -113.40605;7.77185;302.01575;,
 -97.35605;-2.59000;302.01575;,
 -97.35610;-2.59000;98.63105;,
 -97.35605;7.77185;302.01575;,
 -97.35610;7.77185;98.63105;;
 
 70;
 4;0,1,2,3;,
 4;1,4,5,2;,
 4;4,6,7,5;,
 4;6,0,3,7;,
 4;6,4,1,0;,
 4;3,2,5,7;,
 4;8,9,10,11;,
 4;9,12,13,10;,
 4;12,14,15,13;,
 4;14,8,11,15;,
 4;14,12,9,8;,
 4;11,10,13,15;,
 4;16,17,18,19;,
 4;17,20,21,18;,
 4;20,22,23,21;,
 4;22,16,19,23;,
 4;22,20,17,16;,
 4;19,18,21,23;,
 4;24,25,26,27;,
 4;25,28,29,26;,
 4;28,30,31,29;,
 4;30,24,27,31;,
 4;30,28,25,24;,
 4;27,26,29,31;,
 4;32,33,34,35;,
 4;33,36,37,34;,
 4;36,38,39,37;,
 4;38,32,35,39;,
 4;38,36,33,32;,
 4;35,34,37,39;,
 4;40,41,42,43;,
 4;44,45,46,47;,
 4;48,47,49,50;,
 4;51,52,53,46;,
 4;54,49,53,55;,
 4;56,57,54,55;,
 4;58,56,55,59;,
 4;60,58,59,61;,
 4;57,60,61,54;,
 4;57,56,58,60;,
 4;62,63,64,65;,
 4;66,67,68,69;,
 4;70,69,71,72;,
 4;73,74,75,68;,
 4;76,71,75,77;,
 4;78,79,76,77;,
 4;80,78,77,81;,
 4;82,80,81,83;,
 4;79,82,83,76;,
 4;79,78,80,82;,
 4;84,85,86,87;,
 4;88,89,90,91;,
 4;92,91,93,94;,
 4;95,96,97,90;,
 4;98,93,97,99;,
 4;100,101,98,99;,
 4;102,100,99,103;,
 4;104,102,103,105;,
 4;101,104,105,98;,
 4;101,100,102,104;,
 4;106,107,108,109;,
 4;110,111,112,113;,
 4;114,113,115,116;,
 4;117,118,119,112;,
 4;120,115,119,121;,
 4;122,123,120,121;,
 4;124,122,121,125;,
 4;126,124,125,127;,
 4;123,126,127,120;,
 4;123,122,124,126;;
 
 MeshMaterialList {
  2;
  70;
  0,
  0,
  0,
  0,
  0,
  0,
  0,
  0,
  0,
  0,
  0,
  0,
  0,
  0,
  0,
  0,
  0,
  0,
  0,
  0,
  0,
  0,
  0,
  0,
  0,
  0,
  0,
  0,
  0,
  0,
  1,
  1,
  1,
  1,
  1,
  1,
  1,
  1,
  1,
  1,
  1,
  1,
  1,
  1,
  1,
  1,
  1,
  1,
  1,
  1,
  1,
  1,
  1,
  1,
  1,
  1,
  1,
  1,
  1,
  1,
  1,
  1,
  1,
  1,
  1,
  1,
  1,
  1,
  1,
  1;;
  Material {
   0.552000;0.552000;0.552000;1.000000;;
   0.000000;
   0.000000;0.000000;0.000000;;
   0.000000;0.000000;0.000000;;
   TextureFilename {
    "data/TEXTURE/flagstone.jpg";
   }
  }
  Material {
   0.432800;0.432800;0.432800;1.000000;;
   0.000000;
   0.000000;0.000000;0.000000;;
   0.000000;0.000000;0.000000;;
  }
 }
 MeshNormals {
  10;
  0.000000;0.000000;-1.000000;,
  1.000000;0.000000;0.000000;,
  0.000000;0.000000;1.000000;,
  -1.000000;0.000000;0.000000;,
  0.000000;1.000000;0.000000;,
  0.000000;-1.000000;-0.000000;,
  -1.000000;0.000000;0.000000;,
  1.000000;0.000000;-0.000000;,
  -1.000000;0.000000;0.000000;,
  0.000000;0.000000;1.000000;;
  70;
  4;0,0,0,0;,
  4;1,1,1,1;,
  4;2,2,2,2;,
  4;3,3,3,3;,
  4;4,4,4,4;,
  4;5,5,5,5;,
  4;0,0,0,0;,
  4;1,1,1,1;,
  4;2,2,2,2;,
  4;3,3,3,3;,
  4;4,4,4,4;,
  4;5,5,5,5;,
  4;0,0,0,0;,
  4;1,1,1,1;,
  4;2,2,2,2;,
  4;3,3,3,3;,
  4;4,4,4,4;,
  4;5,5,5,5;,
  4;0,0,0,0;,
  4;1,1,1,1;,
  4;2,2,2,2;,
  4;3,3,3,3;,
  4;4,4,4,4;,
  4;5,5,5,5;,
  4;0,0,0,0;,
  4;1,1,1,1;,
  4;2,2,2,2;,
  4;3,3,3,3;,
  4;4,4,4,4;,
  4;5,5,5,5;,
  4;2,2,2,2;,
  4;3,3,3,3;,
  4;4,4,4,4;,
  4;5,5,5,5;,
  4;1,1,1,1;,
  4;2,2,2,2;,
  4;5,5,5,5;,
  4;0,0,0,0;,
  4;4,4,4,4;,
  4;1,1,1,1;,
  4;1,1,1,1;,
  4;2,2,2,2;,
  4;4,4,4,4;,
  4;5,5,5,5;,
  4;0,0,0,0;,
  4;1,1,1,1;,
  4;5,5,5,5;,
  4;6,6,6,6;,
  4;4,4,4,4;,
  4;0,0,0,0;,
  4;0,0,0,0;,
  4;1,1,1,1;,
  4;4,4,4,4;,
  4;5,5,5,5;,
  4;8,8,8,8;,
  4;0,0,0,0;,
  4;5,5,5,5;,
  4;2,2,2,2;,
  4;4,4,4,4;,
  4;3,3,3,3;,
  4;3,3,3,3;,
  4;0,0,0,0;,
  4;4,4,4,4;,
  4;5,5,5,5;,
  4;9,9,9,9;,
  4;3,3,3,3;,
  4;5,5,5,5;,
  4;7,7,7,7;,
  4;4,4,4,4;,
  4;2,2,2,2;;
 }
 MeshTextureCoords {
  128;
  0.002437;1.500048;,
  0.997573;1.500048;,
  0.997573;1.141235;,
  0.002437;1.141235;,
  0.997573;-0.500074;,
  0.997573;-0.858887;,
  0.002437;-0.500074;,
  0.002437;-0.858887;,
  0.997427;1.500048;,
  2.010063;1.500048;,
  2.010063;1.141235;,
  0.997427;1.141235;,
  2.010063;-0.500074;,
  2.010063;-0.858887;,
  0.997427;-0.500074;,
  0.997427;-0.858887;,
  0.002437;-0.499833;,
  0.997573;-0.499833;,
  0.997573;-0.858646;,
  0.002437;-0.858646;,
  0.997573;-2.524953;,
  0.997573;-2.883765;,
  0.002437;-2.524953;,
  0.002437;-2.883765;,
  0.002437;3.514927;,
  0.997573;3.514927;,
  0.997573;3.156114;,
  0.002437;3.156114;,
  0.997573;1.499806;,
  0.997573;1.140993;,
  0.002437;1.499806;,
  0.002437;1.140993;,
  -1.006552;1.500048;,
  0.002333;1.500048;,
  0.002333;1.141235;,
  -1.006552;1.141235;,
  0.002333;-0.500074;,
  0.002333;-0.858887;,
  -1.006552;-0.500074;,
  -1.006552;-0.858887;,
  0.000000;0.000000;,
  1.000000;0.000000;,
  1.000000;1.000000;,
  0.000000;1.000000;,
  0.859960;0.000000;,
  0.859960;1.000000;,
  0.000000;1.000000;,
  0.000000;0.000000;,
  0.000000;0.859960;,
  1.000000;0.000000;,
  1.000000;0.859960;,
  0.000000;0.140040;,
  1.000000;0.140040;,
  1.000000;1.000000;,
  0.140040;0.000000;,
  0.140040;1.000000;,
  0.140040;1.000000;,
  0.140040;0.000000;,
  0.000000;1.000000;,
  0.000000;1.000000;,
  0.000000;0.000000;,
  0.000000;0.000000;,
  0.000000;0.000000;,
  1.000000;0.000000;,
  1.000000;1.000000;,
  0.000000;1.000000;,
  0.859960;0.000000;,
  0.859960;1.000000;,
  0.000000;1.000000;,
  0.000000;0.000000;,
  0.000000;0.859960;,
  1.000000;0.000000;,
  1.000000;0.859960;,
  0.000000;0.140040;,
  1.000000;0.140040;,
  1.000000;1.000000;,
  0.140040;0.000000;,
  0.140040;1.000000;,
  0.140040;1.000000;,
  0.140040;0.000000;,
  0.000000;1.000000;,
  0.000000;1.000000;,
  0.000000;0.000000;,
  0.000000;0.000000;,
  0.000000;0.000000;,
  1.000000;0.000000;,
  1.000000;1.000000;,
  0.000000;1.000000;,
  0.859960;0.000000;,
  0.859960;1.000000;,
  0.000000;1.000000;,
  0.000000;0.000000;,
  0.000000;0.859960;,
  1.000000;0.000000;,
  1.000000;0.859960;,
  0.000000;0.140040;,
  1.000000;0.140040;,
  1.000000;1.000000;,
  0.140040;0.000000;,
  0.140040;1.000000;,
  0.140040;1.000000;,
  0.140040;0.000000;,
  0.000000;1.000000;,
  0.000000;1.000000;,
  0.000000;0.000000;,
  0.000000;0.000000;,
  0.000000;0.000000;,
  1.000000;0.000000;,
  1.000000;1.000000;,
  0.000000;1.000000;,
  0.859960;0.000000;,
  0.859960;1.000000;,
  0.000000;1.000000;,
  0.000000;0.000000;,
  0.000000;0.859960;,
  1.000000;0.000000;,
  1.000000;0.859960;,
  0.000000;0.140040;,
  1.000000;0.140040;,
  1.000000;1.000000;,
  0.140040;0.000000;,
  0.140040;1.000000;,
  0.140040;1.000000;,
  0.140040;0.000000;,
  0.000000;1.000000;,
  0.000000;1.000000;,
  0.000000;0.000000;,
  0.000000;0.000000;;
 }
}
