xof 0302txt 0064
template Header {
 <3D82AB43-62DA-11cf-AB39-0020AF71E433>
 WORD major;
 WORD minor;
 DWORD flags;
}

template Vector {
 <3D82AB5E-62DA-11cf-AB39-0020AF71E433>
 FLOAT x;
 FLOAT y;
 FLOAT z;
}

template Coords2d {
 <F6F23F44-7686-11cf-8F52-0040333594A3>
 FLOAT u;
 FLOAT v;
}

template Matrix4x4 {
 <F6F23F45-7686-11cf-8F52-0040333594A3>
 array FLOAT matrix[16];
}

template ColorRGBA {
 <35FF44E0-6C7C-11cf-8F52-0040333594A3>
 FLOAT red;
 FLOAT green;
 FLOAT blue;
 FLOAT alpha;
}

template ColorRGB {
 <D3E16E81-7835-11cf-8F52-0040333594A3>
 FLOAT red;
 FLOAT green;
 FLOAT blue;
}

template IndexedColor {
 <1630B820-7842-11cf-8F52-0040333594A3>
 DWORD index;
 ColorRGBA indexColor;
}

template Boolean {
 <4885AE61-78E8-11cf-8F52-0040333594A3>
 WORD truefalse;
}

template Boolean2d {
 <4885AE63-78E8-11cf-8F52-0040333594A3>
 Boolean u;
 Boolean v;
}

template MaterialWrap {
 <4885AE60-78E8-11cf-8F52-0040333594A3>
 Boolean u;
 Boolean v;
}

template TextureFilename {
 <A42790E1-7810-11cf-8F52-0040333594A3>
 STRING filename;
}

template Material {
 <3D82AB4D-62DA-11cf-AB39-0020AF71E433>
 ColorRGBA faceColor;
 FLOAT power;
 ColorRGB specularColor;
 ColorRGB emissiveColor;
 [...]
}

template MeshFace {
 <3D82AB5F-62DA-11cf-AB39-0020AF71E433>
 DWORD nFaceVertexIndices;
 array DWORD faceVertexIndices[nFaceVertexIndices];
}

template MeshFaceWraps {
 <4885AE62-78E8-11cf-8F52-0040333594A3>
 DWORD nFaceWrapValues;
 Boolean2d faceWrapValues;
}

template MeshTextureCoords {
 <F6F23F40-7686-11cf-8F52-0040333594A3>
 DWORD nTextureCoords;
 array Coords2d textureCoords[nTextureCoords];
}

template MeshMaterialList {
 <F6F23F42-7686-11cf-8F52-0040333594A3>
 DWORD nMaterials;
 DWORD nFaceIndexes;
 array DWORD faceIndexes[nFaceIndexes];
 [Material]
}

template MeshNormals {
 <F6F23F43-7686-11cf-8F52-0040333594A3>
 DWORD nNormals;
 array Vector normals[nNormals];
 DWORD nFaceNormals;
 array MeshFace faceNormals[nFaceNormals];
}

template MeshVertexColors {
 <1630B821-7842-11cf-8F52-0040333594A3>
 DWORD nVertexColors;
 array IndexedColor vertexColors[nVertexColors];
}

template Mesh {
 <3D82AB44-62DA-11cf-AB39-0020AF71E433>
 DWORD nVertices;
 array Vector vertices[nVertices];
 DWORD nFaces;
 array MeshFace faces[nFaces];
 [...]
}

Header{
1;
0;
1;
}

Mesh {
 132;
 -100.00155;2.04785;-250.00000;,
 -0.00145;2.04785;-250.00000;,
 -0.00145;-2.04055;-250.00000;,
 -100.00155;-2.04055;-250.00000;,
 -0.00145;2.04785;250.00000;,
 -0.00145;-2.04055;250.00000;,
 -100.00155;2.04785;250.00000;,
 -100.00155;-2.04055;250.00000;,
 -113.40855;7.77185;-250.00000;,
 -97.25400;7.77185;-250.00000;,
 -97.25400;-2.59000;-250.00000;,
 -113.40855;-2.59000;-250.00000;,
 -97.25400;7.77185;-250.00000;,
 -97.25400;7.77185;250.00000;,
 -97.25400;-2.59000;250.00000;,
 -97.25400;-2.59000;-250.00000;,
 -97.25400;7.77185;250.00000;,
 -113.40855;7.77185;250.00000;,
 -113.40855;-2.59000;250.00000;,
 -97.25400;-2.59000;250.00000;,
 -113.40855;7.77185;250.00000;,
 -113.40855;7.77185;-250.00000;,
 -113.40855;-2.59000;-250.00000;,
 -113.40855;-2.59000;250.00000;,
 -97.25400;7.77185;-250.00000;,
 -113.40855;7.77185;-250.00000;,
 -113.40855;-2.59000;-250.00000;,
 -97.25400;-2.59000;-250.00000;,
 99.99160;2.04785;-100.00015;,
 -0.00850;2.04785;-100.00015;,
 -0.00850;-2.04055;-100.00015;,
 99.99160;-2.04055;-100.00015;,
 -0.00855;2.04785;-250.00000;,
 -0.00855;-2.04055;-250.00000;,
 99.99155;2.04785;-250.00000;,
 99.99155;-2.04055;-250.00000;,
 114.24857;7.77185;-100.00015;,
 98.64407;7.77185;-100.00015;,
 98.64407;-2.59000;-100.00015;,
 114.24857;-2.59000;-100.00015;,
 98.64407;7.77185;-100.00015;,
 98.64407;7.77185;-250.00000;,
 98.64407;-2.59000;-250.00000;,
 98.64407;-2.59000;-100.00015;,
 98.64407;7.77185;-250.00000;,
 114.24857;7.77185;-250.00000;,
 114.24857;-2.59000;-250.00000;,
 98.64407;-2.59000;-250.00000;,
 114.24857;7.77185;-250.00000;,
 114.24857;7.77185;-100.00015;,
 114.24857;-2.59000;-100.00015;,
 114.24857;-2.59000;-250.00000;,
 98.64407;7.77185;-100.00015;,
 114.24857;7.77185;-100.00015;,
 114.24857;-2.59000;-100.00015;,
 98.64407;-2.59000;-100.00015;,
 99.99160;2.04785;249.99989;,
 -0.00850;2.04785;249.99989;,
 -0.00850;-2.04055;249.99989;,
 99.99160;-2.04055;249.99989;,
 -0.00855;2.04785;100.00000;,
 -0.00855;-2.04055;100.00000;,
 99.99155;2.04785;100.00000;,
 99.99155;-2.04055;100.00000;,
 114.19856;7.77185;249.99989;,
 98.24405;7.77185;249.99989;,
 98.24405;-2.59000;249.99989;,
 114.19856;-2.59000;249.99989;,
 98.24405;7.77185;249.99989;,
 98.24405;7.77185;100.00000;,
 98.24405;-2.59000;100.00000;,
 98.24405;-2.59000;249.99989;,
 98.24405;7.77185;100.00000;,
 114.19856;7.77185;100.00000;,
 114.19856;-2.59000;100.00000;,
 98.24405;-2.59000;100.00000;,
 114.19856;7.77185;100.00000;,
 114.19856;7.77185;249.99989;,
 114.19856;-2.59000;249.99989;,
 114.19856;-2.59000;100.00000;,
 98.24405;7.77185;249.99989;,
 114.19856;7.77185;249.99989;,
 114.19856;-2.59000;249.99989;,
 98.24405;-2.59000;249.99989;,
 98.08950;7.77185;-97.68650;,
 98.08950;7.77185;-113.94095;,
 98.08950;-2.59000;-113.94095;,
 98.08950;-2.59000;-97.68650;,
 98.08950;7.77185;-113.94095;,
 248.08925;7.77185;-113.94095;,
 248.08925;-2.59000;-113.94095;,
 98.08950;-2.59000;-113.94095;,
 248.08925;7.77185;-113.94095;,
 248.08925;7.77185;-97.68650;,
 248.08925;-2.59000;-97.68650;,
 248.08925;-2.59000;-113.94095;,
 248.08925;7.77185;-97.68650;,
 98.08950;7.77185;-97.68650;,
 98.08950;-2.59000;-97.68650;,
 248.08925;-2.59000;-97.68650;,
 98.08950;7.77185;-113.94095;,
 98.08950;7.77185;-97.68650;,
 98.08950;-2.59000;-97.68650;,
 98.08950;-2.59000;-113.94095;,
 0.00000;2.04785;-100.00000;,
 248.00000;2.04785;-100.00000;,
 248.00000;-2.04055;-100.00000;,
 0.00000;-2.04055;-100.00000;,
 248.00000;2.04785;100.00000;,
 248.00000;-2.04055;100.00000;,
 0.00000;2.04785;100.00000;,
 0.00000;-2.04055;100.00000;,
 98.08950;7.77185;114.31350;,
 98.08950;7.77185;97.05905;,
 98.08950;-2.59000;97.05905;,
 98.08950;-2.59000;114.31350;,
 98.08950;7.77185;97.05905;,
 248.08925;7.77185;97.05905;,
 248.08925;-2.59000;97.05905;,
 98.08950;-2.59000;97.05905;,
 248.08925;7.77185;97.05905;,
 248.08925;7.77185;113.96348;,
 248.08925;-2.59000;113.96348;,
 248.08925;-2.59000;97.05905;,
 248.08925;7.77185;113.96348;,
 98.08950;7.77185;114.31350;,
 98.08950;-2.59000;114.31350;,
 248.08925;-2.59000;113.96348;,
 98.08950;7.77185;97.05905;,
 98.08950;7.77185;114.31350;,
 98.08950;-2.59000;114.31350;,
 98.08950;-2.59000;97.05905;;
 
 54;
 4;0,1,2,3;,
 4;1,4,5,2;,
 4;4,6,7,5;,
 4;6,0,3,7;,
 4;6,4,1,0;,
 4;3,2,5,7;,
 4;8,9,10,11;,
 4;12,13,14,15;,
 4;16,17,18,19;,
 4;20,21,22,23;,
 4;20,13,24,25;,
 4;26,27,14,23;,
 4;28,29,30,31;,
 4;29,32,33,30;,
 4;32,34,35,33;,
 4;34,28,31,35;,
 4;34,32,29,28;,
 4;31,30,33,35;,
 4;36,37,38,39;,
 4;40,41,42,43;,
 4;44,45,46,47;,
 4;48,49,50,51;,
 4;48,41,52,53;,
 4;54,55,42,51;,
 4;56,57,58,59;,
 4;57,60,61,58;,
 4;60,62,63,61;,
 4;62,56,59,63;,
 4;62,60,57,56;,
 4;59,58,61,63;,
 4;64,65,66,67;,
 4;68,69,70,71;,
 4;72,73,74,75;,
 4;76,77,78,79;,
 4;76,69,80,81;,
 4;82,83,70,79;,
 4;84,85,86,87;,
 4;88,89,90,91;,
 4;92,93,94,95;,
 4;96,97,98,99;,
 4;96,89,100,101;,
 4;102,103,90,99;,
 4;104,105,106,107;,
 4;105,108,109,106;,
 4;108,110,111,109;,
 4;110,104,107,111;,
 4;110,108,105,104;,
 4;107,106,109,111;,
 4;112,113,114,115;,
 4;116,117,118,119;,
 4;120,121,122,123;,
 4;124,125,126,127;,
 4;124,117,128,129;,
 4;130,131,118,127;;
 
 MeshMaterialList {
  2;
  54;
  0,
  0,
  0,
  0,
  0,
  0,
  1,
  1,
  1,
  1,
  1,
  1,
  0,
  0,
  0,
  0,
  0,
  0,
  1,
  1,
  1,
  1,
  1,
  1,
  0,
  0,
  0,
  0,
  0,
  0,
  1,
  1,
  1,
  1,
  1,
  1,
  1,
  1,
  1,
  1,
  1,
  1,
  0,
  0,
  0,
  0,
  0,
  0,
  1,
  1,
  1,
  1,
  1,
  1;;
  Material {
   0.552000;0.552000;0.552000;1.000000;;
   0.000000;
   0.000000;0.000000;0.000000;;
   0.000000;0.000000;0.000000;;
   TextureFilename {
    "data/TEXTURE/flagstone.jpg";
   }
  }
  Material {
   0.432800;0.432800;0.432800;1.000000;;
   0.000000;
   0.000000;0.000000;0.000000;;
   0.000000;0.000000;0.000000;;
  }
 }
 MeshNormals {
  11;
  0.000000;0.000000;-1.000000;,
  1.000000;0.000000;0.000000;,
  0.000000;0.000000;1.000000;,
  -1.000000;0.000000;0.000000;,
  -1.000000;0.000000;0.000000;,
  -1.000000;0.000000;0.000000;,
  0.000000;1.000000;0.000000;,
  0.000000;-1.000000;-0.000000;,
  1.000000;0.000000;-0.000000;,
  1.000000;0.000000;-0.000000;,
  0.002333;0.000000;0.999997;;
  54;
  4;0,0,0,0;,
  4;1,1,1,1;,
  4;2,2,2,2;,
  4;4,4,4,4;,
  4;6,6,6,6;,
  4;7,7,7,7;,
  4;0,0,0,0;,
  4;1,1,1,1;,
  4;2,2,2,2;,
  4;4,4,4,4;,
  4;6,6,6,6;,
  4;7,7,7,7;,
  4;2,2,2,2;,
  4;3,3,3,3;,
  4;0,0,0,0;,
  4;8,8,8,8;,
  4;6,6,6,6;,
  4;7,7,7,7;,
  4;2,2,2,2;,
  4;4,4,4,4;,
  4;0,0,0,0;,
  4;1,1,1,1;,
  4;6,6,6,6;,
  4;7,7,7,7;,
  4;2,2,2,2;,
  4;5,5,5,5;,
  4;0,0,0,0;,
  4;9,9,9,9;,
  4;6,6,6,6;,
  4;7,7,7,7;,
  4;2,2,2,2;,
  4;4,4,4,4;,
  4;0,0,0,0;,
  4;1,1,1,1;,
  4;6,6,6,6;,
  4;7,7,7,7;,
  4;4,4,4,4;,
  4;0,0,0,0;,
  4;1,1,1,1;,
  4;2,2,2,2;,
  4;6,6,6,6;,
  4;7,7,7,7;,
  4;0,0,0,0;,
  4;1,1,1,1;,
  4;2,2,2,2;,
  4;4,4,4,4;,
  4;6,6,6,6;,
  4;7,7,7,7;,
  4;4,4,4,4;,
  4;0,0,0,0;,
  4;1,1,1,1;,
  4;10,10,10,10;,
  4;6,6,6,6;,
  4;7,7,7,7;;
 }
 MeshTextureCoords {
  132;
  0.000002;2.999837;,
  0.499998;2.999837;,
  0.499998;2.641024;,
  0.000002;2.641024;,
  0.499998;-1.999863;,
  0.499998;-2.358676;,
  0.000002;-1.999863;,
  0.000002;-2.358676;,
  0.000000;0.000000;,
  1.000000;0.000000;,
  1.000000;1.000000;,
  0.000000;1.000000;,
  0.000000;0.000000;,
  1.000000;0.000000;,
  1.000000;1.000000;,
  0.000000;1.000000;,
  0.000000;0.000000;,
  1.000000;0.000000;,
  1.000000;1.000000;,
  0.000000;1.000000;,
  0.000000;0.000000;,
  1.000000;0.000000;,
  1.000000;1.000000;,
  0.000000;1.000000;,
  1.000000;1.000000;,
  0.000000;1.000000;,
  0.000000;0.000000;,
  1.000000;0.000000;,
  0.999958;1.499928;,
  0.499963;1.499928;,
  0.499963;1.141116;,
  0.999958;1.141116;,
  0.499962;2.999837;,
  0.499962;2.641024;,
  0.999958;2.999837;,
  0.999958;2.641024;,
  0.000000;0.000000;,
  1.000000;0.000000;,
  1.000000;1.000000;,
  0.000000;1.000000;,
  0.000000;0.000000;,
  1.000000;0.000000;,
  1.000000;1.000000;,
  0.000000;1.000000;,
  0.000000;0.000000;,
  1.000000;0.000000;,
  1.000000;1.000000;,
  0.000000;1.000000;,
  0.000000;0.000000;,
  1.000000;0.000000;,
  1.000000;1.000000;,
  0.000000;1.000000;,
  1.000000;1.000000;,
  0.000000;1.000000;,
  0.000000;0.000000;,
  1.000000;0.000000;,
  0.999958;-1.999862;,
  0.499963;-1.999862;,
  0.499963;-2.358675;,
  0.999958;-2.358675;,
  0.499962;-0.499953;,
  0.499962;-0.858766;,
  0.999958;-0.499953;,
  0.999958;-0.858766;,
  0.000000;0.000000;,
  1.000000;0.000000;,
  1.000000;1.000000;,
  0.000000;1.000000;,
  0.000000;0.000000;,
  1.000000;0.000000;,
  1.000000;1.000000;,
  0.000000;1.000000;,
  0.000000;0.000000;,
  1.000000;0.000000;,
  1.000000;1.000000;,
  0.000000;1.000000;,
  0.000000;0.000000;,
  1.000000;0.000000;,
  1.000000;1.000000;,
  0.000000;1.000000;,
  1.000000;1.000000;,
  0.000000;1.000000;,
  0.000000;0.000000;,
  1.000000;0.000000;,
  0.000000;0.000000;,
  1.000000;0.000000;,
  1.000000;1.000000;,
  0.000000;1.000000;,
  0.000000;0.000000;,
  1.000000;0.000000;,
  1.000000;1.000000;,
  0.000000;1.000000;,
  0.000000;0.000000;,
  1.000000;0.000000;,
  1.000000;1.000000;,
  0.000000;1.000000;,
  0.000000;0.000000;,
  1.000000;0.000000;,
  1.000000;1.000000;,
  0.000000;1.000000;,
  1.000000;1.000000;,
  0.000000;1.000000;,
  0.000000;0.000000;,
  1.000000;0.000000;,
  0.500005;1.499927;,
  1.739993;1.499927;,
  1.739993;1.141114;,
  0.500005;1.141114;,
  1.739993;-0.499953;,
  1.739993;-0.858766;,
  0.500005;-0.499953;,
  0.500005;-0.858766;,
  0.000000;0.000000;,
  1.000000;0.000000;,
  1.000000;1.000000;,
  0.000000;1.000000;,
  0.000000;0.000000;,
  1.000000;0.000000;,
  1.000000;1.000000;,
  0.000000;1.000000;,
  0.000000;0.000000;,
  1.000000;0.000000;,
  1.000000;1.000000;,
  0.000000;1.000000;,
  0.000000;0.000000;,
  1.000000;0.000000;,
  1.000000;1.000000;,
  0.000000;1.000000;,
  1.000000;1.000000;,
  0.000000;1.000000;,
  0.000000;0.000000;,
  1.000000;0.000000;;
 }
}
