xof 0302txt 0064
template Header {
 <3D82AB43-62DA-11cf-AB39-0020AF71E433>
 WORD major;
 WORD minor;
 DWORD flags;
}

template Vector {
 <3D82AB5E-62DA-11cf-AB39-0020AF71E433>
 FLOAT x;
 FLOAT y;
 FLOAT z;
}

template Coords2d {
 <F6F23F44-7686-11cf-8F52-0040333594A3>
 FLOAT u;
 FLOAT v;
}

template Matrix4x4 {
 <F6F23F45-7686-11cf-8F52-0040333594A3>
 array FLOAT matrix[16];
}

template ColorRGBA {
 <35FF44E0-6C7C-11cf-8F52-0040333594A3>
 FLOAT red;
 FLOAT green;
 FLOAT blue;
 FLOAT alpha;
}

template ColorRGB {
 <D3E16E81-7835-11cf-8F52-0040333594A3>
 FLOAT red;
 FLOAT green;
 FLOAT blue;
}

template IndexedColor {
 <1630B820-7842-11cf-8F52-0040333594A3>
 DWORD index;
 ColorRGBA indexColor;
}

template Boolean {
 <4885AE61-78E8-11cf-8F52-0040333594A3>
 WORD truefalse;
}

template Boolean2d {
 <4885AE63-78E8-11cf-8F52-0040333594A3>
 Boolean u;
 Boolean v;
}

template MaterialWrap {
 <4885AE60-78E8-11cf-8F52-0040333594A3>
 Boolean u;
 Boolean v;
}

template TextureFilename {
 <A42790E1-7810-11cf-8F52-0040333594A3>
 STRING filename;
}

template Material {
 <3D82AB4D-62DA-11cf-AB39-0020AF71E433>
 ColorRGBA faceColor;
 FLOAT power;
 ColorRGB specularColor;
 ColorRGB emissiveColor;
 [...]
}

template MeshFace {
 <3D82AB5F-62DA-11cf-AB39-0020AF71E433>
 DWORD nFaceVertexIndices;
 array DWORD faceVertexIndices[nFaceVertexIndices];
}

template MeshFaceWraps {
 <4885AE62-78E8-11cf-8F52-0040333594A3>
 DWORD nFaceWrapValues;
 Boolean2d faceWrapValues;
}

template MeshTextureCoords {
 <F6F23F40-7686-11cf-8F52-0040333594A3>
 DWORD nTextureCoords;
 array Coords2d textureCoords[nTextureCoords];
}

template MeshMaterialList {
 <F6F23F42-7686-11cf-8F52-0040333594A3>
 DWORD nMaterials;
 DWORD nFaceIndexes;
 array DWORD faceIndexes[nFaceIndexes];
 [Material]
}

template MeshNormals {
 <F6F23F43-7686-11cf-8F52-0040333594A3>
 DWORD nNormals;
 array Vector normals[nNormals];
 DWORD nFaceNormals;
 array MeshFace faceNormals[nFaceNormals];
}

template MeshVertexColors {
 <1630B821-7842-11cf-8F52-0040333594A3>
 DWORD nVertexColors;
 array IndexedColor vertexColors[nVertexColors];
}

template Mesh {
 <3D82AB44-62DA-11cf-AB39-0020AF71E433>
 DWORD nVertices;
 array Vector vertices[nVertices];
 DWORD nFaces;
 array MeshFace faces[nFaces];
 [...]
}

Header{
1;
0;
1;
}

Mesh {
 354;
 -11.43287;21.30621;-12.40092;,
 11.33635;21.30621;-12.40092;,
 11.33635;18.59952;-12.40092;,
 -11.43287;18.59952;-12.40092;,
 11.33635;21.30621;10.36829;,
 11.33635;18.59952;10.36829;,
 -11.43287;21.30621;10.36829;,
 -11.43287;18.59952;10.36829;,
 -11.43287;44.01811;13.08630;,
 11.33635;44.01811;13.08630;,
 11.33635;44.01811;10.37963;,
 -11.43287;44.01811;10.37963;,
 11.33635;21.24895;13.08630;,
 11.33635;21.24895;10.37963;,
 -11.43287;21.24895;13.08630;,
 -11.43287;21.24895;10.37963;,
 -11.43287;21.30621;10.36710;,
 11.33635;21.30621;10.36710;,
 11.33635;18.59952;10.36710;,
 -11.43287;18.59952;10.36710;,
 11.33635;21.30621;13.08733;,
 11.33635;18.59952;13.08733;,
 -11.43287;21.30621;13.08733;,
 -11.43287;18.59952;13.08733;,
 -0.04826;18.70642;-4.49002;,
 2.40804;18.70642;-3.47261;,
 2.40804;4.09926;-3.47261;,
 -0.04826;4.09926;-4.49002;,
 3.42545;18.70642;-1.01632;,
 3.42545;4.09926;-1.01632;,
 2.40804;18.70642;1.43998;,
 2.40804;4.09926;1.43998;,
 -0.04826;18.70642;2.45739;,
 -0.04826;4.09926;2.45739;,
 -2.50455;18.70642;1.43998;,
 -2.50455;4.09926;1.43998;,
 -3.52196;18.70642;-1.01632;,
 -3.52196;4.09926;-1.01632;,
 -2.50455;18.70642;-3.47261;,
 -2.50455;4.09926;-3.47261;,
 -0.04826;18.70642;-1.01632;,
 -0.04826;4.09926;-1.01632;,
 -7.92362;2.51230;-10.21340;,
 -6.65281;2.51230;-11.07057;,
 -6.52293;1.72830;-10.87806;,
 -7.79374;1.72830;-10.02088;,
 -0.75894;5.63439;-2.33260;,
 -0.62909;4.85037;-2.14005;,
 -2.02976;5.63439;-1.47543;,
 -1.89991;4.85037;-1.28287;,
 6.90601;2.51230;-10.96228;,
 8.13824;2.51230;-10.05048;,
 8.00010;1.72830;-9.86379;,
 6.76788;1.72830;-10.77558;,
 1.86883;5.63439;-1.57791;,
 1.73070;4.85037;-1.39121;,
 0.63665;5.63439;-2.48967;,
 0.49852;4.85037;-2.30301;,
 8.75286;2.51230;6.69874;,
 7.69770;2.51230;7.81066;,
 7.52923;1.72830;7.65079;,
 8.58438;1.72830;6.53890;,
 0.05228;5.63439;0.55547;,
 -0.11615;4.85037;0.39559;,
 1.10748;5.63439;-0.55646;,
 0.93901;4.85037;-0.71629;,
 7.17204;2.24996;-9.85701;,
 7.50182;2.15717;-10.18682;,
 7.17204;2.15717;-10.32340;,
 7.63844;2.15717;-9.85701;,
 7.50182;2.15717;-9.52723;,
 7.17204;2.15717;-9.39060;,
 6.84222;2.15717;-9.52723;,
 6.70564;2.15717;-9.85701;,
 6.84222;2.15717;-10.18682;,
 7.78140;1.89296;-10.46640;,
 7.17204;1.89296;-10.71882;,
 8.03381;1.89296;-9.85701;,
 7.78140;1.89296;-9.24764;,
 7.17204;1.89296;-8.99520;,
 6.56264;1.89296;-9.24764;,
 6.31023;1.89296;-9.85701;,
 6.56264;1.89296;-10.46640;,
 7.96822;1.49760;-10.65321;,
 7.17204;1.49760;-10.98299;,
 8.29803;1.49760;-9.85701;,
 7.96822;1.49760;-9.06084;,
 7.17204;1.49760;-8.73101;,
 6.37583;1.49760;-9.06084;,
 6.04601;1.49760;-9.85701;,
 6.37583;1.49760;-10.65321;,
 8.03381;1.03115;-10.71882;,
 7.17204;1.03115;-11.07577;,
 8.39080;1.03115;-9.85701;,
 8.03381;1.03115;-8.99520;,
 7.17204;1.03115;-8.63825;,
 6.31023;1.03115;-8.99524;,
 5.95325;1.03115;-9.85701;,
 6.31023;1.03115;-10.71882;,
 7.96822;0.56474;-10.65321;,
 7.17204;0.56474;-10.98299;,
 8.29803;0.56474;-9.85701;,
 7.96822;0.56474;-9.06084;,
 7.17204;0.56474;-8.73101;,
 6.37583;0.56474;-9.06084;,
 6.04601;0.56474;-9.85701;,
 6.37583;0.56474;-10.65321;,
 7.78140;0.16939;-10.46640;,
 7.17204;0.16939;-10.71882;,
 8.03381;0.16939;-9.85701;,
 7.78140;0.16939;-9.24764;,
 7.17204;0.16939;-8.99520;,
 6.56264;0.16939;-9.24764;,
 6.31023;0.16939;-9.85701;,
 6.56264;0.16939;-10.46640;,
 7.50182;-0.09482;-10.18682;,
 7.17204;-0.09482;-10.32340;,
 7.63844;-0.09482;-9.85701;,
 7.50182;-0.09482;-9.52723;,
 7.17204;-0.09482;-9.39060;,
 6.84222;-0.09482;-9.52723;,
 6.70564;-0.09482;-9.85701;,
 6.84222;-0.09482;-10.18682;,
 7.17204;-0.18760;-9.85701;,
 -7.38442;2.51230;8.28681;,
 -8.60056;2.51230;7.35366;,
 -8.45915;1.72830;7.16942;,
 -7.24304;1.72830;8.10256;,
 -2.18424;5.63439;-1.00824;,
 -2.04287;4.85037;-1.19247;,
 -0.96814;5.63439;-0.07505;,
 -0.82676;4.85037;-0.25932;,
 -6.94796;2.24996;-9.85701;,
 -6.61815;2.15717;-10.18682;,
 -6.94796;2.15717;-10.32340;,
 -6.48157;2.15717;-9.85701;,
 -6.61815;2.15717;-9.52723;,
 -6.94796;2.15717;-9.39060;,
 -7.27778;2.15717;-9.52723;,
 -7.41436;2.15717;-9.85701;,
 -7.27778;2.15717;-10.18682;,
 -6.33856;1.89296;-10.46640;,
 -6.94796;1.89296;-10.71882;,
 -6.08616;1.89296;-9.85701;,
 -6.33856;1.89296;-9.24764;,
 -6.94796;1.89296;-8.99520;,
 -7.55736;1.89296;-9.24764;,
 -7.80978;1.89296;-9.85701;,
 -7.55736;1.89296;-10.46640;,
 -6.15176;1.49760;-10.65321;,
 -6.94796;1.49760;-10.98299;,
 -5.82198;1.49760;-9.85701;,
 -6.15176;1.49760;-9.06084;,
 -6.94796;1.49760;-8.73101;,
 -7.74418;1.49760;-9.06084;,
 -8.07396;1.49760;-9.85701;,
 -7.74418;1.49760;-10.65321;,
 -6.08616;1.03115;-10.71882;,
 -6.94796;1.03115;-11.07577;,
 -5.72921;1.03115;-9.85701;,
 -6.08616;1.03115;-8.99520;,
 -6.94796;1.03115;-8.63825;,
 -7.80978;1.03115;-8.99524;,
 -8.16673;1.03115;-9.85701;,
 -7.80978;1.03115;-10.71882;,
 -6.15176;0.56474;-10.65321;,
 -6.94796;0.56474;-10.98299;,
 -5.82198;0.56474;-9.85701;,
 -6.15176;0.56474;-9.06084;,
 -6.94796;0.56474;-8.73101;,
 -7.74418;0.56474;-9.06084;,
 -8.07396;0.56474;-9.85701;,
 -7.74418;0.56474;-10.65321;,
 -6.33856;0.16939;-10.46640;,
 -6.94796;0.16939;-10.71882;,
 -6.08616;0.16939;-9.85701;,
 -6.33856;0.16939;-9.24764;,
 -6.94796;0.16939;-8.99520;,
 -7.55736;0.16939;-9.24764;,
 -7.80978;0.16939;-9.85701;,
 -7.55736;0.16939;-10.46640;,
 -6.61815;-0.09482;-10.18682;,
 -6.94796;-0.09482;-10.32340;,
 -6.48157;-0.09482;-9.85701;,
 -6.61815;-0.09482;-9.52723;,
 -6.94796;-0.09482;-9.39060;,
 -7.27778;-0.09482;-9.52723;,
 -7.41436;-0.09482;-9.85701;,
 -7.27778;-0.09482;-10.18682;,
 -6.94796;-0.18760;-9.85701;,
 -7.68080;2.24996;7.39770;,
 -7.35099;2.15717;7.06789;,
 -7.68080;2.15717;6.93130;,
 -7.21441;2.15717;7.39770;,
 -7.35099;2.15717;7.72747;,
 -7.68080;2.15717;7.86410;,
 -8.01057;2.15717;7.72747;,
 -8.14720;2.15717;7.39770;,
 -8.01057;2.15717;7.06789;,
 -7.07140;1.89296;6.78830;,
 -7.68080;1.89296;6.53589;,
 -6.81899;1.89296;7.39770;,
 -7.07140;1.89296;8.00707;,
 -7.68080;1.89296;8.25952;,
 -8.29021;1.89296;8.00707;,
 -8.54261;1.89296;7.39770;,
 -8.29021;1.89296;6.78830;,
 -6.88458;1.49760;6.60150;,
 -7.68080;1.49760;6.27171;,
 -6.55481;1.49760;7.39770;,
 -6.88458;1.49760;8.19388;,
 -7.68080;1.49760;8.52369;,
 -8.47701;1.49760;8.19388;,
 -8.80678;1.49760;7.39770;,
 -8.47701;1.49760;6.60150;,
 -6.81899;1.03115;6.53589;,
 -7.68080;1.03115;6.17895;,
 -6.46204;1.03115;7.39770;,
 -6.81899;1.03115;8.25952;,
 -7.68080;1.03115;8.61647;,
 -8.54261;1.03115;8.25948;,
 -8.89956;1.03115;7.39770;,
 -8.54261;1.03115;6.53589;,
 -6.88458;0.56474;6.60150;,
 -7.68080;0.56474;6.27171;,
 -6.55481;0.56474;7.39770;,
 -6.88458;0.56474;8.19388;,
 -7.68080;0.56474;8.52369;,
 -8.47701;0.56474;8.19388;,
 -8.80678;0.56474;7.39770;,
 -8.47701;0.56474;6.60150;,
 -7.07140;0.16939;6.78830;,
 -7.68080;0.16939;6.53589;,
 -6.81899;0.16939;7.39770;,
 -7.07140;0.16939;8.00707;,
 -7.68080;0.16939;8.25952;,
 -8.29021;0.16939;8.00707;,
 -8.54261;0.16939;7.39770;,
 -8.29021;0.16939;6.78830;,
 -7.35099;-0.09482;7.06789;,
 -7.68080;-0.09482;6.93130;,
 -7.21441;-0.09482;7.39770;,
 -7.35099;-0.09482;7.72747;,
 -7.68080;-0.09482;7.86410;,
 -8.01057;-0.09482;7.72747;,
 -8.14720;-0.09482;7.39770;,
 -8.01057;-0.09482;7.06789;,
 -7.68080;-0.18760;7.39770;,
 7.98913;2.24996;6.84951;,
 8.31891;2.15717;6.51973;,
 7.98913;2.15717;6.38311;,
 8.45554;2.15717;6.84951;,
 8.31891;2.15717;7.17932;,
 7.98913;2.15717;7.31590;,
 7.65931;2.15717;7.17932;,
 7.52273;2.15717;6.84951;,
 7.65931;2.15717;6.51973;,
 8.59849;1.89296;6.24015;,
 7.98913;1.89296;5.98769;,
 8.85090;1.89296;6.84951;,
 8.59849;1.89296;7.45890;,
 7.98913;1.89296;7.71131;,
 7.37973;1.89296;7.45890;,
 7.12732;1.89296;6.84951;,
 7.37973;1.89296;6.24015;,
 8.78531;1.49760;6.05329;,
 7.98913;1.49760;5.72352;,
 9.11511;1.49760;6.84951;,
 8.78531;1.49760;7.64572;,
 7.98913;1.49760;7.97549;,
 7.19292;1.49760;7.64572;,
 6.86310;1.49760;6.84951;,
 7.19292;1.49760;6.05329;,
 8.85090;1.03115;5.98769;,
 7.98913;1.03115;5.63075;,
 9.20789;1.03115;6.84951;,
 8.85090;1.03115;7.71131;,
 7.98913;1.03115;8.06827;,
 7.12732;1.03115;7.71131;,
 6.77033;1.03115;6.84951;,
 7.12732;1.03115;5.98769;,
 8.78531;0.56474;6.05329;,
 7.98913;0.56474;5.72352;,
 9.11511;0.56474;6.84951;,
 8.78531;0.56474;7.64572;,
 7.98913;0.56474;7.97549;,
 7.19292;0.56474;7.64572;,
 6.86310;0.56474;6.84951;,
 7.19292;0.56474;6.05329;,
 8.59849;0.16939;6.24015;,
 7.98913;0.16939;5.98769;,
 8.85090;0.16939;6.84951;,
 8.59849;0.16939;7.45890;,
 7.98913;0.16939;7.71131;,
 7.37973;0.16939;7.45890;,
 7.12732;0.16939;6.84951;,
 7.37973;0.16939;6.24015;,
 8.31891;-0.09482;6.51973;,
 7.98913;-0.09482;6.38311;,
 8.45554;-0.09482;6.84951;,
 8.31891;-0.09482;7.17932;,
 7.98913;-0.09482;7.31590;,
 7.65931;-0.09482;7.17932;,
 7.52273;-0.09482;6.84951;,
 7.65931;-0.09482;6.51973;,
 7.98913;-0.18760;6.84951;,
 11.35104;29.27413;-5.79625;,
 13.35771;29.27413;-5.79625;,
 13.35771;27.37455;-5.79625;,
 11.35104;27.37455;-5.79625;,
 13.35771;29.27413;3.76361;,
 13.35771;27.37455;3.76361;,
 11.35104;29.27413;3.76361;,
 11.35104;27.37455;3.76361;,
 11.35104;29.28555;-7.10640;,
 13.35771;29.28555;-7.10640;,
 13.35771;18.61704;-7.10640;,
 11.35104;18.61704;-7.10640;,
 13.35771;29.28555;-5.80615;,
 13.35771;18.61704;-5.80615;,
 11.35104;29.28555;-5.80615;,
 11.35104;18.61704;-5.80615;,
 11.35104;29.28555;3.75925;,
 13.35771;29.28555;3.75925;,
 13.35771;18.61704;3.75925;,
 11.35104;18.61704;3.75925;,
 13.35771;29.28555;5.05950;,
 13.35771;18.61704;5.05950;,
 11.35104;29.28555;5.05950;,
 11.35104;18.61704;5.05950;,
 -13.31822;29.28940;-5.79625;,
 -11.31157;29.28940;-5.79625;,
 -11.31157;27.39927;-5.79625;,
 -13.31822;27.39927;-5.79625;,
 -11.31157;29.28940;3.76361;,
 -11.31157;27.39927;3.76361;,
 -13.31822;29.28940;3.76361;,
 -13.31822;27.39927;3.76361;,
 -13.31033;29.28555;-7.10640;,
 -11.30368;29.28555;-7.10640;,
 -11.30368;18.61704;-7.10640;,
 -13.31033;18.61704;-7.10640;,
 -11.30368;29.28555;-5.80615;,
 -11.30368;18.61704;-5.80615;,
 -13.31033;29.28555;-5.80615;,
 -13.31033;18.61704;-5.80615;,
 -13.32512;29.28555;3.75925;,
 -11.31845;29.28555;3.75925;,
 -11.31845;18.61704;3.75925;,
 -13.32512;18.61704;3.75925;,
 -11.31845;29.28555;5.05950;,
 -11.31845;18.61704;5.05950;,
 -13.32512;29.28555;5.05950;,
 -13.32512;18.61704;5.05950;;
 
 358;
 4;0,1,2,3;,
 4;1,4,5,2;,
 4;4,6,7,5;,
 4;6,0,3,7;,
 4;6,4,1,0;,
 4;3,2,5,7;,
 4;8,9,10,11;,
 4;9,12,13,10;,
 4;12,14,15,13;,
 4;14,8,11,15;,
 4;14,12,9,8;,
 4;11,10,13,15;,
 4;16,17,18,19;,
 4;17,20,21,18;,
 4;20,22,23,21;,
 4;22,16,19,23;,
 4;22,20,17,16;,
 4;19,18,21,23;,
 4;24,25,26,27;,
 4;25,28,29,26;,
 4;28,30,31,29;,
 4;30,32,33,31;,
 4;32,34,35,33;,
 4;34,36,37,35;,
 4;36,38,39,37;,
 4;38,24,27,39;,
 3;40,25,24;,
 3;40,28,25;,
 3;40,30,28;,
 3;40,32,30;,
 3;40,34,32;,
 3;40,36,34;,
 3;40,38,36;,
 3;40,24,38;,
 3;41,27,26;,
 3;41,26,29;,
 3;41,29,31;,
 3;41,31,33;,
 3;41,33,35;,
 3;41,35,37;,
 3;41,37,39;,
 3;41,39,27;,
 4;42,43,44,45;,
 4;43,46,47,44;,
 4;46,48,49,47;,
 4;48,42,45,49;,
 4;48,46,43,42;,
 4;45,44,47,49;,
 4;50,51,52,53;,
 4;51,54,55,52;,
 4;54,56,57,55;,
 4;56,50,53,57;,
 4;56,54,51,50;,
 4;53,52,55,57;,
 4;58,59,60,61;,
 4;59,62,63,60;,
 4;62,64,65,63;,
 4;64,58,61,65;,
 4;64,62,59,58;,
 4;61,60,63,65;,
 3;66,67,68;,
 3;66,69,67;,
 3;66,70,69;,
 3;66,71,70;,
 3;66,72,71;,
 3;66,73,72;,
 3;66,74,73;,
 3;66,68,74;,
 4;68,67,75,76;,
 4;67,69,77,75;,
 4;69,70,78,77;,
 4;70,71,79,78;,
 4;71,72,80,79;,
 4;72,73,81,80;,
 4;73,74,82,81;,
 4;74,68,76,82;,
 4;76,75,83,84;,
 4;75,77,85,83;,
 4;77,78,86,85;,
 4;78,79,87,86;,
 4;79,80,88,87;,
 4;80,81,89,88;,
 4;81,82,90,89;,
 4;82,76,84,90;,
 4;84,83,91,92;,
 4;83,85,93,91;,
 4;85,86,94,93;,
 4;86,87,95,94;,
 4;87,88,96,95;,
 4;88,89,97,96;,
 4;89,90,98,97;,
 4;90,84,92,98;,
 4;92,91,99,100;,
 4;91,93,101,99;,
 4;93,94,102,101;,
 4;94,95,103,102;,
 4;95,96,104,103;,
 4;96,97,105,104;,
 4;97,98,106,105;,
 4;98,92,100,106;,
 4;100,99,107,108;,
 4;99,101,109,107;,
 4;101,102,110,109;,
 4;102,103,111,110;,
 4;103,104,112,111;,
 4;104,105,113,112;,
 4;105,106,114,113;,
 4;106,100,108,114;,
 4;108,107,115,116;,
 4;107,109,117,115;,
 4;109,110,118,117;,
 4;110,111,119,118;,
 4;111,112,120,119;,
 4;112,113,121,120;,
 4;113,114,122,121;,
 4;114,108,116,122;,
 3;116,115,123;,
 3;115,117,123;,
 3;117,118,123;,
 3;118,119,123;,
 3;119,120,123;,
 3;120,121,123;,
 3;121,122,123;,
 3;122,116,123;,
 4;124,125,126,127;,
 4;125,128,129,126;,
 4;128,130,131,129;,
 4;130,124,127,131;,
 4;130,128,125,124;,
 4;127,126,129,131;,
 3;132,133,134;,
 3;132,135,133;,
 3;132,136,135;,
 3;132,137,136;,
 3;132,138,137;,
 3;132,139,138;,
 3;132,140,139;,
 3;132,134,140;,
 4;134,133,141,142;,
 4;133,135,143,141;,
 4;135,136,144,143;,
 4;136,137,145,144;,
 4;137,138,146,145;,
 4;138,139,147,146;,
 4;139,140,148,147;,
 4;140,134,142,148;,
 4;142,141,149,150;,
 4;141,143,151,149;,
 4;143,144,152,151;,
 4;144,145,153,152;,
 4;145,146,154,153;,
 4;146,147,155,154;,
 4;147,148,156,155;,
 4;148,142,150,156;,
 4;150,149,157,158;,
 4;149,151,159,157;,
 4;151,152,160,159;,
 4;152,153,161,160;,
 4;153,154,162,161;,
 4;154,155,163,162;,
 4;155,156,164,163;,
 4;156,150,158,164;,
 4;158,157,165,166;,
 4;157,159,167,165;,
 4;159,160,168,167;,
 4;160,161,169,168;,
 4;161,162,170,169;,
 4;162,163,171,170;,
 4;163,164,172,171;,
 4;164,158,166,172;,
 4;166,165,173,174;,
 4;165,167,175,173;,
 4;167,168,176,175;,
 4;168,169,177,176;,
 4;169,170,178,177;,
 4;170,171,179,178;,
 4;171,172,180,179;,
 4;172,166,174,180;,
 4;174,173,181,182;,
 4;173,175,183,181;,
 4;175,176,184,183;,
 4;176,177,185,184;,
 4;177,178,186,185;,
 4;178,179,187,186;,
 4;179,180,188,187;,
 4;180,174,182,188;,
 3;182,181,189;,
 3;181,183,189;,
 3;183,184,189;,
 3;184,185,189;,
 3;185,186,189;,
 3;186,187,189;,
 3;187,188,189;,
 3;188,182,189;,
 3;190,191,192;,
 3;190,193,191;,
 3;190,194,193;,
 3;190,195,194;,
 3;190,196,195;,
 3;190,197,196;,
 3;190,198,197;,
 3;190,192,198;,
 4;192,191,199,200;,
 4;191,193,201,199;,
 4;193,194,202,201;,
 4;194,195,203,202;,
 4;195,196,204,203;,
 4;196,197,205,204;,
 4;197,198,206,205;,
 4;198,192,200,206;,
 4;200,199,207,208;,
 4;199,201,209,207;,
 4;201,202,210,209;,
 4;202,203,211,210;,
 4;203,204,212,211;,
 4;204,205,213,212;,
 4;205,206,214,213;,
 4;206,200,208,214;,
 4;208,207,215,216;,
 4;207,209,217,215;,
 4;209,210,218,217;,
 4;210,211,219,218;,
 4;211,212,220,219;,
 4;212,213,221,220;,
 4;213,214,222,221;,
 4;214,208,216,222;,
 4;216,215,223,224;,
 4;215,217,225,223;,
 4;217,218,226,225;,
 4;218,219,227,226;,
 4;219,220,228,227;,
 4;220,221,229,228;,
 4;221,222,230,229;,
 4;222,216,224,230;,
 4;224,223,231,232;,
 4;223,225,233,231;,
 4;225,226,234,233;,
 4;226,227,235,234;,
 4;227,228,236,235;,
 4;228,229,237,236;,
 4;229,230,238,237;,
 4;230,224,232,238;,
 4;232,231,239,240;,
 4;231,233,241,239;,
 4;233,234,242,241;,
 4;234,235,243,242;,
 4;235,236,244,243;,
 4;236,237,245,244;,
 4;237,238,246,245;,
 4;238,232,240,246;,
 3;240,239,247;,
 3;239,241,247;,
 3;241,242,247;,
 3;242,243,247;,
 3;243,244,247;,
 3;244,245,247;,
 3;245,246,247;,
 3;246,240,247;,
 3;248,249,250;,
 3;248,251,249;,
 3;248,252,251;,
 3;248,253,252;,
 3;248,254,253;,
 3;248,255,254;,
 3;248,256,255;,
 3;248,250,256;,
 4;250,249,257,258;,
 4;249,251,259,257;,
 4;251,252,260,259;,
 4;252,253,261,260;,
 4;253,254,262,261;,
 4;254,255,263,262;,
 4;255,256,264,263;,
 4;256,250,258,264;,
 4;258,257,265,266;,
 4;257,259,267,265;,
 4;259,260,268,267;,
 4;260,261,269,268;,
 4;261,262,270,269;,
 4;262,263,271,270;,
 4;263,264,272,271;,
 4;264,258,266,272;,
 4;266,265,273,274;,
 4;265,267,275,273;,
 4;267,268,276,275;,
 4;268,269,277,276;,
 4;269,270,278,277;,
 4;270,271,279,278;,
 4;271,272,280,279;,
 4;272,266,274,280;,
 4;274,273,281,282;,
 4;273,275,283,281;,
 4;275,276,284,283;,
 4;276,277,285,284;,
 4;277,278,286,285;,
 4;278,279,287,286;,
 4;279,280,288,287;,
 4;280,274,282,288;,
 4;282,281,289,290;,
 4;281,283,291,289;,
 4;283,284,292,291;,
 4;284,285,293,292;,
 4;285,286,294,293;,
 4;286,287,295,294;,
 4;287,288,296,295;,
 4;288,282,290,296;,
 4;290,289,297,298;,
 4;289,291,299,297;,
 4;291,292,300,299;,
 4;292,293,301,300;,
 4;293,294,302,301;,
 4;294,295,303,302;,
 4;295,296,304,303;,
 4;296,290,298,304;,
 3;298,297,305;,
 3;297,299,305;,
 3;299,300,305;,
 3;300,301,305;,
 3;301,302,305;,
 3;302,303,305;,
 3;303,304,305;,
 3;304,298,305;,
 4;306,307,308,309;,
 4;307,310,311,308;,
 4;310,312,313,311;,
 4;312,306,309,313;,
 4;312,310,307,306;,
 4;309,308,311,313;,
 4;314,315,316,317;,
 4;315,318,319,316;,
 4;318,320,321,319;,
 4;320,314,317,321;,
 4;320,318,315,314;,
 4;317,316,319,321;,
 4;322,323,324,325;,
 4;323,326,327,324;,
 4;326,328,329,327;,
 4;328,322,325,329;,
 4;328,326,323,322;,
 4;325,324,327,329;,
 4;330,331,332,333;,
 4;331,334,335,332;,
 4;334,336,337,335;,
 4;336,330,333,337;,
 4;336,334,331,330;,
 4;333,332,335,337;,
 4;338,339,340,341;,
 4;339,342,343,340;,
 4;342,344,345,343;,
 4;344,338,341,345;,
 4;344,342,339,338;,
 4;341,340,343,345;,
 4;346,347,348,349;,
 4;347,350,351,348;,
 4;350,352,353,351;,
 4;352,346,349,353;,
 4;352,350,347,346;,
 4;349,348,351,353;;
 
 MeshMaterialList {
  4;
  358;
  1,
  1,
  1,
  1,
  1,
  1,
  1,
  1,
  1,
  1,
  1,
  1,
  1,
  1,
  1,
  1,
  1,
  1,
  0,
  0,
  0,
  0,
  0,
  0,
  0,
  0,
  1,
  1,
  1,
  1,
  1,
  1,
  1,
  1,
  0,
  0,
  0,
  0,
  0,
  0,
  0,
  0,
  3,
  3,
  0,
  3,
  3,
  3,
  3,
  3,
  0,
  3,
  3,
  3,
  3,
  3,
  0,
  3,
  3,
  3,
  3,
  3,
  3,
  3,
  3,
  3,
  3,
  3,
  0,
  0,
  0,
  0,
  0,
  0,
  0,
  0,
  0,
  0,
  0,
  0,
  0,
  0,
  0,
  0,
  0,
  0,
  0,
  0,
  0,
  0,
  0,
  0,
  0,
  0,
  0,
  0,
  0,
  0,
  0,
  0,
  0,
  0,
  0,
  0,
  0,
  0,
  0,
  0,
  0,
  0,
  0,
  0,
  0,
  0,
  0,
  0,
  0,
  0,
  0,
  0,
  0,
  0,
  0,
  0,
  3,
  3,
  0,
  3,
  3,
  3,
  0,
  0,
  0,
  0,
  0,
  0,
  0,
  0,
  0,
  0,
  0,
  0,
  0,
  0,
  0,
  0,
  0,
  0,
  0,
  0,
  0,
  0,
  0,
  0,
  0,
  0,
  0,
  0,
  0,
  0,
  0,
  0,
  0,
  0,
  0,
  0,
  0,
  0,
  0,
  0,
  0,
  0,
  0,
  0,
  0,
  0,
  0,
  0,
  0,
  0,
  0,
  0,
  0,
  0,
  0,
  0,
  0,
  0,
  0,
  0,
  0,
  0,
  0,
  0,
  3,
  3,
  3,
  3,
  3,
  3,
  3,
  3,
  0,
  0,
  0,
  0,
  0,
  0,
  0,
  0,
  0,
  0,
  0,
  0,
  0,
  0,
  0,
  0,
  0,
  0,
  0,
  0,
  0,
  0,
  0,
  0,
  0,
  0,
  0,
  0,
  0,
  0,
  0,
  0,
  0,
  0,
  0,
  0,
  0,
  0,
  0,
  0,
  0,
  0,
  0,
  0,
  0,
  0,
  0,
  0,
  0,
  0,
  0,
  0,
  0,
  0,
  0,
  0,
  0,
  0,
  0,
  0,
  0,
  0,
  0,
  0,
  0,
  0,
  0,
  0,
  0,
  0,
  0,
  0,
  0,
  0,
  0,
  0,
  0,
  0,
  0,
  0,
  0,
  0,
  0,
  0,
  0,
  0,
  0,
  0,
  0,
  0,
  0,
  0,
  0,
  0,
  0,
  0,
  0,
  0,
  0,
  0,
  0,
  0,
  0,
  0,
  0,
  0,
  0,
  0,
  0,
  0,
  0,
  0,
  0,
  0,
  0,
  0,
  0,
  0,
  0,
  0,
  1,
  1,
  1,
  1,
  1,
  1,
  1,
  1,
  1,
  1,
  1,
  1,
  1,
  1,
  1,
  1,
  1,
  1,
  1,
  1,
  1,
  1,
  1,
  1,
  1,
  1,
  1,
  1,
  1,
  1,
  1,
  1,
  1,
  1,
  1,
  1;;
  Material {
   0.000000;0.000000;0.000000;1.000000;;
   5.000000;
   0.000000;0.000000;0.000000;;
   0.000000;0.000000;0.000000;;
  }
  Material {
   0.552000;0.552000;0.552000;1.000000;;
   5.000000;
   0.000000;0.000000;0.000000;;
   0.000000;0.000000;0.000000;;
  }
  Material {
   0.800000;0.800000;0.800000;1.000000;;
   5.000000;
   0.000000;0.000000;0.000000;;
   0.000000;0.000000;0.000000;;
  }
  Material {
   1.000000;1.000000;1.000000;1.000000;;
   0.000000;
   0.000000;0.000000;0.000000;;
   0.000000;0.000000;0.000000;;
  }
 }
 MeshNormals {
  270;
  0.000000;0.000000;-1.000000;,
  1.000000;0.000000;0.000000;,
  0.000000;0.000000;1.000000;,
  0.000000;1.000000;0.000000;,
  0.000000;-1.000000;0.000000;,
  -0.000000;0.000000;-1.000000;,
  0.707107;0.000000;-0.707107;,
  1.000000;0.000000;0.000000;,
  0.707107;0.000000;0.707107;,
  -0.000000;0.000000;1.000000;,
  -0.707107;0.000000;0.707107;,
  -1.000000;0.000000;0.000000;,
  -0.707106;0.000000;-0.707107;,
  -0.536168;-0.284012;-0.794897;,
  0.829037;0.000004;-0.559194;,
  0.536163;0.284027;0.794895;,
  0.570325;-0.284024;-0.770753;,
  0.803858;0.000011;0.594822;,
  -0.570336;0.283997;0.770754;,
  0.695500;-0.284029;0.660005;,
  -0.688358;-0.000019;0.725371;,
  -0.695499;0.284006;-0.660016;,
  0.000003;1.000000;0.000000;,
  0.000007;0.924724;-0.380639;,
  0.269147;0.924724;-0.269155;,
  0.380642;0.924722;0.000006;,
  0.269164;0.924720;0.269155;,
  0.000008;0.924728;0.380629;,
  -0.269157;0.924726;0.269141;,
  -0.380640;0.924723;0.000006;,
  -0.269141;0.924729;-0.269144;,
  0.000008;0.709222;-0.704985;,
  0.498490;0.709231;-0.498497;,
  0.704971;0.709236;0.000007;,
  0.498504;0.709226;0.498491;,
  0.000009;0.709233;0.704974;,
  -0.498501;0.709229;0.498489;,
  -0.704973;0.709234;0.000008;,
  -0.498486;0.709234;-0.498497;,
  0.000008;0.384552;-0.923103;,
  0.652724;0.384560;-0.652736;,
  0.923096;0.384571;0.000005;,
  0.652731;0.384568;0.652725;,
  0.000002;0.384562;0.923099;,
  -0.652733;0.384550;0.652734;,
  -0.923098;0.384564;0.000008;,
  -0.652719;0.384559;-0.652742;,
  0.000008;-0.000009;-1.000000;,
  0.707100;-0.000009;-0.707114;,
  1.000000;-0.000009;0.000003;,
  0.707107;-0.000009;0.707106;,
  -0.000004;-0.000008;1.000000;,
  -0.707104;-0.000009;0.707110;,
  -1.000000;-0.000009;0.000008;,
  -0.707093;-0.000009;-0.707121;,
  0.000008;-0.384563;-0.923099;,
  0.652721;-0.384572;-0.652733;,
  0.923090;-0.384584;0.000005;,
  0.652727;-0.384580;0.652721;,
  0.000002;-0.384575;0.923094;,
  -0.652728;-0.384565;0.652730;,
  -0.923092;-0.384578;0.000008;,
  -0.652715;-0.384573;-0.652738;,
  0.000010;-0.709227;-0.704980;,
  0.498485;-0.709235;-0.498495;,
  0.704963;-0.709244;0.000007;,
  0.498498;-0.709234;0.498485;,
  0.000009;-0.709242;0.704965;,
  -0.498493;-0.709240;0.498482;,
  -0.704959;-0.709248;0.000008;,
  -0.498478;-0.709244;-0.498490;,
  0.000008;-0.924725;-0.380635;,
  0.269143;-0.924726;-0.269153;,
  0.380634;-0.924726;0.000006;,
  0.269159;-0.924723;0.269150;,
  0.000008;-0.924731;0.380622;,
  -0.269150;-0.924729;0.269135;,
  -0.380627;-0.924728;0.000006;,
  -0.269133;-0.924734;-0.269138;,
  0.000003;-1.000000;0.000000;,
  -0.583682;-0.284033;0.760685;,
  -0.793349;-0.000024;-0.608767;,
  0.583699;0.284023;-0.760674;,
  0.000001;1.000000;0.000000;,
  -0.000000;0.924723;-0.380640;,
  0.269139;0.924731;-0.269142;,
  0.380636;0.924725;0.000006;,
  0.269156;0.924726;0.269142;,
  0.000001;0.924727;0.380631;,
  -0.269154;0.924727;0.269140;,
  -0.380636;0.924725;0.000005;,
  -0.269141;0.924729;-0.269145;,
  -0.000000;0.709219;-0.704989;,
  0.498494;0.709229;-0.498495;,
  0.704986;0.709221;0.000007;,
  0.498508;0.709224;0.498489;,
  0.000001;0.709230;0.704977;,
  -0.498505;0.709226;0.498490;,
  -0.704983;0.709224;0.000006;,
  -0.498494;0.709227;-0.498499;,
  0.000001;0.384549;-0.923104;,
  0.652734;0.384552;-0.652732;,
  0.923106;0.384545;0.000005;,
  0.652741;0.384558;0.652721;,
  -0.000004;0.384560;0.923100;,
  -0.652741;0.384549;0.652726;,
  -0.923104;0.384551;0.000007;,
  -0.652729;0.384556;-0.652734;,
  0.000002;-0.000009;-1.000000;,
  0.707109;-0.000009;-0.707105;,
  1.000000;-0.000010;0.000003;,
  0.707116;-0.000010;0.707098;,
  -0.000010;-0.000009;1.000000;,
  -0.707115;-0.000009;0.707098;,
  -1.000000;-0.000009;0.000008;,
  -0.707104;-0.000009;-0.707109;,
  0.000001;-0.384562;-0.923099;,
  0.652730;-0.384565;-0.652728;,
  0.923100;-0.384559;0.000005;,
  0.652737;-0.384572;0.652717;,
  -0.000004;-0.384573;0.923095;,
  -0.652738;-0.384561;0.652722;,
  -0.923099;-0.384564;0.000008;,
  -0.652725;-0.384569;-0.652731;,
  -0.000001;-0.709227;-0.704980;,
  0.498486;-0.709240;-0.498488;,
  0.704977;-0.709230;0.000008;,
  0.498503;-0.709232;0.498483;,
  0.000001;-0.709239;0.704969;,
  -0.498501;-0.709232;0.498484;,
  -0.704978;-0.709230;0.000007;,
  -0.498488;-0.709235;-0.498494;,
  -0.000000;-0.924726;-0.380633;,
  0.269132;-0.924735;-0.269135;,
  0.380628;-0.924728;0.000007;,
  0.269152;-0.924729;0.269137;,
  0.000001;-0.924730;0.380623;,
  -0.269152;-0.924729;0.269136;,
  -0.380631;-0.924727;0.000006;,
  -0.269135;-0.924733;-0.269139;,
  0.000001;-1.000000;0.000000;,
  -0.000002;1.000000;0.000003;,
  -0.000006;0.924726;-0.380633;,
  0.269139;0.924732;-0.269136;,
  0.380633;0.924726;0.000007;,
  0.269154;0.924728;0.269137;,
  -0.000005;0.924730;0.380623;,
  -0.269152;0.924725;0.269148;,
  -0.380623;0.924730;0.000007;,
  -0.269138;0.924729;-0.269148;,
  -0.000004;0.709224;-0.704984;,
  0.498492;0.709235;-0.498489;,
  0.704978;0.709229;0.000008;,
  0.498505;0.709229;0.498484;,
  -0.000003;0.709234;0.704973;,
  -0.498503;0.709228;0.498488;,
  -0.704976;0.709231;0.000008;,
  -0.498491;0.709232;-0.498495;,
  -0.000001;0.384544;-0.923107;,
  0.652733;0.384552;-0.652732;,
  0.923104;0.384551;0.000004;,
  0.652737;0.384563;0.652722;,
  -0.000006;0.384561;0.923100;,
  -0.652744;0.384549;0.652723;,
  -0.923106;0.384546;0.000006;,
  -0.652735;0.384551;-0.652731;,
  -0.000001;-0.000009;-1.000000;,
  0.707107;-0.000009;-0.707107;,
  1.000000;-0.000009;0.000002;,
  0.707112;-0.000009;0.707101;,
  -0.000012;-0.000009;1.000000;,
  -0.707116;-0.000009;0.707097;,
  -1.000000;-0.000009;0.000006;,
  -0.707107;-0.000009;-0.707106;,
  -0.000001;-0.384557;-0.923101;,
  0.652729;-0.384566;-0.652728;,
  0.923098;-0.384565;0.000004;,
  0.652732;-0.384577;0.652718;,
  -0.000007;-0.384573;0.923094;,
  -0.652740;-0.384561;0.652720;,
  -0.923100;-0.384559;0.000006;,
  -0.652731;-0.384564;-0.652727;,
  -0.000003;-0.709233;-0.704974;,
  0.498486;-0.709244;-0.498483;,
  0.704971;-0.709236;0.000009;,
  0.498500;-0.709237;0.498479;,
  -0.000003;-0.709243;0.704964;,
  -0.498494;-0.709240;0.498480;,
  -0.704963;-0.709244;0.000007;,
  -0.498483;-0.709243;-0.498488;,
  -0.000005;-0.924729;-0.380625;,
  0.269134;-0.924735;-0.269131;,
  0.380628;-0.924728;0.000008;,
  0.269150;-0.924730;0.269132;,
  -0.000005;-0.924734;0.380614;,
  -0.269142;-0.924730;0.269140;,
  -0.380609;-0.924736;0.000007;,
  -0.269130;-0.924733;-0.269141;,
  -0.000002;-1.000000;0.000003;,
  0.000001;1.000000;-0.000001;,
  0.000006;0.924729;-0.380627;,
  0.269160;0.924721;-0.269155;,
  0.380641;0.924723;-0.000005;,
  0.269148;0.924724;0.269158;,
  0.000007;0.924724;0.380638;,
  -0.269138;0.924731;0.269143;,
  -0.380634;0.924726;-0.000006;,
  -0.269154;0.924726;-0.269144;,
  0.000008;0.709242;-0.704965;,
  0.498500;0.709232;-0.498485;,
  0.704975;0.709232;-0.000004;,
  0.498493;0.709228;0.498499;,
  0.000009;0.709223;0.704984;,
  -0.498481;0.709238;0.498495;,
  -0.704968;0.709239;-0.000005;,
  -0.498492;0.709238;-0.498485;,
  0.000008;0.384561;-0.923100;,
  0.652730;0.384565;-0.652728;,
  0.923097;0.384568;0.000000;,
  0.652727;0.384557;0.652736;,
  0.000009;0.384548;0.923105;,
  -0.652718;0.384560;0.652743;,
  -0.923096;0.384570;0.000000;,
  -0.652721;0.384567;-0.652735;,
  0.000009;-0.000009;-1.000000;,
  0.707101;-0.000009;-0.707112;,
  1.000000;-0.000009;0.000002;,
  0.707100;-0.000009;0.707114;,
  0.000009;-0.000009;1.000000;,
  -0.707093;-0.000009;0.707121;,
  -1.000000;-0.000009;0.000002;,
  -0.707094;-0.000009;-0.707119;,
  0.000008;-0.384574;-0.923094;,
  0.652726;-0.384579;-0.652724;,
  0.923092;-0.384580;0.000001;,
  0.652723;-0.384569;0.652732;,
  0.000009;-0.384561;0.923099;,
  -0.652714;-0.384572;0.652739;,
  -0.923091;-0.384582;0.000001;,
  -0.652717;-0.384581;-0.652731;,
  0.000008;-0.709252;-0.704955;,
  0.498497;-0.709238;-0.498480;,
  0.704972;-0.709235;-0.000004;,
  0.498489;-0.709235;0.498492;,
  0.000007;-0.709231;0.704976;,
  -0.498479;-0.709242;0.498493;,
  -0.704962;-0.709246;-0.000004;,
  -0.498485;-0.709247;-0.498478;,
  0.000006;-0.924732;-0.380618;,
  0.269158;-0.924722;-0.269151;,
  0.380640;-0.924723;-0.000006;,
  0.269144;-0.924726;0.269152;,
  0.000005;-0.924727;0.380631;,
  -0.269136;-0.924732;0.269141;,
  -0.380629;-0.924728;-0.000005;,
  -0.269148;-0.924730;-0.269137;,
  0.000001;-1.000000;-0.000001;,
  -1.000000;0.000000;0.000000;,
  -0.829038;0.000001;0.559193;,
  -0.158820;0.958819;-0.235461;,
  0.158820;-0.958820;0.235459;,
  -0.803859;-0.000005;-0.594820;,
  0.168939;0.958819;-0.228309;,
  -0.168941;-0.958820;0.228307;,
  0.688348;-0.000033;-0.725381;,
  0.206018;0.958819;0.195505;,
  -0.206016;-0.958820;-0.195505;,
  0.793355;-0.000008;0.608759;,
  -0.172899;0.958819;0.225325;,
  0.172897;-0.958820;-0.225325;;
  358;
  4;0,0,0,0;,
  4;1,1,1,1;,
  4;2,2,2,2;,
  4;257,257,257,257;,
  4;3,3,3,3;,
  4;4,4,4,4;,
  4;3,3,3,3;,
  4;1,1,1,1;,
  4;4,4,4,4;,
  4;257,257,257,257;,
  4;2,2,2,2;,
  4;0,0,0,0;,
  4;0,0,0,0;,
  4;1,1,1,1;,
  4;2,2,2,2;,
  4;257,257,257,257;,
  4;3,3,3,3;,
  4;4,4,4,4;,
  4;5,6,6,5;,
  4;6,7,7,6;,
  4;7,8,8,7;,
  4;8,9,9,8;,
  4;9,10,10,9;,
  4;10,11,11,10;,
  4;11,12,12,11;,
  4;12,5,5,12;,
  3;3,3,3;,
  3;3,3,3;,
  3;3,3,3;,
  3;3,3,3;,
  3;3,3,3;,
  3;3,3,3;,
  3;3,3,3;,
  3;3,3,3;,
  3;4,4,4;,
  3;4,4,4;,
  3;4,4,4;,
  3;4,4,4;,
  3;4,4,4;,
  3;4,4,4;,
  3;4,4,4;,
  3;4,4,4;,
  4;13,13,13,13;,
  4;14,14,14,14;,
  4;15,15,15,15;,
  4;258,258,258,258;,
  4;259,259,259,259;,
  4;260,260,260,260;,
  4;16,16,16,16;,
  4;17,17,17,17;,
  4;18,18,18,18;,
  4;261,261,261,261;,
  4;262,262,262,262;,
  4;263,263,263,263;,
  4;19,19,19,19;,
  4;20,20,20,20;,
  4;21,21,21,21;,
  4;264,264,264,264;,
  4;265,265,265,265;,
  4;266,266,266,266;,
  3;22,24,23;,
  3;22,25,24;,
  3;22,26,25;,
  3;22,27,26;,
  3;22,28,27;,
  3;22,29,28;,
  3;22,30,29;,
  3;22,23,30;,
  4;23,24,32,31;,
  4;24,25,33,32;,
  4;25,26,34,33;,
  4;26,27,35,34;,
  4;27,28,36,35;,
  4;28,29,37,36;,
  4;29,30,38,37;,
  4;30,23,31,38;,
  4;31,32,40,39;,
  4;32,33,41,40;,
  4;33,34,42,41;,
  4;34,35,43,42;,
  4;35,36,44,43;,
  4;36,37,45,44;,
  4;37,38,46,45;,
  4;38,31,39,46;,
  4;39,40,48,47;,
  4;40,41,49,48;,
  4;41,42,50,49;,
  4;42,43,51,50;,
  4;43,44,52,51;,
  4;44,45,53,52;,
  4;45,46,54,53;,
  4;46,39,47,54;,
  4;47,48,56,55;,
  4;48,49,57,56;,
  4;49,50,58,57;,
  4;50,51,59,58;,
  4;51,52,60,59;,
  4;52,53,61,60;,
  4;53,54,62,61;,
  4;54,47,55,62;,
  4;55,56,64,63;,
  4;56,57,65,64;,
  4;57,58,66,65;,
  4;58,59,67,66;,
  4;59,60,68,67;,
  4;60,61,69,68;,
  4;61,62,70,69;,
  4;62,55,63,70;,
  4;63,64,72,71;,
  4;64,65,73,72;,
  4;65,66,74,73;,
  4;66,67,75,74;,
  4;67,68,76,75;,
  4;68,69,77,76;,
  4;69,70,78,77;,
  4;70,63,71,78;,
  3;71,72,79;,
  3;72,73,79;,
  3;73,74,79;,
  3;74,75,79;,
  3;75,76,79;,
  3;76,77,79;,
  3;77,78,79;,
  3;78,71,79;,
  4;80,80,80,80;,
  4;81,81,81,81;,
  4;82,82,82,82;,
  4;267,267,267,267;,
  4;268,268,268,268;,
  4;269,269,269,269;,
  3;83,85,84;,
  3;83,86,85;,
  3;83,87,86;,
  3;83,88,87;,
  3;83,89,88;,
  3;83,90,89;,
  3;83,91,90;,
  3;83,84,91;,
  4;84,85,93,92;,
  4;85,86,94,93;,
  4;86,87,95,94;,
  4;87,88,96,95;,
  4;88,89,97,96;,
  4;89,90,98,97;,
  4;90,91,99,98;,
  4;91,84,92,99;,
  4;92,93,101,100;,
  4;93,94,102,101;,
  4;94,95,103,102;,
  4;95,96,104,103;,
  4;96,97,105,104;,
  4;97,98,106,105;,
  4;98,99,107,106;,
  4;99,92,100,107;,
  4;100,101,109,108;,
  4;101,102,110,109;,
  4;102,103,111,110;,
  4;103,104,112,111;,
  4;104,105,113,112;,
  4;105,106,114,113;,
  4;106,107,115,114;,
  4;107,100,108,115;,
  4;108,109,117,116;,
  4;109,110,118,117;,
  4;110,111,119,118;,
  4;111,112,120,119;,
  4;112,113,121,120;,
  4;113,114,122,121;,
  4;114,115,123,122;,
  4;115,108,116,123;,
  4;116,117,125,124;,
  4;117,118,126,125;,
  4;118,119,127,126;,
  4;119,120,128,127;,
  4;120,121,129,128;,
  4;121,122,130,129;,
  4;122,123,131,130;,
  4;123,116,124,131;,
  4;124,125,133,132;,
  4;125,126,134,133;,
  4;126,127,135,134;,
  4;127,128,136,135;,
  4;128,129,137,136;,
  4;129,130,138,137;,
  4;130,131,139,138;,
  4;131,124,132,139;,
  3;132,133,140;,
  3;133,134,140;,
  3;134,135,140;,
  3;135,136,140;,
  3;136,137,140;,
  3;137,138,140;,
  3;138,139,140;,
  3;139,132,140;,
  3;141,143,142;,
  3;141,144,143;,
  3;141,145,144;,
  3;141,146,145;,
  3;141,147,146;,
  3;141,148,147;,
  3;141,149,148;,
  3;141,142,149;,
  4;142,143,151,150;,
  4;143,144,152,151;,
  4;144,145,153,152;,
  4;145,146,154,153;,
  4;146,147,155,154;,
  4;147,148,156,155;,
  4;148,149,157,156;,
  4;149,142,150,157;,
  4;150,151,159,158;,
  4;151,152,160,159;,
  4;152,153,161,160;,
  4;153,154,162,161;,
  4;154,155,163,162;,
  4;155,156,164,163;,
  4;156,157,165,164;,
  4;157,150,158,165;,
  4;158,159,167,166;,
  4;159,160,168,167;,
  4;160,161,169,168;,
  4;161,162,170,169;,
  4;162,163,171,170;,
  4;163,164,172,171;,
  4;164,165,173,172;,
  4;165,158,166,173;,
  4;166,167,175,174;,
  4;167,168,176,175;,
  4;168,169,177,176;,
  4;169,170,178,177;,
  4;170,171,179,178;,
  4;171,172,180,179;,
  4;172,173,181,180;,
  4;173,166,174,181;,
  4;174,175,183,182;,
  4;175,176,184,183;,
  4;176,177,185,184;,
  4;177,178,186,185;,
  4;178,179,187,186;,
  4;179,180,188,187;,
  4;180,181,189,188;,
  4;181,174,182,189;,
  4;182,183,191,190;,
  4;183,184,192,191;,
  4;184,185,193,192;,
  4;185,186,194,193;,
  4;186,187,195,194;,
  4;187,188,196,195;,
  4;188,189,197,196;,
  4;189,182,190,197;,
  3;190,191,198;,
  3;191,192,198;,
  3;192,193,198;,
  3;193,194,198;,
  3;194,195,198;,
  3;195,196,198;,
  3;196,197,198;,
  3;197,190,198;,
  3;199,201,200;,
  3;199,202,201;,
  3;199,203,202;,
  3;199,204,203;,
  3;199,205,204;,
  3;199,206,205;,
  3;199,207,206;,
  3;199,200,207;,
  4;200,201,209,208;,
  4;201,202,210,209;,
  4;202,203,211,210;,
  4;203,204,212,211;,
  4;204,205,213,212;,
  4;205,206,214,213;,
  4;206,207,215,214;,
  4;207,200,208,215;,
  4;208,209,217,216;,
  4;209,210,218,217;,
  4;210,211,219,218;,
  4;211,212,220,219;,
  4;212,213,221,220;,
  4;213,214,222,221;,
  4;214,215,223,222;,
  4;215,208,216,223;,
  4;216,217,225,224;,
  4;217,218,226,225;,
  4;218,219,227,226;,
  4;219,220,228,227;,
  4;220,221,229,228;,
  4;221,222,230,229;,
  4;222,223,231,230;,
  4;223,216,224,231;,
  4;224,225,233,232;,
  4;225,226,234,233;,
  4;226,227,235,234;,
  4;227,228,236,235;,
  4;228,229,237,236;,
  4;229,230,238,237;,
  4;230,231,239,238;,
  4;231,224,232,239;,
  4;232,233,241,240;,
  4;233,234,242,241;,
  4;234,235,243,242;,
  4;235,236,244,243;,
  4;236,237,245,244;,
  4;237,238,246,245;,
  4;238,239,247,246;,
  4;239,232,240,247;,
  4;240,241,249,248;,
  4;241,242,250,249;,
  4;242,243,251,250;,
  4;243,244,252,251;,
  4;244,245,253,252;,
  4;245,246,254,253;,
  4;246,247,255,254;,
  4;247,240,248,255;,
  3;248,249,256;,
  3;249,250,256;,
  3;250,251,256;,
  3;251,252,256;,
  3;252,253,256;,
  3;253,254,256;,
  3;254,255,256;,
  3;255,248,256;,
  4;0,0,0,0;,
  4;1,1,1,1;,
  4;2,2,2,2;,
  4;257,257,257,257;,
  4;3,3,3,3;,
  4;4,4,4,4;,
  4;0,0,0,0;,
  4;1,1,1,1;,
  4;2,2,2,2;,
  4;257,257,257,257;,
  4;3,3,3,3;,
  4;4,4,4,4;,
  4;0,0,0,0;,
  4;1,1,1,1;,
  4;2,2,2,2;,
  4;257,257,257,257;,
  4;3,3,3,3;,
  4;4,4,4,4;,
  4;0,0,0,0;,
  4;1,1,1,1;,
  4;2,2,2,2;,
  4;257,257,257,257;,
  4;3,3,3,3;,
  4;4,4,4,4;,
  4;0,0,0,0;,
  4;1,1,1,1;,
  4;2,2,2,2;,
  4;257,257,257,257;,
  4;3,3,3,3;,
  4;4,4,4,4;,
  4;0,0,0,0;,
  4;1,1,1,1;,
  4;2,2,2,2;,
  4;257,257,257,257;,
  4;3,3,3,3;,
  4;4,4,4,4;;
 }
}
