xof 0302txt 0064
template Header {
 <3D82AB43-62DA-11cf-AB39-0020AF71E433>
 WORD major;
 WORD minor;
 DWORD flags;
}

template Vector {
 <3D82AB5E-62DA-11cf-AB39-0020AF71E433>
 FLOAT x;
 FLOAT y;
 FLOAT z;
}

template Coords2d {
 <F6F23F44-7686-11cf-8F52-0040333594A3>
 FLOAT u;
 FLOAT v;
}

template Matrix4x4 {
 <F6F23F45-7686-11cf-8F52-0040333594A3>
 array FLOAT matrix[16];
}

template ColorRGBA {
 <35FF44E0-6C7C-11cf-8F52-0040333594A3>
 FLOAT red;
 FLOAT green;
 FLOAT blue;
 FLOAT alpha;
}

template ColorRGB {
 <D3E16E81-7835-11cf-8F52-0040333594A3>
 FLOAT red;
 FLOAT green;
 FLOAT blue;
}

template IndexedColor {
 <1630B820-7842-11cf-8F52-0040333594A3>
 DWORD index;
 ColorRGBA indexColor;
}

template Boolean {
 <4885AE61-78E8-11cf-8F52-0040333594A3>
 WORD truefalse;
}

template Boolean2d {
 <4885AE63-78E8-11cf-8F52-0040333594A3>
 Boolean u;
 Boolean v;
}

template MaterialWrap {
 <4885AE60-78E8-11cf-8F52-0040333594A3>
 Boolean u;
 Boolean v;
}

template TextureFilename {
 <A42790E1-7810-11cf-8F52-0040333594A3>
 STRING filename;
}

template Material {
 <3D82AB4D-62DA-11cf-AB39-0020AF71E433>
 ColorRGBA faceColor;
 FLOAT power;
 ColorRGB specularColor;
 ColorRGB emissiveColor;
 [...]
}

template MeshFace {
 <3D82AB5F-62DA-11cf-AB39-0020AF71E433>
 DWORD nFaceVertexIndices;
 array DWORD faceVertexIndices[nFaceVertexIndices];
}

template MeshFaceWraps {
 <4885AE62-78E8-11cf-8F52-0040333594A3>
 DWORD nFaceWrapValues;
 Boolean2d faceWrapValues;
}

template MeshTextureCoords {
 <F6F23F40-7686-11cf-8F52-0040333594A3>
 DWORD nTextureCoords;
 array Coords2d textureCoords[nTextureCoords];
}

template MeshMaterialList {
 <F6F23F42-7686-11cf-8F52-0040333594A3>
 DWORD nMaterials;
 DWORD nFaceIndexes;
 array DWORD faceIndexes[nFaceIndexes];
 [Material]
}

template MeshNormals {
 <F6F23F43-7686-11cf-8F52-0040333594A3>
 DWORD nNormals;
 array Vector normals[nNormals];
 DWORD nFaceNormals;
 array MeshFace faceNormals[nFaceNormals];
}

template MeshVertexColors {
 <1630B821-7842-11cf-8F52-0040333594A3>
 DWORD nVertexColors;
 array IndexedColor vertexColors[nVertexColors];
}

template Mesh {
 <3D82AB44-62DA-11cf-AB39-0020AF71E433>
 DWORD nVertices;
 array Vector vertices[nVertices];
 DWORD nFaces;
 array MeshFace faces[nFaces];
 [...]
}

Header{
1;
0;
1;
}

Mesh {
 160;
 79.34079;221.50529;-12.43330;,
 79.34079;11.91940;-12.43330;,
 65.39799;11.91940;-12.43330;,
 65.39799;221.50529;-12.43330;,
 65.39799;221.50529;-12.43330;,
 65.39799;11.91940;-12.43330;,
 65.39799;11.91940;12.43330;,
 65.39799;221.50529;12.43330;,
 65.39799;221.50529;12.43330;,
 65.39799;11.91940;12.43330;,
 79.34079;11.91940;12.43330;,
 79.34079;221.50529;12.43330;,
 79.34079;221.50529;12.43330;,
 79.34079;11.91940;12.43330;,
 79.34079;11.91940;-12.43330;,
 79.34079;221.50529;-12.43330;,
 79.34079;221.50529;-12.43330;,
 65.39799;221.50529;-12.43330;,
 79.34079;11.91940;-12.43330;,
 65.39799;11.91940;-12.43330;,
 49.30270;221.50529;-12.43330;,
 49.30270;27.99910;-12.43330;,
 35.35990;27.99910;-12.43330;,
 35.35990;221.50529;-12.43330;,
 35.35990;221.50529;-12.43330;,
 35.35990;27.99910;-12.43330;,
 35.35990;27.99910;12.43330;,
 35.35990;221.50529;12.43330;,
 35.35990;221.50529;12.43330;,
 35.35990;27.99910;12.43330;,
 49.30270;27.99910;12.43330;,
 49.30270;221.50529;12.43330;,
 49.30270;221.50529;12.43330;,
 49.30270;27.99910;12.43330;,
 49.30270;27.99910;-12.43330;,
 49.30270;221.50529;-12.43330;,
 49.30270;221.50529;-12.43330;,
 35.35990;221.50529;-12.43330;,
 49.30270;27.99910;-12.43330;,
 35.35990;27.99910;-12.43330;,
 16.16190;221.50529;-12.43330;,
 16.16190;27.99910;-12.43330;,
 2.21910;27.99910;-12.43330;,
 2.21910;221.50529;-12.43330;,
 2.21910;221.50529;-12.43330;,
 2.21910;27.99910;-12.43330;,
 2.21910;27.99910;12.43330;,
 2.21910;221.50529;12.43330;,
 2.21910;221.50529;12.43330;,
 2.21910;27.99910;12.43330;,
 16.16190;27.99910;12.43330;,
 16.16190;221.50529;12.43330;,
 16.16190;221.50529;12.43330;,
 16.16190;27.99910;12.43330;,
 16.16190;27.99910;-12.43330;,
 16.16190;221.50529;-12.43330;,
 16.16190;221.50529;-12.43330;,
 2.21910;221.50529;-12.43330;,
 16.16190;27.99910;-12.43330;,
 2.21910;27.99910;-12.43330;,
 -16.97891;221.50529;-12.43330;,
 -16.97891;27.99910;-12.43330;,
 -30.92171;27.99910;-12.43330;,
 -30.92171;221.50529;-12.43330;,
 -30.92171;221.50529;-12.43330;,
 -30.92171;27.99910;-12.43330;,
 -30.92171;27.99910;12.43330;,
 -30.92171;221.50529;12.43330;,
 -30.92171;221.50529;12.43330;,
 -30.92171;27.99910;12.43330;,
 -16.97891;27.99910;12.43330;,
 -16.97891;221.50529;12.43330;,
 -16.97891;221.50529;12.43330;,
 -16.97891;27.99910;12.43330;,
 -16.97891;27.99910;-12.43330;,
 -16.97891;221.50529;-12.43330;,
 -16.97891;221.50529;-12.43330;,
 -30.92171;221.50529;-12.43330;,
 -16.97891;27.99910;-12.43330;,
 -30.92171;27.99910;-12.43330;,
 68.46249;210.55890;-12.43330;,
 68.46249;194.84270;-12.43330;,
 -79.60249;194.84270;-12.43330;,
 -79.60249;210.55890;-12.43330;,
 -79.60249;210.55890;-12.43330;,
 -79.60249;194.84270;-12.43330;,
 -79.60249;194.84270;12.43330;,
 -79.60249;210.55890;12.43330;,
 -79.60249;210.55890;12.43330;,
 -79.60249;194.84270;12.43330;,
 68.46249;194.84270;12.43330;,
 68.46249;210.55890;12.43330;,
 68.46249;210.55890;12.43330;,
 68.46249;194.84270;12.43330;,
 68.46249;194.84270;-12.43330;,
 68.46249;210.55890;-12.43330;,
 68.46249;210.55890;-12.43330;,
 -79.60249;210.55890;-12.43330;,
 68.46249;194.84270;-12.43330;,
 -79.60249;194.84270;-12.43330;,
 -47.16861;221.50529;-12.43330;,
 -47.16861;11.91940;-12.43330;,
 -61.11141;11.91940;-12.43330;,
 -61.11141;221.50529;-12.43330;,
 -61.11141;221.50529;-12.43330;,
 -61.11141;11.91940;-12.43330;,
 -61.11141;11.91940;12.43330;,
 -61.11141;221.50529;12.43330;,
 -61.11141;221.50529;12.43330;,
 -61.11141;11.91940;12.43330;,
 -47.16861;11.91940;12.43330;,
 -47.16861;221.50529;12.43330;,
 -47.16861;221.50529;12.43330;,
 -47.16861;11.91940;12.43330;,
 -47.16861;11.91940;-12.43330;,
 -47.16861;221.50529;-12.43330;,
 -47.16861;221.50529;-12.43330;,
 -61.11141;221.50529;-12.43330;,
 -47.16861;11.91940;-12.43330;,
 -61.11141;11.91940;-12.43330;,
 68.46249;170.85100;-5.45990;,
 68.46249;155.13490;-5.45990;,
 -79.60249;155.13490;-5.45990;,
 -79.60249;170.85100;-5.45990;,
 -79.60249;170.85100;-5.45990;,
 -79.60249;155.13490;-5.45990;,
 -79.60249;155.13490;5.45990;,
 -79.60249;170.85100;5.45990;,
 -79.60249;170.85100;5.45990;,
 -79.60249;155.13490;5.45990;,
 68.46249;155.13490;5.45990;,
 68.46249;170.85100;5.45990;,
 68.46249;170.85100;5.45990;,
 68.46249;155.13490;5.45990;,
 68.46249;155.13490;-5.45990;,
 68.46249;170.85100;-5.45990;,
 68.46249;170.85100;-5.45990;,
 -79.60249;170.85100;-5.45990;,
 68.46249;155.13490;-5.45990;,
 -79.60249;155.13490;-5.45990;,
 68.46249;39.04210;-12.43330;,
 68.46249;23.32600;-12.43330;,
 -79.60249;23.32600;-12.43330;,
 -79.60249;39.04210;-12.43330;,
 -79.60249;39.04210;-12.43330;,
 -79.60249;23.32600;-12.43330;,
 -79.60249;23.32600;12.43330;,
 -79.60249;39.04210;12.43330;,
 -79.60249;39.04210;12.43330;,
 -79.60249;23.32600;12.43330;,
 68.46249;23.32600;12.43330;,
 68.46249;39.04210;12.43330;,
 68.46249;39.04210;12.43330;,
 68.46249;23.32600;12.43330;,
 68.46249;23.32600;-12.43330;,
 68.46249;39.04210;-12.43330;,
 68.46249;39.04210;-12.43330;,
 -79.60249;39.04210;-12.43330;,
 68.46249;23.32600;-12.43330;,
 -79.60249;23.32600;-12.43330;;
 
 48;
 4;0,1,2,3;,
 4;4,5,6,7;,
 4;8,9,10,11;,
 4;12,13,14,15;,
 4;12,16,17,7;,
 4;18,13,6,19;,
 4;20,21,22,23;,
 4;24,25,26,27;,
 4;28,29,30,31;,
 4;32,33,34,35;,
 4;32,36,37,27;,
 4;38,33,26,39;,
 4;40,41,42,43;,
 4;44,45,46,47;,
 4;48,49,50,51;,
 4;52,53,54,55;,
 4;52,56,57,47;,
 4;58,53,46,59;,
 4;60,61,62,63;,
 4;64,65,66,67;,
 4;68,69,70,71;,
 4;72,73,74,75;,
 4;72,76,77,67;,
 4;78,73,66,79;,
 4;80,81,82,83;,
 4;84,85,86,87;,
 4;88,89,90,91;,
 4;92,93,94,95;,
 4;92,96,97,87;,
 4;98,93,86,99;,
 4;100,101,102,103;,
 4;104,105,106,107;,
 4;108,109,110,111;,
 4;112,113,114,115;,
 4;112,116,117,107;,
 4;118,113,106,119;,
 4;120,121,122,123;,
 4;124,125,126,127;,
 4;128,129,130,131;,
 4;132,133,134,135;,
 4;132,136,137,127;,
 4;138,133,126,139;,
 4;140,141,142,143;,
 4;144,145,146,147;,
 4;148,149,150,151;,
 4;152,153,154,155;,
 4;152,156,157,147;,
 4;158,153,146,159;;
 
 MeshMaterialList {
  2;
  48;
  0,
  0,
  0,
  0,
  0,
  0,
  0,
  0,
  0,
  0,
  0,
  0,
  0,
  0,
  0,
  0,
  0,
  0,
  0,
  0,
  0,
  0,
  0,
  0,
  0,
  0,
  0,
  0,
  0,
  0,
  0,
  0,
  0,
  0,
  0,
  0,
  0,
  0,
  0,
  0,
  0,
  0,
  0,
  0,
  0,
  0,
  0,
  0;;
  Material {
   0.380000;0.210400;0.197600;1.000000;;
   0.000000;
   0.000000;0.000000;0.000000;;
   0.000000;0.000000;0.000000;;
  }
  Material {
   0.536800;0.536800;0.536800;1.000000;;
   5.000000;
   0.000000;0.000000;0.000000;;
   0.000000;0.000000;0.000000;;
  }
 }
 MeshNormals {
  6;
  0.000000;0.000000;-1.000000;,
  -1.000000;0.000000;0.000000;,
  0.000000;-0.000000;1.000000;,
  1.000000;0.000000;0.000000;,
  0.000000;1.000000;0.000000;,
  0.000000;-1.000000;-0.000000;;
  48;
  4;0,0,0,0;,
  4;1,1,1,1;,
  4;2,2,2,2;,
  4;3,3,3,3;,
  4;4,4,4,4;,
  4;5,5,5,5;,
  4;0,0,0,0;,
  4;1,1,1,1;,
  4;2,2,2,2;,
  4;3,3,3,3;,
  4;4,4,4,4;,
  4;5,5,5,5;,
  4;0,0,0,0;,
  4;1,1,1,1;,
  4;2,2,2,2;,
  4;3,3,3,3;,
  4;4,4,4,4;,
  4;5,5,5,5;,
  4;0,0,0,0;,
  4;1,1,1,1;,
  4;2,2,2,2;,
  4;3,3,3,3;,
  4;4,4,4,4;,
  4;5,5,5,5;,
  4;0,0,0,0;,
  4;1,1,1,1;,
  4;2,2,2,2;,
  4;3,3,3,3;,
  4;4,4,4,4;,
  4;5,5,5,5;,
  4;0,0,0,0;,
  4;1,1,1,1;,
  4;2,2,2,2;,
  4;3,3,3,3;,
  4;4,4,4,4;,
  4;5,5,5,5;,
  4;0,0,0,0;,
  4;1,1,1,1;,
  4;2,2,2,2;,
  4;3,3,3,3;,
  4;4,4,4,4;,
  4;5,5,5,5;,
  4;0,0,0,0;,
  4;1,1,1,1;,
  4;2,2,2,2;,
  4;3,3,3,3;,
  4;4,4,4,4;,
  4;5,5,5,5;;
 }
 MeshTextureCoords {
  160;
  0.000000;0.000000;,
  0.000000;1.000000;,
  1.000000;1.000000;,
  1.000000;0.000000;,
  0.000000;0.000000;,
  0.000000;1.000000;,
  1.000000;1.000000;,
  1.000000;0.000000;,
  0.000000;0.000000;,
  0.000000;1.000000;,
  1.000000;1.000000;,
  1.000000;0.000000;,
  0.000000;0.000000;,
  0.000000;1.000000;,
  1.000000;1.000000;,
  1.000000;0.000000;,
  0.000000;1.000000;,
  1.000000;1.000000;,
  0.000000;0.000000;,
  1.000000;0.000000;,
  0.000000;0.000000;,
  0.000000;1.000000;,
  1.000000;1.000000;,
  1.000000;0.000000;,
  0.000000;0.000000;,
  0.000000;1.000000;,
  1.000000;1.000000;,
  1.000000;0.000000;,
  0.000000;0.000000;,
  0.000000;1.000000;,
  1.000000;1.000000;,
  1.000000;0.000000;,
  0.000000;0.000000;,
  0.000000;1.000000;,
  1.000000;1.000000;,
  1.000000;0.000000;,
  0.000000;1.000000;,
  1.000000;1.000000;,
  0.000000;0.000000;,
  1.000000;0.000000;,
  0.000000;0.000000;,
  0.000000;1.000000;,
  1.000000;1.000000;,
  1.000000;0.000000;,
  0.000000;0.000000;,
  0.000000;1.000000;,
  1.000000;1.000000;,
  1.000000;0.000000;,
  0.000000;0.000000;,
  0.000000;1.000000;,
  1.000000;1.000000;,
  1.000000;0.000000;,
  0.000000;0.000000;,
  0.000000;1.000000;,
  1.000000;1.000000;,
  1.000000;0.000000;,
  0.000000;1.000000;,
  1.000000;1.000000;,
  0.000000;0.000000;,
  1.000000;0.000000;,
  0.000000;0.000000;,
  0.000000;1.000000;,
  1.000000;1.000000;,
  1.000000;0.000000;,
  0.000000;0.000000;,
  0.000000;1.000000;,
  1.000000;1.000000;,
  1.000000;0.000000;,
  0.000000;0.000000;,
  0.000000;1.000000;,
  1.000000;1.000000;,
  1.000000;0.000000;,
  0.000000;0.000000;,
  0.000000;1.000000;,
  1.000000;1.000000;,
  1.000000;0.000000;,
  0.000000;1.000000;,
  1.000000;1.000000;,
  0.000000;0.000000;,
  1.000000;0.000000;,
  0.000000;0.000000;,
  0.000000;1.000000;,
  1.000000;1.000000;,
  1.000000;0.000000;,
  0.000000;0.000000;,
  0.000000;1.000000;,
  1.000000;1.000000;,
  1.000000;0.000000;,
  0.000000;0.000000;,
  0.000000;1.000000;,
  1.000000;1.000000;,
  1.000000;0.000000;,
  0.000000;0.000000;,
  0.000000;1.000000;,
  1.000000;1.000000;,
  1.000000;0.000000;,
  0.000000;1.000000;,
  1.000000;1.000000;,
  0.000000;0.000000;,
  1.000000;0.000000;,
  0.000000;0.000000;,
  0.000000;1.000000;,
  1.000000;1.000000;,
  1.000000;0.000000;,
  0.000000;0.000000;,
  0.000000;1.000000;,
  1.000000;1.000000;,
  1.000000;0.000000;,
  0.000000;0.000000;,
  0.000000;1.000000;,
  1.000000;1.000000;,
  1.000000;0.000000;,
  0.000000;0.000000;,
  0.000000;1.000000;,
  1.000000;1.000000;,
  1.000000;0.000000;,
  0.000000;1.000000;,
  1.000000;1.000000;,
  0.000000;0.000000;,
  1.000000;0.000000;,
  0.000000;0.000000;,
  0.000000;1.000000;,
  1.000000;1.000000;,
  1.000000;0.000000;,
  0.000000;0.000000;,
  0.000000;1.000000;,
  1.000000;1.000000;,
  1.000000;0.000000;,
  0.000000;0.000000;,
  0.000000;1.000000;,
  1.000000;1.000000;,
  1.000000;0.000000;,
  0.000000;0.000000;,
  0.000000;1.000000;,
  1.000000;1.000000;,
  1.000000;0.000000;,
  0.000000;1.000000;,
  1.000000;1.000000;,
  0.000000;0.000000;,
  1.000000;0.000000;,
  0.000000;0.000000;,
  0.000000;1.000000;,
  1.000000;1.000000;,
  1.000000;0.000000;,
  0.000000;0.000000;,
  0.000000;1.000000;,
  1.000000;1.000000;,
  1.000000;0.000000;,
  0.000000;0.000000;,
  0.000000;1.000000;,
  1.000000;1.000000;,
  1.000000;0.000000;,
  0.000000;0.000000;,
  0.000000;1.000000;,
  1.000000;1.000000;,
  1.000000;0.000000;,
  0.000000;1.000000;,
  1.000000;1.000000;,
  0.000000;0.000000;,
  1.000000;0.000000;;
 }
}
