xof 0302txt 0064
template Header {
 <3D82AB43-62DA-11cf-AB39-0020AF71E433>
 WORD major;
 WORD minor;
 DWORD flags;
}

template Vector {
 <3D82AB5E-62DA-11cf-AB39-0020AF71E433>
 FLOAT x;
 FLOAT y;
 FLOAT z;
}

template Coords2d {
 <F6F23F44-7686-11cf-8F52-0040333594A3>
 FLOAT u;
 FLOAT v;
}

template Matrix4x4 {
 <F6F23F45-7686-11cf-8F52-0040333594A3>
 array FLOAT matrix[16];
}

template ColorRGBA {
 <35FF44E0-6C7C-11cf-8F52-0040333594A3>
 FLOAT red;
 FLOAT green;
 FLOAT blue;
 FLOAT alpha;
}

template ColorRGB {
 <D3E16E81-7835-11cf-8F52-0040333594A3>
 FLOAT red;
 FLOAT green;
 FLOAT blue;
}

template IndexedColor {
 <1630B820-7842-11cf-8F52-0040333594A3>
 DWORD index;
 ColorRGBA indexColor;
}

template Boolean {
 <4885AE61-78E8-11cf-8F52-0040333594A3>
 WORD truefalse;
}

template Boolean2d {
 <4885AE63-78E8-11cf-8F52-0040333594A3>
 Boolean u;
 Boolean v;
}

template MaterialWrap {
 <4885AE60-78E8-11cf-8F52-0040333594A3>
 Boolean u;
 Boolean v;
}

template TextureFilename {
 <A42790E1-7810-11cf-8F52-0040333594A3>
 STRING filename;
}

template Material {
 <3D82AB4D-62DA-11cf-AB39-0020AF71E433>
 ColorRGBA faceColor;
 FLOAT power;
 ColorRGB specularColor;
 ColorRGB emissiveColor;
 [...]
}

template MeshFace {
 <3D82AB5F-62DA-11cf-AB39-0020AF71E433>
 DWORD nFaceVertexIndices;
 array DWORD faceVertexIndices[nFaceVertexIndices];
}

template MeshFaceWraps {
 <4885AE62-78E8-11cf-8F52-0040333594A3>
 DWORD nFaceWrapValues;
 Boolean2d faceWrapValues;
}

template MeshTextureCoords {
 <F6F23F40-7686-11cf-8F52-0040333594A3>
 DWORD nTextureCoords;
 array Coords2d textureCoords[nTextureCoords];
}

template MeshMaterialList {
 <F6F23F42-7686-11cf-8F52-0040333594A3>
 DWORD nMaterials;
 DWORD nFaceIndexes;
 array DWORD faceIndexes[nFaceIndexes];
 [Material]
}

template MeshNormals {
 <F6F23F43-7686-11cf-8F52-0040333594A3>
 DWORD nNormals;
 array Vector normals[nNormals];
 DWORD nFaceNormals;
 array MeshFace faceNormals[nFaceNormals];
}

template MeshVertexColors {
 <1630B821-7842-11cf-8F52-0040333594A3>
 DWORD nVertexColors;
 array IndexedColor vertexColors[nVertexColors];
}

template Mesh {
 <3D82AB44-62DA-11cf-AB39-0020AF71E433>
 DWORD nVertices;
 array Vector vertices[nVertices];
 DWORD nFaces;
 array MeshFace faces[nFaces];
 [...]
}

Header{
1;
0;
1;
}

Mesh {
 500;
 -202.46490;221.50529;-12.43330;,
 -202.46490;-5.05360;-12.43330;,
 -216.40770;-5.05360;-12.43330;,
 -216.40770;221.50529;-12.43330;,
 -216.40770;221.50529;-12.43330;,
 -216.40770;-5.05360;-12.43330;,
 -216.40770;-5.05360;12.43330;,
 -216.40770;221.50529;12.43330;,
 -216.40770;221.50529;12.43330;,
 -216.40770;-5.05360;12.43330;,
 -202.46490;-5.05360;12.43330;,
 -202.46490;221.50529;12.43330;,
 -202.46490;221.50529;12.43330;,
 -202.46490;-5.05360;12.43330;,
 -202.46490;-5.05360;-12.43330;,
 -202.46490;221.50529;-12.43330;,
 -202.46490;221.50529;-12.43330;,
 -216.40770;221.50529;-12.43330;,
 -202.46490;-5.05360;-12.43330;,
 -216.40770;-5.05360;-12.43330;,
 -233.39630;221.50529;-12.43330;,
 -233.39630;-5.05360;-12.43330;,
 -247.33910;-5.05360;-12.43330;,
 -247.33910;221.50529;-12.43330;,
 -247.33910;221.50529;-12.43330;,
 -247.33910;-5.05360;-12.43330;,
 -247.33910;-5.05360;12.43330;,
 -247.33910;221.50529;12.43330;,
 -247.33910;221.50529;12.43330;,
 -247.33910;-5.05360;12.43330;,
 -233.39630;-5.05360;12.43330;,
 -233.39630;221.50529;12.43330;,
 -233.39630;221.50529;12.43330;,
 -233.39630;-5.05360;12.43330;,
 -233.39630;-5.05360;-12.43330;,
 -233.39630;221.50529;-12.43330;,
 -233.39630;221.50529;-12.43330;,
 -247.33910;221.50529;-12.43330;,
 -233.39630;-5.05360;-12.43330;,
 -247.33910;-5.05360;-12.43330;,
 -266.53711;221.50529;-12.43330;,
 -266.53711;-5.05360;-12.43330;,
 -280.47989;-5.05360;-12.43330;,
 -280.47989;221.50529;-12.43330;,
 -280.47989;221.50529;-12.43330;,
 -280.47989;-5.05360;-12.43330;,
 -280.47989;-5.05360;12.43330;,
 -280.47989;221.50529;12.43330;,
 -280.47989;221.50529;12.43330;,
 -280.47989;-5.05360;12.43330;,
 -266.53711;-5.05360;12.43330;,
 -266.53711;221.50529;12.43330;,
 -266.53711;221.50529;12.43330;,
 -266.53711;-5.05360;12.43330;,
 -266.53711;-5.05360;-12.43330;,
 -266.53711;221.50529;-12.43330;,
 -266.53711;221.50529;-12.43330;,
 -280.47989;221.50529;-12.43330;,
 -266.53711;-5.05360;-12.43330;,
 -280.47989;-5.05360;-12.43330;,
 -299.67789;221.50529;-12.43330;,
 -299.67789;-5.05360;-12.43330;,
 -313.62070;-5.05360;-12.43330;,
 -313.62070;221.50529;-12.43330;,
 -313.62070;221.50529;-12.43330;,
 -313.62070;-5.05360;-12.43330;,
 -313.62070;-5.05360;12.43330;,
 -313.62070;221.50529;12.43330;,
 -313.62070;221.50529;12.43330;,
 -313.62070;-5.05360;12.43330;,
 -299.67789;-5.05360;12.43330;,
 -299.67789;221.50529;12.43330;,
 -299.67789;221.50529;12.43330;,
 -299.67789;-5.05360;12.43330;,
 -299.67789;-5.05360;-12.43330;,
 -299.67789;221.50529;-12.43330;,
 -299.67789;221.50529;-12.43330;,
 -313.62070;221.50529;-12.43330;,
 -299.67789;-5.05360;-12.43330;,
 -313.62070;-5.05360;-12.43330;,
 354.77902;210.55890;-12.43330;,
 354.77902;194.84270;-12.43330;,
 -337.14871;194.84270;-12.43330;,
 -337.14871;210.55890;-12.43330;,
 -337.14871;210.55890;-12.43330;,
 -337.14871;194.84270;-12.43330;,
 -337.14871;194.84270;12.43330;,
 -337.14871;210.55890;12.43330;,
 -337.14871;210.55890;12.43330;,
 -337.14871;194.84270;12.43330;,
 354.77902;194.84270;12.43330;,
 354.77902;210.55890;12.43330;,
 354.77902;210.55890;12.43330;,
 354.77902;194.84270;12.43330;,
 354.77902;194.84270;-12.43330;,
 354.77902;210.55890;-12.43330;,
 354.77902;210.55890;-12.43330;,
 -337.14871;210.55890;-12.43330;,
 354.77902;194.84270;-12.43330;,
 -337.14871;194.84270;-12.43330;,
 -333.44080;221.50529;-12.43330;,
 -333.44080;-5.05360;-12.43330;,
 -347.38361;-5.05360;-12.43330;,
 -347.38361;221.50529;-12.43330;,
 -347.38361;221.50529;-12.43330;,
 -347.38361;-5.05360;-12.43330;,
 -347.38361;-5.05360;12.43330;,
 -347.38361;221.50529;12.43330;,
 -347.38361;221.50529;12.43330;,
 -347.38361;-5.05360;12.43330;,
 -333.44080;-5.05360;12.43330;,
 -333.44080;221.50529;12.43330;,
 -333.44080;221.50529;12.43330;,
 -333.44080;-5.05360;12.43330;,
 -333.44080;-5.05360;-12.43330;,
 -333.44080;221.50529;-12.43330;,
 -333.44080;221.50529;-12.43330;,
 -347.38361;221.50529;-12.43330;,
 -333.44080;-5.05360;-12.43330;,
 -347.38361;-5.05360;-12.43330;,
 354.77902;170.85100;-5.45990;,
 354.77902;155.13490;-5.45990;,
 -337.14871;155.13490;-5.45990;,
 -337.14871;170.85100;-5.45990;,
 -337.14871;170.85100;-5.45990;,
 -337.14871;155.13490;-5.45990;,
 -337.14871;155.13490;5.45990;,
 -337.14871;170.85100;5.45990;,
 -337.14871;170.85100;5.45990;,
 -337.14871;155.13490;5.45990;,
 354.77902;155.13490;5.45990;,
 354.77902;170.85100;5.45990;,
 354.77902;170.85100;5.45990;,
 354.77902;155.13490;5.45990;,
 354.77902;155.13490;-5.45990;,
 354.77902;170.85100;-5.45990;,
 354.77902;170.85100;-5.45990;,
 -337.14871;170.85100;-5.45990;,
 354.77902;155.13490;-5.45990;,
 -337.14871;155.13490;-5.45990;,
 -172.46490;221.50529;-12.43330;,
 -172.46490;-5.05360;-12.43330;,
 -186.40770;-5.05360;-12.43330;,
 -186.40770;221.50529;-12.43330;,
 -186.40770;221.50529;-12.43330;,
 -186.40770;-5.05360;-12.43330;,
 -186.40770;-5.05360;12.43330;,
 -186.40770;221.50529;12.43330;,
 -186.40770;221.50529;12.43330;,
 -186.40770;-5.05360;12.43330;,
 -172.46490;-5.05360;12.43330;,
 -172.46490;221.50529;12.43330;,
 -172.46490;221.50529;12.43330;,
 -172.46490;-5.05360;12.43330;,
 -172.46490;-5.05360;-12.43330;,
 -172.46490;221.50529;-12.43330;,
 -172.46490;221.50529;-12.43330;,
 -186.40770;221.50529;-12.43330;,
 -172.46490;-5.05360;-12.43330;,
 -186.40770;-5.05360;-12.43330;,
 -142.46490;221.50529;-12.43330;,
 -142.46490;-5.05360;-12.43330;,
 -156.40770;-5.05360;-12.43330;,
 -156.40770;221.50529;-12.43330;,
 -156.40770;221.50529;-12.43330;,
 -156.40770;-5.05360;-12.43330;,
 -156.40770;-5.05360;12.43330;,
 -156.40770;221.50529;12.43330;,
 -156.40770;221.50529;12.43330;,
 -156.40770;-5.05360;12.43330;,
 -142.46490;-5.05360;12.43330;,
 -142.46490;221.50529;12.43330;,
 -142.46490;221.50529;12.43330;,
 -142.46490;-5.05360;12.43330;,
 -142.46490;-5.05360;-12.43330;,
 -142.46490;221.50529;-12.43330;,
 -142.46490;221.50529;-12.43330;,
 -156.40770;221.50529;-12.43330;,
 -142.46490;-5.05360;-12.43330;,
 -156.40770;-5.05360;-12.43330;,
 -112.46490;221.50529;-12.43330;,
 -112.46490;-5.05360;-12.43330;,
 -126.40770;-5.05360;-12.43330;,
 -126.40770;221.50529;-12.43330;,
 -126.40770;221.50529;-12.43330;,
 -126.40770;-5.05360;-12.43330;,
 -126.40770;-5.05360;12.43330;,
 -126.40770;221.50529;12.43330;,
 -126.40770;221.50529;12.43330;,
 -126.40770;-5.05360;12.43330;,
 -112.46490;-5.05360;12.43330;,
 -112.46490;221.50529;12.43330;,
 -112.46490;221.50529;12.43330;,
 -112.46490;-5.05360;12.43330;,
 -112.46490;-5.05360;-12.43330;,
 -112.46490;221.50529;-12.43330;,
 -112.46490;221.50529;-12.43330;,
 -126.40770;221.50529;-12.43330;,
 -112.46490;-5.05360;-12.43330;,
 -126.40770;-5.05360;-12.43330;,
 -82.46490;221.50529;-12.43330;,
 -82.46490;-5.05360;-12.43330;,
 -96.40770;-5.05360;-12.43330;,
 -96.40770;221.50529;-12.43330;,
 -96.40770;221.50529;-12.43330;,
 -96.40770;-5.05360;-12.43330;,
 -96.40770;-5.05360;12.43330;,
 -96.40770;221.50529;12.43330;,
 -96.40770;221.50529;12.43330;,
 -96.40770;-5.05360;12.43330;,
 -82.46490;-5.05360;12.43330;,
 -82.46490;221.50529;12.43330;,
 -82.46490;221.50529;12.43330;,
 -82.46490;-5.05360;12.43330;,
 -82.46490;-5.05360;-12.43330;,
 -82.46490;221.50529;-12.43330;,
 -82.46490;221.50529;-12.43330;,
 -96.40770;221.50529;-12.43330;,
 -82.46490;-5.05360;-12.43330;,
 -96.40770;-5.05360;-12.43330;,
 -52.46490;221.50529;-12.43330;,
 -52.46490;-5.05360;-12.43330;,
 -66.40770;-5.05360;-12.43330;,
 -66.40770;221.50529;-12.43330;,
 -66.40770;221.50529;-12.43330;,
 -66.40770;-5.05360;-12.43330;,
 -66.40770;-5.05360;12.43330;,
 -66.40770;221.50529;12.43330;,
 -66.40770;221.50529;12.43330;,
 -66.40770;-5.05360;12.43330;,
 -52.46490;-5.05360;12.43330;,
 -52.46490;221.50529;12.43330;,
 -52.46490;221.50529;12.43330;,
 -52.46490;-5.05360;12.43330;,
 -52.46490;-5.05360;-12.43330;,
 -52.46490;221.50529;-12.43330;,
 -52.46490;221.50529;-12.43330;,
 -66.40770;221.50529;-12.43330;,
 -52.46490;-5.05360;-12.43330;,
 -66.40770;-5.05360;-12.43330;,
 -22.46490;221.50529;-12.43330;,
 -22.46490;-5.05360;-12.43330;,
 -36.40770;-5.05360;-12.43330;,
 -36.40770;221.50529;-12.43330;,
 -36.40770;221.50529;-12.43330;,
 -36.40770;-5.05360;-12.43330;,
 -36.40770;-5.05360;12.43330;,
 -36.40770;221.50529;12.43330;,
 -36.40770;221.50529;12.43330;,
 -36.40770;-5.05360;12.43330;,
 -22.46490;-5.05360;12.43330;,
 -22.46490;221.50529;12.43330;,
 -22.46490;221.50529;12.43330;,
 -22.46490;-5.05360;12.43330;,
 -22.46490;-5.05360;-12.43330;,
 -22.46490;221.50529;-12.43330;,
 -22.46490;221.50529;-12.43330;,
 -36.40770;221.50529;-12.43330;,
 -22.46490;-5.05360;-12.43330;,
 -36.40770;-5.05360;-12.43330;,
 7.53509;221.50529;-12.43330;,
 7.53509;-5.05360;-12.43330;,
 -6.40770;-5.05360;-12.43330;,
 -6.40770;221.50529;-12.43330;,
 -6.40770;221.50529;-12.43330;,
 -6.40770;-5.05360;-12.43330;,
 -6.40770;-5.05360;12.43330;,
 -6.40770;221.50529;12.43330;,
 -6.40770;221.50529;12.43330;,
 -6.40770;-5.05360;12.43330;,
 7.53509;-5.05360;12.43330;,
 7.53509;221.50529;12.43330;,
 7.53509;221.50529;12.43330;,
 7.53509;-5.05360;12.43330;,
 7.53509;-5.05360;-12.43330;,
 7.53509;221.50529;-12.43330;,
 7.53509;221.50529;-12.43330;,
 -6.40770;221.50529;-12.43330;,
 7.53509;-5.05360;-12.43330;,
 -6.40770;-5.05360;-12.43330;,
 37.53510;221.50529;-12.43330;,
 37.53510;-5.05360;-12.43330;,
 23.59230;-5.05360;-12.43330;,
 23.59230;221.50529;-12.43330;,
 23.59230;221.50529;-12.43330;,
 23.59230;-5.05360;-12.43330;,
 23.59230;-5.05360;12.43330;,
 23.59230;221.50529;12.43330;,
 23.59230;221.50529;12.43330;,
 23.59230;-5.05360;12.43330;,
 37.53510;-5.05360;12.43330;,
 37.53510;221.50529;12.43330;,
 37.53510;221.50529;12.43330;,
 37.53510;-5.05360;12.43330;,
 37.53510;-5.05360;-12.43330;,
 37.53510;221.50529;-12.43330;,
 37.53510;221.50529;-12.43330;,
 23.59230;221.50529;-12.43330;,
 37.53510;-5.05360;-12.43330;,
 23.59230;-5.05360;-12.43330;,
 67.53510;221.50529;-12.43330;,
 67.53510;-5.05360;-12.43330;,
 53.59230;-5.05360;-12.43330;,
 53.59230;221.50529;-12.43330;,
 53.59230;221.50529;-12.43330;,
 53.59230;-5.05360;-12.43330;,
 53.59230;-5.05360;12.43330;,
 53.59230;221.50529;12.43330;,
 53.59230;221.50529;12.43330;,
 53.59230;-5.05360;12.43330;,
 67.53510;-5.05360;12.43330;,
 67.53510;221.50529;12.43330;,
 67.53510;221.50529;12.43330;,
 67.53510;-5.05360;12.43330;,
 67.53510;-5.05360;-12.43330;,
 67.53510;221.50529;-12.43330;,
 67.53510;221.50529;-12.43330;,
 53.59230;221.50529;-12.43330;,
 67.53510;-5.05360;-12.43330;,
 53.59230;-5.05360;-12.43330;,
 97.53510;221.50529;-12.43330;,
 97.53510;-5.05360;-12.43330;,
 83.59230;-5.05360;-12.43330;,
 83.59230;221.50529;-12.43330;,
 83.59230;221.50529;-12.43330;,
 83.59230;-5.05360;-12.43330;,
 83.59230;-5.05360;12.43330;,
 83.59230;221.50529;12.43330;,
 83.59230;221.50529;12.43330;,
 83.59230;-5.05360;12.43330;,
 97.53510;-5.05360;12.43330;,
 97.53510;221.50529;12.43330;,
 97.53510;221.50529;12.43330;,
 97.53510;-5.05360;12.43330;,
 97.53510;-5.05360;-12.43330;,
 97.53510;221.50529;-12.43330;,
 97.53510;221.50529;-12.43330;,
 83.59230;221.50529;-12.43330;,
 97.53510;-5.05360;-12.43330;,
 83.59230;-5.05360;-12.43330;,
 127.53510;221.50529;-12.43330;,
 127.53510;-5.05360;-12.43330;,
 113.59230;-5.05360;-12.43330;,
 113.59230;221.50529;-12.43330;,
 113.59230;221.50529;-12.43330;,
 113.59230;-5.05360;-12.43330;,
 113.59230;-5.05360;12.43330;,
 113.59230;221.50529;12.43330;,
 113.59230;221.50529;12.43330;,
 113.59230;-5.05360;12.43330;,
 127.53510;-5.05360;12.43330;,
 127.53510;221.50529;12.43330;,
 127.53510;221.50529;12.43330;,
 127.53510;-5.05360;12.43330;,
 127.53510;-5.05360;-12.43330;,
 127.53510;221.50529;-12.43330;,
 127.53510;221.50529;-12.43330;,
 113.59230;221.50529;-12.43330;,
 127.53510;-5.05360;-12.43330;,
 113.59230;-5.05360;-12.43330;,
 157.53510;221.50529;-12.43330;,
 157.53510;-5.05360;-12.43330;,
 143.59230;-5.05360;-12.43330;,
 143.59230;221.50529;-12.43330;,
 143.59230;221.50529;-12.43330;,
 143.59230;-5.05360;-12.43330;,
 143.59230;-5.05360;12.43330;,
 143.59230;221.50529;12.43330;,
 143.59230;221.50529;12.43330;,
 143.59230;-5.05360;12.43330;,
 157.53510;-5.05360;12.43330;,
 157.53510;221.50529;12.43330;,
 157.53510;221.50529;12.43330;,
 157.53510;-5.05360;12.43330;,
 157.53510;-5.05360;-12.43330;,
 157.53510;221.50529;-12.43330;,
 157.53510;221.50529;-12.43330;,
 143.59230;221.50529;-12.43330;,
 157.53510;-5.05360;-12.43330;,
 143.59230;-5.05360;-12.43330;,
 187.53510;221.50529;-12.43330;,
 187.53510;-5.05360;-12.43330;,
 173.59230;-5.05360;-12.43330;,
 173.59230;221.50529;-12.43330;,
 173.59230;221.50529;-12.43330;,
 173.59230;-5.05360;-12.43330;,
 173.59230;-5.05360;12.43330;,
 173.59230;221.50529;12.43330;,
 173.59230;221.50529;12.43330;,
 173.59230;-5.05360;12.43330;,
 187.53510;-5.05360;12.43330;,
 187.53510;221.50529;12.43330;,
 187.53510;221.50529;12.43330;,
 187.53510;-5.05360;12.43330;,
 187.53510;-5.05360;-12.43330;,
 187.53510;221.50529;-12.43330;,
 187.53510;221.50529;-12.43330;,
 173.59230;221.50529;-12.43330;,
 187.53510;-5.05360;-12.43330;,
 173.59230;-5.05360;-12.43330;,
 217.53510;221.50529;-12.43330;,
 217.53510;-5.05360;-12.43330;,
 203.59230;-5.05360;-12.43330;,
 203.59230;221.50529;-12.43330;,
 203.59230;221.50529;-12.43330;,
 203.59230;-5.05360;-12.43330;,
 203.59230;-5.05360;12.43330;,
 203.59230;221.50529;12.43330;,
 203.59230;221.50529;12.43330;,
 203.59230;-5.05360;12.43330;,
 217.53510;-5.05360;12.43330;,
 217.53510;221.50529;12.43330;,
 217.53510;221.50529;12.43330;,
 217.53510;-5.05360;12.43330;,
 217.53510;-5.05360;-12.43330;,
 217.53510;221.50529;-12.43330;,
 217.53510;221.50529;-12.43330;,
 203.59230;221.50529;-12.43330;,
 217.53510;-5.05360;-12.43330;,
 203.59230;-5.05360;-12.43330;,
 247.53510;221.50529;-12.43330;,
 247.53510;-5.05360;-12.43330;,
 233.59230;-5.05360;-12.43330;,
 233.59230;221.50529;-12.43330;,
 233.59230;221.50529;-12.43330;,
 233.59230;-5.05360;-12.43330;,
 233.59230;-5.05360;12.43330;,
 233.59230;221.50529;12.43330;,
 233.59230;221.50529;12.43330;,
 233.59230;-5.05360;12.43330;,
 247.53510;-5.05360;12.43330;,
 247.53510;221.50529;12.43330;,
 247.53510;221.50529;12.43330;,
 247.53510;-5.05360;12.43330;,
 247.53510;-5.05360;-12.43330;,
 247.53510;221.50529;-12.43330;,
 247.53510;221.50529;-12.43330;,
 233.59230;221.50529;-12.43330;,
 247.53510;-5.05360;-12.43330;,
 233.59230;-5.05360;-12.43330;,
 277.53510;221.50529;-12.43330;,
 277.53510;-5.05360;-12.43330;,
 263.59229;-5.05360;-12.43330;,
 263.59229;221.50529;-12.43330;,
 263.59229;221.50529;-12.43330;,
 263.59229;-5.05360;-12.43330;,
 263.59229;-5.05360;12.43330;,
 263.59229;221.50529;12.43330;,
 263.59229;221.50529;12.43330;,
 263.59229;-5.05360;12.43330;,
 277.53510;-5.05360;12.43330;,
 277.53510;221.50529;12.43330;,
 277.53510;221.50529;12.43330;,
 277.53510;-5.05360;12.43330;,
 277.53510;-5.05360;-12.43330;,
 277.53510;221.50529;-12.43330;,
 277.53510;221.50529;-12.43330;,
 263.59229;221.50529;-12.43330;,
 277.53510;-5.05360;-12.43330;,
 263.59229;-5.05360;-12.43330;,
 307.53510;221.50529;-12.43330;,
 307.53510;-5.05360;-12.43330;,
 293.59229;-5.05360;-12.43330;,
 293.59229;221.50529;-12.43330;,
 293.59229;221.50529;-12.43330;,
 293.59229;-5.05360;-12.43330;,
 293.59229;-5.05360;12.43330;,
 293.59229;221.50529;12.43330;,
 293.59229;221.50529;12.43330;,
 293.59229;-5.05360;12.43330;,
 307.53510;-5.05360;12.43330;,
 307.53510;221.50529;12.43330;,
 307.53510;221.50529;12.43330;,
 307.53510;-5.05360;12.43330;,
 307.53510;-5.05360;-12.43330;,
 307.53510;221.50529;-12.43330;,
 307.53510;221.50529;-12.43330;,
 293.59229;221.50529;-12.43330;,
 307.53510;-5.05360;-12.43330;,
 293.59229;-5.05360;-12.43330;,
 337.53510;221.50529;-12.43330;,
 337.53510;-5.05360;-12.43330;,
 323.59229;-5.05360;-12.43330;,
 323.59229;221.50529;-12.43330;,
 323.59229;221.50529;-12.43330;,
 323.59229;-5.05360;-12.43330;,
 323.59229;-5.05360;12.43330;,
 323.59229;221.50529;12.43330;,
 323.59229;221.50529;12.43330;,
 323.59229;-5.05360;12.43330;,
 337.53510;-5.05360;12.43330;,
 337.53510;221.50529;12.43330;,
 337.53510;221.50529;12.43330;,
 337.53510;-5.05360;12.43330;,
 337.53510;-5.05360;-12.43330;,
 337.53510;221.50529;-12.43330;,
 337.53510;221.50529;-12.43330;,
 323.59229;221.50529;-12.43330;,
 337.53510;-5.05360;-12.43330;,
 323.59229;-5.05360;-12.43330;;
 
 150;
 4;0,1,2,3;,
 4;4,5,6,7;,
 4;8,9,10,11;,
 4;12,13,14,15;,
 4;12,16,17,7;,
 4;18,13,6,19;,
 4;20,21,22,23;,
 4;24,25,26,27;,
 4;28,29,30,31;,
 4;32,33,34,35;,
 4;32,36,37,27;,
 4;38,33,26,39;,
 4;40,41,42,43;,
 4;44,45,46,47;,
 4;48,49,50,51;,
 4;52,53,54,55;,
 4;52,56,57,47;,
 4;58,53,46,59;,
 4;60,61,62,63;,
 4;64,65,66,67;,
 4;68,69,70,71;,
 4;72,73,74,75;,
 4;72,76,77,67;,
 4;78,73,66,79;,
 4;80,81,82,83;,
 4;84,85,86,87;,
 4;88,89,90,91;,
 4;92,93,94,95;,
 4;92,96,97,87;,
 4;98,93,86,99;,
 4;100,101,102,103;,
 4;104,105,106,107;,
 4;108,109,110,111;,
 4;112,113,114,115;,
 4;112,116,117,107;,
 4;118,113,106,119;,
 4;120,121,122,123;,
 4;124,125,126,127;,
 4;128,129,130,131;,
 4;132,133,134,135;,
 4;132,136,137,127;,
 4;138,133,126,139;,
 4;140,141,142,143;,
 4;144,145,146,147;,
 4;148,149,150,151;,
 4;152,153,154,155;,
 4;152,156,157,147;,
 4;158,153,146,159;,
 4;160,161,162,163;,
 4;164,165,166,167;,
 4;168,169,170,171;,
 4;172,173,174,175;,
 4;172,176,177,167;,
 4;178,173,166,179;,
 4;180,181,182,183;,
 4;184,185,186,187;,
 4;188,189,190,191;,
 4;192,193,194,195;,
 4;192,196,197,187;,
 4;198,193,186,199;,
 4;200,201,202,203;,
 4;204,205,206,207;,
 4;208,209,210,211;,
 4;212,213,214,215;,
 4;212,216,217,207;,
 4;218,213,206,219;,
 4;220,221,222,223;,
 4;224,225,226,227;,
 4;228,229,230,231;,
 4;232,233,234,235;,
 4;232,236,237,227;,
 4;238,233,226,239;,
 4;240,241,242,243;,
 4;244,245,246,247;,
 4;248,249,250,251;,
 4;252,253,254,255;,
 4;252,256,257,247;,
 4;258,253,246,259;,
 4;260,261,262,263;,
 4;264,265,266,267;,
 4;268,269,270,271;,
 4;272,273,274,275;,
 4;272,276,277,267;,
 4;278,273,266,279;,
 4;280,281,282,283;,
 4;284,285,286,287;,
 4;288,289,290,291;,
 4;292,293,294,295;,
 4;292,296,297,287;,
 4;298,293,286,299;,
 4;300,301,302,303;,
 4;304,305,306,307;,
 4;308,309,310,311;,
 4;312,313,314,315;,
 4;312,316,317,307;,
 4;318,313,306,319;,
 4;320,321,322,323;,
 4;324,325,326,327;,
 4;328,329,330,331;,
 4;332,333,334,335;,
 4;332,336,337,327;,
 4;338,333,326,339;,
 4;340,341,342,343;,
 4;344,345,346,347;,
 4;348,349,350,351;,
 4;352,353,354,355;,
 4;352,356,357,347;,
 4;358,353,346,359;,
 4;360,361,362,363;,
 4;364,365,366,367;,
 4;368,369,370,371;,
 4;372,373,374,375;,
 4;372,376,377,367;,
 4;378,373,366,379;,
 4;380,381,382,383;,
 4;384,385,386,387;,
 4;388,389,390,391;,
 4;392,393,394,395;,
 4;392,396,397,387;,
 4;398,393,386,399;,
 4;400,401,402,403;,
 4;404,405,406,407;,
 4;408,409,410,411;,
 4;412,413,414,415;,
 4;412,416,417,407;,
 4;418,413,406,419;,
 4;420,421,422,423;,
 4;424,425,426,427;,
 4;428,429,430,431;,
 4;432,433,434,435;,
 4;432,436,437,427;,
 4;438,433,426,439;,
 4;440,441,442,443;,
 4;444,445,446,447;,
 4;448,449,450,451;,
 4;452,453,454,455;,
 4;452,456,457,447;,
 4;458,453,446,459;,
 4;460,461,462,463;,
 4;464,465,466,467;,
 4;468,469,470,471;,
 4;472,473,474,475;,
 4;472,476,477,467;,
 4;478,473,466,479;,
 4;480,481,482,483;,
 4;484,485,486,487;,
 4;488,489,490,491;,
 4;492,493,494,495;,
 4;492,496,497,487;,
 4;498,493,486,499;;
 
 MeshMaterialList {
  2;
  150;
  0,
  0,
  0,
  0,
  0,
  0,
  0,
  0,
  0,
  0,
  0,
  0,
  0,
  0,
  0,
  0,
  0,
  0,
  0,
  0,
  0,
  0,
  0,
  0,
  0,
  0,
  0,
  0,
  0,
  0,
  0,
  0,
  0,
  0,
  0,
  0,
  0,
  0,
  0,
  0,
  0,
  0,
  0,
  0,
  0,
  0,
  0,
  0,
  0,
  0,
  0,
  0,
  0,
  0,
  0,
  0,
  0,
  0,
  0,
  0,
  0,
  0,
  0,
  0,
  0,
  0,
  0,
  0,
  0,
  0,
  0,
  0,
  0,
  0,
  0,
  0,
  0,
  0,
  0,
  0,
  0,
  0,
  0,
  0,
  0,
  0,
  0,
  0,
  0,
  0,
  0,
  0,
  0,
  0,
  0,
  0,
  0,
  0,
  0,
  0,
  0,
  0,
  0,
  0,
  0,
  0,
  0,
  0,
  0,
  0,
  0,
  0,
  0,
  0,
  0,
  0,
  0,
  0,
  0,
  0,
  0,
  0,
  0,
  0,
  0,
  0,
  0,
  0,
  0,
  0,
  0,
  0,
  0,
  0,
  0,
  0,
  0,
  0,
  0,
  0,
  0,
  0,
  0,
  0,
  0,
  0,
  0,
  0,
  0,
  0;;
  Material {
   0.380000;0.210400;0.197600;1.000000;;
   0.000000;
   0.000000;0.000000;0.000000;;
   0.000000;0.000000;0.000000;;
  }
  Material {
   0.536800;0.536800;0.536800;1.000000;;
   5.000000;
   0.000000;0.000000;0.000000;;
   0.000000;0.000000;0.000000;;
  }
 }
 MeshNormals {
  114;
  0.000000;0.000000;-1.000000;,
  -1.000000;0.000000;0.000000;,
  0.000000;-0.000000;1.000000;,
  1.000000;0.000000;0.000000;,
  0.000000;1.000000;0.000000;,
  0.000000;-1.000000;-0.000000;,
  0.000000;0.000000;-1.000000;,
  -1.000000;0.000000;0.000000;,
  0.000000;-0.000000;1.000000;,
  1.000000;0.000000;0.000000;,
  0.000000;1.000000;0.000000;,
  0.000000;-1.000000;-0.000000;,
  0.000000;0.000000;-1.000000;,
  -1.000000;0.000000;0.000000;,
  0.000000;-0.000000;1.000000;,
  1.000000;0.000000;0.000000;,
  0.000000;1.000000;0.000000;,
  0.000000;-1.000000;-0.000000;,
  0.000000;0.000000;-1.000000;,
  -1.000000;0.000000;0.000000;,
  0.000000;-0.000000;1.000000;,
  1.000000;0.000000;0.000000;,
  0.000000;1.000000;0.000000;,
  0.000000;-1.000000;-0.000000;,
  0.000000;0.000000;-1.000000;,
  -1.000000;0.000000;0.000000;,
  0.000000;-0.000000;1.000000;,
  1.000000;0.000000;0.000000;,
  0.000000;1.000000;0.000000;,
  0.000000;-1.000000;-0.000000;,
  0.000000;0.000000;-1.000000;,
  -1.000000;0.000000;0.000000;,
  0.000000;-0.000000;1.000000;,
  1.000000;0.000000;0.000000;,
  0.000000;1.000000;0.000000;,
  0.000000;-1.000000;-0.000000;,
  0.000000;0.000000;-1.000000;,
  -1.000000;0.000000;0.000000;,
  0.000000;-0.000000;1.000000;,
  1.000000;0.000000;0.000000;,
  0.000000;1.000000;0.000000;,
  0.000000;-1.000000;-0.000000;,
  0.000000;0.000000;-1.000000;,
  -1.000000;0.000000;0.000000;,
  0.000000;-0.000000;1.000000;,
  1.000000;0.000000;0.000000;,
  0.000000;1.000000;0.000000;,
  0.000000;-1.000000;-0.000000;,
  0.000000;0.000000;-1.000000;,
  -1.000000;0.000000;0.000000;,
  0.000000;-0.000000;1.000000;,
  1.000000;0.000000;0.000000;,
  0.000000;1.000000;0.000000;,
  0.000000;-1.000000;-0.000000;,
  0.000000;0.000000;-1.000000;,
  -1.000000;0.000000;0.000000;,
  0.000000;-0.000000;1.000000;,
  1.000000;0.000000;0.000000;,
  0.000000;1.000000;0.000000;,
  0.000000;-1.000000;-0.000000;,
  0.000000;0.000000;-1.000000;,
  -1.000000;0.000000;0.000000;,
  0.000000;-0.000000;1.000000;,
  1.000000;0.000000;0.000000;,
  0.000000;1.000000;0.000000;,
  0.000000;-1.000000;-0.000000;,
  0.000000;0.000000;-1.000000;,
  -1.000000;0.000000;0.000000;,
  0.000000;-0.000000;1.000000;,
  1.000000;0.000000;0.000000;,
  0.000000;1.000000;0.000000;,
  0.000000;-1.000000;-0.000000;,
  0.000000;0.000000;-1.000000;,
  -1.000000;0.000000;0.000000;,
  0.000000;-0.000000;1.000000;,
  1.000000;0.000000;0.000000;,
  0.000000;1.000000;0.000000;,
  0.000000;-1.000000;-0.000000;,
  0.000000;0.000000;-1.000000;,
  -1.000000;0.000000;0.000000;,
  0.000000;-0.000000;1.000000;,
  1.000000;0.000000;0.000000;,
  0.000000;1.000000;0.000000;,
  0.000000;-1.000000;-0.000000;,
  0.000000;0.000000;-1.000000;,
  -1.000000;0.000000;0.000000;,
  0.000000;-0.000000;1.000000;,
  1.000000;0.000000;0.000000;,
  0.000000;1.000000;0.000000;,
  0.000000;-1.000000;-0.000000;,
  0.000000;0.000000;-1.000000;,
  -1.000000;0.000000;0.000000;,
  0.000000;-0.000000;1.000000;,
  1.000000;0.000000;0.000000;,
  0.000000;1.000000;0.000000;,
  0.000000;-1.000000;-0.000000;,
  0.000000;0.000000;-1.000000;,
  -1.000000;0.000000;0.000000;,
  0.000000;-0.000000;1.000000;,
  1.000000;0.000000;0.000000;,
  0.000000;1.000000;0.000000;,
  0.000000;-1.000000;-0.000000;,
  0.000000;0.000000;-1.000000;,
  -1.000000;0.000000;0.000000;,
  0.000000;-0.000000;1.000000;,
  1.000000;0.000000;0.000000;,
  0.000000;1.000000;0.000000;,
  0.000000;-1.000000;-0.000000;,
  0.000000;0.000000;-1.000000;,
  -1.000000;0.000000;0.000000;,
  0.000000;-0.000000;1.000000;,
  1.000000;0.000000;0.000000;,
  0.000000;1.000000;0.000000;,
  0.000000;-1.000000;-0.000000;;
  150;
  4;0,0,0,0;,
  4;1,1,1,1;,
  4;2,2,2,2;,
  4;3,3,3,3;,
  4;4,4,4,4;,
  4;5,5,5,5;,
  4;0,0,0,0;,
  4;1,1,1,1;,
  4;2,2,2,2;,
  4;3,3,3,3;,
  4;4,4,4,4;,
  4;5,5,5,5;,
  4;0,0,0,0;,
  4;1,1,1,1;,
  4;2,2,2,2;,
  4;3,3,3,3;,
  4;4,4,4,4;,
  4;5,5,5,5;,
  4;0,0,0,0;,
  4;1,1,1,1;,
  4;2,2,2,2;,
  4;3,3,3,3;,
  4;4,4,4,4;,
  4;5,5,5,5;,
  4;0,0,0,0;,
  4;1,1,1,1;,
  4;2,2,2,2;,
  4;3,3,3,3;,
  4;4,4,4,4;,
  4;5,5,5,5;,
  4;0,0,0,0;,
  4;1,1,1,1;,
  4;2,2,2,2;,
  4;3,3,3,3;,
  4;4,4,4,4;,
  4;5,5,5,5;,
  4;0,0,0,0;,
  4;1,1,1,1;,
  4;2,2,2,2;,
  4;3,3,3,3;,
  4;4,4,4,4;,
  4;5,5,5,5;,
  4;6,6,6,6;,
  4;7,7,7,7;,
  4;8,8,8,8;,
  4;9,9,9,9;,
  4;10,10,10,10;,
  4;11,11,11,11;,
  4;12,12,12,12;,
  4;13,13,13,13;,
  4;14,14,14,14;,
  4;15,15,15,15;,
  4;16,16,16,16;,
  4;17,17,17,17;,
  4;18,18,18,18;,
  4;19,19,19,19;,
  4;20,20,20,20;,
  4;21,21,21,21;,
  4;22,22,22,22;,
  4;23,23,23,23;,
  4;24,24,24,24;,
  4;25,25,25,25;,
  4;26,26,26,26;,
  4;27,27,27,27;,
  4;28,28,28,28;,
  4;29,29,29,29;,
  4;30,30,30,30;,
  4;31,31,31,31;,
  4;32,32,32,32;,
  4;33,33,33,33;,
  4;34,34,34,34;,
  4;35,35,35,35;,
  4;36,36,36,36;,
  4;37,37,37,37;,
  4;38,38,38,38;,
  4;39,39,39,39;,
  4;40,40,40,40;,
  4;41,41,41,41;,
  4;42,42,42,42;,
  4;43,43,43,43;,
  4;44,44,44,44;,
  4;45,45,45,45;,
  4;46,46,46,46;,
  4;47,47,47,47;,
  4;48,48,48,48;,
  4;49,49,49,49;,
  4;50,50,50,50;,
  4;51,51,51,51;,
  4;52,52,52,52;,
  4;53,53,53,53;,
  4;54,54,54,54;,
  4;55,55,55,55;,
  4;56,56,56,56;,
  4;57,57,57,57;,
  4;58,58,58,58;,
  4;59,59,59,59;,
  4;60,60,60,60;,
  4;61,61,61,61;,
  4;62,62,62,62;,
  4;63,63,63,63;,
  4;64,64,64,64;,
  4;65,65,65,65;,
  4;66,66,66,66;,
  4;67,67,67,67;,
  4;68,68,68,68;,
  4;69,69,69,69;,
  4;70,70,70,70;,
  4;71,71,71,71;,
  4;72,72,72,72;,
  4;73,73,73,73;,
  4;74,74,74,74;,
  4;75,75,75,75;,
  4;76,76,76,76;,
  4;77,77,77,77;,
  4;78,78,78,78;,
  4;79,79,79,79;,
  4;80,80,80,80;,
  4;81,81,81,81;,
  4;82,82,82,82;,
  4;83,83,83,83;,
  4;84,84,84,84;,
  4;85,85,85,85;,
  4;86,86,86,86;,
  4;87,87,87,87;,
  4;88,88,88,88;,
  4;89,89,89,89;,
  4;90,90,90,90;,
  4;91,91,91,91;,
  4;92,92,92,92;,
  4;93,93,93,93;,
  4;94,94,94,94;,
  4;95,95,95,95;,
  4;96,96,96,96;,
  4;97,97,97,97;,
  4;98,98,98,98;,
  4;99,99,99,99;,
  4;100,100,100,100;,
  4;101,101,101,101;,
  4;102,102,102,102;,
  4;103,103,103,103;,
  4;104,104,104,104;,
  4;105,105,105,105;,
  4;106,106,106,106;,
  4;107,107,107,107;,
  4;108,108,108,108;,
  4;109,109,109,109;,
  4;110,110,110,110;,
  4;111,111,111,111;,
  4;112,112,112,112;,
  4;113,113,113,113;;
 }
 MeshTextureCoords {
  500;
  0.000000;0.000000;,
  0.000000;1.000000;,
  1.000000;1.000000;,
  1.000000;0.000000;,
  0.000000;0.000000;,
  0.000000;1.000000;,
  1.000000;1.000000;,
  1.000000;0.000000;,
  0.000000;0.000000;,
  0.000000;1.000000;,
  1.000000;1.000000;,
  1.000000;0.000000;,
  0.000000;0.000000;,
  0.000000;1.000000;,
  1.000000;1.000000;,
  1.000000;0.000000;,
  0.000000;1.000000;,
  1.000000;1.000000;,
  0.000000;0.000000;,
  1.000000;0.000000;,
  0.000000;0.000000;,
  0.000000;1.000000;,
  1.000000;1.000000;,
  1.000000;0.000000;,
  0.000000;0.000000;,
  0.000000;1.000000;,
  1.000000;1.000000;,
  1.000000;0.000000;,
  0.000000;0.000000;,
  0.000000;1.000000;,
  1.000000;1.000000;,
  1.000000;0.000000;,
  0.000000;0.000000;,
  0.000000;1.000000;,
  1.000000;1.000000;,
  1.000000;0.000000;,
  0.000000;1.000000;,
  1.000000;1.000000;,
  0.000000;0.000000;,
  1.000000;0.000000;,
  0.000000;0.000000;,
  0.000000;1.000000;,
  1.000000;1.000000;,
  1.000000;0.000000;,
  0.000000;0.000000;,
  0.000000;1.000000;,
  1.000000;1.000000;,
  1.000000;0.000000;,
  0.000000;0.000000;,
  0.000000;1.000000;,
  1.000000;1.000000;,
  1.000000;0.000000;,
  0.000000;0.000000;,
  0.000000;1.000000;,
  1.000000;1.000000;,
  1.000000;0.000000;,
  0.000000;1.000000;,
  1.000000;1.000000;,
  0.000000;0.000000;,
  1.000000;0.000000;,
  0.000000;0.000000;,
  0.000000;1.000000;,
  1.000000;1.000000;,
  1.000000;0.000000;,
  0.000000;0.000000;,
  0.000000;1.000000;,
  1.000000;1.000000;,
  1.000000;0.000000;,
  0.000000;0.000000;,
  0.000000;1.000000;,
  1.000000;1.000000;,
  1.000000;0.000000;,
  0.000000;0.000000;,
  0.000000;1.000000;,
  1.000000;1.000000;,
  1.000000;0.000000;,
  0.000000;1.000000;,
  1.000000;1.000000;,
  0.000000;0.000000;,
  1.000000;0.000000;,
  0.000000;0.000000;,
  0.000000;1.000000;,
  1.000000;1.000000;,
  1.000000;0.000000;,
  0.000000;0.000000;,
  0.000000;1.000000;,
  1.000000;1.000000;,
  1.000000;0.000000;,
  0.000000;0.000000;,
  0.000000;1.000000;,
  1.000000;1.000000;,
  1.000000;0.000000;,
  0.000000;0.000000;,
  0.000000;1.000000;,
  1.000000;1.000000;,
  1.000000;0.000000;,
  0.000000;1.000000;,
  1.000000;1.000000;,
  0.000000;0.000000;,
  1.000000;0.000000;,
  0.000000;0.000000;,
  0.000000;1.000000;,
  1.000000;1.000000;,
  1.000000;0.000000;,
  0.000000;0.000000;,
  0.000000;1.000000;,
  1.000000;1.000000;,
  1.000000;0.000000;,
  0.000000;0.000000;,
  0.000000;1.000000;,
  1.000000;1.000000;,
  1.000000;0.000000;,
  0.000000;0.000000;,
  0.000000;1.000000;,
  1.000000;1.000000;,
  1.000000;0.000000;,
  0.000000;1.000000;,
  1.000000;1.000000;,
  0.000000;0.000000;,
  1.000000;0.000000;,
  0.000000;0.000000;,
  0.000000;1.000000;,
  1.000000;1.000000;,
  1.000000;0.000000;,
  0.000000;0.000000;,
  0.000000;1.000000;,
  1.000000;1.000000;,
  1.000000;0.000000;,
  0.000000;0.000000;,
  0.000000;1.000000;,
  1.000000;1.000000;,
  1.000000;0.000000;,
  0.000000;0.000000;,
  0.000000;1.000000;,
  1.000000;1.000000;,
  1.000000;0.000000;,
  0.000000;1.000000;,
  1.000000;1.000000;,
  0.000000;0.000000;,
  1.000000;0.000000;,
  0.000000;0.000000;,
  0.000000;1.000000;,
  1.000000;1.000000;,
  1.000000;0.000000;,
  0.000000;0.000000;,
  0.000000;1.000000;,
  1.000000;1.000000;,
  1.000000;0.000000;,
  0.000000;0.000000;,
  0.000000;1.000000;,
  1.000000;1.000000;,
  1.000000;0.000000;,
  0.000000;0.000000;,
  0.000000;1.000000;,
  1.000000;1.000000;,
  1.000000;0.000000;,
  0.000000;1.000000;,
  1.000000;1.000000;,
  0.000000;0.000000;,
  1.000000;0.000000;,
  0.000000;0.000000;,
  0.000000;1.000000;,
  1.000000;1.000000;,
  1.000000;0.000000;,
  0.000000;0.000000;,
  0.000000;1.000000;,
  1.000000;1.000000;,
  1.000000;0.000000;,
  0.000000;0.000000;,
  0.000000;1.000000;,
  1.000000;1.000000;,
  1.000000;0.000000;,
  0.000000;0.000000;,
  0.000000;1.000000;,
  1.000000;1.000000;,
  1.000000;0.000000;,
  0.000000;1.000000;,
  1.000000;1.000000;,
  0.000000;0.000000;,
  1.000000;0.000000;,
  0.000000;0.000000;,
  0.000000;1.000000;,
  1.000000;1.000000;,
  1.000000;0.000000;,
  0.000000;0.000000;,
  0.000000;1.000000;,
  1.000000;1.000000;,
  1.000000;0.000000;,
  0.000000;0.000000;,
  0.000000;1.000000;,
  1.000000;1.000000;,
  1.000000;0.000000;,
  0.000000;0.000000;,
  0.000000;1.000000;,
  1.000000;1.000000;,
  1.000000;0.000000;,
  0.000000;1.000000;,
  1.000000;1.000000;,
  0.000000;0.000000;,
  1.000000;0.000000;,
  0.000000;0.000000;,
  0.000000;1.000000;,
  1.000000;1.000000;,
  1.000000;0.000000;,
  0.000000;0.000000;,
  0.000000;1.000000;,
  1.000000;1.000000;,
  1.000000;0.000000;,
  0.000000;0.000000;,
  0.000000;1.000000;,
  1.000000;1.000000;,
  1.000000;0.000000;,
  0.000000;0.000000;,
  0.000000;1.000000;,
  1.000000;1.000000;,
  1.000000;0.000000;,
  0.000000;1.000000;,
  1.000000;1.000000;,
  0.000000;0.000000;,
  1.000000;0.000000;,
  0.000000;0.000000;,
  0.000000;1.000000;,
  1.000000;1.000000;,
  1.000000;0.000000;,
  0.000000;0.000000;,
  0.000000;1.000000;,
  1.000000;1.000000;,
  1.000000;0.000000;,
  0.000000;0.000000;,
  0.000000;1.000000;,
  1.000000;1.000000;,
  1.000000;0.000000;,
  0.000000;0.000000;,
  0.000000;1.000000;,
  1.000000;1.000000;,
  1.000000;0.000000;,
  0.000000;1.000000;,
  1.000000;1.000000;,
  0.000000;0.000000;,
  1.000000;0.000000;,
  0.000000;0.000000;,
  0.000000;1.000000;,
  1.000000;1.000000;,
  1.000000;0.000000;,
  0.000000;0.000000;,
  0.000000;1.000000;,
  1.000000;1.000000;,
  1.000000;0.000000;,
  0.000000;0.000000;,
  0.000000;1.000000;,
  1.000000;1.000000;,
  1.000000;0.000000;,
  0.000000;0.000000;,
  0.000000;1.000000;,
  1.000000;1.000000;,
  1.000000;0.000000;,
  0.000000;1.000000;,
  1.000000;1.000000;,
  0.000000;0.000000;,
  1.000000;0.000000;,
  0.000000;0.000000;,
  0.000000;1.000000;,
  1.000000;1.000000;,
  1.000000;0.000000;,
  0.000000;0.000000;,
  0.000000;1.000000;,
  1.000000;1.000000;,
  1.000000;0.000000;,
  0.000000;0.000000;,
  0.000000;1.000000;,
  1.000000;1.000000;,
  1.000000;0.000000;,
  0.000000;0.000000;,
  0.000000;1.000000;,
  1.000000;1.000000;,
  1.000000;0.000000;,
  0.000000;1.000000;,
  1.000000;1.000000;,
  0.000000;0.000000;,
  1.000000;0.000000;,
  0.000000;0.000000;,
  0.000000;1.000000;,
  1.000000;1.000000;,
  1.000000;0.000000;,
  0.000000;0.000000;,
  0.000000;1.000000;,
  1.000000;1.000000;,
  1.000000;0.000000;,
  0.000000;0.000000;,
  0.000000;1.000000;,
  1.000000;1.000000;,
  1.000000;0.000000;,
  0.000000;0.000000;,
  0.000000;1.000000;,
  1.000000;1.000000;,
  1.000000;0.000000;,
  0.000000;1.000000;,
  1.000000;1.000000;,
  0.000000;0.000000;,
  1.000000;0.000000;,
  0.000000;0.000000;,
  0.000000;1.000000;,
  1.000000;1.000000;,
  1.000000;0.000000;,
  0.000000;0.000000;,
  0.000000;1.000000;,
  1.000000;1.000000;,
  1.000000;0.000000;,
  0.000000;0.000000;,
  0.000000;1.000000;,
  1.000000;1.000000;,
  1.000000;0.000000;,
  0.000000;0.000000;,
  0.000000;1.000000;,
  1.000000;1.000000;,
  1.000000;0.000000;,
  0.000000;1.000000;,
  1.000000;1.000000;,
  0.000000;0.000000;,
  1.000000;0.000000;,
  0.000000;0.000000;,
  0.000000;1.000000;,
  1.000000;1.000000;,
  1.000000;0.000000;,
  0.000000;0.000000;,
  0.000000;1.000000;,
  1.000000;1.000000;,
  1.000000;0.000000;,
  0.000000;0.000000;,
  0.000000;1.000000;,
  1.000000;1.000000;,
  1.000000;0.000000;,
  0.000000;0.000000;,
  0.000000;1.000000;,
  1.000000;1.000000;,
  1.000000;0.000000;,
  0.000000;1.000000;,
  1.000000;1.000000;,
  0.000000;0.000000;,
  1.000000;0.000000;,
  0.000000;0.000000;,
  0.000000;1.000000;,
  1.000000;1.000000;,
  1.000000;0.000000;,
  0.000000;0.000000;,
  0.000000;1.000000;,
  1.000000;1.000000;,
  1.000000;0.000000;,
  0.000000;0.000000;,
  0.000000;1.000000;,
  1.000000;1.000000;,
  1.000000;0.000000;,
  0.000000;0.000000;,
  0.000000;1.000000;,
  1.000000;1.000000;,
  1.000000;0.000000;,
  0.000000;1.000000;,
  1.000000;1.000000;,
  0.000000;0.000000;,
  1.000000;0.000000;,
  0.000000;0.000000;,
  0.000000;1.000000;,
  1.000000;1.000000;,
  1.000000;0.000000;,
  0.000000;0.000000;,
  0.000000;1.000000;,
  1.000000;1.000000;,
  1.000000;0.000000;,
  0.000000;0.000000;,
  0.000000;1.000000;,
  1.000000;1.000000;,
  1.000000;0.000000;,
  0.000000;0.000000;,
  0.000000;1.000000;,
  1.000000;1.000000;,
  1.000000;0.000000;,
  0.000000;1.000000;,
  1.000000;1.000000;,
  0.000000;0.000000;,
  1.000000;0.000000;,
  0.000000;0.000000;,
  0.000000;1.000000;,
  1.000000;1.000000;,
  1.000000;0.000000;,
  0.000000;0.000000;,
  0.000000;1.000000;,
  1.000000;1.000000;,
  1.000000;0.000000;,
  0.000000;0.000000;,
  0.000000;1.000000;,
  1.000000;1.000000;,
  1.000000;0.000000;,
  0.000000;0.000000;,
  0.000000;1.000000;,
  1.000000;1.000000;,
  1.000000;0.000000;,
  0.000000;1.000000;,
  1.000000;1.000000;,
  0.000000;0.000000;,
  1.000000;0.000000;,
  0.000000;0.000000;,
  0.000000;1.000000;,
  1.000000;1.000000;,
  1.000000;0.000000;,
  0.000000;0.000000;,
  0.000000;1.000000;,
  1.000000;1.000000;,
  1.000000;0.000000;,
  0.000000;0.000000;,
  0.000000;1.000000;,
  1.000000;1.000000;,
  1.000000;0.000000;,
  0.000000;0.000000;,
  0.000000;1.000000;,
  1.000000;1.000000;,
  1.000000;0.000000;,
  0.000000;1.000000;,
  1.000000;1.000000;,
  0.000000;0.000000;,
  1.000000;0.000000;,
  0.000000;0.000000;,
  0.000000;1.000000;,
  1.000000;1.000000;,
  1.000000;0.000000;,
  0.000000;0.000000;,
  0.000000;1.000000;,
  1.000000;1.000000;,
  1.000000;0.000000;,
  0.000000;0.000000;,
  0.000000;1.000000;,
  1.000000;1.000000;,
  1.000000;0.000000;,
  0.000000;0.000000;,
  0.000000;1.000000;,
  1.000000;1.000000;,
  1.000000;0.000000;,
  0.000000;1.000000;,
  1.000000;1.000000;,
  0.000000;0.000000;,
  1.000000;0.000000;,
  0.000000;0.000000;,
  0.000000;1.000000;,
  1.000000;1.000000;,
  1.000000;0.000000;,
  0.000000;0.000000;,
  0.000000;1.000000;,
  1.000000;1.000000;,
  1.000000;0.000000;,
  0.000000;0.000000;,
  0.000000;1.000000;,
  1.000000;1.000000;,
  1.000000;0.000000;,
  0.000000;0.000000;,
  0.000000;1.000000;,
  1.000000;1.000000;,
  1.000000;0.000000;,
  0.000000;1.000000;,
  1.000000;1.000000;,
  0.000000;0.000000;,
  1.000000;0.000000;,
  0.000000;0.000000;,
  0.000000;1.000000;,
  1.000000;1.000000;,
  1.000000;0.000000;,
  0.000000;0.000000;,
  0.000000;1.000000;,
  1.000000;1.000000;,
  1.000000;0.000000;,
  0.000000;0.000000;,
  0.000000;1.000000;,
  1.000000;1.000000;,
  1.000000;0.000000;,
  0.000000;0.000000;,
  0.000000;1.000000;,
  1.000000;1.000000;,
  1.000000;0.000000;,
  0.000000;1.000000;,
  1.000000;1.000000;,
  0.000000;0.000000;,
  1.000000;0.000000;,
  0.000000;0.000000;,
  0.000000;1.000000;,
  1.000000;1.000000;,
  1.000000;0.000000;,
  0.000000;0.000000;,
  0.000000;1.000000;,
  1.000000;1.000000;,
  1.000000;0.000000;,
  0.000000;0.000000;,
  0.000000;1.000000;,
  1.000000;1.000000;,
  1.000000;0.000000;,
  0.000000;0.000000;,
  0.000000;1.000000;,
  1.000000;1.000000;,
  1.000000;0.000000;,
  0.000000;1.000000;,
  1.000000;1.000000;,
  0.000000;0.000000;,
  1.000000;0.000000;;
 }
}
