xof 0302txt 0064
template Header {
 <3D82AB43-62DA-11cf-AB39-0020AF71E433>
 WORD major;
 WORD minor;
 DWORD flags;
}

template Vector {
 <3D82AB5E-62DA-11cf-AB39-0020AF71E433>
 FLOAT x;
 FLOAT y;
 FLOAT z;
}

template Coords2d {
 <F6F23F44-7686-11cf-8F52-0040333594A3>
 FLOAT u;
 FLOAT v;
}

template Matrix4x4 {
 <F6F23F45-7686-11cf-8F52-0040333594A3>
 array FLOAT matrix[16];
}

template ColorRGBA {
 <35FF44E0-6C7C-11cf-8F52-0040333594A3>
 FLOAT red;
 FLOAT green;
 FLOAT blue;
 FLOAT alpha;
}

template ColorRGB {
 <D3E16E81-7835-11cf-8F52-0040333594A3>
 FLOAT red;
 FLOAT green;
 FLOAT blue;
}

template IndexedColor {
 <1630B820-7842-11cf-8F52-0040333594A3>
 DWORD index;
 ColorRGBA indexColor;
}

template Boolean {
 <4885AE61-78E8-11cf-8F52-0040333594A3>
 WORD truefalse;
}

template Boolean2d {
 <4885AE63-78E8-11cf-8F52-0040333594A3>
 Boolean u;
 Boolean v;
}

template MaterialWrap {
 <4885AE60-78E8-11cf-8F52-0040333594A3>
 Boolean u;
 Boolean v;
}

template TextureFilename {
 <A42790E1-7810-11cf-8F52-0040333594A3>
 STRING filename;
}

template Material {
 <3D82AB4D-62DA-11cf-AB39-0020AF71E433>
 ColorRGBA faceColor;
 FLOAT power;
 ColorRGB specularColor;
 ColorRGB emissiveColor;
 [...]
}

template MeshFace {
 <3D82AB5F-62DA-11cf-AB39-0020AF71E433>
 DWORD nFaceVertexIndices;
 array DWORD faceVertexIndices[nFaceVertexIndices];
}

template MeshFaceWraps {
 <4885AE62-78E8-11cf-8F52-0040333594A3>
 DWORD nFaceWrapValues;
 Boolean2d faceWrapValues;
}

template MeshTextureCoords {
 <F6F23F40-7686-11cf-8F52-0040333594A3>
 DWORD nTextureCoords;
 array Coords2d textureCoords[nTextureCoords];
}

template MeshMaterialList {
 <F6F23F42-7686-11cf-8F52-0040333594A3>
 DWORD nMaterials;
 DWORD nFaceIndexes;
 array DWORD faceIndexes[nFaceIndexes];
 [Material]
}

template MeshNormals {
 <F6F23F43-7686-11cf-8F52-0040333594A3>
 DWORD nNormals;
 array Vector normals[nNormals];
 DWORD nFaceNormals;
 array MeshFace faceNormals[nFaceNormals];
}

template MeshVertexColors {
 <1630B821-7842-11cf-8F52-0040333594A3>
 DWORD nVertexColors;
 array IndexedColor vertexColors[nVertexColors];
}

template Mesh {
 <3D82AB44-62DA-11cf-AB39-0020AF71E433>
 DWORD nVertices;
 array Vector vertices[nVertices];
 DWORD nFaces;
 array MeshFace faces[nFaces];
 [...]
}

Header{
1;
0;
1;
}

Mesh {
 115;
 0.25080;335.96619;-327.73819;,
 0.25080;335.96619;-301.47260;,
 -45.54380;40.72440;-343.71701;,
 -45.54380;40.72440;-369.98260;,
 -551.21118;335.96619;-301.47260;,
 -551.21118;335.96619;-327.73819;,
 -551.21118;-6.73220;-343.89841;,
 -551.21118;-6.73220;-317.63260;,
 45.54380;40.72440;-369.98260;,
 45.54380;40.72440;-343.71701;,
 551.21118;335.96619;-301.47260;,
 551.21118;-6.73220;-317.63260;,
 551.21118;-6.73220;-343.89841;,
 551.21118;335.96619;-327.73819;,
 -531.38159;335.96619;-301.47260;,
 0.25080;335.96619;-327.73819;,
 -531.38159;335.96619;-327.73819;,
 -551.21118;335.96619;-327.73819;,
 -531.38159;335.96619;-301.47260;,
 -533.02838;-6.73220;-317.63260;,
 -45.54380;40.72440;-343.71701;,
 0.25080;335.96619;-301.47260;,
 -531.38159;335.96619;-327.73819;,
 0.25080;335.96619;-327.73819;,
 -45.54380;40.72440;-369.98260;,
 -533.02838;-6.73220;-343.89841;,
 -551.21118;-6.73220;-343.89841;,
 -551.21118;335.96619;-327.73819;,
 -533.02838;-6.73220;-317.63260;,
 -551.21118;-6.73220;-343.89841;,
 -533.02838;-6.73220;-343.89841;,
 -45.54380;40.72440;-369.98260;,
 532.16962;335.96619;-301.47260;,
 551.21118;335.96619;-327.73819;,
 532.16962;335.96619;-327.73819;,
 532.16962;335.96619;-301.47260;,
 45.54380;40.72440;-343.71701;,
 533.73499;-6.73220;-317.63260;,
 532.16962;335.96619;-327.73819;,
 551.21118;335.96619;-327.73819;,
 551.21118;-6.73220;-343.89841;,
 533.73499;-6.73220;-343.89841;,
 45.54380;40.72440;-369.98260;,
 533.73499;-6.73220;-317.63260;,
 45.54380;40.72440;-369.98260;,
 533.73499;-6.73220;-343.89841;,
 551.21118;-6.73220;-343.89841;,
 -551.21118;335.96619;316.22879;,
 -531.87878;336.05679;316.22879;,
 -551.21118;335.96619;-301.47260;,
 -551.21118;-6.73220;316.22879;,
 -551.21118;-6.73220;-317.63260;,
 -533.02838;-6.73220;316.22879;,
 532.16962;335.96619;316.22879;,
 533.73499;-6.73220;316.22879;,
 551.21118;-6.73220;316.22879;,
 551.21118;335.96619;316.22879;,
 551.21118;335.96619;293.13321;,
 551.21118;335.96619;-301.47260;,
 532.16962;335.96619;293.13321;,
 551.21118;-6.73220;293.13321;,
 551.21118;-6.73220;-317.63260;,
 533.73499;-6.73220;293.13321;,
 -532.93481;-6.64160;293.13321;,
 -531.87878;336.05679;293.13321;,
 -533.02838;-6.73220;316.22879;,
 -531.87878;336.05679;316.22879;,
 -550.47839;333.58740;-337.64981;,
 550.47839;333.58740;-337.64981;,
 550.47839;326.88681;-337.64981;,
 -550.47839;326.88681;-337.64981;,
 550.47839;333.58740;337.64981;,
 -550.47839;333.58740;337.64981;,
 -550.47839;326.88681;337.64981;,
 550.47839;326.88681;337.64981;,
 550.47839;554.55060;-1.65440;,
 550.47839;333.58740;337.64981;,
 550.47839;326.88681;337.64981;,
 550.47839;326.88681;-1.65440;,
 550.47839;326.88681;-337.64981;,
 550.47839;333.58740;-337.64981;,
 550.47839;554.55060;-1.65440;,
 550.47839;333.58740;-337.64981;,
 -550.47839;333.58740;-337.64981;,
 -550.47839;554.55060;-1.65440;,
 -550.47839;333.58740;337.64981;,
 550.47839;326.88681;-1.65440;,
 -550.47839;326.88681;337.64981;,
 -550.47839;326.88681;-1.65440;,
 -550.47839;326.88681;-337.64981;,
 550.47839;326.88681;-337.64981;,
 -550.47839;554.55060;-1.65440;,
 -550.47839;333.58740;-337.64981;,
 -550.47839;326.88681;-337.64981;,
 -550.47839;326.88681;-1.65440;,
 -523.69702;12.61920;-335.66559;,
 523.69702;12.61920;-335.66559;,
 523.69702;-12.61920;-335.66559;,
 -523.69702;-12.61920;-335.66559;,
 523.69702;12.61920;-335.66559;,
 523.69702;12.61920;313.21960;,
 523.69702;-12.61920;313.21960;,
 523.69702;-12.61920;-335.66559;,
 523.69702;12.61920;313.21960;,
 -523.69702;12.61920;313.21960;,
 -523.69702;-12.61920;313.21960;,
 523.69702;-12.61920;313.21960;,
 -523.69702;12.61920;313.21960;,
 -523.69702;12.61920;-335.66559;,
 -523.69702;-12.61920;-335.66559;,
 -523.69702;-12.61920;313.21960;,
 523.69702;12.61920;-335.66559;,
 -523.69702;12.61920;-335.66559;,
 -523.69702;-12.61920;-335.66559;,
 523.69702;-12.61920;-335.66559;;
 
 52;
 4;0,1,2,3;,
 4;4,5,6,7;,
 4;0,8,9,1;,
 4;10,11,12,13;,
 4;14,1,15,16;,
 4;14,16,17,4;,
 4;18,19,20,21;,
 4;22,23,24,25;,
 4;22,25,26,27;,
 4;28,7,29,30;,
 4;28,30,31,2;,
 4;32,10,33,34;,
 4;32,34,15,1;,
 4;35,21,36,37;,
 4;38,39,40,41;,
 4;38,41,42,23;,
 4;43,9,44,45;,
 4;43,45,46,11;,
 4;47,48,18,49;,
 4;50,47,49,51;,
 4;52,50,51,19;,
 4;48,52,19,18;,
 4;48,47,50,52;,
 4;53,54,55,56;,
 4;57,58,35,59;,
 4;57,59,53,56;,
 4;57,56,55,60;,
 4;57,60,61,58;,
 4;59,35,37,62;,
 4;60,55,54,62;,
 4;60,62,37,61;,
 4;63,64,59,62;,
 4;65,63,62,54;,
 4;66,65,54,53;,
 4;64,66,53,59;,
 4;64,63,65,66;,
 4;67,68,69,70;,
 4;71,72,73,74;,
 4;75,76,77,78;,
 4;75,78,79,80;,
 4;81,82,83,84;,
 4;81,84,85,76;,
 4;86,77,87,88;,
 4;86,88,89,90;,
 4;91,92,93,94;,
 4;91,94,87,85;,
 4;95,96,97,98;,
 4;99,100,101,102;,
 4;103,104,105,106;,
 4;107,108,109,110;,
 4;107,100,111,112;,
 4;113,114,101,110;;
 
 MeshMaterialList {
  2;
  52;
  0,
  0,
  0,
  0,
  0,
  0,
  0,
  0,
  0,
  0,
  0,
  0,
  0,
  0,
  0,
  0,
  0,
  0,
  0,
  0,
  0,
  0,
  0,
  0,
  0,
  0,
  0,
  0,
  0,
  0,
  0,
  0,
  0,
  0,
  0,
  0,
  0,
  0,
  0,
  0,
  0,
  0,
  0,
  0,
  0,
  0,
  1,
  1,
  1,
  1,
  1,
  1;;
  Material {
   0.731200;0.724800;0.649600;1.000000;;
   5.000000;
   0.000000;0.000000;0.000000;;
   0.000000;0.000000;0.000000;;
  }
  Material {
   0.426400;0.313600;0.232000;1.000000;;
   5.000000;
   0.000000;0.000000;0.000000;;
   0.000000;0.000000;0.000000;;
  }
 }
 MeshNormals {
  46;
  -1.000000;0.000000;0.000000;,
  0.988183;-0.153276;-0.000000;,
  1.000000;0.000000;0.000000;,
  -0.988436;-0.151636;0.000000;,
  -0.000781;1.000000;-0.000024;,
  0.000000;1.000000;0.000000;,
  0.029026;-0.094617;0.995090;,
  -0.014519;0.070888;-0.997379;,
  -0.028984;-0.094610;0.995092;,
  0.014497;0.070885;-0.997379;,
  -0.002343;0.999997;-0.000073;,
  0.000000;-0.000000;1.000000;,
  -0.001129;0.999999;-0.000037;,
  0.000028;1.000000;0.000000;,
  -0.999990;-0.004568;0.000000;,
  -0.000021;-1.000000;-0.000981;,
  0.000000;0.000000;-1.000000;,
  -0.001172;0.999999;-0.000037;,
  0.000021;-0.094654;0.995510;,
  -0.000021;0.094654;-0.995510;,
  -0.029026;0.094618;-0.995090;,
  0.000000;0.047103;-0.998890;,
  0.032331;-0.999477;-0.000000;,
  0.000000;-1.000000;0.000000;,
  0.048503;-0.998823;-0.000000;,
  0.096892;-0.995295;-0.000000;,
  0.028983;0.094611;-0.995092;,
  -0.032285;-0.999479;0.000000;,
  -0.096753;-0.995308;0.000000;,
  -0.048433;-0.998827;0.000000;,
  0.999992;-0.004079;0.000403;,
  0.000043;1.000000;0.000000;,
  -0.000014;-1.000000;-0.000654;,
  -0.000042;-0.999998;-0.001961;,
  0.000085;1.000000;0.000000;,
  -0.999993;0.003218;-0.002020;,
  0.000000;0.474623;-0.880189;,
  0.000000;0.000000;-1.000000;,
  0.000000;0.476598;0.879122;,
  0.000000;0.000000;1.000000;,
  1.000000;0.000000;0.000000;,
  0.000000;0.835516;-0.549466;,
  0.000000;-1.000000;-0.000000;,
  0.000000;0.837974;0.545709;,
  -1.000000;0.000000;0.000000;,
  0.000000;1.000000;0.000000;;
  52;
  4;1,1,1,1;,
  4;0,0,0,0;,
  4;3,3,3,3;,
  4;2,2,2,2;,
  4;4,5,5,5;,
  4;4,5,5,17;,
  4;6,6,6,18;,
  4;7,19,20,7;,
  4;7,7,21,21;,
  4;22,23,23,24;,
  4;22,24,25,25;,
  4;5,5,5,5;,
  4;5,5,5,5;,
  4;8,18,8,8;,
  4;9,21,21,9;,
  4;9,9,26,19;,
  4;27,28,28,29;,
  4;27,29,23,23;,
  4;10,12,4,17;,
  4;0,0,0,0;,
  4;15,23,23,22;,
  4;30,30,30,30;,
  4;11,11,11,11;,
  4;11,11,11,11;,
  4;5,5,5,13;,
  4;5,13,31,5;,
  4;2,2,2,2;,
  4;2,2,2,2;,
  4;14,14,14,14;,
  4;23,23,15,32;,
  4;23,32,27,23;,
  4;16,16,16,16;,
  4;15,33,32,15;,
  4;11,11,11,11;,
  4;34,12,31,13;,
  4;35,35,35,35;,
  4;36,36,37,37;,
  4;38,38,39,39;,
  4;40,40,40,40;,
  4;40,40,40,40;,
  4;41,36,36,41;,
  4;43,43,38,38;,
  4;42,42,42,42;,
  4;42,42,42,42;,
  4;44,44,44,44;,
  4;44,44,44,44;,
  4;37,37,37,37;,
  4;40,40,40,40;,
  4;39,39,39,39;,
  4;44,44,44,44;,
  4;45,45,45,45;,
  4;42,42,42,42;;
 }
 MeshTextureCoords {
  115;
  0.000000;0.000000;,
  1.000000;0.000000;,
  1.000000;1.000000;,
  0.000000;1.000000;,
  0.000000;0.000000;,
  1.000000;0.000000;,
  1.000000;1.000000;,
  0.000000;1.000000;,
  0.000000;1.000000;,
  1.000000;1.000000;,
  0.000000;0.000000;,
  0.000000;1.000000;,
  1.000000;1.000000;,
  1.000000;0.000000;,
  0.035960;0.000000;,
  1.000000;1.000000;,
  0.035960;1.000000;,
  0.000000;1.000000;,
  0.964040;0.000000;,
  0.964040;1.000000;,
  0.000000;1.000000;,
  0.000000;0.000000;,
  0.035960;0.000000;,
  1.000000;0.000000;,
  1.000000;1.000000;,
  0.035960;1.000000;,
  0.000000;1.000000;,
  0.000000;0.000000;,
  0.035960;1.000000;,
  0.000000;0.000000;,
  0.035960;0.000000;,
  1.000000;0.000000;,
  0.034560;0.000000;,
  0.000000;1.000000;,
  0.034560;1.000000;,
  0.965440;0.000000;,
  0.000000;1.000000;,
  0.965440;1.000000;,
  0.034560;0.000000;,
  0.000000;0.000000;,
  0.000000;1.000000;,
  0.034560;1.000000;,
  1.000000;1.000000;,
  0.034560;1.000000;,
  1.000000;0.000000;,
  0.034560;0.000000;,
  0.000000;0.000000;,
  1.000000;0.000000;,
  0.964040;0.000000;,
  1.000000;0.000000;,
  1.000000;1.000000;,
  1.000000;1.000000;,
  0.964040;1.000000;,
  0.965440;0.000000;,
  0.965440;1.000000;,
  1.000000;1.000000;,
  1.000000;0.000000;,
  1.000000;0.000000;,
  1.000000;0.000000;,
  0.965440;0.000000;,
  1.000000;1.000000;,
  1.000000;1.000000;,
  0.965440;1.000000;,
  0.965440;1.000000;,
  0.965440;0.000000;,
  0.965440;1.000000;,
  0.965440;0.000000;,
  0.000000;0.000000;,
  1.000000;0.000000;,
  1.000000;1.000000;,
  0.000000;1.000000;,
  0.000000;0.000000;,
  1.000000;0.000000;,
  1.000000;1.000000;,
  0.000000;1.000000;,
  0.497550;0.000000;,
  1.000000;0.000000;,
  1.000000;1.000000;,
  0.497550;1.000000;,
  0.000000;1.000000;,
  0.000000;0.000000;,
  1.000000;0.502450;,
  1.000000;1.000000;,
  0.000000;1.000000;,
  0.000000;0.502450;,
  0.000000;0.000000;,
  1.000000;0.497550;,
  0.000000;1.000000;,
  0.000000;0.497550;,
  0.000000;0.000000;,
  1.000000;0.000000;,
  0.502450;0.000000;,
  1.000000;0.000000;,
  1.000000;1.000000;,
  0.502450;1.000000;,
  0.000000;0.000000;,
  1.000000;0.000000;,
  1.000000;1.000000;,
  0.000000;1.000000;,
  0.000000;0.000000;,
  1.000000;0.000000;,
  1.000000;1.000000;,
  0.000000;1.000000;,
  0.000000;0.000000;,
  1.000000;0.000000;,
  1.000000;1.000000;,
  0.000000;1.000000;,
  0.000000;0.000000;,
  1.000000;0.000000;,
  1.000000;1.000000;,
  0.000000;1.000000;,
  1.000000;1.000000;,
  0.000000;1.000000;,
  0.000000;0.000000;,
  1.000000;0.000000;;
 }
}
