xof 0302txt 0064
template Header {
 <3D82AB43-62DA-11cf-AB39-0020AF71E433>
 WORD major;
 WORD minor;
 DWORD flags;
}

template Vector {
 <3D82AB5E-62DA-11cf-AB39-0020AF71E433>
 FLOAT x;
 FLOAT y;
 FLOAT z;
}

template Coords2d {
 <F6F23F44-7686-11cf-8F52-0040333594A3>
 FLOAT u;
 FLOAT v;
}

template Matrix4x4 {
 <F6F23F45-7686-11cf-8F52-0040333594A3>
 array FLOAT matrix[16];
}

template ColorRGBA {
 <35FF44E0-6C7C-11cf-8F52-0040333594A3>
 FLOAT red;
 FLOAT green;
 FLOAT blue;
 FLOAT alpha;
}

template ColorRGB {
 <D3E16E81-7835-11cf-8F52-0040333594A3>
 FLOAT red;
 FLOAT green;
 FLOAT blue;
}

template IndexedColor {
 <1630B820-7842-11cf-8F52-0040333594A3>
 DWORD index;
 ColorRGBA indexColor;
}

template Boolean {
 <4885AE61-78E8-11cf-8F52-0040333594A3>
 WORD truefalse;
}

template Boolean2d {
 <4885AE63-78E8-11cf-8F52-0040333594A3>
 Boolean u;
 Boolean v;
}

template MaterialWrap {
 <4885AE60-78E8-11cf-8F52-0040333594A3>
 Boolean u;
 Boolean v;
}

template TextureFilename {
 <A42790E1-7810-11cf-8F52-0040333594A3>
 STRING filename;
}

template Material {
 <3D82AB4D-62DA-11cf-AB39-0020AF71E433>
 ColorRGBA faceColor;
 FLOAT power;
 ColorRGB specularColor;
 ColorRGB emissiveColor;
 [...]
}

template MeshFace {
 <3D82AB5F-62DA-11cf-AB39-0020AF71E433>
 DWORD nFaceVertexIndices;
 array DWORD faceVertexIndices[nFaceVertexIndices];
}

template MeshFaceWraps {
 <4885AE62-78E8-11cf-8F52-0040333594A3>
 DWORD nFaceWrapValues;
 Boolean2d faceWrapValues;
}

template MeshTextureCoords {
 <F6F23F40-7686-11cf-8F52-0040333594A3>
 DWORD nTextureCoords;
 array Coords2d textureCoords[nTextureCoords];
}

template MeshMaterialList {
 <F6F23F42-7686-11cf-8F52-0040333594A3>
 DWORD nMaterials;
 DWORD nFaceIndexes;
 array DWORD faceIndexes[nFaceIndexes];
 [Material]
}

template MeshNormals {
 <F6F23F43-7686-11cf-8F52-0040333594A3>
 DWORD nNormals;
 array Vector normals[nNormals];
 DWORD nFaceNormals;
 array MeshFace faceNormals[nFaceNormals];
}

template MeshVertexColors {
 <1630B821-7842-11cf-8F52-0040333594A3>
 DWORD nVertexColors;
 array IndexedColor vertexColors[nVertexColors];
}

template Mesh {
 <3D82AB44-62DA-11cf-AB39-0020AF71E433>
 DWORD nVertices;
 array Vector vertices[nVertices];
 DWORD nFaces;
 array MeshFace faces[nFaces];
 [...]
}

Header{
1;
0;
1;
}

Mesh {
 496;
 -150.00000;326.66986;-150.00000;,
 150.00000;326.66986;-150.00000;,
 150.00000;303.33000;-150.00000;,
 -150.00000;303.33000;-150.00000;,
 150.00000;326.66986;-150.00000;,
 150.00000;326.66986;150.00000;,
 150.00000;303.33000;150.00000;,
 150.00000;303.33000;-150.00000;,
 150.00000;326.66986;150.00000;,
 -150.00000;326.66986;150.00000;,
 -150.00000;303.33000;150.00000;,
 150.00000;303.33000;150.00000;,
 -150.00000;326.66986;150.00000;,
 -150.00000;326.66986;-150.00000;,
 -150.00000;303.33000;-150.00000;,
 -150.00000;303.33000;150.00000;,
 150.00000;326.66986;-150.00000;,
 -150.00000;326.66986;-150.00000;,
 -150.00000;303.33000;-150.00000;,
 150.00000;303.33000;-150.00000;,
 -146.90505;306.88575;-146.90505;,
 -123.09495;306.88575;-146.90505;,
 -123.09495;0.31425;-146.90505;,
 -146.90505;0.31425;-146.90505;,
 -123.09495;306.88575;-146.90505;,
 -123.09495;306.88575;-123.09495;,
 -123.09495;0.31425;-123.09495;,
 -123.09495;0.31425;-146.90505;,
 -123.09495;306.88575;-123.09495;,
 -146.90505;306.88575;-123.09495;,
 -146.90505;0.31425;-123.09495;,
 -123.09495;0.31425;-123.09495;,
 -146.90505;306.88575;-123.09495;,
 -146.90505;306.88575;-146.90505;,
 -146.90505;0.31425;-146.90505;,
 -146.90505;0.31425;-123.09495;,
 -123.09495;306.88575;-146.90505;,
 -146.90505;306.88575;-146.90505;,
 -146.90505;0.31425;-146.90505;,
 -123.09495;0.31425;-146.90505;,
 -146.90505;306.88575;123.09480;,
 -123.09495;306.88575;123.09480;,
 -123.09495;0.31425;123.09480;,
 -146.90505;0.31425;123.09480;,
 -123.09495;306.88575;123.09480;,
 -123.09495;306.88575;146.90490;,
 -123.09495;0.31425;146.90490;,
 -123.09495;0.31425;123.09480;,
 -123.09495;306.88575;146.90490;,
 -146.90505;306.88575;146.90490;,
 -146.90505;0.31425;146.90490;,
 -123.09495;0.31425;146.90490;,
 -146.90505;306.88575;146.90490;,
 -146.90505;306.88575;123.09480;,
 -146.90505;0.31425;123.09480;,
 -146.90505;0.31425;146.90490;,
 -123.09495;306.88575;123.09480;,
 -146.90505;306.88575;123.09480;,
 -146.90505;0.31425;123.09480;,
 -123.09495;0.31425;123.09480;,
 123.09495;306.88575;-146.90505;,
 146.90505;306.88575;-146.90505;,
 146.90505;0.31425;-146.90505;,
 123.09495;0.31425;-146.90505;,
 146.90505;306.88575;-146.90505;,
 146.90505;306.88575;-123.09495;,
 146.90505;0.31425;-123.09495;,
 146.90505;0.31425;-146.90505;,
 146.90505;306.88575;-123.09495;,
 123.09495;306.88575;-123.09495;,
 123.09495;0.31425;-123.09495;,
 146.90505;0.31425;-123.09495;,
 123.09495;306.88575;-123.09495;,
 123.09495;306.88575;-146.90505;,
 123.09495;0.31425;-146.90505;,
 123.09495;0.31425;-123.09495;,
 146.90505;306.88575;-146.90505;,
 123.09495;306.88575;-146.90505;,
 123.09495;0.31425;-146.90505;,
 146.90505;0.31425;-146.90505;,
 -236.90490;261.88575;-11.90505;,
 -213.09494;261.88575;-11.90505;,
 -213.09494;0.31425;-11.90505;,
 -236.90490;0.31425;-11.90505;,
 -213.09494;261.88575;-11.90505;,
 -213.09494;261.88575;11.90505;,
 -213.09494;0.31425;11.90505;,
 -213.09494;0.31425;-11.90505;,
 -213.09494;261.88575;11.90505;,
 -236.90490;261.88575;11.90505;,
 -236.90490;0.31425;11.90505;,
 -213.09494;0.31425;11.90505;,
 -236.90490;261.88575;11.90505;,
 -236.90490;261.88575;-11.90505;,
 -236.90490;0.31425;-11.90505;,
 -236.90490;0.31425;11.90505;,
 -213.09494;261.88575;-11.90505;,
 -236.90490;261.88575;-11.90505;,
 -236.90490;0.31425;-11.90505;,
 -213.09494;0.31425;-11.90505;,
 -311.66114;265.61490;-127.23631;,
 -138.33885;265.61490;-127.23631;,
 -138.33885;244.38510;-127.23631;,
 -311.66114;244.38510;-127.23631;,
 -138.33885;265.61490;-127.23631;,
 -138.33885;265.61490;127.23631;,
 -138.33885;244.38510;127.23631;,
 -138.33885;244.38510;-127.23631;,
 -138.33885;265.61490;127.23631;,
 -311.66114;265.61490;127.23631;,
 -311.66114;244.38510;127.23631;,
 -138.33885;244.38510;127.23631;,
 -311.66114;265.61490;127.23631;,
 -311.66114;265.61490;-127.23631;,
 -311.66114;244.38510;-127.23631;,
 -311.66114;244.38510;127.23631;,
 -138.33885;265.61490;-127.23631;,
 -311.66114;265.61490;-127.23631;,
 -311.66114;244.38510;-127.23631;,
 -138.33885;244.38510;-127.23631;,
 -446.66116;205.61490;-127.23631;,
 -273.33886;205.61490;-127.23631;,
 -273.33886;184.38510;-127.23631;,
 -446.66116;184.38510;-127.23631;,
 -273.33886;205.61490;-127.23631;,
 -273.33886;205.61490;127.23631;,
 -273.33886;184.38510;127.23631;,
 -273.33886;184.38510;-127.23631;,
 -273.33886;205.61490;127.23631;,
 -446.66116;205.61490;127.23631;,
 -446.66116;184.38510;127.23631;,
 -273.33886;184.38510;127.23631;,
 -446.66116;205.61490;127.23631;,
 -446.66116;205.61490;-127.23631;,
 -446.66116;184.38510;-127.23631;,
 -446.66116;184.38510;127.23631;,
 -273.33886;205.61490;-127.23631;,
 -446.66116;205.61490;-127.23631;,
 -446.66116;184.38510;-127.23631;,
 -273.33886;184.38510;-127.23631;,
 -581.66116;145.61490;-127.23631;,
 -408.33884;145.61490;-127.23631;,
 -408.33884;124.38510;-127.23631;,
 -581.66116;124.38510;-127.23631;,
 -408.33884;145.61490;-127.23631;,
 -408.33884;145.61490;127.23631;,
 -408.33884;124.38510;127.23631;,
 -408.33884;124.38510;-127.23631;,
 -408.33884;145.61490;127.23631;,
 -581.66116;145.61490;127.23631;,
 -581.66116;124.38510;127.23631;,
 -408.33884;124.38510;127.23631;,
 -581.66116;145.61490;127.23631;,
 -581.66116;145.61490;-127.23631;,
 -581.66116;124.38510;-127.23631;,
 -581.66116;124.38510;127.23631;,
 -408.33884;145.61490;-127.23631;,
 -581.66116;145.61490;-127.23631;,
 -581.66116;124.38510;-127.23631;,
 -408.33884;124.38510;-127.23631;,
 -701.66116;85.61490;-127.23631;,
 -528.33884;85.61490;-127.23631;,
 -528.33884;64.38510;-127.23631;,
 -701.66116;64.38510;-127.23631;,
 -528.33884;85.61490;-127.23631;,
 -528.33884;85.61490;127.23631;,
 -528.33884;64.38510;127.23631;,
 -528.33884;64.38510;-127.23631;,
 -528.33884;85.61490;127.23631;,
 -701.66116;85.61490;127.23631;,
 -701.66116;64.38510;127.23631;,
 -528.33884;64.38510;127.23631;,
 -701.66116;85.61490;127.23631;,
 -701.66116;85.61490;-127.23631;,
 -701.66116;64.38510;-127.23631;,
 -701.66116;64.38510;127.23631;,
 -528.33884;85.61490;-127.23631;,
 -701.66116;85.61490;-127.23631;,
 -701.66116;64.38510;-127.23631;,
 -528.33884;64.38510;-127.23631;,
 -836.66098;25.61490;-127.23631;,
 -663.33884;25.61490;-127.23631;,
 -663.33884;4.38510;-127.23631;,
 -836.66098;4.38510;-127.23631;,
 -663.33884;25.61490;-127.23631;,
 -663.33884;25.61490;127.23631;,
 -663.33884;4.38510;127.23631;,
 -663.33884;4.38510;-127.23631;,
 -663.33884;25.61490;127.23631;,
 -836.66098;25.61490;127.23631;,
 -836.66098;4.38510;127.23631;,
 -663.33884;4.38510;127.23631;,
 -836.66098;25.61490;127.23631;,
 -836.66098;25.61490;-127.23631;,
 -836.66098;4.38510;-127.23631;,
 -836.66098;4.38510;127.23631;,
 -663.33884;25.61490;-127.23631;,
 -836.66098;25.61490;-127.23631;,
 -836.66098;4.38510;-127.23631;,
 -663.33884;4.38510;-127.23631;,
 -0.07845;821.66986;-0.07845;,
 0.07845;821.66986;-0.07845;,
 150.00000;603.33000;-150.00000;,
 -150.00000;603.33000;-150.00000;,
 0.07845;821.66986;-0.07845;,
 0.07845;821.66986;0.07845;,
 150.00000;603.33000;150.00000;,
 150.00000;603.33000;-150.00000;,
 0.07845;821.66986;0.07845;,
 -0.07845;821.66986;0.07845;,
 -150.00000;603.33000;150.00000;,
 150.00000;603.33000;150.00000;,
 -0.07845;821.66986;0.07845;,
 -0.07845;821.66986;-0.07845;,
 -150.00000;603.33000;-150.00000;,
 -150.00000;603.33000;150.00000;,
 0.07845;821.66986;-0.07845;,
 -0.07845;821.66986;-0.07845;,
 -150.00000;603.33000;-150.00000;,
 150.00000;603.33000;-150.00000;,
 -146.90505;606.88577;-146.90505;,
 -123.09495;606.88577;-146.90505;,
 -123.09495;300.31425;-146.90505;,
 -146.90505;300.31425;-146.90505;,
 -123.09495;606.88577;-146.90505;,
 -123.09495;606.88577;-123.09495;,
 -123.09495;300.31425;-123.09495;,
 -123.09495;300.31425;-146.90505;,
 -123.09495;606.88577;-123.09495;,
 -146.90505;606.88577;-123.09495;,
 -146.90505;300.31425;-123.09495;,
 -123.09495;300.31425;-123.09495;,
 -146.90505;606.88577;-123.09495;,
 -146.90505;606.88577;-146.90505;,
 -146.90505;300.31425;-146.90505;,
 -146.90505;300.31425;-123.09495;,
 -123.09495;606.88577;-146.90505;,
 -146.90505;606.88577;-146.90505;,
 -146.90505;300.31425;-146.90505;,
 -123.09495;300.31425;-146.90505;,
 -146.90505;606.88577;123.09480;,
 -123.09495;606.88577;123.09480;,
 -123.09495;300.31425;123.09480;,
 -146.90505;300.31425;123.09480;,
 -123.09495;606.88577;123.09480;,
 -123.09495;606.88577;146.90490;,
 -123.09495;300.31425;146.90490;,
 -123.09495;300.31425;123.09480;,
 -123.09495;606.88577;146.90490;,
 -146.90505;606.88577;146.90490;,
 -146.90505;300.31425;146.90490;,
 -123.09495;300.31425;146.90490;,
 -146.90505;606.88577;146.90490;,
 -146.90505;606.88577;123.09480;,
 -146.90505;300.31425;123.09480;,
 -146.90505;300.31425;146.90490;,
 -123.09495;606.88577;123.09480;,
 -146.90505;606.88577;123.09480;,
 -146.90505;300.31425;123.09480;,
 -123.09495;300.31425;123.09480;,
 123.09495;606.88577;-146.90505;,
 146.90505;606.88577;-146.90505;,
 146.90505;300.31425;-146.90505;,
 123.09495;300.31425;-146.90505;,
 146.90505;606.88577;-146.90505;,
 146.90505;606.88577;-123.09495;,
 146.90505;300.31425;-123.09495;,
 146.90505;300.31425;-146.90505;,
 146.90505;606.88577;-123.09495;,
 123.09495;606.88577;-123.09495;,
 123.09495;300.31425;-123.09495;,
 146.90505;300.31425;-123.09495;,
 123.09495;606.88577;-123.09495;,
 123.09495;606.88577;-146.90505;,
 123.09495;300.31425;-146.90505;,
 123.09495;300.31425;-123.09495;,
 146.90505;606.88577;-146.90505;,
 123.09495;606.88577;-146.90505;,
 123.09495;300.31425;-146.90505;,
 146.90505;300.31425;-146.90505;,
 123.09495;606.88577;123.09495;,
 146.90505;606.88577;123.09495;,
 146.90505;300.31425;123.09495;,
 123.09495;300.31425;123.09495;,
 146.90505;606.88577;123.09495;,
 146.90505;606.88577;146.90505;,
 146.90505;300.31425;146.90505;,
 146.90505;300.31425;123.09495;,
 146.90505;606.88577;146.90505;,
 123.09495;606.88577;146.90505;,
 123.09495;300.31425;146.90505;,
 146.90505;300.31425;146.90505;,
 123.09495;606.88577;146.90505;,
 123.09495;606.88577;123.09495;,
 123.09495;300.31425;123.09495;,
 123.09495;300.31425;146.90505;,
 146.90505;606.88577;123.09495;,
 123.09495;606.88577;123.09495;,
 123.09495;300.31425;123.09495;,
 146.90505;300.31425;123.09495;,
 180.00000;326.66986;131.10150;,
 603.79065;32.12295;131.10150;,
 603.79065;32.12295;-131.10150;,
 180.00000;326.66986;-131.10150;,
 180.00000;303.33000;-131.10150;,
 597.74986;9.57840;-131.10150;,
 597.74986;9.57840;131.10150;,
 180.00000;303.33000;131.10150;,
 744.96181;24.28800;131.10150;,
 744.96181;24.28800;-131.10150;,
 603.79065;32.12295;-131.10150;,
 745.97983;0.97050;-131.10150;,
 745.97983;0.97050;131.10150;,
 597.74986;9.57840;-131.10150;,
 147.94170;326.66986;-131.10150;,
 147.94170;326.66986;131.10150;,
 180.00000;326.66986;-131.10150;,
 147.94170;303.33000;131.10150;,
 147.94170;303.33000;-131.10150;,
 180.00000;303.33000;-131.10150;,
 180.00000;303.33000;-149.87550;,
 597.74986;9.57840;-149.87550;,
 597.74986;9.57840;-131.10150;,
 180.00000;303.33000;-131.10150;,
 180.00000;326.66986;-149.87550;,
 603.79065;32.12295;-149.87550;,
 745.97983;0.97050;-149.87550;,
 744.96181;24.28800;-149.87550;,
 597.74986;9.57840;-149.87550;,
 603.79065;32.12295;-149.87550;,
 147.94170;326.66986;-149.87550;,
 147.94170;303.33000;-149.87550;,
 180.00000;303.33000;-149.87550;,
 180.00000;326.66986;-149.87550;,
 199.46910;388.79503;-149.87550;,
 632.08891;93.08565;-149.87550;,
 632.08891;93.08565;-131.10150;,
 199.46910;388.79503;-131.10150;,
 180.00000;326.66986;-131.10150;,
 603.79065;32.12295;-131.10150;,
 632.08891;93.08565;-149.87550;,
 741.98566;92.44965;-149.87550;,
 741.98566;92.44965;-131.10150;,
 632.08891;93.08565;-131.10150;,
 147.94170;394.89647;-149.87550;,
 199.46910;388.79503;-149.87550;,
 147.94170;394.89647;-131.10150;,
 199.46910;388.79503;-131.10150;,
 597.74986;9.57840;149.57384;,
 180.00000;303.33000;149.57384;,
 180.00000;303.33000;131.10150;,
 597.74986;9.57840;131.10150;,
 603.79065;32.12295;149.57384;,
 180.00000;326.66986;149.57384;,
 744.96181;24.28800;149.57384;,
 745.97983;0.97050;149.57384;,
 597.74986;9.57840;149.57384;,
 603.79065;32.12295;149.57384;,
 147.94170;303.33000;149.57384;,
 147.94170;326.66986;149.57384;,
 180.00000;303.33000;149.57384;,
 180.00000;326.66986;149.57384;,
 621.24463;99.72404;149.57384;,
 192.00840;394.98793;149.57384;,
 192.00840;394.98793;131.10150;,
 621.24463;99.72404;131.10150;,
 603.79065;32.12295;131.10150;,
 180.00000;326.66986;131.10150;,
 734.10493;94.94085;149.57384;,
 621.24463;99.72404;149.57384;,
 734.10493;94.94085;131.10150;,
 621.24463;99.72404;131.10150;,
 192.00840;394.98793;149.57384;,
 147.94170;398.75116;149.57384;,
 147.94170;398.75116;131.10150;,
 192.00840;394.98793;131.10150;,
 -371.90490;201.88575;-11.90505;,
 -348.09494;201.88575;-11.90505;,
 -348.09494;0.31425;-11.90505;,
 -371.90490;0.31425;-11.90505;,
 -348.09494;201.88575;-11.90505;,
 -348.09494;201.88575;11.90505;,
 -348.09494;0.31425;11.90505;,
 -348.09494;0.31425;-11.90505;,
 -348.09494;201.88575;11.90505;,
 -371.90490;201.88575;11.90505;,
 -371.90490;0.31425;11.90505;,
 -348.09494;0.31425;11.90505;,
 -371.90490;201.88575;11.90505;,
 -371.90490;201.88575;-11.90505;,
 -371.90490;0.31425;-11.90505;,
 -371.90490;0.31425;11.90505;,
 -348.09494;201.88575;-11.90505;,
 -371.90490;201.88575;-11.90505;,
 -371.90490;0.31425;-11.90505;,
 -348.09494;0.31425;-11.90505;,
 -506.90492;141.88575;-11.90505;,
 -483.09494;141.88575;-11.90505;,
 -483.09494;0.31425;-11.90505;,
 -506.90492;0.31425;-11.90505;,
 -483.09494;141.88575;-11.90505;,
 -483.09494;141.88575;11.90505;,
 -483.09494;0.31425;11.90505;,
 -483.09494;0.31425;-11.90505;,
 -483.09494;141.88575;11.90505;,
 -506.90492;141.88575;11.90505;,
 -506.90492;0.31425;11.90505;,
 -483.09494;0.31425;11.90505;,
 -506.90492;141.88575;11.90505;,
 -506.90492;141.88575;-11.90505;,
 -506.90492;0.31425;-11.90505;,
 -506.90492;0.31425;11.90505;,
 -483.09494;141.88575;-11.90505;,
 -506.90492;141.88575;-11.90505;,
 -506.90492;0.31425;-11.90505;,
 -483.09494;0.31425;-11.90505;,
 -626.90492;81.88575;-11.90505;,
 -603.09494;81.88575;-11.90505;,
 -603.09494;0.31425;-11.90505;,
 -626.90492;0.31425;-11.90505;,
 -603.09494;81.88575;-11.90505;,
 -603.09494;81.88575;11.90505;,
 -603.09494;0.31425;11.90505;,
 -603.09494;0.31425;-11.90505;,
 -603.09494;81.88575;11.90505;,
 -626.90492;81.88575;11.90505;,
 -626.90492;0.31425;11.90505;,
 -603.09494;0.31425;11.90505;,
 -626.90492;81.88575;11.90505;,
 -626.90492;81.88575;-11.90505;,
 -626.90492;0.31425;-11.90505;,
 -626.90492;0.31425;11.90505;,
 -603.09494;81.88575;-11.90505;,
 -626.90492;81.88575;-11.90505;,
 -626.90492;0.31425;-11.90505;,
 -603.09494;0.31425;-11.90505;,
 -761.90492;21.88575;-11.90505;,
 -738.09494;21.88575;-11.90505;,
 -738.09494;0.31425;-11.90505;,
 -761.90492;0.31425;-11.90505;,
 -738.09494;21.88575;-11.90505;,
 -738.09494;21.88575;11.90505;,
 -738.09494;0.31425;11.90505;,
 -738.09494;0.31425;-11.90505;,
 -738.09494;21.88575;11.90505;,
 -761.90492;21.88575;11.90505;,
 -761.90492;0.31425;11.90505;,
 -738.09494;0.31425;11.90505;,
 -761.90492;21.88575;11.90505;,
 -761.90492;21.88575;-11.90505;,
 -761.90492;0.31425;-11.90505;,
 -761.90492;0.31425;11.90505;,
 -738.09494;21.88575;-11.90505;,
 -761.90492;21.88575;-11.90505;,
 -761.90492;0.31425;-11.90505;,
 -738.09494;0.31425;-11.90505;,
 -150.00000;489.10574;-126.33015;,
 150.00000;489.10574;-126.33015;,
 150.00000;489.10574;-149.66985;,
 -150.00000;489.10574;-149.66985;,
 150.00000;489.10574;-126.33015;,
 150.00000;320.89396;-126.33015;,
 150.00000;320.89396;-149.66985;,
 150.00000;489.10574;-149.66985;,
 150.00000;320.89396;-126.33015;,
 -150.00000;320.89396;-126.33015;,
 -150.00000;320.89396;-149.66985;,
 150.00000;320.89396;-149.66985;,
 -150.00000;320.89396;-126.33015;,
 -150.00000;489.10574;-126.33015;,
 -150.00000;489.10574;-149.66985;,
 -150.00000;320.89396;-149.66985;,
 150.00000;489.10574;-126.33015;,
 -150.00000;489.10574;-126.33015;,
 -150.00000;489.10574;-149.66985;,
 150.00000;489.10574;-149.66985;,
 -150.00000;489.10574;149.66985;,
 150.00000;489.10574;149.66985;,
 150.00000;489.10574;126.33015;,
 -150.00000;489.10574;126.33015;,
 150.00000;489.10574;149.66985;,
 150.00000;320.89396;149.66985;,
 150.00000;320.89396;126.33015;,
 150.00000;489.10574;126.33015;,
 150.00000;320.89396;149.66985;,
 -150.00000;320.89396;149.66985;,
 -150.00000;320.89396;126.33015;,
 150.00000;320.89396;126.33015;,
 -150.00000;320.89396;149.66985;,
 -150.00000;489.10574;149.66985;,
 -150.00000;489.10574;126.33015;,
 -150.00000;320.89396;126.33015;,
 150.00000;489.10574;149.66985;,
 -150.00000;489.10574;149.66985;,
 -150.00000;489.10574;126.33015;,
 150.00000;489.10574;126.33015;;
 
 172;
 4;0,1,2,3;,
 4;4,5,6,7;,
 4;8,9,10,11;,
 4;12,13,14,15;,
 4;12,5,16,17;,
 4;18,19,6,15;,
 4;20,21,22,23;,
 4;24,25,26,27;,
 4;28,29,30,31;,
 4;32,33,34,35;,
 4;32,25,36,37;,
 4;38,39,26,35;,
 4;40,41,42,43;,
 4;44,45,46,47;,
 4;48,49,50,51;,
 4;52,53,54,55;,
 4;52,45,56,57;,
 4;58,59,46,55;,
 4;60,61,62,63;,
 4;64,65,66,67;,
 4;68,69,70,71;,
 4;72,73,74,75;,
 4;72,65,76,77;,
 4;78,79,66,75;,
 4;80,81,82,83;,
 4;84,85,86,87;,
 4;88,89,90,91;,
 4;92,93,94,95;,
 4;92,85,96,97;,
 4;98,99,86,95;,
 4;100,101,102,103;,
 4;104,105,106,107;,
 4;108,109,110,111;,
 4;112,113,114,115;,
 4;112,105,116,117;,
 4;118,119,106,115;,
 4;120,121,122,123;,
 4;124,125,126,127;,
 4;128,129,130,131;,
 4;132,133,134,135;,
 4;132,125,136,137;,
 4;138,139,126,135;,
 4;140,141,142,143;,
 4;144,145,146,147;,
 4;148,149,150,151;,
 4;152,153,154,155;,
 4;152,145,156,157;,
 4;158,159,146,155;,
 4;160,161,162,163;,
 4;164,165,166,167;,
 4;168,169,170,171;,
 4;172,173,174,175;,
 4;172,165,176,177;,
 4;178,179,166,175;,
 4;180,181,182,183;,
 4;184,185,186,187;,
 4;188,189,190,191;,
 4;192,193,194,195;,
 4;192,185,196,197;,
 4;198,199,186,195;,
 4;200,201,202,203;,
 4;204,205,206,207;,
 4;208,209,210,211;,
 4;212,213,214,215;,
 4;212,205,216,217;,
 4;218,219,206,215;,
 4;220,221,222,223;,
 4;224,225,226,227;,
 4;228,229,230,231;,
 4;232,233,234,235;,
 4;232,225,236,237;,
 4;238,239,226,235;,
 4;240,241,242,243;,
 4;244,245,246,247;,
 4;248,249,250,251;,
 4;252,253,254,255;,
 4;252,245,256,257;,
 4;258,259,246,255;,
 4;260,261,262,263;,
 4;264,265,266,267;,
 4;268,269,270,271;,
 4;272,273,274,275;,
 4;272,265,276,277;,
 4;278,279,266,275;,
 4;280,281,282,283;,
 4;284,285,286,287;,
 4;288,289,290,291;,
 4;292,293,294,295;,
 4;292,285,296,297;,
 4;298,299,286,295;,
 4;300,301,302,303;,
 4;304,305,306,307;,
 4;308,309,310,301;,
 4;311,312,306,313;,
 4;309,308,312,311;,
 4;314,315,300,316;,
 4;317,318,319,307;,
 4;315,314,318,317;,
 4;320,321,322,323;,
 4;324,325,321,320;,
 4;326,327,309,311;,
 4;328,326,311,313;,
 4;327,326,328,329;,
 4;330,331,318,314;,
 4;331,332,319,318;,
 4;331,330,333,332;,
 4;334,335,325,324;,
 4;336,337,338,339;,
 4;335,334,337,336;,
 4;340,341,327,329;,
 4;342,343,310,309;,
 4;341,342,309,327;,
 4;341,340,343,342;,
 4;344,345,333,330;,
 4;346,344,330,314;,
 4;347,346,314,316;,
 4;345,344,346,347;,
 4;348,349,350,351;,
 4;352,353,349,348;,
 4;354,355,312,308;,
 4;355,356,306,312;,
 4;355,354,357,356;,
 4;358,359,315,317;,
 4;360,358,317,307;,
 4;359,358,360,361;,
 4;362,363,353,352;,
 4;364,365,366,367;,
 4;363,362,365,364;,
 4;368,369,357,354;,
 4;370,368,354,308;,
 4;371,370,308,301;,
 4;369,368,370,371;,
 4;372,373,359,361;,
 4;374,375,300,315;,
 4;373,374,315,359;,
 4;373,372,375,374;,
 4;376,377,378,379;,
 4;380,381,382,383;,
 4;384,385,386,387;,
 4;388,389,390,391;,
 4;388,381,392,393;,
 4;394,395,382,391;,
 4;396,397,398,399;,
 4;400,401,402,403;,
 4;404,405,406,407;,
 4;408,409,410,411;,
 4;408,401,412,413;,
 4;414,415,402,411;,
 4;416,417,418,419;,
 4;420,421,422,423;,
 4;424,425,426,427;,
 4;428,429,430,431;,
 4;428,421,432,433;,
 4;434,435,422,431;,
 4;436,437,438,439;,
 4;440,441,442,443;,
 4;444,445,446,447;,
 4;448,449,450,451;,
 4;448,441,452,453;,
 4;454,455,442,451;,
 4;456,457,458,459;,
 4;460,461,462,463;,
 4;464,465,466,467;,
 4;468,469,470,471;,
 4;468,461,472,473;,
 4;474,475,462,471;,
 4;476,477,478,479;,
 4;480,481,482,483;,
 4;484,485,486,487;,
 4;488,489,490,491;,
 4;488,481,492,493;,
 4;494,495,482,491;;
 
 MeshMaterialList {
  4;
  172;
  2,
  2,
  2,
  2,
  2,
  2,
  0,
  0,
  0,
  0,
  0,
  0,
  0,
  0,
  0,
  0,
  0,
  0,
  0,
  0,
  0,
  0,
  0,
  0,
  0,
  0,
  0,
  0,
  0,
  0,
  0,
  0,
  0,
  0,
  0,
  0,
  0,
  0,
  0,
  0,
  0,
  0,
  0,
  0,
  0,
  0,
  0,
  0,
  0,
  0,
  0,
  0,
  0,
  0,
  0,
  0,
  0,
  0,
  0,
  0,
  1,
  1,
  1,
  1,
  1,
  1,
  0,
  0,
  0,
  0,
  0,
  0,
  0,
  0,
  0,
  0,
  0,
  0,
  0,
  0,
  0,
  0,
  0,
  0,
  0,
  0,
  0,
  0,
  0,
  0,
  1,
  1,
  1,
  1,
  1,
  1,
  1,
  1,
  1,
  1,
  1,
  1,
  1,
  1,
  1,
  1,
  1,
  1,
  1,
  1,
  1,
  1,
  1,
  1,
  1,
  1,
  1,
  1,
  1,
  1,
  1,
  1,
  1,
  1,
  1,
  1,
  1,
  1,
  1,
  1,
  1,
  1,
  1,
  1,
  1,
  1,
  0,
  0,
  0,
  0,
  0,
  0,
  0,
  0,
  0,
  0,
  0,
  0,
  0,
  0,
  0,
  0,
  0,
  0,
  0,
  0,
  0,
  0,
  0,
  0,
  3,
  3,
  3,
  3,
  3,
  3,
  3,
  3,
  3,
  3,
  3,
  3;;
  Material {
   0.592800;0.592800;0.592800;1.000000;;
   5.000000;
   0.000000;0.000000;0.000000;;
   0.000000;0.000000;0.000000;;
  }
  Material {
   0.800000;0.000000;0.000000;1.000000;;
   5.000000;
   0.000000;0.000000;0.000000;;
   0.000000;0.000000;0.000000;;
  }
  Material {
   0.000000;0.000000;0.800000;1.000000;;
   5.000000;
   0.000000;0.000000;0.000000;;
   0.000000;0.000000;0.000000;;
  }
  Material {
   0.800000;0.800000;0.800000;1.000000;;
   5.000000;
   0.000000;0.000000;0.000000;;
   0.000000;0.000000;0.000000;;
  }
 }
 MeshNormals {
  138;
  0.000000;0.000000;-1.000000;,
  1.000000;0.000000;0.000000;,
  0.000000;0.000000;1.000000;,
  -1.000000;0.000000;0.000000;,
  0.000000;1.000000;0.000000;,
  0.000000;-1.000000;-0.000000;,
  0.000000;0.000000;-1.000000;,
  1.000000;0.000000;0.000000;,
  0.000000;0.000000;1.000000;,
  -1.000000;0.000000;0.000000;,
  0.000000;1.000000;0.000000;,
  0.000000;-1.000000;-0.000000;,
  0.000000;0.000000;-1.000000;,
  1.000000;0.000000;0.000000;,
  0.000000;0.000000;1.000000;,
  -1.000000;0.000000;0.000000;,
  0.000000;1.000000;0.000000;,
  0.000000;-1.000000;-0.000000;,
  0.000000;0.000000;-1.000000;,
  1.000000;0.000000;0.000000;,
  0.000000;0.000000;1.000000;,
  -1.000000;0.000000;0.000000;,
  0.000000;1.000000;0.000000;,
  0.000000;-1.000000;-0.000000;,
  0.000000;0.000000;-1.000000;,
  1.000000;0.000000;0.000000;,
  0.000000;0.000000;1.000000;,
  -1.000000;0.000000;0.000000;,
  0.000000;1.000000;0.000000;,
  0.000000;-1.000000;-0.000000;,
  0.000000;0.000000;-1.000000;,
  1.000000;0.000000;0.000000;,
  0.000000;0.000000;1.000000;,
  -1.000000;0.000000;0.000000;,
  0.000000;1.000000;0.000000;,
  0.000000;-1.000000;-0.000000;,
  0.000000;0.000000;-1.000000;,
  1.000000;0.000000;0.000000;,
  0.000000;0.000000;1.000000;,
  -1.000000;0.000000;0.000000;,
  0.000000;1.000000;0.000000;,
  0.000000;-1.000000;-0.000000;,
  0.000000;0.000000;-1.000000;,
  1.000000;0.000000;0.000000;,
  0.000000;0.000000;1.000000;,
  -1.000000;0.000000;0.000000;,
  0.000000;1.000000;0.000000;,
  0.000000;-1.000000;-0.000000;,
  0.000000;0.000000;-1.000000;,
  1.000000;0.000000;0.000000;,
  0.000000;0.000000;1.000000;,
  -1.000000;0.000000;0.000000;,
  0.000000;1.000000;0.000000;,
  0.000000;-1.000000;-0.000000;,
  0.000000;0.000000;-1.000000;,
  1.000000;0.000000;0.000000;,
  0.000000;0.000000;1.000000;,
  -1.000000;0.000000;0.000000;,
  0.000000;1.000000;0.000000;,
  0.000000;-1.000000;-0.000000;,
  0.000000;0.884887;-0.465806;,
  0.000000;0.566049;-0.824372;,
  0.465806;0.884887;0.000000;,
  0.824372;0.566049;0.000000;,
  0.000000;0.884887;0.465806;,
  0.000000;0.566049;0.824372;,
  -0.824372;0.566049;0.000000;,
  0.000000;-1.000000;-0.000000;,
  0.000000;0.000000;-1.000000;,
  1.000000;0.000000;0.000000;,
  0.000000;0.000000;1.000000;,
  -1.000000;0.000000;0.000000;,
  0.000000;1.000000;0.000000;,
  0.000000;-1.000000;-0.000000;,
  0.299044;0.954239;0.000000;,
  -0.301654;-0.953417;0.000000;,
  0.325379;0.945584;0.000000;,
  -0.329175;-0.944269;0.000000;,
  0.055414;0.998463;0.000000;,
  -0.057974;-0.998318;0.000000;,
  0.000000;1.000000;0.000000;,
  0.000000;-1.000000;-0.000000;,
  0.000000;0.000000;-1.000000;,
  0.999048;0.043620;0.000000;,
  0.999048;0.043618;0.000000;,
  -1.000000;0.000000;0.000000;,
  0.000000;0.000000;1.000000;,
  0.995197;0.097895;0.000000;,
  0.988399;0.151882;0.000000;,
  0.999048;0.043619;0.000000;,
  0.996810;0.079811;0.000000;,
  0.999048;0.043618;0.000000;,
  -0.057974;-0.998318;0.000000;,
  0.298087;0.954539;0.000000;,
  0.351081;0.936345;0.000000;,
  0.999048;0.043622;0.000000;,
  0.005787;0.999983;0.000000;,
  0.117590;0.993062;0.000000;,
  0.337132;0.941457;0.000000;,
  0.316893;0.948461;0.000000;,
  0.042344;0.999103;0.000000;,
  0.085089;0.996373;0.000000;,
  0.000000;0.000000;-1.000000;,
  1.000000;0.000000;0.000000;,
  0.000000;0.000000;1.000000;,
  -1.000000;0.000000;0.000000;,
  0.000000;1.000000;0.000000;,
  0.000000;-1.000000;-0.000000;,
  0.000000;0.000000;-1.000000;,
  1.000000;0.000000;0.000000;,
  0.000000;0.000000;1.000000;,
  -1.000000;0.000000;0.000000;,
  0.000000;1.000000;0.000000;,
  0.000000;-1.000000;-0.000000;,
  0.000000;0.000000;-1.000000;,
  1.000000;0.000000;0.000000;,
  0.000000;0.000000;1.000000;,
  -1.000000;0.000000;0.000000;,
  0.000000;1.000000;0.000000;,
  0.000000;-1.000000;-0.000000;,
  0.000000;0.000000;-1.000000;,
  1.000000;0.000000;0.000000;,
  0.000000;0.000000;1.000000;,
  -1.000000;0.000000;0.000000;,
  0.000000;1.000000;0.000000;,
  0.000000;-1.000000;-0.000000;,
  0.000000;1.000000;0.000000;,
  1.000000;0.000000;0.000000;,
  0.000000;-1.000000;0.000000;,
  -1.000000;0.000000;0.000000;,
  0.000000;0.000000;1.000000;,
  0.000000;0.000000;-1.000000;,
  0.000000;1.000000;0.000000;,
  1.000000;0.000000;0.000000;,
  0.000000;-1.000000;0.000000;,
  -1.000000;0.000000;0.000000;,
  0.000000;0.000000;1.000000;,
  0.000000;0.000000;-1.000000;;
  172;
  4;0,0,0,0;,
  4;1,1,1,1;,
  4;2,2,2,2;,
  4;3,3,3,3;,
  4;4,4,4,4;,
  4;5,5,5,5;,
  4;6,6,6,6;,
  4;7,7,7,7;,
  4;8,8,8,8;,
  4;9,9,9,9;,
  4;10,10,10,10;,
  4;11,11,11,11;,
  4;12,12,12,12;,
  4;13,13,13,13;,
  4;14,14,14,14;,
  4;15,15,15,15;,
  4;16,16,16,16;,
  4;17,17,17,17;,
  4;18,18,18,18;,
  4;19,19,19,19;,
  4;20,20,20,20;,
  4;21,21,21,21;,
  4;22,22,22,22;,
  4;23,23,23,23;,
  4;24,24,24,24;,
  4;25,25,25,25;,
  4;26,26,26,26;,
  4;27,27,27,27;,
  4;28,28,28,28;,
  4;29,29,29,29;,
  4;30,30,30,30;,
  4;31,31,31,31;,
  4;32,32,32,32;,
  4;33,33,33,33;,
  4;34,34,34,34;,
  4;35,35,35,35;,
  4;36,36,36,36;,
  4;37,37,37,37;,
  4;38,38,38,38;,
  4;39,39,39,39;,
  4;40,40,40,40;,
  4;41,41,41,41;,
  4;42,42,42,42;,
  4;43,43,43,43;,
  4;44,44,44,44;,
  4;45,45,45,45;,
  4;46,46,46,46;,
  4;47,47,47,47;,
  4;48,48,48,48;,
  4;49,49,49,49;,
  4;50,50,50,50;,
  4;51,51,51,51;,
  4;52,52,52,52;,
  4;53,53,53,53;,
  4;54,54,54,54;,
  4;55,55,55,55;,
  4;56,56,56,56;,
  4;57,57,57,57;,
  4;58,58,58,58;,
  4;59,59,59,59;,
  4;60,60,61,61;,
  4;63,62,63,63;,
  4;65,64,65,65;,
  4;66,66,66,66;,
  4;64,62,60,60;,
  4;67,67,67,67;,
  4;68,68,68,68;,
  4;69,69,69,69;,
  4;70,70,70,70;,
  4;71,71,71,71;,
  4;72,72,72,72;,
  4;73,73,73,73;,
  4;68,68,68,68;,
  4;69,69,69,69;,
  4;70,70,70,70;,
  4;71,71,71,71;,
  4;72,72,72,72;,
  4;73,73,73,73;,
  4;68,68,68,68;,
  4;69,69,69,69;,
  4;70,70,70,70;,
  4;71,71,71,71;,
  4;72,72,72,72;,
  4;73,73,73,73;,
  4;68,68,68,68;,
  4;69,69,69,69;,
  4;70,70,70,70;,
  4;71,71,71,71;,
  4;72,72,72,72;,
  4;73,73,73,73;,
  4;74,76,76,74;,
  4;75,77,77,75;,
  4;78,78,76,76;,
  4;79,79,77,77;,
  4;89,90,91,91;,
  4;80,80,74,74;,
  4;81,81,75,75;,
  4;85,85,85,85;,
  4;75,77,77,75;,
  4;82,82,82,82;,
  4;84,83,89,91;,
  4;77,92,79,77;,
  4;82,82,82,82;,
  4;85,85,85,85;,
  4;81,75,75,81;,
  4;82,82,82,82;,
  4;82,82,82,82;,
  4;86,86,86,86;,
  4;93,94,94,93;,
  4;82,82,82,82;,
  4;86,86,86,86;,
  4;95,95,89,83;,
  4;96,93,93,96;,
  4;82,82,82,82;,
  4;85,85,85,85;,
  4;86,86,86,86;,
  4;94,97,97,94;,
  4;77,75,75,77;,
  4;86,86,86,86;,
  4;87,84,91,90;,
  4;79,77,77,79;,
  4;86,86,86,86;,
  4;85,85,85,85;,
  4;75,81,81,75;,
  4;86,86,86,86;,
  4;86,86,86,86;,
  4;82,82,82,82;,
  4;98,99,99,98;,
  4;86,86,86,86;,
  4;88,88,87,90;,
  4;82,82,82,82;,
  4;99,100,100,99;,
  4;86,86,86,86;,
  4;82,82,82,82;,
  4;85,85,85,85;,
  4;101,98,98,101;,
  4;102,102,102,102;,
  4;103,103,103,103;,
  4;104,104,104,104;,
  4;105,105,105,105;,
  4;106,106,106,106;,
  4;107,107,107,107;,
  4;108,108,108,108;,
  4;109,109,109,109;,
  4;110,110,110,110;,
  4;111,111,111,111;,
  4;112,112,112,112;,
  4;113,113,113,113;,
  4;114,114,114,114;,
  4;115,115,115,115;,
  4;116,116,116,116;,
  4;117,117,117,117;,
  4;118,118,118,118;,
  4;119,119,119,119;,
  4;120,120,120,120;,
  4;121,121,121,121;,
  4;122,122,122,122;,
  4;123,123,123,123;,
  4;124,124,124,124;,
  4;125,125,125,125;,
  4;126,126,126,126;,
  4;127,127,127,127;,
  4;128,128,128,128;,
  4;129,129,129,129;,
  4;130,130,130,130;,
  4;131,131,131,131;,
  4;132,132,132,132;,
  4;133,133,133,133;,
  4;134,134,134,134;,
  4;135,135,135,135;,
  4;136,136,136,136;,
  4;137,137,137,137;;
 }
 MeshTextureCoords {
  496;
  0.000000;0.000000;,
  1.000000;0.000000;,
  1.000000;1.000000;,
  0.000000;1.000000;,
  0.000000;0.000000;,
  1.000000;0.000000;,
  1.000000;1.000000;,
  0.000000;1.000000;,
  0.000000;0.000000;,
  1.000000;0.000000;,
  1.000000;1.000000;,
  0.000000;1.000000;,
  0.000000;0.000000;,
  1.000000;0.000000;,
  1.000000;1.000000;,
  0.000000;1.000000;,
  1.000000;1.000000;,
  0.000000;1.000000;,
  0.000000;0.000000;,
  1.000000;0.000000;,
  0.000000;0.000000;,
  1.000000;0.000000;,
  1.000000;1.000000;,
  0.000000;1.000000;,
  0.000000;0.000000;,
  1.000000;0.000000;,
  1.000000;1.000000;,
  0.000000;1.000000;,
  0.000000;0.000000;,
  1.000000;0.000000;,
  1.000000;1.000000;,
  0.000000;1.000000;,
  0.000000;0.000000;,
  1.000000;0.000000;,
  1.000000;1.000000;,
  0.000000;1.000000;,
  1.000000;1.000000;,
  0.000000;1.000000;,
  0.000000;0.000000;,
  1.000000;0.000000;,
  0.000000;0.000000;,
  1.000000;0.000000;,
  1.000000;1.000000;,
  0.000000;1.000000;,
  0.000000;0.000000;,
  1.000000;0.000000;,
  1.000000;1.000000;,
  0.000000;1.000000;,
  0.000000;0.000000;,
  1.000000;0.000000;,
  1.000000;1.000000;,
  0.000000;1.000000;,
  0.000000;0.000000;,
  1.000000;0.000000;,
  1.000000;1.000000;,
  0.000000;1.000000;,
  1.000000;1.000000;,
  0.000000;1.000000;,
  0.000000;0.000000;,
  1.000000;0.000000;,
  0.000000;0.000000;,
  1.000000;0.000000;,
  1.000000;1.000000;,
  0.000000;1.000000;,
  0.000000;0.000000;,
  1.000000;0.000000;,
  1.000000;1.000000;,
  0.000000;1.000000;,
  0.000000;0.000000;,
  1.000000;0.000000;,
  1.000000;1.000000;,
  0.000000;1.000000;,
  0.000000;0.000000;,
  1.000000;0.000000;,
  1.000000;1.000000;,
  0.000000;1.000000;,
  1.000000;1.000000;,
  0.000000;1.000000;,
  0.000000;0.000000;,
  1.000000;0.000000;,
  0.000000;0.000000;,
  1.000000;0.000000;,
  1.000000;1.000000;,
  0.000000;1.000000;,
  0.000000;0.000000;,
  1.000000;0.000000;,
  1.000000;1.000000;,
  0.000000;1.000000;,
  0.000000;0.000000;,
  1.000000;0.000000;,
  1.000000;1.000000;,
  0.000000;1.000000;,
  0.000000;0.000000;,
  1.000000;0.000000;,
  1.000000;1.000000;,
  0.000000;1.000000;,
  1.000000;1.000000;,
  0.000000;1.000000;,
  0.000000;0.000000;,
  1.000000;0.000000;,
  0.000000;0.000000;,
  1.000000;0.000000;,
  1.000000;1.000000;,
  0.000000;1.000000;,
  0.000000;0.000000;,
  1.000000;0.000000;,
  1.000000;1.000000;,
  0.000000;1.000000;,
  0.000000;0.000000;,
  1.000000;0.000000;,
  1.000000;1.000000;,
  0.000000;1.000000;,
  0.000000;0.000000;,
  1.000000;0.000000;,
  1.000000;1.000000;,
  0.000000;1.000000;,
  1.000000;1.000000;,
  0.000000;1.000000;,
  0.000000;0.000000;,
  1.000000;0.000000;,
  0.000000;0.000000;,
  1.000000;0.000000;,
  1.000000;1.000000;,
  0.000000;1.000000;,
  0.000000;0.000000;,
  1.000000;0.000000;,
  1.000000;1.000000;,
  0.000000;1.000000;,
  0.000000;0.000000;,
  1.000000;0.000000;,
  1.000000;1.000000;,
  0.000000;1.000000;,
  0.000000;0.000000;,
  1.000000;0.000000;,
  1.000000;1.000000;,
  0.000000;1.000000;,
  1.000000;1.000000;,
  0.000000;1.000000;,
  0.000000;0.000000;,
  1.000000;0.000000;,
  0.000000;0.000000;,
  1.000000;0.000000;,
  1.000000;1.000000;,
  0.000000;1.000000;,
  0.000000;0.000000;,
  1.000000;0.000000;,
  1.000000;1.000000;,
  0.000000;1.000000;,
  0.000000;0.000000;,
  1.000000;0.000000;,
  1.000000;1.000000;,
  0.000000;1.000000;,
  0.000000;0.000000;,
  1.000000;0.000000;,
  1.000000;1.000000;,
  0.000000;1.000000;,
  1.000000;1.000000;,
  0.000000;1.000000;,
  0.000000;0.000000;,
  1.000000;0.000000;,
  0.000000;0.000000;,
  1.000000;0.000000;,
  1.000000;1.000000;,
  0.000000;1.000000;,
  0.000000;0.000000;,
  1.000000;0.000000;,
  1.000000;1.000000;,
  0.000000;1.000000;,
  0.000000;0.000000;,
  1.000000;0.000000;,
  1.000000;1.000000;,
  0.000000;1.000000;,
  0.000000;0.000000;,
  1.000000;0.000000;,
  1.000000;1.000000;,
  0.000000;1.000000;,
  1.000000;1.000000;,
  0.000000;1.000000;,
  0.000000;0.000000;,
  1.000000;0.000000;,
  0.000000;0.000000;,
  1.000000;0.000000;,
  1.000000;1.000000;,
  0.000000;1.000000;,
  0.000000;0.000000;,
  1.000000;0.000000;,
  1.000000;1.000000;,
  0.000000;1.000000;,
  0.000000;0.000000;,
  1.000000;0.000000;,
  1.000000;1.000000;,
  0.000000;1.000000;,
  0.000000;0.000000;,
  1.000000;0.000000;,
  1.000000;1.000000;,
  0.000000;1.000000;,
  1.000000;1.000000;,
  0.000000;1.000000;,
  0.000000;0.000000;,
  1.000000;0.000000;,
  0.000000;0.000000;,
  1.000000;0.000000;,
  1.000000;1.000000;,
  0.000000;1.000000;,
  0.000000;0.000000;,
  1.000000;0.000000;,
  1.000000;1.000000;,
  0.000000;1.000000;,
  0.000000;0.000000;,
  1.000000;0.000000;,
  1.000000;1.000000;,
  0.000000;1.000000;,
  0.000000;0.000000;,
  1.000000;0.000000;,
  1.000000;1.000000;,
  0.000000;1.000000;,
  1.000000;1.000000;,
  0.000000;1.000000;,
  0.000000;0.000000;,
  1.000000;0.000000;,
  0.000000;0.000000;,
  1.000000;0.000000;,
  1.000000;1.000000;,
  0.000000;1.000000;,
  0.000000;0.000000;,
  1.000000;0.000000;,
  1.000000;1.000000;,
  0.000000;1.000000;,
  0.000000;0.000000;,
  1.000000;0.000000;,
  1.000000;1.000000;,
  0.000000;1.000000;,
  0.000000;0.000000;,
  1.000000;0.000000;,
  1.000000;1.000000;,
  0.000000;1.000000;,
  1.000000;1.000000;,
  0.000000;1.000000;,
  0.000000;0.000000;,
  1.000000;0.000000;,
  0.000000;0.000000;,
  1.000000;0.000000;,
  1.000000;1.000000;,
  0.000000;1.000000;,
  0.000000;0.000000;,
  1.000000;0.000000;,
  1.000000;1.000000;,
  0.000000;1.000000;,
  0.000000;0.000000;,
  1.000000;0.000000;,
  1.000000;1.000000;,
  0.000000;1.000000;,
  0.000000;0.000000;,
  1.000000;0.000000;,
  1.000000;1.000000;,
  0.000000;1.000000;,
  1.000000;1.000000;,
  0.000000;1.000000;,
  0.000000;0.000000;,
  1.000000;0.000000;,
  0.000000;0.000000;,
  1.000000;0.000000;,
  1.000000;1.000000;,
  0.000000;1.000000;,
  0.000000;0.000000;,
  1.000000;0.000000;,
  1.000000;1.000000;,
  0.000000;1.000000;,
  0.000000;0.000000;,
  1.000000;0.000000;,
  1.000000;1.000000;,
  0.000000;1.000000;,
  0.000000;0.000000;,
  1.000000;0.000000;,
  1.000000;1.000000;,
  0.000000;1.000000;,
  1.000000;1.000000;,
  0.000000;1.000000;,
  0.000000;0.000000;,
  1.000000;0.000000;,
  0.000000;0.000000;,
  1.000000;0.000000;,
  1.000000;1.000000;,
  0.000000;1.000000;,
  0.000000;0.000000;,
  1.000000;0.000000;,
  1.000000;1.000000;,
  0.000000;1.000000;,
  0.000000;0.000000;,
  1.000000;0.000000;,
  1.000000;1.000000;,
  0.000000;1.000000;,
  0.000000;0.000000;,
  1.000000;0.000000;,
  1.000000;1.000000;,
  0.000000;1.000000;,
  1.000000;1.000000;,
  0.000000;1.000000;,
  0.000000;0.000000;,
  1.000000;0.000000;,
  0.000000;0.000000;,
  1.000000;0.000000;,
  1.000000;1.000000;,
  0.000000;1.000000;,
  0.000000;0.000000;,
  1.000000;0.000000;,
  1.000000;1.000000;,
  0.000000;1.000000;,
  1.000000;0.000000;,
  0.000000;0.000000;,
  0.000000;0.000000;,
  0.000000;1.000000;,
  1.000000;1.000000;,
  0.000000;1.000000;,
  1.000000;0.000000;,
  0.000000;0.000000;,
  1.000000;0.000000;,
  0.000000;1.000000;,
  1.000000;1.000000;,
  1.000000;1.000000;,
  0.000000;1.000000;,
  1.000000;1.000000;,
  1.000000;1.000000;,
  0.000000;1.000000;,
  0.000000;0.000000;,
  1.000000;0.000000;,
  0.000000;1.000000;,
  0.000000;0.000000;,
  0.000000;1.000000;,
  0.000000;0.000000;,
  1.000000;0.000000;,
  1.000000;1.000000;,
  1.000000;1.000000;,
  1.000000;0.000000;,
  0.000000;0.000000;,
  1.000000;0.000000;,
  1.000000;0.000000;,
  0.000000;0.000000;,
  0.000000;0.000000;,
  1.000000;0.000000;,
  0.000000;0.000000;,
  0.000000;0.000000;,
  0.000000;0.000000;,
  0.000000;0.000000;,
  1.000000;0.000000;,
  1.000000;0.000000;,
  1.000000;0.000000;,
  1.000000;0.000000;,
  0.000000;1.000000;,
  1.000000;1.000000;,
  1.000000;1.000000;,
  0.000000;1.000000;,
  0.000000;0.000000;,
  1.000000;0.000000;,
  1.000000;0.000000;,
  1.000000;1.000000;,
  1.000000;1.000000;,
  1.000000;0.000000;,
  0.000000;1.000000;,
  0.000000;0.000000;,
  0.000000;1.000000;,
  0.000000;0.000000;,
  0.000000;0.000000;,
  1.000000;0.000000;,
  1.000000;0.000000;,
  0.000000;0.000000;,
  0.000000;0.000000;,
  1.000000;0.000000;,
  1.000000;0.000000;,
  1.000000;0.000000;,
  1.000000;0.000000;,
  1.000000;0.000000;,
  0.000000;0.000000;,
  0.000000;0.000000;,
  0.000000;0.000000;,
  0.000000;0.000000;,
  0.000000;0.000000;,
  1.000000;0.000000;,
  1.000000;1.000000;,
  0.000000;1.000000;,
  0.000000;0.000000;,
  1.000000;0.000000;,
  1.000000;1.000000;,
  0.000000;1.000000;,
  0.000000;0.000000;,
  1.000000;0.000000;,
  1.000000;1.000000;,
  0.000000;1.000000;,
  0.000000;0.000000;,
  1.000000;0.000000;,
  1.000000;1.000000;,
  0.000000;1.000000;,
  1.000000;1.000000;,
  0.000000;1.000000;,
  0.000000;0.000000;,
  1.000000;0.000000;,
  0.000000;0.000000;,
  1.000000;0.000000;,
  1.000000;1.000000;,
  0.000000;1.000000;,
  0.000000;0.000000;,
  1.000000;0.000000;,
  1.000000;1.000000;,
  0.000000;1.000000;,
  0.000000;0.000000;,
  1.000000;0.000000;,
  1.000000;1.000000;,
  0.000000;1.000000;,
  0.000000;0.000000;,
  1.000000;0.000000;,
  1.000000;1.000000;,
  0.000000;1.000000;,
  1.000000;1.000000;,
  0.000000;1.000000;,
  0.000000;0.000000;,
  1.000000;0.000000;,
  0.000000;0.000000;,
  1.000000;0.000000;,
  1.000000;1.000000;,
  0.000000;1.000000;,
  0.000000;0.000000;,
  1.000000;0.000000;,
  1.000000;1.000000;,
  0.000000;1.000000;,
  0.000000;0.000000;,
  1.000000;0.000000;,
  1.000000;1.000000;,
  0.000000;1.000000;,
  0.000000;0.000000;,
  1.000000;0.000000;,
  1.000000;1.000000;,
  0.000000;1.000000;,
  1.000000;1.000000;,
  0.000000;1.000000;,
  0.000000;0.000000;,
  1.000000;0.000000;,
  0.000000;0.000000;,
  1.000000;0.000000;,
  1.000000;1.000000;,
  0.000000;1.000000;,
  0.000000;0.000000;,
  1.000000;0.000000;,
  1.000000;1.000000;,
  0.000000;1.000000;,
  0.000000;0.000000;,
  1.000000;0.000000;,
  1.000000;1.000000;,
  0.000000;1.000000;,
  0.000000;0.000000;,
  1.000000;0.000000;,
  1.000000;1.000000;,
  0.000000;1.000000;,
  1.000000;1.000000;,
  0.000000;1.000000;,
  0.000000;0.000000;,
  1.000000;0.000000;,
  0.000000;0.000000;,
  1.000000;0.000000;,
  1.000000;1.000000;,
  0.000000;1.000000;,
  0.000000;0.000000;,
  1.000000;0.000000;,
  1.000000;1.000000;,
  0.000000;1.000000;,
  0.000000;0.000000;,
  1.000000;0.000000;,
  1.000000;1.000000;,
  0.000000;1.000000;,
  0.000000;0.000000;,
  1.000000;0.000000;,
  1.000000;1.000000;,
  0.000000;1.000000;,
  1.000000;1.000000;,
  0.000000;1.000000;,
  0.000000;0.000000;,
  1.000000;0.000000;,
  0.000000;0.000000;,
  1.000000;0.000000;,
  1.000000;1.000000;,
  0.000000;1.000000;,
  0.000000;0.000000;,
  1.000000;0.000000;,
  1.000000;1.000000;,
  0.000000;1.000000;,
  0.000000;0.000000;,
  1.000000;0.000000;,
  1.000000;1.000000;,
  0.000000;1.000000;,
  0.000000;0.000000;,
  1.000000;0.000000;,
  1.000000;1.000000;,
  0.000000;1.000000;,
  1.000000;1.000000;,
  0.000000;1.000000;,
  0.000000;0.000000;,
  1.000000;0.000000;;
 }
}
