xof 0302txt 0064
template Header {
 <3D82AB43-62DA-11cf-AB39-0020AF71E433>
 WORD major;
 WORD minor;
 DWORD flags;
}

template Vector {
 <3D82AB5E-62DA-11cf-AB39-0020AF71E433>
 FLOAT x;
 FLOAT y;
 FLOAT z;
}

template Coords2d {
 <F6F23F44-7686-11cf-8F52-0040333594A3>
 FLOAT u;
 FLOAT v;
}

template Matrix4x4 {
 <F6F23F45-7686-11cf-8F52-0040333594A3>
 array FLOAT matrix[16];
}

template ColorRGBA {
 <35FF44E0-6C7C-11cf-8F52-0040333594A3>
 FLOAT red;
 FLOAT green;
 FLOAT blue;
 FLOAT alpha;
}

template ColorRGB {
 <D3E16E81-7835-11cf-8F52-0040333594A3>
 FLOAT red;
 FLOAT green;
 FLOAT blue;
}

template IndexedColor {
 <1630B820-7842-11cf-8F52-0040333594A3>
 DWORD index;
 ColorRGBA indexColor;
}

template Boolean {
 <4885AE61-78E8-11cf-8F52-0040333594A3>
 WORD truefalse;
}

template Boolean2d {
 <4885AE63-78E8-11cf-8F52-0040333594A3>
 Boolean u;
 Boolean v;
}

template MaterialWrap {
 <4885AE60-78E8-11cf-8F52-0040333594A3>
 Boolean u;
 Boolean v;
}

template TextureFilename {
 <A42790E1-7810-11cf-8F52-0040333594A3>
 STRING filename;
}

template Material {
 <3D82AB4D-62DA-11cf-AB39-0020AF71E433>
 ColorRGBA faceColor;
 FLOAT power;
 ColorRGB specularColor;
 ColorRGB emissiveColor;
 [...]
}

template MeshFace {
 <3D82AB5F-62DA-11cf-AB39-0020AF71E433>
 DWORD nFaceVertexIndices;
 array DWORD faceVertexIndices[nFaceVertexIndices];
}

template MeshFaceWraps {
 <4885AE62-78E8-11cf-8F52-0040333594A3>
 DWORD nFaceWrapValues;
 Boolean2d faceWrapValues;
}

template MeshTextureCoords {
 <F6F23F40-7686-11cf-8F52-0040333594A3>
 DWORD nTextureCoords;
 array Coords2d textureCoords[nTextureCoords];
}

template MeshMaterialList {
 <F6F23F42-7686-11cf-8F52-0040333594A3>
 DWORD nMaterials;
 DWORD nFaceIndexes;
 array DWORD faceIndexes[nFaceIndexes];
 [Material]
}

template MeshNormals {
 <F6F23F43-7686-11cf-8F52-0040333594A3>
 DWORD nNormals;
 array Vector normals[nNormals];
 DWORD nFaceNormals;
 array MeshFace faceNormals[nFaceNormals];
}

template MeshVertexColors {
 <1630B821-7842-11cf-8F52-0040333594A3>
 DWORD nVertexColors;
 array IndexedColor vertexColors[nVertexColors];
}

template Mesh {
 <3D82AB44-62DA-11cf-AB39-0020AF71E433>
 DWORD nVertices;
 array Vector vertices[nVertices];
 DWORD nFaces;
 array MeshFace faces[nFaces];
 [...]
}

Header{
1;
0;
1;
}

Mesh {
 182;
 -198.55710;389.25343;-18.55710;,
 -161.44290;389.25343;-18.55710;,
 -161.44290;0.74640;-18.55710;,
 -198.55710;0.74640;-18.55710;,
 -161.44290;389.25343;-18.55710;,
 -161.44290;389.25343;18.55710;,
 -161.44290;0.74640;18.55710;,
 -161.44290;0.74640;-18.55710;,
 -161.44290;389.25343;18.55710;,
 -198.55710;389.25343;18.55710;,
 -198.55710;0.74640;18.55710;,
 -161.44290;0.74640;18.55710;,
 -198.55710;389.25343;18.55710;,
 -198.55710;389.25343;-18.55710;,
 -198.55710;0.74640;-18.55710;,
 -198.55710;0.74640;18.55710;,
 -161.44290;389.25343;-18.55710;,
 -198.55710;389.25343;-18.55710;,
 -198.55710;0.74640;-18.55710;,
 -161.44290;0.74640;-18.55710;,
 -573.55710;389.25343;-18.55710;,
 -536.44290;389.25343;-18.55710;,
 -536.44290;0.74640;-18.55710;,
 -573.55710;0.74640;-18.55710;,
 -536.44290;389.25343;-18.55710;,
 -536.44290;389.25343;18.55710;,
 -536.44290;0.74640;18.55710;,
 -536.44290;0.74640;-18.55710;,
 -536.44290;389.25343;18.55710;,
 -573.55710;389.25343;18.55710;,
 -573.55710;0.74640;18.55710;,
 -536.44290;0.74640;18.55710;,
 -573.55710;389.25343;18.55710;,
 -573.55710;389.25343;-18.55710;,
 -573.55710;0.74640;-18.55710;,
 -573.55710;0.74640;18.55710;,
 -536.44290;389.25343;-18.55710;,
 -573.55710;389.25343;-18.55710;,
 -573.55710;0.74640;-18.55710;,
 -536.44290;0.74640;-18.55710;,
 176.44275;314.25346;-18.55710;,
 213.55710;314.25346;-18.55710;,
 213.55710;0.74640;-18.55710;,
 176.44275;0.74640;-18.55710;,
 213.55710;314.25346;-18.55710;,
 213.55710;314.25346;18.55710;,
 213.55710;0.74640;18.55710;,
 213.55710;0.74640;-18.55710;,
 213.55710;314.25346;18.55710;,
 176.44275;314.25346;18.55710;,
 176.44275;0.74640;18.55710;,
 213.55710;0.74640;18.55710;,
 176.44275;314.25346;18.55710;,
 176.44275;314.25346;-18.55710;,
 176.44275;0.74640;-18.55710;,
 176.44275;0.74640;18.55710;,
 213.55710;314.25346;-18.55710;,
 176.44275;314.25346;-18.55710;,
 176.44275;0.74640;-18.55710;,
 213.55710;0.74640;-18.55710;,
 551.44290;239.25346;-18.55710;,
 588.55724;239.25346;-18.55710;,
 588.55724;0.74640;-18.55710;,
 551.44290;0.74640;-18.55710;,
 588.55724;239.25346;-18.55710;,
 588.55724;239.25346;18.55710;,
 588.55724;0.74640;18.55710;,
 588.55724;0.74640;-18.55710;,
 588.55724;239.25346;18.55710;,
 551.44290;239.25346;18.55710;,
 551.44290;0.74640;18.55710;,
 588.55724;0.74640;18.55710;,
 551.44290;239.25346;18.55710;,
 551.44290;239.25346;-18.55710;,
 551.44290;0.74640;-18.55710;,
 551.44290;0.74640;18.55710;,
 588.55724;239.25346;-18.55710;,
 551.44290;239.25346;-18.55710;,
 551.44290;0.74640;-18.55710;,
 588.55724;0.74640;-18.55710;,
 180.39930;300.00000;-11.72820;,
 180.39930;291.70681;-8.29320;,
 -180.39930;291.70681;-8.29320;,
 -180.39930;300.00000;-11.72820;,
 180.39930;288.27166;0.00000;,
 -180.39930;288.27166;0.00000;,
 180.39930;291.70681;8.29320;,
 -180.39930;291.70681;8.29320;,
 180.39930;300.00000;11.72820;,
 -180.39930;300.00000;11.72820;,
 180.39930;308.29305;8.29320;,
 -180.39930;308.29305;8.29320;,
 180.39930;311.72820;0.00000;,
 -180.39930;311.72820;0.00000;,
 180.39930;308.29305;-8.29320;,
 -180.39930;308.29305;-8.29320;,
 180.39930;300.00000;-11.72820;,
 -180.39930;300.00000;-11.72820;,
 180.39930;300.00000;0.00000;,
 180.39930;300.00000;0.00000;,
 180.39930;300.00000;0.00000;,
 180.39930;300.00000;0.00000;,
 180.39930;300.00000;0.00000;,
 180.39930;300.00000;0.00000;,
 180.39930;300.00000;0.00000;,
 180.39930;300.00000;0.00000;,
 -180.39930;300.00000;0.00000;,
 -180.39930;300.00000;0.00000;,
 -180.39930;300.00000;0.00000;,
 -180.39930;300.00000;0.00000;,
 -180.39930;300.00000;0.00000;,
 -180.39930;300.00000;0.00000;,
 -180.39930;300.00000;0.00000;,
 -180.39930;300.00000;0.00000;,
 -194.60069;360.00000;-11.72820;,
 -194.60069;351.70681;-8.29320;,
 -570.39931;351.70681;-8.29320;,
 -570.39931;360.00000;-11.72820;,
 -194.60069;348.27166;0.00000;,
 -570.39931;348.27166;0.00000;,
 -194.60069;351.70681;8.29320;,
 -570.39931;351.70681;8.29320;,
 -194.60069;360.00000;11.72820;,
 -570.39931;360.00000;11.72820;,
 -194.60069;368.29305;8.29320;,
 -570.39931;368.29305;8.29320;,
 -194.60069;371.72820;0.00000;,
 -570.39931;371.72820;0.00000;,
 -194.60069;368.29305;-8.29320;,
 -570.39931;368.29305;-8.29320;,
 -194.60069;360.00000;-11.72820;,
 -570.39931;360.00000;-11.72820;,
 -194.60069;360.00000;0.00000;,
 -194.60069;360.00000;0.00000;,
 -194.60069;360.00000;0.00000;,
 -194.60069;360.00000;0.00000;,
 -194.60069;360.00000;0.00000;,
 -194.60069;360.00000;0.00000;,
 -194.60069;360.00000;0.00000;,
 -194.60069;360.00000;0.00000;,
 -570.39931;360.00000;0.00000;,
 -570.39931;360.00000;0.00000;,
 -570.39931;360.00000;0.00000;,
 -570.39931;360.00000;0.00000;,
 -570.39931;360.00000;0.00000;,
 -570.39931;360.00000;0.00000;,
 -570.39931;360.00000;0.00000;,
 -570.39931;360.00000;0.00000;,
 555.39931;210.00000;-11.72820;,
 555.39931;201.70681;-8.29320;,
 194.60069;201.70681;-8.29320;,
 194.60069;210.00000;-11.72820;,
 555.39931;198.27166;0.00000;,
 194.60069;198.27166;0.00000;,
 555.39931;201.70681;8.29320;,
 194.60069;201.70681;8.29320;,
 555.39931;210.00000;11.72820;,
 194.60069;210.00000;11.72820;,
 555.39931;218.29305;8.29320;,
 194.60069;218.29305;8.29320;,
 555.39931;221.72820;0.00000;,
 194.60069;221.72820;0.00000;,
 555.39931;218.29305;-8.29320;,
 194.60069;218.29305;-8.29320;,
 555.39931;210.00000;-11.72820;,
 194.60069;210.00000;-11.72820;,
 555.39931;210.00000;0.00000;,
 555.39931;210.00000;0.00000;,
 555.39931;210.00000;0.00000;,
 555.39931;210.00000;0.00000;,
 555.39931;210.00000;0.00000;,
 555.39931;210.00000;0.00000;,
 555.39931;210.00000;0.00000;,
 555.39931;210.00000;0.00000;,
 194.60069;210.00000;0.00000;,
 194.60069;210.00000;0.00000;,
 194.60069;210.00000;0.00000;,
 194.60069;210.00000;0.00000;,
 194.60069;210.00000;0.00000;,
 194.60069;210.00000;0.00000;,
 194.60069;210.00000;0.00000;,
 194.60069;210.00000;0.00000;;
 
 96;
 4;0,1,2,3;,
 4;4,5,6,7;,
 4;8,9,10,11;,
 4;12,13,14,15;,
 4;12,5,16,17;,
 4;18,19,6,15;,
 4;20,21,22,23;,
 4;24,25,26,27;,
 4;28,29,30,31;,
 4;32,33,34,35;,
 4;32,25,36,37;,
 4;38,39,26,35;,
 4;40,41,42,43;,
 4;44,45,46,47;,
 4;48,49,50,51;,
 4;52,53,54,55;,
 4;52,45,56,57;,
 4;58,59,46,55;,
 4;60,61,62,63;,
 4;64,65,66,67;,
 4;68,69,70,71;,
 4;72,73,74,75;,
 4;72,65,76,77;,
 4;78,79,66,75;,
 4;80,81,82,83;,
 4;81,84,85,82;,
 4;84,86,87,85;,
 4;86,88,89,87;,
 4;88,90,91,89;,
 4;90,92,93,91;,
 4;92,94,95,93;,
 4;94,96,97,95;,
 3;98,81,80;,
 3;99,84,81;,
 3;100,86,84;,
 3;101,88,86;,
 3;102,90,88;,
 3;103,92,90;,
 3;104,94,92;,
 3;105,96,94;,
 3;106,83,82;,
 3;107,82,85;,
 3;108,85,87;,
 3;109,87,89;,
 3;110,89,91;,
 3;111,91,93;,
 3;112,93,95;,
 3;113,95,97;,
 4;114,115,116,117;,
 4;115,118,119,116;,
 4;118,120,121,119;,
 4;120,122,123,121;,
 4;122,124,125,123;,
 4;124,126,127,125;,
 4;126,128,129,127;,
 4;128,130,131,129;,
 3;132,115,114;,
 3;133,118,115;,
 3;134,120,118;,
 3;135,122,120;,
 3;136,124,122;,
 3;137,126,124;,
 3;138,128,126;,
 3;139,130,128;,
 3;140,117,116;,
 3;141,116,119;,
 3;142,119,121;,
 3;143,121,123;,
 3;144,123,125;,
 3;145,125,127;,
 3;146,127,129;,
 3;147,129,131;,
 4;148,149,150,151;,
 4;149,152,153,150;,
 4;152,154,155,153;,
 4;154,156,157,155;,
 4;156,158,159,157;,
 4;158,160,161,159;,
 4;160,162,163,161;,
 4;162,164,165,163;,
 3;166,149,148;,
 3;167,152,149;,
 3;168,154,152;,
 3;169,156,154;,
 3;170,158,156;,
 3;171,160,158;,
 3;172,162,160;,
 3;173,164,162;,
 3;174,151,150;,
 3;175,150,153;,
 3;176,153,155;,
 3;177,155,157;,
 3;178,157,159;,
 3;179,159,161;,
 3;180,161,163;,
 3;181,163,165;;
 
 MeshMaterialList {
  4;
  96;
  1,
  1,
  1,
  1,
  1,
  1,
  1,
  1,
  1,
  1,
  1,
  1,
  2,
  2,
  2,
  2,
  2,
  2,
  3,
  3,
  3,
  3,
  3,
  3,
  0,
  0,
  0,
  0,
  0,
  0,
  0,
  0,
  0,
  0,
  0,
  0,
  0,
  0,
  0,
  0,
  0,
  0,
  0,
  0,
  0,
  0,
  0,
  0,
  0,
  0,
  0,
  0,
  0,
  0,
  0,
  0,
  0,
  0,
  0,
  0,
  0,
  0,
  0,
  0,
  0,
  0,
  0,
  0,
  0,
  0,
  0,
  0,
  0,
  0,
  0,
  0,
  0,
  0,
  0,
  0,
  0,
  0,
  0,
  0,
  0,
  0,
  0,
  0,
  0,
  0,
  0,
  0,
  0,
  0,
  0,
  0;;
  Material {
   0.426400;0.426400;0.426400;1.000000;;
   5.000000;
   1.000000;1.000000;1.000000;;
   0.000000;0.000000;0.000000;;
  }
  Material {
   0.000000;0.599200;0.135200;1.000000;;
   5.000000;
   1.000000;1.000000;1.000000;;
   0.000000;0.000000;0.000000;;
  }
  Material {
   0.800000;0.000000;0.000000;1.000000;;
   5.000000;
   1.000000;1.000000;1.000000;;
   0.000000;0.000000;0.000000;;
  }
  Material {
   0.800000;0.800000;0.000000;1.000000;;
   5.000000;
   0.000000;0.000000;0.000000;;
   0.000000;0.000000;0.000000;;
  }
 }
 MeshNormals {
  54;
  0.000000;0.000000;-1.000000;,
  1.000000;0.000000;0.000000;,
  0.000000;0.000000;1.000000;,
  -1.000000;0.000000;0.000000;,
  0.000000;1.000000;0.000000;,
  0.000000;-1.000000;-0.000000;,
  0.000000;0.000000;-1.000000;,
  1.000000;0.000000;0.000000;,
  0.000000;0.000000;1.000000;,
  -1.000000;0.000000;0.000000;,
  0.000000;1.000000;0.000000;,
  0.000000;-1.000000;-0.000000;,
  0.000000;0.000000;-1.000000;,
  1.000000;0.000000;0.000000;,
  0.000000;0.000000;1.000000;,
  -1.000000;0.000000;0.000000;,
  0.000000;1.000000;0.000000;,
  0.000000;-1.000000;-0.000000;,
  0.000000;0.000000;-1.000000;,
  1.000000;0.000000;0.000000;,
  0.000000;0.000000;1.000000;,
  -1.000000;0.000000;0.000000;,
  0.000000;1.000000;0.000000;,
  0.000000;-1.000000;-0.000000;,
  1.000000;0.000000;0.000000;,
  0.000000;0.000003;-1.000000;,
  0.000000;-0.707101;-0.707112;,
  0.000000;-1.000000;-0.000000;,
  0.000000;-0.707101;0.707112;,
  0.000000;0.000003;1.000000;,
  0.000000;0.707103;0.707110;,
  0.000000;1.000000;0.000000;,
  0.000000;0.707103;-0.707110;,
  -1.000000;0.000000;0.000000;,
  1.000000;0.000000;0.000000;,
  0.000000;0.000003;-1.000000;,
  0.000000;-0.707101;-0.707112;,
  0.000000;-1.000000;-0.000000;,
  0.000000;-0.707101;0.707112;,
  0.000000;0.000003;1.000000;,
  0.000000;0.707104;0.707110;,
  0.000000;1.000000;0.000000;,
  0.000000;0.707104;-0.707110;,
  -1.000000;0.000000;0.000000;,
  1.000000;0.000000;0.000000;,
  0.000000;0.000003;-1.000000;,
  0.000000;-0.707101;-0.707112;,
  0.000000;-1.000000;-0.000000;,
  0.000000;-0.707101;0.707112;,
  0.000000;0.000003;1.000000;,
  0.000000;0.707103;0.707110;,
  0.000000;1.000000;0.000000;,
  0.000000;0.707103;-0.707110;,
  -1.000000;0.000000;0.000000;;
  96;
  4;0,0,0,0;,
  4;1,1,1,1;,
  4;2,2,2,2;,
  4;3,3,3,3;,
  4;4,4,4,4;,
  4;5,5,5,5;,
  4;6,6,6,6;,
  4;7,7,7,7;,
  4;8,8,8,8;,
  4;9,9,9,9;,
  4;10,10,10,10;,
  4;11,11,11,11;,
  4;12,12,12,12;,
  4;13,13,13,13;,
  4;14,14,14,14;,
  4;15,15,15,15;,
  4;16,16,16,16;,
  4;17,17,17,17;,
  4;18,18,18,18;,
  4;19,19,19,19;,
  4;20,20,20,20;,
  4;21,21,21,21;,
  4;22,22,22,22;,
  4;23,23,23,23;,
  4;25,26,26,25;,
  4;26,27,27,26;,
  4;27,28,28,27;,
  4;28,29,29,28;,
  4;29,30,30,29;,
  4;30,31,31,30;,
  4;31,32,32,31;,
  4;32,25,25,32;,
  3;24,24,24;,
  3;24,24,24;,
  3;24,24,24;,
  3;24,24,24;,
  3;24,24,24;,
  3;24,24,24;,
  3;24,24,24;,
  3;24,24,24;,
  3;33,33,33;,
  3;33,33,33;,
  3;33,33,33;,
  3;33,33,33;,
  3;33,33,33;,
  3;33,33,33;,
  3;33,33,33;,
  3;33,33,33;,
  4;35,36,36,35;,
  4;36,37,37,36;,
  4;37,38,38,37;,
  4;38,39,39,38;,
  4;39,40,40,39;,
  4;40,41,41,40;,
  4;41,42,42,41;,
  4;42,35,35,42;,
  3;34,34,34;,
  3;34,34,34;,
  3;34,34,34;,
  3;34,34,34;,
  3;34,34,34;,
  3;34,34,34;,
  3;34,34,34;,
  3;34,34,34;,
  3;43,43,43;,
  3;43,43,43;,
  3;43,43,43;,
  3;43,43,43;,
  3;43,43,43;,
  3;43,43,43;,
  3;43,43,43;,
  3;43,43,43;,
  4;45,46,46,45;,
  4;46,47,47,46;,
  4;47,48,48,47;,
  4;48,49,49,48;,
  4;49,50,50,49;,
  4;50,51,51,50;,
  4;51,52,52,51;,
  4;52,45,45,52;,
  3;44,44,44;,
  3;44,44,44;,
  3;44,44,44;,
  3;44,44,44;,
  3;44,44,44;,
  3;44,44,44;,
  3;44,44,44;,
  3;44,44,44;,
  3;53,53,53;,
  3;53,53,53;,
  3;53,53,53;,
  3;53,53,53;,
  3;53,53,53;,
  3;53,53,53;,
  3;53,53,53;,
  3;53,53,53;;
 }
 MeshTextureCoords {
  182;
  0.000000;0.000000;,
  1.000000;0.000000;,
  1.000000;1.000000;,
  0.000000;1.000000;,
  0.000000;0.000000;,
  1.000000;0.000000;,
  1.000000;1.000000;,
  0.000000;1.000000;,
  0.000000;0.000000;,
  1.000000;0.000000;,
  1.000000;1.000000;,
  0.000000;1.000000;,
  0.000000;0.000000;,
  1.000000;0.000000;,
  1.000000;1.000000;,
  0.000000;1.000000;,
  1.000000;1.000000;,
  0.000000;1.000000;,
  0.000000;0.000000;,
  1.000000;0.000000;,
  0.000000;0.000000;,
  1.000000;0.000000;,
  1.000000;1.000000;,
  0.000000;1.000000;,
  0.000000;0.000000;,
  1.000000;0.000000;,
  1.000000;1.000000;,
  0.000000;1.000000;,
  0.000000;0.000000;,
  1.000000;0.000000;,
  1.000000;1.000000;,
  0.000000;1.000000;,
  0.000000;0.000000;,
  1.000000;0.000000;,
  1.000000;1.000000;,
  0.000000;1.000000;,
  1.000000;1.000000;,
  0.000000;1.000000;,
  0.000000;0.000000;,
  1.000000;0.000000;,
  0.000000;0.000000;,
  1.000000;0.000000;,
  1.000000;1.000000;,
  0.000000;1.000000;,
  0.000000;0.000000;,
  1.000000;0.000000;,
  1.000000;1.000000;,
  0.000000;1.000000;,
  0.000000;0.000000;,
  1.000000;0.000000;,
  1.000000;1.000000;,
  0.000000;1.000000;,
  0.000000;0.000000;,
  1.000000;0.000000;,
  1.000000;1.000000;,
  0.000000;1.000000;,
  1.000000;1.000000;,
  0.000000;1.000000;,
  0.000000;0.000000;,
  1.000000;0.000000;,
  0.000000;0.000000;,
  1.000000;0.000000;,
  1.000000;1.000000;,
  0.000000;1.000000;,
  0.000000;0.000000;,
  1.000000;0.000000;,
  1.000000;1.000000;,
  0.000000;1.000000;,
  0.000000;0.000000;,
  1.000000;0.000000;,
  1.000000;1.000000;,
  0.000000;1.000000;,
  0.000000;0.000000;,
  1.000000;0.000000;,
  1.000000;1.000000;,
  0.000000;1.000000;,
  1.000000;1.000000;,
  0.000000;1.000000;,
  0.000000;0.000000;,
  1.000000;0.000000;,
  0.000000;0.000000;,
  0.125000;0.000000;,
  0.125000;1.000000;,
  0.000000;1.000000;,
  0.250000;0.000000;,
  0.250000;1.000000;,
  0.375000;0.000000;,
  0.375000;1.000000;,
  0.500000;0.000000;,
  0.500000;1.000000;,
  0.625000;0.000000;,
  0.625000;1.000000;,
  0.750000;0.000000;,
  0.750000;1.000000;,
  0.875000;0.000000;,
  0.875000;1.000000;,
  1.000000;0.000000;,
  1.000000;1.000000;,
  0.062500;0.000000;,
  0.187500;0.000000;,
  0.312500;0.000000;,
  0.437500;0.000000;,
  0.562500;0.000000;,
  0.687500;0.000000;,
  0.812500;0.000000;,
  0.937500;0.000000;,
  0.062500;1.000000;,
  0.187500;1.000000;,
  0.312500;1.000000;,
  0.437500;1.000000;,
  0.562500;1.000000;,
  0.687500;1.000000;,
  0.812500;1.000000;,
  0.937500;1.000000;,
  0.000000;0.000000;,
  0.125000;0.000000;,
  0.125000;1.000000;,
  0.000000;1.000000;,
  0.250000;0.000000;,
  0.250000;1.000000;,
  0.375000;0.000000;,
  0.375000;1.000000;,
  0.500000;0.000000;,
  0.500000;1.000000;,
  0.625000;0.000000;,
  0.625000;1.000000;,
  0.750000;0.000000;,
  0.750000;1.000000;,
  0.875000;0.000000;,
  0.875000;1.000000;,
  1.000000;0.000000;,
  1.000000;1.000000;,
  0.062500;0.000000;,
  0.187500;0.000000;,
  0.312500;0.000000;,
  0.437500;0.000000;,
  0.562500;0.000000;,
  0.687500;0.000000;,
  0.812500;0.000000;,
  0.937500;0.000000;,
  0.062500;1.000000;,
  0.187500;1.000000;,
  0.312500;1.000000;,
  0.437500;1.000000;,
  0.562500;1.000000;,
  0.687500;1.000000;,
  0.812500;1.000000;,
  0.937500;1.000000;,
  0.000000;0.000000;,
  0.125000;0.000000;,
  0.125000;1.000000;,
  0.000000;1.000000;,
  0.250000;0.000000;,
  0.250000;1.000000;,
  0.375000;0.000000;,
  0.375000;1.000000;,
  0.500000;0.000000;,
  0.500000;1.000000;,
  0.625000;0.000000;,
  0.625000;1.000000;,
  0.750000;0.000000;,
  0.750000;1.000000;,
  0.875000;0.000000;,
  0.875000;1.000000;,
  1.000000;0.000000;,
  1.000000;1.000000;,
  0.062500;0.000000;,
  0.187500;0.000000;,
  0.312500;0.000000;,
  0.437500;0.000000;,
  0.562500;0.000000;,
  0.687500;0.000000;,
  0.812500;0.000000;,
  0.937500;0.000000;,
  0.062500;1.000000;,
  0.187500;1.000000;,
  0.312500;1.000000;,
  0.437500;1.000000;,
  0.562500;1.000000;,
  0.687500;1.000000;,
  0.812500;1.000000;,
  0.937500;1.000000;;
 }
}
