xof 0302txt 0064
template Header {
 <3D82AB43-62DA-11cf-AB39-0020AF71E433>
 WORD major;
 WORD minor;
 DWORD flags;
}

template Vector {
 <3D82AB5E-62DA-11cf-AB39-0020AF71E433>
 FLOAT x;
 FLOAT y;
 FLOAT z;
}

template Coords2d {
 <F6F23F44-7686-11cf-8F52-0040333594A3>
 FLOAT u;
 FLOAT v;
}

template Matrix4x4 {
 <F6F23F45-7686-11cf-8F52-0040333594A3>
 array FLOAT matrix[16];
}

template ColorRGBA {
 <35FF44E0-6C7C-11cf-8F52-0040333594A3>
 FLOAT red;
 FLOAT green;
 FLOAT blue;
 FLOAT alpha;
}

template ColorRGB {
 <D3E16E81-7835-11cf-8F52-0040333594A3>
 FLOAT red;
 FLOAT green;
 FLOAT blue;
}

template IndexedColor {
 <1630B820-7842-11cf-8F52-0040333594A3>
 DWORD index;
 ColorRGBA indexColor;
}

template Boolean {
 <4885AE61-78E8-11cf-8F52-0040333594A3>
 WORD truefalse;
}

template Boolean2d {
 <4885AE63-78E8-11cf-8F52-0040333594A3>
 Boolean u;
 Boolean v;
}

template MaterialWrap {
 <4885AE60-78E8-11cf-8F52-0040333594A3>
 Boolean u;
 Boolean v;
}

template TextureFilename {
 <A42790E1-7810-11cf-8F52-0040333594A3>
 STRING filename;
}

template Material {
 <3D82AB4D-62DA-11cf-AB39-0020AF71E433>
 ColorRGBA faceColor;
 FLOAT power;
 ColorRGB specularColor;
 ColorRGB emissiveColor;
 [...]
}

template MeshFace {
 <3D82AB5F-62DA-11cf-AB39-0020AF71E433>
 DWORD nFaceVertexIndices;
 array DWORD faceVertexIndices[nFaceVertexIndices];
}

template MeshFaceWraps {
 <4885AE62-78E8-11cf-8F52-0040333594A3>
 DWORD nFaceWrapValues;
 Boolean2d faceWrapValues;
}

template MeshTextureCoords {
 <F6F23F40-7686-11cf-8F52-0040333594A3>
 DWORD nTextureCoords;
 array Coords2d textureCoords[nTextureCoords];
}

template MeshMaterialList {
 <F6F23F42-7686-11cf-8F52-0040333594A3>
 DWORD nMaterials;
 DWORD nFaceIndexes;
 array DWORD faceIndexes[nFaceIndexes];
 [Material]
}

template MeshNormals {
 <F6F23F43-7686-11cf-8F52-0040333594A3>
 DWORD nNormals;
 array Vector normals[nNormals];
 DWORD nFaceNormals;
 array MeshFace faceNormals[nFaceNormals];
}

template MeshVertexColors {
 <1630B821-7842-11cf-8F52-0040333594A3>
 DWORD nVertexColors;
 array IndexedColor vertexColors[nVertexColors];
}

template Mesh {
 <3D82AB44-62DA-11cf-AB39-0020AF71E433>
 DWORD nVertices;
 array Vector vertices[nVertices];
 DWORD nFaces;
 array MeshFace faces[nFaces];
 [...]
}

Header{
1;
0;
1;
}

Mesh {
 180;
 -78.80103;238.03799;-12.43330;,
 -18.79840;238.03799;-12.43330;,
 -18.79840;-6.12060;-12.43330;,
 -78.80103;-6.12061;-12.43330;,
 -18.79840;238.03799;-12.43330;,
 -18.79840;238.03799;12.43330;,
 -18.79840;-6.12060;12.43330;,
 -18.79840;-6.12060;-12.43330;,
 -18.79840;238.03799;12.43330;,
 -78.80103;238.03799;12.43330;,
 -78.80103;-6.12061;12.43330;,
 -18.79840;-6.12060;12.43330;,
 -78.80103;238.03799;12.43330;,
 -78.80103;238.03799;-12.43330;,
 -78.80103;-6.12061;-12.43330;,
 -78.80103;-6.12061;12.43330;,
 -18.79840;238.03799;-12.43330;,
 -78.80103;238.03799;-12.43330;,
 -78.80103;-6.12061;-12.43330;,
 -18.79840;-6.12060;-12.43330;,
 -79.97508;253.10248;-19.67270;,
 -15.90410;253.10249;-19.67270;,
 -15.90410;235.73801;-19.67270;,
 -79.97508;235.73801;-19.67270;,
 -15.90410;253.10249;-19.67270;,
 -15.90410;253.10249;19.67270;,
 -15.90410;235.73801;19.67270;,
 -15.90410;235.73801;-19.67270;,
 -15.90410;253.10249;19.67270;,
 -79.97508;253.10248;19.67270;,
 -79.97508;235.73801;19.67270;,
 -15.90410;235.73801;19.67270;,
 -79.97508;253.10248;19.67270;,
 -79.97508;253.10248;-19.67270;,
 -79.97508;235.73801;-19.67270;,
 -79.97508;235.73801;19.67270;,
 -15.90410;253.10249;-19.67270;,
 -79.97508;253.10248;-19.67270;,
 -79.97508;235.73801;-19.67270;,
 -15.90410;235.73801;-19.67270;,
 3.46490;221.50529;-12.43330;,
 17.40770;221.50529;-12.43330;,
 17.40770;-5.05360;-12.43330;,
 3.46490;-5.05360;-12.43330;,
 17.40770;221.50529;-12.43330;,
 17.40770;221.50529;12.43330;,
 17.40770;-5.05360;12.43330;,
 17.40770;-5.05360;-12.43330;,
 17.40770;221.50529;12.43330;,
 3.46490;221.50529;12.43330;,
 3.46490;-5.05360;12.43330;,
 17.40770;-5.05360;12.43330;,
 3.46490;221.50529;12.43330;,
 3.46490;221.50529;-12.43330;,
 3.46490;-5.05360;-12.43330;,
 3.46490;-5.05360;12.43330;,
 17.40770;221.50529;-12.43330;,
 3.46490;221.50529;-12.43330;,
 3.46490;-5.05360;-12.43330;,
 17.40770;-5.05360;-12.43330;,
 34.39630;221.50529;-12.43330;,
 48.33910;221.50529;-12.43330;,
 48.33910;-5.05360;-12.43330;,
 34.39630;-5.05360;-12.43330;,
 48.33910;221.50529;-12.43330;,
 48.33910;221.50529;12.43330;,
 48.33910;-5.05360;12.43330;,
 48.33910;-5.05360;-12.43330;,
 48.33910;221.50529;12.43330;,
 34.39630;221.50529;12.43330;,
 34.39630;-5.05360;12.43330;,
 48.33910;-5.05360;12.43330;,
 34.39630;221.50529;12.43330;,
 34.39630;221.50529;-12.43330;,
 34.39630;-5.05360;-12.43330;,
 34.39630;-5.05360;12.43330;,
 48.33910;221.50529;-12.43330;,
 34.39630;221.50529;-12.43330;,
 34.39630;-5.05360;-12.43330;,
 48.33910;-5.05360;-12.43330;,
 67.53711;221.50529;-12.43330;,
 81.47989;221.50529;-12.43330;,
 81.47989;-5.05360;-12.43330;,
 67.53711;-5.05360;-12.43330;,
 81.47989;221.50529;-12.43330;,
 81.47989;221.50529;12.43330;,
 81.47989;-5.05360;12.43330;,
 81.47989;-5.05360;-12.43330;,
 81.47989;221.50529;12.43330;,
 67.53711;221.50529;12.43330;,
 67.53711;-5.05360;12.43330;,
 81.47989;-5.05360;12.43330;,
 67.53711;221.50529;12.43330;,
 67.53711;221.50529;-12.43330;,
 67.53711;-5.05360;-12.43330;,
 67.53711;-5.05360;12.43330;,
 81.47989;221.50529;-12.43330;,
 67.53711;221.50529;-12.43330;,
 67.53711;-5.05360;-12.43330;,
 81.47989;-5.05360;-12.43330;,
 100.67789;221.50529;-12.43330;,
 114.62070;221.50529;-12.43330;,
 114.62070;-5.05360;-12.43330;,
 100.67789;-5.05360;-12.43330;,
 114.62070;221.50529;-12.43330;,
 114.62070;221.50529;12.43330;,
 114.62070;-5.05360;12.43330;,
 114.62070;-5.05360;-12.43330;,
 114.62070;221.50529;12.43330;,
 100.67789;221.50529;12.43330;,
 100.67789;-5.05360;12.43330;,
 114.62070;-5.05360;12.43330;,
 100.67789;221.50529;12.43330;,
 100.67789;221.50529;-12.43330;,
 100.67789;-5.05360;-12.43330;,
 100.67789;-5.05360;12.43330;,
 114.62070;221.50529;-12.43330;,
 100.67789;221.50529;-12.43330;,
 100.67789;-5.05360;-12.43330;,
 114.62070;-5.05360;-12.43330;,
 -33.77901;210.55890;-12.43330;,
 138.14871;210.55890;-12.43330;,
 138.14871;194.84270;-12.43330;,
 -33.77901;194.84270;-12.43330;,
 138.14871;210.55890;-12.43330;,
 138.14871;210.55890;12.43330;,
 138.14871;194.84270;12.43330;,
 138.14871;194.84270;-12.43330;,
 138.14871;210.55890;12.43330;,
 -33.77901;210.55890;12.43330;,
 -33.77901;194.84270;12.43330;,
 138.14871;194.84270;12.43330;,
 -33.77901;210.55890;12.43330;,
 -33.77901;210.55890;-12.43330;,
 -33.77901;194.84270;-12.43330;,
 -33.77901;194.84270;12.43330;,
 138.14871;210.55890;-12.43330;,
 -33.77901;210.55890;-12.43330;,
 -33.77901;194.84270;-12.43330;,
 138.14871;194.84270;-12.43330;,
 134.44080;221.50529;-12.43330;,
 148.38361;221.50529;-12.43330;,
 148.38361;-5.05360;-12.43330;,
 134.44080;-5.05360;-12.43330;,
 148.38361;221.50529;-12.43330;,
 148.38361;221.50529;12.43330;,
 148.38361;-5.05360;12.43330;,
 148.38361;-5.05360;-12.43330;,
 148.38361;221.50529;12.43330;,
 134.44080;221.50529;12.43330;,
 134.44080;-5.05360;12.43330;,
 148.38361;-5.05360;12.43330;,
 134.44080;221.50529;12.43330;,
 134.44080;221.50529;-12.43330;,
 134.44080;-5.05360;-12.43330;,
 134.44080;-5.05360;12.43330;,
 148.38361;221.50529;-12.43330;,
 134.44080;221.50529;-12.43330;,
 134.44080;-5.05360;-12.43330;,
 148.38361;-5.05360;-12.43330;,
 -33.77901;170.85100;-5.45990;,
 138.14871;170.85100;-5.45990;,
 138.14871;155.13490;-5.45990;,
 -33.77901;155.13490;-5.45990;,
 138.14871;170.85100;-5.45990;,
 138.14871;170.85100;5.45990;,
 138.14871;155.13490;5.45990;,
 138.14871;155.13490;-5.45990;,
 138.14871;170.85100;5.45990;,
 -33.77901;170.85100;5.45990;,
 -33.77901;155.13490;5.45990;,
 138.14871;155.13490;5.45990;,
 -33.77901;170.85100;5.45990;,
 -33.77901;170.85100;-5.45990;,
 -33.77901;155.13490;-5.45990;,
 -33.77901;155.13490;5.45990;,
 138.14871;170.85100;-5.45990;,
 -33.77901;170.85100;-5.45990;,
 -33.77901;155.13490;-5.45990;,
 138.14871;155.13490;-5.45990;;
 
 54;
 4;0,1,2,3;,
 4;4,5,6,7;,
 4;8,9,10,11;,
 4;12,13,14,15;,
 4;12,5,16,17;,
 4;18,19,6,15;,
 4;20,21,22,23;,
 4;24,25,26,27;,
 4;28,29,30,31;,
 4;32,33,34,35;,
 4;32,25,36,37;,
 4;38,39,26,35;,
 4;40,41,42,43;,
 4;44,45,46,47;,
 4;48,49,50,51;,
 4;52,53,54,55;,
 4;52,45,56,57;,
 4;58,59,46,55;,
 4;60,61,62,63;,
 4;64,65,66,67;,
 4;68,69,70,71;,
 4;72,73,74,75;,
 4;72,65,76,77;,
 4;78,79,66,75;,
 4;80,81,82,83;,
 4;84,85,86,87;,
 4;88,89,90,91;,
 4;92,93,94,95;,
 4;92,85,96,97;,
 4;98,99,86,95;,
 4;100,101,102,103;,
 4;104,105,106,107;,
 4;108,109,110,111;,
 4;112,113,114,115;,
 4;112,105,116,117;,
 4;118,119,106,115;,
 4;120,121,122,123;,
 4;124,125,126,127;,
 4;128,129,130,131;,
 4;132,133,134,135;,
 4;132,125,136,137;,
 4;138,139,126,135;,
 4;140,141,142,143;,
 4;144,145,146,147;,
 4;148,149,150,151;,
 4;152,153,154,155;,
 4;152,145,156,157;,
 4;158,159,146,155;,
 4;160,161,162,163;,
 4;164,165,166,167;,
 4;168,169,170,171;,
 4;172,173,174,175;,
 4;172,165,176,177;,
 4;178,179,166,175;;
 
 MeshMaterialList {
  2;
  54;
  0,
  0,
  0,
  0,
  0,
  0,
  1,
  1,
  1,
  1,
  1,
  1,
  0,
  0,
  0,
  0,
  0,
  0,
  0,
  0,
  0,
  0,
  0,
  0,
  0,
  0,
  0,
  0,
  0,
  0,
  0,
  0,
  0,
  0,
  0,
  0,
  0,
  0,
  0,
  0,
  0,
  0,
  0,
  0,
  0,
  0,
  0,
  0,
  0,
  0,
  0,
  0,
  0,
  0;;
  Material {
   0.380000;0.210400;0.197600;1.000000;;
   0.000000;
   0.000000;0.000000;0.000000;;
   0.000000;0.000000;0.000000;;
  }
  Material {
   0.536800;0.536800;0.536800;1.000000;;
   5.000000;
   0.000000;0.000000;0.000000;;
   0.000000;0.000000;0.000000;;
  }
 }
 MeshNormals {
  8;
  0.000000;0.000000;-1.000000;,
  1.000000;0.000000;0.000000;,
  0.000000;0.000000;1.000000;,
  -1.000000;0.000000;0.000000;,
  0.000000;1.000000;0.000000;,
  0.000000;-1.000000;-0.000000;,
  -0.000000;1.000000;0.000000;,
  0.000000;-1.000000;-0.000000;;
  54;
  4;0,0,0,0;,
  4;1,1,1,1;,
  4;2,2,2,2;,
  4;3,3,3,3;,
  4;4,4,4,4;,
  4;5,5,5,5;,
  4;0,0,0,0;,
  4;1,1,1,1;,
  4;2,2,2,2;,
  4;3,3,3,3;,
  4;6,6,6,6;,
  4;7,7,7,7;,
  4;0,0,0,0;,
  4;1,1,1,1;,
  4;2,2,2,2;,
  4;3,3,3,3;,
  4;4,4,4,4;,
  4;7,7,7,7;,
  4;0,0,0,0;,
  4;1,1,1,1;,
  4;2,2,2,2;,
  4;3,3,3,3;,
  4;4,4,4,4;,
  4;7,7,7,7;,
  4;0,0,0,0;,
  4;1,1,1,1;,
  4;2,2,2,2;,
  4;3,3,3,3;,
  4;4,4,4,4;,
  4;7,7,7,7;,
  4;0,0,0,0;,
  4;1,1,1,1;,
  4;2,2,2,2;,
  4;3,3,3,3;,
  4;4,4,4,4;,
  4;7,7,7,7;,
  4;0,0,0,0;,
  4;1,1,1,1;,
  4;2,2,2,2;,
  4;3,3,3,3;,
  4;4,4,4,4;,
  4;7,7,7,7;,
  4;0,0,0,0;,
  4;1,1,1,1;,
  4;2,2,2,2;,
  4;3,3,3,3;,
  4;4,4,4,4;,
  4;7,7,7,7;,
  4;0,0,0,0;,
  4;1,1,1,1;,
  4;2,2,2,2;,
  4;3,3,3,3;,
  4;4,4,4,4;,
  4;7,7,7,7;;
 }
 MeshTextureCoords {
  180;
  0.000000;0.000000;,
  1.000000;0.000000;,
  1.000000;1.000000;,
  0.000000;1.000000;,
  0.000000;0.000000;,
  1.000000;0.000000;,
  1.000000;1.000000;,
  0.000000;1.000000;,
  0.000000;0.000000;,
  1.000000;0.000000;,
  1.000000;1.000000;,
  0.000000;1.000000;,
  0.000000;0.000000;,
  1.000000;0.000000;,
  1.000000;1.000000;,
  0.000000;1.000000;,
  1.000000;1.000000;,
  0.000000;1.000000;,
  0.000000;0.000000;,
  1.000000;0.000000;,
  0.000000;0.000000;,
  1.000000;0.000000;,
  1.000000;1.000000;,
  0.000000;1.000000;,
  0.000000;0.000000;,
  1.000000;0.000000;,
  1.000000;1.000000;,
  0.000000;1.000000;,
  0.000000;0.000000;,
  1.000000;0.000000;,
  1.000000;1.000000;,
  0.000000;1.000000;,
  0.000000;0.000000;,
  1.000000;0.000000;,
  1.000000;1.000000;,
  0.000000;1.000000;,
  1.000000;1.000000;,
  0.000000;1.000000;,
  0.000000;0.000000;,
  1.000000;0.000000;,
  0.000000;0.000000;,
  1.000000;0.000000;,
  1.000000;1.000000;,
  0.000000;1.000000;,
  0.000000;0.000000;,
  1.000000;0.000000;,
  1.000000;1.000000;,
  0.000000;1.000000;,
  0.000000;0.000000;,
  1.000000;0.000000;,
  1.000000;1.000000;,
  0.000000;1.000000;,
  0.000000;0.000000;,
  1.000000;0.000000;,
  1.000000;1.000000;,
  0.000000;1.000000;,
  1.000000;1.000000;,
  0.000000;1.000000;,
  0.000000;0.000000;,
  1.000000;0.000000;,
  0.000000;0.000000;,
  1.000000;0.000000;,
  1.000000;1.000000;,
  0.000000;1.000000;,
  0.000000;0.000000;,
  1.000000;0.000000;,
  1.000000;1.000000;,
  0.000000;1.000000;,
  0.000000;0.000000;,
  1.000000;0.000000;,
  1.000000;1.000000;,
  0.000000;1.000000;,
  0.000000;0.000000;,
  1.000000;0.000000;,
  1.000000;1.000000;,
  0.000000;1.000000;,
  1.000000;1.000000;,
  0.000000;1.000000;,
  0.000000;0.000000;,
  1.000000;0.000000;,
  0.000000;0.000000;,
  1.000000;0.000000;,
  1.000000;1.000000;,
  0.000000;1.000000;,
  0.000000;0.000000;,
  1.000000;0.000000;,
  1.000000;1.000000;,
  0.000000;1.000000;,
  0.000000;0.000000;,
  1.000000;0.000000;,
  1.000000;1.000000;,
  0.000000;1.000000;,
  0.000000;0.000000;,
  1.000000;0.000000;,
  1.000000;1.000000;,
  0.000000;1.000000;,
  1.000000;1.000000;,
  0.000000;1.000000;,
  0.000000;0.000000;,
  1.000000;0.000000;,
  0.000000;0.000000;,
  1.000000;0.000000;,
  1.000000;1.000000;,
  0.000000;1.000000;,
  0.000000;0.000000;,
  1.000000;0.000000;,
  1.000000;1.000000;,
  0.000000;1.000000;,
  0.000000;0.000000;,
  1.000000;0.000000;,
  1.000000;1.000000;,
  0.000000;1.000000;,
  0.000000;0.000000;,
  1.000000;0.000000;,
  1.000000;1.000000;,
  0.000000;1.000000;,
  1.000000;1.000000;,
  0.000000;1.000000;,
  0.000000;0.000000;,
  1.000000;0.000000;,
  0.000000;0.000000;,
  1.000000;0.000000;,
  1.000000;1.000000;,
  0.000000;1.000000;,
  0.000000;0.000000;,
  1.000000;0.000000;,
  1.000000;1.000000;,
  0.000000;1.000000;,
  0.000000;0.000000;,
  1.000000;0.000000;,
  1.000000;1.000000;,
  0.000000;1.000000;,
  0.000000;0.000000;,
  1.000000;0.000000;,
  1.000000;1.000000;,
  0.000000;1.000000;,
  1.000000;1.000000;,
  0.000000;1.000000;,
  0.000000;0.000000;,
  1.000000;0.000000;,
  0.000000;0.000000;,
  1.000000;0.000000;,
  1.000000;1.000000;,
  0.000000;1.000000;,
  0.000000;0.000000;,
  1.000000;0.000000;,
  1.000000;1.000000;,
  0.000000;1.000000;,
  0.000000;0.000000;,
  1.000000;0.000000;,
  1.000000;1.000000;,
  0.000000;1.000000;,
  0.000000;0.000000;,
  1.000000;0.000000;,
  1.000000;1.000000;,
  0.000000;1.000000;,
  1.000000;1.000000;,
  0.000000;1.000000;,
  0.000000;0.000000;,
  1.000000;0.000000;,
  0.000000;0.000000;,
  1.000000;0.000000;,
  1.000000;1.000000;,
  0.000000;1.000000;,
  0.000000;0.000000;,
  1.000000;0.000000;,
  1.000000;1.000000;,
  0.000000;1.000000;,
  0.000000;0.000000;,
  1.000000;0.000000;,
  1.000000;1.000000;,
  0.000000;1.000000;,
  0.000000;0.000000;,
  1.000000;0.000000;,
  1.000000;1.000000;,
  0.000000;1.000000;,
  1.000000;1.000000;,
  0.000000;1.000000;,
  0.000000;0.000000;,
  1.000000;0.000000;;
 }
}
