xof 0302txt 0064
template Header {
 <3D82AB43-62DA-11cf-AB39-0020AF71E433>
 WORD major;
 WORD minor;
 DWORD flags;
}

template Vector {
 <3D82AB5E-62DA-11cf-AB39-0020AF71E433>
 FLOAT x;
 FLOAT y;
 FLOAT z;
}

template Coords2d {
 <F6F23F44-7686-11cf-8F52-0040333594A3>
 FLOAT u;
 FLOAT v;
}

template Matrix4x4 {
 <F6F23F45-7686-11cf-8F52-0040333594A3>
 array FLOAT matrix[16];
}

template ColorRGBA {
 <35FF44E0-6C7C-11cf-8F52-0040333594A3>
 FLOAT red;
 FLOAT green;
 FLOAT blue;
 FLOAT alpha;
}

template ColorRGB {
 <D3E16E81-7835-11cf-8F52-0040333594A3>
 FLOAT red;
 FLOAT green;
 FLOAT blue;
}

template IndexedColor {
 <1630B820-7842-11cf-8F52-0040333594A3>
 DWORD index;
 ColorRGBA indexColor;
}

template Boolean {
 <4885AE61-78E8-11cf-8F52-0040333594A3>
 WORD truefalse;
}

template Boolean2d {
 <4885AE63-78E8-11cf-8F52-0040333594A3>
 Boolean u;
 Boolean v;
}

template MaterialWrap {
 <4885AE60-78E8-11cf-8F52-0040333594A3>
 Boolean u;
 Boolean v;
}

template TextureFilename {
 <A42790E1-7810-11cf-8F52-0040333594A3>
 STRING filename;
}

template Material {
 <3D82AB4D-62DA-11cf-AB39-0020AF71E433>
 ColorRGBA faceColor;
 FLOAT power;
 ColorRGB specularColor;
 ColorRGB emissiveColor;
 [...]
}

template MeshFace {
 <3D82AB5F-62DA-11cf-AB39-0020AF71E433>
 DWORD nFaceVertexIndices;
 array DWORD faceVertexIndices[nFaceVertexIndices];
}

template MeshFaceWraps {
 <4885AE62-78E8-11cf-8F52-0040333594A3>
 DWORD nFaceWrapValues;
 Boolean2d faceWrapValues;
}

template MeshTextureCoords {
 <F6F23F40-7686-11cf-8F52-0040333594A3>
 DWORD nTextureCoords;
 array Coords2d textureCoords[nTextureCoords];
}

template MeshMaterialList {
 <F6F23F42-7686-11cf-8F52-0040333594A3>
 DWORD nMaterials;
 DWORD nFaceIndexes;
 array DWORD faceIndexes[nFaceIndexes];
 [Material]
}

template MeshNormals {
 <F6F23F43-7686-11cf-8F52-0040333594A3>
 DWORD nNormals;
 array Vector normals[nNormals];
 DWORD nFaceNormals;
 array MeshFace faceNormals[nFaceNormals];
}

template MeshVertexColors {
 <1630B821-7842-11cf-8F52-0040333594A3>
 DWORD nVertexColors;
 array IndexedColor vertexColors[nVertexColors];
}

template Mesh {
 <3D82AB44-62DA-11cf-AB39-0020AF71E433>
 DWORD nVertices;
 array Vector vertices[nVertices];
 DWORD nFaces;
 array MeshFace faces[nFaces];
 [...]
}

Header{
1;
0;
1;
}

Mesh {
 88;
 -118.22742;277.28400;-35.00000;,
 -48.22742;277.28400;-35.00000;,
 -48.22742;-0.50000;-35.00000;,
 -118.22742;-0.50000;-35.00000;,
 -48.22742;277.28400;-35.00000;,
 -48.22742;277.28400;35.00000;,
 -48.22742;-0.50000;35.00000;,
 -48.22742;-0.50000;-35.00000;,
 -48.22742;277.28400;35.00000;,
 -118.22742;277.28400;35.00000;,
 -118.22742;-0.50000;35.00000;,
 -48.22742;-0.50000;35.00000;,
 -118.22742;277.28400;35.00000;,
 -118.22742;277.28400;-35.00000;,
 -118.22742;-0.50000;-35.00000;,
 -118.22742;-0.50000;35.00000;,
 -48.22742;277.28400;-35.00000;,
 -118.22742;277.28400;-35.00000;,
 -118.22742;-0.50000;-35.00000;,
 -48.22742;-0.50000;-35.00000;,
 151.75790;358.73120;0.00260;,
 -124.36572;358.73120;0.00260;,
 -136.86572;313.94919;30.67240;,
 151.88971;313.94919;30.67240;,
 -149.36572;276.76639;74.89850;,
 151.14359;276.76639;74.89850;,
 -124.36572;358.73120;0.00260;,
 -124.36572;358.73120;-0.00260;,
 -136.86572;313.94919;-30.67240;,
 -136.86572;313.94919;30.67240;,
 -149.36572;276.76639;-74.89850;,
 -149.36572;276.76639;74.89850;,
 -124.36572;358.73120;-0.00260;,
 151.75790;358.73120;-0.00260;,
 151.88971;313.94919;-30.67240;,
 -136.86572;313.94919;-30.67240;,
 151.14359;276.76639;-74.89850;,
 -149.36572;276.76639;-74.89850;,
 151.75790;358.73120;-0.00260;,
 151.75790;358.73120;0.00260;,
 151.88971;313.94919;30.67240;,
 151.88971;313.94919;-30.67240;,
 151.14359;276.76639;74.89850;,
 151.14359;276.76639;-74.89850;,
 -124.36572;358.73120;0.00260;,
 151.75790;358.73120;0.00260;,
 151.14359;276.76639;74.89850;,
 -149.36572;276.76639;74.89850;,
 80.00000;277.28400;-35.00000;,
 150.00000;277.28400;-35.00000;,
 150.00000;-0.50000;-35.00000;,
 80.00000;-0.50000;-35.00000;,
 150.00000;277.28400;-35.00000;,
 150.00000;277.28400;35.00000;,
 150.00000;-0.50000;35.00000;,
 150.00000;-0.50000;-35.00000;,
 150.00000;277.28400;35.00000;,
 80.00000;277.28400;35.00000;,
 80.00000;-0.50000;35.00000;,
 150.00000;-0.50000;35.00000;,
 80.00000;277.28400;35.00000;,
 80.00000;277.28400;-35.00000;,
 80.00000;-0.50000;-35.00000;,
 80.00000;-0.50000;35.00000;,
 150.00000;277.28400;-35.00000;,
 80.00000;277.28400;-35.00000;,
 80.00000;-0.50000;-35.00000;,
 150.00000;-0.50000;-35.00000;,
 -46.76459;277.28400;-24.50000;,
 81.71658;277.28400;-24.50000;,
 81.71658;-0.50000;-24.50000;,
 -46.76459;-0.50000;-24.50000;,
 81.71658;277.28400;-24.50000;,
 81.71658;277.28400;24.50000;,
 81.71658;-0.50000;24.50000;,
 81.71658;-0.50000;-24.50000;,
 81.71658;277.28400;24.50000;,
 -46.76459;277.28400;24.50000;,
 -46.76459;-0.50000;24.50000;,
 81.71658;-0.50000;24.50000;,
 -46.76459;277.28400;24.50000;,
 -46.76459;277.28400;-24.50000;,
 -46.76459;-0.50000;-24.50000;,
 -46.76459;-0.50000;24.50000;,
 81.71658;277.28400;-24.50000;,
 -46.76459;277.28400;-24.50000;,
 -46.76459;-0.50000;-24.50000;,
 81.71658;-0.50000;-24.50000;;
 
 28;
 4;0,1,2,3;,
 4;4,5,6,7;,
 4;8,9,10,11;,
 4;12,13,14,15;,
 4;12,5,16,17;,
 4;18,19,6,15;,
 4;20,21,22,23;,
 4;23,22,24,25;,
 4;26,27,28,29;,
 4;29,28,30,31;,
 4;32,33,34,35;,
 4;35,34,36,37;,
 4;38,39,40,41;,
 4;41,40,42,43;,
 4;38,27,44,45;,
 4;46,47,30,43;,
 4;48,49,50,51;,
 4;52,53,54,55;,
 4;56,57,58,59;,
 4;60,61,62,63;,
 4;60,53,64,65;,
 4;66,67,54,63;,
 4;68,69,70,71;,
 4;72,73,74,75;,
 4;76,77,78,79;,
 4;80,81,82,83;,
 4;80,73,84,85;,
 4;86,87,74,83;;
 
 MeshMaterialList {
  8;
  28;
  3,
  3,
  3,
  3,
  3,
  3,
  4,
  4,
  4,
  4,
  4,
  4,
  4,
  4,
  4,
  4,
  3,
  3,
  3,
  3,
  3,
  3,
  6,
  0,
  5,
  3,
  0,
  3;;
  Material {
   0.800000;0.800000;0.800000;1.000000;;
   5.000000;
   0.000000;0.000000;0.000000;;
   0.000000;0.000000;0.000000;;
  }
  Material {
   0.800000;0.800000;0.800000;1.000000;;
   5.000000;
   0.000000;0.000000;0.000000;;
   0.000000;0.000000;0.000000;;
   TextureFilename {
    "data/TEXTURE/yakuinmon_parts/mon_migi.jpg";
   }
  }
  Material {
   0.800000;0.800000;0.800000;1.000000;;
   5.000000;
   0.000000;0.000000;0.000000;;
   0.000000;0.000000;0.000000;;
   TextureFilename {
    "data/TEXTURE/yakuinmon_parts/mon_hidari.jpg";
   }
  }
  Material {
   0.507870;0.466560;0.336960;1.000000;;
   2.000000;
   0.130000;0.130000;0.130000;;
   0.000000;0.000000;0.000000;;
  }
  Material {
   0.800000;0.800000;0.800000;1.000000;;
   5.000000;
   0.000000;0.000000;0.000000;;
   0.000000;0.000000;0.000000;;
   TextureFilename {
    "data/TEXTURE/yakuinmon_parts/kawara.jpg";
   }
  }
  Material {
   0.800000;0.800000;0.800000;1.000000;;
   5.000000;
   0.000000;0.000000;0.000000;;
   0.000000;0.000000;0.000000;;
   TextureFilename {
    "data/TEXTURE/yakuinmon_parts/tobira_migi.jpg";
   }
  }
  Material {
   0.800000;0.800000;0.800000;1.000000;;
   5.000000;
   0.000000;0.000000;0.000000;;
   0.000000;0.000000;0.000000;;
   TextureFilename {
    "data/TEXTURE/yakuinmon_parts/tobira_hidari.jpg";
   }
  }
  Material {
   1.000000;1.000000;1.000000;1.000000;;
   0.000000;
   0.000000;0.000000;0.000000;;
   0.000000;0.000000;0.000000;;
  }
 }
 MeshNormals {
  18;
  0.000000;0.000000;-1.000000;,
  1.000000;0.000000;0.000000;,
  0.000000;0.000000;1.000000;,
  0.000000;0.884606;0.466340;,
  0.000000;0.671402;0.741093;,
  0.000000;0.765425;0.643526;,
  -0.963181;0.268853;0.000000;,
  -0.955851;0.293852;0.000000;,
  -0.947872;0.318653;0.000000;,
  0.000000;0.884606;-0.466340;,
  0.000000;0.671402;-0.741093;,
  0.000000;0.765425;-0.643526;,
  -1.000000;0.000000;0.000000;,
  0.000000;1.000000;0.000000;,
  0.000000;-1.000000;-0.000000;,
  0.999996;0.002943;0.000000;,
  0.999963;-0.008560;-0.000000;,
  0.999799;-0.020062;-0.000000;;
  28;
  4;0,0,0,0;,
  4;1,1,1,1;,
  4;2,2,2,2;,
  4;12,12,12,12;,
  4;13,13,13,13;,
  4;14,14,14,14;,
  4;3,3,4,4;,
  4;4,4,5,5;,
  4;6,6,7,7;,
  4;7,7,8,8;,
  4;9,9,10,10;,
  4;10,10,11,11;,
  4;15,15,16,16;,
  4;16,16,17,17;,
  4;9,9,3,3;,
  4;14,14,14,14;,
  4;0,0,0,0;,
  4;1,1,1,1;,
  4;2,2,2,2;,
  4;12,12,12,12;,
  4;13,13,13,13;,
  4;14,14,14,14;,
  4;0,0,0,0;,
  4;1,1,1,1;,
  4;2,2,2,2;,
  4;12,12,12,12;,
  4;13,13,13,13;,
  4;14,14,14,14;;
 }
 MeshTextureCoords {
  88;
  0.000000;0.000000;,
  1.000000;0.000000;,
  1.000000;1.000000;,
  0.000000;1.000000;,
  0.000000;0.000000;,
  1.000000;0.000000;,
  1.000000;1.000000;,
  0.000000;1.000000;,
  0.000000;0.000000;,
  1.000000;0.000000;,
  1.000000;1.000000;,
  0.000000;1.000000;,
  0.000000;0.000000;,
  1.000000;0.000000;,
  1.000000;1.000000;,
  0.000000;1.000000;,
  1.000000;1.000000;,
  0.000000;1.000000;,
  0.000000;0.000000;,
  1.000000;0.000000;,
  0.000000;0.000000;,
  1.000000;0.000000;,
  1.000000;0.500000;,
  0.000000;0.500000;,
  1.000000;1.000000;,
  0.000000;1.000000;,
  0.000000;0.000000;,
  1.000000;0.000000;,
  1.000000;0.500000;,
  0.000000;0.500000;,
  1.000000;1.000000;,
  0.000000;1.000000;,
  0.000000;0.000000;,
  1.000000;0.000000;,
  1.000000;0.500000;,
  0.000000;0.500000;,
  1.000000;1.000000;,
  0.000000;1.000000;,
  0.000000;0.000000;,
  1.000000;0.000000;,
  1.000000;0.500000;,
  0.000000;0.500000;,
  1.000000;1.000000;,
  0.000000;1.000000;,
  1.000000;1.000000;,
  0.000000;1.000000;,
  0.000000;0.000000;,
  1.000000;0.000000;,
  0.000000;0.000000;,
  1.000000;0.000000;,
  1.000000;1.000000;,
  0.000000;1.000000;,
  0.000000;0.000000;,
  1.000000;0.000000;,
  1.000000;1.000000;,
  0.000000;1.000000;,
  0.000000;0.000000;,
  1.000000;0.000000;,
  1.000000;1.000000;,
  0.000000;1.000000;,
  0.000000;0.000000;,
  1.000000;0.000000;,
  1.000000;1.000000;,
  0.000000;1.000000;,
  1.000000;1.000000;,
  0.000000;1.000000;,
  0.000000;0.000000;,
  1.000000;0.000000;,
  0.000000;0.000000;,
  1.000000;0.000000;,
  1.000000;1.000000;,
  0.000000;1.000000;,
  0.000000;0.000000;,
  1.000000;0.000000;,
  1.000000;1.000000;,
  0.000000;1.000000;,
  0.000000;0.000000;,
  1.000000;0.000000;,
  1.000000;1.000000;,
  0.000000;1.000000;,
  0.000000;0.000000;,
  1.000000;0.000000;,
  1.000000;1.000000;,
  0.000000;1.000000;,
  1.000000;1.000000;,
  0.000000;1.000000;,
  0.000000;0.000000;,
  1.000000;0.000000;;
 }
}
