xof 0302txt 0064
template Header {
 <3D82AB43-62DA-11cf-AB39-0020AF71E433>
 WORD major;
 WORD minor;
 DWORD flags;
}

template Vector {
 <3D82AB5E-62DA-11cf-AB39-0020AF71E433>
 FLOAT x;
 FLOAT y;
 FLOAT z;
}

template Coords2d {
 <F6F23F44-7686-11cf-8F52-0040333594A3>
 FLOAT u;
 FLOAT v;
}

template Matrix4x4 {
 <F6F23F45-7686-11cf-8F52-0040333594A3>
 array FLOAT matrix[16];
}

template ColorRGBA {
 <35FF44E0-6C7C-11cf-8F52-0040333594A3>
 FLOAT red;
 FLOAT green;
 FLOAT blue;
 FLOAT alpha;
}

template ColorRGB {
 <D3E16E81-7835-11cf-8F52-0040333594A3>
 FLOAT red;
 FLOAT green;
 FLOAT blue;
}

template IndexedColor {
 <1630B820-7842-11cf-8F52-0040333594A3>
 DWORD index;
 ColorRGBA indexColor;
}

template Boolean {
 <4885AE61-78E8-11cf-8F52-0040333594A3>
 WORD truefalse;
}

template Boolean2d {
 <4885AE63-78E8-11cf-8F52-0040333594A3>
 Boolean u;
 Boolean v;
}

template MaterialWrap {
 <4885AE60-78E8-11cf-8F52-0040333594A3>
 Boolean u;
 Boolean v;
}

template TextureFilename {
 <A42790E1-7810-11cf-8F52-0040333594A3>
 STRING filename;
}

template Material {
 <3D82AB4D-62DA-11cf-AB39-0020AF71E433>
 ColorRGBA faceColor;
 FLOAT power;
 ColorRGB specularColor;
 ColorRGB emissiveColor;
 [...]
}

template MeshFace {
 <3D82AB5F-62DA-11cf-AB39-0020AF71E433>
 DWORD nFaceVertexIndices;
 array DWORD faceVertexIndices[nFaceVertexIndices];
}

template MeshFaceWraps {
 <4885AE62-78E8-11cf-8F52-0040333594A3>
 DWORD nFaceWrapValues;
 Boolean2d faceWrapValues;
}

template MeshTextureCoords {
 <F6F23F40-7686-11cf-8F52-0040333594A3>
 DWORD nTextureCoords;
 array Coords2d textureCoords[nTextureCoords];
}

template MeshMaterialList {
 <F6F23F42-7686-11cf-8F52-0040333594A3>
 DWORD nMaterials;
 DWORD nFaceIndexes;
 array DWORD faceIndexes[nFaceIndexes];
 [Material]
}

template MeshNormals {
 <F6F23F43-7686-11cf-8F52-0040333594A3>
 DWORD nNormals;
 array Vector normals[nNormals];
 DWORD nFaceNormals;
 array MeshFace faceNormals[nFaceNormals];
}

template MeshVertexColors {
 <1630B821-7842-11cf-8F52-0040333594A3>
 DWORD nVertexColors;
 array IndexedColor vertexColors[nVertexColors];
}

template Mesh {
 <3D82AB44-62DA-11cf-AB39-0020AF71E433>
 DWORD nVertices;
 array Vector vertices[nVertices];
 DWORD nFaces;
 array MeshFace faces[nFaces];
 [...]
}

Header{
1;
0;
1;
}

Mesh {
 52;
 151.75790;85.75165;0.00260;,
 -124.36572;85.75165;0.00260;,
 -136.86572;40.96964;30.67240;,
 151.88971;40.96964;30.67240;,
 -149.36572;3.78683;74.89850;,
 151.14359;3.78683;74.89850;,
 -124.36572;85.75165;0.00260;,
 -124.36572;85.75165;-0.00260;,
 -136.86572;40.96964;-30.67240;,
 -136.86572;40.96964;30.67240;,
 -149.36572;3.78683;-74.89850;,
 -149.36572;3.78683;74.89850;,
 -124.36572;85.75165;-0.00260;,
 151.75790;85.75165;-0.00260;,
 151.88971;40.96964;-30.67240;,
 -136.86572;40.96964;-30.67240;,
 151.14359;3.78683;-74.89850;,
 -149.36572;3.78683;-74.89850;,
 151.75790;85.75165;-0.00260;,
 151.75790;85.75165;0.00260;,
 151.88971;40.96964;30.67240;,
 151.88971;40.96964;-30.67240;,
 151.14359;3.78683;74.89850;,
 151.14359;3.78683;-74.89850;,
 151.14359;3.78683;74.89850;,
 -149.36572;3.78683;74.89850;,
 -123.91929;85.46045;-0.00260;,
 152.20425;85.46045;-0.00260;,
 164.70432;40.67844;-30.67240;,
 -124.05109;40.67844;-30.67240;,
 177.20432;3.49564;-74.89850;,
 -123.30508;3.49564;-74.89850;,
 152.20425;85.46045;-0.00260;,
 152.20425;85.46045;0.00260;,
 164.70432;40.67844;30.67240;,
 164.70432;40.67844;-30.67240;,
 177.20432;3.49564;74.89850;,
 177.20432;3.49564;-74.89850;,
 152.20425;85.46045;0.00260;,
 -123.91929;85.46045;0.00260;,
 -124.05109;40.67844;30.67240;,
 164.70432;40.67844;30.67240;,
 -123.30508;3.49564;74.89850;,
 177.20432;3.49564;74.89850;,
 -123.91929;85.46045;0.00260;,
 -123.91929;85.46045;-0.00260;,
 -124.05109;40.67844;-30.67240;,
 -124.05109;40.67844;30.67240;,
 -123.30508;3.49564;-74.89850;,
 -123.30508;3.49564;74.89850;,
 -123.30508;3.49564;-74.89850;,
 177.20432;3.49564;-74.89850;;
 
 18;
 4;0,1,2,3;,
 4;3,2,4,5;,
 4;6,7,8,9;,
 4;9,8,10,11;,
 4;12,13,14,15;,
 4;15,14,16,17;,
 4;18,19,20,21;,
 4;21,20,22,23;,
 4;24,25,10,23;,
 4;26,27,28,29;,
 4;29,28,30,31;,
 4;32,33,34,35;,
 4;35,34,36,37;,
 4;38,39,40,41;,
 4;41,40,42,43;,
 4;44,45,46,47;,
 4;47,46,48,49;,
 4;50,51,36,49;;
 
 MeshMaterialList {
  8;
  18;
  4,
  4,
  4,
  4,
  4,
  4,
  4,
  4,
  4,
  4,
  4,
  4,
  4,
  4,
  4,
  4,
  4,
  4;;
  Material {
   0.800000;0.800000;0.800000;1.000000;;
   5.000000;
   0.000000;0.000000;0.000000;;
   0.000000;0.000000;0.000000;;
  }
  Material {
   0.800000;0.800000;0.800000;1.000000;;
   5.000000;
   0.000000;0.000000;0.000000;;
   0.000000;0.000000;0.000000;;
   TextureFilename {
    "data/TEXTURE/yakuinmon_parts/mon_migi.jpg";
   }
  }
  Material {
   0.800000;0.800000;0.800000;1.000000;;
   5.000000;
   0.000000;0.000000;0.000000;;
   0.000000;0.000000;0.000000;;
   TextureFilename {
    "data/TEXTURE/yakuinmon_parts/mon_hidari.jpg";
   }
  }
  Material {
   0.507870;0.466560;0.336960;1.000000;;
   2.000000;
   0.130000;0.130000;0.130000;;
   0.000000;0.000000;0.000000;;
  }
  Material {
   0.800000;0.800000;0.800000;1.000000;;
   5.000000;
   0.000000;0.000000;0.000000;;
   0.000000;0.000000;0.000000;;
   TextureFilename {
    "data/TEXTURE/yakuinmon_parts/kawara.jpg";
   }
  }
  Material {
   0.800000;0.800000;0.800000;1.000000;;
   5.000000;
   0.000000;0.000000;0.000000;;
   0.000000;0.000000;0.000000;;
   TextureFilename {
    "data/TEXTURE/yakuinmon_parts/tobira_migi.jpg";
   }
  }
  Material {
   0.800000;0.800000;0.800000;1.000000;;
   5.000000;
   0.000000;0.000000;0.000000;;
   0.000000;0.000000;0.000000;;
   TextureFilename {
    "data/TEXTURE/yakuinmon_parts/tobira_hidari.jpg";
   }
  }
  Material {
   1.000000;1.000000;1.000000;1.000000;;
   0.000000;
   0.000000;0.000000;0.000000;;
   0.000000;0.000000;0.000000;;
  }
 }
 MeshNormals {
  26;
  0.000000;0.565054;0.825054;,
  0.000000;0.671402;0.741093;,
  0.000000;0.765425;0.643526;,
  -0.963181;0.268853;0.000000;,
  -0.955851;0.293852;0.000000;,
  -0.947872;0.318653;0.000000;,
  0.000000;0.565054;-0.825054;,
  0.000000;0.671402;-0.741093;,
  0.000000;0.765425;-0.643526;,
  0.999996;0.002943;0.000000;,
  0.999963;-0.008560;-0.000000;,
  0.999799;-0.020062;-0.000000;,
  0.000000;-1.000000;0.000000;,
  0.000000;0.565054;-0.825054;,
  0.000000;0.671402;-0.741093;,
  0.000000;0.765425;-0.643526;,
  0.963181;0.268854;0.000000;,
  0.955851;0.293853;0.000000;,
  0.947872;0.318653;0.000000;,
  0.000000;0.565054;0.825054;,
  0.000000;0.671402;0.741093;,
  0.000000;0.765425;0.643526;,
  -0.999996;0.002943;0.000000;,
  -0.999963;-0.008559;0.000000;,
  -0.999799;-0.020059;0.000000;,
  0.000000;-1.000000;-0.000000;;
  18;
  4;0,0,1,1;,
  4;1,1,2,2;,
  4;3,3,4,4;,
  4;4,4,5,5;,
  4;6,6,7,7;,
  4;7,7,8,8;,
  4;9,9,10,10;,
  4;10,10,11,11;,
  4;12,12,12,12;,
  4;13,13,14,14;,
  4;14,14,15,15;,
  4;16,16,17,17;,
  4;17,17,18,18;,
  4;19,19,20,20;,
  4;20,20,21,21;,
  4;22,22,23,23;,
  4;23,23,24,24;,
  4;25,25,25,25;;
 }
 MeshTextureCoords {
  52;
  0.000000;0.000000;,
  1.000000;0.000000;,
  1.000000;0.500000;,
  0.000000;0.500000;,
  1.000000;1.000000;,
  0.000000;1.000000;,
  0.000000;0.000000;,
  1.000000;0.000000;,
  1.000000;0.500000;,
  0.000000;0.500000;,
  1.000000;1.000000;,
  0.000000;1.000000;,
  0.000000;0.000000;,
  1.000000;0.000000;,
  1.000000;0.500000;,
  0.000000;0.500000;,
  1.000000;1.000000;,
  0.000000;1.000000;,
  0.000000;0.000000;,
  1.000000;0.000000;,
  1.000000;0.500000;,
  0.000000;0.500000;,
  1.000000;1.000000;,
  0.000000;1.000000;,
  0.000000;0.000000;,
  1.000000;0.000000;,
  0.000000;0.000000;,
  1.000000;0.000000;,
  1.000000;0.500000;,
  0.000000;0.500000;,
  1.000000;1.000000;,
  0.000000;1.000000;,
  0.000000;0.000000;,
  1.000000;0.000000;,
  1.000000;0.500000;,
  0.000000;0.500000;,
  1.000000;1.000000;,
  0.000000;1.000000;,
  0.000000;0.000000;,
  1.000000;0.000000;,
  1.000000;0.500000;,
  0.000000;0.500000;,
  1.000000;1.000000;,
  0.000000;1.000000;,
  0.000000;0.000000;,
  1.000000;0.000000;,
  1.000000;0.500000;,
  0.000000;0.500000;,
  1.000000;1.000000;,
  0.000000;1.000000;,
  0.000000;0.000000;,
  1.000000;0.000000;;
 }
}
