xof 0302txt 0064
template Header {
 <3D82AB43-62DA-11cf-AB39-0020AF71E433>
 WORD major;
 WORD minor;
 DWORD flags;
}

template Vector {
 <3D82AB5E-62DA-11cf-AB39-0020AF71E433>
 FLOAT x;
 FLOAT y;
 FLOAT z;
}

template Coords2d {
 <F6F23F44-7686-11cf-8F52-0040333594A3>
 FLOAT u;
 FLOAT v;
}

template Matrix4x4 {
 <F6F23F45-7686-11cf-8F52-0040333594A3>
 array FLOAT matrix[16];
}

template ColorRGBA {
 <35FF44E0-6C7C-11cf-8F52-0040333594A3>
 FLOAT red;
 FLOAT green;
 FLOAT blue;
 FLOAT alpha;
}

template ColorRGB {
 <D3E16E81-7835-11cf-8F52-0040333594A3>
 FLOAT red;
 FLOAT green;
 FLOAT blue;
}

template IndexedColor {
 <1630B820-7842-11cf-8F52-0040333594A3>
 DWORD index;
 ColorRGBA indexColor;
}

template Boolean {
 <4885AE61-78E8-11cf-8F52-0040333594A3>
 WORD truefalse;
}

template Boolean2d {
 <4885AE63-78E8-11cf-8F52-0040333594A3>
 Boolean u;
 Boolean v;
}

template MaterialWrap {
 <4885AE60-78E8-11cf-8F52-0040333594A3>
 Boolean u;
 Boolean v;
}

template TextureFilename {
 <A42790E1-7810-11cf-8F52-0040333594A3>
 STRING filename;
}

template Material {
 <3D82AB4D-62DA-11cf-AB39-0020AF71E433>
 ColorRGBA faceColor;
 FLOAT power;
 ColorRGB specularColor;
 ColorRGB emissiveColor;
 [...]
}

template MeshFace {
 <3D82AB5F-62DA-11cf-AB39-0020AF71E433>
 DWORD nFaceVertexIndices;
 array DWORD faceVertexIndices[nFaceVertexIndices];
}

template MeshFaceWraps {
 <4885AE62-78E8-11cf-8F52-0040333594A3>
 DWORD nFaceWrapValues;
 Boolean2d faceWrapValues;
}

template MeshTextureCoords {
 <F6F23F40-7686-11cf-8F52-0040333594A3>
 DWORD nTextureCoords;
 array Coords2d textureCoords[nTextureCoords];
}

template MeshMaterialList {
 <F6F23F42-7686-11cf-8F52-0040333594A3>
 DWORD nMaterials;
 DWORD nFaceIndexes;
 array DWORD faceIndexes[nFaceIndexes];
 [Material]
}

template MeshNormals {
 <F6F23F43-7686-11cf-8F52-0040333594A3>
 DWORD nNormals;
 array Vector normals[nNormals];
 DWORD nFaceNormals;
 array MeshFace faceNormals[nFaceNormals];
}

template MeshVertexColors {
 <1630B821-7842-11cf-8F52-0040333594A3>
 DWORD nVertexColors;
 array IndexedColor vertexColors[nVertexColors];
}

template Mesh {
 <3D82AB44-62DA-11cf-AB39-0020AF71E433>
 DWORD nVertices;
 array Vector vertices[nVertices];
 DWORD nFaces;
 array MeshFace faces[nFaces];
 [...]
}

Header{
1;
0;
1;
}

Mesh {
 1160;
 62.61031;759.04349;-87.38969;,
 87.38969;759.04349;-87.38969;,
 87.38969;0.97115;-87.38969;,
 62.61031;0.97115;-87.38969;,
 87.38969;759.04349;-87.38969;,
 87.38969;759.04349;-62.61031;,
 87.38969;0.97115;-62.61031;,
 87.38969;0.97115;-87.38969;,
 87.38969;759.04349;-62.61031;,
 62.61031;759.04349;-62.61031;,
 62.61031;0.97115;-62.61031;,
 87.38969;0.97115;-62.61031;,
 62.61031;759.04349;-62.61031;,
 62.61031;759.04349;-87.38969;,
 62.61031;0.97115;-87.38969;,
 62.61031;0.97115;-62.61031;,
 87.38969;759.04349;-87.38969;,
 62.61031;759.04349;-87.38969;,
 62.61031;0.97115;-87.38969;,
 87.38969;0.97115;-87.38969;,
 -87.38969;759.04349;-87.38969;,
 -62.61031;759.04349;-87.38969;,
 -62.61031;0.97115;-87.38969;,
 -87.38969;0.97115;-87.38969;,
 -62.61031;759.04349;-87.38969;,
 -62.61031;759.04349;-62.61031;,
 -62.61031;0.97115;-62.61031;,
 -62.61031;0.97115;-87.38969;,
 -62.61031;759.04349;-62.61031;,
 -87.38969;759.04349;-62.61031;,
 -87.38969;0.97115;-62.61031;,
 -62.61031;0.97115;-62.61031;,
 -87.38969;759.04349;-62.61031;,
 -87.38969;759.04349;-87.38969;,
 -87.38969;0.97115;-87.38969;,
 -87.38969;0.97115;-62.61031;,
 -62.61031;759.04349;-87.38969;,
 -87.38969;759.04349;-87.38969;,
 -87.38969;0.97115;-87.38969;,
 -62.61031;0.97115;-87.38969;,
 62.61031;759.04349;62.61031;,
 87.38969;759.04349;62.61031;,
 87.38969;0.97115;62.61031;,
 62.61031;0.97115;62.61031;,
 87.38969;759.04349;62.61031;,
 87.38969;759.04349;87.38969;,
 87.38969;0.97115;87.38969;,
 87.38969;0.97115;62.61031;,
 87.38969;759.04349;87.38969;,
 62.61031;759.04349;87.38969;,
 62.61031;0.97115;87.38969;,
 87.38969;0.97115;87.38969;,
 62.61031;759.04349;87.38969;,
 62.61031;759.04349;62.61031;,
 62.61031;0.97115;62.61031;,
 62.61031;0.97115;87.38969;,
 87.38969;759.04349;62.61031;,
 62.61031;759.04349;62.61031;,
 62.61031;0.97115;62.61031;,
 87.38969;0.97115;62.61031;,
 -87.38969;759.04349;62.61031;,
 -62.61031;759.04349;62.61031;,
 -62.61031;0.97115;62.61031;,
 -87.38969;0.97115;62.61031;,
 -62.61031;759.04349;62.61031;,
 -62.61031;759.04349;87.38969;,
 -62.61031;0.97115;87.38969;,
 -62.61031;0.97115;62.61031;,
 -62.61031;759.04349;87.38969;,
 -87.38969;759.04349;87.38969;,
 -87.38969;0.97115;87.38969;,
 -62.61031;0.97115;87.38969;,
 -87.38969;759.04349;87.38969;,
 -87.38969;759.04349;62.61031;,
 -87.38969;0.97115;62.61031;,
 -87.38969;0.97115;87.38969;,
 -62.61031;759.04349;62.61031;,
 -87.38969;759.04349;62.61031;,
 -87.38969;0.97115;62.61031;,
 -62.61031;0.97115;62.61031;,
 -87.38969;609.04349;-237.38969;,
 -62.61031;609.04349;-237.38969;,
 -62.61031;0.97115;-237.38969;,
 -87.38969;0.97115;-237.38969;,
 -62.61031;609.04349;-237.38969;,
 -62.61031;609.04349;-212.61031;,
 -62.61031;0.97115;-212.61031;,
 -62.61031;0.97115;-237.38969;,
 -62.61031;609.04349;-212.61031;,
 -87.38969;609.04349;-212.61031;,
 -87.38969;0.97115;-212.61031;,
 -62.61031;0.97115;-212.61031;,
 -87.38969;609.04349;-212.61031;,
 -87.38969;609.04349;-237.38969;,
 -87.38969;0.97115;-237.38969;,
 -87.38969;0.97115;-212.61031;,
 -62.61031;609.04349;-237.38969;,
 -87.38969;609.04349;-237.38969;,
 -87.38969;0.97115;-237.38969;,
 -62.61031;0.97115;-237.38969;,
 62.61031;609.04349;-237.38969;,
 87.38969;609.04349;-237.38969;,
 87.38969;0.97115;-237.38969;,
 62.61031;0.97115;-237.38969;,
 87.38969;609.04349;-237.38969;,
 87.38969;609.04349;-212.61031;,
 87.38969;0.97115;-212.61031;,
 87.38969;0.97115;-237.38969;,
 87.38969;609.04349;-212.61031;,
 62.61031;609.04349;-212.61031;,
 62.61031;0.97115;-212.61031;,
 87.38969;0.97115;-212.61031;,
 62.61031;609.04349;-212.61031;,
 62.61031;609.04349;-237.38969;,
 62.61031;0.97115;-237.38969;,
 62.61031;0.97115;-212.61031;,
 87.38969;609.04349;-237.38969;,
 62.61031;609.04349;-237.38969;,
 62.61031;0.97115;-237.38969;,
 87.38969;0.97115;-237.38969;,
 -237.38969;609.04349;-87.38969;,
 -212.61031;609.04349;-87.38969;,
 -212.61031;0.97115;-87.38969;,
 -237.38969;0.97115;-87.38969;,
 -212.61031;609.04349;-87.38969;,
 -212.61031;609.04349;-62.61031;,
 -212.61031;0.97115;-62.61031;,
 -212.61031;0.97115;-87.38969;,
 -212.61031;609.04349;-62.61031;,
 -237.38969;609.04349;-62.61031;,
 -237.38969;0.97115;-62.61031;,
 -212.61031;0.97115;-62.61031;,
 -237.38969;609.04349;-62.61031;,
 -237.38969;609.04349;-87.38969;,
 -237.38969;0.97115;-87.38969;,
 -237.38969;0.97115;-62.61031;,
 -212.61031;609.04349;-87.38969;,
 -237.38969;609.04349;-87.38969;,
 -237.38969;0.97115;-87.38969;,
 -212.61031;0.97115;-87.38969;,
 -237.38969;609.04349;62.61031;,
 -212.61031;609.04349;62.61031;,
 -212.61031;0.97115;62.61031;,
 -237.38969;0.97115;62.61031;,
 -212.61031;609.04349;62.61031;,
 -212.61031;609.04349;87.38969;,
 -212.61031;0.97115;87.38969;,
 -212.61031;0.97115;62.61031;,
 -212.61031;609.04349;87.38969;,
 -237.38969;609.04349;87.38969;,
 -237.38969;0.97115;87.38969;,
 -212.61031;0.97115;87.38969;,
 -237.38969;609.04349;87.38969;,
 -237.38969;609.04349;62.61031;,
 -237.38969;0.97115;62.61031;,
 -237.38969;0.97115;87.38969;,
 -212.61031;609.04349;62.61031;,
 -237.38969;609.04349;62.61031;,
 -237.38969;0.97115;62.61031;,
 -212.61031;0.97115;62.61031;,
 212.61031;609.04349;-87.38969;,
 237.38969;609.04349;-87.38969;,
 237.38969;0.97115;-87.38969;,
 212.61031;0.97115;-87.38969;,
 237.38969;609.04349;-87.38969;,
 237.38969;609.04349;-62.61031;,
 237.38969;0.97115;-62.61031;,
 237.38969;0.97115;-87.38969;,
 237.38969;609.04349;-62.61031;,
 212.61031;609.04349;-62.61031;,
 212.61031;0.97115;-62.61031;,
 237.38969;0.97115;-62.61031;,
 212.61031;609.04349;-62.61031;,
 212.61031;609.04349;-87.38969;,
 212.61031;0.97115;-87.38969;,
 212.61031;0.97115;-62.61031;,
 237.38969;609.04349;-87.38969;,
 212.61031;609.04349;-87.38969;,
 212.61031;0.97115;-87.38969;,
 237.38969;0.97115;-87.38969;,
 212.61031;609.04349;62.61031;,
 237.38969;609.04349;62.61031;,
 237.38969;0.97115;62.61031;,
 212.61031;0.97115;62.61031;,
 237.38969;609.04349;62.61031;,
 237.38969;609.04349;87.38969;,
 237.38969;0.97115;87.38969;,
 237.38969;0.97115;62.61031;,
 237.38969;609.04349;87.38969;,
 212.61031;609.04349;87.38969;,
 212.61031;0.97115;87.38969;,
 237.38969;0.97115;87.38969;,
 212.61031;609.04349;87.38969;,
 212.61031;609.04349;62.61031;,
 212.61031;0.97115;62.61031;,
 212.61031;0.97115;87.38969;,
 237.38969;609.04349;62.61031;,
 212.61031;609.04349;62.61031;,
 212.61031;0.97115;62.61031;,
 237.38969;0.97115;62.61031;,
 62.61031;609.04349;212.61031;,
 87.38969;609.04349;212.61031;,
 87.38969;0.97115;212.61031;,
 62.61031;0.97115;212.61031;,
 87.38969;609.04349;212.61031;,
 87.38969;609.04349;237.38969;,
 87.38969;0.97115;237.38969;,
 87.38969;0.97115;212.61031;,
 87.38969;609.04349;237.38969;,
 62.61031;609.04349;237.38969;,
 62.61031;0.97115;237.38969;,
 87.38969;0.97115;237.38969;,
 62.61031;609.04349;237.38969;,
 62.61031;609.04349;212.61031;,
 62.61031;0.97115;212.61031;,
 62.61031;0.97115;237.38969;,
 87.38969;609.04349;212.61031;,
 62.61031;609.04349;212.61031;,
 62.61031;0.97115;212.61031;,
 87.38969;0.97115;212.61031;,
 -87.38969;609.04349;212.61031;,
 -62.61031;609.04349;212.61031;,
 -62.61031;0.97115;212.61031;,
 -87.38969;0.97115;212.61031;,
 -62.61031;609.04349;212.61031;,
 -62.61031;609.04349;237.38969;,
 -62.61031;0.97115;237.38969;,
 -62.61031;0.97115;212.61031;,
 -62.61031;609.04349;237.38969;,
 -87.38969;609.04349;237.38969;,
 -87.38969;0.97115;237.38969;,
 -62.61031;0.97115;237.38969;,
 -87.38969;609.04349;237.38969;,
 -87.38969;609.04349;212.61031;,
 -87.38969;0.97115;212.61031;,
 -87.38969;0.97115;237.38969;,
 -62.61031;609.04349;212.61031;,
 -87.38969;609.04349;212.61031;,
 -87.38969;0.97115;212.61031;,
 -62.61031;0.97115;212.61031;,
 62.61031;308.94170;234.90665;,
 87.38969;308.94170;234.90665;,
 87.38969;308.94173;-235.06009;,
 62.61031;308.94173;-235.06009;,
 87.38969;308.94170;234.90665;,
 87.38969;284.16234;234.90665;,
 87.38969;284.16236;-235.06009;,
 87.38969;308.94173;-235.06009;,
 87.38969;284.16234;234.90665;,
 62.61031;284.16234;234.90665;,
 62.61031;284.16236;-235.06009;,
 87.38969;284.16236;-235.06009;,
 62.61031;284.16234;234.90665;,
 62.61031;308.94170;234.90665;,
 62.61031;308.94173;-235.06009;,
 62.61031;284.16236;-235.06009;,
 87.38969;308.94170;234.90665;,
 62.61031;308.94170;234.90665;,
 62.61031;308.94173;-235.06009;,
 87.38969;308.94173;-235.06009;,
 -87.38969;308.94170;234.90665;,
 -62.61031;308.94170;234.90665;,
 -62.61031;308.94173;-235.06009;,
 -87.38969;308.94173;-235.06009;,
 -62.61031;308.94170;234.90665;,
 -62.61031;284.16234;234.90665;,
 -62.61031;284.16236;-235.06009;,
 -62.61031;308.94173;-235.06009;,
 -62.61031;284.16234;234.90665;,
 -87.38969;284.16234;234.90665;,
 -87.38969;284.16236;-235.06009;,
 -62.61031;284.16236;-235.06009;,
 -87.38969;284.16234;234.90665;,
 -87.38969;308.94170;234.90665;,
 -87.38969;308.94173;-235.06009;,
 -87.38969;284.16236;-235.06009;,
 -62.61031;308.94170;234.90665;,
 -87.38969;308.94170;234.90665;,
 -87.38969;308.94173;-235.06009;,
 -62.61031;308.94173;-235.06009;,
 62.61031;458.94168;234.90665;,
 87.38969;458.94168;234.90665;,
 87.38969;458.94173;-235.06009;,
 62.61031;458.94173;-235.06009;,
 87.38969;458.94168;234.90665;,
 87.38969;434.16234;234.90665;,
 87.38969;434.16238;-235.06009;,
 87.38969;458.94173;-235.06009;,
 87.38969;434.16234;234.90665;,
 62.61031;434.16234;234.90665;,
 62.61031;434.16238;-235.06009;,
 87.38969;434.16238;-235.06009;,
 62.61031;434.16234;234.90665;,
 62.61031;458.94168;234.90665;,
 62.61031;458.94173;-235.06009;,
 62.61031;434.16238;-235.06009;,
 87.38969;458.94168;234.90665;,
 62.61031;458.94168;234.90665;,
 62.61031;458.94173;-235.06009;,
 87.38969;458.94173;-235.06009;,
 -87.38969;458.94168;234.90665;,
 -62.61031;458.94168;234.90665;,
 -62.61031;458.94173;-235.06009;,
 -87.38969;458.94173;-235.06009;,
 -62.61031;458.94168;234.90665;,
 -62.61031;434.16234;234.90665;,
 -62.61031;434.16238;-235.06009;,
 -62.61031;458.94173;-235.06009;,
 -62.61031;434.16234;234.90665;,
 -87.38969;434.16234;234.90665;,
 -87.38969;434.16238;-235.06009;,
 -62.61031;434.16238;-235.06009;,
 -87.38969;434.16234;234.90665;,
 -87.38969;458.94168;234.90665;,
 -87.38969;458.94173;-235.06009;,
 -87.38969;434.16238;-235.06009;,
 -62.61031;458.94168;234.90665;,
 -87.38969;458.94168;234.90665;,
 -87.38969;458.94173;-235.06009;,
 -62.61031;458.94173;-235.06009;,
 62.61031;158.94170;234.90665;,
 87.38969;158.94170;234.90665;,
 87.38969;158.94173;-235.06009;,
 62.61031;158.94173;-235.06009;,
 87.38969;158.94170;234.90665;,
 87.38969;134.16234;234.90665;,
 87.38969;134.16236;-235.06009;,
 87.38969;158.94173;-235.06009;,
 87.38969;134.16234;234.90665;,
 62.61031;134.16234;234.90665;,
 62.61031;134.16236;-235.06009;,
 87.38969;134.16236;-235.06009;,
 62.61031;134.16234;234.90665;,
 62.61031;158.94170;234.90665;,
 62.61031;158.94173;-235.06009;,
 62.61031;134.16236;-235.06009;,
 87.38969;158.94170;234.90665;,
 62.61031;158.94170;234.90665;,
 62.61031;158.94173;-235.06009;,
 87.38969;158.94173;-235.06009;,
 -87.38969;158.94170;234.90665;,
 -62.61031;158.94170;234.90665;,
 -62.61031;158.94173;-235.06009;,
 -87.38969;158.94173;-235.06009;,
 -62.61031;158.94170;234.90665;,
 -62.61031;134.16234;234.90665;,
 -62.61031;134.16236;-235.06009;,
 -62.61031;158.94173;-235.06009;,
 -62.61031;134.16234;234.90665;,
 -87.38969;134.16234;234.90665;,
 -87.38969;134.16236;-235.06009;,
 -62.61031;134.16236;-235.06009;,
 -87.38969;134.16234;234.90665;,
 -87.38969;158.94170;234.90665;,
 -87.38969;158.94173;-235.06009;,
 -87.38969;134.16236;-235.06009;,
 -62.61031;158.94170;234.90665;,
 -87.38969;158.94170;234.90665;,
 -87.38969;158.94173;-235.06009;,
 -62.61031;158.94173;-235.06009;,
 234.98337;308.94170;-62.68704;,
 234.98337;308.94170;-87.46642;,
 -234.98337;308.94173;-87.46640;,
 -234.98337;308.94173;-62.68702;,
 234.98337;308.94170;-87.46642;,
 234.98337;284.16234;-87.46642;,
 -234.98337;284.16236;-87.46640;,
 -234.98337;308.94173;-87.46640;,
 234.98337;284.16234;-87.46642;,
 234.98337;284.16234;-62.68704;,
 -234.98337;284.16236;-62.68702;,
 -234.98337;284.16236;-87.46640;,
 234.98337;284.16234;-62.68704;,
 234.98337;308.94170;-62.68704;,
 -234.98337;308.94173;-62.68702;,
 -234.98337;284.16236;-62.68702;,
 234.98337;308.94170;-87.46642;,
 234.98337;308.94170;-62.68704;,
 -234.98337;308.94173;-62.68702;,
 -234.98337;308.94173;-87.46640;,
 234.98337;308.94170;87.31296;,
 234.98337;308.94170;62.53358;,
 -234.98337;308.94173;62.53360;,
 -234.98337;308.94173;87.31298;,
 234.98337;308.94170;62.53358;,
 234.98337;284.16234;62.53358;,
 -234.98337;284.16236;62.53360;,
 -234.98337;308.94173;62.53360;,
 234.98337;284.16234;62.53358;,
 234.98337;284.16234;87.31296;,
 -234.98337;284.16236;87.31298;,
 -234.98337;284.16236;62.53360;,
 234.98337;284.16234;87.31296;,
 234.98337;308.94170;87.31296;,
 -234.98337;308.94173;87.31298;,
 -234.98337;284.16236;87.31298;,
 234.98337;308.94170;62.53358;,
 234.98337;308.94170;87.31296;,
 -234.98337;308.94173;87.31298;,
 -234.98337;308.94173;62.53360;,
 234.98337;458.94168;-62.68704;,
 234.98337;458.94168;-87.46642;,
 -234.98337;458.94173;-87.46640;,
 -234.98337;458.94173;-62.68702;,
 234.98337;458.94168;-87.46642;,
 234.98337;434.16234;-87.46642;,
 -234.98337;434.16238;-87.46640;,
 -234.98337;458.94173;-87.46640;,
 234.98337;434.16234;-87.46642;,
 234.98337;434.16234;-62.68704;,
 -234.98337;434.16238;-62.68702;,
 -234.98337;434.16238;-87.46640;,
 234.98337;434.16234;-62.68704;,
 234.98337;458.94168;-62.68704;,
 -234.98337;458.94173;-62.68702;,
 -234.98337;434.16238;-62.68702;,
 234.98337;458.94168;-87.46642;,
 234.98337;458.94168;-62.68704;,
 -234.98337;458.94173;-62.68702;,
 -234.98337;458.94173;-87.46640;,
 234.98337;458.94168;87.31296;,
 234.98337;458.94168;62.53358;,
 -234.98337;458.94173;62.53360;,
 -234.98337;458.94173;87.31298;,
 234.98337;458.94168;62.53358;,
 234.98337;434.16234;62.53358;,
 -234.98337;434.16238;62.53360;,
 -234.98337;458.94173;62.53360;,
 234.98337;434.16234;62.53358;,
 234.98337;434.16234;87.31296;,
 -234.98337;434.16238;87.31298;,
 -234.98337;434.16238;62.53360;,
 234.98337;434.16234;87.31296;,
 234.98337;458.94168;87.31296;,
 -234.98337;458.94173;87.31298;,
 -234.98337;434.16238;87.31298;,
 234.98337;458.94168;62.53358;,
 234.98337;458.94168;87.31296;,
 -234.98337;458.94173;87.31298;,
 -234.98337;458.94173;62.53360;,
 234.98337;158.94170;-62.68704;,
 234.98337;158.94170;-87.46642;,
 -234.98337;158.94173;-87.46640;,
 -234.98337;158.94173;-62.68702;,
 234.98337;158.94170;-87.46642;,
 234.98337;134.16234;-87.46642;,
 -234.98337;134.16236;-87.46640;,
 -234.98337;158.94173;-87.46640;,
 234.98337;134.16234;-87.46642;,
 234.98337;134.16234;-62.68704;,
 -234.98337;134.16236;-62.68702;,
 -234.98337;134.16236;-87.46640;,
 234.98337;134.16234;-62.68704;,
 234.98337;158.94170;-62.68704;,
 -234.98337;158.94173;-62.68702;,
 -234.98337;134.16236;-62.68702;,
 234.98337;158.94170;-87.46642;,
 234.98337;158.94170;-62.68704;,
 -234.98337;158.94173;-62.68702;,
 -234.98337;158.94173;-87.46640;,
 234.98337;158.94170;87.31296;,
 234.98337;158.94170;62.53358;,
 -234.98337;158.94173;62.53360;,
 -234.98337;158.94173;87.31298;,
 234.98337;158.94170;62.53358;,
 234.98337;134.16234;62.53358;,
 -234.98337;134.16236;62.53360;,
 -234.98337;158.94173;62.53360;,
 234.98337;134.16234;62.53358;,
 234.98337;134.16234;87.31296;,
 -234.98337;134.16236;87.31298;,
 -234.98337;134.16236;62.53360;,
 234.98337;134.16234;87.31296;,
 234.98337;158.94170;87.31296;,
 -234.98337;158.94173;87.31298;,
 -234.98337;134.16236;87.31298;,
 234.98337;158.94170;62.53358;,
 234.98337;158.94170;87.31296;,
 -234.98337;158.94173;87.31298;,
 -234.98337;158.94173;62.53360;,
 234.98337;608.94168;-62.68704;,
 234.98337;608.94168;-87.46642;,
 -234.98337;608.94173;-87.46640;,
 -234.98337;608.94173;-62.68702;,
 234.98337;608.94168;-87.46642;,
 234.98337;584.16234;-87.46642;,
 -234.98337;584.16238;-87.46640;,
 -234.98337;608.94173;-87.46640;,
 234.98337;584.16234;-87.46642;,
 234.98337;584.16234;-62.68704;,
 -234.98337;584.16238;-62.68702;,
 -234.98337;584.16238;-87.46640;,
 234.98337;584.16234;-62.68704;,
 234.98337;608.94168;-62.68704;,
 -234.98337;608.94173;-62.68702;,
 -234.98337;584.16238;-62.68702;,
 234.98337;608.94168;-87.46642;,
 234.98337;608.94168;-62.68704;,
 -234.98337;608.94173;-62.68702;,
 -234.98337;608.94173;-87.46640;,
 234.98337;608.94168;87.31296;,
 234.98337;608.94168;62.53358;,
 -234.98337;608.94173;62.53360;,
 -234.98337;608.94173;87.31298;,
 234.98337;608.94168;62.53358;,
 234.98337;584.16234;62.53358;,
 -234.98337;584.16238;62.53360;,
 -234.98337;608.94173;62.53360;,
 234.98337;584.16234;62.53358;,
 234.98337;584.16234;87.31296;,
 -234.98337;584.16238;87.31298;,
 -234.98337;584.16238;62.53360;,
 234.98337;584.16234;87.31296;,
 234.98337;608.94168;87.31296;,
 -234.98337;608.94173;87.31298;,
 -234.98337;584.16238;87.31298;,
 234.98337;608.94168;62.53358;,
 234.98337;608.94168;87.31296;,
 -234.98337;608.94173;87.31298;,
 -234.98337;608.94173;62.53360;,
 62.61031;608.98082;234.90665;,
 87.38969;608.98082;234.90665;,
 87.38969;608.98087;-235.06009;,
 62.61031;608.98087;-235.06009;,
 87.38969;608.98082;234.90665;,
 87.38969;584.20148;234.90665;,
 87.38969;584.20152;-235.06009;,
 87.38969;608.98087;-235.06009;,
 87.38969;584.20148;234.90665;,
 62.61031;584.20148;234.90665;,
 62.61031;584.20152;-235.06009;,
 87.38969;584.20152;-235.06009;,
 62.61031;584.20148;234.90665;,
 62.61031;608.98082;234.90665;,
 62.61031;608.98087;-235.06009;,
 62.61031;584.20152;-235.06009;,
 87.38969;608.98082;234.90665;,
 62.61031;608.98082;234.90665;,
 62.61031;608.98087;-235.06009;,
 87.38969;608.98087;-235.06009;,
 -87.38969;608.98082;234.90665;,
 -62.61031;608.98082;234.90665;,
 -62.61031;608.98087;-235.06009;,
 -87.38969;608.98087;-235.06009;,
 -62.61031;608.98082;234.90665;,
 -62.61031;584.20148;234.90665;,
 -62.61031;584.20152;-235.06009;,
 -62.61031;608.98087;-235.06009;,
 -62.61031;584.20148;234.90665;,
 -87.38969;584.20148;234.90665;,
 -87.38969;584.20152;-235.06009;,
 -62.61031;584.20152;-235.06009;,
 -87.38969;584.20148;234.90665;,
 -87.38969;608.98082;234.90665;,
 -87.38969;608.98087;-235.06009;,
 -87.38969;584.20152;-235.06009;,
 -62.61031;608.98082;234.90665;,
 -87.38969;608.98082;234.90665;,
 -87.38969;608.98087;-235.06009;,
 -62.61031;608.98087;-235.06009;,
 84.10618;608.94168;237.31295;,
 84.10618;608.94168;212.53358;,
 -84.10618;608.94173;212.53361;,
 -84.10618;608.94173;237.31297;,
 84.10618;608.94168;212.53358;,
 84.10618;584.16234;212.53358;,
 -84.10618;584.16238;212.53361;,
 -84.10618;608.94173;212.53361;,
 84.10618;584.16234;212.53358;,
 84.10618;584.16234;237.31295;,
 -84.10618;584.16238;237.31297;,
 -84.10618;584.16238;212.53361;,
 84.10618;584.16234;237.31295;,
 84.10618;608.94168;237.31295;,
 -84.10618;608.94173;237.31297;,
 -84.10618;584.16238;237.31297;,
 84.10618;608.94168;212.53358;,
 84.10618;608.94168;237.31295;,
 -84.10618;608.94173;237.31297;,
 -84.10618;608.94173;212.53361;,
 84.10618;608.94168;237.31295;,
 84.10618;608.94168;212.53358;,
 -84.10618;608.94173;212.53361;,
 -84.10618;608.94173;237.31297;,
 84.10618;608.94168;212.53358;,
 84.10618;584.16234;212.53358;,
 -84.10618;584.16238;212.53361;,
 -84.10618;608.94173;212.53361;,
 84.10618;584.16234;212.53358;,
 84.10618;584.16234;237.31295;,
 -84.10618;584.16238;237.31297;,
 -84.10618;584.16238;212.53361;,
 84.10618;584.16234;237.31295;,
 84.10618;608.94168;237.31295;,
 -84.10618;608.94173;237.31297;,
 -84.10618;584.16238;237.31297;,
 84.10618;608.94168;212.53358;,
 84.10618;608.94168;237.31295;,
 -84.10618;608.94173;237.31297;,
 -84.10618;608.94173;212.53361;,
 84.10618;608.94168;-212.68705;,
 84.10618;608.94168;-237.46642;,
 -84.10618;608.94173;-237.46639;,
 -84.10618;608.94173;-212.68703;,
 84.10618;608.94168;-237.46642;,
 84.10618;584.16234;-237.46642;,
 -84.10618;584.16238;-237.46639;,
 -84.10618;608.94173;-237.46639;,
 84.10618;584.16234;-237.46642;,
 84.10618;584.16234;-212.68705;,
 -84.10618;584.16238;-212.68703;,
 -84.10618;584.16238;-237.46639;,
 84.10618;584.16234;-212.68705;,
 84.10618;608.94168;-212.68705;,
 -84.10618;608.94173;-212.68703;,
 -84.10618;584.16238;-212.68703;,
 84.10618;608.94168;-237.46642;,
 84.10618;608.94168;-212.68705;,
 -84.10618;608.94173;-212.68703;,
 -84.10618;608.94173;-237.46639;,
 84.10618;608.94168;-212.68705;,
 84.10618;608.94168;-237.46642;,
 -84.10618;608.94173;-237.46639;,
 -84.10618;608.94173;-212.68703;,
 84.10618;608.94168;-237.46642;,
 84.10618;584.16234;-237.46642;,
 -84.10618;584.16238;-237.46639;,
 -84.10618;608.94173;-237.46639;,
 84.10618;584.16234;-237.46642;,
 84.10618;584.16234;-212.68705;,
 -84.10618;584.16238;-212.68703;,
 -84.10618;584.16238;-237.46639;,
 84.10618;584.16234;-212.68705;,
 84.10618;608.94168;-212.68705;,
 -84.10618;608.94173;-212.68703;,
 -84.10618;584.16238;-212.68703;,
 84.10618;608.94168;-237.46642;,
 84.10618;608.94168;-212.68705;,
 -84.10618;608.94173;-212.68703;,
 -84.10618;608.94173;-237.46639;,
 237.38967;608.94168;-84.18290;,
 212.61031;608.94168;-84.18290;,
 212.61033;608.94173;84.02946;,
 237.38969;608.94173;84.02946;,
 212.61031;608.94168;-84.18290;,
 212.61031;584.16234;-84.18290;,
 212.61033;584.16238;84.02946;,
 212.61033;608.94173;84.02946;,
 212.61031;584.16234;-84.18290;,
 237.38967;584.16234;-84.18290;,
 237.38969;584.16238;84.02946;,
 212.61033;584.16238;84.02946;,
 237.38967;584.16234;-84.18290;,
 237.38967;608.94168;-84.18290;,
 237.38969;608.94173;84.02946;,
 237.38969;584.16238;84.02946;,
 212.61031;608.94168;-84.18290;,
 237.38967;608.94168;-84.18290;,
 237.38969;608.94173;84.02946;,
 212.61033;608.94173;84.02946;,
 237.38967;608.94168;-84.18290;,
 212.61031;608.94168;-84.18290;,
 212.61033;608.94173;84.02946;,
 237.38969;608.94173;84.02946;,
 212.61031;608.94168;-84.18290;,
 212.61031;584.16234;-84.18290;,
 212.61033;584.16238;84.02946;,
 212.61033;608.94173;84.02946;,
 212.61031;584.16234;-84.18290;,
 237.38967;584.16234;-84.18290;,
 237.38969;584.16238;84.02946;,
 212.61033;584.16238;84.02946;,
 237.38967;584.16234;-84.18290;,
 237.38967;608.94168;-84.18290;,
 237.38969;608.94173;84.02946;,
 237.38969;584.16238;84.02946;,
 212.61031;608.94168;-84.18290;,
 237.38967;608.94168;-84.18290;,
 237.38969;608.94173;84.02946;,
 212.61033;608.94173;84.02946;,
 -212.61033;608.94168;-84.18290;,
 -237.38969;608.94168;-84.18290;,
 -237.38967;608.94173;84.02946;,
 -212.61031;608.94173;84.02946;,
 -237.38969;608.94168;-84.18290;,
 -237.38969;584.16234;-84.18290;,
 -237.38967;584.16238;84.02946;,
 -237.38967;608.94173;84.02946;,
 -237.38969;584.16234;-84.18290;,
 -212.61033;584.16234;-84.18290;,
 -212.61031;584.16238;84.02946;,
 -237.38967;584.16238;84.02946;,
 -212.61033;584.16234;-84.18290;,
 -212.61033;608.94168;-84.18290;,
 -212.61031;608.94173;84.02946;,
 -212.61031;584.16238;84.02946;,
 -237.38969;608.94168;-84.18290;,
 -212.61033;608.94168;-84.18290;,
 -212.61031;608.94173;84.02946;,
 -237.38967;608.94173;84.02946;,
 -212.61033;608.94168;-84.18290;,
 -237.38969;608.94168;-84.18290;,
 -237.38967;608.94173;84.02946;,
 -212.61031;608.94173;84.02946;,
 -237.38969;608.94168;-84.18290;,
 -237.38969;584.16234;-84.18290;,
 -237.38967;584.16238;84.02946;,
 -237.38967;608.94173;84.02946;,
 -237.38969;584.16234;-84.18290;,
 -212.61033;584.16234;-84.18290;,
 -212.61031;584.16238;84.02946;,
 -237.38967;584.16238;84.02946;,
 -212.61033;584.16234;-84.18290;,
 -212.61033;608.94168;-84.18290;,
 -212.61031;608.94173;84.02946;,
 -212.61031;584.16238;84.02946;,
 -237.38969;608.94168;-84.18290;,
 -212.61033;608.94168;-84.18290;,
 -212.61031;608.94173;84.02946;,
 -237.38967;608.94173;84.02946;,
 -212.61033;458.94168;-84.18290;,
 -237.38969;458.94168;-84.18290;,
 -237.38967;458.94173;84.02946;,
 -212.61031;458.94173;84.02946;,
 -237.38969;458.94168;-84.18290;,
 -237.38969;434.16234;-84.18290;,
 -237.38967;434.16238;84.02946;,
 -237.38967;458.94173;84.02946;,
 -237.38969;434.16234;-84.18290;,
 -212.61033;434.16234;-84.18290;,
 -212.61031;434.16238;84.02946;,
 -237.38967;434.16238;84.02946;,
 -212.61033;434.16234;-84.18290;,
 -212.61033;458.94168;-84.18290;,
 -212.61031;458.94173;84.02946;,
 -212.61031;434.16238;84.02946;,
 -237.38969;458.94168;-84.18290;,
 -212.61033;458.94168;-84.18290;,
 -212.61031;458.94173;84.02946;,
 -237.38967;458.94173;84.02946;,
 -212.61033;458.94168;-84.18290;,
 -237.38969;458.94168;-84.18290;,
 -237.38967;458.94173;84.02946;,
 -212.61031;458.94173;84.02946;,
 -237.38969;458.94168;-84.18290;,
 -237.38969;434.16234;-84.18290;,
 -237.38967;434.16238;84.02946;,
 -237.38967;458.94173;84.02946;,
 -237.38969;434.16234;-84.18290;,
 -212.61033;434.16234;-84.18290;,
 -212.61031;434.16238;84.02946;,
 -237.38967;434.16238;84.02946;,
 -212.61033;434.16234;-84.18290;,
 -212.61033;458.94168;-84.18290;,
 -212.61031;458.94173;84.02946;,
 -212.61031;434.16238;84.02946;,
 -237.38969;458.94168;-84.18290;,
 -212.61033;458.94168;-84.18290;,
 -212.61031;458.94173;84.02946;,
 -237.38967;458.94173;84.02946;,
 -212.61033;308.94168;-84.18290;,
 -237.38969;308.94168;-84.18290;,
 -237.38967;308.94173;84.02946;,
 -212.61031;308.94173;84.02946;,
 -237.38969;308.94168;-84.18290;,
 -237.38969;284.16234;-84.18290;,
 -237.38967;284.16238;84.02946;,
 -237.38967;308.94173;84.02946;,
 -237.38969;284.16234;-84.18290;,
 -212.61033;284.16234;-84.18290;,
 -212.61031;284.16238;84.02946;,
 -237.38967;284.16238;84.02946;,
 -212.61033;284.16234;-84.18290;,
 -212.61033;308.94168;-84.18290;,
 -212.61031;308.94173;84.02946;,
 -212.61031;284.16238;84.02946;,
 -237.38969;308.94168;-84.18290;,
 -212.61033;308.94168;-84.18290;,
 -212.61031;308.94173;84.02946;,
 -237.38967;308.94173;84.02946;,
 -212.61033;308.94168;-84.18290;,
 -237.38969;308.94168;-84.18290;,
 -237.38967;308.94173;84.02946;,
 -212.61031;308.94173;84.02946;,
 -237.38969;308.94168;-84.18290;,
 -237.38969;284.16234;-84.18290;,
 -237.38967;284.16238;84.02946;,
 -237.38967;308.94173;84.02946;,
 -237.38969;284.16234;-84.18290;,
 -212.61033;284.16234;-84.18290;,
 -212.61031;284.16238;84.02946;,
 -237.38967;284.16238;84.02946;,
 -212.61033;284.16234;-84.18290;,
 -212.61033;308.94168;-84.18290;,
 -212.61031;308.94173;84.02946;,
 -212.61031;284.16238;84.02946;,
 -237.38969;308.94168;-84.18290;,
 -212.61033;308.94168;-84.18290;,
 -212.61031;308.94173;84.02946;,
 -237.38967;308.94173;84.02946;,
 237.38967;158.94168;-84.18290;,
 212.61031;158.94168;-84.18290;,
 212.61033;158.94173;84.02946;,
 237.38969;158.94173;84.02946;,
 212.61031;158.94168;-84.18290;,
 212.61031;134.16234;-84.18290;,
 212.61033;134.16238;84.02946;,
 212.61033;158.94173;84.02946;,
 212.61031;134.16234;-84.18290;,
 237.38967;134.16234;-84.18290;,
 237.38969;134.16238;84.02946;,
 212.61033;134.16238;84.02946;,
 237.38967;134.16234;-84.18290;,
 237.38967;158.94168;-84.18290;,
 237.38969;158.94173;84.02946;,
 237.38969;134.16238;84.02946;,
 212.61031;158.94168;-84.18290;,
 237.38967;158.94168;-84.18290;,
 237.38969;158.94173;84.02946;,
 212.61033;158.94173;84.02946;,
 237.38967;158.94168;-84.18290;,
 212.61031;158.94168;-84.18290;,
 212.61033;158.94173;84.02946;,
 237.38969;158.94173;84.02946;,
 212.61031;158.94168;-84.18290;,
 212.61031;134.16234;-84.18290;,
 212.61033;134.16238;84.02946;,
 212.61033;158.94173;84.02946;,
 212.61031;134.16234;-84.18290;,
 237.38967;134.16234;-84.18290;,
 237.38969;134.16238;84.02946;,
 212.61033;134.16238;84.02946;,
 237.38967;134.16234;-84.18290;,
 237.38967;158.94168;-84.18290;,
 237.38969;158.94173;84.02946;,
 237.38969;134.16238;84.02946;,
 212.61031;158.94168;-84.18290;,
 237.38967;158.94168;-84.18290;,
 237.38969;158.94173;84.02946;,
 212.61033;158.94173;84.02946;,
 237.38967;308.94168;-84.18290;,
 212.61031;308.94168;-84.18290;,
 212.61033;308.94173;84.02946;,
 237.38969;308.94173;84.02946;,
 212.61031;308.94168;-84.18290;,
 212.61031;284.16234;-84.18290;,
 212.61033;284.16238;84.02946;,
 212.61033;308.94173;84.02946;,
 212.61031;284.16234;-84.18290;,
 237.38967;284.16234;-84.18290;,
 237.38969;284.16238;84.02946;,
 212.61033;284.16238;84.02946;,
 237.38967;284.16234;-84.18290;,
 237.38967;308.94168;-84.18290;,
 237.38969;308.94173;84.02946;,
 237.38969;284.16238;84.02946;,
 212.61031;308.94168;-84.18290;,
 237.38967;308.94168;-84.18290;,
 237.38969;308.94173;84.02946;,
 212.61033;308.94173;84.02946;,
 237.38967;308.94168;-84.18290;,
 212.61031;308.94168;-84.18290;,
 212.61033;308.94173;84.02946;,
 237.38969;308.94173;84.02946;,
 212.61031;308.94168;-84.18290;,
 212.61031;284.16234;-84.18290;,
 212.61033;284.16238;84.02946;,
 212.61033;308.94173;84.02946;,
 212.61031;284.16234;-84.18290;,
 237.38967;284.16234;-84.18290;,
 237.38969;284.16238;84.02946;,
 212.61033;284.16238;84.02946;,
 237.38967;284.16234;-84.18290;,
 237.38967;308.94168;-84.18290;,
 237.38969;308.94173;84.02946;,
 237.38969;284.16238;84.02946;,
 212.61031;308.94168;-84.18290;,
 237.38967;308.94168;-84.18290;,
 237.38969;308.94173;84.02946;,
 212.61033;308.94173;84.02946;,
 -84.10618;458.94168;-237.46639;,
 -84.10618;458.94168;-212.68703;,
 84.10618;458.94173;-212.68705;,
 84.10618;458.94173;-237.46642;,
 -84.10618;458.94168;-212.68703;,
 -84.10618;434.16234;-212.68703;,
 84.10618;434.16238;-212.68705;,
 84.10618;458.94173;-212.68705;,
 -84.10618;434.16234;-212.68703;,
 -84.10618;434.16234;-237.46639;,
 84.10618;434.16238;-237.46642;,
 84.10618;434.16238;-212.68705;,
 -84.10618;434.16234;-237.46639;,
 -84.10618;458.94168;-237.46639;,
 84.10618;458.94173;-237.46642;,
 84.10618;434.16238;-237.46642;,
 -84.10618;458.94168;-212.68703;,
 -84.10618;458.94168;-237.46639;,
 84.10618;458.94173;-237.46642;,
 84.10618;458.94173;-212.68705;,
 -84.10618;458.94168;-237.46639;,
 -84.10618;458.94168;-212.68703;,
 84.10618;458.94173;-212.68705;,
 84.10618;458.94173;-237.46642;,
 -84.10618;458.94168;-212.68703;,
 -84.10618;434.16234;-212.68703;,
 84.10618;434.16238;-212.68705;,
 84.10618;458.94173;-212.68705;,
 -84.10618;434.16234;-212.68703;,
 -84.10618;434.16234;-237.46639;,
 84.10618;434.16238;-237.46642;,
 84.10618;434.16238;-212.68705;,
 -84.10618;434.16234;-237.46639;,
 -84.10618;458.94168;-237.46639;,
 84.10618;458.94173;-237.46642;,
 84.10618;434.16238;-237.46642;,
 -84.10618;458.94168;-212.68703;,
 -84.10618;458.94168;-237.46639;,
 84.10618;458.94173;-237.46642;,
 84.10618;458.94173;-212.68705;,
 -84.10618;308.94168;-237.46639;,
 -84.10618;308.94168;-212.68703;,
 84.10618;308.94173;-212.68705;,
 84.10618;308.94173;-237.46642;,
 -84.10618;308.94168;-212.68703;,
 -84.10618;284.16234;-212.68703;,
 84.10618;284.16238;-212.68705;,
 84.10618;308.94173;-212.68705;,
 -84.10618;284.16234;-212.68703;,
 -84.10618;284.16234;-237.46639;,
 84.10618;284.16238;-237.46642;,
 84.10618;284.16238;-212.68705;,
 -84.10618;284.16234;-237.46639;,
 -84.10618;308.94168;-237.46639;,
 84.10618;308.94173;-237.46642;,
 84.10618;284.16238;-237.46642;,
 -84.10618;308.94168;-212.68703;,
 -84.10618;308.94168;-237.46639;,
 84.10618;308.94173;-237.46642;,
 84.10618;308.94173;-212.68705;,
 -84.10618;308.94168;-237.46639;,
 -84.10618;308.94168;-212.68703;,
 84.10618;308.94173;-212.68705;,
 84.10618;308.94173;-237.46642;,
 -84.10618;308.94168;-212.68703;,
 -84.10618;284.16234;-212.68703;,
 84.10618;284.16238;-212.68705;,
 84.10618;308.94173;-212.68705;,
 -84.10618;284.16234;-212.68703;,
 -84.10618;284.16234;-237.46639;,
 84.10618;284.16238;-237.46642;,
 84.10618;284.16238;-212.68705;,
 -84.10618;284.16234;-237.46639;,
 -84.10618;308.94168;-237.46639;,
 84.10618;308.94173;-237.46642;,
 84.10618;284.16238;-237.46642;,
 -84.10618;308.94168;-212.68703;,
 -84.10618;308.94168;-237.46639;,
 84.10618;308.94173;-237.46642;,
 84.10618;308.94173;-212.68705;,
 -84.10618;308.94168;212.53361;,
 -84.10618;308.94168;237.31297;,
 84.10618;308.94173;237.31295;,
 84.10618;308.94173;212.53358;,
 -84.10618;308.94168;237.31297;,
 -84.10618;284.16234;237.31297;,
 84.10618;284.16238;237.31295;,
 84.10618;308.94173;237.31295;,
 -84.10618;284.16234;237.31297;,
 -84.10618;284.16234;212.53361;,
 84.10618;284.16238;212.53358;,
 84.10618;284.16238;237.31295;,
 -84.10618;284.16234;212.53361;,
 -84.10618;308.94168;212.53361;,
 84.10618;308.94173;212.53358;,
 84.10618;284.16238;212.53358;,
 -84.10618;308.94168;237.31297;,
 -84.10618;308.94168;212.53361;,
 84.10618;308.94173;212.53358;,
 84.10618;308.94173;237.31295;,
 -84.10618;308.94168;212.53361;,
 -84.10618;308.94168;237.31297;,
 84.10618;308.94173;237.31295;,
 84.10618;308.94173;212.53358;,
 -84.10618;308.94168;237.31297;,
 -84.10618;284.16234;237.31297;,
 84.10618;284.16238;237.31295;,
 84.10618;308.94173;237.31295;,
 -84.10618;284.16234;237.31297;,
 -84.10618;284.16234;212.53361;,
 84.10618;284.16238;212.53358;,
 84.10618;284.16238;237.31295;,
 -84.10618;284.16234;212.53361;,
 -84.10618;308.94168;212.53361;,
 84.10618;308.94173;212.53358;,
 84.10618;284.16238;212.53358;,
 -84.10618;308.94168;237.31297;,
 -84.10618;308.94168;212.53361;,
 84.10618;308.94173;212.53358;,
 84.10618;308.94173;237.31295;,
 -84.10618;758.94168;62.53361;,
 -84.10618;758.94168;87.31297;,
 84.10618;758.94173;87.31295;,
 84.10618;758.94173;62.53358;,
 -84.10618;758.94168;87.31297;,
 -84.10618;734.16234;87.31297;,
 84.10618;734.16238;87.31295;,
 84.10618;758.94173;87.31295;,
 -84.10618;734.16234;87.31297;,
 -84.10618;734.16234;62.53361;,
 84.10618;734.16238;62.53358;,
 84.10618;734.16238;87.31295;,
 -84.10618;734.16234;62.53361;,
 -84.10618;758.94168;62.53361;,
 84.10618;758.94173;62.53358;,
 84.10618;734.16238;62.53358;,
 -84.10618;758.94168;87.31297;,
 -84.10618;758.94168;62.53361;,
 84.10618;758.94173;62.53358;,
 84.10618;758.94173;87.31295;,
 -84.10618;758.94168;62.53361;,
 -84.10618;758.94168;87.31297;,
 84.10618;758.94173;87.31295;,
 84.10618;758.94173;62.53358;,
 -84.10618;758.94168;87.31297;,
 -84.10618;734.16234;87.31297;,
 84.10618;734.16238;87.31295;,
 84.10618;758.94173;87.31295;,
 -84.10618;734.16234;87.31297;,
 -84.10618;734.16234;62.53361;,
 84.10618;734.16238;62.53358;,
 84.10618;734.16238;87.31295;,
 -84.10618;734.16234;62.53361;,
 -84.10618;758.94168;62.53361;,
 84.10618;758.94173;62.53358;,
 84.10618;734.16238;62.53358;,
 -84.10618;758.94168;87.31297;,
 -84.10618;758.94168;62.53361;,
 84.10618;758.94173;62.53358;,
 84.10618;758.94173;87.31295;,
 -87.38967;758.94168;84.02946;,
 -62.61030;758.94168;84.02946;,
 -62.61033;758.94173;-84.18290;,
 -87.38970;758.94173;-84.18290;,
 -62.61030;758.94168;84.02946;,
 -62.61030;734.16234;84.02946;,
 -62.61033;734.16238;-84.18290;,
 -62.61033;758.94173;-84.18290;,
 -62.61030;734.16234;84.02946;,
 -87.38967;734.16234;84.02946;,
 -87.38970;734.16238;-84.18290;,
 -62.61033;734.16238;-84.18290;,
 -87.38967;734.16234;84.02946;,
 -87.38967;758.94168;84.02946;,
 -87.38970;758.94173;-84.18290;,
 -87.38970;734.16238;-84.18290;,
 -62.61030;758.94168;84.02946;,
 -87.38967;758.94168;84.02946;,
 -87.38970;758.94173;-84.18290;,
 -62.61033;758.94173;-84.18290;,
 -87.38967;758.94168;84.02946;,
 -62.61030;758.94168;84.02946;,
 -62.61033;758.94173;-84.18290;,
 -87.38970;758.94173;-84.18290;,
 -62.61030;758.94168;84.02946;,
 -62.61030;734.16234;84.02946;,
 -62.61033;734.16238;-84.18290;,
 -62.61033;758.94173;-84.18290;,
 -62.61030;734.16234;84.02946;,
 -87.38967;734.16234;84.02946;,
 -87.38970;734.16238;-84.18290;,
 -62.61033;734.16238;-84.18290;,
 -87.38967;734.16234;84.02946;,
 -87.38967;758.94168;84.02946;,
 -87.38970;758.94173;-84.18290;,
 -87.38970;734.16238;-84.18290;,
 -62.61030;758.94168;84.02946;,
 -87.38967;758.94168;84.02946;,
 -87.38970;758.94173;-84.18290;,
 -62.61033;758.94173;-84.18290;,
 62.61033;758.94168;84.02946;,
 87.38970;758.94168;84.02946;,
 87.38967;758.94173;-84.18290;,
 62.61030;758.94173;-84.18290;,
 87.38970;758.94168;84.02946;,
 87.38970;734.16234;84.02946;,
 87.38967;734.16238;-84.18290;,
 87.38967;758.94173;-84.18290;,
 87.38970;734.16234;84.02946;,
 62.61033;734.16234;84.02946;,
 62.61030;734.16238;-84.18290;,
 87.38967;734.16238;-84.18290;,
 62.61033;734.16234;84.02946;,
 62.61033;758.94168;84.02946;,
 62.61030;758.94173;-84.18290;,
 62.61030;734.16238;-84.18290;,
 87.38970;758.94168;84.02946;,
 62.61033;758.94168;84.02946;,
 62.61030;758.94173;-84.18290;,
 87.38967;758.94173;-84.18290;,
 62.61033;758.94168;84.02946;,
 87.38970;758.94168;84.02946;,
 87.38967;758.94173;-84.18290;,
 62.61030;758.94173;-84.18290;,
 87.38970;758.94168;84.02946;,
 87.38970;734.16234;84.02946;,
 87.38967;734.16238;-84.18290;,
 87.38967;758.94173;-84.18290;,
 87.38970;734.16234;84.02946;,
 62.61033;734.16234;84.02946;,
 62.61030;734.16238;-84.18290;,
 87.38967;734.16238;-84.18290;,
 62.61033;734.16234;84.02946;,
 62.61033;758.94168;84.02946;,
 62.61030;758.94173;-84.18290;,
 62.61030;734.16238;-84.18290;,
 87.38970;758.94168;84.02946;,
 62.61033;758.94168;84.02946;,
 62.61030;758.94173;-84.18290;,
 87.38967;758.94173;-84.18290;,
 -84.10618;758.94168;-87.46639;,
 -84.10618;758.94168;-62.68703;,
 84.10618;758.94173;-62.68705;,
 84.10618;758.94173;-87.46642;,
 -84.10618;758.94168;-62.68703;,
 -84.10618;734.16234;-62.68703;,
 84.10618;734.16238;-62.68705;,
 84.10618;758.94173;-62.68705;,
 -84.10618;734.16234;-62.68703;,
 -84.10618;734.16234;-87.46639;,
 84.10618;734.16238;-87.46642;,
 84.10618;734.16238;-62.68705;,
 -84.10618;734.16234;-87.46639;,
 -84.10618;758.94168;-87.46639;,
 84.10618;758.94173;-87.46642;,
 84.10618;734.16238;-87.46642;,
 -84.10618;758.94168;-62.68703;,
 -84.10618;758.94168;-87.46639;,
 84.10618;758.94173;-87.46642;,
 84.10618;758.94173;-62.68705;,
 -84.10618;758.94168;-87.46639;,
 -84.10618;758.94168;-62.68703;,
 84.10618;758.94173;-62.68705;,
 84.10618;758.94173;-87.46642;,
 -84.10618;758.94168;-62.68703;,
 -84.10618;734.16234;-62.68703;,
 84.10618;734.16238;-62.68705;,
 84.10618;758.94173;-62.68705;,
 -84.10618;734.16234;-62.68703;,
 -84.10618;734.16234;-87.46639;,
 84.10618;734.16238;-87.46642;,
 84.10618;734.16238;-62.68705;,
 -84.10618;734.16234;-87.46639;,
 -84.10618;758.94168;-87.46639;,
 84.10618;758.94173;-87.46642;,
 84.10618;734.16238;-87.46642;,
 -84.10618;758.94168;-62.68703;,
 -84.10618;758.94168;-87.46639;,
 84.10618;758.94173;-87.46642;,
 84.10618;758.94173;-62.68705;;
 
 348;
 4;0,1,2,3;,
 4;4,5,6,7;,
 4;8,9,10,11;,
 4;12,13,14,15;,
 4;12,5,16,17;,
 4;18,19,6,15;,
 4;20,21,22,23;,
 4;24,25,26,27;,
 4;28,29,30,31;,
 4;32,33,34,35;,
 4;32,25,36,37;,
 4;38,39,26,35;,
 4;40,41,42,43;,
 4;44,45,46,47;,
 4;48,49,50,51;,
 4;52,53,54,55;,
 4;52,45,56,57;,
 4;58,59,46,55;,
 4;60,61,62,63;,
 4;64,65,66,67;,
 4;68,69,70,71;,
 4;72,73,74,75;,
 4;72,65,76,77;,
 4;78,79,66,75;,
 4;80,81,82,83;,
 4;84,85,86,87;,
 4;88,89,90,91;,
 4;92,93,94,95;,
 4;92,85,96,97;,
 4;98,99,86,95;,
 4;100,101,102,103;,
 4;104,105,106,107;,
 4;108,109,110,111;,
 4;112,113,114,115;,
 4;112,105,116,117;,
 4;118,119,106,115;,
 4;120,121,122,123;,
 4;124,125,126,127;,
 4;128,129,130,131;,
 4;132,133,134,135;,
 4;132,125,136,137;,
 4;138,139,126,135;,
 4;140,141,142,143;,
 4;144,145,146,147;,
 4;148,149,150,151;,
 4;152,153,154,155;,
 4;152,145,156,157;,
 4;158,159,146,155;,
 4;160,161,162,163;,
 4;164,165,166,167;,
 4;168,169,170,171;,
 4;172,173,174,175;,
 4;172,165,176,177;,
 4;178,179,166,175;,
 4;180,181,182,183;,
 4;184,185,186,187;,
 4;188,189,190,191;,
 4;192,193,194,195;,
 4;192,185,196,197;,
 4;198,199,186,195;,
 4;200,201,202,203;,
 4;204,205,206,207;,
 4;208,209,210,211;,
 4;212,213,214,215;,
 4;212,205,216,217;,
 4;218,219,206,215;,
 4;220,221,222,223;,
 4;224,225,226,227;,
 4;228,229,230,231;,
 4;232,233,234,235;,
 4;232,225,236,237;,
 4;238,239,226,235;,
 4;240,241,242,243;,
 4;244,245,246,247;,
 4;248,249,250,251;,
 4;252,253,254,255;,
 4;252,245,256,257;,
 4;258,259,246,255;,
 4;260,261,262,263;,
 4;264,265,266,267;,
 4;268,269,270,271;,
 4;272,273,274,275;,
 4;272,265,276,277;,
 4;278,279,266,275;,
 4;280,281,282,283;,
 4;284,285,286,287;,
 4;288,289,290,291;,
 4;292,293,294,295;,
 4;292,285,296,297;,
 4;298,299,286,295;,
 4;300,301,302,303;,
 4;304,305,306,307;,
 4;308,309,310,311;,
 4;312,313,314,315;,
 4;312,305,316,317;,
 4;318,319,306,315;,
 4;320,321,322,323;,
 4;324,325,326,327;,
 4;328,329,330,331;,
 4;332,333,334,335;,
 4;332,325,336,337;,
 4;338,339,326,335;,
 4;340,341,342,343;,
 4;344,345,346,347;,
 4;348,349,350,351;,
 4;352,353,354,355;,
 4;352,345,356,357;,
 4;358,359,346,355;,
 4;360,361,362,363;,
 4;364,365,366,367;,
 4;368,369,370,371;,
 4;372,373,374,375;,
 4;372,365,376,377;,
 4;378,379,366,375;,
 4;380,381,382,383;,
 4;384,385,386,387;,
 4;388,389,390,391;,
 4;392,393,394,395;,
 4;392,385,396,397;,
 4;398,399,386,395;,
 4;400,401,402,403;,
 4;404,405,406,407;,
 4;408,409,410,411;,
 4;412,413,414,415;,
 4;412,405,416,417;,
 4;418,419,406,415;,
 4;420,421,422,423;,
 4;424,425,426,427;,
 4;428,429,430,431;,
 4;432,433,434,435;,
 4;432,425,436,437;,
 4;438,439,426,435;,
 4;440,441,442,443;,
 4;444,445,446,447;,
 4;448,449,450,451;,
 4;452,453,454,455;,
 4;452,445,456,457;,
 4;458,459,446,455;,
 4;460,461,462,463;,
 4;464,465,466,467;,
 4;468,469,470,471;,
 4;472,473,474,475;,
 4;472,465,476,477;,
 4;478,479,466,475;,
 4;480,481,482,483;,
 4;484,485,486,487;,
 4;488,489,490,491;,
 4;492,493,494,495;,
 4;492,485,496,497;,
 4;498,499,486,495;,
 4;500,501,502,503;,
 4;504,505,506,507;,
 4;508,509,510,511;,
 4;512,513,514,515;,
 4;512,505,516,517;,
 4;518,519,506,515;,
 4;520,521,522,523;,
 4;524,525,526,527;,
 4;528,529,530,531;,
 4;532,533,534,535;,
 4;532,525,536,537;,
 4;538,539,526,535;,
 4;540,541,542,543;,
 4;544,545,546,547;,
 4;548,549,550,551;,
 4;552,553,554,555;,
 4;552,545,556,557;,
 4;558,559,546,555;,
 4;560,561,562,563;,
 4;564,565,566,567;,
 4;568,569,570,571;,
 4;572,573,574,575;,
 4;572,565,576,577;,
 4;578,579,566,575;,
 4;580,581,582,583;,
 4;584,585,586,587;,
 4;588,589,590,591;,
 4;592,593,594,595;,
 4;592,585,596,597;,
 4;598,599,586,595;,
 4;600,601,602,603;,
 4;604,605,606,607;,
 4;608,609,610,611;,
 4;612,613,614,615;,
 4;612,605,616,617;,
 4;618,619,606,615;,
 4;620,621,622,623;,
 4;624,625,626,627;,
 4;628,629,630,631;,
 4;632,633,634,635;,
 4;632,625,636,637;,
 4;638,639,626,635;,
 4;640,641,642,643;,
 4;644,645,646,647;,
 4;648,649,650,651;,
 4;652,653,654,655;,
 4;652,645,656,657;,
 4;658,659,646,655;,
 4;660,661,662,663;,
 4;664,665,666,667;,
 4;668,669,670,671;,
 4;672,673,674,675;,
 4;672,665,676,677;,
 4;678,679,666,675;,
 4;680,681,682,683;,
 4;684,685,686,687;,
 4;688,689,690,691;,
 4;692,693,694,695;,
 4;692,685,696,697;,
 4;698,699,686,695;,
 4;700,701,702,703;,
 4;704,705,706,707;,
 4;708,709,710,711;,
 4;712,713,714,715;,
 4;712,705,716,717;,
 4;718,719,706,715;,
 4;720,721,722,723;,
 4;724,725,726,727;,
 4;728,729,730,731;,
 4;732,733,734,735;,
 4;732,725,736,737;,
 4;738,739,726,735;,
 4;740,741,742,743;,
 4;744,745,746,747;,
 4;748,749,750,751;,
 4;752,753,754,755;,
 4;752,745,756,757;,
 4;758,759,746,755;,
 4;760,761,762,763;,
 4;764,765,766,767;,
 4;768,769,770,771;,
 4;772,773,774,775;,
 4;772,765,776,777;,
 4;778,779,766,775;,
 4;780,781,782,783;,
 4;784,785,786,787;,
 4;788,789,790,791;,
 4;792,793,794,795;,
 4;792,785,796,797;,
 4;798,799,786,795;,
 4;800,801,802,803;,
 4;804,805,806,807;,
 4;808,809,810,811;,
 4;812,813,814,815;,
 4;812,805,816,817;,
 4;818,819,806,815;,
 4;820,821,822,823;,
 4;824,825,826,827;,
 4;828,829,830,831;,
 4;832,833,834,835;,
 4;832,825,836,837;,
 4;838,839,826,835;,
 4;840,841,842,843;,
 4;844,845,846,847;,
 4;848,849,850,851;,
 4;852,853,854,855;,
 4;852,845,856,857;,
 4;858,859,846,855;,
 4;860,861,862,863;,
 4;864,865,866,867;,
 4;868,869,870,871;,
 4;872,873,874,875;,
 4;872,865,876,877;,
 4;878,879,866,875;,
 4;880,881,882,883;,
 4;884,885,886,887;,
 4;888,889,890,891;,
 4;892,893,894,895;,
 4;892,885,896,897;,
 4;898,899,886,895;,
 4;900,901,902,903;,
 4;904,905,906,907;,
 4;908,909,910,911;,
 4;912,913,914,915;,
 4;912,905,916,917;,
 4;918,919,906,915;,
 4;920,921,922,923;,
 4;924,925,926,927;,
 4;928,929,930,931;,
 4;932,933,934,935;,
 4;932,925,936,937;,
 4;938,939,926,935;,
 4;940,941,942,943;,
 4;944,945,946,947;,
 4;948,949,950,951;,
 4;952,953,954,955;,
 4;952,945,956,957;,
 4;958,959,946,955;,
 4;960,961,962,963;,
 4;964,965,966,967;,
 4;968,969,970,971;,
 4;972,973,974,975;,
 4;972,965,976,977;,
 4;978,979,966,975;,
 4;980,981,982,983;,
 4;984,985,986,987;,
 4;988,989,990,991;,
 4;992,993,994,995;,
 4;992,985,996,997;,
 4;998,999,986,995;,
 4;1000,1001,1002,1003;,
 4;1004,1005,1006,1007;,
 4;1008,1009,1010,1011;,
 4;1012,1013,1014,1015;,
 4;1012,1005,1016,1017;,
 4;1018,1019,1006,1015;,
 4;1020,1021,1022,1023;,
 4;1024,1025,1026,1027;,
 4;1028,1029,1030,1031;,
 4;1032,1033,1034,1035;,
 4;1032,1025,1036,1037;,
 4;1038,1039,1026,1035;,
 4;1040,1041,1042,1043;,
 4;1044,1045,1046,1047;,
 4;1048,1049,1050,1051;,
 4;1052,1053,1054,1055;,
 4;1052,1045,1056,1057;,
 4;1058,1059,1046,1055;,
 4;1060,1061,1062,1063;,
 4;1064,1065,1066,1067;,
 4;1068,1069,1070,1071;,
 4;1072,1073,1074,1075;,
 4;1072,1065,1076,1077;,
 4;1078,1079,1066,1075;,
 4;1080,1081,1082,1083;,
 4;1084,1085,1086,1087;,
 4;1088,1089,1090,1091;,
 4;1092,1093,1094,1095;,
 4;1092,1085,1096,1097;,
 4;1098,1099,1086,1095;,
 4;1100,1101,1102,1103;,
 4;1104,1105,1106,1107;,
 4;1108,1109,1110,1111;,
 4;1112,1113,1114,1115;,
 4;1112,1105,1116,1117;,
 4;1118,1119,1106,1115;,
 4;1120,1121,1122,1123;,
 4;1124,1125,1126,1127;,
 4;1128,1129,1130,1131;,
 4;1132,1133,1134,1135;,
 4;1132,1125,1136,1137;,
 4;1138,1139,1126,1135;,
 4;1140,1141,1142,1143;,
 4;1144,1145,1146,1147;,
 4;1148,1149,1150,1151;,
 4;1152,1153,1154,1155;,
 4;1152,1145,1156,1157;,
 4;1158,1159,1146,1155;;
 
 MeshMaterialList {
  2;
  348;
  0,
  0,
  0,
  0,
  0,
  0,
  0,
  0,
  0,
  0,
  0,
  0,
  0,
  0,
  0,
  0,
  0,
  0,
  0,
  0,
  0,
  0,
  0,
  0,
  0,
  0,
  0,
  0,
  0,
  0,
  0,
  0,
  0,
  0,
  0,
  0,
  0,
  0,
  0,
  0,
  0,
  0,
  0,
  0,
  0,
  0,
  0,
  0,
  0,
  0,
  0,
  0,
  0,
  0,
  0,
  0,
  0,
  0,
  0,
  0,
  0,
  0,
  0,
  0,
  0,
  0,
  0,
  0,
  0,
  0,
  0,
  0,
  1,
  1,
  1,
  1,
  1,
  1,
  1,
  1,
  1,
  1,
  1,
  1,
  1,
  1,
  1,
  1,
  1,
  1,
  1,
  1,
  1,
  1,
  1,
  1,
  1,
  1,
  1,
  1,
  1,
  1,
  1,
  1,
  1,
  1,
  1,
  1,
  1,
  1,
  1,
  1,
  1,
  1,
  1,
  1,
  1,
  1,
  1,
  1,
  1,
  1,
  1,
  1,
  1,
  1,
  1,
  1,
  1,
  1,
  1,
  1,
  1,
  1,
  1,
  1,
  1,
  1,
  1,
  1,
  1,
  1,
  1,
  1,
  1,
  1,
  1,
  1,
  1,
  1,
  1,
  1,
  1,
  1,
  1,
  1,
  1,
  1,
  1,
  1,
  1,
  1,
  1,
  1,
  1,
  1,
  1,
  1,
  1,
  1,
  1,
  1,
  1,
  1,
  1,
  1,
  1,
  1,
  1,
  1,
  1,
  1,
  1,
  1,
  1,
  1,
  1,
  1,
  1,
  1,
  1,
  1,
  1,
  1,
  1,
  1,
  1,
  1,
  1,
  1,
  1,
  1,
  1,
  1,
  1,
  1,
  1,
  1,
  1,
  1,
  1,
  1,
  1,
  1,
  1,
  1,
  1,
  1,
  1,
  1,
  1,
  1,
  1,
  1,
  1,
  1,
  1,
  1,
  1,
  1,
  1,
  1,
  1,
  1,
  1,
  1,
  1,
  1,
  1,
  1,
  1,
  1,
  1,
  1,
  1,
  1,
  1,
  1,
  1,
  1,
  1,
  1,
  1,
  1,
  1,
  1,
  1,
  1,
  1,
  1,
  1,
  1,
  1,
  1,
  1,
  1,
  1,
  1,
  1,
  1,
  1,
  1,
  1,
  1,
  1,
  1,
  1,
  1,
  1,
  1,
  1,
  1,
  1,
  1,
  1,
  1,
  1,
  1,
  1,
  1,
  1,
  1,
  1,
  1,
  1,
  1,
  1,
  1,
  1,
  1,
  1,
  1,
  1,
  1,
  1,
  1,
  1,
  1,
  1,
  1,
  1,
  1,
  1,
  1,
  1,
  1,
  1,
  1,
  1,
  1,
  1,
  1,
  1,
  1,
  1,
  1,
  1,
  1,
  1,
  1,
  1,
  1,
  1,
  1,
  1,
  1,
  1,
  1,
  1,
  1,
  1,
  1,
  1,
  1,
  1,
  1,
  1,
  1;;
  Material {
   0.800000;0.000000;0.000000;1.000000;;
   5.000000;
   0.000000;0.000000;0.000000;;
   0.000000;0.000000;0.000000;;
  }
  Material {
   0.000000;0.000000;0.800000;1.000000;;
   5.000000;
   0.000000;0.000000;0.000000;;
   0.000000;0.000000;0.000000;;
  }
 }
 MeshNormals {
  204;
  0.000000;0.000000;-1.000000;,
  1.000000;0.000000;0.000000;,
  0.000000;0.000000;1.000000;,
  -1.000000;0.000000;0.000000;,
  0.000000;1.000000;0.000000;,
  0.000000;-1.000000;-0.000000;,
  0.000000;0.000000;-1.000000;,
  1.000000;0.000000;0.000000;,
  0.000000;0.000000;1.000000;,
  -1.000000;0.000000;0.000000;,
  0.000000;1.000000;0.000000;,
  0.000000;-1.000000;-0.000000;,
  0.000000;0.000000;-1.000000;,
  1.000000;0.000000;0.000000;,
  0.000000;0.000000;1.000000;,
  -1.000000;0.000000;0.000000;,
  0.000000;1.000000;0.000000;,
  0.000000;-1.000000;-0.000000;,
  0.000000;0.000000;-1.000000;,
  1.000000;0.000000;0.000000;,
  0.000000;0.000000;1.000000;,
  -1.000000;0.000000;0.000000;,
  0.000000;1.000000;0.000000;,
  0.000000;-1.000000;-0.000000;,
  0.000000;0.000000;-1.000000;,
  1.000000;0.000000;0.000000;,
  0.000000;0.000000;1.000000;,
  -1.000000;0.000000;0.000000;,
  0.000000;1.000000;0.000000;,
  0.000000;-1.000000;-0.000000;,
  0.000000;0.000000;-1.000000;,
  1.000000;0.000000;0.000000;,
  0.000000;0.000000;1.000000;,
  -1.000000;0.000000;0.000000;,
  0.000000;1.000000;0.000000;,
  0.000000;-1.000000;-0.000000;,
  0.000000;0.000000;-1.000000;,
  1.000000;0.000000;0.000000;,
  0.000000;0.000000;1.000000;,
  -1.000000;0.000000;0.000000;,
  0.000000;1.000000;0.000000;,
  0.000000;-1.000000;-0.000000;,
  0.000000;0.000000;-1.000000;,
  1.000000;0.000000;0.000000;,
  0.000000;0.000000;1.000000;,
  -1.000000;0.000000;0.000000;,
  0.000000;1.000000;0.000000;,
  0.000000;-1.000000;-0.000000;,
  0.000000;0.000000;-1.000000;,
  1.000000;0.000000;0.000000;,
  0.000000;0.000000;1.000000;,
  -1.000000;0.000000;0.000000;,
  0.000000;1.000000;0.000000;,
  0.000000;-1.000000;-0.000000;,
  0.000000;0.000000;-1.000000;,
  1.000000;0.000000;0.000000;,
  0.000000;0.000000;1.000000;,
  -1.000000;0.000000;0.000000;,
  0.000000;1.000000;0.000000;,
  0.000000;-1.000000;-0.000000;,
  0.000000;1.000000;0.000000;,
  1.000000;0.000000;0.000000;,
  0.000000;-1.000000;-0.000000;,
  -1.000000;0.000000;0.000000;,
  0.000000;0.000000;1.000000;,
  0.000000;0.000000;-1.000000;,
  0.000000;1.000000;0.000000;,
  1.000000;0.000000;0.000000;,
  0.000000;-1.000000;-0.000000;,
  -1.000000;0.000000;0.000000;,
  0.000000;0.000000;1.000000;,
  0.000000;0.000000;-1.000000;,
  0.000000;1.000000;0.000000;,
  1.000000;0.000000;0.000000;,
  0.000000;-1.000000;-0.000000;,
  -1.000000;0.000000;0.000000;,
  0.000000;0.000000;1.000000;,
  0.000000;0.000000;-1.000000;,
  0.000000;1.000000;0.000000;,
  1.000000;0.000000;0.000000;,
  0.000000;-1.000000;-0.000000;,
  -1.000000;0.000000;0.000000;,
  0.000000;0.000000;1.000000;,
  0.000000;0.000000;-1.000000;,
  0.000000;1.000000;0.000000;,
  -0.000000;0.000000;-1.000000;,
  -0.000000;-1.000000;0.000000;,
  0.000000;0.000000;1.000000;,
  1.000000;0.000000;0.000000;,
  -1.000000;0.000000;0.000000;,
  0.000000;1.000000;0.000000;,
  -0.000000;0.000000;-1.000000;,
  -0.000000;-1.000000;0.000000;,
  0.000000;0.000000;1.000000;,
  1.000000;0.000000;0.000000;,
  -1.000000;0.000000;0.000000;,
  0.000000;1.000000;0.000000;,
  -0.000000;0.000000;-1.000000;,
  -0.000000;-1.000000;0.000000;,
  0.000000;0.000000;1.000000;,
  1.000000;0.000000;0.000000;,
  -1.000000;0.000000;0.000000;,
  0.000000;1.000000;0.000000;,
  -0.000000;0.000000;-1.000000;,
  -0.000000;-1.000000;0.000000;,
  0.000000;0.000000;1.000000;,
  1.000000;0.000000;0.000000;,
  -1.000000;0.000000;0.000000;,
  0.000000;1.000000;0.000000;,
  1.000000;0.000000;0.000000;,
  0.000000;-1.000000;-0.000000;,
  -1.000000;0.000000;0.000000;,
  0.000000;0.000000;1.000000;,
  0.000000;0.000000;-1.000000;,
  0.000000;1.000000;0.000000;,
  -0.000000;0.000000;-1.000000;,
  -0.000000;-1.000000;0.000000;,
  0.000000;0.000000;1.000000;,
  1.000000;0.000000;0.000000;,
  -1.000000;0.000000;0.000000;,
  0.000000;1.000000;0.000000;,
  -0.000000;0.000000;-1.000000;,
  -0.000000;-1.000000;0.000000;,
  0.000000;0.000000;1.000000;,
  1.000000;0.000000;0.000000;,
  -1.000000;0.000000;0.000000;,
  0.000000;1.000000;-0.000000;,
  -1.000000;0.000000;0.000000;,
  0.000000;-1.000000;0.000000;,
  1.000000;0.000000;-0.000000;,
  0.000000;0.000000;-1.000000;,
  0.000000;0.000000;1.000000;,
  0.000000;1.000000;-0.000000;,
  -1.000000;0.000000;0.000000;,
  0.000000;-1.000000;0.000000;,
  1.000000;0.000000;-0.000000;,
  0.000000;0.000000;-1.000000;,
  0.000000;0.000000;1.000000;,
  0.000000;1.000000;-0.000000;,
  -1.000000;0.000000;0.000000;,
  0.000000;-1.000000;0.000000;,
  1.000000;0.000000;-0.000000;,
  0.000000;0.000000;-1.000000;,
  0.000000;0.000000;1.000000;,
  0.000000;1.000000;-0.000000;,
  -1.000000;0.000000;0.000000;,
  0.000000;-1.000000;0.000000;,
  1.000000;0.000000;-0.000000;,
  0.000000;0.000000;-1.000000;,
  0.000000;0.000000;1.000000;,
  0.000000;1.000000;-0.000000;,
  -1.000000;0.000000;0.000000;,
  0.000000;-1.000000;0.000000;,
  1.000000;0.000000;-0.000000;,
  0.000000;0.000000;-1.000000;,
  0.000000;0.000000;1.000000;,
  0.000000;1.000000;-0.000000;,
  -1.000000;0.000000;0.000000;,
  0.000000;-1.000000;0.000000;,
  1.000000;0.000000;-0.000000;,
  0.000000;0.000000;-1.000000;,
  0.000000;0.000000;1.000000;,
  -0.000000;1.000000;0.000000;,
  0.000000;0.000000;1.000000;,
  0.000000;-1.000000;-0.000000;,
  -0.000000;0.000000;-1.000000;,
  -1.000000;0.000000;0.000000;,
  1.000000;0.000000;0.000000;,
  -0.000000;1.000000;0.000000;,
  0.000000;0.000000;1.000000;,
  0.000000;-1.000000;-0.000000;,
  -0.000000;0.000000;-1.000000;,
  -1.000000;0.000000;0.000000;,
  1.000000;0.000000;0.000000;,
  -0.000000;1.000000;0.000000;,
  0.000000;0.000000;1.000000;,
  0.000000;-1.000000;-0.000000;,
  -0.000000;0.000000;-1.000000;,
  -1.000000;0.000000;0.000000;,
  1.000000;0.000000;0.000000;,
  -0.000000;1.000000;0.000000;,
  0.000000;0.000000;1.000000;,
  0.000000;-1.000000;-0.000000;,
  -0.000000;0.000000;-1.000000;,
  -1.000000;0.000000;0.000000;,
  1.000000;0.000000;0.000000;,
  0.000000;1.000000;0.000000;,
  1.000000;0.000000;-0.000000;,
  0.000000;-1.000000;-0.000000;,
  -1.000000;0.000000;0.000000;,
  0.000000;0.000000;1.000000;,
  0.000000;0.000000;-1.000000;,
  0.000000;1.000000;0.000000;,
  1.000000;0.000000;-0.000000;,
  0.000000;-1.000000;-0.000000;,
  -1.000000;0.000000;0.000000;,
  0.000000;0.000000;1.000000;,
  0.000000;0.000000;-1.000000;,
  -0.000000;1.000000;0.000000;,
  0.000000;0.000000;1.000000;,
  0.000000;-1.000000;-0.000000;,
  -0.000000;0.000000;-1.000000;,
  -1.000000;0.000000;0.000000;,
  1.000000;0.000000;0.000000;;
  348;
  4;0,0,0,0;,
  4;1,1,1,1;,
  4;2,2,2,2;,
  4;3,3,3,3;,
  4;4,4,4,4;,
  4;5,5,5,5;,
  4;6,6,6,6;,
  4;7,7,7,7;,
  4;8,8,8,8;,
  4;9,9,9,9;,
  4;10,10,10,10;,
  4;11,11,11,11;,
  4;12,12,12,12;,
  4;13,13,13,13;,
  4;14,14,14,14;,
  4;15,15,15,15;,
  4;16,16,16,16;,
  4;17,17,17,17;,
  4;18,18,18,18;,
  4;19,19,19,19;,
  4;20,20,20,20;,
  4;21,21,21,21;,
  4;22,22,22,22;,
  4;23,23,23,23;,
  4;24,24,24,24;,
  4;25,25,25,25;,
  4;26,26,26,26;,
  4;27,27,27,27;,
  4;28,28,28,28;,
  4;29,29,29,29;,
  4;30,30,30,30;,
  4;31,31,31,31;,
  4;32,32,32,32;,
  4;33,33,33,33;,
  4;34,34,34,34;,
  4;35,35,35,35;,
  4;36,36,36,36;,
  4;37,37,37,37;,
  4;38,38,38,38;,
  4;39,39,39,39;,
  4;40,40,40,40;,
  4;41,41,41,41;,
  4;42,42,42,42;,
  4;43,43,43,43;,
  4;44,44,44,44;,
  4;45,45,45,45;,
  4;46,46,46,46;,
  4;47,47,47,47;,
  4;48,48,48,48;,
  4;49,49,49,49;,
  4;50,50,50,50;,
  4;51,51,51,51;,
  4;52,52,52,52;,
  4;53,53,53,53;,
  4;48,48,48,48;,
  4;49,49,49,49;,
  4;50,50,50,50;,
  4;51,51,51,51;,
  4;52,52,52,52;,
  4;53,53,53,53;,
  4;54,54,54,54;,
  4;55,55,55,55;,
  4;56,56,56,56;,
  4;57,57,57,57;,
  4;58,58,58,58;,
  4;59,59,59,59;,
  4;54,54,54,54;,
  4;55,55,55,55;,
  4;56,56,56,56;,
  4;57,57,57,57;,
  4;58,58,58,58;,
  4;59,59,59,59;,
  4;60,60,60,60;,
  4;61,61,61,61;,
  4;62,62,62,62;,
  4;63,63,63,63;,
  4;64,64,64,64;,
  4;65,65,65,65;,
  4;66,66,66,66;,
  4;67,67,67,67;,
  4;68,68,68,68;,
  4;69,69,69,69;,
  4;70,70,70,70;,
  4;71,71,71,71;,
  4;72,72,72,72;,
  4;73,73,73,73;,
  4;74,74,74,74;,
  4;75,75,75,75;,
  4;76,76,76,76;,
  4;77,77,77,77;,
  4;72,72,72,72;,
  4;73,73,73,73;,
  4;74,74,74,74;,
  4;75,75,75,75;,
  4;76,76,76,76;,
  4;77,77,77,77;,
  4;78,78,78,78;,
  4;79,79,79,79;,
  4;80,80,80,80;,
  4;81,81,81,81;,
  4;82,82,82,82;,
  4;83,83,83,83;,
  4;78,78,78,78;,
  4;79,79,79,79;,
  4;80,80,80,80;,
  4;81,81,81,81;,
  4;82,82,82,82;,
  4;83,83,83,83;,
  4;84,84,84,84;,
  4;85,85,85,85;,
  4;86,86,86,86;,
  4;87,87,87,87;,
  4;88,88,88,88;,
  4;89,89,89,89;,
  4;84,84,84,84;,
  4;85,85,85,85;,
  4;86,86,86,86;,
  4;87,87,87,87;,
  4;88,88,88,88;,
  4;89,89,89,89;,
  4;90,90,90,90;,
  4;91,91,91,91;,
  4;92,92,92,92;,
  4;93,93,93,93;,
  4;94,94,94,94;,
  4;95,95,95,95;,
  4;90,90,90,90;,
  4;91,91,91,91;,
  4;92,92,92,92;,
  4;93,93,93,93;,
  4;94,94,94,94;,
  4;95,95,95,95;,
  4;96,96,96,96;,
  4;97,97,97,97;,
  4;98,98,98,98;,
  4;99,99,99,99;,
  4;100,100,100,100;,
  4;101,101,101,101;,
  4;96,96,96,96;,
  4;97,97,97,97;,
  4;98,98,98,98;,
  4;99,99,99,99;,
  4;100,100,100,100;,
  4;101,101,101,101;,
  4;102,102,102,102;,
  4;103,103,103,103;,
  4;104,104,104,104;,
  4;105,105,105,105;,
  4;106,106,106,106;,
  4;107,107,107,107;,
  4;102,102,102,102;,
  4;103,103,103,103;,
  4;104,104,104,104;,
  4;105,105,105,105;,
  4;106,106,106,106;,
  4;107,107,107,107;,
  4;108,108,108,108;,
  4;109,109,109,109;,
  4;110,110,110,110;,
  4;111,111,111,111;,
  4;112,112,112,112;,
  4;113,113,113,113;,
  4;108,108,108,108;,
  4;109,109,109,109;,
  4;110,110,110,110;,
  4;111,111,111,111;,
  4;112,112,112,112;,
  4;113,113,113,113;,
  4;114,114,114,114;,
  4;115,115,115,115;,
  4;116,116,116,116;,
  4;117,117,117,117;,
  4;118,118,118,118;,
  4;119,119,119,119;,
  4;114,114,114,114;,
  4;115,115,115,115;,
  4;116,116,116,116;,
  4;117,117,117,117;,
  4;118,118,118,118;,
  4;119,119,119,119;,
  4;120,120,120,120;,
  4;121,121,121,121;,
  4;122,122,122,122;,
  4;123,123,123,123;,
  4;124,124,124,124;,
  4;125,125,125,125;,
  4;120,120,120,120;,
  4;121,121,121,121;,
  4;122,122,122,122;,
  4;123,123,123,123;,
  4;124,124,124,124;,
  4;125,125,125,125;,
  4;126,126,126,126;,
  4;127,127,127,127;,
  4;128,128,128,128;,
  4;129,129,129,129;,
  4;130,130,130,130;,
  4;131,131,131,131;,
  4;126,126,126,126;,
  4;127,127,127,127;,
  4;128,128,128,128;,
  4;129,129,129,129;,
  4;130,130,130,130;,
  4;131,131,131,131;,
  4;132,132,132,132;,
  4;133,133,133,133;,
  4;134,134,134,134;,
  4;135,135,135,135;,
  4;136,136,136,136;,
  4;137,137,137,137;,
  4;132,132,132,132;,
  4;133,133,133,133;,
  4;134,134,134,134;,
  4;135,135,135,135;,
  4;136,136,136,136;,
  4;137,137,137,137;,
  4;138,138,138,138;,
  4;139,139,139,139;,
  4;140,140,140,140;,
  4;141,141,141,141;,
  4;142,142,142,142;,
  4;143,143,143,143;,
  4;138,138,138,138;,
  4;139,139,139,139;,
  4;140,140,140,140;,
  4;141,141,141,141;,
  4;142,142,142,142;,
  4;143,143,143,143;,
  4;144,144,144,144;,
  4;145,145,145,145;,
  4;146,146,146,146;,
  4;147,147,147,147;,
  4;148,148,148,148;,
  4;149,149,149,149;,
  4;144,144,144,144;,
  4;145,145,145,145;,
  4;146,146,146,146;,
  4;147,147,147,147;,
  4;148,148,148,148;,
  4;149,149,149,149;,
  4;150,150,150,150;,
  4;151,151,151,151;,
  4;152,152,152,152;,
  4;153,153,153,153;,
  4;154,154,154,154;,
  4;155,155,155,155;,
  4;150,150,150,150;,
  4;151,151,151,151;,
  4;152,152,152,152;,
  4;153,153,153,153;,
  4;154,154,154,154;,
  4;155,155,155,155;,
  4;156,156,156,156;,
  4;157,157,157,157;,
  4;158,158,158,158;,
  4;159,159,159,159;,
  4;160,160,160,160;,
  4;161,161,161,161;,
  4;156,156,156,156;,
  4;157,157,157,157;,
  4;158,158,158,158;,
  4;159,159,159,159;,
  4;160,160,160,160;,
  4;161,161,161,161;,
  4;162,162,162,162;,
  4;163,163,163,163;,
  4;164,164,164,164;,
  4;165,165,165,165;,
  4;166,166,166,166;,
  4;167,167,167,167;,
  4;162,162,162,162;,
  4;163,163,163,163;,
  4;164,164,164,164;,
  4;165,165,165,165;,
  4;166,166,166,166;,
  4;167,167,167,167;,
  4;168,168,168,168;,
  4;169,169,169,169;,
  4;170,170,170,170;,
  4;171,171,171,171;,
  4;172,172,172,172;,
  4;173,173,173,173;,
  4;168,168,168,168;,
  4;169,169,169,169;,
  4;170,170,170,170;,
  4;171,171,171,171;,
  4;172,172,172,172;,
  4;173,173,173,173;,
  4;174,174,174,174;,
  4;175,175,175,175;,
  4;176,176,176,176;,
  4;177,177,177,177;,
  4;178,178,178,178;,
  4;179,179,179,179;,
  4;174,174,174,174;,
  4;175,175,175,175;,
  4;176,176,176,176;,
  4;177,177,177,177;,
  4;178,178,178,178;,
  4;179,179,179,179;,
  4;180,180,180,180;,
  4;181,181,181,181;,
  4;182,182,182,182;,
  4;183,183,183,183;,
  4;184,184,184,184;,
  4;185,185,185,185;,
  4;180,180,180,180;,
  4;181,181,181,181;,
  4;182,182,182,182;,
  4;183,183,183,183;,
  4;184,184,184,184;,
  4;185,185,185,185;,
  4;186,186,186,186;,
  4;187,187,187,187;,
  4;188,188,188,188;,
  4;189,189,189,189;,
  4;190,190,190,190;,
  4;191,191,191,191;,
  4;186,186,186,186;,
  4;187,187,187,187;,
  4;188,188,188,188;,
  4;189,189,189,189;,
  4;190,190,190,190;,
  4;191,191,191,191;,
  4;192,192,192,192;,
  4;193,193,193,193;,
  4;194,194,194,194;,
  4;195,195,195,195;,
  4;196,196,196,196;,
  4;197,197,197,197;,
  4;192,192,192,192;,
  4;193,193,193,193;,
  4;194,194,194,194;,
  4;195,195,195,195;,
  4;196,196,196,196;,
  4;197,197,197,197;,
  4;198,198,198,198;,
  4;199,199,199,199;,
  4;200,200,200,200;,
  4;201,201,201,201;,
  4;202,202,202,202;,
  4;203,203,203,203;,
  4;198,198,198,198;,
  4;199,199,199,199;,
  4;200,200,200,200;,
  4;201,201,201,201;,
  4;202,202,202,202;,
  4;203,203,203,203;;
 }
 MeshTextureCoords {
  1160;
  0.000000;0.000000;,
  1.000000;0.000000;,
  1.000000;1.000000;,
  0.000000;1.000000;,
  0.000000;0.000000;,
  1.000000;0.000000;,
  1.000000;1.000000;,
  0.000000;1.000000;,
  0.000000;0.000000;,
  1.000000;0.000000;,
  1.000000;1.000000;,
  0.000000;1.000000;,
  0.000000;0.000000;,
  1.000000;0.000000;,
  1.000000;1.000000;,
  0.000000;1.000000;,
  1.000000;1.000000;,
  0.000000;1.000000;,
  0.000000;0.000000;,
  1.000000;0.000000;,
  0.000000;0.000000;,
  1.000000;0.000000;,
  1.000000;1.000000;,
  0.000000;1.000000;,
  0.000000;0.000000;,
  1.000000;0.000000;,
  1.000000;1.000000;,
  0.000000;1.000000;,
  0.000000;0.000000;,
  1.000000;0.000000;,
  1.000000;1.000000;,
  0.000000;1.000000;,
  0.000000;0.000000;,
  1.000000;0.000000;,
  1.000000;1.000000;,
  0.000000;1.000000;,
  1.000000;1.000000;,
  0.000000;1.000000;,
  0.000000;0.000000;,
  1.000000;0.000000;,
  0.000000;0.000000;,
  1.000000;0.000000;,
  1.000000;1.000000;,
  0.000000;1.000000;,
  0.000000;0.000000;,
  1.000000;0.000000;,
  1.000000;1.000000;,
  0.000000;1.000000;,
  0.000000;0.000000;,
  1.000000;0.000000;,
  1.000000;1.000000;,
  0.000000;1.000000;,
  0.000000;0.000000;,
  1.000000;0.000000;,
  1.000000;1.000000;,
  0.000000;1.000000;,
  1.000000;1.000000;,
  0.000000;1.000000;,
  0.000000;0.000000;,
  1.000000;0.000000;,
  0.000000;0.000000;,
  1.000000;0.000000;,
  1.000000;1.000000;,
  0.000000;1.000000;,
  0.000000;0.000000;,
  1.000000;0.000000;,
  1.000000;1.000000;,
  0.000000;1.000000;,
  0.000000;0.000000;,
  1.000000;0.000000;,
  1.000000;1.000000;,
  0.000000;1.000000;,
  0.000000;0.000000;,
  1.000000;0.000000;,
  1.000000;1.000000;,
  0.000000;1.000000;,
  1.000000;1.000000;,
  0.000000;1.000000;,
  0.000000;0.000000;,
  1.000000;0.000000;,
  0.000000;0.000000;,
  1.000000;0.000000;,
  1.000000;1.000000;,
  0.000000;1.000000;,
  0.000000;0.000000;,
  1.000000;0.000000;,
  1.000000;1.000000;,
  0.000000;1.000000;,
  0.000000;0.000000;,
  1.000000;0.000000;,
  1.000000;1.000000;,
  0.000000;1.000000;,
  0.000000;0.000000;,
  1.000000;0.000000;,
  1.000000;1.000000;,
  0.000000;1.000000;,
  1.000000;1.000000;,
  0.000000;1.000000;,
  0.000000;0.000000;,
  1.000000;0.000000;,
  0.000000;0.000000;,
  1.000000;0.000000;,
  1.000000;1.000000;,
  0.000000;1.000000;,
  0.000000;0.000000;,
  1.000000;0.000000;,
  1.000000;1.000000;,
  0.000000;1.000000;,
  0.000000;0.000000;,
  1.000000;0.000000;,
  1.000000;1.000000;,
  0.000000;1.000000;,
  0.000000;0.000000;,
  1.000000;0.000000;,
  1.000000;1.000000;,
  0.000000;1.000000;,
  1.000000;1.000000;,
  0.000000;1.000000;,
  0.000000;0.000000;,
  1.000000;0.000000;,
  0.000000;0.000000;,
  1.000000;0.000000;,
  1.000000;1.000000;,
  0.000000;1.000000;,
  0.000000;0.000000;,
  1.000000;0.000000;,
  1.000000;1.000000;,
  0.000000;1.000000;,
  0.000000;0.000000;,
  1.000000;0.000000;,
  1.000000;1.000000;,
  0.000000;1.000000;,
  0.000000;0.000000;,
  1.000000;0.000000;,
  1.000000;1.000000;,
  0.000000;1.000000;,
  1.000000;1.000000;,
  0.000000;1.000000;,
  0.000000;0.000000;,
  1.000000;0.000000;,
  0.000000;0.000000;,
  1.000000;0.000000;,
  1.000000;1.000000;,
  0.000000;1.000000;,
  0.000000;0.000000;,
  1.000000;0.000000;,
  1.000000;1.000000;,
  0.000000;1.000000;,
  0.000000;0.000000;,
  1.000000;0.000000;,
  1.000000;1.000000;,
  0.000000;1.000000;,
  0.000000;0.000000;,
  1.000000;0.000000;,
  1.000000;1.000000;,
  0.000000;1.000000;,
  1.000000;1.000000;,
  0.000000;1.000000;,
  0.000000;0.000000;,
  1.000000;0.000000;,
  0.000000;0.000000;,
  1.000000;0.000000;,
  1.000000;1.000000;,
  0.000000;1.000000;,
  0.000000;0.000000;,
  1.000000;0.000000;,
  1.000000;1.000000;,
  0.000000;1.000000;,
  0.000000;0.000000;,
  1.000000;0.000000;,
  1.000000;1.000000;,
  0.000000;1.000000;,
  0.000000;0.000000;,
  1.000000;0.000000;,
  1.000000;1.000000;,
  0.000000;1.000000;,
  1.000000;1.000000;,
  0.000000;1.000000;,
  0.000000;0.000000;,
  1.000000;0.000000;,
  0.000000;0.000000;,
  1.000000;0.000000;,
  1.000000;1.000000;,
  0.000000;1.000000;,
  0.000000;0.000000;,
  1.000000;0.000000;,
  1.000000;1.000000;,
  0.000000;1.000000;,
  0.000000;0.000000;,
  1.000000;0.000000;,
  1.000000;1.000000;,
  0.000000;1.000000;,
  0.000000;0.000000;,
  1.000000;0.000000;,
  1.000000;1.000000;,
  0.000000;1.000000;,
  1.000000;1.000000;,
  0.000000;1.000000;,
  0.000000;0.000000;,
  1.000000;0.000000;,
  0.000000;0.000000;,
  1.000000;0.000000;,
  1.000000;1.000000;,
  0.000000;1.000000;,
  0.000000;0.000000;,
  1.000000;0.000000;,
  1.000000;1.000000;,
  0.000000;1.000000;,
  0.000000;0.000000;,
  1.000000;0.000000;,
  1.000000;1.000000;,
  0.000000;1.000000;,
  0.000000;0.000000;,
  1.000000;0.000000;,
  1.000000;1.000000;,
  0.000000;1.000000;,
  1.000000;1.000000;,
  0.000000;1.000000;,
  0.000000;0.000000;,
  1.000000;0.000000;,
  0.000000;0.000000;,
  1.000000;0.000000;,
  1.000000;1.000000;,
  0.000000;1.000000;,
  0.000000;0.000000;,
  1.000000;0.000000;,
  1.000000;1.000000;,
  0.000000;1.000000;,
  0.000000;0.000000;,
  1.000000;0.000000;,
  1.000000;1.000000;,
  0.000000;1.000000;,
  0.000000;0.000000;,
  1.000000;0.000000;,
  1.000000;1.000000;,
  0.000000;1.000000;,
  1.000000;1.000000;,
  0.000000;1.000000;,
  0.000000;0.000000;,
  1.000000;0.000000;,
  0.000000;0.000000;,
  1.000000;0.000000;,
  1.000000;1.000000;,
  0.000000;1.000000;,
  0.000000;0.000000;,
  1.000000;0.000000;,
  1.000000;1.000000;,
  0.000000;1.000000;,
  0.000000;0.000000;,
  1.000000;0.000000;,
  1.000000;1.000000;,
  0.000000;1.000000;,
  0.000000;0.000000;,
  1.000000;0.000000;,
  1.000000;1.000000;,
  0.000000;1.000000;,
  1.000000;1.000000;,
  0.000000;1.000000;,
  0.000000;0.000000;,
  1.000000;0.000000;,
  0.000000;0.000000;,
  1.000000;0.000000;,
  1.000000;1.000000;,
  0.000000;1.000000;,
  0.000000;0.000000;,
  1.000000;0.000000;,
  1.000000;1.000000;,
  0.000000;1.000000;,
  0.000000;0.000000;,
  1.000000;0.000000;,
  1.000000;1.000000;,
  0.000000;1.000000;,
  0.000000;0.000000;,
  1.000000;0.000000;,
  1.000000;1.000000;,
  0.000000;1.000000;,
  1.000000;1.000000;,
  0.000000;1.000000;,
  0.000000;0.000000;,
  1.000000;0.000000;,
  0.000000;0.000000;,
  1.000000;0.000000;,
  1.000000;1.000000;,
  0.000000;1.000000;,
  0.000000;0.000000;,
  1.000000;0.000000;,
  1.000000;1.000000;,
  0.000000;1.000000;,
  0.000000;0.000000;,
  1.000000;0.000000;,
  1.000000;1.000000;,
  0.000000;1.000000;,
  0.000000;0.000000;,
  1.000000;0.000000;,
  1.000000;1.000000;,
  0.000000;1.000000;,
  1.000000;1.000000;,
  0.000000;1.000000;,
  0.000000;0.000000;,
  1.000000;0.000000;,
  0.000000;0.000000;,
  1.000000;0.000000;,
  1.000000;1.000000;,
  0.000000;1.000000;,
  0.000000;0.000000;,
  1.000000;0.000000;,
  1.000000;1.000000;,
  0.000000;1.000000;,
  0.000000;0.000000;,
  1.000000;0.000000;,
  1.000000;1.000000;,
  0.000000;1.000000;,
  0.000000;0.000000;,
  1.000000;0.000000;,
  1.000000;1.000000;,
  0.000000;1.000000;,
  1.000000;1.000000;,
  0.000000;1.000000;,
  0.000000;0.000000;,
  1.000000;0.000000;,
  0.000000;0.000000;,
  1.000000;0.000000;,
  1.000000;1.000000;,
  0.000000;1.000000;,
  0.000000;0.000000;,
  1.000000;0.000000;,
  1.000000;1.000000;,
  0.000000;1.000000;,
  0.000000;0.000000;,
  1.000000;0.000000;,
  1.000000;1.000000;,
  0.000000;1.000000;,
  0.000000;0.000000;,
  1.000000;0.000000;,
  1.000000;1.000000;,
  0.000000;1.000000;,
  1.000000;1.000000;,
  0.000000;1.000000;,
  0.000000;0.000000;,
  1.000000;0.000000;,
  0.000000;0.000000;,
  1.000000;0.000000;,
  1.000000;1.000000;,
  0.000000;1.000000;,
  0.000000;0.000000;,
  1.000000;0.000000;,
  1.000000;1.000000;,
  0.000000;1.000000;,
  0.000000;0.000000;,
  1.000000;0.000000;,
  1.000000;1.000000;,
  0.000000;1.000000;,
  0.000000;0.000000;,
  1.000000;0.000000;,
  1.000000;1.000000;,
  0.000000;1.000000;,
  1.000000;1.000000;,
  0.000000;1.000000;,
  0.000000;0.000000;,
  1.000000;0.000000;,
  0.000000;0.000000;,
  1.000000;0.000000;,
  1.000000;1.000000;,
  0.000000;1.000000;,
  0.000000;0.000000;,
  1.000000;0.000000;,
  1.000000;1.000000;,
  0.000000;1.000000;,
  0.000000;0.000000;,
  1.000000;0.000000;,
  1.000000;1.000000;,
  0.000000;1.000000;,
  0.000000;0.000000;,
  1.000000;0.000000;,
  1.000000;1.000000;,
  0.000000;1.000000;,
  1.000000;1.000000;,
  0.000000;1.000000;,
  0.000000;0.000000;,
  1.000000;0.000000;,
  0.000000;0.000000;,
  1.000000;0.000000;,
  1.000000;1.000000;,
  0.000000;1.000000;,
  0.000000;0.000000;,
  1.000000;0.000000;,
  1.000000;1.000000;,
  0.000000;1.000000;,
  0.000000;0.000000;,
  1.000000;0.000000;,
  1.000000;1.000000;,
  0.000000;1.000000;,
  0.000000;0.000000;,
  1.000000;0.000000;,
  1.000000;1.000000;,
  0.000000;1.000000;,
  1.000000;1.000000;,
  0.000000;1.000000;,
  0.000000;0.000000;,
  1.000000;0.000000;,
  0.000000;0.000000;,
  1.000000;0.000000;,
  1.000000;1.000000;,
  0.000000;1.000000;,
  0.000000;0.000000;,
  1.000000;0.000000;,
  1.000000;1.000000;,
  0.000000;1.000000;,
  0.000000;0.000000;,
  1.000000;0.000000;,
  1.000000;1.000000;,
  0.000000;1.000000;,
  0.000000;0.000000;,
  1.000000;0.000000;,
  1.000000;1.000000;,
  0.000000;1.000000;,
  1.000000;1.000000;,
  0.000000;1.000000;,
  0.000000;0.000000;,
  1.000000;0.000000;,
  0.000000;0.000000;,
  1.000000;0.000000;,
  1.000000;1.000000;,
  0.000000;1.000000;,
  0.000000;0.000000;,
  1.000000;0.000000;,
  1.000000;1.000000;,
  0.000000;1.000000;,
  0.000000;0.000000;,
  1.000000;0.000000;,
  1.000000;1.000000;,
  0.000000;1.000000;,
  0.000000;0.000000;,
  1.000000;0.000000;,
  1.000000;1.000000;,
  0.000000;1.000000;,
  1.000000;1.000000;,
  0.000000;1.000000;,
  0.000000;0.000000;,
  1.000000;0.000000;,
  0.000000;0.000000;,
  1.000000;0.000000;,
  1.000000;1.000000;,
  0.000000;1.000000;,
  0.000000;0.000000;,
  1.000000;0.000000;,
  1.000000;1.000000;,
  0.000000;1.000000;,
  0.000000;0.000000;,
  1.000000;0.000000;,
  1.000000;1.000000;,
  0.000000;1.000000;,
  0.000000;0.000000;,
  1.000000;0.000000;,
  1.000000;1.000000;,
  0.000000;1.000000;,
  1.000000;1.000000;,
  0.000000;1.000000;,
  0.000000;0.000000;,
  1.000000;0.000000;,
  0.000000;0.000000;,
  1.000000;0.000000;,
  1.000000;1.000000;,
  0.000000;1.000000;,
  0.000000;0.000000;,
  1.000000;0.000000;,
  1.000000;1.000000;,
  0.000000;1.000000;,
  0.000000;0.000000;,
  1.000000;0.000000;,
  1.000000;1.000000;,
  0.000000;1.000000;,
  0.000000;0.000000;,
  1.000000;0.000000;,
  1.000000;1.000000;,
  0.000000;1.000000;,
  1.000000;1.000000;,
  0.000000;1.000000;,
  0.000000;0.000000;,
  1.000000;0.000000;,
  0.000000;0.000000;,
  1.000000;0.000000;,
  1.000000;1.000000;,
  0.000000;1.000000;,
  0.000000;0.000000;,
  1.000000;0.000000;,
  1.000000;1.000000;,
  0.000000;1.000000;,
  0.000000;0.000000;,
  1.000000;0.000000;,
  1.000000;1.000000;,
  0.000000;1.000000;,
  0.000000;0.000000;,
  1.000000;0.000000;,
  1.000000;1.000000;,
  0.000000;1.000000;,
  1.000000;1.000000;,
  0.000000;1.000000;,
  0.000000;0.000000;,
  1.000000;0.000000;,
  0.000000;0.000000;,
  1.000000;0.000000;,
  1.000000;1.000000;,
  0.000000;1.000000;,
  0.000000;0.000000;,
  1.000000;0.000000;,
  1.000000;1.000000;,
  0.000000;1.000000;,
  0.000000;0.000000;,
  1.000000;0.000000;,
  1.000000;1.000000;,
  0.000000;1.000000;,
  0.000000;0.000000;,
  1.000000;0.000000;,
  1.000000;1.000000;,
  0.000000;1.000000;,
  1.000000;1.000000;,
  0.000000;1.000000;,
  0.000000;0.000000;,
  1.000000;0.000000;,
  0.000000;0.000000;,
  1.000000;0.000000;,
  1.000000;1.000000;,
  0.000000;1.000000;,
  0.000000;0.000000;,
  1.000000;0.000000;,
  1.000000;1.000000;,
  0.000000;1.000000;,
  0.000000;0.000000;,
  1.000000;0.000000;,
  1.000000;1.000000;,
  0.000000;1.000000;,
  0.000000;0.000000;,
  1.000000;0.000000;,
  1.000000;1.000000;,
  0.000000;1.000000;,
  1.000000;1.000000;,
  0.000000;1.000000;,
  0.000000;0.000000;,
  1.000000;0.000000;,
  0.000000;0.000000;,
  1.000000;0.000000;,
  1.000000;1.000000;,
  0.000000;1.000000;,
  0.000000;0.000000;,
  1.000000;0.000000;,
  1.000000;1.000000;,
  0.000000;1.000000;,
  0.000000;0.000000;,
  1.000000;0.000000;,
  1.000000;1.000000;,
  0.000000;1.000000;,
  0.000000;0.000000;,
  1.000000;0.000000;,
  1.000000;1.000000;,
  0.000000;1.000000;,
  1.000000;1.000000;,
  0.000000;1.000000;,
  0.000000;0.000000;,
  1.000000;0.000000;,
  0.000000;0.000000;,
  1.000000;0.000000;,
  1.000000;1.000000;,
  0.000000;1.000000;,
  0.000000;0.000000;,
  1.000000;0.000000;,
  1.000000;1.000000;,
  0.000000;1.000000;,
  0.000000;0.000000;,
  1.000000;0.000000;,
  1.000000;1.000000;,
  0.000000;1.000000;,
  0.000000;0.000000;,
  1.000000;0.000000;,
  1.000000;1.000000;,
  0.000000;1.000000;,
  1.000000;1.000000;,
  0.000000;1.000000;,
  0.000000;0.000000;,
  1.000000;0.000000;,
  0.000000;0.000000;,
  1.000000;0.000000;,
  1.000000;1.000000;,
  0.000000;1.000000;,
  0.000000;0.000000;,
  1.000000;0.000000;,
  1.000000;1.000000;,
  0.000000;1.000000;,
  0.000000;0.000000;,
  1.000000;0.000000;,
  1.000000;1.000000;,
  0.000000;1.000000;,
  0.000000;0.000000;,
  1.000000;0.000000;,
  1.000000;1.000000;,
  0.000000;1.000000;,
  1.000000;1.000000;,
  0.000000;1.000000;,
  0.000000;0.000000;,
  1.000000;0.000000;,
  0.000000;0.000000;,
  1.000000;0.000000;,
  1.000000;1.000000;,
  0.000000;1.000000;,
  0.000000;0.000000;,
  1.000000;0.000000;,
  1.000000;1.000000;,
  0.000000;1.000000;,
  0.000000;0.000000;,
  1.000000;0.000000;,
  1.000000;1.000000;,
  0.000000;1.000000;,
  0.000000;0.000000;,
  1.000000;0.000000;,
  1.000000;1.000000;,
  0.000000;1.000000;,
  1.000000;1.000000;,
  0.000000;1.000000;,
  0.000000;0.000000;,
  1.000000;0.000000;,
  0.000000;0.000000;,
  1.000000;0.000000;,
  1.000000;1.000000;,
  0.000000;1.000000;,
  0.000000;0.000000;,
  1.000000;0.000000;,
  1.000000;1.000000;,
  0.000000;1.000000;,
  0.000000;0.000000;,
  1.000000;0.000000;,
  1.000000;1.000000;,
  0.000000;1.000000;,
  0.000000;0.000000;,
  1.000000;0.000000;,
  1.000000;1.000000;,
  0.000000;1.000000;,
  1.000000;1.000000;,
  0.000000;1.000000;,
  0.000000;0.000000;,
  1.000000;0.000000;,
  0.000000;0.000000;,
  1.000000;0.000000;,
  1.000000;1.000000;,
  0.000000;1.000000;,
  0.000000;0.000000;,
  1.000000;0.000000;,
  1.000000;1.000000;,
  0.000000;1.000000;,
  0.000000;0.000000;,
  1.000000;0.000000;,
  1.000000;1.000000;,
  0.000000;1.000000;,
  0.000000;0.000000;,
  1.000000;0.000000;,
  1.000000;1.000000;,
  0.000000;1.000000;,
  1.000000;1.000000;,
  0.000000;1.000000;,
  0.000000;0.000000;,
  1.000000;0.000000;,
  0.000000;0.000000;,
  1.000000;0.000000;,
  1.000000;1.000000;,
  0.000000;1.000000;,
  0.000000;0.000000;,
  1.000000;0.000000;,
  1.000000;1.000000;,
  0.000000;1.000000;,
  0.000000;0.000000;,
  1.000000;0.000000;,
  1.000000;1.000000;,
  0.000000;1.000000;,
  0.000000;0.000000;,
  1.000000;0.000000;,
  1.000000;1.000000;,
  0.000000;1.000000;,
  1.000000;1.000000;,
  0.000000;1.000000;,
  0.000000;0.000000;,
  1.000000;0.000000;,
  0.000000;0.000000;,
  1.000000;0.000000;,
  1.000000;1.000000;,
  0.000000;1.000000;,
  0.000000;0.000000;,
  1.000000;0.000000;,
  1.000000;1.000000;,
  0.000000;1.000000;,
  0.000000;0.000000;,
  1.000000;0.000000;,
  1.000000;1.000000;,
  0.000000;1.000000;,
  0.000000;0.000000;,
  1.000000;0.000000;,
  1.000000;1.000000;,
  0.000000;1.000000;,
  1.000000;1.000000;,
  0.000000;1.000000;,
  0.000000;0.000000;,
  1.000000;0.000000;,
  0.000000;0.000000;,
  1.000000;0.000000;,
  1.000000;1.000000;,
  0.000000;1.000000;,
  0.000000;0.000000;,
  1.000000;0.000000;,
  1.000000;1.000000;,
  0.000000;1.000000;,
  0.000000;0.000000;,
  1.000000;0.000000;,
  1.000000;1.000000;,
  0.000000;1.000000;,
  0.000000;0.000000;,
  1.000000;0.000000;,
  1.000000;1.000000;,
  0.000000;1.000000;,
  1.000000;1.000000;,
  0.000000;1.000000;,
  0.000000;0.000000;,
  1.000000;0.000000;,
  0.000000;0.000000;,
  1.000000;0.000000;,
  1.000000;1.000000;,
  0.000000;1.000000;,
  0.000000;0.000000;,
  1.000000;0.000000;,
  1.000000;1.000000;,
  0.000000;1.000000;,
  0.000000;0.000000;,
  1.000000;0.000000;,
  1.000000;1.000000;,
  0.000000;1.000000;,
  0.000000;0.000000;,
  1.000000;0.000000;,
  1.000000;1.000000;,
  0.000000;1.000000;,
  1.000000;1.000000;,
  0.000000;1.000000;,
  0.000000;0.000000;,
  1.000000;0.000000;,
  0.000000;0.000000;,
  1.000000;0.000000;,
  1.000000;1.000000;,
  0.000000;1.000000;,
  0.000000;0.000000;,
  1.000000;0.000000;,
  1.000000;1.000000;,
  0.000000;1.000000;,
  0.000000;0.000000;,
  1.000000;0.000000;,
  1.000000;1.000000;,
  0.000000;1.000000;,
  0.000000;0.000000;,
  1.000000;0.000000;,
  1.000000;1.000000;,
  0.000000;1.000000;,
  1.000000;1.000000;,
  0.000000;1.000000;,
  0.000000;0.000000;,
  1.000000;0.000000;,
  0.000000;0.000000;,
  1.000000;0.000000;,
  1.000000;1.000000;,
  0.000000;1.000000;,
  0.000000;0.000000;,
  1.000000;0.000000;,
  1.000000;1.000000;,
  0.000000;1.000000;,
  0.000000;0.000000;,
  1.000000;0.000000;,
  1.000000;1.000000;,
  0.000000;1.000000;,
  0.000000;0.000000;,
  1.000000;0.000000;,
  1.000000;1.000000;,
  0.000000;1.000000;,
  1.000000;1.000000;,
  0.000000;1.000000;,
  0.000000;0.000000;,
  1.000000;0.000000;,
  0.000000;0.000000;,
  1.000000;0.000000;,
  1.000000;1.000000;,
  0.000000;1.000000;,
  0.000000;0.000000;,
  1.000000;0.000000;,
  1.000000;1.000000;,
  0.000000;1.000000;,
  0.000000;0.000000;,
  1.000000;0.000000;,
  1.000000;1.000000;,
  0.000000;1.000000;,
  0.000000;0.000000;,
  1.000000;0.000000;,
  1.000000;1.000000;,
  0.000000;1.000000;,
  1.000000;1.000000;,
  0.000000;1.000000;,
  0.000000;0.000000;,
  1.000000;0.000000;,
  0.000000;0.000000;,
  1.000000;0.000000;,
  1.000000;1.000000;,
  0.000000;1.000000;,
  0.000000;0.000000;,
  1.000000;0.000000;,
  1.000000;1.000000;,
  0.000000;1.000000;,
  0.000000;0.000000;,
  1.000000;0.000000;,
  1.000000;1.000000;,
  0.000000;1.000000;,
  0.000000;0.000000;,
  1.000000;0.000000;,
  1.000000;1.000000;,
  0.000000;1.000000;,
  1.000000;1.000000;,
  0.000000;1.000000;,
  0.000000;0.000000;,
  1.000000;0.000000;,
  0.000000;0.000000;,
  1.000000;0.000000;,
  1.000000;1.000000;,
  0.000000;1.000000;,
  0.000000;0.000000;,
  1.000000;0.000000;,
  1.000000;1.000000;,
  0.000000;1.000000;,
  0.000000;0.000000;,
  1.000000;0.000000;,
  1.000000;1.000000;,
  0.000000;1.000000;,
  0.000000;0.000000;,
  1.000000;0.000000;,
  1.000000;1.000000;,
  0.000000;1.000000;,
  1.000000;1.000000;,
  0.000000;1.000000;,
  0.000000;0.000000;,
  1.000000;0.000000;,
  0.000000;0.000000;,
  1.000000;0.000000;,
  1.000000;1.000000;,
  0.000000;1.000000;,
  0.000000;0.000000;,
  1.000000;0.000000;,
  1.000000;1.000000;,
  0.000000;1.000000;,
  0.000000;0.000000;,
  1.000000;0.000000;,
  1.000000;1.000000;,
  0.000000;1.000000;,
  0.000000;0.000000;,
  1.000000;0.000000;,
  1.000000;1.000000;,
  0.000000;1.000000;,
  1.000000;1.000000;,
  0.000000;1.000000;,
  0.000000;0.000000;,
  1.000000;0.000000;,
  0.000000;0.000000;,
  1.000000;0.000000;,
  1.000000;1.000000;,
  0.000000;1.000000;,
  0.000000;0.000000;,
  1.000000;0.000000;,
  1.000000;1.000000;,
  0.000000;1.000000;,
  0.000000;0.000000;,
  1.000000;0.000000;,
  1.000000;1.000000;,
  0.000000;1.000000;,
  0.000000;0.000000;,
  1.000000;0.000000;,
  1.000000;1.000000;,
  0.000000;1.000000;,
  1.000000;1.000000;,
  0.000000;1.000000;,
  0.000000;0.000000;,
  1.000000;0.000000;,
  0.000000;0.000000;,
  1.000000;0.000000;,
  1.000000;1.000000;,
  0.000000;1.000000;,
  0.000000;0.000000;,
  1.000000;0.000000;,
  1.000000;1.000000;,
  0.000000;1.000000;,
  0.000000;0.000000;,
  1.000000;0.000000;,
  1.000000;1.000000;,
  0.000000;1.000000;,
  0.000000;0.000000;,
  1.000000;0.000000;,
  1.000000;1.000000;,
  0.000000;1.000000;,
  1.000000;1.000000;,
  0.000000;1.000000;,
  0.000000;0.000000;,
  1.000000;0.000000;,
  0.000000;0.000000;,
  1.000000;0.000000;,
  1.000000;1.000000;,
  0.000000;1.000000;,
  0.000000;0.000000;,
  1.000000;0.000000;,
  1.000000;1.000000;,
  0.000000;1.000000;,
  0.000000;0.000000;,
  1.000000;0.000000;,
  1.000000;1.000000;,
  0.000000;1.000000;,
  0.000000;0.000000;,
  1.000000;0.000000;,
  1.000000;1.000000;,
  0.000000;1.000000;,
  1.000000;1.000000;,
  0.000000;1.000000;,
  0.000000;0.000000;,
  1.000000;0.000000;,
  0.000000;0.000000;,
  1.000000;0.000000;,
  1.000000;1.000000;,
  0.000000;1.000000;,
  0.000000;0.000000;,
  1.000000;0.000000;,
  1.000000;1.000000;,
  0.000000;1.000000;,
  0.000000;0.000000;,
  1.000000;0.000000;,
  1.000000;1.000000;,
  0.000000;1.000000;,
  0.000000;0.000000;,
  1.000000;0.000000;,
  1.000000;1.000000;,
  0.000000;1.000000;,
  1.000000;1.000000;,
  0.000000;1.000000;,
  0.000000;0.000000;,
  1.000000;0.000000;,
  0.000000;0.000000;,
  1.000000;0.000000;,
  1.000000;1.000000;,
  0.000000;1.000000;,
  0.000000;0.000000;,
  1.000000;0.000000;,
  1.000000;1.000000;,
  0.000000;1.000000;,
  0.000000;0.000000;,
  1.000000;0.000000;,
  1.000000;1.000000;,
  0.000000;1.000000;,
  0.000000;0.000000;,
  1.000000;0.000000;,
  1.000000;1.000000;,
  0.000000;1.000000;,
  1.000000;1.000000;,
  0.000000;1.000000;,
  0.000000;0.000000;,
  1.000000;0.000000;,
  0.000000;0.000000;,
  1.000000;0.000000;,
  1.000000;1.000000;,
  0.000000;1.000000;,
  0.000000;0.000000;,
  1.000000;0.000000;,
  1.000000;1.000000;,
  0.000000;1.000000;,
  0.000000;0.000000;,
  1.000000;0.000000;,
  1.000000;1.000000;,
  0.000000;1.000000;,
  0.000000;0.000000;,
  1.000000;0.000000;,
  1.000000;1.000000;,
  0.000000;1.000000;,
  1.000000;1.000000;,
  0.000000;1.000000;,
  0.000000;0.000000;,
  1.000000;0.000000;,
  0.000000;0.000000;,
  1.000000;0.000000;,
  1.000000;1.000000;,
  0.000000;1.000000;,
  0.000000;0.000000;,
  1.000000;0.000000;,
  1.000000;1.000000;,
  0.000000;1.000000;,
  0.000000;0.000000;,
  1.000000;0.000000;,
  1.000000;1.000000;,
  0.000000;1.000000;,
  0.000000;0.000000;,
  1.000000;0.000000;,
  1.000000;1.000000;,
  0.000000;1.000000;,
  1.000000;1.000000;,
  0.000000;1.000000;,
  0.000000;0.000000;,
  1.000000;0.000000;,
  0.000000;0.000000;,
  1.000000;0.000000;,
  1.000000;1.000000;,
  0.000000;1.000000;,
  0.000000;0.000000;,
  1.000000;0.000000;,
  1.000000;1.000000;,
  0.000000;1.000000;,
  0.000000;0.000000;,
  1.000000;0.000000;,
  1.000000;1.000000;,
  0.000000;1.000000;,
  0.000000;0.000000;,
  1.000000;0.000000;,
  1.000000;1.000000;,
  0.000000;1.000000;,
  1.000000;1.000000;,
  0.000000;1.000000;,
  0.000000;0.000000;,
  1.000000;0.000000;,
  0.000000;0.000000;,
  1.000000;0.000000;,
  1.000000;1.000000;,
  0.000000;1.000000;,
  0.000000;0.000000;,
  1.000000;0.000000;,
  1.000000;1.000000;,
  0.000000;1.000000;,
  0.000000;0.000000;,
  1.000000;0.000000;,
  1.000000;1.000000;,
  0.000000;1.000000;,
  0.000000;0.000000;,
  1.000000;0.000000;,
  1.000000;1.000000;,
  0.000000;1.000000;,
  1.000000;1.000000;,
  0.000000;1.000000;,
  0.000000;0.000000;,
  1.000000;0.000000;,
  0.000000;0.000000;,
  1.000000;0.000000;,
  1.000000;1.000000;,
  0.000000;1.000000;,
  0.000000;0.000000;,
  1.000000;0.000000;,
  1.000000;1.000000;,
  0.000000;1.000000;,
  0.000000;0.000000;,
  1.000000;0.000000;,
  1.000000;1.000000;,
  0.000000;1.000000;,
  0.000000;0.000000;,
  1.000000;0.000000;,
  1.000000;1.000000;,
  0.000000;1.000000;,
  1.000000;1.000000;,
  0.000000;1.000000;,
  0.000000;0.000000;,
  1.000000;0.000000;,
  0.000000;0.000000;,
  1.000000;0.000000;,
  1.000000;1.000000;,
  0.000000;1.000000;,
  0.000000;0.000000;,
  1.000000;0.000000;,
  1.000000;1.000000;,
  0.000000;1.000000;,
  0.000000;0.000000;,
  1.000000;0.000000;,
  1.000000;1.000000;,
  0.000000;1.000000;,
  0.000000;0.000000;,
  1.000000;0.000000;,
  1.000000;1.000000;,
  0.000000;1.000000;,
  1.000000;1.000000;,
  0.000000;1.000000;,
  0.000000;0.000000;,
  1.000000;0.000000;,
  0.000000;0.000000;,
  1.000000;0.000000;,
  1.000000;1.000000;,
  0.000000;1.000000;,
  0.000000;0.000000;,
  1.000000;0.000000;,
  1.000000;1.000000;,
  0.000000;1.000000;,
  0.000000;0.000000;,
  1.000000;0.000000;,
  1.000000;1.000000;,
  0.000000;1.000000;,
  0.000000;0.000000;,
  1.000000;0.000000;,
  1.000000;1.000000;,
  0.000000;1.000000;,
  1.000000;1.000000;,
  0.000000;1.000000;,
  0.000000;0.000000;,
  1.000000;0.000000;,
  0.000000;0.000000;,
  1.000000;0.000000;,
  1.000000;1.000000;,
  0.000000;1.000000;,
  0.000000;0.000000;,
  1.000000;0.000000;,
  1.000000;1.000000;,
  0.000000;1.000000;,
  0.000000;0.000000;,
  1.000000;0.000000;,
  1.000000;1.000000;,
  0.000000;1.000000;,
  0.000000;0.000000;,
  1.000000;0.000000;,
  1.000000;1.000000;,
  0.000000;1.000000;,
  1.000000;1.000000;,
  0.000000;1.000000;,
  0.000000;0.000000;,
  1.000000;0.000000;,
  0.000000;0.000000;,
  1.000000;0.000000;,
  1.000000;1.000000;,
  0.000000;1.000000;,
  0.000000;0.000000;,
  1.000000;0.000000;,
  1.000000;1.000000;,
  0.000000;1.000000;,
  0.000000;0.000000;,
  1.000000;0.000000;,
  1.000000;1.000000;,
  0.000000;1.000000;,
  0.000000;0.000000;,
  1.000000;0.000000;,
  1.000000;1.000000;,
  0.000000;1.000000;,
  1.000000;1.000000;,
  0.000000;1.000000;,
  0.000000;0.000000;,
  1.000000;0.000000;,
  0.000000;0.000000;,
  1.000000;0.000000;,
  1.000000;1.000000;,
  0.000000;1.000000;,
  0.000000;0.000000;,
  1.000000;0.000000;,
  1.000000;1.000000;,
  0.000000;1.000000;,
  0.000000;0.000000;,
  1.000000;0.000000;,
  1.000000;1.000000;,
  0.000000;1.000000;,
  0.000000;0.000000;,
  1.000000;0.000000;,
  1.000000;1.000000;,
  0.000000;1.000000;,
  1.000000;1.000000;,
  0.000000;1.000000;,
  0.000000;0.000000;,
  1.000000;0.000000;;
 }
}
