xof 0302txt 0064
template Header {
 <3D82AB43-62DA-11cf-AB39-0020AF71E433>
 WORD major;
 WORD minor;
 DWORD flags;
}

template Vector {
 <3D82AB5E-62DA-11cf-AB39-0020AF71E433>
 FLOAT x;
 FLOAT y;
 FLOAT z;
}

template Coords2d {
 <F6F23F44-7686-11cf-8F52-0040333594A3>
 FLOAT u;
 FLOAT v;
}

template Matrix4x4 {
 <F6F23F45-7686-11cf-8F52-0040333594A3>
 array FLOAT matrix[16];
}

template ColorRGBA {
 <35FF44E0-6C7C-11cf-8F52-0040333594A3>
 FLOAT red;
 FLOAT green;
 FLOAT blue;
 FLOAT alpha;
}

template ColorRGB {
 <D3E16E81-7835-11cf-8F52-0040333594A3>
 FLOAT red;
 FLOAT green;
 FLOAT blue;
}

template IndexedColor {
 <1630B820-7842-11cf-8F52-0040333594A3>
 DWORD index;
 ColorRGBA indexColor;
}

template Boolean {
 <4885AE61-78E8-11cf-8F52-0040333594A3>
 WORD truefalse;
}

template Boolean2d {
 <4885AE63-78E8-11cf-8F52-0040333594A3>
 Boolean u;
 Boolean v;
}

template MaterialWrap {
 <4885AE60-78E8-11cf-8F52-0040333594A3>
 Boolean u;
 Boolean v;
}

template TextureFilename {
 <A42790E1-7810-11cf-8F52-0040333594A3>
 STRING filename;
}

template Material {
 <3D82AB4D-62DA-11cf-AB39-0020AF71E433>
 ColorRGBA faceColor;
 FLOAT power;
 ColorRGB specularColor;
 ColorRGB emissiveColor;
 [...]
}

template MeshFace {
 <3D82AB5F-62DA-11cf-AB39-0020AF71E433>
 DWORD nFaceVertexIndices;
 array DWORD faceVertexIndices[nFaceVertexIndices];
}

template MeshFaceWraps {
 <4885AE62-78E8-11cf-8F52-0040333594A3>
 DWORD nFaceWrapValues;
 Boolean2d faceWrapValues;
}

template MeshTextureCoords {
 <F6F23F40-7686-11cf-8F52-0040333594A3>
 DWORD nTextureCoords;
 array Coords2d textureCoords[nTextureCoords];
}

template MeshMaterialList {
 <F6F23F42-7686-11cf-8F52-0040333594A3>
 DWORD nMaterials;
 DWORD nFaceIndexes;
 array DWORD faceIndexes[nFaceIndexes];
 [Material]
}

template MeshNormals {
 <F6F23F43-7686-11cf-8F52-0040333594A3>
 DWORD nNormals;
 array Vector normals[nNormals];
 DWORD nFaceNormals;
 array MeshFace faceNormals[nFaceNormals];
}

template MeshVertexColors {
 <1630B821-7842-11cf-8F52-0040333594A3>
 DWORD nVertexColors;
 array IndexedColor vertexColors[nVertexColors];
}

template Mesh {
 <3D82AB44-62DA-11cf-AB39-0020AF71E433>
 DWORD nVertices;
 array Vector vertices[nVertices];
 DWORD nFaces;
 array MeshFace faces[nFaces];
 [...]
}

Header{
1;
0;
1;
}

Mesh {
 154;
 0.00000;-2.48570;-0.00000;,
 0.00000;-2.48570;-12.95932;,
 9.16362;-2.48570;-9.16362;,
 12.95932;-2.48570;0.00000;,
 9.16362;-2.48570;9.16362;,
 -0.00000;-2.48570;12.95932;,
 -9.16362;-2.48570;9.16362;,
 -12.95932;-2.48570;0.00000;,
 -9.16362;-2.48570;-9.16362;,
 9.32440;21.26780;0.00000;,
 6.59336;21.26780;-6.59336;,
 6.59336;103.95178;-6.59336;,
 9.32440;103.95178;0.00000;,
 6.59336;103.95178;6.59336;,
 6.59336;21.26780;6.59336;,
 0.00000;21.26780;-9.32440;,
 0.00000;103.95178;-9.32440;,
 0.00000;103.95178;9.32440;,
 0.00000;21.26780;9.32440;,
 -6.59336;21.26780;-6.59336;,
 -6.59336;103.95178;-6.59336;,
 -6.59336;103.95178;6.59336;,
 -6.59336;21.26780;6.59336;,
 -9.32440;21.26780;0.00000;,
 -9.32440;103.95178;0.00000;,
 0.00000;124.58594;-10.61546;,
 7.50626;124.58594;-7.50626;,
 10.61546;124.58594;0.00000;,
 7.50626;124.58594;7.50626;,
 0.00000;124.58594;10.61546;,
 -7.50626;124.58594;7.50626;,
 -10.61546;124.58594;0.00000;,
 -7.50626;124.58594;-7.50626;,
 0.00000;132.96450;-6.84424;,
 4.83960;132.96450;-4.83960;,
 0.00000;132.96450;0.00000;,
 6.84424;132.96450;0.00000;,
 4.83960;132.96450;4.83960;,
 0.00000;132.96450;6.84424;,
 -4.83960;132.96450;4.83960;,
 -6.84424;132.96450;0.00000;,
 -4.83960;132.96450;-4.83960;,
 -15.07812;171.92266;0.00000;,
 79.24608;171.92266;0.00000;,
 79.24608;77.59854;0.00000;,
 -15.07812;77.59854;0.00000;,
 -24.69312;171.92266;-0.05040;,
 60.44254;171.92266;-40.65802;,
 60.44254;77.59854;-40.65802;,
 -24.69312;77.59854;-0.05040;,
 24.82840;58.33542;-10.31522;,
 86.52008;129.30351;-2.91462;,
 15.33274;191.18571;-2.91462;,
 -46.35892;120.21767;-10.31522;,
 -46.16480;87.13840;-0.82914;,
 31.93062;38.33890;19.58632;,
 81.91486;118.33029;19.58632;,
 3.81934;167.12974;-0.82914;,
 -15.30068;66.75258;6.66430;,
 -96.26968;93.06096;-33.94332;,
 -67.12198;182.76858;-33.94332;,
 13.84706;156.46031;6.66430;,
 -16.37980;86.20896;1.43486;,
 -84.81656;136.84968;-39.17276;,
 -28.71046;212.67246;-39.17276;,
 39.72630;162.03206;1.43486;,
 40.43302;109.38654;-1.30710;,
 -7.78850;31.29148;-23.05404;,
 -85.52316;83.01564;-36.43074;,
 -37.30198;161.11074;-14.68390;,
 -46.16480;87.13840;-0.82914;,
 31.93062;38.33890;19.58632;,
 81.91486;118.33029;19.58632;,
 3.81934;167.12974;-0.82914;,
 34.20978;138.56043;-0.82914;,
 -17.28536;214.90530;19.58632;,
 -95.48366;162.15993;19.58632;,
 -43.98844;85.81504;-0.82914;,
 32.26354;117.90523;1.29228;,
 40.28976;209.64324;21.70774;,
 -53.67546;217.86426;21.70774;,
 -61.70156;126.12610;1.29228;,
 49.41938;127.15197;1.29228;,
 -36.26130;160.90257;21.70774;,
 -70.83126;73.14184;21.70774;,
 14.84948;39.39126;1.29228;,
 102.76902;183.04074;-9.72494;,
 17.08822;216.79121;10.69054;,
 -17.48174;129.03064;10.69054;,
 68.19902;95.28006;-9.72494;,
 -60.70846;218.09441;-9.72494;,
 -101.07728;135.32584;10.69054;,
 -16.29954;93.97658;10.69054;,
 24.06944;176.74539;-9.72494;,
 51.86850;218.09441;9.31592;,
 90.91558;135.32584;-13.52590;,
 6.29604;93.97658;-8.35034;,
 -32.75154;176.74539;14.49154;,
 -94.22370;184.44975;-47.59602;,
 -14.18420;216.21971;-9.10710;,
 17.21590;127.62150;-1.27186;,
 -62.82388;95.85120;-39.76090;,
 80.39676;211.08301;-38.22422;,
 96.10338;118.39527;-45.92428;,
 9.18088;100.98778;-13.69932;,
 -6.52600;193.67606;-5.99896;,
 -7.39876;220.92315;26.29484;,
 -62.98504;155.51840;65.40310;,
 -16.02092;87.99488;19.22984;,
 39.56554;153.39968;-19.87852;,
 -7.39876;220.92315;26.29484;,
 -62.98504;155.51840;65.40310;,
 -16.02092;87.99488;19.22984;,
 39.56554;153.39968;-19.87852;,
 94.42126;153.76425;20.81066;,
 13.53202;202.24001;22.81646;,
 -34.81562;122.02920;11.60456;,
 46.07382;73.55308;9.59912;,
 37.56976;259.14183;20.81066;,
 -36.16398;200.35175;22.81646;,
 22.03550;126.97548;11.60456;,
 95.76966;185.76557;9.59912;,
 14.63198;254.21487;8.00118;,
 101.45546;218.78701;18.17792;,
 65.27242;131.90280;24.41482;,
 -21.55144;167.33039;14.23766;,
 -14.58716;199.29283;27.90736;,
 -27.22870;163.86497;-58.59156;,
 -11.83950;76.98076;-25.25572;,
 0.80178;112.40834;61.24354;,
 39.86682;199.29283;-23.99404;,
 29.68996;163.86497;62.82950;,
 23.45314;76.98076;26.64644;,
 33.63020;112.40834;-60.17752;,
 -52.83272;254.21487;8.00118;,
 33.99076;218.78701;18.17792;,
 -2.19228;131.90280;24.41482;,
 -89.01614;167.33039;14.23766;,
 -24.86778;139.05777;-6.70114;,
 60.74262;172.80838;14.00676;,
 91.54456;85.04766;29.70120;,
 5.93414;51.29708;8.99324;,
 1.14814;147.14866;-6.70114;,
 90.63446;125.69126;14.00676;,
 65.52856;36.13492;29.70120;,
 -23.95782;57.59210;8.99324;,
 34.05966;70.63324;-11.41594;,
 -51.04936;30.35232;-16.97626;,
 -91.44910;112.65010;5.20234;,
 -6.33986;152.93150;10.76266;,
 56.07854;117.48969;-19.63744;,
 19.02660;30.92612;-25.19778;,
 -65.76316;65.79380;-3.01916;,
 -28.71140;152.35786;2.54114;;
 
 76;
 3;0,1,2;,
 3;0,2,3;,
 3;0,3,4;,
 3;0,4,5;,
 3;0,5,6;,
 3;0,6,7;,
 3;0,7,8;,
 3;0,8,1;,
 4;9,3,2,10;,
 4;9,10,11,12;,
 4;9,12,13,14;,
 4;9,14,4,3;,
 4;10,2,1,15;,
 4;10,15,16,11;,
 4;14,13,17,18;,
 4;14,18,5,4;,
 4;15,1,8,19;,
 4;15,19,20,16;,
 4;18,17,21,22;,
 4;18,22,6,5;,
 4;19,8,7,23;,
 4;19,23,24,20;,
 4;22,21,24,23;,
 4;22,23,7,6;,
 4;25,26,11,16;,
 4;26,27,12,11;,
 4;27,28,13,12;,
 4;28,29,17,13;,
 4;29,30,21,17;,
 4;30,31,24,21;,
 4;31,32,20,24;,
 4;32,25,16,20;,
 4;33,34,26,25;,
 3;35,34,33;,
 4;34,36,27,26;,
 3;35,36,34;,
 4;36,37,28,27;,
 3;35,37,36;,
 4;37,38,29,28;,
 3;35,38,37;,
 4;38,39,30,29;,
 3;35,39,38;,
 4;39,40,31,30;,
 3;35,40,39;,
 4;40,41,32,31;,
 3;35,41,40;,
 4;41,33,25,32;,
 3;35,33,41;,
 4;42,43,44,45;,
 4;46,47,48,49;,
 4;50,51,52,53;,
 4;54,55,56,57;,
 4;58,59,60,61;,
 4;62,63,64,65;,
 4;66,67,68,69;,
 4;70,71,72,73;,
 4;74,75,76,77;,
 4;78,79,80,81;,
 4;82,83,84,85;,
 4;86,87,88,89;,
 4;90,91,92,93;,
 4;94,95,96,97;,
 4;98,99,100,101;,
 4;102,103,104,105;,
 4;106,107,108,109;,
 4;110,111,112,113;,
 4;114,115,116,117;,
 4;118,119,120,121;,
 4;122,123,124,125;,
 4;126,127,128,129;,
 4;130,131,132,133;,
 4;134,135,136,137;,
 4;138,139,140,141;,
 4;142,143,144,145;,
 4;146,147,148,149;,
 4;150,151,152,153;;
 
 MeshMaterialList {
  3;
  76;
  0,
  0,
  0,
  0,
  0,
  0,
  0,
  0,
  0,
  0,
  0,
  0,
  0,
  0,
  0,
  0,
  0,
  0,
  0,
  0,
  0,
  0,
  0,
  0,
  0,
  0,
  0,
  0,
  0,
  0,
  0,
  0,
  0,
  0,
  0,
  0,
  0,
  0,
  0,
  0,
  0,
  0,
  0,
  0,
  0,
  0,
  0,
  0,
  1,
  1,
  1,
  1,
  1,
  1,
  1,
  1,
  1,
  1,
  1,
  2,
  2,
  2,
  2,
  2,
  2,
  2,
  2,
  2,
  2,
  2,
  2,
  2,
  1,
  1,
  1,
  1;;
  Material {
   0.467200;0.260000;0.068800;1.000000;;
   5.000000;
   0.000000;0.000000;0.000000;;
   0.000000;0.000000;0.000000;;
  }
  Material {
   0.800000;0.800000;0.800000;1.000000;;
   5.000000;
   0.000000;0.000000;0.000000;;
   0.000000;0.000000;0.000000;;
   TextureFilename {
    "data/TEXTURE/ki/treeleaf.png";
   }
  }
  Material {
   0.800000;0.800000;0.800000;1.000000;;
   5.000000;
   0.000000;0.000000;0.000000;;
   0.000000;0.000000;0.000000;;
   TextureFilename {
    "data/TEXTURE/ki/Pngtree.png";
   }
  }
 }
 MeshNormals {
  70;
  0.000000;-0.031243;-0.999512;,
  0.706762;-0.031243;-0.706762;,
  0.999512;-0.031243;-0.000000;,
  0.706762;-0.031243;0.706762;,
  0.000000;-0.031243;0.999512;,
  -0.706762;-0.031243;0.706762;,
  -0.999512;-0.031243;0.000000;,
  -0.706762;-0.031243;-0.706762;,
  0.000000;-1.000000;0.000000;,
  0.997114;0.075915;-0.000000;,
  0.705066;0.075915;-0.705066;,
  0.705066;0.075915;0.705066;,
  0.000000;0.075915;-0.997114;,
  0.000000;0.075915;0.997114;,
  -0.705066;0.075915;-0.705066;,
  -0.705066;0.075915;0.705066;,
  -0.997114;0.075915;-0.000000;,
  0.000000;0.180739;-0.983531;,
  0.695462;0.180739;-0.695462;,
  0.983531;0.180739;0.000000;,
  0.695462;0.180739;0.695462;,
  0.000000;0.180739;0.983531;,
  -0.695462;0.180739;0.695462;,
  -0.983531;0.180739;0.000000;,
  -0.695462;0.180739;-0.695462;,
  0.000000;1.000000;0.000000;,
  0.000000;0.410443;-0.911886;,
  0.644801;0.410443;-0.644801;,
  0.911886;0.410443;0.000000;,
  0.644801;0.410443;0.644801;,
  0.000000;0.410443;0.911886;,
  -0.644801;0.410443;0.644801;,
  -0.911886;0.410443;0.000000;,
  -0.644801;0.410443;-0.644801;,
  0.000000;0.000000;-1.000000;,
  0.988493;0.151265;0.000000;,
  0.698970;0.151265;-0.698970;,
  0.698970;0.151265;0.698970;,
  0.000000;0.151265;-0.988493;,
  0.000000;0.151265;0.988493;,
  -0.698970;0.151265;-0.698970;,
  -0.698970;0.151265;0.698970;,
  -0.988493;0.151265;0.000000;,
  -0.430511;0.000000;-0.902585;,
  -0.051474;-0.059214;0.996917;,
  -0.183551;0.114695;0.976296;,
  0.409440;-0.133035;-0.902586;,
  0.346070;-0.256078;-0.902585;,
  0.243845;0.117505;-0.962669;,
  -0.183551;0.114695;0.976296;,
  0.121031;-0.179436;0.976296;,
  -0.018864;-0.215615;0.976296;,
  0.201379;-0.079325;0.976296;,
  0.201379;-0.079325;0.976296;,
  0.094881;0.194534;0.976296;,
  -0.154306;0.194534;-0.968683;,
  0.411258;0.065351;-0.909173;,
  -0.350782;0.018340;-0.936278;,
  0.636242;-0.082040;0.767115;,
  0.636242;-0.082040;0.767115;,
  -0.043006;-0.112833;0.992683;,
  0.090627;-0.079798;0.992683;,
  0.074549;-0.102251;-0.991961;,
  -0.977456;-0.102251;0.184729;,
  0.991961;-0.102251;0.074549;,
  0.074549;-0.102251;-0.991961;,
  0.263800;-0.079325;-0.961310;,
  0.170593;-0.216289;-0.961310;,
  -0.048980;0.237409;-0.970174;,
  -0.193996;0.145354;-0.970174;;
  76;
  3;8,8,8;,
  3;8,8,8;,
  3;8,8,8;,
  3;8,8,8;,
  3;8,8,8;,
  3;8,8,8;,
  3;8,8,8;,
  3;8,8,8;,
  4;9,35,36,10;,
  4;9,10,1,2;,
  4;9,2,3,11;,
  4;9,11,37,35;,
  4;10,36,38,12;,
  4;10,12,0,1;,
  4;11,3,4,13;,
  4;11,13,39,37;,
  4;12,38,40,14;,
  4;12,14,7,0;,
  4;13,4,5,15;,
  4;13,15,41,39;,
  4;14,40,42,16;,
  4;14,16,6,7;,
  4;15,5,6,16;,
  4;15,16,42,41;,
  4;17,18,1,0;,
  4;18,19,2,1;,
  4;19,20,3,2;,
  4;20,21,4,3;,
  4;21,22,5,4;,
  4;22,23,6,5;,
  4;23,24,7,6;,
  4;24,17,0,7;,
  4;26,27,18,17;,
  3;25,25,25;,
  4;27,28,19,18;,
  3;25,25,25;,
  4;28,29,20,19;,
  3;25,25,25;,
  4;29,30,21,20;,
  3;25,25,25;,
  4;30,31,22,21;,
  3;25,25,25;,
  4;31,32,23,22;,
  3;25,25,25;,
  4;32,33,24,23;,
  3;25,25,25;,
  4;33,26,17,24;,
  3;25,25,25;,
  4;34,34,34,34;,
  4;43,43,43,43;,
  4;44,44,44,44;,
  4;45,45,45,45;,
  4;46,46,46,46;,
  4;47,47,47,47;,
  4;48,48,48,48;,
  4;49,49,49,49;,
  4;50,50,50,50;,
  4;51,51,51,51;,
  4;52,52,52,52;,
  4;53,53,53,53;,
  4;54,54,54,54;,
  4;55,55,55,55;,
  4;56,56,56,56;,
  4;57,57,57,57;,
  4;58,58,58,58;,
  4;59,59,59,59;,
  4;60,60,60,60;,
  4;61,61,61,61;,
  4;62,62,62,62;,
  4;63,63,63,63;,
  4;64,64,64,64;,
  4;65,65,65,65;,
  4;66,66,66,66;,
  4;67,67,67,67;,
  4;68,68,68,68;,
  4;69,69,69,69;;
 }
}
