xof 0302txt 0064
template Header {
 <3D82AB43-62DA-11cf-AB39-0020AF71E433>
 WORD major;
 WORD minor;
 DWORD flags;
}

template Vector {
 <3D82AB5E-62DA-11cf-AB39-0020AF71E433>
 FLOAT x;
 FLOAT y;
 FLOAT z;
}

template Coords2d {
 <F6F23F44-7686-11cf-8F52-0040333594A3>
 FLOAT u;
 FLOAT v;
}

template Matrix4x4 {
 <F6F23F45-7686-11cf-8F52-0040333594A3>
 array FLOAT matrix[16];
}

template ColorRGBA {
 <35FF44E0-6C7C-11cf-8F52-0040333594A3>
 FLOAT red;
 FLOAT green;
 FLOAT blue;
 FLOAT alpha;
}

template ColorRGB {
 <D3E16E81-7835-11cf-8F52-0040333594A3>
 FLOAT red;
 FLOAT green;
 FLOAT blue;
}

template IndexedColor {
 <1630B820-7842-11cf-8F52-0040333594A3>
 DWORD index;
 ColorRGBA indexColor;
}

template Boolean {
 <4885AE61-78E8-11cf-8F52-0040333594A3>
 WORD truefalse;
}

template Boolean2d {
 <4885AE63-78E8-11cf-8F52-0040333594A3>
 Boolean u;
 Boolean v;
}

template MaterialWrap {
 <4885AE60-78E8-11cf-8F52-0040333594A3>
 Boolean u;
 Boolean v;
}

template TextureFilename {
 <A42790E1-7810-11cf-8F52-0040333594A3>
 STRING filename;
}

template Material {
 <3D82AB4D-62DA-11cf-AB39-0020AF71E433>
 ColorRGBA faceColor;
 FLOAT power;
 ColorRGB specularColor;
 ColorRGB emissiveColor;
 [...]
}

template MeshFace {
 <3D82AB5F-62DA-11cf-AB39-0020AF71E433>
 DWORD nFaceVertexIndices;
 array DWORD faceVertexIndices[nFaceVertexIndices];
}

template MeshFaceWraps {
 <4885AE62-78E8-11cf-8F52-0040333594A3>
 DWORD nFaceWrapValues;
 Boolean2d faceWrapValues;
}

template MeshTextureCoords {
 <F6F23F40-7686-11cf-8F52-0040333594A3>
 DWORD nTextureCoords;
 array Coords2d textureCoords[nTextureCoords];
}

template MeshMaterialList {
 <F6F23F42-7686-11cf-8F52-0040333594A3>
 DWORD nMaterials;
 DWORD nFaceIndexes;
 array DWORD faceIndexes[nFaceIndexes];
 [Material]
}

template MeshNormals {
 <F6F23F43-7686-11cf-8F52-0040333594A3>
 DWORD nNormals;
 array Vector normals[nNormals];
 DWORD nFaceNormals;
 array MeshFace faceNormals[nFaceNormals];
}

template MeshVertexColors {
 <1630B821-7842-11cf-8F52-0040333594A3>
 DWORD nVertexColors;
 array IndexedColor vertexColors[nVertexColors];
}

template Mesh {
 <3D82AB44-62DA-11cf-AB39-0020AF71E433>
 DWORD nVertices;
 array Vector vertices[nVertices];
 DWORD nFaces;
 array MeshFace faces[nFaces];
 [...]
}

Header{
1;
0;
1;
}

Mesh {
 110;
 28.60376;221.56292;-55.32264;,
 62.13520;221.56292;-22.37140;,
 62.13520;207.36631;-22.37140;,
 28.60376;207.36631;-55.32264;,
 62.54548;221.56292;24.63900;,
 62.54548;207.36631;24.63900;,
 29.59424;221.56292;58.17048;,
 29.59424;207.36631;58.17048;,
 -17.41616;221.56292;58.58072;,
 -17.41616;207.36631;58.58072;,
 -50.94764;221.56292;25.62948;,
 -50.94764;207.36631;25.62948;,
 -51.35788;221.56292;-21.38092;,
 -51.35788;207.36631;-21.38092;,
 -18.40664;221.56292;-54.91236;,
 -18.40664;207.36631;-54.91236;,
 28.60376;221.56292;-55.32264;,
 28.60376;207.36631;-55.32264;,
 28.60376;122.18628;-55.32264;,
 62.13520;122.18628;-22.37140;,
 62.13520;107.98972;-22.37140;,
 28.60376;107.98972;-55.32264;,
 62.54548;122.18628;24.63900;,
 62.54548;107.98972;24.63900;,
 29.59424;122.18628;58.17048;,
 29.59424;107.98972;58.17048;,
 -17.41616;122.18628;58.58072;,
 -17.41616;107.98972;58.58072;,
 -50.94764;122.18628;25.62948;,
 -50.94764;107.98972;25.62948;,
 -51.35788;122.18628;-21.38092;,
 -51.35788;107.98972;-21.38092;,
 -18.40664;122.18628;-54.91236;,
 -18.40664;107.98972;-54.91236;,
 28.60376;122.18628;-55.32264;,
 28.60376;107.98972;-55.32264;,
 28.71880;15.66604;-55.34000;,
 62.25024;15.66604;-22.38876;,
 62.25024;1.46924;-22.38876;,
 28.71880;1.46924;-55.34000;,
 62.66052;15.66604;24.62164;,
 62.66052;1.46924;24.62164;,
 29.70928;15.66604;58.15312;,
 29.70928;1.46924;58.15312;,
 -17.30112;15.66604;58.56336;,
 -17.30112;1.46924;58.56336;,
 -50.83260;15.66604;25.61212;,
 -50.83260;1.46924;25.61212;,
 -51.24284;15.66604;-21.39828;,
 -51.24284;1.46924;-21.39828;,
 -18.29160;15.66604;-54.92972;,
 -18.29160;1.46924;-54.92972;,
 28.71880;15.66604;-55.34000;,
 28.71880;1.46924;-55.34000;,
 5.59380;221.56292;1.62904;,
 5.59380;221.56292;1.62904;,
 5.59380;221.56292;1.62904;,
 5.59380;221.56292;1.62904;,
 5.59380;221.56292;1.62904;,
 5.59380;221.56292;1.62904;,
 5.59380;221.56292;1.62904;,
 5.59380;221.56292;1.62904;,
 5.70884;1.46924;1.61168;,
 5.70884;1.46924;1.61168;,
 5.70884;1.46924;1.61168;,
 5.70884;1.46924;1.61168;,
 5.70884;1.46924;1.61168;,
 5.70884;1.46924;1.61168;,
 5.70884;1.46924;1.61168;,
 5.70884;1.46924;1.61168;,
 57.43372;207.36631;-20.37564;,
 26.69048;207.36631;-50.58712;,
 26.69048;122.18628;-50.58712;,
 57.43372;122.18628;-20.37564;,
 58.04104;207.14175;22.64836;,
 57.80996;122.18628;22.72576;,
 27.82960;207.14175;53.39156;,
 27.59852;122.18628;53.46892;,
 -15.27180;207.14175;53.76784;,
 -15.50288;122.18628;53.84524;,
 -46.01524;207.14175;23.55636;,
 -46.13128;122.14113;23.61640;,
 -46.39128;207.14175;-19.54504;,
 -46.62236;122.18628;-19.46764;,
 -16.17984;207.14175;-50.28832;,
 -16.41092;122.18628;-50.21092;,
 26.69048;207.36631;-50.58712;,
 26.69048;122.18628;-50.58712;,
 57.66480;107.76508;-20.45304;,
 26.92156;107.76508;-50.66452;,
 26.80552;15.66604;-50.60448;,
 57.54876;15.66604;-20.39300;,
 58.04104;107.76508;22.64836;,
 57.92500;15.66604;22.70840;,
 27.82960;107.76508;53.39156;,
 27.71356;15.66604;53.45160;,
 -15.27180;107.76508;53.76784;,
 -15.38784;15.66604;53.82788;,
 -46.01524;107.76508;23.55636;,
 -46.13128;15.66604;23.61640;,
 -46.39128;107.76508;-19.54504;,
 -46.50732;15.66604;-19.48500;,
 -16.17984;107.76508;-50.28832;,
 -16.29588;15.66604;-50.22828;,
 26.92156;107.76508;-50.66452;,
 26.80552;15.66604;-50.60448;,
 -26.20332;198.84041;-50.91368;,
 38.50796;198.84041;-50.91368;,
 38.50796;130.93477;-50.91368;,
 -26.20332;130.93477;-50.91368;;
 
 89;
 4;0,1,2,3;,
 4;1,4,5,2;,
 4;4,6,7,5;,
 4;6,8,9,7;,
 4;8,10,11,9;,
 4;10,12,13,11;,
 4;12,14,15,13;,
 4;14,16,17,15;,
 4;18,19,20,21;,
 4;19,22,23,20;,
 4;22,24,25,23;,
 4;24,26,27,25;,
 4;26,28,29,27;,
 4;28,30,31,29;,
 4;30,32,33,31;,
 4;32,34,35,33;,
 4;36,37,38,39;,
 4;37,40,41,38;,
 4;40,42,43,41;,
 4;42,44,45,43;,
 4;44,46,47,45;,
 4;46,48,49,47;,
 4;48,50,51,49;,
 4;50,52,53,51;,
 3;54,1,0;,
 3;55,4,1;,
 3;56,6,4;,
 3;57,8,6;,
 3;58,10,8;,
 3;59,12,10;,
 3;60,14,12;,
 3;61,16,14;,
 3;62,39,38;,
 3;63,38,41;,
 3;64,41,43;,
 3;65,43,45;,
 3;66,45,47;,
 3;67,47,49;,
 3;68,49,51;,
 3;69,51,53;,
 4;70,71,3,2;,
 4;72,73,19,18;,
 4;71,70,73,72;,
 4;74,70,2,5;,
 4;73,75,22,19;,
 4;70,74,75,73;,
 4;76,74,5,7;,
 4;75,77,24,22;,
 4;74,76,77,75;,
 4;78,76,7,9;,
 4;77,79,26,24;,
 4;76,78,79,77;,
 4;80,78,9,11;,
 4;79,81,28,26;,
 4;78,80,81,79;,
 4;82,80,11,13;,
 4;81,83,30,28;,
 4;80,82,83,81;,
 4;84,82,13,15;,
 4;83,85,32,30;,
 4;82,84,85,83;,
 4;86,84,15,17;,
 4;85,87,34,32;,
 4;84,86,87,85;,
 4;88,89,21,20;,
 4;90,91,37,36;,
 4;89,88,91,90;,
 4;92,88,20,23;,
 4;91,93,40,37;,
 4;88,92,93,91;,
 4;94,92,23,25;,
 4;93,95,42,40;,
 4;92,94,95,93;,
 4;96,94,25,27;,
 4;95,97,44,42;,
 4;94,96,97,95;,
 4;98,96,27,29;,
 4;97,99,46,44;,
 4;96,98,99,97;,
 4;100,98,29,31;,
 4;99,101,48,46;,
 4;98,100,101,99;,
 4;102,100,31,33;,
 4;101,103,50,48;,
 4;100,102,103,101;,
 4;104,102,33,35;,
 4;103,105,52,50;,
 4;102,104,105,103;,
 4;106,107,108,109;;
 
 MeshMaterialList {
  7;
  89;
  5,
  5,
  5,
  5,
  5,
  5,
  5,
  5,
  5,
  5,
  5,
  5,
  5,
  5,
  5,
  5,
  5,
  5,
  5,
  5,
  5,
  5,
  5,
  5,
  5,
  5,
  5,
  5,
  5,
  5,
  5,
  5,
  5,
  5,
  5,
  5,
  5,
  5,
  5,
  5,
  1,
  5,
  6,
  1,
  5,
  6,
  1,
  5,
  6,
  1,
  5,
  6,
  1,
  5,
  6,
  1,
  5,
  6,
  1,
  5,
  6,
  1,
  5,
  6,
  1,
  5,
  6,
  1,
  5,
  6,
  1,
  5,
  6,
  1,
  5,
  6,
  1,
  5,
  6,
  1,
  5,
  6,
  1,
  5,
  6,
  1,
  5,
  6,
  2;;
  Material {
   0.076110;0.328630;0.076110;1.000000;;
   48.000000;
   0.000000;0.000000;0.000000;;
   0.000000;0.000000;0.000000;;
  }
  Material {
   0.047200;0.376800;0.094400;1.000000;;
   5.000000;
   0.220000;0.220000;0.220000;;
   0.000000;0.000000;0.000000;;
  }
  Material {
   0.800000;0.800000;0.800000;1.000000;;
   5.000000;
   0.000000;0.000000;0.000000;;
   0.000000;0.000000;0.000000;;
   TextureFilename {
    "data/TEXTURE/cyuima-ku.png";
   }
  }
  Material {
   0.800000;0.000000;0.000000;1.000000;;
   5.000000;
   0.000000;0.000000;0.000000;;
   0.000000;0.000000;0.000000;;
  }
  Material {
   0.800000;0.100000;0.147200;1.000000;;
   5.000000;
   0.000000;0.000000;0.000000;;
   0.000000;0.000000;0.000000;;
  }
  Material {
   0.000000;0.000000;0.800000;1.000000;;
   5.000000;
   0.000000;0.000000;0.000000;;
   0.000000;0.000000;0.000000;;
  }
  Material {
   0.072000;0.132000;0.800000;1.000000;;
   5.000000;
   0.000000;0.000000;0.000000;;
   0.000000;0.000000;0.000000;;
  }
 }
 MeshNormals {
  52;
  0.000000;1.000000;0.000000;,
  0.374606;0.000000;-0.927184;,
  0.920505;0.000000;-0.390732;,
  0.927184;0.000000;0.374606;,
  0.390731;0.000000;0.920505;,
  -0.374606;0.000000;0.927184;,
  -0.920505;0.000000;0.390731;,
  -0.927184;0.000000;-0.374607;,
  -0.390731;0.000000;-0.920505;,
  0.374606;0.000000;-0.927184;,
  0.920505;0.000000;-0.390732;,
  0.390731;0.000000;0.920505;,
  -0.374606;0.000000;0.927184;,
  -0.920505;0.000000;0.390731;,
  -0.390732;0.000000;-0.920505;,
  0.000000;-1.000000;-0.000000;,
  0.001208;-0.999933;-0.011550;,
  0.011950;-0.999928;-0.001407;,
  0.029313;-0.999448;0.015654;,
  0.017565;-0.999027;0.040459;,
  -0.015726;-0.999091;0.039609;,
  -0.038591;-0.999120;0.016409;,
  -0.039228;-0.999101;-0.016083;,
  -0.015360;-0.999495;-0.027832;,
  0.001381;0.999998;-0.001780;,
  0.003822;0.999992;-0.001546;,
  0.002442;0.999997;0.000234;,
  0.017260;-0.998971;-0.041944;,
  0.042476;-0.998935;-0.017996;,
  0.042373;-0.998960;0.016849;,
  0.017572;-0.999026;0.040474;,
  -0.015732;-0.999091;0.039624;,
  -0.038606;-0.999120;0.016415;,
  -0.039243;-0.999100;-0.016089;,
  -0.016785;-0.999040;-0.040453;,
  0.000000;0.000000;-1.000000;,
  0.375016;-0.000241;-0.927018;,
  0.919978;-0.000738;-0.391970;,
  0.927686;-0.001443;0.373358;,
  0.390731;-0.000224;0.920505;,
  -0.375106;0.001568;0.926981;,
  -0.920453;0.002196;0.390847;,
  -0.927432;0.001815;-0.373988;,
  -0.390325;0.000463;-0.920677;,
  0.374607;-0.001076;-0.927183;,
  0.920504;-0.001415;-0.390730;,
  0.927183;-0.000924;0.374607;,
  0.390731;0.000108;0.920505;,
  -0.374605;0.001076;0.927184;,
  -0.920504;0.001415;0.390730;,
  -0.927183;0.000924;-0.374608;,
  -0.390731;-0.000108;-0.920505;;
  89;
  4;1,2,2,1;,
  4;2,3,3,2;,
  4;3,4,4,3;,
  4;4,5,5,4;,
  4;5,6,6,5;,
  4;6,7,7,6;,
  4;7,8,8,7;,
  4;8,1,1,8;,
  4;1,2,2,1;,
  4;2,3,3,2;,
  4;3,4,4,3;,
  4;4,5,5,4;,
  4;5,6,6,5;,
  4;6,7,7,6;,
  4;7,8,8,7;,
  4;8,1,1,8;,
  4;9,10,10,9;,
  4;10,3,3,10;,
  4;3,11,11,3;,
  4;11,12,12,11;,
  4;12,13,13,12;,
  4;13,7,7,13;,
  4;7,14,14,7;,
  4;14,9,9,14;,
  3;0,0,0;,
  3;0,0,0;,
  3;0,0,0;,
  3;0,0,0;,
  3;0,0,0;,
  3;0,0,0;,
  3;0,0,0;,
  3;0,0,0;,
  3;15,15,15;,
  3;15,15,15;,
  3;15,15,15;,
  3;15,15,15;,
  3;15,15,15;,
  3;15,15,15;,
  3;15,15,15;,
  3;15,15,15;,
  4;17,16,16,17;,
  4;0,0,0,0;,
  4;36,37,37,36;,
  4;18,17,17,18;,
  4;0,0,0,0;,
  4;37,38,38,37;,
  4;19,18,18,19;,
  4;0,0,0,0;,
  4;38,39,39,38;,
  4;20,19,19,20;,
  4;0,24,24,0;,
  4;39,40,40,39;,
  4;21,20,20,21;,
  4;24,25,25,24;,
  4;40,41,41,40;,
  4;22,21,21,22;,
  4;25,26,26,25;,
  4;41,42,42,41;,
  4;23,22,22,23;,
  4;26,0,0,26;,
  4;42,43,43,42;,
  4;16,23,23,16;,
  4;0,0,0,0;,
  4;43,36,36,43;,
  4;28,27,27,28;,
  4;0,0,0,0;,
  4;44,45,45,44;,
  4;29,28,28,29;,
  4;0,0,0,0;,
  4;45,46,46,45;,
  4;30,29,29,30;,
  4;0,0,0,0;,
  4;46,47,47,46;,
  4;31,30,30,31;,
  4;0,0,0,0;,
  4;47,48,48,47;,
  4;32,31,31,32;,
  4;0,0,0,0;,
  4;48,49,49,48;,
  4;33,32,32,33;,
  4;0,0,0,0;,
  4;49,50,50,49;,
  4;34,33,33,34;,
  4;0,0,0,0;,
  4;50,51,51,50;,
  4;27,34,34,27;,
  4;0,0,0,0;,
  4;51,44,44,51;,
  4;35,35,35,35;;
 }
 MeshTextureCoords {
  110;
  0.000000;0.000000;,
  0.125000;0.000000;,
  0.125000;0.200000;,
  0.000000;0.200000;,
  0.250000;0.000000;,
  0.250000;0.200000;,
  0.375000;0.000000;,
  0.375000;0.200000;,
  0.500000;0.000000;,
  0.500000;0.200000;,
  0.625000;0.000000;,
  0.625000;0.200000;,
  0.750000;0.000000;,
  0.750000;0.200000;,
  0.875000;0.000000;,
  0.875000;0.200000;,
  1.000000;0.000000;,
  1.000000;0.200000;,
  0.000000;0.400000;,
  0.125000;0.400000;,
  0.125000;0.600000;,
  0.000000;0.600000;,
  0.250000;0.400000;,
  0.250000;0.600000;,
  0.375000;0.400000;,
  0.375000;0.600000;,
  0.500000;0.400000;,
  0.500000;0.600000;,
  0.625000;0.400000;,
  0.625000;0.600000;,
  0.750000;0.400000;,
  0.750000;0.600000;,
  0.875000;0.400000;,
  0.875000;0.600000;,
  1.000000;0.400000;,
  1.000000;0.600000;,
  0.000000;0.800000;,
  0.125000;0.800000;,
  0.125000;1.000000;,
  0.000000;1.000000;,
  0.250000;0.800000;,
  0.250000;1.000000;,
  0.375000;0.800000;,
  0.375000;1.000000;,
  0.500000;0.800000;,
  0.500000;1.000000;,
  0.625000;0.800000;,
  0.625000;1.000000;,
  0.750000;0.800000;,
  0.750000;1.000000;,
  0.875000;0.800000;,
  0.875000;1.000000;,
  1.000000;0.800000;,
  1.000000;1.000000;,
  0.062500;0.000000;,
  0.187500;0.000000;,
  0.312500;0.000000;,
  0.437500;0.000000;,
  0.562500;0.000000;,
  0.687500;0.000000;,
  0.812500;0.000000;,
  0.937500;0.000000;,
  0.062500;1.000000;,
  0.187500;1.000000;,
  0.312500;1.000000;,
  0.437500;1.000000;,
  0.562500;1.000000;,
  0.687500;1.000000;,
  0.812500;1.000000;,
  0.937500;1.000000;,
  0.125000;0.200000;,
  0.000000;0.200000;,
  0.000000;0.400000;,
  0.125000;0.400000;,
  0.250000;0.200000;,
  0.250000;0.400000;,
  0.375000;0.200000;,
  0.375000;0.400000;,
  0.500000;0.200000;,
  0.500000;0.400000;,
  0.625000;0.200000;,
  0.625000;0.400000;,
  0.750000;0.200000;,
  0.750000;0.400000;,
  0.875000;0.200000;,
  0.875000;0.400000;,
  1.000000;0.200000;,
  1.000000;0.400000;,
  0.125000;0.600000;,
  0.000000;0.600000;,
  0.000000;0.800000;,
  0.125000;0.800000;,
  0.250000;0.600000;,
  0.250000;0.800000;,
  0.375000;0.600000;,
  0.375000;0.800000;,
  0.500000;0.600000;,
  0.500000;0.800000;,
  0.625000;0.600000;,
  0.625000;0.800000;,
  0.750000;0.600000;,
  0.750000;0.800000;,
  0.875000;0.600000;,
  0.875000;0.800000;,
  1.000000;0.600000;,
  1.000000;0.800000;,
  0.000000;0.000000;,
  1.000000;0.000000;,
  1.000000;1.000000;,
  0.000000;1.000000;;
 }
}
