xof 0302txt 0064
template Header {
 <3D82AB43-62DA-11cf-AB39-0020AF71E433>
 WORD major;
 WORD minor;
 DWORD flags;
}

template Vector {
 <3D82AB5E-62DA-11cf-AB39-0020AF71E433>
 FLOAT x;
 FLOAT y;
 FLOAT z;
}

template Coords2d {
 <F6F23F44-7686-11cf-8F52-0040333594A3>
 FLOAT u;
 FLOAT v;
}

template Matrix4x4 {
 <F6F23F45-7686-11cf-8F52-0040333594A3>
 array FLOAT matrix[16];
}

template ColorRGBA {
 <35FF44E0-6C7C-11cf-8F52-0040333594A3>
 FLOAT red;
 FLOAT green;
 FLOAT blue;
 FLOAT alpha;
}

template ColorRGB {
 <D3E16E81-7835-11cf-8F52-0040333594A3>
 FLOAT red;
 FLOAT green;
 FLOAT blue;
}

template IndexedColor {
 <1630B820-7842-11cf-8F52-0040333594A3>
 DWORD index;
 ColorRGBA indexColor;
}

template Boolean {
 <4885AE61-78E8-11cf-8F52-0040333594A3>
 WORD truefalse;
}

template Boolean2d {
 <4885AE63-78E8-11cf-8F52-0040333594A3>
 Boolean u;
 Boolean v;
}

template MaterialWrap {
 <4885AE60-78E8-11cf-8F52-0040333594A3>
 Boolean u;
 Boolean v;
}

template TextureFilename {
 <A42790E1-7810-11cf-8F52-0040333594A3>
 STRING filename;
}

template Material {
 <3D82AB4D-62DA-11cf-AB39-0020AF71E433>
 ColorRGBA faceColor;
 FLOAT power;
 ColorRGB specularColor;
 ColorRGB emissiveColor;
 [...]
}

template MeshFace {
 <3D82AB5F-62DA-11cf-AB39-0020AF71E433>
 DWORD nFaceVertexIndices;
 array DWORD faceVertexIndices[nFaceVertexIndices];
}

template MeshFaceWraps {
 <4885AE62-78E8-11cf-8F52-0040333594A3>
 DWORD nFaceWrapValues;
 Boolean2d faceWrapValues;
}

template MeshTextureCoords {
 <F6F23F40-7686-11cf-8F52-0040333594A3>
 DWORD nTextureCoords;
 array Coords2d textureCoords[nTextureCoords];
}

template MeshMaterialList {
 <F6F23F42-7686-11cf-8F52-0040333594A3>
 DWORD nMaterials;
 DWORD nFaceIndexes;
 array DWORD faceIndexes[nFaceIndexes];
 [Material]
}

template MeshNormals {
 <F6F23F43-7686-11cf-8F52-0040333594A3>
 DWORD nNormals;
 array Vector normals[nNormals];
 DWORD nFaceNormals;
 array MeshFace faceNormals[nFaceNormals];
}

template MeshVertexColors {
 <1630B821-7842-11cf-8F52-0040333594A3>
 DWORD nVertexColors;
 array IndexedColor vertexColors[nVertexColors];
}

template Mesh {
 <3D82AB44-62DA-11cf-AB39-0020AF71E433>
 DWORD nVertices;
 array Vector vertices[nVertices];
 DWORD nFaces;
 array MeshFace faces[nFaces];
 [...]
}

Header{
1;
0;
1;
}

Mesh {
 92;
 -3.71428;7.43429;-10.83499;,
 3.78572;7.43429;-10.83499;,
 3.78572;-0.06571;-10.83499;,
 -3.71428;-0.06571;-10.83499;,
 3.78572;7.43429;-10.83499;,
 3.78572;7.43429;5.00338;,
 3.78572;-0.06571;5.00338;,
 3.78572;-0.06571;-10.83499;,
 3.78572;7.43429;5.00338;,
 -3.71428;7.43429;5.00338;,
 -3.71428;-0.06571;5.00338;,
 3.78572;-0.06571;5.00338;,
 -3.71428;7.43429;5.00338;,
 -3.71428;7.43429;-10.83499;,
 -3.71428;-0.06571;-10.83499;,
 -3.71428;-0.06571;5.00338;,
 3.78572;7.43429;-10.83499;,
 -3.71428;7.43429;-10.83499;,
 -3.71428;-0.06571;-10.83499;,
 3.78572;-0.06571;-10.83499;,
 -4.85868;8.10317;-13.86554;,
 -3.80092;8.10317;-13.86554;,
 -3.80092;7.45803;-13.73438;,
 -4.85868;7.45803;-13.73438;,
 -3.78475;8.10317;-13.86554;,
 -3.79159;7.45803;-13.73438;,
 3.88856;8.10317;-13.86554;,
 3.86835;7.45803;-13.73438;,
 3.87236;8.10317;-13.86554;,
 3.87236;7.45803;-13.73438;,
 4.93012;8.10317;-13.86554;,
 4.93012;7.45803;-13.73438;,
 -3.80092;4.33345;-13.03171;,
 -4.76255;4.33345;-13.03171;,
 -3.79159;7.46501;-13.73438;,
 3.86835;7.46501;-13.73438;,
 3.87236;4.33345;-13.03171;,
 4.93012;4.33345;-13.03171;,
 4.93012;8.10317;-13.86554;,
 4.93012;8.10317;7.21975;,
 4.97299;7.45803;7.17752;,
 4.93012;7.45803;-13.73438;,
 4.97299;4.33345;7.17752;,
 4.93012;4.33345;-13.03171;,
 4.93012;8.10317;7.21975;,
 3.87236;8.10317;7.21975;,
 3.91523;7.45803;7.17752;,
 4.97299;7.45803;7.17752;,
 3.88856;8.10317;7.21975;,
 3.86835;7.45803;7.21975;,
 -3.78475;8.10317;7.21975;,
 -3.79159;7.45803;7.21975;,
 -3.80092;8.10317;7.21975;,
 -3.80092;7.45803;7.21975;,
 -4.85868;8.10317;7.21975;,
 -4.85868;7.45803;7.21975;,
 3.91523;4.33345;7.17752;,
 4.97299;4.33345;7.17752;,
 3.86835;7.46501;7.21975;,
 -3.79159;7.46501;7.21975;,
 -3.80092;4.33345;7.21975;,
 -4.76255;4.33345;7.21975;,
 -4.85868;8.10317;7.21975;,
 -4.85868;8.10317;-13.86554;,
 -4.85868;7.45803;-13.73438;,
 -4.85868;7.45803;7.21975;,
 -4.76255;4.33345;-13.03171;,
 -4.76255;4.33345;7.21975;,
 -3.80092;8.10317;7.21975;,
 -3.80092;8.10317;-13.86554;,
 -4.85868;8.10317;-13.86554;,
 -3.78475;8.10317;7.21975;,
 -3.78475;8.10317;-13.86554;,
 3.88856;8.10317;7.21975;,
 3.88856;8.10317;-13.86554;,
 3.87236;8.10317;7.21975;,
 3.87236;8.10317;-13.86554;,
 4.93012;8.10317;-13.86554;,
 -4.76255;4.33345;-13.03171;,
 -3.80092;4.33345;-13.03171;,
 -3.80092;4.33345;7.21975;,
 -3.79159;7.46501;-13.73438;,
 -3.79159;7.46501;7.21975;,
 3.86835;7.46501;-13.73438;,
 3.86835;7.46501;7.21975;,
 3.87236;4.33345;-13.03171;,
 3.91523;4.33345;7.17752;,
 4.93012;4.33345;-13.03171;,
 -3.25800;6.98500;-11.20000;,
 3.32984;6.98500;-11.20000;,
 3.32984;0.39716;-11.20000;,
 -3.25800;0.39716;-11.20000;;
 
 41;
 4;0,1,2,3;,
 4;4,5,6,7;,
 4;8,9,10,11;,
 4;12,13,14,15;,
 4;12,5,16,17;,
 4;18,19,6,15;,
 4;20,21,22,23;,
 4;21,24,25,22;,
 4;24,26,27,25;,
 4;26,28,29,27;,
 4;28,30,31,29;,
 4;23,22,32,33;,
 4;22,25,34,32;,
 4;25,27,35,34;,
 4;27,29,36,35;,
 4;29,31,37,36;,
 4;38,39,40,41;,
 4;41,40,42,43;,
 4;44,45,46,47;,
 4;45,48,49,46;,
 4;48,50,51,49;,
 4;50,52,53,51;,
 4;52,54,55,53;,
 4;47,46,56,57;,
 4;46,49,58,56;,
 4;49,51,59,58;,
 4;51,53,60,59;,
 4;53,55,61,60;,
 4;62,63,64,65;,
 4;65,64,66,67;,
 4;62,68,69,70;,
 4;68,71,72,69;,
 4;71,73,74,72;,
 4;73,75,76,74;,
 4;75,39,77,76;,
 4;78,79,80,67;,
 4;79,81,82,80;,
 4;81,83,84,82;,
 4;83,85,86,84;,
 4;85,87,42,86;,
 4;88,89,90,91;;
 
 MeshMaterialList {
  2;
  41;
  1,
  1,
  1,
  1,
  1,
  1,
  1,
  1,
  1,
  1,
  1,
  1,
  1,
  1,
  1,
  1,
  1,
  1,
  1,
  1,
  1,
  1,
  1,
  1,
  1,
  1,
  1,
  1,
  1,
  1,
  1,
  1,
  1,
  1,
  1,
  1,
  1,
  1,
  1,
  1,
  0;;
  Material {
   0.000000;0.000000;0.000000;1.000000;;
   5.000000;
   0.000000;0.000000;0.000000;;
   0.000000;0.000000;0.000000;;
  }
  Material {
   0.640000;0.640000;0.640000;1.000000;;
   5.000000;
   0.000000;0.000000;0.000000;;
   0.000000;0.000000;0.000000;;
  }
 }
 MeshNormals {
  33;
  0.000000;0.000000;-1.000000;,
  1.000000;0.000000;0.000000;,
  0.000000;0.000000;1.000000;,
  0.000000;-0.199233;-0.979952;,
  0.000000;-0.199233;-0.979952;,
  0.000000;1.000000;0.000000;,
  0.000000;-0.209330;-0.977845;,
  0.188767;-0.205308;-0.960321;,
  0.254666;-0.198468;-0.946444;,
  -0.383990;-0.192142;-0.903124;,
  0.000000;-0.219405;-0.975634;,
  0.385670;-0.203527;-0.899909;,
  0.924985;-0.085997;-0.370144;,
  -0.383971;-0.203057;-0.900741;,
  0.000000;-0.199233;-0.979952;,
  0.000000;-0.209330;-0.977845;,
  0.000000;-0.219405;-0.975634;,
  0.999447;0.033235;-0.001023;,
  0.000000;-0.065327;0.997864;,
  0.932639;0.061827;-0.355473;,
  0.999863;0.016505;-0.001555;,
  0.000000;-0.021786;0.999763;,
  0.999998;-0.000230;-0.002086;,
  0.000000;0.000000;0.000000;,
  -1.000000;0.000000;0.000000;,
  0.000000;-1.000000;-0.000000;,
  -0.253569;-0.205342;-0.945271;,
  -0.924255;-0.088539;-0.371367;,
  0.000000;-0.032681;0.999466;,
  -0.999882;-0.015377;0.000000;,
  -0.999527;-0.030750;0.000000;,
  0.999996;-0.002978;-0.000000;,
  -0.999966;-0.008140;0.001060;;
  41;
  4;0,0,0,0;,
  4;1,1,1,1;,
  4;2,2,2,2;,
  4;24,24,24,24;,
  4;5,5,5,5;,
  4;25,25,25,25;,
  4;3,4,7,6;,
  4;4,4,8,7;,
  4;4,3,9,8;,
  4;5,5,5,5;,
  4;14,14,15,26;,
  4;6,7,11,10;,
  4;7,8,12,11;,
  4;2,2,2,2;,
  4;9,26,13,27;,
  4;26,15,16,13;,
  4;17,17,20,20;,
  4;20,20,22,22;,
  4;18,18,21,28;,
  4;19,19,19,19;,
  4;2,2,2,2;,
  4;2,2,2,2;,
  4;2,2,2,2;,
  4;28,21,2,2;,
  4;21,2,2,2;,
  4;0,0,0,0;,
  4;23,23,23,23;,
  4;2,2,2,2;,
  4;24,24,29,29;,
  4;29,29,30,30;,
  4;5,5,5,5;,
  4;5,5,5,5;,
  4;5,5,5,5;,
  4;25,25,25,25;,
  4;5,5,5,5;,
  4;25,25,25,25;,
  4;31,12,31,31;,
  4;25,25,25,25;,
  4;27,32,32,32;,
  4;25,25,25,25;,
  4;0,0,0,0;;
 }
 MeshTextureCoords {
  92;
  0.000000;0.000000;,
  1.000000;0.000000;,
  1.000000;1.000000;,
  0.000000;1.000000;,
  0.000000;0.000000;,
  1.000000;0.000000;,
  1.000000;1.000000;,
  0.000000;1.000000;,
  0.000000;0.000000;,
  1.000000;0.000000;,
  1.000000;1.000000;,
  0.000000;1.000000;,
  0.000000;0.000000;,
  1.000000;0.000000;,
  1.000000;1.000000;,
  0.000000;1.000000;,
  1.000000;1.000000;,
  0.000000;1.000000;,
  0.000000;0.000000;,
  1.000000;0.000000;,
  0.000000;0.000000;,
  0.200000;0.000000;,
  0.200000;0.500000;,
  0.000000;0.500000;,
  0.400000;0.000000;,
  0.400000;0.500000;,
  0.600000;0.000000;,
  0.600000;0.500000;,
  0.800000;0.000000;,
  0.800000;0.500000;,
  1.000000;0.000000;,
  1.000000;0.500000;,
  0.200000;1.000000;,
  0.000000;1.000000;,
  0.400000;1.000000;,
  0.600000;1.000000;,
  0.800000;1.000000;,
  1.000000;1.000000;,
  0.000000;0.000000;,
  1.000000;0.000000;,
  1.000000;0.500000;,
  0.000000;0.500000;,
  1.000000;1.000000;,
  0.000000;1.000000;,
  0.000000;0.000000;,
  0.200000;0.000000;,
  0.200000;0.500000;,
  0.000000;0.500000;,
  0.400000;0.000000;,
  0.400000;0.500000;,
  0.600000;0.000000;,
  0.600000;0.500000;,
  0.800000;0.000000;,
  0.800000;0.500000;,
  1.000000;0.000000;,
  1.000000;0.500000;,
  0.200000;1.000000;,
  0.000000;1.000000;,
  0.400000;1.000000;,
  0.600000;1.000000;,
  0.800000;1.000000;,
  1.000000;1.000000;,
  0.000000;0.000000;,
  1.000000;0.000000;,
  1.000000;0.500000;,
  0.000000;0.500000;,
  1.000000;1.000000;,
  0.000000;1.000000;,
  0.200000;0.000000;,
  0.200000;1.000000;,
  0.000000;1.000000;,
  0.400000;0.000000;,
  0.400000;1.000000;,
  0.600000;0.000000;,
  0.600000;1.000000;,
  0.800000;0.000000;,
  0.800000;1.000000;,
  1.000000;1.000000;,
  0.000000;0.000000;,
  0.200000;0.000000;,
  0.200000;1.000000;,
  0.400000;0.000000;,
  0.400000;1.000000;,
  0.600000;0.000000;,
  0.600000;1.000000;,
  0.800000;0.000000;,
  0.800000;1.000000;,
  1.000000;0.000000;,
  0.000000;0.000000;,
  1.000000;0.000000;,
  1.000000;1.000000;,
  0.000000;1.000000;;
 }
}
