xof 0302txt 0064
template Header {
 <3D82AB43-62DA-11cf-AB39-0020AF71E433>
 WORD major;
 WORD minor;
 DWORD flags;
}

template Vector {
 <3D82AB5E-62DA-11cf-AB39-0020AF71E433>
 FLOAT x;
 FLOAT y;
 FLOAT z;
}

template Coords2d {
 <F6F23F44-7686-11cf-8F52-0040333594A3>
 FLOAT u;
 FLOAT v;
}

template Matrix4x4 {
 <F6F23F45-7686-11cf-8F52-0040333594A3>
 array FLOAT matrix[16];
}

template ColorRGBA {
 <35FF44E0-6C7C-11cf-8F52-0040333594A3>
 FLOAT red;
 FLOAT green;
 FLOAT blue;
 FLOAT alpha;
}

template ColorRGB {
 <D3E16E81-7835-11cf-8F52-0040333594A3>
 FLOAT red;
 FLOAT green;
 FLOAT blue;
}

template IndexedColor {
 <1630B820-7842-11cf-8F52-0040333594A3>
 DWORD index;
 ColorRGBA indexColor;
}

template Boolean {
 <4885AE61-78E8-11cf-8F52-0040333594A3>
 WORD truefalse;
}

template Boolean2d {
 <4885AE63-78E8-11cf-8F52-0040333594A3>
 Boolean u;
 Boolean v;
}

template MaterialWrap {
 <4885AE60-78E8-11cf-8F52-0040333594A3>
 Boolean u;
 Boolean v;
}

template TextureFilename {
 <A42790E1-7810-11cf-8F52-0040333594A3>
 STRING filename;
}

template Material {
 <3D82AB4D-62DA-11cf-AB39-0020AF71E433>
 ColorRGBA faceColor;
 FLOAT power;
 ColorRGB specularColor;
 ColorRGB emissiveColor;
 [...]
}

template MeshFace {
 <3D82AB5F-62DA-11cf-AB39-0020AF71E433>
 DWORD nFaceVertexIndices;
 array DWORD faceVertexIndices[nFaceVertexIndices];
}

template MeshFaceWraps {
 <4885AE62-78E8-11cf-8F52-0040333594A3>
 DWORD nFaceWrapValues;
 Boolean2d faceWrapValues;
}

template MeshTextureCoords {
 <F6F23F40-7686-11cf-8F52-0040333594A3>
 DWORD nTextureCoords;
 array Coords2d textureCoords[nTextureCoords];
}

template MeshMaterialList {
 <F6F23F42-7686-11cf-8F52-0040333594A3>
 DWORD nMaterials;
 DWORD nFaceIndexes;
 array DWORD faceIndexes[nFaceIndexes];
 [Material]
}

template MeshNormals {
 <F6F23F43-7686-11cf-8F52-0040333594A3>
 DWORD nNormals;
 array Vector normals[nNormals];
 DWORD nFaceNormals;
 array MeshFace faceNormals[nFaceNormals];
}

template MeshVertexColors {
 <1630B821-7842-11cf-8F52-0040333594A3>
 DWORD nVertexColors;
 array IndexedColor vertexColors[nVertexColors];
}

template Mesh {
 <3D82AB44-62DA-11cf-AB39-0020AF71E433>
 DWORD nVertices;
 array Vector vertices[nVertices];
 DWORD nFaces;
 array MeshFace faces[nFaces];
 [...]
}

Header{
1;
0;
1;
}

Mesh {
 88;
 -1.35619;3.74995;-3.40923;,
 1.51382;3.74995;-3.38418;,
 1.51382;-0.00005;-3.38418;,
 -1.35619;-0.00005;-3.40923;,
 3.52552;3.74995;-1.33707;,
 3.52552;-0.00005;-1.33707;,
 3.50048;3.74995;1.53295;,
 3.50048;-0.00005;1.53295;,
 1.45336;3.74995;3.54465;,
 1.45336;-0.00005;3.54465;,
 -1.41666;3.74995;3.51960;,
 -1.41666;-0.00005;3.51960;,
 -3.42836;3.74995;1.47249;,
 -3.42836;-0.00005;1.47249;,
 -3.40331;3.74995;-1.39753;,
 -3.40331;-0.00005;-1.39753;,
 -1.35619;3.74995;-3.40923;,
 -1.35619;-0.00005;-3.40923;,
 0.04858;3.74995;0.06771;,
 0.04858;3.74995;0.06771;,
 0.04858;3.74995;0.06771;,
 0.04858;3.74995;0.06771;,
 0.04858;3.74995;0.06771;,
 0.04858;3.74995;0.06771;,
 0.04858;3.74995;0.06771;,
 0.04858;3.74995;0.06771;,
 0.04858;-0.00005;0.06771;,
 0.04858;-0.00005;0.06771;,
 0.04858;-0.00005;0.06771;,
 0.04858;-0.00005;0.06771;,
 0.04858;-0.00005;0.06771;,
 0.04858;-0.00005;0.06771;,
 0.04858;-0.00005;0.06771;,
 0.04858;-0.00005;0.06771;,
 -1.07642;3.74995;3.52808;,
 1.17358;3.74995;3.52808;,
 1.17358;-0.00005;3.52808;,
 -1.07642;-0.00005;3.52808;,
 1.17358;3.74995;3.52808;,
 1.17358;3.74995;11.02809;,
 1.17358;-0.00005;11.02809;,
 1.17358;-0.00005;3.52808;,
 1.17358;3.74995;11.02809;,
 -1.07642;3.74995;11.02809;,
 -1.07642;-0.00005;11.02809;,
 1.17358;-0.00005;11.02809;,
 -1.07642;3.74995;11.02809;,
 -1.07642;3.74995;3.52808;,
 -1.07642;-0.00005;3.52808;,
 -1.07642;-0.00005;11.02809;,
 1.17358;3.74995;3.52808;,
 -1.07642;3.74995;3.52808;,
 -1.07642;-0.00005;3.52808;,
 1.17358;-0.00005;3.52808;,
 -1.07524;8.99996;-2.71384;,
 1.22077;8.99996;-2.69380;,
 1.22077;3.74995;-2.69380;,
 -1.07524;3.74995;-2.71384;,
 2.83013;8.99996;-1.05611;,
 2.83013;3.74995;-1.05611;,
 2.81010;8.99996;1.23990;,
 2.81010;3.74995;1.23990;,
 1.17240;8.99996;2.84926;,
 1.17240;3.74995;2.84926;,
 -1.12361;8.99996;2.82923;,
 -1.12361;3.74995;2.82923;,
 -2.73297;8.99996;1.19153;,
 -2.73297;3.74995;1.19153;,
 -2.71293;8.99996;-1.10448;,
 -2.71293;3.74995;-1.10448;,
 -1.07524;8.99996;-2.71384;,
 -1.07524;3.74995;-2.71384;,
 0.04858;8.99996;0.06771;,
 0.04858;8.99996;0.06771;,
 0.04858;8.99996;0.06771;,
 0.04858;8.99996;0.06771;,
 0.04858;8.99996;0.06771;,
 0.04858;8.99996;0.06771;,
 0.04858;8.99996;0.06771;,
 0.04858;8.99996;0.06771;,
 0.04858;3.74995;0.06771;,
 0.04858;3.74995;0.06771;,
 0.04858;3.74995;0.06771;,
 0.04858;3.74995;0.06771;,
 0.04858;3.74995;0.06771;,
 0.04858;3.74995;0.06771;,
 0.04858;3.74995;0.06771;,
 0.04858;3.74995;0.06771;;
 
 54;
 4;0,1,2,3;,
 4;1,4,5,2;,
 4;4,6,7,5;,
 4;6,8,9,7;,
 4;8,10,11,9;,
 4;10,12,13,11;,
 4;12,14,15,13;,
 4;14,16,17,15;,
 3;18,1,0;,
 3;19,4,1;,
 3;20,6,4;,
 3;21,8,6;,
 3;22,10,8;,
 3;23,12,10;,
 3;24,14,12;,
 3;25,16,14;,
 3;26,3,2;,
 3;27,2,5;,
 3;28,5,7;,
 3;29,7,9;,
 3;30,9,11;,
 3;31,11,13;,
 3;32,13,15;,
 3;33,15,17;,
 4;34,35,36,37;,
 4;38,39,40,41;,
 4;42,43,44,45;,
 4;46,47,48,49;,
 4;46,39,50,51;,
 4;52,53,40,49;,
 4;54,55,56,57;,
 4;55,58,59,56;,
 4;58,60,61,59;,
 4;60,62,63,61;,
 4;62,64,65,63;,
 4;64,66,67,65;,
 4;66,68,69,67;,
 4;68,70,71,69;,
 3;72,55,54;,
 3;73,58,55;,
 3;74,60,58;,
 3;75,62,60;,
 3;76,64,62;,
 3;77,66,64;,
 3;78,68,66;,
 3;79,70,68;,
 3;80,57,56;,
 3;81,56,59;,
 3;82,59,61;,
 3;83,61,63;,
 3;84,63,65;,
 3;85,65,67;,
 3;86,67,69;,
 3;87,69,71;;
 
 MeshMaterialList {
  2;
  54;
  1,
  1,
  1,
  1,
  1,
  1,
  1,
  1,
  1,
  1,
  1,
  1,
  1,
  1,
  1,
  1,
  1,
  1,
  1,
  1,
  1,
  1,
  1,
  1,
  1,
  1,
  1,
  1,
  1,
  1,
  1,
  1,
  1,
  1,
  1,
  1,
  1,
  1,
  1,
  1,
  1,
  1,
  1,
  1,
  1,
  1,
  1,
  1,
  1,
  1,
  1,
  1,
  1,
  1;;
  Material {
   0.000000;0.000000;0.000000;1.000000;;
   5.000000;
   0.000000;0.000000;0.000000;;
   0.000000;0.000000;0.000000;;
  }
  Material {
   0.640000;0.640000;0.640000;1.000000;;
   5.000000;
   0.000000;0.000000;0.000000;;
   0.000000;0.000000;0.000000;;
  }
 }
 MeshNormals {
  22;
  0.000000;1.000000;0.000000;,
  -0.374607;0.000000;-0.927184;,
  0.390731;0.000000;-0.920505;,
  0.927184;0.000000;-0.374607;,
  0.920505;0.000000;0.390731;,
  0.374607;0.000000;0.927184;,
  -0.390731;0.000000;0.920505;,
  -0.927184;0.000000;0.374607;,
  -0.920505;0.000000;-0.390731;,
  0.000000;-1.000000;-0.000000;,
  0.000000;0.000000;-1.000000;,
  1.000000;0.000000;0.000000;,
  0.000000;0.000000;1.000000;,
  -0.374606;0.000000;-0.927184;,
  0.390731;0.000000;-0.920505;,
  0.927184;0.000000;-0.374607;,
  0.920505;0.000000;0.390731;,
  0.374606;0.000000;0.927184;,
  -0.390731;0.000000;0.920505;,
  -0.927184;0.000000;0.374606;,
  -0.920505;0.000000;-0.390731;,
  -1.000000;0.000000;0.000000;;
  54;
  4;1,2,2,1;,
  4;2,3,3,2;,
  4;3,4,4,3;,
  4;4,5,5,4;,
  4;5,6,6,5;,
  4;6,7,7,6;,
  4;7,8,8,7;,
  4;8,1,1,8;,
  3;0,0,0;,
  3;0,0,0;,
  3;0,0,0;,
  3;0,0,0;,
  3;0,0,0;,
  3;0,0,0;,
  3;0,0,0;,
  3;0,0,0;,
  3;9,9,9;,
  3;9,9,9;,
  3;9,9,9;,
  3;9,9,9;,
  3;9,9,9;,
  3;9,9,9;,
  3;9,9,9;,
  3;9,9,9;,
  4;10,10,10,10;,
  4;11,11,11,11;,
  4;12,12,12,12;,
  4;21,21,21,21;,
  4;0,0,0,0;,
  4;9,9,9,9;,
  4;13,14,14,13;,
  4;14,15,15,14;,
  4;15,16,16,15;,
  4;16,17,17,16;,
  4;17,18,18,17;,
  4;18,19,19,18;,
  4;19,20,20,19;,
  4;20,13,13,20;,
  3;0,0,0;,
  3;0,0,0;,
  3;0,0,0;,
  3;0,0,0;,
  3;0,0,0;,
  3;0,0,0;,
  3;0,0,0;,
  3;0,0,0;,
  3;9,9,9;,
  3;9,9,9;,
  3;9,9,9;,
  3;9,9,9;,
  3;9,9,9;,
  3;9,9,9;,
  3;9,9,9;,
  3;9,9,9;;
 }
 MeshTextureCoords {
  88;
  0.000000;0.000000;,
  0.125000;0.000000;,
  0.125000;1.000000;,
  0.000000;1.000000;,
  0.250000;0.000000;,
  0.250000;1.000000;,
  0.375000;0.000000;,
  0.375000;1.000000;,
  0.500000;0.000000;,
  0.500000;1.000000;,
  0.625000;0.000000;,
  0.625000;1.000000;,
  0.750000;0.000000;,
  0.750000;1.000000;,
  0.875000;0.000000;,
  0.875000;1.000000;,
  1.000000;0.000000;,
  1.000000;1.000000;,
  0.062500;0.000000;,
  0.187500;0.000000;,
  0.312500;0.000000;,
  0.437500;0.000000;,
  0.562500;0.000000;,
  0.687500;0.000000;,
  0.812500;0.000000;,
  0.937500;0.000000;,
  0.062500;1.000000;,
  0.187500;1.000000;,
  0.312500;1.000000;,
  0.437500;1.000000;,
  0.562500;1.000000;,
  0.687500;1.000000;,
  0.812500;1.000000;,
  0.937500;1.000000;,
  0.000000;0.000000;,
  1.000000;0.000000;,
  1.000000;1.000000;,
  0.000000;1.000000;,
  0.000000;0.000000;,
  1.000000;0.000000;,
  1.000000;1.000000;,
  0.000000;1.000000;,
  0.000000;0.000000;,
  1.000000;0.000000;,
  1.000000;1.000000;,
  0.000000;1.000000;,
  0.000000;0.000000;,
  1.000000;0.000000;,
  1.000000;1.000000;,
  0.000000;1.000000;,
  1.000000;1.000000;,
  0.000000;1.000000;,
  0.000000;0.000000;,
  1.000000;0.000000;,
  0.000000;0.000000;,
  0.125000;0.000000;,
  0.125000;1.000000;,
  0.000000;1.000000;,
  0.250000;0.000000;,
  0.250000;1.000000;,
  0.375000;0.000000;,
  0.375000;1.000000;,
  0.500000;0.000000;,
  0.500000;1.000000;,
  0.625000;0.000000;,
  0.625000;1.000000;,
  0.750000;0.000000;,
  0.750000;1.000000;,
  0.875000;0.000000;,
  0.875000;1.000000;,
  1.000000;0.000000;,
  1.000000;1.000000;,
  0.062500;0.000000;,
  0.187500;0.000000;,
  0.312500;0.000000;,
  0.437500;0.000000;,
  0.562500;0.000000;,
  0.687500;0.000000;,
  0.812500;0.000000;,
  0.937500;0.000000;,
  0.062500;1.000000;,
  0.187500;1.000000;,
  0.312500;1.000000;,
  0.437500;1.000000;,
  0.562500;1.000000;,
  0.687500;1.000000;,
  0.812500;1.000000;,
  0.937500;1.000000;;
 }
}
