xof 0302txt 0064
template Header {
 <3D82AB43-62DA-11cf-AB39-0020AF71E433>
 WORD major;
 WORD minor;
 DWORD flags;
}

template Vector {
 <3D82AB5E-62DA-11cf-AB39-0020AF71E433>
 FLOAT x;
 FLOAT y;
 FLOAT z;
}

template Coords2d {
 <F6F23F44-7686-11cf-8F52-0040333594A3>
 FLOAT u;
 FLOAT v;
}

template Matrix4x4 {
 <F6F23F45-7686-11cf-8F52-0040333594A3>
 array FLOAT matrix[16];
}

template ColorRGBA {
 <35FF44E0-6C7C-11cf-8F52-0040333594A3>
 FLOAT red;
 FLOAT green;
 FLOAT blue;
 FLOAT alpha;
}

template ColorRGB {
 <D3E16E81-7835-11cf-8F52-0040333594A3>
 FLOAT red;
 FLOAT green;
 FLOAT blue;
}

template IndexedColor {
 <1630B820-7842-11cf-8F52-0040333594A3>
 DWORD index;
 ColorRGBA indexColor;
}

template Boolean {
 <4885AE61-78E8-11cf-8F52-0040333594A3>
 WORD truefalse;
}

template Boolean2d {
 <4885AE63-78E8-11cf-8F52-0040333594A3>
 Boolean u;
 Boolean v;
}

template MaterialWrap {
 <4885AE60-78E8-11cf-8F52-0040333594A3>
 Boolean u;
 Boolean v;
}

template TextureFilename {
 <A42790E1-7810-11cf-8F52-0040333594A3>
 STRING filename;
}

template Material {
 <3D82AB4D-62DA-11cf-AB39-0020AF71E433>
 ColorRGBA faceColor;
 FLOAT power;
 ColorRGB specularColor;
 ColorRGB emissiveColor;
 [...]
}

template MeshFace {
 <3D82AB5F-62DA-11cf-AB39-0020AF71E433>
 DWORD nFaceVertexIndices;
 array DWORD faceVertexIndices[nFaceVertexIndices];
}

template MeshFaceWraps {
 <4885AE62-78E8-11cf-8F52-0040333594A3>
 DWORD nFaceWrapValues;
 Boolean2d faceWrapValues;
}

template MeshTextureCoords {
 <F6F23F40-7686-11cf-8F52-0040333594A3>
 DWORD nTextureCoords;
 array Coords2d textureCoords[nTextureCoords];
}

template MeshMaterialList {
 <F6F23F42-7686-11cf-8F52-0040333594A3>
 DWORD nMaterials;
 DWORD nFaceIndexes;
 array DWORD faceIndexes[nFaceIndexes];
 [Material]
}

template MeshNormals {
 <F6F23F43-7686-11cf-8F52-0040333594A3>
 DWORD nNormals;
 array Vector normals[nNormals];
 DWORD nFaceNormals;
 array MeshFace faceNormals[nFaceNormals];
}

template MeshVertexColors {
 <1630B821-7842-11cf-8F52-0040333594A3>
 DWORD nVertexColors;
 array IndexedColor vertexColors[nVertexColors];
}

template Mesh {
 <3D82AB44-62DA-11cf-AB39-0020AF71E433>
 DWORD nVertices;
 array Vector vertices[nVertices];
 DWORD nFaces;
 array MeshFace faces[nFaces];
 [...]
}

Header{
1;
0;
1;
}

Mesh {
 136;
 -1.71085;7.95116;-3.42892;,
 1.71085;7.95116;-3.42892;,
 1.71941;-0.03752;-2.73039;,
 -1.71941;-0.03752;-2.73039;,
 1.71085;7.95116;1.87816;,
 1.71941;-0.03752;2.57669;,
 -1.71085;7.95116;1.87816;,
 -1.71941;-0.03752;2.57669;,
 -1.71085;11.73431;-13.84548;,
 1.71085;11.73431;-13.84548;,
 1.71941;7.95116;-13.84548;,
 -1.71941;7.95116;-13.84548;,
 1.71085;11.73431;3.50528;,
 1.71941;7.95116;3.50528;,
 -1.71085;11.73431;3.50528;,
 -1.71941;7.95116;3.50528;,
 -1.71085;7.95116;-13.84548;,
 1.71085;7.95116;-13.84548;,
 1.71941;3.40172;-13.84548;,
 -1.71941;3.40172;-13.84548;,
 1.71085;7.95116;-8.53839;,
 1.71941;3.40172;-8.53839;,
 -1.71085;7.95116;-8.53839;,
 -1.71941;3.40172;-8.53839;,
 -1.71085;5.78167;-8.62791;,
 1.71085;5.78167;-8.62791;,
 1.71941;3.40417;-8.62791;,
 -1.71941;3.40417;-8.62791;,
 1.71085;5.78167;-2.54240;,
 1.71941;3.40417;-2.54240;,
 -1.71085;5.78167;-2.54240;,
 -1.71941;3.40417;-2.54240;,
 0.00000;10.92464;-13.74494;,
 0.26228;10.89150;-13.74494;,
 0.26228;10.89150;-19.25834;,
 0.00000;10.92464;-19.25834;,
 0.50808;10.79418;-13.74494;,
 0.50808;10.79418;-19.25834;,
 0.72195;10.63879;-13.74494;,
 0.72195;10.63879;-19.25834;,
 0.89046;10.43511;-13.74494;,
 0.89046;10.43511;-19.25834;,
 1.00302;10.19589;-13.74494;,
 1.00302;10.19589;-19.25834;,
 1.05256;9.93622;-13.74494;,
 1.05256;9.93622;-19.25834;,
 1.03596;9.67238;-13.74494;,
 1.03596;9.67238;-19.25834;,
 0.95427;9.42096;-13.74494;,
 0.95427;9.42096;-19.25834;,
 0.81262;9.19774;-13.74494;,
 0.81262;9.19774;-19.25834;,
 0.61990;9.01677;-13.74494;,
 0.61990;9.01677;-19.25834;,
 0.38824;8.88942;-13.74494;,
 0.38824;8.88942;-19.25834;,
 0.13218;8.82368;-13.74494;,
 0.13218;8.82368;-19.25834;,
 -0.13218;8.82368;-13.74494;,
 -0.13218;8.82368;-19.25834;,
 -0.38824;8.88942;-13.74494;,
 -0.38824;8.88942;-19.25834;,
 -0.61990;9.01677;-13.74494;,
 -0.61990;9.01678;-19.25834;,
 -0.81262;9.19774;-13.74494;,
 -0.81262;9.19774;-19.25834;,
 -0.95427;9.42096;-13.74494;,
 -0.95427;9.42096;-19.25834;,
 -1.03596;9.67238;-13.74494;,
 -1.03596;9.67238;-19.25834;,
 -1.05256;9.93622;-13.74494;,
 -1.05256;9.93622;-19.25834;,
 -1.00302;10.19589;-13.74494;,
 -1.00302;10.19589;-19.25834;,
 -0.89046;10.43511;-13.74494;,
 -0.89046;10.43511;-19.25834;,
 -0.72195;10.63879;-13.74494;,
 -0.72195;10.63879;-19.25834;,
 -0.50807;10.79418;-13.74494;,
 -0.50807;10.79418;-19.25834;,
 -0.26228;10.89150;-13.74494;,
 -0.26228;10.89150;-19.25834;,
 0.00000;9.87000;-13.74494;,
 0.00000;9.87000;-19.25834;,
 0.00000;11.27704;-19.23985;,
 0.35026;11.23279;-19.23985;,
 0.35026;11.23279;-28.94376;,
 0.00000;11.27704;-28.94376;,
 0.67852;11.10281;-19.23985;,
 0.67852;11.10281;-28.94376;,
 0.96414;10.89531;-19.23985;,
 0.96414;10.89531;-28.94376;,
 1.18918;10.62328;-19.23985;,
 1.18918;10.62328;-28.94376;,
 1.33950;10.30382;-19.23985;,
 1.33950;10.30382;-28.94376;,
 1.40565;9.95703;-19.23985;,
 1.40565;9.95703;-28.94376;,
 1.38348;9.60469;-19.23985;,
 1.38348;9.60469;-28.94376;,
 1.27439;9.26892;-19.23985;,
 1.27439;9.26892;-28.94376;,
 1.08522;8.97084;-19.23985;,
 1.08522;8.97084;-28.94376;,
 0.82785;8.72918;-19.23985;,
 0.82785;8.72918;-28.94376;,
 0.51848;8.55909;-19.23985;,
 0.51848;8.55909;-28.94376;,
 0.17652;8.47129;-19.23985;,
 0.17652;8.47129;-28.94376;,
 -0.17652;8.47129;-19.23985;,
 -0.17652;8.47129;-28.94376;,
 -0.51848;8.55909;-19.23985;,
 -0.51848;8.55909;-28.94376;,
 -0.82786;8.72918;-19.23985;,
 -0.82786;8.72918;-28.94376;,
 -1.08522;8.97084;-19.23985;,
 -1.08522;8.97084;-28.94376;,
 -1.27439;9.26892;-19.23985;,
 -1.27439;9.26892;-28.94376;,
 -1.38348;9.60469;-19.23985;,
 -1.38348;9.60469;-28.94376;,
 -1.40565;9.95703;-19.23985;,
 -1.40565;9.95703;-28.94376;,
 -1.33950;10.30383;-19.23985;,
 -1.33950;10.30383;-28.94376;,
 -1.18918;10.62328;-19.23985;,
 -1.18918;10.62328;-28.94376;,
 -0.96414;10.89531;-19.23985;,
 -0.96414;10.89531;-28.94376;,
 -0.67852;11.10281;-19.23985;,
 -0.67852;11.10281;-28.94376;,
 -0.35026;11.23279;-19.23985;,
 -0.35026;11.23279;-28.94376;,
 0.00000;9.86860;-19.23985;,
 0.00000;9.86860;-28.94376;;
 
 174;
 4;0,1,2,3;,
 4;1,4,5,2;,
 4;4,6,7,5;,
 4;6,0,3,7;,
 4;6,4,1,0;,
 4;3,2,5,7;,
 4;8,9,10,11;,
 4;9,12,13,10;,
 4;12,14,15,13;,
 4;14,8,11,15;,
 4;14,12,9,8;,
 4;11,10,13,15;,
 4;16,17,18,19;,
 4;17,20,21,18;,
 4;20,22,23,21;,
 4;22,16,19,23;,
 4;22,20,17,16;,
 4;19,18,21,23;,
 4;24,25,26,27;,
 4;25,28,29,26;,
 4;28,30,31,29;,
 4;30,24,27,31;,
 4;30,28,25,24;,
 4;27,26,29,31;,
 4;32,33,34,35;,
 4;33,36,37,34;,
 4;36,38,39,37;,
 4;38,40,41,39;,
 4;40,42,43,41;,
 4;42,44,45,43;,
 4;44,46,47,45;,
 4;46,48,49,47;,
 4;48,50,51,49;,
 4;50,52,53,51;,
 4;52,54,55,53;,
 4;54,56,57,55;,
 4;56,58,59,57;,
 4;58,60,61,59;,
 4;60,62,63,61;,
 4;62,64,65,63;,
 4;64,66,67,65;,
 4;66,68,69,67;,
 4;68,70,71,69;,
 4;70,72,73,71;,
 4;72,74,75,73;,
 4;74,76,77,75;,
 4;76,78,79,77;,
 4;78,80,81,79;,
 4;80,32,35,81;,
 3;82,33,32;,
 3;82,36,33;,
 3;82,38,36;,
 3;82,40,38;,
 3;82,42,40;,
 3;82,44,42;,
 3;82,46,44;,
 3;82,48,46;,
 3;82,50,48;,
 3;82,52,50;,
 3;82,54,52;,
 3;82,56,54;,
 3;82,58,56;,
 3;82,60,58;,
 3;82,62,60;,
 3;82,64,62;,
 3;82,66,64;,
 3;82,68,66;,
 3;82,70,68;,
 3;82,72,70;,
 3;82,74,72;,
 3;82,76,74;,
 3;82,78,76;,
 3;82,80,78;,
 3;82,32,80;,
 3;83,35,34;,
 3;83,34,37;,
 3;83,37,39;,
 3;83,39,41;,
 3;83,41,43;,
 3;83,43,45;,
 3;83,45,47;,
 3;83,47,49;,
 3;83,49,51;,
 3;83,51,53;,
 3;83,53,55;,
 3;83,55,57;,
 3;83,57,59;,
 3;83,59,61;,
 3;83,61,63;,
 3;83,63,65;,
 3;83,65,67;,
 3;83,67,69;,
 3;83,69,71;,
 3;83,71,73;,
 3;83,73,75;,
 3;83,75,77;,
 3;83,77,79;,
 3;83,79,81;,
 3;83,81,35;,
 4;84,85,86,87;,
 4;85,88,89,86;,
 4;88,90,91,89;,
 4;90,92,93,91;,
 4;92,94,95,93;,
 4;94,96,97,95;,
 4;96,98,99,97;,
 4;98,100,101,99;,
 4;100,102,103,101;,
 4;102,104,105,103;,
 4;104,106,107,105;,
 4;106,108,109,107;,
 4;108,110,111,109;,
 4;110,112,113,111;,
 4;112,114,115,113;,
 4;114,116,117,115;,
 4;116,118,119,117;,
 4;118,120,121,119;,
 4;120,122,123,121;,
 4;122,124,125,123;,
 4;124,126,127,125;,
 4;126,128,129,127;,
 4;128,130,131,129;,
 4;130,132,133,131;,
 4;132,84,87,133;,
 3;134,85,84;,
 3;134,88,85;,
 3;134,90,88;,
 3;134,92,90;,
 3;134,94,92;,
 3;134,96,94;,
 3;134,98,96;,
 3;134,100,98;,
 3;134,102,100;,
 3;134,104,102;,
 3;134,106,104;,
 3;134,108,106;,
 3;134,110,108;,
 3;134,112,110;,
 3;134,114,112;,
 3;134,116,114;,
 3;134,118,116;,
 3;134,120,118;,
 3;134,122,120;,
 3;134,124,122;,
 3;134,126,124;,
 3;134,128,126;,
 3;134,130,128;,
 3;134,132,130;,
 3;134,84,132;,
 3;135,87,86;,
 3;135,86,89;,
 3;135,89,91;,
 3;135,91,93;,
 3;135,93,95;,
 3;135,95,97;,
 3;135,97,99;,
 3;135,99,101;,
 3;135,101,103;,
 3;135,103,105;,
 3;135,105,107;,
 3;135,107,109;,
 3;135,109,111;,
 3;135,111,113;,
 3;135,113,115;,
 3;135,115,117;,
 3;135,117,119;,
 3;135,119,121;,
 3;135,121,123;,
 3;135,123,125;,
 3;135,125,127;,
 3;135,127,129;,
 3;135,129,131;,
 3;135,131,133;,
 3;135,133,87;;
 
 MeshMaterialList {
  1;
  174;
  0,
  0,
  0,
  0,
  0,
  0,
  0,
  0,
  0,
  0,
  0,
  0,
  0,
  0,
  0,
  0,
  0,
  0,
  0,
  0,
  0,
  0,
  0,
  0,
  0,
  0,
  0,
  0,
  0,
  0,
  0,
  0,
  0,
  0,
  0,
  0,
  0,
  0,
  0,
  0,
  0,
  0,
  0,
  0,
  0,
  0,
  0,
  0,
  0,
  0,
  0,
  0,
  0,
  0,
  0,
  0,
  0,
  0,
  0,
  0,
  0,
  0,
  0,
  0,
  0,
  0,
  0,
  0,
  0,
  0,
  0,
  0,
  0,
  0,
  0,
  0,
  0,
  0,
  0,
  0,
  0,
  0,
  0,
  0,
  0,
  0,
  0,
  0,
  0,
  0,
  0,
  0,
  0,
  0,
  0,
  0,
  0,
  0,
  0,
  0,
  0,
  0,
  0,
  0,
  0,
  0,
  0,
  0,
  0,
  0,
  0,
  0,
  0,
  0,
  0,
  0,
  0,
  0,
  0,
  0,
  0,
  0,
  0,
  0,
  0,
  0,
  0,
  0,
  0,
  0,
  0,
  0,
  0,
  0,
  0,
  0,
  0,
  0,
  0,
  0,
  0,
  0,
  0,
  0,
  0,
  0,
  0,
  0,
  0,
  0,
  0,
  0,
  0,
  0,
  0,
  0,
  0,
  0,
  0,
  0,
  0,
  0,
  0,
  0,
  0,
  0,
  0,
  0,
  0,
  0,
  0,
  0,
  0,
  0;;
  Material {
   0.000000;0.000000;0.000000;1.000000;;
   5.000000;
   0.000000;0.000000;0.000000;;
   0.000000;0.000000;0.000000;;
  }
 }
 MeshNormals {
  62;
  0.000000;-0.087108;-0.996199;,
  0.999999;0.001071;0.000000;,
  0.000000;0.087108;0.996199;,
  0.000000;0.000000;-1.000000;,
  0.999997;0.002262;0.000000;,
  0.000000;0.000000;1.000000;,
  0.999998;0.001881;0.000000;,
  0.999994;0.003600;0.000000;,
  0.000000;1.000000;0.000000;,
  0.248696;0.968581;0.000000;,
  0.481755;0.876306;0.000000;,
  0.684539;0.728976;0.000000;,
  0.844330;0.535824;0.000000;,
  0.951057;0.309015;0.000000;,
  0.998027;0.062790;0.000000;,
  0.982286;-0.187386;-0.000000;,
  0.904832;-0.425768;-0.000000;,
  0.770517;-0.637420;-0.000000;,
  0.587777;-0.809023;-0.000000;,
  0.368114;-0.929781;-0.000000;,
  0.125326;-0.992116;-0.000000;,
  -0.125326;-0.992116;0.000000;,
  -0.368125;-0.929776;-0.000000;,
  -0.587782;-0.809019;-0.000001;,
  -0.770513;-0.637425;-0.000000;,
  -0.904832;-0.425768;0.000000;,
  -0.982286;-0.187386;0.000000;,
  -0.998027;0.062790;0.000000;,
  -0.951057;0.309015;0.000000;,
  -0.844330;0.535824;0.000000;,
  -0.684535;0.728980;0.000000;,
  -0.481753;0.876307;0.000000;,
  -0.248700;0.968581;0.000000;,
  0.248705;0.968579;0.000000;,
  0.481750;0.876309;0.000000;,
  0.684544;0.728971;0.000000;,
  0.844332;0.535820;0.000000;,
  0.951056;0.309018;0.000000;,
  0.998027;0.062783;0.000000;,
  0.982288;-0.187379;-0.000000;,
  0.904827;-0.425779;-0.000000;,
  0.770498;-0.637443;-0.000000;,
  0.587778;-0.809023;-0.000000;,
  0.368133;-0.929773;-0.000000;,
  0.125336;-0.992114;-0.000000;,
  -0.125336;-0.992114;0.000000;,
  -0.368129;-0.929775;0.000000;,
  -0.587781;-0.809020;0.000000;,
  -0.770501;-0.637439;0.000000;,
  -0.904826;-0.425781;0.000000;,
  -0.982288;-0.187379;0.000000;,
  -0.998027;0.062781;0.000000;,
  -0.951055;0.309021;0.000000;,
  -0.844329;0.535825;0.000000;,
  -0.684544;0.728971;0.000000;,
  -0.481750;0.876309;0.000000;,
  -0.248705;0.968579;0.000000;,
  -0.999999;0.001071;0.000000;,
  0.000000;-1.000000;-0.000000;,
  -0.999997;0.002262;0.000000;,
  -0.999998;0.001881;0.000000;,
  -0.999994;0.003600;0.000000;;
  174;
  4;0,0,0,0;,
  4;1,1,1,1;,
  4;2,2,2,2;,
  4;57,57,57,57;,
  4;8,8,8,8;,
  4;58,58,58,58;,
  4;3,3,3,3;,
  4;4,4,4,4;,
  4;5,5,5,5;,
  4;59,59,59,59;,
  4;8,8,8,8;,
  4;58,58,58,58;,
  4;3,3,3,3;,
  4;6,6,6,6;,
  4;5,5,5,5;,
  4;60,60,60,60;,
  4;8,8,8,8;,
  4;58,58,58,58;,
  4;3,3,3,3;,
  4;7,7,7,7;,
  4;5,5,5,5;,
  4;61,61,61,61;,
  4;8,8,8,8;,
  4;58,58,58,58;,
  4;8,9,9,8;,
  4;9,10,10,9;,
  4;10,11,11,10;,
  4;11,12,12,11;,
  4;12,13,13,12;,
  4;13,14,14,13;,
  4;14,15,15,14;,
  4;15,16,16,15;,
  4;16,17,17,16;,
  4;17,18,18,17;,
  4;18,19,19,18;,
  4;19,20,20,19;,
  4;20,21,21,20;,
  4;21,22,22,21;,
  4;22,23,23,22;,
  4;23,24,24,23;,
  4;24,25,25,24;,
  4;25,26,26,25;,
  4;26,27,27,26;,
  4;27,28,28,27;,
  4;28,29,29,28;,
  4;29,30,30,29;,
  4;30,31,31,30;,
  4;31,32,32,31;,
  4;32,8,8,32;,
  3;5,5,5;,
  3;5,5,5;,
  3;5,5,5;,
  3;5,5,5;,
  3;5,5,5;,
  3;5,5,5;,
  3;5,5,5;,
  3;5,5,5;,
  3;5,5,5;,
  3;5,5,5;,
  3;5,5,5;,
  3;5,5,5;,
  3;5,5,5;,
  3;5,5,5;,
  3;5,5,5;,
  3;5,5,5;,
  3;5,5,5;,
  3;5,5,5;,
  3;5,5,5;,
  3;5,5,5;,
  3;5,5,5;,
  3;5,5,5;,
  3;5,5,5;,
  3;5,5,5;,
  3;5,5,5;,
  3;3,3,3;,
  3;3,3,3;,
  3;3,3,3;,
  3;3,3,3;,
  3;3,3,3;,
  3;3,3,3;,
  3;3,3,3;,
  3;3,3,3;,
  3;3,3,3;,
  3;3,3,3;,
  3;3,3,3;,
  3;3,3,3;,
  3;3,3,3;,
  3;3,3,3;,
  3;3,3,3;,
  3;3,3,3;,
  3;3,3,3;,
  3;3,3,3;,
  3;3,3,3;,
  3;3,3,3;,
  3;3,3,3;,
  3;3,3,3;,
  3;3,3,3;,
  3;3,3,3;,
  3;3,3,3;,
  4;8,33,33,8;,
  4;33,34,34,33;,
  4;34,35,35,34;,
  4;35,36,36,35;,
  4;36,37,37,36;,
  4;37,38,38,37;,
  4;38,39,39,38;,
  4;39,40,40,39;,
  4;40,41,41,40;,
  4;41,42,42,41;,
  4;42,43,43,42;,
  4;43,44,44,43;,
  4;44,45,45,44;,
  4;45,46,46,45;,
  4;46,47,47,46;,
  4;47,48,48,47;,
  4;48,49,49,48;,
  4;49,50,50,49;,
  4;50,51,51,50;,
  4;51,52,52,51;,
  4;52,53,53,52;,
  4;53,54,54,53;,
  4;54,55,55,54;,
  4;55,56,56,55;,
  4;56,8,8,56;,
  3;5,5,5;,
  3;5,5,5;,
  3;5,5,5;,
  3;5,5,5;,
  3;5,5,5;,
  3;5,5,5;,
  3;5,5,5;,
  3;5,5,5;,
  3;5,5,5;,
  3;5,5,5;,
  3;5,5,5;,
  3;5,5,5;,
  3;5,5,5;,
  3;5,5,5;,
  3;5,5,5;,
  3;5,5,5;,
  3;5,5,5;,
  3;5,5,5;,
  3;5,5,5;,
  3;5,5,5;,
  3;5,5,5;,
  3;5,5,5;,
  3;5,5,5;,
  3;5,5,5;,
  3;5,5,5;,
  3;3,3,3;,
  3;3,3,3;,
  3;3,3,3;,
  3;3,3,3;,
  3;3,3,3;,
  3;3,3,3;,
  3;3,3,3;,
  3;3,3,3;,
  3;3,3,3;,
  3;3,3,3;,
  3;3,3,3;,
  3;3,3,3;,
  3;3,3,3;,
  3;3,3,3;,
  3;3,3,3;,
  3;3,3,3;,
  3;3,3,3;,
  3;3,3,3;,
  3;3,3,3;,
  3;3,3,3;,
  3;3,3,3;,
  3;3,3,3;,
  3;3,3,3;,
  3;3,3,3;,
  3;3,3,3;;
 }
}
