xof 0302txt 0064
template Header {
 <3D82AB43-62DA-11cf-AB39-0020AF71E433>
 WORD major;
 WORD minor;
 DWORD flags;
}

template Vector {
 <3D82AB5E-62DA-11cf-AB39-0020AF71E433>
 FLOAT x;
 FLOAT y;
 FLOAT z;
}

template Coords2d {
 <F6F23F44-7686-11cf-8F52-0040333594A3>
 FLOAT u;
 FLOAT v;
}

template Matrix4x4 {
 <F6F23F45-7686-11cf-8F52-0040333594A3>
 array FLOAT matrix[16];
}

template ColorRGBA {
 <35FF44E0-6C7C-11cf-8F52-0040333594A3>
 FLOAT red;
 FLOAT green;
 FLOAT blue;
 FLOAT alpha;
}

template ColorRGB {
 <D3E16E81-7835-11cf-8F52-0040333594A3>
 FLOAT red;
 FLOAT green;
 FLOAT blue;
}

template IndexedColor {
 <1630B820-7842-11cf-8F52-0040333594A3>
 DWORD index;
 ColorRGBA indexColor;
}

template Boolean {
 <4885AE61-78E8-11cf-8F52-0040333594A3>
 WORD truefalse;
}

template Boolean2d {
 <4885AE63-78E8-11cf-8F52-0040333594A3>
 Boolean u;
 Boolean v;
}

template MaterialWrap {
 <4885AE60-78E8-11cf-8F52-0040333594A3>
 Boolean u;
 Boolean v;
}

template TextureFilename {
 <A42790E1-7810-11cf-8F52-0040333594A3>
 STRING filename;
}

template Material {
 <3D82AB4D-62DA-11cf-AB39-0020AF71E433>
 ColorRGBA faceColor;
 FLOAT power;
 ColorRGB specularColor;
 ColorRGB emissiveColor;
 [...]
}

template MeshFace {
 <3D82AB5F-62DA-11cf-AB39-0020AF71E433>
 DWORD nFaceVertexIndices;
 array DWORD faceVertexIndices[nFaceVertexIndices];
}

template MeshFaceWraps {
 <4885AE62-78E8-11cf-8F52-0040333594A3>
 DWORD nFaceWrapValues;
 Boolean2d faceWrapValues;
}

template MeshTextureCoords {
 <F6F23F40-7686-11cf-8F52-0040333594A3>
 DWORD nTextureCoords;
 array Coords2d textureCoords[nTextureCoords];
}

template MeshMaterialList {
 <F6F23F42-7686-11cf-8F52-0040333594A3>
 DWORD nMaterials;
 DWORD nFaceIndexes;
 array DWORD faceIndexes[nFaceIndexes];
 [Material]
}

template MeshNormals {
 <F6F23F43-7686-11cf-8F52-0040333594A3>
 DWORD nNormals;
 array Vector normals[nNormals];
 DWORD nFaceNormals;
 array MeshFace faceNormals[nFaceNormals];
}

template MeshVertexColors {
 <1630B821-7842-11cf-8F52-0040333594A3>
 DWORD nVertexColors;
 array IndexedColor vertexColors[nVertexColors];
}

template Mesh {
 <3D82AB44-62DA-11cf-AB39-0020AF71E433>
 DWORD nVertices;
 array Vector vertices[nVertices];
 DWORD nFaces;
 array MeshFace faces[nFaces];
 [...]
}

Header{
1;
0;
1;
}

Mesh {
 532;
 -76.08317;227.94835;-45.13724;,
 -76.08317;234.93146;-45.13724;,
 -62.50815;241.06795;-45.13724;,
 -62.50815;227.94835;-45.13724;,
 -62.50811;241.06795;46.07101;,
 -62.50811;227.94835;46.07101;,
 -76.23602;227.94835;46.07096;,
 -76.23602;234.93146;46.07096;,
 -248.63139;227.94835;-45.42640;,
 -248.78429;227.94835;45.78181;,
 -248.78429;241.06795;45.78181;,
 -248.63139;241.06795;-45.42640;,
 -236.77919;234.93146;-45.40649;,
 -236.77919;227.94835;-45.40649;,
 -236.93199;234.93146;45.80171;,
 -236.93199;227.94835;45.80171;,
 -62.50815;318.06241;-45.13724;,
 -62.50811;318.06241;46.07101;,
 -76.08317;318.06241;-45.13724;,
 -76.23602;318.06241;46.07096;,
 -236.77919;318.06241;-45.40649;,
 -248.63139;318.06241;-45.42640;,
 -248.78429;318.06241;45.78181;,
 -236.93199;318.06241;45.80171;,
 -248.63139;306.21509;-45.42640;,
 -236.77919;311.67966;-45.40649;,
 -248.78429;306.21509;45.78181;,
 -236.93199;311.67966;45.80171;,
 -76.18546;311.60919;-45.20064;,
 -75.16801;318.06241;46.07276;,
 -75.75881;311.67966;46.07276;,
 -243.96404;315.28699;38.45591;,
 -72.99987;315.28699;38.45591;,
 -72.99987;233.37331;38.45591;,
 -243.96404;233.37331;38.45591;,
 -72.99987;315.28699;38.45591;,
 -72.99987;315.28699;42.92836;,
 -72.99987;233.37331;42.92836;,
 -72.99987;233.37331;38.45591;,
 -72.99987;315.28699;42.92836;,
 -243.96404;315.28699;42.92836;,
 -243.96404;233.37331;42.92836;,
 -72.99987;233.37331;42.92836;,
 -243.96404;315.28699;42.92836;,
 -243.96404;315.28699;38.45591;,
 -243.96404;233.37331;38.45591;,
 -243.96404;233.37331;42.92836;,
 -72.99987;315.28699;38.45591;,
 -243.96404;315.28699;38.45591;,
 -243.96404;233.37331;38.45591;,
 -72.99987;233.37331;38.45591;,
 -241.12013;228.60596;40.58251;,
 -75.00001;228.60596;40.58251;,
 -75.00001;228.60596;31.76946;,
 -241.12013;228.60596;31.76946;,
 -62.56261;227.94835;-45.40649;,
 -62.74646;227.94835;45.80171;,
 -76.50071;227.94835;45.78181;,
 -76.31692;227.94835;-45.42640;,
 -236.93199;0.04960;45.80171;,
 -236.77919;0.04960;-45.40649;,
 -248.78429;0.04960;45.78181;,
 -248.63139;0.04960;-45.42640;,
 -236.46449;12.90325;-45.13714;,
 -236.46449;5.89695;-45.13714;,
 -248.50169;5.89695;-45.13720;,
 -248.50169;12.90325;-45.13720;,
 -236.46458;12.90325;46.07091;,
 -248.50169;12.90325;46.07096;,
 -248.50169;5.89695;46.07096;,
 -236.46458;5.89695;46.07091;,
 -13.87361;12.90325;-45.13720;,
 -0.27831;12.90325;-45.13720;,
 -0.27831;5.89695;-45.13720;,
 -13.87361;5.89695;-45.13720;,
 -12.92536;12.40635;45.68511;,
 -13.87366;5.89695;46.07091;,
 -0.27831;5.89695;46.07096;,
 -0.27831;12.90325;46.07096;,
 -248.50163;12.90325;35.23236;,
 -248.50163;5.89695;35.23236;,
 -248.50169;5.89695;46.07096;,
 -248.50169;12.90325;46.07096;,
 -248.50169;12.90325;46.07096;,
 -236.46458;12.90325;46.07091;,
 -12.92536;12.40635;45.68511;,
 -0.27831;12.90325;46.07096;,
 -236.46452;5.89695;35.23236;,
 -13.87361;5.89695;35.23241;,
 -13.87366;5.89695;46.07091;,
 -236.46458;5.89695;46.07091;,
 -0.27831;12.90325;35.23241;,
 -0.27831;12.90325;46.07096;,
 -0.27831;5.89695;46.07096;,
 -0.27831;5.89695;35.23241;,
 -248.50163;12.90325;-34.29864;,
 -248.50169;12.90325;-45.13720;,
 -248.50169;5.89695;-45.13720;,
 -248.50163;5.89695;-34.29864;,
 -248.50163;12.90325;-34.29864;,
 -248.50163;12.90325;35.23236;,
 -248.50169;12.90325;-45.13720;,
 -248.50163;5.89695;-34.29864;,
 -236.46452;5.89695;-34.29864;,
 -248.50163;5.89695;35.23236;,
 -0.27831;12.90325;-45.13720;,
 -13.87361;12.90325;-45.13720;,
 -236.46449;12.90325;-45.13714;,
 -236.46449;5.89695;-45.13714;,
 -13.87361;5.89695;-45.13720;,
 -13.87361;5.89695;-34.29864;,
 -0.27831;12.90325;35.23241;,
 -0.27831;12.90325;-34.29860;,
 -0.27831;5.89695;-34.29860;,
 -0.27831;5.89695;35.23241;,
 -0.27831;12.90325;-34.29860;,
 -0.27831;5.89695;-34.29860;,
 -0.27831;5.89695;-45.13720;,
 -0.27831;12.90325;-45.13720;,
 -236.46452;-1.12445;35.23236;,
 -248.50163;-1.12445;35.23236;,
 -236.46458;-1.12445;46.07091;,
 -248.50169;-1.12445;46.07096;,
 -248.50169;5.89695;46.07096;,
 -0.27831;-1.12445;35.23241;,
 -13.87361;-1.12445;35.23241;,
 -0.27831;-1.12445;46.07096;,
 -13.87366;-1.12445;46.07091;,
 -248.50169;-1.12445;-45.13720;,
 -248.50163;-1.12445;-34.29864;,
 -248.50169;5.89695;-45.13720;,
 -236.46449;-1.12445;-45.13714;,
 -236.46452;-1.12445;-34.29864;,
 -13.87361;-1.12445;-45.13720;,
 -13.87361;-1.12445;-34.29864;,
 -0.27831;-1.12445;-45.13720;,
 -0.27831;-1.12445;-34.29860;,
 -13.98601;112.32875;46.07291;,
 -13.83316;112.40755;-45.13724;,
 -13.87361;12.90325;-45.13720;,
 -12.92536;12.40635;45.68511;,
 -13.83316;112.40755;-45.13724;,
 -0.25816;112.40755;-45.13724;,
 -0.27831;12.90325;-45.13720;,
 -13.87361;12.90325;-45.13720;,
 -0.25816;112.40755;-45.13724;,
 -0.25811;112.40755;46.07101;,
 -0.27831;12.90325;46.07096;,
 -0.27831;12.90325;-45.13720;,
 -0.25811;112.40755;46.07101;,
 -13.98601;112.32875;46.07291;,
 -12.92536;12.40635;45.68511;,
 -0.27831;12.90325;46.07096;,
 -12.92536;12.40635;45.68511;,
 -13.87361;12.90325;-45.13720;,
 -236.26109;112.32875;46.07291;,
 -236.46458;12.90325;46.07091;,
 -236.46449;12.90325;-45.13714;,
 -236.26109;112.40755;-45.13724;,
 -236.26109;112.40755;-45.13724;,
 -236.46449;12.90325;-45.13714;,
 -248.50169;12.90325;-45.13720;,
 -248.52187;112.40755;-45.13724;,
 -248.52187;112.40755;-45.13724;,
 -248.50169;12.90325;-45.13720;,
 -248.50169;12.90325;46.07096;,
 -248.52184;112.40755;46.07096;,
 -248.52184;112.40755;46.07096;,
 -248.50169;12.90325;46.07096;,
 -236.46458;12.90325;46.07091;,
 -236.26109;112.32875;46.07291;,
 -236.26109;112.32875;46.07291;,
 -236.26109;112.40755;-45.13724;,
 -236.46458;12.90325;46.07091;,
 -236.46449;12.90325;-45.13714;,
 -235.24544;112.18415;37.04506;,
 -235.24544;12.40635;37.04701;,
 -235.24544;112.18415;37.04506;,
 -12.92531;112.18415;37.04506;,
 -12.92531;12.40635;37.04701;,
 -235.24544;12.40635;37.04701;,
 -12.92531;112.18415;37.04506;,
 -12.92531;12.40635;37.04701;,
 -235.24544;12.40635;37.04701;,
 -237.45848;45.57515;-39.74414;,
 -11.32151;45.57515;-39.74414;,
 -11.32151;39.74950;-39.74414;,
 -237.45848;39.74950;-39.74414;,
 -11.32151;45.57515;-39.74414;,
 -11.32151;45.57515;45.92846;,
 -11.32151;39.74950;45.92846;,
 -11.32151;39.74950;-39.74414;,
 -11.32151;45.57515;45.92846;,
 -237.45848;45.57515;45.92846;,
 -237.45848;39.74950;45.92846;,
 -11.32151;39.74950;45.92846;,
 -237.45848;45.57515;45.92846;,
 -237.45848;45.57515;-39.74414;,
 -237.45848;39.74950;-39.74414;,
 -237.45848;39.74950;45.92846;,
 -11.32151;45.57515;-39.74414;,
 -237.45848;45.57515;-39.74414;,
 -237.45848;39.74950;-39.74414;,
 -11.32151;39.74950;-39.74414;,
 -237.45848;80.07960;-39.74414;,
 -11.32151;80.07960;-39.74414;,
 -11.32151;74.25390;-39.74414;,
 -237.45848;74.25390;-39.74414;,
 -11.32151;80.07960;-39.74414;,
 -11.32151;80.07960;45.67846;,
 -11.32151;74.25390;45.67846;,
 -11.32151;74.25390;-39.74414;,
 -11.32151;80.07960;45.67846;,
 -237.45848;80.07960;45.67846;,
 -237.45848;74.25390;45.67846;,
 -11.32151;74.25390;45.67846;,
 -237.45848;80.07960;45.67846;,
 -237.45848;80.07960;-39.74414;,
 -237.45848;74.25390;-39.74414;,
 -237.45848;74.25390;45.67846;,
 -11.32151;80.07960;-39.74414;,
 -237.45848;80.07960;-39.74414;,
 -237.45848;74.25390;-39.74414;,
 -11.32151;74.25390;-39.74414;,
 -237.45848;112.20590;-43.60659;,
 -11.32151;112.20590;-43.60659;,
 -11.32151;106.38025;-43.60659;,
 -237.45848;106.38025;-43.60659;,
 -11.32151;112.20590;-43.60659;,
 -11.32151;112.20590;44.06596;,
 -11.32151;106.38025;44.06596;,
 -11.32151;106.38025;-43.60659;,
 -11.32151;112.20590;44.06596;,
 -237.45848;112.20590;44.06596;,
 -237.45848;106.38025;44.06596;,
 -11.32151;106.38025;44.06596;,
 -237.45848;112.20590;44.06596;,
 -237.45848;112.20590;-43.60659;,
 -237.45848;106.38025;-43.60659;,
 -237.45848;106.38025;44.06596;,
 -11.32151;112.20590;-43.60659;,
 -237.45848;112.20590;-43.60659;,
 -237.45848;106.38025;-43.60659;,
 -11.32151;106.38025;-43.60659;,
 -178.87013;111.13105;31.76946;,
 -12.75001;111.13105;31.76946;,
 -12.75001;111.13105;40.58251;,
 -178.87013;111.13105;40.58251;,
 -12.92531;111.61055;37.15776;,
 -13.98601;111.99140;46.17876;,
 -235.24544;111.61055;37.15776;,
 -235.24544;112.18415;37.04506;,
 -236.26109;111.99140;46.17876;,
 -13.87361;112.39695;46.20536;,
 -0.27831;112.39695;46.20531;,
 -0.27831;112.39695;-45.27160;,
 -13.87361;112.39695;-45.27160;,
 -238.35799;228.36040;37.48491;,
 -62.53505;228.36040;37.48491;,
 -62.53505;111.63965;37.48491;,
 -238.35799;111.63965;37.48491;,
 -62.53505;228.36040;37.48491;,
 -62.53505;228.36040;44.08421;,
 -62.53505;111.63965;44.08421;,
 -62.53505;111.63965;37.48491;,
 -62.53505;228.36040;44.08421;,
 -238.35799;228.36040;44.08421;,
 -238.35799;111.63965;44.08421;,
 -62.53505;111.63965;44.08421;,
 -238.35799;228.36040;44.08421;,
 -238.35799;228.36040;37.48491;,
 -238.35799;111.63965;37.48491;,
 -238.35799;111.63965;44.08421;,
 -62.53505;228.36040;37.48491;,
 -238.35799;228.36040;37.48491;,
 -238.35799;111.63965;37.48491;,
 -62.53505;111.63965;37.48491;,
 11.58989;12.90325;-45.24730;,
 11.58989;5.89695;-45.24730;,
 -0.44731;5.89695;-45.24734;,
 -0.44731;12.90325;-45.24734;,
 11.58979;12.90325;45.96076;,
 -0.44731;12.90325;45.96081;,
 -0.44731;5.89695;45.96081;,
 11.58979;5.89695;45.96076;,
 234.18092;12.90325;-45.24734;,
 247.77617;12.90325;-45.24734;,
 247.77617;5.89695;-45.24734;,
 234.18092;5.89695;-45.24734;,
 235.12917;12.40635;45.57495;,
 234.18086;5.89695;45.96076;,
 247.77617;5.89695;45.96081;,
 247.77617;12.90325;45.96081;,
 -0.44726;12.90325;35.12221;,
 -0.44726;5.89695;35.12221;,
 -0.44731;5.89695;45.96081;,
 -0.44731;12.90325;45.96081;,
 -0.44731;12.90325;45.96081;,
 11.58979;12.90325;45.96076;,
 235.12917;12.40635;45.57495;,
 247.77617;12.90325;45.96081;,
 11.58989;5.89695;35.12221;,
 234.18092;5.89695;35.12226;,
 234.18086;5.89695;45.96076;,
 11.58979;5.89695;45.96076;,
 247.77617;12.90325;35.12226;,
 247.77617;12.90325;45.96081;,
 247.77617;5.89695;45.96081;,
 247.77617;5.89695;35.12226;,
 -0.44726;12.90325;-34.40879;,
 -0.44731;12.90325;-45.24734;,
 -0.44731;5.89695;-45.24734;,
 -0.44726;5.89695;-34.40879;,
 -0.44726;12.90325;-34.40879;,
 -0.44726;12.90325;35.12221;,
 -0.44731;12.90325;-45.24734;,
 -0.44726;5.89695;-34.40879;,
 11.58989;5.89695;-34.40879;,
 -0.44726;5.89695;35.12221;,
 247.77617;12.90325;-45.24734;,
 234.18092;12.90325;-45.24734;,
 11.58989;12.90325;-45.24730;,
 11.58989;5.89695;-45.24730;,
 234.18092;5.89695;-45.24734;,
 234.18092;5.89695;-34.40879;,
 247.77617;12.90325;35.12226;,
 247.77617;12.90325;-34.40874;,
 247.77617;5.89695;-34.40874;,
 247.77617;5.89695;35.12226;,
 247.77617;12.90325;-34.40874;,
 247.77617;5.89695;-34.40874;,
 247.77617;5.89695;-45.24734;,
 247.77617;12.90325;-45.24734;,
 11.58989;-1.12445;35.12221;,
 -0.44726;-1.12445;35.12221;,
 11.58979;-1.12445;45.96076;,
 -0.44731;-1.12445;45.96081;,
 -0.44731;5.89695;45.96081;,
 247.77617;-1.12445;35.12226;,
 234.18092;-1.12445;35.12226;,
 247.77617;-1.12445;45.96081;,
 234.18086;-1.12445;45.96076;,
 -0.44731;-1.12445;-45.24734;,
 -0.44726;-1.12445;-34.40879;,
 -0.44731;5.89695;-45.24734;,
 11.58989;-1.12445;-45.24730;,
 11.58989;-1.12445;-34.40879;,
 234.18092;-1.12445;-45.24734;,
 234.18092;-1.12445;-34.40879;,
 247.77617;-1.12445;-45.24734;,
 247.77617;-1.12445;-34.40874;,
 234.06847;112.40755;45.96081;,
 234.22136;112.40755;-45.24739;,
 234.18092;12.90325;-45.24734;,
 235.12917;12.40635;45.57495;,
 234.22136;112.40755;-45.24739;,
 247.79631;112.40755;-45.24739;,
 247.77617;12.90325;-45.24734;,
 234.18092;12.90325;-45.24734;,
 247.79631;112.40755;-45.24739;,
 247.79637;112.40755;45.96086;,
 247.77617;12.90325;45.96081;,
 247.77617;12.90325;-45.24734;,
 247.79637;112.40755;45.96086;,
 234.06847;112.40755;45.96081;,
 235.12917;12.40635;45.57495;,
 247.77617;12.90325;45.96081;,
 235.12917;12.40635;45.57495;,
 234.18092;12.90325;-45.24734;,
 11.79329;112.40755;45.96081;,
 11.58979;12.90325;45.96076;,
 11.58989;12.90325;-45.24730;,
 11.79329;112.40755;-45.24739;,
 11.79329;112.40755;-45.24739;,
 11.58989;12.90325;-45.24730;,
 -0.44731;12.90325;-45.24734;,
 -0.46751;112.40755;-45.24739;,
 -0.46751;112.40755;-45.24739;,
 -0.44731;12.90325;-45.24734;,
 -0.44731;12.90325;45.96081;,
 -0.46746;112.40755;45.96081;,
 -0.46746;112.40755;45.96081;,
 -0.44731;12.90325;45.96081;,
 11.58979;12.90325;45.96076;,
 11.79329;112.40755;45.96081;,
 11.79329;112.40755;45.96081;,
 11.79329;112.40755;-45.24739;,
 11.58979;12.90325;45.96076;,
 11.58989;12.90325;-45.24730;,
 12.80894;112.10540;36.93686;,
 12.80894;12.40635;36.93686;,
 12.80894;112.10540;36.93686;,
 235.12923;112.10540;36.93686;,
 235.12923;12.40635;36.93686;,
 12.80894;12.40635;36.93686;,
 235.12923;112.10540;36.93686;,
 235.12923;12.40635;36.93686;,
 12.80894;112.10540;36.93686;,
 12.80894;12.40635;36.93686;,
 10.59589;45.57515;-39.85429;,
 236.73296;45.57515;-39.85429;,
 236.73296;39.74950;-39.85429;,
 10.59589;39.74950;-39.85429;,
 236.73296;45.57515;-39.85429;,
 236.73296;45.57515;47.81831;,
 236.73296;39.74950;47.81831;,
 236.73296;39.74950;-39.85429;,
 236.73296;45.57515;47.81831;,
 10.59589;45.57515;47.81831;,
 10.59589;39.74950;47.81831;,
 236.73296;39.74950;47.81831;,
 10.59589;45.57515;47.81831;,
 10.59589;45.57515;-39.85429;,
 10.59589;39.74950;-39.85429;,
 10.59589;39.74950;47.81831;,
 236.73296;45.57515;-39.85429;,
 10.59589;45.57515;-39.85429;,
 10.59589;39.74950;-39.85429;,
 236.73296;39.74950;-39.85429;,
 10.59589;80.07960;-39.85429;,
 236.73296;80.07960;-39.85429;,
 236.73296;74.25390;-39.85429;,
 10.59589;74.25390;-39.85429;,
 236.73296;80.07960;-39.85429;,
 236.73296;80.07960;47.81831;,
 236.73296;74.25390;47.81831;,
 236.73296;74.25390;-39.85429;,
 236.73296;80.07960;47.81831;,
 10.59589;80.07960;47.81831;,
 10.59589;74.25390;47.81831;,
 236.73296;74.25390;47.81831;,
 10.59589;80.07960;47.81831;,
 10.59589;80.07960;-39.85429;,
 10.59589;74.25390;-39.85429;,
 10.59589;74.25390;47.81831;,
 236.73296;80.07960;-39.85429;,
 10.59589;80.07960;-39.85429;,
 10.59589;74.25390;-39.85429;,
 236.73296;74.25390;-39.85429;,
 10.59589;112.20590;-43.71674;,
 236.73296;112.20590;-43.71674;,
 236.73296;106.38025;-43.71674;,
 10.59589;106.38025;-43.71674;,
 236.73296;112.20590;-43.71674;,
 236.73296;112.20590;43.95581;,
 236.73296;106.38025;43.95581;,
 236.73296;106.38025;-43.71674;,
 236.73296;112.20590;43.95581;,
 10.59589;112.20590;43.95581;,
 10.59589;106.38025;43.95581;,
 236.73296;106.38025;43.95581;,
 10.59589;112.20590;43.95581;,
 10.59589;112.20590;-43.71674;,
 10.59589;106.38025;-43.71674;,
 10.59589;106.38025;43.95581;,
 236.73296;112.20590;-43.71674;,
 10.59589;112.20590;-43.71674;,
 10.59589;106.38025;-43.71674;,
 236.73296;106.38025;-43.71674;,
 234.22136;227.94835;-45.24739;,
 234.22136;234.93146;-45.24739;,
 247.79631;241.06795;-45.24739;,
 247.79631;227.94835;-45.24739;,
 234.22136;112.40755;-45.24739;,
 234.06847;112.40755;45.96081;,
 234.06847;227.94835;45.96081;,
 247.79637;241.06795;45.96086;,
 247.79637;227.94835;45.96086;,
 234.06847;234.93146;45.96081;,
 61.67299;227.94835;-45.53654;,
 61.52014;227.94835;45.67166;,
 61.52014;241.06795;45.67166;,
 61.67299;241.06795;-45.53654;,
 73.52523;234.93146;-45.51664;,
 73.52523;227.94835;-45.51664;,
 73.37238;234.93146;45.69156;,
 73.37238;227.94835;45.69156;,
 247.79631;318.06241;-45.24739;,
 247.79637;318.06241;45.96086;,
 234.22136;318.06241;-45.24739;,
 234.06847;318.06241;45.96081;,
 73.52523;318.06241;-45.51664;,
 61.67299;318.06241;-45.53654;,
 61.52014;318.06241;45.67166;,
 73.37238;318.06241;45.69156;,
 61.67299;306.21509;-45.53654;,
 73.52523;311.67966;-45.51664;,
 61.52014;306.21509;45.67166;,
 73.37238;311.67966;45.69156;,
 234.11903;311.60919;-45.31079;,
 235.13646;318.06241;45.96261;,
 234.54573;311.67966;45.96261;,
 66.34034;315.28699;38.34576;,
 237.30467;315.28699;38.34576;,
 237.30467;233.37331;38.34576;,
 66.34034;233.37331;38.34576;,
 237.30467;315.28699;38.34576;,
 237.30467;315.28699;42.81821;,
 237.30467;233.37331;42.81821;,
 237.30467;233.37331;38.34576;,
 237.30467;315.28699;42.81821;,
 66.34034;315.28699;42.81821;,
 66.34034;233.37331;42.81821;,
 237.30467;233.37331;42.81821;,
 66.34034;315.28699;42.81821;,
 66.34034;315.28699;38.34576;,
 66.34034;233.37331;38.34576;,
 66.34034;233.37331;42.81821;,
 237.30467;315.28699;38.34576;,
 66.34034;315.28699;38.34576;,
 66.34034;233.37331;38.34576;,
 237.30467;233.37331;38.34576;,
 69.18427;228.60596;31.65931;,
 235.30452;228.60596;31.65931;,
 235.30452;111.13105;31.65931;,
 69.18427;111.13105;31.65931;,
 235.30452;228.60596;31.65931;,
 235.30452;228.60596;40.47235;,
 235.30452;111.13105;40.47235;,
 235.30452;111.13105;31.65931;,
 235.30452;228.60596;40.47235;,
 69.18427;228.60596;40.47235;,
 69.18427;111.13105;40.47235;,
 235.30452;111.13105;40.47235;,
 69.18427;228.60596;40.47235;,
 69.18427;228.60596;31.65931;,
 69.18427;111.13105;31.65931;,
 69.18427;111.13105;40.47235;,
 235.30452;228.60596;31.65931;,
 69.18427;228.60596;31.65931;,
 69.18427;111.13105;31.65931;,
 235.30452;111.13105;31.65931;;
 
 252;
 4;0,1,2,3;,
 4;3,2,4,5;,
 4;6,5,4,7;,
 4;8,9,10,11;,
 4;12,1,0,13;,
 4;12,13,8,11;,
 4;12,14,7,1;,
 4;13,0,6,15;,
 4;14,10,9,15;,
 4;14,15,6,7;,
 4;16,17,4,2;,
 4;18,16,2,1;,
 4;19,18,1,7;,
 4;17,19,7,4;,
 4;17,16,18,19;,
 4;20,21,22,23;,
 4;24,21,20,25;,
 4;24,25,12,11;,
 4;24,11,10,26;,
 4;24,26,22,21;,
 4;25,27,14,12;,
 4;26,10,14,27;,
 4;26,27,23,22;,
 4;18,28,25,20;,
 4;29,18,20,23;,
 4;30,29,23,27;,
 4;28,30,27,25;,
 4;28,18,29,30;,
 4;31,32,33,34;,
 4;35,36,37,38;,
 4;39,40,41,42;,
 4;43,44,45,46;,
 4;43,36,47,48;,
 4;49,50,37,46;,
 4;51,52,53,54;,
 4;55,56,57,58;,
 4;59,60,13,15;,
 4;61,59,15,9;,
 4;62,61,9,8;,
 4;60,62,8,13;,
 4;60,59,61,62;,
 4;63,64,65,66;,
 4;67,68,69,70;,
 4;71,72,73,74;,
 4;71,74,64,63;,
 4;75,67,70,76;,
 4;75,76,77,78;,
 4;79,80,81,82;,
 4;83,84,85,86;,
 4;87,88,89,90;,
 4;91,92,93,94;,
 4;95,96,97,98;,
 4;95,98,80,79;,
 4;99,100,83,101;,
 4;102,103,87,104;,
 4;101,83,86,105;,
 4;101,105,106,107;,
 4;103,108,109,110;,
 4;103,110,88,87;,
 4;105,86,111,112;,
 4;110,113,114,88;,
 4;115,91,94,116;,
 4;115,116,117,118;,
 4;119,120,104,87;,
 4;121,119,87,90;,
 4;122,121,90,123;,
 4;120,122,123,104;,
 4;120,119,121,122;,
 4;124,125,88,114;,
 4;126,124,114,77;,
 4;127,126,77,89;,
 4;125,127,89,88;,
 4;125,124,126,127;,
 4;128,129,102,130;,
 4;131,128,130,108;,
 4;132,131,108,103;,
 4;129,132,103,102;,
 4;129,128,131,132;,
 4;133,134,110,109;,
 4;135,133,109,73;,
 4;136,135,73,113;,
 4;134,136,113,110;,
 4;134,133,135,136;,
 4;137,138,139,140;,
 4;141,142,143,144;,
 4;145,146,147,148;,
 4;149,150,151,152;,
 4;153,154,143,152;,
 4;155,156,157,158;,
 4;159,160,161,162;,
 4;163,164,165,166;,
 4;167,168,169,170;,
 4;167,171,172,162;,
 4;173,168,161,174;,
 4;155,175,176,156;,
 4;177,178,179,180;,
 4;181,150,151,182;,
 4;137,170,169,140;,
 4;173,183,179,140;,
 4;184,185,186,187;,
 4;188,189,190,191;,
 4;192,193,194,195;,
 4;196,197,198,199;,
 4;196,189,200,201;,
 4;202,203,190,199;,
 4;204,205,206,207;,
 4;208,209,210,211;,
 4;212,213,214,215;,
 4;216,217,218,219;,
 4;216,209,220,221;,
 4;222,223,210,219;,
 4;224,225,226,227;,
 4;228,229,230,231;,
 4;232,233,234,235;,
 4;236,237,238,239;,
 4;236,229,240,241;,
 4;242,243,230,239;,
 4;244,245,246,247;,
 4;248,249,137,178;,
 4;250,248,178,251;,
 4;252,250,251,171;,
 4;249,252,171,137;,
 4;249,248,250,252;,
 4;253,254,255,256;,
 4;257,258,259,260;,
 4;261,262,263,264;,
 4;265,266,267,268;,
 4;269,270,271,272;,
 4;269,262,273,274;,
 4;275,276,263,272;,
 4;277,278,279,280;,
 4;281,282,283,284;,
 4;285,286,287,288;,
 4;285,288,278,277;,
 4;289,281,284,290;,
 4;289,290,291,292;,
 4;293,294,295,296;,
 4;297,298,299,300;,
 4;301,302,303,304;,
 4;305,306,307,308;,
 4;309,310,311,312;,
 4;309,312,294,293;,
 4;313,314,297,315;,
 4;316,317,301,318;,
 4;315,297,300,319;,
 4;315,319,320,321;,
 4;317,322,323,324;,
 4;317,324,302,301;,
 4;319,300,325,326;,
 4;324,327,328,302;,
 4;329,305,308,330;,
 4;329,330,331,332;,
 4;333,334,318,301;,
 4;335,333,301,304;,
 4;336,335,304,337;,
 4;334,336,337,318;,
 4;334,333,335,336;,
 4;338,339,302,328;,
 4;340,338,328,291;,
 4;341,340,291,303;,
 4;339,341,303,302;,
 4;339,338,340,341;,
 4;342,343,316,344;,
 4;345,342,344,322;,
 4;346,345,322,317;,
 4;343,346,317,316;,
 4;343,342,345,346;,
 4;347,348,324,323;,
 4;349,347,323,287;,
 4;350,349,287,327;,
 4;348,350,327,324;,
 4;348,347,349,350;,
 4;351,352,353,354;,
 4;355,356,357,358;,
 4;359,360,361,362;,
 4;363,364,365,366;,
 4;367,368,357,366;,
 4;369,370,371,372;,
 4;373,374,375,376;,
 4;377,378,379,380;,
 4;381,382,383,384;,
 4;381,385,386,376;,
 4;387,382,375,388;,
 4;369,389,390,370;,
 4;391,392,393,394;,
 4;395,364,365,396;,
 4;351,384,383,354;,
 4;351,392,397,385;,
 4;387,398,393,354;,
 4;399,400,401,402;,
 4;403,404,405,406;,
 4;407,408,409,410;,
 4;411,412,413,414;,
 4;411,404,415,416;,
 4;417,418,405,414;,
 4;419,420,421,422;,
 4;423,424,425,426;,
 4;427,428,429,430;,
 4;431,432,433,434;,
 4;431,424,435,436;,
 4;437,438,425,434;,
 4;439,440,441,442;,
 4;443,444,445,446;,
 4;447,448,449,450;,
 4;451,452,453,454;,
 4;451,444,455,456;,
 4;457,458,445,454;,
 4;459,460,461,462;,
 4;459,462,356,463;,
 4;459,463,464,465;,
 4;462,461,466,467;,
 4;462,467,363,356;,
 4;465,464,363,467;,
 4;465,467,466,468;,
 4;469,470,471,472;,
 4;473,460,459,474;,
 4;473,474,469,472;,
 4;473,475,468,460;,
 4;474,459,465,476;,
 4;474,476,470,469;,
 4;475,471,470,476;,
 4;475,476,465,468;,
 4;477,478,466,461;,
 4;479,477,461,460;,
 4;480,479,460,468;,
 4;478,480,468,466;,
 4;478,477,479,480;,
 4;481,482,483,484;,
 4;485,482,481,486;,
 4;485,486,473,472;,
 4;485,472,471,487;,
 4;485,487,483,482;,
 4;486,488,475,473;,
 4;487,471,475,488;,
 4;487,488,484,483;,
 4;479,489,486,481;,
 4;490,479,481,484;,
 4;491,490,484,488;,
 4;489,491,488,486;,
 4;489,479,490,491;,
 4;492,493,494,495;,
 4;496,497,498,499;,
 4;500,501,502,503;,
 4;504,505,506,507;,
 4;504,497,508,509;,
 4;510,511,498,507;,
 4;512,513,514,515;,
 4;516,517,518,519;,
 4;520,521,522,523;,
 4;524,525,526,527;,
 4;524,517,528,529;,
 4;530,531,518,527;;
 
 MeshMaterialList {
  1;
  252;
  0,
  0,
  0,
  0,
  0,
  0,
  0,
  0,
  0,
  0,
  0,
  0,
  0,
  0,
  0,
  0,
  0,
  0,
  0,
  0,
  0,
  0,
  0,
  0,
  0,
  0,
  0,
  0,
  0,
  0,
  0,
  0,
  0,
  0,
  0,
  0,
  0,
  0,
  0,
  0,
  0,
  0,
  0,
  0,
  0,
  0,
  0,
  0,
  0,
  0,
  0,
  0,
  0,
  0,
  0,
  0,
  0,
  0,
  0,
  0,
  0,
  0,
  0,
  0,
  0,
  0,
  0,
  0,
  0,
  0,
  0,
  0,
  0,
  0,
  0,
  0,
  0,
  0,
  0,
  0,
  0,
  0,
  0,
  0,
  0,
  0,
  0,
  0,
  0,
  0,
  0,
  0,
  0,
  0,
  0,
  0,
  0,
  0,
  0,
  0,
  0,
  0,
  0,
  0,
  0,
  0,
  0,
  0,
  0,
  0,
  0,
  0,
  0,
  0,
  0,
  0,
  0,
  0,
  0,
  0,
  0,
  0,
  0,
  0,
  0,
  0,
  0,
  0,
  0,
  0,
  0,
  0,
  0,
  0,
  0,
  0,
  0,
  0,
  0,
  0,
  0,
  0,
  0,
  0,
  0,
  0,
  0,
  0,
  0,
  0,
  0,
  0,
  0,
  0,
  0,
  0,
  0,
  0,
  0,
  0,
  0,
  0,
  0,
  0,
  0,
  0,
  0,
  0,
  0,
  0,
  0,
  0,
  0,
  0,
  0,
  0,
  0,
  0,
  0,
  0,
  0,
  0,
  0,
  0,
  0,
  0,
  0,
  0,
  0,
  0,
  0,
  0,
  0,
  0,
  0,
  0,
  0,
  0,
  0,
  0,
  0,
  0,
  0,
  0,
  0,
  0,
  0,
  0,
  0,
  0,
  0,
  0,
  0,
  0,
  0,
  0,
  0,
  0,
  0,
  0,
  0,
  0,
  0,
  0,
  0,
  0,
  0,
  0,
  0,
  0,
  0,
  0,
  0,
  0,
  0,
  0,
  0,
  0,
  0,
  0,
  0,
  0,
  0,
  0,
  0,
  0,
  0,
  0,
  0,
  0,
  0,
  0;;
  Material {
   0.630400;0.630400;0.630400;1.000000;;
   16.000000;
   1.000000;1.000000;1.000000;;
   0.000000;0.000000;0.000000;;
  }
 }
 MeshNormals {
  182;
  0.000559;0.000000;-1.000000;,
  0.000000;0.000000;-1.000000;,
  1.000000;0.000000;-0.000001;,
  -0.000561;0.000000;1.000000;,
  0.000838;0.000000;-1.000000;,
  -0.000840;0.000000;1.000000;,
  -0.999999;0.000000;-0.001676;,
  0.001678;0.000000;-0.999999;,
  0.001678;0.000000;-0.999999;,
  0.000000;1.000000;0.000000;,
  0.000000;-1.000000;-0.000000;,
  -0.999999;0.000000;-0.001676;,
  0.001679;0.000000;-0.999999;,
  0.001613;0.001633;-0.999997;,
  0.999999;0.000000;0.001675;,
  0.000739;0.002449;-0.999997;,
  0.001479;0.004899;-0.999987;,
  -0.001679;0.000078;0.999999;,
  1.000000;0.000000;0.000000;,
  0.000000;0.000000;1.000000;,
  -0.999999;0.000000;-0.001676;,
  -0.001679;0.000000;0.999999;,
  0.999999;0.000000;0.001675;,
  0.000004;0.000000;1.000000;,
  0.000004;0.000000;-1.000000;,
  -0.007632;0.014801;0.999861;,
  0.000003;0.000000;-1.000000;,
  0.000312;0.009821;0.999952;,
  -0.000000;0.000000;-1.000000;,
  -0.004779;0.019689;0.999795;,
  -1.000000;0.000000;-0.000003;,
  -1.000000;0.000000;-0.000004;,
  -1.000000;0.000000;0.000003;,
  -1.000000;0.000000;0.000004;,
  0.000000;0.000000;0.000000;,
  -1.000000;0.000000;0.000006;,
  1.000000;0.000000;0.000006;,
  -1.000000;0.000000;0.000000;,
  -0.000004;0.000000;1.000000;,
  1.000000;0.000000;0.000003;,
  -0.007143;0.013756;0.999880;,
  -0.999977;-0.005124;0.004353;,
  -0.000000;-0.000000;-1.000000;,
  0.000000;-0.000000;-1.000000;,
  0.000000;-0.000000;-1.000000;,
  1.000000;-0.000203;-0.000000;,
  -0.015179;0.013751;0.999790;,
  0.999998;-0.002045;-0.000000;,
  0.000002;-0.000000;-1.000000;,
  0.000002;-0.000001;-1.000000;,
  0.000003;-0.000000;-1.000000;,
  -1.000000;-0.000203;0.000000;,
  -0.000037;-0.000005;1.000000;,
  0.998370;0.013130;0.055542;,
  0.000428;0.006878;0.999976;,
  -0.992423;0.001017;-0.122865;,
  0.000000;-0.000020;-1.000000;,
  -0.998291;-0.017344;-0.055803;,
  0.993430;0.028262;0.110899;,
  0.000000;0.192794;0.981239;,
  -0.992840;-0.029498;-0.115749;,
  -0.000004;0.000000;1.000000;,
  -0.001678;0.000000;0.999999;,
  -0.001679;0.000000;0.999999;,
  0.001679;0.000000;-0.999999;,
  0.001579;0.002449;-0.999996;,
  -0.999999;0.000000;-0.001676;,
  -0.001679;0.000026;0.999999;,
  -0.001679;0.000039;0.999999;,
  -0.001679;0.000000;0.999999;,
  -0.000220;-1.000000;0.000386;,
  0.998513;-0.054024;-0.007331;,
  0.001679;0.000000;-0.999999;,
  -1.000000;0.000000;-0.000006;,
  -1.000000;-0.000101;-0.000003;,
  -0.000000;-0.988685;0.150004;,
  -0.000362;-0.987258;0.159127;,
  0.006328;-0.987383;0.158226;,
  0.010080;-0.974456;0.224353;,
  1.000000;-0.000101;-0.000000;,
  -1.000000;-0.000101;0.000003;,
  0.009817;-0.999951;-0.001368;,
  -1.000000;0.000000;-0.000005;,
  -0.000003;0.000000;1.000000;,
  -0.015097;-0.002101;0.999884;,
  -0.007120;-0.002021;0.999973;,
  -0.000077;-0.000010;1.000000;,
  0.000391;-0.000976;0.999999;,
  0.003213;0.999995;0.000432;,
  0.998282;0.005054;0.058365;,
  -0.001063;-0.999625;0.027358;,
  0.000000;-0.299379;-0.954134;,
  0.000000;0.999110;-0.042181;,
  0.000004;0.000000;1.000000;,
  0.000004;0.000000;-1.000000;,
  0.000000;0.000000;-1.000000;,
  -0.007632;0.014802;0.999861;,
  0.000002;0.000000;-1.000000;,
  0.000312;0.009821;0.999952;,
  -0.000000;0.000000;-1.000000;,
  -0.004779;0.019689;0.999795;,
  -1.000000;0.000000;-0.000002;,
  -1.000000;0.000000;-0.000003;,
  0.000000;-1.000000;-0.000000;,
  1.000000;0.000000;0.000000;,
  -1.000000;0.000000;0.000002;,
  -1.000000;0.000000;0.000003;,
  0.000000;0.000000;0.000000;,
  -1.000000;0.000000;0.000005;,
  1.000000;0.000000;0.000009;,
  -1.000000;0.000000;0.000000;,
  -0.000004;0.000000;1.000000;,
  -0.007161;0.013765;0.999880;,
  -0.999996;-0.002560;0.001338;,
  -0.000000;-0.000000;-1.000000;,
  0.000000;-0.000000;-1.000000;,
  1.000000;-0.000101;-0.000001;,
  -0.015215;0.013756;0.999790;,
  0.999998;-0.002045;0.000001;,
  0.000002;-0.000000;-1.000000;,
  0.000002;-0.000001;-1.000000;,
  0.000003;-0.000000;-1.000000;,
  -1.000000;-0.000203;0.000000;,
  0.000003;-0.000000;1.000000;,
  0.000448;0.006886;0.999976;,
  -0.992418;0.001016;-0.122906;,
  0.000000;0.000000;1.000000;,
  0.000559;0.000000;-1.000000;,
  1.000000;0.000000;-0.000001;,
  -0.000561;0.000000;1.000000;,
  -0.999999;0.000000;-0.001676;,
  -0.999999;0.000000;-0.001676;,
  -0.999999;0.000000;-0.001676;,
  0.001678;0.000000;-0.999999;,
  0.001677;0.000000;-0.999999;,
  0.000000;1.000000;0.000000;,
  1.000000;0.000000;-0.000001;,
  -0.999999;0.000000;-0.001676;,
  0.001679;0.000000;-0.999999;,
  0.001612;0.001633;-0.999997;,
  0.999999;0.000000;0.001676;,
  0.000739;0.002449;-0.999997;,
  0.001479;0.004899;-0.999987;,
  -0.001679;0.000078;0.999999;,
  -1.000000;0.000000;-0.000005;,
  -1.000000;-0.000101;-0.000002;,
  -0.000000;-0.988685;0.150003;,
  -0.000362;-0.987258;0.159126;,
  0.006328;-0.987383;0.158225;,
  0.010080;-0.974456;0.224351;,
  1.000000;-0.000101;-0.000000;,
  -1.000000;-0.000101;0.000002;,
  0.009817;-0.999951;-0.001368;,
  -1.000000;0.000000;-0.000006;,
  -0.000004;0.000000;1.000000;,
  -0.999977;-0.005120;0.004353;,
  -0.007587;-0.001045;0.999971;,
  -0.004771;-0.001337;0.999988;,
  0.000002;-0.000000;1.000000;,
  0.000430;-0.000960;1.000000;,
  0.000000;0.999860;-0.016734;,
  0.998286;0.005051;0.058307;,
  0.000000;0.999440;-0.033464;,
  -0.001063;-0.999625;0.027358;,
  -0.000004;0.000000;1.000000;,
  -0.000004;0.000000;1.000000;,
  0.001679;0.000000;-0.999999;,
  0.001679;0.000000;-0.999999;,
  -0.001678;0.000000;0.999999;,
  -0.001679;0.000000;0.999999;,
  -0.001679;0.000000;0.999999;,
  -0.001677;0.000000;0.999999;,
  -0.000004;0.000000;1.000000;,
  0.001679;0.000000;-0.999999;,
  0.001579;0.002449;-0.999996;,
  -0.999999;0.000000;-0.001676;,
  -0.001679;0.000000;0.999999;,
  -0.001679;0.000026;0.999999;,
  -0.001679;0.000039;0.999999;,
  -0.001679;0.000000;0.999999;,
  -0.000220;-1.000000;0.000386;,
  0.998513;-0.054020;-0.007331;;
  252;
  4;4,0,1,1;,
  4;2,2,2,2;,
  4;5,61,61,3;,
  4;6,6,6,6;,
  4;7,0,4,8;,
  4;7,8,12,12;,
  4;9,9,9,9;,
  4;10,10,10,10;,
  4;62,63,63,62;,
  4;62,62,5,3;,
  4;2,2,2,2;,
  4;15,1,1,0;,
  4;11,11,11,11;,
  4;61,61,3,61;,
  4;9,9,9,9;,
  4;9,9,9,9;,
  4;12,64,65,13;,
  4;12,13,7,12;,
  4;6,6,6,6;,
  4;6,6,66,66;,
  4;14,14,14,14;,
  4;63,63,62,67;,
  4;63,67,68,69;,
  4;15,16,13,65;,
  4;9,9,9,9;,
  4;17,17,68,67;,
  4;70,70,70,70;,
  4;71,71,71,71;,
  4;1,1,1,1;,
  4;18,18,18,18;,
  4;19,19,19,19;,
  4;37,37,37,37;,
  4;9,9,9,9;,
  4;10,10,10,10;,
  4;9,9,9,9;,
  4;10,10,10,10;,
  4;22,22,22,22;,
  4;21,21,62,63;,
  4;20,20,6,6;,
  4;72,72,12,8;,
  4;10,10,10,10;,
  4;48,26,24,50;,
  4;54,52,23,27;,
  4;42,44,1,28;,
  4;42,28,26,48;,
  4;40,54,27,29;,
  4;40,29,25,46;,
  4;30,31,73,74;,
  4;75,76,77,78;,
  4;10,10,10,10;,
  4;18,79,18,18;,
  4;32,80,35,33;,
  4;32,33,31,30;,
  4;10,10,75,10;,
  4;10,10,10,10;,
  4;9,9,9,9;,
  4;10,81,81,10;,
  4;10,10,10,10;,
  4;10,10,10,10;,
  4;34,34,34,34;,
  4;10,10,10,10;,
  4;18,18,18,18;,
  4;18,18,18,79;,
  4;1,1,1,1;,
  4;36,36,36,36;,
  4;23,23,27,23;,
  4;73,73,73,31;,
  4;10,10,10,10;,
  4;1,1,1,1;,
  4;18,18,18,18;,
  4;38,38,25,29;,
  4;82,82,82,82;,
  4;10,10,10,10;,
  4;35,35,33,35;,
  4;24,24,24,26;,
  4;39,39,39,39;,
  4;19,19,19,19;,
  4;10,10,10,10;,
  4;37,37,37,37;,
  4;1,1,28,1;,
  4;18,18,18,18;,
  4;83,83,83,83;,
  4;10,10,10,10;,
  4;57,41,41,41;,
  4;43,43,44,42;,
  4;45,45,79,79;,
  4;84,85,40,46;,
  4;77,81,81,78;,
  4;53,47,47,47;,
  4;49,48,50,49;,
  4;51,80,74,51;,
  4;86,52,54,87;,
  4;88,88,88,88;,
  4;76,75,10,10;,
  4;55,55,55,55;,
  4;56,56,56,56;,
  4;89,89,89,89;,
  4;85,87,54,40;,
  4;76,90,90,77;,
  4;1,1,1,1;,
  4;18,18,18,18;,
  4;19,19,19,19;,
  4;37,37,37,37;,
  4;9,9,9,9;,
  4;10,10,10,10;,
  4;1,1,1,1;,
  4;18,18,18,18;,
  4;19,19,19,19;,
  4;37,37,37,37;,
  4;9,9,9,9;,
  4;10,10,10,10;,
  4;1,1,1,1;,
  4;18,18,18,18;,
  4;19,19,19,19;,
  4;37,37,37,37;,
  4;9,9,9,9;,
  4;10,10,10,10;,
  4;10,10,10,10;,
  4;60,60,57,60;,
  4;59,59,59,59;,
  4;58,58,58,53;,
  4;91,91,91,91;,
  4;92,92,92,92;,
  4;9,9,9,9;,
  4;1,1,1,1;,
  4;18,18,18,18;,
  4;19,19,19,19;,
  4;37,37,37,37;,
  4;9,9,9,9;,
  4;10,10,10,10;,
  4;119,97,94,121;,
  4;124,123,93,98;,
  4;114,115,95,99;,
  4;114,99,97,119;,
  4;112,124,98,100;,
  4;112,100,96,117;,
  4;101,102,144,145;,
  4;146,147,148,149;,
  4;103,103,103,103;,
  4;104,150,104,104;,
  4;105,151,108,106;,
  4;105,106,102,101;,
  4;103,103,146,103;,
  4;103,103,103,103;,
  4;135,135,135,135;,
  4;103,152,152,103;,
  4;103,103,103,103;,
  4;103,103,103,103;,
  4;107,107,107,107;,
  4;103,103,103,103;,
  4;104,104,104,104;,
  4;104,104,104,150;,
  4;95,95,95,95;,
  4;109,109,109,109;,
  4;93,93,98,93;,
  4;144,144,144,102;,
  4;103,103,103,103;,
  4;95,95,95,95;,
  4;104,104,104,104;,
  4;111,111,96,100;,
  4;153,153,153,153;,
  4;103,103,103,103;,
  4;108,108,106,108;,
  4;94,94,94,97;,
  4;104,104,104,104;,
  4;126,126,126,126;,
  4;103,103,103,103;,
  4;110,110,110,110;,
  4;95,95,99,95;,
  4;104,104,104,104;,
  4;154,154,154,154;,
  4;103,103,103,103;,
  4;113,113,155,155;,
  4;115,115,115,114;,
  4;116,116,150,150;,
  4;156,157,112,117;,
  4;148,152,152,149;,
  4;118,118,118,118;,
  4;120,119,121,120;,
  4;122,151,145,122;,
  4;158,123,124,159;,
  4;135,160,135,135;,
  4;147,146,103,103;,
  4;125,125,125,125;,
  4;95,95,95,95;,
  4;161,161,161,161;,
  4;157,159,124,112;,
  4;162,162,162,160;,
  4;147,163,163,148;,
  4;95,95,95,95;,
  4;104,104,104,104;,
  4;126,126,126,126;,
  4;110,110,110,110;,
  4;135,135,135,135;,
  4;103,103,103,103;,
  4;95,95,95,95;,
  4;104,104,104,104;,
  4;126,126,126,126;,
  4;110,110,110,110;,
  4;135,135,135,135;,
  4;103,103,103,103;,
  4;95,95,95,95;,
  4;104,104,104,104;,
  4;126,126,126,126;,
  4;110,110,110,110;,
  4;135,135,135,135;,
  4;103,103,103,103;,
  4;127,127,95,95;,
  4;127,95,115,115;,
  4;130,113,113,130;,
  4;128,128,128,128;,
  4;128,128,116,116;,
  4;129,157,156,164;,
  4;129,164,165,129;,
  4;132,132,131,131;,
  4;133,127,127,134;,
  4;133,134,166,167;,
  4;135,135,135,135;,
  4;103,103,103,103;,
  4;103,103,103,103;,
  4;168,169,170,171;,
  4;168,171,129,129;,
  4;136,136,128,128;,
  4;141,95,95,127;,
  4;137,137,137,137;,
  4;172,172,129,165;,
  4;135,135,135,135;,
  4;135,135,135,135;,
  4;138,173,174,139;,
  4;138,139,133,167;,
  4;131,131,131,131;,
  4;131,131,175,175;,
  4;140,140,140,140;,
  4;176,169,168,177;,
  4;176,177,178,179;,
  4;141,142,139,174;,
  4;135,135,135,135;,
  4;143,143,178,177;,
  4;180,180,180,180;,
  4;181,181,181,181;,
  4;95,95,95,95;,
  4;104,104,104,104;,
  4;126,126,126,126;,
  4;110,110,110,110;,
  4;135,135,135,135;,
  4;103,103,103,103;,
  4;95,95,95,95;,
  4;104,104,104,104;,
  4;126,126,126,126;,
  4;110,110,110,110;,
  4;135,135,135,135;,
  4;103,103,103,103;;
 }
 MeshTextureCoords {
  532;
  1.000000;1.000000;,
  1.000000;1.000000;,
  1.000000;0.000000;,
  1.000000;0.000000;,
  0.000000;0.000000;,
  0.000000;0.000000;,
  0.000000;1.000000;,
  0.000000;1.000000;,
  1.000000;1.000000;,
  0.000000;1.000000;,
  0.000000;1.000000;,
  1.000000;1.000000;,
  1.000000;1.000000;,
  1.000000;1.000000;,
  0.000000;1.000000;,
  0.000000;1.000000;,
  1.000000;0.000000;,
  0.000000;0.000000;,
  1.000000;1.000000;,
  0.000000;1.000000;,
  1.000000;1.000000;,
  1.000000;1.000000;,
  0.000000;1.000000;,
  0.000000;1.000000;,
  1.000000;1.000000;,
  1.000000;1.000000;,
  0.000000;1.000000;,
  0.000000;1.000000;,
  1.000000;1.000000;,
  0.000000;1.000000;,
  0.000000;1.000000;,
  0.000000;0.000000;,
  1.000000;0.000000;,
  1.000000;1.000000;,
  0.000000;1.000000;,
  0.000000;0.000000;,
  1.000000;0.000000;,
  1.000000;1.000000;,
  0.000000;1.000000;,
  0.000000;0.000000;,
  1.000000;0.000000;,
  1.000000;1.000000;,
  0.000000;1.000000;,
  0.000000;0.000000;,
  1.000000;0.000000;,
  1.000000;1.000000;,
  0.000000;1.000000;,
  1.000000;1.000000;,
  0.000000;1.000000;,
  0.000000;0.000000;,
  1.000000;0.000000;,
  0.000000;0.000000;,
  1.000000;0.000000;,
  1.000000;1.000000;,
  0.000000;1.000000;,
  1.000000;1.000000;,
  0.000000;1.000000;,
  0.000000;1.000000;,
  1.000000;1.000000;,
  0.000000;1.000000;,
  1.000000;1.000000;,
  0.000000;1.000000;,
  1.000000;1.000000;,
  0.078510;0.000000;,
  0.078510;1.000000;,
  0.000000;1.000000;,
  0.000000;0.000000;,
  0.921490;0.000000;,
  1.000000;0.000000;,
  1.000000;1.000000;,
  0.921490;1.000000;,
  0.899170;0.000000;,
  1.000000;0.000000;,
  1.000000;1.000000;,
  0.899170;1.000000;,
  0.100830;0.000000;,
  0.100830;1.000000;,
  0.000000;1.000000;,
  0.000000;0.000000;,
  0.149140;0.000000;,
  0.149140;1.000000;,
  0.000000;1.000000;,
  0.000000;0.000000;,
  0.149140;0.921490;,
  0.000000;0.921490;,
  0.000000;0.100830;,
  0.149140;0.100830;,
  0.149140;0.078510;,
  0.149140;0.899170;,
  0.000000;0.899170;,
  0.000000;0.078510;,
  0.850860;0.000000;,
  1.000000;0.000000;,
  1.000000;1.000000;,
  0.850860;1.000000;,
  0.850860;0.000000;,
  1.000000;0.000000;,
  1.000000;1.000000;,
  0.850860;1.000000;,
  0.850860;1.000000;,
  0.149140;1.000000;,
  0.850860;0.921490;,
  0.850860;0.000000;,
  0.850860;0.078510;,
  0.149140;0.000000;,
  0.850860;0.100830;,
  1.000000;0.100830;,
  1.000000;0.921490;,
  1.000000;0.078510;,
  1.000000;0.899170;,
  0.850860;0.899170;,
  0.149140;0.000000;,
  0.850860;0.000000;,
  0.850860;1.000000;,
  0.149140;1.000000;,
  0.149140;0.000000;,
  0.149140;1.000000;,
  0.000000;1.000000;,
  0.000000;0.000000;,
  0.149140;0.078510;,
  0.149140;0.000000;,
  0.000000;0.078510;,
  0.000000;0.000000;,
  0.000000;0.000000;,
  0.149140;1.000000;,
  0.149140;0.899170;,
  0.000000;1.000000;,
  0.000000;0.899170;,
  1.000000;0.000000;,
  0.850860;0.000000;,
  1.000000;0.000000;,
  1.000000;0.078510;,
  0.850860;0.078510;,
  1.000000;0.899170;,
  0.850860;0.899170;,
  1.000000;1.000000;,
  0.850860;1.000000;,
  0.000000;0.000000;,
  1.000000;0.000000;,
  1.000000;1.000000;,
  0.000000;1.000000;,
  0.000000;0.000000;,
  1.000000;0.000000;,
  1.000000;1.000000;,
  0.000000;1.000000;,
  0.000000;0.000000;,
  1.000000;0.000000;,
  1.000000;1.000000;,
  0.000000;1.000000;,
  0.000000;0.000000;,
  1.000000;0.000000;,
  1.000000;1.000000;,
  0.000000;1.000000;,
  0.000000;0.000000;,
  1.000000;0.000000;,
  0.000000;0.000000;,
  0.000000;1.000000;,
  1.000000;1.000000;,
  1.000000;0.000000;,
  0.000000;0.000000;,
  0.000000;1.000000;,
  1.000000;1.000000;,
  1.000000;0.000000;,
  0.000000;0.000000;,
  0.000000;1.000000;,
  1.000000;1.000000;,
  1.000000;0.000000;,
  0.000000;0.000000;,
  0.000000;1.000000;,
  1.000000;1.000000;,
  1.000000;0.000000;,
  0.000000;1.000000;,
  1.000000;1.000000;,
  0.000000;0.000000;,
  1.000000;0.000000;,
  1.000000;0.000000;,
  1.000000;1.000000;,
  0.000000;0.000000;,
  1.000000;0.000000;,
  1.000000;1.000000;,
  0.000000;1.000000;,
  0.000000;0.000000;,
  0.000000;1.000000;,
  1.000000;0.000000;,
  0.000000;0.000000;,
  1.000000;0.000000;,
  1.000000;1.000000;,
  0.000000;1.000000;,
  0.000000;0.000000;,
  1.000000;0.000000;,
  1.000000;1.000000;,
  0.000000;1.000000;,
  0.000000;0.000000;,
  1.000000;0.000000;,
  1.000000;1.000000;,
  0.000000;1.000000;,
  0.000000;0.000000;,
  1.000000;0.000000;,
  1.000000;1.000000;,
  0.000000;1.000000;,
  1.000000;1.000000;,
  0.000000;1.000000;,
  0.000000;0.000000;,
  1.000000;0.000000;,
  0.000000;0.000000;,
  1.000000;0.000000;,
  1.000000;1.000000;,
  0.000000;1.000000;,
  0.000000;0.000000;,
  1.000000;0.000000;,
  1.000000;1.000000;,
  0.000000;1.000000;,
  0.000000;0.000000;,
  1.000000;0.000000;,
  1.000000;1.000000;,
  0.000000;1.000000;,
  0.000000;0.000000;,
  1.000000;0.000000;,
  1.000000;1.000000;,
  0.000000;1.000000;,
  1.000000;1.000000;,
  0.000000;1.000000;,
  0.000000;0.000000;,
  1.000000;0.000000;,
  0.000000;0.000000;,
  1.000000;0.000000;,
  1.000000;1.000000;,
  0.000000;1.000000;,
  0.000000;0.000000;,
  1.000000;0.000000;,
  1.000000;1.000000;,
  0.000000;1.000000;,
  0.000000;0.000000;,
  1.000000;0.000000;,
  1.000000;1.000000;,
  0.000000;1.000000;,
  0.000000;0.000000;,
  1.000000;0.000000;,
  1.000000;1.000000;,
  0.000000;1.000000;,
  1.000000;1.000000;,
  0.000000;1.000000;,
  0.000000;0.000000;,
  1.000000;0.000000;,
  0.000000;0.000000;,
  1.000000;0.000000;,
  1.000000;1.000000;,
  0.000000;1.000000;,
  1.000000;0.000000;,
  0.000000;0.000000;,
  1.000000;1.000000;,
  1.000000;1.000000;,
  0.000000;1.000000;,
  0.850860;0.899170;,
  0.850860;1.000000;,
  0.149140;1.000000;,
  0.149140;0.899170;,
  0.000000;0.000000;,
  1.000000;0.000000;,
  1.000000;1.000000;,
  0.000000;1.000000;,
  0.000000;0.000000;,
  1.000000;0.000000;,
  1.000000;1.000000;,
  0.000000;1.000000;,
  0.000000;0.000000;,
  1.000000;0.000000;,
  1.000000;1.000000;,
  0.000000;1.000000;,
  0.000000;0.000000;,
  1.000000;0.000000;,
  1.000000;1.000000;,
  0.000000;1.000000;,
  1.000000;1.000000;,
  0.000000;1.000000;,
  0.000000;0.000000;,
  1.000000;0.000000;,
  0.078510;0.000000;,
  0.078510;1.000000;,
  0.000000;1.000000;,
  0.000000;0.000000;,
  0.921490;0.000000;,
  1.000000;0.000000;,
  1.000000;1.000000;,
  0.921490;1.000000;,
  0.899170;0.000000;,
  1.000000;0.000000;,
  1.000000;1.000000;,
  0.899170;1.000000;,
  0.100830;0.000000;,
  0.100830;1.000000;,
  0.000000;1.000000;,
  0.000000;0.000000;,
  0.149140;0.000000;,
  0.149140;1.000000;,
  0.000000;1.000000;,
  0.000000;0.000000;,
  0.149140;0.921490;,
  0.000000;0.921490;,
  0.000000;0.100830;,
  0.149140;0.100830;,
  0.149140;0.078510;,
  0.149140;0.899170;,
  0.000000;0.899170;,
  0.000000;0.078510;,
  0.850860;0.000000;,
  1.000000;0.000000;,
  1.000000;1.000000;,
  0.850860;1.000000;,
  0.850860;0.000000;,
  1.000000;0.000000;,
  1.000000;1.000000;,
  0.850860;1.000000;,
  0.850860;1.000000;,
  0.149140;1.000000;,
  0.850860;0.921490;,
  0.850860;0.000000;,
  0.850860;0.078510;,
  0.149140;0.000000;,
  0.850860;0.100830;,
  1.000000;0.100830;,
  1.000000;0.921490;,
  1.000000;0.078510;,
  1.000000;0.899170;,
  0.850860;0.899170;,
  0.149140;0.000000;,
  0.850860;0.000000;,
  0.850860;1.000000;,
  0.149140;1.000000;,
  0.149140;0.000000;,
  0.149140;1.000000;,
  0.000000;1.000000;,
  0.000000;0.000000;,
  0.149140;0.078510;,
  0.149140;0.000000;,
  0.000000;0.078510;,
  0.000000;0.000000;,
  0.000000;0.000000;,
  0.149140;1.000000;,
  0.149140;0.899170;,
  0.000000;1.000000;,
  0.000000;0.899170;,
  1.000000;0.000000;,
  0.850860;0.000000;,
  1.000000;0.000000;,
  1.000000;0.078510;,
  0.850860;0.078510;,
  1.000000;0.899170;,
  0.850860;0.899170;,
  1.000000;1.000000;,
  0.850860;1.000000;,
  0.000000;0.000000;,
  1.000000;0.000000;,
  1.000000;1.000000;,
  0.000000;1.000000;,
  0.000000;0.000000;,
  1.000000;0.000000;,
  1.000000;1.000000;,
  0.000000;1.000000;,
  0.000000;0.000000;,
  1.000000;0.000000;,
  1.000000;1.000000;,
  0.000000;1.000000;,
  0.000000;0.000000;,
  1.000000;0.000000;,
  1.000000;1.000000;,
  0.000000;1.000000;,
  0.000000;0.000000;,
  1.000000;0.000000;,
  0.000000;0.000000;,
  0.000000;1.000000;,
  1.000000;1.000000;,
  1.000000;0.000000;,
  0.000000;0.000000;,
  0.000000;1.000000;,
  1.000000;1.000000;,
  1.000000;0.000000;,
  0.000000;0.000000;,
  0.000000;1.000000;,
  1.000000;1.000000;,
  1.000000;0.000000;,
  0.000000;0.000000;,
  0.000000;1.000000;,
  1.000000;1.000000;,
  1.000000;0.000000;,
  0.000000;1.000000;,
  1.000000;1.000000;,
  0.000000;0.000000;,
  1.000000;0.000000;,
  1.000000;0.000000;,
  1.000000;1.000000;,
  0.000000;0.000000;,
  1.000000;0.000000;,
  1.000000;1.000000;,
  0.000000;1.000000;,
  0.000000;0.000000;,
  0.000000;1.000000;,
  1.000000;1.000000;,
  1.000000;0.000000;,
  0.000000;0.000000;,
  1.000000;0.000000;,
  1.000000;1.000000;,
  0.000000;1.000000;,
  0.000000;0.000000;,
  1.000000;0.000000;,
  1.000000;1.000000;,
  0.000000;1.000000;,
  0.000000;0.000000;,
  1.000000;0.000000;,
  1.000000;1.000000;,
  0.000000;1.000000;,
  0.000000;0.000000;,
  1.000000;0.000000;,
  1.000000;1.000000;,
  0.000000;1.000000;,
  1.000000;1.000000;,
  0.000000;1.000000;,
  0.000000;0.000000;,
  1.000000;0.000000;,
  0.000000;0.000000;,
  1.000000;0.000000;,
  1.000000;1.000000;,
  0.000000;1.000000;,
  0.000000;0.000000;,
  1.000000;0.000000;,
  1.000000;1.000000;,
  0.000000;1.000000;,
  0.000000;0.000000;,
  1.000000;0.000000;,
  1.000000;1.000000;,
  0.000000;1.000000;,
  0.000000;0.000000;,
  1.000000;0.000000;,
  1.000000;1.000000;,
  0.000000;1.000000;,
  1.000000;1.000000;,
  0.000000;1.000000;,
  0.000000;0.000000;,
  1.000000;0.000000;,
  0.000000;0.000000;,
  1.000000;0.000000;,
  1.000000;1.000000;,
  0.000000;1.000000;,
  0.000000;0.000000;,
  1.000000;0.000000;,
  1.000000;1.000000;,
  0.000000;1.000000;,
  0.000000;0.000000;,
  1.000000;0.000000;,
  1.000000;1.000000;,
  0.000000;1.000000;,
  0.000000;0.000000;,
  1.000000;0.000000;,
  1.000000;1.000000;,
  0.000000;1.000000;,
  1.000000;1.000000;,
  0.000000;1.000000;,
  0.000000;0.000000;,
  1.000000;0.000000;,
  1.000000;1.000000;,
  1.000000;1.000000;,
  1.000000;0.000000;,
  1.000000;0.000000;,
  1.000000;1.000000;,
  0.000000;1.000000;,
  0.000000;1.000000;,
  0.000000;0.000000;,
  0.000000;0.000000;,
  0.000000;1.000000;,
  1.000000;1.000000;,
  0.000000;1.000000;,
  0.000000;1.000000;,
  1.000000;1.000000;,
  1.000000;1.000000;,
  1.000000;1.000000;,
  0.000000;1.000000;,
  0.000000;1.000000;,
  1.000000;0.000000;,
  0.000000;0.000000;,
  1.000000;1.000000;,
  0.000000;1.000000;,
  1.000000;1.000000;,
  1.000000;1.000000;,
  0.000000;1.000000;,
  0.000000;1.000000;,
  1.000000;1.000000;,
  1.000000;1.000000;,
  0.000000;1.000000;,
  0.000000;1.000000;,
  1.000000;1.000000;,
  0.000000;1.000000;,
  0.000000;1.000000;,
  0.000000;0.000000;,
  1.000000;0.000000;,
  1.000000;1.000000;,
  0.000000;1.000000;,
  0.000000;0.000000;,
  1.000000;0.000000;,
  1.000000;1.000000;,
  0.000000;1.000000;,
  0.000000;0.000000;,
  1.000000;0.000000;,
  1.000000;1.000000;,
  0.000000;1.000000;,
  0.000000;0.000000;,
  1.000000;0.000000;,
  1.000000;1.000000;,
  0.000000;1.000000;,
  1.000000;1.000000;,
  0.000000;1.000000;,
  0.000000;0.000000;,
  1.000000;0.000000;,
  0.000000;0.000000;,
  1.000000;0.000000;,
  1.000000;1.000000;,
  0.000000;1.000000;,
  0.000000;0.000000;,
  1.000000;0.000000;,
  1.000000;1.000000;,
  0.000000;1.000000;,
  0.000000;0.000000;,
  1.000000;0.000000;,
  1.000000;1.000000;,
  0.000000;1.000000;,
  0.000000;0.000000;,
  1.000000;0.000000;,
  1.000000;1.000000;,
  0.000000;1.000000;,
  1.000000;1.000000;,
  0.000000;1.000000;,
  0.000000;0.000000;,
  1.000000;0.000000;;
 }
}
