xof 0302txt 0064
template Header {
 <3D82AB43-62DA-11cf-AB39-0020AF71E433>
 WORD major;
 WORD minor;
 DWORD flags;
}

template Vector {
 <3D82AB5E-62DA-11cf-AB39-0020AF71E433>
 FLOAT x;
 FLOAT y;
 FLOAT z;
}

template Coords2d {
 <F6F23F44-7686-11cf-8F52-0040333594A3>
 FLOAT u;
 FLOAT v;
}

template Matrix4x4 {
 <F6F23F45-7686-11cf-8F52-0040333594A3>
 array FLOAT matrix[16];
}

template ColorRGBA {
 <35FF44E0-6C7C-11cf-8F52-0040333594A3>
 FLOAT red;
 FLOAT green;
 FLOAT blue;
 FLOAT alpha;
}

template ColorRGB {
 <D3E16E81-7835-11cf-8F52-0040333594A3>
 FLOAT red;
 FLOAT green;
 FLOAT blue;
}

template IndexedColor {
 <1630B820-7842-11cf-8F52-0040333594A3>
 DWORD index;
 ColorRGBA indexColor;
}

template Boolean {
 <4885AE61-78E8-11cf-8F52-0040333594A3>
 WORD truefalse;
}

template Boolean2d {
 <4885AE63-78E8-11cf-8F52-0040333594A3>
 Boolean u;
 Boolean v;
}

template MaterialWrap {
 <4885AE60-78E8-11cf-8F52-0040333594A3>
 Boolean u;
 Boolean v;
}

template TextureFilename {
 <A42790E1-7810-11cf-8F52-0040333594A3>
 STRING filename;
}

template Material {
 <3D82AB4D-62DA-11cf-AB39-0020AF71E433>
 ColorRGBA faceColor;
 FLOAT power;
 ColorRGB specularColor;
 ColorRGB emissiveColor;
 [...]
}

template MeshFace {
 <3D82AB5F-62DA-11cf-AB39-0020AF71E433>
 DWORD nFaceVertexIndices;
 array DWORD faceVertexIndices[nFaceVertexIndices];
}

template MeshFaceWraps {
 <4885AE62-78E8-11cf-8F52-0040333594A3>
 DWORD nFaceWrapValues;
 Boolean2d faceWrapValues;
}

template MeshTextureCoords {
 <F6F23F40-7686-11cf-8F52-0040333594A3>
 DWORD nTextureCoords;
 array Coords2d textureCoords[nTextureCoords];
}

template MeshMaterialList {
 <F6F23F42-7686-11cf-8F52-0040333594A3>
 DWORD nMaterials;
 DWORD nFaceIndexes;
 array DWORD faceIndexes[nFaceIndexes];
 [Material]
}

template MeshNormals {
 <F6F23F43-7686-11cf-8F52-0040333594A3>
 DWORD nNormals;
 array Vector normals[nNormals];
 DWORD nFaceNormals;
 array MeshFace faceNormals[nFaceNormals];
}

template MeshVertexColors {
 <1630B821-7842-11cf-8F52-0040333594A3>
 DWORD nVertexColors;
 array IndexedColor vertexColors[nVertexColors];
}

template Mesh {
 <3D82AB44-62DA-11cf-AB39-0020AF71E433>
 DWORD nVertices;
 array Vector vertices[nVertices];
 DWORD nFaces;
 array MeshFace faces[nFaces];
 [...]
}

Header{
1;
0;
1;
}

Mesh {
 127;
 -49.50898;6.45162;-17.96085;,
 -49.50898;2.94847;-17.96085;,
 -55.52758;2.94847;-17.96087;,
 -55.52758;6.45162;-17.96087;,
 -49.50903;6.45162;27.64318;,
 -55.52758;6.45162;27.64320;,
 -55.52758;2.94847;27.64320;,
 -49.50903;2.94847;27.64318;,
 61.78645;6.45162;-17.96087;,
 68.58410;6.45162;-17.96087;,
 68.58410;2.94847;-17.96087;,
 61.78645;2.94847;-17.96087;,
 62.26057;6.20318;27.45028;,
 61.78643;2.94847;27.64318;,
 68.58410;2.94847;27.64320;,
 68.58410;6.45162;27.64320;,
 -55.52755;6.45162;22.22390;,
 -55.52755;2.94847;22.22390;,
 -49.50900;2.94847;22.22390;,
 61.78645;2.94847;22.22392;,
 68.58410;6.45162;22.22392;,
 68.58410;2.94847;22.22392;,
 -55.52755;6.45162;-12.54160;,
 -55.52755;2.94847;-12.54160;,
 -49.50900;2.94847;-12.54160;,
 61.78645;2.94847;-12.54160;,
 68.58410;6.45162;-12.54158;,
 68.58410;2.94847;-12.54158;,
 -49.50900;-0.56222;22.22390;,
 -55.52755;-0.56222;22.22390;,
 -49.50903;-0.56222;27.64318;,
 -55.52758;-0.56222;27.64320;,
 68.58410;-0.56222;22.22392;,
 61.78645;-0.56222;22.22392;,
 68.58410;-0.56222;27.64320;,
 61.78643;-0.56222;27.64318;,
 -55.52758;-0.56222;-17.96087;,
 -55.52755;-0.56222;-12.54160;,
 -49.50898;-0.56222;-17.96085;,
 -49.50900;-0.56222;-12.54160;,
 61.78645;-0.56222;-17.96087;,
 61.78645;-0.56222;-12.54160;,
 68.58410;-0.56222;-17.96087;,
 68.58410;-0.56222;-12.54158;,
 61.73025;56.20377;27.64320;,
 61.80667;56.20377;-17.96090;,
 68.59418;56.20377;-17.96090;,
 68.59420;56.20377;27.64322;,
 -49.40728;56.20377;27.64320;,
 -49.40728;56.20377;-17.96090;,
 -55.53767;56.20377;-17.96090;,
 -55.53765;56.20377;27.64320;,
 -48.89945;56.05270;23.13123;,
 -48.89945;6.20318;23.13123;,
 62.26060;56.05270;23.13123;,
 62.26060;6.20318;23.13123;,
 -50.00597;22.78757;-15.26435;,
 63.06250;22.78757;-15.26435;,
 63.06250;19.87475;-15.26435;,
 -50.00597;19.87475;-15.26435;,
 63.06250;22.78757;28.57195;,
 63.06250;19.87475;28.57195;,
 -50.00597;22.78757;28.57195;,
 -50.00597;19.87475;28.57195;,
 -50.00597;40.03980;-15.26435;,
 63.06250;40.03980;-15.26435;,
 63.06250;37.12695;-15.26435;,
 -50.00597;37.12695;-15.26435;,
 63.06250;40.03980;28.57195;,
 63.06250;37.12695;28.57195;,
 -50.00597;40.03980;28.57195;,
 -50.00597;37.12695;28.57195;,
 -50.00597;56.10295;-17.19558;,
 63.06250;56.10295;-17.19558;,
 63.06250;53.19012;-17.19558;,
 -50.00597;53.19012;-17.19558;,
 63.06250;56.10295;26.64070;,
 63.06250;53.19012;26.64070;,
 -50.00597;56.10295;26.64070;,
 -50.00597;53.19012;26.64070;,
 61.80667;113.97417;-17.96090;,
 61.80667;117.46573;-17.96090;,
 68.59418;120.53397;-17.96090;,
 68.59418;113.97417;-17.96090;,
 61.73025;113.97417;27.64320;,
 68.59420;120.53397;27.64322;,
 68.59420;113.97417;27.64322;,
 61.73025;117.46573;27.64320;,
 -24.46742;113.97417;-18.10547;,
 -24.54385;113.97417;27.49862;,
 -24.54385;120.53397;27.49862;,
 -24.46742;120.53397;-18.10547;,
 -18.54130;117.46573;-18.09553;,
 -18.54130;113.97417;-18.09553;,
 -18.61773;117.46573;27.50858;,
 -18.61773;113.97417;27.50858;,
 68.59418;159.03120;-17.96090;,
 68.59420;159.03120;27.64322;,
 61.80667;159.03120;-17.96090;,
 61.73025;159.03120;27.64320;,
 -18.54130;159.03120;-18.09553;,
 -24.46742;159.03120;-18.10547;,
 -24.54385;159.03120;27.49862;,
 -18.61773;159.03120;27.50858;,
 -24.46742;153.10754;-18.10547;,
 -18.54130;155.83983;-18.09553;,
 -24.54385;153.10754;27.49862;,
 -18.61773;155.83983;27.50858;,
 61.75552;155.80460;-17.99260;,
 62.26425;159.03120;27.64410;,
 61.96885;155.83983;27.64410;,
 -22.13375;157.64349;23.83567;,
 63.34832;157.64349;23.83567;,
 63.34832;116.68665;23.83567;,
 -22.13375;116.68665;23.83567;,
 63.34832;157.64349;26.07190;,
 63.34832;116.68665;26.07190;,
 -22.13375;157.64349;26.07190;,
 -22.13375;116.68665;26.07190;,
 -20.71177;114.30298;20.49245;,
 62.34825;114.30298;20.49245;,
 62.34825;55.56553;20.49245;,
 -20.71177;55.56553;20.49245;,
 62.34825;114.30298;24.89898;,
 62.34825;55.56553;24.89898;,
 -20.71177;114.30298;24.89898;,
 -20.71177;55.56553;24.89898;;
 
 122;
 4;0,1,2,3;,
 4;4,5,6,7;,
 4;8,9,10,11;,
 4;8,11,1,0;,
 4;12,4,7,13;,
 4;12,13,14,15;,
 4;16,17,6,5;,
 4;5,4,12,15;,
 4;18,19,13,7;,
 4;20,15,14,21;,
 4;22,3,2,23;,
 4;22,23,17,16;,
 4;22,16,5,3;,
 4;23,24,18,17;,
 4;3,5,15,9;,
 4;3,9,8,0;,
 4;24,1,11,25;,
 4;24,25,19,18;,
 4;9,15,20,26;,
 4;25,27,21,19;,
 4;26,20,21,27;,
 4;26,27,10,9;,
 4;28,29,17,18;,
 4;30,28,18,7;,
 4;31,30,7,6;,
 4;29,31,6,17;,
 4;29,28,30,31;,
 4;32,33,19,21;,
 4;34,32,21,14;,
 4;35,34,14,13;,
 4;33,35,13,19;,
 4;33,32,34,35;,
 4;36,37,23,2;,
 4;38,36,2,1;,
 4;39,38,1,24;,
 4;37,39,24,23;,
 4;37,36,38,39;,
 4;40,41,25,11;,
 4;42,40,11,10;,
 4;43,42,10,27;,
 4;41,43,27,25;,
 4;41,40,42,43;,
 4;44,45,8,12;,
 4;45,46,9,8;,
 4;46,47,15,9;,
 4;47,44,12,15;,
 4;12,8,9,15;,
 4;48,4,0,49;,
 4;49,0,3,50;,
 4;50,3,5,51;,
 4;51,5,4,48;,
 4;51,48,49,50;,
 4;4,5,3,0;,
 4;48,52,53,4;,
 4;52,54,55,53;,
 4;54,44,12,55;,
 4;44,48,4,12;,
 4;44,54,52,48;,
 4;4,53,55,12;,
 4;56,57,58,59;,
 4;57,60,61,58;,
 4;60,62,63,61;,
 4;62,56,59,63;,
 4;62,60,57,56;,
 4;59,58,61,63;,
 4;64,65,66,67;,
 4;65,68,69,66;,
 4;68,70,71,69;,
 4;70,64,67,71;,
 4;70,68,65,64;,
 4;67,66,69,71;,
 4;72,73,74,75;,
 4;73,76,77,74;,
 4;76,78,79,77;,
 4;78,72,75,79;,
 4;78,76,73,72;,
 4;75,74,77,79;,
 4;80,81,82,83;,
 4;80,83,46,45;,
 4;80,45,44,84;,
 4;83,82,85,86;,
 4;83,86,47,46;,
 4;84,44,47,86;,
 4;84,86,85,87;,
 4;88,89,90,91;,
 4;92,81,80,93;,
 4;92,93,88,91;,
 4;92,94,87,81;,
 4;93,80,84,95;,
 4;93,95,89,88;,
 4;94,90,89,95;,
 4;94,95,84,87;,
 4;96,97,85,82;,
 4;98,96,82,81;,
 4;99,98,81,87;,
 4;97,99,87,85;,
 4;97,96,98,99;,
 4;100,101,102,103;,
 4;104,101,100,105;,
 4;104,105,92,91;,
 4;104,91,90,106;,
 4;104,106,102,101;,
 4;105,107,94,92;,
 4;106,90,94,107;,
 4;106,107,103,102;,
 4;98,108,105,100;,
 4;109,98,100,103;,
 4;110,109,103,107;,
 4;108,110,107,105;,
 4;108,98,109,110;,
 4;111,112,113,114;,
 4;112,115,116,113;,
 4;115,117,118,116;,
 4;117,111,114,118;,
 4;117,115,112,111;,
 4;114,113,116,118;,
 4;119,120,121,122;,
 4;120,123,124,121;,
 4;123,125,126,124;,
 4;125,119,122,126;,
 4;125,123,120,119;,
 4;122,121,124,126;;
 
 MeshMaterialList {
  1;
  122;
  0,
  0,
  0,
  0,
  0,
  0,
  0,
  0,
  0,
  0,
  0,
  0,
  0,
  0,
  0,
  0,
  0,
  0,
  0,
  0,
  0,
  0,
  0,
  0,
  0,
  0,
  0,
  0,
  0,
  0,
  0,
  0,
  0,
  0,
  0,
  0,
  0,
  0,
  0,
  0,
  0,
  0,
  0,
  0,
  0,
  0,
  0,
  0,
  0,
  0,
  0,
  0,
  0,
  0,
  0,
  0,
  0,
  0,
  0,
  0,
  0,
  0,
  0,
  0,
  0,
  0,
  0,
  0,
  0,
  0,
  0,
  0,
  0,
  0,
  0,
  0,
  0,
  0,
  0,
  0,
  0,
  0,
  0,
  0,
  0,
  0,
  0,
  0,
  0,
  0,
  0,
  0,
  0,
  0,
  0,
  0,
  0,
  0,
  0,
  0,
  0,
  0,
  0,
  0,
  0,
  0,
  0,
  0,
  0,
  0,
  0,
  0,
  0,
  0,
  0,
  0,
  0,
  0,
  0,
  0,
  0,
  0;;
  Material {
   0.633600;0.633600;0.633600;1.000000;;
   16.000000;
   0.230000;0.230000;0.230000;;
   0.000000;0.000000;0.000000;;
  }
 }
 MeshNormals {
  84;
  0.000004;0.000000;1.000000;,
  0.000004;0.000000;-1.000000;,
  0.000000;0.000000;-1.000000;,
  -0.007632;0.014801;0.999861;,
  0.000003;0.000000;-1.000000;,
  0.000312;0.009821;0.999952;,
  -0.000000;0.000000;-1.000000;,
  -0.004779;0.019689;0.999795;,
  -1.000000;0.000000;-0.000002;,
  -1.000000;0.000000;-0.000003;,
  0.000000;-1.000000;-0.000000;,
  1.000000;0.000000;0.000000;,
  -1.000000;0.000000;0.000002;,
  -1.000000;0.000000;0.000003;,
  0.000000;0.000000;0.000000;,
  -1.000000;0.000000;0.000005;,
  1.000000;0.000000;0.000005;,
  -1.000000;0.000000;0.000000;,
  -0.000004;0.000000;1.000000;,
  1.000000;0.000000;0.000004;,
  -0.007160;0.013762;0.999880;,
  -0.999996;-0.002560;0.001339;,
  -0.000000;-0.000000;-1.000000;,
  0.000000;-0.000000;-1.000000;,
  1.000000;-0.000101;-0.000000;,
  -0.015215;0.013756;0.999790;,
  0.999998;-0.002045;0.000001;,
  0.000002;-0.000000;-1.000000;,
  0.000002;-0.000001;-1.000000;,
  0.000003;-0.000000;-1.000000;,
  -1.000000;-0.000203;0.000000;,
  0.000003;-0.000000;1.000000;,
  0.000449;0.006883;0.999976;,
  -0.992418;0.001016;-0.122907;,
  0.000000;0.000000;1.000000;,
  0.000559;0.000000;-1.000000;,
  1.000000;0.000000;-0.000001;,
  -0.000561;0.000000;1.000000;,
  -0.999999;0.000000;-0.001676;,
  -0.999999;0.000000;-0.001676;,
  -0.999999;0.000000;-0.001676;,
  0.001678;0.000000;-0.999999;,
  0.001677;0.000000;-0.999999;,
  0.000000;1.000000;0.000000;,
  0.001679;0.000000;-0.999999;,
  0.001613;0.001634;-0.999997;,
  -0.999999;0.000000;-0.001676;,
  0.999999;0.000000;0.001676;,
  0.000740;0.002451;-0.999997;,
  0.001481;0.004902;-0.999987;,
  -0.001679;0.000078;0.999999;,
  -1.000000;0.000000;-0.000005;,
  -1.000000;-0.000101;-0.000002;,
  -0.000000;-0.988685;0.150004;,
  -0.000362;-0.987258;0.159127;,
  0.006328;-0.987383;0.158226;,
  0.010080;-0.974456;0.224353;,
  1.000000;-0.000101;-0.000000;,
  -1.000000;-0.000101;0.000003;,
  0.009817;-0.999951;-0.001368;,
  -1.000000;0.000000;-0.000004;,
  -0.000004;0.000000;1.000000;,
  -0.999977;-0.005120;0.004353;,
  -0.007586;-0.001045;0.999971;,
  -0.004770;-0.001340;0.999988;,
  0.000002;-0.000000;1.000000;,
  0.000432;-0.000966;0.999999;,
  0.000000;0.999860;-0.016734;,
  0.998286;0.005051;0.058303;,
  0.000000;0.999440;-0.033464;,
  -0.001063;-0.999625;0.027358;,
  -0.000004;0.000000;1.000000;,
  0.001679;0.000000;-0.999999;,
  -0.001678;0.000000;0.999999;,
  -0.001679;0.000000;0.999999;,
  -0.001679;0.000000;0.999999;,
  -0.001677;0.000000;0.999999;,
  0.001679;0.000000;-0.999999;,
  0.001580;0.002451;-0.999996;,
  -0.999999;0.000000;-0.001676;,
  -0.001679;0.000026;0.999999;,
  -0.001679;0.000039;0.999999;,
  -0.000220;-1.000000;0.000386;,
  0.998513;-0.054024;-0.007331;;
  122;
  4;27,4,1,29;,
  4;32,31,0,5;,
  4;22,23,2,6;,
  4;22,6,4,27;,
  4;20,32,5,7;,
  4;20,7,3,25;,
  4;8,9,51,52;,
  4;53,54,55,56;,
  4;10,10,10,10;,
  4;11,57,11,11;,
  4;12,58,15,13;,
  4;12,13,9,8;,
  4;10,10,53,10;,
  4;10,10,10,10;,
  4;43,43,43,43;,
  4;10,59,59,10;,
  4;10,10,10,10;,
  4;10,10,10,10;,
  4;14,14,14,14;,
  4;10,10,10,10;,
  4;11,11,11,11;,
  4;11,11,11,57;,
  4;2,2,2,2;,
  4;16,16,16,16;,
  4;0,0,5,0;,
  4;51,51,51,9;,
  4;10,10,10,10;,
  4;2,2,2,2;,
  4;11,11,11,11;,
  4;18,18,3,7;,
  4;60,60,60,60;,
  4;10,10,10,10;,
  4;15,15,13,15;,
  4;1,1,1,4;,
  4;19,19,19,19;,
  4;34,34,34,34;,
  4;10,10,10,10;,
  4;17,17,17,17;,
  4;2,2,6,2;,
  4;11,11,11,11;,
  4;61,61,61,61;,
  4;10,10,10,10;,
  4;21,21,62,62;,
  4;23,23,23,22;,
  4;24,24,57,57;,
  4;63,64,20,25;,
  4;55,59,59,56;,
  4;26,26,26,26;,
  4;28,27,29,28;,
  4;30,58,52,30;,
  4;65,31,32,66;,
  4;43,67,43,43;,
  4;54,53,10,10;,
  4;33,33,33,33;,
  4;2,2,2,2;,
  4;68,68,68,68;,
  4;64,66,32,20;,
  4;69,69,69,67;,
  4;54,70,70,55;,
  4;2,2,2,2;,
  4;11,11,11,11;,
  4;34,34,34,34;,
  4;17,17,17,17;,
  4;43,43,43,43;,
  4;10,10,10,10;,
  4;2,2,2,2;,
  4;11,11,11,11;,
  4;34,34,34,34;,
  4;17,17,17,17;,
  4;43,43,43,43;,
  4;10,10,10,10;,
  4;2,2,2,2;,
  4;11,11,11,11;,
  4;34,34,34,34;,
  4;17,17,17,17;,
  4;43,43,43,43;,
  4;10,10,10,10;,
  4;35,35,2,2;,
  4;35,2,23,23;,
  4;38,21,21,38;,
  4;36,36,36,36;,
  4;36,36,24,24;,
  4;37,64,63,71;,
  4;37,71,71,37;,
  4;40,40,39,39;,
  4;41,35,35,42;,
  4;41,42,72,44;,
  4;43,43,43,43;,
  4;10,10,10,10;,
  4;10,10,10,10;,
  4;73,74,75,76;,
  4;73,76,37,37;,
  4;36,36,36,36;,
  4;48,2,2,35;,
  4;38,38,38,38;,
  4;71,71,37,71;,
  4;43,43,43,43;,
  4;43,43,43,43;,
  4;44,77,78,45;,
  4;44,45,41,44;,
  4;46,39,39,46;,
  4;46,46,79,79;,
  4;47,47,47,47;,
  4;74,74,73,80;,
  4;74,80,81,75;,
  4;48,49,45,78;,
  4;43,43,43,43;,
  4;50,50,81,80;,
  4;82,82,82,82;,
  4;83,83,83,83;,
  4;2,2,2,2;,
  4;11,11,11,11;,
  4;34,34,34,34;,
  4;17,17,17,17;,
  4;43,43,43,43;,
  4;10,10,10,10;,
  4;2,2,2,2;,
  4;11,11,11,11;,
  4;34,34,34,34;,
  4;17,17,17,17;,
  4;43,43,43,43;,
  4;10,10,10,10;;
 }
}
