xof 0302txt 0064
template Header {
 <3D82AB43-62DA-11cf-AB39-0020AF71E433>
 WORD major;
 WORD minor;
 DWORD flags;
}

template Vector {
 <3D82AB5E-62DA-11cf-AB39-0020AF71E433>
 FLOAT x;
 FLOAT y;
 FLOAT z;
}

template Coords2d {
 <F6F23F44-7686-11cf-8F52-0040333594A3>
 FLOAT u;
 FLOAT v;
}

template Matrix4x4 {
 <F6F23F45-7686-11cf-8F52-0040333594A3>
 array FLOAT matrix[16];
}

template ColorRGBA {
 <35FF44E0-6C7C-11cf-8F52-0040333594A3>
 FLOAT red;
 FLOAT green;
 FLOAT blue;
 FLOAT alpha;
}

template ColorRGB {
 <D3E16E81-7835-11cf-8F52-0040333594A3>
 FLOAT red;
 FLOAT green;
 FLOAT blue;
}

template IndexedColor {
 <1630B820-7842-11cf-8F52-0040333594A3>
 DWORD index;
 ColorRGBA indexColor;
}

template Boolean {
 <4885AE61-78E8-11cf-8F52-0040333594A3>
 WORD truefalse;
}

template Boolean2d {
 <4885AE63-78E8-11cf-8F52-0040333594A3>
 Boolean u;
 Boolean v;
}

template MaterialWrap {
 <4885AE60-78E8-11cf-8F52-0040333594A3>
 Boolean u;
 Boolean v;
}

template TextureFilename {
 <A42790E1-7810-11cf-8F52-0040333594A3>
 STRING filename;
}

template Material {
 <3D82AB4D-62DA-11cf-AB39-0020AF71E433>
 ColorRGBA faceColor;
 FLOAT power;
 ColorRGB specularColor;
 ColorRGB emissiveColor;
 [...]
}

template MeshFace {
 <3D82AB5F-62DA-11cf-AB39-0020AF71E433>
 DWORD nFaceVertexIndices;
 array DWORD faceVertexIndices[nFaceVertexIndices];
}

template MeshFaceWraps {
 <4885AE62-78E8-11cf-8F52-0040333594A3>
 DWORD nFaceWrapValues;
 Boolean2d faceWrapValues;
}

template MeshTextureCoords {
 <F6F23F40-7686-11cf-8F52-0040333594A3>
 DWORD nTextureCoords;
 array Coords2d textureCoords[nTextureCoords];
}

template MeshMaterialList {
 <F6F23F42-7686-11cf-8F52-0040333594A3>
 DWORD nMaterials;
 DWORD nFaceIndexes;
 array DWORD faceIndexes[nFaceIndexes];
 [Material]
}

template MeshNormals {
 <F6F23F43-7686-11cf-8F52-0040333594A3>
 DWORD nNormals;
 array Vector normals[nNormals];
 DWORD nFaceNormals;
 array MeshFace faceNormals[nFaceNormals];
}

template MeshVertexColors {
 <1630B821-7842-11cf-8F52-0040333594A3>
 DWORD nVertexColors;
 array IndexedColor vertexColors[nVertexColors];
}

template Mesh {
 <3D82AB44-62DA-11cf-AB39-0020AF71E433>
 DWORD nVertices;
 array Vector vertices[nVertices];
 DWORD nFaces;
 array MeshFace faces[nFaces];
 [...]
}

Header{
1;
0;
1;
}

Mesh {
 1064;
 -75.87634;227.94835;-90.92180;,
 -75.87634;234.93146;-90.92180;,
 -62.30135;241.06795;-90.92180;,
 -62.30135;227.94835;-90.92180;,
 -62.30130;241.06795;0.28645;,
 -62.30130;227.94835;0.28645;,
 -76.02919;227.94835;0.28640;,
 -76.02919;234.93146;0.28640;,
 -248.42462;227.94835;-91.21095;,
 -248.57748;227.94835;-0.00275;,
 -248.57748;241.06795;-0.00275;,
 -248.42462;241.06795;-91.21095;,
 -236.57239;234.93146;-91.19105;,
 -236.57239;227.94835;-91.19105;,
 -236.72522;234.93146;0.01715;,
 -236.72522;227.94835;0.01715;,
 -62.30135;318.06241;-90.92180;,
 -62.30130;318.06241;0.28645;,
 -75.87634;318.06241;-90.92180;,
 -76.02919;318.06241;0.28640;,
 -236.57239;318.06241;-91.19105;,
 -248.42462;318.06241;-91.21095;,
 -248.57748;318.06241;-0.00275;,
 -236.72522;318.06241;0.01715;,
 -248.42462;306.21509;-91.21095;,
 -236.57239;311.67966;-91.19105;,
 -248.57748;306.21509;-0.00275;,
 -236.72522;311.67966;0.01715;,
 -75.97864;311.60919;-90.98520;,
 -74.96120;318.06241;0.28820;,
 -75.55200;311.67966;0.28820;,
 -243.75726;315.28699;-7.32865;,
 -72.79305;315.28699;-7.32865;,
 -72.79305;233.37331;-7.32865;,
 -243.75726;233.37331;-7.32865;,
 -72.79305;315.28699;-7.32865;,
 -72.79305;315.28699;-2.85620;,
 -72.79305;233.37331;-2.85620;,
 -72.79305;233.37331;-7.32865;,
 -72.79305;315.28699;-2.85620;,
 -243.75726;315.28699;-2.85620;,
 -243.75726;233.37331;-2.85620;,
 -72.79305;233.37331;-2.85620;,
 -243.75726;315.28699;-2.85620;,
 -243.75726;315.28699;-7.32865;,
 -243.75726;233.37331;-7.32865;,
 -243.75726;233.37331;-2.85620;,
 -72.79305;315.28699;-7.32865;,
 -243.75726;315.28699;-7.32865;,
 -243.75726;233.37331;-7.32865;,
 -72.79305;233.37331;-7.32865;,
 -240.91333;228.60596;-5.20205;,
 -74.79320;228.60596;-5.20205;,
 -74.79320;228.60596;-14.01510;,
 -240.91333;228.60596;-14.01510;,
 -62.35580;227.94835;-91.19105;,
 -62.53965;227.94835;0.01715;,
 -76.29390;227.94835;-0.00275;,
 -76.11009;227.94835;-91.21095;,
 -236.72522;0.04960;0.01715;,
 -236.57239;0.04960;-91.19105;,
 -248.57748;0.04960;-0.00275;,
 -248.42462;0.04960;-91.21095;,
 -236.25772;12.90325;-90.92170;,
 -236.25772;5.89695;-90.92170;,
 -248.29492;5.89695;-90.92175;,
 -248.29492;12.90325;-90.92175;,
 -236.25781;12.90325;0.28635;,
 -248.29492;12.90325;0.28640;,
 -248.29492;5.89695;0.28640;,
 -236.25781;5.89695;0.28635;,
 -13.66680;12.90325;-90.92175;,
 -0.07150;12.90325;-90.92175;,
 -0.07150;5.89695;-90.92175;,
 -13.66680;5.89695;-90.92175;,
 -12.71855;12.40635;-0.09945;,
 -13.66685;5.89695;0.28635;,
 -0.07150;5.89695;0.28640;,
 -0.07150;12.90325;0.28640;,
 -248.29486;12.90325;-10.55220;,
 -248.29486;5.89695;-10.55220;,
 -248.29492;5.89695;0.28640;,
 -248.29492;12.90325;0.28640;,
 -248.29492;12.90325;0.28640;,
 -236.25781;12.90325;0.28635;,
 -12.71855;12.40635;-0.09945;,
 -0.07150;12.90325;0.28640;,
 -236.25775;5.89695;-10.55220;,
 -13.66680;5.89695;-10.55215;,
 -13.66685;5.89695;0.28635;,
 -236.25781;5.89695;0.28635;,
 -0.07150;12.90325;-10.55215;,
 -0.07150;12.90325;0.28640;,
 -0.07150;5.89695;0.28640;,
 -0.07150;5.89695;-10.55215;,
 -248.29486;12.90325;-80.08320;,
 -248.29492;12.90325;-90.92175;,
 -248.29492;5.89695;-90.92175;,
 -248.29486;5.89695;-80.08320;,
 -248.29486;12.90325;-80.08320;,
 -248.29486;12.90325;-10.55220;,
 -248.29492;12.90325;-90.92175;,
 -248.29486;5.89695;-80.08320;,
 -236.25775;5.89695;-80.08320;,
 -248.29486;5.89695;-10.55220;,
 -0.07150;12.90325;-90.92175;,
 -13.66680;12.90325;-90.92175;,
 -236.25772;12.90325;-90.92170;,
 -236.25772;5.89695;-90.92170;,
 -13.66680;5.89695;-90.92175;,
 -13.66680;5.89695;-80.08320;,
 -0.07150;12.90325;-10.55215;,
 -0.07150;12.90325;-80.08315;,
 -0.07150;5.89695;-80.08315;,
 -0.07150;5.89695;-10.55215;,
 -0.07150;12.90325;-80.08315;,
 -0.07150;5.89695;-80.08315;,
 -0.07150;5.89695;-90.92175;,
 -0.07150;12.90325;-90.92175;,
 -236.25775;-1.12445;-10.55220;,
 -248.29486;-1.12445;-10.55220;,
 -236.25781;-1.12445;0.28635;,
 -248.29492;-1.12445;0.28640;,
 -248.29492;5.89695;0.28640;,
 -0.07150;-1.12445;-10.55215;,
 -13.66680;-1.12445;-10.55215;,
 -0.07150;-1.12445;0.28640;,
 -13.66685;-1.12445;0.28635;,
 -248.29492;-1.12445;-90.92175;,
 -248.29486;-1.12445;-80.08320;,
 -248.29492;5.89695;-90.92175;,
 -236.25772;-1.12445;-90.92170;,
 -236.25775;-1.12445;-80.08320;,
 -13.66680;-1.12445;-90.92175;,
 -13.66680;-1.12445;-80.08320;,
 -0.07150;-1.12445;-90.92175;,
 -0.07150;-1.12445;-80.08315;,
 -13.77920;112.32875;0.28835;,
 -13.62635;112.40755;-90.92180;,
 -13.66680;12.90325;-90.92175;,
 -12.71855;12.40635;-0.09945;,
 -13.62635;112.40755;-90.92180;,
 -0.05135;112.40755;-90.92180;,
 -0.07150;12.90325;-90.92175;,
 -13.66680;12.90325;-90.92175;,
 -0.05135;112.40755;-90.92180;,
 -0.05130;112.40755;0.28645;,
 -0.07150;12.90325;0.28640;,
 -0.07150;12.90325;-90.92175;,
 -0.05130;112.40755;0.28645;,
 -13.77920;112.32875;0.28835;,
 -12.71855;12.40635;-0.09945;,
 -0.07150;12.90325;0.28640;,
 -12.71855;12.40635;-0.09945;,
 -13.66680;12.90325;-90.92175;,
 -236.05432;112.32875;0.28835;,
 -236.25781;12.90325;0.28635;,
 -236.25772;12.90325;-90.92170;,
 -236.05432;112.40755;-90.92180;,
 -236.05432;112.40755;-90.92180;,
 -236.25772;12.90325;-90.92170;,
 -248.29492;12.90325;-90.92175;,
 -248.31512;112.40755;-90.92180;,
 -248.31512;112.40755;-90.92180;,
 -248.29492;12.90325;-90.92175;,
 -248.29492;12.90325;0.28640;,
 -248.31506;112.40755;0.28640;,
 -248.31506;112.40755;0.28640;,
 -248.29492;12.90325;0.28640;,
 -236.25781;12.90325;0.28635;,
 -236.05432;112.32875;0.28835;,
 -236.05432;112.32875;0.28835;,
 -236.05432;112.40755;-90.92180;,
 -236.25781;12.90325;0.28635;,
 -236.25772;12.90325;-90.92170;,
 -235.03867;112.18415;-8.73950;,
 -235.03867;12.40635;-8.73755;,
 -235.03867;112.18415;-8.73950;,
 -12.71850;112.18415;-8.73950;,
 -12.71850;12.40635;-8.73755;,
 -235.03867;12.40635;-8.73755;,
 -12.71850;112.18415;-8.73950;,
 -12.71850;12.40635;-8.73755;,
 -235.03867;12.40635;-8.73755;,
 -237.25171;45.57515;-85.52870;,
 -11.11470;45.57515;-85.52870;,
 -11.11470;39.74950;-85.52870;,
 -237.25171;39.74950;-85.52870;,
 -11.11470;45.57515;-85.52870;,
 -11.11470;45.57515;0.14390;,
 -11.11470;39.74950;0.14390;,
 -11.11470;39.74950;-85.52870;,
 -11.11470;45.57515;0.14390;,
 -237.25171;45.57515;0.14390;,
 -237.25171;39.74950;0.14390;,
 -11.11470;39.74950;0.14390;,
 -237.25171;45.57515;0.14390;,
 -237.25171;45.57515;-85.52870;,
 -237.25171;39.74950;-85.52870;,
 -237.25171;39.74950;0.14390;,
 -11.11470;45.57515;-85.52870;,
 -237.25171;45.57515;-85.52870;,
 -237.25171;39.74950;-85.52870;,
 -11.11470;39.74950;-85.52870;,
 -237.25171;80.07960;-85.52870;,
 -11.11470;80.07960;-85.52870;,
 -11.11470;74.25390;-85.52870;,
 -237.25171;74.25390;-85.52870;,
 -11.11470;80.07960;-85.52870;,
 -11.11470;80.07960;-0.10610;,
 -11.11470;74.25390;-0.10610;,
 -11.11470;74.25390;-85.52870;,
 -11.11470;80.07960;-0.10610;,
 -237.25171;80.07960;-0.10610;,
 -237.25171;74.25390;-0.10610;,
 -11.11470;74.25390;-0.10610;,
 -237.25171;80.07960;-0.10610;,
 -237.25171;80.07960;-85.52870;,
 -237.25171;74.25390;-85.52870;,
 -237.25171;74.25390;-0.10610;,
 -11.11470;80.07960;-85.52870;,
 -237.25171;80.07960;-85.52870;,
 -237.25171;74.25390;-85.52870;,
 -11.11470;74.25390;-85.52870;,
 -237.25171;112.20590;-89.39115;,
 -11.11470;112.20590;-89.39115;,
 -11.11470;106.38025;-89.39115;,
 -237.25171;106.38025;-89.39115;,
 -11.11470;112.20590;-89.39115;,
 -11.11470;112.20590;-1.71860;,
 -11.11470;106.38025;-1.71860;,
 -11.11470;106.38025;-89.39115;,
 -11.11470;112.20590;-1.71860;,
 -237.25171;112.20590;-1.71860;,
 -237.25171;106.38025;-1.71860;,
 -11.11470;106.38025;-1.71860;,
 -237.25171;112.20590;-1.71860;,
 -237.25171;112.20590;-89.39115;,
 -237.25171;106.38025;-89.39115;,
 -237.25171;106.38025;-1.71860;,
 -11.11470;112.20590;-89.39115;,
 -237.25171;112.20590;-89.39115;,
 -237.25171;106.38025;-89.39115;,
 -11.11470;106.38025;-89.39115;,
 -178.66333;111.13105;-14.01510;,
 -12.54320;111.13105;-14.01510;,
 -12.54320;111.13105;-5.20205;,
 -178.66333;111.13105;-5.20205;,
 -12.71850;111.61055;-8.62680;,
 -13.77920;111.99140;0.39420;,
 -235.03867;111.61055;-8.62680;,
 -235.03867;112.18415;-8.73950;,
 -236.05432;111.99140;0.39420;,
 -13.66680;112.39695;0.42080;,
 -0.07150;112.39695;0.42075;,
 -0.07150;112.39695;-91.05615;,
 -13.66680;112.39695;-91.05615;,
 -238.15121;228.36040;-8.29965;,
 -62.32825;228.36040;-8.29965;,
 -62.32825;111.63965;-8.29965;,
 -238.15121;111.63965;-8.29965;,
 -62.32825;228.36040;-8.29965;,
 -62.32825;228.36040;-1.70035;,
 -62.32825;111.63965;-1.70035;,
 -62.32825;111.63965;-8.29965;,
 -62.32825;228.36040;-1.70035;,
 -238.15121;228.36040;-1.70035;,
 -238.15121;111.63965;-1.70035;,
 -62.32825;111.63965;-1.70035;,
 -238.15121;228.36040;-1.70035;,
 -238.15121;228.36040;-8.29965;,
 -238.15121;111.63965;-8.29965;,
 -238.15121;111.63965;-1.70035;,
 -62.32825;228.36040;-8.29965;,
 -238.15121;228.36040;-8.29965;,
 -238.15121;111.63965;-8.29965;,
 -62.32825;111.63965;-8.29965;,
 -172.75241;227.94835;91.13165;,
 -172.75241;234.93146;91.13165;,
 -186.32742;241.06795;91.13165;,
 -186.32742;227.94835;91.13165;,
 -186.32745;241.06795;-0.07660;,
 -186.32745;227.94835;-0.07660;,
 -172.59958;227.94835;-0.07655;,
 -172.59958;234.93146;-0.07655;,
 -0.20415;227.94835;91.42080;,
 -0.05130;227.94835;0.21260;,
 -0.05130;241.06795;0.21260;,
 -0.20415;241.06795;91.42080;,
 -12.05640;234.93146;91.40090;,
 -12.05640;227.94835;91.40090;,
 -11.90355;234.93146;0.19270;,
 -11.90355;227.94835;0.19270;,
 -186.32742;318.06241;91.13165;,
 -186.32745;318.06241;-0.07660;,
 -172.75241;318.06241;91.13165;,
 -172.59958;318.06241;-0.07655;,
 -12.05640;318.06241;91.40090;,
 -0.20415;318.06241;91.42080;,
 -0.05130;318.06241;0.21260;,
 -11.90355;318.06241;0.19270;,
 -0.20415;306.21509;91.42080;,
 -12.05640;311.67966;91.40090;,
 -0.05130;306.21509;0.21260;,
 -11.90355;311.67966;0.19270;,
 -172.65012;311.60919;91.19505;,
 -173.66757;318.06241;-0.07835;,
 -173.07678;311.67966;-0.07835;,
 -4.87151;315.28699;7.53850;,
 -175.83572;315.28699;7.53850;,
 -175.83572;233.37331;7.53850;,
 -4.87151;233.37331;7.53850;,
 -175.83572;315.28699;7.53850;,
 -175.83572;315.28699;3.06605;,
 -175.83572;233.37331;3.06605;,
 -175.83572;233.37331;7.53850;,
 -175.83572;315.28699;3.06605;,
 -4.87151;315.28699;3.06605;,
 -4.87151;233.37331;3.06605;,
 -175.83572;233.37331;3.06605;,
 -4.87151;315.28699;3.06605;,
 -4.87151;315.28699;7.53850;,
 -4.87151;233.37331;7.53850;,
 -4.87151;233.37331;3.06605;,
 -175.83572;315.28699;7.53850;,
 -4.87151;315.28699;7.53850;,
 -4.87151;233.37331;7.53850;,
 -175.83572;233.37331;7.53850;,
 -7.71545;228.60596;5.41190;,
 -173.83557;228.60596;5.41195;,
 -173.83557;228.60596;14.22495;,
 -7.71545;228.60596;14.22495;,
 -186.27298;227.94835;91.40090;,
 -186.08911;227.94835;0.19270;,
 -172.33487;227.94835;0.21260;,
 -172.51868;227.94835;91.42080;,
 -11.90355;0.04960;0.19270;,
 -12.05640;0.04960;91.40090;,
 -0.05130;0.04960;0.21260;,
 -0.20415;0.04960;91.42080;,
 -12.37105;12.90325;91.13155;,
 -12.37105;5.89695;91.13155;,
 -0.33385;5.89695;91.13160;,
 -0.33385;12.90325;91.13160;,
 -12.37095;12.90325;-0.07650;,
 -0.33385;12.90325;-0.07655;,
 -0.33385;5.89695;-0.07655;,
 -12.37095;5.89695;-0.07650;,
 -234.96198;12.90325;91.13160;,
 -248.55728;12.90325;91.13160;,
 -248.55728;5.89695;91.13160;,
 -234.96198;5.89695;91.13160;,
 -235.91022;12.40635;0.30935;,
 -234.96191;5.89695;-0.07650;,
 -248.55728;5.89695;-0.07650;,
 -248.55728;12.90325;-0.07650;,
 -0.33389;12.90325;10.76205;,
 -0.33389;5.89695;10.76205;,
 -0.33385;5.89695;-0.07655;,
 -0.33385;12.90325;-0.07655;,
 -0.33385;12.90325;-0.07655;,
 -12.37095;12.90325;-0.07650;,
 -235.91022;12.40635;0.30935;,
 -248.55728;12.90325;-0.07650;,
 -12.37100;5.89695;10.76205;,
 -234.96198;5.89695;10.76200;,
 -234.96191;5.89695;-0.07650;,
 -12.37095;5.89695;-0.07650;,
 -248.55728;12.90325;10.76200;,
 -248.55728;12.90325;-0.07650;,
 -248.55728;5.89695;-0.07650;,
 -248.55728;5.89695;10.76200;,
 -0.33389;12.90325;80.29305;,
 -0.33385;12.90325;91.13160;,
 -0.33385;5.89695;91.13160;,
 -0.33389;5.89695;80.29305;,
 -0.33389;12.90325;80.29305;,
 -0.33389;12.90325;10.76205;,
 -0.33385;12.90325;91.13160;,
 -0.33389;5.89695;80.29305;,
 -12.37100;5.89695;80.29305;,
 -0.33389;5.89695;10.76205;,
 -248.55728;12.90325;91.13160;,
 -234.96198;12.90325;91.13160;,
 -12.37105;12.90325;91.13155;,
 -12.37105;5.89695;91.13155;,
 -234.96198;5.89695;91.13160;,
 -234.96198;5.89695;80.29305;,
 -248.55728;12.90325;10.76200;,
 -248.55728;12.90325;80.29300;,
 -248.55728;5.89695;80.29300;,
 -248.55728;5.89695;10.76200;,
 -248.55728;12.90325;80.29300;,
 -248.55728;5.89695;80.29300;,
 -248.55728;5.89695;91.13160;,
 -248.55728;12.90325;91.13160;,
 -12.37100;-1.12445;10.76205;,
 -0.33389;-1.12445;10.76205;,
 -12.37095;-1.12445;-0.07650;,
 -0.33385;-1.12445;-0.07655;,
 -0.33385;5.89695;-0.07655;,
 -248.55728;-1.12445;10.76200;,
 -234.96198;-1.12445;10.76200;,
 -248.55728;-1.12445;-0.07650;,
 -234.96191;-1.12445;-0.07650;,
 -0.33385;-1.12445;91.13160;,
 -0.33389;-1.12445;80.29305;,
 -0.33385;5.89695;91.13160;,
 -12.37105;-1.12445;91.13155;,
 -12.37100;-1.12445;80.29305;,
 -234.96198;-1.12445;91.13160;,
 -234.96198;-1.12445;80.29305;,
 -248.55728;-1.12445;91.13160;,
 -248.55728;-1.12445;80.29300;,
 -234.84958;112.32875;-0.07850;,
 -235.00241;112.40755;91.13165;,
 -234.96198;12.90325;91.13160;,
 -235.91022;12.40635;0.30935;,
 -235.00241;112.40755;91.13165;,
 -248.57742;112.40755;91.13165;,
 -248.55728;12.90325;91.13160;,
 -234.96198;12.90325;91.13160;,
 -248.57742;112.40755;91.13165;,
 -248.57748;112.40755;-0.07660;,
 -248.55728;12.90325;-0.07650;,
 -248.55728;12.90325;91.13160;,
 -248.57748;112.40755;-0.07660;,
 -234.84958;112.32875;-0.07850;,
 -235.91022;12.40635;0.30935;,
 -248.55728;12.90325;-0.07650;,
 -235.91022;12.40635;0.30935;,
 -234.96198;12.90325;91.13160;,
 -12.57445;112.32875;-0.07850;,
 -12.37095;12.90325;-0.07650;,
 -12.37105;12.90325;91.13155;,
 -12.57445;112.40755;91.13165;,
 -12.57445;112.40755;91.13165;,
 -12.37105;12.90325;91.13155;,
 -0.33385;12.90325;91.13160;,
 -0.31364;112.40755;91.13165;,
 -0.31364;112.40755;91.13165;,
 -0.33385;12.90325;91.13160;,
 -0.33385;12.90325;-0.07655;,
 -0.31371;112.40755;-0.07655;,
 -0.31371;112.40755;-0.07655;,
 -0.33385;12.90325;-0.07655;,
 -12.37095;12.90325;-0.07650;,
 -12.57445;112.32875;-0.07850;,
 -12.57445;112.32875;-0.07850;,
 -12.57445;112.40755;91.13165;,
 -12.37095;12.90325;-0.07650;,
 -12.37105;12.90325;91.13155;,
 -13.59010;112.18415;8.94935;,
 -13.59010;12.40635;8.94740;,
 -13.59010;112.18415;8.94935;,
 -235.91028;112.18415;8.94935;,
 -235.91028;12.40635;8.94745;,
 -13.59010;12.40635;8.94740;,
 -235.91028;112.18415;8.94935;,
 -235.91028;12.40635;8.94745;,
 -13.59010;12.40635;8.94740;,
 -11.37705;45.57515;85.73855;,
 -237.51407;45.57515;85.73855;,
 -237.51407;39.74950;85.73855;,
 -11.37705;39.74950;85.73855;,
 -237.51407;45.57515;85.73855;,
 -237.51407;45.57515;0.06595;,
 -237.51407;39.74950;0.06595;,
 -237.51407;39.74950;85.73855;,
 -237.51407;45.57515;0.06595;,
 -11.37705;45.57515;0.06595;,
 -11.37705;39.74950;0.06595;,
 -237.51407;39.74950;0.06595;,
 -11.37705;45.57515;0.06595;,
 -11.37705;45.57515;85.73855;,
 -11.37705;39.74950;85.73855;,
 -11.37705;39.74950;0.06595;,
 -237.51407;45.57515;85.73855;,
 -11.37705;45.57515;85.73855;,
 -11.37705;39.74950;85.73855;,
 -237.51407;39.74950;85.73855;,
 -11.37705;80.07960;85.73855;,
 -237.51407;80.07960;85.73855;,
 -237.51407;74.25390;85.73855;,
 -11.37705;74.25390;85.73855;,
 -237.51407;80.07960;85.73855;,
 -237.51407;80.07960;0.31595;,
 -237.51407;74.25390;0.31595;,
 -237.51407;74.25390;85.73855;,
 -237.51407;80.07960;0.31595;,
 -11.37705;80.07960;0.31595;,
 -11.37705;74.25390;0.31595;,
 -237.51407;74.25390;0.31595;,
 -11.37705;80.07960;0.31595;,
 -11.37705;80.07960;85.73855;,
 -11.37705;74.25390;85.73855;,
 -11.37705;74.25390;0.31595;,
 -237.51407;80.07960;85.73855;,
 -11.37705;80.07960;85.73855;,
 -11.37705;74.25390;85.73855;,
 -237.51407;74.25390;85.73855;,
 -11.37705;112.20590;89.60100;,
 -237.51407;112.20590;89.60100;,
 -237.51407;106.38025;89.60100;,
 -11.37705;106.38025;89.60100;,
 -237.51407;112.20590;89.60100;,
 -237.51407;112.20590;1.92845;,
 -237.51407;106.38025;1.92845;,
 -237.51407;106.38025;89.60100;,
 -237.51407;112.20590;1.92845;,
 -11.37705;112.20590;1.92845;,
 -11.37705;106.38025;1.92845;,
 -237.51407;106.38025;1.92845;,
 -11.37705;112.20590;1.92845;,
 -11.37705;112.20590;89.60100;,
 -11.37705;106.38025;89.60100;,
 -11.37705;106.38025;1.92845;,
 -237.51407;112.20590;89.60100;,
 -11.37705;112.20590;89.60100;,
 -11.37705;106.38025;89.60100;,
 -237.51407;106.38025;89.60100;,
 -69.96545;111.13105;14.22495;,
 -236.08557;111.13105;14.22500;,
 -236.08557;111.13105;5.41195;,
 -69.96545;111.13105;5.41190;,
 -235.91028;111.61055;8.83670;,
 -234.84958;111.99140;-0.18435;,
 -13.59010;111.61055;8.83665;,
 -13.59010;112.18415;8.94935;,
 -12.57445;111.99140;-0.18435;,
 -234.96198;112.39695;-0.21090;,
 -248.55728;112.39695;-0.21090;,
 -248.55728;112.39695;91.26600;,
 -234.96198;112.39695;91.26600;,
 -10.47755;228.36040;8.50950;,
 -186.30051;228.36040;8.50950;,
 -186.30051;111.63965;8.50950;,
 -10.47755;111.63965;8.50950;,
 -186.30051;228.36040;8.50950;,
 -186.30051;228.36040;1.91020;,
 -186.30051;111.63965;1.91020;,
 -186.30051;111.63965;8.50950;,
 -186.30051;228.36040;1.91020;,
 -10.47755;228.36040;1.91020;,
 -10.47755;111.63965;1.91020;,
 -186.30051;111.63965;1.91020;,
 -10.47755;228.36040;1.91020;,
 -10.47755;228.36040;8.50950;,
 -10.47755;111.63965;8.50950;,
 -10.47755;111.63965;1.91020;,
 -186.30051;228.36040;8.50950;,
 -10.47755;228.36040;8.50950;,
 -10.47755;111.63965;8.50950;,
 -186.30051;111.63965;8.50950;,
 11.79671;12.90325;-91.03185;,
 11.79671;5.89695;-91.03185;,
 -0.24049;5.89695;-91.03190;,
 -0.24049;12.90325;-91.03190;,
 11.79662;12.90325;0.17620;,
 -0.24049;12.90325;0.17625;,
 -0.24049;5.89695;0.17625;,
 11.79662;5.89695;0.17620;,
 234.38770;12.90325;-91.03190;,
 247.98297;12.90325;-91.03190;,
 247.98297;5.89695;-91.03190;,
 234.38770;5.89695;-91.03190;,
 235.33594;12.40635;-0.20960;,
 234.38763;5.89695;0.17620;,
 247.98297;5.89695;0.17625;,
 247.98297;12.90325;0.17625;,
 -0.24043;12.90325;-10.66235;,
 -0.24043;5.89695;-10.66235;,
 -0.24049;5.89695;0.17625;,
 -0.24049;12.90325;0.17625;,
 -0.24049;12.90325;0.17625;,
 11.79662;12.90325;0.17620;,
 235.33594;12.40635;-0.20960;,
 247.98297;12.90325;0.17625;,
 11.79668;5.89695;-10.66235;,
 234.38770;5.89695;-10.66230;,
 234.38763;5.89695;0.17620;,
 11.79662;5.89695;0.17620;,
 247.98297;12.90325;-10.66230;,
 247.98297;12.90325;0.17625;,
 247.98297;5.89695;0.17625;,
 247.98297;5.89695;-10.66230;,
 -0.24043;12.90325;-80.19335;,
 -0.24049;12.90325;-91.03190;,
 -0.24049;5.89695;-91.03190;,
 -0.24043;5.89695;-80.19335;,
 -0.24043;12.90325;-80.19335;,
 -0.24043;12.90325;-10.66235;,
 -0.24049;12.90325;-91.03190;,
 -0.24043;5.89695;-80.19335;,
 11.79668;5.89695;-80.19335;,
 -0.24043;5.89695;-10.66235;,
 247.98297;12.90325;-91.03190;,
 234.38770;12.90325;-91.03190;,
 11.79671;12.90325;-91.03185;,
 11.79671;5.89695;-91.03185;,
 234.38770;5.89695;-91.03190;,
 234.38770;5.89695;-80.19335;,
 247.98297;12.90325;-10.66230;,
 247.98297;12.90325;-80.19331;,
 247.98297;5.89695;-80.19331;,
 247.98297;5.89695;-10.66230;,
 247.98297;12.90325;-80.19331;,
 247.98297;5.89695;-80.19331;,
 247.98297;5.89695;-91.03190;,
 247.98297;12.90325;-91.03190;,
 11.79668;-1.12445;-10.66235;,
 -0.24043;-1.12445;-10.66235;,
 11.79662;-1.12445;0.17620;,
 -0.24049;-1.12445;0.17625;,
 -0.24049;5.89695;0.17625;,
 247.98297;-1.12445;-10.66230;,
 234.38770;-1.12445;-10.66230;,
 247.98297;-1.12445;0.17625;,
 234.38763;-1.12445;0.17620;,
 -0.24049;-1.12445;-91.03190;,
 -0.24043;-1.12445;-80.19335;,
 -0.24049;5.89695;-91.03190;,
 11.79671;-1.12445;-91.03185;,
 11.79668;-1.12445;-80.19335;,
 234.38770;-1.12445;-91.03190;,
 234.38770;-1.12445;-80.19335;,
 247.98297;-1.12445;-91.03190;,
 247.98297;-1.12445;-80.19331;,
 234.27527;112.40755;0.17625;,
 234.42816;112.40755;-91.03195;,
 234.38770;12.90325;-91.03190;,
 235.33594;12.40635;-0.20960;,
 234.42816;112.40755;-91.03195;,
 248.00311;112.40755;-91.03195;,
 247.98297;12.90325;-91.03190;,
 234.38770;12.90325;-91.03190;,
 248.00311;112.40755;-91.03195;,
 248.00317;112.40755;0.17630;,
 247.98297;12.90325;0.17625;,
 247.98297;12.90325;-91.03190;,
 248.00317;112.40755;0.17630;,
 234.27527;112.40755;0.17625;,
 235.33594;12.40635;-0.20960;,
 247.98297;12.90325;0.17625;,
 235.33594;12.40635;-0.20960;,
 234.38770;12.90325;-91.03190;,
 12.00011;112.40755;0.17625;,
 11.79662;12.90325;0.17620;,
 11.79671;12.90325;-91.03185;,
 12.00011;112.40755;-91.03195;,
 12.00011;112.40755;-91.03195;,
 11.79671;12.90325;-91.03185;,
 -0.24049;12.90325;-91.03190;,
 -0.26068;112.40755;-91.03195;,
 -0.26068;112.40755;-91.03195;,
 -0.24049;12.90325;-91.03190;,
 -0.24049;12.90325;0.17625;,
 -0.26064;112.40755;0.17625;,
 -0.26064;112.40755;0.17625;,
 -0.24049;12.90325;0.17625;,
 11.79662;12.90325;0.17620;,
 12.00011;112.40755;0.17625;,
 12.00011;112.40755;0.17625;,
 12.00011;112.40755;-91.03195;,
 11.79662;12.90325;0.17620;,
 11.79671;12.90325;-91.03185;,
 13.01576;112.10540;-8.84770;,
 13.01576;12.40635;-8.84770;,
 13.01576;112.10540;-8.84770;,
 235.33600;112.10540;-8.84770;,
 235.33600;12.40635;-8.84770;,
 13.01576;12.40635;-8.84770;,
 235.33600;112.10540;-8.84770;,
 235.33600;12.40635;-8.84770;,
 13.01576;112.10540;-8.84770;,
 13.01576;12.40635;-8.84770;,
 10.80272;45.57515;-85.63885;,
 236.93976;45.57515;-85.63885;,
 236.93976;39.74950;-85.63885;,
 10.80272;39.74950;-85.63885;,
 236.93976;45.57515;-85.63885;,
 236.93976;45.57515;2.03375;,
 236.93976;39.74950;2.03375;,
 236.93976;39.74950;-85.63885;,
 236.93976;45.57515;2.03375;,
 10.80272;45.57515;2.03375;,
 10.80272;39.74950;2.03375;,
 236.93976;39.74950;2.03375;,
 10.80272;45.57515;2.03375;,
 10.80272;45.57515;-85.63885;,
 10.80272;39.74950;-85.63885;,
 10.80272;39.74950;2.03375;,
 236.93976;45.57515;-85.63885;,
 10.80272;45.57515;-85.63885;,
 10.80272;39.74950;-85.63885;,
 236.93976;39.74950;-85.63885;,
 10.80272;80.07960;-85.63885;,
 236.93976;80.07960;-85.63885;,
 236.93976;74.25390;-85.63885;,
 10.80272;74.25390;-85.63885;,
 236.93976;80.07960;-85.63885;,
 236.93976;80.07960;2.03375;,
 236.93976;74.25390;2.03375;,
 236.93976;74.25390;-85.63885;,
 236.93976;80.07960;2.03375;,
 10.80272;80.07960;2.03375;,
 10.80272;74.25390;2.03375;,
 236.93976;74.25390;2.03375;,
 10.80272;80.07960;2.03375;,
 10.80272;80.07960;-85.63885;,
 10.80272;74.25390;-85.63885;,
 10.80272;74.25390;2.03375;,
 236.93976;80.07960;-85.63885;,
 10.80272;80.07960;-85.63885;,
 10.80272;74.25390;-85.63885;,
 236.93976;74.25390;-85.63885;,
 10.80272;112.20590;-89.50130;,
 236.93976;112.20590;-89.50130;,
 236.93976;106.38025;-89.50130;,
 10.80272;106.38025;-89.50130;,
 236.93976;112.20590;-89.50130;,
 236.93976;112.20590;-1.82875;,
 236.93976;106.38025;-1.82875;,
 236.93976;106.38025;-89.50130;,
 236.93976;112.20590;-1.82875;,
 10.80272;112.20590;-1.82875;,
 10.80272;106.38025;-1.82875;,
 236.93976;106.38025;-1.82875;,
 10.80272;112.20590;-1.82875;,
 10.80272;112.20590;-89.50130;,
 10.80272;106.38025;-89.50130;,
 10.80272;106.38025;-1.82875;,
 236.93976;112.20590;-89.50130;,
 10.80272;112.20590;-89.50130;,
 10.80272;106.38025;-89.50130;,
 236.93976;106.38025;-89.50130;,
 234.42816;227.94835;-91.03195;,
 234.42816;234.93146;-91.03195;,
 248.00311;241.06795;-91.03195;,
 248.00311;227.94835;-91.03195;,
 234.42816;112.40755;-91.03195;,
 234.27527;112.40755;0.17625;,
 234.27527;227.94835;0.17625;,
 248.00317;241.06795;0.17630;,
 248.00317;227.94835;0.17630;,
 234.27527;234.93146;0.17625;,
 61.87982;227.94835;-91.32110;,
 61.72697;227.94835;-0.11290;,
 61.72697;241.06795;-0.11290;,
 61.87982;241.06795;-91.32110;,
 73.73207;234.93146;-91.30120;,
 73.73207;227.94835;-91.30120;,
 73.57921;234.93146;-0.09300;,
 73.57921;227.94835;-0.09300;,
 248.00311;318.06241;-91.03195;,
 248.00317;318.06241;0.17630;,
 234.42816;318.06241;-91.03195;,
 234.27527;318.06241;0.17625;,
 73.73207;318.06241;-91.30120;,
 61.87982;318.06241;-91.32110;,
 61.72697;318.06241;-0.11290;,
 73.57921;318.06241;-0.09300;,
 61.87982;306.21509;-91.32110;,
 73.73207;311.67966;-91.30120;,
 61.72697;306.21509;-0.11290;,
 73.57921;311.67966;-0.09300;,
 234.32581;311.60919;-91.09535;,
 235.34326;318.06241;0.17805;,
 234.75250;311.67966;0.17805;,
 66.54716;315.28699;-7.43880;,
 237.51147;315.28699;-7.43880;,
 237.51147;233.37331;-7.43880;,
 66.54716;233.37331;-7.43880;,
 237.51147;315.28699;-7.43880;,
 237.51147;315.28699;-2.96635;,
 237.51147;233.37331;-2.96635;,
 237.51147;233.37331;-7.43880;,
 237.51147;315.28699;-2.96635;,
 66.54716;315.28699;-2.96635;,
 66.54716;233.37331;-2.96635;,
 237.51147;233.37331;-2.96635;,
 66.54716;315.28699;-2.96635;,
 66.54716;315.28699;-7.43880;,
 66.54716;233.37331;-7.43880;,
 66.54716;233.37331;-2.96635;,
 237.51147;315.28699;-7.43880;,
 66.54716;315.28699;-7.43880;,
 66.54716;233.37331;-7.43880;,
 237.51147;233.37331;-7.43880;,
 69.39111;228.60596;-14.12525;,
 235.51129;228.60596;-14.12525;,
 235.51129;111.13105;-14.12525;,
 69.39111;111.13105;-14.12525;,
 235.51129;228.60596;-14.12525;,
 235.51129;228.60596;-5.31220;,
 235.51129;111.13105;-5.31220;,
 235.51129;111.13105;-14.12525;,
 235.51129;228.60596;-5.31220;,
 69.39111;228.60596;-5.31220;,
 69.39111;111.13105;-5.31220;,
 235.51129;111.13105;-5.31220;,
 69.39111;228.60596;-5.31220;,
 69.39111;228.60596;-14.12525;,
 69.39111;111.13105;-14.12525;,
 69.39111;111.13105;-5.31220;,
 235.51129;228.60596;-14.12525;,
 69.39111;228.60596;-14.12525;,
 69.39111;111.13105;-14.12525;,
 235.51129;111.13105;-14.12525;,
 235.94580;12.90324;91.41857;,
 235.94580;5.89696;91.41857;,
 247.98303;5.89696;91.41862;,
 247.98303;12.90324;91.41862;,
 235.94592;12.90324;0.21053;,
 247.98303;12.90324;0.21048;,
 247.98303;5.89696;0.21048;,
 235.94592;5.89696;0.21053;,
 13.35484;12.90324;91.41865;,
 -0.24046;12.90324;91.41865;,
 -0.24046;5.89696;91.41865;,
 13.35484;5.89696;91.41865;,
 12.40657;12.40636;0.59634;,
 13.35487;5.89696;0.21055;,
 -0.24046;5.89696;0.21049;,
 -0.24046;12.90324;0.21049;,
 247.98297;12.90324;11.04907;,
 247.98297;5.89696;11.04907;,
 247.98303;5.89696;0.21048;,
 247.98303;12.90324;0.21048;,
 247.98303;12.90324;0.21048;,
 235.94592;12.90324;0.21053;,
 12.40657;12.40636;0.59634;,
 -0.24046;12.90324;0.21049;,
 235.94586;5.89696;11.04907;,
 13.35484;5.89696;11.04905;,
 13.35487;5.89696;0.21055;,
 235.94592;5.89696;0.21053;,
 -0.24046;12.90324;11.04905;,
 -0.24046;12.90324;0.21049;,
 -0.24046;5.89696;0.21049;,
 -0.24046;5.89696;11.04905;,
 247.98297;12.90324;80.58009;,
 247.98303;12.90324;91.41862;,
 247.98303;5.89696;91.41862;,
 247.98297;5.89696;80.58009;,
 247.98297;12.90324;80.58009;,
 247.98297;12.90324;11.04907;,
 247.98303;12.90324;91.41862;,
 247.98297;5.89696;80.58009;,
 235.94586;5.89696;80.58009;,
 247.98297;5.89696;11.04907;,
 -0.24046;12.90324;91.41865;,
 13.35484;12.90324;91.41865;,
 235.94580;12.90324;91.41857;,
 235.94580;5.89696;91.41857;,
 13.35484;5.89696;91.41865;,
 13.35484;5.89696;80.58010;,
 -0.24046;12.90324;11.04905;,
 -0.24046;12.90324;80.58006;,
 -0.24046;5.89696;80.58006;,
 -0.24046;5.89696;11.04905;,
 -0.24046;12.90324;80.58006;,
 -0.24046;5.89696;80.58006;,
 -0.24046;5.89696;91.41865;,
 -0.24046;12.90324;91.41865;,
 235.94586;-1.12445;11.04907;,
 247.98297;-1.12445;11.04907;,
 235.94592;-1.12445;0.21053;,
 247.98303;-1.12445;0.21048;,
 247.98303;5.89696;0.21048;,
 -0.24046;-1.12445;11.04905;,
 13.35484;-1.12445;11.04905;,
 -0.24046;-1.12445;0.21049;,
 13.35487;-1.12445;0.21055;,
 247.98303;-1.12445;91.41862;,
 247.98297;-1.12445;80.58009;,
 247.98303;5.89696;91.41862;,
 235.94580;-1.12445;91.41857;,
 235.94586;-1.12445;80.58009;,
 13.35484;-1.12445;91.41865;,
 13.35484;-1.12445;80.58010;,
 -0.24046;-1.12445;91.41865;,
 -0.24046;-1.12445;80.58006;,
 13.46724;112.40755;0.21049;,
 13.31438;112.40755;91.41869;,
 13.35484;12.90324;91.41865;,
 12.40657;12.40636;0.59634;,
 13.31438;112.40755;91.41869;,
 -0.26060;112.40755;91.41869;,
 -0.24046;12.90324;91.41865;,
 13.35484;12.90324;91.41865;,
 -0.26060;112.40755;91.41869;,
 -0.26067;112.40755;0.21045;,
 -0.24046;12.90324;0.21049;,
 -0.24046;12.90324;91.41865;,
 -0.26067;112.40755;0.21045;,
 13.46724;112.40755;0.21049;,
 12.40657;12.40636;0.59634;,
 -0.24046;12.90324;0.21049;,
 12.40657;12.40636;0.59634;,
 13.35484;12.90324;91.41865;,
 235.74243;112.40755;0.21048;,
 235.94592;12.90324;0.21053;,
 235.94580;12.90324;91.41857;,
 235.74243;112.40755;91.41868;,
 235.74243;112.40755;91.41868;,
 235.94580;12.90324;91.41857;,
 247.98303;12.90324;91.41862;,
 248.00323;112.40755;91.41868;,
 248.00323;112.40755;91.41868;,
 247.98303;12.90324;91.41862;,
 247.98303;12.90324;0.21048;,
 248.00317;112.40755;0.21048;,
 248.00317;112.40755;0.21048;,
 247.98303;12.90324;0.21048;,
 235.94592;12.90324;0.21053;,
 235.74243;112.40755;0.21048;,
 235.74243;112.40755;0.21048;,
 235.74243;112.40755;91.41868;,
 235.94592;12.90324;0.21053;,
 235.94580;12.90324;91.41857;,
 234.72675;112.10540;9.23442;,
 234.72675;12.40636;9.23442;,
 234.72675;112.10540;9.23442;,
 12.40654;112.10540;9.23445;,
 12.40654;12.40636;9.23445;,
 234.72675;12.40636;9.23442;,
 12.40654;112.10540;9.23445;,
 12.40654;12.40636;9.23445;,
 234.72675;112.10540;9.23442;,
 234.72675;12.40636;9.23442;,
 236.93982;45.57515;86.02558;,
 10.80275;45.57515;86.02560;,
 10.80275;39.74950;86.02560;,
 236.93982;39.74950;86.02558;,
 10.80275;45.57515;86.02560;,
 10.80275;45.57515;-1.64700;,
 10.80275;39.74950;-1.64700;,
 10.80275;39.74950;86.02560;,
 10.80275;45.57515;-1.64700;,
 236.93982;45.57515;-1.64703;,
 236.93982;39.74950;-1.64703;,
 10.80275;39.74950;-1.64700;,
 236.93982;45.57515;-1.64703;,
 236.93982;45.57515;86.02558;,
 236.93982;39.74950;86.02558;,
 236.93982;39.74950;-1.64703;,
 10.80275;45.57515;86.02560;,
 236.93982;45.57515;86.02558;,
 236.93982;39.74950;86.02558;,
 10.80275;39.74950;86.02560;,
 236.93982;80.07960;86.02558;,
 10.80275;80.07960;86.02560;,
 10.80275;74.25390;86.02560;,
 236.93982;74.25390;86.02558;,
 10.80275;80.07960;86.02560;,
 10.80275;80.07960;-1.64700;,
 10.80275;74.25390;-1.64700;,
 10.80275;74.25390;86.02560;,
 10.80275;80.07960;-1.64700;,
 236.93982;80.07960;-1.64703;,
 236.93982;74.25390;-1.64703;,
 10.80275;74.25390;-1.64700;,
 236.93982;80.07960;-1.64703;,
 236.93982;80.07960;86.02558;,
 236.93982;74.25390;86.02558;,
 236.93982;74.25390;-1.64703;,
 10.80275;80.07960;86.02560;,
 236.93982;80.07960;86.02558;,
 236.93982;74.25390;86.02558;,
 10.80275;74.25390;86.02560;,
 236.93982;112.20590;89.88804;,
 10.80275;112.20590;89.88805;,
 10.80275;106.38025;89.88805;,
 236.93982;106.38025;89.88804;,
 10.80275;112.20590;89.88805;,
 10.80275;112.20590;2.21550;,
 10.80275;106.38025;2.21550;,
 10.80275;106.38025;89.88805;,
 10.80275;112.20590;2.21550;,
 236.93982;112.20590;2.21548;,
 236.93982;106.38025;2.21548;,
 10.80275;106.38025;2.21550;,
 236.93982;112.20590;2.21548;,
 236.93982;112.20590;89.88804;,
 236.93982;106.38025;89.88804;,
 236.93982;106.38025;2.21548;,
 10.80275;112.20590;89.88805;,
 236.93982;112.20590;89.88804;,
 236.93982;106.38025;89.88804;,
 10.80275;106.38025;89.88805;,
 13.31438;227.94835;91.41869;,
 13.31438;234.93146;91.41869;,
 -0.26060;241.06795;91.41869;,
 -0.26060;227.94835;91.41869;,
 13.31438;112.40755;91.41869;,
 13.46724;112.40755;0.21049;,
 13.46724;227.94835;0.21049;,
 -0.26067;241.06795;0.21045;,
 -0.26067;227.94835;0.21045;,
 13.46724;234.93146;0.21049;,
 185.86267;227.94835;91.70783;,
 186.01550;227.94835;0.49963;,
 186.01550;241.06795;0.49963;,
 185.86267;241.06795;91.70783;,
 174.01035;234.93146;91.68793;,
 174.01035;227.94835;91.68793;,
 174.16324;234.93146;0.47974;,
 174.16324;227.94835;0.47974;,
 -0.26060;318.06241;91.41869;,
 -0.26067;318.06241;0.21045;,
 13.31438;318.06241;91.41869;,
 13.46724;318.06241;0.21049;,
 174.01035;318.06241;91.68793;,
 185.86267;318.06241;91.70783;,
 186.01550;318.06241;0.49963;,
 174.16324;318.06241;0.47974;,
 185.86267;306.21509;91.70783;,
 174.01035;311.67966;91.68793;,
 186.01550;306.21509;0.49963;,
 174.16324;311.67966;0.47974;,
 13.41670;311.60919;91.48209;,
 12.39925;318.06241;0.20869;,
 12.99004;311.67966;0.20869;,
 181.19534;315.28699;7.82553;,
 10.23106;315.28699;7.82555;,
 10.23106;233.37331;7.82555;,
 181.19534;233.37331;7.82553;,
 10.23106;315.28699;7.82555;,
 10.23106;315.28699;3.35310;,
 10.23106;233.37331;3.35310;,
 10.23106;233.37331;7.82555;,
 10.23106;315.28699;3.35310;,
 181.19534;315.28699;3.35309;,
 181.19534;233.37331;3.35309;,
 10.23106;233.37331;3.35310;,
 181.19534;315.28699;3.35309;,
 181.19534;315.28699;7.82553;,
 181.19534;233.37331;7.82553;,
 181.19534;233.37331;3.35309;,
 10.23106;315.28699;7.82555;,
 181.19534;315.28699;7.82553;,
 181.19534;233.37331;7.82553;,
 10.23106;233.37331;7.82555;,
 178.35132;228.60596;14.51198;,
 12.23122;228.60596;14.51199;,
 12.23122;111.13105;14.51199;,
 178.35132;111.13105;14.51198;,
 12.23122;228.60596;14.51199;,
 12.23122;228.60596;5.69894;,
 12.23122;111.13105;5.69894;,
 12.23122;111.13105;14.51199;,
 12.23122;228.60596;5.69894;,
 178.35132;228.60596;5.69893;,
 178.35132;111.13105;5.69893;,
 12.23122;111.13105;5.69894;,
 178.35132;228.60596;5.69893;,
 178.35132;228.60596;14.51198;,
 178.35132;111.13105;14.51198;,
 178.35132;111.13105;5.69893;,
 12.23122;228.60596;14.51199;,
 178.35132;228.60596;14.51198;,
 178.35132;111.13105;14.51198;,
 12.23122;111.13105;14.51199;;
 
 504;
 4;0,1,2,3;,
 4;3,2,4,5;,
 4;6,5,4,7;,
 4;8,9,10,11;,
 4;12,1,0,13;,
 4;12,13,8,11;,
 4;12,14,7,1;,
 4;13,0,6,15;,
 4;14,10,9,15;,
 4;14,15,6,7;,
 4;16,17,4,2;,
 4;18,16,2,1;,
 4;19,18,1,7;,
 4;17,19,7,4;,
 4;17,16,18,19;,
 4;20,21,22,23;,
 4;24,21,20,25;,
 4;24,25,12,11;,
 4;24,11,10,26;,
 4;24,26,22,21;,
 4;25,27,14,12;,
 4;26,10,14,27;,
 4;26,27,23,22;,
 4;18,28,25,20;,
 4;29,18,20,23;,
 4;30,29,23,27;,
 4;28,30,27,25;,
 4;28,18,29,30;,
 4;31,32,33,34;,
 4;35,36,37,38;,
 4;39,40,41,42;,
 4;43,44,45,46;,
 4;43,36,47,48;,
 4;49,50,37,46;,
 4;51,52,53,54;,
 4;55,56,57,58;,
 4;59,60,13,15;,
 4;61,59,15,9;,
 4;62,61,9,8;,
 4;60,62,8,13;,
 4;60,59,61,62;,
 4;63,64,65,66;,
 4;67,68,69,70;,
 4;71,72,73,74;,
 4;71,74,64,63;,
 4;75,67,70,76;,
 4;75,76,77,78;,
 4;79,80,81,82;,
 4;83,84,85,86;,
 4;87,88,89,90;,
 4;91,92,93,94;,
 4;95,96,97,98;,
 4;95,98,80,79;,
 4;99,100,83,101;,
 4;102,103,87,104;,
 4;101,83,86,105;,
 4;101,105,106,107;,
 4;103,108,109,110;,
 4;103,110,88,87;,
 4;105,86,111,112;,
 4;110,113,114,88;,
 4;115,91,94,116;,
 4;115,116,117,118;,
 4;119,120,104,87;,
 4;121,119,87,90;,
 4;122,121,90,123;,
 4;120,122,123,104;,
 4;120,119,121,122;,
 4;124,125,88,114;,
 4;126,124,114,77;,
 4;127,126,77,89;,
 4;125,127,89,88;,
 4;125,124,126,127;,
 4;128,129,102,130;,
 4;131,128,130,108;,
 4;132,131,108,103;,
 4;129,132,103,102;,
 4;129,128,131,132;,
 4;133,134,110,109;,
 4;135,133,109,73;,
 4;136,135,73,113;,
 4;134,136,113,110;,
 4;134,133,135,136;,
 4;137,138,139,140;,
 4;141,142,143,144;,
 4;145,146,147,148;,
 4;149,150,151,152;,
 4;153,154,143,152;,
 4;155,156,157,158;,
 4;159,160,161,162;,
 4;163,164,165,166;,
 4;167,168,169,170;,
 4;167,171,172,162;,
 4;173,168,161,174;,
 4;155,175,176,156;,
 4;177,178,179,180;,
 4;181,150,151,182;,
 4;137,170,169,140;,
 4;173,183,179,140;,
 4;184,185,186,187;,
 4;188,189,190,191;,
 4;192,193,194,195;,
 4;196,197,198,199;,
 4;196,189,200,201;,
 4;202,203,190,199;,
 4;204,205,206,207;,
 4;208,209,210,211;,
 4;212,213,214,215;,
 4;216,217,218,219;,
 4;216,209,220,221;,
 4;222,223,210,219;,
 4;224,225,226,227;,
 4;228,229,230,231;,
 4;232,233,234,235;,
 4;236,237,238,239;,
 4;236,229,240,241;,
 4;242,243,230,239;,
 4;244,245,246,247;,
 4;248,249,137,178;,
 4;250,248,178,251;,
 4;252,250,251,171;,
 4;249,252,171,137;,
 4;249,248,250,252;,
 4;253,254,255,256;,
 4;257,258,259,260;,
 4;261,262,263,264;,
 4;265,266,267,268;,
 4;269,270,271,272;,
 4;269,262,273,274;,
 4;275,276,263,272;,
 4;277,278,279,280;,
 4;280,279,281,282;,
 4;283,282,281,284;,
 4;285,286,287,288;,
 4;289,278,277,290;,
 4;289,290,285,288;,
 4;289,291,284,278;,
 4;290,277,283,292;,
 4;291,287,286,292;,
 4;291,292,283,284;,
 4;293,294,281,279;,
 4;295,293,279,278;,
 4;296,295,278,284;,
 4;294,296,284,281;,
 4;294,293,295,296;,
 4;297,298,299,300;,
 4;301,298,297,302;,
 4;301,302,289,288;,
 4;301,288,287,303;,
 4;301,303,299,298;,
 4;302,304,291,289;,
 4;303,287,291,304;,
 4;303,304,300,299;,
 4;295,305,302,297;,
 4;306,295,297,300;,
 4;307,306,300,304;,
 4;305,307,304,302;,
 4;305,295,306,307;,
 4;308,309,310,311;,
 4;312,313,314,315;,
 4;316,317,318,319;,
 4;320,321,322,323;,
 4;320,313,324,325;,
 4;326,327,314,323;,
 4;328,329,330,331;,
 4;332,333,334,335;,
 4;336,337,290,292;,
 4;338,336,292,286;,
 4;339,338,286,285;,
 4;337,339,285,290;,
 4;337,336,338,339;,
 4;340,341,342,343;,
 4;344,345,346,347;,
 4;348,349,350,351;,
 4;348,351,341,340;,
 4;352,344,347,353;,
 4;352,353,354,355;,
 4;356,357,358,359;,
 4;360,361,362,363;,
 4;364,365,366,367;,
 4;368,369,370,371;,
 4;372,373,374,375;,
 4;372,375,357,356;,
 4;376,377,360,378;,
 4;379,380,364,381;,
 4;378,360,363,382;,
 4;378,382,383,384;,
 4;380,385,386,387;,
 4;380,387,365,364;,
 4;382,363,388,389;,
 4;387,390,391,365;,
 4;392,368,371,393;,
 4;392,393,394,395;,
 4;396,397,381,364;,
 4;398,396,364,367;,
 4;399,398,367,400;,
 4;397,399,400,381;,
 4;397,396,398,399;,
 4;401,402,365,391;,
 4;403,401,391,354;,
 4;404,403,354,366;,
 4;402,404,366,365;,
 4;402,401,403,404;,
 4;405,406,379,407;,
 4;408,405,407,385;,
 4;409,408,385,380;,
 4;406,409,380,379;,
 4;406,405,408,409;,
 4;410,411,387,386;,
 4;412,410,386,350;,
 4;413,412,350,390;,
 4;411,413,390,387;,
 4;411,410,412,413;,
 4;414,415,416,417;,
 4;418,419,420,421;,
 4;422,423,424,425;,
 4;426,427,428,429;,
 4;430,431,420,429;,
 4;432,433,434,435;,
 4;436,437,438,439;,
 4;440,441,442,443;,
 4;444,445,446,447;,
 4;444,448,449,439;,
 4;450,445,438,451;,
 4;432,452,453,433;,
 4;454,455,456,457;,
 4;458,427,428,459;,
 4;414,447,446,417;,
 4;450,460,456,417;,
 4;461,462,463,464;,
 4;465,466,467,468;,
 4;469,470,471,472;,
 4;473,474,475,476;,
 4;473,466,477,478;,
 4;479,480,467,476;,
 4;481,482,483,484;,
 4;485,486,487,488;,
 4;489,490,491,492;,
 4;493,494,495,496;,
 4;493,486,497,498;,
 4;499,500,487,496;,
 4;501,502,503,504;,
 4;505,506,507,508;,
 4;509,510,511,512;,
 4;513,514,515,516;,
 4;513,506,517,518;,
 4;519,520,507,516;,
 4;521,522,523,524;,
 4;525,526,414,455;,
 4;527,525,455,528;,
 4;529,527,528,448;,
 4;526,529,448,414;,
 4;526,525,527,529;,
 4;530,531,532,533;,
 4;534,535,536,537;,
 4;538,539,540,541;,
 4;542,543,544,545;,
 4;546,547,548,549;,
 4;546,539,550,551;,
 4;552,553,540,549;,
 4;554,555,556,557;,
 4;558,559,560,561;,
 4;562,563,564,565;,
 4;562,565,555,554;,
 4;566,558,561,567;,
 4;566,567,568,569;,
 4;570,571,572,573;,
 4;574,575,576,577;,
 4;578,579,580,581;,
 4;582,583,584,585;,
 4;586,587,588,589;,
 4;586,589,571,570;,
 4;590,591,574,592;,
 4;593,594,578,595;,
 4;592,574,577,596;,
 4;592,596,597,598;,
 4;594,599,600,601;,
 4;594,601,579,578;,
 4;596,577,602,603;,
 4;601,604,605,579;,
 4;606,582,585,607;,
 4;606,607,608,609;,
 4;610,611,595,578;,
 4;612,610,578,581;,
 4;613,612,581,614;,
 4;611,613,614,595;,
 4;611,610,612,613;,
 4;615,616,579,605;,
 4;617,615,605,568;,
 4;618,617,568,580;,
 4;616,618,580,579;,
 4;616,615,617,618;,
 4;619,620,593,621;,
 4;622,619,621,599;,
 4;623,622,599,594;,
 4;620,623,594,593;,
 4;620,619,622,623;,
 4;624,625,601,600;,
 4;626,624,600,564;,
 4;627,626,564,604;,
 4;625,627,604,601;,
 4;625,624,626,627;,
 4;628,629,630,631;,
 4;632,633,634,635;,
 4;636,637,638,639;,
 4;640,641,642,643;,
 4;644,645,634,643;,
 4;646,647,648,649;,
 4;650,651,652,653;,
 4;654,655,656,657;,
 4;658,659,660,661;,
 4;658,662,663,653;,
 4;664,659,652,665;,
 4;646,666,667,647;,
 4;668,669,670,671;,
 4;672,641,642,673;,
 4;628,661,660,631;,
 4;628,669,674,662;,
 4;664,675,670,631;,
 4;676,677,678,679;,
 4;680,681,682,683;,
 4;684,685,686,687;,
 4;688,689,690,691;,
 4;688,681,692,693;,
 4;694,695,682,691;,
 4;696,697,698,699;,
 4;700,701,702,703;,
 4;704,705,706,707;,
 4;708,709,710,711;,
 4;708,701,712,713;,
 4;714,715,702,711;,
 4;716,717,718,719;,
 4;720,721,722,723;,
 4;724,725,726,727;,
 4;728,729,730,731;,
 4;728,721,732,733;,
 4;734,735,722,731;,
 4;736,737,738,739;,
 4;736,739,633,740;,
 4;736,740,741,742;,
 4;739,738,743,744;,
 4;739,744,640,633;,
 4;742,741,640,744;,
 4;742,744,743,745;,
 4;746,747,748,749;,
 4;750,737,736,751;,
 4;750,751,746,749;,
 4;750,752,745,737;,
 4;751,736,742,753;,
 4;751,753,747,746;,
 4;752,748,747,753;,
 4;752,753,742,745;,
 4;754,755,743,738;,
 4;756,754,738,737;,
 4;757,756,737,745;,
 4;755,757,745,743;,
 4;755,754,756,757;,
 4;758,759,760,761;,
 4;762,759,758,763;,
 4;762,763,750,749;,
 4;762,749,748,764;,
 4;762,764,760,759;,
 4;763,765,752,750;,
 4;764,748,752,765;,
 4;764,765,761,760;,
 4;756,766,763,758;,
 4;767,756,758,761;,
 4;768,767,761,765;,
 4;766,768,765,763;,
 4;766,756,767,768;,
 4;769,770,771,772;,
 4;773,774,775,776;,
 4;777,778,779,780;,
 4;781,782,783,784;,
 4;781,774,785,786;,
 4;787,788,775,784;,
 4;789,790,791,792;,
 4;793,794,795,796;,
 4;797,798,799,800;,
 4;801,802,803,804;,
 4;801,794,805,806;,
 4;807,808,795,804;,
 4;809,810,811,812;,
 4;813,814,815,816;,
 4;817,818,819,820;,
 4;817,820,810,809;,
 4;821,813,816,822;,
 4;821,822,823,824;,
 4;825,826,827,828;,
 4;829,830,831,832;,
 4;833,834,835,836;,
 4;837,838,839,840;,
 4;841,842,843,844;,
 4;841,844,826,825;,
 4;845,846,829,847;,
 4;848,849,833,850;,
 4;847,829,832,851;,
 4;847,851,852,853;,
 4;849,854,855,856;,
 4;849,856,834,833;,
 4;851,832,857,858;,
 4;856,859,860,834;,
 4;861,837,840,862;,
 4;861,862,863,864;,
 4;865,866,850,833;,
 4;867,865,833,836;,
 4;868,867,836,869;,
 4;866,868,869,850;,
 4;866,865,867,868;,
 4;870,871,834,860;,
 4;872,870,860,823;,
 4;873,872,823,835;,
 4;871,873,835,834;,
 4;871,870,872,873;,
 4;874,875,848,876;,
 4;877,874,876,854;,
 4;878,877,854,849;,
 4;875,878,849,848;,
 4;875,874,877,878;,
 4;879,880,856,855;,
 4;881,879,855,819;,
 4;882,881,819,859;,
 4;880,882,859,856;,
 4;880,879,881,882;,
 4;883,884,885,886;,
 4;887,888,889,890;,
 4;891,892,893,894;,
 4;895,896,897,898;,
 4;899,900,889,898;,
 4;901,902,903,904;,
 4;905,906,907,908;,
 4;909,910,911,912;,
 4;913,914,915,916;,
 4;913,917,918,908;,
 4;919,914,907,920;,
 4;901,921,922,902;,
 4;923,924,925,926;,
 4;927,896,897,928;,
 4;883,916,915,886;,
 4;883,924,929,917;,
 4;919,930,925,886;,
 4;931,932,933,934;,
 4;935,936,937,938;,
 4;939,940,941,942;,
 4;943,944,945,946;,
 4;943,936,947,948;,
 4;949,950,937,946;,
 4;951,952,953,954;,
 4;955,956,957,958;,
 4;959,960,961,962;,
 4;963,964,965,966;,
 4;963,956,967,968;,
 4;969,970,957,966;,
 4;971,972,973,974;,
 4;975,976,977,978;,
 4;979,980,981,982;,
 4;983,984,985,986;,
 4;983,976,987,988;,
 4;989,990,977,986;,
 4;991,992,993,994;,
 4;991,994,888,995;,
 4;991,995,996,997;,
 4;994,993,998,999;,
 4;994,999,895,888;,
 4;997,996,895,999;,
 4;997,999,998,1000;,
 4;1001,1002,1003,1004;,
 4;1005,992,991,1006;,
 4;1005,1006,1001,1004;,
 4;1005,1007,1000,992;,
 4;1006,991,997,1008;,
 4;1006,1008,1002,1001;,
 4;1007,1003,1002,1008;,
 4;1007,1008,997,1000;,
 4;1009,1010,998,993;,
 4;1011,1009,993,992;,
 4;1012,1011,992,1000;,
 4;1010,1012,1000,998;,
 4;1010,1009,1011,1012;,
 4;1013,1014,1015,1016;,
 4;1017,1014,1013,1018;,
 4;1017,1018,1005,1004;,
 4;1017,1004,1003,1019;,
 4;1017,1019,1015,1014;,
 4;1018,1020,1007,1005;,
 4;1019,1003,1007,1020;,
 4;1019,1020,1016,1015;,
 4;1011,1021,1018,1013;,
 4;1022,1011,1013,1016;,
 4;1023,1022,1016,1020;,
 4;1021,1023,1020,1018;,
 4;1021,1011,1022,1023;,
 4;1024,1025,1026,1027;,
 4;1028,1029,1030,1031;,
 4;1032,1033,1034,1035;,
 4;1036,1037,1038,1039;,
 4;1036,1029,1040,1041;,
 4;1042,1043,1030,1039;,
 4;1044,1045,1046,1047;,
 4;1048,1049,1050,1051;,
 4;1052,1053,1054,1055;,
 4;1056,1057,1058,1059;,
 4;1056,1049,1060,1061;,
 4;1062,1063,1050,1059;;
 
 MeshMaterialList {
  1;
  504;
  0,
  0,
  0,
  0,
  0,
  0,
  0,
  0,
  0,
  0,
  0,
  0,
  0,
  0,
  0,
  0,
  0,
  0,
  0,
  0,
  0,
  0,
  0,
  0,
  0,
  0,
  0,
  0,
  0,
  0,
  0,
  0,
  0,
  0,
  0,
  0,
  0,
  0,
  0,
  0,
  0,
  0,
  0,
  0,
  0,
  0,
  0,
  0,
  0,
  0,
  0,
  0,
  0,
  0,
  0,
  0,
  0,
  0,
  0,
  0,
  0,
  0,
  0,
  0,
  0,
  0,
  0,
  0,
  0,
  0,
  0,
  0,
  0,
  0,
  0,
  0,
  0,
  0,
  0,
  0,
  0,
  0,
  0,
  0,
  0,
  0,
  0,
  0,
  0,
  0,
  0,
  0,
  0,
  0,
  0,
  0,
  0,
  0,
  0,
  0,
  0,
  0,
  0,
  0,
  0,
  0,
  0,
  0,
  0,
  0,
  0,
  0,
  0,
  0,
  0,
  0,
  0,
  0,
  0,
  0,
  0,
  0,
  0,
  0,
  0,
  0,
  0,
  0,
  0,
  0,
  0,
  0,
  0,
  0,
  0,
  0,
  0,
  0,
  0,
  0,
  0,
  0,
  0,
  0,
  0,
  0,
  0,
  0,
  0,
  0,
  0,
  0,
  0,
  0,
  0,
  0,
  0,
  0,
  0,
  0,
  0,
  0,
  0,
  0,
  0,
  0,
  0,
  0,
  0,
  0,
  0,
  0,
  0,
  0,
  0,
  0,
  0,
  0,
  0,
  0,
  0,
  0,
  0,
  0,
  0,
  0,
  0,
  0,
  0,
  0,
  0,
  0,
  0,
  0,
  0,
  0,
  0,
  0,
  0,
  0,
  0,
  0,
  0,
  0,
  0,
  0,
  0,
  0,
  0,
  0,
  0,
  0,
  0,
  0,
  0,
  0,
  0,
  0,
  0,
  0,
  0,
  0,
  0,
  0,
  0,
  0,
  0,
  0,
  0,
  0,
  0,
  0,
  0,
  0,
  0,
  0,
  0,
  0,
  0,
  0,
  0,
  0,
  0,
  0,
  0,
  0,
  0,
  0,
  0,
  0,
  0,
  0,
  0,
  0,
  0,
  0,
  0,
  0,
  0,
  0,
  0,
  0,
  0,
  0,
  0,
  0,
  0,
  0,
  0,
  0,
  0,
  0,
  0,
  0,
  0,
  0,
  0,
  0,
  0,
  0,
  0,
  0,
  0,
  0,
  0,
  0,
  0,
  0,
  0,
  0,
  0,
  0,
  0,
  0,
  0,
  0,
  0,
  0,
  0,
  0,
  0,
  0,
  0,
  0,
  0,
  0,
  0,
  0,
  0,
  0,
  0,
  0,
  0,
  0,
  0,
  0,
  0,
  0,
  0,
  0,
  0,
  0,
  0,
  0,
  0,
  0,
  0,
  0,
  0,
  0,
  0,
  0,
  0,
  0,
  0,
  0,
  0,
  0,
  0,
  0,
  0,
  0,
  0,
  0,
  0,
  0,
  0,
  0,
  0,
  0,
  0,
  0,
  0,
  0,
  0,
  0,
  0,
  0,
  0,
  0,
  0,
  0,
  0,
  0,
  0,
  0,
  0,
  0,
  0,
  0,
  0,
  0,
  0,
  0,
  0,
  0,
  0,
  0,
  0,
  0,
  0,
  0,
  0,
  0,
  0,
  0,
  0,
  0,
  0,
  0,
  0,
  0,
  0,
  0,
  0,
  0,
  0,
  0,
  0,
  0,
  0,
  0,
  0,
  0,
  0,
  0,
  0,
  0,
  0,
  0,
  0,
  0,
  0,
  0,
  0,
  0,
  0,
  0,
  0,
  0,
  0,
  0,
  0,
  0,
  0,
  0,
  0,
  0,
  0,
  0,
  0,
  0,
  0,
  0,
  0,
  0,
  0,
  0,
  0,
  0,
  0,
  0,
  0,
  0,
  0,
  0,
  0,
  0,
  0,
  0,
  0,
  0,
  0,
  0,
  0,
  0,
  0,
  0,
  0,
  0,
  0,
  0,
  0,
  0,
  0,
  0,
  0,
  0,
  0,
  0,
  0,
  0,
  0,
  0,
  0,
  0,
  0,
  0,
  0,
  0,
  0,
  0,
  0,
  0,
  0,
  0,
  0,
  0,
  0,
  0,
  0,
  0,
  0,
  0,
  0,
  0,
  0,
  0,
  0,
  0,
  0,
  0,
  0,
  0;;
  Material {
   0.630400;0.630400;0.630400;1.000000;;
   16.000000;
   1.000000;1.000000;1.000000;;
   0.000000;0.000000;0.000000;;
  }
 }
 MeshNormals {
  370;
  0.000559;0.000000;-1.000000;,
  0.000000;0.000000;-1.000000;,
  1.000000;0.000000;-0.000001;,
  -0.000561;0.000000;1.000000;,
  0.000838;0.000000;-1.000000;,
  -0.000840;0.000000;1.000000;,
  1.000000;0.000000;-0.000001;,
  -0.999999;0.000000;-0.001676;,
  0.001678;0.000000;-0.999999;,
  0.000000;1.000000;0.000000;,
  0.000000;-1.000000;-0.000000;,
  -0.999999;0.000000;-0.001676;,
  0.001679;0.000000;-0.999999;,
  0.001613;0.001633;-0.999997;,
  0.999999;0.000000;0.001676;,
  0.000739;0.002449;-0.999997;,
  0.001479;0.004899;-0.999987;,
  -0.001679;0.000078;0.999999;,
  1.000000;0.000000;0.000000;,
  0.000000;0.000000;1.000000;,
  -0.999999;0.000000;-0.001676;,
  -0.001679;0.000000;0.999999;,
  0.000004;0.000000;1.000000;,
  0.000004;0.000000;-1.000000;,
  -0.007632;0.014801;0.999861;,
  0.000003;0.000000;-1.000000;,
  0.000312;0.009821;0.999952;,
  -0.000000;0.000000;-1.000000;,
  -0.004779;0.019689;0.999795;,
  -1.000000;0.000000;-0.000003;,
  -1.000000;0.000000;-0.000004;,
  -1.000000;0.000000;0.000003;,
  -1.000000;0.000000;0.000004;,
  0.000000;0.000000;0.000000;,
  -1.000000;0.000000;0.000006;,
  1.000000;0.000000;0.000006;,
  -1.000000;0.000000;0.000000;,
  -0.000004;0.000000;1.000000;,
  1.000000;0.000000;0.000003;,
  -0.007143;0.013756;0.999880;,
  -0.999977;-0.005124;0.004353;,
  -0.000000;-0.000000;-1.000000;,
  0.000000;-0.000000;-1.000000;,
  0.000000;-0.000000;-1.000000;,
  1.000000;-0.000203;-0.000000;,
  -0.015180;0.013751;0.999790;,
  0.999998;-0.002045;-0.000000;,
  0.000002;-0.000000;-1.000000;,
  0.000002;-0.000001;-1.000000;,
  0.000003;-0.000000;-1.000000;,
  -1.000000;-0.000203;0.000000;,
  -0.000037;-0.000005;1.000000;,
  0.998370;0.013130;0.055542;,
  0.000428;0.006878;0.999976;,
  -0.992423;0.001017;-0.122865;,
  0.000000;-0.000020;-1.000000;,
  -0.998291;-0.017344;-0.055803;,
  0.993430;0.028262;0.110899;,
  0.000000;0.192793;0.981239;,
  -0.992840;-0.029498;-0.115749;,
  -0.000004;0.000000;1.000000;,
  0.001679;0.000000;-0.999999;,
  -0.001678;0.000000;0.999999;,
  -0.001679;0.000000;0.999999;,
  -0.000004;0.000000;1.000000;,
  0.001679;0.000000;-0.999999;,
  0.001579;0.002449;-0.999996;,
  -0.999999;0.000000;-0.001676;,
  -0.001679;0.000000;0.999999;,
  -0.001679;0.000026;0.999999;,
  -0.001679;0.000039;0.999999;,
  -0.001679;0.000000;0.999999;,
  -0.000220;-1.000000;0.000387;,
  0.998513;-0.054024;-0.007331;,
  0.001679;0.000000;-0.999999;,
  -1.000000;0.000000;-0.000006;,
  -1.000000;-0.000101;-0.000003;,
  -0.000000;-0.988685;0.150004;,
  -0.000362;-0.987258;0.159127;,
  0.006328;-0.987383;0.158226;,
  0.010080;-0.974456;0.224352;,
  1.000000;-0.000101;-0.000000;,
  -1.000000;-0.000101;0.000003;,
  0.009817;-0.999951;-0.001368;,
  -1.000000;0.000000;-0.000004;,
  -0.000003;0.000000;1.000000;,
  -0.015097;-0.002101;0.999884;,
  -0.007120;-0.002021;0.999973;,
  -0.000078;-0.000010;1.000000;,
  0.000391;-0.000976;0.999999;,
  0.003213;0.999995;0.000432;,
  0.998282;0.005053;0.058365;,
  -0.001063;-0.999625;0.027358;,
  0.000000;-0.299379;-0.954134;,
  0.000000;0.999110;-0.042181;,
  -0.000559;0.000000;1.000000;,
  0.000000;0.000000;1.000000;,
  -1.000000;0.000000;0.000000;,
  0.000561;0.000000;-1.000000;,
  -0.000838;0.000000;1.000000;,
  0.000840;0.000000;-1.000000;,
  0.999999;0.000000;0.001676;,
  -0.001678;0.000000;0.999999;,
  0.000000;1.000000;0.000000;,
  0.000000;-1.000000;0.000000;,
  -1.000000;0.000000;0.000000;,
  0.999999;0.000000;0.001676;,
  -0.001679;0.000000;0.999999;,
  -0.001613;0.001634;0.999997;,
  0.999999;0.000000;0.001676;,
  -0.999999;0.000000;-0.001676;,
  -0.000740;0.002451;0.999997;,
  -0.001481;0.004902;0.999987;,
  0.001679;0.000078;-0.999999;,
  -1.000000;0.000000;0.000000;,
  0.000000;0.000000;-1.000000;,
  0.999999;0.000000;0.001676;,
  0.001679;0.000000;-0.999999;,
  -0.999999;0.000000;-0.001676;,
  -0.000004;0.000000;-1.000000;,
  -0.000004;0.000000;1.000000;,
  0.007629;0.014803;-0.999861;,
  -0.000002;0.000000;1.000000;,
  -0.000312;0.009822;-0.999952;,
  0.000000;0.000000;1.000000;,
  0.004777;0.019691;-0.999795;,
  1.000000;0.000000;0.000002;,
  1.000000;0.000000;0.000003;,
  1.000000;0.000000;-0.000002;,
  1.000000;0.000000;-0.000003;,
  0.000000;0.000000;0.000000;,
  1.000000;0.000000;-0.000004;,
  -0.000004;0.000000;1.000000;,
  -1.000000;0.000000;-0.000005;,
  1.000000;0.000000;0.000000;,
  -1.000000;0.000000;-0.000004;,
  0.007143;0.013758;-0.999880;,
  0.999977;-0.005124;-0.004353;,
  0.000000;-0.000000;1.000000;,
  0.000000;-0.000001;1.000000;,
  0.000000;-0.000000;1.000000;,
  -1.000000;-0.000203;0.000000;,
  0.015179;0.013752;-0.999790;,
  -0.999998;-0.002045;0.000000;,
  -0.000002;-0.000000;1.000000;,
  -0.000002;-0.000001;1.000000;,
  -0.000003;-0.000000;1.000000;,
  1.000000;-0.000203;-0.000000;,
  0.000037;-0.000005;-1.000000;,
  -0.998370;0.013130;-0.055542;,
  -0.000428;0.006879;-0.999976;,
  0.992423;0.001017;0.122865;,
  0.000000;-0.000019;1.000000;,
  0.998291;-0.017341;0.055803;,
  -0.993430;0.028262;-0.110899;,
  -0.000000;0.192751;-0.981248;,
  0.992841;-0.029493;0.115749;,
  0.000004;0.000000;-1.000000;,
  0.001678;0.000000;-0.999999;,
  0.001679;0.000000;-0.999999;,
  0.000004;0.000000;-1.000000;,
  -0.001679;0.000000;0.999999;,
  -0.001580;0.002451;0.999996;,
  0.999999;0.000000;0.001676;,
  0.001679;0.000026;-0.999999;,
  0.001679;0.000039;-0.999999;,
  0.001679;0.000000;-0.999999;,
  0.000220;-1.000000;-0.000386;,
  -0.998513;-0.054023;0.007331;,
  -0.001679;0.000000;0.999999;,
  1.000000;0.000000;0.000004;,
  1.000000;-0.000101;0.000002;,
  0.000000;-0.988685;-0.150003;,
  0.000362;-0.987258;-0.159127;,
  -0.006328;-0.987383;-0.158225;,
  -0.010080;-0.974456;-0.224352;,
  -1.000000;-0.000101;0.000000;,
  1.000000;-0.000101;-0.000002;,
  -0.009817;-0.999951;0.001368;,
  1.000000;0.000000;0.000006;,
  0.000004;0.000000;-1.000000;,
  0.015097;-0.002102;-0.999884;,
  0.007120;-0.002022;-0.999973;,
  0.000078;-0.000010;-1.000000;,
  -0.000391;-0.000976;-0.999999;,
  -0.003213;0.999995;-0.000432;,
  -0.998282;0.005053;-0.058366;,
  0.001063;-0.999625;-0.027358;,
  0.000000;-0.299379;0.954134;,
  0.000000;0.999110;0.042181;,
  0.000004;0.000000;1.000000;,
  0.000004;0.000000;-1.000000;,
  0.000000;0.000000;-1.000000;,
  -0.007632;0.014801;0.999861;,
  0.000002;0.000000;-1.000000;,
  0.000312;0.009821;0.999952;,
  -0.000000;0.000000;-1.000000;,
  -0.004779;0.019689;0.999795;,
  -1.000000;0.000000;-0.000003;,
  -1.000000;0.000000;-0.000004;,
  0.000000;-1.000000;-0.000000;,
  1.000000;0.000000;0.000000;,
  -1.000000;0.000000;0.000003;,
  -1.000000;0.000000;0.000004;,
  0.000000;0.000000;0.000000;,
  -1.000000;0.000000;0.000006;,
  0.000004;0.000000;-1.000000;,
  1.000000;0.000000;0.000006;,
  -1.000000;0.000000;0.000000;,
  -0.000004;0.000000;1.000000;,
  1.000000;0.000000;0.000003;,
  -0.007161;0.013764;0.999880;,
  -0.999996;-0.002560;0.001338;,
  -0.000000;-0.000000;-1.000000;,
  0.000000;-0.000000;-1.000000;,
  1.000000;-0.000101;-0.000001;,
  -0.015215;0.013756;0.999790;,
  0.999998;-0.002045;0.000001;,
  0.000002;-0.000000;-1.000000;,
  0.000002;-0.000001;-1.000000;,
  0.000003;-0.000000;-1.000000;,
  -1.000000;-0.000203;0.000000;,
  0.000003;-0.000000;1.000000;,
  0.000448;0.006886;0.999976;,
  -0.992418;0.001016;-0.122906;,
  0.000000;0.000000;1.000000;,
  0.000559;0.000000;-1.000000;,
  1.000000;0.000000;-0.000001;,
  -0.000561;0.000000;1.000000;,
  -0.999999;0.000000;-0.001676;,
  -0.999999;0.000000;-0.001676;,
  -0.999999;0.000000;-0.001676;,
  0.001678;0.000000;-0.999999;,
  0.001677;0.000000;-0.999999;,
  0.000000;1.000000;0.000000;,
  1.000000;0.000000;-0.000001;,
  0.001679;0.000000;-0.999999;,
  0.001612;0.001633;-0.999997;,
  0.999999;0.000000;0.001676;,
  0.000739;0.002449;-0.999997;,
  0.001479;0.004899;-0.999987;,
  -0.001679;0.000078;0.999999;,
  -1.000000;0.000000;-0.000006;,
  -1.000000;-0.000101;-0.000003;,
  -0.000000;-0.988685;0.150004;,
  -0.000362;-0.987258;0.159127;,
  0.006328;-0.987383;0.158226;,
  0.010080;-0.974456;0.224353;,
  1.000000;-0.000101;-0.000000;,
  -1.000000;-0.000101;0.000003;,
  0.009817;-0.999951;-0.001368;,
  -1.000000;0.000000;-0.000006;,
  -0.000003;0.000000;1.000000;,
  -0.999977;-0.005120;0.004353;,
  -0.007586;-0.001045;0.999971;,
  -0.004771;-0.001337;0.999988;,
  0.000002;-0.000000;1.000000;,
  0.000430;-0.000960;1.000000;,
  0.000000;0.999860;-0.016734;,
  0.998286;0.005051;0.058305;,
  0.000000;0.999440;-0.033464;,
  -0.001063;-0.999625;0.027358;,
  -0.000004;0.000000;1.000000;,
  -0.000004;0.000000;1.000000;,
  0.001679;0.000000;-0.999999;,
  -0.001678;0.000000;0.999999;,
  -0.001679;0.000000;0.999999;,
  -0.001679;0.000000;0.999999;,
  -0.001677;0.000000;0.999999;,
  -0.000004;0.000000;1.000000;,
  0.001679;0.000000;-0.999999;,
  0.001579;0.002449;-0.999996;,
  -0.001679;0.000026;0.999999;,
  -0.001679;0.000039;0.999999;,
  -0.000220;-1.000000;0.000386;,
  0.998513;-0.054025;-0.007331;,
  -0.000004;0.000000;-1.000000;,
  -0.000004;0.000000;1.000000;,
  0.000000;0.000000;1.000000;,
  0.007632;0.014801;-0.999861;,
  -0.000002;0.000000;1.000000;,
  -0.000312;0.009821;-0.999952;,
  0.000000;0.000000;1.000000;,
  0.004779;0.019689;-0.999795;,
  1.000000;0.000000;0.000003;,
  1.000000;0.000000;0.000004;,
  0.000000;-1.000000;-0.000000;,
  -1.000000;0.000000;0.000000;,
  1.000000;0.000000;-0.000003;,
  1.000000;0.000000;-0.000004;,
  0.000000;0.000000;0.000000;,
  -0.000004;0.000000;-1.000000;,
  1.000000;0.000000;-0.000006;,
  -1.000000;0.000000;-0.000006;,
  1.000000;0.000000;0.000000;,
  0.000004;0.000000;-1.000000;,
  -1.000000;0.000000;-0.000006;,
  0.007161;0.013764;-0.999880;,
  0.999996;-0.002560;-0.001338;,
  0.000000;-0.000000;1.000000;,
  0.000000;-0.000000;1.000000;,
  -1.000000;-0.000101;0.000001;,
  0.015215;0.013756;-0.999790;,
  -0.999998;-0.002044;-0.000001;,
  -0.000002;-0.000000;1.000000;,
  -0.000002;-0.000001;1.000000;,
  -0.000003;-0.000000;1.000000;,
  1.000000;-0.000203;-0.000000;,
  -0.000003;-0.000000;-1.000000;,
  -0.000448;0.006885;-0.999976;,
  0.992417;0.001016;0.122910;,
  0.000000;0.000000;1.000000;,
  0.000000;0.000000;1.000000;,
  -0.000000;0.000000;-1.000000;,
  0.000000;0.000000;1.000000;,
  -0.000000;0.000000;-1.000000;,
  -0.000558;0.000000;1.000000;,
  -1.000000;0.000000;0.000001;,
  0.000561;0.000000;-1.000000;,
  0.999999;0.000000;0.001676;,
  0.999999;0.000000;0.001676;,
  0.999999;0.000000;0.001676;,
  -0.001678;0.000000;0.999999;,
  -0.001677;0.000000;0.999999;,
  0.000000;1.000000;0.000000;,
  -0.001679;0.000000;0.999999;,
  -0.001613;0.001634;0.999997;,
  -0.999999;0.000000;-0.001676;,
  -0.000740;0.002451;0.999997;,
  -0.001481;0.004902;0.999987;,
  0.001679;0.000078;-0.999999;,
  0.000000;0.000000;1.000000;,
  -0.000000;0.000000;-1.000000;,
  0.000000;0.000000;1.000000;,
  -0.000000;0.000000;-1.000000;,
  1.000000;0.000000;0.000006;,
  1.000000;-0.000101;0.000003;,
  0.000000;-0.988686;-0.150002;,
  0.000362;-0.987258;-0.159125;,
  -0.006328;-0.987383;-0.158223;,
  -0.010080;-0.974457;-0.224349;,
  -1.000000;-0.000101;0.000000;,
  1.000000;-0.000101;-0.000003;,
  1.000000;0.000000;0.000003;,
  0.000000;0.000000;-1.000000;,
  0.000003;0.000000;-1.000000;,
  0.999977;-0.005120;-0.004353;,
  0.007586;-0.001045;-0.999971;,
  0.004771;-0.001337;-0.999988;,
  -0.019633;-0.999803;0.002736;,
  -0.000002;-0.000000;-1.000000;,
  -0.000430;-0.000960;-1.000000;,
  0.000000;0.999860;0.016734;,
  -0.998286;0.005051;-0.058302;,
  0.000000;0.999440;0.033464;,
  0.001063;-0.999625;-0.027357;,
  0.000561;0.000000;-1.000000;,
  0.000003;0.000000;-1.000000;,
  -0.001679;0.000000;0.999999;,
  0.001678;0.000000;-0.999999;,
  0.001679;0.000000;-0.999999;,
  0.001679;0.000000;-0.999999;,
  0.001677;0.000000;-0.999999;,
  -0.001580;0.002451;0.999996;,
  0.999999;0.000000;0.001676;,
  0.001679;0.000026;-0.999999;,
  0.001679;0.000039;-0.999999;,
  0.001679;0.000000;-0.999999;,
  0.000220;-1.000000;-0.000386;,
  -0.998513;-0.054025;0.007331;;
  504;
  4;4,0,1,1;,
  4;6,2,2,6;,
  4;5,60,60,3;,
  4;7,7,7,7;,
  4;8,0,4,8;,
  4;8,8,61,61;,
  4;9,9,9,9;,
  4;10,10,10,10;,
  4;62,63,63,62;,
  4;62,62,5,3;,
  4;2,2,2,2;,
  4;15,1,1,0;,
  4;11,11,11,11;,
  4;64,64,3,60;,
  4;9,9,9,9;,
  4;9,9,9,9;,
  4;12,65,66,13;,
  4;12,13,8,61;,
  4;7,7,7,7;,
  4;7,7,67,67;,
  4;14,14,14,14;,
  4;68,63,62,69;,
  4;68,69,70,71;,
  4;15,16,13,66;,
  4;9,9,9,9;,
  4;17,17,70,69;,
  4;72,72,72,72;,
  4;73,73,73,73;,
  4;1,1,1,1;,
  4;18,18,18,18;,
  4;19,19,19,19;,
  4;36,36,36,36;,
  4;9,9,9,9;,
  4;10,10,10,10;,
  4;9,9,9,9;,
  4;10,10,10,10;,
  4;14,14,14,14;,
  4;21,21,62,63;,
  4;20,20,7,7;,
  4;74,74,61,8;,
  4;10,10,10,10;,
  4;47,25,23,49;,
  4;53,51,22,26;,
  4;41,43,1,27;,
  4;41,27,25,47;,
  4;39,53,26,28;,
  4;39,28,24,45;,
  4;29,30,75,76;,
  4;77,78,79,80;,
  4;10,10,10,10;,
  4;18,81,18,18;,
  4;31,82,34,32;,
  4;31,32,30,29;,
  4;10,10,77,10;,
  4;10,10,10,10;,
  4;9,9,9,9;,
  4;10,83,83,10;,
  4;10,10,10,10;,
  4;10,10,10,10;,
  4;33,33,33,33;,
  4;10,10,10,10;,
  4;18,18,18,18;,
  4;18,18,18,81;,
  4;1,1,1,1;,
  4;35,35,35,35;,
  4;22,22,26,22;,
  4;75,75,75,30;,
  4;10,10,10,10;,
  4;1,1,1,1;,
  4;18,18,18,18;,
  4;37,37,24,28;,
  4;84,84,84,84;,
  4;10,10,10,10;,
  4;34,34,32,34;,
  4;23,23,23,25;,
  4;38,38,38,38;,
  4;19,19,19,19;,
  4;10,10,10,10;,
  4;36,36,36,36;,
  4;1,1,27,1;,
  4;18,18,18,18;,
  4;85,85,85,85;,
  4;10,10,10,10;,
  4;56,40,40,40;,
  4;42,42,43,41;,
  4;44,44,81,81;,
  4;86,87,39,45;,
  4;79,83,83,80;,
  4;52,46,46,46;,
  4;48,47,49,48;,
  4;50,82,76,50;,
  4;88,51,53,89;,
  4;90,90,90,90;,
  4;78,77,10,10;,
  4;54,54,54,54;,
  4;55,55,55,55;,
  4;91,91,91,91;,
  4;87,89,53,39;,
  4;78,92,92,79;,
  4;1,1,1,1;,
  4;18,18,18,18;,
  4;19,19,19,19;,
  4;36,36,36,36;,
  4;9,9,9,9;,
  4;10,10,10,10;,
  4;1,1,1,1;,
  4;18,18,18,18;,
  4;19,19,19,19;,
  4;36,36,36,36;,
  4;9,9,9,9;,
  4;10,10,10,10;,
  4;1,1,1,1;,
  4;18,18,18,18;,
  4;19,19,19,19;,
  4;36,36,36,36;,
  4;9,9,9,9;,
  4;10,10,10,10;,
  4;10,10,10,10;,
  4;59,59,56,59;,
  4;58,58,58,58;,
  4;57,57,57,52;,
  4;93,93,93,93;,
  4;94,94,94,94;,
  4;9,9,9,9;,
  4;1,1,1,1;,
  4;18,18,18,18;,
  4;19,19,19,19;,
  4;36,36,36,36;,
  4;9,9,9,9;,
  4;10,10,10,10;,
  4;99,95,96,96;,
  4;97,97,97,97;,
  4;100,157,157,98;,
  4;101,101,101,101;,
  4;102,95,99,102;,
  4;102,102,107,107;,
  4;103,103,103,103;,
  4;104,104,104,104;,
  4;158,159,159,158;,
  4;158,158,100,98;,
  4;105,105,97,97;,
  4;111,96,96,95;,
  4;106,106,106,106;,
  4;160,160,98,157;,
  4;103,103,103,103;,
  4;103,103,103,103;,
  4;107,161,162,108;,
  4;107,108,102,107;,
  4;109,101,101,109;,
  4;109,109,163,163;,
  4;110,110,110,110;,
  4;159,159,158,164;,
  4;159,164,165,166;,
  4;111,112,108,162;,
  4;103,103,103,103;,
  4;113,113,165,164;,
  4;167,167,167,167;,
  4;168,168,168,168;,
  4;96,96,96,96;,
  4;114,114,114,114;,
  4;115,115,115,115;,
  4;134,134,134,134;,
  4;103,103,103,103;,
  4;104,104,104,104;,
  4;103,103,103,103;,
  4;104,104,104,104;,
  4;118,118,118,118;,
  4;117,117,158,159;,
  4;116,116,101,101;,
  4;169,169,107,102;,
  4;104,104,104,104;,
  4;144,122,120,146;,
  4;150,148,119,123;,
  4;138,140,96,124;,
  4;138,124,122,144;,
  4;136,150,123,125;,
  4;136,125,121,142;,
  4;126,127,170,171;,
  4;172,173,174,175;,
  4;104,104,104,104;,
  4;114,176,114,114;,
  4;128,177,131,129;,
  4;128,129,127,126;,
  4;104,104,172,104;,
  4;104,104,104,104;,
  4;103,103,103,103;,
  4;104,178,178,104;,
  4;104,104,104,104;,
  4;104,104,104,104;,
  4;130,130,130,130;,
  4;104,104,104,104;,
  4;114,114,114,114;,
  4;114,114,114,176;,
  4;96,96,96,96;,
  4;133,133,133,133;,
  4;119,119,123,119;,
  4;170,170,170,127;,
  4;104,104,104,104;,
  4;96,96,96,96;,
  4;114,114,114,114;,
  4;115,115,121,125;,
  4;179,179,179,179;,
  4;104,104,104,104;,
  4;131,131,129,131;,
  4;132,132,120,122;,
  4;135,135,135,135;,
  4;115,115,115,115;,
  4;104,104,104,104;,
  4;134,134,134,134;,
  4;96,96,124,96;,
  4;114,114,114,114;,
  4;180,180,180,180;,
  4;104,104,104,104;,
  4;153,137,137,137;,
  4;139,139,140,138;,
  4;141,141,176,176;,
  4;181,182,136,142;,
  4;174,178,178,175;,
  4;149,143,143,143;,
  4;145,144,146,145;,
  4;147,177,171,147;,
  4;183,148,150,184;,
  4;185,185,185,185;,
  4;173,172,104,104;,
  4;151,151,151,151;,
  4;152,152,152,152;,
  4;186,186,186,186;,
  4;182,184,150,136;,
  4;173,187,187,174;,
  4;96,96,96,96;,
  4;114,114,114,114;,
  4;115,115,115,115;,
  4;134,134,134,134;,
  4;103,103,103,103;,
  4;104,104,104,104;,
  4;96,96,96,96;,
  4;114,114,114,114;,
  4;115,115,115,115;,
  4;134,134,134,134;,
  4;103,103,103,103;,
  4;104,104,104,104;,
  4;96,96,96,96;,
  4;114,114,114,114;,
  4;115,115,115,115;,
  4;134,134,134,134;,
  4;103,103,103,103;,
  4;104,104,104,104;,
  4;104,104,104,104;,
  4;156,156,153,156;,
  4;155,155,155,155;,
  4;154,154,154,149;,
  4;188,188,188,188;,
  4;189,189,189,189;,
  4;103,103,103,103;,
  4;96,96,96,96;,
  4;114,114,114,114;,
  4;115,115,115,115;,
  4;134,134,134,134;,
  4;103,103,103,103;,
  4;104,104,104,104;,
  4;218,194,191,220;,
  4;223,222,190,195;,
  4;213,214,192,196;,
  4;213,196,194,218;,
  4;211,223,195,197;,
  4;211,197,193,216;,
  4;198,199,242,243;,
  4;244,245,246,247;,
  4;200,200,200,200;,
  4;201,248,201,201;,
  4;202,249,205,203;,
  4;202,203,199,198;,
  4;200,200,244,200;,
  4;200,200,200,200;,
  4;234,234,234,234;,
  4;200,250,250,200;,
  4;200,200,200,200;,
  4;200,200,200,200;,
  4;204,204,204,204;,
  4;200,200,200,200;,
  4;201,201,201,201;,
  4;201,201,201,248;,
  4;192,192,192,192;,
  4;207,207,207,207;,
  4;190,190,195,190;,
  4;242,242,242,199;,
  4;200,200,200,200;,
  4;192,192,192,192;,
  4;201,201,201,201;,
  4;209,209,193,197;,
  4;251,251,251,251;,
  4;200,200,200,200;,
  4;205,205,203,205;,
  4;206,206,191,194;,
  4;210,210,210,210;,
  4;225,225,225,225;,
  4;200,200,200,200;,
  4;208,208,208,208;,
  4;192,192,196,192;,
  4;201,201,201,201;,
  4;252,252,252,252;,
  4;200,200,200,200;,
  4;212,212,253,253;,
  4;214,214,214,213;,
  4;215,215,248,248;,
  4;254,255,211,216;,
  4;246,250,250,247;,
  4;217,217,217,217;,
  4;219,218,220,219;,
  4;221,249,243,221;,
  4;256,222,223,257;,
  4;234,258,234,234;,
  4;245,244,200,200;,
  4;224,224,224,224;,
  4;192,192,192,192;,
  4;259,259,259,259;,
  4;255,257,223,211;,
  4;260,260,260,258;,
  4;245,261,261,246;,
  4;192,192,192,192;,
  4;201,201,201,201;,
  4;225,225,225,225;,
  4;208,208,208,208;,
  4;234,234,234,234;,
  4;200,200,200,200;,
  4;192,192,192,192;,
  4;201,201,201,201;,
  4;225,225,225,225;,
  4;208,208,208,208;,
  4;234,234,234,234;,
  4;200,200,200,200;,
  4;192,192,192,192;,
  4;201,201,201,201;,
  4;225,225,225,225;,
  4;208,208,208,208;,
  4;234,234,234,234;,
  4;200,200,200,200;,
  4;226,226,192,192;,
  4;226,192,214,214;,
  4;229,212,212,229;,
  4;227,227,227,227;,
  4;227,227,215,215;,
  4;228,255,254,262;,
  4;228,262,263,228;,
  4;231,231,230,230;,
  4;232,226,226,233;,
  4;232,233,264,236;,
  4;234,234,234,234;,
  4;200,200,200,200;,
  4;200,200,200,200;,
  4;265,266,267,268;,
  4;265,268,228,228;,
  4;235,235,227,227;,
  4;239,192,192,226;,
  4;229,229,229,229;,
  4;269,269,228,263;,
  4;234,234,234,234;,
  4;234,234,234,234;,
  4;236,270,271,237;,
  4;236,237,232,236;,
  4;230,230,230,230;,
  4;230,230,231,231;,
  4;238,238,238,238;,
  4;266,266,265,272;,
  4;266,272,273,267;,
  4;239,240,237,271;,
  4;234,234,234,234;,
  4;241,241,273,272;,
  4;274,274,274,274;,
  4;275,275,275,275;,
  4;192,192,192,192;,
  4;201,201,201,201;,
  4;225,225,225,225;,
  4;208,208,208,208;,
  4;234,234,234,234;,
  4;200,200,200,200;,
  4;192,192,192,192;,
  4;201,201,201,201;,
  4;225,225,225,225;,
  4;208,208,208,208;,
  4;234,234,234,234;,
  4;200,200,200,200;,
  4;304,280,277,306;,
  4;309,308,276,281;,
  4;299,300,278,282;,
  4;299,282,280,304;,
  4;297,309,281,283;,
  4;297,283,279,302;,
  4;284,285,335,336;,
  4;337,338,339,340;,
  4;286,286,286,286;,
  4;287,341,287,287;,
  4;288,342,292,289;,
  4;288,289,285,284;,
  4;286,286,337,286;,
  4;286,286,286,286;,
  4;324,324,324,324;,
  4;324,324,324,324;,
  4;286,286,286,286;,
  4;286,286,286,286;,
  4;290,290,290,290;,
  4;286,286,286,286;,
  4;287,287,287,287;,
  4;287,287,287,341;,
  4;278,278,278,278;,
  4;293,293,293,293;,
  4;291,291,281,276;,
  4;335,335,335,285;,
  4;286,286,286,286;,
  4;278,278,278,278;,
  4;287,287,287,287;,
  4;295,295,279,283;,
  4;343,343,343,343;,
  4;286,286,286,286;,
  4;292,292,289,292;,
  4;277,277,277,280;,
  4;296,296,296,296;,
  4;344,344,344,344;,
  4;286,286,286,286;,
  4;294,294,294,294;,
  4;278,278,282,278;,
  4;287,287,287,287;,
  4;345,345,345,345;,
  4;286,286,286,286;,
  4;298,298,346,346;,
  4;300,300,300,299;,
  4;301,301,341,341;,
  4;347,348,297,302;,
  4;339,349,349,340;,
  4;303,303,303,303;,
  4;305,304,306,305;,
  4;307,342,336,307;,
  4;350,308,309,351;,
  4;324,352,324,324;,
  4;338,337,286,286;,
  4;310,310,310,310;,
  4;311,311,311,311;,
  4;353,353,353,353;,
  4;348,351,309,297;,
  4;354,354,354,352;,
  4;338,355,355,339;,
  4;312,312,312,312;,
  4;287,287,287,287;,
  4;313,313,313,313;,
  4;294,294,294,294;,
  4;324,324,324,324;,
  4;286,286,286,286;,
  4;314,314,314,314;,
  4;287,287,287,287;,
  4;315,315,315,315;,
  4;294,294,294,294;,
  4;324,324,324,324;,
  4;286,286,286,286;,
  4;312,312,312,312;,
  4;287,287,287,287;,
  4;313,313,313,313;,
  4;294,294,294,294;,
  4;324,324,324,324;,
  4;286,286,286,286;,
  4;316,316,278,278;,
  4;316,278,300,300;,
  4;319,298,298,319;,
  4;317,317,317,317;,
  4;317,317,301,301;,
  4;356,348,347,357;,
  4;356,357,357,318;,
  4;321,321,320,320;,
  4;322,316,316,323;,
  4;322,323,358,325;,
  4;324,324,324,324;,
  4;286,286,286,286;,
  4;286,286,286,286;,
  4;359,360,361,362;,
  4;359,362,356,318;,
  4;317,317,317,317;,
  4;328,278,278,316;,
  4;319,319,319,319;,
  4;357,357,318,357;,
  4;324,324,324,324;,
  4;324,324,324,324;,
  4;325,358,363,326;,
  4;325,326,322,325;,
  4;320,320,320,320;,
  4;320,320,364,364;,
  4;327,327,327,327;,
  4;360,360,359,365;,
  4;360,365,366,367;,
  4;328,329,326,363;,
  4;324,324,324,324;,
  4;330,330,366,365;,
  4;368,368,368,368;,
  4;369,369,369,369;,
  4;331,331,331,331;,
  4;287,287,287,287;,
  4;332,332,332,332;,
  4;294,294,294,294;,
  4;324,324,324,324;,
  4;286,286,286,286;,
  4;333,333,333,333;,
  4;287,287,287,287;,
  4;334,334,334,334;,
  4;294,294,294,294;,
  4;324,324,324,324;,
  4;286,286,286,286;;
 }
 MeshTextureCoords {
  1064;
  1.000000;1.000000;,
  1.000000;1.000000;,
  1.000000;0.000000;,
  1.000000;0.000000;,
  0.000000;0.000000;,
  0.000000;0.000000;,
  0.000000;1.000000;,
  0.000000;1.000000;,
  1.000000;1.000000;,
  0.000000;1.000000;,
  0.000000;1.000000;,
  1.000000;1.000000;,
  1.000000;1.000000;,
  1.000000;1.000000;,
  0.000000;1.000000;,
  0.000000;1.000000;,
  1.000000;0.000000;,
  0.000000;0.000000;,
  1.000000;1.000000;,
  0.000000;1.000000;,
  1.000000;1.000000;,
  1.000000;1.000000;,
  0.000000;1.000000;,
  0.000000;1.000000;,
  1.000000;1.000000;,
  1.000000;1.000000;,
  0.000000;1.000000;,
  0.000000;1.000000;,
  1.000000;1.000000;,
  0.000000;1.000000;,
  0.000000;1.000000;,
  0.000000;0.000000;,
  1.000000;0.000000;,
  1.000000;1.000000;,
  0.000000;1.000000;,
  0.000000;0.000000;,
  1.000000;0.000000;,
  1.000000;1.000000;,
  0.000000;1.000000;,
  0.000000;0.000000;,
  1.000000;0.000000;,
  1.000000;1.000000;,
  0.000000;1.000000;,
  0.000000;0.000000;,
  1.000000;0.000000;,
  1.000000;1.000000;,
  0.000000;1.000000;,
  1.000000;1.000000;,
  0.000000;1.000000;,
  0.000000;0.000000;,
  1.000000;0.000000;,
  0.000000;0.000000;,
  1.000000;0.000000;,
  1.000000;1.000000;,
  0.000000;1.000000;,
  1.000000;1.000000;,
  0.000000;1.000000;,
  0.000000;1.000000;,
  1.000000;1.000000;,
  0.000000;1.000000;,
  1.000000;1.000000;,
  0.000000;1.000000;,
  1.000000;1.000000;,
  0.078510;0.000000;,
  0.078510;1.000000;,
  0.000000;1.000000;,
  0.000000;0.000000;,
  0.921490;0.000000;,
  1.000000;0.000000;,
  1.000000;1.000000;,
  0.921490;1.000000;,
  0.899170;0.000000;,
  1.000000;0.000000;,
  1.000000;1.000000;,
  0.899170;1.000000;,
  0.100830;0.000000;,
  0.100830;1.000000;,
  0.000000;1.000000;,
  0.000000;0.000000;,
  0.149140;0.000000;,
  0.149140;1.000000;,
  0.000000;1.000000;,
  0.000000;0.000000;,
  0.149140;0.921490;,
  0.000000;0.921490;,
  0.000000;0.100830;,
  0.149140;0.100830;,
  0.149140;0.078510;,
  0.149140;0.899170;,
  0.000000;0.899170;,
  0.000000;0.078510;,
  0.850860;0.000000;,
  1.000000;0.000000;,
  1.000000;1.000000;,
  0.850860;1.000000;,
  0.850860;0.000000;,
  1.000000;0.000000;,
  1.000000;1.000000;,
  0.850860;1.000000;,
  0.850860;1.000000;,
  0.149140;1.000000;,
  0.850860;0.921490;,
  0.850860;0.000000;,
  0.850860;0.078510;,
  0.149140;0.000000;,
  0.850860;0.100830;,
  1.000000;0.100830;,
  1.000000;0.921490;,
  1.000000;0.078510;,
  1.000000;0.899170;,
  0.850860;0.899170;,
  0.149140;0.000000;,
  0.850860;0.000000;,
  0.850860;1.000000;,
  0.149140;1.000000;,
  0.149140;0.000000;,
  0.149140;1.000000;,
  0.000000;1.000000;,
  0.000000;0.000000;,
  0.149140;0.078510;,
  0.149140;0.000000;,
  0.000000;0.078510;,
  0.000000;0.000000;,
  0.000000;0.000000;,
  0.149140;1.000000;,
  0.149140;0.899170;,
  0.000000;1.000000;,
  0.000000;0.899170;,
  1.000000;0.000000;,
  0.850860;0.000000;,
  1.000000;0.000000;,
  1.000000;0.078510;,
  0.850860;0.078510;,
  1.000000;0.899170;,
  0.850860;0.899170;,
  1.000000;1.000000;,
  0.850860;1.000000;,
  0.000000;0.000000;,
  1.000000;0.000000;,
  1.000000;1.000000;,
  0.000000;1.000000;,
  0.000000;0.000000;,
  1.000000;0.000000;,
  1.000000;1.000000;,
  0.000000;1.000000;,
  0.000000;0.000000;,
  1.000000;0.000000;,
  1.000000;1.000000;,
  0.000000;1.000000;,
  0.000000;0.000000;,
  1.000000;0.000000;,
  1.000000;1.000000;,
  0.000000;1.000000;,
  0.000000;0.000000;,
  1.000000;0.000000;,
  0.000000;0.000000;,
  0.000000;1.000000;,
  1.000000;1.000000;,
  1.000000;0.000000;,
  0.000000;0.000000;,
  0.000000;1.000000;,
  1.000000;1.000000;,
  1.000000;0.000000;,
  0.000000;0.000000;,
  0.000000;1.000000;,
  1.000000;1.000000;,
  1.000000;0.000000;,
  0.000000;0.000000;,
  0.000000;1.000000;,
  1.000000;1.000000;,
  1.000000;0.000000;,
  0.000000;1.000000;,
  1.000000;1.000000;,
  0.000000;0.000000;,
  1.000000;0.000000;,
  1.000000;0.000000;,
  1.000000;1.000000;,
  0.000000;0.000000;,
  1.000000;0.000000;,
  1.000000;1.000000;,
  0.000000;1.000000;,
  0.000000;0.000000;,
  0.000000;1.000000;,
  1.000000;0.000000;,
  0.000000;0.000000;,
  1.000000;0.000000;,
  1.000000;1.000000;,
  0.000000;1.000000;,
  0.000000;0.000000;,
  1.000000;0.000000;,
  1.000000;1.000000;,
  0.000000;1.000000;,
  0.000000;0.000000;,
  1.000000;0.000000;,
  1.000000;1.000000;,
  0.000000;1.000000;,
  0.000000;0.000000;,
  1.000000;0.000000;,
  1.000000;1.000000;,
  0.000000;1.000000;,
  1.000000;1.000000;,
  0.000000;1.000000;,
  0.000000;0.000000;,
  1.000000;0.000000;,
  0.000000;0.000000;,
  1.000000;0.000000;,
  1.000000;1.000000;,
  0.000000;1.000000;,
  0.000000;0.000000;,
  1.000000;0.000000;,
  1.000000;1.000000;,
  0.000000;1.000000;,
  0.000000;0.000000;,
  1.000000;0.000000;,
  1.000000;1.000000;,
  0.000000;1.000000;,
  0.000000;0.000000;,
  1.000000;0.000000;,
  1.000000;1.000000;,
  0.000000;1.000000;,
  1.000000;1.000000;,
  0.000000;1.000000;,
  0.000000;0.000000;,
  1.000000;0.000000;,
  0.000000;0.000000;,
  1.000000;0.000000;,
  1.000000;1.000000;,
  0.000000;1.000000;,
  0.000000;0.000000;,
  1.000000;0.000000;,
  1.000000;1.000000;,
  0.000000;1.000000;,
  0.000000;0.000000;,
  1.000000;0.000000;,
  1.000000;1.000000;,
  0.000000;1.000000;,
  0.000000;0.000000;,
  1.000000;0.000000;,
  1.000000;1.000000;,
  0.000000;1.000000;,
  1.000000;1.000000;,
  0.000000;1.000000;,
  0.000000;0.000000;,
  1.000000;0.000000;,
  0.000000;0.000000;,
  1.000000;0.000000;,
  1.000000;1.000000;,
  0.000000;1.000000;,
  1.000000;0.000000;,
  0.000000;0.000000;,
  1.000000;1.000000;,
  1.000000;1.000000;,
  0.000000;1.000000;,
  0.850860;0.899170;,
  0.850860;1.000000;,
  0.149140;1.000000;,
  0.149140;0.899170;,
  0.000000;0.000000;,
  1.000000;0.000000;,
  1.000000;1.000000;,
  0.000000;1.000000;,
  0.000000;0.000000;,
  1.000000;0.000000;,
  1.000000;1.000000;,
  0.000000;1.000000;,
  0.000000;0.000000;,
  1.000000;0.000000;,
  1.000000;1.000000;,
  0.000000;1.000000;,
  0.000000;0.000000;,
  1.000000;0.000000;,
  1.000000;1.000000;,
  0.000000;1.000000;,
  1.000000;1.000000;,
  0.000000;1.000000;,
  0.000000;0.000000;,
  1.000000;0.000000;,
  1.000000;1.000000;,
  1.000000;1.000000;,
  1.000000;0.000000;,
  1.000000;0.000000;,
  0.000000;0.000000;,
  0.000000;0.000000;,
  0.000000;1.000000;,
  0.000000;1.000000;,
  1.000000;1.000000;,
  0.000000;1.000000;,
  0.000000;1.000000;,
  1.000000;1.000000;,
  1.000000;1.000000;,
  1.000000;1.000000;,
  0.000000;1.000000;,
  0.000000;1.000000;,
  1.000000;0.000000;,
  0.000000;0.000000;,
  1.000000;1.000000;,
  0.000000;1.000000;,
  1.000000;1.000000;,
  1.000000;1.000000;,
  0.000000;1.000000;,
  0.000000;1.000000;,
  1.000000;1.000000;,
  1.000000;1.000000;,
  0.000000;1.000000;,
  0.000000;1.000000;,
  1.000000;1.000000;,
  0.000000;1.000000;,
  0.000000;1.000000;,
  0.000000;0.000000;,
  1.000000;0.000000;,
  1.000000;1.000000;,
  0.000000;1.000000;,
  0.000000;0.000000;,
  1.000000;0.000000;,
  1.000000;1.000000;,
  0.000000;1.000000;,
  0.000000;0.000000;,
  1.000000;0.000000;,
  1.000000;1.000000;,
  0.000000;1.000000;,
  0.000000;0.000000;,
  1.000000;0.000000;,
  1.000000;1.000000;,
  0.000000;1.000000;,
  1.000000;1.000000;,
  0.000000;1.000000;,
  0.000000;0.000000;,
  1.000000;0.000000;,
  0.000000;0.000000;,
  1.000000;0.000000;,
  1.000000;1.000000;,
  0.000000;1.000000;,
  1.000000;1.000000;,
  0.000000;1.000000;,
  0.000000;1.000000;,
  1.000000;1.000000;,
  0.000000;1.000000;,
  1.000000;1.000000;,
  0.000000;1.000000;,
  1.000000;1.000000;,
  0.078510;0.000000;,
  0.078510;1.000000;,
  0.000000;1.000000;,
  0.000000;0.000000;,
  0.921490;0.000000;,
  1.000000;0.000000;,
  1.000000;1.000000;,
  0.921490;1.000000;,
  0.899170;0.000000;,
  1.000000;0.000000;,
  1.000000;1.000000;,
  0.899170;1.000000;,
  0.100830;0.000000;,
  0.100830;1.000000;,
  0.000000;1.000000;,
  0.000000;0.000000;,
  0.149140;0.000000;,
  0.149140;1.000000;,
  0.000000;1.000000;,
  0.000000;0.000000;,
  0.149140;0.921490;,
  0.000000;0.921490;,
  0.000000;0.100830;,
  0.149140;0.100830;,
  0.149140;0.078510;,
  0.149140;0.899170;,
  0.000000;0.899170;,
  0.000000;0.078510;,
  0.850860;0.000000;,
  1.000000;0.000000;,
  1.000000;1.000000;,
  0.850860;1.000000;,
  0.850860;0.000000;,
  1.000000;0.000000;,
  1.000000;1.000000;,
  0.850860;1.000000;,
  0.850860;1.000000;,
  0.149140;1.000000;,
  0.850860;0.921490;,
  0.850860;0.000000;,
  0.850860;0.078510;,
  0.149140;0.000000;,
  0.850860;0.100830;,
  1.000000;0.100830;,
  1.000000;0.921490;,
  1.000000;0.078510;,
  1.000000;0.899170;,
  0.850860;0.899170;,
  0.149140;0.000000;,
  0.850860;0.000000;,
  0.850860;1.000000;,
  0.149140;1.000000;,
  0.149140;0.000000;,
  0.149140;1.000000;,
  0.000000;1.000000;,
  0.000000;0.000000;,
  0.149140;0.078510;,
  0.149140;0.000000;,
  0.000000;0.078510;,
  0.000000;0.000000;,
  0.000000;0.000000;,
  0.149140;1.000000;,
  0.149140;0.899170;,
  0.000000;1.000000;,
  0.000000;0.899170;,
  1.000000;0.000000;,
  0.850860;0.000000;,
  1.000000;0.000000;,
  1.000000;0.078510;,
  0.850860;0.078510;,
  1.000000;0.899170;,
  0.850860;0.899170;,
  1.000000;1.000000;,
  0.850860;1.000000;,
  0.000000;0.000000;,
  1.000000;0.000000;,
  1.000000;1.000000;,
  0.000000;1.000000;,
  0.000000;0.000000;,
  1.000000;0.000000;,
  1.000000;1.000000;,
  0.000000;1.000000;,
  0.000000;0.000000;,
  1.000000;0.000000;,
  1.000000;1.000000;,
  0.000000;1.000000;,
  0.000000;0.000000;,
  1.000000;0.000000;,
  1.000000;1.000000;,
  0.000000;1.000000;,
  0.000000;0.000000;,
  1.000000;0.000000;,
  0.000000;0.000000;,
  0.000000;1.000000;,
  1.000000;1.000000;,
  1.000000;0.000000;,
  0.000000;0.000000;,
  0.000000;1.000000;,
  1.000000;1.000000;,
  1.000000;0.000000;,
  0.000000;0.000000;,
  0.000000;1.000000;,
  1.000000;1.000000;,
  1.000000;0.000000;,
  0.000000;0.000000;,
  0.000000;1.000000;,
  1.000000;1.000000;,
  1.000000;0.000000;,
  0.000000;1.000000;,
  1.000000;1.000000;,
  0.000000;0.000000;,
  1.000000;0.000000;,
  1.000000;0.000000;,
  1.000000;1.000000;,
  0.000000;0.000000;,
  1.000000;0.000000;,
  1.000000;1.000000;,
  0.000000;1.000000;,
  0.000000;0.000000;,
  0.000000;1.000000;,
  1.000000;0.000000;,
  0.000000;0.000000;,
  1.000000;0.000000;,
  1.000000;1.000000;,
  0.000000;1.000000;,
  0.000000;0.000000;,
  1.000000;0.000000;,
  1.000000;1.000000;,
  0.000000;1.000000;,
  0.000000;0.000000;,
  1.000000;0.000000;,
  1.000000;1.000000;,
  0.000000;1.000000;,
  0.000000;0.000000;,
  1.000000;0.000000;,
  1.000000;1.000000;,
  0.000000;1.000000;,
  1.000000;1.000000;,
  0.000000;1.000000;,
  0.000000;0.000000;,
  1.000000;0.000000;,
  0.000000;0.000000;,
  1.000000;0.000000;,
  1.000000;1.000000;,
  0.000000;1.000000;,
  0.000000;0.000000;,
  1.000000;0.000000;,
  1.000000;1.000000;,
  0.000000;1.000000;,
  0.000000;0.000000;,
  1.000000;0.000000;,
  1.000000;1.000000;,
  0.000000;1.000000;,
  0.000000;0.000000;,
  1.000000;0.000000;,
  1.000000;1.000000;,
  0.000000;1.000000;,
  1.000000;1.000000;,
  0.000000;1.000000;,
  0.000000;0.000000;,
  1.000000;0.000000;,
  0.000000;0.000000;,
  1.000000;0.000000;,
  1.000000;1.000000;,
  0.000000;1.000000;,
  0.000000;0.000000;,
  1.000000;0.000000;,
  1.000000;1.000000;,
  0.000000;1.000000;,
  0.000000;0.000000;,
  1.000000;0.000000;,
  1.000000;1.000000;,
  0.000000;1.000000;,
  0.000000;0.000000;,
  1.000000;0.000000;,
  1.000000;1.000000;,
  0.000000;1.000000;,
  1.000000;1.000000;,
  0.000000;1.000000;,
  0.000000;0.000000;,
  1.000000;0.000000;,
  0.000000;0.000000;,
  1.000000;0.000000;,
  1.000000;1.000000;,
  0.000000;1.000000;,
  1.000000;0.000000;,
  0.000000;0.000000;,
  1.000000;1.000000;,
  1.000000;1.000000;,
  0.000000;1.000000;,
  0.850860;0.899170;,
  0.850860;1.000000;,
  0.149140;1.000000;,
  0.149140;0.899170;,
  0.000000;0.000000;,
  1.000000;0.000000;,
  1.000000;1.000000;,
  0.000000;1.000000;,
  0.000000;0.000000;,
  1.000000;0.000000;,
  1.000000;1.000000;,
  0.000000;1.000000;,
  0.000000;0.000000;,
  1.000000;0.000000;,
  1.000000;1.000000;,
  0.000000;1.000000;,
  0.000000;0.000000;,
  1.000000;0.000000;,
  1.000000;1.000000;,
  0.000000;1.000000;,
  1.000000;1.000000;,
  0.000000;1.000000;,
  0.000000;0.000000;,
  1.000000;0.000000;,
  0.078510;0.000000;,
  0.078510;1.000000;,
  0.000000;1.000000;,
  0.000000;0.000000;,
  0.921490;0.000000;,
  1.000000;0.000000;,
  1.000000;1.000000;,
  0.921490;1.000000;,
  0.899170;0.000000;,
  1.000000;0.000000;,
  1.000000;1.000000;,
  0.899170;1.000000;,
  0.100830;0.000000;,
  0.100830;1.000000;,
  0.000000;1.000000;,
  0.000000;0.000000;,
  0.149140;0.000000;,
  0.149140;1.000000;,
  0.000000;1.000000;,
  0.000000;0.000000;,
  0.149140;0.921490;,
  0.000000;0.921490;,
  0.000000;0.100830;,
  0.149140;0.100830;,
  0.149140;0.078510;,
  0.149140;0.899170;,
  0.000000;0.899170;,
  0.000000;0.078510;,
  0.850860;0.000000;,
  1.000000;0.000000;,
  1.000000;1.000000;,
  0.850860;1.000000;,
  0.850860;0.000000;,
  1.000000;0.000000;,
  1.000000;1.000000;,
  0.850860;1.000000;,
  0.850860;1.000000;,
  0.149140;1.000000;,
  0.850860;0.921490;,
  0.850860;0.000000;,
  0.850860;0.078510;,
  0.149140;0.000000;,
  0.850860;0.100830;,
  1.000000;0.100830;,
  1.000000;0.921490;,
  1.000000;0.078510;,
  1.000000;0.899170;,
  0.850860;0.899170;,
  0.149140;0.000000;,
  0.850860;0.000000;,
  0.850860;1.000000;,
  0.149140;1.000000;,
  0.149140;0.000000;,
  0.149140;1.000000;,
  0.000000;1.000000;,
  0.000000;0.000000;,
  0.149140;0.078510;,
  0.149140;0.000000;,
  0.000000;0.078510;,
  0.000000;0.000000;,
  0.000000;0.000000;,
  0.149140;1.000000;,
  0.149140;0.899170;,
  0.000000;1.000000;,
  0.000000;0.899170;,
  1.000000;0.000000;,
  0.850860;0.000000;,
  1.000000;0.000000;,
  1.000000;0.078510;,
  0.850860;0.078510;,
  1.000000;0.899170;,
  0.850860;0.899170;,
  1.000000;1.000000;,
  0.850860;1.000000;,
  0.000000;0.000000;,
  1.000000;0.000000;,
  1.000000;1.000000;,
  0.000000;1.000000;,
  0.000000;0.000000;,
  1.000000;0.000000;,
  1.000000;1.000000;,
  0.000000;1.000000;,
  0.000000;0.000000;,
  1.000000;0.000000;,
  1.000000;1.000000;,
  0.000000;1.000000;,
  0.000000;0.000000;,
  1.000000;0.000000;,
  1.000000;1.000000;,
  0.000000;1.000000;,
  0.000000;0.000000;,
  1.000000;0.000000;,
  0.000000;0.000000;,
  0.000000;1.000000;,
  1.000000;1.000000;,
  1.000000;0.000000;,
  0.000000;0.000000;,
  0.000000;1.000000;,
  1.000000;1.000000;,
  1.000000;0.000000;,
  0.000000;0.000000;,
  0.000000;1.000000;,
  1.000000;1.000000;,
  1.000000;0.000000;,
  0.000000;0.000000;,
  0.000000;1.000000;,
  1.000000;1.000000;,
  1.000000;0.000000;,
  0.000000;1.000000;,
  1.000000;1.000000;,
  0.000000;0.000000;,
  1.000000;0.000000;,
  1.000000;0.000000;,
  1.000000;1.000000;,
  0.000000;0.000000;,
  1.000000;0.000000;,
  1.000000;1.000000;,
  0.000000;1.000000;,
  0.000000;0.000000;,
  0.000000;1.000000;,
  1.000000;1.000000;,
  1.000000;0.000000;,
  0.000000;0.000000;,
  1.000000;0.000000;,
  1.000000;1.000000;,
  0.000000;1.000000;,
  0.000000;0.000000;,
  1.000000;0.000000;,
  1.000000;1.000000;,
  0.000000;1.000000;,
  0.000000;0.000000;,
  1.000000;0.000000;,
  1.000000;1.000000;,
  0.000000;1.000000;,
  0.000000;0.000000;,
  1.000000;0.000000;,
  1.000000;1.000000;,
  0.000000;1.000000;,
  1.000000;1.000000;,
  0.000000;1.000000;,
  0.000000;0.000000;,
  1.000000;0.000000;,
  0.000000;0.000000;,
  1.000000;0.000000;,
  1.000000;1.000000;,
  0.000000;1.000000;,
  0.000000;0.000000;,
  1.000000;0.000000;,
  1.000000;1.000000;,
  0.000000;1.000000;,
  0.000000;0.000000;,
  1.000000;0.000000;,
  1.000000;1.000000;,
  0.000000;1.000000;,
  0.000000;0.000000;,
  1.000000;0.000000;,
  1.000000;1.000000;,
  0.000000;1.000000;,
  1.000000;1.000000;,
  0.000000;1.000000;,
  0.000000;0.000000;,
  1.000000;0.000000;,
  0.000000;0.000000;,
  1.000000;0.000000;,
  1.000000;1.000000;,
  0.000000;1.000000;,
  0.000000;0.000000;,
  1.000000;0.000000;,
  1.000000;1.000000;,
  0.000000;1.000000;,
  0.000000;0.000000;,
  1.000000;0.000000;,
  1.000000;1.000000;,
  0.000000;1.000000;,
  0.000000;0.000000;,
  1.000000;0.000000;,
  1.000000;1.000000;,
  0.000000;1.000000;,
  1.000000;1.000000;,
  0.000000;1.000000;,
  0.000000;0.000000;,
  1.000000;0.000000;,
  1.000000;1.000000;,
  1.000000;1.000000;,
  1.000000;0.000000;,
  1.000000;0.000000;,
  1.000000;1.000000;,
  0.000000;1.000000;,
  0.000000;1.000000;,
  0.000000;0.000000;,
  0.000000;0.000000;,
  0.000000;1.000000;,
  1.000000;1.000000;,
  0.000000;1.000000;,
  0.000000;1.000000;,
  1.000000;1.000000;,
  1.000000;1.000000;,
  1.000000;1.000000;,
  0.000000;1.000000;,
  0.000000;1.000000;,
  1.000000;0.000000;,
  0.000000;0.000000;,
  1.000000;1.000000;,
  0.000000;1.000000;,
  1.000000;1.000000;,
  1.000000;1.000000;,
  0.000000;1.000000;,
  0.000000;1.000000;,
  1.000000;1.000000;,
  1.000000;1.000000;,
  0.000000;1.000000;,
  0.000000;1.000000;,
  1.000000;1.000000;,
  0.000000;1.000000;,
  0.000000;1.000000;,
  0.000000;0.000000;,
  1.000000;0.000000;,
  1.000000;1.000000;,
  0.000000;1.000000;,
  0.000000;0.000000;,
  1.000000;0.000000;,
  1.000000;1.000000;,
  0.000000;1.000000;,
  0.000000;0.000000;,
  1.000000;0.000000;,
  1.000000;1.000000;,
  0.000000;1.000000;,
  0.000000;0.000000;,
  1.000000;0.000000;,
  1.000000;1.000000;,
  0.000000;1.000000;,
  1.000000;1.000000;,
  0.000000;1.000000;,
  0.000000;0.000000;,
  1.000000;0.000000;,
  0.000000;0.000000;,
  1.000000;0.000000;,
  1.000000;1.000000;,
  0.000000;1.000000;,
  0.000000;0.000000;,
  1.000000;0.000000;,
  1.000000;1.000000;,
  0.000000;1.000000;,
  0.000000;0.000000;,
  1.000000;0.000000;,
  1.000000;1.000000;,
  0.000000;1.000000;,
  0.000000;0.000000;,
  1.000000;0.000000;,
  1.000000;1.000000;,
  0.000000;1.000000;,
  1.000000;1.000000;,
  0.000000;1.000000;,
  0.000000;0.000000;,
  1.000000;0.000000;,
  0.078510;0.000000;,
  0.078510;1.000000;,
  0.000000;1.000000;,
  0.000000;0.000000;,
  0.921490;0.000000;,
  1.000000;0.000000;,
  1.000000;1.000000;,
  0.921490;1.000000;,
  0.899170;0.000000;,
  1.000000;0.000000;,
  1.000000;1.000000;,
  0.899170;1.000000;,
  0.100830;0.000000;,
  0.100830;1.000000;,
  0.000000;1.000000;,
  0.000000;0.000000;,
  0.149140;0.000000;,
  0.149140;1.000000;,
  0.000000;1.000000;,
  0.000000;0.000000;,
  0.149140;0.921490;,
  0.000000;0.921490;,
  0.000000;0.100830;,
  0.149140;0.100830;,
  0.149140;0.078510;,
  0.149140;0.899170;,
  0.000000;0.899170;,
  0.000000;0.078510;,
  0.850860;0.000000;,
  1.000000;0.000000;,
  1.000000;1.000000;,
  0.850860;1.000000;,
  0.850860;0.000000;,
  1.000000;0.000000;,
  1.000000;1.000000;,
  0.850860;1.000000;,
  0.850860;1.000000;,
  0.149140;1.000000;,
  0.850860;0.921490;,
  0.850860;0.000000;,
  0.850860;0.078510;,
  0.149140;0.000000;,
  0.850860;0.100830;,
  1.000000;0.100830;,
  1.000000;0.921490;,
  1.000000;0.078510;,
  1.000000;0.899170;,
  0.850860;0.899170;,
  0.149140;0.000000;,
  0.850860;0.000000;,
  0.850860;1.000000;,
  0.149140;1.000000;,
  0.149140;0.000000;,
  0.149140;1.000000;,
  0.000000;1.000000;,
  0.000000;0.000000;,
  0.149140;0.078510;,
  0.149140;0.000000;,
  0.000000;0.078510;,
  0.000000;0.000000;,
  0.000000;0.000000;,
  0.149140;1.000000;,
  0.149140;0.899170;,
  0.000000;1.000000;,
  0.000000;0.899170;,
  1.000000;0.000000;,
  0.850860;0.000000;,
  1.000000;0.000000;,
  1.000000;0.078510;,
  0.850860;0.078510;,
  1.000000;0.899170;,
  0.850860;0.899170;,
  1.000000;1.000000;,
  0.850860;1.000000;,
  0.000000;0.000000;,
  1.000000;0.000000;,
  1.000000;1.000000;,
  0.000000;1.000000;,
  0.000000;0.000000;,
  1.000000;0.000000;,
  1.000000;1.000000;,
  0.000000;1.000000;,
  0.000000;0.000000;,
  1.000000;0.000000;,
  1.000000;1.000000;,
  0.000000;1.000000;,
  0.000000;0.000000;,
  1.000000;0.000000;,
  1.000000;1.000000;,
  0.000000;1.000000;,
  0.000000;0.000000;,
  1.000000;0.000000;,
  0.000000;0.000000;,
  0.000000;1.000000;,
  1.000000;1.000000;,
  1.000000;0.000000;,
  0.000000;0.000000;,
  0.000000;1.000000;,
  1.000000;1.000000;,
  1.000000;0.000000;,
  0.000000;0.000000;,
  0.000000;1.000000;,
  1.000000;1.000000;,
  1.000000;0.000000;,
  0.000000;0.000000;,
  0.000000;1.000000;,
  1.000000;1.000000;,
  1.000000;0.000000;,
  0.000000;1.000000;,
  1.000000;1.000000;,
  0.000000;0.000000;,
  1.000000;0.000000;,
  1.000000;0.000000;,
  1.000000;1.000000;,
  0.000000;0.000000;,
  1.000000;0.000000;,
  1.000000;1.000000;,
  0.000000;1.000000;,
  0.000000;0.000000;,
  0.000000;1.000000;,
  1.000000;1.000000;,
  1.000000;0.000000;,
  0.000000;0.000000;,
  1.000000;0.000000;,
  1.000000;1.000000;,
  0.000000;1.000000;,
  0.000000;0.000000;,
  1.000000;0.000000;,
  1.000000;1.000000;,
  0.000000;1.000000;,
  0.000000;0.000000;,
  1.000000;0.000000;,
  1.000000;1.000000;,
  0.000000;1.000000;,
  0.000000;0.000000;,
  1.000000;0.000000;,
  1.000000;1.000000;,
  0.000000;1.000000;,
  1.000000;1.000000;,
  0.000000;1.000000;,
  0.000000;0.000000;,
  1.000000;0.000000;,
  0.000000;0.000000;,
  1.000000;0.000000;,
  1.000000;1.000000;,
  0.000000;1.000000;,
  0.000000;0.000000;,
  1.000000;0.000000;,
  1.000000;1.000000;,
  0.000000;1.000000;,
  0.000000;0.000000;,
  1.000000;0.000000;,
  1.000000;1.000000;,
  0.000000;1.000000;,
  0.000000;0.000000;,
  1.000000;0.000000;,
  1.000000;1.000000;,
  0.000000;1.000000;,
  1.000000;1.000000;,
  0.000000;1.000000;,
  0.000000;0.000000;,
  1.000000;0.000000;,
  0.000000;0.000000;,
  1.000000;0.000000;,
  1.000000;1.000000;,
  0.000000;1.000000;,
  0.000000;0.000000;,
  1.000000;0.000000;,
  1.000000;1.000000;,
  0.000000;1.000000;,
  0.000000;0.000000;,
  1.000000;0.000000;,
  1.000000;1.000000;,
  0.000000;1.000000;,
  0.000000;0.000000;,
  1.000000;0.000000;,
  1.000000;1.000000;,
  0.000000;1.000000;,
  1.000000;1.000000;,
  0.000000;1.000000;,
  0.000000;0.000000;,
  1.000000;0.000000;,
  1.000000;1.000000;,
  1.000000;1.000000;,
  1.000000;0.000000;,
  1.000000;0.000000;,
  1.000000;1.000000;,
  0.000000;1.000000;,
  0.000000;1.000000;,
  0.000000;0.000000;,
  0.000000;0.000000;,
  0.000000;1.000000;,
  1.000000;1.000000;,
  0.000000;1.000000;,
  0.000000;1.000000;,
  1.000000;1.000000;,
  1.000000;1.000000;,
  1.000000;1.000000;,
  0.000000;1.000000;,
  0.000000;1.000000;,
  1.000000;0.000000;,
  0.000000;0.000000;,
  1.000000;1.000000;,
  0.000000;1.000000;,
  1.000000;1.000000;,
  1.000000;1.000000;,
  0.000000;1.000000;,
  0.000000;1.000000;,
  1.000000;1.000000;,
  1.000000;1.000000;,
  0.000000;1.000000;,
  0.000000;1.000000;,
  1.000000;1.000000;,
  0.000000;1.000000;,
  0.000000;1.000000;,
  0.000000;0.000000;,
  1.000000;0.000000;,
  1.000000;1.000000;,
  0.000000;1.000000;,
  0.000000;0.000000;,
  1.000000;0.000000;,
  1.000000;1.000000;,
  0.000000;1.000000;,
  0.000000;0.000000;,
  1.000000;0.000000;,
  1.000000;1.000000;,
  0.000000;1.000000;,
  0.000000;0.000000;,
  1.000000;0.000000;,
  1.000000;1.000000;,
  0.000000;1.000000;,
  1.000000;1.000000;,
  0.000000;1.000000;,
  0.000000;0.000000;,
  1.000000;0.000000;,
  0.000000;0.000000;,
  1.000000;0.000000;,
  1.000000;1.000000;,
  0.000000;1.000000;,
  0.000000;0.000000;,
  1.000000;0.000000;,
  1.000000;1.000000;,
  0.000000;1.000000;,
  0.000000;0.000000;,
  1.000000;0.000000;,
  1.000000;1.000000;,
  0.000000;1.000000;,
  0.000000;0.000000;,
  1.000000;0.000000;,
  1.000000;1.000000;,
  0.000000;1.000000;,
  1.000000;1.000000;,
  0.000000;1.000000;,
  0.000000;0.000000;,
  1.000000;0.000000;;
 }
}
