xof 0302txt 0064
template Header {
 <3D82AB43-62DA-11cf-AB39-0020AF71E433>
 WORD major;
 WORD minor;
 DWORD flags;
}

template Vector {
 <3D82AB5E-62DA-11cf-AB39-0020AF71E433>
 FLOAT x;
 FLOAT y;
 FLOAT z;
}

template Coords2d {
 <F6F23F44-7686-11cf-8F52-0040333594A3>
 FLOAT u;
 FLOAT v;
}

template Matrix4x4 {
 <F6F23F45-7686-11cf-8F52-0040333594A3>
 array FLOAT matrix[16];
}

template ColorRGBA {
 <35FF44E0-6C7C-11cf-8F52-0040333594A3>
 FLOAT red;
 FLOAT green;
 FLOAT blue;
 FLOAT alpha;
}

template ColorRGB {
 <D3E16E81-7835-11cf-8F52-0040333594A3>
 FLOAT red;
 FLOAT green;
 FLOAT blue;
}

template IndexedColor {
 <1630B820-7842-11cf-8F52-0040333594A3>
 DWORD index;
 ColorRGBA indexColor;
}

template Boolean {
 <4885AE61-78E8-11cf-8F52-0040333594A3>
 WORD truefalse;
}

template Boolean2d {
 <4885AE63-78E8-11cf-8F52-0040333594A3>
 Boolean u;
 Boolean v;
}

template MaterialWrap {
 <4885AE60-78E8-11cf-8F52-0040333594A3>
 Boolean u;
 Boolean v;
}

template TextureFilename {
 <A42790E1-7810-11cf-8F52-0040333594A3>
 STRING filename;
}

template Material {
 <3D82AB4D-62DA-11cf-AB39-0020AF71E433>
 ColorRGBA faceColor;
 FLOAT power;
 ColorRGB specularColor;
 ColorRGB emissiveColor;
 [...]
}

template MeshFace {
 <3D82AB5F-62DA-11cf-AB39-0020AF71E433>
 DWORD nFaceVertexIndices;
 array DWORD faceVertexIndices[nFaceVertexIndices];
}

template MeshFaceWraps {
 <4885AE62-78E8-11cf-8F52-0040333594A3>
 DWORD nFaceWrapValues;
 Boolean2d faceWrapValues;
}

template MeshTextureCoords {
 <F6F23F40-7686-11cf-8F52-0040333594A3>
 DWORD nTextureCoords;
 array Coords2d textureCoords[nTextureCoords];
}

template MeshMaterialList {
 <F6F23F42-7686-11cf-8F52-0040333594A3>
 DWORD nMaterials;
 DWORD nFaceIndexes;
 array DWORD faceIndexes[nFaceIndexes];
 [Material]
}

template MeshNormals {
 <F6F23F43-7686-11cf-8F52-0040333594A3>
 DWORD nNormals;
 array Vector normals[nNormals];
 DWORD nFaceNormals;
 array MeshFace faceNormals[nFaceNormals];
}

template MeshVertexColors {
 <1630B821-7842-11cf-8F52-0040333594A3>
 DWORD nVertexColors;
 array IndexedColor vertexColors[nVertexColors];
}

template Mesh {
 <3D82AB44-62DA-11cf-AB39-0020AF71E433>
 DWORD nVertices;
 array Vector vertices[nVertices];
 DWORD nFaces;
 array MeshFace faces[nFaces];
 [...]
}

Header{
1;
0;
1;
}

Mesh {
 190;
 -9.55380;166.57530;77.36400;,
 -9.55380;166.57530;100.00000;,
 -9.55380;26.22810;100.00000;,
 -9.55380;26.22810;71.30580;,
 -0.23380;166.57530;82.79010;,
 -0.23380;166.57530;107.01370;,
 -576.75494;26.22810;71.30580;,
 -576.75494;26.22810;100.00000;,
 -576.75494;166.57530;100.00000;,
 -576.75494;166.57530;77.36400;,
 -586.07489;166.57530;107.01370;,
 -586.07489;166.57530;82.79010;,
 -9.55380;166.57530;-71.68310;,
 -9.55380;26.22810;-65.62480;,
 -9.55380;26.22810;-100.00000;,
 -9.55380;166.57530;-100.00000;,
 -0.23380;166.57530;-107.01370;,
 -0.23380;166.57530;-76.71070;,
 -0.23380;191.15961;-107.01370;,
 -0.23380;191.15961;107.01370;,
 -576.75494;26.22810;-65.62480;,
 -576.75494;166.57530;-71.68310;,
 -576.75494;166.57530;-100.00000;,
 -576.75494;26.22810;-100.00000;,
 -293.48462;191.15961;0.62100;,
 -586.07489;166.57530;-76.71070;,
 -586.07489;166.57530;-107.01370;,
 -586.07489;191.15961;107.01370;,
 -586.07489;191.15961;-107.01370;,
 -54.32269;26.22810;-100.00000;,
 -54.32269;166.57530;-100.00000;,
 -9.55380;166.57530;-100.00000;,
 -9.55380;26.22810;-100.00000;,
 -54.32269;26.22810;-65.62480;,
 -9.55380;26.22810;-65.62480;,
 -9.55380;26.22810;71.30580;,
 -54.32269;26.22810;71.30580;,
 -46.47400;166.57530;-107.01370;,
 -0.23380;166.57530;-107.01370;,
 -54.32269;26.22810;100.00000;,
 -9.55380;26.22810;100.00000;,
 -9.55380;166.57530;100.00000;,
 -54.32269;166.57530;100.00000;,
 -0.23380;166.57530;107.01370;,
 -46.47400;166.57530;107.01370;,
 -530.69269;26.22810;-100.00000;,
 -54.32269;26.22810;-100.00000;,
 -530.69269;26.22810;-65.62480;,
 -530.69269;26.22810;-100.00000;,
 -576.75494;26.22810;-100.00000;,
 -576.75494;166.57530;-100.00000;,
 -530.69269;166.57530;-100.00000;,
 -530.69269;26.22810;71.30580;,
 -576.75494;26.22810;71.30580;,
 -576.75494;26.22810;-65.62480;,
 -586.07489;166.57530;-107.01370;,
 -538.49872;166.57530;-107.01370;,
 -54.32269;26.22810;100.00000;,
 -530.69269;26.22810;100.00000;,
 -586.07489;191.15961;-107.01370;,
 -0.23380;191.15961;-107.01370;,
 -530.69269;26.22810;100.00000;,
 -530.69269;166.57530;100.00000;,
 -576.75494;166.57530;100.00000;,
 -576.75494;26.22810;100.00000;,
 -538.49872;166.57530;107.01370;,
 -586.07489;166.57530;107.01370;,
 -0.23380;191.15961;107.01370;,
 -586.07489;191.15961;107.01370;,
 -9.55380;-2.26500;-100.00000;,
 -54.32269;-2.26500;-100.00000;,
 -9.55380;26.22810;-100.00000;,
 -9.55380;-2.26500;-65.62480;,
 -54.32269;-2.26500;-65.62480;,
 -9.55380;-2.26500;71.30580;,
 -54.32269;-2.26500;71.30580;,
 -9.55380;-2.26500;100.00000;,
 -54.32269;-2.26500;100.00000;,
 -530.69269;-2.26500;-65.62480;,
 -530.69269;-2.26500;-100.00000;,
 -576.75494;-2.26500;-65.62480;,
 -576.75494;-2.26500;-100.00000;,
 -576.75494;26.22810;-100.00000;,
 -530.69269;-2.26500;100.00000;,
 -530.69269;-2.26500;71.30580;,
 -576.75494;-2.26500;100.00000;,
 -576.75494;-2.26500;71.30580;,
 -0.23380;191.15961;107.01370;,
 -0.23380;191.15961;107.01370;,
 -0.23380;191.15961;-107.01370;,
 -0.23380;191.15961;-107.01370;,
 -586.07489;191.15961;-107.01370;,
 -586.07489;191.15961;-107.01370;,
 -586.07489;191.15961;107.01370;,
 -586.07489;191.15961;107.01370;,
 576.44611;166.57530;77.36400;,
 576.44611;166.57530;100.00000;,
 576.44611;26.22810;100.00000;,
 576.44611;26.22810;71.30580;,
 585.76605;166.57530;82.79010;,
 585.76605;166.57530;107.01370;,
 9.24521;26.22810;71.30580;,
 9.24521;26.22810;100.00000;,
 9.24521;166.57530;100.00000;,
 9.24521;166.57530;77.36400;,
 -0.07480;166.57530;107.01370;,
 -0.07480;166.57530;82.79010;,
 576.44611;166.57530;-71.68310;,
 576.44611;26.22810;-65.62480;,
 576.44611;26.22810;-100.00000;,
 576.44611;166.57530;-100.00000;,
 585.76605;166.57530;-107.01370;,
 585.76605;166.57530;-76.71070;,
 585.76605;191.15961;-107.01370;,
 585.76605;191.15961;107.01370;,
 9.24521;26.22810;-65.62480;,
 9.24521;166.57530;-71.68310;,
 9.24521;166.57530;-100.00000;,
 9.24521;26.22810;-100.00000;,
 292.51538;191.15961;0.62100;,
 -0.07480;166.57530;-76.71070;,
 -0.07480;166.57530;-107.01370;,
 -0.07480;191.15961;107.01370;,
 -0.07480;191.15961;-107.01370;,
 531.67719;26.22810;-100.00000;,
 531.67719;166.57530;-100.00000;,
 576.44611;166.57530;-100.00000;,
 576.44611;26.22810;-100.00000;,
 531.67719;26.22810;-65.62480;,
 576.44611;26.22810;-65.62480;,
 576.44611;26.22810;71.30580;,
 531.67719;26.22810;71.30580;,
 539.52594;166.57530;-107.01370;,
 585.76605;166.57530;-107.01370;,
 531.67719;26.22810;100.00000;,
 576.44611;26.22810;100.00000;,
 576.44611;166.57530;100.00000;,
 531.67719;166.57530;100.00000;,
 585.76605;166.57530;107.01370;,
 539.52594;166.57530;107.01370;,
 55.30740;26.22810;-100.00000;,
 531.67719;26.22810;-100.00000;,
 55.30740;26.22810;-65.62480;,
 55.30740;26.22810;-100.00000;,
 9.24521;26.22810;-100.00000;,
 9.24521;166.57530;-100.00000;,
 55.30740;166.57530;-100.00000;,
 55.30740;26.22810;71.30580;,
 9.24521;26.22810;71.30580;,
 9.24521;26.22810;-65.62480;,
 -0.07480;166.57530;-107.01370;,
 47.50140;166.57530;-107.01370;,
 531.67719;26.22810;100.00000;,
 55.30740;26.22810;100.00000;,
 -0.07480;191.15961;-107.01370;,
 585.76605;191.15961;-107.01370;,
 55.30740;26.22810;100.00000;,
 55.30740;166.57530;100.00000;,
 9.24521;166.57530;100.00000;,
 9.24521;26.22810;100.00000;,
 47.50140;166.57530;107.01370;,
 -0.07480;166.57530;107.01370;,
 585.76605;191.15961;107.01370;,
 -0.07480;191.15961;107.01370;,
 576.44611;-2.26500;-100.00000;,
 531.67719;-2.26500;-100.00000;,
 576.44611;26.22810;-100.00000;,
 576.44611;-2.26500;-65.62480;,
 531.67719;-2.26500;-65.62480;,
 576.44611;-2.26500;71.30580;,
 531.67719;-2.26500;71.30580;,
 576.44611;-2.26500;100.00000;,
 531.67719;-2.26500;100.00000;,
 55.30740;-2.26500;-65.62480;,
 55.30740;-2.26500;-100.00000;,
 9.24521;-2.26500;-65.62480;,
 9.24521;-2.26500;-100.00000;,
 9.24521;26.22810;-100.00000;,
 55.30740;-2.26500;100.00000;,
 55.30740;-2.26500;71.30580;,
 9.24521;-2.26500;100.00000;,
 9.24521;-2.26500;71.30580;,
 585.76605;191.15961;107.01370;,
 585.76605;191.15961;107.01370;,
 585.76605;191.15961;-107.01370;,
 585.76605;191.15961;-107.01370;,
 -0.07480;191.15961;-107.01370;,
 -0.07480;191.15961;-107.01370;,
 -0.07480;191.15961;107.01370;,
 -0.07480;191.15961;107.01370;;
 
 130;
 4;0,1,2,3;,
 4;0,4,5,1;,
 4;6,7,8,9;,
 4;9,8,10,11;,
 4;12,0,3,13;,
 4;12,13,14,15;,
 4;12,15,16,17;,
 4;12,17,4,0;,
 4;17,18,19,4;,
 4;20,6,9,21;,
 4;20,21,22,23;,
 3;18,24,19;,
 4;21,9,11,25;,
 4;21,25,26,22;,
 4;25,11,27,28;,
 3;28,27,24;,
 4;29,30,31,32;,
 4;33,34,35,36;,
 4;30,37,38,31;,
 4;39,40,41,42;,
 4;42,41,43,44;,
 4;45,46,33,47;,
 4;48,49,50,51;,
 4;48,51,30,29;,
 4;47,33,36,52;,
 4;47,52,53,54;,
 4;51,50,55,56;,
 4;51,56,37,30;,
 4;52,36,57,58;,
 4;56,59,60,37;,
 4;61,39,42,62;,
 4;61,62,63,64;,
 3;59,24,60;,
 4;62,42,44,65;,
 4;62,65,66,63;,
 4;65,44,67,68;,
 3;68,67,24;,
 4;69,70,46,71;,
 4;72,69,71,34;,
 4;73,72,34,33;,
 4;70,73,33,46;,
 4;70,69,72,73;,
 4;74,75,36,35;,
 4;76,74,35,2;,
 4;77,76,2,57;,
 4;75,77,57,36;,
 4;75,74,76,77;,
 4;78,79,45,47;,
 4;80,78,47,54;,
 4;81,80,54,82;,
 4;79,81,82,45;,
 4;79,78,80,81;,
 4;83,84,52,58;,
 4;85,83,58,7;,
 4;86,85,7,53;,
 4;84,86,53,52;,
 4;84,83,85,86;,
 3;87,44,43;,
 3;88,5,4;,
 3;89,17,16;,
 3;90,38,37;,
 3;91,56,55;,
 3;92,26,25;,
 3;93,11,10;,
 3;94,66,65;,
 4;95,96,97,98;,
 4;95,99,100,96;,
 4;101,102,103,104;,
 4;104,103,105,106;,
 4;107,95,98,108;,
 4;107,108,109,110;,
 4;107,110,111,112;,
 4;107,112,99,95;,
 4;112,113,114,99;,
 4;115,101,104,116;,
 4;115,116,117,118;,
 3;113,119,114;,
 4;116,104,106,120;,
 4;116,120,121,117;,
 4;120,106,122,123;,
 3;123,122,119;,
 4;124,125,126,127;,
 4;128,129,130,131;,
 4;125,132,133,126;,
 4;134,135,136,137;,
 4;137,136,138,139;,
 4;140,141,128,142;,
 4;143,144,145,146;,
 4;143,146,125,124;,
 4;142,128,131,147;,
 4;142,147,148,149;,
 4;146,145,150,151;,
 4;146,151,132,125;,
 4;147,131,152,153;,
 4;151,154,155,132;,
 4;156,134,137,157;,
 4;156,157,158,159;,
 3;154,119,155;,
 4;157,137,139,160;,
 4;157,160,161,158;,
 4;160,139,162,163;,
 3;163,162,119;,
 4;164,165,141,166;,
 4;167,164,166,129;,
 4;168,167,129,128;,
 4;165,168,128,141;,
 4;165,164,167,168;,
 4;169,170,131,130;,
 4;171,169,130,97;,
 4;172,171,97,152;,
 4;170,172,152,131;,
 4;170,169,171,172;,
 4;173,174,140,142;,
 4;175,173,142,149;,
 4;176,175,149,177;,
 4;174,176,177,140;,
 4;174,173,175,176;,
 4;178,179,147,153;,
 4;180,178,153,102;,
 4;181,180,102,148;,
 4;179,181,148,147;,
 4;179,178,180,181;,
 3;182,139,138;,
 3;183,100,99;,
 3;184,112,111;,
 3;185,133,132;,
 3;186,151,150;,
 3;187,121,120;,
 3;188,106,105;,
 3;189,161,160;;
 
 MeshMaterialList {
  1;
  130;
  0,
  0,
  0,
  0,
  0,
  0,
  0,
  0,
  0,
  0,
  0,
  0,
  0,
  0,
  0,
  0,
  0,
  0,
  0,
  0,
  0,
  0,
  0,
  0,
  0,
  0,
  0,
  0,
  0,
  0,
  0,
  0,
  0,
  0,
  0,
  0,
  0,
  0,
  0,
  0,
  0,
  0,
  0,
  0,
  0,
  0,
  0,
  0,
  0,
  0,
  0,
  0,
  0,
  0,
  0,
  0,
  0,
  0,
  0,
  0,
  0,
  0,
  0,
  0,
  0,
  0,
  0,
  0,
  0,
  0,
  0,
  0,
  0,
  0,
  0,
  0,
  0,
  0,
  0,
  0,
  0,
  0,
  0,
  0,
  0,
  0,
  0,
  0,
  0,
  0,
  0,
  0,
  0,
  0,
  0,
  0,
  0,
  0,
  0,
  0,
  0,
  0,
  0,
  0,
  0,
  0,
  0,
  0,
  0,
  0,
  0,
  0,
  0,
  0,
  0,
  0,
  0,
  0,
  0,
  0,
  0,
  0,
  0,
  0,
  0,
  0,
  0,
  0,
  0,
  0;;
  Material {
   0.800000;0.800000;0.800000;1.000000;;
   8.000000;
   0.290000;0.290000;0.290000;;
   0.000000;0.000000;0.000000;;
  }
 }
 MeshNormals {
  16;
  -1.000000;0.000000;0.000000;,
  1.000000;0.000000;0.000000;,
  0.000000;1.000000;0.000000;,
  0.000000;-1.000000;-0.000000;,
  0.000000;0.000000;-1.000000;,
  0.000000;0.000000;1.000000;,
  1.000000;0.000000;-0.000000;,
  -1.000000;0.000000;0.000000;,
  -1.000000;0.000000;0.000000;,
  1.000000;0.000000;0.000000;,
  0.000000;1.000000;0.000000;,
  0.000000;-1.000000;-0.000000;,
  0.000000;0.000000;-1.000000;,
  0.000000;0.000000;1.000000;,
  1.000000;0.000000;-0.000000;,
  -1.000000;0.000000;0.000000;;
  130;
  4;1,1,1,1;,
  4;3,3,3,3;,
  4;0,0,0,0;,
  4;3,3,3,3;,
  4;1,1,1,1;,
  4;1,1,1,1;,
  4;3,3,3,3;,
  4;3,3,3,3;,
  4;1,1,1,1;,
  4;0,0,0,0;,
  4;0,0,0,0;,
  3;2,2,2;,
  4;3,3,3,3;,
  4;3,3,3,3;,
  4;0,0,0,0;,
  3;2,2,2;,
  4;4,4,4,4;,
  4;3,3,3,3;,
  4;3,3,3,3;,
  4;5,5,5,5;,
  4;3,3,3,3;,
  4;3,3,3,3;,
  4;4,4,4,4;,
  4;4,4,4,4;,
  4;3,3,3,3;,
  4;3,3,3,3;,
  4;3,3,3,3;,
  4;3,3,3,3;,
  4;3,3,3,3;,
  4;4,4,4,4;,
  4;5,5,5,5;,
  4;5,5,5,5;,
  3;2,2,2;,
  4;3,3,3,3;,
  4;3,3,3,3;,
  4;5,5,5,5;,
  3;2,2,2;,
  4;4,4,4,4;,
  4;1,1,1,1;,
  4;5,5,5,5;,
  4;0,0,0,0;,
  4;3,3,3,3;,
  4;4,4,4,4;,
  4;1,1,1,1;,
  4;5,5,5,5;,
  4;0,0,0,0;,
  4;3,3,3,3;,
  4;1,1,1,1;,
  4;5,5,5,5;,
  4;0,0,0,0;,
  4;4,4,4,4;,
  4;3,3,3,3;,
  4;1,1,1,1;,
  4;5,5,5,5;,
  4;0,0,0,0;,
  4;4,4,4,4;,
  4;3,3,3,3;,
  3;5,5,5;,
  3;1,1,1;,
  3;1,1,6;,
  3;4,4,4;,
  3;4,4,4;,
  3;0,7,0;,
  3;0,0,0;,
  3;5,5,5;,
  4;9,9,9,9;,
  4;11,11,11,11;,
  4;8,8,8,8;,
  4;11,11,11,11;,
  4;9,9,9,9;,
  4;9,9,9,9;,
  4;11,11,11,11;,
  4;11,11,11,11;,
  4;9,9,9,9;,
  4;8,8,8,8;,
  4;8,8,8,8;,
  3;10,10,10;,
  4;11,11,11,11;,
  4;11,11,11,11;,
  4;8,8,8,8;,
  3;10,10,10;,
  4;12,12,12,12;,
  4;11,11,11,11;,
  4;11,11,11,11;,
  4;13,13,13,13;,
  4;11,11,11,11;,
  4;11,11,11,11;,
  4;12,12,12,12;,
  4;12,12,12,12;,
  4;11,11,11,11;,
  4;11,11,11,11;,
  4;11,11,11,11;,
  4;11,11,11,11;,
  4;11,11,11,11;,
  4;12,12,12,12;,
  4;13,13,13,13;,
  4;13,13,13,13;,
  3;10,10,10;,
  4;11,11,11,11;,
  4;11,11,11,11;,
  4;13,13,13,13;,
  3;10,10,10;,
  4;12,12,12,12;,
  4;9,9,9,9;,
  4;13,13,13,13;,
  4;8,8,8,8;,
  4;11,11,11,11;,
  4;12,12,12,12;,
  4;9,9,9,9;,
  4;13,13,13,13;,
  4;8,8,8,8;,
  4;11,11,11,11;,
  4;9,9,9,9;,
  4;13,13,13,13;,
  4;8,8,8,8;,
  4;12,12,12,12;,
  4;11,11,11,11;,
  4;9,9,9,9;,
  4;13,13,13,13;,
  4;8,8,8,8;,
  4;12,12,12,12;,
  4;11,11,11,11;,
  3;13,13,13;,
  3;9,9,9;,
  3;9,9,14;,
  3;12,12,12;,
  3;12,12,12;,
  3;8,15,8;,
  3;8,8,8;,
  3;13,13,13;;
 }
 MeshTextureCoords {
  190;
  0.886820;0.122920;,
  1.000000;0.122920;,
  1.000000;1.000000;,
  0.886820;1.000000;,
  0.886820;0.122920;,
  1.000000;0.122920;,
  0.113180;1.000000;,
  0.000000;1.000000;,
  0.000000;0.122920;,
  0.113180;0.122920;,
  0.000000;0.122920;,
  0.113180;0.122920;,
  0.141580;0.122920;,
  0.141580;1.000000;,
  0.000000;1.000000;,
  0.000000;0.122920;,
  0.000000;0.122920;,
  0.141580;0.122920;,
  0.141580;0.000000;,
  0.886820;0.000000;,
  0.858420;1.000000;,
  0.858420;0.122920;,
  1.000000;0.122920;,
  1.000000;1.000000;,
  0.500000;0.000000;,
  0.858420;0.122920;,
  1.000000;0.122920;,
  0.113180;0.000000;,
  0.858420;0.000000;,
  0.921070;1.000000;,
  0.921070;0.122920;,
  1.000000;0.122920;,
  1.000000;1.000000;,
  0.921070;0.141580;,
  1.000000;0.141580;,
  1.000000;0.886820;,
  0.921070;0.886820;,
  0.921070;0.122920;,
  1.000000;0.122920;,
  0.078930;1.000000;,
  0.000000;1.000000;,
  0.000000;0.122920;,
  0.078930;0.122920;,
  0.000000;0.122920;,
  0.078930;0.122920;,
  0.081210;0.000000;,
  0.921070;0.000000;,
  0.081210;0.141580;,
  0.081210;1.000000;,
  0.000000;1.000000;,
  0.000000;0.122920;,
  0.081210;0.122920;,
  0.081210;0.886820;,
  0.000000;0.886820;,
  0.000000;0.141580;,
  0.000000;0.122920;,
  0.081210;0.122920;,
  0.921070;1.000000;,
  0.081210;1.000000;,
  0.081210;0.000000;,
  0.921070;0.000000;,
  0.918790;1.000000;,
  0.918790;0.122920;,
  1.000000;0.122920;,
  1.000000;1.000000;,
  0.918790;0.122920;,
  1.000000;0.122920;,
  0.078930;0.000000;,
  0.918790;0.000000;,
  1.000000;0.000000;,
  0.921070;0.000000;,
  1.000000;0.000000;,
  1.000000;0.141580;,
  0.921070;0.141580;,
  1.000000;0.886820;,
  0.921070;0.886820;,
  1.000000;1.000000;,
  0.921070;1.000000;,
  0.081210;0.141580;,
  0.081210;0.000000;,
  0.000000;0.141580;,
  0.000000;0.000000;,
  0.000000;0.000000;,
  0.081210;1.000000;,
  0.081210;0.886820;,
  0.000000;1.000000;,
  0.000000;0.886820;,
  0.039460;0.000000;,
  0.943410;0.000000;,
  0.070790;0.000000;,
  0.960540;0.000000;,
  0.040600;0.000000;,
  0.929210;0.000000;,
  0.056590;0.000000;,
  0.959400;0.000000;,
  0.886820;0.122920;,
  1.000000;0.122920;,
  1.000000;1.000000;,
  0.886820;1.000000;,
  0.886820;0.122920;,
  1.000000;0.122920;,
  0.113180;1.000000;,
  0.000000;1.000000;,
  0.000000;0.122920;,
  0.113180;0.122920;,
  0.000000;0.122920;,
  0.113180;0.122920;,
  0.141580;0.122920;,
  0.141580;1.000000;,
  0.000000;1.000000;,
  0.000000;0.122920;,
  0.000000;0.122920;,
  0.141580;0.122920;,
  0.141580;0.000000;,
  0.886820;0.000000;,
  0.858420;1.000000;,
  0.858420;0.122920;,
  1.000000;0.122920;,
  1.000000;1.000000;,
  0.500000;0.000000;,
  0.858420;0.122920;,
  1.000000;0.122920;,
  0.113180;0.000000;,
  0.858420;0.000000;,
  0.921070;1.000000;,
  0.921070;0.122920;,
  1.000000;0.122920;,
  1.000000;1.000000;,
  0.921070;0.141580;,
  1.000000;0.141580;,
  1.000000;0.886820;,
  0.921070;0.886820;,
  0.921070;0.122920;,
  1.000000;0.122920;,
  0.078930;1.000000;,
  0.000000;1.000000;,
  0.000000;0.122920;,
  0.078930;0.122920;,
  0.000000;0.122920;,
  0.078930;0.122920;,
  0.081210;0.000000;,
  0.921070;0.000000;,
  0.081210;0.141580;,
  0.081210;1.000000;,
  0.000000;1.000000;,
  0.000000;0.122920;,
  0.081210;0.122920;,
  0.081210;0.886820;,
  0.000000;0.886820;,
  0.000000;0.141580;,
  0.000000;0.122920;,
  0.081210;0.122920;,
  0.921070;1.000000;,
  0.081210;1.000000;,
  0.081210;0.000000;,
  0.921070;0.000000;,
  0.918790;1.000000;,
  0.918790;0.122920;,
  1.000000;0.122920;,
  1.000000;1.000000;,
  0.918790;0.122920;,
  1.000000;0.122920;,
  0.078930;0.000000;,
  0.918790;0.000000;,
  1.000000;0.000000;,
  0.921070;0.000000;,
  1.000000;0.000000;,
  1.000000;0.141580;,
  0.921070;0.141580;,
  1.000000;0.886820;,
  0.921070;0.886820;,
  1.000000;1.000000;,
  0.921070;1.000000;,
  0.081210;0.141580;,
  0.081210;0.000000;,
  0.000000;0.141580;,
  0.000000;0.000000;,
  0.000000;0.000000;,
  0.081210;1.000000;,
  0.081210;0.886820;,
  0.000000;1.000000;,
  0.000000;0.886820;,
  0.039460;0.000000;,
  0.943410;0.000000;,
  0.070790;0.000000;,
  0.960540;0.000000;,
  0.040600;0.000000;,
  0.929210;0.000000;,
  0.056590;0.000000;,
  0.959400;0.000000;;
 }
}
