xof 0302txt 0064
template Header {
 <3D82AB43-62DA-11cf-AB39-0020AF71E433>
 WORD major;
 WORD minor;
 DWORD flags;
}

template Vector {
 <3D82AB5E-62DA-11cf-AB39-0020AF71E433>
 FLOAT x;
 FLOAT y;
 FLOAT z;
}

template Coords2d {
 <F6F23F44-7686-11cf-8F52-0040333594A3>
 FLOAT u;
 FLOAT v;
}

template Matrix4x4 {
 <F6F23F45-7686-11cf-8F52-0040333594A3>
 array FLOAT matrix[16];
}

template ColorRGBA {
 <35FF44E0-6C7C-11cf-8F52-0040333594A3>
 FLOAT red;
 FLOAT green;
 FLOAT blue;
 FLOAT alpha;
}

template ColorRGB {
 <D3E16E81-7835-11cf-8F52-0040333594A3>
 FLOAT red;
 FLOAT green;
 FLOAT blue;
}

template IndexedColor {
 <1630B820-7842-11cf-8F52-0040333594A3>
 DWORD index;
 ColorRGBA indexColor;
}

template Boolean {
 <4885AE61-78E8-11cf-8F52-0040333594A3>
 WORD truefalse;
}

template Boolean2d {
 <4885AE63-78E8-11cf-8F52-0040333594A3>
 Boolean u;
 Boolean v;
}

template MaterialWrap {
 <4885AE60-78E8-11cf-8F52-0040333594A3>
 Boolean u;
 Boolean v;
}

template TextureFilename {
 <A42790E1-7810-11cf-8F52-0040333594A3>
 STRING filename;
}

template Material {
 <3D82AB4D-62DA-11cf-AB39-0020AF71E433>
 ColorRGBA faceColor;
 FLOAT power;
 ColorRGB specularColor;
 ColorRGB emissiveColor;
 [...]
}

template MeshFace {
 <3D82AB5F-62DA-11cf-AB39-0020AF71E433>
 DWORD nFaceVertexIndices;
 array DWORD faceVertexIndices[nFaceVertexIndices];
}

template MeshFaceWraps {
 <4885AE62-78E8-11cf-8F52-0040333594A3>
 DWORD nFaceWrapValues;
 Boolean2d faceWrapValues;
}

template MeshTextureCoords {
 <F6F23F40-7686-11cf-8F52-0040333594A3>
 DWORD nTextureCoords;
 array Coords2d textureCoords[nTextureCoords];
}

template MeshMaterialList {
 <F6F23F42-7686-11cf-8F52-0040333594A3>
 DWORD nMaterials;
 DWORD nFaceIndexes;
 array DWORD faceIndexes[nFaceIndexes];
 [Material]
}

template MeshNormals {
 <F6F23F43-7686-11cf-8F52-0040333594A3>
 DWORD nNormals;
 array Vector normals[nNormals];
 DWORD nFaceNormals;
 array MeshFace faceNormals[nFaceNormals];
}

template MeshVertexColors {
 <1630B821-7842-11cf-8F52-0040333594A3>
 DWORD nVertexColors;
 array IndexedColor vertexColors[nVertexColors];
}

template Mesh {
 <3D82AB44-62DA-11cf-AB39-0020AF71E433>
 DWORD nVertices;
 array Vector vertices[nVertices];
 DWORD nFaces;
 array MeshFace faces[nFaces];
 [...]
}

Header{
1;
0;
1;
}

Mesh {
 95;
 283.60049;166.57530;77.36400;,
 283.60049;166.57530;100.00000;,
 283.60049;26.22810;100.00000;,
 283.60049;26.22810;71.30580;,
 292.92050;166.57530;82.79010;,
 292.92050;166.57530;107.01370;,
 -283.60049;26.22810;71.30580;,
 -283.60049;26.22810;100.00000;,
 -283.60049;166.57530;100.00000;,
 -283.60049;166.57530;77.36400;,
 -292.92050;166.57530;107.01370;,
 -292.92050;166.57530;82.79010;,
 283.60049;166.57530;-71.68310;,
 283.60049;26.22810;-65.62480;,
 283.60049;26.22810;-100.00000;,
 283.60049;166.57530;-100.00000;,
 292.92050;166.57530;-107.01370;,
 292.92050;166.57530;-76.71070;,
 292.92050;191.15961;-107.01370;,
 292.92050;191.15961;107.01370;,
 -283.60049;26.22810;-65.62480;,
 -283.60049;166.57530;-71.68310;,
 -283.60049;166.57530;-100.00000;,
 -283.60049;26.22810;-100.00000;,
 -0.33030;191.15961;0.62100;,
 -292.92050;166.57530;-76.71070;,
 -292.92050;166.57530;-107.01370;,
 -292.92050;191.15961;107.01370;,
 -292.92050;191.15961;-107.01370;,
 238.83160;26.22810;-100.00000;,
 238.83160;166.57530;-100.00000;,
 283.60049;166.57530;-100.00000;,
 283.60049;26.22810;-100.00000;,
 238.83160;26.22810;-65.62480;,
 283.60049;26.22810;-65.62480;,
 283.60049;26.22810;71.30580;,
 238.83160;26.22810;71.30580;,
 246.68030;166.57530;-107.01370;,
 292.92050;166.57530;-107.01370;,
 238.83160;26.22810;100.00000;,
 283.60049;26.22810;100.00000;,
 283.60049;166.57530;100.00000;,
 238.83160;166.57530;100.00000;,
 292.92050;166.57530;107.01370;,
 246.68030;166.57530;107.01370;,
 -237.53830;26.22810;-100.00000;,
 238.83160;26.22810;-100.00000;,
 -237.53830;26.22810;-65.62480;,
 -237.53830;26.22810;-100.00000;,
 -283.60049;26.22810;-100.00000;,
 -283.60049;166.57530;-100.00000;,
 -237.53830;166.57530;-100.00000;,
 -237.53830;26.22810;71.30580;,
 -283.60049;26.22810;71.30580;,
 -283.60049;26.22810;-65.62480;,
 -292.92050;166.57530;-107.01370;,
 -245.34430;166.57530;-107.01370;,
 238.83160;26.22810;100.00000;,
 -237.53830;26.22810;100.00000;,
 -292.92050;191.15961;-107.01370;,
 292.92050;191.15961;-107.01370;,
 -237.53830;26.22810;100.00000;,
 -237.53830;166.57530;100.00000;,
 -283.60049;166.57530;100.00000;,
 -283.60049;26.22810;100.00000;,
 -245.34430;166.57530;107.01370;,
 -292.92050;166.57530;107.01370;,
 292.92050;191.15961;107.01370;,
 -292.92050;191.15961;107.01370;,
 283.60049;-2.26500;-100.00000;,
 238.83160;-2.26500;-100.00000;,
 283.60049;26.22810;-100.00000;,
 283.60049;-2.26500;-65.62480;,
 238.83160;-2.26500;-65.62480;,
 283.60049;-2.26500;71.30580;,
 238.83160;-2.26500;71.30580;,
 283.60049;-2.26500;100.00000;,
 238.83160;-2.26500;100.00000;,
 -237.53830;-2.26500;-65.62480;,
 -237.53830;-2.26500;-100.00000;,
 -283.60049;-2.26500;-65.62480;,
 -283.60049;-2.26500;-100.00000;,
 -283.60049;26.22810;-100.00000;,
 -237.53830;-2.26500;100.00000;,
 -237.53830;-2.26500;71.30580;,
 -283.60049;-2.26500;100.00000;,
 -283.60049;-2.26500;71.30580;,
 292.92050;191.15961;107.01370;,
 292.92050;191.15961;107.01370;,
 292.92050;191.15961;-107.01370;,
 292.92050;191.15961;-107.01370;,
 -292.92050;191.15961;-107.01370;,
 -292.92050;191.15961;-107.01370;,
 -292.92050;191.15961;107.01370;,
 -292.92050;191.15961;107.01370;;
 
 65;
 4;0,1,2,3;,
 4;0,4,5,1;,
 4;6,7,8,9;,
 4;9,8,10,11;,
 4;12,0,3,13;,
 4;12,13,14,15;,
 4;12,15,16,17;,
 4;12,17,4,0;,
 4;17,18,19,4;,
 4;20,6,9,21;,
 4;20,21,22,23;,
 3;18,24,19;,
 4;21,9,11,25;,
 4;21,25,26,22;,
 4;25,11,27,28;,
 3;28,27,24;,
 4;29,30,31,32;,
 4;33,34,35,36;,
 4;30,37,38,31;,
 4;39,40,41,42;,
 4;42,41,43,44;,
 4;45,46,33,47;,
 4;48,49,50,51;,
 4;48,51,30,29;,
 4;47,33,36,52;,
 4;47,52,53,54;,
 4;51,50,55,56;,
 4;51,56,37,30;,
 4;52,36,57,58;,
 4;56,59,60,37;,
 4;61,39,42,62;,
 4;61,62,63,64;,
 3;59,24,60;,
 4;62,42,44,65;,
 4;62,65,66,63;,
 4;65,44,67,68;,
 3;68,67,24;,
 4;69,70,46,71;,
 4;72,69,71,34;,
 4;73,72,34,33;,
 4;70,73,33,46;,
 4;70,69,72,73;,
 4;74,75,36,35;,
 4;76,74,35,2;,
 4;77,76,2,57;,
 4;75,77,57,36;,
 4;75,74,76,77;,
 4;78,79,45,47;,
 4;80,78,47,54;,
 4;81,80,54,82;,
 4;79,81,82,45;,
 4;79,78,80,81;,
 4;83,84,52,58;,
 4;85,83,58,7;,
 4;86,85,7,53;,
 4;84,86,53,52;,
 4;84,83,85,86;,
 3;87,44,43;,
 3;88,5,4;,
 3;89,17,16;,
 3;90,38,37;,
 3;91,56,55;,
 3;92,26,25;,
 3;93,11,10;,
 3;94,66,65;;
 
 MeshMaterialList {
  1;
  65;
  0,
  0,
  0,
  0,
  0,
  0,
  0,
  0,
  0,
  0,
  0,
  0,
  0,
  0,
  0,
  0,
  0,
  0,
  0,
  0,
  0,
  0,
  0,
  0,
  0,
  0,
  0,
  0,
  0,
  0,
  0,
  0,
  0,
  0,
  0,
  0,
  0,
  0,
  0,
  0,
  0,
  0,
  0,
  0,
  0,
  0,
  0,
  0,
  0,
  0,
  0,
  0,
  0,
  0,
  0,
  0,
  0,
  0,
  0,
  0,
  0,
  0,
  0,
  0,
  0;;
  Material {
   0.800000;0.800000;0.800000;1.000000;;
   8.000000;
   0.290000;0.290000;0.290000;;
   0.000000;0.000000;0.000000;;
  }
 }
 MeshNormals {
  8;
  -1.000000;0.000000;0.000000;,
  1.000000;0.000000;0.000000;,
  0.000000;1.000000;0.000000;,
  0.000000;-1.000000;-0.000000;,
  0.000000;0.000000;-1.000000;,
  0.000000;0.000000;1.000000;,
  1.000000;0.000000;-0.000000;,
  -1.000000;0.000000;0.000000;;
  65;
  4;1,1,1,1;,
  4;3,3,3,3;,
  4;0,0,0,0;,
  4;3,3,3,3;,
  4;1,1,1,1;,
  4;1,1,1,1;,
  4;3,3,3,3;,
  4;3,3,3,3;,
  4;1,1,1,1;,
  4;0,0,0,0;,
  4;0,0,0,0;,
  3;2,2,2;,
  4;3,3,3,3;,
  4;3,3,3,3;,
  4;0,0,0,0;,
  3;2,2,2;,
  4;4,4,4,4;,
  4;3,3,3,3;,
  4;3,3,3,3;,
  4;5,5,5,5;,
  4;3,3,3,3;,
  4;3,3,3,3;,
  4;4,4,4,4;,
  4;4,4,4,4;,
  4;3,3,3,3;,
  4;3,3,3,3;,
  4;3,3,3,3;,
  4;3,3,3,3;,
  4;3,3,3,3;,
  4;4,4,4,4;,
  4;5,5,5,5;,
  4;5,5,5,5;,
  3;2,2,2;,
  4;3,3,3,3;,
  4;3,3,3,3;,
  4;5,5,5,5;,
  3;2,2,2;,
  4;4,4,4,4;,
  4;1,1,1,1;,
  4;5,5,5,5;,
  4;0,0,0,0;,
  4;3,3,3,3;,
  4;4,4,4,4;,
  4;1,1,1,1;,
  4;5,5,5,5;,
  4;0,0,0,0;,
  4;3,3,3,3;,
  4;1,1,1,1;,
  4;5,5,5,5;,
  4;0,0,0,0;,
  4;4,4,4,4;,
  4;3,3,3,3;,
  4;1,1,1,1;,
  4;5,5,5,5;,
  4;0,0,0,0;,
  4;4,4,4,4;,
  4;3,3,3,3;,
  3;5,5,5;,
  3;1,1,1;,
  3;1,1,6;,
  3;4,4,4;,
  3;4,4,4;,
  3;0,7,0;,
  3;0,0,0;,
  3;5,5,5;;
 }
 MeshTextureCoords {
  95;
  0.886820;0.122920;,
  1.000000;0.122920;,
  1.000000;1.000000;,
  0.886820;1.000000;,
  0.886820;0.122920;,
  1.000000;0.122920;,
  0.113180;1.000000;,
  0.000000;1.000000;,
  0.000000;0.122920;,
  0.113180;0.122920;,
  0.000000;0.122920;,
  0.113180;0.122920;,
  0.141580;0.122920;,
  0.141580;1.000000;,
  0.000000;1.000000;,
  0.000000;0.122920;,
  0.000000;0.122920;,
  0.141580;0.122920;,
  0.141580;0.000000;,
  0.886820;0.000000;,
  0.858420;1.000000;,
  0.858420;0.122920;,
  1.000000;0.122920;,
  1.000000;1.000000;,
  0.500000;0.000000;,
  0.858420;0.122920;,
  1.000000;0.122920;,
  0.113180;0.000000;,
  0.858420;0.000000;,
  0.921070;1.000000;,
  0.921070;0.122920;,
  1.000000;0.122920;,
  1.000000;1.000000;,
  0.921070;0.141580;,
  1.000000;0.141580;,
  1.000000;0.886820;,
  0.921070;0.886820;,
  0.921070;0.122920;,
  1.000000;0.122920;,
  0.078930;1.000000;,
  0.000000;1.000000;,
  0.000000;0.122920;,
  0.078930;0.122920;,
  0.000000;0.122920;,
  0.078930;0.122920;,
  0.081210;0.000000;,
  0.921070;0.000000;,
  0.081210;0.141580;,
  0.081210;1.000000;,
  0.000000;1.000000;,
  0.000000;0.122920;,
  0.081210;0.122920;,
  0.081210;0.886820;,
  0.000000;0.886820;,
  0.000000;0.141580;,
  0.000000;0.122920;,
  0.081210;0.122920;,
  0.921070;1.000000;,
  0.081210;1.000000;,
  0.081210;0.000000;,
  0.921070;0.000000;,
  0.918790;1.000000;,
  0.918790;0.122920;,
  1.000000;0.122920;,
  1.000000;1.000000;,
  0.918790;0.122920;,
  1.000000;0.122920;,
  0.078930;0.000000;,
  0.918790;0.000000;,
  1.000000;0.000000;,
  0.921070;0.000000;,
  1.000000;0.000000;,
  1.000000;0.141580;,
  0.921070;0.141580;,
  1.000000;0.886820;,
  0.921070;0.886820;,
  1.000000;1.000000;,
  0.921070;1.000000;,
  0.081210;0.141580;,
  0.081210;0.000000;,
  0.000000;0.141580;,
  0.000000;0.000000;,
  0.000000;0.000000;,
  0.081210;1.000000;,
  0.081210;0.886820;,
  0.000000;1.000000;,
  0.000000;0.886820;,
  0.039460;0.000000;,
  0.943410;0.000000;,
  0.070790;0.000000;,
  0.960540;0.000000;,
  0.040600;0.000000;,
  0.929210;0.000000;,
  0.056590;0.000000;,
  0.959400;0.000000;;
 }
}
