xof 0302txt 0064
template Header {
 <3D82AB43-62DA-11cf-AB39-0020AF71E433>
 WORD major;
 WORD minor;
 DWORD flags;
}

template Vector {
 <3D82AB5E-62DA-11cf-AB39-0020AF71E433>
 FLOAT x;
 FLOAT y;
 FLOAT z;
}

template Coords2d {
 <F6F23F44-7686-11cf-8F52-0040333594A3>
 FLOAT u;
 FLOAT v;
}

template Matrix4x4 {
 <F6F23F45-7686-11cf-8F52-0040333594A3>
 array FLOAT matrix[16];
}

template ColorRGBA {
 <35FF44E0-6C7C-11cf-8F52-0040333594A3>
 FLOAT red;
 FLOAT green;
 FLOAT blue;
 FLOAT alpha;
}

template ColorRGB {
 <D3E16E81-7835-11cf-8F52-0040333594A3>
 FLOAT red;
 FLOAT green;
 FLOAT blue;
}

template IndexedColor {
 <1630B820-7842-11cf-8F52-0040333594A3>
 DWORD index;
 ColorRGBA indexColor;
}

template Boolean {
 <4885AE61-78E8-11cf-8F52-0040333594A3>
 WORD truefalse;
}

template Boolean2d {
 <4885AE63-78E8-11cf-8F52-0040333594A3>
 Boolean u;
 Boolean v;
}

template MaterialWrap {
 <4885AE60-78E8-11cf-8F52-0040333594A3>
 Boolean u;
 Boolean v;
}

template TextureFilename {
 <A42790E1-7810-11cf-8F52-0040333594A3>
 STRING filename;
}

template Material {
 <3D82AB4D-62DA-11cf-AB39-0020AF71E433>
 ColorRGBA faceColor;
 FLOAT power;
 ColorRGB specularColor;
 ColorRGB emissiveColor;
 [...]
}

template MeshFace {
 <3D82AB5F-62DA-11cf-AB39-0020AF71E433>
 DWORD nFaceVertexIndices;
 array DWORD faceVertexIndices[nFaceVertexIndices];
}

template MeshFaceWraps {
 <4885AE62-78E8-11cf-8F52-0040333594A3>
 DWORD nFaceWrapValues;
 Boolean2d faceWrapValues;
}

template MeshTextureCoords {
 <F6F23F40-7686-11cf-8F52-0040333594A3>
 DWORD nTextureCoords;
 array Coords2d textureCoords[nTextureCoords];
}

template MeshMaterialList {
 <F6F23F42-7686-11cf-8F52-0040333594A3>
 DWORD nMaterials;
 DWORD nFaceIndexes;
 array DWORD faceIndexes[nFaceIndexes];
 [Material]
}

template MeshNormals {
 <F6F23F43-7686-11cf-8F52-0040333594A3>
 DWORD nNormals;
 array Vector normals[nNormals];
 DWORD nFaceNormals;
 array MeshFace faceNormals[nFaceNormals];
}

template MeshVertexColors {
 <1630B821-7842-11cf-8F52-0040333594A3>
 DWORD nVertexColors;
 array IndexedColor vertexColors[nVertexColors];
}

template Mesh {
 <3D82AB44-62DA-11cf-AB39-0020AF71E433>
 DWORD nVertices;
 array Vector vertices[nVertices];
 DWORD nFaces;
 array MeshFace faces[nFaces];
 [...]
}

Header{
1;
0;
1;
}

Mesh {
 475;
 283.60049;166.57530;77.36400;,
 283.60049;166.57530;100.00000;,
 283.60049;26.22810;100.00000;,
 283.60049;26.22810;71.30580;,
 292.92050;166.57530;82.79010;,
 292.92050;166.57530;107.01370;,
 -283.60049;26.22810;71.30580;,
 -283.60049;26.22810;100.00000;,
 -283.60049;166.57530;100.00000;,
 -283.60049;166.57530;77.36400;,
 -292.92050;166.57530;107.01370;,
 -292.92050;166.57530;82.79010;,
 283.60049;166.57530;-71.68310;,
 283.60049;26.22810;-65.62480;,
 283.60049;26.22810;-100.00000;,
 283.60049;166.57530;-100.00000;,
 292.92050;166.57530;-107.01370;,
 292.92050;166.57530;-76.71070;,
 292.92050;191.15961;-107.01370;,
 292.92050;191.15961;107.01370;,
 -283.60049;26.22810;-65.62480;,
 -283.60049;166.57530;-71.68310;,
 -283.60049;166.57530;-100.00000;,
 -283.60049;26.22810;-100.00000;,
 -0.33030;191.15961;0.62100;,
 -292.92050;166.57530;-76.71070;,
 -292.92050;166.57530;-107.01370;,
 -292.92050;191.15961;107.01370;,
 -292.92050;191.15961;-107.01370;,
 238.83160;26.22810;-100.00000;,
 238.83160;166.57530;-100.00000;,
 283.60049;166.57530;-100.00000;,
 283.60049;26.22810;-100.00000;,
 238.83160;26.22810;-65.62480;,
 283.60049;26.22810;-65.62480;,
 283.60049;26.22810;71.30580;,
 238.83160;26.22810;71.30580;,
 246.68030;166.57530;-107.01370;,
 292.92050;166.57530;-107.01370;,
 238.83160;26.22810;100.00000;,
 283.60049;26.22810;100.00000;,
 283.60049;166.57530;100.00000;,
 238.83160;166.57530;100.00000;,
 292.92050;166.57530;107.01370;,
 246.68030;166.57530;107.01370;,
 -237.53830;26.22810;-100.00000;,
 238.83160;26.22810;-100.00000;,
 -237.53830;26.22810;-65.62480;,
 -237.53830;26.22810;-100.00000;,
 -283.60049;26.22810;-100.00000;,
 -283.60049;166.57530;-100.00000;,
 -237.53830;166.57530;-100.00000;,
 -237.53830;26.22810;71.30580;,
 -283.60049;26.22810;71.30580;,
 -283.60049;26.22810;-65.62480;,
 -292.92050;166.57530;-107.01370;,
 -245.34430;166.57530;-107.01370;,
 238.83160;26.22810;100.00000;,
 -237.53830;26.22810;100.00000;,
 -292.92050;191.15961;-107.01370;,
 292.92050;191.15961;-107.01370;,
 -237.53830;26.22810;100.00000;,
 -237.53830;166.57530;100.00000;,
 -283.60049;166.57530;100.00000;,
 -283.60049;26.22810;100.00000;,
 -245.34430;166.57530;107.01370;,
 -292.92050;166.57530;107.01370;,
 292.92050;191.15961;107.01370;,
 -292.92050;191.15961;107.01370;,
 283.60049;-2.26500;-100.00000;,
 238.83160;-2.26500;-100.00000;,
 283.60049;26.22810;-100.00000;,
 283.60049;-2.26500;-65.62480;,
 238.83160;-2.26500;-65.62480;,
 283.60049;-2.26500;71.30580;,
 238.83160;-2.26500;71.30580;,
 283.60049;-2.26500;100.00000;,
 238.83160;-2.26500;100.00000;,
 -237.53830;-2.26500;-65.62480;,
 -237.53830;-2.26500;-100.00000;,
 -283.60049;-2.26500;-65.62480;,
 -283.60049;-2.26500;-100.00000;,
 -283.60049;26.22810;-100.00000;,
 -237.53830;-2.26500;100.00000;,
 -237.53830;-2.26500;71.30580;,
 -283.60049;-2.26500;100.00000;,
 -283.60049;-2.26500;71.30580;,
 292.92050;191.15961;107.01370;,
 292.92050;191.15961;107.01370;,
 292.92050;191.15961;-107.01370;,
 292.92050;191.15961;-107.01370;,
 -292.92050;191.15961;-107.01370;,
 -292.92050;191.15961;-107.01370;,
 -292.92050;191.15961;107.01370;,
 -292.92050;191.15961;107.01370;,
 869.60052;166.57530;77.36400;,
 869.60052;166.57530;100.00000;,
 869.60052;26.22810;100.00000;,
 869.60052;26.22810;71.30580;,
 878.92047;166.57530;82.79010;,
 878.92047;166.57530;107.01370;,
 302.39951;26.22810;71.30580;,
 302.39951;26.22810;100.00000;,
 302.39951;166.57530;100.00000;,
 302.39951;166.57530;77.36400;,
 293.07950;166.57530;107.01370;,
 293.07950;166.57530;82.79010;,
 869.60052;166.57530;-71.68310;,
 869.60052;26.22810;-65.62480;,
 869.60052;26.22810;-100.00000;,
 869.60052;166.57530;-100.00000;,
 878.92047;166.57530;-107.01370;,
 878.92047;166.57530;-76.71070;,
 878.92047;191.15961;-107.01370;,
 878.92047;191.15961;107.01370;,
 302.39951;26.22810;-65.62480;,
 302.39951;166.57530;-71.68310;,
 302.39951;166.57530;-100.00000;,
 302.39951;26.22810;-100.00000;,
 585.66968;191.15961;0.62100;,
 293.07950;166.57530;-76.71070;,
 293.07950;166.57530;-107.01370;,
 293.07950;191.15961;107.01370;,
 293.07950;191.15961;-107.01370;,
 824.83160;26.22810;-100.00000;,
 824.83160;166.57530;-100.00000;,
 869.60052;166.57530;-100.00000;,
 869.60052;26.22810;-100.00000;,
 824.83160;26.22810;-65.62480;,
 869.60052;26.22810;-65.62480;,
 869.60052;26.22810;71.30580;,
 824.83160;26.22810;71.30580;,
 832.68030;166.57530;-107.01370;,
 878.92047;166.57530;-107.01370;,
 824.83160;26.22810;100.00000;,
 869.60052;26.22810;100.00000;,
 869.60052;166.57530;100.00000;,
 824.83160;166.57530;100.00000;,
 878.92047;166.57530;107.01370;,
 832.68030;166.57530;107.01370;,
 348.46170;26.22810;-100.00000;,
 824.83160;26.22810;-100.00000;,
 348.46170;26.22810;-65.62480;,
 348.46170;26.22810;-100.00000;,
 302.39951;26.22810;-100.00000;,
 302.39951;166.57530;-100.00000;,
 348.46170;166.57530;-100.00000;,
 348.46170;26.22810;71.30580;,
 302.39951;26.22810;71.30580;,
 302.39951;26.22810;-65.62480;,
 293.07950;166.57530;-107.01370;,
 340.65570;166.57530;-107.01370;,
 824.83160;26.22810;100.00000;,
 348.46170;26.22810;100.00000;,
 293.07950;191.15961;-107.01370;,
 878.92047;191.15961;-107.01370;,
 348.46170;26.22810;100.00000;,
 348.46170;166.57530;100.00000;,
 302.39951;166.57530;100.00000;,
 302.39951;26.22810;100.00000;,
 340.65570;166.57530;107.01370;,
 293.07950;166.57530;107.01370;,
 878.92047;191.15961;107.01370;,
 293.07950;191.15961;107.01370;,
 869.60052;-2.26500;-100.00000;,
 824.83160;-2.26500;-100.00000;,
 869.60052;26.22810;-100.00000;,
 869.60052;-2.26500;-65.62480;,
 824.83160;-2.26500;-65.62480;,
 869.60052;-2.26500;71.30580;,
 824.83160;-2.26500;71.30580;,
 869.60052;-2.26500;100.00000;,
 824.83160;-2.26500;100.00000;,
 348.46170;-2.26500;-65.62480;,
 348.46170;-2.26500;-100.00000;,
 302.39951;-2.26500;-65.62480;,
 302.39951;-2.26500;-100.00000;,
 302.39951;26.22810;-100.00000;,
 348.46170;-2.26500;100.00000;,
 348.46170;-2.26500;71.30580;,
 302.39951;-2.26500;100.00000;,
 302.39951;-2.26500;71.30580;,
 878.92047;191.15961;107.01370;,
 878.92047;191.15961;107.01370;,
 878.92047;191.15961;-107.01370;,
 878.92047;191.15961;-107.01370;,
 293.07950;191.15961;-107.01370;,
 293.07950;191.15961;-107.01370;,
 293.07950;191.15961;107.01370;,
 293.07950;191.15961;107.01370;,
 1454.60046;166.57530;77.36400;,
 1454.60046;166.57530;100.00000;,
 1454.60046;26.22810;100.00000;,
 1454.60046;26.22810;71.30580;,
 1463.92053;166.57530;82.79010;,
 1463.92053;166.57530;107.01370;,
 887.39948;26.22810;71.30580;,
 887.39948;26.22810;100.00000;,
 887.39948;166.57530;100.00000;,
 887.39948;166.57530;77.36400;,
 878.07953;166.57530;107.01370;,
 878.07953;166.57530;82.79010;,
 1454.60046;166.57530;-71.68310;,
 1454.60046;26.22810;-65.62480;,
 1454.60046;26.22810;-100.00000;,
 1454.60046;166.57530;-100.00000;,
 1463.92053;166.57530;-107.01370;,
 1463.92053;166.57530;-76.71070;,
 1463.92053;191.15961;-107.01370;,
 1463.92053;191.15961;107.01370;,
 887.39948;26.22810;-65.62480;,
 887.39948;166.57530;-71.68310;,
 887.39948;166.57530;-100.00000;,
 887.39948;26.22810;-100.00000;,
 1170.66968;191.15961;0.62100;,
 878.07953;166.57530;-76.71070;,
 878.07953;166.57530;-107.01370;,
 878.07953;191.15961;107.01370;,
 878.07953;191.15961;-107.01370;,
 1409.83154;26.22810;-100.00000;,
 1409.83154;166.57530;-100.00000;,
 1454.60046;166.57530;-100.00000;,
 1454.60046;26.22810;-100.00000;,
 1409.83154;26.22810;-65.62480;,
 1454.60046;26.22810;-65.62480;,
 1454.60046;26.22810;71.30580;,
 1409.83154;26.22810;71.30580;,
 1417.68030;166.57530;-107.01370;,
 1463.92053;166.57530;-107.01370;,
 1409.83154;26.22810;100.00000;,
 1454.60046;26.22810;100.00000;,
 1454.60046;166.57530;100.00000;,
 1409.83154;166.57530;100.00000;,
 1463.92053;166.57530;107.01370;,
 1417.68030;166.57530;107.01370;,
 933.46167;26.22810;-100.00000;,
 1409.83154;26.22810;-100.00000;,
 933.46167;26.22810;-65.62480;,
 933.46167;26.22810;-100.00000;,
 887.39948;26.22810;-100.00000;,
 887.39948;166.57530;-100.00000;,
 933.46167;166.57530;-100.00000;,
 933.46167;26.22810;71.30580;,
 887.39948;26.22810;71.30580;,
 887.39948;26.22810;-65.62480;,
 878.07953;166.57530;-107.01370;,
 925.65570;166.57530;-107.01370;,
 1409.83154;26.22810;100.00000;,
 933.46167;26.22810;100.00000;,
 878.07953;191.15961;-107.01370;,
 1463.92053;191.15961;-107.01370;,
 933.46167;26.22810;100.00000;,
 933.46167;166.57530;100.00000;,
 887.39948;166.57530;100.00000;,
 887.39948;26.22810;100.00000;,
 925.65570;166.57530;107.01370;,
 878.07953;166.57530;107.01370;,
 1463.92053;191.15961;107.01370;,
 878.07953;191.15961;107.01370;,
 1454.60046;-2.26500;-100.00000;,
 1409.83154;-2.26500;-100.00000;,
 1454.60046;26.22810;-100.00000;,
 1454.60046;-2.26500;-65.62480;,
 1409.83154;-2.26500;-65.62480;,
 1454.60046;-2.26500;71.30580;,
 1409.83154;-2.26500;71.30580;,
 1454.60046;-2.26500;100.00000;,
 1409.83154;-2.26500;100.00000;,
 933.46167;-2.26500;-65.62480;,
 933.46167;-2.26500;-100.00000;,
 887.39948;-2.26500;-65.62480;,
 887.39948;-2.26500;-100.00000;,
 887.39948;26.22810;-100.00000;,
 933.46167;-2.26500;100.00000;,
 933.46167;-2.26500;71.30580;,
 887.39948;-2.26500;100.00000;,
 887.39948;-2.26500;71.30580;,
 1463.92053;191.15961;107.01370;,
 1463.92053;191.15961;107.01370;,
 1463.92053;191.15961;-107.01370;,
 1463.92053;191.15961;-107.01370;,
 878.07953;191.15961;-107.01370;,
 878.07953;191.15961;-107.01370;,
 878.07953;191.15961;107.01370;,
 878.07953;191.15961;107.01370;,
 -301.39951;166.57530;77.36400;,
 -301.39951;166.57530;100.00000;,
 -301.39951;26.22810;100.00000;,
 -301.39951;26.22810;71.30580;,
 -292.07950;166.57530;82.79010;,
 -292.07950;166.57530;107.01370;,
 -868.60052;26.22810;71.30580;,
 -868.60052;26.22810;100.00000;,
 -868.60052;166.57530;100.00000;,
 -868.60052;166.57530;77.36400;,
 -877.92047;166.57530;107.01370;,
 -877.92047;166.57530;82.79010;,
 -301.39951;166.57530;-71.68310;,
 -301.39951;26.22810;-65.62480;,
 -301.39951;26.22810;-100.00000;,
 -301.39951;166.57530;-100.00000;,
 -292.07950;166.57530;-107.01370;,
 -292.07950;166.57530;-76.71070;,
 -292.07950;191.15961;-107.01370;,
 -292.07950;191.15961;107.01370;,
 -868.60052;26.22810;-65.62480;,
 -868.60052;166.57530;-71.68310;,
 -868.60052;166.57530;-100.00000;,
 -868.60052;26.22810;-100.00000;,
 -585.33032;191.15961;0.62100;,
 -877.92047;166.57530;-76.71070;,
 -877.92047;166.57530;-107.01370;,
 -877.92047;191.15961;107.01370;,
 -877.92047;191.15961;-107.01370;,
 -346.16840;26.22810;-100.00000;,
 -346.16840;166.57530;-100.00000;,
 -301.39951;166.57530;-100.00000;,
 -301.39951;26.22810;-100.00000;,
 -346.16840;26.22810;-65.62480;,
 -301.39951;26.22810;-65.62480;,
 -301.39951;26.22810;71.30580;,
 -346.16840;26.22810;71.30580;,
 -338.31970;166.57530;-107.01370;,
 -292.07950;166.57530;-107.01370;,
 -346.16840;26.22810;100.00000;,
 -301.39951;26.22810;100.00000;,
 -301.39951;166.57530;100.00000;,
 -346.16840;166.57530;100.00000;,
 -292.07950;166.57530;107.01370;,
 -338.31970;166.57530;107.01370;,
 -822.53833;26.22810;-100.00000;,
 -346.16840;26.22810;-100.00000;,
 -822.53833;26.22810;-65.62480;,
 -822.53833;26.22810;-100.00000;,
 -868.60052;26.22810;-100.00000;,
 -868.60052;166.57530;-100.00000;,
 -822.53833;166.57530;-100.00000;,
 -822.53833;26.22810;71.30580;,
 -868.60052;26.22810;71.30580;,
 -868.60052;26.22810;-65.62480;,
 -877.92047;166.57530;-107.01370;,
 -830.34430;166.57530;-107.01370;,
 -346.16840;26.22810;100.00000;,
 -822.53833;26.22810;100.00000;,
 -877.92047;191.15961;-107.01370;,
 -292.07950;191.15961;-107.01370;,
 -822.53833;26.22810;100.00000;,
 -822.53833;166.57530;100.00000;,
 -868.60052;166.57530;100.00000;,
 -868.60052;26.22810;100.00000;,
 -830.34430;166.57530;107.01370;,
 -877.92047;166.57530;107.01370;,
 -292.07950;191.15961;107.01370;,
 -877.92047;191.15961;107.01370;,
 -301.39951;-2.26500;-100.00000;,
 -346.16840;-2.26500;-100.00000;,
 -301.39951;26.22810;-100.00000;,
 -301.39951;-2.26500;-65.62480;,
 -346.16840;-2.26500;-65.62480;,
 -301.39951;-2.26500;71.30580;,
 -346.16840;-2.26500;71.30580;,
 -301.39951;-2.26500;100.00000;,
 -346.16840;-2.26500;100.00000;,
 -822.53833;-2.26500;-65.62480;,
 -822.53833;-2.26500;-100.00000;,
 -868.60052;-2.26500;-65.62480;,
 -868.60052;-2.26500;-100.00000;,
 -868.60052;26.22810;-100.00000;,
 -822.53833;-2.26500;100.00000;,
 -822.53833;-2.26500;71.30580;,
 -868.60052;-2.26500;100.00000;,
 -868.60052;-2.26500;71.30580;,
 -292.07950;191.15961;107.01370;,
 -292.07950;191.15961;107.01370;,
 -292.07950;191.15961;-107.01370;,
 -292.07950;191.15961;-107.01370;,
 -877.92047;191.15961;-107.01370;,
 -877.92047;191.15961;-107.01370;,
 -877.92047;191.15961;107.01370;,
 -877.92047;191.15961;107.01370;,
 -886.39948;166.57530;77.36400;,
 -886.39948;166.57530;100.00000;,
 -886.39948;26.22810;100.00000;,
 -886.39948;26.22810;71.30580;,
 -877.07953;166.57530;82.79010;,
 -877.07953;166.57530;107.01370;,
 -1453.60046;26.22810;71.30580;,
 -1453.60046;26.22810;100.00000;,
 -1453.60046;166.57530;100.00000;,
 -1453.60046;166.57530;77.36400;,
 -1462.92041;166.57530;107.01370;,
 -1462.92041;166.57530;82.79010;,
 -886.39948;166.57530;-71.68310;,
 -886.39948;26.22810;-65.62480;,
 -886.39948;26.22810;-100.00000;,
 -886.39948;166.57530;-100.00000;,
 -877.07953;166.57530;-107.01370;,
 -877.07953;166.57530;-76.71070;,
 -877.07953;191.15961;-107.01370;,
 -877.07953;191.15961;107.01370;,
 -1453.60046;26.22810;-65.62480;,
 -1453.60046;166.57530;-71.68310;,
 -1453.60046;166.57530;-100.00000;,
 -1453.60046;26.22810;-100.00000;,
 -1170.33032;191.15961;0.62100;,
 -1462.92041;166.57530;-76.71070;,
 -1462.92041;166.57530;-107.01370;,
 -1462.92041;191.15961;107.01370;,
 -1462.92041;191.15961;-107.01370;,
 -931.16827;26.22810;-100.00000;,
 -931.16827;166.57530;-100.00000;,
 -886.39948;166.57530;-100.00000;,
 -886.39948;26.22810;-100.00000;,
 -931.16827;26.22810;-65.62480;,
 -886.39948;26.22810;-65.62480;,
 -886.39948;26.22810;71.30580;,
 -931.16827;26.22810;71.30580;,
 -923.31970;166.57530;-107.01370;,
 -877.07953;166.57530;-107.01370;,
 -931.16827;26.22810;100.00000;,
 -886.39948;26.22810;100.00000;,
 -886.39948;166.57530;100.00000;,
 -931.16827;166.57530;100.00000;,
 -877.07953;166.57530;107.01370;,
 -923.31970;166.57530;107.01370;,
 -1407.53833;26.22810;-100.00000;,
 -931.16827;26.22810;-100.00000;,
 -1407.53833;26.22810;-65.62480;,
 -1407.53833;26.22810;-100.00000;,
 -1453.60046;26.22810;-100.00000;,
 -1453.60046;166.57530;-100.00000;,
 -1407.53833;166.57530;-100.00000;,
 -1407.53833;26.22810;71.30580;,
 -1453.60046;26.22810;71.30580;,
 -1453.60046;26.22810;-65.62480;,
 -1462.92041;166.57530;-107.01370;,
 -1415.34424;166.57530;-107.01370;,
 -931.16827;26.22810;100.00000;,
 -1407.53833;26.22810;100.00000;,
 -1462.92041;191.15961;-107.01370;,
 -877.07953;191.15961;-107.01370;,
 -1407.53833;26.22810;100.00000;,
 -1407.53833;166.57530;100.00000;,
 -1453.60046;166.57530;100.00000;,
 -1453.60046;26.22810;100.00000;,
 -1415.34424;166.57530;107.01370;,
 -1462.92041;166.57530;107.01370;,
 -877.07953;191.15961;107.01370;,
 -1462.92041;191.15961;107.01370;,
 -886.39948;-2.26500;-100.00000;,
 -931.16827;-2.26500;-100.00000;,
 -886.39948;26.22810;-100.00000;,
 -886.39948;-2.26500;-65.62480;,
 -931.16827;-2.26500;-65.62480;,
 -886.39948;-2.26500;71.30580;,
 -931.16827;-2.26500;71.30580;,
 -886.39948;-2.26500;100.00000;,
 -931.16827;-2.26500;100.00000;,
 -1407.53833;-2.26500;-65.62480;,
 -1407.53833;-2.26500;-100.00000;,
 -1453.60046;-2.26500;-65.62480;,
 -1453.60046;-2.26500;-100.00000;,
 -1453.60046;26.22810;-100.00000;,
 -1407.53833;-2.26500;100.00000;,
 -1407.53833;-2.26500;71.30580;,
 -1453.60046;-2.26500;100.00000;,
 -1453.60046;-2.26500;71.30580;,
 -877.07953;191.15961;107.01370;,
 -877.07953;191.15961;107.01370;,
 -877.07953;191.15961;-107.01370;,
 -877.07953;191.15961;-107.01370;,
 -1462.92041;191.15961;-107.01370;,
 -1462.92041;191.15961;-107.01370;,
 -1462.92041;191.15961;107.01370;,
 -1462.92041;191.15961;107.01370;;
 
 325;
 4;0,1,2,3;,
 4;0,4,5,1;,
 4;6,7,8,9;,
 4;9,8,10,11;,
 4;12,0,3,13;,
 4;12,13,14,15;,
 4;12,15,16,17;,
 4;12,17,4,0;,
 4;17,18,19,4;,
 4;20,6,9,21;,
 4;20,21,22,23;,
 3;18,24,19;,
 4;21,9,11,25;,
 4;21,25,26,22;,
 4;25,11,27,28;,
 3;28,27,24;,
 4;29,30,31,32;,
 4;33,34,35,36;,
 4;30,37,38,31;,
 4;39,40,41,42;,
 4;42,41,43,44;,
 4;45,46,33,47;,
 4;48,49,50,51;,
 4;48,51,30,29;,
 4;47,33,36,52;,
 4;47,52,53,54;,
 4;51,50,55,56;,
 4;51,56,37,30;,
 4;52,36,57,58;,
 4;56,59,60,37;,
 4;61,39,42,62;,
 4;61,62,63,64;,
 3;59,24,60;,
 4;62,42,44,65;,
 4;62,65,66,63;,
 4;65,44,67,68;,
 3;68,67,24;,
 4;69,70,46,71;,
 4;72,69,71,34;,
 4;73,72,34,33;,
 4;70,73,33,46;,
 4;70,69,72,73;,
 4;74,75,36,35;,
 4;76,74,35,2;,
 4;77,76,2,57;,
 4;75,77,57,36;,
 4;75,74,76,77;,
 4;78,79,45,47;,
 4;80,78,47,54;,
 4;81,80,54,82;,
 4;79,81,82,45;,
 4;79,78,80,81;,
 4;83,84,52,58;,
 4;85,83,58,7;,
 4;86,85,7,53;,
 4;84,86,53,52;,
 4;84,83,85,86;,
 3;87,44,43;,
 3;88,5,4;,
 3;89,17,16;,
 3;90,38,37;,
 3;91,56,55;,
 3;92,26,25;,
 3;93,11,10;,
 3;94,66,65;,
 4;95,96,97,98;,
 4;95,99,100,96;,
 4;101,102,103,104;,
 4;104,103,105,106;,
 4;107,95,98,108;,
 4;107,108,109,110;,
 4;107,110,111,112;,
 4;107,112,99,95;,
 4;112,113,114,99;,
 4;115,101,104,116;,
 4;115,116,117,118;,
 3;113,119,114;,
 4;116,104,106,120;,
 4;116,120,121,117;,
 4;120,106,122,123;,
 3;123,122,119;,
 4;124,125,126,127;,
 4;128,129,130,131;,
 4;125,132,133,126;,
 4;134,135,136,137;,
 4;137,136,138,139;,
 4;140,141,128,142;,
 4;143,144,145,146;,
 4;143,146,125,124;,
 4;142,128,131,147;,
 4;142,147,148,149;,
 4;146,145,150,151;,
 4;146,151,132,125;,
 4;147,131,152,153;,
 4;151,154,155,132;,
 4;156,134,137,157;,
 4;156,157,158,159;,
 3;154,119,155;,
 4;157,137,139,160;,
 4;157,160,161,158;,
 4;160,139,162,163;,
 3;163,162,119;,
 4;164,165,141,166;,
 4;167,164,166,129;,
 4;168,167,129,128;,
 4;165,168,128,141;,
 4;165,164,167,168;,
 4;169,170,131,130;,
 4;171,169,130,97;,
 4;172,171,97,152;,
 4;170,172,152,131;,
 4;170,169,171,172;,
 4;173,174,140,142;,
 4;175,173,142,149;,
 4;176,175,149,177;,
 4;174,176,177,140;,
 4;174,173,175,176;,
 4;178,179,147,153;,
 4;180,178,153,102;,
 4;181,180,102,148;,
 4;179,181,148,147;,
 4;179,178,180,181;,
 3;182,139,138;,
 3;183,100,99;,
 3;184,112,111;,
 3;185,133,132;,
 3;186,151,150;,
 3;187,121,120;,
 3;188,106,105;,
 3;189,161,160;,
 4;190,191,192,193;,
 4;190,194,195,191;,
 4;196,197,198,199;,
 4;199,198,200,201;,
 4;202,190,193,203;,
 4;202,203,204,205;,
 4;202,205,206,207;,
 4;202,207,194,190;,
 4;207,208,209,194;,
 4;210,196,199,211;,
 4;210,211,212,213;,
 3;208,214,209;,
 4;211,199,201,215;,
 4;211,215,216,212;,
 4;215,201,217,218;,
 3;218,217,214;,
 4;219,220,221,222;,
 4;223,224,225,226;,
 4;220,227,228,221;,
 4;229,230,231,232;,
 4;232,231,233,234;,
 4;235,236,223,237;,
 4;238,239,240,241;,
 4;238,241,220,219;,
 4;237,223,226,242;,
 4;237,242,243,244;,
 4;241,240,245,246;,
 4;241,246,227,220;,
 4;242,226,247,248;,
 4;246,249,250,227;,
 4;251,229,232,252;,
 4;251,252,253,254;,
 3;249,214,250;,
 4;252,232,234,255;,
 4;252,255,256,253;,
 4;255,234,257,258;,
 3;258,257,214;,
 4;259,260,236,261;,
 4;262,259,261,224;,
 4;263,262,224,223;,
 4;260,263,223,236;,
 4;260,259,262,263;,
 4;264,265,226,225;,
 4;266,264,225,192;,
 4;267,266,192,247;,
 4;265,267,247,226;,
 4;265,264,266,267;,
 4;268,269,235,237;,
 4;270,268,237,244;,
 4;271,270,244,272;,
 4;269,271,272,235;,
 4;269,268,270,271;,
 4;273,274,242,248;,
 4;275,273,248,197;,
 4;276,275,197,243;,
 4;274,276,243,242;,
 4;274,273,275,276;,
 3;277,234,233;,
 3;278,195,194;,
 3;279,207,206;,
 3;280,228,227;,
 3;281,246,245;,
 3;282,216,215;,
 3;283,201,200;,
 3;284,256,255;,
 4;285,286,287,288;,
 4;285,289,290,286;,
 4;291,292,293,294;,
 4;294,293,295,296;,
 4;297,285,288,298;,
 4;297,298,299,300;,
 4;297,300,301,302;,
 4;297,302,289,285;,
 4;302,303,304,289;,
 4;305,291,294,306;,
 4;305,306,307,308;,
 3;303,309,304;,
 4;306,294,296,310;,
 4;306,310,311,307;,
 4;310,296,312,313;,
 3;313,312,309;,
 4;314,315,316,317;,
 4;318,319,320,321;,
 4;315,322,323,316;,
 4;324,325,326,327;,
 4;327,326,328,329;,
 4;330,331,318,332;,
 4;333,334,335,336;,
 4;333,336,315,314;,
 4;332,318,321,337;,
 4;332,337,338,339;,
 4;336,335,340,341;,
 4;336,341,322,315;,
 4;337,321,342,343;,
 4;341,344,345,322;,
 4;346,324,327,347;,
 4;346,347,348,349;,
 3;344,309,345;,
 4;347,327,329,350;,
 4;347,350,351,348;,
 4;350,329,352,353;,
 3;353,352,309;,
 4;354,355,331,356;,
 4;357,354,356,319;,
 4;358,357,319,318;,
 4;355,358,318,331;,
 4;355,354,357,358;,
 4;359,360,321,320;,
 4;361,359,320,287;,
 4;362,361,287,342;,
 4;360,362,342,321;,
 4;360,359,361,362;,
 4;363,364,330,332;,
 4;365,363,332,339;,
 4;366,365,339,367;,
 4;364,366,367,330;,
 4;364,363,365,366;,
 4;368,369,337,343;,
 4;370,368,343,292;,
 4;371,370,292,338;,
 4;369,371,338,337;,
 4;369,368,370,371;,
 3;372,329,328;,
 3;373,290,289;,
 3;374,302,301;,
 3;375,323,322;,
 3;376,341,340;,
 3;377,311,310;,
 3;378,296,295;,
 3;379,351,350;,
 4;380,381,382,383;,
 4;380,384,385,381;,
 4;386,387,388,389;,
 4;389,388,390,391;,
 4;392,380,383,393;,
 4;392,393,394,395;,
 4;392,395,396,397;,
 4;392,397,384,380;,
 4;397,398,399,384;,
 4;400,386,389,401;,
 4;400,401,402,403;,
 3;398,404,399;,
 4;401,389,391,405;,
 4;401,405,406,402;,
 4;405,391,407,408;,
 3;408,407,404;,
 4;409,410,411,412;,
 4;413,414,415,416;,
 4;410,417,418,411;,
 4;419,420,421,422;,
 4;422,421,423,424;,
 4;425,426,413,427;,
 4;428,429,430,431;,
 4;428,431,410,409;,
 4;427,413,416,432;,
 4;427,432,433,434;,
 4;431,430,435,436;,
 4;431,436,417,410;,
 4;432,416,437,438;,
 4;436,439,440,417;,
 4;441,419,422,442;,
 4;441,442,443,444;,
 3;439,404,440;,
 4;442,422,424,445;,
 4;442,445,446,443;,
 4;445,424,447,448;,
 3;448,447,404;,
 4;449,450,426,451;,
 4;452,449,451,414;,
 4;453,452,414,413;,
 4;450,453,413,426;,
 4;450,449,452,453;,
 4;454,455,416,415;,
 4;456,454,415,382;,
 4;457,456,382,437;,
 4;455,457,437,416;,
 4;455,454,456,457;,
 4;458,459,425,427;,
 4;460,458,427,434;,
 4;461,460,434,462;,
 4;459,461,462,425;,
 4;459,458,460,461;,
 4;463,464,432,438;,
 4;465,463,438,387;,
 4;466,465,387,433;,
 4;464,466,433,432;,
 4;464,463,465,466;,
 3;467,424,423;,
 3;468,385,384;,
 3;469,397,396;,
 3;470,418,417;,
 3;471,436,435;,
 3;472,406,405;,
 3;473,391,390;,
 3;474,446,445;;
 
 MeshMaterialList {
  1;
  325;
  0,
  0,
  0,
  0,
  0,
  0,
  0,
  0,
  0,
  0,
  0,
  0,
  0,
  0,
  0,
  0,
  0,
  0,
  0,
  0,
  0,
  0,
  0,
  0,
  0,
  0,
  0,
  0,
  0,
  0,
  0,
  0,
  0,
  0,
  0,
  0,
  0,
  0,
  0,
  0,
  0,
  0,
  0,
  0,
  0,
  0,
  0,
  0,
  0,
  0,
  0,
  0,
  0,
  0,
  0,
  0,
  0,
  0,
  0,
  0,
  0,
  0,
  0,
  0,
  0,
  0,
  0,
  0,
  0,
  0,
  0,
  0,
  0,
  0,
  0,
  0,
  0,
  0,
  0,
  0,
  0,
  0,
  0,
  0,
  0,
  0,
  0,
  0,
  0,
  0,
  0,
  0,
  0,
  0,
  0,
  0,
  0,
  0,
  0,
  0,
  0,
  0,
  0,
  0,
  0,
  0,
  0,
  0,
  0,
  0,
  0,
  0,
  0,
  0,
  0,
  0,
  0,
  0,
  0,
  0,
  0,
  0,
  0,
  0,
  0,
  0,
  0,
  0,
  0,
  0,
  0,
  0,
  0,
  0,
  0,
  0,
  0,
  0,
  0,
  0,
  0,
  0,
  0,
  0,
  0,
  0,
  0,
  0,
  0,
  0,
  0,
  0,
  0,
  0,
  0,
  0,
  0,
  0,
  0,
  0,
  0,
  0,
  0,
  0,
  0,
  0,
  0,
  0,
  0,
  0,
  0,
  0,
  0,
  0,
  0,
  0,
  0,
  0,
  0,
  0,
  0,
  0,
  0,
  0,
  0,
  0,
  0,
  0,
  0,
  0,
  0,
  0,
  0,
  0,
  0,
  0,
  0,
  0,
  0,
  0,
  0,
  0,
  0,
  0,
  0,
  0,
  0,
  0,
  0,
  0,
  0,
  0,
  0,
  0,
  0,
  0,
  0,
  0,
  0,
  0,
  0,
  0,
  0,
  0,
  0,
  0,
  0,
  0,
  0,
  0,
  0,
  0,
  0,
  0,
  0,
  0,
  0,
  0,
  0,
  0,
  0,
  0,
  0,
  0,
  0,
  0,
  0,
  0,
  0,
  0,
  0,
  0,
  0,
  0,
  0,
  0,
  0,
  0,
  0,
  0,
  0,
  0,
  0,
  0,
  0,
  0,
  0,
  0,
  0,
  0,
  0,
  0,
  0,
  0,
  0,
  0,
  0,
  0,
  0,
  0,
  0,
  0,
  0,
  0,
  0,
  0,
  0,
  0,
  0,
  0,
  0,
  0,
  0,
  0,
  0,
  0,
  0,
  0,
  0,
  0,
  0,
  0,
  0,
  0,
  0,
  0,
  0,
  0,
  0,
  0,
  0,
  0,
  0,
  0,
  0,
  0,
  0,
  0,
  0,
  0,
  0,
  0,
  0,
  0,
  0;;
  Material {
   0.800000;0.800000;0.800000;1.000000;;
   8.000000;
   0.290000;0.290000;0.290000;;
   0.000000;0.000000;0.000000;;
  }
 }
 MeshNormals {
  40;
  -1.000000;0.000000;0.000000;,
  1.000000;0.000000;0.000000;,
  0.000000;1.000000;0.000000;,
  0.000000;-1.000000;-0.000000;,
  0.000000;0.000000;-1.000000;,
  0.000000;0.000000;1.000000;,
  1.000000;0.000000;-0.000000;,
  -1.000000;0.000000;0.000000;,
  -1.000000;0.000000;0.000000;,
  1.000000;0.000000;0.000000;,
  0.000000;1.000000;0.000000;,
  0.000000;-1.000000;-0.000000;,
  0.000000;0.000000;-1.000000;,
  0.000000;0.000000;1.000000;,
  1.000000;0.000000;-0.000000;,
  -1.000000;0.000000;0.000000;,
  -1.000000;0.000000;0.000000;,
  1.000000;0.000000;0.000000;,
  0.000000;1.000000;0.000000;,
  0.000000;-1.000000;-0.000000;,
  0.000000;0.000000;-1.000000;,
  0.000000;0.000000;1.000000;,
  1.000000;0.000000;-0.000000;,
  -1.000000;0.000000;0.000000;,
  -1.000000;0.000000;0.000000;,
  1.000000;0.000000;0.000000;,
  0.000000;1.000000;0.000000;,
  0.000000;-1.000000;-0.000000;,
  0.000000;0.000000;-1.000000;,
  0.000000;0.000000;1.000000;,
  1.000000;0.000000;-0.000000;,
  -1.000000;0.000000;0.000000;,
  -1.000000;0.000000;0.000000;,
  1.000000;0.000000;0.000000;,
  0.000000;1.000000;0.000000;,
  0.000000;-1.000000;-0.000000;,
  0.000000;0.000000;-1.000000;,
  0.000000;0.000000;1.000000;,
  1.000000;0.000000;-0.000000;,
  -1.000000;0.000000;0.000000;;
  325;
  4;1,1,1,1;,
  4;3,3,3,3;,
  4;0,0,0,0;,
  4;3,3,3,3;,
  4;1,1,1,1;,
  4;1,1,1,1;,
  4;3,3,3,3;,
  4;3,3,3,3;,
  4;1,1,1,1;,
  4;0,0,0,0;,
  4;0,0,0,0;,
  3;2,2,2;,
  4;3,3,3,3;,
  4;3,3,3,3;,
  4;0,0,0,0;,
  3;2,2,2;,
  4;4,4,4,4;,
  4;3,3,3,3;,
  4;3,3,3,3;,
  4;5,5,5,5;,
  4;3,3,3,3;,
  4;3,3,3,3;,
  4;4,4,4,4;,
  4;4,4,4,4;,
  4;3,3,3,3;,
  4;3,3,3,3;,
  4;3,3,3,3;,
  4;3,3,3,3;,
  4;3,3,3,3;,
  4;4,4,4,4;,
  4;5,5,5,5;,
  4;5,5,5,5;,
  3;2,2,2;,
  4;3,3,3,3;,
  4;3,3,3,3;,
  4;5,5,5,5;,
  3;2,2,2;,
  4;4,4,4,4;,
  4;1,1,1,1;,
  4;5,5,5,5;,
  4;0,0,0,0;,
  4;3,3,3,3;,
  4;4,4,4,4;,
  4;1,1,1,1;,
  4;5,5,5,5;,
  4;0,0,0,0;,
  4;3,3,3,3;,
  4;1,1,1,1;,
  4;5,5,5,5;,
  4;0,0,0,0;,
  4;4,4,4,4;,
  4;3,3,3,3;,
  4;1,1,1,1;,
  4;5,5,5,5;,
  4;0,0,0,0;,
  4;4,4,4,4;,
  4;3,3,3,3;,
  3;5,5,5;,
  3;1,1,1;,
  3;1,1,6;,
  3;4,4,4;,
  3;4,4,4;,
  3;0,7,0;,
  3;0,0,0;,
  3;5,5,5;,
  4;9,9,9,9;,
  4;11,11,11,11;,
  4;8,8,8,8;,
  4;11,11,11,11;,
  4;9,9,9,9;,
  4;9,9,9,9;,
  4;11,11,11,11;,
  4;11,11,11,11;,
  4;9,9,9,9;,
  4;8,8,8,8;,
  4;8,8,8,8;,
  3;10,10,10;,
  4;11,11,11,11;,
  4;11,11,11,11;,
  4;8,8,8,8;,
  3;10,10,10;,
  4;12,12,12,12;,
  4;11,11,11,11;,
  4;11,11,11,11;,
  4;13,13,13,13;,
  4;11,11,11,11;,
  4;11,11,11,11;,
  4;12,12,12,12;,
  4;12,12,12,12;,
  4;11,11,11,11;,
  4;11,11,11,11;,
  4;11,11,11,11;,
  4;11,11,11,11;,
  4;11,11,11,11;,
  4;12,12,12,12;,
  4;13,13,13,13;,
  4;13,13,13,13;,
  3;10,10,10;,
  4;11,11,11,11;,
  4;11,11,11,11;,
  4;13,13,13,13;,
  3;10,10,10;,
  4;12,12,12,12;,
  4;9,9,9,9;,
  4;13,13,13,13;,
  4;8,8,8,8;,
  4;11,11,11,11;,
  4;12,12,12,12;,
  4;9,9,9,9;,
  4;13,13,13,13;,
  4;8,8,8,8;,
  4;11,11,11,11;,
  4;9,9,9,9;,
  4;13,13,13,13;,
  4;8,8,8,8;,
  4;12,12,12,12;,
  4;11,11,11,11;,
  4;9,9,9,9;,
  4;13,13,13,13;,
  4;8,8,8,8;,
  4;12,12,12,12;,
  4;11,11,11,11;,
  3;13,13,13;,
  3;9,9,9;,
  3;9,9,14;,
  3;12,12,12;,
  3;12,12,12;,
  3;8,15,8;,
  3;8,8,8;,
  3;13,13,13;,
  4;17,17,17,17;,
  4;19,19,19,19;,
  4;16,16,16,16;,
  4;19,19,19,19;,
  4;17,17,17,17;,
  4;17,17,17,17;,
  4;19,19,19,19;,
  4;19,19,19,19;,
  4;17,17,17,17;,
  4;16,16,16,16;,
  4;16,16,16,16;,
  3;18,18,18;,
  4;19,19,19,19;,
  4;19,19,19,19;,
  4;16,16,16,16;,
  3;18,18,18;,
  4;20,20,20,20;,
  4;19,19,19,19;,
  4;19,19,19,19;,
  4;21,21,21,21;,
  4;19,19,19,19;,
  4;19,19,19,19;,
  4;20,20,20,20;,
  4;20,20,20,20;,
  4;19,19,19,19;,
  4;19,19,19,19;,
  4;19,19,19,19;,
  4;19,19,19,19;,
  4;19,19,19,19;,
  4;20,20,20,20;,
  4;21,21,21,21;,
  4;21,21,21,21;,
  3;18,18,18;,
  4;19,19,19,19;,
  4;19,19,19,19;,
  4;21,21,21,21;,
  3;18,18,18;,
  4;20,20,20,20;,
  4;17,17,17,17;,
  4;21,21,21,21;,
  4;16,16,16,16;,
  4;19,19,19,19;,
  4;20,20,20,20;,
  4;17,17,17,17;,
  4;21,21,21,21;,
  4;16,16,16,16;,
  4;19,19,19,19;,
  4;17,17,17,17;,
  4;21,21,21,21;,
  4;16,16,16,16;,
  4;20,20,20,20;,
  4;19,19,19,19;,
  4;17,17,17,17;,
  4;21,21,21,21;,
  4;16,16,16,16;,
  4;20,20,20,20;,
  4;19,19,19,19;,
  3;21,21,21;,
  3;17,17,17;,
  3;17,17,22;,
  3;20,20,20;,
  3;20,20,20;,
  3;16,23,16;,
  3;16,16,16;,
  3;21,21,21;,
  4;25,25,25,25;,
  4;27,27,27,27;,
  4;24,24,24,24;,
  4;27,27,27,27;,
  4;25,25,25,25;,
  4;25,25,25,25;,
  4;27,27,27,27;,
  4;27,27,27,27;,
  4;25,25,25,25;,
  4;24,24,24,24;,
  4;24,24,24,24;,
  3;26,26,26;,
  4;27,27,27,27;,
  4;27,27,27,27;,
  4;24,24,24,24;,
  3;26,26,26;,
  4;28,28,28,28;,
  4;27,27,27,27;,
  4;27,27,27,27;,
  4;29,29,29,29;,
  4;27,27,27,27;,
  4;27,27,27,27;,
  4;28,28,28,28;,
  4;28,28,28,28;,
  4;27,27,27,27;,
  4;27,27,27,27;,
  4;27,27,27,27;,
  4;27,27,27,27;,
  4;27,27,27,27;,
  4;28,28,28,28;,
  4;29,29,29,29;,
  4;29,29,29,29;,
  3;26,26,26;,
  4;27,27,27,27;,
  4;27,27,27,27;,
  4;29,29,29,29;,
  3;26,26,26;,
  4;28,28,28,28;,
  4;25,25,25,25;,
  4;29,29,29,29;,
  4;24,24,24,24;,
  4;27,27,27,27;,
  4;28,28,28,28;,
  4;25,25,25,25;,
  4;29,29,29,29;,
  4;24,24,24,24;,
  4;27,27,27,27;,
  4;25,25,25,25;,
  4;29,29,29,29;,
  4;24,24,24,24;,
  4;28,28,28,28;,
  4;27,27,27,27;,
  4;25,25,25,25;,
  4;29,29,29,29;,
  4;24,24,24,24;,
  4;28,28,28,28;,
  4;27,27,27,27;,
  3;29,29,29;,
  3;25,25,25;,
  3;25,25,30;,
  3;28,28,28;,
  3;28,28,28;,
  3;24,31,24;,
  3;24,24,24;,
  3;29,29,29;,
  4;33,33,33,33;,
  4;35,35,35,35;,
  4;32,32,32,32;,
  4;35,35,35,35;,
  4;33,33,33,33;,
  4;33,33,33,33;,
  4;35,35,35,35;,
  4;35,35,35,35;,
  4;33,33,33,33;,
  4;32,32,32,32;,
  4;32,32,32,32;,
  3;34,34,34;,
  4;35,35,35,35;,
  4;35,35,35,35;,
  4;32,32,32,32;,
  3;34,34,34;,
  4;36,36,36,36;,
  4;35,35,35,35;,
  4;35,35,35,35;,
  4;37,37,37,37;,
  4;35,35,35,35;,
  4;35,35,35,35;,
  4;36,36,36,36;,
  4;36,36,36,36;,
  4;35,35,35,35;,
  4;35,35,35,35;,
  4;35,35,35,35;,
  4;35,35,35,35;,
  4;35,35,35,35;,
  4;36,36,36,36;,
  4;37,37,37,37;,
  4;37,37,37,37;,
  3;34,34,34;,
  4;35,35,35,35;,
  4;35,35,35,35;,
  4;37,37,37,37;,
  3;34,34,34;,
  4;36,36,36,36;,
  4;33,33,33,33;,
  4;37,37,37,37;,
  4;32,32,32,32;,
  4;35,35,35,35;,
  4;36,36,36,36;,
  4;33,33,33,33;,
  4;37,37,37,37;,
  4;32,32,32,32;,
  4;35,35,35,35;,
  4;33,33,33,33;,
  4;37,37,37,37;,
  4;32,32,32,32;,
  4;36,36,36,36;,
  4;35,35,35,35;,
  4;33,33,33,33;,
  4;37,37,37,37;,
  4;32,32,32,32;,
  4;36,36,36,36;,
  4;35,35,35,35;,
  3;37,37,37;,
  3;33,33,33;,
  3;33,33,38;,
  3;36,36,36;,
  3;36,36,36;,
  3;32,39,32;,
  3;32,32,32;,
  3;37,37,37;;
 }
 MeshTextureCoords {
  475;
  0.886820;0.122920;,
  1.000000;0.122920;,
  1.000000;1.000000;,
  0.886820;1.000000;,
  0.886820;0.122920;,
  1.000000;0.122920;,
  0.113180;1.000000;,
  0.000000;1.000000;,
  0.000000;0.122920;,
  0.113180;0.122920;,
  0.000000;0.122920;,
  0.113180;0.122920;,
  0.141580;0.122920;,
  0.141580;1.000000;,
  0.000000;1.000000;,
  0.000000;0.122920;,
  0.000000;0.122920;,
  0.141580;0.122920;,
  0.141580;0.000000;,
  0.886820;0.000000;,
  0.858420;1.000000;,
  0.858420;0.122920;,
  1.000000;0.122920;,
  1.000000;1.000000;,
  0.500000;0.000000;,
  0.858420;0.122920;,
  1.000000;0.122920;,
  0.113180;0.000000;,
  0.858420;0.000000;,
  0.921070;1.000000;,
  0.921070;0.122920;,
  1.000000;0.122920;,
  1.000000;1.000000;,
  0.921070;0.141580;,
  1.000000;0.141580;,
  1.000000;0.886820;,
  0.921070;0.886820;,
  0.921070;0.122920;,
  1.000000;0.122920;,
  0.078930;1.000000;,
  0.000000;1.000000;,
  0.000000;0.122920;,
  0.078930;0.122920;,
  0.000000;0.122920;,
  0.078930;0.122920;,
  0.081210;0.000000;,
  0.921070;0.000000;,
  0.081210;0.141580;,
  0.081210;1.000000;,
  0.000000;1.000000;,
  0.000000;0.122920;,
  0.081210;0.122920;,
  0.081210;0.886820;,
  0.000000;0.886820;,
  0.000000;0.141580;,
  0.000000;0.122920;,
  0.081210;0.122920;,
  0.921070;1.000000;,
  0.081210;1.000000;,
  0.081210;0.000000;,
  0.921070;0.000000;,
  0.918790;1.000000;,
  0.918790;0.122920;,
  1.000000;0.122920;,
  1.000000;1.000000;,
  0.918790;0.122920;,
  1.000000;0.122920;,
  0.078930;0.000000;,
  0.918790;0.000000;,
  1.000000;0.000000;,
  0.921070;0.000000;,
  1.000000;0.000000;,
  1.000000;0.141580;,
  0.921070;0.141580;,
  1.000000;0.886820;,
  0.921070;0.886820;,
  1.000000;1.000000;,
  0.921070;1.000000;,
  0.081210;0.141580;,
  0.081210;0.000000;,
  0.000000;0.141580;,
  0.000000;0.000000;,
  0.000000;0.000000;,
  0.081210;1.000000;,
  0.081210;0.886820;,
  0.000000;1.000000;,
  0.000000;0.886820;,
  0.039460;0.000000;,
  0.943410;0.000000;,
  0.070790;0.000000;,
  0.960540;0.000000;,
  0.040600;0.000000;,
  0.929210;0.000000;,
  0.056590;0.000000;,
  0.959400;0.000000;,
  0.886820;0.122920;,
  1.000000;0.122920;,
  1.000000;1.000000;,
  0.886820;1.000000;,
  0.886820;0.122920;,
  1.000000;0.122920;,
  0.113180;1.000000;,
  0.000000;1.000000;,
  0.000000;0.122920;,
  0.113180;0.122920;,
  0.000000;0.122920;,
  0.113180;0.122920;,
  0.141580;0.122920;,
  0.141580;1.000000;,
  0.000000;1.000000;,
  0.000000;0.122920;,
  0.000000;0.122920;,
  0.141580;0.122920;,
  0.141580;0.000000;,
  0.886820;0.000000;,
  0.858420;1.000000;,
  0.858420;0.122920;,
  1.000000;0.122920;,
  1.000000;1.000000;,
  0.500000;0.000000;,
  0.858420;0.122920;,
  1.000000;0.122920;,
  0.113180;0.000000;,
  0.858420;0.000000;,
  0.921070;1.000000;,
  0.921070;0.122920;,
  1.000000;0.122920;,
  1.000000;1.000000;,
  0.921070;0.141580;,
  1.000000;0.141580;,
  1.000000;0.886820;,
  0.921070;0.886820;,
  0.921070;0.122920;,
  1.000000;0.122920;,
  0.078930;1.000000;,
  0.000000;1.000000;,
  0.000000;0.122920;,
  0.078930;0.122920;,
  0.000000;0.122920;,
  0.078930;0.122920;,
  0.081210;0.000000;,
  0.921070;0.000000;,
  0.081210;0.141580;,
  0.081210;1.000000;,
  0.000000;1.000000;,
  0.000000;0.122920;,
  0.081210;0.122920;,
  0.081210;0.886820;,
  0.000000;0.886820;,
  0.000000;0.141580;,
  0.000000;0.122920;,
  0.081210;0.122920;,
  0.921070;1.000000;,
  0.081210;1.000000;,
  0.081210;0.000000;,
  0.921070;0.000000;,
  0.918790;1.000000;,
  0.918790;0.122920;,
  1.000000;0.122920;,
  1.000000;1.000000;,
  0.918790;0.122920;,
  1.000000;0.122920;,
  0.078930;0.000000;,
  0.918790;0.000000;,
  1.000000;0.000000;,
  0.921070;0.000000;,
  1.000000;0.000000;,
  1.000000;0.141580;,
  0.921070;0.141580;,
  1.000000;0.886820;,
  0.921070;0.886820;,
  1.000000;1.000000;,
  0.921070;1.000000;,
  0.081210;0.141580;,
  0.081210;0.000000;,
  0.000000;0.141580;,
  0.000000;0.000000;,
  0.000000;0.000000;,
  0.081210;1.000000;,
  0.081210;0.886820;,
  0.000000;1.000000;,
  0.000000;0.886820;,
  0.039460;0.000000;,
  0.943410;0.000000;,
  0.070790;0.000000;,
  0.960540;0.000000;,
  0.040600;0.000000;,
  0.929210;0.000000;,
  0.056590;0.000000;,
  0.959400;0.000000;,
  0.886820;0.122920;,
  1.000000;0.122920;,
  1.000000;1.000000;,
  0.886820;1.000000;,
  0.886820;0.122920;,
  1.000000;0.122920;,
  0.113180;1.000000;,
  0.000000;1.000000;,
  0.000000;0.122920;,
  0.113180;0.122920;,
  0.000000;0.122920;,
  0.113180;0.122920;,
  0.141580;0.122920;,
  0.141580;1.000000;,
  0.000000;1.000000;,
  0.000000;0.122920;,
  0.000000;0.122920;,
  0.141580;0.122920;,
  0.141580;0.000000;,
  0.886820;0.000000;,
  0.858420;1.000000;,
  0.858420;0.122920;,
  1.000000;0.122920;,
  1.000000;1.000000;,
  0.500000;0.000000;,
  0.858420;0.122920;,
  1.000000;0.122920;,
  0.113180;0.000000;,
  0.858420;0.000000;,
  0.921070;1.000000;,
  0.921070;0.122920;,
  1.000000;0.122920;,
  1.000000;1.000000;,
  0.921070;0.141580;,
  1.000000;0.141580;,
  1.000000;0.886820;,
  0.921070;0.886820;,
  0.921070;0.122920;,
  1.000000;0.122920;,
  0.078930;1.000000;,
  0.000000;1.000000;,
  0.000000;0.122920;,
  0.078930;0.122920;,
  0.000000;0.122920;,
  0.078930;0.122920;,
  0.081210;0.000000;,
  0.921070;0.000000;,
  0.081210;0.141580;,
  0.081210;1.000000;,
  0.000000;1.000000;,
  0.000000;0.122920;,
  0.081210;0.122920;,
  0.081210;0.886820;,
  0.000000;0.886820;,
  0.000000;0.141580;,
  0.000000;0.122920;,
  0.081210;0.122920;,
  0.921070;1.000000;,
  0.081210;1.000000;,
  0.081210;0.000000;,
  0.921070;0.000000;,
  0.918790;1.000000;,
  0.918790;0.122920;,
  1.000000;0.122920;,
  1.000000;1.000000;,
  0.918790;0.122920;,
  1.000000;0.122920;,
  0.078930;0.000000;,
  0.918790;0.000000;,
  1.000000;0.000000;,
  0.921070;0.000000;,
  1.000000;0.000000;,
  1.000000;0.141580;,
  0.921070;0.141580;,
  1.000000;0.886820;,
  0.921070;0.886820;,
  1.000000;1.000000;,
  0.921070;1.000000;,
  0.081210;0.141580;,
  0.081210;0.000000;,
  0.000000;0.141580;,
  0.000000;0.000000;,
  0.000000;0.000000;,
  0.081210;1.000000;,
  0.081210;0.886820;,
  0.000000;1.000000;,
  0.000000;0.886820;,
  0.039460;0.000000;,
  0.943410;0.000000;,
  0.070790;0.000000;,
  0.960540;0.000000;,
  0.040600;0.000000;,
  0.929210;0.000000;,
  0.056590;0.000000;,
  0.959400;0.000000;,
  0.886820;0.122920;,
  1.000000;0.122920;,
  1.000000;1.000000;,
  0.886820;1.000000;,
  0.886820;0.122920;,
  1.000000;0.122920;,
  0.113180;1.000000;,
  0.000000;1.000000;,
  0.000000;0.122920;,
  0.113180;0.122920;,
  0.000000;0.122920;,
  0.113180;0.122920;,
  0.141580;0.122920;,
  0.141580;1.000000;,
  0.000000;1.000000;,
  0.000000;0.122920;,
  0.000000;0.122920;,
  0.141580;0.122920;,
  0.141580;0.000000;,
  0.886820;0.000000;,
  0.858420;1.000000;,
  0.858420;0.122920;,
  1.000000;0.122920;,
  1.000000;1.000000;,
  0.500000;0.000000;,
  0.858420;0.122920;,
  1.000000;0.122920;,
  0.113180;0.000000;,
  0.858420;0.000000;,
  0.921070;1.000000;,
  0.921070;0.122920;,
  1.000000;0.122920;,
  1.000000;1.000000;,
  0.921070;0.141580;,
  1.000000;0.141580;,
  1.000000;0.886820;,
  0.921070;0.886820;,
  0.921070;0.122920;,
  1.000000;0.122920;,
  0.078930;1.000000;,
  0.000000;1.000000;,
  0.000000;0.122920;,
  0.078930;0.122920;,
  0.000000;0.122920;,
  0.078930;0.122920;,
  0.081210;0.000000;,
  0.921070;0.000000;,
  0.081210;0.141580;,
  0.081210;1.000000;,
  0.000000;1.000000;,
  0.000000;0.122920;,
  0.081210;0.122920;,
  0.081210;0.886820;,
  0.000000;0.886820;,
  0.000000;0.141580;,
  0.000000;0.122920;,
  0.081210;0.122920;,
  0.921070;1.000000;,
  0.081210;1.000000;,
  0.081210;0.000000;,
  0.921070;0.000000;,
  0.918790;1.000000;,
  0.918790;0.122920;,
  1.000000;0.122920;,
  1.000000;1.000000;,
  0.918790;0.122920;,
  1.000000;0.122920;,
  0.078930;0.000000;,
  0.918790;0.000000;,
  1.000000;0.000000;,
  0.921070;0.000000;,
  1.000000;0.000000;,
  1.000000;0.141580;,
  0.921070;0.141580;,
  1.000000;0.886820;,
  0.921070;0.886820;,
  1.000000;1.000000;,
  0.921070;1.000000;,
  0.081210;0.141580;,
  0.081210;0.000000;,
  0.000000;0.141580;,
  0.000000;0.000000;,
  0.000000;0.000000;,
  0.081210;1.000000;,
  0.081210;0.886820;,
  0.000000;1.000000;,
  0.000000;0.886820;,
  0.039460;0.000000;,
  0.943410;0.000000;,
  0.070790;0.000000;,
  0.960540;0.000000;,
  0.040600;0.000000;,
  0.929210;0.000000;,
  0.056590;0.000000;,
  0.959400;0.000000;,
  0.886820;0.122920;,
  1.000000;0.122920;,
  1.000000;1.000000;,
  0.886820;1.000000;,
  0.886820;0.122920;,
  1.000000;0.122920;,
  0.113180;1.000000;,
  0.000000;1.000000;,
  0.000000;0.122920;,
  0.113180;0.122920;,
  0.000000;0.122920;,
  0.113180;0.122920;,
  0.141580;0.122920;,
  0.141580;1.000000;,
  0.000000;1.000000;,
  0.000000;0.122920;,
  0.000000;0.122920;,
  0.141580;0.122920;,
  0.141580;0.000000;,
  0.886820;0.000000;,
  0.858420;1.000000;,
  0.858420;0.122920;,
  1.000000;0.122920;,
  1.000000;1.000000;,
  0.500000;0.000000;,
  0.858420;0.122920;,
  1.000000;0.122920;,
  0.113180;0.000000;,
  0.858420;0.000000;,
  0.921070;1.000000;,
  0.921070;0.122920;,
  1.000000;0.122920;,
  1.000000;1.000000;,
  0.921070;0.141580;,
  1.000000;0.141580;,
  1.000000;0.886820;,
  0.921070;0.886820;,
  0.921070;0.122920;,
  1.000000;0.122920;,
  0.078930;1.000000;,
  0.000000;1.000000;,
  0.000000;0.122920;,
  0.078930;0.122920;,
  0.000000;0.122920;,
  0.078930;0.122920;,
  0.081210;0.000000;,
  0.921070;0.000000;,
  0.081210;0.141580;,
  0.081210;1.000000;,
  0.000000;1.000000;,
  0.000000;0.122920;,
  0.081210;0.122920;,
  0.081210;0.886820;,
  0.000000;0.886820;,
  0.000000;0.141580;,
  0.000000;0.122920;,
  0.081210;0.122920;,
  0.921070;1.000000;,
  0.081210;1.000000;,
  0.081210;0.000000;,
  0.921070;0.000000;,
  0.918790;1.000000;,
  0.918790;0.122920;,
  1.000000;0.122920;,
  1.000000;1.000000;,
  0.918790;0.122920;,
  1.000000;0.122920;,
  0.078930;0.000000;,
  0.918790;0.000000;,
  1.000000;0.000000;,
  0.921070;0.000000;,
  1.000000;0.000000;,
  1.000000;0.141580;,
  0.921070;0.141580;,
  1.000000;0.886820;,
  0.921070;0.886820;,
  1.000000;1.000000;,
  0.921070;1.000000;,
  0.081210;0.141580;,
  0.081210;0.000000;,
  0.000000;0.141580;,
  0.000000;0.000000;,
  0.000000;0.000000;,
  0.081210;1.000000;,
  0.081210;0.886820;,
  0.000000;1.000000;,
  0.000000;0.886820;,
  0.039460;0.000000;,
  0.943410;0.000000;,
  0.070790;0.000000;,
  0.960540;0.000000;,
  0.040600;0.000000;,
  0.929210;0.000000;,
  0.056590;0.000000;,
  0.959400;0.000000;;
 }
}
