xof 0302txt 0064
template Header {
 <3D82AB43-62DA-11cf-AB39-0020AF71E433>
 WORD major;
 WORD minor;
 DWORD flags;
}

template Vector {
 <3D82AB5E-62DA-11cf-AB39-0020AF71E433>
 FLOAT x;
 FLOAT y;
 FLOAT z;
}

template Coords2d {
 <F6F23F44-7686-11cf-8F52-0040333594A3>
 FLOAT u;
 FLOAT v;
}

template Matrix4x4 {
 <F6F23F45-7686-11cf-8F52-0040333594A3>
 array FLOAT matrix[16];
}

template ColorRGBA {
 <35FF44E0-6C7C-11cf-8F52-0040333594A3>
 FLOAT red;
 FLOAT green;
 FLOAT blue;
 FLOAT alpha;
}

template ColorRGB {
 <D3E16E81-7835-11cf-8F52-0040333594A3>
 FLOAT red;
 FLOAT green;
 FLOAT blue;
}

template IndexedColor {
 <1630B820-7842-11cf-8F52-0040333594A3>
 DWORD index;
 ColorRGBA indexColor;
}

template Boolean {
 <4885AE61-78E8-11cf-8F52-0040333594A3>
 WORD truefalse;
}

template Boolean2d {
 <4885AE63-78E8-11cf-8F52-0040333594A3>
 Boolean u;
 Boolean v;
}

template MaterialWrap {
 <4885AE60-78E8-11cf-8F52-0040333594A3>
 Boolean u;
 Boolean v;
}

template TextureFilename {
 <A42790E1-7810-11cf-8F52-0040333594A3>
 STRING filename;
}

template Material {
 <3D82AB4D-62DA-11cf-AB39-0020AF71E433>
 ColorRGBA faceColor;
 FLOAT power;
 ColorRGB specularColor;
 ColorRGB emissiveColor;
 [...]
}

template MeshFace {
 <3D82AB5F-62DA-11cf-AB39-0020AF71E433>
 DWORD nFaceVertexIndices;
 array DWORD faceVertexIndices[nFaceVertexIndices];
}

template MeshFaceWraps {
 <4885AE62-78E8-11cf-8F52-0040333594A3>
 DWORD nFaceWrapValues;
 Boolean2d faceWrapValues;
}

template MeshTextureCoords {
 <F6F23F40-7686-11cf-8F52-0040333594A3>
 DWORD nTextureCoords;
 array Coords2d textureCoords[nTextureCoords];
}

template MeshMaterialList {
 <F6F23F42-7686-11cf-8F52-0040333594A3>
 DWORD nMaterials;
 DWORD nFaceIndexes;
 array DWORD faceIndexes[nFaceIndexes];
 [Material]
}

template MeshNormals {
 <F6F23F43-7686-11cf-8F52-0040333594A3>
 DWORD nNormals;
 array Vector normals[nNormals];
 DWORD nFaceNormals;
 array MeshFace faceNormals[nFaceNormals];
}

template MeshVertexColors {
 <1630B821-7842-11cf-8F52-0040333594A3>
 DWORD nVertexColors;
 array IndexedColor vertexColors[nVertexColors];
}

template Mesh {
 <3D82AB44-62DA-11cf-AB39-0020AF71E433>
 DWORD nVertices;
 array Vector vertices[nVertices];
 DWORD nFaces;
 array MeshFace faces[nFaces];
 [...]
}

Header{
1;
0;
1;
}

Mesh {
 176;
 -1.60075;6.22975;-4.94455;,
 -1.60075;6.22975;-61.86750;,
 38.64980;6.22975;-45.19515;,
 -1.60075;6.22975;-4.94455;,
 55.32215;6.22975;-4.94455;,
 -1.60075;6.22975;-4.94455;,
 38.64980;6.22975;35.30605;,
 -1.60075;6.22975;-4.94455;,
 -1.60075;6.22975;51.97840;,
 -1.60075;6.22975;-4.94455;,
 -41.85135;6.22975;35.30605;,
 -1.60075;6.22975;-4.94455;,
 -58.52370;6.22975;-4.94455;,
 -1.60075;6.22975;-4.94455;,
 -41.85135;6.22975;-45.19515;,
 -1.60075;6.22975;-4.94455;,
 -1.60075;6.22975;-61.86750;,
 39.35605;110.56540;-4.94455;,
 27.36010;110.56540;-33.90540;,
 27.36010;473.74899;-33.90540;,
 39.35605;473.74899;-4.94455;,
 27.36010;473.74899;24.01635;,
 27.36010;110.56540;24.01635;,
 -1.60075;110.56540;-45.90130;,
 -1.60075;473.74899;-45.90130;,
 -1.60075;473.74899;36.01225;,
 -1.60075;110.56540;36.01225;,
 -1.60075;110.56540;-45.90130;,
 -30.56165;110.56540;-33.90540;,
 -30.56165;473.74899;-33.90540;,
 -1.60075;473.74899;-45.90130;,
 -30.56165;473.74899;24.01635;,
 -30.56165;110.56540;24.01635;,
 -42.55755;110.56540;-4.94455;,
 -42.55755;473.74899;-4.94455;,
 -1.60075;564.38318;-51.57225;,
 31.36995;564.38318;-37.91530;,
 45.02690;564.38318;-4.94455;,
 31.36995;564.38318;28.02620;,
 -1.60075;564.38318;41.68315;,
 -34.57150;564.38318;28.02620;,
 -48.22845;564.38318;-4.94455;,
 -34.57150;564.38318;-37.91530;,
 -1.60075;564.38318;-51.57225;,
 -1.60075;601.18536;-35.00735;,
 19.65685;601.18536;-26.20215;,
 -1.60075;601.18536;-4.94455;,
 28.46210;601.18536;-4.94455;,
 -1.60075;601.18536;-4.94455;,
 19.65685;601.18536;16.31310;,
 -1.60075;601.18536;-4.94455;,
 -1.60075;601.18536;25.11835;,
 -1.60075;601.18536;-4.94455;,
 -22.85835;601.18536;16.31310;,
 -1.60075;601.18536;-4.94455;,
 -31.66360;601.18536;-4.94455;,
 -1.60075;601.18536;-4.94455;,
 -22.85835;601.18536;-26.20215;,
 -1.60075;601.18536;-4.94455;,
 -1.60075;601.18536;-35.00735;,
 -1.60075;601.18536;-4.94455;,
 -67.83035;772.30640;-4.94455;,
 346.48224;772.30640;-4.94455;,
 346.48224;357.99420;-4.94455;,
 -67.83035;357.99420;-4.94455;,
 -110.06360;772.30640;-5.16590;,
 263.88901;772.30640;-183.53210;,
 263.88901;357.99420;-183.53210;,
 -110.06360;357.99420;-5.16590;,
 107.45630;273.38214;-50.25340;,
 378.43246;585.10492;-17.74680;,
 65.74725;856.91815;-17.74680;,
 -205.22920;545.19580;-50.25340;,
 -204.37640;399.89725;-8.58645;,
 138.65230;185.54895;81.08705;,
 358.20486;536.90552;81.08705;,
 15.17545;751.25385;-8.58645;,
 138.65230;185.54895;81.08705;,
 235.13086;331.74939;81.56237;,
 358.20486;536.90552;81.08705;,
 -68.80795;310.35406;24.32795;,
 -424.45859;425.91171;-154.03830;,
 -296.42944;819.94629;-154.03830;,
 59.22150;704.38922;24.32795;,
 -73.54795;395.81494;1.35800;,
 -374.15161;618.25073;-177.00819;,
 -127.70955;951.29749;-177.00819;,
 172.89435;728.86255;1.35800;,
 175.99850;497.62085;-10.68590;,
 -35.81120;154.59355;-106.20780;,
 -377.25546;381.78839;-164.96405;,
 -165.44714;724.81561;-69.44255;,
 -204.37640;399.89725;-8.58645;,
 138.65230;185.54895;81.08705;,
 358.20486;536.90552;81.08705;,
 15.17545;751.25385;-8.58645;,
 148.66341;625.76538;-8.58645;,
 -77.52550;961.10461;81.08705;,
 -421.00626;729.42419;81.08705;,
 -194.81700;394.08466;-8.58645;,
 140.11465;535.03857;0.73170;,
 175.36929;937.99176;90.40520;,
 -237.36659;974.10156;90.40520;,
 -272.62061;571.14795;0.73170;,
 215.47044;575.65424;0.73170;,
 -160.87610;723.90143;90.40520;,
 -312.72214;338.41833;90.40520;,
 63.62460;190.17136;0.73170;,
 449.80511;821.14185;-47.66070;,
 73.45810;969.38837;42.01295;,
 -78.38805;583.90625;42.01295;,
 297.95874;435.65906;-47.66070;,
 -268.25854;975.11255;-47.66070;,
 -445.57574;611.55750;42.01295;,
 -73.19535;429.93344;42.01295;,
 104.12265;793.48975;-47.66070;,
 226.22815;975.11255;35.97505;,
 397.73990;611.55750;-64.35610;,
 26.05415;429.93344;-41.62280;,
 -145.45966;793.48975;58.70860;,
 -415.47174;827.33081;-214.00674;,
 -63.90390;966.87842;-44.94685;,
 74.01885;577.71667;-10.53110;,
 -277.55035;438.16751;-179.59155;,
 351.53656;944.31567;-172.84175;,
 420.52655;537.19104;-206.66370;,
 38.72565;460.72980;-65.11785;,
 -30.26575;867.85706;-31.29455;,
 -34.09930;987.53784;110.55375;,
 -278.25824;700.25177;282.33401;,
 -71.97155;403.65948;79.52125;,
 172.18816;690.94543;-92.25955;,
 -34.09930;987.53784;110.55375;,
 -278.25824;700.25177;282.33401;,
 -71.97155;403.65948;79.52125;,
 172.18816;690.94543;-92.25955;,
 413.13809;692.54663;86.46485;,
 57.83770;905.47314;95.27515;,
 -154.52600;553.15289;46.02770;,
 200.77534;340.22485;37.21895;,
 163.42184;1155.41064;86.46485;,
 -160.44850;897.17932;95.27515;,
 95.18865;574.87903;46.02770;,
 419.06079;833.11041;37.21895;,
 62.66920;1133.76929;30.20010;,
 444.03519;978.15479;74.90075;,
 285.10385;596.52197;102.29585;,
 -96.26400;752.13501;57.59340;,
 -65.67390;892.52826;117.63670;,
 -121.20095;736.91357;-262.30389;,
 -53.60495;355.28061;-115.87855;,
 1.92100;510.89404;264.06345;,
 173.51155;892.52826;-110.33675;,
 128.81035;736.91357;271.02969;,
 101.41555;355.28061;112.09815;,
 146.11765;510.89404;-269.27011;,
 -233.66490;1133.76929;30.20010;,
 147.70140;978.15479;74.90075;,
 -11.23020;596.52197;102.29585;,
 -392.59811;752.13501;57.59340;,
 -110.83075;627.94958;-34.37885;,
 265.20709;776.19708;56.57915;,
 400.50256;390.71384;125.51600;,
 24.46455;242.46684;34.55765;,
 3.44235;663.48816;-34.37885;,
 396.50485;569.23816;56.57915;,
 286.22894;175.86806;125.51600;,
 -106.83380;270.11725;34.55765;,
 148.00400;327.39951;-55.08830;,
 -225.83154;150.46855;-79.51160;,
 -403.28479;511.95581;17.90640;,
 -29.44815;688.88904;42.32970;,
 244.72040;533.21350;-91.20070;,
 81.97225;152.98900;-115.62405;,
 -290.46106;306.14255;-18.20600;,
 -127.71360;686.36920;6.21725;;
 
 77;
 3;0,1,2;,
 3;3,2,4;,
 3;5,4,6;,
 3;7,6,8;,
 3;9,8,10;,
 3;11,10,12;,
 3;13,12,14;,
 3;15,14,16;,
 4;17,4,2,18;,
 4;17,18,19,20;,
 4;17,20,21,22;,
 4;17,22,6,4;,
 4;18,2,1,23;,
 4;18,23,24,19;,
 4;22,21,25,26;,
 4;22,26,8,6;,
 4;27,16,14,28;,
 4;27,28,29,30;,
 4;26,25,31,32;,
 4;26,32,10,8;,
 4;28,14,12,33;,
 4;28,33,34,29;,
 4;32,31,34,33;,
 4;32,33,12,10;,
 4;35,36,19,24;,
 4;36,37,20,19;,
 4;37,38,21,20;,
 4;38,39,25,21;,
 4;39,40,31,25;,
 4;40,41,34,31;,
 4;41,42,29,34;,
 4;42,43,30,29;,
 4;44,45,36,35;,
 3;46,45,44;,
 4;45,47,37,36;,
 3;48,47,45;,
 4;47,49,38,37;,
 3;50,49,47;,
 4;49,51,39,38;,
 3;52,51,49;,
 4;51,53,40,39;,
 3;54,53,51;,
 4;53,55,41,40;,
 3;56,55,53;,
 4;55,57,42,41;,
 3;58,57,55;,
 4;57,59,43,42;,
 3;60,59,57;,
 4;61,62,63,64;,
 4;65,66,67,68;,
 4;69,70,71,72;,
 4;73,74,75,76;,
 3;77,78,79;,
 4;80,81,82,83;,
 4;84,85,86,87;,
 4;88,89,90,91;,
 4;92,93,94,95;,
 4;96,97,98,99;,
 4;100,101,102,103;,
 4;104,105,106,107;,
 4;108,109,110,111;,
 4;112,113,114,115;,
 4;116,117,118,119;,
 4;120,121,122,123;,
 4;124,125,126,127;,
 4;128,129,130,131;,
 4;132,133,134,135;,
 4;136,137,138,139;,
 4;140,141,142,143;,
 4;144,145,146,147;,
 4;148,149,150,151;,
 4;152,153,154,155;,
 4;156,157,158,159;,
 4;160,161,162,163;,
 4;164,165,166,167;,
 4;168,169,170,171;,
 4;172,173,174,175;;
 
 MeshMaterialList {
  3;
  77;
  0,
  0,
  0,
  0,
  0,
  0,
  0,
  0,
  0,
  0,
  0,
  0,
  0,
  0,
  0,
  0,
  0,
  0,
  0,
  0,
  0,
  0,
  0,
  0,
  0,
  0,
  0,
  0,
  0,
  0,
  0,
  0,
  0,
  0,
  0,
  0,
  0,
  0,
  0,
  0,
  0,
  0,
  0,
  0,
  0,
  0,
  0,
  0,
  1,
  1,
  1,
  1,
  0,
  1,
  1,
  1,
  1,
  1,
  1,
  1,
  2,
  2,
  2,
  2,
  2,
  2,
  2,
  2,
  2,
  2,
  2,
  2,
  2,
  1,
  1,
  1,
  1;;
  Material {
   0.467200;0.260000;0.068800;1.000000;;
   5.000000;
   0.000000;0.000000;0.000000;;
   0.000000;0.000000;0.000000;;
  }
  Material {
   0.800000;0.800000;0.800000;1.000000;;
   5.000000;
   0.000000;0.000000;0.000000;;
   0.000000;0.000000;0.000000;;
   TextureFilename {
    "data/TEXTURE/ki/treeleaf.png";
   }
  }
  Material {
   0.800000;0.800000;0.800000;1.000000;;
   5.000000;
   0.000000;0.000000;0.000000;;
   0.000000;0.000000;0.000000;;
   TextureFilename {
    "data/TEXTURE/ki/treeleaf.png";
   }
  }
 }
 MeshNormals {
  72;
  0.000000;-0.031243;-0.999512;,
  0.706761;-0.031243;-0.706762;,
  0.999512;-0.031243;-0.000000;,
  0.706761;-0.031243;0.706762;,
  0.000000;-0.031243;0.999512;,
  -0.706762;-0.031243;0.706762;,
  -0.999512;-0.031243;-0.000000;,
  -0.706761;-0.031243;-0.706762;,
  0.000000;-1.000000;0.000000;,
  0.997114;0.075915;-0.000000;,
  0.705066;0.075915;-0.705067;,
  0.705066;0.075915;0.705066;,
  0.000000;0.075915;-0.997114;,
  0.000000;0.075915;0.997114;,
  -0.705066;0.075915;-0.705066;,
  -0.705066;0.075915;0.705066;,
  -0.997114;0.075915;-0.000000;,
  0.000000;0.180739;-0.983531;,
  0.695461;0.180739;-0.695462;,
  0.983531;0.180739;-0.000000;,
  0.695462;0.180739;0.695461;,
  0.000000;0.180739;0.983531;,
  -0.695462;0.180739;0.695461;,
  -0.983531;0.180739;-0.000000;,
  -0.695461;0.180740;-0.695462;,
  0.000000;1.000000;0.000000;,
  0.000000;0.410445;-0.911885;,
  0.644800;0.410444;-0.644801;,
  0.911886;0.410444;-0.000000;,
  0.644801;0.410443;0.644801;,
  0.000000;0.410444;0.911886;,
  -0.644801;0.410444;0.644801;,
  -0.911885;0.410445;-0.000000;,
  -0.644800;0.410445;-0.644801;,
  0.000000;0.000000;-1.000000;,
  0.988493;0.151265;-0.000000;,
  0.698970;0.151266;-0.698970;,
  0.698970;0.151265;0.698970;,
  0.000000;0.151266;-0.988493;,
  0.000000;0.151265;0.988493;,
  -0.698970;0.151266;-0.698970;,
  -0.698970;0.151265;0.698970;,
  -0.988493;0.151265;-0.000000;,
  -0.430511;0.000000;-0.902585;,
  -0.051474;-0.059214;0.996917;,
  -0.183551;0.114695;0.976296;,
  -0.138104;0.086297;0.986651;,
  -0.092246;0.057642;0.994066;,
  0.409440;-0.133035;-0.902586;,
  0.346070;-0.256078;-0.902585;,
  0.243845;0.117505;-0.962669;,
  -0.183551;0.114695;0.976296;,
  0.121031;-0.179436;0.976296;,
  -0.018864;-0.215615;0.976296;,
  0.201379;-0.079325;0.976296;,
  0.201379;-0.079326;0.976296;,
  0.094881;0.194534;0.976296;,
  -0.154306;0.194534;-0.968683;,
  0.411258;0.065350;-0.909173;,
  -0.350782;0.018340;-0.936278;,
  0.636242;-0.082040;0.767115;,
  0.636242;-0.082040;0.767115;,
  -0.043006;-0.112833;0.992683;,
  0.090626;-0.079798;0.992683;,
  0.074549;-0.102251;-0.991961;,
  -0.977456;-0.102251;0.184730;,
  0.991961;-0.102251;0.074549;,
  0.074549;-0.102251;-0.991961;,
  0.263800;-0.079325;-0.961310;,
  0.170593;-0.216289;-0.961310;,
  -0.048980;0.237409;-0.970174;,
  -0.193996;0.145354;-0.970174;;
  77;
  3;8,8,8;,
  3;8,8,8;,
  3;8,8,8;,
  3;8,8,8;,
  3;8,8,8;,
  3;8,8,8;,
  3;8,8,8;,
  3;8,8,8;,
  4;9,35,36,10;,
  4;9,10,1,2;,
  4;9,2,3,11;,
  4;9,11,37,35;,
  4;10,36,38,12;,
  4;10,12,0,1;,
  4;11,3,4,13;,
  4;11,13,39,37;,
  4;12,38,40,14;,
  4;12,14,7,0;,
  4;13,4,5,15;,
  4;13,15,41,39;,
  4;14,40,42,16;,
  4;14,16,6,7;,
  4;15,5,6,16;,
  4;15,16,42,41;,
  4;17,18,1,0;,
  4;18,19,2,1;,
  4;19,20,3,2;,
  4;20,21,4,3;,
  4;21,22,5,4;,
  4;22,23,6,5;,
  4;23,24,7,6;,
  4;24,17,0,7;,
  4;26,27,18,17;,
  3;25,25,25;,
  4;27,28,19,18;,
  3;25,25,25;,
  4;28,29,20,19;,
  3;25,25,25;,
  4;29,30,21,20;,
  3;25,25,25;,
  4;30,31,22,21;,
  3;25,25,25;,
  4;31,32,23,22;,
  3;25,25,25;,
  4;32,33,24,23;,
  3;25,25,25;,
  4;33,26,17,24;,
  3;25,25,25;,
  4;34,34,34,34;,
  4;43,43,43,43;,
  4;44,44,44,44;,
  4;45,46,46,45;,
  3;46,47,46;,
  4;48,48,48,48;,
  4;49,49,49,49;,
  4;50,50,50,50;,
  4;51,51,51,51;,
  4;52,52,52,52;,
  4;53,53,53,53;,
  4;54,54,54,54;,
  4;55,55,55,55;,
  4;56,56,56,56;,
  4;57,57,57,57;,
  4;58,58,58,58;,
  4;59,59,59,59;,
  4;60,60,60,60;,
  4;61,61,61,61;,
  4;62,62,62,62;,
  4;63,63,63,63;,
  4;64,64,64,64;,
  4;65,65,65,65;,
  4;66,66,66,66;,
  4;67,67,67,67;,
  4;68,68,68,68;,
  4;69,69,69,69;,
  4;70,70,70,70;,
  4;71,71,71,71;;
 }
 MeshTextureCoords {
  176;
  0.062500;1.000000;,
  0.000000;1.000000;,
  0.125000;1.000000;,
  0.187500;1.000000;,
  0.250000;1.000000;,
  0.312500;1.000000;,
  0.375000;1.000000;,
  0.437500;1.000000;,
  0.500000;1.000000;,
  0.562500;1.000000;,
  0.625000;1.000000;,
  0.687500;1.000000;,
  0.750000;1.000000;,
  0.812500;1.000000;,
  0.875000;1.000000;,
  0.937500;1.000000;,
  1.000000;1.000000;,
  0.250000;0.650110;,
  0.125000;0.650110;,
  0.125000;0.000000;,
  0.250000;0.000000;,
  0.375000;0.000000;,
  0.375000;0.650110;,
  0.000000;0.650110;,
  0.000000;0.000000;,
  0.500000;0.000000;,
  0.500000;0.650110;,
  1.000000;0.650110;,
  0.875000;0.650110;,
  0.875000;0.000000;,
  1.000000;0.000000;,
  0.625000;0.000000;,
  0.625000;0.650110;,
  0.750000;0.650110;,
  0.750000;0.000000;,
  0.000000;0.000000;,
  0.125000;0.000000;,
  0.250000;0.000000;,
  0.375000;0.000000;,
  0.500000;0.000000;,
  0.625000;0.000000;,
  0.750000;0.000000;,
  0.875000;0.000000;,
  1.000000;0.000000;,
  0.000000;0.000000;,
  0.125000;0.000000;,
  0.062500;0.000000;,
  0.250000;0.000000;,
  0.187500;0.000000;,
  0.375000;0.000000;,
  0.312500;0.000000;,
  0.500000;0.000000;,
  0.437500;0.000000;,
  0.625000;0.000000;,
  0.562500;0.000000;,
  0.750000;0.000000;,
  0.687500;0.000000;,
  0.875000;0.000000;,
  0.812500;0.000000;,
  1.000000;0.000000;,
  0.937500;0.000000;,
  0.000000;0.000000;,
  1.000000;0.000000;,
  1.000000;1.000000;,
  0.000000;1.000000;,
  0.000000;0.000000;,
  1.000000;0.000000;,
  1.000000;1.000000;,
  0.000000;1.000000;,
  0.000000;0.000000;,
  1.000000;0.000000;,
  1.000000;1.000000;,
  0.000000;1.000000;,
  0.000000;0.000000;,
  1.000000;0.000000;,
  1.000000;1.000000;,
  0.000000;1.000000;,
  0.000000;0.000000;,
  0.000000;0.000000;,
  0.000000;0.000000;,
  0.000000;0.000000;,
  1.000000;0.000000;,
  1.000000;1.000000;,
  0.000000;1.000000;,
  0.000000;0.000000;,
  1.000000;0.000000;,
  1.000000;1.000000;,
  0.000000;1.000000;,
  0.000000;0.000000;,
  1.000000;0.000000;,
  1.000000;1.000000;,
  0.000000;1.000000;,
  0.000000;0.000000;,
  1.000000;0.000000;,
  1.000000;1.000000;,
  0.000000;1.000000;,
  0.000000;0.000000;,
  1.000000;0.000000;,
  1.000000;1.000000;,
  0.000000;1.000000;,
  0.000000;0.000000;,
  1.000000;0.000000;,
  1.000000;1.000000;,
  0.000000;1.000000;,
  0.000000;0.000000;,
  1.000000;0.000000;,
  1.000000;1.000000;,
  0.000000;1.000000;,
  0.000000;0.000000;,
  1.000000;0.000000;,
  1.000000;1.000000;,
  0.000000;1.000000;,
  0.000000;0.000000;,
  1.000000;0.000000;,
  1.000000;1.000000;,
  0.000000;1.000000;,
  0.000000;0.000000;,
  1.000000;0.000000;,
  1.000000;1.000000;,
  0.000000;1.000000;,
  0.000000;0.000000;,
  1.000000;0.000000;,
  1.000000;1.000000;,
  0.000000;1.000000;,
  0.000000;0.000000;,
  1.000000;0.000000;,
  1.000000;1.000000;,
  0.000000;1.000000;,
  0.000000;0.000000;,
  1.000000;0.000000;,
  1.000000;1.000000;,
  0.000000;1.000000;,
  0.000000;0.000000;,
  1.000000;0.000000;,
  1.000000;1.000000;,
  0.000000;1.000000;,
  0.000000;0.000000;,
  1.000000;0.000000;,
  1.000000;1.000000;,
  0.000000;1.000000;,
  0.000000;0.000000;,
  1.000000;0.000000;,
  1.000000;1.000000;,
  0.000000;1.000000;,
  0.000000;0.000000;,
  1.000000;0.000000;,
  1.000000;1.000000;,
  0.000000;1.000000;,
  0.000000;0.000000;,
  1.000000;0.000000;,
  1.000000;1.000000;,
  0.000000;1.000000;,
  0.000000;0.000000;,
  1.000000;0.000000;,
  1.000000;1.000000;,
  0.000000;1.000000;,
  0.000000;0.000000;,
  1.000000;0.000000;,
  1.000000;1.000000;,
  0.000000;1.000000;,
  0.000000;0.000000;,
  1.000000;0.000000;,
  1.000000;1.000000;,
  0.000000;1.000000;,
  0.000000;0.000000;,
  1.000000;0.000000;,
  1.000000;1.000000;,
  0.000000;1.000000;,
  0.000000;0.000000;,
  1.000000;0.000000;,
  1.000000;1.000000;,
  0.000000;1.000000;,
  0.000000;0.000000;,
  1.000000;0.000000;,
  1.000000;1.000000;,
  0.000000;1.000000;;
 }
}
