xof 0302txt 0064
template Header {
 <3D82AB43-62DA-11cf-AB39-0020AF71E433>
 WORD major;
 WORD minor;
 DWORD flags;
}

template Vector {
 <3D82AB5E-62DA-11cf-AB39-0020AF71E433>
 FLOAT x;
 FLOAT y;
 FLOAT z;
}

template Coords2d {
 <F6F23F44-7686-11cf-8F52-0040333594A3>
 FLOAT u;
 FLOAT v;
}

template Matrix4x4 {
 <F6F23F45-7686-11cf-8F52-0040333594A3>
 array FLOAT matrix[16];
}

template ColorRGBA {
 <35FF44E0-6C7C-11cf-8F52-0040333594A3>
 FLOAT red;
 FLOAT green;
 FLOAT blue;
 FLOAT alpha;
}

template ColorRGB {
 <D3E16E81-7835-11cf-8F52-0040333594A3>
 FLOAT red;
 FLOAT green;
 FLOAT blue;
}

template IndexedColor {
 <1630B820-7842-11cf-8F52-0040333594A3>
 DWORD index;
 ColorRGBA indexColor;
}

template Boolean {
 <4885AE61-78E8-11cf-8F52-0040333594A3>
 WORD truefalse;
}

template Boolean2d {
 <4885AE63-78E8-11cf-8F52-0040333594A3>
 Boolean u;
 Boolean v;
}

template MaterialWrap {
 <4885AE60-78E8-11cf-8F52-0040333594A3>
 Boolean u;
 Boolean v;
}

template TextureFilename {
 <A42790E1-7810-11cf-8F52-0040333594A3>
 STRING filename;
}

template Material {
 <3D82AB4D-62DA-11cf-AB39-0020AF71E433>
 ColorRGBA faceColor;
 FLOAT power;
 ColorRGB specularColor;
 ColorRGB emissiveColor;
 [...]
}

template MeshFace {
 <3D82AB5F-62DA-11cf-AB39-0020AF71E433>
 DWORD nFaceVertexIndices;
 array DWORD faceVertexIndices[nFaceVertexIndices];
}

template MeshFaceWraps {
 <4885AE62-78E8-11cf-8F52-0040333594A3>
 DWORD nFaceWrapValues;
 Boolean2d faceWrapValues;
}

template MeshTextureCoords {
 <F6F23F40-7686-11cf-8F52-0040333594A3>
 DWORD nTextureCoords;
 array Coords2d textureCoords[nTextureCoords];
}

template MeshMaterialList {
 <F6F23F42-7686-11cf-8F52-0040333594A3>
 DWORD nMaterials;
 DWORD nFaceIndexes;
 array DWORD faceIndexes[nFaceIndexes];
 [Material]
}

template MeshNormals {
 <F6F23F43-7686-11cf-8F52-0040333594A3>
 DWORD nNormals;
 array Vector normals[nNormals];
 DWORD nFaceNormals;
 array MeshFace faceNormals[nFaceNormals];
}

template MeshVertexColors {
 <1630B821-7842-11cf-8F52-0040333594A3>
 DWORD nVertexColors;
 array IndexedColor vertexColors[nVertexColors];
}

template Mesh {
 <3D82AB44-62DA-11cf-AB39-0020AF71E433>
 DWORD nVertices;
 array Vector vertices[nVertices];
 DWORD nFaces;
 array MeshFace faces[nFaces];
 [...]
}

Header{
1;
0;
1;
}

Mesh {
 705;
 159.12306;1.51785;58.98408;,
 159.12306;1.51785;33.61337;,
 177.06285;1.51785;41.04431;,
 159.12306;1.51785;58.98408;,
 184.49376;1.51785;58.98408;,
 159.12306;1.51785;58.98408;,
 177.06285;1.51785;76.92390;,
 159.12306;1.51785;58.98408;,
 159.12306;1.51785;84.35477;,
 159.12306;1.51785;58.98408;,
 141.18332;1.51785;76.92390;,
 159.12306;1.51785;58.98408;,
 133.75238;1.51785;58.98408;,
 159.12306;1.51785;58.98408;,
 141.18332;1.51785;41.04431;,
 159.12306;1.51785;58.98408;,
 159.12306;1.51785;33.61337;,
 177.37761;48.02045;58.98408;,
 172.03098;48.02045;46.07617;,
 172.03098;551.23889;46.07617;,
 177.37761;551.23889;58.98408;,
 172.03098;551.23889;71.89199;,
 172.03098;48.02045;71.89199;,
 159.12306;48.02045;40.72951;,
 159.12306;551.23889;40.72951;,
 159.12306;551.23889;77.23865;,
 159.12306;48.02045;77.23865;,
 159.12306;48.02045;40.72951;,
 146.21507;48.02045;46.07617;,
 146.21507;551.23889;46.07617;,
 159.12306;551.23889;40.72951;,
 146.21507;551.23889;71.89199;,
 146.21507;48.02045;71.89199;,
 140.86847;48.02045;58.98408;,
 140.86847;551.23889;58.98408;,
 159.12306;591.63501;38.20200;,
 173.81827;591.63501;44.28894;,
 179.90509;591.63501;58.98408;,
 173.81827;591.63501;73.67921;,
 159.12306;591.63501;79.76615;,
 144.42792;591.63501;73.67921;,
 138.34099;591.63501;58.98408;,
 144.42792;591.63501;44.28894;,
 159.12306;591.63501;38.20200;,
 159.12306;608.03772;45.58499;,
 168.59763;608.03772;49.50952;,
 159.12306;608.03772;58.98408;,
 172.52217;608.03772;58.98408;,
 159.12306;608.03772;58.98408;,
 168.59763;608.03772;68.45864;,
 159.12306;608.03772;58.98408;,
 159.12306;608.03772;72.38320;,
 159.12306;608.03772;58.98408;,
 149.64854;608.03772;68.45864;,
 159.12306;608.03772;58.98408;,
 145.72398;608.03772;58.98408;,
 159.12306;608.03772;58.98408;,
 149.64854;608.03772;49.50952;,
 159.12306;608.03772;58.98408;,
 159.12306;608.03772;45.58499;,
 159.12306;608.03772;58.98408;,
 -82.56488;947.98267;-7.23857;,
 361.65671;947.98267;-7.23857;,
 361.65671;507.07483;46.89816;,
 -82.56488;507.07483;46.89816;,
 -277.73303;632.67017;-7.23857;,
 -7.30814;985.09497;-7.23857;,
 342.48889;716.68628;46.89816;,
 72.06400;364.26355;46.89816;,
 286.40012;60.98737;-7.23857;,
 -63.39685;468.20642;46.89816;,
 207.02783;820.62903;46.89816;,
 556.82520;552.22107;-7.23857;,
 -91.87091;-0.56578;-7.23857;,
 -276.08655;647.11938;-7.23857;,
 125.12393;829.96106;46.89816;,
 309.33936;425.73877;46.89816;,
 555.17841;537.77222;-7.23857;,
 153.96826;354.93201;46.89816;,
 -30.24716;759.15442;46.89816;,
 370.96323;941.99683;-7.23857;,
 -82.56488;947.98267;125.20673;,
 -82.56488;507.07483;71.07005;,
 361.65671;507.07483;71.07005;,
 361.65671;947.98267;125.20673;,
 -277.73303;632.67017;125.20673;,
 72.06400;364.26355;71.07005;,
 342.48889;716.68628;71.07005;,
 -7.30814;985.09497;125.20673;,
 286.40012;60.98737;125.20673;,
 556.82520;552.22107;125.20673;,
 207.02783;820.62903;71.07005;,
 -63.39685;468.20642;71.07005;,
 -91.87091;-0.56578;125.20673;,
 309.33936;425.73877;71.07005;,
 125.12393;829.96106;71.07005;,
 -276.08655;647.11938;125.20673;,
 555.17841;537.77222;125.20673;,
 370.96323;941.99683;125.20673;,
 -30.24716;759.15442;71.07005;,
 153.96826;354.93201;71.07005;,
 64.14062;947.98267;236.50716;,
 122.12323;947.98267;-203.91388;,
 175.79683;507.07483;-196.84766;,
 117.81427;507.07483;243.57355;,
 38.66611;632.67017;430.00562;,
 73.96365;985.09497;161.89438;,
 173.29478;716.68628;-177.84396;,
 137.99731;364.26355;90.26747;,
 112.30023;60.98737;-129.30118;,
 120.31616;468.20642;224.56943;,
 155.61366;820.62903;-43.54163;,
 147.59772;552.22107;-397.41370;,
 62.92596;-0.56578;245.73355;,
 38.88104;647.11938;428.37332;,
 144.92300;829.96106;37.66145;,
 168.96796;425.73877;-144.97803;,
 147.38268;537.77222;-395.78131;,
 148.68800;354.93201;9.06390;,
 124.64304;759.15442;191.70338;,
 123.33801;941.99683;-213.14056;,
 254.10545;947.98267;236.50716;,
 200.43198;507.07483;243.57355;,
 142.44934;507.07483;-196.84766;,
 196.12294;947.98267;-203.91388;,
 279.58002;632.67017;430.00562;,
 180.24881;364.26355;90.26747;,
 144.95132;716.68628;-177.84396;,
 244.28253;985.09497;161.89438;,
 205.94591;60.98737;-129.30118;,
 170.64851;552.22107;-397.41370;,
 162.63246;820.62903;-43.54163;,
 197.93004;468.20642;224.56943;,
 255.32024;-0.56578;245.73355;,
 149.27820;425.73877;-144.97803;,
 173.32312;829.96106;37.66145;,
 279.36530;647.11938;428.37332;,
 170.86348;537.77222;-395.78131;,
 194.90813;941.99683;-213.14056;,
 193.60312;759.15442;191.70338;,
 169.55818;354.93201;9.06390;,
 -95.38025;1.51785;-152.44952;,
 -95.38025;1.51785;-177.82016;,
 -77.44064;1.51785;-170.38922;,
 -95.38025;1.51785;-152.44952;,
 -70.00961;1.51785;-152.44952;,
 -95.38025;1.51785;-152.44952;,
 -77.44064;1.51785;-134.50964;,
 -95.38025;1.51785;-152.44952;,
 -95.38025;1.51785;-127.07886;,
 -95.38025;1.51785;-152.44952;,
 -113.32013;1.51785;-134.50964;,
 -95.38025;1.51785;-152.44952;,
 -120.75082;1.51785;-152.44952;,
 -95.38025;1.51785;-152.44952;,
 -113.32013;1.51785;-170.38922;,
 -95.38025;1.51785;-152.44952;,
 -95.38025;1.51785;-177.82016;,
 -77.12573;48.02045;-152.44952;,
 -82.47244;48.02045;-165.35736;,
 -82.47244;242.41895;-165.35736;,
 -77.12573;242.41895;-152.44952;,
 -82.47244;242.41895;-139.54163;,
 -82.47244;48.02045;-139.54163;,
 -95.38025;48.02045;-170.70416;,
 -95.38025;242.41895;-170.70416;,
 -95.38025;242.41895;-134.19501;,
 -95.38025;48.02045;-134.19501;,
 -95.38025;48.02045;-170.70416;,
 -108.28821;48.02045;-165.35736;,
 -108.28821;242.41895;-165.35736;,
 -95.38025;242.41895;-170.70416;,
 -108.28821;242.41895;-139.54163;,
 -108.28821;48.02045;-139.54163;,
 -113.63483;48.02045;-152.44952;,
 -113.63483;242.41895;-152.44952;,
 -95.38025;282.81494;-173.23151;,
 -80.68518;282.81494;-167.14453;,
 -74.59827;282.81494;-152.44952;,
 -80.68518;282.81494;-137.75449;,
 -95.38025;282.81494;-131.66748;,
 -110.07553;282.81494;-137.75449;,
 -116.16229;282.81494;-152.44952;,
 -110.07553;282.81494;-167.14453;,
 -95.38025;282.81494;-173.23151;,
 -95.38025;299.21759;-165.84872;,
 -85.90576;299.21759;-161.92410;,
 -95.38025;299.21759;-152.44952;,
 -81.98117;299.21759;-152.44952;,
 -95.38025;299.21759;-152.44952;,
 -85.90576;299.21759;-142.97491;,
 -95.38025;299.21759;-152.44952;,
 -95.38025;299.21759;-139.05051;,
 -95.38025;299.21759;-152.44952;,
 -104.85495;299.21759;-142.97491;,
 -95.38025;299.21759;-152.44952;,
 -108.77945;299.21759;-152.44952;,
 -95.38025;299.21759;-152.44952;,
 -104.85495;299.21759;-161.92410;,
 -95.38025;299.21759;-152.44952;,
 -95.38025;299.21759;-165.84872;,
 -95.38025;299.21759;-152.44952;,
 -337.06836;639.16125;-218.67230;,
 107.15335;639.16125;-218.67230;,
 107.15335;198.25305;-164.53540;,
 -337.06836;198.25305;-164.53540;,
 -532.23627;323.85052;-218.67230;,
 -261.81165;676.27368;-218.67230;,
 87.98553;407.86633;-164.53540;,
 -182.43939;55.44135;-164.53540;,
 31.89664;-109.02429;-218.67230;,
 -317.90027;159.38470;-164.53540;,
 -47.47577;511.80896;-164.53540;,
 302.32150;243.40051;-218.67230;,
 -346.37451;-65.92572;-218.67230;,
 -530.58936;338.29895;-218.67230;,
 -129.37946;521.13928;-164.53540;,
 54.83612;116.91632;-164.53540;,
 300.67511;228.95239;-218.67230;,
 -100.53503;46.10968;-164.53540;,
 -284.75061;450.33423;-164.53540;,
 116.45978;633.17493;-218.67230;,
 -337.06836;639.16125;-86.22693;,
 -337.06836;198.25305;-140.36356;,
 107.15335;198.25305;-140.36356;,
 107.15335;639.16125;-86.22693;,
 -532.23627;323.85052;-86.22693;,
 -182.43939;55.44135;-140.36356;,
 87.98553;407.86633;-140.36356;,
 -261.81165;676.27368;-86.22693;,
 31.89664;-109.02429;-86.22693;,
 302.32150;243.40051;-86.22693;,
 -47.47577;511.80896;-140.36356;,
 -317.90027;159.38470;-140.36356;,
 -346.37451;-65.92572;-86.22693;,
 54.83612;116.91632;-140.36356;,
 -129.37946;521.13928;-140.36356;,
 -530.58936;338.29895;-86.22693;,
 300.67511;228.95239;-86.22693;,
 116.45978;633.17493;-86.22693;,
 -284.75061;450.33423;-140.36356;,
 -100.53503;46.10968;-140.36356;,
 -190.36310;639.16125;25.07358;,
 -132.38025;639.16125;-415.34753;,
 -78.70663;198.25305;-408.28119;,
 -136.68927;198.25305;32.13983;,
 -215.83722;323.85052;218.57190;,
 -180.53967;676.27368;-49.53928;,
 -81.20862;407.86633;-389.27747;,
 -116.50616;55.44135;-121.16605;,
 -142.20319;-109.02429;-340.73450;,
 -134.18726;159.38470;13.13591;,
 -98.88971;511.80896;-254.97516;,
 -106.90573;243.40051;-608.84747;,
 -191.57758;-65.92572;34.29993;,
 -215.62219;338.29895;216.93974;,
 -109.58041;521.13928;-173.77206;,
 -85.53546;116.91632;-356.41156;,
 -107.12079;228.95239;-607.21509;,
 -105.81546;46.10968;-202.36981;,
 -129.86053;450.33423;-19.73027;,
 -131.16553;633.17493;-424.57422;,
 -0.39789;639.16125;25.07358;,
 -54.07141;198.25305;32.13983;,
 -112.05408;198.25305;-408.28119;,
 -58.38049;639.16125;-415.34753;,
 25.07666;323.85052;218.57190;,
 -74.25476;55.44135;-121.16605;,
 -109.55231;407.86633;-389.27747;,
 -10.22086;676.27368;-49.53928;,
 -48.55743;-109.02429;-340.73450;,
 -83.85492;243.40051;-608.84747;,
 -91.87091;511.80896;-254.97516;,
 -56.57349;159.38470;13.13591;,
 0.81677;-65.92572;34.29993;,
 -105.22510;116.91632;-356.41156;,
 -81.18033;521.13928;-173.77206;,
 24.86176;338.29895;216.93974;,
 -83.64001;228.95239;-607.21509;,
 -59.59540;633.17493;-424.57422;,
 -60.90036;450.33423;-19.73027;,
 -84.94522;46.10968;-202.36981;,
 307.90964;1.51785;-58.47910;,
 307.90964;1.51785;-83.84970;,
 325.84943;1.51785;-76.41882;,
 307.90964;1.51785;-58.47910;,
 333.28030;1.51785;-58.47910;,
 307.90964;1.51785;-58.47910;,
 325.84943;1.51785;-40.53922;,
 307.90964;1.51785;-58.47910;,
 307.90964;1.51785;-33.10834;,
 307.90964;1.51785;-58.47910;,
 289.96985;1.51785;-40.53922;,
 307.90964;1.51785;-58.47910;,
 282.53891;1.51785;-58.47910;,
 307.90964;1.51785;-58.47910;,
 289.96985;1.51785;-76.41882;,
 307.90964;1.51785;-58.47910;,
 307.90964;1.51785;-83.84970;,
 326.16418;48.02045;-58.47910;,
 320.81757;48.02045;-71.38701;,
 320.81757;307.77875;-71.38701;,
 326.16418;307.77875;-58.47910;,
 320.81757;307.77875;-45.57111;,
 320.81757;48.02045;-45.57111;,
 307.90964;48.02045;-76.73361;,
 307.90964;307.77875;-76.73361;,
 307.90964;307.77875;-40.22450;,
 307.90964;48.02045;-40.22450;,
 307.90964;48.02045;-76.73361;,
 295.00180;48.02045;-71.38701;,
 295.00180;307.77875;-71.38701;,
 307.90964;307.77875;-76.73361;,
 295.00180;307.77875;-45.57111;,
 295.00180;48.02045;-45.57111;,
 289.65521;48.02045;-58.47910;,
 289.65521;307.77875;-58.47910;,
 307.90964;348.17444;-79.26129;,
 322.60483;348.17444;-73.17419;,
 328.69177;348.17444;-58.47910;,
 322.60483;348.17444;-43.78391;,
 307.90964;348.17444;-37.69695;,
 293.21451;348.17444;-43.78391;,
 287.12759;348.17444;-58.47910;,
 293.21451;348.17444;-73.17419;,
 307.90964;348.17444;-79.26129;,
 307.90964;364.57739;-71.87817;,
 317.38422;364.57739;-67.95354;,
 307.90964;364.57739;-58.47910;,
 321.30881;364.57739;-58.47910;,
 307.90964;364.57739;-58.47910;,
 317.38422;364.57739;-49.00441;,
 307.90964;364.57739;-58.47910;,
 307.90964;364.57739;-45.07994;,
 307.90964;364.57739;-58.47910;,
 298.43515;364.57739;-49.00441;,
 307.90964;364.57739;-58.47910;,
 294.51062;364.57739;-58.47910;,
 307.90964;364.57739;-58.47910;,
 298.43515;364.57739;-67.95354;,
 307.90964;364.57739;-58.47910;,
 307.90964;364.57739;-71.87817;,
 307.90964;364.57739;-58.47910;,
 66.22174;704.52100;-124.70175;,
 510.44324;704.52100;-124.70175;,
 510.44324;263.61285;-70.56499;,
 66.22174;263.61285;-70.56499;,
 -128.94623;389.20996;-124.70175;,
 141.47844;741.63281;-124.70175;,
 491.27539;473.22595;-70.56499;,
 220.85057;120.80109;-70.56499;,
 435.18661;-43.66455;-124.70175;,
 85.38971;224.74445;-70.56499;,
 355.81445;577.16675;-70.56499;,
 705.61121;308.76019;-124.70175;,
 56.91571;-0.56578;-124.70175;,
 -127.30017;403.65845;-124.70175;,
 273.91058;586.49915;-70.56499;,
 458.12592;182.27673;-70.56499;,
 703.96515;294.31232;-124.70175;,
 302.75476;111.46954;-70.56499;,
 118.53943;515.69275;-70.56499;,
 519.74976;698.53442;-124.70175;,
 66.22174;704.52100;7.74361;,
 66.22174;263.61285;-46.39311;,
 510.44324;263.61285;-46.39311;,
 510.44324;704.52100;7.74361;,
 -128.94623;389.20996;7.74361;,
 220.85057;120.80109;-46.39311;,
 491.27539;473.22595;-46.39311;,
 141.47844;741.63281;7.74361;,
 435.18661;-43.66455;7.74361;,
 705.61121;308.76019;7.74361;,
 355.81445;577.16675;-46.39311;,
 85.38971;224.74445;-46.39311;,
 56.91571;-0.56578;7.74361;,
 458.12592;182.27673;-46.39311;,
 273.91058;586.49915;-46.39311;,
 -127.30017;403.65845;7.74361;,
 703.96515;294.31232;7.74361;,
 519.74976;698.53442;7.74361;,
 118.53943;515.69275;-46.39311;,
 302.75476;111.46954;-46.39311;,
 212.92723;704.52100;119.04405;,
 270.90988;704.52100;-321.37720;,
 324.58340;263.61285;-314.31070;,
 266.60083;263.61285;126.11037;,
 187.45268;389.20996;312.54248;,
 222.75018;741.63281;44.43123;,
 322.08139;473.22595;-295.30716;,
 286.78384;120.80109;-27.19566;,
 261.08682;-43.66455;-246.76395;,
 269.10284;224.74445;107.10629;,
 304.40021;577.16675;-161.00476;,
 296.38434;308.76019;-514.87695;,
 211.71259;-0.56578;128.27034;,
 187.66759;403.65845;310.91016;,
 293.70969;586.49915;-79.80164;,
 317.75449;182.27673;-262.44122;,
 296.16922;294.31232;-513.24463;,
 297.47458;111.46954;-108.39914;,
 273.42963;515.69275;74.24021;,
 272.12457;698.53442;-330.60367;,
 402.89209;704.52100;119.04405;,
 349.21857;263.61285;126.11037;,
 291.23599;263.61285;-314.31070;,
 344.90961;704.52100;-321.37720;,
 428.36667;389.20996;312.54248;,
 329.03534;120.80109;-27.19566;,
 293.73792;473.22595;-295.30716;,
 393.06921;741.63281;44.43123;,
 354.73248;-43.66455;-246.76395;,
 319.43512;308.76019;-514.87695;,
 311.41913;577.16675;-161.00476;,
 346.71658;224.74445;107.10629;,
 404.10681;-0.56578;128.27034;,
 298.06476;182.27673;-262.44122;,
 322.10971;586.49915;-79.80164;,
 428.15186;403.65845;310.91016;,
 319.65009;294.31232;-513.24463;,
 343.69495;698.53442;-330.60367;,
 342.38971;515.69275;74.24021;,
 318.34488;111.46954;-108.39914;,
 -398.82373;1.51785;-31.13507;,
 -398.82373;1.51785;-56.50577;,
 -380.88391;1.51785;-49.07491;,
 -398.82373;1.51785;-31.13507;,
 -373.45312;1.51785;-31.13507;,
 -398.82373;1.51785;-31.13507;,
 -380.88391;1.51785;-13.19531;,
 -398.82373;1.51785;-31.13507;,
 -398.82373;1.51785;-5.76443;,
 -398.82373;1.51785;-31.13507;,
 -416.76361;1.51785;-13.19531;,
 -398.82373;1.51785;-31.13507;,
 -424.19458;1.51785;-31.13507;,
 -398.82373;1.51785;-31.13507;,
 -416.76361;1.51785;-49.07491;,
 -398.82373;1.51785;-31.13507;,
 -398.82373;1.51785;-56.50577;,
 -380.56903;48.02045;-31.13507;,
 -385.91614;48.02045;-44.04309;,
 -385.91614;461.96790;-44.04309;,
 -380.56903;461.96790;-31.13507;,
 -385.91614;461.96790;-18.22714;,
 -385.91614;48.02045;-18.22714;,
 -398.82373;48.02045;-49.38969;,
 -398.82373;461.96790;-49.38969;,
 -398.82373;461.96790;-12.88052;,
 -398.82373;48.02045;-12.88052;,
 -398.82373;48.02045;-49.38969;,
 -411.73187;48.02045;-44.04309;,
 -411.73187;461.96790;-44.04309;,
 -398.82373;461.96790;-49.38969;,
 -411.73187;461.96790;-18.22714;,
 -411.73187;48.02045;-18.22714;,
 -417.07831;48.02045;-31.13507;,
 -417.07831;461.96790;-31.13507;,
 -398.82373;502.36414;-51.91721;,
 -384.12866;502.36414;-45.83025;,
 -378.04193;502.36414;-31.13507;,
 -384.12866;502.36414;-16.43996;,
 -398.82373;502.36414;-10.35306;,
 -413.51886;502.36414;-16.43996;,
 -419.60596;502.36414;-31.13507;,
 -413.51886;502.36414;-45.83025;,
 -398.82373;502.36414;-51.91721;,
 -398.82373;518.76526;-44.53421;,
 -389.34918;518.76526;-40.60968;,
 -398.82373;518.76526;-31.13507;,
 -385.42480;518.76526;-31.13507;,
 -398.82373;518.76526;-31.13507;,
 -389.34918;518.76526;-21.66054;,
 -398.82373;518.76526;-31.13507;,
 -398.82373;518.76526;-17.73607;,
 -398.82373;518.76526;-31.13507;,
 -408.29822;518.76526;-21.66054;,
 -398.82373;518.76526;-31.13507;,
 -412.22314;518.76526;-31.13507;,
 -398.82373;518.76526;-31.13507;,
 -408.29822;518.76526;-40.60968;,
 -398.82373;518.76526;-31.13507;,
 -398.82373;518.76526;-44.53421;,
 -398.82373;518.76526;-31.13507;,
 -640.51154;858.71021;-97.35767;,
 -196.28992;858.71021;-97.35767;,
 -196.28992;417.80200;-43.22101;,
 -640.51154;417.80200;-43.22101;,
 -835.67969;543.39734;-97.35767;,
 -565.25507;895.82251;-97.35767;,
 -215.45801;627.41345;-43.22101;,
 -485.88269;364.26355;-43.22101;,
 -271.54663;60.98737;-97.35767;,
 -621.34363;378.93372;-43.22101;,
 -350.91937;731.35620;-43.22101;,
 -1.12164;462.94946;-97.35767;,
 -649.81763;48.24567;-97.35767;,
 -834.03271;557.84644;-97.35767;,
 -432.82288;740.68811;-43.22101;,
 -248.60730;336.46594;-43.22101;,
 -2.76813;448.50122;-97.35767;,
 -403.97852;354.93201;-43.22101;,
 -588.19354;669.88135;-43.22101;,
 -186.98364;852.72351;-97.35767;,
 -640.51154;858.71021;35.08752;,
 -640.51154;417.80200;-19.04918;,
 -196.28992;417.80200;-19.04918;,
 -196.28992;858.71021;35.08752;,
 -835.67969;543.39734;35.08752;,
 -485.88269;364.26355;-19.04918;,
 -215.45801;627.41345;-19.04918;,
 -565.25507;895.82251;35.08752;,
 -271.54663;60.98737;35.08752;,
 -1.12164;462.94946;35.08752;,
 -350.91937;731.35620;-19.04918;,
 -621.34363;378.93372;-19.04918;,
 -649.81763;48.24567;35.08752;,
 -248.60730;336.46594;-19.04918;,
 -432.82288;740.68811;-19.04918;,
 -834.03271;557.84644;35.08752;,
 -2.76813;448.50122;35.08752;,
 -186.98364;852.72351;35.08752;,
 -588.19354;669.88135;-19.04918;,
 -403.97852;354.93201;-19.04918;,
 -493.80615;858.71021;146.38803;,
 -435.82373;858.71021;-294.03308;,
 -382.15015;417.80200;-286.96683;,
 -440.13269;417.80200;153.45442;,
 -519.28046;543.39734;339.88647;,
 -483.98303;895.82251;71.77515;,
 -384.65186;627.41345;-267.96320;,
 -419.94946;364.26355;0.14828;,
 -445.64679;60.98737;-219.42029;,
 -437.63086;378.93372;134.45039;,
 -402.33331;731.35620;-133.66083;,
 -410.34912;462.94946;-487.53271;,
 -495.02087;-0.56578;155.61441;,
 -519.06531;557.84644;338.25409;,
 -413.02356;740.68811;-52.45773;,
 -388.97900;336.46594;-235.09705;,
 -410.56439;448.50122;-485.90063;,
 -409.25885;354.93201;-81.05521;,
 -433.30396;669.88135;101.58415;,
 -434.60919;852.72351;-303.25983;,
 -303.84119;858.71021;146.38803;,
 -357.51501;417.80200;153.45442;,
 -415.49731;417.80200;-286.96683;,
 -361.82385;858.71021;-294.03308;,
 -278.36694;543.39734;339.88647;,
 -377.69806;364.26355;0.14828;,
 -412.99561;627.41345;-267.96320;,
 -313.66437;895.82251;71.77515;,
 -352.00098;60.98737;-219.42029;,
 -387.29834;462.94946;-487.53271;,
 -395.31427;731.35620;-133.66083;,
 -360.01709;378.93372;134.45039;,
 -302.62653;-0.56578;155.61441;,
 -408.66870;336.46594;-235.09705;,
 -384.62415;740.68811;-52.45773;,
 -278.58167;557.84644;338.25409;,
 -387.08374;448.50122;-485.90063;,
 -363.03882;852.72351;-303.25983;,
 -364.34399;669.88135;101.58415;,
 -388.38892;354.93201;-81.05521;,
 506.10141;-4.93588;200.04587;,
 506.10141;-4.93588;174.67522;,
 522.50049;-4.93588;182.10599;,
 506.10141;-4.93588;200.04587;,
 529.29346;-4.93588;200.04587;,
 506.10141;-4.93588;200.04587;,
 522.50049;-4.93588;217.98572;,
 506.10141;-4.93588;200.04587;,
 506.10141;-4.93588;225.41660;,
 506.10141;-4.93588;200.04587;,
 489.70209;-4.93588;217.98572;,
 506.10141;-4.93588;200.04587;,
 482.90921;-4.93588;200.04587;,
 506.10141;-4.93588;200.04587;,
 489.70209;-4.93588;182.10599;,
 506.10141;-4.93588;200.04587;,
 506.10141;-4.93588;174.67522;,
 522.78845;35.10423;200.04587;,
 517.90100;35.10423;187.13791;,
 517.90100;391.52539;187.13791;,
 522.78845;391.52539;200.04587;,
 517.90100;391.52539;212.95380;,
 517.90100;35.10423;212.95380;,
 506.10141;35.10423;181.79134;,
 506.10141;391.52539;181.79134;,
 506.10141;391.52539;218.30046;,
 506.10141;35.10423;218.30046;,
 506.10141;35.10423;181.79134;,
 494.30191;35.10423;187.13791;,
 494.30191;391.52539;187.13791;,
 506.10141;391.52539;181.79134;,
 494.30191;391.52539;212.95380;,
 494.30191;35.10423;212.95380;,
 489.41418;35.10423;200.04587;,
 489.41418;391.52539;200.04587;,
 506.10141;426.30713;179.26384;,
 519.53491;426.30713;185.35078;,
 525.09888;426.30713;200.04587;,
 519.53491;426.30713;214.74101;,
 506.10141;426.30713;220.82809;,
 492.66818;426.30713;214.74101;,
 487.10385;426.30713;200.04587;,
 492.66818;426.30713;185.35078;,
 506.10141;426.30713;179.26384;,
 506.10141;440.43018;186.64676;,
 514.76270;440.43018;190.57126;,
 506.10141;440.43018;200.04587;,
 518.34991;440.43018;200.04587;,
 506.10141;440.43018;200.04587;,
 514.76270;440.43018;209.52046;,
 506.10141;440.43018;200.04587;,
 506.10141;440.43018;213.44495;,
 506.10141;440.43018;200.04587;,
 497.44055;440.43018;209.52046;,
 506.10141;440.43018;200.04587;,
 493.85242;440.43018;200.04587;,
 506.10141;440.43018;200.04587;,
 497.44055;440.43018;190.57126;,
 506.10141;440.43018;200.04587;,
 506.10141;440.43018;186.64676;,
 506.10141;440.43018;200.04587;,
 285.16620;733.13196;133.82332;,
 691.24554;733.13196;133.82332;,
 691.24554;353.49695;187.95998;,
 285.16620;353.49695;187.95998;,
 106.75629;461.64038;133.82332;,
 353.96094;765.08630;133.82332;,
 673.72339;533.97876;187.95998;,
 426.51758;307.39868;187.95998;,
 622.45020;46.26898;133.82332;,
 302.68845;320.03046;187.95998;,
 549.89294;623.47595;187.95998;,
 869.65558;392.37012;133.82332;,
 276.65918;35.29784;133.82332;,
 108.26144;474.08081;133.82332;,
 475.02176;631.51135;187.95998;,
 643.41974;283.46399;187.95998;,
 868.15057;379.92981;133.82332;,
 501.38934;299.36395;187.95998;,
 332.99164;570.54480;187.95998;,
 699.75256;727.97681;133.82332;,
 285.16620;733.13196;266.26855;,
 285.16620;353.49695;212.13181;,
 691.24554;353.49695;212.13181;,
 691.24554;733.13196;266.26855;,
 106.75629;461.64038;266.26855;,
 426.51758;307.39868;212.13181;,
 673.72339;533.97876;212.13181;,
 353.96094;765.08630;266.26855;,
 622.45020;46.26898;266.26855;,
 869.65558;392.37012;266.26855;,
 549.89294;623.47595;212.13181;,
 302.68845;320.03046;212.13181;,
 276.65918;35.29784;266.26855;,
 643.41974;283.46399;212.13181;,
 475.02176;631.51135;212.13181;,
 108.26144;474.08081;266.26855;,
 868.15057;379.92981;266.26855;,
 699.75256;727.97681;266.26855;,
 332.99164;570.54480;212.13181;,
 501.38934;299.36395;212.13181;,
 419.27463;733.13196;377.56876;,
 472.27850;733.13196;-62.85211;,
 521.34338;353.49695;-55.78568;,
 468.33920;353.49695;384.63504;,
 395.98776;461.64038;571.06720;,
 428.25412;765.08630;302.95596;,
 519.05640;533.97876;-36.78201;,
 486.78928;307.39868;231.32938;,
 463.29892;46.26898;11.76076;,
 470.62668;320.03046;365.63113;,
 502.89328;623.47595;97.52021;,
 495.56573;392.37012;-256.35229;,
 418.16428;-6.73006;386.79532;,
 396.18423;474.08081;569.43500;,
 493.12079;631.51135;178.72328;,
 515.10101;283.46399;-3.91615;,
 495.36893;379.92981;-254.71997;,
 496.56235;299.36395;150.12570;,
 474.58188;570.54480;332.76492;,
 473.38867;727.97681;-72.07880;,
 592.92865;733.13196;377.56876;,
 543.86353;353.49695;384.63504;,
 490.85925;353.49695;-55.78568;,
 539.92413;733.13196;-62.85211;,
 616.21588;461.64038;571.06720;,
 525.41284;307.39868;231.32938;,
 493.14664;533.97876;-36.78201;,
 583.94861;765.08630;302.95596;,
 548.90363;46.26898;11.76076;,
 516.63721;392.37012;-256.35229;,
 509.30927;623.47595;97.52021;,
 541.57642;320.03046;365.63113;,
 594.03882;-6.73006;386.79532;,
 497.10214;283.46399;-3.91615;,
 519.08234;631.51135;178.72328;,
 616.01923;474.08081;569.43500;,
 516.83398;379.92981;-254.71997;,
 538.81372;727.97681;-72.07880;,
 537.62085;570.54480;332.76492;,
 515.64062;299.36395;150.12570;;
 
 340;
 3;0,1,2;,
 3;3,2,4;,
 3;5,4,6;,
 3;7,6,8;,
 3;9,8,10;,
 3;11,10,12;,
 3;13,12,14;,
 3;15,14,16;,
 4;17,4,2,18;,
 4;17,18,19,20;,
 4;17,20,21,22;,
 4;17,22,6,4;,
 4;18,2,1,23;,
 4;18,23,24,19;,
 4;22,21,25,26;,
 4;22,26,8,6;,
 4;27,16,14,28;,
 4;27,28,29,30;,
 4;26,25,31,32;,
 4;26,32,10,8;,
 4;28,14,12,33;,
 4;28,33,34,29;,
 4;32,31,34,33;,
 4;32,33,12,10;,
 4;35,36,19,24;,
 4;36,37,20,19;,
 4;37,38,21,20;,
 4;38,39,25,21;,
 4;39,40,31,25;,
 4;40,41,34,31;,
 4;41,42,29,34;,
 4;42,43,30,29;,
 4;44,45,36,35;,
 3;46,45,44;,
 4;45,47,37,36;,
 3;48,47,45;,
 4;47,49,38,37;,
 3;50,49,47;,
 4;49,51,39,38;,
 3;52,51,49;,
 4;51,53,40,39;,
 3;54,53,51;,
 4;53,55,41,40;,
 3;56,55,53;,
 4;55,57,42,41;,
 3;58,57,55;,
 4;57,59,43,42;,
 3;60,59,57;,
 4;61,62,63,64;,
 4;65,66,67,68;,
 4;69,70,71,72;,
 4;73,74,75,76;,
 4;77,78,79,80;,
 4;81,82,83,84;,
 4;85,86,87,88;,
 4;89,90,91,92;,
 4;93,94,95,96;,
 4;97,98,99,100;,
 4;101,102,103,104;,
 4;105,106,107,108;,
 4;109,110,111,112;,
 4;113,114,115,116;,
 4;117,118,119,120;,
 4;121,122,123,124;,
 4;125,126,127,128;,
 4;129,130,131,132;,
 4;133,134,135,136;,
 4;137,138,139,140;,
 3;141,142,143;,
 3;144,143,145;,
 3;146,145,147;,
 3;148,147,149;,
 3;150,149,151;,
 3;152,151,153;,
 3;154,153,155;,
 3;156,155,157;,
 4;158,145,143,159;,
 4;158,159,160,161;,
 4;158,161,162,163;,
 4;158,163,147,145;,
 4;159,143,142,164;,
 4;159,164,165,160;,
 4;163,162,166,167;,
 4;163,167,149,147;,
 4;168,157,155,169;,
 4;168,169,170,171;,
 4;167,166,172,173;,
 4;167,173,151,149;,
 4;169,155,153,174;,
 4;169,174,175,170;,
 4;173,172,175,174;,
 4;173,174,153,151;,
 4;176,177,160,165;,
 4;177,178,161,160;,
 4;178,179,162,161;,
 4;179,180,166,162;,
 4;180,181,172,166;,
 4;181,182,175,172;,
 4;182,183,170,175;,
 4;183,184,171,170;,
 4;185,186,177,176;,
 3;187,186,185;,
 4;186,188,178,177;,
 3;189,188,186;,
 4;188,190,179,178;,
 3;191,190,188;,
 4;190,192,180,179;,
 3;193,192,190;,
 4;192,194,181,180;,
 3;195,194,192;,
 4;194,196,182,181;,
 3;197,196,194;,
 4;196,198,183,182;,
 3;199,198,196;,
 4;198,200,184,183;,
 3;201,200,198;,
 4;202,203,204,205;,
 4;206,207,208,209;,
 4;210,211,212,213;,
 4;214,215,216,217;,
 4;218,219,220,221;,
 4;222,223,224,225;,
 4;226,227,228,229;,
 4;230,231,232,233;,
 4;234,235,236,237;,
 4;238,239,240,241;,
 4;242,243,244,245;,
 4;246,247,248,249;,
 4;250,251,252,253;,
 4;254,255,256,257;,
 4;258,259,260,261;,
 4;262,263,264,265;,
 4;266,267,268,269;,
 4;270,271,272,273;,
 4;274,275,276,277;,
 4;278,279,280,281;,
 3;282,283,284;,
 3;285,284,286;,
 3;287,286,288;,
 3;289,288,290;,
 3;291,290,292;,
 3;293,292,294;,
 3;295,294,296;,
 3;297,296,298;,
 4;299,286,284,300;,
 4;299,300,301,302;,
 4;299,302,303,304;,
 4;299,304,288,286;,
 4;300,284,283,305;,
 4;300,305,306,301;,
 4;304,303,307,308;,
 4;304,308,290,288;,
 4;309,298,296,310;,
 4;309,310,311,312;,
 4;308,307,313,314;,
 4;308,314,292,290;,
 4;310,296,294,315;,
 4;310,315,316,311;,
 4;314,313,316,315;,
 4;314,315,294,292;,
 4;317,318,301,306;,
 4;318,319,302,301;,
 4;319,320,303,302;,
 4;320,321,307,303;,
 4;321,322,313,307;,
 4;322,323,316,313;,
 4;323,324,311,316;,
 4;324,325,312,311;,
 4;326,327,318,317;,
 3;328,327,326;,
 4;327,329,319,318;,
 3;330,329,327;,
 4;329,331,320,319;,
 3;332,331,329;,
 4;331,333,321,320;,
 3;334,333,331;,
 4;333,335,322,321;,
 3;336,335,333;,
 4;335,337,323,322;,
 3;338,337,335;,
 4;337,339,324,323;,
 3;340,339,337;,
 4;339,341,325,324;,
 3;342,341,339;,
 4;343,344,345,346;,
 4;347,348,349,350;,
 4;351,352,353,354;,
 4;355,356,357,358;,
 4;359,360,361,362;,
 4;363,364,365,366;,
 4;367,368,369,370;,
 4;371,372,373,374;,
 4;375,376,377,378;,
 4;379,380,381,382;,
 4;383,384,385,386;,
 4;387,388,389,390;,
 4;391,392,393,394;,
 4;395,396,397,398;,
 4;399,400,401,402;,
 4;403,404,405,406;,
 4;407,408,409,410;,
 4;411,412,413,414;,
 4;415,416,417,418;,
 4;419,420,421,422;,
 3;423,424,425;,
 3;426,425,427;,
 3;428,427,429;,
 3;430,429,431;,
 3;432,431,433;,
 3;434,433,435;,
 3;436,435,437;,
 3;438,437,439;,
 4;440,427,425,441;,
 4;440,441,442,443;,
 4;440,443,444,445;,
 4;440,445,429,427;,
 4;441,425,424,446;,
 4;441,446,447,442;,
 4;445,444,448,449;,
 4;445,449,431,429;,
 4;450,439,437,451;,
 4;450,451,452,453;,
 4;449,448,454,455;,
 4;449,455,433,431;,
 4;451,437,435,456;,
 4;451,456,457,452;,
 4;455,454,457,456;,
 4;455,456,435,433;,
 4;458,459,442,447;,
 4;459,460,443,442;,
 4;460,461,444,443;,
 4;461,462,448,444;,
 4;462,463,454,448;,
 4;463,464,457,454;,
 4;464,465,452,457;,
 4;465,466,453,452;,
 4;467,468,459,458;,
 3;469,468,467;,
 4;468,470,460,459;,
 3;471,470,468;,
 4;470,472,461,460;,
 3;473,472,470;,
 4;472,474,462,461;,
 3;475,474,472;,
 4;474,476,463,462;,
 3;477,476,474;,
 4;476,478,464,463;,
 3;479,478,476;,
 4;478,480,465,464;,
 3;481,480,478;,
 4;480,482,466,465;,
 3;483,482,480;,
 4;484,485,486,487;,
 4;488,489,490,491;,
 4;492,493,494,495;,
 4;496,497,498,499;,
 4;500,501,502,503;,
 4;504,505,506,507;,
 4;508,509,510,511;,
 4;512,513,514,515;,
 4;516,517,518,519;,
 4;520,521,522,523;,
 4;524,525,526,527;,
 4;528,529,530,531;,
 4;532,533,534,535;,
 4;536,537,538,539;,
 4;540,541,542,543;,
 4;544,545,546,547;,
 4;548,549,550,551;,
 4;552,553,554,555;,
 4;556,557,558,559;,
 4;560,561,562,563;,
 3;564,565,566;,
 3;567,566,568;,
 3;569,568,570;,
 3;571,570,572;,
 3;573,572,574;,
 3;575,574,576;,
 3;577,576,578;,
 3;579,578,580;,
 4;581,568,566,582;,
 4;581,582,583,584;,
 4;581,584,585,586;,
 4;581,586,570,568;,
 4;582,566,565,587;,
 4;582,587,588,583;,
 4;586,585,589,590;,
 4;586,590,572,570;,
 4;591,580,578,592;,
 4;591,592,593,594;,
 4;590,589,595,596;,
 4;590,596,574,572;,
 4;592,578,576,597;,
 4;592,597,598,593;,
 4;596,595,598,597;,
 4;596,597,576,574;,
 4;599,600,583,588;,
 4;600,601,584,583;,
 4;601,602,585,584;,
 4;602,603,589,585;,
 4;603,604,595,589;,
 4;604,605,598,595;,
 4;605,606,593,598;,
 4;606,607,594,593;,
 4;608,609,600,599;,
 3;610,609,608;,
 4;609,611,601,600;,
 3;612,611,609;,
 4;611,613,602,601;,
 3;614,613,611;,
 4;613,615,603,602;,
 3;616,615,613;,
 4;615,617,604,603;,
 3;618,617,615;,
 4;617,619,605,604;,
 3;620,619,617;,
 4;619,621,606,605;,
 3;622,621,619;,
 4;621,623,607,606;,
 3;624,623,621;,
 4;625,626,627,628;,
 4;629,630,631,632;,
 4;633,634,635,636;,
 4;637,638,639,640;,
 4;641,642,643,644;,
 4;645,646,647,648;,
 4;649,650,651,652;,
 4;653,654,655,656;,
 4;657,658,659,660;,
 4;661,662,663,664;,
 4;665,666,667,668;,
 4;669,670,671,672;,
 4;673,674,675,676;,
 4;677,678,679,680;,
 4;681,682,683,684;,
 4;685,686,687,688;,
 4;689,690,691,692;,
 4;693,694,695,696;,
 4;697,698,699,700;,
 4;701,702,703,704;;
 
 MeshMaterialList {
  2;
  340;
  0,
  0,
  0,
  0,
  0,
  0,
  0,
  0,
  0,
  0,
  0,
  0,
  0,
  0,
  0,
  0,
  0,
  0,
  0,
  0,
  0,
  0,
  0,
  0,
  0,
  0,
  0,
  0,
  0,
  0,
  0,
  0,
  0,
  0,
  0,
  0,
  0,
  0,
  0,
  0,
  0,
  0,
  0,
  0,
  0,
  0,
  0,
  0,
  1,
  1,
  1,
  1,
  1,
  1,
  1,
  1,
  1,
  1,
  1,
  1,
  1,
  1,
  1,
  1,
  1,
  1,
  1,
  1,
  0,
  0,
  0,
  0,
  0,
  0,
  0,
  0,
  0,
  0,
  0,
  0,
  0,
  0,
  0,
  0,
  0,
  0,
  0,
  0,
  0,
  0,
  0,
  0,
  0,
  0,
  0,
  0,
  0,
  0,
  0,
  0,
  0,
  0,
  0,
  0,
  0,
  0,
  0,
  0,
  0,
  0,
  0,
  0,
  0,
  0,
  0,
  0,
  1,
  1,
  1,
  1,
  1,
  1,
  1,
  1,
  1,
  1,
  1,
  1,
  1,
  1,
  1,
  1,
  1,
  1,
  1,
  1,
  0,
  0,
  0,
  0,
  0,
  0,
  0,
  0,
  0,
  0,
  0,
  0,
  0,
  0,
  0,
  0,
  0,
  0,
  0,
  0,
  0,
  0,
  0,
  0,
  0,
  0,
  0,
  0,
  0,
  0,
  0,
  0,
  0,
  0,
  0,
  0,
  0,
  0,
  0,
  0,
  0,
  0,
  0,
  0,
  0,
  0,
  0,
  0,
  1,
  1,
  1,
  1,
  1,
  1,
  1,
  1,
  1,
  1,
  1,
  1,
  1,
  1,
  1,
  1,
  1,
  1,
  1,
  1,
  0,
  0,
  0,
  0,
  0,
  0,
  0,
  0,
  0,
  0,
  0,
  0,
  0,
  0,
  0,
  0,
  0,
  0,
  0,
  0,
  0,
  0,
  0,
  0,
  0,
  0,
  0,
  0,
  0,
  0,
  0,
  0,
  0,
  0,
  0,
  0,
  0,
  0,
  0,
  0,
  0,
  0,
  0,
  0,
  0,
  0,
  0,
  0,
  1,
  1,
  1,
  1,
  1,
  1,
  1,
  1,
  1,
  1,
  1,
  1,
  1,
  1,
  1,
  1,
  1,
  1,
  1,
  1,
  0,
  0,
  0,
  0,
  0,
  0,
  0,
  0,
  0,
  0,
  0,
  0,
  0,
  0,
  0,
  0,
  0,
  0,
  0,
  0,
  0,
  0,
  0,
  0,
  0,
  0,
  0,
  0,
  0,
  0,
  0,
  0,
  0,
  0,
  0,
  0,
  0,
  0,
  0,
  0,
  0,
  0,
  0,
  0,
  0,
  0,
  0,
  0,
  1,
  1,
  1,
  1,
  1,
  1,
  1,
  1,
  1,
  1,
  1,
  1,
  1,
  1,
  1,
  1,
  1,
  1,
  1,
  1;;
  Material {
   0.385600;0.238400;0.197600;1.000000;;
   0.000000;
   0.000000;0.000000;0.000000;;
   0.000000;0.000000;0.000000;;
  }
  Material {
   1.000000;1.000000;1.000000;1.000000;;
   0.000000;
   0.000000;0.000000;0.000000;;
   0.000000;0.000000;0.000000;;
   TextureFilename {
    "data/TEXTURE/ki/treeleaf.png";
   }
  }
 }
 MeshNormals {
  310;
  0.000001;-0.031243;-0.999512;,
  0.706763;-0.031243;-0.706761;,
  0.999512;-0.031243;-0.000000;,
  0.706762;-0.031243;0.706761;,
  0.000001;-0.031243;0.999512;,
  -0.706762;-0.031242;0.706761;,
  -0.999512;-0.031242;-0.000000;,
  -0.706762;-0.031242;-0.706761;,
  0.000000;-1.000000;0.000000;,
  0.997114;0.075915;-0.000000;,
  0.705067;0.075915;-0.705066;,
  0.705067;0.075915;0.705066;,
  0.000001;0.075915;-0.997114;,
  0.000001;0.075915;0.997114;,
  -0.705067;0.075914;-0.705066;,
  -0.705067;0.075915;0.705066;,
  -0.997114;0.075914;-0.000000;,
  -0.000000;0.180741;-0.983531;,
  0.695462;0.180741;-0.695460;,
  0.983531;0.180740;0.000000;,
  0.695463;0.180740;0.695460;,
  -0.000000;0.180741;0.983531;,
  -0.695461;0.180741;0.695461;,
  -0.983531;0.180742;-0.000000;,
  -0.695461;0.180741;-0.695461;,
  0.000000;1.000000;0.000000;,
  -0.000001;0.410448;-0.911884;,
  0.644800;0.410448;-0.644799;,
  0.911885;0.410447;0.000000;,
  0.644801;0.410446;0.644799;,
  -0.000001;0.410447;0.911884;,
  -0.644800;0.410447;0.644800;,
  -0.911884;0.410449;-0.000000;,
  -0.644799;0.410447;-0.644800;,
  0.000000;-0.121869;-0.992546;,
  0.096685;-0.074189;-0.992546;,
  -0.095237;0.062911;-0.993465;,
  0.106966;0.039923;-0.993461;,
  -0.110896;-0.050538;-0.992546;,
  0.000000;-0.121869;0.992546;,
  0.096685;-0.074189;0.992546;,
  -0.095237;0.062911;0.993465;,
  0.106966;0.039923;0.993461;,
  -0.110896;-0.050538;0.992546;,
  -0.984055;-0.121870;-0.129553;,
  -0.971435;-0.074189;-0.225411;,
  -0.997396;0.062911;-0.035250;,
  -0.971000;0.039923;-0.235724;,
  -0.998530;-0.050538;-0.019606;,
  0.984055;-0.121869;-0.129553;,
  0.971435;-0.074189;-0.225411;,
  0.997396;0.062911;-0.035250;,
  0.971000;0.039923;-0.235724;,
  0.998530;-0.050538;-0.019606;,
  0.988493;0.151266;-0.000000;,
  0.698971;0.151266;-0.698970;,
  0.698970;0.151266;0.698970;,
  0.000000;0.151266;-0.988493;,
  0.000000;0.151266;0.988493;,
  -0.698971;0.151265;-0.698970;,
  -0.698970;0.151265;0.698970;,
  -0.988493;0.151264;-0.000000;,
  0.000002;-0.031242;-0.999512;,
  0.706764;-0.031242;-0.706760;,
  0.999512;-0.031243;-0.000001;,
  0.706761;-0.031243;0.706762;,
  0.000002;-0.031243;0.999512;,
  -0.706762;-0.031243;0.706761;,
  -0.999512;-0.031243;-0.000001;,
  -0.706764;-0.031242;-0.706759;,
  0.000000;-1.000000;0.000000;,
  0.997114;0.075915;-0.000001;,
  0.705068;0.075914;-0.705065;,
  0.705065;0.075915;0.705068;,
  0.000002;0.075914;-0.997114;,
  0.000002;0.075916;0.997114;,
  -0.705069;0.075914;-0.705063;,
  -0.705066;0.075915;0.705066;,
  -0.997114;0.075915;-0.000001;,
  0.000003;0.180739;-0.983531;,
  0.695463;0.180739;-0.695460;,
  0.983531;0.180740;-0.000001;,
  0.695461;0.180740;0.695462;,
  0.000003;0.180740;0.983531;,
  -0.695462;0.180739;0.695461;,
  -0.983531;0.180738;-0.000001;,
  -0.695464;0.180738;-0.695459;,
  0.000000;1.000000;0.000000;,
  0.000003;0.410442;-0.911887;,
  0.644802;0.410442;-0.644800;,
  0.911885;0.410446;-0.000000;,
  0.644799;0.410446;0.644801;,
  0.000003;0.410445;0.911885;,
  -0.644800;0.410445;0.644801;,
  -0.911886;0.410443;-0.000000;,
  -0.644803;0.410442;-0.644799;,
  0.000000;-0.121870;-0.992546;,
  0.096686;-0.074189;-0.992546;,
  -0.096685;0.074189;-0.992546;,
  0.110897;0.050538;-0.992546;,
  -0.110897;-0.050539;-0.992546;,
  0.000000;-0.121869;0.992546;,
  0.096685;-0.074189;0.992546;,
  -0.096685;0.074189;0.992546;,
  0.110896;0.050538;0.992546;,
  -0.110896;-0.050538;0.992546;,
  -0.984055;-0.121870;-0.129554;,
  -0.971435;-0.074189;-0.225411;,
  -0.996675;0.074189;-0.033695;,
  -0.969580;0.050539;-0.239500;,
  -0.998530;-0.050538;-0.019606;,
  0.984055;-0.121869;-0.129553;,
  0.971435;-0.074190;-0.225412;,
  0.996675;0.074189;-0.033695;,
  0.969580;0.050539;-0.239501;,
  0.998530;-0.050538;-0.019606;,
  0.988493;0.151265;-0.000001;,
  0.698971;0.151264;-0.698970;,
  0.698968;0.151266;0.698972;,
  0.000002;0.151264;-0.988493;,
  0.000002;0.151267;0.988493;,
  -0.698973;0.151265;-0.698967;,
  -0.698971;0.151267;0.698970;,
  -0.988493;0.151265;-0.000001;,
  -0.000001;-0.031244;-0.999512;,
  0.706762;-0.031244;-0.706761;,
  0.999512;-0.031244;-0.000001;,
  0.706762;-0.031244;0.706761;,
  -0.000001;-0.031243;0.999512;,
  -0.706763;-0.031244;0.706760;,
  -0.999512;-0.031244;-0.000001;,
  -0.706763;-0.031244;-0.706760;,
  0.000000;-1.000000;0.000000;,
  0.997114;0.075915;-0.000001;,
  0.705066;0.075915;-0.705067;,
  0.705067;0.075915;0.705066;,
  -0.000001;0.075915;-0.997114;,
  -0.000001;0.075915;0.997114;,
  -0.705067;0.075915;-0.705066;,
  -0.705067;0.075916;0.705065;,
  -0.997114;0.075916;-0.000001;,
  -0.000001;0.180740;-0.983531;,
  0.695463;0.180738;-0.695460;,
  0.983531;0.180737;-0.000002;,
  0.695461;0.180737;0.695462;,
  -0.000001;0.180737;0.983531;,
  -0.695463;0.180737;0.695460;,
  -0.983531;0.180738;-0.000002;,
  -0.695464;0.180739;-0.695459;,
  0.000000;1.000000;0.000000;,
  -0.000001;0.410449;-0.911884;,
  0.644802;0.410443;-0.644800;,
  0.911887;0.410442;-0.000003;,
  0.644801;0.410441;0.644803;,
  -0.000001;0.410441;0.911887;,
  -0.644802;0.410442;0.644800;,
  -0.911886;0.410444;-0.000003;,
  -0.644804;0.410445;-0.644797;,
  0.000000;-0.121869;-0.992546;,
  0.096685;-0.074189;-0.992546;,
  -0.096685;0.074189;-0.992546;,
  0.110896;0.050538;-0.992546;,
  -0.110896;-0.050538;-0.992546;,
  0.000000;-0.121869;0.992546;,
  0.096685;-0.074189;0.992546;,
  -0.096685;0.074189;0.992546;,
  0.110896;0.050538;0.992546;,
  -0.110896;-0.050538;0.992546;,
  -0.984055;-0.121869;-0.129553;,
  -0.971435;-0.074189;-0.225411;,
  -0.996675;0.074189;-0.033695;,
  -0.969580;0.050539;-0.239501;,
  -0.998530;-0.050538;-0.019606;,
  0.984055;-0.121869;-0.129553;,
  0.971435;-0.074190;-0.225411;,
  0.996675;0.074189;-0.033695;,
  0.969580;0.050538;-0.239501;,
  0.998530;-0.050538;-0.019606;,
  0.988493;0.151265;-0.000001;,
  0.698970;0.151265;-0.698971;,
  0.698971;0.151266;0.698970;,
  -0.000001;0.151265;-0.988493;,
  -0.000001;0.151266;0.988493;,
  -0.698970;0.151267;-0.698970;,
  -0.698971;0.151268;0.698969;,
  -0.988493;0.151268;-0.000001;,
  0.000006;-0.031242;-0.999512;,
  0.706757;-0.031242;-0.706766;,
  0.999512;-0.031242;0.000001;,
  0.706756;-0.031242;0.706767;,
  0.000006;-0.031242;0.999512;,
  -0.706762;-0.031242;0.706761;,
  -0.999512;-0.031242;0.000001;,
  -0.706763;-0.031242;-0.706760;,
  0.000000;-1.000000;0.000000;,
  0.997114;0.075916;0.000001;,
  0.705061;0.075915;-0.705072;,
  0.705060;0.075915;0.705072;,
  0.000006;0.075915;-0.997114;,
  0.000006;0.075915;0.997114;,
  -0.705068;0.075915;-0.705065;,
  -0.705067;0.075915;0.705065;,
  -0.997114;0.075915;0.000001;,
  0.000002;0.180760;-0.983527;,
  0.695461;0.180758;-0.695457;,
  0.983528;0.180758;0.000001;,
  0.695460;0.180758;0.695458;,
  0.000002;0.180760;0.983527;,
  -0.695454;0.180760;0.695464;,
  -0.983527;0.180759;0.000001;,
  -0.695456;0.180758;-0.695462;,
  0.000000;1.000000;0.000000;,
  -0.000000;0.410480;-0.911869;,
  0.644795;0.410478;-0.644784;,
  0.911872;0.410474;0.000001;,
  0.644793;0.410479;0.644786;,
  -0.000000;0.410480;0.911869;,
  -0.644781;0.410479;0.644798;,
  -0.911869;0.410481;0.000001;,
  -0.644785;0.410476;-0.644796;,
  0.000000;-0.121869;-0.992546;,
  0.097960;-0.086346;-0.991437;,
  -0.096044;0.069187;-0.992970;,
  0.108665;0.044507;-0.993082;,
  -0.113315;-0.058470;-0.991837;,
  0.000000;-0.121869;0.992546;,
  0.097960;-0.086346;0.991437;,
  -0.096044;0.069187;0.992970;,
  0.108665;0.044507;0.993082;,
  -0.113315;-0.058470;0.991837;,
  -0.984055;-0.121869;-0.129553;,
  -0.970169;-0.086345;-0.226531;,
  -0.997011;0.069187;-0.034386;,
  -0.970655;0.042592;-0.236675;,
  -0.998142;-0.058471;-0.017114;,
  0.984055;-0.121870;-0.129553;,
  0.970169;-0.086346;-0.226531;,
  0.997011;0.069187;-0.034385;,
  0.970655;0.042592;-0.236676;,
  0.998142;-0.058470;-0.017115;,
  0.988493;0.151268;0.000001;,
  0.698967;0.151265;-0.698973;,
  0.698967;0.151267;0.698974;,
  0.000004;0.151265;-0.988493;,
  0.000004;0.151265;0.988493;,
  -0.698970;0.151266;-0.698970;,
  -0.698970;0.151265;0.698970;,
  -0.988493;0.151265;0.000001;,
  -0.000002;-0.036270;-0.999342;,
  0.728773;-0.034650;-0.683878;,
  0.999450;-0.033164;0.000000;,
  0.728776;-0.034651;0.683875;,
  -0.000002;-0.036271;0.999342;,
  -0.728770;-0.034650;0.683881;,
  -0.999450;-0.033163;0.000000;,
  -0.728768;-0.034649;-0.683883;,
  0.000000;-1.000000;0.000000;,
  0.996754;0.080504;0.000000;,
  0.726717;0.084065;-0.681774;,
  0.726719;0.084065;0.681772;,
  -0.000000;0.087946;-0.996125;,
  -0.000000;0.087946;0.996125;,
  -0.726713;0.084066;-0.681778;,
  -0.726715;0.084066;0.681776;,
  -0.996754;0.080506;0.000000;,
  -0.000004;0.205680;-0.978619;,
  0.715582;0.197523;-0.670021;,
  0.981771;0.190070;-0.000000;,
  0.715584;0.197524;0.670018;,
  -0.000004;0.205683;0.978619;,
  -0.715575;0.197522;0.670028;,
  -0.981771;0.190069;-0.000000;,
  -0.715573;0.197521;-0.670030;,
  0.000000;1.000000;0.000000;,
  -0.000006;0.463275;-0.886215;,
  0.653812;0.446684;-0.610740;,
  0.902274;0.431163;-0.000000;,
  0.653812;0.446688;0.610738;,
  -0.000006;0.463282;0.886211;,
  -0.653803;0.446680;0.610753;,
  -0.902275;0.431161;-0.000000;,
  -0.653803;0.446676;-0.610756;,
  0.000000;-0.141174;-0.989985;,
  0.106919;-0.100058;-0.989220;,
  -0.104883;0.080213;-0.991244;,
  0.118692;0.051611;-0.991589;,
  -0.123728;-0.067782;-0.989999;,
  0.000000;-0.141174;0.989985;,
  0.106920;-0.100058;0.989220;,
  -0.104883;0.080213;0.991244;,
  0.118693;0.051611;0.991589;,
  -0.123728;-0.067782;0.989999;,
  -0.984483;-0.129442;-0.118481;,
  -0.973820;-0.092015;-0.207864;,
  -0.996829;0.073062;-0.031521;,
  -0.975040;0.045423;-0.217331;,
  -0.997950;-0.062065;-0.015642;,
  0.984483;-0.129442;-0.118482;,
  0.973820;-0.092016;-0.207865;,
  0.996829;0.073062;-0.031521;,
  0.975040;0.045423;-0.217332;,
  0.997950;-0.062064;-0.015642;,
  0.987059;0.160357;0.000000;,
  0.719118;0.167365;-0.674432;,
  0.719120;0.167365;0.674430;,
  0.000001;0.174983;-0.984572;,
  0.000001;0.174983;0.984571;,
  -0.719115;0.167368;-0.674435;,
  -0.719116;0.167368;0.674433;,
  -0.987058;0.160361;0.000000;;
  340;
  3;8,8,8;,
  3;8,8,8;,
  3;8,8,8;,
  3;8,8,8;,
  3;8,8,8;,
  3;8,8,8;,
  3;8,8,8;,
  3;8,8,8;,
  4;9,54,55,10;,
  4;9,10,1,2;,
  4;9,2,3,11;,
  4;9,11,56,54;,
  4;10,55,57,12;,
  4;10,12,0,1;,
  4;11,3,4,13;,
  4;11,13,58,56;,
  4;12,57,59,14;,
  4;12,14,7,0;,
  4;13,4,5,15;,
  4;13,15,60,58;,
  4;14,59,61,16;,
  4;14,16,6,7;,
  4;15,5,6,16;,
  4;15,16,61,60;,
  4;17,18,1,0;,
  4;18,19,2,1;,
  4;19,20,3,2;,
  4;20,21,4,3;,
  4;21,22,5,4;,
  4;22,23,6,5;,
  4;23,24,7,6;,
  4;24,17,0,7;,
  4;26,27,18,17;,
  3;25,25,25;,
  4;27,28,19,18;,
  3;25,25,25;,
  4;28,29,20,19;,
  3;25,25,25;,
  4;29,30,21,20;,
  3;25,25,25;,
  4;30,31,22,21;,
  3;25,25,25;,
  4;31,32,23,22;,
  3;25,25,25;,
  4;32,33,24,23;,
  3;25,25,25;,
  4;33,26,17,24;,
  3;25,25,25;,
  4;34,34,34,34;,
  4;35,35,35,35;,
  4;36,36,36,36;,
  4;37,37,37,37;,
  4;38,38,38,38;,
  4;39,39,39,39;,
  4;40,40,40,40;,
  4;41,41,41,41;,
  4;42,42,42,42;,
  4;43,43,43,43;,
  4;44,44,44,44;,
  4;45,45,45,45;,
  4;46,46,46,46;,
  4;47,47,47,47;,
  4;48,48,48,48;,
  4;49,49,49,49;,
  4;50,50,50,50;,
  4;51,51,51,51;,
  4;52,52,52,52;,
  4;53,53,53,53;,
  3;70,70,70;,
  3;70,70,70;,
  3;70,70,70;,
  3;70,70,70;,
  3;70,70,70;,
  3;70,70,70;,
  3;70,70,70;,
  3;70,70,70;,
  4;71,116,117,72;,
  4;71,72,63,64;,
  4;71,64,65,73;,
  4;71,73,118,116;,
  4;72,117,119,74;,
  4;72,74,62,63;,
  4;73,65,66,75;,
  4;73,75,120,118;,
  4;74,119,121,76;,
  4;74,76,69,62;,
  4;75,66,67,77;,
  4;75,77,122,120;,
  4;76,121,123,78;,
  4;76,78,68,69;,
  4;77,67,68,78;,
  4;77,78,123,122;,
  4;79,80,63,62;,
  4;80,81,64,63;,
  4;81,82,65,64;,
  4;82,83,66,65;,
  4;83,84,67,66;,
  4;84,85,68,67;,
  4;85,86,69,68;,
  4;86,79,62,69;,
  4;88,89,80,79;,
  3;87,87,87;,
  4;89,90,81,80;,
  3;87,87,87;,
  4;90,91,82,81;,
  3;87,87,87;,
  4;91,92,83,82;,
  3;87,87,87;,
  4;92,93,84,83;,
  3;87,87,87;,
  4;93,94,85,84;,
  3;87,87,87;,
  4;94,95,86,85;,
  3;87,87,87;,
  4;95,88,79,86;,
  3;87,87,87;,
  4;96,96,96,96;,
  4;97,97,97,97;,
  4;98,98,98,98;,
  4;99,99,99,99;,
  4;100,100,100,100;,
  4;101,101,101,101;,
  4;102,102,102,102;,
  4;103,103,103,103;,
  4;104,104,104,104;,
  4;105,105,105,105;,
  4;106,106,106,106;,
  4;107,107,107,107;,
  4;108,108,108,108;,
  4;109,109,109,109;,
  4;110,110,110,110;,
  4;111,111,111,111;,
  4;112,112,112,112;,
  4;113,113,113,113;,
  4;114,114,114,114;,
  4;115,115,115,115;,
  3;132,132,132;,
  3;132,132,132;,
  3;132,132,132;,
  3;132,132,132;,
  3;132,132,132;,
  3;132,132,132;,
  3;132,132,132;,
  3;132,132,132;,
  4;133,178,179,134;,
  4;133,134,125,126;,
  4;133,126,127,135;,
  4;133,135,180,178;,
  4;134,179,181,136;,
  4;134,136,124,125;,
  4;135,127,128,137;,
  4;135,137,182,180;,
  4;136,181,183,138;,
  4;136,138,131,124;,
  4;137,128,129,139;,
  4;137,139,184,182;,
  4;138,183,185,140;,
  4;138,140,130,131;,
  4;139,129,130,140;,
  4;139,140,185,184;,
  4;141,142,125,124;,
  4;142,143,126,125;,
  4;143,144,127,126;,
  4;144,145,128,127;,
  4;145,146,129,128;,
  4;146,147,130,129;,
  4;147,148,131,130;,
  4;148,141,124,131;,
  4;150,151,142,141;,
  3;149,149,149;,
  4;151,152,143,142;,
  3;149,149,149;,
  4;152,153,144,143;,
  3;149,149,149;,
  4;153,154,145,144;,
  3;149,149,149;,
  4;154,155,146,145;,
  3;149,149,149;,
  4;155,156,147,146;,
  3;149,149,149;,
  4;156,157,148,147;,
  3;149,149,149;,
  4;157,150,141,148;,
  3;149,149,149;,
  4;158,158,158,158;,
  4;159,159,159,159;,
  4;160,160,160,160;,
  4;161,161,161,161;,
  4;162,162,162,162;,
  4;163,163,163,163;,
  4;164,164,164,164;,
  4;165,165,165,165;,
  4;166,166,166,166;,
  4;167,167,167,167;,
  4;168,168,168,168;,
  4;169,169,169,169;,
  4;170,170,170,170;,
  4;171,171,171,171;,
  4;172,172,172,172;,
  4;173,173,173,173;,
  4;174,174,174,174;,
  4;175,175,175,175;,
  4;176,176,176,176;,
  4;177,177,177,177;,
  3;194,194,194;,
  3;194,194,194;,
  3;194,194,194;,
  3;194,194,194;,
  3;194,194,194;,
  3;194,194,194;,
  3;194,194,194;,
  3;194,194,194;,
  4;195,240,241,196;,
  4;195,196,187,188;,
  4;195,188,189,197;,
  4;195,197,242,240;,
  4;196,241,243,198;,
  4;196,198,186,187;,
  4;197,189,190,199;,
  4;197,199,244,242;,
  4;198,243,245,200;,
  4;198,200,193,186;,
  4;199,190,191,201;,
  4;199,201,246,244;,
  4;200,245,247,202;,
  4;200,202,192,193;,
  4;201,191,192,202;,
  4;201,202,247,246;,
  4;203,204,187,186;,
  4;204,205,188,187;,
  4;205,206,189,188;,
  4;206,207,190,189;,
  4;207,208,191,190;,
  4;208,209,192,191;,
  4;209,210,193,192;,
  4;210,203,186,193;,
  4;212,213,204,203;,
  3;211,211,211;,
  4;213,214,205,204;,
  3;211,211,211;,
  4;214,215,206,205;,
  3;211,211,211;,
  4;215,216,207,206;,
  3;211,211,211;,
  4;216,217,208,207;,
  3;211,211,211;,
  4;217,218,209,208;,
  3;211,211,211;,
  4;218,219,210,209;,
  3;211,211,211;,
  4;219,212,203,210;,
  3;211,211,211;,
  4;220,220,220,220;,
  4;221,221,221,221;,
  4;222,222,222,222;,
  4;223,223,223,223;,
  4;224,224,224,224;,
  4;225,225,225,225;,
  4;226,226,226,226;,
  4;227,227,227,227;,
  4;228,228,228,228;,
  4;229,229,229,229;,
  4;230,230,230,230;,
  4;231,231,231,231;,
  4;232,232,232,232;,
  4;233,233,233,233;,
  4;234,234,234,234;,
  4;235,235,235,235;,
  4;236,236,236,236;,
  4;237,237,237,237;,
  4;238,238,238,238;,
  4;239,239,239,239;,
  3;256,256,256;,
  3;256,256,256;,
  3;256,256,256;,
  3;256,256,256;,
  3;256,256,256;,
  3;256,256,256;,
  3;256,256,256;,
  3;256,256,256;,
  4;257,302,303,258;,
  4;257,258,249,250;,
  4;257,250,251,259;,
  4;257,259,304,302;,
  4;258,303,305,260;,
  4;258,260,248,249;,
  4;259,251,252,261;,
  4;259,261,306,304;,
  4;260,305,307,262;,
  4;260,262,255,248;,
  4;261,252,253,263;,
  4;261,263,308,306;,
  4;262,307,309,264;,
  4;262,264,254,255;,
  4;263,253,254,264;,
  4;263,264,309,308;,
  4;265,266,249,248;,
  4;266,267,250,249;,
  4;267,268,251,250;,
  4;268,269,252,251;,
  4;269,270,253,252;,
  4;270,271,254,253;,
  4;271,272,255,254;,
  4;272,265,248,255;,
  4;274,275,266,265;,
  3;273,273,273;,
  4;275,276,267,266;,
  3;273,273,273;,
  4;276,277,268,267;,
  3;273,273,273;,
  4;277,278,269,268;,
  3;273,273,273;,
  4;278,279,270,269;,
  3;273,273,273;,
  4;279,280,271,270;,
  3;273,273,273;,
  4;280,281,272,271;,
  3;273,273,273;,
  4;281,274,265,272;,
  3;273,273,273;,
  4;282,282,282,282;,
  4;283,283,283,283;,
  4;284,284,284,284;,
  4;285,285,285,285;,
  4;286,286,286,286;,
  4;287,287,287,287;,
  4;288,288,288,288;,
  4;289,289,289,289;,
  4;290,290,290,290;,
  4;291,291,291,291;,
  4;292,292,292,292;,
  4;293,293,293,293;,
  4;294,294,294,294;,
  4;295,295,295,295;,
  4;296,296,296,296;,
  4;297,297,297,297;,
  4;298,298,298,298;,
  4;299,299,299,299;,
  4;300,300,300,300;,
  4;301,301,301,301;;
 }
 MeshTextureCoords {
  705;
  0.062500;1.000000;,
  0.000000;1.000000;,
  0.125000;1.000000;,
  0.187500;1.000000;,
  0.250000;1.000000;,
  0.312500;1.000000;,
  0.375000;1.000000;,
  0.437500;1.000000;,
  0.500000;1.000000;,
  0.562500;1.000000;,
  0.625000;1.000000;,
  0.687500;1.000000;,
  0.750000;1.000000;,
  0.812500;1.000000;,
  0.875000;1.000000;,
  0.937500;1.000000;,
  1.000000;1.000000;,
  0.250000;0.650110;,
  0.125000;0.650110;,
  0.125000;0.000000;,
  0.250000;0.000000;,
  0.375000;0.000000;,
  0.375000;0.650110;,
  0.000000;0.650110;,
  0.000000;0.000000;,
  0.500000;0.000000;,
  0.500000;0.650110;,
  1.000000;0.650110;,
  0.875000;0.650110;,
  0.875000;0.000000;,
  1.000000;0.000000;,
  0.625000;0.000000;,
  0.625000;0.650110;,
  0.750000;0.650110;,
  0.750000;0.000000;,
  0.000000;0.000000;,
  0.125000;0.000000;,
  0.250000;0.000000;,
  0.375000;0.000000;,
  0.500000;0.000000;,
  0.625000;0.000000;,
  0.750000;0.000000;,
  0.875000;0.000000;,
  1.000000;0.000000;,
  0.000000;0.000000;,
  0.125000;0.000000;,
  0.062500;0.000000;,
  0.250000;0.000000;,
  0.187500;0.000000;,
  0.375000;0.000000;,
  0.312500;0.000000;,
  0.500000;0.000000;,
  0.437500;0.000000;,
  0.625000;0.000000;,
  0.562500;0.000000;,
  0.750000;0.000000;,
  0.687500;0.000000;,
  0.875000;0.000000;,
  0.812500;0.000000;,
  1.000000;0.000000;,
  0.937500;0.000000;,
  0.000000;0.000000;,
  1.000000;0.000000;,
  1.000000;1.000000;,
  0.000000;1.000000;,
  0.000000;0.000000;,
  1.000000;0.000000;,
  1.000000;1.000000;,
  0.000000;1.000000;,
  0.000000;0.000000;,
  0.000000;1.000000;,
  1.000000;1.000000;,
  1.000000;0.000000;,
  0.000000;0.000000;,
  1.000000;0.000000;,
  1.000000;1.000000;,
  0.000000;1.000000;,
  0.000000;0.000000;,
  0.000000;1.000000;,
  1.000000;1.000000;,
  1.000000;0.000000;,
  0.000000;0.000000;,
  0.000000;1.000000;,
  1.000000;1.000000;,
  1.000000;0.000000;,
  0.000000;0.000000;,
  0.000000;1.000000;,
  1.000000;1.000000;,
  1.000000;0.000000;,
  0.000000;0.000000;,
  1.000000;0.000000;,
  1.000000;1.000000;,
  0.000000;1.000000;,
  0.000000;0.000000;,
  0.000000;1.000000;,
  1.000000;1.000000;,
  1.000000;0.000000;,
  0.000000;0.000000;,
  1.000000;0.000000;,
  1.000000;1.000000;,
  0.000000;1.000000;,
  0.000000;0.000000;,
  1.000000;0.000000;,
  1.000000;1.000000;,
  0.000000;1.000000;,
  0.000000;0.000000;,
  1.000000;0.000000;,
  1.000000;1.000000;,
  0.000000;1.000000;,
  0.000000;0.000000;,
  0.000000;1.000000;,
  1.000000;1.000000;,
  1.000000;0.000000;,
  0.000000;0.000000;,
  1.000000;0.000000;,
  1.000000;1.000000;,
  0.000000;1.000000;,
  0.000000;0.000000;,
  0.000000;1.000000;,
  1.000000;1.000000;,
  1.000000;0.000000;,
  0.000000;0.000000;,
  0.000000;1.000000;,
  1.000000;1.000000;,
  1.000000;0.000000;,
  0.000000;0.000000;,
  0.000000;1.000000;,
  1.000000;1.000000;,
  1.000000;0.000000;,
  0.000000;0.000000;,
  1.000000;0.000000;,
  1.000000;1.000000;,
  0.000000;1.000000;,
  0.000000;0.000000;,
  0.000000;1.000000;,
  1.000000;1.000000;,
  1.000000;0.000000;,
  0.000000;0.000000;,
  1.000000;0.000000;,
  1.000000;1.000000;,
  0.000000;1.000000;,
  0.062500;1.000000;,
  0.000000;1.000000;,
  0.125000;1.000000;,
  0.187500;1.000000;,
  0.250000;1.000000;,
  0.312500;1.000000;,
  0.375000;1.000000;,
  0.437500;1.000000;,
  0.500000;1.000000;,
  0.562500;1.000000;,
  0.625000;1.000000;,
  0.687500;1.000000;,
  0.750000;1.000000;,
  0.812500;1.000000;,
  0.875000;1.000000;,
  0.937500;1.000000;,
  1.000000;1.000000;,
  0.250000;0.650110;,
  0.125000;0.650110;,
  0.125000;0.000000;,
  0.250000;0.000000;,
  0.375000;0.000000;,
  0.375000;0.650110;,
  0.000000;0.650110;,
  0.000000;0.000000;,
  0.500000;0.000000;,
  0.500000;0.650110;,
  1.000000;0.650110;,
  0.875000;0.650110;,
  0.875000;0.000000;,
  1.000000;0.000000;,
  0.625000;0.000000;,
  0.625000;0.650110;,
  0.750000;0.650110;,
  0.750000;0.000000;,
  0.000000;0.000000;,
  0.125000;0.000000;,
  0.250000;0.000000;,
  0.375000;0.000000;,
  0.500000;0.000000;,
  0.625000;0.000000;,
  0.750000;0.000000;,
  0.875000;0.000000;,
  1.000000;0.000000;,
  0.000000;0.000000;,
  0.125000;0.000000;,
  0.062500;0.000000;,
  0.250000;0.000000;,
  0.187500;0.000000;,
  0.375000;0.000000;,
  0.312500;0.000000;,
  0.500000;0.000000;,
  0.437500;0.000000;,
  0.625000;0.000000;,
  0.562500;0.000000;,
  0.750000;0.000000;,
  0.687500;0.000000;,
  0.875000;0.000000;,
  0.812500;0.000000;,
  1.000000;0.000000;,
  0.937500;0.000000;,
  0.000000;0.000000;,
  1.000000;0.000000;,
  1.000000;1.000000;,
  0.000000;1.000000;,
  0.000000;0.000000;,
  1.000000;0.000000;,
  1.000000;1.000000;,
  0.000000;1.000000;,
  0.000000;0.000000;,
  0.000000;1.000000;,
  1.000000;1.000000;,
  1.000000;0.000000;,
  0.000000;0.000000;,
  1.000000;0.000000;,
  1.000000;1.000000;,
  0.000000;1.000000;,
  0.000000;0.000000;,
  0.000000;1.000000;,
  1.000000;1.000000;,
  1.000000;0.000000;,
  0.000000;0.000000;,
  0.000000;1.000000;,
  1.000000;1.000000;,
  1.000000;0.000000;,
  0.000000;0.000000;,
  0.000000;1.000000;,
  1.000000;1.000000;,
  1.000000;0.000000;,
  0.000000;0.000000;,
  1.000000;0.000000;,
  1.000000;1.000000;,
  0.000000;1.000000;,
  0.000000;0.000000;,
  0.000000;1.000000;,
  1.000000;1.000000;,
  1.000000;0.000000;,
  0.000000;0.000000;,
  1.000000;0.000000;,
  1.000000;1.000000;,
  0.000000;1.000000;,
  0.000000;0.000000;,
  1.000000;0.000000;,
  1.000000;1.000000;,
  0.000000;1.000000;,
  0.000000;0.000000;,
  1.000000;0.000000;,
  1.000000;1.000000;,
  0.000000;1.000000;,
  0.000000;0.000000;,
  0.000000;1.000000;,
  1.000000;1.000000;,
  1.000000;0.000000;,
  0.000000;0.000000;,
  1.000000;0.000000;,
  1.000000;1.000000;,
  0.000000;1.000000;,
  0.000000;0.000000;,
  0.000000;1.000000;,
  1.000000;1.000000;,
  1.000000;0.000000;,
  0.000000;0.000000;,
  0.000000;1.000000;,
  1.000000;1.000000;,
  1.000000;0.000000;,
  0.000000;0.000000;,
  0.000000;1.000000;,
  1.000000;1.000000;,
  1.000000;0.000000;,
  0.000000;0.000000;,
  1.000000;0.000000;,
  1.000000;1.000000;,
  0.000000;1.000000;,
  0.000000;0.000000;,
  0.000000;1.000000;,
  1.000000;1.000000;,
  1.000000;0.000000;,
  0.000000;0.000000;,
  1.000000;0.000000;,
  1.000000;1.000000;,
  0.000000;1.000000;,
  0.062500;1.000000;,
  0.000000;1.000000;,
  0.125000;1.000000;,
  0.187500;1.000000;,
  0.250000;1.000000;,
  0.312500;1.000000;,
  0.375000;1.000000;,
  0.437500;1.000000;,
  0.500000;1.000000;,
  0.562500;1.000000;,
  0.625000;1.000000;,
  0.687500;1.000000;,
  0.750000;1.000000;,
  0.812500;1.000000;,
  0.875000;1.000000;,
  0.937500;1.000000;,
  1.000000;1.000000;,
  0.250000;0.650110;,
  0.125000;0.650110;,
  0.125000;0.000000;,
  0.250000;0.000000;,
  0.375000;0.000000;,
  0.375000;0.650110;,
  0.000000;0.650110;,
  0.000000;0.000000;,
  0.500000;0.000000;,
  0.500000;0.650110;,
  1.000000;0.650110;,
  0.875000;0.650110;,
  0.875000;0.000000;,
  1.000000;0.000000;,
  0.625000;0.000000;,
  0.625000;0.650110;,
  0.750000;0.650110;,
  0.750000;0.000000;,
  0.000000;0.000000;,
  0.125000;0.000000;,
  0.250000;0.000000;,
  0.375000;0.000000;,
  0.500000;0.000000;,
  0.625000;0.000000;,
  0.750000;0.000000;,
  0.875000;0.000000;,
  1.000000;0.000000;,
  0.000000;0.000000;,
  0.125000;0.000000;,
  0.062500;0.000000;,
  0.250000;0.000000;,
  0.187500;0.000000;,
  0.375000;0.000000;,
  0.312500;0.000000;,
  0.500000;0.000000;,
  0.437500;0.000000;,
  0.625000;0.000000;,
  0.562500;0.000000;,
  0.750000;0.000000;,
  0.687500;0.000000;,
  0.875000;0.000000;,
  0.812500;0.000000;,
  1.000000;0.000000;,
  0.937500;0.000000;,
  0.000000;0.000000;,
  1.000000;0.000000;,
  1.000000;1.000000;,
  0.000000;1.000000;,
  0.000000;0.000000;,
  1.000000;0.000000;,
  1.000000;1.000000;,
  0.000000;1.000000;,
  0.000000;0.000000;,
  0.000000;1.000000;,
  1.000000;1.000000;,
  1.000000;0.000000;,
  0.000000;0.000000;,
  1.000000;0.000000;,
  1.000000;1.000000;,
  0.000000;1.000000;,
  0.000000;0.000000;,
  0.000000;1.000000;,
  1.000000;1.000000;,
  1.000000;0.000000;,
  0.000000;0.000000;,
  0.000000;1.000000;,
  1.000000;1.000000;,
  1.000000;0.000000;,
  0.000000;0.000000;,
  0.000000;1.000000;,
  1.000000;1.000000;,
  1.000000;0.000000;,
  0.000000;0.000000;,
  1.000000;0.000000;,
  1.000000;1.000000;,
  0.000000;1.000000;,
  0.000000;0.000000;,
  0.000000;1.000000;,
  1.000000;1.000000;,
  1.000000;0.000000;,
  0.000000;0.000000;,
  1.000000;0.000000;,
  1.000000;1.000000;,
  0.000000;1.000000;,
  0.000000;0.000000;,
  1.000000;0.000000;,
  1.000000;1.000000;,
  0.000000;1.000000;,
  0.000000;0.000000;,
  1.000000;0.000000;,
  1.000000;1.000000;,
  0.000000;1.000000;,
  0.000000;0.000000;,
  0.000000;1.000000;,
  1.000000;1.000000;,
  1.000000;0.000000;,
  0.000000;0.000000;,
  1.000000;0.000000;,
  1.000000;1.000000;,
  0.000000;1.000000;,
  0.000000;0.000000;,
  0.000000;1.000000;,
  1.000000;1.000000;,
  1.000000;0.000000;,
  0.000000;0.000000;,
  0.000000;1.000000;,
  1.000000;1.000000;,
  1.000000;0.000000;,
  0.000000;0.000000;,
  0.000000;1.000000;,
  1.000000;1.000000;,
  1.000000;0.000000;,
  0.000000;0.000000;,
  1.000000;0.000000;,
  1.000000;1.000000;,
  0.000000;1.000000;,
  0.000000;0.000000;,
  0.000000;1.000000;,
  1.000000;1.000000;,
  1.000000;0.000000;,
  0.000000;0.000000;,
  1.000000;0.000000;,
  1.000000;1.000000;,
  0.000000;1.000000;,
  0.062500;1.000000;,
  0.000000;1.000000;,
  0.125000;1.000000;,
  0.187500;1.000000;,
  0.250000;1.000000;,
  0.312500;1.000000;,
  0.375000;1.000000;,
  0.437500;1.000000;,
  0.500000;1.000000;,
  0.562500;1.000000;,
  0.625000;1.000000;,
  0.687500;1.000000;,
  0.750000;1.000000;,
  0.812500;1.000000;,
  0.875000;1.000000;,
  0.937500;1.000000;,
  1.000000;1.000000;,
  0.250000;0.650110;,
  0.125000;0.650110;,
  0.125000;0.000000;,
  0.250000;0.000000;,
  0.375000;0.000000;,
  0.375000;0.650110;,
  0.000000;0.650110;,
  0.000000;0.000000;,
  0.500000;0.000000;,
  0.500000;0.650110;,
  1.000000;0.650110;,
  0.875000;0.650110;,
  0.875000;0.000000;,
  1.000000;0.000000;,
  0.625000;0.000000;,
  0.625000;0.650110;,
  0.750000;0.650110;,
  0.750000;0.000000;,
  0.000000;0.000000;,
  0.125000;0.000000;,
  0.250000;0.000000;,
  0.375000;0.000000;,
  0.500000;0.000000;,
  0.625000;0.000000;,
  0.750000;0.000000;,
  0.875000;0.000000;,
  1.000000;0.000000;,
  0.000000;0.000000;,
  0.125000;0.000000;,
  0.062500;0.000000;,
  0.250000;0.000000;,
  0.187500;0.000000;,
  0.375000;0.000000;,
  0.312500;0.000000;,
  0.500000;0.000000;,
  0.437500;0.000000;,
  0.625000;0.000000;,
  0.562500;0.000000;,
  0.750000;0.000000;,
  0.687500;0.000000;,
  0.875000;0.000000;,
  0.812500;0.000000;,
  1.000000;0.000000;,
  0.937500;0.000000;,
  0.000000;0.000000;,
  1.000000;0.000000;,
  1.000000;1.000000;,
  0.000000;1.000000;,
  0.000000;0.000000;,
  1.000000;0.000000;,
  1.000000;1.000000;,
  0.000000;1.000000;,
  0.000000;0.000000;,
  0.000000;1.000000;,
  1.000000;1.000000;,
  1.000000;0.000000;,
  0.000000;0.000000;,
  1.000000;0.000000;,
  1.000000;1.000000;,
  0.000000;1.000000;,
  0.000000;0.000000;,
  0.000000;1.000000;,
  1.000000;1.000000;,
  1.000000;0.000000;,
  0.000000;0.000000;,
  0.000000;1.000000;,
  1.000000;1.000000;,
  1.000000;0.000000;,
  0.000000;0.000000;,
  0.000000;1.000000;,
  1.000000;1.000000;,
  1.000000;0.000000;,
  0.000000;0.000000;,
  1.000000;0.000000;,
  1.000000;1.000000;,
  0.000000;1.000000;,
  0.000000;0.000000;,
  0.000000;1.000000;,
  1.000000;1.000000;,
  1.000000;0.000000;,
  0.000000;0.000000;,
  1.000000;0.000000;,
  1.000000;1.000000;,
  0.000000;1.000000;,
  0.000000;0.000000;,
  1.000000;0.000000;,
  1.000000;1.000000;,
  0.000000;1.000000;,
  0.000000;0.000000;,
  1.000000;0.000000;,
  1.000000;1.000000;,
  0.000000;1.000000;,
  0.000000;0.000000;,
  0.000000;1.000000;,
  1.000000;1.000000;,
  1.000000;0.000000;,
  0.000000;0.000000;,
  1.000000;0.000000;,
  1.000000;1.000000;,
  0.000000;1.000000;,
  0.000000;0.000000;,
  0.000000;1.000000;,
  1.000000;1.000000;,
  1.000000;0.000000;,
  0.000000;0.000000;,
  0.000000;1.000000;,
  1.000000;1.000000;,
  1.000000;0.000000;,
  0.000000;0.000000;,
  0.000000;1.000000;,
  1.000000;1.000000;,
  1.000000;0.000000;,
  0.000000;0.000000;,
  1.000000;0.000000;,
  1.000000;1.000000;,
  0.000000;1.000000;,
  0.000000;0.000000;,
  0.000000;1.000000;,
  1.000000;1.000000;,
  1.000000;0.000000;,
  0.000000;0.000000;,
  1.000000;0.000000;,
  1.000000;1.000000;,
  0.000000;1.000000;,
  0.062500;1.000000;,
  0.000000;1.000000;,
  0.125000;1.000000;,
  0.187500;1.000000;,
  0.250000;1.000000;,
  0.312500;1.000000;,
  0.375000;1.000000;,
  0.437500;1.000000;,
  0.500000;1.000000;,
  0.562500;1.000000;,
  0.625000;1.000000;,
  0.687500;1.000000;,
  0.750000;1.000000;,
  0.812500;1.000000;,
  0.875000;1.000000;,
  0.937500;1.000000;,
  1.000000;1.000000;,
  0.250000;0.650110;,
  0.125000;0.650110;,
  0.125000;0.000000;,
  0.250000;0.000000;,
  0.375000;0.000000;,
  0.375000;0.650110;,
  0.000000;0.650110;,
  0.000000;0.000000;,
  0.500000;0.000000;,
  0.500000;0.650110;,
  1.000000;0.650110;,
  0.875000;0.650110;,
  0.875000;0.000000;,
  1.000000;0.000000;,
  0.625000;0.000000;,
  0.625000;0.650110;,
  0.750000;0.650110;,
  0.750000;0.000000;,
  0.000000;0.000000;,
  0.125000;0.000000;,
  0.250000;0.000000;,
  0.375000;0.000000;,
  0.500000;0.000000;,
  0.625000;0.000000;,
  0.750000;0.000000;,
  0.875000;0.000000;,
  1.000000;0.000000;,
  0.000000;0.000000;,
  0.125000;0.000000;,
  0.062500;0.000000;,
  0.250000;0.000000;,
  0.187500;0.000000;,
  0.375000;0.000000;,
  0.312500;0.000000;,
  0.500000;0.000000;,
  0.437500;0.000000;,
  0.625000;0.000000;,
  0.562500;0.000000;,
  0.750000;0.000000;,
  0.687500;0.000000;,
  0.875000;0.000000;,
  0.812500;0.000000;,
  1.000000;0.000000;,
  0.937500;0.000000;,
  0.000000;0.000000;,
  1.000000;0.000000;,
  1.000000;1.000000;,
  0.000000;1.000000;,
  0.000000;0.000000;,
  1.000000;0.000000;,
  1.000000;1.000000;,
  0.000000;1.000000;,
  0.000000;0.000000;,
  0.000000;1.000000;,
  1.000000;1.000000;,
  1.000000;0.000000;,
  0.000000;0.000000;,
  1.000000;0.000000;,
  1.000000;1.000000;,
  0.000000;1.000000;,
  0.000000;0.000000;,
  0.000000;1.000000;,
  1.000000;1.000000;,
  1.000000;0.000000;,
  0.000000;0.000000;,
  0.000000;1.000000;,
  1.000000;1.000000;,
  1.000000;0.000000;,
  0.000000;0.000000;,
  0.000000;1.000000;,
  1.000000;1.000000;,
  1.000000;0.000000;,
  0.000000;0.000000;,
  1.000000;0.000000;,
  1.000000;1.000000;,
  0.000000;1.000000;,
  0.000000;0.000000;,
  0.000000;1.000000;,
  1.000000;1.000000;,
  1.000000;0.000000;,
  0.000000;0.000000;,
  1.000000;0.000000;,
  1.000000;1.000000;,
  0.000000;1.000000;,
  0.000000;0.000000;,
  1.000000;0.000000;,
  1.000000;1.000000;,
  0.000000;1.000000;,
  0.000000;0.000000;,
  1.000000;0.000000;,
  1.000000;1.000000;,
  0.000000;1.000000;,
  0.000000;0.000000;,
  0.000000;1.000000;,
  1.000000;1.000000;,
  1.000000;0.000000;,
  0.000000;0.000000;,
  1.000000;0.000000;,
  1.000000;1.000000;,
  0.000000;1.000000;,
  0.000000;0.000000;,
  0.000000;1.000000;,
  1.000000;1.000000;,
  1.000000;0.000000;,
  0.000000;0.000000;,
  0.000000;1.000000;,
  1.000000;1.000000;,
  1.000000;0.000000;,
  0.000000;0.000000;,
  0.000000;1.000000;,
  1.000000;1.000000;,
  1.000000;0.000000;,
  0.000000;0.000000;,
  1.000000;0.000000;,
  1.000000;1.000000;,
  0.000000;1.000000;,
  0.000000;0.000000;,
  0.000000;1.000000;,
  1.000000;1.000000;,
  1.000000;0.000000;,
  0.000000;0.000000;,
  1.000000;0.000000;,
  1.000000;1.000000;,
  0.000000;1.000000;;
 }
}
