xof 0302txt 0064
template Header {
 <3D82AB43-62DA-11cf-AB39-0020AF71E433>
 WORD major;
 WORD minor;
 DWORD flags;
}

template Vector {
 <3D82AB5E-62DA-11cf-AB39-0020AF71E433>
 FLOAT x;
 FLOAT y;
 FLOAT z;
}

template Coords2d {
 <F6F23F44-7686-11cf-8F52-0040333594A3>
 FLOAT u;
 FLOAT v;
}

template Matrix4x4 {
 <F6F23F45-7686-11cf-8F52-0040333594A3>
 array FLOAT matrix[16];
}

template ColorRGBA {
 <35FF44E0-6C7C-11cf-8F52-0040333594A3>
 FLOAT red;
 FLOAT green;
 FLOAT blue;
 FLOAT alpha;
}

template ColorRGB {
 <D3E16E81-7835-11cf-8F52-0040333594A3>
 FLOAT red;
 FLOAT green;
 FLOAT blue;
}

template IndexedColor {
 <1630B820-7842-11cf-8F52-0040333594A3>
 DWORD index;
 ColorRGBA indexColor;
}

template Boolean {
 <4885AE61-78E8-11cf-8F52-0040333594A3>
 WORD truefalse;
}

template Boolean2d {
 <4885AE63-78E8-11cf-8F52-0040333594A3>
 Boolean u;
 Boolean v;
}

template MaterialWrap {
 <4885AE60-78E8-11cf-8F52-0040333594A3>
 Boolean u;
 Boolean v;
}

template TextureFilename {
 <A42790E1-7810-11cf-8F52-0040333594A3>
 STRING filename;
}

template Material {
 <3D82AB4D-62DA-11cf-AB39-0020AF71E433>
 ColorRGBA faceColor;
 FLOAT power;
 ColorRGB specularColor;
 ColorRGB emissiveColor;
 [...]
}

template MeshFace {
 <3D82AB5F-62DA-11cf-AB39-0020AF71E433>
 DWORD nFaceVertexIndices;
 array DWORD faceVertexIndices[nFaceVertexIndices];
}

template MeshFaceWraps {
 <4885AE62-78E8-11cf-8F52-0040333594A3>
 DWORD nFaceWrapValues;
 Boolean2d faceWrapValues;
}

template MeshTextureCoords {
 <F6F23F40-7686-11cf-8F52-0040333594A3>
 DWORD nTextureCoords;
 array Coords2d textureCoords[nTextureCoords];
}

template MeshMaterialList {
 <F6F23F42-7686-11cf-8F52-0040333594A3>
 DWORD nMaterials;
 DWORD nFaceIndexes;
 array DWORD faceIndexes[nFaceIndexes];
 [Material]
}

template MeshNormals {
 <F6F23F43-7686-11cf-8F52-0040333594A3>
 DWORD nNormals;
 array Vector normals[nNormals];
 DWORD nFaceNormals;
 array MeshFace faceNormals[nFaceNormals];
}

template MeshVertexColors {
 <1630B821-7842-11cf-8F52-0040333594A3>
 DWORD nVertexColors;
 array IndexedColor vertexColors[nVertexColors];
}

template Mesh {
 <3D82AB44-62DA-11cf-AB39-0020AF71E433>
 DWORD nVertices;
 array Vector vertices[nVertices];
 DWORD nFaces;
 array MeshFace faces[nFaces];
 [...]
}

Header{
1;
0;
1;
}

Mesh {
 423;
 0.00000;-3.10713;-0.00000;,
 0.00000;-3.10713;-16.19915;,
 11.45452;-3.10713;-11.45452;,
 0.00000;-3.10713;-0.00000;,
 16.19915;-3.10713;-0.00000;,
 0.00000;-3.10713;-0.00000;,
 11.45452;-3.10713;11.45452;,
 0.00000;-3.10713;-0.00000;,
 0.00000;-3.10713;16.19915;,
 0.00000;-3.10713;-0.00000;,
 -11.45452;-3.10713;11.45452;,
 0.00000;-3.10713;-0.00000;,
 -16.19915;-3.10713;0.00000;,
 0.00000;-3.10713;-0.00000;,
 -11.45452;-3.10713;-11.45452;,
 0.00000;-3.10713;-0.00000;,
 0.00000;-3.10713;-16.19915;,
 11.65550;26.58475;0.00000;,
 8.24170;26.58475;-8.24170;,
 8.24170;347.88980;-8.24170;,
 11.65550;347.88980;0.00000;,
 8.24170;347.88980;8.24170;,
 8.24170;26.58475;8.24170;,
 0.00000;26.58475;-11.65550;,
 0.00000;347.88980;-11.65550;,
 0.00000;347.88980;11.65550;,
 0.00000;26.58475;11.65550;,
 0.00000;26.58475;-11.65550;,
 -8.24170;26.58475;-8.24170;,
 -8.24170;347.88980;-8.24170;,
 0.00000;347.88980;-11.65550;,
 -8.24170;347.88980;8.24170;,
 -8.24170;26.58475;8.24170;,
 -11.65550;26.58475;0.00000;,
 -11.65550;347.88980;0.00000;,
 0.00000;373.68250;-13.26933;,
 9.38282;373.68250;-9.38282;,
 13.26933;373.68250;0.00000;,
 9.38282;373.68250;9.38282;,
 0.00000;373.68250;13.26933;,
 -9.38282;373.68250;9.38282;,
 -13.26933;373.68250;0.00000;,
 -9.38282;373.68250;-9.38282;,
 0.00000;373.68250;-13.26933;,
 0.00000;384.15570;-8.55530;,
 6.04950;384.15570;-6.04950;,
 0.00000;384.15570;0.00000;,
 8.55530;384.15570;0.00000;,
 0.00000;384.15570;0.00000;,
 6.04950;384.15570;6.04950;,
 0.00000;384.15570;0.00000;,
 0.00000;384.15570;8.55530;,
 0.00000;384.15570;0.00000;,
 -6.04950;384.15570;6.04950;,
 0.00000;384.15570;0.00000;,
 -8.55530;384.15570;0.00000;,
 0.00000;384.15570;0.00000;,
 -6.04950;384.15570;-6.04950;,
 0.00000;384.15570;0.00000;,
 0.00000;384.15570;-8.55530;,
 0.00000;384.15570;0.00000;,
 -154.31740;601.21002;-42.28305;,
 129.31740;601.21002;-42.28305;,
 129.31740;319.68988;-7.71685;,
 -154.31740;319.68988;-7.71685;,
 -278.93192;399.88361;-42.28305;,
 -106.26608;624.90619;-42.28305;,
 117.07877;453.52759;-7.71685;,
 -55.58707;228.50513;-7.71685;,
 81.26613;34.86400;-42.28305;,
 -142.07864;294.87253;-7.71685;,
 30.58707;519.89484;-7.71685;,
 253.93193;348.51648;-42.28305;,
 -160.25925;-4.43750;-42.28305;,
 -277.88065;409.10901;-42.28305;,
 -21.70838;525.85333;-7.71685;,
 95.91287;267.75696;-7.71685;,
 252.88072;339.29141;-42.28305;,
 -3.29133;222.54695;-7.71685;,
 -120.91260;480.64331;-7.71685;,
 135.25951;597.38763;-42.28305;,
 -154.31740;601.21002;42.28305;,
 -154.31740;319.68988;7.71685;,
 129.31740;319.68988;7.71685;,
 129.31740;601.21002;42.28305;,
 -278.93192;399.88361;42.28305;,
 -55.58707;228.50513;7.71685;,
 117.07877;453.52759;7.71685;,
 -106.26608;624.90619;42.28305;,
 81.26613;34.86400;42.28305;,
 253.93193;348.51648;42.28305;,
 30.58707;519.89484;7.71685;,
 -142.07864;294.87253;7.71685;,
 -160.25925;-4.43750;42.28305;,
 95.91287;267.75696;7.71685;,
 -21.70838;525.85333;7.71685;,
 -277.88065;409.10901;42.28305;,
 252.88072;339.29141;42.28305;,
 135.25951;597.38763;42.28305;,
 -120.91260;480.64331;7.71685;,
 -3.29133;222.54695;7.71685;,
 -60.64613;601.21002;113.34820;,
 -23.62435;601.21002;-167.85992;,
 10.64615;319.68988;-163.34807;,
 -26.37565;319.68988;117.86002;,
 -76.91158;399.88361;236.89661;,
 -54.37420;624.90619;65.70802;,
 9.04862;453.52759;-151.21428;,
 -13.48875;228.50513;19.97440;,
 -29.89630;34.86400;-120.21980;,
 -24.77815;294.87253;105.72600;,
 -2.24078;519.89484;-65.46250;,
 -7.35895;348.51648;-291.40918;,
 -61.42170;-4.43750;119.23923;,
 -76.77438;409.10901;235.85437;,
 -9.06670;525.85333;-13.61448;,
 6.28592;267.75696;-130.22945;,
 -7.49622;339.29141;-290.36694;,
 -6.66280;222.54695;-31.87395;,
 -22.01545;480.64331;84.74103;,
 -22.84872;597.38763;-173.75114;,
 60.64613;601.21002;113.34820;,
 26.37565;319.68988;117.86002;,
 -10.64615;319.68988;-163.34807;,
 23.62435;601.21002;-167.85992;,
 76.91158;399.88361;236.89661;,
 13.48875;228.50513;19.97440;,
 -9.04862;453.52759;-151.21428;,
 54.37420;624.90619;65.70802;,
 29.89630;34.86400;-120.21980;,
 7.35895;348.51648;-291.40918;,
 2.24078;519.89484;-65.46250;,
 24.77815;294.87253;105.72600;,
 61.42170;-4.43750;119.23923;,
 -6.28592;267.75696;-130.22945;,
 9.06670;525.85333;-13.61448;,
 76.77438;409.10901;235.85437;,
 7.49622;339.29141;-290.36694;,
 22.84872;597.38763;-173.75114;,
 22.01545;480.64331;84.74103;,
 6.66280;222.54695;-31.87395;,
 -162.50000;-3.10713;-135.00000;,
 -162.50000;-3.10713;-151.19914;,
 -151.04547;-3.10713;-146.45453;,
 -162.50000;-3.10713;-135.00000;,
 -146.30087;-3.10713;-135.00000;,
 -162.50000;-3.10713;-135.00000;,
 -151.04547;-3.10713;-123.54547;,
 -162.50000;-3.10713;-135.00000;,
 -162.50000;-3.10713;-118.80085;,
 -162.50000;-3.10713;-135.00000;,
 -173.95453;-3.10713;-123.54547;,
 -162.50000;-3.10713;-135.00000;,
 -178.69914;-3.10713;-135.00000;,
 -162.50000;-3.10713;-135.00000;,
 -173.95453;-3.10713;-146.45453;,
 -162.50000;-3.10713;-135.00000;,
 -162.50000;-3.10713;-151.19914;,
 -150.84453;26.58475;-135.00000;,
 -154.25830;26.58475;-143.24170;,
 -154.25830;150.70760;-143.24170;,
 -150.84453;150.70760;-135.00000;,
 -154.25830;150.70760;-126.75830;,
 -154.25830;26.58475;-126.75830;,
 -162.50000;26.58475;-146.65550;,
 -162.50000;150.70760;-146.65550;,
 -162.50000;150.70760;-123.34450;,
 -162.50000;26.58475;-123.34450;,
 -162.50000;26.58475;-146.65550;,
 -170.74170;26.58475;-143.24170;,
 -170.74170;150.70760;-143.24170;,
 -162.50000;150.70760;-146.65550;,
 -170.74170;150.70760;-126.75830;,
 -170.74170;26.58475;-126.75830;,
 -174.15552;26.58475;-135.00000;,
 -174.15552;150.70760;-135.00000;,
 -162.50000;176.50031;-148.26932;,
 -153.11720;176.50031;-144.38283;,
 -149.23068;176.50031;-135.00000;,
 -153.11720;176.50031;-125.61717;,
 -162.50000;176.50031;-121.73067;,
 -171.88284;176.50031;-125.61717;,
 -175.76932;176.50031;-135.00000;,
 -171.88284;176.50031;-144.38283;,
 -162.50000;176.50031;-148.26932;,
 -162.50000;186.97350;-143.55530;,
 -156.45050;186.97350;-141.04950;,
 -162.50000;186.97350;-135.00000;,
 -153.94470;186.97350;-135.00000;,
 -162.50000;186.97350;-135.00000;,
 -156.45050;186.97350;-128.95050;,
 -162.50000;186.97350;-135.00000;,
 -162.50000;186.97350;-126.44470;,
 -162.50000;186.97350;-135.00000;,
 -168.54950;186.97350;-128.95050;,
 -162.50000;186.97350;-135.00000;,
 -171.05530;186.97350;-135.00000;,
 -162.50000;186.97350;-135.00000;,
 -168.54950;186.97350;-141.04950;,
 -162.50000;186.97350;-135.00000;,
 -162.50000;186.97350;-143.55530;,
 -162.50000;186.97350;-135.00000;,
 -316.81738;404.02789;-177.28305;,
 -33.18258;404.02789;-177.28305;,
 -33.18258;122.50770;-142.71684;,
 -316.81738;122.50770;-142.71684;,
 -441.43192;202.70143;-177.28305;,
 -268.76608;427.72406;-177.28305;,
 -45.42120;256.34540;-142.71684;,
 -218.08708;31.32293;-142.71684;,
 -81.23387;-73.68805;-177.28305;,
 -304.57864;97.69035;-142.71684;,
 -131.91292;322.71268;-142.71684;,
 91.43195;151.33430;-177.28305;,
 -322.75925;-46.16962;-177.28305;,
 -440.38065;211.92680;-177.28305;,
 -184.20837;328.67114;-142.71684;,
 -66.58710;70.57478;-142.71684;,
 90.38072;142.10925;-177.28305;,
 -165.79132;25.36475;-142.71684;,
 -283.41260;283.46112;-142.71684;,
 -27.24047;400.20557;-177.28305;,
 -316.81738;404.02789;-92.71695;,
 -316.81738;122.50770;-127.28315;,
 -33.18258;122.50770;-127.28315;,
 -33.18258;404.02789;-92.71695;,
 -441.43192;202.70143;-92.71695;,
 -218.08708;31.32293;-127.28315;,
 -45.42120;256.34540;-127.28315;,
 -268.76608;427.72406;-92.71695;,
 -81.23387;-73.68805;-92.71695;,
 91.43195;151.33430;-92.71695;,
 -131.91292;322.71268;-127.28315;,
 -304.57864;97.69035;-127.28315;,
 -322.75925;-46.16962;-92.71695;,
 -66.58710;70.57478;-127.28315;,
 -184.20837;328.67114;-127.28315;,
 -440.38065;211.92680;-92.71695;,
 90.38072;142.10925;-92.71695;,
 -27.24047;400.20557;-92.71695;,
 -283.41260;283.46112;-127.28315;,
 -165.79132;25.36475;-127.28315;,
 -223.14612;404.02789;-21.65180;,
 -186.12434;404.02789;-302.85992;,
 -151.85385;122.50770;-298.34808;,
 -188.87566;122.50770;-17.13997;,
 -239.41161;202.70143;101.89660;,
 -216.87421;427.72406;-69.29198;,
 -153.45137;256.34540;-286.21429;,
 -175.98877;31.32293;-115.02560;,
 -192.39630;-73.68805;-255.21980;,
 -187.27817;97.69035;-29.27400;,
 -164.74077;322.71268;-200.46249;,
 -169.85895;151.33430;-426.40918;,
 -223.92171;-46.16962;-15.76077;,
 -239.27437;211.92680;100.85438;,
 -171.56670;328.67114;-148.61447;,
 -156.21408;70.57478;-265.22943;,
 -169.99625;142.10925;-425.36694;,
 -169.16280;25.36475;-166.87395;,
 -184.51546;283.46112;-50.25898;,
 -185.34872;400.20557;-308.75116;,
 -101.85387;404.02789;-21.65180;,
 -136.12434;122.50770;-17.13997;,
 -173.14615;122.50770;-298.34808;,
 -138.87567;404.02789;-302.85992;,
 -85.58842;202.70143;101.89660;,
 -149.01125;31.32293;-115.02560;,
 -171.54865;256.34540;-286.21429;,
 -108.12580;427.72406;-69.29198;,
 -132.60370;-73.68805;-255.21980;,
 -155.14105;151.33430;-426.40918;,
 -160.25925;322.71268;-200.46249;,
 -137.72188;97.69035;-29.27400;,
 -101.07830;-46.16962;-15.76077;,
 -168.78595;70.57478;-265.22943;,
 -153.43332;328.67114;-148.61447;,
 -85.72560;211.92680;100.85438;,
 -155.00377;142.10925;-425.36694;,
 -139.65128;400.20557;-308.75116;,
 -140.48454;283.46112;-50.25898;,
 -155.83722;25.36475;-166.87395;,
 95.00000;-3.10713;-75.00000;,
 95.00000;-3.10713;-91.19915;,
 106.45453;-3.10713;-86.45453;,
 95.00000;-3.10713;-75.00000;,
 111.19915;-3.10713;-75.00000;,
 95.00000;-3.10713;-75.00000;,
 106.45453;-3.10713;-63.54548;,
 95.00000;-3.10713;-75.00000;,
 95.00000;-3.10713;-58.80085;,
 95.00000;-3.10713;-75.00000;,
 83.54547;-3.10713;-63.54548;,
 95.00000;-3.10713;-75.00000;,
 78.80085;-3.10713;-75.00000;,
 95.00000;-3.10713;-75.00000;,
 83.54547;-3.10713;-86.45453;,
 95.00000;-3.10713;-75.00000;,
 95.00000;-3.10713;-91.19915;,
 106.65550;26.58475;-75.00000;,
 103.24170;26.58475;-83.24170;,
 103.24170;192.43973;-83.24170;,
 106.65550;192.43973;-75.00000;,
 103.24170;192.43973;-66.75830;,
 103.24170;26.58475;-66.75830;,
 95.00000;26.58475;-86.65550;,
 95.00000;192.43973;-86.65550;,
 95.00000;192.43973;-63.34450;,
 95.00000;26.58475;-63.34450;,
 95.00000;26.58475;-86.65550;,
 86.75830;26.58475;-83.24170;,
 86.75830;192.43973;-83.24170;,
 95.00000;192.43973;-86.65550;,
 86.75830;192.43973;-66.75830;,
 86.75830;26.58475;-66.75830;,
 83.34450;26.58475;-75.00000;,
 83.34450;192.43973;-75.00000;,
 95.00000;218.23242;-88.26933;,
 104.38283;218.23242;-84.38283;,
 108.26933;218.23242;-75.00000;,
 104.38283;218.23242;-65.61717;,
 95.00000;218.23242;-61.73067;,
 85.61717;218.23242;-65.61717;,
 81.73067;218.23242;-75.00000;,
 85.61717;218.23242;-84.38283;,
 95.00000;218.23242;-88.26933;,
 95.00000;228.70563;-83.55530;,
 101.04950;228.70563;-81.04950;,
 95.00000;228.70563;-75.00000;,
 103.55530;228.70563;-75.00000;,
 95.00000;228.70563;-75.00000;,
 101.04950;228.70563;-68.95050;,
 95.00000;228.70563;-75.00000;,
 95.00000;228.70563;-66.44470;,
 95.00000;228.70563;-75.00000;,
 88.95050;228.70563;-68.95050;,
 95.00000;228.70563;-75.00000;,
 86.44470;228.70563;-75.00000;,
 95.00000;228.70563;-75.00000;,
 88.95050;228.70563;-81.04950;,
 95.00000;228.70563;-75.00000;,
 95.00000;228.70563;-83.55530;,
 95.00000;228.70563;-75.00000;,
 -59.31740;445.76001;-117.28305;,
 224.31737;445.76001;-117.28305;,
 224.31737;164.23981;-82.71685;,
 -59.31740;164.23981;-82.71685;,
 -183.93193;244.43355;-117.28305;,
 -11.26608;469.45618;-117.28305;,
 212.07878;298.07751;-82.71685;,
 39.41293;73.05505;-82.71685;,
 176.26613;-31.95592;-117.28305;,
 -47.07865;139.42245;-82.71685;,
 125.58707;364.44479;-82.71685;,
 348.93195;193.06642;-117.28305;,
 -65.25925;-4.43750;-117.28305;,
 -182.88065;253.65892;-117.28305;,
 73.29163;370.40326;-82.71685;,
 190.91287;112.30690;-82.71685;,
 347.88074;183.84135;-117.28305;,
 91.70867;67.09688;-82.71685;,
 -25.91260;325.19324;-82.71685;,
 230.25952;441.93768;-117.28305;,
 -59.31740;445.76001;-32.71695;,
 -59.31740;164.23981;-67.28315;,
 224.31737;164.23981;-67.28315;,
 224.31737;445.76001;-32.71695;,
 -183.93193;244.43355;-32.71695;,
 39.41293;73.05505;-67.28315;,
 212.07878;298.07751;-67.28315;,
 -11.26608;469.45618;-32.71695;,
 176.26613;-31.95592;-32.71695;,
 348.93195;193.06642;-32.71695;,
 125.58707;364.44479;-67.28315;,
 -47.07865;139.42245;-67.28315;,
 -65.25925;-4.43750;-32.71695;,
 190.91287;112.30690;-67.28315;,
 73.29163;370.40326;-67.28315;,
 -182.88065;253.65892;-32.71695;,
 347.88074;183.84135;-32.71695;,
 230.25952;441.93768;-32.71695;,
 -25.91260;325.19324;-67.28315;,
 91.70867;67.09688;-67.28315;,
 34.35387;445.76001;38.34820;,
 71.37565;445.76001;-242.85992;,
 105.64615;164.23981;-238.34807;,
 68.62435;164.23981;42.86002;,
 18.08842;244.43355;161.89661;,
 40.62580;469.45618;-9.29198;,
 104.04862;298.07751;-226.21428;,
 81.51125;73.05505;-55.02560;,
 65.10370;-31.95592;-195.21980;,
 70.22185;139.42245;30.72600;,
 92.75922;364.44479;-140.46249;,
 87.64105;193.06642;-366.40918;,
 33.57830;-4.43750;44.23922;,
 18.22562;253.65892;160.85437;,
 85.93330;370.40326;-88.61447;,
 101.28593;112.30690;-205.22945;,
 87.50378;183.84135;-365.36694;,
 88.33720;67.09688;-106.87395;,
 72.98455;325.19324;9.74102;,
 72.15128;441.93768;-248.75114;,
 155.64612;445.76001;38.34820;,
 121.37565;164.23981;42.86002;,
 84.35385;164.23981;-238.34807;,
 118.62435;445.76001;-242.85992;,
 171.91158;244.43355;161.89661;,
 108.48875;73.05505;-55.02560;,
 85.95138;298.07751;-226.21428;,
 149.37421;469.45618;-9.29198;,
 124.89630;-31.95592;-195.21980;,
 102.35895;193.06642;-366.40918;,
 97.24078;364.44479;-140.46249;,
 119.77815;139.42245;30.72600;,
 156.42171;-4.43750;44.23922;,
 88.71407;112.30690;-205.22945;,
 104.06670;370.40326;-88.61447;,
 171.77437;253.65892;160.85437;,
 102.49622;183.84135;-365.36694;,
 117.84872;441.93768;-248.75114;,
 117.01545;325.19324;9.74102;,
 101.66280;67.09688;-106.87395;;
 
 204;
 3;0,1,2;,
 3;3,2,4;,
 3;5,4,6;,
 3;7,6,8;,
 3;9,8,10;,
 3;11,10,12;,
 3;13,12,14;,
 3;15,14,16;,
 4;17,4,2,18;,
 4;17,18,19,20;,
 4;17,20,21,22;,
 4;17,22,6,4;,
 4;18,2,1,23;,
 4;18,23,24,19;,
 4;22,21,25,26;,
 4;22,26,8,6;,
 4;27,16,14,28;,
 4;27,28,29,30;,
 4;26,25,31,32;,
 4;26,32,10,8;,
 4;28,14,12,33;,
 4;28,33,34,29;,
 4;32,31,34,33;,
 4;32,33,12,10;,
 4;35,36,19,24;,
 4;36,37,20,19;,
 4;37,38,21,20;,
 4;38,39,25,21;,
 4;39,40,31,25;,
 4;40,41,34,31;,
 4;41,42,29,34;,
 4;42,43,30,29;,
 4;44,45,36,35;,
 3;46,45,44;,
 4;45,47,37,36;,
 3;48,47,45;,
 4;47,49,38,37;,
 3;50,49,47;,
 4;49,51,39,38;,
 3;52,51,49;,
 4;51,53,40,39;,
 3;54,53,51;,
 4;53,55,41,40;,
 3;56,55,53;,
 4;55,57,42,41;,
 3;58,57,55;,
 4;57,59,43,42;,
 3;60,59,57;,
 4;61,62,63,64;,
 4;65,66,67,68;,
 4;69,70,71,72;,
 4;73,74,75,76;,
 4;77,78,79,80;,
 4;81,82,83,84;,
 4;85,86,87,88;,
 4;89,90,91,92;,
 4;93,94,95,96;,
 4;97,98,99,100;,
 4;101,102,103,104;,
 4;105,106,107,108;,
 4;109,110,111,112;,
 4;113,114,115,116;,
 4;117,118,119,120;,
 4;121,122,123,124;,
 4;125,126,127,128;,
 4;129,130,131,132;,
 4;133,134,135,136;,
 4;137,138,139,140;,
 3;141,142,143;,
 3;144,143,145;,
 3;146,145,147;,
 3;148,147,149;,
 3;150,149,151;,
 3;152,151,153;,
 3;154,153,155;,
 3;156,155,157;,
 4;158,145,143,159;,
 4;158,159,160,161;,
 4;158,161,162,163;,
 4;158,163,147,145;,
 4;159,143,142,164;,
 4;159,164,165,160;,
 4;163,162,166,167;,
 4;163,167,149,147;,
 4;168,157,155,169;,
 4;168,169,170,171;,
 4;167,166,172,173;,
 4;167,173,151,149;,
 4;169,155,153,174;,
 4;169,174,175,170;,
 4;173,172,175,174;,
 4;173,174,153,151;,
 4;176,177,160,165;,
 4;177,178,161,160;,
 4;178,179,162,161;,
 4;179,180,166,162;,
 4;180,181,172,166;,
 4;181,182,175,172;,
 4;182,183,170,175;,
 4;183,184,171,170;,
 4;185,186,177,176;,
 3;187,186,185;,
 4;186,188,178,177;,
 3;189,188,186;,
 4;188,190,179,178;,
 3;191,190,188;,
 4;190,192,180,179;,
 3;193,192,190;,
 4;192,194,181,180;,
 3;195,194,192;,
 4;194,196,182,181;,
 3;197,196,194;,
 4;196,198,183,182;,
 3;199,198,196;,
 4;198,200,184,183;,
 3;201,200,198;,
 4;202,203,204,205;,
 4;206,207,208,209;,
 4;210,211,212,213;,
 4;214,215,216,217;,
 4;218,219,220,221;,
 4;222,223,224,225;,
 4;226,227,228,229;,
 4;230,231,232,233;,
 4;234,235,236,237;,
 4;238,239,240,241;,
 4;242,243,244,245;,
 4;246,247,248,249;,
 4;250,251,252,253;,
 4;254,255,256,257;,
 4;258,259,260,261;,
 4;262,263,264,265;,
 4;266,267,268,269;,
 4;270,271,272,273;,
 4;274,275,276,277;,
 4;278,279,280,281;,
 3;282,283,284;,
 3;285,284,286;,
 3;287,286,288;,
 3;289,288,290;,
 3;291,290,292;,
 3;293,292,294;,
 3;295,294,296;,
 3;297,296,298;,
 4;299,286,284,300;,
 4;299,300,301,302;,
 4;299,302,303,304;,
 4;299,304,288,286;,
 4;300,284,283,305;,
 4;300,305,306,301;,
 4;304,303,307,308;,
 4;304,308,290,288;,
 4;309,298,296,310;,
 4;309,310,311,312;,
 4;308,307,313,314;,
 4;308,314,292,290;,
 4;310,296,294,315;,
 4;310,315,316,311;,
 4;314,313,316,315;,
 4;314,315,294,292;,
 4;317,318,301,306;,
 4;318,319,302,301;,
 4;319,320,303,302;,
 4;320,321,307,303;,
 4;321,322,313,307;,
 4;322,323,316,313;,
 4;323,324,311,316;,
 4;324,325,312,311;,
 4;326,327,318,317;,
 3;328,327,326;,
 4;327,329,319,318;,
 3;330,329,327;,
 4;329,331,320,319;,
 3;332,331,329;,
 4;331,333,321,320;,
 3;334,333,331;,
 4;333,335,322,321;,
 3;336,335,333;,
 4;335,337,323,322;,
 3;338,337,335;,
 4;337,339,324,323;,
 3;340,339,337;,
 4;339,341,325,324;,
 3;342,341,339;,
 4;343,344,345,346;,
 4;347,348,349,350;,
 4;351,352,353,354;,
 4;355,356,357,358;,
 4;359,360,361,362;,
 4;363,364,365,366;,
 4;367,368,369,370;,
 4;371,372,373,374;,
 4;375,376,377,378;,
 4;379,380,381,382;,
 4;383,384,385,386;,
 4;387,388,389,390;,
 4;391,392,393,394;,
 4;395,396,397,398;,
 4;399,400,401,402;,
 4;403,404,405,406;,
 4;407,408,409,410;,
 4;411,412,413,414;,
 4;415,416,417,418;,
 4;419,420,421,422;;
 
 MeshMaterialList {
  2;
  204;
  0,
  0,
  0,
  0,
  0,
  0,
  0,
  0,
  0,
  0,
  0,
  0,
  0,
  0,
  0,
  0,
  0,
  0,
  0,
  0,
  0,
  0,
  0,
  0,
  0,
  0,
  0,
  0,
  0,
  0,
  0,
  0,
  0,
  0,
  0,
  0,
  0,
  0,
  0,
  0,
  0,
  0,
  0,
  0,
  0,
  0,
  0,
  0,
  1,
  1,
  1,
  1,
  1,
  1,
  1,
  1,
  1,
  1,
  1,
  1,
  1,
  1,
  1,
  1,
  1,
  1,
  1,
  1,
  0,
  0,
  0,
  0,
  0,
  0,
  0,
  0,
  0,
  0,
  0,
  0,
  0,
  0,
  0,
  0,
  0,
  0,
  0,
  0,
  0,
  0,
  0,
  0,
  0,
  0,
  0,
  0,
  0,
  0,
  0,
  0,
  0,
  0,
  0,
  0,
  0,
  0,
  0,
  0,
  0,
  0,
  0,
  0,
  0,
  0,
  0,
  0,
  1,
  1,
  1,
  1,
  1,
  1,
  1,
  1,
  1,
  1,
  1,
  1,
  1,
  1,
  1,
  1,
  1,
  1,
  1,
  1,
  0,
  0,
  0,
  0,
  0,
  0,
  0,
  0,
  0,
  0,
  0,
  0,
  0,
  0,
  0,
  0,
  0,
  0,
  0,
  0,
  0,
  0,
  0,
  0,
  0,
  0,
  0,
  0,
  0,
  0,
  0,
  0,
  0,
  0,
  0,
  0,
  0,
  0,
  0,
  0,
  0,
  0,
  0,
  0,
  0,
  0,
  0,
  0,
  1,
  1,
  1,
  1,
  1,
  1,
  1,
  1,
  1,
  1,
  1,
  1,
  1,
  1,
  1,
  1,
  1,
  1,
  1,
  1;;
  Material {
   0.385600;0.238400;0.197600;1.000000;;
   0.000000;
   0.000000;0.000000;0.000000;;
   0.000000;0.000000;0.000000;;
  }
  Material {
   1.000000;1.000000;1.000000;1.000000;;
   0.000000;
   0.000000;0.000000;0.000000;;
   0.000000;0.000000;0.000000;;
   TextureFilename {
    "data/TEXTURE/ki/treeleaf.png";
   }
  }
 }
 MeshNormals {
  186;
  0.000000;-0.031243;-0.999512;,
  0.706762;-0.031243;-0.706762;,
  0.999512;-0.031243;-0.000000;,
  0.706762;-0.031243;0.706762;,
  0.000000;-0.031243;0.999512;,
  -0.706762;-0.031243;0.706762;,
  -0.999512;-0.031243;0.000000;,
  -0.706762;-0.031243;-0.706762;,
  0.000000;-1.000000;0.000000;,
  0.997114;0.075915;0.000000;,
  0.705066;0.075915;-0.705066;,
  0.705066;0.075915;0.705066;,
  0.000000;0.075915;-0.997114;,
  0.000000;0.075915;0.997114;,
  -0.705066;0.075915;-0.705066;,
  -0.705066;0.075915;0.705066;,
  -0.997114;0.075915;0.000000;,
  0.000000;0.180739;-0.983531;,
  0.695462;0.180739;-0.695462;,
  0.983531;0.180739;0.000000;,
  0.695462;0.180739;0.695462;,
  0.000000;0.180739;0.983531;,
  -0.695462;0.180739;0.695462;,
  -0.983531;0.180739;0.000000;,
  -0.695462;0.180739;-0.695462;,
  0.000000;1.000000;0.000000;,
  0.000000;0.410443;-0.911886;,
  0.644801;0.410443;-0.644801;,
  0.911886;0.410443;0.000000;,
  0.644801;0.410443;0.644801;,
  0.000000;0.410443;0.911886;,
  -0.644801;0.410443;0.644801;,
  -0.911886;0.410443;0.000000;,
  -0.644801;0.410443;-0.644801;,
  0.000000;-0.121869;-0.992546;,
  0.096685;-0.074189;-0.992546;,
  -0.095238;0.062911;-0.993465;,
  0.106966;0.039923;-0.993461;,
  -0.110896;-0.050538;-0.992546;,
  0.000000;-0.121869;0.992546;,
  0.096685;-0.074189;0.992546;,
  -0.095238;0.062911;0.993465;,
  0.106966;0.039923;0.993461;,
  -0.110896;-0.050538;0.992546;,
  -0.984055;-0.121869;-0.129553;,
  -0.971435;-0.074189;-0.225411;,
  -0.997396;0.062911;-0.035250;,
  -0.971000;0.039923;-0.235724;,
  -0.998530;-0.050538;-0.019606;,
  0.984055;-0.121869;-0.129553;,
  0.971435;-0.074189;-0.225411;,
  0.997396;0.062911;-0.035250;,
  0.971000;0.039923;-0.235724;,
  0.998530;-0.050538;-0.019606;,
  0.988493;0.151265;0.000000;,
  0.698970;0.151265;-0.698970;,
  0.698970;0.151265;0.698970;,
  0.000000;0.151265;-0.988493;,
  0.000000;0.151265;0.988493;,
  -0.698970;0.151265;-0.698970;,
  -0.698970;0.151265;0.698970;,
  -0.988493;0.151265;0.000000;,
  0.000000;-0.031243;-0.999512;,
  0.706762;-0.031243;-0.706761;,
  0.999512;-0.031243;-0.000000;,
  0.706762;-0.031243;0.706761;,
  0.000000;-0.031243;0.999512;,
  -0.706761;-0.031243;0.706762;,
  -0.999512;-0.031243;0.000000;,
  -0.706761;-0.031243;-0.706762;,
  0.000000;-1.000000;0.000000;,
  0.997114;0.075915;-0.000000;,
  0.705067;0.075915;-0.705065;,
  0.705067;0.075915;0.705065;,
  0.000000;0.075915;-0.997114;,
  0.000000;0.075915;0.997114;,
  -0.705066;0.075915;-0.705067;,
  -0.705066;0.075915;0.705067;,
  -0.997114;0.075915;0.000000;,
  0.000000;0.180739;-0.983531;,
  0.695462;0.180739;-0.695461;,
  0.983531;0.180738;0.000000;,
  0.695462;0.180739;0.695461;,
  0.000000;0.180739;0.983531;,
  -0.695462;0.180739;0.695461;,
  -0.983531;0.180739;0.000000;,
  -0.695461;0.180739;-0.695461;,
  0.000000;1.000000;0.000000;,
  0.000000;0.410444;-0.911886;,
  0.644801;0.410443;-0.644801;,
  0.911886;0.410443;0.000000;,
  0.644801;0.410443;0.644801;,
  0.000000;0.410444;0.911886;,
  -0.644801;0.410445;0.644800;,
  -0.911885;0.410445;0.000000;,
  -0.644801;0.410444;-0.644800;,
  0.000000;-0.121869;-0.992546;,
  0.096685;-0.074189;-0.992546;,
  -0.096685;0.074189;-0.992546;,
  0.110896;0.050538;-0.992546;,
  -0.110896;-0.050538;-0.992546;,
  0.000000;-0.121869;0.992546;,
  0.096685;-0.074189;0.992546;,
  -0.096685;0.074189;0.992546;,
  0.110896;0.050538;0.992546;,
  -0.110896;-0.050538;0.992546;,
  -0.984055;-0.121869;-0.129553;,
  -0.971435;-0.074189;-0.225411;,
  -0.996675;0.074189;-0.033695;,
  -0.969580;0.050538;-0.239501;,
  -0.998530;-0.050538;-0.019606;,
  0.984055;-0.121869;-0.129553;,
  0.971435;-0.074189;-0.225411;,
  0.996675;0.074189;-0.033695;,
  0.969580;0.050538;-0.239501;,
  0.998530;-0.050538;-0.019606;,
  0.988493;0.151265;0.000000;,
  0.698971;0.151266;-0.698969;,
  0.698971;0.151266;0.698969;,
  0.000000;0.151265;-0.988493;,
  0.000000;0.151265;0.988493;,
  -0.698970;0.151265;-0.698970;,
  -0.698970;0.151265;0.698970;,
  -0.988493;0.151265;0.000000;,
  0.000000;-0.031243;-0.999512;,
  0.706762;-0.031243;-0.706762;,
  0.999512;-0.031243;-0.000000;,
  0.706761;-0.031243;0.706762;,
  0.000000;-0.031243;0.999512;,
  -0.706761;-0.031243;0.706762;,
  -0.999512;-0.031243;0.000000;,
  -0.706762;-0.031243;-0.706762;,
  0.000000;-1.000000;0.000000;,
  0.997114;0.075915;-0.000000;,
  0.705066;0.075915;-0.705066;,
  0.705066;0.075915;0.705066;,
  0.000000;0.075915;-0.997114;,
  0.000000;0.075915;0.997114;,
  -0.705066;0.075915;-0.705066;,
  -0.705066;0.075915;0.705066;,
  -0.997114;0.075915;-0.000000;,
  0.000000;0.180739;-0.983531;,
  0.695462;0.180739;-0.695462;,
  0.983531;0.180739;0.000000;,
  0.695462;0.180739;0.695462;,
  0.000000;0.180739;0.983531;,
  -0.695462;0.180739;0.695462;,
  -0.983531;0.180739;0.000000;,
  -0.695462;0.180739;-0.695462;,
  0.000000;1.000000;0.000000;,
  0.000000;0.410444;-0.911886;,
  0.644801;0.410444;-0.644801;,
  0.911886;0.410444;0.000000;,
  0.644801;0.410444;0.644801;,
  0.000000;0.410444;0.911886;,
  -0.644801;0.410444;0.644801;,
  -0.911886;0.410444;0.000000;,
  -0.644801;0.410444;-0.644801;,
  0.000000;-0.121869;-0.992546;,
  0.096685;-0.074189;-0.992546;,
  -0.096685;0.074189;-0.992546;,
  0.110896;0.050538;-0.992546;,
  -0.110896;-0.050538;-0.992546;,
  0.000000;-0.121869;0.992546;,
  0.096685;-0.074189;0.992546;,
  -0.096685;0.074189;0.992546;,
  0.110896;0.050538;0.992546;,
  -0.110896;-0.050538;0.992546;,
  -0.984055;-0.121869;-0.129553;,
  -0.971435;-0.074189;-0.225411;,
  -0.996675;0.074189;-0.033695;,
  -0.969580;0.050538;-0.239501;,
  -0.998530;-0.050538;-0.019606;,
  0.984055;-0.121869;-0.129553;,
  0.971435;-0.074189;-0.225411;,
  0.996675;0.074189;-0.033695;,
  0.969580;0.050538;-0.239501;,
  0.998530;-0.050538;-0.019606;,
  0.988493;0.151265;0.000000;,
  0.698970;0.151265;-0.698970;,
  0.698970;0.151266;0.698970;,
  0.000000;0.151265;-0.988493;,
  0.000000;0.151265;0.988493;,
  -0.698970;0.151265;-0.698970;,
  -0.698970;0.151266;0.698970;,
  -0.988493;0.151265;0.000000;;
  204;
  3;8,8,8;,
  3;8,8,8;,
  3;8,8,8;,
  3;8,8,8;,
  3;8,8,8;,
  3;8,8,8;,
  3;8,8,8;,
  3;8,8,8;,
  4;9,54,55,10;,
  4;9,10,1,2;,
  4;9,2,3,11;,
  4;9,11,56,54;,
  4;10,55,57,12;,
  4;10,12,0,1;,
  4;11,3,4,13;,
  4;11,13,58,56;,
  4;12,57,59,14;,
  4;12,14,7,0;,
  4;13,4,5,15;,
  4;13,15,60,58;,
  4;14,59,61,16;,
  4;14,16,6,7;,
  4;15,5,6,16;,
  4;15,16,61,60;,
  4;17,18,1,0;,
  4;18,19,2,1;,
  4;19,20,3,2;,
  4;20,21,4,3;,
  4;21,22,5,4;,
  4;22,23,6,5;,
  4;23,24,7,6;,
  4;24,17,0,7;,
  4;26,27,18,17;,
  3;25,25,25;,
  4;27,28,19,18;,
  3;25,25,25;,
  4;28,29,20,19;,
  3;25,25,25;,
  4;29,30,21,20;,
  3;25,25,25;,
  4;30,31,22,21;,
  3;25,25,25;,
  4;31,32,23,22;,
  3;25,25,25;,
  4;32,33,24,23;,
  3;25,25,25;,
  4;33,26,17,24;,
  3;25,25,25;,
  4;34,34,34,34;,
  4;35,35,35,35;,
  4;36,36,36,36;,
  4;37,37,37,37;,
  4;38,38,38,38;,
  4;39,39,39,39;,
  4;40,40,40,40;,
  4;41,41,41,41;,
  4;42,42,42,42;,
  4;43,43,43,43;,
  4;44,44,44,44;,
  4;45,45,45,45;,
  4;46,46,46,46;,
  4;47,47,47,47;,
  4;48,48,48,48;,
  4;49,49,49,49;,
  4;50,50,50,50;,
  4;51,51,51,51;,
  4;52,52,52,52;,
  4;53,53,53,53;,
  3;70,70,70;,
  3;70,70,70;,
  3;70,70,70;,
  3;70,70,70;,
  3;70,70,70;,
  3;70,70,70;,
  3;70,70,70;,
  3;70,70,70;,
  4;71,116,117,72;,
  4;71,72,63,64;,
  4;71,64,65,73;,
  4;71,73,118,116;,
  4;72,117,119,74;,
  4;72,74,62,63;,
  4;73,65,66,75;,
  4;73,75,120,118;,
  4;74,119,121,76;,
  4;74,76,69,62;,
  4;75,66,67,77;,
  4;75,77,122,120;,
  4;76,121,123,78;,
  4;76,78,68,69;,
  4;77,67,68,78;,
  4;77,78,123,122;,
  4;79,80,63,62;,
  4;80,81,64,63;,
  4;81,82,65,64;,
  4;82,83,66,65;,
  4;83,84,67,66;,
  4;84,85,68,67;,
  4;85,86,69,68;,
  4;86,79,62,69;,
  4;88,89,80,79;,
  3;87,87,87;,
  4;89,90,81,80;,
  3;87,87,87;,
  4;90,91,82,81;,
  3;87,87,87;,
  4;91,92,83,82;,
  3;87,87,87;,
  4;92,93,84,83;,
  3;87,87,87;,
  4;93,94,85,84;,
  3;87,87,87;,
  4;94,95,86,85;,
  3;87,87,87;,
  4;95,88,79,86;,
  3;87,87,87;,
  4;96,96,96,96;,
  4;97,97,97,97;,
  4;98,98,98,98;,
  4;99,99,99,99;,
  4;100,100,100,100;,
  4;101,101,101,101;,
  4;102,102,102,102;,
  4;103,103,103,103;,
  4;104,104,104,104;,
  4;105,105,105,105;,
  4;106,106,106,106;,
  4;107,107,107,107;,
  4;108,108,108,108;,
  4;109,109,109,109;,
  4;110,110,110,110;,
  4;111,111,111,111;,
  4;112,112,112,112;,
  4;113,113,113,113;,
  4;114,114,114,114;,
  4;115,115,115,115;,
  3;132,132,132;,
  3;132,132,132;,
  3;132,132,132;,
  3;132,132,132;,
  3;132,132,132;,
  3;132,132,132;,
  3;132,132,132;,
  3;132,132,132;,
  4;133,178,179,134;,
  4;133,134,125,126;,
  4;133,126,127,135;,
  4;133,135,180,178;,
  4;134,179,181,136;,
  4;134,136,124,125;,
  4;135,127,128,137;,
  4;135,137,182,180;,
  4;136,181,183,138;,
  4;136,138,131,124;,
  4;137,128,129,139;,
  4;137,139,184,182;,
  4;138,183,185,140;,
  4;138,140,130,131;,
  4;139,129,130,140;,
  4;139,140,185,184;,
  4;141,142,125,124;,
  4;142,143,126,125;,
  4;143,144,127,126;,
  4;144,145,128,127;,
  4;145,146,129,128;,
  4;146,147,130,129;,
  4;147,148,131,130;,
  4;148,141,124,131;,
  4;150,151,142,141;,
  3;149,149,149;,
  4;151,152,143,142;,
  3;149,149,149;,
  4;152,153,144,143;,
  3;149,149,149;,
  4;153,154,145,144;,
  3;149,149,149;,
  4;154,155,146,145;,
  3;149,149,149;,
  4;155,156,147,146;,
  3;149,149,149;,
  4;156,157,148,147;,
  3;149,149,149;,
  4;157,150,141,148;,
  3;149,149,149;,
  4;158,158,158,158;,
  4;159,159,159,159;,
  4;160,160,160,160;,
  4;161,161,161,161;,
  4;162,162,162,162;,
  4;163,163,163,163;,
  4;164,164,164,164;,
  4;165,165,165,165;,
  4;166,166,166,166;,
  4;167,167,167,167;,
  4;168,168,168,168;,
  4;169,169,169,169;,
  4;170,170,170,170;,
  4;171,171,171,171;,
  4;172,172,172,172;,
  4;173,173,173,173;,
  4;174,174,174,174;,
  4;175,175,175,175;,
  4;176,176,176,176;,
  4;177,177,177,177;;
 }
 MeshTextureCoords {
  423;
  0.062500;1.000000;,
  0.000000;1.000000;,
  0.125000;1.000000;,
  0.187500;1.000000;,
  0.250000;1.000000;,
  0.312500;1.000000;,
  0.375000;1.000000;,
  0.437500;1.000000;,
  0.500000;1.000000;,
  0.562500;1.000000;,
  0.625000;1.000000;,
  0.687500;1.000000;,
  0.750000;1.000000;,
  0.812500;1.000000;,
  0.875000;1.000000;,
  0.937500;1.000000;,
  1.000000;1.000000;,
  0.250000;0.650110;,
  0.125000;0.650110;,
  0.125000;0.000000;,
  0.250000;0.000000;,
  0.375000;0.000000;,
  0.375000;0.650110;,
  0.000000;0.650110;,
  0.000000;0.000000;,
  0.500000;0.000000;,
  0.500000;0.650110;,
  1.000000;0.650110;,
  0.875000;0.650110;,
  0.875000;0.000000;,
  1.000000;0.000000;,
  0.625000;0.000000;,
  0.625000;0.650110;,
  0.750000;0.650110;,
  0.750000;0.000000;,
  0.000000;0.000000;,
  0.125000;0.000000;,
  0.250000;0.000000;,
  0.375000;0.000000;,
  0.500000;0.000000;,
  0.625000;0.000000;,
  0.750000;0.000000;,
  0.875000;0.000000;,
  1.000000;0.000000;,
  0.000000;0.000000;,
  0.125000;0.000000;,
  0.062500;0.000000;,
  0.250000;0.000000;,
  0.187500;0.000000;,
  0.375000;0.000000;,
  0.312500;0.000000;,
  0.500000;0.000000;,
  0.437500;0.000000;,
  0.625000;0.000000;,
  0.562500;0.000000;,
  0.750000;0.000000;,
  0.687500;0.000000;,
  0.875000;0.000000;,
  0.812500;0.000000;,
  1.000000;0.000000;,
  0.937500;0.000000;,
  0.000000;0.000000;,
  1.000000;0.000000;,
  1.000000;1.000000;,
  0.000000;1.000000;,
  0.000000;0.000000;,
  1.000000;0.000000;,
  1.000000;1.000000;,
  0.000000;1.000000;,
  0.000000;0.000000;,
  0.000000;1.000000;,
  1.000000;1.000000;,
  1.000000;0.000000;,
  0.000000;0.000000;,
  1.000000;0.000000;,
  1.000000;1.000000;,
  0.000000;1.000000;,
  0.000000;0.000000;,
  0.000000;1.000000;,
  1.000000;1.000000;,
  1.000000;0.000000;,
  0.000000;0.000000;,
  0.000000;1.000000;,
  1.000000;1.000000;,
  1.000000;0.000000;,
  0.000000;0.000000;,
  0.000000;1.000000;,
  1.000000;1.000000;,
  1.000000;0.000000;,
  0.000000;0.000000;,
  1.000000;0.000000;,
  1.000000;1.000000;,
  0.000000;1.000000;,
  0.000000;0.000000;,
  0.000000;1.000000;,
  1.000000;1.000000;,
  1.000000;0.000000;,
  0.000000;0.000000;,
  1.000000;0.000000;,
  1.000000;1.000000;,
  0.000000;1.000000;,
  0.000000;0.000000;,
  1.000000;0.000000;,
  1.000000;1.000000;,
  0.000000;1.000000;,
  0.000000;0.000000;,
  1.000000;0.000000;,
  1.000000;1.000000;,
  0.000000;1.000000;,
  0.000000;0.000000;,
  0.000000;1.000000;,
  1.000000;1.000000;,
  1.000000;0.000000;,
  0.000000;0.000000;,
  1.000000;0.000000;,
  1.000000;1.000000;,
  0.000000;1.000000;,
  0.000000;0.000000;,
  0.000000;1.000000;,
  1.000000;1.000000;,
  1.000000;0.000000;,
  0.000000;0.000000;,
  0.000000;1.000000;,
  1.000000;1.000000;,
  1.000000;0.000000;,
  0.000000;0.000000;,
  0.000000;1.000000;,
  1.000000;1.000000;,
  1.000000;0.000000;,
  0.000000;0.000000;,
  1.000000;0.000000;,
  1.000000;1.000000;,
  0.000000;1.000000;,
  0.000000;0.000000;,
  0.000000;1.000000;,
  1.000000;1.000000;,
  1.000000;0.000000;,
  0.000000;0.000000;,
  1.000000;0.000000;,
  1.000000;1.000000;,
  0.000000;1.000000;,
  0.062500;1.000000;,
  0.000000;1.000000;,
  0.125000;1.000000;,
  0.187500;1.000000;,
  0.250000;1.000000;,
  0.312500;1.000000;,
  0.375000;1.000000;,
  0.437500;1.000000;,
  0.500000;1.000000;,
  0.562500;1.000000;,
  0.625000;1.000000;,
  0.687500;1.000000;,
  0.750000;1.000000;,
  0.812500;1.000000;,
  0.875000;1.000000;,
  0.937500;1.000000;,
  1.000000;1.000000;,
  0.250000;0.650110;,
  0.125000;0.650110;,
  0.125000;0.000000;,
  0.250000;0.000000;,
  0.375000;0.000000;,
  0.375000;0.650110;,
  0.000000;0.650110;,
  0.000000;0.000000;,
  0.500000;0.000000;,
  0.500000;0.650110;,
  1.000000;0.650110;,
  0.875000;0.650110;,
  0.875000;0.000000;,
  1.000000;0.000000;,
  0.625000;0.000000;,
  0.625000;0.650110;,
  0.750000;0.650110;,
  0.750000;0.000000;,
  0.000000;0.000000;,
  0.125000;0.000000;,
  0.250000;0.000000;,
  0.375000;0.000000;,
  0.500000;0.000000;,
  0.625000;0.000000;,
  0.750000;0.000000;,
  0.875000;0.000000;,
  1.000000;0.000000;,
  0.000000;0.000000;,
  0.125000;0.000000;,
  0.062500;0.000000;,
  0.250000;0.000000;,
  0.187500;0.000000;,
  0.375000;0.000000;,
  0.312500;0.000000;,
  0.500000;0.000000;,
  0.437500;0.000000;,
  0.625000;0.000000;,
  0.562500;0.000000;,
  0.750000;0.000000;,
  0.687500;0.000000;,
  0.875000;0.000000;,
  0.812500;0.000000;,
  1.000000;0.000000;,
  0.937500;0.000000;,
  0.000000;0.000000;,
  1.000000;0.000000;,
  1.000000;1.000000;,
  0.000000;1.000000;,
  0.000000;0.000000;,
  1.000000;0.000000;,
  1.000000;1.000000;,
  0.000000;1.000000;,
  0.000000;0.000000;,
  0.000000;1.000000;,
  1.000000;1.000000;,
  1.000000;0.000000;,
  0.000000;0.000000;,
  1.000000;0.000000;,
  1.000000;1.000000;,
  0.000000;1.000000;,
  0.000000;0.000000;,
  0.000000;1.000000;,
  1.000000;1.000000;,
  1.000000;0.000000;,
  0.000000;0.000000;,
  0.000000;1.000000;,
  1.000000;1.000000;,
  1.000000;0.000000;,
  0.000000;0.000000;,
  0.000000;1.000000;,
  1.000000;1.000000;,
  1.000000;0.000000;,
  0.000000;0.000000;,
  1.000000;0.000000;,
  1.000000;1.000000;,
  0.000000;1.000000;,
  0.000000;0.000000;,
  0.000000;1.000000;,
  1.000000;1.000000;,
  1.000000;0.000000;,
  0.000000;0.000000;,
  1.000000;0.000000;,
  1.000000;1.000000;,
  0.000000;1.000000;,
  0.000000;0.000000;,
  1.000000;0.000000;,
  1.000000;1.000000;,
  0.000000;1.000000;,
  0.000000;0.000000;,
  1.000000;0.000000;,
  1.000000;1.000000;,
  0.000000;1.000000;,
  0.000000;0.000000;,
  0.000000;1.000000;,
  1.000000;1.000000;,
  1.000000;0.000000;,
  0.000000;0.000000;,
  1.000000;0.000000;,
  1.000000;1.000000;,
  0.000000;1.000000;,
  0.000000;0.000000;,
  0.000000;1.000000;,
  1.000000;1.000000;,
  1.000000;0.000000;,
  0.000000;0.000000;,
  0.000000;1.000000;,
  1.000000;1.000000;,
  1.000000;0.000000;,
  0.000000;0.000000;,
  0.000000;1.000000;,
  1.000000;1.000000;,
  1.000000;0.000000;,
  0.000000;0.000000;,
  1.000000;0.000000;,
  1.000000;1.000000;,
  0.000000;1.000000;,
  0.000000;0.000000;,
  0.000000;1.000000;,
  1.000000;1.000000;,
  1.000000;0.000000;,
  0.000000;0.000000;,
  1.000000;0.000000;,
  1.000000;1.000000;,
  0.000000;1.000000;,
  0.062500;1.000000;,
  0.000000;1.000000;,
  0.125000;1.000000;,
  0.187500;1.000000;,
  0.250000;1.000000;,
  0.312500;1.000000;,
  0.375000;1.000000;,
  0.437500;1.000000;,
  0.500000;1.000000;,
  0.562500;1.000000;,
  0.625000;1.000000;,
  0.687500;1.000000;,
  0.750000;1.000000;,
  0.812500;1.000000;,
  0.875000;1.000000;,
  0.937500;1.000000;,
  1.000000;1.000000;,
  0.250000;0.650110;,
  0.125000;0.650110;,
  0.125000;0.000000;,
  0.250000;0.000000;,
  0.375000;0.000000;,
  0.375000;0.650110;,
  0.000000;0.650110;,
  0.000000;0.000000;,
  0.500000;0.000000;,
  0.500000;0.650110;,
  1.000000;0.650110;,
  0.875000;0.650110;,
  0.875000;0.000000;,
  1.000000;0.000000;,
  0.625000;0.000000;,
  0.625000;0.650110;,
  0.750000;0.650110;,
  0.750000;0.000000;,
  0.000000;0.000000;,
  0.125000;0.000000;,
  0.250000;0.000000;,
  0.375000;0.000000;,
  0.500000;0.000000;,
  0.625000;0.000000;,
  0.750000;0.000000;,
  0.875000;0.000000;,
  1.000000;0.000000;,
  0.000000;0.000000;,
  0.125000;0.000000;,
  0.062500;0.000000;,
  0.250000;0.000000;,
  0.187500;0.000000;,
  0.375000;0.000000;,
  0.312500;0.000000;,
  0.500000;0.000000;,
  0.437500;0.000000;,
  0.625000;0.000000;,
  0.562500;0.000000;,
  0.750000;0.000000;,
  0.687500;0.000000;,
  0.875000;0.000000;,
  0.812500;0.000000;,
  1.000000;0.000000;,
  0.937500;0.000000;,
  0.000000;0.000000;,
  1.000000;0.000000;,
  1.000000;1.000000;,
  0.000000;1.000000;,
  0.000000;0.000000;,
  1.000000;0.000000;,
  1.000000;1.000000;,
  0.000000;1.000000;,
  0.000000;0.000000;,
  0.000000;1.000000;,
  1.000000;1.000000;,
  1.000000;0.000000;,
  0.000000;0.000000;,
  1.000000;0.000000;,
  1.000000;1.000000;,
  0.000000;1.000000;,
  0.000000;0.000000;,
  0.000000;1.000000;,
  1.000000;1.000000;,
  1.000000;0.000000;,
  0.000000;0.000000;,
  0.000000;1.000000;,
  1.000000;1.000000;,
  1.000000;0.000000;,
  0.000000;0.000000;,
  0.000000;1.000000;,
  1.000000;1.000000;,
  1.000000;0.000000;,
  0.000000;0.000000;,
  1.000000;0.000000;,
  1.000000;1.000000;,
  0.000000;1.000000;,
  0.000000;0.000000;,
  0.000000;1.000000;,
  1.000000;1.000000;,
  1.000000;0.000000;,
  0.000000;0.000000;,
  1.000000;0.000000;,
  1.000000;1.000000;,
  0.000000;1.000000;,
  0.000000;0.000000;,
  1.000000;0.000000;,
  1.000000;1.000000;,
  0.000000;1.000000;,
  0.000000;0.000000;,
  1.000000;0.000000;,
  1.000000;1.000000;,
  0.000000;1.000000;,
  0.000000;0.000000;,
  0.000000;1.000000;,
  1.000000;1.000000;,
  1.000000;0.000000;,
  0.000000;0.000000;,
  1.000000;0.000000;,
  1.000000;1.000000;,
  0.000000;1.000000;,
  0.000000;0.000000;,
  0.000000;1.000000;,
  1.000000;1.000000;,
  1.000000;0.000000;,
  0.000000;0.000000;,
  0.000000;1.000000;,
  1.000000;1.000000;,
  1.000000;0.000000;,
  0.000000;0.000000;,
  0.000000;1.000000;,
  1.000000;1.000000;,
  1.000000;0.000000;,
  0.000000;0.000000;,
  1.000000;0.000000;,
  1.000000;1.000000;,
  0.000000;1.000000;,
  0.000000;0.000000;,
  0.000000;1.000000;,
  1.000000;1.000000;,
  1.000000;0.000000;,
  0.000000;0.000000;,
  1.000000;0.000000;,
  1.000000;1.000000;,
  0.000000;1.000000;;
 }
}
