xof 0302txt 0064
template Header {
 <3D82AB43-62DA-11cf-AB39-0020AF71E433>
 WORD major;
 WORD minor;
 DWORD flags;
}

template Vector {
 <3D82AB5E-62DA-11cf-AB39-0020AF71E433>
 FLOAT x;
 FLOAT y;
 FLOAT z;
}

template Coords2d {
 <F6F23F44-7686-11cf-8F52-0040333594A3>
 FLOAT u;
 FLOAT v;
}

template Matrix4x4 {
 <F6F23F45-7686-11cf-8F52-0040333594A3>
 array FLOAT matrix[16];
}

template ColorRGBA {
 <35FF44E0-6C7C-11cf-8F52-0040333594A3>
 FLOAT red;
 FLOAT green;
 FLOAT blue;
 FLOAT alpha;
}

template ColorRGB {
 <D3E16E81-7835-11cf-8F52-0040333594A3>
 FLOAT red;
 FLOAT green;
 FLOAT blue;
}

template IndexedColor {
 <1630B820-7842-11cf-8F52-0040333594A3>
 DWORD index;
 ColorRGBA indexColor;
}

template Boolean {
 <4885AE61-78E8-11cf-8F52-0040333594A3>
 WORD truefalse;
}

template Boolean2d {
 <4885AE63-78E8-11cf-8F52-0040333594A3>
 Boolean u;
 Boolean v;
}

template MaterialWrap {
 <4885AE60-78E8-11cf-8F52-0040333594A3>
 Boolean u;
 Boolean v;
}

template TextureFilename {
 <A42790E1-7810-11cf-8F52-0040333594A3>
 STRING filename;
}

template Material {
 <3D82AB4D-62DA-11cf-AB39-0020AF71E433>
 ColorRGBA faceColor;
 FLOAT power;
 ColorRGB specularColor;
 ColorRGB emissiveColor;
 [...]
}

template MeshFace {
 <3D82AB5F-62DA-11cf-AB39-0020AF71E433>
 DWORD nFaceVertexIndices;
 array DWORD faceVertexIndices[nFaceVertexIndices];
}

template MeshFaceWraps {
 <4885AE62-78E8-11cf-8F52-0040333594A3>
 DWORD nFaceWrapValues;
 Boolean2d faceWrapValues;
}

template MeshTextureCoords {
 <F6F23F40-7686-11cf-8F52-0040333594A3>
 DWORD nTextureCoords;
 array Coords2d textureCoords[nTextureCoords];
}

template MeshMaterialList {
 <F6F23F42-7686-11cf-8F52-0040333594A3>
 DWORD nMaterials;
 DWORD nFaceIndexes;
 array DWORD faceIndexes[nFaceIndexes];
 [Material]
}

template MeshNormals {
 <F6F23F43-7686-11cf-8F52-0040333594A3>
 DWORD nNormals;
 array Vector normals[nNormals];
 DWORD nFaceNormals;
 array MeshFace faceNormals[nFaceNormals];
}

template MeshVertexColors {
 <1630B821-7842-11cf-8F52-0040333594A3>
 DWORD nVertexColors;
 array IndexedColor vertexColors[nVertexColors];
}

template Mesh {
 <3D82AB44-62DA-11cf-AB39-0020AF71E433>
 DWORD nVertices;
 array Vector vertices[nVertices];
 DWORD nFaces;
 array MeshFace faces[nFaces];
 [...]
}

Header{
1;
0;
1;
}

Mesh {
 141;
 0.00000;-3.10713;-0.00000;,
 0.00000;-3.10713;-16.19915;,
 11.45452;-3.10713;-11.45452;,
 0.00000;-3.10713;-0.00000;,
 16.19915;-3.10713;-0.00000;,
 0.00000;-3.10713;-0.00000;,
 11.45452;-3.10713;11.45452;,
 0.00000;-3.10713;-0.00000;,
 0.00000;-3.10713;16.19915;,
 0.00000;-3.10713;-0.00000;,
 -11.45452;-3.10713;11.45452;,
 0.00000;-3.10713;-0.00000;,
 -16.19915;-3.10713;0.00000;,
 0.00000;-3.10713;-0.00000;,
 -11.45452;-3.10713;-11.45452;,
 0.00000;-3.10713;-0.00000;,
 0.00000;-3.10713;-16.19915;,
 11.65550;26.58475;0.00000;,
 8.24170;26.58475;-8.24170;,
 8.24170;192.43973;-8.24170;,
 11.65550;192.43973;0.00000;,
 8.24170;192.43973;8.24170;,
 8.24170;26.58475;8.24170;,
 0.00000;26.58475;-11.65550;,
 0.00000;192.43973;-11.65550;,
 0.00000;192.43973;11.65550;,
 0.00000;26.58475;11.65550;,
 0.00000;26.58475;-11.65550;,
 -8.24170;26.58475;-8.24170;,
 -8.24170;192.43973;-8.24170;,
 0.00000;192.43973;-11.65550;,
 -8.24170;192.43973;8.24170;,
 -8.24170;26.58475;8.24170;,
 -11.65550;26.58475;0.00000;,
 -11.65550;192.43973;0.00000;,
 0.00000;218.23242;-13.26933;,
 9.38282;218.23242;-9.38282;,
 13.26933;218.23242;0.00000;,
 9.38282;218.23242;9.38282;,
 0.00000;218.23242;13.26933;,
 -9.38282;218.23242;9.38282;,
 -13.26933;218.23242;0.00000;,
 -9.38282;218.23242;-9.38282;,
 0.00000;218.23242;-13.26933;,
 0.00000;228.70563;-8.55530;,
 6.04950;228.70563;-6.04950;,
 0.00000;228.70563;0.00000;,
 8.55530;228.70563;0.00000;,
 0.00000;228.70563;0.00000;,
 6.04950;228.70563;6.04950;,
 0.00000;228.70563;0.00000;,
 0.00000;228.70563;8.55530;,
 0.00000;228.70563;0.00000;,
 -6.04950;228.70563;6.04950;,
 0.00000;228.70563;0.00000;,
 -8.55530;228.70563;0.00000;,
 0.00000;228.70563;0.00000;,
 -6.04950;228.70563;-6.04950;,
 0.00000;228.70563;0.00000;,
 0.00000;228.70563;-8.55530;,
 0.00000;228.70563;0.00000;,
 -154.31740;445.76001;-42.28305;,
 129.31740;445.76001;-42.28305;,
 129.31740;164.23981;-7.71685;,
 -154.31740;164.23981;-7.71685;,
 -278.93192;244.43355;-42.28305;,
 -106.26608;469.45618;-42.28305;,
 117.07877;298.07751;-7.71685;,
 -55.58707;73.05505;-7.71685;,
 81.26613;-31.95592;-42.28305;,
 -142.07864;139.42245;-7.71685;,
 30.58707;364.44479;-7.71685;,
 253.93193;193.06642;-42.28305;,
 -160.25925;-4.43750;-42.28305;,
 -277.88065;253.65892;-42.28305;,
 -21.70838;370.40326;-7.71685;,
 95.91287;112.30690;-7.71685;,
 252.88072;183.84135;-42.28305;,
 -3.29133;67.09688;-7.71685;,
 -120.91260;325.19324;-7.71685;,
 135.25951;441.93768;-42.28305;,
 -154.31740;445.76001;42.28305;,
 -154.31740;164.23981;7.71685;,
 129.31740;164.23981;7.71685;,
 129.31740;445.76001;42.28305;,
 -278.93192;244.43355;42.28305;,
 -55.58707;73.05505;7.71685;,
 117.07877;298.07751;7.71685;,
 -106.26608;469.45618;42.28305;,
 81.26613;-31.95592;42.28305;,
 253.93193;193.06642;42.28305;,
 30.58707;364.44479;7.71685;,
 -142.07864;139.42245;7.71685;,
 -160.25925;-4.43750;42.28305;,
 95.91287;112.30690;7.71685;,
 -21.70838;370.40326;7.71685;,
 -277.88065;253.65892;42.28305;,
 252.88072;183.84135;42.28305;,
 135.25951;441.93768;42.28305;,
 -120.91260;325.19324;7.71685;,
 -3.29133;67.09688;7.71685;,
 -60.64613;445.76001;113.34820;,
 -23.62435;445.76001;-167.85992;,
 10.64615;164.23981;-163.34807;,
 -26.37565;164.23981;117.86002;,
 -76.91158;244.43355;236.89661;,
 -54.37420;469.45618;65.70802;,
 9.04862;298.07751;-151.21428;,
 -13.48875;73.05505;19.97440;,
 -29.89630;-31.95592;-120.21980;,
 -24.77815;139.42245;105.72600;,
 -2.24078;364.44479;-65.46250;,
 -7.35895;193.06642;-291.40918;,
 -61.42170;-4.43750;119.23923;,
 -76.77438;253.65892;235.85437;,
 -9.06670;370.40326;-13.61448;,
 6.28592;112.30690;-130.22945;,
 -7.49622;183.84135;-290.36694;,
 -6.66280;67.09688;-31.87395;,
 -22.01545;325.19324;84.74103;,
 -22.84872;441.93768;-173.75114;,
 60.64613;445.76001;113.34820;,
 26.37565;164.23981;117.86002;,
 -10.64615;164.23981;-163.34807;,
 23.62435;445.76001;-167.85992;,
 76.91158;244.43355;236.89661;,
 13.48875;73.05505;19.97440;,
 -9.04862;298.07751;-151.21428;,
 54.37420;469.45618;65.70802;,
 29.89630;-31.95592;-120.21980;,
 7.35895;193.06642;-291.40918;,
 2.24078;364.44479;-65.46250;,
 24.77815;139.42245;105.72600;,
 61.42170;-4.43750;119.23923;,
 -6.28592;112.30690;-130.22945;,
 9.06670;370.40326;-13.61448;,
 76.77438;253.65892;235.85437;,
 7.49622;183.84135;-290.36694;,
 22.84872;441.93768;-173.75114;,
 22.01545;325.19324;84.74103;,
 6.66280;67.09688;-31.87395;;
 
 68;
 3;0,1,2;,
 3;3,2,4;,
 3;5,4,6;,
 3;7,6,8;,
 3;9,8,10;,
 3;11,10,12;,
 3;13,12,14;,
 3;15,14,16;,
 4;17,4,2,18;,
 4;17,18,19,20;,
 4;17,20,21,22;,
 4;17,22,6,4;,
 4;18,2,1,23;,
 4;18,23,24,19;,
 4;22,21,25,26;,
 4;22,26,8,6;,
 4;27,16,14,28;,
 4;27,28,29,30;,
 4;26,25,31,32;,
 4;26,32,10,8;,
 4;28,14,12,33;,
 4;28,33,34,29;,
 4;32,31,34,33;,
 4;32,33,12,10;,
 4;35,36,19,24;,
 4;36,37,20,19;,
 4;37,38,21,20;,
 4;38,39,25,21;,
 4;39,40,31,25;,
 4;40,41,34,31;,
 4;41,42,29,34;,
 4;42,43,30,29;,
 4;44,45,36,35;,
 3;46,45,44;,
 4;45,47,37,36;,
 3;48,47,45;,
 4;47,49,38,37;,
 3;50,49,47;,
 4;49,51,39,38;,
 3;52,51,49;,
 4;51,53,40,39;,
 3;54,53,51;,
 4;53,55,41,40;,
 3;56,55,53;,
 4;55,57,42,41;,
 3;58,57,55;,
 4;57,59,43,42;,
 3;60,59,57;,
 4;61,62,63,64;,
 4;65,66,67,68;,
 4;69,70,71,72;,
 4;73,74,75,76;,
 4;77,78,79,80;,
 4;81,82,83,84;,
 4;85,86,87,88;,
 4;89,90,91,92;,
 4;93,94,95,96;,
 4;97,98,99,100;,
 4;101,102,103,104;,
 4;105,106,107,108;,
 4;109,110,111,112;,
 4;113,114,115,116;,
 4;117,118,119,120;,
 4;121,122,123,124;,
 4;125,126,127,128;,
 4;129,130,131,132;,
 4;133,134,135,136;,
 4;137,138,139,140;;
 
 MeshMaterialList {
  2;
  68;
  0,
  0,
  0,
  0,
  0,
  0,
  0,
  0,
  0,
  0,
  0,
  0,
  0,
  0,
  0,
  0,
  0,
  0,
  0,
  0,
  0,
  0,
  0,
  0,
  0,
  0,
  0,
  0,
  0,
  0,
  0,
  0,
  0,
  0,
  0,
  0,
  0,
  0,
  0,
  0,
  0,
  0,
  0,
  0,
  0,
  0,
  0,
  0,
  1,
  1,
  1,
  1,
  1,
  1,
  1,
  1,
  1,
  1,
  1,
  1,
  1,
  1,
  1,
  1,
  1,
  1,
  1,
  1;;
  Material {
   0.385600;0.238400;0.197600;1.000000;;
   0.000000;
   0.000000;0.000000;0.000000;;
   0.000000;0.000000;0.000000;;
  }
  Material {
   1.000000;1.000000;1.000000;1.000000;;
   0.000000;
   0.000000;0.000000;0.000000;;
   0.000000;0.000000;0.000000;;
   TextureFilename {
    "data/TEXTURE/ki/treeleaf.png";
   }
  }
 }
 MeshNormals {
  62;
  0.000000;-0.031243;-0.999512;,
  0.706762;-0.031243;-0.706762;,
  0.999512;-0.031243;-0.000000;,
  0.706762;-0.031243;0.706762;,
  0.000000;-0.031243;0.999512;,
  -0.706762;-0.031243;0.706762;,
  -0.999512;-0.031243;0.000000;,
  -0.706762;-0.031243;-0.706762;,
  0.000000;-1.000000;0.000000;,
  0.997114;0.075915;0.000000;,
  0.705066;0.075915;-0.705066;,
  0.705066;0.075915;0.705066;,
  0.000000;0.075915;-0.997114;,
  0.000000;0.075915;0.997114;,
  -0.705066;0.075915;-0.705066;,
  -0.705066;0.075915;0.705066;,
  -0.997114;0.075915;0.000000;,
  0.000000;0.180739;-0.983531;,
  0.695462;0.180739;-0.695462;,
  0.983531;0.180739;0.000000;,
  0.695462;0.180739;0.695462;,
  0.000000;0.180739;0.983531;,
  -0.695462;0.180739;0.695462;,
  -0.983531;0.180739;0.000000;,
  -0.695462;0.180739;-0.695462;,
  0.000000;1.000000;0.000000;,
  0.000000;0.410443;-0.911886;,
  0.644801;0.410443;-0.644801;,
  0.911886;0.410443;0.000000;,
  0.644801;0.410443;0.644801;,
  0.000000;0.410443;0.911886;,
  -0.644801;0.410443;0.644801;,
  -0.911886;0.410443;0.000000;,
  -0.644801;0.410443;-0.644801;,
  0.988493;0.151265;0.000000;,
  0.698970;0.151265;-0.698970;,
  0.698970;0.151265;0.698970;,
  0.000000;0.151265;-0.988493;,
  0.000000;0.151265;0.988493;,
  -0.698970;0.151265;-0.698970;,
  -0.698970;0.151265;0.698970;,
  -0.988493;0.151265;0.000000;,
  0.000000;-0.121869;-0.992546;,
  0.096685;-0.074189;-0.992546;,
  -0.096685;0.074189;-0.992546;,
  0.110896;0.050538;-0.992546;,
  -0.110896;-0.050538;-0.992546;,
  0.000000;-0.121869;0.992546;,
  0.096685;-0.074189;0.992546;,
  -0.096685;0.074189;0.992546;,
  0.110896;0.050538;0.992546;,
  -0.110896;-0.050538;0.992546;,
  -0.984055;-0.121869;-0.129553;,
  -0.971435;-0.074189;-0.225411;,
  -0.996675;0.074189;-0.033695;,
  -0.969580;0.050538;-0.239501;,
  -0.998530;-0.050538;-0.019606;,
  0.984055;-0.121869;-0.129553;,
  0.971435;-0.074189;-0.225411;,
  0.996675;0.074189;-0.033695;,
  0.969580;0.050538;-0.239501;,
  0.998530;-0.050538;-0.019606;;
  68;
  3;8,8,8;,
  3;8,8,8;,
  3;8,8,8;,
  3;8,8,8;,
  3;8,8,8;,
  3;8,8,8;,
  3;8,8,8;,
  3;8,8,8;,
  4;9,34,35,10;,
  4;9,10,1,2;,
  4;9,2,3,11;,
  4;9,11,36,34;,
  4;10,35,37,12;,
  4;10,12,0,1;,
  4;11,3,4,13;,
  4;11,13,38,36;,
  4;12,37,39,14;,
  4;12,14,7,0;,
  4;13,4,5,15;,
  4;13,15,40,38;,
  4;14,39,41,16;,
  4;14,16,6,7;,
  4;15,5,6,16;,
  4;15,16,41,40;,
  4;17,18,1,0;,
  4;18,19,2,1;,
  4;19,20,3,2;,
  4;20,21,4,3;,
  4;21,22,5,4;,
  4;22,23,6,5;,
  4;23,24,7,6;,
  4;24,17,0,7;,
  4;26,27,18,17;,
  3;25,25,25;,
  4;27,28,19,18;,
  3;25,25,25;,
  4;28,29,20,19;,
  3;25,25,25;,
  4;29,30,21,20;,
  3;25,25,25;,
  4;30,31,22,21;,
  3;25,25,25;,
  4;31,32,23,22;,
  3;25,25,25;,
  4;32,33,24,23;,
  3;25,25,25;,
  4;33,26,17,24;,
  3;25,25,25;,
  4;42,42,42,42;,
  4;43,43,43,43;,
  4;44,44,44,44;,
  4;45,45,45,45;,
  4;46,46,46,46;,
  4;47,47,47,47;,
  4;48,48,48,48;,
  4;49,49,49,49;,
  4;50,50,50,50;,
  4;51,51,51,51;,
  4;52,52,52,52;,
  4;53,53,53,53;,
  4;54,54,54,54;,
  4;55,55,55,55;,
  4;56,56,56,56;,
  4;57,57,57,57;,
  4;58,58,58,58;,
  4;59,59,59,59;,
  4;60,60,60,60;,
  4;61,61,61,61;;
 }
 MeshTextureCoords {
  141;
  0.062500;1.000000;,
  0.000000;1.000000;,
  0.125000;1.000000;,
  0.187500;1.000000;,
  0.250000;1.000000;,
  0.312500;1.000000;,
  0.375000;1.000000;,
  0.437500;1.000000;,
  0.500000;1.000000;,
  0.562500;1.000000;,
  0.625000;1.000000;,
  0.687500;1.000000;,
  0.750000;1.000000;,
  0.812500;1.000000;,
  0.875000;1.000000;,
  0.937500;1.000000;,
  1.000000;1.000000;,
  0.250000;0.650110;,
  0.125000;0.650110;,
  0.125000;0.000000;,
  0.250000;0.000000;,
  0.375000;0.000000;,
  0.375000;0.650110;,
  0.000000;0.650110;,
  0.000000;0.000000;,
  0.500000;0.000000;,
  0.500000;0.650110;,
  1.000000;0.650110;,
  0.875000;0.650110;,
  0.875000;0.000000;,
  1.000000;0.000000;,
  0.625000;0.000000;,
  0.625000;0.650110;,
  0.750000;0.650110;,
  0.750000;0.000000;,
  0.000000;0.000000;,
  0.125000;0.000000;,
  0.250000;0.000000;,
  0.375000;0.000000;,
  0.500000;0.000000;,
  0.625000;0.000000;,
  0.750000;0.000000;,
  0.875000;0.000000;,
  1.000000;0.000000;,
  0.000000;0.000000;,
  0.125000;0.000000;,
  0.062500;0.000000;,
  0.250000;0.000000;,
  0.187500;0.000000;,
  0.375000;0.000000;,
  0.312500;0.000000;,
  0.500000;0.000000;,
  0.437500;0.000000;,
  0.625000;0.000000;,
  0.562500;0.000000;,
  0.750000;0.000000;,
  0.687500;0.000000;,
  0.875000;0.000000;,
  0.812500;0.000000;,
  1.000000;0.000000;,
  0.937500;0.000000;,
  0.000000;0.000000;,
  1.000000;0.000000;,
  1.000000;1.000000;,
  0.000000;1.000000;,
  0.000000;0.000000;,
  1.000000;0.000000;,
  1.000000;1.000000;,
  0.000000;1.000000;,
  0.000000;0.000000;,
  0.000000;1.000000;,
  1.000000;1.000000;,
  1.000000;0.000000;,
  0.000000;0.000000;,
  1.000000;0.000000;,
  1.000000;1.000000;,
  0.000000;1.000000;,
  0.000000;0.000000;,
  0.000000;1.000000;,
  1.000000;1.000000;,
  1.000000;0.000000;,
  0.000000;0.000000;,
  0.000000;1.000000;,
  1.000000;1.000000;,
  1.000000;0.000000;,
  0.000000;0.000000;,
  0.000000;1.000000;,
  1.000000;1.000000;,
  1.000000;0.000000;,
  0.000000;0.000000;,
  1.000000;0.000000;,
  1.000000;1.000000;,
  0.000000;1.000000;,
  0.000000;0.000000;,
  0.000000;1.000000;,
  1.000000;1.000000;,
  1.000000;0.000000;,
  0.000000;0.000000;,
  1.000000;0.000000;,
  1.000000;1.000000;,
  0.000000;1.000000;,
  0.000000;0.000000;,
  1.000000;0.000000;,
  1.000000;1.000000;,
  0.000000;1.000000;,
  0.000000;0.000000;,
  1.000000;0.000000;,
  1.000000;1.000000;,
  0.000000;1.000000;,
  0.000000;0.000000;,
  0.000000;1.000000;,
  1.000000;1.000000;,
  1.000000;0.000000;,
  0.000000;0.000000;,
  1.000000;0.000000;,
  1.000000;1.000000;,
  0.000000;1.000000;,
  0.000000;0.000000;,
  0.000000;1.000000;,
  1.000000;1.000000;,
  1.000000;0.000000;,
  0.000000;0.000000;,
  0.000000;1.000000;,
  1.000000;1.000000;,
  1.000000;0.000000;,
  0.000000;0.000000;,
  0.000000;1.000000;,
  1.000000;1.000000;,
  1.000000;0.000000;,
  0.000000;0.000000;,
  1.000000;0.000000;,
  1.000000;1.000000;,
  0.000000;1.000000;,
  0.000000;0.000000;,
  0.000000;1.000000;,
  1.000000;1.000000;,
  1.000000;0.000000;,
  0.000000;0.000000;,
  1.000000;0.000000;,
  1.000000;1.000000;,
  0.000000;1.000000;;
 }
}
